{
    "goal": {
        "global_pose": {
            "orientation": {
                "w": -0.4816463035849501,
                "x": 0.5182115481033762,
                "y": 0.4908360881923453,
                "z": -0.5084816262002911
            },
            "position": {
                "x": -0.8240239810943604,
                "y": 0.19912469901144506,
                "z": 0.16403168439865112
            }
        },
        "name": "move_to_storage_D"
    },
    "id": "BiTRRT_move_to_storage_D_150",
    "joint_names": [
        "shoulder_pan_joint",
        "shoulder_lift_joint",
        "elbow_joint",
        "wrist_1_joint",
        "wrist_2_joint",
        "wrist_3_joint"
    ],
    "metrics": {
        "cart_traj_len": 4.010751316729659,
        "distance_elbow_joint": 4.207857136320314,
        "distance_shoulder_lift_joint": 1.2642955539005067,
        "distance_shoulder_pan_joint": 2.8141049897611565,
        "distance_wrist_1_joint": 5.379041206261747,
        "distance_wrist_2_joint": 5.784350077195553,
        "distance_wrist_3_joint": 3.7236517898911385,
        "smoothness": 0.25720784912161326,
        "time": 0.12619982800000001,
        "traj_len": 4.813865468968823,
        "weighted_distance": 6.464054116154196
    },
    "planner": "BiTRRT",
    "start": {
        "state": {
            "elbow_joint": -2.384821988534728,
            "shoulder_lift_joint": -2.2788054721415256,
            "shoulder_pan_joint": -0.1854694642142757,
            "wrist_1_joint": 1.4845938289331202,
            "wrist_2_joint": 0.17898776772866878,
            "wrist_3_joint": 0.037105688729662994
        }
    },
    "waypoints": [
        {
            "positions": [
                -0.1854694642142757,
                -2.2788054721415256,
                -2.384821988534728,
                1.4845938289331202,
                0.17898776772866878,
                0.037105688729662994
            ]
        },
        {
            "positions": [
                -0.07584927226676783,
                -2.239913376522504,
                -2.360209745102307,
                1.5588433481537485,
                0.06212453455940517,
                0.050939504750946246
            ]
        },
        {
            "positions": [
                0.03377091968074006,
                -2.201021280903482,
                -2.335597501669886,
                1.6330928673743768,
                -0.054738698609858444,
                0.0647733207722295
            ]
        },
        {
            "positions": [
                0.14339111162824794,
                -2.16212918528446,
                -2.3109852582374653,
                1.707342386595005,
                -0.17160193177912206,
                0.07860713679351275
            ]
        },
        {
            "positions": [
                0.25301130357575585,
                -2.1232370896654382,
                -2.286373014805044,
                1.7815919058156333,
                -0.2884651649483857,
                0.09244095281479599
            ]
        },
        {
            "positions": [
                0.3626314955232637,
                -2.0843449940464165,
                -2.2617607713726233,
                1.8558414250362616,
                -0.4053283981176493,
                0.10627476883607924
            ]
        },
        {
            "positions": [
                0.4722516874707716,
                -2.0454528984273948,
                -2.237148527940202,
                1.9300909442568899,
                -0.5221916312869129,
                0.12010858485736249
            ]
        },
        {
            "positions": [
                0.5818718794182794,
                -2.006560802808373,
                -2.2125362845077814,
                2.004340463477518,
                -0.6390548644561765,
                0.13394240087864573
            ]
        },
        {
            "positions": [
                0.6914920713657874,
                -1.9676687071893513,
                -2.18792404107536,
                2.0785899826981464,
                -0.7559180976254402,
                0.14777621689992898
            ]
        },
        {
            "positions": [
                0.8011122633132952,
                -1.9287766115703293,
                -2.1633117976429395,
                2.1528395019187747,
                -0.8727813307947038,
                0.16161003292121223
            ]
        },
        {
            "positions": [
                0.910732455260803,
                -1.8898845159513076,
                -2.1386995542105183,
                2.227089021139403,
                -0.9896445639639674,
                0.17544384894249548
            ]
        },
        {
            "positions": [
                1.020352647208311,
                -1.8509924203322856,
                -2.1140873107780975,
                2.3013385403600313,
                -1.106507797133231,
                0.18927766496377874
            ]
        },
        {
            "positions": [
                1.1299728391558188,
                -1.8121003247132639,
                -2.089475067345677,
                2.3755880595806596,
                -1.2233710303024945,
                0.203111480985062
            ]
        },
        {
            "positions": [
                1.2395930311033267,
                -1.7732082290942421,
                -2.0648628239132556,
                2.449837578801288,
                -1.3402342634717583,
                0.21694529700634524
            ]
        },
        {
            "positions": [
                1.3492132230508345,
                -1.7343161334752204,
                -2.040250580480835,
                2.524087098021916,
                -1.4570974966410217,
                0.23077911302762846
            ]
        },
        {
            "positions": [
                1.4588334149983426,
                -1.6954240378561984,
                -2.0156383370484137,
                2.5983366172425444,
                -1.5739607298102856,
                0.24461292904891174
            ]
        },
        {
            "positions": [
                1.5684536069458503,
                -1.6565319422371767,
                -1.991026093615993,
                2.6725861364631727,
                -1.690823962979549,
                0.25844674507019494
            ]
        },
        {
            "positions": [
                1.6780737988933583,
                -1.6176398466181547,
                -1.9664138501835717,
                2.746835655683801,
                -1.8076871961488128,
                0.27228056109147825
            ]
        },
        {
            "positions": [
                1.787693990840866,
                -1.578747750999133,
                -1.941801606751151,
                2.8210851749044292,
                -1.9245504293180762,
                0.28611437711276144
            ]
        },
        {
            "positions": [
                1.897314182788374,
                -1.5398556553801113,
                -1.91718936331873,
                2.8953346941250575,
                -2.04141366248734,
                0.29994819313404475
            ]
        },
        {
            "positions": [
                2.0069343747358817,
                -1.5009635597610895,
                -1.892577119886309,
                2.969584213345686,
                -2.1582768956566034,
                0.31378200915532795
            ]
        },
        {
            "positions": [
                2.11655456668339,
                -1.4620714641420676,
                -1.867964876453888,
                3.043833732566314,
                -2.2751401288258672,
                0.32761582517661125
            ]
        },
        {
            "positions": [
                2.1296848476798895,
                -1.4505955270676818,
                -1.7733238501913375,
                2.9458901094219923,
                -2.1897498165017386,
                0.23958655201137563
            ]
        },
        {
            "positions": [
                2.1428151286763892,
                -1.4391195899932958,
                -1.6786828239287868,
                2.84794648627767,
                -2.10435950417761,
                0.15155727884614
            ]
        },
        {
            "positions": [
                2.155945409672889,
                -1.42764365291891,
                -1.5840417976662362,
                2.750002863133348,
                -2.0189691918534813,
                0.06352800568090439
            ]
        },
        {
            "positions": [
                2.169075690669389,
                -1.416167715844524,
                -1.4894007714036857,
                2.6520592399890264,
                -1.9335788795293527,
                -0.024501267484331235
            ]
        },
        {
            "positions": [
                2.182205971665889,
                -1.4046917787701383,
                -1.3947597451411349,
                2.5541156168447046,
                -1.848188567205224,
                -0.11253054064956686
            ]
        },
        {
            "positions": [
                2.1953362526623885,
                -1.3932158416957523,
                -1.300118718878584,
                2.4561719937003823,
                -1.7627982548810954,
                -0.20055981381480248
            ]
        },
        {
            "positions": [
                2.2084665336588882,
                -1.3817399046213665,
                -1.2054776926160335,
                2.3582283705560605,
                -1.6774079425569668,
                -0.28858908698003816
            ]
        },
        {
            "positions": [
                2.221596814655388,
                -1.3702639675469808,
                -1.110836666353483,
                2.2602847474117382,
                -1.5920176302328382,
                -0.3766183601452737
            ]
        },
        {
            "positions": [
                2.2347270956518877,
                -1.3587880304725948,
                -1.0161956400909322,
                2.1623411242674164,
                -1.5066273179087093,
                -0.4646476333105094
            ]
        },
        {
            "positions": [
                2.2478573766483874,
                -1.347312093398209,
                -0.9215546138283818,
                2.0643975011230946,
                -1.4212370055845809,
                -0.552676906475745
            ]
        },
        {
            "positions": [
                2.260987657644887,
                -1.335836156323823,
                -0.8269135875658311,
                1.9664538779787726,
                -1.335846693260452,
                -0.6407061796409806
            ]
        },
        {
            "positions": [
                2.2741179386413872,
                -1.3243602192494373,
                -0.7322725613032803,
                1.8685102548344505,
                -1.2504563809363234,
                -0.7287354528062162
            ]
        },
        {
            "positions": [
                2.287248219637887,
                -1.3128842821750513,
                -0.6376315350407298,
                1.7705666316901287,
                -1.1650660686121947,
                -0.8167647259714519
            ]
        },
        {
            "positions": [
                2.3003785006343866,
                -1.3014083451006655,
                -0.542990508778179,
                1.6726230085458067,
                -1.0796757562880661,
                -0.9047939991366876
            ]
        },
        {
            "positions": [
                2.3135087816308864,
                -1.2899324080262795,
                -0.44834948251562823,
                1.5746793854014847,
                -0.9942854439639373,
                -0.9928232723019232
            ]
        },
        {
            "positions": [
                2.326639062627386,
                -1.2784564709518937,
                -0.3537084562530779,
                1.4767357622571629,
                -0.9088951316398088,
                -1.0808525454671587
            ]
        },
        {
            "positions": [
                2.3397693436238858,
                -1.266980533877508,
                -0.2590674299905271,
                1.3787921391128408,
                -0.82350481931568,
                -1.1688818186323944
            ]
        },
        {
            "positions": [
                2.3528996246203855,
                -1.255504596803122,
                -0.16442640372797634,
                1.2808485159685188,
                -0.7381145069915513,
                -1.25691109179763
            ]
        },
        {
            "positions": [
                2.366029905616885,
                -1.2440286597287362,
                -0.06978537746542579,
                1.182904892824197,
                -0.6527241946674227,
                -1.3449403649628655
            ]
        },
        {
            "positions": [
                2.379160186613385,
                -1.2325527226543502,
                0.02485564879712454,
                1.0849612696798752,
                -0.5673338823432943,
                -1.4329696381281012
            ]
        },
        {
            "positions": [
                2.392290467609885,
                -1.2210767855799645,
                0.11949667505967532,
                0.9870176465355534,
                -0.48194357001916543,
                -1.5209989112933369
            ]
        },
        {
            "positions": [
                2.4054207486063848,
                -1.2096008485055787,
                0.21413770132222587,
                0.8890740233912311,
                -0.3965532576950368,
                -1.6090281844585725
            ]
        },
        {
            "positions": [
                2.4185510296028845,
                -1.1981249114311927,
                0.30877872758477687,
                0.7911304002469093,
                -0.31116294537090794,
                -1.6970574576238082
            ]
        },
        {
            "positions": [
                2.431681310599384,
                -1.1866489743568067,
                0.4034197538473274,
                0.693186777102587,
                -0.22577263304677953,
                -1.7850867307890437
            ]
        },
        {
            "positions": [
                2.444811591595884,
                -1.175173037282421,
                0.4980607801098784,
                0.5952431539582652,
                -0.14038232072265044,
                -1.8731160039542796
            ]
        },
        {
            "positions": [
                2.4579418725923836,
                -1.1636971002080352,
                0.5927018063724285,
                0.4972995308139434,
                -0.05499200839852225,
                -1.961145277119515
            ]
        },
        {
            "positions": [
                2.4710721535888833,
                -1.1522211631336492,
                0.6873428326349791,
                0.3993559076696216,
                0.030398303925606385,
                -2.0491745502847505
            ]
        },
        {
            "positions": [
                2.4842024345853835,
                -1.1407452260592634,
                0.7819838588975301,
                0.30141228452529933,
                0.11578861624973502,
                -2.1372038234499864
            ]
        },
        {
            "positions": [
                2.497332715581883,
                -1.1292692889848774,
                0.8766248851600806,
                0.20346866138097752,
                0.2011789285738641,
                -2.225233096615222
            ]
        },
        {
            "positions": [
                2.510462996578383,
                -1.1177933519104917,
                0.9712659114226316,
                0.10552503823665527,
                0.28656924089799274,
                -2.3132623697804577
            ]
        },
        {
            "positions": [
                2.5235932775748826,
                -1.1063174148361057,
                1.0659069376851817,
                0.0075814150923338985,
                0.37195955322212093,
                -2.401291642945693
            ]
        },
        {
            "positions": [
                2.5367235585713823,
                -1.09484147776172,
                1.1605479639477323,
                -0.09036220805198836,
                0.45734986554624957,
                -2.4893209161109286
            ]
        },
        {
            "positions": [
                2.549853839567882,
                -1.0833655406873341,
                1.2551889902102833,
                -0.18830583119631017,
                0.5427401778703786,
                -2.5773501892761645
            ]
        },
        {
            "positions": [
                2.5629841205643817,
                -1.0718896036129482,
                1.3498300164728338,
                -0.2862494543406324,
                0.6281304901945073,
                -2.6653794624414
            ]
        },
        {
            "positions": [
                2.576114401560882,
                -1.0604136665385624,
                1.4444710427353844,
                -0.38419307748495424,
                0.7135208025186359,
                -2.753408735606636
            ]
        },
        {
            "positions": [
                2.5892446825573816,
                -1.0489377294641764,
                1.5391120689979354,
                -0.4821367006292765,
                0.7989111148427646,
                -2.8414380087718714
            ]
        },
        {
            "positions": [
                2.6023749635538813,
                -1.0374617923897906,
                1.6337530952604855,
                -0.5800803237735979,
                0.8843014271668932,
                -2.929467281937107
            ]
        },
        {
            "positions": [
                2.615505244550381,
                -1.0259858553154046,
                1.7283941215230365,
                -0.6780239469179201,
                0.9696917394910218,
                -3.0174965551023423
            ]
        },
        {
            "positions": [
                2.6286355255468807,
                -1.0145099182410189,
                1.8230351477855868,
                -0.7759675700622418,
                1.0550820518151502,
                -3.105525828267578
            ]
        }
    ]
}