{
    "goal": {
        "global_pose": {
            "orientation": {
                "w": 0.7047431468963623,
                "x": -0.7094548344612122,
                "y": 0.0024358443915843964,
                "z": -0.0022348060738295317
            },
            "position": {
                "x": 0.6094750761985779,
                "y": 0.3671506643295288,
                "z": 0.19426114857196808
            }
        },
        "name": "move_to_magneteinheit_A"
    },
    "id": "BiTRRT_move_to_magneteinheit_A_40",
    "joint_names": [
        "shoulder_pan_joint",
        "shoulder_lift_joint",
        "elbow_joint",
        "wrist_1_joint",
        "wrist_2_joint",
        "wrist_3_joint"
    ],
    "metrics": {
        "cart_traj_len": 3.317566222281011,
        "distance_elbow_joint": 3.873445283024843,
        "distance_shoulder_lift_joint": 1.0648794796916403,
        "distance_shoulder_pan_joint": 2.5772178043518226,
        "distance_wrist_1_joint": 2.32682269322392,
        "distance_wrist_2_joint": 1.6960538840211898,
        "distance_wrist_3_joint": 2.5773071240527345,
        "smoothness": 0.16375458393644954,
        "time": 0.12066627199999999,
        "traj_len": 3.757090133117137,
        "weighted_distance": 4.826304703778734
    },
    "planner": "BiTRRT",
    "start": {
        "state": {
            "elbow_joint": -1.9196185241190666,
            "shoulder_lift_joint": -1.2443396400964142,
            "shoulder_pan_joint": 2.6996025414629847,
            "wrist_1_joint": -1.5485510000780065,
            "wrist_2_joint": -1.5709468930060704,
            "wrist_3_joint": 0.4420197071253992
        }
    },
    "waypoints": [
        {
            "positions": [
                2.6996025414629847,
                -1.2443396400964142,
                -1.9196185241190666,
                -1.5485510000780065,
                -1.5709468930060704,
                0.4420197071253992
            ]
        },
        {
            "positions": [
                2.5937419867246527,
                -1.2175086576045953,
                -1.8485320714119704,
                -1.4764154243843515,
                -1.5232610443304,
                0.5016839463764841
            ]
        },
        {
            "positions": [
                2.487881431986321,
                -1.1906776751127766,
                -1.7774456187048742,
                -1.4042798486906964,
                -1.4755751956547296,
                0.5613481856275688
            ]
        },
        {
            "positions": [
                2.382020877247989,
                -1.1638466926209576,
                -1.706359165997778,
                -1.3321442729970414,
                -1.4278893469790594,
                0.6210124248786537
            ]
        },
        {
            "positions": [
                2.2761603225096576,
                -1.137015710129139,
                -1.6352727132906817,
                -1.2600086973033862,
                -1.380203498303389,
                0.6806766641297386
            ]
        },
        {
            "positions": [
                2.1702997677713256,
                -1.11018472763732,
                -1.5641862605835857,
                -1.1878731216097311,
                -1.3325176496277187,
                0.7403409033808234
            ]
        },
        {
            "positions": [
                2.064439213032994,
                -1.0833537451455013,
                -1.4930998078764894,
                -1.115737545916076,
                -1.2848318009520483,
                0.8000051426319081
            ]
        },
        {
            "positions": [
                1.958578658294662,
                -1.0565227626536824,
                -1.4220133551693932,
                -1.043601970222421,
                -1.237145952276378,
                0.859669381882993
            ]
        },
        {
            "positions": [
                1.8527181035563303,
                -1.0296917801618637,
                -1.3509269024622967,
                -0.9714663945287659,
                -1.1894601036007075,
                0.9193336211340779
            ]
        },
        {
            "positions": [
                1.7468575488179985,
                -1.0028607976700448,
                -1.2798404497552007,
                -0.8993308188351108,
                -1.1417742549250374,
                0.9789978603851628
            ]
        },
        {
            "positions": [
                1.6409969940796667,
                -0.976029815178226,
                -1.2087539970481045,
                -0.8271952431414559,
                -1.094088406249367,
                1.0386620996362477
            ]
        },
        {
            "positions": [
                1.535136439341335,
                -0.9491988326864071,
                -1.1376675443410083,
                -0.7550596674478007,
                -1.0464025575736966,
                1.0983263388873326
            ]
        },
        {
            "positions": [
                1.4292758846030031,
                -0.9223678501945883,
                -1.0665810916339122,
                -0.6829240917541457,
                -0.9987167088980263,
                1.1579905781384172
            ]
        },
        {
            "positions": [
                1.3234153298646714,
                -0.8955368677027695,
                -0.9954946389268158,
                -0.6107885160604906,
                -0.9510308602223558,
                1.2176548173895023
            ]
        },
        {
            "positions": [
                1.2175547751263396,
                -0.8687058852109507,
                -0.9244081862197197,
                -0.5386529403668356,
                -0.9033450115466856,
                1.277319056640587
            ]
        },
        {
            "positions": [
                1.1116942203880078,
                -0.8418749027191319,
                -0.8533217335126235,
                -0.4665173646731806,
                -0.8556591628710153,
                1.3369832958916716
            ]
        },
        {
            "positions": [
                1.0058336656496758,
                -0.815043920227313,
                -0.7822352808055271,
                -0.39438178897952536,
                -0.8079733141953449,
                1.3966475351427565
            ]
        },
        {
            "positions": [
                0.8999731109113442,
                -0.7882129377354943,
                -0.711148828098431,
                -0.32224621328587033,
                -0.7602874655196745,
                1.4563117743938414
            ]
        },
        {
            "positions": [
                0.7941125561730122,
                -0.7613819552436754,
                -0.6400623753913346,
                -0.2501106375922151,
                -0.7126016168440041,
                1.5159760136449263
            ]
        },
        {
            "positions": [
                0.6882520014346807,
                -0.7345509727518565,
                -0.5689759226842386,
                -0.17797506189856005,
                -0.6649157681683339,
                1.5756402528960112
            ]
        },
        {
            "positions": [
                0.5823914466963487,
                -0.7077199902600377,
                -0.49788946997714234,
                -0.10583948620490524,
                -0.6172299194926636,
                1.635304492147096
            ]
        },
        {
            "positions": [
                0.4765308919580167,
                -0.6808890077682189,
                -0.4268030172700461,
                -0.03370391051124999,
                -0.5695440708169932,
                1.694968731398181
            ]
        },
        {
            "positions": [
                0.370670337219685,
                -0.6540580252764001,
                -0.35571656456295,
                0.03843166518240508,
                -0.5218582221413227,
                1.7546329706492658
            ]
        },
        {
            "positions": [
                0.3533869522808099,
                -0.6769854730219377,
                -0.2044428640245607,
                -0.010097368558316888,
                -0.4776596656332091,
                1.8285000228679464
            ]
        },
        {
            "positions": [
                0.33610356734193475,
                -0.6999129207674754,
                -0.0531691634861714,
                -0.05862640229903886,
                -0.43346110912509545,
                1.9023670750866268
            ]
        },
        {
            "positions": [
                0.31882018240305965,
                -0.7228403685130129,
                0.09810453705221789,
                -0.10715543603976084,
                -0.38926255261698184,
                1.9762341273053075
            ]
        },
        {
            "positions": [
                0.3015367974641845,
                -0.7457678162585505,
                0.24937823759060718,
                -0.15568446978048278,
                -0.3450639961088682,
                2.050101179523988
            ]
        },
        {
            "positions": [
                0.2842534125253094,
                -0.768695264004088,
                0.40065193812899647,
                -0.20421350352120482,
                -0.30086543960075457,
                2.1239682317426682
            ]
        },
        {
            "positions": [
                0.2669700275864343,
                -0.7916227117496257,
                0.5519256386673858,
                -0.25274253726192675,
                -0.25666688309264096,
                2.197835283961349
            ]
        },
        {
            "positions": [
                0.24968664264755913,
                -0.8145501594951633,
                0.703199339205775,
                -0.30127157100264873,
                -0.21246832658452727,
                2.2717023361800295
            ]
        },
        {
            "positions": [
                0.23811913853995575,
                -0.8426236847838601,
                0.8625460791815871,
                -0.35618061708133997,
                -0.1714945950515075,
                2.35121669665096
            ]
        },
        {
            "positions": [
                0.22655163443235238,
                -0.8706972100725568,
                1.021892819157399,
                -0.4110896631600312,
                -0.13052086351848768,
                2.43073105712189
            ]
        },
        {
            "positions": [
                0.214984130324749,
                -0.8987707353612536,
                1.1812395591332112,
                -0.46599870923872244,
                -0.0895471319854679,
                2.51024541759282
            ]
        },
        {
            "positions": [
                0.20341662621714562,
                -0.9268442606499504,
                1.3405862991090234,
                -0.5209077553174137,
                -0.04857340045244812,
                2.5897597780637507
            ]
        },
        {
            "positions": [
                0.19184912210954225,
                -0.9549177859386472,
                1.4999330390848353,
                -0.5758168013961049,
                -0.007599668919428315,
                2.669274138534681
            ]
        },
        {
            "positions": [
                0.18028161800193887,
                -0.982991311227344,
                1.6592797790606475,
                -0.6307258474747962,
                0.033374062613591465,
                2.7487884990056113
            ]
        },
        {
            "positions": [
                0.16098265770501324,
                -1.0315461708675715,
                1.7574621056756903,
                -0.6542866859102319,
                0.06395170541410089,
                2.838967943063119
            ]
        },
        {
            "positions": [
                0.14168369740808764,
                -1.080101030507799,
                1.8556444322907333,
                -0.6778475243456675,
                0.09452934821461033,
                2.929147387120626
            ]
        },
        {
            "positions": [
                0.12238473711116202,
                -1.1286558901480264,
                1.953826758905776,
                -0.7014083627811032,
                0.12510699101511977,
                3.019326831178134
            ]
        }
    ]
}