{
    "goal": {
        "global_pose": {
            "orientation": {
                "w": -0.00223480608172531,
                "x": 0.0024358444001904467,
                "y": 0.7094548369677653,
                "z": -0.704743149386269
            },
            "position": {
                "x": -0.37947507619857795,
                "y": -0.6371506643295288,
                "z": 0.19426114857196808
            }
        },
        "name": "move_to_magneteinheit_C"
    },
    "id": "BiTRRT_move_to_magneteinheit_C_147",
    "joint_names": [
        "shoulder_pan_joint",
        "shoulder_lift_joint",
        "elbow_joint",
        "wrist_1_joint",
        "wrist_2_joint",
        "wrist_3_joint"
    ],
    "metrics": {
        "cart_traj_len": 1.196437300817801,
        "distance_elbow_joint": 0.5671628913307409,
        "distance_shoulder_lift_joint": 0.3110278684038017,
        "distance_shoulder_pan_joint": 1.7538948525075606,
        "distance_wrist_1_joint": 2.3376778886634,
        "distance_wrist_2_joint": 4.16095934528941,
        "distance_wrist_3_joint": 13.10897924732227,
        "smoothness": 0.6729306343853679,
        "time": 0.198560505,
        "traj_len": 4.7158988637922645,
        "weighted_distance": 7.413251501339646
    },
    "planner": "BiTRRT",
    "start": {
        "state": {
            "elbow_joint": 1.9565354010623817,
            "shoulder_lift_joint": -1.4165861575791021,
            "shoulder_pan_joint": -1.6717766225146293,
            "wrist_1_joint": -0.5286633292919765,
            "wrist_2_joint": 1.472756589071564,
            "wrist_3_joint": -3.1238370188695823
        }
    },
    "waypoints": [
        {
            "positions": [
                -1.6717766225146293,
                -1.4165861575791021,
                1.9565354010623817,
                -0.5286633292919765,
                1.472756589071564,
                -3.1238370188695823
            ]
        },
        {
            "positions": [
                -1.6589305327257766,
                -1.3975057022170603,
                1.965954429992297,
                -0.5393858146811377,
                1.4031141273748637,
                -3.1180186476225025
            ]
        },
        {
            "positions": [
                -1.6489492165854482,
                -1.4072559024682465,
                2.027129324925761,
                -0.560551085968271,
                1.2655341469804864,
                -3.069910059330265
            ]
        },
        {
            "positions": [
                -1.6389679004451196,
                -1.4170061027194325,
                2.088304219859225,
                -0.5817163572554044,
                1.127954166586109,
                -3.021801471038027
            ]
        },
        {
            "positions": [
                -1.6289865843047913,
                -1.4267563029706187,
                2.1494791147926886,
                -0.6028816285425377,
                0.9903741861917317,
                -2.9736928827457896
            ]
        },
        {
            "positions": [
                -1.674659516028055,
                -1.4191497799712545,
                2.1536650164120656,
                -0.5665267327347743,
                0.9188861697979581,
                -2.7453993193713973
            ]
        },
        {
            "positions": [
                -1.7203324477513187,
                -1.41154325697189,
                2.1578509180314427,
                -0.5301718369270108,
                0.8473981534041845,
                -2.517105755997005
            ]
        },
        {
            "positions": [
                -1.7660053794745825,
                -1.4039367339725257,
                2.1620368196508197,
                -0.49381694111924734,
                0.7759101370104109,
                -2.2888121926226126
            ]
        },
        {
            "positions": [
                -1.811678311197846,
                -1.3963302109731615,
                2.166222721270197,
                -0.45746204531148393,
                0.7044221206166372,
                -2.0605186292482207
            ]
        },
        {
            "positions": [
                -1.8573512429211099,
                -1.3887236879737972,
                2.1704086228895743,
                -0.42110714950372047,
                0.6329341042228637,
                -1.8322250658738282
            ]
        },
        {
            "positions": [
                -1.9030241746443735,
                -1.381117164974433,
                2.1745945245089513,
                -0.38475225369595706,
                0.5614460878290901,
                -1.6039315024994358
            ]
        },
        {
            "positions": [
                -1.9486971063676373,
                -1.3735106419750684,
                2.1787804261283283,
                -0.3483973578881936,
                0.48995807143531644,
                -1.3756379391250435
            ]
        },
        {
            "positions": [
                -1.9943700380909009,
                -1.3659041189757042,
                2.1829663277477054,
                -0.3120424620804302,
                0.4184700550415429,
                -1.1473443757506514
            ]
        },
        {
            "positions": [
                -2.0400429698141647,
                -1.35829759597634,
                2.1871522293670824,
                -0.27568756627266666,
                0.3469820386477692,
                -0.9190508123762586
            ]
        },
        {
            "positions": [
                -2.0857159015374283,
                -1.3506910729769754,
                2.1913381309864595,
                -0.23933267046490325,
                0.27549402225399566,
                -0.6907572490018667
            ]
        },
        {
            "positions": [
                -2.131388833260692,
                -1.3430845499776112,
                2.195524032605837,
                -0.20297777465713984,
                0.204006005860222,
                -0.4624636856274744
            ]
        },
        {
            "positions": [
                -2.177061764983956,
                -1.335478026978247,
                2.199709934225214,
                -0.16662287884937643,
                0.13251798946644844,
                -0.2341701222530821
            ]
        },
        {
            "positions": [
                -2.2227346967072195,
                -1.3278715039788827,
                2.203895835844591,
                -0.1302679830416129,
                0.06102997307267477,
                -0.005876558878689764
            ]
        },
        {
            "positions": [
                -2.268407628430483,
                -1.3202649809795184,
                2.208081737463968,
                -0.0939130872338495,
                -0.010458043321098787,
                0.22241700449570256
            ]
        },
        {
            "positions": [
                -2.314080560153747,
                -1.312658457980154,
                2.212267639083345,
                -0.05755819142608609,
                -0.08194605971487245,
                0.4507105678700949
            ]
        },
        {
            "positions": [
                -2.3597534918770107,
                -1.3050519349807896,
                2.216453540702722,
                -0.02120329561832268,
                -0.1534340761086459,
                0.6790041312444868
            ]
        },
        {
            "positions": [
                -2.4054264236002743,
                -1.2974454119814254,
                2.220639442322099,
                0.015151600189440728,
                -0.22492209250241957,
                0.9072976946188791
            ]
        },
        {
            "positions": [
                -2.451099355323538,
                -1.289838888982061,
                2.2248253439414767,
                0.05150649599720436,
                -0.29641010889619324,
                1.1355912579932723
            ]
        },
        {
            "positions": [
                -2.496772287046802,
                -1.2822323659826966,
                2.2290112455608537,
                0.08786139180496777,
                -0.3678981252899669,
                1.3638848213676646
            ]
        },
        {
            "positions": [
                -2.5424452187700655,
                -1.2746258429833324,
                2.2331971471802308,
                0.12421628761273118,
                -0.43938614168374035,
                1.592178384742056
            ]
        },
        {
            "positions": [
                -2.588118150493329,
                -1.267019319983968,
                2.237383048799608,
                0.1605711834204946,
                -0.510874158077514,
                1.8204719481164484
            ]
        },
        {
            "positions": [
                -2.633791082216593,
                -1.2594127969846038,
                2.241568950418985,
                0.196926079228258,
                -0.5823621744712877,
                2.0487655114908407
            ]
        },
        {
            "positions": [
                -2.6794640139398567,
                -1.2518062739852394,
                2.245754852038362,
                0.2332809750360214,
                -0.6538501908650611,
                2.277059074865233
            ]
        },
        {
            "positions": [
                -2.7251369456631203,
                -1.244199750985875,
                2.249940753657739,
                0.2696358708437848,
                -0.7253382072588348,
                2.5053526382396254
            ]
        },
        {
            "positions": [
                -2.770809877386384,
                -1.2365932279865108,
                2.2541266552771164,
                0.30599076665154845,
                -0.7968262236526085,
                2.7336462016140177
            ]
        },
        {
            "positions": [
                -2.8164828091096474,
                -1.2289867049871464,
                2.2583125568964935,
                0.34234566245931186,
                -0.8683142400463821,
                2.96193976498841
            ]
        },
        {
            "positions": [
                -2.8621557408329115,
                -1.221380181987782,
                2.2624984585158705,
                0.37870055826707527,
                -0.9398022564401556,
                3.1902333283628024
            ]
        },
        {
            "positions": [
                -2.907828672556175,
                -1.2137736589884178,
                2.2666843601352475,
                0.4150554540748388,
                -1.011290272833929,
                3.4185268917371947
            ]
        },
        {
            "positions": [
                -2.891203183092854,
                -1.2118615755920332,
                2.25679920889456,
                0.36715074227501326,
                -0.9467936388576246,
                3.165964763401983
            ]
        },
        {
            "positions": [
                -2.8745776936295337,
                -1.2099494921956486,
                2.2469140576538726,
                0.3192460304751878,
                -0.8822970048813201,
                2.913402635066772
            ]
        },
        {
            "positions": [
                -2.857952204166213,
                -1.208037408799264,
                2.237028906413185,
                0.27134131867536226,
                -0.8178003709050157,
                2.660840506731561
            ]
        },
        {
            "positions": [
                -2.841326714702892,
                -1.2061253254028792,
                2.2271437551724977,
                0.22343660687553676,
                -0.7533037369287112,
                2.4082783783963495
            ]
        },
        {
            "positions": [
                -2.8247012252395716,
                -1.2042132420064946,
                2.21725860393181,
                0.17553189507571124,
                -0.6888071029524068,
                2.155716250061138
            ]
        },
        {
            "positions": [
                -2.8080757357762507,
                -1.20230115861011,
                2.2073734526911224,
                0.12762718327588574,
                -0.6243104689761023,
                1.903154121725927
            ]
        },
        {
            "positions": [
                -2.79145024631293,
                -1.2003890752137254,
                2.197488301450435,
                0.07972247147606026,
                -0.5598138349997981,
                1.6505919933907158
            ]
        },
        {
            "positions": [
                -2.7748247568496094,
                -1.1984769918173408,
                2.1876031502097475,
                0.031817759676234736,
                -0.4953172010234935,
                1.3980298650555043
            ]
        },
        {
            "positions": [
                -2.7581992673862885,
                -1.1965649084209562,
                2.17771799896906,
                -0.016086952123590736,
                -0.4308205670471892,
                1.1454677367202932
            ]
        },
        {
            "positions": [
                -2.7415737779229676,
                -1.1946528250245714,
                2.1678328477283726,
                -0.06399166392341632,
                -0.3663239330708846,
                0.8929056083850817
            ]
        },
        {
            "positions": [
                -2.724948288459647,
                -1.1927407416281868,
                2.157947696487685,
                -0.11189637572324174,
                -0.3018272990945803,
                0.6403434800498706
            ]
        },
        {
            "positions": [
                -2.7083227989963263,
                -1.1908286582318022,
                2.1480625452469977,
                -0.15980108752306732,
                -0.23733066511827572,
                0.3877813517146591
            ]
        },
        {
            "positions": [
                -2.691697309533006,
                -1.1889165748354176,
                2.13817739400631,
                -0.2077057993228928,
                -0.17283403114197138,
                0.13521922337944803
            ]
        },
        {
            "positions": [
                -2.675071820069685,
                -1.187004491439033,
                2.1282922427656223,
                -0.25561051112271826,
                -0.10833739716566704,
                -0.11734290495576305
            ]
        },
        {
            "positions": [
                -2.658446330606364,
                -1.1850924080426484,
                2.118407091524935,
                -0.30351522292254374,
                -0.043840763189362586,
                -0.36990503329097413
            ]
        },
        {
            "positions": [
                -2.6418208411430433,
                -1.1831803246462638,
                2.1085219402842474,
                -0.3514199347223693,
                0.020655870786941977,
                -0.6224671616261861
            ]
        },
        {
            "positions": [
                -2.625195351679723,
                -1.181268241249879,
                2.09863678904356,
                -0.3993246465221948,
                0.08515250476324643,
                -0.8750292899613972
            ]
        },
        {
            "positions": [
                -2.608569862216402,
                -1.1793561578534943,
                2.0887516378028725,
                -0.44722935832202027,
                0.14964913873955066,
                -1.1275914182966082
            ]
        },
        {
            "positions": [
                -2.5919443727530815,
                -1.1774440744571097,
                2.078866486562185,
                -0.49513407012184574,
                0.2141457727158551,
                -1.3801535466318193
            ]
        },
        {
            "positions": [
                -2.5753188832897607,
                -1.1755319910607251,
                2.0689813353214976,
                -0.5430387819216714,
                0.2786424066921598,
                -1.6327156749670313
            ]
        },
        {
            "positions": [
                -2.55869339382644,
                -1.1736199076643405,
                2.05909618408081,
                -0.5909434937214968,
                0.34313904066846423,
                -1.8852778033022424
            ]
        },
        {
            "positions": [
                -2.5420679043631194,
                -1.171707824267956,
                2.0492110328401223,
                -0.6388482055213223,
                0.40763567464476846,
                -2.1378399316374535
            ]
        },
        {
            "positions": [
                -2.5254424148997985,
                -1.1697957408715711,
                2.039325881599435,
                -0.6867529173211477,
                0.4721323086210729,
                -2.3904020599726645
            ]
        },
        {
            "positions": [
                -2.5088169254364776,
                -1.1678836574751865,
                2.0294407303587474,
                -0.7346576291209734,
                0.5366289425973776,
                -2.6429641883078765
            ]
        },
        {
            "positions": [
                -2.492191435973157,
                -1.165971574078802,
                2.01955557911806,
                -0.7825623409207989,
                0.6011255765736818,
                -2.8955263166430876
            ]
        },
        {
            "positions": [
                -2.4755659465098363,
                -1.1640594906824173,
                2.0096704278773725,
                -0.8304670527206244,
                0.6656222105499864,
                -3.1480884449782987
            ]
        }
    ]
}