{
    "goal": {
        "global_pose": {
            "orientation": {
                "w": 0.5084816262002911,
                "x": -0.4908360881923452,
                "y": 0.5182115481033761,
                "z": -0.48164630358495003
            },
            "position": {
                "x": 0.5540239810943604,
                "y": -0.46912469901144505,
                "z": 0.16403168439865112
            }
        },
        "name": "move_to_storage_B"
    },
    "id": "BiTRRT_move_to_storage_B_147",
    "joint_names": [
        "shoulder_pan_joint",
        "shoulder_lift_joint",
        "elbow_joint",
        "wrist_1_joint",
        "wrist_2_joint",
        "wrist_3_joint"
    ],
    "metrics": {
        "cart_traj_len": 1.1548698614401673,
        "distance_elbow_joint": 1.277572547106307,
        "distance_shoulder_lift_joint": 0.45812752581226523,
        "distance_shoulder_pan_joint": 0.9722390817258789,
        "distance_wrist_1_joint": 2.9805246037345996,
        "distance_wrist_2_joint": 2.704543373497884,
        "distance_wrist_3_joint": 3.1362839048455173,
        "smoothness": 0.17612391352979986,
        "time": 0.065618441,
        "traj_len": 3.3954809728111353,
        "weighted_distance": 4.846331274649512
    },
    "planner": "BiTRRT",
    "start": {
        "state": {
            "elbow_joint": 1.664937868594044,
            "shoulder_lift_joint": -0.661644460510453,
            "shoulder_pan_joint": -0.9139846352900073,
            "wrist_1_joint": 2.146753192139373,
            "wrist_2_joint": -2.2341966793290973,
            "wrist_3_joint": 0.005466555786416001
        }
    },
    "waypoints": [
        {
            "positions": [
                -0.9139846352900073,
                -0.661644460510453,
                1.664937868594044,
                2.146753192139373,
                -2.2341966793290973,
                0.005466555786416001
            ]
        },
        {
            "positions": [
                -0.8319667285000623,
                -0.6676341745297454,
                1.6109692816322585,
                2.133011822375928,
                -2.1775933908095917,
                0.09813734117536523
            ]
        },
        {
            "positions": [
                -0.7927793483743344,
                -0.6840068060515025,
                1.5595584133603624,
                2.0473394742908058,
                -2.076051834951129,
                0.16348472647698797
            ]
        },
        {
            "positions": [
                -0.7535919682486064,
                -0.7003794375732596,
                1.5081475450884663,
                1.9616671262056835,
                -1.9745102790926672,
                0.22883211177861074
            ]
        },
        {
            "positions": [
                -0.7144045881228784,
                -0.7167520690950167,
                1.4567366768165702,
                1.8759947781205615,
                -1.8729687232342047,
                0.2941794970802335
            ]
        },
        {
            "positions": [
                -0.6752172079971506,
                -0.7331247006167738,
                1.4053258085446743,
                1.7903224300354392,
                -1.7714271673757425,
                0.35952688238185626
            ]
        },
        {
            "positions": [
                -0.6360298278714227,
                -0.749497332138531,
                1.353914940272778,
                1.704650081950317,
                -1.6698856115172802,
                0.424874267683479
            ]
        },
        {
            "positions": [
                -0.5968424477456947,
                -0.765869963660288,
                1.302504072000882,
                1.618977733865195,
                -1.5683440556588177,
                0.4902216529851018
            ]
        },
        {
            "positions": [
                -0.5576550676199667,
                -0.7822425951820451,
                1.251093203728986,
                1.5333053857800727,
                -1.4668024998003555,
                0.5555690382867245
            ]
        },
        {
            "positions": [
                -0.5184676874942389,
                -0.7986152267038023,
                1.1996823354570898,
                1.4476330376949504,
                -1.3652609439418932,
                0.6209164235883473
            ]
        },
        {
            "positions": [
                -0.5446823299456075,
                -0.8132132612319348,
                1.2366058360920604,
                1.343932835454488,
                -1.2818242331186804,
                0.7354997889085103
            ]
        },
        {
            "positions": [
                -0.5708969723969762,
                -0.8278112957600673,
                1.273529336727031,
                1.2402326332140252,
                -1.1983875222954679,
                0.8500831542286733
            ]
        },
        {
            "positions": [
                -0.5971116148483449,
                -0.8424093302881999,
                1.3104528373620015,
                1.1365324309735627,
                -1.114950811472255,
                0.9646665195488363
            ]
        },
        {
            "positions": [
                -0.6233262572997136,
                -0.8570073648163324,
                1.347376337996972,
                1.0328322287331,
                -1.0315141006490425,
                1.0792498848689993
            ]
        },
        {
            "positions": [
                -0.6495408997510822,
                -0.871605399344465,
                1.3842998386319427,
                0.9291320264926376,
                -0.9480773898258297,
                1.1938332501891624
            ]
        },
        {
            "positions": [
                -0.6757555422024508,
                -0.8862034338725975,
                1.4212233392669134,
                0.825431824252175,
                -0.864640679002617,
                1.3084166155093253
            ]
        },
        {
            "positions": [
                -0.7019701846538196,
                -0.90080146840073,
                1.458146839901884,
                0.7217316220117124,
                -0.7812039681794042,
                1.4229999808294884
            ]
        },
        {
            "positions": [
                -0.7281848271051882,
                -0.9153995029288626,
                1.4950703405368544,
                0.6180314197712498,
                -0.6977672573561915,
                1.5375833461496513
            ]
        },
        {
            "positions": [
                -0.7543994695565568,
                -0.9299975374569951,
                1.531993841171825,
                0.5143312175307871,
                -0.6143305465329787,
                1.6521667114698144
            ]
        },
        {
            "positions": [
                -0.7806141120079255,
                -0.9445955719851277,
                1.5689173418067957,
                0.41063101529032475,
                -0.5308938357097661,
                1.7667500767899773
            ]
        },
        {
            "positions": [
                -0.8068287544592941,
                -0.9591936065132602,
                1.6058408424417663,
                0.30693081304986203,
                -0.4474571248865533,
                1.8813334421101404
            ]
        },
        {
            "positions": [
                -0.8330433969106628,
                -0.9737916410413927,
                1.642764343076737,
                0.20323061080939953,
                -0.36402041406334074,
                1.9959168074303033
            ]
        },
        {
            "positions": [
                -0.8592580393620315,
                -0.9883896755695254,
                1.6796878437117075,
                0.0995304085689368,
                -0.2805837032401277,
                2.1105001727504664
            ]
        },
        {
            "positions": [
                -0.8854726818134001,
                -1.0029877100976579,
                1.7166113443466782,
                -0.004169793671525701,
                -0.19714699241691513,
                2.2250835380706295
            ]
        },
        {
            "positions": [
                -0.9116873242647687,
                -1.0175857446257903,
                1.7535348449816486,
                -0.1078699959119882,
                -0.11371028159370256,
                2.3396669033907926
            ]
        },
        {
            "positions": [
                -0.9379019667161375,
                -1.032183779153923,
                1.7904583456166192,
                -0.21157019815245093,
                -0.030273570770489755,
                2.4542502687109558
            ]
        },
        {
            "positions": [
                -0.9641166091675061,
                -1.0467818136820555,
                1.8273818462515898,
                -0.31527040039291343,
                0.053163140052723046,
                2.5688336340311184
            ]
        },
        {
            "positions": [
                -0.9903312516188748,
                -1.061379848210188,
                1.8643053468865605,
                -0.41897060263337615,
                0.13659985087593585,
                2.6834169993512815
            ]
        },
        {
            "positions": [
                -1.0165458940702434,
                -1.0759778827383206,
                1.9012288475215309,
                -0.5226708048738387,
                0.22003656169914843,
                2.7980003646714446
            ]
        },
        {
            "positions": [
                -1.042760536521612,
                -1.090575917266453,
                1.9381523481565015,
                -0.6263710071143009,
                0.303473272522361,
                2.9125837299916073
            ]
        },
        {
            "positions": [
                -1.0689751789729809,
                -1.1051739517945858,
                1.9750758487914721,
                -0.7300712093547639,
                0.386909983345574,
                3.0271670953117704
            ]
        },
        {
            "positions": [
                -1.0951898214243494,
                -1.1197719863227182,
                2.0119993494264428,
                -0.8337714115952263,
                0.4703466941687866,
                3.1417504606319335
            ]
        }
    ]
}