{
    "goal": {
        "global_pose": {
            "orientation": {
                "w": -0.00223480608172531,
                "x": 0.0024358444001904467,
                "y": 0.7094548369677653,
                "z": -0.704743149386269
            },
            "position": {
                "x": 0.6205249238014221,
                "y": -0.6371506643295288,
                "z": 0.19426114857196808
            }
        },
        "name": "move_to_magneteinheit_B"
    },
    "id": "BiTRRT_move_to_magneteinheit_B_101",
    "joint_names": [
        "shoulder_pan_joint",
        "shoulder_lift_joint",
        "elbow_joint",
        "wrist_1_joint",
        "wrist_2_joint",
        "wrist_3_joint"
    ],
    "metrics": {
        "cart_traj_len": 3.950161370592021,
        "distance_elbow_joint": 5.819741331380698,
        "distance_shoulder_lift_joint": 1.7015784094691138,
        "distance_shoulder_pan_joint": 3.896530521173897,
        "distance_wrist_1_joint": 2.7370841855789054,
        "distance_wrist_2_joint": 1.860827671676812,
        "distance_wrist_3_joint": 2.8661649914562806,
        "smoothness": 0.9311124963123819,
        "time": 0.300637297,
        "traj_len": 4.3453339469752725,
        "weighted_distance": 5.404828299854121
    },
    "planner": "BiTRRT",
    "start": {
        "state": {
            "elbow_joint": 2.6216224122426386,
            "shoulder_lift_joint": -1.4174107377796124,
            "shoulder_pan_joint": 0.7066234856936794,
            "wrist_1_joint": 1.9546482284002225,
            "wrist_2_joint": -0.7096286983471962,
            "wrist_3_joint": 0.005740856962016249
        }
    },
    "waypoints": [
        {
            "positions": [
                0.7066234856936794,
                -1.4174107377796124,
                2.6216224122426386,
                1.9546482284002225,
                -0.7096286983471962,
                0.005740856962016249
            ]
        },
        {
            "positions": [
                0.5848210738150955,
                -1.4868579916273355,
                2.6381144332806894,
                1.9946700833176498,
                -0.6496472490348448,
                0.048725993428758545
            ]
        },
        {
            "positions": [
                0.46301866193651176,
                -1.5563052454750583,
                2.65460645431874,
                2.034691938235077,
                -0.5896657997224933,
                0.09171112989550084
            ]
        },
        {
            "positions": [
                0.3412162500579279,
                -1.6257524993227814,
                2.671098475356791,
                2.0747137931525046,
                -0.529684350410142,
                0.13469626636224316
            ]
        },
        {
            "positions": [
                0.21941383817934407,
                -1.6951997531705043,
                2.687590496394842,
                2.1147356480699315,
                -0.46970290109779056,
                0.17768140282898545
            ]
        },
        {
            "positions": [
                0.09761142630076014,
                -1.7646470070182274,
                2.7040825174328926,
                2.154757502987359,
                -0.40972145178543906,
                0.22066653929572777
            ]
        },
        {
            "positions": [
                -0.024190985577823593,
                -1.8340942608659505,
                2.7205745384709434,
                2.1947793579047863,
                -0.3497400024730877,
                0.26365167576247006
            ]
        },
        {
            "positions": [
                0.09113648966003554,
                -1.7808390747054605,
                2.7175261393122425,
                2.1003817905619817,
                -0.326038937744628,
                0.19496277890249908
            ]
        },
        {
            "positions": [
                0.20646396489789468,
                -1.7275838885449706,
                2.7144777401535416,
                2.0059842232191767,
                -0.3023378730161684,
                0.1262738820425281
            ]
        },
        {
            "positions": [
                0.3217914401357538,
                -1.6743287023844804,
                2.7114293409948407,
                1.9115866558763719,
                -0.2786368082877087,
                0.057584985182557114
            ]
        },
        {
            "positions": [
                0.4371189153736129,
                -1.6210735162239904,
                2.7083809418361398,
                1.817189088533567,
                -0.2549357435592491,
                -0.011103911677413869
            ]
        },
        {
            "positions": [
                0.552446390611472,
                -1.5678183300635005,
                2.705332542677439,
                1.7227915211907623,
                -0.23123467883078938,
                -0.07979280853738485
            ]
        },
        {
            "positions": [
                0.6677738658493312,
                -1.5145631439030105,
                2.702284143518738,
                1.6283939538479575,
                -0.20753361410232973,
                -0.14848170539735586
            ]
        },
        {
            "positions": [
                0.7139157891987609,
                -1.5170802000735075,
                2.5187992099844614,
                1.5395143332316288,
                -0.18363219692858046,
                -0.12133507602149475
            ]
        },
        {
            "positions": [
                0.7600577125481907,
                -1.5195972562440048,
                2.335314276450185,
                1.4506347126153,
                -0.1597307797548312,
                -0.09418844664563364
            ]
        },
        {
            "positions": [
                0.8061996358976203,
                -1.522114312414502,
                2.151829342915908,
                1.3617550919989714,
                -0.13582936258108189,
                -0.06704181726977253
            ]
        },
        {
            "positions": [
                0.85234155924705,
                -1.524631368584999,
                1.9683444093816314,
                1.2728754713826427,
                -0.11192794540733261,
                -0.039895187893911416
            ]
        },
        {
            "positions": [
                0.9377072035574444,
                -1.5521933100160281,
                1.789143847832799,
                1.2340486002908495,
                -0.1261660796649531,
                0.004861619861497468
            ]
        },
        {
            "positions": [
                1.0230728478678388,
                -1.5797552514470572,
                1.6099432862839667,
                1.1952217291990563,
                -0.14040421392257363,
                0.04961842761690635
            ]
        },
        {
            "positions": [
                1.108438492178233,
                -1.6073171928780865,
                1.430742724735134,
                1.1563948581072632,
                -0.15464234818019412,
                0.09437523537231524
            ]
        },
        {
            "positions": [
                1.1938041364886276,
                -1.6348791343091156,
                1.2515421631863017,
                1.11756798701547,
                -0.16888048243781462,
                0.13913204312772412
            ]
        },
        {
            "positions": [
                1.2791697807990219,
                -1.6624410757401447,
                1.0723416016374692,
                1.0787411159236766,
                -0.18311861669543514,
                0.183888850883133
            ]
        },
        {
            "positions": [
                1.3645354251094162,
                -1.6900030171711737,
                0.8931410400886368,
                1.0399142448318834,
                -0.19735675095305563,
                0.2286456586385419
            ]
        },
        {
            "positions": [
                1.4499010694198107,
                -1.7175649586022028,
                0.7139404785398042,
                1.0010873737400903,
                -0.21159488521067615,
                0.2734024663939508
            ]
        },
        {
            "positions": [
                1.535266713730205,
                -1.7451269000332321,
                0.5347399169909721,
                0.9622605026482971,
                -0.22583301946829665,
                0.3181592741493596
            ]
        },
        {
            "positions": [
                1.6206323580405995,
                -1.7726888414642612,
                0.35553935544213955,
                0.9234336315565039,
                -0.24007115372591714,
                0.36291608190476854
            ]
        },
        {
            "positions": [
                1.7059980023509937,
                -1.8002507828952903,
                0.17633879389330698,
                0.8846067604647107,
                -0.2543092879835377,
                0.40767288966017745
            ]
        },
        {
            "positions": [
                1.791363646661388,
                -1.8278127243263194,
                -0.0028617676555251492,
                0.8457798893729175,
                -0.26854742224115813,
                0.45242969741558625
            ]
        },
        {
            "positions": [
                1.8767292909717825,
                -1.8553746657573487,
                -0.18206232920435772,
                0.8069530182811242,
                -0.2827855564987787,
                0.49718650517099516
            ]
        },
        {
            "positions": [
                1.9620949352821768,
                -1.8829366071883777,
                -0.36126289075318985,
                0.7681261471893311,
                -0.2970236907563991,
                0.541943312926404
            ]
        },
        {
            "positions": [
                2.0474605795925713,
                -1.9104985486194068,
                -0.5404634523020229,
                0.7292992760975379,
                -0.31126182501401967,
                0.586700120681813
            ]
        },
        {
            "positions": [
                2.1328262239029656,
                -1.938060490050436,
                -0.719664013850855,
                0.6904724050057447,
                -0.32549995927164016,
                0.6314569284372218
            ]
        },
        {
            "positions": [
                2.21819186821336,
                -1.965622431481465,
                -0.8988645753996871,
                0.6516455339139515,
                -0.33973809352926065,
                0.6762137361926307
            ]
        },
        {
            "positions": [
                2.3035575125237546,
                -1.9931843729124943,
                -1.0780651369485201,
                0.6128186628221582,
                -0.3539762277868812,
                0.7209705439480396
            ]
        },
        {
            "positions": [
                2.388923156834149,
                -2.020746314343523,
                -1.2572656984973523,
                0.5739917917303651,
                -0.36821436204450164,
                0.7657273517034485
            ]
        },
        {
            "positions": [
                2.474288801144543,
                -2.0483082557745522,
                -1.4364662600461844,
                0.5351649206385719,
                -0.3824524963021222,
                0.8104841594588573
            ]
        },
        {
            "positions": [
                2.559654445454938,
                -2.0758701972055817,
                -1.6156668215950174,
                0.4963380495467786,
                -0.39669063055974274,
                0.8552409672142662
            ]
        },
        {
            "positions": [
                2.6450200897653318,
                -2.103432138636611,
                -1.7948673831438495,
                0.45751117845498546,
                -0.4109287648173632,
                0.8999977749696751
            ]
        },
        {
            "positions": [
                2.7303857340757265,
                -2.13099408006764,
                -1.9740679446926817,
                0.4186843073631923,
                -0.4251668990749836,
                0.944754582725084
            ]
        },
        {
            "positions": [
                2.8157513783861208,
                -2.158556021498669,
                -2.1532685062415147,
                0.379857436271399,
                -0.43940503333260417,
                0.989511390480493
            ]
        },
        {
            "positions": [
                2.901117022696515,
                -2.186117962929698,
                -2.332469067790347,
                0.34103056517960584,
                -0.4536431675902247,
                1.0342681982359019
            ]
        },
        {
            "positions": [
                2.8770762185337095,
                -2.215498857969013,
                -2.2656945079012365,
                0.4053509915145219,
                -0.3615019979348191,
                0.9329311094496276
            ]
        },
        {
            "positions": [
                2.853035414370904,
                -2.2448797530083278,
                -2.198919948012126,
                0.469671417849438,
                -0.26936082827941343,
                0.8315940206633534
            ]
        },
        {
            "positions": [
                2.828994610208098,
                -2.2742606480476426,
                -2.132145388123016,
                0.5339918441843541,
                -0.17721965862400785,
                0.7302569318770791
            ]
        },
        {
            "positions": [
                2.8049538060452925,
                -2.3036415430869575,
                -2.065370828233905,
                0.5983122705192703,
                -0.0850784889686022,
                0.6289198430908048
            ]
        },
        {
            "positions": [
                2.780913001882487,
                -2.333022438126272,
                -1.9985962683447949,
                0.6626326968541862,
                0.00706268068680338,
                0.5275827543045306
            ]
        },
        {
            "positions": [
                2.7568721977196815,
                -2.3624033331655867,
                -1.9318217084556846,
                0.7269531231891024,
                0.09920385034220902,
                0.4262456655182564
            ]
        },
        {
            "positions": [
                2.732831393556876,
                -2.3917842282049016,
                -1.8650471485665743,
                0.7912735495240184,
                0.19134501999761455,
                0.32490857673198215
            ]
        },
        {
            "positions": [
                2.70879058939407,
                -2.4211651232442164,
                -1.798272588677464,
                0.8555939758589346,
                0.2834861896530203,
                0.2235714879457078
            ]
        },
        {
            "positions": [
                2.6847497852312645,
                -2.4505460182835312,
                -1.7314980287883535,
                0.9199144021938507,
                0.37562735930842583,
                0.12223439915943357
            ]
        },
        {
            "positions": [
                2.660708981068459,
                -2.479926913322846,
                -1.6647234688992432,
                0.9842348285287668,
                0.4677685289638315,
                0.02089731037315923
            ]
        }
    ]
}