{
    "goal": {
        "global_pose": {
            "orientation": {
                "w": 0.7031023480610252,
                "x": -0.7110244013736278,
                "y": 0.0077485991402295624,
                "z": 0.005598929693374583
            },
            "position": {
                "x": -0.8841497679147869,
                "y": 0.44412534475326537,
                "z": 0.3711530566215515
            }
        },
        "name": "move_to_auspresseinheit_D"
    },
    "id": "BiTRRT_move_to_auspresseinheit_D_52",
    "joint_names": [
        "shoulder_pan_joint",
        "shoulder_lift_joint",
        "elbow_joint",
        "wrist_1_joint",
        "wrist_2_joint",
        "wrist_3_joint"
    ],
    "metrics": {
        "cart_traj_len": 0.3438510667160394,
        "distance_elbow_joint": 0.6451681467093773,
        "distance_shoulder_lift_joint": 0.1250998670960386,
        "distance_shoulder_pan_joint": 0.13439825257655078,
        "distance_wrist_1_joint": 0.5492417002962728,
        "distance_wrist_2_joint": 1.4356956845840556,
        "distance_wrist_3_joint": 0.01826644235871111,
        "smoothness": 1.9737298371844314e-16,
        "time": 0.055792867999999995,
        "traj_len": 1.705247810032608,
        "weighted_distance": 2.2202117834158877
    },
    "planner": "BiTRRT",
    "start": {
        "state": {
            "elbow_joint": -1.8275523626775212,
            "shoulder_lift_joint": -2.126789852344167,
            "shoulder_pan_joint": -0.03513704404078235,
            "wrist_1_joint": -2.347782403156801,
            "wrist_2_joint": -1.6058999987535132,
            "wrist_3_joint": -3.0880379163319196
        }
    },
    "waypoints": [
        {
            "positions": [
                -0.03513704404078235,
                -2.126789852344167,
                -1.8275523626775212,
                -2.347782403156801,
                -1.6058999987535132,
                -3.0880379163319196
            ]
        },
        {
            "positions": [
                -0.05193682561285119,
                -2.142427335731172,
                -1.746906344338849,
                -2.4164376156938348,
                -1.4264380381805062,
                -3.0857546110370806
            ]
        },
        {
            "positions": [
                -0.06873660718492004,
                -2.1580648191181764,
                -1.666260326000177,
                -2.485092828230869,
                -1.2469760776074992,
                -3.0834713057422416
            ]
        },
        {
            "positions": [
                -0.08553638875698888,
                -2.1737023025051814,
                -1.5856143076615048,
                -2.5537480407679034,
                -1.0675141170344924,
                -3.081188000447403
            ]
        },
        {
            "positions": [
                -0.10233617032905773,
                -2.1893397858921864,
                -1.5049682893228327,
                -2.6224032533049373,
                -0.8880521564614854,
                -3.078904695152564
            ]
        },
        {
            "positions": [
                -0.11913595190112658,
                -2.204977269279191,
                -1.4243222709841605,
                -2.691058465841971,
                -0.7085901958884784,
                -3.076621389857725
            ]
        },
        {
            "positions": [
                -0.13593573347319543,
                -2.220614752666196,
                -1.3436762526454882,
                -2.7597136783790055,
                -0.5291282353154716,
                -3.0743380845628865
            ]
        },
        {
            "positions": [
                -0.15273551504526428,
                -2.2362522360532004,
                -1.263030234306816,
                -2.82836889091604,
                -0.3496662747424646,
                -3.0720547792680475
            ]
        },
        {
            "positions": [
                -0.16953529661733313,
                -2.2518897194402054,
                -1.182384215968144,
                -2.8970241034530737,
                -0.17020431416945767,
                -3.0697714739732085
            ]
        }
    ]
}