{
    "goal": {
        "global_pose": {
            "orientation": {
                "w": 0.7047431493862688,
                "x": -0.7094548369677653,
                "y": 0.0024358444001904,
                "z": -0.0022348060817251984
            },
            "position": {
                "x": -0.39052492380142206,
                "y": 0.3671506643295288,
                "z": 0.19426114857196808
            }
        },
        "name": "move_to_magneteinheit_D"
    },
    "id": "BiTRRT_move_to_magneteinheit_D_8",
    "joint_names": [
        "shoulder_pan_joint",
        "shoulder_lift_joint",
        "elbow_joint",
        "wrist_1_joint",
        "wrist_2_joint",
        "wrist_3_joint"
    ],
    "metrics": {
        "cart_traj_len": 4.154924575851298,
        "distance_elbow_joint": 3.1346737783749803,
        "distance_shoulder_lift_joint": 1.7905630475760128,
        "distance_shoulder_pan_joint": 3.017014095596068,
        "distance_wrist_1_joint": 1.5549118075128263,
        "distance_wrist_2_joint": 0.4305069100403506,
        "distance_wrist_3_joint": 3.1858032191311487,
        "smoothness": 0.16441489813663412,
        "time": 0.138703473,
        "traj_len": 3.621252940382843,
        "weighted_distance": 4.633626874711305
    },
    "planner": "BiTRRT",
    "start": {
        "state": {
            "elbow_joint": 0.749534889911806,
            "shoulder_lift_joint": -0.6476975780787326,
            "shoulder_pan_joint": -2.711696901376241,
            "wrist_1_joint": -0.07506478083263063,
            "wrist_2_joint": 0.43296659715538205,
            "wrist_3_joint": -3.14703540197715
        }
    },
    "waypoints": [
        {
            "positions": [
                -2.711696901376241,
                -0.6476975780787326,
                0.749534889911806,
                -0.07506478083263063,
                0.43296659715538205,
                -3.14703540197715
            ]
        },
        {
            "positions": [
                -2.724615559918074,
                -0.6317526819026118,
                0.6497381919527339,
                -0.005919560050278827,
                0.3817077816445584,
                -3.0758403172480815
            ]
        },
        {
            "positions": [
                -2.7375342184599076,
                -0.6158077857264909,
                0.5499414939936617,
                0.06322566073207297,
                0.33044896613373465,
                -3.0046452325190134
            ]
        },
        {
            "positions": [
                -2.7504528770017407,
                -0.59986288955037,
                0.4501447960345895,
                0.13237088151442478,
                0.27919015062291097,
                -2.933450147789945
            ]
        },
        {
            "positions": [
                -2.763371535543574,
                -0.5839179933742491,
                0.35034809807551737,
                0.20151610229677658,
                0.2279313351120873,
                -2.8622550630608767
            ]
        },
        {
            "positions": [
                -2.7762901940854072,
                -0.5679730971981283,
                0.2505514001164452,
                0.2706613230791284,
                0.17667251960126362,
                -2.791059978331808
            ]
        },
        {
            "positions": [
                -2.777819144303475,
                -0.5825554952521291,
                0.22447904881585046,
                0.2813706029995286,
                0.17623454601932875,
                -2.743681885635955
            ]
        },
        {
            "positions": [
                -2.6640117533294205,
                -0.6400216556279983,
                0.13903966956093056,
                0.31395330652881837,
                0.17904016859345012,
                -2.6422166849054576
            ]
        },
        {
            "positions": [
                -2.550204362355366,
                -0.6974878160038676,
                0.053600290306010656,
                0.3465360100581081,
                0.18184579116757152,
                -2.54075148417496
            ]
        },
        {
            "positions": [
                -2.4363969713813116,
                -0.7549539763797368,
                -0.031839088948909244,
                0.37911871358739785,
                0.1846514137416929,
                -2.4392862834444626
            ]
        },
        {
            "positions": [
                -2.322589580407257,
                -0.812420136755606,
                -0.11727846820382914,
                0.4117014171166876,
                0.18745703631581426,
                -2.3378210827139654
            ]
        },
        {
            "positions": [
                -2.2087821894332027,
                -0.8698862971314751,
                -0.20271784745874905,
                0.4442841206459774,
                0.19026265888993565,
                -2.236355881983468
            ]
        },
        {
            "positions": [
                -2.0949747984591482,
                -0.9273524575073444,
                -0.28815722671366895,
                0.47686682417526716,
                0.19306828146405702,
                -2.1348906812529704
            ]
        },
        {
            "positions": [
                -1.9811674074850938,
                -0.9848186178832137,
                -0.3735966059685889,
                0.5094495277045569,
                0.1958739040381784,
                -2.033425480522473
            ]
        },
        {
            "positions": [
                -1.8673600165110396,
                -1.0422847782590827,
                -0.45903598522350875,
                0.5420322312338466,
                0.19867952661229976,
                -1.9319602797919757
            ]
        },
        {
            "positions": [
                -1.753552625536985,
                -1.0997509386349522,
                -0.5444753644784287,
                0.5746149347631364,
                0.20148514918642116,
                -1.8304950790614782
            ]
        },
        {
            "positions": [
                -1.6397452345629306,
                -1.1572170990108213,
                -0.6299147437333485,
                0.6071976382924262,
                0.20429077176054253,
                -1.729029878330981
            ]
        },
        {
            "positions": [
                -1.5259378435888762,
                -1.2146832593866903,
                -0.7153541229882685,
                0.639780341821716,
                0.2070963943346639,
                -1.6275646776004835
            ]
        },
        {
            "positions": [
                -1.4121304526148217,
                -1.2721494197625596,
                -0.8007935022431883,
                0.6723630453510057,
                0.2099020169087853,
                -1.5260994768699863
            ]
        },
        {
            "positions": [
                -1.2983230616407675,
                -1.3296155801384288,
                -0.8862328814981081,
                0.7049457488802955,
                0.21270763948290666,
                -1.424634276139489
            ]
        },
        {
            "positions": [
                -1.1845156706667128,
                -1.3870817405142981,
                -0.9716722607530283,
                0.7375284524095852,
                0.21551326205702803,
                -1.3231690754089913
            ]
        },
        {
            "positions": [
                -1.0707082796926584,
                -1.4445479008901674,
                -1.0571116400079479,
                0.7701111559388749,
                0.2183188846311494,
                -1.221703874678494
            ]
        },
        {
            "positions": [
                -0.9569008887186041,
                -1.5020140612660364,
                -1.1425510192628678,
                0.8026938594681647,
                0.2211245072052708,
                -1.1202386739479966
            ]
        },
        {
            "positions": [
                -0.8430934977445497,
                -1.5594802216419057,
                -1.2279903985177878,
                0.8352765629974543,
                0.22393012977939217,
                -1.0187734732174993
            ]
        },
        {
            "positions": [
                -0.7292861067704952,
                -1.6169463820177752,
                -1.3134297777727078,
                0.8678592665267442,
                0.22673575235351356,
                -0.9173082724870019
            ]
        },
        {
            "positions": [
                -0.6154787157964408,
                -1.674412542393644,
                -1.3988691570276277,
                0.900441970056034,
                0.22954137492763493,
                -0.8158430717565044
            ]
        },
        {
            "positions": [
                -0.5016713248223863,
                -1.7318787027695133,
                -1.4843085362825477,
                0.9330246735853238,
                0.2323469975017563,
                -0.7143778710260071
            ]
        },
        {
            "positions": [
                -0.38786393384833184,
                -1.7893448631453825,
                -1.5697479155374672,
                0.9656073771146134,
                0.23515262007587767,
                -0.6129126702955099
            ]
        },
        {
            "positions": [
                -0.2740565428742774,
                -1.8468110235212518,
                -1.6551872947923876,
                0.9981900806439032,
                0.23795824264999907,
                -0.5114474695650122
            ]
        },
        {
            "positions": [
                -0.160249151900223,
                -1.9042771838971209,
                -1.740626674047307,
                1.030772784173193,
                0.24076386522412044,
                -0.40998226883451505
            ]
        },
        {
            "positions": [
                -0.11048638796954574,
                -1.9557811439432844,
                -1.8281914523732552,
                1.0847684230459675,
                0.22902868035989754,
                -0.3440303220041876
            ]
        },
        {
            "positions": [
                -0.06072362403886848,
                -2.0072851039894477,
                -1.9157562306992033,
                1.138764061918742,
                0.21729349549567462,
                -0.2780783751738602
            ]
        },
        {
            "positions": [
                -0.03348021457791238,
                -2.0710542387011563,
                -2.0309207195272214,
                1.2129804461870082,
                0.1997164944015411,
                -0.20130804294338187
            ]
        },
        {
            "positions": [
                -0.0062368051169562795,
                -2.134823373412865,
                -2.1460852083552395,
                1.2871968304552743,
                0.18213949330740759,
                -0.12453771071290354
            ]
        },
        {
            "positions": [
                -0.01513445485619939,
                -2.1789731154342644,
                -2.2312671632713186,
                1.3445257679848992,
                0.16750917653043024,
                -0.07533415919751345
            ]
        },
        {
            "positions": [
                -0.0240321045954425,
                -2.223122857455664,
                -2.3164491181873976,
                1.4018547055145238,
                0.15287885975345286,
                -0.026130607682123358
            ]
        },
        {
            "positions": [
                -0.1611471476081629,
                -2.270018759697999,
                -2.375996291167012,
                1.4639237939174565,
                0.17089401853011915,
                0.03419425057630951
            ]
        },
        {
            "positions": [
                -0.18554631859927154,
                -2.2788116638935367,
                -2.385138888463174,
                1.4798470266801957,
                0.17423939398229085,
                0.0387678171539983
            ]
        }
    ]
}