{
    "goal": {
        "global_pose": {
            "orientation": {
                "w": 0.7047431493862688,
                "x": -0.7094548369677653,
                "y": 0.0024358444001904,
                "z": -0.0022348060817251984
            },
            "position": {
                "x": -0.39052492380142206,
                "y": 0.3671506643295288,
                "z": 0.19426114857196808
            }
        },
        "name": "move_to_magneteinheit_D"
    },
    "id": "BiTRRT_move_to_magneteinheit_D_40",
    "joint_names": [
        "shoulder_pan_joint",
        "shoulder_lift_joint",
        "elbow_joint",
        "wrist_1_joint",
        "wrist_2_joint",
        "wrist_3_joint"
    ],
    "metrics": {
        "cart_traj_len": 4.499676236733371,
        "distance_elbow_joint": 3.935072141913433,
        "distance_shoulder_lift_joint": 1.6896104940581325,
        "distance_shoulder_pan_joint": 3.0691586593082296,
        "distance_wrist_1_joint": 1.9136154170532371,
        "distance_wrist_2_joint": 0.7656621273901931,
        "distance_wrist_3_joint": 5.531286159577487,
        "smoothness": 0.5823851786770978,
        "time": 0.161702554,
        "traj_len": 4.111496686037911,
        "weighted_distance": 5.5359059658649485
    },
    "planner": "BiTRRT",
    "start": {
        "state": {
            "elbow_joint": 0.749534889911806,
            "shoulder_lift_joint": -0.6476975780787326,
            "shoulder_pan_joint": -2.711696901376241,
            "wrist_1_joint": -0.07506478083263063,
            "wrist_2_joint": 0.43296659715538205,
            "wrist_3_joint": -3.14703540197715
        }
    },
    "waypoints": [
        {
            "positions": [
                -2.711696901376241,
                -0.6476975780787326,
                0.749534889911806,
                -0.07506478083263063,
                0.43296659715538205,
                -3.14703540197715
            ]
        },
        {
            "positions": [
                -2.7138297001070684,
                -0.7087918862070258,
                0.7281656577824649,
                -0.007946961565604288,
                0.4734240907436852,
                -3.026603867938896
            ]
        },
        {
            "positions": [
                -2.7159624988378956,
                -0.769886194335319,
                0.7067964256531238,
                0.05917085770142205,
                0.5138815843319884,
                -2.906172333900642
            ]
        },
        {
            "positions": [
                -2.7180952975687225,
                -0.8309805024636123,
                0.6854271935237828,
                0.1262886769684484,
                0.5543390779202915,
                -2.7857407998623875
            ]
        },
        {
            "positions": [
                -2.7202280962995498,
                -0.8920748105919055,
                0.6640579613944417,
                0.19340649623547473,
                0.5947965715085947,
                -2.6653092658241335
            ]
        },
        {
            "positions": [
                -2.5951948813840082,
                -0.9003659407181789,
                0.5743382491092661,
                0.20135921133215948,
                0.593939686383,
                -2.5254350228689875
            ]
        },
        {
            "positions": [
                -2.470161666468467,
                -0.9086570708444522,
                0.4846185368240905,
                0.20931192642884422,
                0.5930828012574052,
                -2.385560779913842
            ]
        },
        {
            "positions": [
                -2.3451284515529256,
                -0.9169482009707255,
                0.3948988245389149,
                0.21726464152552896,
                0.5922259161318105,
                -2.245686536958696
            ]
        },
        {
            "positions": [
                -2.220095236637384,
                -0.9252393310969989,
                0.3051791122537393,
                0.2252173566222137,
                0.5913690310062157,
                -2.1058122940035497
            ]
        },
        {
            "positions": [
                -2.0950620217218425,
                -0.9335304612232722,
                0.21545939996856367,
                0.23317007171889845,
                0.5905121458806211,
                -1.9659380510484037
            ]
        },
        {
            "positions": [
                -1.9700288068063012,
                -0.9418215913495456,
                0.12573968768338806,
                0.2411227868155832,
                0.5896552607550263,
                -1.8260638080932579
            ]
        },
        {
            "positions": [
                -1.84499559189076,
                -0.9501127214758189,
                0.036019975398212445,
                0.24907550191226793,
                0.5887983756294316,
                -1.686189565138112
            ]
        },
        {
            "positions": [
                -1.7199623769752184,
                -0.9584038516020923,
                -0.05369973688696317,
                0.2570282170089527,
                0.5879414905038369,
                -1.546315322182966
            ]
        },
        {
            "positions": [
                -1.5949291620596768,
                -0.9666949817283655,
                -0.14341944917213878,
                0.26498093210563745,
                0.5870846053782421,
                -1.40644107922782
            ]
        },
        {
            "positions": [
                -1.4698959471441355,
                -0.9749861118546389,
                -0.2331391614573144,
                0.27293364720232216,
                0.5862277202526475,
                -1.266566836272674
            ]
        },
        {
            "positions": [
                -1.3448627322285942,
                -0.9832772419809123,
                -0.32285887374249,
                0.2808863622990069,
                0.5853708351270527,
                -1.1266925933175282
            ]
        },
        {
            "positions": [
                -1.2198295173130527,
                -0.9915683721071856,
                -0.4125785860276656,
                0.28883907739569165,
                0.584513950001458,
                -0.9868183503623822
            ]
        },
        {
            "positions": [
                -1.0947963023975111,
                -0.9998595022334589,
                -0.5022982983128412,
                0.2967917924923764,
                0.5836570648758632,
                -0.8469441074072361
            ]
        },
        {
            "positions": [
                -0.9697630874819698,
                -1.0081506323597322,
                -0.5920180105980168,
                0.30474450758906113,
                0.5828001797502685,
                -0.7070698644520903
            ]
        },
        {
            "positions": [
                -0.8447298725664285,
                -1.0164417624860056,
                -0.6817377228831925,
                0.31269722268574585,
                0.5819432946246738,
                -0.5671956214969445
            ]
        },
        {
            "positions": [
                -0.7196966576508868,
                -1.024732892612279,
                -0.7714574351683682,
                0.3206499377824306,
                0.5810864094990791,
                -0.4273213785417983
            ]
        },
        {
            "positions": [
                -0.660184610197416,
                -1.088319487036996,
                -0.8767985026885332,
                0.39817820888315614,
                0.5629851966630477,
                -0.36978441645397375
            ]
        },
        {
            "positions": [
                -0.6006725627439453,
                -1.1519060814617132,
                -0.9821395702086982,
                0.4757064799838817,
                0.5448839838270162,
                -0.3122474543661492
            ]
        },
        {
            "positions": [
                -0.5411605152904745,
                -1.2154926758864302,
                -1.0874806377288633,
                0.5532347510846072,
                0.5267827709909847,
                -0.25471049227832465
            ]
        },
        {
            "positions": [
                -0.48164846783700377,
                -1.2790792703111473,
                -1.1928217052490284,
                0.6307630221853328,
                0.5086815581549533,
                -0.1971735301905001
            ]
        },
        {
            "positions": [
                -0.422136420383533,
                -1.3426658647358645,
                -1.2981627727691933,
                0.7082912932860583,
                0.49058034531892186,
                -0.13963656810267555
            ]
        },
        {
            "positions": [
                -0.3626243729300623,
                -1.4062524591605814,
                -1.4035038402893583,
                0.7858195643867838,
                0.4724791324828904,
                -0.082099606014851
            ]
        },
        {
            "positions": [
                -0.3031123254765915,
                -1.4698390535852988,
                -1.5088449078095234,
                0.8633478354875095,
                0.454377919646859,
                -0.02456264392702645
            ]
        },
        {
            "positions": [
                -0.2436002780231208,
                -1.5334256480100157,
                -1.6141859753296885,
                0.940876106588235,
                0.43627670681082753,
                0.0329743181607981
            ]
        },
        {
            "positions": [
                -0.18408823056965007,
                -1.5970122424347328,
                -1.7195270428498535,
                1.0184043776889604,
                0.4181754939747961,
                0.09051128024862265
            ]
        },
        {
            "positions": [
                -0.12457618311617924,
                -1.66059883685945,
                -1.8248681103700184,
                1.095932648789686,
                0.40007428113876464,
                0.1480482423364472
            ]
        },
        {
            "positions": [
                -0.06506413566270852,
                -1.724185431284167,
                -1.9302091778901835,
                1.1734609198904116,
                0.3819730683027332,
                0.20558520442427175
            ]
        },
        {
            "positions": [
                -0.005552088209237815,
                -1.787772025708884,
                -2.0355502454103487,
                1.250989190991137,
                0.36387185546670175,
                0.26312216651209624
            ]
        },
        {
            "positions": [
                0.008178407706864945,
                -1.783090714254706,
                -2.1600284667070473,
                1.32229315951597,
                0.3803953351857758,
                0.4184816413564382
            ]
        },
        {
            "positions": [
                0.021908903622967706,
                -1.7784094028005282,
                -2.284506688003746,
                1.3935971280408028,
                0.39691881490484987,
                0.5738411162007802
            ]
        },
        {
            "positions": [
                0.03563939953907047,
                -1.7737280913463502,
                -2.408984909300444,
                1.4649010965656357,
                0.4134422946239239,
                0.7292005910451222
            ]
        },
        {
            "positions": [
                0.04936989545517323,
                -1.769046779892172,
                -2.5334631305971427,
                1.5362050650904686,
                0.42996577434299793,
                0.8845600658894641
            ]
        },
        {
            "positions": [
                0.06310039137127599,
                -1.7643654684379941,
                -2.6579413518938413,
                1.6075090336153015,
                0.446489254062072,
                1.0399195407338062
            ]
        },
        {
            "positions": [
                0.07683088728737875,
                -1.7596841569838162,
                -2.78241957319054,
                1.6788130021401344,
                0.46301273378114605,
                1.195279015578148
            ]
        },
        {
            "positions": [
                0.04388482718762944,
                -1.8248651791966803,
                -2.7320298633391538,
                1.6588457978800752,
                0.42879191394606564,
                1.0466575478253746
            ]
        },
        {
            "positions": [
                0.010938767087880136,
                -1.8900462014095445,
                -2.681640153487768,
                1.6388785936200163,
                0.3945710941109853,
                0.8980360800726009
            ]
        },
        {
            "positions": [
                -0.02200729301186917,
                -1.9552272236224086,
                -2.631250443636382,
                1.6189113893599574,
                0.36035027427590494,
                0.7494146123198273
            ]
        },
        {
            "positions": [
                -0.054953353111618475,
                -2.020408245835273,
                -2.580860733784996,
                1.5989441850998982,
                0.32612945444082453,
                0.6007931445670538
            ]
        },
        {
            "positions": [
                -0.0878994132113678,
                -2.085589268048137,
                -2.53047102393361,
                1.578976980839839,
                0.2919086346057441,
                0.4521716768142803
            ]
        },
        {
            "positions": [
                -0.12084547331111709,
                -2.150770290261001,
                -2.480081314082224,
                1.5590097765797801,
                0.25768781477066377,
                0.30355020906150665
            ]
        },
        {
            "positions": [
                -0.15379153341086638,
                -2.215951312473865,
                -2.4296916042308383,
                1.5390425723197212,
                0.2234669949355834,
                0.15492874130873302
            ]
        },
        {
            "positions": [
                -0.18673759351061572,
                -2.2811323346867294,
                -2.379301894379452,
                1.519075368059662,
                0.18924617510050298,
                0.006307273555959525
            ]
        }
    ]
}