{
    "goal": {
        "global_pose": {
            "orientation": {
                "w": -0.4816463035849501,
                "x": 0.5182115481033762,
                "y": 0.4908360881923453,
                "z": -0.5084816262002911
            },
            "position": {
                "x": -0.8240239810943604,
                "y": -0.300875300988555,
                "z": 0.16403168439865112
            }
        },
        "name": "move_to_storage_C"
    },
    "id": "BiTRRT_move_to_storage_C_102",
    "joint_names": [
        "shoulder_pan_joint",
        "shoulder_lift_joint",
        "elbow_joint",
        "wrist_1_joint",
        "wrist_2_joint",
        "wrist_3_joint"
    ],
    "metrics": {
        "cart_traj_len": 0.575753897681476,
        "distance_elbow_joint": 0.25513657808524903,
        "distance_shoulder_lift_joint": 0.18876821389693133,
        "distance_shoulder_pan_joint": 0.4943731270201539,
        "distance_wrist_1_joint": 0.06935934750632178,
        "distance_wrist_2_joint": 1.064208415815584,
        "distance_wrist_3_joint": 0.0742066039430318,
        "smoothness": 0.0,
        "time": 0.202516612,
        "traj_len": 1.4649410521475845,
        "weighted_distance": 1.8514948710367094
    },
    "planner": "BiTRRT",
    "start": {
        "state": {
            "elbow_joint": 2.010868314990456,
            "shoulder_lift_joint": -1.1634956873337592,
            "shoulder_pan_joint": -2.4736205022346125,
            "wrist_1_joint": -0.8367026794202681,
            "wrist_2_joint": 0.6746043897044499,
            "wrist_3_joint": -3.1496632123970403
        }
    },
    "waypoints": [
        {
            "positions": [
                -2.4736205022346125,
                -1.1634956873337592,
                2.010868314990456,
                -0.8367026794202681,
                0.6746043897044499,
                -3.1496632123970403
            ]
        },
        {
            "positions": [
                -2.5560160234046383,
                -1.1320343183509374,
                1.9683455519762476,
                -0.8251427881692145,
                0.8519724590070472,
                -3.137295445073202
            ]
        },
        {
            "positions": [
                -2.6384115445746636,
                -1.1005729493681153,
                1.9258227889620394,
                -0.8135828969181609,
                1.0293405283096446,
                -3.124927677749363
            ]
        },
        {
            "positions": [
                -2.7208070657446894,
                -1.0691115803852935,
                1.8833000259478312,
                -0.8020230056671072,
                1.2067085976122418,
                -3.1125599104255244
            ]
        },
        {
            "positions": [
                -2.8032025869147152,
                -1.0376502114024717,
                1.8407772629336232,
                -0.7904631144160535,
                1.3840766669148392,
                -3.100192143101686
            ]
        },
        {
            "positions": [
                -2.8855981080847406,
                -1.0061888424196497,
                1.798254499919415,
                -0.7789032231649999,
                1.5614447362174366,
                -3.087824375777847
            ]
        },
        {
            "positions": [
                -2.9679936292547664,
                -0.9747274734368279,
                1.7557317369052068,
                -0.7673433319139463,
                1.7388128055200338,
                -3.0754566084540085
            ]
        }
    ]
}