{
    "goal": {
        "global_pose": {
            "orientation": {
                "w": -0.00223480608172531,
                "x": 0.0024358444001904467,
                "y": 0.7094548369677653,
                "z": -0.704743149386269
            },
            "position": {
                "x": 0.6205249238014221,
                "y": -0.6371506643295288,
                "z": 0.19426114857196808
            }
        },
        "name": "move_to_magneteinheit_B"
    },
    "id": "BiTRRT_move_to_magneteinheit_B_60",
    "joint_names": [
        "shoulder_pan_joint",
        "shoulder_lift_joint",
        "elbow_joint",
        "wrist_1_joint",
        "wrist_2_joint",
        "wrist_3_joint"
    ],
    "metrics": {
        "cart_traj_len": 5.1151410334196346,
        "distance_elbow_joint": 6.119927385495501,
        "distance_shoulder_lift_joint": 1.9381742394430723,
        "distance_shoulder_pan_joint": 3.420048454535202,
        "distance_wrist_1_joint": 4.393523631967509,
        "distance_wrist_2_joint": 0.986048979341538,
        "distance_wrist_3_joint": 3.8266459474682613,
        "smoothness": 0.23353972864442044,
        "time": 0.204554143,
        "traj_len": 4.548007106222579,
        "weighted_distance": 5.806654212582032
    },
    "planner": "BiTRRT",
    "start": {
        "state": {
            "elbow_joint": 2.6216224122426386,
            "shoulder_lift_joint": -1.4174107377796124,
            "shoulder_pan_joint": 0.7066234856936794,
            "wrist_1_joint": 1.9546482284002225,
            "wrist_2_joint": -0.7096286983471962,
            "wrist_3_joint": 0.005740856962016249
        }
    },
    "waypoints": [
        {
            "positions": [
                0.7066234856936794,
                -1.4174107377796124,
                2.6216224122426386,
                1.9546482284002225,
                -0.7096286983471962,
                0.005740856962016249
            ]
        },
        {
            "positions": [
                0.617329514282644,
                -1.3616144248466056,
                2.58852219185824,
                1.8524288830644082,
                -0.6666606874094797,
                -0.03811745717839009
            ]
        },
        {
            "positions": [
                0.5280355428716088,
                -1.3058181119135988,
                2.5554219714738418,
                1.750209537728594,
                -0.6236926764717633,
                -0.08197577131879642
            ]
        },
        {
            "positions": [
                0.4387415714605735,
                -1.2500217989805922,
                2.5223217510894433,
                1.64799019239278,
                -0.5807246655340468,
                -0.12583408545920274
            ]
        },
        {
            "positions": [
                0.34944760004953823,
                -1.1942254860475854,
                2.489221530705045,
                1.5457708470569658,
                -0.5377566545963304,
                -0.16969239959960908
            ]
        },
        {
            "positions": [
                0.26015362863850294,
                -1.1384291731145786,
                2.456121310320647,
                1.4435515017211515,
                -0.49478864365861386,
                -0.2135507137400154
            ]
        },
        {
            "positions": [
                0.17085965722746765,
                -1.0826328601815718,
                2.4230210899362485,
                1.3413321563853375,
                -0.4518206327208974,
                -0.25740902788042175
            ]
        },
        {
            "positions": [
                0.08156568581643231,
                -1.026836547248565,
                2.38992086955185,
                1.2391128110495233,
                -0.40885262178318094,
                -0.3012673420208281
            ]
        },
        {
            "positions": [
                -0.007728285594602979,
                -0.9710402343155583,
                2.3568206491674517,
                1.136893465713709,
                -0.3658846108454645,
                -0.3451256561612344
            ]
        },
        {
            "positions": [
                -0.01079306747746037,
                -0.9479835352241012,
                2.193665027742497,
                1.057218157885968,
                -0.3352282824783063,
                -0.3025742188545807
            ]
        },
        {
            "positions": [
                -0.013857849360317762,
                -0.9249268361326439,
                2.0305094063175426,
                0.9775428500582272,
                -0.30457195411114824,
                -0.2600227815479269
            ]
        },
        {
            "positions": [
                -0.016922631243175154,
                -0.9018701370411868,
                1.8673537848925879,
                0.8978675422304863,
                -0.2739156257439901,
                -0.21747134424127315
            ]
        },
        {
            "positions": [
                -0.019987413126032545,
                -0.8788134379497297,
                1.7041981634676333,
                0.8181922344027452,
                -0.24325929737683197,
                -0.1749199069346194
            ]
        },
        {
            "positions": [
                -0.02305219500888994,
                -0.8557567388582724,
                1.5410425420426785,
                0.7385169265750042,
                -0.21260296900967382,
                -0.13236846962796564
            ]
        },
        {
            "positions": [
                -0.02611697689174733,
                -0.8327000397668153,
                1.377886920617724,
                0.6588416187472633,
                -0.1819466406425157,
                -0.08981703232131188
            ]
        },
        {
            "positions": [
                0.02217421062705205,
                -0.8337276236101384,
                1.2269189241558636,
                0.5701257680223982,
                -0.1525821439827779,
                -0.02713112170063295
            ]
        },
        {
            "positions": [
                0.07046539814585143,
                -0.8347552074534617,
                1.0759509276940031,
                0.48140991729753324,
                -0.12321764732304007,
                0.03555478892004599
            ]
        },
        {
            "positions": [
                0.1187565856646508,
                -0.8357827912967848,
                0.9249829312321427,
                0.39269406657266814,
                -0.09385315066330224,
                0.09824069954072494
            ]
        },
        {
            "positions": [
                0.191213341765011,
                -0.8597012116215678,
                0.7999705736948671,
                0.3224321063721118,
                -0.09730327079269242,
                0.189565122062069
            ]
        },
        {
            "positions": [
                0.2636700978653712,
                -0.8836196319463508,
                0.6749582161575916,
                0.2521701461715554,
                -0.1007533909220826,
                0.28088954458341303
            ]
        },
        {
            "positions": [
                0.3361268539657314,
                -0.9075380522711338,
                0.5499458586203161,
                0.181908185970999,
                -0.10420351105147278,
                0.3722139671047571
            ]
        },
        {
            "positions": [
                0.4085836100660916,
                -0.9314564725959168,
                0.4249335010830405,
                0.11164622577044264,
                -0.10765363118086296,
                0.46353838962610117
            ]
        },
        {
            "positions": [
                0.48104036616645185,
                -0.9553748929206999,
                0.29992114354576493,
                0.041384265569886225,
                -0.11110375131025316,
                0.5548628121474453
            ]
        },
        {
            "positions": [
                0.553497122266812,
                -0.9792933132454829,
                0.17490878600848936,
                -0.028877694630670137,
                -0.11455387143964334,
                0.6461872346687892
            ]
        },
        {
            "positions": [
                0.6259538783671723,
                -1.003211733570266,
                0.04989642847121378,
                -0.09913965483122655,
                -0.11800399156903352,
                0.7375116571901333
            ]
        },
        {
            "positions": [
                0.6984106344675325,
                -1.0271301538950488,
                -0.07511592906606168,
                -0.16940161503178286,
                -0.1214541116984237,
                0.8288360797114773
            ]
        },
        {
            "positions": [
                0.7708673905678927,
                -1.0510485742198319,
                -0.20012828660333737,
                -0.2396635752323394,
                -0.12490423182781388,
                0.9201605022328215
            ]
        },
        {
            "positions": [
                0.8433241466682528,
                -1.074966994544615,
                -0.32514064414061283,
                -0.3099255354328957,
                -0.12835435195720407,
                1.0114849247541655
            ]
        },
        {
            "positions": [
                0.915780902768613,
                -1.098885414869398,
                -0.4501530016778885,
                -0.3801874956334521,
                -0.13180447208659424,
                1.1028093472755096
            ]
        },
        {
            "positions": [
                0.9882376588689732,
                -1.122803835194181,
                -0.575165359215164,
                -0.4504494558340084,
                -0.13525459221598443,
                1.1941337697968537
            ]
        },
        {
            "positions": [
                1.0606944149693336,
                -1.146722255518964,
                -0.7001777167524397,
                -0.5207114160345649,
                -0.13870471234537463,
                1.2854581923181978
            ]
        },
        {
            "positions": [
                1.1331511710696938,
                -1.1706406758437469,
                -0.8251900742897151,
                -0.5909733762351213,
                -0.1421548324747648,
                1.376782614839542
            ]
        },
        {
            "positions": [
                1.205607927170054,
                -1.19455909616853,
                -0.9502024318269906,
                -0.6612353364356776,
                -0.14560495260415496,
                1.468107037360886
            ]
        },
        {
            "positions": [
                1.2780646832704141,
                -1.218477516493313,
                -1.075214789364266,
                -0.7314972966362339,
                -0.14905507273354515,
                1.5594314598822299
            ]
        },
        {
            "positions": [
                1.3505214393707743,
                -1.2423959368180961,
                -1.2002271469015418,
                -0.8017592568367904,
                -0.15250519286293535,
                1.650755882403574
            ]
        },
        {
            "positions": [
                1.4229781954711347,
                -1.266314357142879,
                -1.3252395044388174,
                -0.8720212170373469,
                -0.1559553129923255,
                1.7420803049249183
            ]
        },
        {
            "positions": [
                1.4954349515714949,
                -1.290232777467662,
                -1.4502518619760931,
                -0.9422831772379032,
                -0.1594054331217157,
                1.8334047274462624
            ]
        },
        {
            "positions": [
                1.567891707671855,
                -1.314151197792445,
                -1.5752642195133684,
                -1.0125451374384595,
                -0.1628555532511059,
                1.9247291499676062
            ]
        },
        {
            "positions": [
                1.6403484637722152,
                -1.338069618117228,
                -1.700276577050644,
                -1.082807097639016,
                -0.16630567338049607,
                2.0160535724889503
            ]
        },
        {
            "positions": [
                1.7128052198725754,
                -1.361988038442011,
                -1.8252889345879197,
                -1.1530690578395724,
                -0.16975579350988623,
                2.107377995010294
            ]
        },
        {
            "positions": [
                1.7852619759729356,
                -1.3859064587667942,
                -1.950301292125195,
                -1.2233310180401287,
                -0.17320591363927643,
                2.1987024175316385
            ]
        },
        {
            "positions": [
                1.8577187320732957,
                -1.409824879091577,
                -2.075313649662471,
                -1.293592978240685,
                -0.17665603376866662,
                2.2900268400529824
            ]
        },
        {
            "positions": [
                1.9301754881736561,
                -1.4337432994163601,
                -2.200326007199746,
                -1.3638549384412415,
                -0.1801061538980568,
                2.3813512625743267
            ]
        },
        {
            "positions": [
                2.0026322442740163,
                -1.457661719741143,
                -2.3253383647370223,
                -1.434116898641798,
                -0.18355627402744698,
                2.4726756850956706
            ]
        },
        {
            "positions": [
                2.0750890003743763,
                -1.481580140065926,
                -2.4503507222742975,
                -1.5043788588423543,
                -0.18700639415683717,
                2.564000107617015
            ]
        },
        {
            "positions": [
                2.1475457564747367,
                -1.5054985603907092,
                -2.5753630798115728,
                -1.5746408190429106,
                -0.19045651428622734,
                2.655324530138359
            ]
        },
        {
            "positions": [
                2.2014687727245565,
                -1.5769475700579902,
                -2.477370026884015,
                -1.667466751435417,
                -0.215688996764166,
                2.6986336582368278
            ]
        },
        {
            "positions": [
                2.2553917889743764,
                -1.648396579725271,
                -2.3793769739564574,
                -1.760292683827923,
                -0.24092147924210466,
                2.7419427863352968
            ]
        },
        {
            "positions": [
                2.3093148052241963,
                -1.7198455893925522,
                -2.2813839210288993,
                -1.8531186162204292,
                -0.26615396172004335,
                2.7852519144337657
            ]
        },
        {
            "positions": [
                2.363237821474016,
                -1.791294599059833,
                -2.1833908681013416,
                -1.9459445486129354,
                -0.291386444197982,
                2.8285610425322347
            ]
        },
        {
            "positions": [
                2.417160837723836,
                -1.862743608727114,
                -2.085397815173784,
                -2.0387704810054417,
                -0.31661892667592073,
                2.8718701706307037
            ]
        },
        {
            "positions": [
                2.471083853973656,
                -1.934192618394395,
                -1.987404762246226,
                -2.131596413397948,
                -0.34185140915385936,
                2.9151792987291727
            ]
        },
        {
            "positions": [
                2.525006870223476,
                -2.0056416280616762,
                -1.8894117093186682,
                -2.2244223457904537,
                -0.367083891631798,
                2.9584884268276417
            ]
        },
        {
            "positions": [
                2.5789298864732957,
                -2.077090637728957,
                -1.7914186563911105,
                -2.31724827818296,
                -0.3923163741097367,
                3.0017975549261107
            ]
        },
        {
            "positions": [
                2.6328529027231156,
                -2.148539647396238,
                -1.6934256034635526,
                -2.4100742105754662,
                -0.4175488565876754,
                3.0451066830245797
            ]
        },
        {
            "positions": [
                2.6611910150580282,
                -2.1861635811970905,
                -1.652421186370287,
                -2.4388754035672866,
                -0.4641265823209466,
                3.130653778183776
            ]
        }
    ]
}