{
    "goal": {
        "global_pose": {
            "orientation": {
                "w": 0.7031023502349854,
                "x": -0.7110244035720825,
                "y": 0.007748599164187908,
                "z": 0.005598929710686207
            },
            "position": {
                "x": 0.11585023208521307,
                "y": 0.44412534475326537,
                "z": 0.3711530566215515
            }
        },
        "name": "move_to_auspresseinheit_A"
    },
    "id": "BiTRRT_move_to_auspresseinheit_A_31",
    "joint_names": [
        "shoulder_pan_joint",
        "shoulder_lift_joint",
        "elbow_joint",
        "wrist_1_joint",
        "wrist_2_joint",
        "wrist_3_joint"
    ],
    "metrics": {
        "cart_traj_len": 0.6680573370782463,
        "distance_elbow_joint": 0.06212481070145648,
        "distance_shoulder_lift_joint": 0.5330172284146715,
        "distance_shoulder_pan_joint": 1.0442681512715442,
        "distance_wrist_1_joint": 0.5720781239058343,
        "distance_wrist_2_joint": 0.5331081493843505,
        "distance_wrist_3_joint": 0.2435918016555787,
        "smoothness": 0.2284200902839216,
        "time": 0.049655945,
        "traj_len": 1.7286376905914773,
        "weighted_distance": 2.1402238532300255
    },
    "planner": "BiTRRT",
    "start": {
        "state": {
            "elbow_joint": 2.4225746658250005,
            "shoulder_lift_joint": -1.3736534386056498,
            "shoulder_pan_joint": -0.3378633547517467,
            "wrist_1_joint": -1.0288598680537169,
            "wrist_2_joint": 1.233022673432363,
            "wrist_3_joint": -3.0940220416140027
        }
    },
    "waypoints": [
        {
            "positions": [
                -0.3378633547517467,
                -1.3736534386056498,
                2.4225746658250005,
                -1.0288598680537169,
                1.233022673432363,
                -3.0940220416140027
            ]
        },
        {
            "positions": [
                -0.2349227249598708,
                -1.4394797369130221,
                2.425547622007425,
                -0.9328601305138643,
                1.173738456641214,
                -3.0737752638968505
            ]
        },
        {
            "positions": [
                -0.13198209516799486,
                -1.5053060352203942,
                2.4285205781898496,
                -0.8368603929740117,
                1.1144542398500648,
                -3.0535284861796983
            ]
        },
        {
            "positions": [
                -0.029041465376118958,
                -1.5711323335277665,
                2.431493534372274,
                -0.7408606554341591,
                1.0551700230589156,
                -3.0332817084625456
            ]
        },
        {
            "positions": [
                0.073899164415757,
                -1.6369586318351388,
                2.4344664905546987,
                -0.6448609178943066,
                0.9958858062677663,
                -3.0130349307453934
            ]
        },
        {
            "positions": [
                0.17683979420763285,
                -1.7027849301425109,
                2.437439446737123,
                -0.548861180354454,
                0.9366015894766172,
                -2.992788153028241
            ]
        },
        {
            "positions": [
                0.309231044785674,
                -1.7537563643619634,
                2.42562443928979,
                -0.525841321302811,
                0.877429823119466,
                -3.0283776312956956
            ]
        },
        {
            "positions": [
                0.4416222953637151,
                -1.804727798581416,
                2.4138094318424566,
                -0.5028214622511682,
                0.8182580567623149,
                -3.0639671095631495
            ]
        },
        {
            "positions": [
                0.5740135459417562,
                -1.8556992328008688,
                2.401994424395123,
                -0.4798016031995253,
                0.7590862904051637,
                -3.099556587830604
            ]
        },
        {
            "positions": [
                0.7064047965197974,
                -1.9066706670203213,
                2.3901794169477895,
                -0.4567817441478824,
                0.6999145240480126,
                -3.1351460660980583
            ]
        }
    ]
}