{
    "goal": {
        "global_pose": {
            "orientation": {
                "w": -0.00223480608172531,
                "x": 0.0024358444001904467,
                "y": 0.7094548369677653,
                "z": -0.704743149386269
            },
            "position": {
                "x": -0.37947507619857795,
                "y": -0.6371506643295288,
                "z": 0.19426114857196808
            }
        },
        "name": "move_to_magneteinheit_C"
    },
    "id": "BiTRRT_move_to_magneteinheit_C_124",
    "joint_names": [
        "shoulder_pan_joint",
        "shoulder_lift_joint",
        "elbow_joint",
        "wrist_1_joint",
        "wrist_2_joint",
        "wrist_3_joint"
    ],
    "metrics": {
        "cart_traj_len": 2.6018551506451155,
        "distance_elbow_joint": 1.503105401696351,
        "distance_shoulder_lift_joint": 0.552326984846925,
        "distance_shoulder_pan_joint": 1.9903508904254716,
        "distance_wrist_1_joint": 1.1592995883829813,
        "distance_wrist_2_joint": 0.7944998019143815,
        "distance_wrist_3_joint": 2.2892081109805056,
        "smoothness": 0.5082516409562258,
        "time": 0.106224271,
        "traj_len": 2.879026012082318,
        "weighted_distance": 3.849806019854116
    },
    "planner": "BiTRRT",
    "start": {
        "state": {
            "elbow_joint": 1.9565354010623817,
            "shoulder_lift_joint": -1.4165861575791021,
            "shoulder_pan_joint": -1.6717766225146293,
            "wrist_1_joint": -0.5286633292919765,
            "wrist_2_joint": 1.472756589071564,
            "wrist_3_joint": -3.1238370188695823
        }
    },
    "waypoints": [
        {
            "positions": [
                -1.6717766225146293,
                -1.4165861575791021,
                1.9565354010623817,
                -0.5286633292919765,
                1.472756589071564,
                -3.1238370188695823
            ]
        },
        {
            "positions": [
                -1.6333684547622793,
                -1.4146639122894682,
                1.955666006456485,
                -0.500209342702062,
                1.4646074922434111,
                -3.074630433024379
            ]
        },
        {
            "positions": [
                -1.5366248194060401,
                -1.4107200242355478,
                1.906798107621133,
                -0.4663275109412068,
                1.400567813210538,
                -2.9330977359702435
            ]
        },
        {
            "positions": [
                -1.4398811840498011,
                -1.4067761361816276,
                1.857930208785781,
                -0.4324456791803516,
                1.3365281341776647,
                -2.7915650389161084
            ]
        },
        {
            "positions": [
                -1.343137548693562,
                -1.4028322481277071,
                1.809062309950429,
                -0.39856384741949646,
                1.2724884551447915,
                -2.650032341861973
            ]
        },
        {
            "positions": [
                -1.246393913337323,
                -1.398888360073787,
                1.760194411115077,
                -0.3646820156586412,
                1.2084487761119183,
                -2.508499644807838
            ]
        },
        {
            "positions": [
                -1.1496502779810838,
                -1.3949444720198665,
                1.711326512279725,
                -0.3308001838977861,
                1.144409097079045,
                -2.3669669477537023
            ]
        },
        {
            "positions": [
                -1.1318036643414868,
                -1.3918183657932577,
                1.6581841983845234,
                -0.36257809340541297,
                1.0874622499818467,
                -2.3118505467847457
            ]
        },
        {
            "positions": [
                -1.162577973639896,
                -1.396049945233917,
                1.6014144649173288,
                -0.44073997765847017,
                1.0098578729678744,
                -2.2297780366855227
            ]
        },
        {
            "positions": [
                -1.1933522829383054,
                -1.4002815246745763,
                1.5446447314501341,
                -0.5189018619115273,
                0.9322534959539021,
                -2.147705526586299
            ]
        },
        {
            "positions": [
                -1.2241265922367148,
                -1.4045131041152359,
                1.4878749979829393,
                -0.5970637461645845,
                0.8546491189399297,
                -2.065633016487076
            ]
        },
        {
            "positions": [
                -1.254900901535124,
                -1.4087446835558952,
                1.4311052645157447,
                -0.6752256304176417,
                0.7770447419259574,
                -1.9835605063878532
            ]
        },
        {
            "positions": [
                -1.4266572099554558,
                -1.3892567015098838,
                1.3918763324465249,
                -0.7328229149382656,
                0.7763567579495353,
                -2.017421734977838
            ]
        },
        {
            "positions": [
                -1.5984135183757877,
                -1.3697687194638724,
                1.3526474003773048,
                -0.7904201994588895,
                0.7756687739731132,
                -2.0512829635678225
            ]
        },
        {
            "positions": [
                -1.7701698267961194,
                -1.3502807374178607,
                1.313418468308085,
                -0.8480174839795134,
                0.774980789996691,
                -2.085144192157807
            ]
        },
        {
            "positions": [
                -1.9419261352164514,
                -1.3307927553718493,
                1.2741895362388649,
                -0.9056147685001373,
                0.7742928060202688,
                -2.1190054207477917
            ]
        },
        {
            "positions": [
                -2.113682443636783,
                -1.3113047733258378,
                1.234960604169645,
                -0.9632120530207612,
                0.7736048220438467,
                -2.1528666493377764
            ]
        },
        {
            "positions": [
                -2.279940973133253,
                -1.2823153612754377,
                1.239410823000206,
                -1.0188114922242224,
                0.7754879298458667,
                -2.1940462042869817
            ]
        },
        {
            "positions": [
                -2.446199502629723,
                -1.2533259492250377,
                1.2438610418307672,
                -1.0744109314276837,
                0.7773710376478866,
                -2.235225759236187
            ]
        },
        {
            "positions": [
                -2.4731004179162364,
                -1.1793216368816655,
                1.3344290304400694,
                -1.0593946985810943,
                0.7739951473869247,
                -2.3177739216562463
            ]
        },
        {
            "positions": [
                -2.5000013332027495,
                -1.1053173245382932,
                1.4249970190493715,
                -1.044378465734505,
                0.7706192571259627,
                -2.4003220840763055
            ]
        },
        {
            "positions": [
                -2.5269022484892627,
                -1.031313012194921,
                1.5155650076586737,
                -1.0293622328879155,
                0.7672433668650007,
                -2.482870246496365
            ]
        },
        {
            "positions": [
                -2.519302323399658,
                -1.0352763084707266,
                1.631006534627645,
                -0.9859056988311694,
                0.7407880938206531,
                -2.6157024102712416
            ]
        },
        {
            "positions": [
                -2.511702398310053,
                -1.0392396047465324,
                1.746448061596616,
                -0.9424491647744233,
                0.7143328207763054,
                -2.748534574046119
            ]
        },
        {
            "positions": [
                -2.504102473220448,
                -1.043202901022338,
                1.8618895885655873,
                -0.8989926307176772,
                0.6878775477319579,
                -2.8813667378209957
            ]
        },
        {
            "positions": [
                -2.487862686802579,
                -1.103858558577364,
                1.9391903987694232,
                -0.8777889333432338,
                0.68683338304861,
                -3.0069294213538127
            ]
        },
        {
            "positions": [
                -2.4716229003847094,
                -1.1645142161323898,
                2.0164912089732594,
                -0.8565852359687905,
                0.6857892183652622,
                -3.1324921048866297
            ]
        }
    ]
}