{
    "goal": {
        "global_pose": {
            "orientation": {
                "w": 0.005598929693374612,
                "x": 0.007748599140229565,
                "y": 0.7110244013736278,
                "z": -0.7031023480610252
            },
            "position": {
                "x": -0.8858502320852131,
                "y": -0.7141253447532654,
                "z": 0.3711530566215515
            }
        },
        "name": "move_to_auspresseinheit_C"
    },
    "id": "BiTRRT_move_to_auspresseinheit_C_51",
    "joint_names": [
        "shoulder_pan_joint",
        "shoulder_lift_joint",
        "elbow_joint",
        "wrist_1_joint",
        "wrist_2_joint",
        "wrist_3_joint"
    ],
    "metrics": {
        "cart_traj_len": 0.5172883104459857,
        "distance_elbow_joint": 0.986713652557089,
        "distance_shoulder_lift_joint": 0.3185241284087499,
        "distance_shoulder_pan_joint": 0.2565400835908953,
        "distance_wrist_1_joint": 0.6587770076563854,
        "distance_wrist_2_joint": 1.302699814309693,
        "distance_wrist_3_joint": 0.11305167459034404,
        "smoothness": 0.04334995992443256,
        "time": 0.06036925,
        "traj_len": 1.9069101607346783,
        "weighted_distance": 2.4132729916567506
    },
    "planner": "BiTRRT",
    "start": {
        "state": {
            "elbow_joint": 1.7527959577737207,
            "shoulder_lift_joint": -0.9740617694225068,
            "shoulder_pan_joint": -2.967991417825858,
            "wrist_1_joint": -0.759517768980727,
            "wrist_2_joint": 1.7443932448377408,
            "wrist_3_joint": -3.0840537646736568
        }
    },
    "waypoints": [
        {
            "positions": [
                -2.967991417825858,
                -0.9740617694225068,
                1.7527959577737207,
                -0.759517768980727,
                1.7443932448377408,
                -3.0840537646736568
            ]
        },
        {
            "positions": [
                -2.9341255387597767,
                -0.9345751106574804,
                1.6354698750022878,
                -0.6985110450892533,
                1.6319333518261707,
                -3.07871056688784
            ]
        },
        {
            "positions": [
                -2.9002596596936954,
                -0.8950884518924542,
                1.5181437922308547,
                -0.6375043211977796,
                1.5194734588146008,
                -3.0733673691020225
            ]
        },
        {
            "positions": [
                -2.866393780627614,
                -0.8556017931274279,
                1.4008177094594219,
                -0.5764975973063059,
                1.4070135658030307,
                -3.0680241713162055
            ]
        },
        {
            "positions": [
                -2.8325279015615323,
                -0.8161151343624017,
                1.283491626687989,
                -0.5154908734148322,
                1.2945536727914606,
                -3.0626809735303886
            ]
        },
        {
            "positions": [
                -2.798662022495451,
                -0.7766284755973754,
                1.166165543916556,
                -0.4544841495233585,
                1.1820937797798905,
                -3.0573377757445717
            ]
        },
        {
            "positions": [
                -2.7647961434293697,
                -0.7371418168323491,
                1.048839461145123,
                -0.39347742563188487,
                1.0696338867683206,
                -3.0519945779587543
            ]
        },
        {
            "positions": [
                -2.7309302643632885,
                -0.6976551580673228,
                0.9315133783736901,
                -0.33247070174041116,
                0.9571739937567505,
                -3.0466513801729374
            ]
        },
        {
            "positions": [
                -2.7244372876538465,
                -0.6836159857161341,
                0.8763696873213372,
                -0.255227388268388,
                0.7853471393471829,
                -3.071867810202812
            ]
        },
        {
            "positions": [
                -2.7179443109444046,
                -0.6695768133649456,
                0.8212259962689845,
                -0.1779840747963648,
                0.6135202849376153,
                -3.0970842402326872
            ]
        },
        {
            "positions": [
                -2.7114513342349627,
                -0.6555376410137569,
                0.7660823052166317,
                -0.10074076132434163,
                0.4416934305280477,
                -3.122300670262562
            ]
        }
    ]
}