{
    "goal": {
        "global_pose": {
            "orientation": {
                "w": 0.005598929693374612,
                "x": 0.007748599140229565,
                "y": 0.7110244013736278,
                "z": -0.7031023480610252
            },
            "position": {
                "x": -0.8858502320852131,
                "y": -0.7141253447532654,
                "z": 0.3711530566215515
            }
        },
        "name": "move_to_auspresseinheit_C"
    },
    "id": "BiTRRT_move_to_auspresseinheit_C_27",
    "joint_names": [
        "shoulder_pan_joint",
        "shoulder_lift_joint",
        "elbow_joint",
        "wrist_1_joint",
        "wrist_2_joint",
        "wrist_3_joint"
    ],
    "metrics": {
        "cart_traj_len": 0.49245848694777977,
        "distance_elbow_joint": 0.9936543945856595,
        "distance_shoulder_lift_joint": 0.3216280667935887,
        "distance_shoulder_pan_joint": 0.2565323209057566,
        "distance_wrist_1_joint": 0.6722096829065115,
        "distance_wrist_2_joint": 1.3017923342589752,
        "distance_wrist_3_joint": 0.05128096829933071,
        "smoothness": 3.2297397080004555e-16,
        "time": 0.04739782,
        "traj_len": 1.896601636546226,
        "weighted_distance": 2.3819449451055683
    },
    "planner": "BiTRRT",
    "start": {
        "state": {
            "elbow_joint": 1.7527959577737207,
            "shoulder_lift_joint": -0.9740617694225068,
            "shoulder_pan_joint": -2.967991417825858,
            "wrist_1_joint": -0.759517768980727,
            "wrist_2_joint": 1.7443932448377408,
            "wrist_3_joint": -3.0840537646736568
        }
    },
    "waypoints": [
        {
            "positions": [
                -2.967991417825858,
                -0.9740617694225068,
                1.7527959577737207,
                -0.759517768980727,
                1.7443932448377408,
                -3.0840537646736568
            ]
        },
        {
            "positions": [
                -2.942338185735282,
                -0.9418989627431479,
                1.6534305183151548,
                -0.6922968006900758,
                1.6142140114118433,
                -3.0891818615035898
            ]
        },
        {
            "positions": [
                -2.916684953644707,
                -0.909736156063789,
                1.5540650788565888,
                -0.6250758323994247,
                1.4840347779859457,
                -3.0943099583335227
            ]
        },
        {
            "positions": [
                -2.891031721554131,
                -0.8775733493844302,
                1.4546996393980227,
                -0.5578548641087735,
                1.3538555445600482,
                -3.099438055163456
            ]
        },
        {
            "positions": [
                -2.8653784894635552,
                -0.8454105427050713,
                1.3553341999394568,
                -0.4906338958181224,
                1.2236763111341507,
                -3.104566151993389
            ]
        },
        {
            "positions": [
                -2.8397252573729794,
                -0.8132477360257124,
                1.255968760480891,
                -0.42341292752747123,
                1.0934970777082533,
                -3.109694248823322
            ]
        },
        {
            "positions": [
                -2.814072025282404,
                -0.7810849293463535,
                1.156603321022325,
                -0.35619195923682007,
                0.9633178442823557,
                -3.114822345653255
            ]
        },
        {
            "positions": [
                -2.7884187931918283,
                -0.7489221226669946,
                1.057237881563759,
                -0.28897099094616896,
                0.8331386108564582,
                -3.119950442483188
            ]
        },
        {
            "positions": [
                -2.7627655611012525,
                -0.7167593159876358,
                0.957872442105193,
                -0.2217500226555178,
                0.7029593774305607,
                -3.1250785393131215
            ]
        },
        {
            "positions": [
                -2.737112329010677,
                -0.6845965093082769,
                0.858507002646627,
                -0.15452905436486664,
                0.5727801440046631,
                -3.1302066361430545
            ]
        },
        {
            "positions": [
                -2.7114590969201013,
                -0.6524337026289181,
                0.7591415631880611,
                -0.08730808607421546,
                0.44260091057876566,
                -3.1353347329729875
            ]
        }
    ]
}