{
    "goal": {
        "global_pose": {
            "orientation": {
                "w": 0.5084816262002911,
                "x": -0.4908360881923452,
                "y": 0.5182115481033761,
                "z": -0.48164630358495003
            },
            "position": {
                "x": 0.5540239810943604,
                "y": -0.46912469901144505,
                "z": 0.16403168439865112
            }
        },
        "name": "move_to_storage_B"
    },
    "id": "BiTRRT_move_to_storage_B_9",
    "joint_names": [
        "shoulder_pan_joint",
        "shoulder_lift_joint",
        "elbow_joint",
        "wrist_1_joint",
        "wrist_2_joint",
        "wrist_3_joint"
    ],
    "metrics": {
        "cart_traj_len": 0.7423095046076685,
        "distance_elbow_joint": 0.4916855526375521,
        "distance_shoulder_lift_joint": 0.45702856416569704,
        "distance_shoulder_pan_joint": 0.4902730753181245,
        "distance_wrist_1_joint": 2.9871241018992487,
        "distance_wrist_2_joint": 2.7004716110420883,
        "distance_wrist_3_joint": 3.199547010746781,
        "smoothness": 0.18246905930142385,
        "time": 0.131091012,
        "traj_len": 3.213429618928893,
        "weighted_distance": 4.734217955506948
    },
    "planner": "BiTRRT",
    "start": {
        "state": {
            "elbow_joint": 1.664937868594044,
            "shoulder_lift_joint": -0.661644460510453,
            "shoulder_pan_joint": -0.9139846352900073,
            "wrist_1_joint": 2.146753192139373,
            "wrist_2_joint": -2.2341966793290973,
            "wrist_3_joint": 0.005466555786416001
        }
    },
    "waypoints": [
        {
            "positions": [
                -0.9139846352900073,
                -0.661644460510453,
                1.664937868594044,
                2.146753192139373,
                -2.2341966793290973,
                0.005466555786416001
            ]
        },
        {
            "positions": [
                -0.8370285343004331,
                -0.7019618386622364,
                1.6291726983680652,
                2.1022731743025154,
                -2.2082932206516688,
                0.021224056767306737
            ]
        },
        {
            "positions": [
                -0.760072433310859,
                -0.7422792168140196,
                1.5934075281420865,
                2.0577931564656575,
                -2.1823897619742407,
                0.036981557748197474
            ]
        },
        {
            "positions": [
                -0.7735268682444181,
                -0.7573349691285048,
                1.6102137366295104,
                1.9418665938166362,
                -2.0764431742267515,
                -0.08973972260320251
            ]
        },
        {
            "positions": [
                -0.7869813031779771,
                -0.77239072144299,
                1.627019945116934,
                1.8259400311676148,
                -1.9704965864792623,
                -0.2164610029546025
            ]
        },
        {
            "positions": [
                -0.8004357381115362,
                -0.7874464737574753,
                1.643826153604358,
                1.7100134685185937,
                -1.864549998731773,
                -0.3431822833060024
            ]
        },
        {
            "positions": [
                -0.8138901730450953,
                -0.8025022260719605,
                1.6606323620917818,
                1.5940869058695721,
                -1.7586034109842836,
                -0.4699035636574025
            ]
        },
        {
            "positions": [
                -0.8273446079786543,
                -0.8175579783864457,
                1.6774385705792054,
                1.478160343220551,
                -1.6526568232367944,
                -0.5966248440088026
            ]
        },
        {
            "positions": [
                -0.8407990429122133,
                -0.8326137307009309,
                1.6942447790666293,
                1.3622337805715297,
                -1.5467102354893052,
                -0.7233461243602024
            ]
        },
        {
            "positions": [
                -0.8542534778457724,
                -0.8476694830154161,
                1.711050987554053,
                1.2463072179225083,
                -1.4407636477418158,
                -0.8500674047116025
            ]
        },
        {
            "positions": [
                -0.8677079127793315,
                -0.8627252353299014,
                1.7278571960414768,
                1.130380655273487,
                -1.3348170599943265,
                -0.9767886850630024
            ]
        },
        {
            "positions": [
                -0.8811623477128905,
                -0.8777809876443866,
                1.7446634045289007,
                1.0144540926244656,
                -1.2288704722468373,
                -1.1035099654144023
            ]
        },
        {
            "positions": [
                -0.8946167826464495,
                -0.8928367399588718,
                1.7614696130163243,
                0.8985275299754443,
                -1.122923884499348,
                -1.2302312457658025
            ]
        },
        {
            "positions": [
                -0.9080712175800086,
                -0.907892492273357,
                1.7782758215037482,
                0.7826009673264229,
                -1.0169772967518589,
                -1.3569525261172022
            ]
        },
        {
            "positions": [
                -0.9215256525135677,
                -0.9229482445878422,
                1.795082029991172,
                0.6666744046774018,
                -0.9110307090043697,
                -1.4836738064686021
            ]
        },
        {
            "positions": [
                -0.9349800874471267,
                -0.9380039969023275,
                1.8118882384785957,
                0.5507478420283802,
                -0.8050841212568804,
                -1.6103950868200023
            ]
        },
        {
            "positions": [
                -0.9484345223806858,
                -0.9530597492168127,
                1.8286944469660196,
                0.4348212793793589,
                -0.699137533509391,
                -1.7371163671714023
            ]
        },
        {
            "positions": [
                -0.9618889573142448,
                -0.9681155015312979,
                1.8455006554534434,
                0.31889471673033776,
                -0.593190945761902,
                -1.863837647522802
            ]
        },
        {
            "positions": [
                -0.9753433922478039,
                -0.9831712538457831,
                1.862306863940867,
                0.2029681540813164,
                -0.48724435801441257,
                -1.9905589278742022
            ]
        },
        {
            "positions": [
                -0.9887978271813629,
                -0.9982270061602683,
                1.879113072428291,
                0.08704159143229484,
                -0.38129777026692335,
                -2.1172802082256026
            ]
        },
        {
            "positions": [
                -1.002252262114922,
                -1.0132827584747535,
                1.8959192809157148,
                -0.028884971216726285,
                -0.27535118251943413,
                -2.2440014885770023
            ]
        },
        {
            "positions": [
                -1.015706697048481,
                -1.0283385107892387,
                1.9127254894031385,
                -0.1448115338657474,
                -0.1694045947719447,
                -2.3707227689284025
            ]
        },
        {
            "positions": [
                -1.0291611319820402,
                -1.0433942631037239,
                1.9295316978905623,
                -0.260738096514769,
                -0.06345800702445548,
                -2.4974440492798027
            ]
        },
        {
            "positions": [
                -1.042615566915599,
                -1.058450015418209,
                1.9463379063779862,
                -0.3766646591637901,
                0.0424885807230333,
                -2.6241653296312024
            ]
        },
        {
            "positions": [
                -1.0560700018491582,
                -1.0735057677326945,
                1.9631441148654099,
                -0.4925912218128117,
                0.14843516847052296,
                -2.750886609982602
            ]
        },
        {
            "positions": [
                -1.0695244367827172,
                -1.0885615200471797,
                1.9799503233528337,
                -0.6085177844618328,
                0.2543817562180122,
                -2.8776078903340023
            ]
        },
        {
            "positions": [
                -1.0829788717162763,
                -1.1036172723616648,
                1.9967565318402574,
                -0.7244443471108539,
                0.3603283439655014,
                -3.004329170685402
            ]
        },
        {
            "positions": [
                -1.0964333066498353,
                -1.11867302467615,
                2.0135627403276812,
                -0.8403709097598753,
                0.46627493171299084,
                -3.1310504510368022
            ]
        }
    ]
}