{
    "goal": {
        "global_pose": {
            "orientation": {
                "w": 0.5084816262002911,
                "x": -0.4908360881923452,
                "y": 0.5182115481033761,
                "z": -0.48164630358495003
            },
            "position": {
                "x": 0.5540239810943604,
                "y": -0.46912469901144505,
                "z": 0.16403168439865112
            }
        },
        "name": "move_to_storage_B"
    },
    "id": "BiTRRT_move_to_storage_B_26",
    "joint_names": [
        "shoulder_pan_joint",
        "shoulder_lift_joint",
        "elbow_joint",
        "wrist_1_joint",
        "wrist_2_joint",
        "wrist_3_joint"
    ],
    "metrics": {
        "cart_traj_len": 0.8491478940065611,
        "distance_elbow_joint": 0.3915213792884602,
        "distance_shoulder_lift_joint": 0.45872033827478287,
        "distance_shoulder_pan_joint": 0.6333421676857883,
        "distance_wrist_1_joint": 2.9786036732832146,
        "distance_wrist_2_joint": 2.6991836338363093,
        "distance_wrist_3_joint": 3.136885214013318,
        "smoothness": 0.04671452476163078,
        "time": 0.075473297,
        "traj_len": 3.2090896538398352,
        "weighted_distance": 4.716970865028535
    },
    "planner": "BiTRRT",
    "start": {
        "state": {
            "elbow_joint": 1.664937868594044,
            "shoulder_lift_joint": -0.661644460510453,
            "shoulder_pan_joint": -0.9139846352900073,
            "wrist_1_joint": 2.146753192139373,
            "wrist_2_joint": -2.2341966793290973,
            "wrist_3_joint": 0.005466555786416001
        }
    },
    "waypoints": [
        {
            "positions": [
                -0.9139846352900073,
                -0.661644460510453,
                1.664937868594044,
                2.146753192139373,
                -2.2341966793290973,
                0.005466555786416001
            ]
        },
        {
            "positions": [
                -0.8709428507519873,
                -0.6948493354495744,
                1.6673633559114323,
                2.0262618479289154,
                -2.0880623145657733,
                0.048505820784340084
            ]
        },
        {
            "positions": [
                -0.8279010662139672,
                -0.7280542103886958,
                1.6697888432288208,
                1.9057705037184576,
                -1.9419279498024489,
                0.09154508578226417
            ]
        },
        {
            "positions": [
                -0.7848592816759472,
                -0.7612590853278172,
                1.6722143305462094,
                1.7852791595079998,
                -1.7957935850391247,
                0.13458435078018824
            ]
        },
        {
            "positions": [
                -0.7418174971379272,
                -0.7944639602669386,
                1.6746398178635977,
                1.664787815297542,
                -1.6496592202758005,
                0.17762361577811234
            ]
        },
        {
            "positions": [
                -0.7329929128339945,
                -0.8104295325655918,
                1.671052720638736,
                1.5446433623414548,
                -1.540019416391019,
                0.2595978071727516
            ]
        },
        {
            "positions": [
                -0.7241683285300616,
                -0.8263951048642451,
                1.6674656234138745,
                1.424498909385368,
                -1.4303796125062374,
                0.34157199856739084
            ]
        },
        {
            "positions": [
                -0.7153437442261289,
                -0.8423606771628982,
                1.6638785261890128,
                1.3043544564292808,
                -1.320739808621456,
                0.4235461899620301
            ]
        },
        {
            "positions": [
                -0.7065191599221962,
                -0.8583262494615514,
                1.660291428964151,
                1.184210003473194,
                -1.2111000047366745,
                0.5055203813566693
            ]
        },
        {
            "positions": [
                -0.6976945756182633,
                -0.8742918217602047,
                1.6567043317392895,
                1.0640655505171068,
                -1.1014602008518928,
                0.5874945727513087
            ]
        },
        {
            "positions": [
                -0.6888699913143306,
                -0.890257394058858,
                1.6531172345144278,
                0.9439210975610198,
                -0.9918203969671113,
                0.6694687641459479
            ]
        },
        {
            "positions": [
                -0.7128833750619842,
                -0.9037931237486448,
                1.6743111666714712,
                0.8394639458724986,
                -0.9061258468803863,
                0.8149324703608765
            ]
        },
        {
            "positions": [
                -0.7368967588096378,
                -0.9173288534384318,
                1.6955050988285145,
                0.7350067941839775,
                -0.8204312967936613,
                0.9603961765758051
            ]
        },
        {
            "positions": [
                -0.7609101425572915,
                -0.9308645831282187,
                1.7166990309855579,
                0.6305496424954562,
                -0.7347367467069363,
                1.1058598827907338
            ]
        },
        {
            "positions": [
                -0.7849235263049451,
                -0.9444003128180057,
                1.7378929631426012,
                0.5260924908069351,
                -0.6490421966202113,
                1.2513235890056622
            ]
        },
        {
            "positions": [
                -0.8089369100525987,
                -0.9579360425077926,
                1.7590868952996443,
                0.4216353391184139,
                -0.5633476465334863,
                1.3967872952205909
            ]
        },
        {
            "positions": [
                -0.8329502938002523,
                -0.9714717721975796,
                1.7802808274566877,
                0.3171781874298927,
                -0.47765309644676135,
                1.5422510014355195
            ]
        },
        {
            "positions": [
                -0.8569636775479059,
                -0.9850075018873665,
                1.801474759613731,
                0.21272103574137158,
                -0.39195854636003635,
                1.6877147076504482
            ]
        },
        {
            "positions": [
                -0.8809770612955596,
                -0.9985432315771534,
                1.8226686917707744,
                0.10826388405285037,
                -0.30626399627331136,
                1.8331784138653768
            ]
        },
        {
            "positions": [
                -0.9049904450432131,
                -1.0120789612669403,
                1.8438626239278177,
                0.0038067323643290463,
                -0.22056944618658636,
                1.9786421200803055
            ]
        },
        {
            "positions": [
                -0.9290038287908668,
                -1.0256146909567274,
                1.865056556084861,
                -0.10065041932419205,
                -0.13487489609986136,
                2.124105826295234
            ]
        },
        {
            "positions": [
                -0.9530172125385205,
                -1.0391504206465143,
                1.8862504882419044,
                -0.20510757101271337,
                -0.04918034601313637,
                2.269569532510163
            ]
        },
        {
            "positions": [
                -0.9770305962861741,
                -1.0526861503363012,
                1.9074444203989478,
                -0.3095647227012345,
                0.03651420407358863,
                2.4150332387250915
            ]
        },
        {
            "positions": [
                -1.0010439800338276,
                -1.066221880026088,
                1.928638352555991,
                -0.4140218743897556,
                0.12220875416031363,
                2.5604969449400197
            ]
        },
        {
            "positions": [
                -1.0250573637814813,
                -1.079757609715875,
                1.9498322847130343,
                -0.5184790260782767,
                0.20790330424703862,
                2.7059606511549483
            ]
        },
        {
            "positions": [
                -1.049070747529135,
                -1.0932933394056619,
                1.9710262168700776,
                -0.622936177766798,
                0.2935978543337636,
                2.851424357369877
            ]
        },
        {
            "positions": [
                -1.0730841312767887,
                -1.106829069095449,
                1.992220149027121,
                -0.7273933294553191,
                0.3792924044204886,
                2.9968880635848056
            ]
        },
        {
            "positions": [
                -1.0970975150244422,
                -1.1203647987852359,
                2.0134140811841643,
                -0.8318504811438404,
                0.46498695450721356,
                3.1423517697997343
            ]
        }
    ]
}