{
    "goal": {
        "global_pose": {
            "orientation": {
                "w": 0.7047431493862688,
                "x": -0.7094548369677653,
                "y": 0.0024358444001904,
                "z": -0.0022348060817251984
            },
            "position": {
                "x": -0.39052492380142206,
                "y": 0.3671506643295288,
                "z": 0.19426114857196808
            }
        },
        "name": "move_to_magneteinheit_D"
    },
    "id": "BiTRRT_move_to_magneteinheit_D_20",
    "joint_names": [
        "shoulder_pan_joint",
        "shoulder_lift_joint",
        "elbow_joint",
        "wrist_1_joint",
        "wrist_2_joint",
        "wrist_3_joint"
    ],
    "metrics": {
        "cart_traj_len": 4.444062368368891,
        "distance_elbow_joint": 3.310780835469682,
        "distance_shoulder_lift_joint": 1.093928639545951,
        "distance_shoulder_pan_joint": 3.037869882083519,
        "distance_wrist_1_joint": 2.08106411568423,
        "distance_wrist_2_joint": 0.8511140862725959,
        "distance_wrist_3_joint": 6.266453411692519,
        "smoothness": 0.18694172894345878,
        "time": 0.159924869,
        "traj_len": 4.079364039988156,
        "weighted_distance": 5.666241787648173
    },
    "planner": "BiTRRT",
    "start": {
        "state": {
            "elbow_joint": 0.749534889911806,
            "shoulder_lift_joint": -0.6476975780787326,
            "shoulder_pan_joint": -2.711696901376241,
            "wrist_1_joint": -0.07506478083263063,
            "wrist_2_joint": 0.43296659715538205,
            "wrist_3_joint": -3.14703540197715
        }
    },
    "waypoints": [
        {
            "positions": [
                -2.711696901376241,
                -0.6476975780787326,
                0.749534889911806,
                -0.07506478083263063,
                0.43296659715538205,
                -3.14703540197715
            ]
        },
        {
            "positions": [
                -2.7262406421306595,
                -0.6884388061818758,
                0.7753716532624244,
                -0.23339847206840583,
                0.3990683758484762,
                -3.0338973652955072
            ]
        },
        {
            "positions": [
                -2.740784382885078,
                -0.7291800342850191,
                0.8012084166130429,
                -0.39173216330418104,
                0.36517015454157037,
                -2.9207593286138644
            ]
        },
        {
            "positions": [
                -2.7553281236394964,
                -0.7699212623881623,
                0.8270451799636613,
                -0.5500658545399563,
                0.33127193323466453,
                -2.8076212919322217
            ]
        },
        {
            "positions": [
                -2.7570110798292897,
                -0.8284477205506906,
                0.8335631025895569,
                -0.6253270319843147,
                0.37062843252455524,
                -2.700831455564787
            ]
        },
        {
            "positions": [
                -2.7586940360190835,
                -0.886974178713219,
                0.8400810252154524,
                -0.7005882094286732,
                0.40998493181444595,
                -2.594041619197353
            ]
        },
        {
            "positions": [
                -2.760376992208877,
                -0.9455006368757474,
                0.8465989478413479,
                -0.7758493868730316,
                0.44934143110433666,
                -2.4872517828299188
            ]
        },
        {
            "positions": [
                -2.6566964605042562,
                -0.9611396435126761,
                0.7640343290038035,
                -0.8014026221589098,
                0.44073754521884684,
                -2.3329732933585077
            ]
        },
        {
            "positions": [
                -2.553015928799636,
                -0.9767786501496047,
                0.6814697101662591,
                -0.826955857444788,
                0.43213365933335696,
                -2.178694803887096
            ]
        },
        {
            "positions": [
                -2.4493353970950156,
                -0.9924176567865335,
                0.5989050913287148,
                -0.852509092730666,
                0.42352977344786713,
                -2.024416314415685
            ]
        },
        {
            "positions": [
                -2.345654865390395,
                -1.0080566634234622,
                0.5163404724911704,
                -0.8780623280165442,
                0.4149258875623773,
                -1.8701378249442735
            ]
        },
        {
            "positions": [
                -2.241974333685775,
                -1.0236956700603907,
                0.43377585365362603,
                -0.9036155633024223,
                0.4063220016768874,
                -1.7158593354728624
            ]
        },
        {
            "positions": [
                -2.1382938019811544,
                -1.0393346766973195,
                0.3512112348160817,
                -0.9291687985883005,
                0.3977181157913976,
                -1.5615808460014513
            ]
        },
        {
            "positions": [
                -2.034613270276534,
                -1.0549736833342482,
                0.26864661597853723,
                -0.9547220338741786,
                0.38911422990590777,
                -1.4073023565300398
            ]
        },
        {
            "positions": [
                -1.9309327385719135,
                -1.070612689971177,
                0.18608199714099283,
                -0.9802752691600567,
                0.38051034402041795,
                -1.2530238670586284
            ]
        },
        {
            "positions": [
                -1.8272522068672932,
                -1.0862516966081057,
                0.10351737830344843,
                -1.005828504445935,
                0.37190645813492806,
                -1.0987453775872171
            ]
        },
        {
            "positions": [
                -1.7235716751626728,
                -1.1018907032450342,
                0.020952759465904136,
                -1.031381739731813,
                0.36330257224943824,
                -0.944466888115806
            ]
        },
        {
            "positions": [
                -1.6198911434580523,
                -1.117529709881963,
                -0.061611859371640265,
                -1.056934975017691,
                0.3546986863639484,
                -0.7901883986443947
            ]
        },
        {
            "positions": [
                -1.516210611753432,
                -1.1331687165188917,
                -0.14417647820918456,
                -1.0824882103035693,
                0.34609480047845853,
                -0.6359099091729836
            ]
        },
        {
            "positions": [
                -1.4125300800488114,
                -1.1488077231558205,
                -0.22674109704672907,
                -1.1080414455894476,
                0.3374909145929687,
                -0.48163141970157186
            ]
        },
        {
            "positions": [
                -1.308849548344191,
                -1.1644467297927492,
                -0.30930571588427347,
                -1.1335946808753257,
                0.3288870287074789,
                -0.32735293023016077
            ]
        },
        {
            "positions": [
                -1.2051690166395708,
                -1.1800857364296777,
                -0.39187033472181765,
                -1.1591479161612037,
                0.320283142821989,
                -0.17307444075874967
            ]
        },
        {
            "positions": [
                -1.1014884849349502,
                -1.1957247430666065,
                -0.47443495355936227,
                -1.184701151447082,
                0.31167925693649917,
                -0.01879595128733813
            ]
        },
        {
            "positions": [
                -0.9978079532303299,
                -1.2113637497035352,
                -0.5569995723969065,
                -1.21025438673296,
                0.30307537105100935,
                0.13548253818407296
            ]
        },
        {
            "positions": [
                -0.8941274215257093,
                -1.227002756340464,
                -0.6395641912344511,
                -1.235807622018838,
                0.29447148516551946,
                0.2897610276554845
            ]
        },
        {
            "positions": [
                -0.790446889821089,
                -1.2426417629773927,
                -0.7221288100719953,
                -1.2613608573047164,
                0.28586759928002964,
                0.4440395171268956
            ]
        },
        {
            "positions": [
                -0.6867663581164689,
                -1.2582807696143212,
                -0.8046934289095397,
                -1.2869140925905944,
                0.2772637133945398,
                0.5983180065983067
            ]
        },
        {
            "positions": [
                -0.5830858264118479,
                -1.27391977625125,
                -0.8872580477470841,
                -1.3124673278764725,
                0.26865982750904993,
                0.7525964960697182
            ]
        },
        {
            "positions": [
                -0.4794052947072277,
                -1.2895587828881787,
                -0.9698226665846283,
                -1.3380205631623507,
                0.2600559416235601,
                0.9068749855411293
            ]
        },
        {
            "positions": [
                -0.44368973043191373,
                -1.3141709387129776,
                -1.065068958968806,
                -1.3868244747138445,
                0.23802208082129458,
                1.0527606381883556
            ]
        },
        {
            "positions": [
                -0.40797416615659976,
                -1.3387830945377766,
                -1.1603152513529837,
                -1.4356283862653385,
                0.21598822001902906,
                1.1986462908355817
            ]
        },
        {
            "positions": [
                -0.37225860188128573,
                -1.3633952503625755,
                -1.2555615437371617,
                -1.4844322978168323,
                0.19395435921676357,
                1.3445319434828078
            ]
        },
        {
            "positions": [
                -0.33654303760597176,
                -1.3880074061873744,
                -1.3508078361213394,
                -1.533236209368326,
                0.17192049841449802,
                1.490417596130034
            ]
        },
        {
            "positions": [
                -0.30082747333065774,
                -1.4126195620121733,
                -1.446054128505517,
                -1.58204012091982,
                0.14988663761223253,
                1.6363032487772604
            ]
        },
        {
            "positions": [
                -0.26511190905534376,
                -1.4372317178369722,
                -1.5413004208896948,
                -1.6308440324713138,
                0.127852776809967,
                1.7821889014244865
            ]
        },
        {
            "positions": [
                -0.2293963447800298,
                -1.4618438736617712,
                -1.6365467132738725,
                -1.6796479440228076,
                0.10581891600770149,
                1.9280745540717128
            ]
        },
        {
            "positions": [
                -0.19368078050471582,
                -1.48645602948657,
                -1.7317930056580502,
                -1.7284518555743014,
                0.08378505520543597,
                2.073960206718939
            ]
        },
        {
            "positions": [
                -0.1579652162294018,
                -1.511068185311369,
                -1.827039298042228,
                -1.7772557671257954,
                0.06175119440317045,
                2.219845859366165
            ]
        },
        {
            "positions": [
                -0.12224965195408782,
                -1.535680341136168,
                -1.9222855904264058,
                -1.8260596786772891,
                0.03971733360090493,
                2.3657315120133915
            ]
        },
        {
            "positions": [
                -0.08653408767877385,
                -1.5602924969609668,
                -2.0175318828105837,
                -1.874863590228783,
                0.017683472798639438,
                2.511617164660618
            ]
        },
        {
            "positions": [
                -0.05081852340345988,
                -1.5849046527857658,
                -2.1127781751947614,
                -1.923667501780277,
                -0.004350388003626082,
                2.6575028173078437
            ]
        },
        {
            "positions": [
                -0.015102959128145854,
                -1.6095168086105647,
                -2.208024467578939,
                -1.9724714133317707,
                -0.02638424880589163,
                2.8033884699550704
            ]
        },
        {
            "positions": [
                0.02061260514716812,
                -1.6341289644353636,
                -2.303270759963117,
                -2.0212753248832644,
                -0.0484181096081571,
                2.9492741226022963
            ]
        },
        {
            "positions": [
                -0.05024152430044655,
                -1.6715416914303347,
                -2.325892287096316,
                -2.068910018634445,
                -0.09315713826893438,
                3.010546401045854
            ]
        },
        {
            "positions": [
                -0.12109565374806122,
                -1.7089544184253058,
                -2.3485138142295154,
                -2.116544712385625,
                -0.13789616692971163,
                3.071818679489412
            ]
        },
        {
            "positions": [
                -0.187587588747668,
                -1.7416262176246837,
                -2.3671178296987927,
                -2.1561288965168606,
                -0.18200849337786934,
                3.119418009715369
            ]
        }
    ]
}