{
    "goal": {
        "global_pose": {
            "orientation": {
                "w": -0.00223480608172531,
                "x": 0.0024358444001904467,
                "y": 0.7094548369677653,
                "z": -0.704743149386269
            },
            "position": {
                "x": -0.37947507619857795,
                "y": -0.6371506643295288,
                "z": 0.19426114857196808
            }
        },
        "name": "move_to_magneteinheit_C"
    },
    "id": "BiTRRT_move_to_magneteinheit_C_120",
    "joint_names": [
        "shoulder_pan_joint",
        "shoulder_lift_joint",
        "elbow_joint",
        "wrist_1_joint",
        "wrist_2_joint",
        "wrist_3_joint"
    ],
    "metrics": {
        "cart_traj_len": 0.5884087442619117,
        "distance_elbow_joint": 0.566833286743941,
        "distance_shoulder_lift_joint": 0.253664712314555,
        "distance_shoulder_pan_joint": 0.8328245135050831,
        "distance_wrist_1_joint": 0.8131432782235835,
        "distance_wrist_2_joint": 1.3461464456780599,
        "distance_wrist_3_joint": 0.7453446733069446,
        "smoothness": 1.5410037757983572,
        "time": 0.07218461000000001,
        "traj_len": 2.1349372144801277,
        "weighted_distance": 2.864949559815617
    },
    "planner": "BiTRRT",
    "start": {
        "state": {
            "elbow_joint": 1.9565354010623817,
            "shoulder_lift_joint": -1.4165861575791021,
            "shoulder_pan_joint": -1.6717766225146293,
            "wrist_1_joint": -0.5286633292919765,
            "wrist_2_joint": 1.472756589071564,
            "wrist_3_joint": -3.1238370188695823
        }
    },
    "waypoints": [
        {
            "positions": [
                -1.6717766225146293,
                -1.4165861575791021,
                1.9565354010623817,
                -0.5286633292919765,
                1.472756589071564,
                -3.1238370188695823
            ]
        },
        {
            "positions": [
                -1.7616537690492056,
                -1.4123751563688858,
                1.9954122776863823,
                -0.5992405544492792,
                1.338542037766894,
                -3.078132081813186
            ]
        },
        {
            "positions": [
                -1.851530915583782,
                -1.4081641551586694,
                2.034289154310383,
                -0.6698177796065818,
                1.204327486462224,
                -3.03242714475679
            ]
        },
        {
            "positions": [
                -1.9414080621183583,
                -1.403953153948453,
                2.0731660309343836,
                -0.7403950047638844,
                1.070112935157554,
                -2.986722207700394
            ]
        },
        {
            "positions": [
                -2.0312852086529345,
                -1.3997421527382365,
                2.1120429075583846,
                -0.8109722299211871,
                0.935898383852884,
                -2.941017270643998
            ]
        },
        {
            "positions": [
                -2.121162355187511,
                -1.3955311515280202,
                2.1509197841823853,
                -0.8815494550784898,
                0.8016838325482141,
                -2.8953123335876016
            ]
        },
        {
            "positions": [
                -2.2110395017220874,
                -1.3913201503178039,
                2.189796660806386,
                -0.9521266802357924,
                0.6674692812435441,
                -2.849607396531206
            ]
        },
        {
            "positions": [
                -2.3009166482566634,
                -1.3871091491075875,
                2.2286735374303865,
                -1.022703905393095,
                0.5332547299388741,
                -2.8039024594748096
            ]
        },
        {
            "positions": [
                -2.39079379479124,
                -1.3828981478973712,
                2.267550414054387,
                -1.0932811305503978,
                0.39904017863420427,
                -2.7581975224184134
            ]
        },
        {
            "positions": [
                -2.4397758830218716,
                -1.343683334900204,
                2.214938771922272,
                -1.0647988139358135,
                0.4920436173981756,
                -2.867357407726027
            ]
        },
        {
            "positions": [
                -2.488757971252504,
                -1.3044685219030365,
                2.162327129790157,
                -1.0363164973212295,
                0.5850470561621469,
                -2.9765172930336403
            ]
        },
        {
            "positions": [
                -2.4808363888689,
                -1.2336949835837918,
                2.0870296350463047,
                -0.9405360754532326,
                0.6282586350185257,
                -3.0572099961539148
            ]
        },
        {
            "positions": [
                -2.4729148064852953,
                -1.162921445264547,
                2.0117321403024517,
                -0.8447556535852356,
                0.6714702138749046,
                -3.137902699274189
            ]
        }
    ]
}