{
    "goal": {
        "global_pose": {
            "orientation": {
                "w": -0.00223480608172531,
                "x": 0.0024358444001904467,
                "y": 0.7094548369677653,
                "z": -0.704743149386269
            },
            "position": {
                "x": 0.6205249238014221,
                "y": -0.6371506643295288,
                "z": 0.19426114857196808
            }
        },
        "name": "move_to_magneteinheit_B"
    },
    "id": "BiTRRT_move_to_magneteinheit_B_118",
    "joint_names": [
        "shoulder_pan_joint",
        "shoulder_lift_joint",
        "elbow_joint",
        "wrist_1_joint",
        "wrist_2_joint",
        "wrist_3_joint"
    ],
    "metrics": {
        "cart_traj_len": 1.52826002001785,
        "distance_elbow_joint": 0.9623446036371814,
        "distance_shoulder_lift_joint": 0.7808948137604336,
        "distance_shoulder_pan_joint": 1.62090082946075,
        "distance_wrist_1_joint": 0.7050223557181123,
        "distance_wrist_2_joint": 1.537515100420203,
        "distance_wrist_3_joint": 0.7337228434085439,
        "smoothness": 0.6516169406779636,
        "time": 0.091199872,
        "traj_len": 2.5180151997963045,
        "weighted_distance": 3.1702340117664227
    },
    "planner": "BiTRRT",
    "start": {
        "state": {
            "elbow_joint": 2.6216224122426386,
            "shoulder_lift_joint": -1.4174107377796124,
            "shoulder_pan_joint": 0.7066234856936794,
            "wrist_1_joint": 1.9546482284002225,
            "wrist_2_joint": -0.7096286983471962,
            "wrist_3_joint": 0.005740856962016249
        }
    },
    "waypoints": [
        {
            "positions": [
                0.7066234856936794,
                -1.4174107377796124,
                2.6216224122426386,
                1.9546482284002225,
                -0.7096286983471962,
                0.005740856962016249
            ]
        },
        {
            "positions": [
                0.6848691074842843,
                -1.4320137966982083,
                2.62751585039151,
                1.9097196876639608,
                -0.6992452095495421,
                0.014931718287146992
            ]
        },
        {
            "positions": [
                0.5799478569542738,
                -1.40553843926588,
                2.5563472557957505,
                1.883846149710194,
                -0.7863951780320244,
                0.0601349785202168
            ]
        },
        {
            "positions": [
                0.47502660642426314,
                -1.379063081833552,
                2.485178661199991,
                1.857972611756427,
                -0.8735451465145069,
                0.10533823875328661
            ]
        },
        {
            "positions": [
                0.37010535589425253,
                -1.3525877244012239,
                2.414010066604232,
                1.8320990738026601,
                -0.9606951149969893,
                0.1505414989863564
            ]
        },
        {
            "positions": [
                0.265184105364242,
                -1.326112366968896,
                2.3428414720084727,
                1.8062255358488932,
                -1.0478450834794717,
                0.19574475921942622
            ]
        },
        {
            "positions": [
                0.16026285483423142,
                -1.2996370095365677,
                2.2716728774127133,
                1.7803519978951265,
                -1.134995051961954,
                0.24094801945249603
            ]
        },
        {
            "positions": [
                0.05534160430422075,
                -1.2731616521042395,
                2.2005042828169543,
                1.7544784599413596,
                -1.2221450204444366,
                0.28615127968556586
            ]
        },
        {
            "positions": [
                -0.04957964622578981,
                -1.2466862946719115,
                2.129335688221195,
                1.7286049219875927,
                -1.309294988926919,
                0.33135453991863567
            ]
        },
        {
            "positions": [
                -0.1545008967558004,
                -1.2202109372395833,
                2.0581670936254355,
                1.7027313840338258,
                -1.3964449574094013,
                0.3765578001517055
            ]
        },
        {
            "positions": [
                -0.2389205019792749,
                -1.1586010599747818,
                2.0151557148785204,
                1.7530764408506831,
                -1.488659608938589,
                0.3362349223496105
            ]
        },
        {
            "positions": [
                -0.32334010720274936,
                -1.0969911827099805,
                1.9721443361316053,
                1.8034214976675405,
                -1.5808742604677768,
                0.2959120445475156
            ]
        },
        {
            "positions": [
                -0.4077597124262238,
                -1.035381305445179,
                1.9291329573846903,
                1.8537665544843978,
                -1.6730889119969645,
                0.2555891667454206
            ]
        },
        {
            "positions": [
                -0.49217931764969836,
                -0.9737714281803777,
                1.8861215786377752,
                1.904111611301255,
                -1.7653035635261523,
                0.21526628894332564
            ]
        },
        {
            "positions": [
                -0.5765989228731728,
                -0.9121615509155763,
                1.8431101998908601,
                1.9544566681181124,
                -1.85751821505534,
                0.17494341114123066
            ]
        },
        {
            "positions": [
                -0.6610185280966472,
                -0.8505516736507749,
                1.800098821143945,
                2.0048017249349694,
                -1.9497328665845277,
                0.1346205333391357
            ]
        },
        {
            "positions": [
                -0.7454381333201218,
                -0.7889417963859735,
                1.75708744239703,
                2.055146781751827,
                -2.0419475181137154,
                0.09429765553704073
            ]
        },
        {
            "positions": [
                -0.8298577385435962,
                -0.727331919121172,
                1.714076063650115,
                2.1054918385686845,
                -2.134162169642903,
                0.0539747777349458
            ]
        },
        {
            "positions": [
                -0.9142773437670707,
                -0.6657220418563706,
                1.6710646849031998,
                2.1558368953855416,
                -2.226376821172091,
                0.013651899932850813
            ]
        }
    ]
}