{
    "goal": {
        "global_pose": {
            "orientation": {
                "w": -0.4816463035849501,
                "x": 0.5182115481033762,
                "y": 0.4908360881923453,
                "z": -0.5084816262002911
            },
            "position": {
                "x": -0.8240239810943604,
                "y": -0.300875300988555,
                "z": 0.16403168439865112
            }
        },
        "name": "move_to_storage_C"
    },
    "id": "BiTRRT_move_to_storage_C_82",
    "joint_names": [
        "shoulder_pan_joint",
        "shoulder_lift_joint",
        "elbow_joint",
        "wrist_1_joint",
        "wrist_2_joint",
        "wrist_3_joint"
    ],
    "metrics": {
        "cart_traj_len": 0.5771531488056136,
        "distance_elbow_joint": 0.2591333166574479,
        "distance_shoulder_lift_joint": 0.19032230194913347,
        "distance_shoulder_pan_joint": 0.49447214158529373,
        "distance_wrist_1_joint": 0.07993729899607083,
        "distance_wrist_2_joint": 1.0723174301714549,
        "distance_wrist_3_joint": 0.07377373066744397,
        "smoothness": 5.075305295617109e-16,
        "time": 0.040395104,
        "traj_len": 1.4730771262995175,
        "weighted_distance": 1.862728753879442
    },
    "planner": "BiTRRT",
    "start": {
        "state": {
            "elbow_joint": 2.010868314990456,
            "shoulder_lift_joint": -1.1634956873337592,
            "shoulder_pan_joint": -2.4736205022346125,
            "wrist_1_joint": -0.8367026794202681,
            "wrist_2_joint": 0.6746043897044499,
            "wrist_3_joint": -3.1496632123970403
        }
    },
    "waypoints": [
        {
            "positions": [
                -2.4736205022346125,
                -1.1634956873337592,
                2.010868314990456,
                -0.8367026794202681,
                0.6746043897044499,
                -3.1496632123970403
            ]
        },
        {
            "positions": [
                -2.5560325258321615,
                -1.1317753036755702,
                1.9676794288808812,
                -0.8233797962542563,
                0.8533239613996924,
                -3.137367590619133
            ]
        },
        {
            "positions": [
                -2.6384445494297104,
                -1.1000549200173815,
                1.9244905427713066,
                -0.8100569130882445,
                1.032043533094935,
                -3.1250719688412256
            ]
        },
        {
            "positions": [
                -2.7208565730272594,
                -1.0683345363591925,
                1.8813016566617318,
                -0.7967340299222327,
                1.2107631047901775,
                -3.1127763470633183
            ]
        },
        {
            "positions": [
                -2.8032685966248083,
                -1.0366141527010035,
                1.8381127705521572,
                -0.7834111467562209,
                1.3894826764854198,
                -3.100480725285411
            ]
        },
        {
            "positions": [
                -2.8856806202223573,
                -1.0048937690428146,
                1.7949238844425826,
                -0.7700882635902091,
                1.5682022481806623,
                -3.0881851035075036
            ]
        },
        {
            "positions": [
                -2.9680926438199062,
                -0.9731733853846257,
                1.751734998333008,
                -0.7567653804241973,
                1.7469218198759047,
                -3.0758894817295963
            ]
        }
    ]
}