{
    "goal": {
        "global_pose": {
            "orientation": {
                "w": 0.7047431468963623,
                "x": -0.7094548344612122,
                "y": 0.0024358443915843964,
                "z": -0.0022348060738295317
            },
            "position": {
                "x": 0.6094750761985779,
                "y": 0.3671506643295288,
                "z": 0.19426114857196808
            }
        },
        "name": "move_to_magneteinheit_A"
    },
    "id": "BiTRRT_move_to_magneteinheit_A_74",
    "joint_names": [
        "shoulder_pan_joint",
        "shoulder_lift_joint",
        "elbow_joint",
        "wrist_1_joint",
        "wrist_2_joint",
        "wrist_3_joint"
    ],
    "metrics": {
        "cart_traj_len": 3.6818561832539434,
        "distance_elbow_joint": 3.8928109176394656,
        "distance_shoulder_lift_joint": 0.8553475671352604,
        "distance_shoulder_pan_joint": 2.60520184802267,
        "distance_wrist_1_joint": 0.9690655383186457,
        "distance_wrist_2_joint": 1.9237183431620728,
        "distance_wrist_3_joint": 3.6248638040756003,
        "smoothness": 0.09352432445833914,
        "time": 0.133683606,
        "traj_len": 3.72438021935915,
        "weighted_distance": 4.900359120307983
    },
    "planner": "BiTRRT",
    "start": {
        "state": {
            "elbow_joint": -1.9196185241190666,
            "shoulder_lift_joint": -1.2443396400964142,
            "shoulder_pan_joint": 2.6996025414629847,
            "wrist_1_joint": -1.5485510000780065,
            "wrist_2_joint": -1.5709468930060704,
            "wrist_3_joint": 0.4420197071253992
        }
    },
    "waypoints": [
        {
            "positions": [
                2.6996025414629847,
                -1.2443396400964142,
                -1.9196185241190666,
                -1.5485510000780065,
                -1.5709468930060704,
                0.4420197071253992
            ]
        },
        {
            "positions": [
                2.6068045869033942,
                -1.2243303090505389,
                -1.8300973823951432,
                -1.512605329188255,
                -1.5015476003654382,
                0.3678261429559925
            ]
        },
        {
            "positions": [
                2.5140066323438037,
                -1.2043209780046633,
                -1.7405762406712197,
                -1.4766596582985039,
                -1.4321483077248063,
                0.2936325787865858
            ]
        },
        {
            "positions": [
                2.4212086777842132,
                -1.184311646958788,
                -1.6510550989472965,
                -1.4407139874087525,
                -1.3627490150841741,
                0.21943901461717902
            ]
        },
        {
            "positions": [
                2.3284107232246227,
                -1.1643023159129127,
                -1.561533957223373,
                -1.404768316519001,
                -1.2933497224435422,
                0.14524545044777232
            ]
        },
        {
            "positions": [
                2.2356127686650322,
                -1.1442929848670371,
                -1.4720128154994496,
                -1.3688226456292496,
                -1.22395042980291,
                0.07105188627836556
            ]
        },
        {
            "positions": [
                2.142814814105442,
                -1.1242836538211618,
                -1.3824916737755262,
                -1.3328769747394982,
                -1.154551137162278,
                -0.003141677891041139
            ]
        },
        {
            "positions": [
                2.0500168595458517,
                -1.1042743227752865,
                -1.2929705320516027,
                -1.296931303849747,
                -1.085151844521646,
                -0.07733524206044784
            ]
        },
        {
            "positions": [
                1.9572189049862612,
                -1.084264991729411,
                -1.2034493903276795,
                -1.2609856329599956,
                -1.015752551881014,
                -0.15152880622985454
            ]
        },
        {
            "positions": [
                1.8644209504266707,
                -1.0642556606835356,
                -1.1139282486037558,
                -1.2250399620702441,
                -0.9463532592403818,
                -0.22572237039926135
            ]
        },
        {
            "positions": [
                1.7716229958670802,
                -1.0442463296376603,
                -1.0244071068798326,
                -1.189094291180493,
                -0.8769539665997498,
                -0.29991593456866805
            ]
        },
        {
            "positions": [
                1.6788250413074897,
                -1.0242369985917847,
                -0.9348859651559092,
                -1.1531486202907415,
                -0.8075546739591177,
                -0.37410949873807475
            ]
        },
        {
            "positions": [
                1.5860270867478992,
                -1.0042276675459094,
                -0.8453648234319857,
                -1.11720294940099,
                -0.7381553813184857,
                -0.44830306290748145
            ]
        },
        {
            "positions": [
                1.4932291321883089,
                -0.9842183365000341,
                -0.7558436817080625,
                -1.0812572785112389,
                -0.6687560886778536,
                -0.5224966270768882
            ]
        },
        {
            "positions": [
                1.4004311776287182,
                -0.9642090054541586,
                -0.6663225399841388,
                -1.0453116076214872,
                -0.5993567960372215,
                -0.5966901912462949
            ]
        },
        {
            "positions": [
                1.3076332230691277,
                -0.9441996744082832,
                -0.5768013982602156,
                -1.009365936731736,
                -0.5299575033965895,
                -0.6708837554157016
            ]
        },
        {
            "positions": [
                1.2148352685095374,
                -0.9241903433624079,
                -0.48728025653629214,
                -0.9734202658419846,
                -0.4605582107559576,
                -0.7450773195851083
            ]
        },
        {
            "positions": [
                1.1220373139499467,
                -0.9041810123165324,
                -0.3977591148123685,
                -0.9374745949522332,
                -0.39115891811532544,
                -0.8192708837545152
            ]
        },
        {
            "positions": [
                1.0292393593903564,
                -0.884171681270657,
                -0.30823797308844525,
                -0.9015289240624819,
                -0.3217596254746933,
                -0.8934644479239219
            ]
        },
        {
            "positions": [
                0.9364414048307661,
                -0.8641623502247817,
                -0.21871683136452202,
                -0.8655832531727305,
                -0.25236033283406134,
                -0.9676580120933284
            ]
        },
        {
            "positions": [
                0.8436434502711754,
                -0.8441530191789062,
                -0.12919568964059835,
                -0.8296375822829791,
                -0.18296104019342918,
                -1.0418515762627352
            ]
        },
        {
            "positions": [
                0.7508454957115851,
                -0.8241436881330308,
                -0.03967454791667491,
                -0.7936919113932277,
                -0.11356174755279724,
                -1.116045140432142
            ]
        },
        {
            "positions": [
                0.6580475411519946,
                -0.8041343570871555,
                0.04984659380724832,
                -0.7577462405034764,
                -0.04416245491216508,
                -1.1902387046015486
            ]
        },
        {
            "positions": [
                0.5652495865924041,
                -0.78412502604128,
                0.139367735531172,
                -0.721800569613725,
                0.025236837728467076,
                -1.2644322687709555
            ]
        },
        {
            "positions": [
                0.4724516320328134,
                -0.7641156949954047,
                0.22888887725509527,
                -0.6858548987239736,
                0.09463613036909892,
                -1.338625832940362
            ]
        },
        {
            "positions": [
                0.43207417676405,
                -0.7865865706762523,
                0.37710389801352207,
                -0.6852905545497777,
                0.11138283071059382,
                -1.4997829877519504
            ]
        },
        {
            "positions": [
                0.3916967214952867,
                -0.8090574463571,
                0.5253189187719488,
                -0.6847262103755819,
                0.1281295310520887,
                -1.6609401425635386
            ]
        },
        {
            "positions": [
                0.35131926622652343,
                -0.8315283220379476,
                0.6735339395303755,
                -0.684161866201386,
                0.14487623139358363,
                -1.822097297375127
            ]
        },
        {
            "positions": [
                0.3109418109577601,
                -0.8539991977187953,
                0.8217489602888024,
                -0.6835975220271902,
                0.16162293173507852,
                -1.9832544521867153
            ]
        },
        {
            "positions": [
                0.2705643556889967,
                -0.8764700733996429,
                0.9699639810472291,
                -0.6830331778529942,
                0.17836963207657344,
                -2.144411606998304
            ]
        },
        {
            "positions": [
                0.23018690042023343,
                -0.8989409490804905,
                1.1181790018056559,
                -0.6824688336787984,
                0.19511633241806833,
                -2.305568761809892
            ]
        },
        {
            "positions": [
                0.18980944515147008,
                -0.9214118247613382,
                1.2663940225640826,
                -0.6819044895046025,
                0.21186303275956325,
                -2.4667259166214803
            ]
        },
        {
            "positions": [
                0.14943198988270678,
                -0.9438827004421859,
                1.4146090433225094,
                -0.6813401453304067,
                0.22860973310105814,
                -2.627883071433069
            ]
        },
        {
            "positions": [
                0.10905453461394343,
                -0.9663535761230335,
                1.562824064080936,
                -0.6807758011562107,
                0.24535643344255306,
                -2.789040226244657
            ]
        },
        {
            "positions": [
                0.11124615073727674,
                -1.0079959450154174,
                1.6653248501658966,
                -0.704385771636595,
                0.220419971922858,
                -2.888925719128121
            ]
        },
        {
            "positions": [
                0.11343776686061006,
                -1.0496383139078016,
                1.7678256362508573,
                -0.7279957421169791,
                0.19548351040316292,
                -2.988811212011585
            ]
        },
        {
            "positions": [
                0.11562938298394337,
                -1.0912806828001855,
                1.8703264223358178,
                -0.7516057125973634,
                0.17054704888346786,
                -3.0886967048950487
            ]
        },
        {
            "positions": [
                0.12370837578757031,
                -1.1392393170296555,
                1.9731923935203992,
                -0.7820661405530607,
                0.1379414167291041,
                -3.1828440969502005
            ]
        }
    ]
}