{
    "goal": {
        "global_pose": {
            "orientation": {
                "w": 0.5084816217422485,
                "x": -0.49083608388900757,
                "y": 0.5182115435600281,
                "z": -0.4816462993621826
            },
            "position": {
                "x": 0.5540239810943604,
                "y": 0.030875300988554955,
                "z": 0.16403168439865112
            }
        },
        "name": "move_to_storage_A"
    },
    "id": "BiTRRT_move_to_storage_A_131",
    "joint_names": [
        "shoulder_pan_joint",
        "shoulder_lift_joint",
        "elbow_joint",
        "wrist_1_joint",
        "wrist_2_joint",
        "wrist_3_joint"
    ],
    "metrics": {
        "cart_traj_len": 0.35230773583123054,
        "distance_elbow_joint": 0.44878320126715177,
        "distance_shoulder_lift_joint": 0.23373661312503757,
        "distance_shoulder_pan_joint": 0.4612026734299193,
        "distance_wrist_1_joint": 0.23821356853172804,
        "distance_wrist_2_joint": 1.0947766362235247,
        "distance_wrist_3_joint": 0.1048794379073712,
        "smoothness": 2.220446049250313e-15,
        "time": 0.060092822000000004,
        "traj_len": 1.6067333725558615,
        "weighted_distance": 2.030847412056043
    },
    "planner": "BiTRRT",
    "start": {
        "state": {
            "elbow_joint": 1.971548259319323,
            "shoulder_lift_joint": -1.1394851275133948,
            "shoulder_pan_joint": 0.1228115487234821,
            "wrist_1_joint": -0.7804723859257726,
            "wrist_2_joint": 0.12958671773740124,
            "wrist_3_joint": -3.192489227718131
        }
    },
    "waypoints": [
        {
            "positions": [
                0.1228115487234821,
                -1.1394851275133948,
                1.971548259319323,
                -0.7804723859257726,
                0.12958671773740124,
                -3.192489227718131
            ]
        },
        {
            "positions": [
                0.05692545251920793,
                -1.1728760722455431,
                2.0356601452146306,
                -0.8145028957160195,
                0.28598338005504764,
                -3.177506450874221
            ]
        },
        {
            "positions": [
                -0.008960643685066244,
                -1.2062670169776912,
                2.099772031109938,
                -0.8485334055062663,
                0.442380042372694,
                -3.162523674030311
            ]
        },
        {
            "positions": [
                -0.07484673988934043,
                -1.2396579617098396,
                2.1638839170052453,
                -0.8825639152965132,
                0.5987767046903404,
                -3.1475408971864005
            ]
        },
        {
            "positions": [
                -0.1407328360936146,
                -1.2730489064419876,
                2.2279958029005527,
                -0.91659442508676,
                0.7551733670079868,
                -3.1325581203424906
            ]
        },
        {
            "positions": [
                -0.2066189322978888,
                -1.306439851174136,
                2.29210768879586,
                -0.9506249348770069,
                0.9115700293256332,
                -3.1175753434985802
            ]
        },
        {
            "positions": [
                -0.27250502850216296,
                -1.339830795906284,
                2.3562195746911674,
                -0.9846554446672537,
                1.0679666916432795,
                -3.1025925666546703
            ]
        },
        {
            "positions": [
                -0.3383911247064372,
                -1.3732217406384324,
                2.4203314605864747,
                -1.0186859544575007,
                1.224363353960926,
                -3.08760978981076
            ]
        }
    ]
}{
    "goal": {
        "global_pose": {
            "orientation": {
                "w": 0.5084816217422485,
                "x": -0.49083608388900757,
                "y": 0.5182115435600281,
                "z": -0.4816462993621826
            },
            "position": {
                "x": 0.5540239810943604,
                "y": 0.030875300988554955,
                "z": 0.16403168439865112
            }
        },
        "name": "move_to_storage_A"
    },
    "id": "BiTRRT_move_to_storage_A_131",
    "joint_names": [
        "shoulder_pan_joint",
        "shoulder_lift_joint",
        "elbow_joint",
        "wrist_1_joint",
        "wrist_2_joint",
        "wrist_3_joint"
    ],
    "metrics": {
        "cart_traj_len": 0.35247609654849915,
        "distance_elbow_joint": 0.44873867687054325,
        "distance_shoulder_lift_joint": 0.23287445942773788,
        "distance_shoulder_pan_joint": 0.4577773040656804,
        "distance_wrist_1_joint": 0.24445157897099268,
        "distance_wrist_2_joint": 1.1099126637196906,
        "distance_wrist_3_joint": 0.08785480781632682,
        "smoothness": 1.3322676292611541e-15,
        "time": 0.040785648,
        "traj_len": 1.6067387749323072,
        "weighted_distance": 2.0277286182313223
    },
    "planner": "BiTRRT",
    "start": {
        "state": {
            "elbow_joint": 1.97154746011099,
            "shoulder_lift_joint": -1.13948474672311,
            "shoulder_pan_joint": 0.12281154466712228,
            "wrist_1_joint": -0.7804688027058302,
            "wrist_2_joint": 0.12958655903071145,
            "wrist_3_joint": 3.0906928834467795
        }
    },
    "waypoints": [
        {
            "positions": [
                0.12281154466712228,
                -1.13948474672311,
                1.97154746011099,
                -0.7804688027058302,
                0.12958655903071145,
                3.0906928834467795
            ]
        },
        {
            "positions": [
                0.05741478694345366,
                -1.1727525266413583,
                2.0356529853782104,
                -0.8153904568445435,
                0.2881455109906672,
                3.1032435702776833
            ]
        },
        {
            "positions": [
                -0.007981970780214967,
                -1.2060203065596065,
                2.099758510645431,
                -0.8503121109832567,
                0.44670446295062305,
                3.115794257108587
            ]
        },
        {
            "positions": [
                -0.07337872850388359,
                -1.2392880864778548,
                2.1638640359126513,
                -0.8852337651219699,
                0.6052634149105788,
                3.128344943939491
            ]
        },
        {
            "positions": [
                -0.1387754862275522,
                -1.272555866396103,
                2.2279695611798718,
                -0.9201554192606831,
                0.7638223668705346,
                3.140895630770395
            ]
        },
        {
            "positions": [
                -0.20417224395122086,
                -1.3058236463143513,
                2.2920750864470922,
                -0.9550770733993964,
                0.9223813188304905,
                3.153446317601299
            ]
        },
        {
            "positions": [
                -0.26956900167488945,
                -1.3390914262325995,
                2.3561806117143127,
                -0.9899987275381096,
                1.080940270790446,
                3.1659970044322026
            ]
        },
        {
            "positions": [
                -0.3349657593985581,
                -1.3723592061508478,
                2.420286136981533,
                -1.0249203816768229,
                1.239499222750402,
                3.1785476912631063
            ]
        }
    ]
}{
    "goal": {
        "global_pose": {
            "orientation": {
                "w": 0.5084816217422485,
                "x": -0.49083608388900757,
                "y": 0.5182115435600281,
                "z": -0.4816462993621826
            },
            "position": {
                "x": 0.5540239810943604,
                "y": 0.030875300988554955,
                "z": 0.16403168439865112
            }
        },
        "name": "move_to_storage_A"
    },
    "id": "BiTRRT_move_to_storage_A_131",
    "joint_names": [
        "shoulder_pan_joint",
        "shoulder_lift_joint",
        "elbow_joint",
        "wrist_1_joint",
        "wrist_2_joint",
        "wrist_3_joint"
    ],
    "metrics": {
        "cart_traj_len": 0.3527741428599651,
        "distance_elbow_joint": 0.4482520979185298,
        "distance_shoulder_lift_joint": 0.2337117854128421,
        "distance_shoulder_pan_joint": 0.46072275326849693,
        "distance_wrist_1_joint": 0.2359025201784115,
        "distance_wrist_2_joint": 1.1003136858538873,
        "distance_wrist_3_joint": 0.09507653051766374,
        "smoothness": 8.881784197001252e-16,
        "time": 0.044022157,
        "traj_len": 1.6043626065044745,
        "weighted_distance": 2.024931761866917
    },
    "planner": "BiTRRT",
    "start": {
        "state": {
            "elbow_joint": 1.9715472970024885,
            "shoulder_lift_joint": -1.1394870060712896,
            "shoulder_pan_joint": 0.12281152778156021,
            "wrist_1_joint": -0.780463741449964,
            "wrist_2_joint": 0.12958659822042276,
            "wrist_3_joint": 3.090690232415272
        }
    },
    "waypoints": [
        {
            "positions": [
                0.12281152778156021,
                -1.1394870060712896,
                1.9715472970024885,
                -0.780463741449964,
                0.12958659822042276,
                3.090690232415272
            ]
        },
        {
            "positions": [
                0.05699399160034638,
                -1.17287440398741,
                2.03558331099085,
                -0.8141641014754514,
                0.28677426762812097,
                3.1042725939177953
            ]
        },
        {
            "positions": [
                -0.008823544580867454,
                -1.2062618019035303,
                2.099619324979211,
                -0.8478644615009387,
                0.4439619370358191,
                3.1178549554203188
            ]
        },
        {
            "positions": [
                -0.07464108076208129,
                -1.2396491998196506,
                2.1636553389675726,
                -0.881564821526426,
                0.6011496064435173,
                3.131437316922842
            ]
        },
        {
            "positions": [
                -0.14045861694329512,
                -1.2730365977357707,
                2.227691352955934,
                -0.9152651815519134,
                0.7583372758512155,
                3.1450196784253652
            ]
        },
        {
            "positions": [
                -0.206276153124509,
                -1.306423995651891,
                2.2917273669442957,
                -0.9489655415774008,
                0.9155249452589137,
                3.1586020399278887
            ]
        },
        {
            "positions": [
                -0.27209368930572275,
                -1.3398113935680114,
                2.355763380932657,
                -0.9826659016028881,
                1.072712614666612,
                3.172184401430412
            ]
        },
        {
            "positions": [
                -0.3379112254869367,
                -1.3731987914841317,
                2.4197993949210184,
                -1.0163662616283755,
                1.22990028407431,
                3.1857667629329356
            ]
        }
    ]
}