{
    "goal": {
        "global_pose": {
            "orientation": {
                "w": 0.005598929693374612,
                "x": 0.007748599140229565,
                "y": 0.7110244013736278,
                "z": -0.7031023480610252
            },
            "position": {
                "x": 0.1141497679147869,
                "y": -0.7141253447532654,
                "z": 0.3711530566215515
            }
        },
        "name": "move_to_auspresseinheit_B"
    },
    "id": "BiTRRT_move_to_auspresseinheit_B_71",
    "joint_names": [
        "shoulder_pan_joint",
        "shoulder_lift_joint",
        "elbow_joint",
        "wrist_1_joint",
        "wrist_2_joint",
        "wrist_3_joint"
    ],
    "metrics": {
        "cart_traj_len": 0.5648795021242737,
        "distance_elbow_joint": 0.06746949493850152,
        "distance_shoulder_lift_joint": 0.29245899798904396,
        "distance_shoulder_pan_joint": 0.5752840888864157,
        "distance_wrist_1_joint": 0.33907590398576914,
        "distance_wrist_2_joint": 1.00089534540131,
        "distance_wrist_3_joint": 0.009213500476103142,
        "smoothness": 2.5376526478085547e-16,
        "time": 0.052577789,
        "traj_len": 1.5114222876738135,
        "weighted_distance": 1.9086109037769927
    },
    "planner": "BiTRRT",
    "start": {
        "state": {
            "elbow_joint": 2.0193083361928714,
            "shoulder_lift_joint": -1.1220246554650708,
            "shoulder_pan_joint": -1.0952077554168747,
            "wrist_1_joint": -0.8559753972642168,
            "wrist_2_joint": 0.4759566250798843,
            "wrist_3_joint": -3.1240929996934557
        }
    },
    "waypoints": [
        {
            "positions": [
                -1.0952077554168747,
                -1.1220246554650708,
                2.0193083361928714,
                -0.8559753972642168,
                0.4759566250798843,
                -3.1240929996934557
            ]
        },
        {
            "positions": [
                -1.191088436897944,
                -1.170767821796578,
                2.008063420369788,
                -0.7994627465999219,
                0.6427725159801027,
                -3.1225574162807717
            ]
        },
        {
            "positions": [
                -1.2869691183790133,
                -1.2195109881280854,
                1.9968185045467042,
                -0.7429500959356271,
                0.809588406880321,
                -3.121021832868088
            ]
        },
        {
            "positions": [
                -1.3828497998600824,
                -1.2682541544595929,
                1.9855735887236206,
                -0.6864374452713322,
                0.9764042977805394,
                -3.119486249455404
            ]
        },
        {
            "positions": [
                -1.4787304813411517,
                -1.3169973207911,
                1.9743286729005372,
                -0.6299247946070374,
                1.1432201886807576,
                -3.11795066604272
            ]
        },
        {
            "positions": [
                -1.574611162822221,
                -1.3657404871226073,
                1.9630837570774535,
                -0.5734121439427424,
                1.310036079580976,
                -3.1164150826300365
            ]
        },
        {
            "positions": [
                -1.6704918443032903,
                -1.4144836534541148,
                1.95183884125437,
                -0.5168994932784476,
                1.4768519704811944,
                -3.1148794992173525
            ]
        }
    ]
}