{
    "goal": {
        "global_pose": {
            "orientation": {
                "w": -0.4816463035849501,
                "x": 0.5182115481033762,
                "y": 0.4908360881923453,
                "z": -0.5084816262002911
            },
            "position": {
                "x": -0.8240239810943604,
                "y": -0.300875300988555,
                "z": 0.16403168439865112
            }
        },
        "name": "move_to_storage_C"
    },
    "id": "BiTRRT_move_to_storage_C_40",
    "joint_names": [
        "shoulder_pan_joint",
        "shoulder_lift_joint",
        "elbow_joint",
        "wrist_1_joint",
        "wrist_2_joint",
        "wrist_3_joint"
    ],
    "metrics": {
        "cart_traj_len": 0.5765303099336215,
        "distance_elbow_joint": 0.25473020546643155,
        "distance_shoulder_lift_joint": 0.18865154269974027,
        "distance_shoulder_pan_joint": 0.49563360867129935,
        "distance_wrist_1_joint": 0.06936450579572728,
        "distance_wrist_2_joint": 1.0633555519283457,
        "distance_wrist_3_joint": 0.07418785463406463,
        "smoothness": 2.5376526478085547e-16,
        "time": 0.050466752999999996,
        "traj_len": 1.4648970165836261,
        "weighted_distance": 1.851220958229409
    },
    "planner": "BiTRRT",
    "start": {
        "state": {
            "elbow_joint": 2.010868314990456,
            "shoulder_lift_joint": -1.1634956873337592,
            "shoulder_pan_joint": -2.4736205022346125,
            "wrist_1_joint": -0.8367026794202681,
            "wrist_2_joint": 0.6746043897044499,
            "wrist_3_joint": -3.1496632123970403
        }
    },
    "waypoints": [
        {
            "positions": [
                -2.4736205022346125,
                -1.1634956873337592,
                2.010868314990456,
                -0.8367026794202681,
                0.6746043897044499,
                -3.1496632123970403
            ]
        },
        {
            "positions": [
                -2.556226103679829,
                -1.132053763550469,
                1.9684132807460506,
                -0.8251419284543136,
                0.8518303150258408,
                -3.1372985699580296
            ]
        },
        {
            "positions": [
                -2.6388317051250456,
                -1.1006118397671791,
                1.9259582465016454,
                -0.813581177488359,
                1.0290562403472319,
                -3.124933927519019
            ]
        },
        {
            "positions": [
                -2.7214373065702624,
                -1.069169915983889,
                1.88350321225724,
                -0.8020204265224045,
                1.2062821656686227,
                -3.112569285080008
            ]
        },
        {
            "positions": [
                -2.8040429080154787,
                -1.037727992200599,
                1.8410481780128347,
                -0.7904596755564499,
                1.3835080909900137,
                -3.100204642640997
            ]
        },
        {
            "positions": [
                -2.886648509460695,
                -1.006286068417309,
                1.7985931437684295,
                -0.7788989245904954,
                1.5607340163114047,
                -3.0878400002019863
            ]
        },
        {
            "positions": [
                -2.969254110905912,
                -0.9748441446340189,
                1.7561381095240243,
                -0.7673381736245408,
                1.7379599416327958,
                -3.0754753577629756
            ]
        }
    ]
}