{
    "goal": {
        "global_pose": {
            "orientation": {
                "w": 0.5084816262002911,
                "x": -0.4908360881923452,
                "y": 0.5182115481033761,
                "z": -0.48164630358495003
            },
            "position": {
                "x": 0.5540239810943604,
                "y": -0.46912469901144505,
                "z": 0.16403168439865112
            }
        },
        "name": "move_to_storage_B"
    },
    "id": "BiTRRT_move_to_storage_B_138",
    "joint_names": [
        "shoulder_pan_joint",
        "shoulder_lift_joint",
        "elbow_joint",
        "wrist_1_joint",
        "wrist_2_joint",
        "wrist_3_joint"
    ],
    "metrics": {
        "cart_traj_len": 1.4179926727227463,
        "distance_elbow_joint": 1.492149808497857,
        "distance_shoulder_lift_joint": 0.45900046288093055,
        "distance_shoulder_pan_joint": 1.4376035752070453,
        "distance_wrist_1_joint": 2.9955705330391496,
        "distance_wrist_2_joint": 2.7005749036874556,
        "distance_wrist_3_joint": 3.157538273389495,
        "smoothness": 0.40256479253616145,
        "time": 0.109409057,
        "traj_len": 3.498919484169639,
        "weighted_distance": 4.924800456892394
    },
    "planner": "BiTRRT",
    "start": {
        "state": {
            "elbow_joint": 1.664937868594044,
            "shoulder_lift_joint": -0.661644460510453,
            "shoulder_pan_joint": -0.9139846352900073,
            "wrist_1_joint": 2.146753192139373,
            "wrist_2_joint": -2.2341966793290973,
            "wrist_3_joint": 0.005466555786416001
        }
    },
    "waypoints": [
        {
            "positions": [
                -0.9139846352900073,
                -0.661644460510453,
                1.664937868594044,
                2.146753192139373,
                -2.2341966793290973,
                0.005466555786416001
            ]
        },
        {
            "positions": [
                -0.904603199933818,
                -0.6639561572205221,
                1.6648729980154502,
                2.1383622283085737,
                -2.222685594911792,
                0.018376987650396488
            ]
        },
        {
            "positions": [
                -0.8531167185926659,
                -0.6729572729089914,
                1.6173348580982034,
                2.0167100455351683,
                -2.109960140978103,
                -0.030441328562620145
            ]
        },
        {
            "positions": [
                -0.8016302372515139,
                -0.6819583885974608,
                1.5697967181809567,
                1.895057862761763,
                -1.9972346870444142,
                -0.07925964477563678
            ]
        },
        {
            "positions": [
                -0.7501437559103619,
                -0.6909595042859302,
                1.5222585782637101,
                1.7734056799883575,
                -1.8845092331107252,
                -0.1280779609886534
            ]
        },
        {
            "positions": [
                -0.6986572745692099,
                -0.6999606199743995,
                1.4747204383464634,
                1.6517534972149521,
                -1.7717837791770363,
                -0.17689627720167003
            ]
        },
        {
            "positions": [
                -0.6471707932280577,
                -0.7089617356628688,
                1.4271822984292166,
                1.5301013144415467,
                -1.6590583252433473,
                -0.22571459341468667
            ]
        },
        {
            "positions": [
                -0.5956843118869057,
                -0.7179628513513382,
                1.3796441585119699,
                1.4084491316681413,
                -1.5463328713096582,
                -0.2745329096277033
            ]
        },
        {
            "positions": [
                -0.5441978305457537,
                -0.7269639670398076,
                1.332106018594723,
                1.2867969488947357,
                -1.4336074173759692,
                -0.32335122584071996
            ]
        },
        {
            "positions": [
                -0.4927113492046017,
                -0.7359650827282769,
                1.2845678786774766,
                1.1651447661213306,
                -1.3208819634422806,
                -0.3721695420537366
            ]
        },
        {
            "positions": [
                -0.4412248678634496,
                -0.7449661984167462,
                1.2370297387602296,
                1.043492583347925,
                -1.2081565095085915,
                -0.4209878582667532
            ]
        },
        {
            "positions": [
                -0.38973838652229753,
                -0.7539673141052156,
                1.189491598842983,
                0.9218404005745195,
                -1.0954310555749025,
                -0.46980617447976986
            ]
        },
        {
            "positions": [
                -0.33825190518114556,
                -0.762968429793685,
                1.1419534589257363,
                0.8001882178011142,
                -0.9827056016412137,
                -0.5186244906927864
            ]
        },
        {
            "positions": [
                -0.28676542383999354,
                -0.7719695454821542,
                1.0944153190084895,
                0.6785360350277088,
                -0.8699801477075246,
                -0.5674428069058031
            ]
        },
        {
            "positions": [
                -0.3294172324587847,
                -0.7903208811615874,
                1.142922016845979,
                0.5981490152420516,
                -0.7996454965461623,
                -0.7021169146410302
            ]
        },
        {
            "positions": [
                -0.3720690410775758,
                -0.8086722168410205,
                1.1914287146834688,
                0.5177619954563945,
                -0.7293108453848001,
                -0.8367910223762574
            ]
        },
        {
            "positions": [
                -0.4147208496963669,
                -0.8270235525204536,
                1.2399354125209583,
                0.43737497567073724,
                -0.6589761942234378,
                -0.9714651301114845
            ]
        },
        {
            "positions": [
                -0.45737265831515805,
                -0.8453748881998867,
                1.288442110358448,
                0.3569879558850801,
                -0.5886415430620755,
                -1.1061392378467114
            ]
        },
        {
            "positions": [
                -0.5000244669339492,
                -0.8637262238793199,
                1.3369488081959375,
                0.27660093609942293,
                -0.5183068919007132,
                -1.2408133455819388
            ]
        },
        {
            "positions": [
                -0.5426762755527403,
                -0.882077559558753,
                1.3854555060334273,
                0.19621391631376578,
                -0.44797224073935105,
                -1.3754874533171657
            ]
        },
        {
            "positions": [
                -0.5853280841715315,
                -0.900428895238186,
                1.4339622038709168,
                0.11582689652810862,
                -0.37763758957798876,
                -1.510161561052393
            ]
        },
        {
            "positions": [
                -0.6279798927903226,
                -0.9187802309176192,
                1.4824689017084065,
                0.035439876742451415,
                -0.3073029384166265,
                -1.64483566878762
            ]
        },
        {
            "positions": [
                -0.6706317014091138,
                -0.9371315665970523,
                1.530975599545896,
                -0.044947143043205684,
                -0.2369682872552642,
                -1.7795097765228471
            ]
        },
        {
            "positions": [
                -0.7132835100279049,
                -0.9554829022764855,
                1.5794822973833855,
                -0.1253341628288629,
                -0.16663363609390192,
                -1.9141838842580743
            ]
        },
        {
            "positions": [
                -0.755935318646696,
                -0.9738342379559186,
                1.6279889952208753,
                -0.2057211826145201,
                -0.09629898493253963,
                -2.0488579919933017
            ]
        },
        {
            "positions": [
                -0.7985871272654872,
                -0.9921855736353516,
                1.676495693058365,
                -0.2861082024001772,
                -0.02596433377117746,
                -2.1835320997285286
            ]
        },
        {
            "positions": [
                -0.8412389358842782,
                -1.010536909314785,
                1.7250023908958545,
                -0.3664952221858344,
                0.04437031739018493,
                -2.318206207463756
            ]
        },
        {
            "positions": [
                -0.8838907445030695,
                -1.028888244994218,
                1.773509088733344,
                -0.4468822419714915,
                0.1147049685515471,
                -2.452880315198983
            ]
        },
        {
            "positions": [
                -0.9265425531218605,
                -1.0472395806736512,
                1.8220157865708337,
                -0.5272692617571488,
                0.1850396197129094,
                -2.5875544229342102
            ]
        },
        {
            "positions": [
                -0.9691943617406518,
                -1.0655909163530841,
                1.8705224844083235,
                -0.6076562815428059,
                0.25537427087427167,
                -2.7222285306694367
            ]
        },
        {
            "positions": [
                -1.0118461703594428,
                -1.0839422520325173,
                1.919029182245813,
                -0.688043301328463,
                0.32570892203563395,
                -2.856902638404664
            ]
        },
        {
            "positions": [
                -1.054497978978234,
                -1.1022935877119504,
                1.9675358800833025,
                -0.7684303211141201,
                0.39604357319699623,
                -2.9915767461398914
            ]
        },
        {
            "positions": [
                -1.097149787597025,
                -1.1206449233913836,
                2.0160425779207922,
                -0.8488173408997773,
                0.4663782243583586,
                -3.1262508538751184
            ]
        }
    ]
}