{
    "goal": {
        "global_pose": {
            "orientation": {
                "w": -0.4816463035849501,
                "x": 0.5182115481033762,
                "y": 0.4908360881923453,
                "z": -0.5084816262002911
            },
            "position": {
                "x": -0.8240239810943604,
                "y": -0.300875300988555,
                "z": 0.16403168439865112
            }
        },
        "name": "move_to_storage_C"
    },
    "id": "BiTRRT_move_to_storage_C_53",
    "joint_names": [
        "shoulder_pan_joint",
        "shoulder_lift_joint",
        "elbow_joint",
        "wrist_1_joint",
        "wrist_2_joint",
        "wrist_3_joint"
    ],
    "metrics": {
        "cart_traj_len": 0.5762860013405394,
        "distance_elbow_joint": 0.25893705707768344,
        "distance_shoulder_lift_joint": 0.18853043563262672,
        "distance_shoulder_pan_joint": 0.49505585628173465,
        "distance_wrist_1_joint": 0.08168605763363723,
        "distance_wrist_2_joint": 1.0606009244907915,
        "distance_wrist_3_joint": 0.07096247712438153,
        "smoothness": 2.5376526478085547e-16,
        "time": 0.043317338,
        "traj_len": 1.468255021527546,
        "weighted_distance": 1.854719586518147
    },
    "planner": "BiTRRT",
    "start": {
        "state": {
            "elbow_joint": 2.010868314990456,
            "shoulder_lift_joint": -1.1634956873337592,
            "shoulder_pan_joint": -2.4736205022346125,
            "wrist_1_joint": -0.8367026794202681,
            "wrist_2_joint": 0.6746043897044499,
            "wrist_3_joint": -3.1496632123970403
        }
    },
    "waypoints": [
        {
            "positions": [
                -2.4736205022346125,
                -1.1634956873337592,
                2.010868314990456,
                -0.8367026794202681,
                0.6746043897044499,
                -3.1496632123970403
            ]
        },
        {
            "positions": [
                -2.556129811614902,
                -1.1320739480616546,
                1.9677121388108418,
                -0.8230883364813286,
                0.8513712104529152,
                -3.13783613287631
            ]
        },
        {
            "positions": [
                -2.6386391209951907,
                -1.1006522087895503,
                1.924555962631228,
                -0.809473993542389,
                1.0281380312013804,
                -3.1260090533555798
            ]
        },
        {
            "positions": [
                -2.7211484303754796,
                -1.069230469517446,
                1.881399786451614,
                -0.7958596506034494,
                1.2049048519498458,
                -3.1141819738348495
            ]
        },
        {
            "positions": [
                -2.803657739755769,
                -1.0378087302453414,
                1.8382436102720001,
                -0.78224530766451,
                1.3816716726983107,
                -3.1023548943141193
            ]
        },
        {
            "positions": [
                -2.8861670491360583,
                -1.0063869909732368,
                1.7950874340923864,
                -0.7686309647255705,
                1.558438493446776,
                -3.090527814793389
            ]
        },
        {
            "positions": [
                -2.968676358516347,
                -0.9749652517011325,
                1.7519312579127724,
                -0.7550166217866309,
                1.7352053141952413,
                -3.0787007352726588
            ]
        }
    ]
}