{
    "goal": {
        "global_pose": {
            "orientation": {
                "w": -0.4816463035849501,
                "x": 0.5182115481033762,
                "y": 0.4908360881923453,
                "z": -0.5084816262002911
            },
            "position": {
                "x": -0.8240239810943604,
                "y": 0.19912469901144506,
                "z": 0.16403168439865112
            }
        },
        "name": "move_to_storage_D"
    },
    "id": "BiTRRT_move_to_storage_D_123",
    "joint_names": [
        "shoulder_pan_joint",
        "shoulder_lift_joint",
        "elbow_joint",
        "wrist_1_joint",
        "wrist_2_joint",
        "wrist_3_joint"
    ],
    "metrics": {
        "cart_traj_len": 3.628959897812733,
        "distance_elbow_joint": 4.298659166838042,
        "distance_shoulder_lift_joint": 1.2639809468675822,
        "distance_shoulder_pan_joint": 2.812839795365647,
        "distance_wrist_1_joint": 2.442497366737074,
        "distance_wrist_2_joint": 0.9001844110258579,
        "distance_wrist_3_joint": 3.137812099366284,
        "smoothness": 0.21785746879571902,
        "time": 0.114281667,
        "traj_len": 3.854344793372862,
        "weighted_distance": 4.947148649747245
    },
    "planner": "BiTRRT",
    "start": {
        "state": {
            "elbow_joint": -2.384821988534728,
            "shoulder_lift_joint": -2.2788054721415256,
            "shoulder_pan_joint": -0.1854694642142757,
            "wrist_1_joint": 1.4845938289331202,
            "wrist_2_joint": 0.17898776772866878,
            "wrist_3_joint": 0.037105688729662994
        }
    },
    "waypoints": [
        {
            "positions": [
                -0.1854694642142757,
                -2.2788054721415256,
                -2.384821988534728,
                1.4845938289331202,
                0.17898776772866878,
                0.037105688729662994
            ]
        },
        {
            "positions": [
                -0.1483406330451004,
                -2.1636010237072307,
                -2.407086912485136,
                1.5297115126213812,
                0.17135511045303353,
                0.031690222112535915
            ]
        },
        {
            "positions": [
                -0.11121180187592508,
                -2.048396575272936,
                -2.4293518364355444,
                1.574829196309642,
                0.16372245317739828,
                0.026274755495408843
            ]
        },
        {
            "positions": [
                -0.027543641477561026,
                -2.015997653199558,
                -2.311611980821382,
                1.5112959012083047,
                0.18301903913158776,
                -0.04698373648200912
            ]
        },
        {
            "positions": [
                0.05612451892080303,
                -1.9835987311261805,
                -2.1938721252072195,
                1.4477626061069675,
                0.20231562508577725,
                -0.12024222845942709
            ]
        },
        {
            "positions": [
                0.13979267931916708,
                -1.9511998090528027,
                -2.0761322695930575,
                1.3842293110056305,
                0.22161221103996673,
                -0.19350072043684505
            ]
        },
        {
            "positions": [
                0.22346083971753114,
                -1.9188008869794249,
                -1.958392413978895,
                1.3206960159042933,
                0.2409087969941562,
                -0.266759212414263
            ]
        },
        {
            "positions": [
                0.30712900011589517,
                -1.8864019649060473,
                -1.8406525583647326,
                1.257162720802956,
                0.2602053829483457,
                -0.34001770439168094
            ]
        },
        {
            "positions": [
                0.3907971605142593,
                -1.8540030428326695,
                -1.7229127027505702,
                1.193629425701619,
                0.2795019689025352,
                -0.4132761963690989
            ]
        },
        {
            "positions": [
                0.4744653209126234,
                -1.8216041207592917,
                -1.6051728471364077,
                1.1300961306002817,
                0.2987985548567247,
                -0.48653468834651686
            ]
        },
        {
            "positions": [
                0.5581334813109874,
                -1.789205198685914,
                -1.4874329915222455,
                1.0665628354989445,
                0.31809514081091417,
                -0.5597931803239349
            ]
        },
        {
            "positions": [
                0.6418016417093515,
                -1.7568062766125363,
                -1.369693135908083,
                1.0030295403976073,
                0.33739172676510365,
                -0.6330516723013528
            ]
        },
        {
            "positions": [
                0.7254698021077155,
                -1.7244073545391585,
                -1.2519532802939206,
                0.9394962452962702,
                0.35668831271929313,
                -0.7063101642787708
            ]
        },
        {
            "positions": [
                0.8091379625060795,
                -1.692008432465781,
                -1.1342134246797584,
                0.8759629501949331,
                0.3759848986734826,
                -0.7795686562561888
            ]
        },
        {
            "positions": [
                0.8928061229044436,
                -1.6596095103924031,
                -1.016473569065596,
                0.8124296550935959,
                0.3952814846276721,
                -0.8528271482336067
            ]
        },
        {
            "positions": [
                0.9764742833028076,
                -1.6272105883190253,
                -0.8987337134514335,
                0.7488963599922587,
                0.4145780705818616,
                -0.9260856402110247
            ]
        },
        {
            "positions": [
                1.0601424437011717,
                -1.5948116662456477,
                -0.7809938578372713,
                0.6853630648909215,
                0.43387465653605106,
                -0.9993441321884426
            ]
        },
        {
            "positions": [
                1.1438106040995357,
                -1.56241274417227,
                -0.6632540022231088,
                0.6218297697895844,
                0.45317124249024054,
                -1.0726026241658606
            ]
        },
        {
            "positions": [
                1.2274787644978997,
                -1.5300138220988924,
                -0.5455141466089466,
                0.5582964746882473,
                0.47246782844443,
                -1.1458611161432786
            ]
        },
        {
            "positions": [
                1.3111469248962637,
                -1.4976149000255146,
                -0.42777429099478415,
                0.4947631795869101,
                0.4917644143986194,
                -1.2191196081206965
            ]
        },
        {
            "positions": [
                1.394815085294628,
                -1.4652159779521368,
                -0.3100344353806217,
                0.43122988448557287,
                0.511061000352809,
                -1.2923781000981145
            ]
        },
        {
            "positions": [
                1.4784832456929917,
                -1.432817055878759,
                -0.19229457976645925,
                0.36769658938423566,
                0.5303575863069985,
                -1.3656365920755325
            ]
        },
        {
            "positions": [
                1.562151406091356,
                -1.4004181338053812,
                -0.0745547241522968,
                0.30416329428289846,
                0.549654172261188,
                -1.4388950840529504
            ]
        },
        {
            "positions": [
                1.64581956648972,
                -1.3680192117320036,
                0.0431851314618652,
                0.24062999918156147,
                0.5689507582153774,
                -1.5121535760303684
            ]
        },
        {
            "positions": [
                1.729487726888084,
                -1.335620289658626,
                0.16092498707602765,
                0.17709670408022427,
                0.5882473441695669,
                -1.5854120680077863
            ]
        },
        {
            "positions": [
                1.8131558872864482,
                -1.3032213675852482,
                0.2786648426901901,
                0.11356340897888706,
                0.6075439301237564,
                -1.6586705599852043
            ]
        },
        {
            "positions": [
                1.8968240476848122,
                -1.2708224455118704,
                0.39640469830435254,
                0.05003011387754985,
                0.6268405160779459,
                -1.7319290519626223
            ]
        },
        {
            "positions": [
                1.980492208083176,
                -1.2384235234384928,
                0.5141445539185145,
                -0.01350318122378713,
                0.6461371020321353,
                -1.80518754394004
            ]
        },
        {
            "positions": [
                2.06416036848154,
                -1.206024601365115,
                0.6318844095326774,
                -0.07703647632512456,
                0.6654336879863249,
                -1.8784460359174582
            ]
        },
        {
            "positions": [
                2.1478285288799044,
                -1.1736256792917374,
                0.7496242651468394,
                -0.14056977142646154,
                0.6847302739405143,
                -1.9517045278948761
            ]
        },
        {
            "positions": [
                2.2314966892782686,
                -1.1412267572183596,
                0.8673641207610019,
                -0.20410306652779897,
                0.7040268598947038,
                -2.024963019872294
            ]
        },
        {
            "positions": [
                2.3151648496766324,
                -1.1088278351449818,
                0.9851039763751643,
                -0.26763636162913595,
                0.7233234458488933,
                -2.098221511849712
            ]
        },
        {
            "positions": [
                2.3541905348609746,
                -1.097077421411102,
                1.0900631646409789,
                -0.3313609168068578,
                0.7639882088242799,
                -2.2235321241980754
            ]
        },
        {
            "positions": [
                2.393216220045317,
                -1.0853270076772223,
                1.1950223529067936,
                -0.39508547198457966,
                0.8046529717996664,
                -2.3488427365464393
            ]
        },
        {
            "positions": [
                2.4322419052296596,
                -1.0735765939433424,
                1.2999815411726081,
                -0.4588100271623015,
                0.8453177347750529,
                -2.474153348894803
            ]
        },
        {
            "positions": [
                2.471267590414002,
                -1.0618261802094626,
                1.4049407294384229,
                -0.5225345823400234,
                0.8859824977504395,
                -2.5994639612431665
            ]
        },
        {
            "positions": [
                2.510293275598344,
                -1.0500757664755829,
                1.5098999177042374,
                -0.5862591375177453,
                0.926647260725826,
                -2.72477457359153
            ]
        },
        {
            "positions": [
                2.5493189607826867,
                -1.038325352741703,
                1.6148591059700519,
                -0.6499836926954671,
                0.9673120237012125,
                -2.8500851859398937
            ]
        },
        {
            "positions": [
                2.588344645967029,
                -1.0265749390078232,
                1.7198182942358664,
                -0.7137082478731889,
                1.0079767866765992,
                -2.9753957982882575
            ]
        },
        {
            "positions": [
                2.627370331151371,
                -1.0148245252739434,
                1.8247774825016811,
                -0.7774328030509108,
                1.0486415496519856,
                -3.100706410636621
            ]
        }
    ]
}