{
    "goal": {
        "global_pose": {
            "orientation": {
                "w": -0.00223480608172531,
                "x": 0.0024358444001904467,
                "y": 0.7094548369677653,
                "z": -0.704743149386269
            },
            "position": {
                "x": 0.6205249238014221,
                "y": -0.6371506643295288,
                "z": 0.19426114857196808
            }
        },
        "name": "move_to_magneteinheit_B"
    },
    "id": "BiTRRT_move_to_magneteinheit_B_122",
    "joint_names": [
        "shoulder_pan_joint",
        "shoulder_lift_joint",
        "elbow_joint",
        "wrist_1_joint",
        "wrist_2_joint",
        "wrist_3_joint"
    ],
    "metrics": {
        "cart_traj_len": 5.001005887540209,
        "distance_elbow_joint": 4.767434429594595,
        "distance_shoulder_lift_joint": 3.101772602699236,
        "distance_shoulder_pan_joint": 3.4137220323520783,
        "distance_wrist_1_joint": 6.920036237789832,
        "distance_wrist_2_joint": 4.062828854060802,
        "distance_wrist_3_joint": 3.1123502865872834,
        "smoothness": 0.4694095508601707,
        "time": 0.28327559999999996,
        "traj_len": 5.037672522413881,
        "weighted_distance": 6.52577275945991
    },
    "planner": "BiTRRT",
    "start": {
        "state": {
            "elbow_joint": 2.6216224122426386,
            "shoulder_lift_joint": -1.4174107377796124,
            "shoulder_pan_joint": 0.7066234856936794,
            "wrist_1_joint": 1.9546482284002225,
            "wrist_2_joint": -0.7096286983471962,
            "wrist_3_joint": 0.005740856962016249
        }
    },
    "waypoints": [
        {
            "positions": [
                0.7066234856936794,
                -1.4174107377796124,
                2.6216224122426386,
                1.9546482284002225,
                -0.7096286983471962,
                0.005740856962016249
            ]
        },
        {
            "positions": [
                0.5836290768513548,
                -1.3742879542483897,
                2.672140552635202,
                1.9636089043099214,
                -0.7930952767103723,
                -0.07197564452330048
            ]
        },
        {
            "positions": [
                0.4606346680090303,
                -1.331165170717167,
                2.722658693027765,
                1.9725695802196204,
                -0.8765618550735484,
                -0.1496921460086172
            ]
        },
        {
            "positions": [
                0.3376402591667058,
                -1.288042387185944,
                2.7731768334203277,
                1.9815302561293195,
                -0.9600284334367245,
                -0.22740864749393386
            ]
        },
        {
            "positions": [
                0.21464585032438122,
                -1.2449196036547214,
                2.823694973812891,
                1.9904909320390185,
                -1.0434950117999007,
                -0.30512514897925064
            ]
        },
        {
            "positions": [
                0.09165144148205678,
                -1.2017968201234988,
                2.874213114205454,
                1.9994516079487175,
                -1.1269615901630767,
                -0.3828416504645673
            ]
        },
        {
            "positions": [
                0.08527639789433013,
                -1.2816067420219555,
                2.7731851225304207,
                2.0612941944473917,
                -1.180950162383206,
                -0.4671116474910146
            ]
        },
        {
            "positions": [
                0.07890135430660347,
                -1.3614166639204124,
                2.6721571308553873,
                2.123136780946066,
                -1.2349387346033351,
                -0.5513816445174619
            ]
        },
        {
            "positions": [
                0.07252631071887683,
                -1.441226585818869,
                2.5711291391803544,
                2.1849793674447406,
                -1.2889273068234643,
                -0.6356516415439092
            ]
        },
        {
            "positions": [
                0.06615126713115016,
                -1.5210365077173258,
                2.470101147505321,
                2.2468219539434147,
                -1.3429158790435936,
                -0.7199216385703564
            ]
        },
        {
            "positions": [
                0.05977622354342351,
                -1.6008464296157827,
                2.3690731558302875,
                2.308664540442089,
                -1.396904451263723,
                -0.8041916355968037
            ]
        },
        {
            "positions": [
                0.05340117995569686,
                -1.6806563515142394,
                2.2680451641552546,
                2.3705071269407636,
                -1.450893023483852,
                -0.8884616326232511
            ]
        },
        {
            "positions": [
                0.0470261363679702,
                -1.7604662734126961,
                2.167017172480221,
                2.4323497134394376,
                -1.5048815957039814,
                -0.9727316296496984
            ]
        },
        {
            "positions": [
                0.04065109278024355,
                -1.8402761953111528,
                2.065989180805188,
                2.494192299938112,
                -1.5588701679241106,
                -1.0570016266761457
            ]
        },
        {
            "positions": [
                0.034276049192516894,
                -1.9200861172096098,
                1.9649611891301544,
                2.5560348864367866,
                -1.6128587401442398,
                -1.1412716237025928
            ]
        },
        {
            "positions": [
                0.02790100560479024,
                -1.9998960391080667,
                1.8639331974551212,
                2.6178774729354606,
                -1.666847312364369,
                -1.2255416207290404
            ]
        },
        {
            "positions": [
                0.021525962017063582,
                -2.0797059610065234,
                1.7629052057800878,
                2.679720059434135,
                -1.7208358845844982,
                -1.3098116177554875
            ]
        },
        {
            "positions": [
                0.01515091842933694,
                -2.15951588290498,
                1.6618772141050546,
                2.7415626459328095,
                -1.7748244568046274,
                -1.3940816147819348
            ]
        },
        {
            "positions": [
                0.008775874841610284,
                -2.239325804803437,
                1.5608492224300214,
                2.8034052324314835,
                -1.8288130290247566,
                -1.4783516118083821
            ]
        },
        {
            "positions": [
                0.0024008312538836146,
                -2.3191357267018935,
                1.459821230754988,
                2.865247818930158,
                -1.882801601244886,
                -1.5626216088348295
            ]
        },
        {
            "positions": [
                -0.003974212333843041,
                -2.3989456486003506,
                1.3587932390799546,
                2.9270904054288325,
                -1.9367901734650153,
                -1.6468916058612768
            ]
        },
        {
            "positions": [
                -0.010349255921569683,
                -2.478755570498807,
                1.2577652474049215,
                2.9889329919275065,
                -1.9907787456851445,
                -1.731161602887724
            ]
        },
        {
            "positions": [
                -0.01672429950929634,
                -2.558565492397264,
                1.1567372557298883,
                3.050775578426181,
                -2.044767317905274,
                -1.8154315999141712
            ]
        },
        {
            "positions": [
                -0.023099343097022995,
                -2.6383754142957208,
                1.0557092640548549,
                3.1126181649248554,
                -2.098755890125403,
                -1.8997015969406186
            ]
        },
        {
            "positions": [
                0.04425305184864198,
                -2.6115628536653723,
                0.9921586971111045,
                2.947350954958961,
                -2.0354001355832225,
                -1.9095195147887314
            ]
        },
        {
            "positions": [
                0.11160544679430695,
                -2.5847502930350243,
                0.9286081301673541,
                2.782083744993067,
                -1.972044381041042,
                -1.919337432636844
            ]
        },
        {
            "positions": [
                0.17895784173997192,
                -2.557937732404676,
                0.8650575632236037,
                2.6168165350271724,
                -1.9086886264988614,
                -1.9291553504849568
            ]
        },
        {
            "positions": [
                0.2463102366856369,
                -2.5311251717743275,
                0.8015069962798534,
                2.4515493250612783,
                -1.845332871956681,
                -1.9389732683330694
            ]
        },
        {
            "positions": [
                0.31366263163130187,
                -2.504312611143979,
                0.7379564293361031,
                2.286282115095384,
                -1.7819771174145007,
                -1.9487911861811822
            ]
        },
        {
            "positions": [
                0.38101502657696684,
                -2.477500050513631,
                0.6744058623923527,
                2.1210149051294898,
                -1.7186213628723201,
                -1.9586091040292948
            ]
        },
        {
            "positions": [
                0.44836742152263176,
                -2.4506874898832827,
                0.6108552954486024,
                1.9557476951635955,
                -1.6552656083301398,
                -1.9684270218774076
            ]
        },
        {
            "positions": [
                0.5157198164682968,
                -2.4238749292529342,
                0.547304728504852,
                1.7904804851977012,
                -1.5919098537879592,
                -1.9782449397255202
            ]
        },
        {
            "positions": [
                0.5830722114139617,
                -2.3970623686225863,
                0.4837541615611016,
                1.6252132752318067,
                -1.528554099245779,
                -1.988062857573633
            ]
        },
        {
            "positions": [
                0.6504246063596267,
                -2.370249807992238,
                0.42020359461735124,
                1.4599460652659124,
                -1.4651983447035983,
                -1.9978807754217456
            ]
        },
        {
            "positions": [
                0.7177770013052918,
                -2.3434372473618894,
                0.35665302767360085,
                1.2946788553000181,
                -1.4018425901614178,
                -2.0076986932698584
            ]
        },
        {
            "positions": [
                0.7851293962509567,
                -2.316624686731541,
                0.29310246072985047,
                1.1294116453341239,
                -1.3384868356192374,
                -2.017516611117971
            ]
        },
        {
            "positions": [
                0.8524817911966216,
                -2.289812126101193,
                0.2295518937861003,
                0.9641444353682296,
                -1.275131081077057,
                -2.0273345289660836
            ]
        },
        {
            "positions": [
                0.9198341861422865,
                -2.2629995654708446,
                0.16600132684234992,
                0.7988772254023355,
                -1.2117753265348767,
                -2.0371524468141966
            ]
        },
        {
            "positions": [
                0.9871865810879514,
                -2.236187004840496,
                0.10245075989859953,
                0.633610015436441,
                -1.1484195719926962,
                -2.046970364662309
            ]
        },
        {
            "positions": [
                1.0545389760336166,
                -2.209374444210148,
                0.038900192954849144,
                0.46834280547054696,
                -1.0850638174505158,
                -2.056788282510422
            ]
        },
        {
            "positions": [
                1.1218913709792815,
                -2.1825618835797997,
                -0.024650373988901242,
                0.30307559550465246,
                -1.0217080629083353,
                -2.0666062003585344
            ]
        },
        {
            "positions": [
                1.1892437659249464,
                -2.1557493229494513,
                -0.08820094093265163,
                0.13780838553875796,
                -0.9583523083661547,
                -2.0764241182066474
            ]
        },
        {
            "positions": [
                1.2565961608706115,
                -2.1289367623191033,
                -0.15175150787640201,
                -0.027458824427136097,
                -0.8949965538239744,
                -2.08624203605476
            ]
        },
        {
            "positions": [
                1.3239485558162765,
                -2.102124201688755,
                -0.2153020748201524,
                -0.1927260343930306,
                -0.8316407992817938,
                -2.0960599539028726
            ]
        },
        {
            "positions": [
                1.3913009507619414,
                -2.0753116410584065,
                -0.2788526417639028,
                -0.35799324435892466,
                -0.7682850447396135,
                -2.1058778717509856
            ]
        },
        {
            "positions": [
                1.4586533457076065,
                -2.0484990804280585,
                -0.3424032087076532,
                -0.5232604543248192,
                -0.7049292901974329,
                -2.115695789599098
            ]
        },
        {
            "positions": [
                1.5260057406532714,
                -2.02168651979771,
                -0.40595377565140356,
                -0.6885276642907137,
                -0.6415735356552525,
                -2.125513707447211
            ]
        },
        {
            "positions": [
                1.5933581355989364,
                -1.9948739591673617,
                -0.46950434259515395,
                -0.8537948742566077,
                -0.578217781113072,
                -2.1353316252953234
            ]
        },
        {
            "positions": [
                1.6607105305446013,
                -1.9680613985370132,
                -0.5330549095389043,
                -1.0190620842225018,
                -0.5148620265708916,
                -2.1451495431434364
            ]
        },
        {
            "positions": [
                1.7280629254902662,
                -1.9412488379066652,
                -0.5966054764826543,
                -1.1843292941883963,
                -0.4515062720287113,
                -2.154967460991549
            ]
        },
        {
            "positions": [
                1.795415320435931,
                -1.9144362772763168,
                -0.6601560434264047,
                -1.3495965041542899,
                -0.38815051748653095,
                -2.1647853788396616
            ]
        },
        {
            "positions": [
                1.862767715381596,
                -1.8876237166459684,
                -0.723706610370155,
                -1.5148637141201844,
                -0.3247947629443504,
                -2.174603296687774
            ]
        },
        {
            "positions": [
                1.930120110327261,
                -1.8608111560156202,
                -0.7872571773139054,
                -1.680130924086079,
                -0.26143900840217005,
                -2.1844212145358872
            ]
        },
        {
            "positions": [
                1.9974725052729259,
                -1.833998595385272,
                -0.8508077442576558,
                -1.8453981340519734,
                -0.19808325385998948,
                -2.194239132384
            ]
        },
        {
            "positions": [
                2.064824900218591,
                -1.8071860347549236,
                -0.9143583112014062,
                -2.010665344017868,
                -0.13472749931780914,
                -2.2040570502321124
            ]
        },
        {
            "positions": [
                2.132177295164256,
                -1.7803734741245754,
                -0.9779088781451566,
                -2.1759325539837615,
                -0.0713717447756288,
                -2.2138749680802254
            ]
        },
        {
            "positions": [
                2.199529690109921,
                -1.7535609134942272,
                -1.041459445088907,
                -2.341199763949656,
                -0.008015990233448012,
                -2.223692885928338
            ]
        },
        {
            "positions": [
                2.266882085055586,
                -1.7267483528638787,
                -1.1050100120326576,
                -2.50646697391555,
                0.05533976430873228,
                -2.2335108037764506
            ]
        },
        {
            "positions": [
                2.296874912391431,
                -1.8240066371218089,
                -1.1795650990114657,
                -2.521231413606991,
                0.004784044494019729,
                -2.300168352601647
            ]
        },
        {
            "positions": [
                2.326867739727276,
                -1.9212649213797388,
                -1.2541201859902738,
                -2.535995853298432,
                -0.045771675320692824,
                -2.366825901426844
            ]
        },
        {
            "positions": [
                2.356860567063121,
                -2.0185232056376687,
                -1.3286752729690816,
                -2.550760292989873,
                -0.09632739513540539,
                -2.4334834502520404
            ]
        },
        {
            "positions": [
                2.3868533943989663,
                -2.115781489895599,
                -1.4032303599478897,
                -2.565524732681314,
                -0.14688311495011794,
                -2.500140999077237
            ]
        },
        {
            "positions": [
                2.4326331630009235,
                -2.1530045826719655,
                -1.4633420190057393,
                -2.549760731048942,
                -0.21101241576457258,
                -2.6020696811922135
            ]
        },
        {
            "positions": [
                2.478412931602881,
                -2.1902276754483316,
                -1.5234536780635892,
                -2.53399672941657,
                -0.2751417165790272,
                -2.7039983633071896
            ]
        },
        {
            "positions": [
                2.5241927002048383,
                -2.2274507682246982,
                -1.5835653371214389,
                -2.5182327277841976,
                -0.33927101739348187,
                -2.805927045422166
            ]
        },
        {
            "positions": [
                2.5925462803345947,
                -2.2088254611855787,
                -1.6120979752738824,
                -2.4999170284032424,
                -0.4017686304666064,
                -2.9562682375237164
            ]
        },
        {
            "positions": [
                2.660899860464351,
                -2.190200154146459,
                -1.6406306134263262,
                -2.4816013290222867,
                -0.46426624353973084,
                -3.1066094296252666
            ]
        }
    ]
}