{
    "goal": {
        "global_pose": {
            "orientation": {
                "w": 0.7047431493862688,
                "x": -0.7094548369677653,
                "y": 0.0024358444001904,
                "z": -0.0022348060817251984
            },
            "position": {
                "x": -0.39052492380142206,
                "y": 0.3671506643295288,
                "z": 0.19426114857196808
            }
        },
        "name": "move_to_magneteinheit_D"
    },
    "id": "BiTRRT_move_to_magneteinheit_D_120",
    "joint_names": [
        "shoulder_pan_joint",
        "shoulder_lift_joint",
        "elbow_joint",
        "wrist_1_joint",
        "wrist_2_joint",
        "wrist_3_joint"
    ],
    "metrics": {
        "cart_traj_len": 4.902134514088273,
        "distance_elbow_joint": 3.133115151795377,
        "distance_shoulder_lift_joint": 1.7975829230357092,
        "distance_shoulder_pan_joint": 3.721702374122131,
        "distance_wrist_1_joint": 1.6016295390275535,
        "distance_wrist_2_joint": 1.9247604328289392,
        "distance_wrist_3_joint": 4.078167448228985,
        "smoothness": 0.627458001616114,
        "time": 0.143710823,
        "traj_len": 4.031991799227608,
        "weighted_distance": 5.285800103801994
    },
    "planner": "BiTRRT",
    "start": {
        "state": {
            "elbow_joint": 0.749534889911806,
            "shoulder_lift_joint": -0.6476975780787326,
            "shoulder_pan_joint": -2.711696901376241,
            "wrist_1_joint": -0.07506478083263063,
            "wrist_2_joint": 0.43296659715538205,
            "wrist_3_joint": -3.14703540197715
        }
    },
    "waypoints": [
        {
            "positions": [
                -2.711696901376241,
                -0.6476975780787326,
                0.749534889911806,
                -0.07506478083263063,
                0.43296659715538205,
                -3.14703540197715
            ]
        },
        {
            "positions": [
                -2.802080713951317,
                -0.630895561673194,
                0.7172048140525089,
                -0.02604259813945426,
                0.5791688715803601,
                -3.198459528468304
            ]
        },
        {
            "positions": [
                -2.892464526526393,
                -0.6140935452676555,
                0.6848747381932118,
                0.022979584553722107,
                0.7253711460053383,
                -3.249883654959458
            ]
        },
        {
            "positions": [
                -2.982848339101469,
                -0.5972915288621168,
                0.6525446623339147,
                0.07200176724689847,
                0.8715734204303164,
                -3.301307781450612
            ]
        },
        {
            "positions": [
                -3.073232151676545,
                -0.5804895124565782,
                0.6202145864746176,
                0.12102394994007484,
                1.0177756948552945,
                -3.352731907941766
            ]
        },
        {
            "positions": [
                -3.163615964251621,
                -0.5636874960510396,
                0.5878845106153205,
                0.1700461326332512,
                1.1639779692802725,
                -3.40415603443292
            ]
        },
        {
            "positions": [
                -3.065059220348529,
                -0.599280633329252,
                0.5131721417479969,
                0.20468628660756297,
                1.1287969825591635,
                -3.2869290325594394
            ]
        },
        {
            "positions": [
                -2.966502476445437,
                -0.6348737706074644,
                0.43845977288067317,
                0.23932644058187474,
                1.0936159958380545,
                -3.1697020306859587
            ]
        },
        {
            "positions": [
                -2.8679457325423456,
                -0.6704669078856768,
                0.3637474040133495,
                0.27396659455618655,
                1.0584350091169454,
                -3.052475028812478
            ]
        },
        {
            "positions": [
                -2.7693889886392538,
                -0.7060600451638891,
                0.28903503514602574,
                0.3086067485304983,
                1.0232540223958364,
                -2.935248026938997
            ]
        },
        {
            "positions": [
                -2.670832244736162,
                -0.7416531824421015,
                0.21432266627870206,
                0.3432469025048101,
                0.9880730356747274,
                -2.818021025065516
            ]
        },
        {
            "positions": [
                -2.5722755008330704,
                -0.7772463197203139,
                0.13961029741137837,
                0.3778870564791219,
                0.9528920489536183,
                -2.7007940231920355
            ]
        },
        {
            "positions": [
                -2.473718756929978,
                -0.8128394569985262,
                0.06489792854405463,
                0.41252721045343366,
                0.9177110622325093,
                -2.583567021318555
            ]
        },
        {
            "positions": [
                -2.3751620130268867,
                -0.8484325942767386,
                -0.009814440323269058,
                0.44716736442774546,
                0.8825300755114003,
                -2.466340019445074
            ]
        },
        {
            "positions": [
                -2.276605269123795,
                -0.884025731554951,
                -0.08452680919059286,
                0.48180751840205727,
                0.8473490887902911,
                -2.349113017571593
            ]
        },
        {
            "positions": [
                -2.178048525220703,
                -0.9196188688331633,
                -0.15923917805791643,
                0.516447672376369,
                0.8121681020691822,
                -2.2318860156981124
            ]
        },
        {
            "positions": [
                -2.0794917813176115,
                -0.9552120061113758,
                -0.23395154692524023,
                0.5510878263506809,
                0.7769871153480731,
                -2.1146590138246317
            ]
        },
        {
            "positions": [
                -1.9809350374145196,
                -0.9908051433895881,
                -0.3086639157925638,
                0.5857279803249926,
                0.7418061286269642,
                -1.997432011951151
            ]
        },
        {
            "positions": [
                -1.8823782935114277,
                -1.0263982806678005,
                -0.3833762846598876,
                0.6203681342993044,
                0.706625141905855,
                -1.8802050100776704
            ]
        },
        {
            "positions": [
                -1.7838215496083358,
                -1.0619914179460128,
                -0.4580886535272113,
                0.6550082882736161,
                0.671444155184746,
                -1.7629780082041897
            ]
        },
        {
            "positions": [
                -1.6852648057052442,
                -1.0975845552242252,
                -0.532801022394535,
                0.689648442247928,
                0.636263168463637,
                -1.6457510063307088
            ]
        },
        {
            "positions": [
                -1.5867080618021523,
                -1.1331776925024375,
                -0.6075133912618587,
                0.7242885962222397,
                0.6010821817425279,
                -1.5285240044572281
            ]
        },
        {
            "positions": [
                -1.4881513178990606,
                -1.1687708297806498,
                -0.6822257601291823,
                0.7589287501965515,
                0.5659011950214189,
                -1.4112970025837475
            ]
        },
        {
            "positions": [
                -1.3895945739959688,
                -1.2043639670588624,
                -0.7569381289965063,
                0.7935689041708633,
                0.5307202083003097,
                -1.2940700007102666
            ]
        },
        {
            "positions": [
                -1.2910378300928769,
                -1.2399571043370747,
                -0.8316504978638297,
                0.8282090581451751,
                0.49553922157920083,
                -1.176842998836786
            ]
        },
        {
            "positions": [
                -1.1924810861897852,
                -1.275550241615287,
                -0.9063628667311534,
                0.8628492121194868,
                0.4603582348580918,
                -1.0596159969633052
            ]
        },
        {
            "positions": [
                -1.0939243422866936,
                -1.3111433788934994,
                -0.9810752355984771,
                0.8974893660937986,
                0.42517724813698277,
                -0.9423889950898245
            ]
        },
        {
            "positions": [
                -0.9953675983836017,
                -1.346736516171712,
                -1.055787604465801,
                0.9321295200681105,
                0.3899962614158736,
                -0.8251619932163434
            ]
        },
        {
            "positions": [
                -0.8968108544805098,
                -1.3823296534499243,
                -1.1304999733331247,
                0.9667696740424222,
                0.3548152746947646,
                -0.7079349913428628
            ]
        },
        {
            "positions": [
                -0.7982541105774184,
                -1.4179227907281367,
                -1.2052123422004482,
                1.001409828016734,
                0.3196342879736557,
                -0.5907079894693821
            ]
        },
        {
            "positions": [
                -0.6996973666743265,
                -1.453515928006349,
                -1.2799247110677718,
                1.0360499819910458,
                0.28445330125254664,
                -0.4734809875959014
            ]
        },
        {
            "positions": [
                -0.6011406227712346,
                -1.4891090652845613,
                -1.3546370799350957,
                1.0706901359653576,
                0.2492723145314375,
                -0.35625398572242073
            ]
        },
        {
            "positions": [
                -0.5025838788681427,
                -1.5247022025627737,
                -1.4293494488024194,
                1.1053302899396695,
                0.21409132781032847,
                -0.23902698384894006
            ]
        },
        {
            "positions": [
                -0.4040271349650508,
                -1.560295339840986,
                -1.5040618176697431,
                1.139970443913981,
                0.17891034108921944,
                -0.12179998197545938
            ]
        },
        {
            "positions": [
                -0.3054703910619594,
                -1.5958884771191983,
                -1.5787741865370668,
                1.1746105978882928,
                0.1437293543681104,
                -0.0045729801019787075
            ]
        },
        {
            "positions": [
                -0.2069136471588675,
                -1.631481614397411,
                -1.6534865554043905,
                1.2092507518626048,
                0.10854836764700138,
                0.11265402177150241
            ]
        },
        {
            "positions": [
                -0.10835690325577585,
                -1.6670747516756232,
                -1.728198924271714,
                1.2438909058369165,
                0.07336738092589243,
                0.229881023644983
            ]
        },
        {
            "positions": [
                -0.09118135057817192,
                -1.7822487899649977,
                -1.8810319965310145,
                1.308682846410385,
                0.08738638563183379,
                0.19794338081525178
            ]
        },
        {
            "positions": [
                -0.074005797900568,
                -1.8974228282543724,
                -2.0338650687903153,
                1.3734747869838535,
                0.10140539033777517,
                0.16600573798552054
            ]
        },
        {
            "positions": [
                -0.056830245222964065,
                -2.012596866543747,
                -2.186698141049616,
                1.438266727557322,
                0.11542439504371654,
                0.13406809515578932
            ]
        },
        {
            "positions": [
                -0.03965469254536013,
                -2.1277709048331213,
                -2.3395312133089163,
                1.5030586681307905,
                0.1294433997496579,
                0.10213045232605811
            ]
        },
        {
            "positions": [
                -0.05554826030677519,
                -2.144888829152462,
                -2.3434380731648767,
                1.504566484491134,
                0.13357095825107057,
                0.09097920543895917
            ]
        },
        {
            "positions": [
                -0.12051249619631328,
                -2.211074583105759,
                -2.3635091675242244,
                1.4935673476392397,
                0.1550384057633156,
                0.06692523569431529
            ]
        },
        {
            "positions": [
                -0.1854767320858514,
                -2.277260337059056,
                -2.3835802618835715,
                1.4825682107873452,
                0.17650585327556062,
                0.0428712659496714
            ]
        }
    ]
}