{
    "goal": {
        "global_pose": {
            "orientation": {
                "w": 0.7047431493862688,
                "x": -0.7094548369677653,
                "y": 0.0024358444001904,
                "z": -0.0022348060817251984
            },
            "position": {
                "x": -0.39052492380142206,
                "y": 0.3671506643295288,
                "z": 0.19426114857196808
            }
        },
        "name": "move_to_magneteinheit_D"
    },
    "id": "BiTRRT_move_to_magneteinheit_D_84",
    "joint_names": [
        "shoulder_pan_joint",
        "shoulder_lift_joint",
        "elbow_joint",
        "wrist_1_joint",
        "wrist_2_joint",
        "wrist_3_joint"
    ],
    "metrics": {
        "cart_traj_len": 4.1179800938708375,
        "distance_elbow_joint": 3.347572560712476,
        "distance_shoulder_lift_joint": 1.6329533334961945,
        "distance_shoulder_pan_joint": 2.928171147068568,
        "distance_wrist_1_joint": 2.686875847669048,
        "distance_wrist_2_joint": 0.5929584337475271,
        "distance_wrist_3_joint": 3.1355012707481493,
        "smoothness": 0.3149274586918776,
        "time": 0.18532390199999998,
        "traj_len": 3.7847103711436048,
        "weighted_distance": 4.886191708923713
    },
    "planner": "BiTRRT",
    "start": {
        "state": {
            "elbow_joint": 0.749534889911806,
            "shoulder_lift_joint": -0.6476975780787326,
            "shoulder_pan_joint": -2.711696901376241,
            "wrist_1_joint": -0.07506478083263063,
            "wrist_2_joint": 0.43296659715538205,
            "wrist_3_joint": -3.14703540197715
        }
    },
    "waypoints": [
        {
            "positions": [
                -2.711696901376241,
                -0.6476975780787326,
                0.749534889911806,
                -0.07506478083263063,
                0.43296659715538205,
                -3.14703540197715
            ]
        },
        {
            "positions": [
                -2.718662067336682,
                -0.7091745854827257,
                0.7682191133217148,
                -0.1619713941307249,
                0.4605822800175528,
                -2.952639520588689
            ]
        },
        {
            "positions": [
                -2.7256272332971228,
                -0.7706515928867188,
                0.7869033367316236,
                -0.24887800742881916,
                0.48819796287972356,
                -2.7582436392002276
            ]
        },
        {
            "positions": [
                -2.732592399257564,
                -0.8321286002907119,
                0.8055875601415324,
                -0.33578462072691345,
                0.5158136457418943,
                -2.563847757811766
            ]
        },
        {
            "positions": [
                -2.739557565218005,
                -0.893605607694705,
                0.8242717835514413,
                -0.4226912340250077,
                0.543429328604065,
                -2.3694518764233052
            ]
        },
        {
            "positions": [
                -2.7465227311784455,
                -0.9550826150986981,
                0.8429560069613501,
                -0.509597847323102,
                0.5710450114662358,
                -2.1750559950348443
            ]
        },
        {
            "positions": [
                -2.7534878971388865,
                -1.0165596225026912,
                0.8616402303712589,
                -0.5965044606211962,
                0.5986606943284065,
                -1.9806601136463828
            ]
        },
        {
            "positions": [
                -2.6500087411387083,
                -1.045692799136053,
                0.7564256413296396,
                -0.523443580613855,
                0.5854625187521408,
                -1.9105413901495811
            ]
        },
        {
            "positions": [
                -2.5465295851385306,
                -1.0748259757694147,
                0.6512110522880203,
                -0.4503827006065138,
                0.572264343175875,
                -1.8404226666527794
            ]
        },
        {
            "positions": [
                -2.4430504291383524,
                -1.1039591524027768,
                0.5459964632464009,
                -0.3773218205991726,
                0.5590661675996094,
                -1.7703039431559775
            ]
        },
        {
            "positions": [
                -2.3395712731381746,
                -1.1330923290361385,
                0.4407818742047817,
                -0.3042609405918314,
                0.5458679920233437,
                -1.7001852196591758
            ]
        },
        {
            "positions": [
                -2.2360921171379964,
                -1.1622255056695003,
                0.33556728516316237,
                -0.23120006058449016,
                0.5326698164470779,
                -1.630066496162374
            ]
        },
        {
            "positions": [
                -2.132612961137818,
                -1.1913586823028621,
                0.23035269612154308,
                -0.15813918057714893,
                0.5194716408708122,
                -1.5599477726655722
            ]
        },
        {
            "positions": [
                -2.0291338051376404,
                -1.220491858936224,
                0.1251381070799239,
                -0.08507830056980781,
                0.5062734652945465,
                -1.4898290491687707
            ]
        },
        {
            "positions": [
                -1.9256546491374622,
                -1.249625035569586,
                0.0199235180383045,
                -0.012017420562466574,
                0.4930752897182808,
                -1.4197103256719688
            ]
        },
        {
            "positions": [
                -1.8221754931372842,
                -1.2787582122029477,
                -0.08529107100331468,
                0.06104345944487466,
                0.47987711414201506,
                -1.349591602175167
            ]
        },
        {
            "positions": [
                -1.718696337137106,
                -1.3078913888363095,
                -0.1905056600449342,
                0.1341043394522159,
                0.4666789385657494,
                -1.2794728786783653
            ]
        },
        {
            "positions": [
                -1.6152171811369282,
                -1.3370245654696713,
                -0.29572024908655337,
                0.20716521945955702,
                0.4534807629894837,
                -1.2093541551815634
            ]
        },
        {
            "positions": [
                -1.51173802513675,
                -1.366157742103033,
                -0.40093483812817277,
                0.28022609946689836,
                0.4402825874132179,
                -1.1392354316847617
            ]
        },
        {
            "positions": [
                -1.408258869136572,
                -1.395290918736395,
                -0.5061494271697919,
                0.3532869794742395,
                0.4270844118369522,
                -1.06911670818796
            ]
        },
        {
            "positions": [
                -1.304779713136394,
                -1.4244240953697567,
                -0.6113640162114111,
                0.4263478594815806,
                0.41388623626068655,
                -0.9989979846911583
            ]
        },
        {
            "positions": [
                -1.201300557136216,
                -1.4535572720031187,
                -0.7165786052530303,
                0.4994087394889217,
                0.4006880606844208,
                -0.9288792611943566
            ]
        },
        {
            "positions": [
                -1.0978214011360379,
                -1.4826904486364805,
                -0.8217931942946499,
                0.5724696194962631,
                0.3874898851081551,
                -0.8587605376975547
            ]
        },
        {
            "positions": [
                -0.9943422451358599,
                -1.5118236252698423,
                -0.9270077833362691,
                0.6455304995036044,
                0.3742917095318894,
                -0.788641814200753
            ]
        },
        {
            "positions": [
                -0.8908630891356819,
                -1.5409568019032043,
                -1.0322223723778883,
                0.7185913795109455,
                0.36109353395562366,
                -0.7185230907039513
            ]
        },
        {
            "positions": [
                -0.7873839331355039,
                -1.5700899785365658,
                -1.1374369614195077,
                0.7916522595182867,
                0.347895358379358,
                -0.6484043672071496
            ]
        },
        {
            "positions": [
                -0.6839047771353255,
                -1.5992231551699279,
                -1.2426515504611273,
                0.864713139525628,
                0.3346971828030922,
                -0.5782856437103476
            ]
        },
        {
            "positions": [
                -0.5804256211351477,
                -1.6283563318032896,
                -1.3478661395027465,
                0.9377740195329691,
                0.3214990072268265,
                -0.5081669202135459
            ]
        },
        {
            "positions": [
                -0.47694646513496997,
                -1.6574895084366514,
                -1.4530807285443657,
                1.0108348995403102,
                0.3083008316505608,
                -0.4380481967167442
            ]
        },
        {
            "positions": [
                -0.37346730913479176,
                -1.6866226850700134,
                -1.5582953175859848,
                1.0838957795476516,
                0.2951026560742951,
                -0.3679294732199425
            ]
        },
        {
            "positions": [
                -0.26998815313461355,
                -1.7157558617033752,
                -1.6635099066276045,
                1.156956659554993,
                0.28190448049802935,
                -0.2978107497231406
            ]
        },
        {
            "positions": [
                -0.16650899713443534,
                -1.744889038336737,
                -1.7687244956692236,
                1.230017539562334,
                0.2687063049217636,
                -0.22769202622633888
            ]
        },
        {
            "positions": [
                -0.06302984113425758,
                -1.7740222149700988,
                -1.8739390847108428,
                1.3030784195696752,
                0.25550812934549794,
                -0.15757330272953723
            ]
        },
        {
            "positions": [
                -0.053750556504809525,
                -1.8551690506446559,
                -1.9854008748689909,
                1.363205866094897,
                0.2519116343905799,
                -0.12421881639993211
            ]
        },
        {
            "positions": [
                -0.04447127187536147,
                -1.9363158863192127,
                -2.096862665027139,
                1.4233333126201189,
                0.24831513943566186,
                -0.09086433007032699
            ]
        },
        {
            "positions": [
                -0.035191987245913416,
                -2.0174627219937697,
                -2.2083244551852865,
                1.4834607591453408,
                0.24471864448074382,
                -0.057509843740721864
            ]
        },
        {
            "positions": [
                -0.02591270261646536,
                -2.098609557668327,
                -2.3197862453434346,
                1.5435882056705625,
                0.24112214952582578,
                -0.024155357411116726
            ]
        },
        {
            "positions": [
                -0.14501642020409092,
                -2.235140573098277,
                -2.360316803747182,
                1.5245805794790193,
                0.1888278056968845,
                -0.014689437774531192
            ]
        },
        {
            "positions": [
                -0.1847176593999661,
                -2.280650911574927,
                -2.3738269898817643,
                1.5182447040818383,
                0.1713963577539041,
                -0.011534131229002681
            ]
        }
    ]
}