{
    "goal": {
        "global_pose": {
            "orientation": {
                "w": 0.7047431493862688,
                "x": -0.7094548369677653,
                "y": 0.0024358444001904,
                "z": -0.0022348060817251984
            },
            "position": {
                "x": -0.39052492380142206,
                "y": 0.3671506643295288,
                "z": 0.19426114857196808
            }
        },
        "name": "move_to_magneteinheit_D"
    },
    "id": "BiTRRT_move_to_magneteinheit_D_55",
    "joint_names": [
        "shoulder_pan_joint",
        "shoulder_lift_joint",
        "elbow_joint",
        "wrist_1_joint",
        "wrist_2_joint",
        "wrist_3_joint"
    ],
    "metrics": {
        "cart_traj_len": 4.068985327633179,
        "distance_elbow_joint": 3.695959057981886,
        "distance_shoulder_lift_joint": 1.3767181063355303,
        "distance_shoulder_pan_joint": 2.664108651248994,
        "distance_wrist_1_joint": 2.1028824078720794,
        "distance_wrist_2_joint": 0.6919048606714875,
        "distance_wrist_3_joint": 6.284886124555403,
        "smoothness": 0.15563748150633602,
        "time": 0.12272888600000001,
        "traj_len": 4.100787632719522,
        "weighted_distance": 5.672831632114578
    },
    "planner": "BiTRRT",
    "start": {
        "state": {
            "elbow_joint": 0.749534889911806,
            "shoulder_lift_joint": -0.6476975780787326,
            "shoulder_pan_joint": -2.711696901376241,
            "wrist_1_joint": -0.07506478083263063,
            "wrist_2_joint": 0.43296659715538205,
            "wrist_3_joint": -3.14703540197715
        }
    },
    "waypoints": [
        {
            "positions": [
                -2.711696901376241,
                -0.6476975780787326,
                0.749534889911806,
                -0.07506478083263063,
                0.43296659715538205,
                -3.14703540197715
            ]
        },
        {
            "positions": [
                -2.7348304831544294,
                -0.6985764424083123,
                0.8010634609055028,
                -0.12232026834672778,
                0.3685287265389471,
                -3.039475505241503
            ]
        },
        {
            "positions": [
                -2.7579640649326183,
                -0.7494553067378921,
                0.8525920318991999,
                -0.16957575586082493,
                0.30409085592251217,
                -2.931915608505855
            ]
        },
        {
            "positions": [
                -2.7810976467108066,
                -0.8003341710674717,
                0.9041206028928968,
                -0.2168312433749221,
                0.23965298530607718,
                -2.824355711770208
            ]
        },
        {
            "positions": [
                -2.7744298370751777,
                -0.837328240543363,
                0.9030004849097306,
                -0.2616875581247457,
                0.19364081396402505,
                -2.717712848317053
            ]
        },
        {
            "positions": [
                -2.7242948901177315,
                -0.8603303981579196,
                0.8442640842884312,
                -0.3029492042882209,
                0.1678304675060985,
                -2.5944841437400137
            ]
        },
        {
            "positions": [
                -2.674159943160285,
                -0.8833325557724762,
                0.7855276836671319,
                -0.3442108504516961,
                0.14202012104817197,
                -2.471255439162974
            ]
        },
        {
            "positions": [
                -2.624024996202839,
                -0.9063347133870328,
                0.7267912830458325,
                -0.3854724966151713,
                0.11620977459024541,
                -2.3480267345859347
            ]
        },
        {
            "positions": [
                -2.5501979295882453,
                -0.9173881623537887,
                0.6197544489367081,
                -0.42177407539578393,
                0.1174577318071205,
                -2.1998164248727647
            ]
        },
        {
            "positions": [
                -2.476370862973652,
                -0.9284416113205447,
                0.5127176148275835,
                -0.45807565417639656,
                0.11870568902399561,
                -2.051606115159595
            ]
        },
        {
            "positions": [
                -2.4025437963590583,
                -0.9394950602873007,
                0.405680780718459,
                -0.4943772329570092,
                0.11995364624087071,
                -1.9033958054464246
            ]
        },
        {
            "positions": [
                -2.3287167297444644,
                -0.9505485092540567,
                0.2986439466093345,
                -0.5306788117376218,
                0.1212016034577458,
                -1.7551854957332544
            ]
        },
        {
            "positions": [
                -2.254889663129871,
                -0.9616019582208125,
                0.19160711250021,
                -0.5669803905182345,
                0.12244956067462091,
                -1.6069751860200845
            ]
        },
        {
            "positions": [
                -2.1810625965152775,
                -0.9726554071875685,
                0.08457027839108544,
                -0.603281969298847,
                0.12369751789149601,
                -1.4587648763069145
            ]
        },
        {
            "positions": [
                -2.107235529900684,
                -0.9837088561543245,
                -0.022466555718039016,
                -0.6395835480794596,
                0.12494547510837112,
                -1.3105545665937444
            ]
        },
        {
            "positions": [
                -2.0334084632860905,
                -0.9947623051210804,
                -0.12950338982716347,
                -0.6758851268600723,
                0.1261934323252462,
                -1.1623442568805744
            ]
        },
        {
            "positions": [
                -1.959581396671497,
                -1.0058157540878363,
                -0.23654022393628804,
                -0.712186705640685,
                0.1274413895421213,
                -1.0141339471674045
            ]
        },
        {
            "positions": [
                -1.8857543300569033,
                -1.0168692030545923,
                -0.3435770580454125,
                -0.7484882844212976,
                0.1286893467589964,
                -0.8659236374542343
            ]
        },
        {
            "positions": [
                -1.8119272634423096,
                -1.0279226520213482,
                -0.45061389215453707,
                -0.7847898632019102,
                0.12993730397587153,
                -0.7177133277410641
            ]
        },
        {
            "positions": [
                -1.738100196827716,
                -1.0389761009881042,
                -0.5576507262636616,
                -0.8210914419825228,
                0.13118526119274662,
                -0.5695030180278942
            ]
        },
        {
            "positions": [
                -1.6642731302131226,
                -1.0500295499548602,
                -0.6646875603727862,
                -0.8573930207631355,
                0.13243321840962172,
                -0.421292708314724
            ]
        },
        {
            "positions": [
                -1.5904460635985291,
                -1.0610829989216162,
                -0.7717243944819105,
                -0.893694599543748,
                0.1336811756264968,
                -0.27308239860155403
            ]
        },
        {
            "positions": [
                -1.5166189969839354,
                -1.0721364478883721,
                -0.8787612285910351,
                -0.9299961783243607,
                0.1349291328433719,
                -0.12487208888838408
            ]
        },
        {
            "positions": [
                -1.442791930369342,
                -1.0831898968551281,
                -0.9857980627001595,
                -0.9662977571049733,
                0.136177090060247,
                0.02333822082478587
            ]
        },
        {
            "positions": [
                -1.3689648637547485,
                -1.094243345821884,
                -1.0928348968092843,
                -1.002599335885586,
                0.13742504727712213,
                0.17154853053795627
            ]
        },
        {
            "positions": [
                -1.295137797140155,
                -1.10529679478864,
                -1.1998717309184086,
                -1.0389009146661985,
                0.13867300449399722,
                0.3197588402511258
            ]
        },
        {
            "positions": [
                -1.2213107305255613,
                -1.116350243755396,
                -1.3069085650275332,
                -1.0752024934468112,
                0.13992096171087232,
                0.46796914996429606
            ]
        },
        {
            "positions": [
                -1.1670557018763157,
                -1.1320378070940058,
                -1.4058649018787293,
                -1.1176792335853936,
                0.14132899747271302,
                0.6077211297899231
            ]
        },
        {
            "positions": [
                -1.11280067322707,
                -1.1477253704326156,
                -1.5048212387299251,
                -1.160155973723976,
                0.14273703323455372,
                0.7474731096155501
            ]
        },
        {
            "positions": [
                -1.0585456445778245,
                -1.1634129337712253,
                -1.603777575581121,
                -1.2026327138625583,
                0.14414506899639443,
                0.8872250894411772
            ]
        },
        {
            "positions": [
                -1.004290615928579,
                -1.179100497109835,
                -1.702733912432317,
                -1.245109454001141,
                0.14555310475823513,
                1.0269770692668043
            ]
        },
        {
            "positions": [
                -0.9500355872793335,
                -1.1947880604484447,
                -1.8016902492835132,
                -1.2875861941397233,
                0.14696114052007583,
                1.1667290490924311
            ]
        },
        {
            "positions": [
                -0.895780558630088,
                -1.2104756237870544,
                -1.900646586134709,
                -1.3300629342783057,
                0.14836917628191654,
                1.3064810289180584
            ]
        },
        {
            "positions": [
                -0.8415255299808424,
                -1.2261631871256642,
                -1.999602922985905,
                -1.372539674416888,
                0.14977721204375724,
                1.4462330087436852
            ]
        },
        {
            "positions": [
                -0.7872705013315968,
                -1.241850750464274,
                -2.098559259837101,
                -1.4150164145554704,
                0.15118524780559794,
                1.5859849885693125
            ]
        },
        {
            "positions": [
                -0.7400270263997997,
                -1.256687544718471,
                -2.187509796790239,
                -1.454389881488188,
                0.1523911989946905,
                1.7119811526575703
            ]
        },
        {
            "positions": [
                -0.6927835514680025,
                -1.2715243389726683,
                -2.276460333743377,
                -1.4937633484209054,
                0.15359715018378303,
                1.8379773167458282
            ]
        },
        {
            "positions": [
                -0.6391103477616551,
                -1.3591065472374846,
                -2.3083778613545136,
                -1.5445072281175958,
                0.13681883169576664,
                1.9769493850013549
            ]
        },
        {
            "positions": [
                -0.5854371440553077,
                -1.446688755502301,
                -2.34029538896565,
                -1.5952511078142864,
                0.12004051320775028,
                2.1159214532568815
            ]
        },
        {
            "positions": [
                -0.5317639403489602,
                -1.5342709637671172,
                -2.3722129165767867,
                -1.6459949875109767,
                0.1032621947197339,
                2.2548935215124084
            ]
        },
        {
            "positions": [
                -0.4780907366426129,
                -1.6218531720319336,
                -2.4041304441879228,
                -1.696738867207667,
                0.08648387623171752,
                2.3938655897679353
            ]
        },
        {
            "positions": [
                -0.42441753293626544,
                -1.70943538029675,
                -2.4360479717990593,
                -1.7474827469043577,
                0.06970555774370113,
                2.532837658023462
            ]
        },
        {
            "positions": [
                -0.37074432922991807,
                -1.7970175885615662,
                -2.467965499410196,
                -1.798226626601048,
                0.052927239255684766,
                2.6718097262789886
            ]
        },
        {
            "positions": [
                -0.31707112552357064,
                -1.8845997968263826,
                -2.4998830270213324,
                -1.8489705062977384,
                0.036148920767668374,
                2.8107817945345155
            ]
        },
        {
            "positions": [
                -0.2844007793417729,
                -1.8496458249294125,
                -2.465540598249691,
                -1.9312146768994811,
                -0.01892918750650637,
                2.8925490265454497
            ]
        },
        {
            "positions": [
                -0.2517304331599751,
                -1.8146918530324423,
                -2.4311981694780496,
                -2.013458847501224,
                -0.07400729578068112,
                2.9743162585563843
            ]
        },
        {
            "positions": [
                -0.21906008697817736,
                -1.7797378811354723,
                -2.396855740706408,
                -2.095703018102967,
                -0.12908540405485586,
                3.0560834905673184
            ]
        },
        {
            "positions": [
                -0.1863897407963796,
                -1.7447839092385022,
                -2.3625133119347668,
                -2.1779471887047097,
                -0.1841635123290306,
                3.1378507225782526
            ]
        }
    ]
}