{
    "goal": {
        "global_pose": {
            "orientation": {
                "w": 0.7031023480610252,
                "x": -0.7110244013736278,
                "y": 0.0077485991402295624,
                "z": 0.005598929693374583
            },
            "position": {
                "x": -0.8841497679147869,
                "y": 0.44412534475326537,
                "z": 0.3711530566215515
            }
        },
        "name": "move_to_auspresseinheit_D"
    },
    "id": "BiTRRT_move_to_auspresseinheit_D_56",
    "joint_names": [
        "shoulder_pan_joint",
        "shoulder_lift_joint",
        "elbow_joint",
        "wrist_1_joint",
        "wrist_2_joint",
        "wrist_3_joint"
    ],
    "metrics": {
        "cart_traj_len": 0.3434327453996123,
        "distance_elbow_joint": 0.6403633103037358,
        "distance_shoulder_lift_joint": 0.12265048606989071,
        "distance_shoulder_pan_joint": 0.13413963311078037,
        "distance_wrist_1_joint": 0.5312523940126819,
        "distance_wrist_2_joint": 1.4361935160503172,
        "distance_wrist_3_joint": 0.009939153709872528,
        "smoothness": 0.0,
        "time": 0.039184919,
        "traj_len": 1.6954463994055602,
        "weighted_distance": 2.204963199407197
    },
    "planner": "BiTRRT",
    "start": {
        "state": {
            "elbow_joint": -1.8275523626775212,
            "shoulder_lift_joint": -2.126789852344167,
            "shoulder_pan_joint": -0.03513704404078235,
            "wrist_1_joint": -2.347782403156801,
            "wrist_2_joint": -1.6058999987535132,
            "wrist_3_joint": -3.0880379163319196
        }
    },
    "waypoints": [
        {
            "positions": [
                -0.03513704404078235,
                -2.126789852344167,
                -1.8275523626775212,
                -2.347782403156801,
                -1.6058999987535132,
                -3.0880379163319196
            ]
        },
        {
            "positions": [
                -0.051904498179629895,
                -2.142121163102903,
                -1.7475069488895543,
                -2.414188952408386,
                -1.4263758092472236,
                -3.0892803105456537
            ]
        },
        {
            "positions": [
                -0.06867195231847745,
                -2.1574524738616394,
                -1.6674615351015873,
                -2.4805955016599714,
                -1.2468516197409338,
                -3.0905227047593877
            ]
        },
        {
            "positions": [
                -0.08543940645732498,
                -2.1727837846203757,
                -1.5874161213136202,
                -2.5470020509115567,
                -1.0673274302346443,
                -3.091765098973122
            ]
        },
        {
            "positions": [
                -0.10220686059617254,
                -2.1881150953791124,
                -1.5073707075256533,
                -2.613408600163142,
                -0.8878032407283546,
                -3.093007493186856
            ]
        },
        {
            "positions": [
                -0.11897431473502007,
                -2.2034464061378487,
                -1.4273252937376864,
                -2.679815149414727,
                -0.7082790512220649,
                -3.09424988740059
            ]
        },
        {
            "positions": [
                -0.13574176887386763,
                -2.218777716896585,
                -1.3472798799497192,
                -2.746221698666312,
                -0.5287548617157753,
                -3.095492281614324
            ]
        },
        {
            "positions": [
                -0.15250922301271516,
                -2.2341090276553213,
                -1.2672344661617523,
                -2.8126282479178975,
                -0.34923067220948556,
                -3.096734675828058
            ]
        },
        {
            "positions": [
                -0.16927667715156272,
                -2.2494403384140575,
                -1.1871890523737854,
                -2.8790347971694827,
                -0.16970648270319602,
                -3.097977070041792
            ]
        }
    ]
}