{
    "goal": {
        "global_pose": {
            "orientation": {
                "w": -0.00223480608172531,
                "x": 0.0024358444001904467,
                "y": 0.7094548369677653,
                "z": -0.704743149386269
            },
            "position": {
                "x": -0.37947507619857795,
                "y": -0.6371506643295288,
                "z": 0.19426114857196808
            }
        },
        "name": "move_to_magneteinheit_C"
    },
    "id": "BiTRRT_move_to_magneteinheit_C_33",
    "joint_names": [
        "shoulder_pan_joint",
        "shoulder_lift_joint",
        "elbow_joint",
        "wrist_1_joint",
        "wrist_2_joint",
        "wrist_3_joint"
    ],
    "metrics": {
        "cart_traj_len": 2.77621877096698,
        "distance_elbow_joint": 2.7031407145706923,
        "distance_shoulder_lift_joint": 0.8438554706735935,
        "distance_shoulder_pan_joint": 1.5888858750677326,
        "distance_wrist_1_joint": 2.056327825504207,
        "distance_wrist_2_joint": 2.8594242450144645,
        "distance_wrist_3_joint": 3.28958292062815,
        "smoothness": 0.3462469030677436,
        "time": 0.170798178,
        "traj_len": 3.6525630797371367,
        "weighted_distance": 4.9835865562096755
    },
    "planner": "BiTRRT",
    "start": {
        "state": {
            "elbow_joint": 1.9565354010623817,
            "shoulder_lift_joint": -1.4165861575791021,
            "shoulder_pan_joint": -1.6717766225146293,
            "wrist_1_joint": -0.5286633292919765,
            "wrist_2_joint": 1.472756589071564,
            "wrist_3_joint": -3.1238370188695823
        }
    },
    "waypoints": [
        {
            "positions": [
                -1.6717766225146293,
                -1.4165861575791021,
                1.9565354010623817,
                -0.5286633292919765,
                1.472756589071564,
                -3.1238370188695823
            ]
        },
        {
            "positions": [
                -1.6509022411318233,
                -1.427433105321152,
                1.961469009998003,
                -0.496255885890758,
                1.3859694141464056,
                -3.0672959602591225
            ]
        },
        {
            "positions": [
                -1.6300278597490172,
                -1.4382800530632016,
                1.9664026189336241,
                -0.4638484424895395,
                1.2991822392212473,
                -3.0107549016486623
            ]
        },
        {
            "positions": [
                -1.6112953396200183,
                -1.4088163931784647,
                1.8645271825918464,
                -0.4739754430045066,
                1.1921708931833892,
                -2.89350594364501
            ]
        },
        {
            "positions": [
                -1.5925628194910195,
                -1.3793527332937279,
                1.7626517462500684,
                -0.48410244351947374,
                1.0851595471455313,
                -2.7762569856413575
            ]
        },
        {
            "positions": [
                -1.5738302993620206,
                -1.349889073408991,
                1.6607763099082906,
                -0.4942294440344408,
                0.9781482011076732,
                -2.659008027637705
            ]
        },
        {
            "positions": [
                -1.5550977792330216,
                -1.3204254135242544,
                1.5589008735665129,
                -0.504356444549408,
                0.8711368550698153,
                -2.5417590696340526
            ]
        },
        {
            "positions": [
                -1.5363652591040229,
                -1.2909617536395175,
                1.4570254372247349,
                -0.514483445064375,
                0.7641255090319572,
                -2.4245101116304006
            ]
        },
        {
            "positions": [
                -1.517632738975024,
                -1.2614980937547806,
                1.3551500008829573,
                -0.5246104455793421,
                0.6571141629940992,
                -2.307261153626748
            ]
        },
        {
            "positions": [
                -1.4989002188460252,
                -1.2320344338700437,
                1.2532745645411794,
                -0.5347374460943093,
                0.5501028169562413,
                -2.190012195623096
            ]
        },
        {
            "positions": [
                -1.4801676987170262,
                -1.2025707739853069,
                1.1513991281994016,
                -0.5448644466092764,
                0.4430914709183832,
                -2.0727632376194434
            ]
        },
        {
            "positions": [
                -1.4614351785880273,
                -1.1731071141005702,
                1.0495236918576238,
                -0.5549914471242434,
                0.3360801248805253,
                -1.955514279615791
            ]
        },
        {
            "positions": [
                -1.4427026584590286,
                -1.1436434542158334,
                0.9476482555158459,
                -0.5651184476392106,
                0.22906877884266708,
                -1.8382653216121385
            ]
        },
        {
            "positions": [
                -1.4239701383300296,
                -1.1141797943310965,
                0.8457728191740683,
                -0.5752454481541777,
                0.12205743280480919,
                -1.7210163636084863
            ]
        },
        {
            "positions": [
                -1.4052376182010309,
                -1.0847161344463596,
                0.7438973828322903,
                -0.5853724486691448,
                0.015046086766951072,
                -1.6037674056048337
            ]
        },
        {
            "positions": [
                -1.386505098072032,
                -1.0552524745616227,
                0.6420219464905126,
                -0.5954994491841119,
                -0.09196525927090686,
                -1.4865184476011815
            ]
        },
        {
            "positions": [
                -1.5229765521670104,
                -1.0476523787198873,
                0.6496180965283458,
                -0.7259550287158323,
                -0.12496432422471404,
                -1.5400294576907705
            ]
        },
        {
            "positions": [
                -1.659448006261989,
                -1.0400522828781518,
                0.657214246566179,
                -0.8564106082475527,
                -0.1579633891785212,
                -1.5935404677803597
            ]
        },
        {
            "positions": [
                -1.7959194603569675,
                -1.0324521870364163,
                0.6648103966040122,
                -0.986866187779273,
                -0.19096245413232837,
                -1.6470514778699488
            ]
        },
        {
            "positions": [
                -1.932390914451946,
                -1.0248520911946808,
                0.6724065466418454,
                -1.1173217673109934,
                -0.22396151908613554,
                -1.7005624879595378
            ]
        },
        {
            "positions": [
                -2.0688623685469247,
                -1.017251995352945,
                0.6800026966796786,
                -1.2477773468427138,
                -0.2569605840399427,
                -1.754073498049127
            ]
        },
        {
            "positions": [
                -2.205333822641903,
                -1.0096518995112096,
                0.6875988467175118,
                -1.3782329263744342,
                -0.28995964899374993,
                -1.807584508138716
            ]
        },
        {
            "positions": [
                -2.3418052767368813,
                -1.002051803669474,
                0.695194996755345,
                -1.5086885059061546,
                -0.3229587139475571,
                -1.8610955182283053
            ]
        },
        {
            "positions": [
                -2.47827673083186,
                -0.9944517078277386,
                0.7027911467931782,
                -1.639144085437875,
                -0.35595777890136426,
                -1.9146065283178944
            ]
        },
        {
            "positions": [
                -2.5303141456239757,
                -0.9855419332486469,
                0.7998134771571423,
                -1.6429663671709565,
                -0.3508493443801445,
                -2.002195237057421
            ]
        },
        {
            "positions": [
                -2.582351560416092,
                -0.9766321586695552,
                0.8968358075211064,
                -1.646788648904038,
                -0.34574090985892464,
                -2.0897839457969485
            ]
        },
        {
            "positions": [
                -2.574985627118301,
                -0.9592890495865205,
                1.0092864312529382,
                -1.572144335310334,
                -0.32961466947626045,
                -2.2092372469758494
            ]
        },
        {
            "positions": [
                -2.567619693820511,
                -0.9419459405034858,
                1.12173705498477,
                -1.4975000217166297,
                -0.31348842909359625,
                -2.328690548154751
            ]
        },
        {
            "positions": [
                -2.5602537605227202,
                -0.924602831420451,
                1.234187678716602,
                -1.4228557081229256,
                -0.2973621887109321,
                -2.448143849333652
            ]
        },
        {
            "positions": [
                -2.55288782722493,
                -0.9072597223374163,
                1.3466383024484339,
                -1.3482113945292213,
                -0.2812359483282679,
                -2.567597150512553
            ]
        },
        {
            "positions": [
                -2.5455218939271393,
                -0.8899166132543815,
                1.4590889261802655,
                -1.2735670809355173,
                -0.26510970794560373,
                -2.687050451691454
            ]
        },
        {
            "positions": [
                -2.534103904912515,
                -0.9134245583427547,
                1.529355063092993,
                -1.1983605475458896,
                -0.14555398646527723,
                -2.7408922071719526
            ]
        },
        {
            "positions": [
                -2.5226859158978914,
                -0.9369325034311278,
                1.5996212000057208,
                -1.123154014156262,
                -0.025998264984950725,
                -2.7947339626524514
            ]
        },
        {
            "positions": [
                -2.511267926883267,
                -0.9604404485195009,
                1.6698873369184484,
                -1.0479474807666342,
                0.09355745649537578,
                -2.84857571813295
            ]
        },
        {
            "positions": [
                -2.503931075933617,
                -1.0010953085426118,
                1.7380928236841289,
                -1.0060011679366607,
                0.20979638482433502,
                -2.906617133898546
            ]
        },
        {
            "positions": [
                -2.496594224983967,
                -1.0417501685657227,
                1.8062983104498094,
                -0.9640548551066872,
                0.32603531315329426,
                -2.964658549664142
            ]
        },
        {
            "positions": [
                -2.4892573740343167,
                -1.0824050285888336,
                1.8745037972154899,
                -0.9221085422767137,
                0.44227424148225347,
                -3.022699965429738
            ]
        },
        {
            "positions": [
                -2.481920523084667,
                -1.1230598886119445,
                1.9427092839811704,
                -0.8801622294467402,
                0.5585131698112127,
                -3.0807413811953346
            ]
        },
        {
            "positions": [
                -2.4745836721350165,
                -1.1637147486350554,
                2.010914770746851,
                -0.8382159166167666,
                0.674752098140172,
                -3.1387827969609305
            ]
        }
    ]
}