{
    "goal": {
        "global_pose": {
            "orientation": {
                "w": -0.4816463035849501,
                "x": 0.5182115481033762,
                "y": 0.4908360881923453,
                "z": -0.5084816262002911
            },
            "position": {
                "x": -0.8240239810943604,
                "y": -0.300875300988555,
                "z": 0.16403168439865112
            }
        },
        "name": "move_to_storage_C"
    },
    "id": "BiTRRT_move_to_storage_C_48",
    "joint_names": [
        "shoulder_pan_joint",
        "shoulder_lift_joint",
        "elbow_joint",
        "wrist_1_joint",
        "wrist_2_joint",
        "wrist_3_joint"
    ],
    "metrics": {
        "cart_traj_len": 0.5764090038611632,
        "distance_elbow_joint": 0.2580459511352855,
        "distance_shoulder_lift_joint": 0.18919224543446378,
        "distance_shoulder_pan_joint": 0.49431511004414164,
        "distance_wrist_1_joint": 0.080134095207674,
        "distance_wrist_2_joint": 1.0702298537588302,
        "distance_wrist_3_joint": 0.0621493306630283,
        "smoothness": 7.612957943425664e-16,
        "time": 0.037213728,
        "traj_len": 1.4676738691696543,
        "weighted_distance": 1.8516828012745552
    },
    "planner": "BiTRRT",
    "start": {
        "state": {
            "elbow_joint": 2.010868314990456,
            "shoulder_lift_joint": -1.1634956873337592,
            "shoulder_pan_joint": -2.4736205022346125,
            "wrist_1_joint": -0.8367026794202681,
            "wrist_2_joint": 0.6746043897044499,
            "wrist_3_joint": -3.1496632123970403
        }
    },
    "waypoints": [
        {
            "positions": [
                -2.4736205022346125,
                -1.1634956873337592,
                2.010868314990456,
                -0.8367026794202681,
                0.6746043897044499,
                -3.1496632123970403
            ]
        },
        {
            "positions": [
                -2.556006353908636,
                -1.1319636464280152,
                1.9678606564679082,
                -0.8233469968856557,
                0.8529760319975883,
                -3.139304990619869
            ]
        },
        {
            "positions": [
                -2.63839220558266,
                -1.1004316055222714,
                1.9248529979453606,
                -0.8099913143510434,
                1.0313476742907266,
                -3.1289467688426975
            ]
        },
        {
            "positions": [
                -2.720778057256683,
                -1.0688995646165274,
                1.8818453394228132,
                -0.7966356318164312,
                1.2097193165838651,
                -3.118588547065526
            ]
        },
        {
            "positions": [
                -2.8031639089307068,
                -1.0373675237107833,
                1.8388376809002656,
                -0.7832799492818188,
                1.3880909588770032,
                -3.1082303252883547
            ]
        },
        {
            "positions": [
                -2.8855497606047305,
                -1.0058354828050393,
                1.795830022377718,
                -0.7699242667472064,
                1.5664626011701417,
                -3.0978721035111834
            ]
        },
        {
            "positions": [
                -2.967935612278754,
                -0.9743034418992954,
                1.7528223638551703,
                -0.7565685842125941,
                1.74483424346328,
                -3.087513881734012
            ]
        }
    ]
}