{
    "goal": {
        "global_pose": {
            "orientation": {
                "w": 0.7031023480610252,
                "x": -0.7110244013736278,
                "y": 0.0077485991402295624,
                "z": 0.005598929693374583
            },
            "position": {
                "x": -0.8841497679147869,
                "y": 0.44412534475326537,
                "z": 0.3711530566215515
            }
        },
        "name": "move_to_auspresseinheit_D"
    },
    "id": "BiTRRT_move_to_auspresseinheit_D_117",
    "joint_names": [
        "shoulder_pan_joint",
        "shoulder_lift_joint",
        "elbow_joint",
        "wrist_1_joint",
        "wrist_2_joint",
        "wrist_3_joint"
    ],
    "metrics": {
        "cart_traj_len": 0.3451789987984172,
        "distance_elbow_joint": 0.6739289027425945,
        "distance_shoulder_lift_joint": 0.14093780139150525,
        "distance_shoulder_pan_joint": 0.13360373846450943,
        "distance_wrist_1_joint": 0.6400917699173281,
        "distance_wrist_2_joint": 1.4450182437412022,
        "distance_wrist_3_joint": 0.09754294929187779,
        "smoothness": 0.0,
        "time": 0.059420206,
        "traj_len": 1.7694980659918838,
        "weighted_distance": 2.32622426214484
    },
    "planner": "BiTRRT",
    "start": {
        "state": {
            "elbow_joint": -1.8275523626775212,
            "shoulder_lift_joint": -2.126789852344167,
            "shoulder_pan_joint": -0.03513704404078235,
            "wrist_1_joint": -2.347782403156801,
            "wrist_2_joint": -1.6058999987535132,
            "wrist_3_joint": -3.0880379163319196
        }
    },
    "waypoints": [
        {
            "positions": [
                -0.03513704404078235,
                -2.126789852344167,
                -1.8275523626775212,
                -2.347782403156801,
                -1.6058999987535132,
                -3.0880379163319196
            ]
        },
        {
            "positions": [
                -0.051837511348846024,
                -2.144407077518105,
                -1.7433112498346968,
                -2.4277938743964667,
                -1.4252727182858629,
                -3.075845047670435
            ]
        },
        {
            "positions": [
                -0.0685379786569097,
                -2.162024302692043,
                -1.6590701369918726,
                -2.507805345636133,
                -1.2446454378182126,
                -3.06365217900895
            ]
        },
        {
            "positions": [
                -0.08523844596497338,
                -2.1796415278659813,
                -1.5748290241490484,
                -2.587816816875799,
                -1.0640181573505623,
                -3.0514593103474654
            ]
        },
        {
            "positions": [
                -0.10193891327303706,
                -2.1972587530399195,
                -1.490587911306224,
                -2.667828288115465,
                -0.8833908768829121,
                -3.0392664416859807
            ]
        },
        {
            "positions": [
                -0.11863938058110074,
                -2.2148759782138576,
                -1.4063467984633995,
                -2.7478397593551307,
                -0.7027635964152618,
                -3.027073573024496
            ]
        },
        {
            "positions": [
                -0.13533984788916442,
                -2.2324932033877958,
                -1.3221056856205753,
                -2.827851230594797,
                -0.5221363159476116,
                -3.0148807043630113
            ]
        },
        {
            "positions": [
                -0.1520403151972281,
                -2.250110428561734,
                -1.237864572777751,
                -2.907862701834463,
                -0.34150903547996125,
                -3.0026878357015265
            ]
        },
        {
            "positions": [
                -0.1687407825052918,
                -2.267727653735672,
                -1.1536234599349267,
                -2.987874173074129,
                -0.16088175501231097,
                -2.990494967040042
            ]
        }
    ]
}