{
    "goal": {
        "global_pose": {
            "orientation": {
                "w": 0.5084816217422485,
                "x": -0.49083608388900757,
                "y": 0.5182115435600281,
                "z": -0.4816462993621826
            },
            "position": {
                "x": 0.5540239810943604,
                "y": 0.030875300988554955,
                "z": 0.16403168439865112
            }
        },
        "name": "move_to_storage_A"
    },
    "id": "BiTRRT_move_to_storage_A_58",
    "joint_names": [
        "shoulder_pan_joint",
        "shoulder_lift_joint",
        "elbow_joint",
        "wrist_1_joint",
        "wrist_2_joint",
        "wrist_3_joint"
    ],
    "metrics": {
        "cart_traj_len": 0.3526919763161144,
        "distance_elbow_joint": 0.4524695073011846,
        "distance_shoulder_lift_joint": 0.2338316611497293,
        "distance_shoulder_pan_joint": 0.4566690460172745,
        "distance_wrist_1_joint": 0.25613414474170393,
        "distance_wrist_2_joint": 1.1173979811155756,
        "distance_wrist_3_joint": 0.0950806758568663,
        "smoothness": 0.0,
        "time": 0.039921584999999996,
        "traj_len": 1.6160392990835137,
        "weighted_distance": 2.0433493322859277
    },
    "planner": "BiTRRT",
    "start": {
        "state": {
            "elbow_joint": 1.971548259319323,
            "shoulder_lift_joint": -1.1394851275133948,
            "shoulder_pan_joint": 0.1228115487234821,
            "wrist_1_joint": -0.7804723859257726,
            "wrist_2_joint": 0.12958671773740124,
            "wrist_3_joint": -3.192489227718131
        }
    },
    "waypoints": [
        {
            "positions": [
                0.1228115487234821,
                -1.1394851275133948,
                1.971548259319323,
                -0.7804723859257726,
                0.12958671773740124,
                -3.192489227718131
            ]
        },
        {
            "positions": [
                0.057573113578157184,
                -1.1728896505347848,
                2.0361867603623494,
                -0.8170629780317303,
                0.28921500075391204,
                -3.178906274024293
            ]
        },
        {
            "positions": [
                -0.007665321567167732,
                -1.2062941735561745,
                2.100825261405376,
                -0.8536535701376881,
                0.4488432837704228,
                -3.165323320330455
            ]
        },
        {
            "positions": [
                -0.07290375671249266,
                -1.2396986965775645,
                2.165463762448402,
                -0.8902441622436457,
                0.6084715667869336,
                -3.151740366636617
            ]
        },
        {
            "positions": [
                -0.13814219185781756,
                -1.2731032195989544,
                2.2301022634914283,
                -0.9268347543496034,
                0.7680998498034445,
                -3.138157412942779
            ]
        },
        {
            "positions": [
                -0.20338062700314252,
                -1.3065077426203444,
                2.294740764534455,
                -0.9634253464555611,
                0.9277281328199554,
                -3.124574459248941
            ]
        },
        {
            "positions": [
                -0.2686190621484674,
                -1.3399122656417342,
                2.3593792655774815,
                -1.0000159385615188,
                1.087356415836466,
                -3.110991505555103
            ]
        },
        {
            "positions": [
                -0.3338574972937924,
                -1.3733167886631241,
                2.4240177666205076,
                -1.0366065306674765,
                1.246984698852977,
                -3.097408551861265
            ]
        }
    ]
}{
    "goal": {
        "global_pose": {
            "orientation": {
                "w": 0.5084816217422485,
                "x": -0.49083608388900757,
                "y": 0.5182115435600281,
                "z": -0.4816462993621826
            },
            "position": {
                "x": 0.5540239810943604,
                "y": 0.030875300988554955,
                "z": 0.16403168439865112
            }
        },
        "name": "move_to_storage_A"
    },
    "id": "BiTRRT_move_to_storage_A_58",
    "joint_names": [
        "shoulder_pan_joint",
        "shoulder_lift_joint",
        "elbow_joint",
        "wrist_1_joint",
        "wrist_2_joint",
        "wrist_3_joint"
    ],
    "metrics": {
        "cart_traj_len": 0.35268732869051805,
        "distance_elbow_joint": 0.4498425196457476,
        "distance_shoulder_lift_joint": 0.2329034776755632,
        "distance_shoulder_pan_joint": 0.4614942498892942,
        "distance_wrist_1_joint": 0.2493436648450409,
        "distance_wrist_2_joint": 1.09552461280939,
        "distance_wrist_3_joint": 0.101784621111634,
        "smoothness": 2.2204460668324854e-16,
        "time": 0.041801882,
        "traj_len": 1.609625156978068,
        "weighted_distance": 2.034534508396053
    },
    "planner": "BiTRRT",
    "start": {
        "state": {
            "elbow_joint": 1.97154746011099,
            "shoulder_lift_joint": -1.13948474672311,
            "shoulder_pan_joint": 0.12281154466712228,
            "wrist_1_joint": -0.7804688027058302,
            "wrist_2_joint": 0.12958655903071145,
            "wrist_3_joint": 3.0906928834467795
        }
    },
    "waypoints": [
        {
            "positions": [
                0.12281154466712228,
                -1.13948474672311,
                1.97154746011099,
                -0.7804688027058302,
                0.12958655903071145,
                3.0906928834467795
            ]
        },
        {
            "positions": [
                0.0568837946829374,
                -1.1727566721053333,
                2.0358106772032394,
                -0.8160893262551218,
                0.2860900751463386,
                3.1052335436055842
            ]
        },
        {
            "positions": [
                -0.009043955301247478,
                -1.2060285974875566,
                2.1000738942954893,
                -0.8517098498044133,
                0.44259359126196574,
                3.1197742037643894
            ]
        },
        {
            "positions": [
                -0.07497170528543236,
                -1.23930052286978,
                2.1643371113877388,
                -0.8873303733537048,
                0.5990971073775929,
                3.134314863923194
            ]
        },
        {
            "positions": [
                -0.14089945526961722,
                -1.272572448252003,
                2.2286003284799887,
                -0.9229508969029964,
                0.7556006234932201,
                3.148855524081999
            ]
        },
        {
            "positions": [
                -0.20682720525380216,
                -1.3058443736342265,
                2.292863545572238,
                -0.9585714204522879,
                0.9121041396088473,
                3.1633961842408036
            ]
        },
        {
            "positions": [
                -0.272754955237987,
                -1.3391162990164498,
                2.357126762664488,
                -0.9941919440015795,
                1.0686076557244744,
                3.1779368443996088
            ]
        },
        {
            "positions": [
                -0.3386827052221719,
                -1.3723882243986731,
                2.4213899797567375,
                -1.029812467550871,
                1.2251111718401015,
                3.1924775045584135
            ]
        }
    ]
}{
    "goal": {
        "global_pose": {
            "orientation": {
                "w": 0.5084816217422485,
                "x": -0.49083608388900757,
                "y": 0.5182115435600281,
                "z": -0.4816462993621826
            },
            "position": {
                "x": 0.5540239810943604,
                "y": 0.030875300988554955,
                "z": 0.16403168439865112
            }
        },
        "name": "move_to_storage_A"
    },
    "id": "BiTRRT_move_to_storage_A_58",
    "joint_names": [
        "shoulder_pan_joint",
        "shoulder_lift_joint",
        "elbow_joint",
        "wrist_1_joint",
        "wrist_2_joint",
        "wrist_3_joint"
    ],
    "metrics": {
        "cart_traj_len": 0.35291306345483775,
        "distance_elbow_joint": 0.45156364251355097,
        "distance_shoulder_lift_joint": 0.23636521748520956,
        "distance_shoulder_pan_joint": 0.4635570426159035,
        "distance_wrist_1_joint": 0.24660257591460777,
        "distance_wrist_2_joint": 1.0906678304346655,
        "distance_wrist_3_joint": 0.09486484045745414,
        "smoothness": 0.0,
        "time": 0.043677731,
        "traj_len": 1.6073646597525377,
        "weighted_distance": 2.027466704211335
    },
    "planner": "BiTRRT",
    "start": {
        "state": {
            "elbow_joint": 1.9715472970024885,
            "shoulder_lift_joint": -1.1394870060712896,
            "shoulder_pan_joint": 0.12281152778156021,
            "wrist_1_joint": -0.780463741449964,
            "wrist_2_joint": 0.12958659822042276,
            "wrist_3_joint": 3.090690232415272
        }
    },
    "waypoints": [
        {
            "positions": [
                0.12281152778156021,
                -1.1394870060712896,
                1.9715472970024885,
                -0.780463741449964,
                0.12958659822042276,
                3.090690232415272
            ]
        },
        {
            "positions": [
                0.056589093122145426,
                -1.173253465712034,
                2.0360563887901386,
                -0.8156926808663365,
                0.28539628828251784,
                3.1042423524806226
            ]
        },
        {
            "positions": [
                -0.009633341537269358,
                -1.207019925352778,
                2.1005654805777887,
                -0.850921620282709,
                0.44120597834461295,
                3.117794472545973
            ]
        },
        {
            "positions": [
                -0.07585577619668413,
                -1.2407863849935223,
                2.1650745723654388,
                -0.8861505596990816,
                0.5970156684067079,
                3.1313465926113238
            ]
        },
        {
            "positions": [
                -0.14207821085609892,
                -1.2745528446342664,
                2.229583664153089,
                -0.9213794991154541,
                0.752825358468803,
                3.144898712676674
            ]
        },
        {
            "positions": [
                -0.20830064551551372,
                -1.3083193042750108,
                2.2940927559407394,
                -0.9566084385318268,
                0.9086350485308982,
                3.158450832742025
            ]
        },
        {
            "positions": [
                -0.27452308017492844,
                -1.3420857639157548,
                2.3586018477283894,
                -0.9918373779481993,
                1.0644447385929932,
                3.172002952807375
            ]
        },
        {
            "positions": [
                -0.3407455148343433,
                -1.3758522235564992,
                2.4231109395160395,
                -1.0270663173645718,
                1.2202544286550883,
                3.185555072872726
            ]
        }
    ]
}