{
    "goal": {
        "global_pose": {
            "orientation": {
                "w": 0.7031023480610252,
                "x": -0.7110244013736278,
                "y": 0.0077485991402295624,
                "z": 0.005598929693374583
            },
            "position": {
                "x": -0.8841497679147869,
                "y": 0.44412534475326537,
                "z": 0.3711530566215515
            }
        },
        "name": "move_to_auspresseinheit_D"
    },
    "id": "BiTRRT_move_to_auspresseinheit_D_92",
    "joint_names": [
        "shoulder_pan_joint",
        "shoulder_lift_joint",
        "elbow_joint",
        "wrist_1_joint",
        "wrist_2_joint",
        "wrist_3_joint"
    ],
    "metrics": {
        "cart_traj_len": 0.34263734890333747,
        "distance_elbow_joint": 0.6342143809156375,
        "distance_shoulder_lift_joint": 0.11928806572185113,
        "distance_shoulder_pan_joint": 0.13349091569665975,
        "distance_wrist_1_joint": 0.5151573063195816,
        "distance_wrist_2_joint": 1.4463526563235733,
        "distance_wrist_3_joint": 0.023320050241783186,
        "smoothness": 1.1842378943679006e-15,
        "time": 0.042924789,
        "traj_len": 1.6946455013421204,
        "weighted_distance": 2.2090661914813254
    },
    "planner": "BiTRRT",
    "start": {
        "state": {
            "elbow_joint": -1.8275523626775212,
            "shoulder_lift_joint": -2.126789852344167,
            "shoulder_pan_joint": -0.03513704404078235,
            "wrist_1_joint": -2.347782403156801,
            "wrist_2_joint": -1.6058999987535132,
            "wrist_3_joint": -3.0880379163319196
        }
    },
    "waypoints": [
        {
            "positions": [
                -0.03513704404078235,
                -2.126789852344167,
                -1.8275523626775212,
                -2.347782403156801,
                -1.6058999987535132,
                -3.0880379163319196
            ]
        },
        {
            "positions": [
                -0.05182340850286482,
                -2.141700860559398,
                -1.7482755650630666,
                -2.4121770664467483,
                -1.4251059167130666,
                -3.0909529226121424
            ]
        },
        {
            "positions": [
                -0.06850977296494729,
                -2.15661186877463,
                -1.6689987674486118,
                -2.4765717297366963,
                -1.2443118346726199,
                -3.093867928892365
            ]
        },
        {
            "positions": [
                -0.08519613742702975,
                -2.171522876989861,
                -1.5897219698341571,
                -2.540966393026644,
                -1.063517752632173,
                -3.0967829351725884
            ]
        },
        {
            "positions": [
                -0.10188250188911221,
                -2.1864338852050924,
                -1.5104451722197023,
                -2.6053610563165917,
                -0.8827236705917265,
                -3.099697941452811
            ]
        },
        {
            "positions": [
                -0.11856886635119468,
                -2.2013448934203237,
                -1.4311683746052477,
                -2.669755719606539,
                -0.7019295885512798,
                -3.102612947733034
            ]
        },
        {
            "positions": [
                -0.13525523081327717,
                -2.216255901635555,
                -1.351891576990793,
                -2.734150382896487,
                -0.5211355065108332,
                -3.105527954013257
            ]
        },
        {
            "positions": [
                -0.15194159527535964,
                -2.2311669098507867,
                -1.2726147793763385,
                -2.798545046186435,
                -0.3403414244703864,
                -3.10844296029348
            ]
        },
        {
            "positions": [
                -0.1686279597374421,
                -2.246077918066018,
                -1.1933379817618837,
                -2.8629397094763824,
                -0.15954734242993973,
                -3.111357966573703
            ]
        }
    ]
}