{
    "goal": {
        "global_pose": {
            "orientation": {
                "w": -0.00223480608172531,
                "x": 0.0024358444001904467,
                "y": 0.7094548369677653,
                "z": -0.704743149386269
            },
            "position": {
                "x": -0.37947507619857795,
                "y": -0.6371506643295288,
                "z": 0.19426114857196808
            }
        },
        "name": "move_to_magneteinheit_C"
    },
    "id": "BiTRRT_move_to_magneteinheit_C_52",
    "joint_names": [
        "shoulder_pan_joint",
        "shoulder_lift_joint",
        "elbow_joint",
        "wrist_1_joint",
        "wrist_2_joint",
        "wrist_3_joint"
    ],
    "metrics": {
        "cart_traj_len": 4.4117509335046865,
        "distance_elbow_joint": 3.4103466406085423,
        "distance_shoulder_lift_joint": 1.414720372778922,
        "distance_shoulder_pan_joint": 3.176654770068166,
        "distance_wrist_1_joint": 3.8521671008156373,
        "distance_wrist_2_joint": 3.157678428107662,
        "distance_wrist_3_joint": 3.068519097678976,
        "smoothness": 0.9848692102729237,
        "time": 0.156832117,
        "traj_len": 4.252068486049808,
        "weighted_distance": 5.588109710299107
    },
    "planner": "BiTRRT",
    "start": {
        "state": {
            "elbow_joint": 1.9565354010623817,
            "shoulder_lift_joint": -1.4165861575791021,
            "shoulder_pan_joint": -1.6717766225146293,
            "wrist_1_joint": -0.5286633292919765,
            "wrist_2_joint": 1.472756589071564,
            "wrist_3_joint": -3.1238370188695823
        }
    },
    "waypoints": [
        {
            "positions": [
                -1.6717766225146293,
                -1.4165861575791021,
                1.9565354010623817,
                -0.5286633292919765,
                1.472756589071564,
                -3.1238370188695823
            ]
        },
        {
            "positions": [
                -1.6450297453091123,
                -1.40200197465414,
                1.9506628131513382,
                -0.5248726737753813,
                1.4812595199499774,
                -3.1194451753184858
            ]
        },
        {
            "positions": [
                -1.5100483052109055,
                -1.4774029878521382,
                1.8744706551674093,
                -0.4699057356740053,
                1.4872471336352304,
                -3.135653983840136
            ]
        },
        {
            "positions": [
                -1.3750668651126987,
                -1.5528040010501365,
                1.7982784971834807,
                -0.41493879757262925,
                1.4932347473204834,
                -3.1518627923617863
            ]
        },
        {
            "positions": [
                -1.3673862538696688,
                -1.5754112191137943,
                1.7259419191721184,
                -0.5241143572394558,
                1.3892861264489278,
                -3.083350885448364
            ]
        },
        {
            "positions": [
                -1.359705642626639,
                -1.598018437177452,
                1.6536053411607559,
                -0.6332899169062823,
                1.2853375055773721,
                -3.0148389785349416
            ]
        },
        {
            "positions": [
                -1.352025031383609,
                -1.6206256552411098,
                1.5812687631493936,
                -0.7424654765731089,
                1.1813888847058165,
                -2.9463270716215195
            ]
        },
        {
            "positions": [
                -1.3443444201405792,
                -1.6432328733047674,
                1.5089321851380313,
                -0.8516410362399355,
                1.0774402638342608,
                -2.877815164708097
            ]
        },
        {
            "positions": [
                -1.3366638088975493,
                -1.6658400913684253,
                1.4365956071266688,
                -0.960816595906762,
                0.9734916429627052,
                -2.809303257794675
            ]
        },
        {
            "positions": [
                -1.3289831976545194,
                -1.688447309432083,
                1.3642590291153063,
                -1.0699921555735885,
                0.8695430220911495,
                -2.7407913508812527
            ]
        },
        {
            "positions": [
                -1.3213025864114896,
                -1.7110545274957407,
                1.291922451103944,
                -1.1791677152404152,
                0.7655944012195939,
                -2.67227944396783
            ]
        },
        {
            "positions": [
                -1.3136219751684597,
                -1.7336617455593986,
                1.2195858730925817,
                -1.2883432749072417,
                0.6616457803480382,
                -2.603767537054408
            ]
        },
        {
            "positions": [
                -1.3059413639254298,
                -1.7562689636230562,
                1.1472492950812194,
                -1.3975188345740683,
                0.5576971594764826,
                -2.535255630140986
            ]
        },
        {
            "positions": [
                -1.2982607526824,
                -1.778876181686714,
                1.074912717069857,
                -1.5066943942408948,
                0.4537485386049269,
                -2.4667437232275633
            ]
        },
        {
            "positions": [
                -1.29058014143937,
                -1.8014833997503716,
                1.0025761390584944,
                -1.6158699539077215,
                0.34979991773337127,
                -2.398231816314141
            ]
        },
        {
            "positions": [
                -1.2828995301963402,
                -1.8240906178140295,
                0.9302395610471321,
                -1.725045513574548,
                0.24585129686181562,
                -2.329719909400719
            ]
        },
        {
            "positions": [
                -1.2752189189533103,
                -1.8466978358776873,
                0.8579029830357697,
                -1.8342210732413746,
                0.14190267599025996,
                -2.2612080024872965
            ]
        },
        {
            "positions": [
                -1.2675383077102804,
                -1.869305053941345,
                0.7855664050244073,
                -1.943396632908201,
                0.03795405511870431,
                -2.1926960955738743
            ]
        },
        {
            "positions": [
                -1.2598576964672505,
                -1.8919122720050028,
                0.713229827013045,
                -2.0525721925750275,
                -0.06599456575285134,
                -2.124184188660452
            ]
        },
        {
            "positions": [
                -1.2521770852242207,
                -1.9145194900686604,
                0.6408932490016828,
                -2.1617477522418542,
                -0.169943186624407,
                -2.0556722817470297
            ]
        },
        {
            "positions": [
                -1.2444964739811908,
                -1.9371267081323182,
                0.5685566709903203,
                -2.270923311908681,
                -0.27389180749596265,
                -1.9871603748336073
            ]
        },
        {
            "positions": [
                -1.236815862738161,
                -1.9597339261959759,
                0.49622009297895797,
                -2.380098871575507,
                -0.3778404283675183,
                -1.9186484679201852
            ]
        },
        {
            "positions": [
                -1.229135251495131,
                -1.9823411442596337,
                0.42388351496759535,
                -2.489274431242334,
                -0.4817890492390739,
                -1.8501365610067628
            ]
        },
        {
            "positions": [
                -1.339597965531647,
                -1.968577802459393,
                0.5200447123285213,
                -2.420605020230389,
                -0.4674895966156679,
                -1.9342590654043443
            ]
        },
        {
            "positions": [
                -1.4500606795681632,
                -1.954814460659152,
                0.6162059096894474,
                -2.3519356092184447,
                -0.45319014399226193,
                -2.018381569801926
            ]
        },
        {
            "positions": [
                -1.5605233936046792,
                -1.941051118858911,
                0.7123671070503734,
                -2.2832661982065,
                -0.43889069136885595,
                -2.102504074199507
            ]
        },
        {
            "positions": [
                -1.6709861076411952,
                -1.9272877770586703,
                0.8085283044112994,
                -2.214596787194555,
                -0.42459123874545,
                -2.186626578597089
            ]
        },
        {
            "positions": [
                -1.7814488216777113,
                -1.9135244352584295,
                0.9046895017722256,
                -2.1459273761826108,
                -0.41029178612204403,
                -2.27074908299467
            ]
        },
        {
            "positions": [
                -1.8919115357142273,
                -1.8997610934581886,
                1.0008506991331516,
                -2.077257965170666,
                -0.39599233349863805,
                -2.3548715873922514
            ]
        },
        {
            "positions": [
                -2.0023742497507433,
                -1.8859977516579476,
                1.0970118964940776,
                -2.008588554158721,
                -0.38169288087523207,
                -2.438994091789833
            ]
        },
        {
            "positions": [
                -2.1128369637872595,
                -1.8722344098577068,
                1.1931730938550036,
                -1.9399191431467768,
                -0.3673934282518261,
                -2.5231165961874145
            ]
        },
        {
            "positions": [
                -2.2232996778237757,
                -1.858471068057466,
                1.2893342912159298,
                -1.871249732134832,
                -0.35309397562842015,
                -2.607239100584996
            ]
        },
        {
            "positions": [
                -2.333762391860292,
                -1.8447077262572251,
                1.3854954885768558,
                -1.8025803211228875,
                -0.3387945230050141,
                -2.6913616049825775
            ]
        },
        {
            "positions": [
                -2.444225105896808,
                -1.8309443844569842,
                1.4816566859377818,
                -1.733910910110943,
                -0.3244950703816082,
                -2.7754841093801588
            ]
        },
        {
            "positions": [
                -2.5546878199333234,
                -1.8171810426567434,
                1.5778178832987075,
                -1.6652414990989983,
                -0.3101956177582022,
                -2.85960661377774
            ]
        },
        {
            "positions": [
                -2.6651505339698396,
                -1.8034177008565027,
                1.6739790806596337,
                -1.5965720880870538,
                -0.2958961651347962,
                -2.943729118175322
            ]
        },
        {
            "positions": [
                -2.775613248006356,
                -1.7896543590562617,
                1.77014027802056,
                -1.527902677075109,
                -0.2815967125113903,
                -3.0278516225729035
            ]
        },
        {
            "positions": [
                -2.886075962042872,
                -1.7758910172560207,
                1.8663014753814862,
                -1.4592332660631644,
                -0.26729725988798425,
                -3.111974126970485
            ]
        },
        {
            "positions": [
                -2.996538676079388,
                -1.76212767545578,
                1.962462672742412,
                -1.3905638550512198,
                -0.2529978072645783,
                -3.196096631368066
            ]
        },
        {
            "positions": [
                -3.107001390115904,
                -1.7483643336555392,
                2.058623870103338,
                -1.321894444039275,
                -0.23869835464117234,
                -3.2802191357656474
            ]
        },
        {
            "positions": [
                -3.21746410415242,
                -1.7346009918552983,
                2.154785067464264,
                -1.2532250330273305,
                -0.22439890201776636,
                -3.364341640163229
            ]
        },
        {
            "positions": [
                -3.124253535853498,
                -1.663093883374782,
                2.136435917212128,
                -1.1997178408758826,
                -0.11130061125803181,
                -3.337369349341593
            ]
        },
        {
            "positions": [
                -3.0310429675545754,
                -1.5915867748942656,
                2.1180867669599923,
                -1.1462106487244346,
                0.0017976795017027314,
                -3.310397058519957
            ]
        },
        {
            "positions": [
                -2.9378323992556528,
                -1.5200796664137493,
                2.099737616707856,
                -1.0927034565729867,
                0.11489597026143727,
                -3.283424767698321
            ]
        },
        {
            "positions": [
                -2.8446218309567306,
                -1.448572557933233,
                2.0813884664557203,
                -1.0391962644215387,
                0.22799426102117182,
                -3.2564524768766847
            ]
        },
        {
            "positions": [
                -2.7514112626578084,
                -1.3770654494527168,
                2.0630393162035845,
                -0.9856890722700908,
                0.34109255178090636,
                -3.2294801860550484
            ]
        },
        {
            "positions": [
                -2.658200694358886,
                -1.3055583409722005,
                2.0446901659514483,
                -0.9321818801186429,
                0.4541908425406409,
                -3.2025078952334125
            ]
        },
        {
            "positions": [
                -2.5649901260599632,
                -1.2340512324916841,
                2.0263410156993125,
                -0.878674687967195,
                0.5672891333003754,
                -3.1755356044117766
            ]
        },
        {
            "positions": [
                -2.471779557761041,
                -1.1625441240111678,
                2.0079918654471767,
                -0.825167495815747,
                0.68038742406011,
                -3.1485633135901403
            ]
        }
    ]
}