{
    "goal": {
        "global_pose": {
            "orientation": {
                "w": 0.005598929693374612,
                "x": 0.007748599140229565,
                "y": 0.7110244013736278,
                "z": -0.7031023480610252
            },
            "position": {
                "x": -0.8858502320852131,
                "y": -0.7141253447532654,
                "z": 0.3711530566215515
            }
        },
        "name": "move_to_auspresseinheit_C"
    },
    "id": "BiTRRT_move_to_auspresseinheit_C_78",
    "joint_names": [
        "shoulder_pan_joint",
        "shoulder_lift_joint",
        "elbow_joint",
        "wrist_1_joint",
        "wrist_2_joint",
        "wrist_3_joint"
    ],
    "metrics": {
        "cart_traj_len": 0.4922909657783025,
        "distance_elbow_joint": 0.9876437337869204,
        "distance_shoulder_lift_joint": 0.31827927970626757,
        "distance_shoulder_pan_joint": 0.25639353862215986,
        "distance_wrist_1_joint": 0.6588453613917151,
        "distance_wrist_2_joint": 1.3054540243947024,
        "distance_wrist_3_joint": 0.05429908564721808,
        "smoothness": 1.6148698667872622e-16,
        "time": 0.049845769,
        "traj_len": 1.8923305798800016,
        "weighted_distance": 2.377774711916551
    },
    "planner": "BiTRRT",
    "start": {
        "state": {
            "elbow_joint": 1.7527959577737207,
            "shoulder_lift_joint": -0.9740617694225068,
            "shoulder_pan_joint": -2.967991417825858,
            "wrist_1_joint": -0.759517768980727,
            "wrist_2_joint": 1.7443932448377408,
            "wrist_3_joint": -3.0840537646736568
        }
    },
    "waypoints": [
        {
            "positions": [
                -2.967991417825858,
                -0.9740617694225068,
                1.7527959577737207,
                -0.759517768980727,
                1.7443932448377408,
                -3.0840537646736568
            ]
        },
        {
            "positions": [
                -2.942352063963642,
                -0.94223384145188,
                1.6540315843950286,
                -0.6936332328415554,
                1.6138478423982705,
                -3.0894836732383784
            ]
        },
        {
            "positions": [
                -2.916712710101426,
                -0.9104059134812532,
                1.5552672110163366,
                -0.627748696702384,
                1.4833024399588004,
                -3.0949135818031004
            ]
        },
        {
            "positions": [
                -2.89107335623921,
                -0.8785779855106265,
                1.4565028376376445,
                -0.5618641605632124,
                1.35275703751933,
                -3.1003434903678224
            ]
        },
        {
            "positions": [
                -2.865434002376994,
                -0.8467500575399998,
                1.3577384642589525,
                -0.4959796244240409,
                1.22221163507986,
                -3.105773398932544
            ]
        },
        {
            "positions": [
                -2.8397946485147783,
                -0.8149221295693729,
                1.2589740908802605,
                -0.4300950882848694,
                1.0916662326403896,
                -3.1112033074972656
            ]
        },
        {
            "positions": [
                -2.814155294652562,
                -0.7830942015987462,
                1.1602097175015684,
                -0.3642105521456979,
                0.9611208302009194,
                -3.1166332160619876
            ]
        },
        {
            "positions": [
                -2.788515940790346,
                -0.7512662736281195,
                1.0614453441228764,
                -0.2983260160065264,
                0.8305754277614492,
                -3.1220631246267097
            ]
        },
        {
            "positions": [
                -2.76287658692813,
                -0.7194383456574927,
                0.9626809707441843,
                -0.23244147986735486,
                0.7000300253219789,
                -3.1274930331914312
            ]
        },
        {
            "positions": [
                -2.737237233065914,
                -0.6876104176868659,
                0.8639165973654923,
                -0.1665569437281833,
                0.5694846228825086,
                -3.132922941756153
            ]
        },
        {
            "positions": [
                -2.711597879203698,
                -0.6557824897162392,
                0.7651522239868003,
                -0.10067240758901184,
                0.43893922044303857,
                -3.138352850320875
            ]
        }
    ]
}