{
    "goal": {
        "global_pose": {
            "orientation": {
                "w": -0.00223480608172531,
                "x": 0.0024358444001904467,
                "y": 0.7094548369677653,
                "z": -0.704743149386269
            },
            "position": {
                "x": 0.6205249238014221,
                "y": -0.6371506643295288,
                "z": 0.19426114857196808
            }
        },
        "name": "move_to_magneteinheit_B"
    },
    "id": "BiTRRT_move_to_magneteinheit_B_46",
    "joint_names": [
        "shoulder_pan_joint",
        "shoulder_lift_joint",
        "elbow_joint",
        "wrist_1_joint",
        "wrist_2_joint",
        "wrist_3_joint"
    ],
    "metrics": {
        "cart_traj_len": 1.4948234762085755,
        "distance_elbow_joint": 0.9520945264097844,
        "distance_shoulder_lift_joint": 0.8083035878551232,
        "distance_shoulder_pan_joint": 1.6212808471679458,
        "distance_wrist_1_joint": 0.515588427548078,
        "distance_wrist_2_joint": 1.717495445729071,
        "distance_wrist_3_joint": 0.08965301252375349,
        "smoothness": 0.45478887381388905,
        "time": 0.075038731,
        "traj_len": 2.388391895655685,
        "weighted_distance": 2.8490008328462126
    },
    "planner": "BiTRRT",
    "start": {
        "state": {
            "elbow_joint": 2.6216224122426386,
            "shoulder_lift_joint": -1.4174107377796124,
            "shoulder_pan_joint": 0.7066234856936794,
            "wrist_1_joint": 1.9546482284002225,
            "wrist_2_joint": -0.7096286983471962,
            "wrist_3_joint": 0.005740856962016249
        }
    },
    "waypoints": [
        {
            "positions": [
                0.7066234856936794,
                -1.4174107377796124,
                2.6216224122426386,
                1.9546482284002225,
                -0.7096286983471962,
                0.005740856962016249
            ]
        },
        {
            "positions": [
                0.5909138180565988,
                -1.4264432700536143,
                2.575972268070942,
                1.9014245211599583,
                -0.6763126749184587,
                -0.009817934080850667
            ]
        },
        {
            "positions": [
                0.47520415041951836,
                -1.4354758023276162,
                2.530322123899245,
                1.8482008139196944,
                -0.6429966514897211,
                -0.02537672512371758
            ]
        },
        {
            "positions": [
                0.3594944827824378,
                -1.444508334601618,
                2.4846719797275485,
                1.7949771066794302,
                -0.6096806280609836,
                -0.0409355161665845
            ]
        },
        {
            "positions": [
                0.261482802454999,
                -1.384415566060609,
                2.421968587889495,
                1.8223553609738368,
                -0.7341073492488958,
                -0.03762962082849583
            ]
        },
        {
            "positions": [
                0.16347112212756018,
                -1.3243227975196,
                2.3592651960514415,
                1.8497336152682433,
                -0.8585340704368079,
                -0.03432372549040716
            ]
        },
        {
            "positions": [
                0.06545944180012137,
                -1.264230028978591,
                2.2965618042133884,
                1.87711186956265,
                -0.98296079162472,
                -0.03101783015231848
            ]
        },
        {
            "positions": [
                -0.03255223852731742,
                -1.204137260437582,
                2.233858412375335,
                1.9044901238570566,
                -1.1073875128126323,
                -0.02771193481422981
            ]
        },
        {
            "positions": [
                -0.1305639188547562,
                -1.1440444918965729,
                2.1711550205372814,
                1.9318683781514632,
                -1.2318142340005445,
                -0.024406039476141134
            ]
        },
        {
            "positions": [
                -0.22857559918219506,
                -1.0839517233555638,
                2.108451628699228,
                1.9592466324458697,
                -1.3562409551884567,
                -0.021100144138052463
            ]
        },
        {
            "positions": [
                -0.32658727950963373,
                -1.023858954814555,
                2.045748236861175,
                1.9866248867402765,
                -1.4806676763763686,
                -0.017794248799963792
            ]
        },
        {
            "positions": [
                -0.42459895983707263,
                -0.9637661862735458,
                1.9830448450231213,
                2.014003141034683,
                -1.6050943975642809,
                -0.014488353461875117
            ]
        },
        {
            "positions": [
                -0.5226106401645113,
                -0.9036734177325367,
                1.9203414531850678,
                2.04138139532909,
                -1.729521118752193,
                -0.011182458123786446
            ]
        },
        {
            "positions": [
                -0.6206223204919502,
                -0.8435806491915276,
                1.8576380613470143,
                2.0687596496234963,
                -1.8539478399401053,
                -0.007876562785697767
            ]
        },
        {
            "positions": [
                -0.718634000819389,
                -0.7834878806505187,
                1.794934669508961,
                2.096137903917903,
                -1.9783745611280175,
                -0.004570667447609103
            ]
        },
        {
            "positions": [
                -0.8166456811468279,
                -0.7233951121095096,
                1.7322312776709077,
                2.1235161582123094,
                -2.1028012823159297,
                -0.0012647721095204248
            ]
        },
        {
            "positions": [
                -0.9146573614742666,
                -0.6633023435685006,
                1.6695278858328542,
                2.150894412506716,
                -2.227228003503842,
                0.002041123228568244
            ]
        }
    ]
}