{
    "goal": {
        "global_pose": {
            "orientation": {
                "w": -0.00223480608172531,
                "x": 0.0024358444001904467,
                "y": 0.7094548369677653,
                "z": -0.704743149386269
            },
            "position": {
                "x": -0.37947507619857795,
                "y": -0.6371506643295288,
                "z": 0.19426114857196808
            }
        },
        "name": "move_to_magneteinheit_C"
    },
    "id": "BiTRRT_move_to_magneteinheit_C_94",
    "joint_names": [
        "shoulder_pan_joint",
        "shoulder_lift_joint",
        "elbow_joint",
        "wrist_1_joint",
        "wrist_2_joint",
        "wrist_3_joint"
    ],
    "metrics": {
        "cart_traj_len": 6.605661351870921,
        "distance_elbow_joint": 9.120457371157206,
        "distance_shoulder_lift_joint": 0.9069130265202521,
        "distance_shoulder_pan_joint": 3.176118588701423,
        "distance_wrist_1_joint": 5.271349824292424,
        "distance_wrist_2_joint": 1.0468677445222823,
        "distance_wrist_3_joint": 7.928121106259916,
        "smoothness": 0.6431708750734819,
        "time": 0.16511677800000002,
        "traj_len": 5.2392583121519705,
        "weighted_distance": 7.044450826202708
    },
    "planner": "BiTRRT",
    "start": {
        "state": {
            "elbow_joint": 1.9565354010623817,
            "shoulder_lift_joint": -1.4165861575791021,
            "shoulder_pan_joint": -1.6717766225146293,
            "wrist_1_joint": -0.5286633292919765,
            "wrist_2_joint": 1.472756589071564,
            "wrist_3_joint": -3.1238370188695823
        }
    },
    "waypoints": [
        {
            "positions": [
                -1.6717766225146293,
                -1.4165861575791021,
                1.9565354010623817,
                -0.5286633292919765,
                1.472756589071564,
                -3.1238370188695823
            ]
        },
        {
            "positions": [
                -1.5452311082028667,
                -1.372049194892004,
                1.9275040041332563,
                -0.5096351928614385,
                1.4271482706625886,
                -3.045110084910027
            ]
        },
        {
            "positions": [
                -1.4186855938911038,
                -1.3275122322049058,
                1.898472607204131,
                -0.49060705643090063,
                1.3815399522536134,
                -2.966383150950472
            ]
        },
        {
            "positions": [
                -1.2921400795793412,
                -1.2829752695178076,
                1.8694412102750055,
                -0.4715789200003627,
                1.335931633844638,
                -2.887656216990917
            ]
        },
        {
            "positions": [
                -1.1818616065276615,
                -1.255743682914124,
                1.798239628280756,
                -0.46287317017011614,
                1.3127226798431282,
                -2.808177959367006
            ]
        },
        {
            "positions": [
                -1.0715831334759818,
                -1.2285120963104403,
                1.7270380462865067,
                -0.45416742033986957,
                1.289513725841618,
                -2.7286997017430954
            ]
        },
        {
            "positions": [
                -0.9613046604243021,
                -1.2012805097067567,
                1.6558364642922572,
                -0.445461670509623,
                1.2663047718401081,
                -2.6492214441191844
            ]
        },
        {
            "positions": [
                -0.9655832933700004,
                -1.212245160836582,
                1.599099134922631,
                -0.44175479032928616,
                1.275366019377299,
                -2.636092309963301
            ]
        },
        {
            "positions": [
                -1.0265758427760936,
                -1.2512720367900176,
                1.3832282792795167,
                -0.4291840282285545,
                1.2862672147235839,
                -2.5938063526287753
            ]
        },
        {
            "positions": [
                -1.0875683921821868,
                -1.2902989127434532,
                1.1673574236364028,
                -0.4166132661278228,
                1.2971684100698686,
                -2.55152039529425
            ]
        },
        {
            "positions": [
                -1.145781888677088,
                -1.2788817442614402,
                1.0502801807461686,
                -0.4952791721484944,
                1.2764704016051998,
                -2.446137182672591
            ]
        },
        {
            "positions": [
                -1.2039953851719893,
                -1.2674645757794274,
                0.9332029378559341,
                -0.573945078169166,
                1.255772393140531,
                -2.3407539700509323
            ]
        },
        {
            "positions": [
                -1.2622088816668906,
                -1.2560474072974146,
                0.8161256949656999,
                -0.6526109841898375,
                1.2350743846758618,
                -2.2353707574292736
            ]
        },
        {
            "positions": [
                -1.3204223781617919,
                -1.2446302388154016,
                0.6990484520754655,
                -0.7312768902105091,
                1.214376376211193,
                -2.129987544807615
            ]
        },
        {
            "positions": [
                -1.3786358746566931,
                -1.2332130703333886,
                0.5819712091852312,
                -0.8099427962311807,
                1.1936783677465241,
                -2.024604332185956
            ]
        },
        {
            "positions": [
                -1.4368493711515944,
                -1.2217959018513758,
                0.4648939662949969,
                -0.8886087022518522,
                1.1729803592818553,
                -1.9192211195642974
            ]
        },
        {
            "positions": [
                -1.4950628676464959,
                -1.210378733369363,
                0.34781672340476255,
                -0.9672746082725238,
                1.1522823508171864,
                -1.8138379069426387
            ]
        },
        {
            "positions": [
                -1.553276364141397,
                -1.19896156488735,
                0.2307394805145282,
                -1.0459405142931955,
                1.1315843423525174,
                -1.70845469432098
            ]
        },
        {
            "positions": [
                -1.6114898606362984,
                -1.187544396405337,
                0.11366223762429395,
                -1.1246064203138668,
                1.1108863338878485,
                -1.6030714816993212
            ]
        },
        {
            "positions": [
                -1.6697033571311994,
                -1.1761272279233241,
                -0.0034150052659405183,
                -1.2032723263345386,
                1.0901883254231797,
                -1.4976882690776623
            ]
        },
        {
            "positions": [
                -1.727916853626101,
                -1.1647100594413113,
                -0.12049224815617476,
                -1.28193823235521,
                1.0694903169585108,
                -1.3923050564560036
            ]
        },
        {
            "positions": [
                -1.7861303501210022,
                -1.1532928909592983,
                -0.237569491046409,
                -1.3606041383758816,
                1.0487923084938418,
                -1.2869218438343448
            ]
        },
        {
            "positions": [
                -1.8443438466159034,
                -1.1418757224772853,
                -0.3546467339366435,
                -1.4392700443965531,
                1.028094300029173,
                -1.181538631212686
            ]
        },
        {
            "positions": [
                -1.9025573431108047,
                -1.1304585539952725,
                -0.4717239768268777,
                -1.5179359504172247,
                1.007396291564504,
                -1.0761554185910274
            ]
        },
        {
            "positions": [
                -1.960770839605706,
                -1.1190413855132597,
                -0.5888012197171122,
                -1.5966018564378963,
                0.9866982830998352,
                -0.9707722059693686
            ]
        },
        {
            "positions": [
                -2.0189843361006075,
                -1.1076242170312467,
                -0.7058784626073464,
                -1.675267762458568,
                0.9660002746351662,
                -0.8653889933477099
            ]
        },
        {
            "positions": [
                -2.0771978325955085,
                -1.0962070485492337,
                -0.8229557054975807,
                -1.7539336684792395,
                0.9453022661704973,
                -0.7600057807260512
            ]
        },
        {
            "positions": [
                -2.1354113290904095,
                -1.0847898800672209,
                -0.9400329483878149,
                -1.832599574499911,
                0.9246042577058284,
                -0.6546225681043925
            ]
        },
        {
            "positions": [
                -2.193624825585311,
                -1.073372711585208,
                -1.0571101912780496,
                -1.9112654805205826,
                0.9039062492411596,
                -0.5492393554827335
            ]
        },
        {
            "positions": [
                -2.2518383220802125,
                -1.061955543103195,
                -1.1741874341682839,
                -1.9899313865412542,
                0.8832082407764906,
                -0.4438561428610748
            ]
        },
        {
            "positions": [
                -2.3100518185751135,
                -1.050538374621182,
                -1.291264677058518,
                -2.068597292561926,
                0.8625102323118218,
                -0.33847293023941605
            ]
        },
        {
            "positions": [
                -2.3682653150700146,
                -1.0391212061391693,
                -1.4083419199487524,
                -2.147263198582597,
                0.8418122238471528,
                -0.23308971761775732
            ]
        },
        {
            "positions": [
                -2.426478811564916,
                -1.0277040376571565,
                -1.5254191628389866,
                -2.225929104603269,
                0.821114215382484,
                -0.1277065049960986
            ]
        },
        {
            "positions": [
                -2.4846923080598176,
                -1.0162868691751434,
                -1.6424964057292208,
                -2.3045950106239403,
                0.8004162069178151,
                -0.022323292374439863
            ]
        },
        {
            "positions": [
                -2.542905804554719,
                -1.0048697006931304,
                -1.7595736486194555,
                -2.3832609166446117,
                0.7797181984531462,
                0.08305992024721887
            ]
        },
        {
            "positions": [
                -2.60111930104962,
                -0.9934525322111176,
                -1.8766508915096898,
                -2.4619268226652835,
                0.7590201899884773,
                0.1884431328688776
            ]
        },
        {
            "positions": [
                -2.659332797544521,
                -0.9820353637291047,
                -1.993728134399924,
                -2.5405927286859553,
                0.7383221815238084,
                0.2938263454905363
            ]
        },
        {
            "positions": [
                -2.7175462940394226,
                -0.9706181952470918,
                -2.1108053772901583,
                -2.6192586347066267,
                0.7176241730591395,
                0.39920955811219505
            ]
        },
        {
            "positions": [
                -2.775759790534324,
                -0.9592010267650789,
                -2.2278826201803925,
                -2.6979245407272985,
                0.6969261645944705,
                0.5045927707338538
            ]
        },
        {
            "positions": [
                -2.833973287029225,
                -0.947783858283066,
                -2.344959863070627,
                -2.77659044674797,
                0.6762281561298017,
                0.6099759833555125
            ]
        },
        {
            "positions": [
                -2.892186783524126,
                -0.9363666898010531,
                -2.4620371059608614,
                -2.8552563527686416,
                0.6555301476651327,
                0.7153591959771712
            ]
        },
        {
            "positions": [
                -2.9504002800190277,
                -0.9249495213190402,
                -2.5791143488510957,
                -2.933922258789313,
                0.6348321392004639,
                0.82074240859883
            ]
        },
        {
            "positions": [
                -2.935078301444881,
                -0.9282471236725063,
                -2.428764444584305,
                -2.852004587567033,
                0.6328043765711553,
                0.6910165197178724
            ]
        },
        {
            "positions": [
                -2.919756322870734,
                -0.9315447260259724,
                -2.278414540317514,
                -2.770086916344752,
                0.6307766139418467,
                0.5612906308369147
            ]
        },
        {
            "positions": [
                -2.904434344296588,
                -0.9348423283794384,
                -2.1280646360507234,
                -2.688169245122472,
                0.628748851312538,
                0.431564741955957
            ]
        },
        {
            "positions": [
                -2.889112365722441,
                -0.9381399307329045,
                -1.9777147317839328,
                -2.6062515739001912,
                0.6267210886832294,
                0.30183885307499936
            ]
        },
        {
            "positions": [
                -2.8737903871482944,
                -0.9414375330863706,
                -1.827364827517142,
                -2.524333902677911,
                0.6246933260539208,
                0.17211296419404165
            ]
        },
        {
            "positions": [
                -2.8584684085741476,
                -0.9447351354398367,
                -1.677014923250351,
                -2.4424162314556304,
                0.6226655634246122,
                0.042387075313084055
            ]
        },
        {
            "positions": [
                -2.843146430000001,
                -0.9480327377933028,
                -1.5266650189835604,
                -2.36049856023335,
                0.6206378007953036,
                -0.08733881356787365
            ]
        },
        {
            "positions": [
                -2.8278244514258546,
                -0.9513303401467688,
                -1.3763151147167698,
                -2.27858088901107,
                0.6186100381659949,
                -0.21706470244883125
            ]
        },
        {
            "positions": [
                -2.812502472851708,
                -0.9546279425002349,
                -1.225965210449979,
                -2.1966632177887893,
                0.6165822755366863,
                -0.34679059132978884
            ]
        },
        {
            "positions": [
                -2.797180494277561,
                -0.957925544853701,
                -1.0756153061831881,
                -2.1147455465665086,
                0.6145545129073777,
                -0.47651648021074666
            ]
        },
        {
            "positions": [
                -2.7818585157034144,
                -0.9612231472071671,
                -0.9252654019163975,
                -2.0328278753442284,
                0.6125267502780691,
                -0.606242369091704
            ]
        },
        {
            "positions": [
                -2.7665365371292676,
                -0.9645207495606332,
                -0.7749154976496067,
                -1.9509102041219482,
                0.6104989876487605,
                -0.7359682579726619
            ]
        },
        {
            "positions": [
                -2.7512145585551213,
                -0.9678183519140992,
                -0.624565593382816,
                -1.8689925328996675,
                0.6084712250194518,
                -0.8656941468536195
            ]
        },
        {
            "positions": [
                -2.7358925799809746,
                -0.9711159542675653,
                -0.4742156891160252,
                -1.787074861677387,
                0.6064434623901432,
                -0.9954200357345773
            ]
        },
        {
            "positions": [
                -2.720570601406828,
                -0.9744135566210314,
                -0.32386578484923456,
                -1.7051571904551066,
                0.6044156997608346,
                -1.1251459246155349
            ]
        },
        {
            "positions": [
                -2.705248622832681,
                -0.9777111589744975,
                -0.17351588058244394,
                -1.6232395192328264,
                0.602387937131526,
                -1.2548718134964925
            ]
        },
        {
            "positions": [
                -2.689926644258535,
                -0.9810087613279634,
                -0.023165976315653314,
                -1.541321848010546,
                0.6003601745022173,
                -1.3845977023774498
            ]
        },
        {
            "positions": [
                -2.674604665684388,
                -0.9843063636814295,
                0.12718392795113775,
                -1.4594041767882655,
                0.5983324118729088,
                -1.5143235912584077
            ]
        },
        {
            "positions": [
                -2.6592826871102413,
                -0.9876039660348956,
                0.2775338322179284,
                -1.377486505565985,
                0.5963046492436002,
                -1.6440494801393655
            ]
        },
        {
            "positions": [
                -2.6439607085360946,
                -0.9909015683883617,
                0.42788373648471945,
                -1.2955688343437046,
                0.5942768866142916,
                -1.7737753690203233
            ]
        },
        {
            "positions": [
                -2.628638729961948,
                -0.9941991707418278,
                0.5782336407515101,
                -1.2136511631214242,
                0.592249123984983,
                -1.9035012579012807
            ]
        },
        {
            "positions": [
                -2.6133167513878015,
                -0.9974967730952938,
                0.7285835450183007,
                -1.131733491899144,
                0.5902213613556743,
                -2.033227146782238
            ]
        },
        {
            "positions": [
                -2.5979947728136548,
                -1.00079437544876,
                0.8789334492850918,
                -1.0498158206768633,
                0.5881935987263657,
                -2.1629530356631963
            ]
        },
        {
            "positions": [
                -2.582672794239508,
                -1.0040919778022261,
                1.0292833535518824,
                -0.9678981494545831,
                0.5861658360970571,
                -2.2926789245441537
            ]
        },
        {
            "positions": [
                -2.5673508156653613,
                -1.007389580155692,
                1.1796332578186726,
                -0.8859804782323026,
                0.5841380734677485,
                -2.422404813425111
            ]
        },
        {
            "positions": [
                -2.5520288370912145,
                -1.0106871825091581,
                1.3299831620854636,
                -0.804062807010022,
                0.5821103108384399,
                -2.552130702306069
            ]
        },
        {
            "positions": [
                -2.5367068585170682,
                -1.0139847848626242,
                1.4803330663522547,
                -0.7221451357877418,
                0.5800825482091312,
                -2.6818565911870267
            ]
        },
        {
            "positions": [
                -2.5213848799429215,
                -1.0172823872160903,
                1.6306829706190453,
                -0.6402274645654611,
                0.5780547855798226,
                -2.8115824800679845
            ]
        },
        {
            "positions": [
                -2.5060629013687747,
                -1.0205799895695564,
                1.7810328748858362,
                -0.5583097933431809,
                0.576027022950514,
                -2.941308368948942
            ]
        },
        {
            "positions": [
                -2.4953250252467356,
                -1.0677830282149834,
                1.8559196740547688,
                -0.6471025610167308,
                0.6054973235977512,
                -3.0151386693635187
            ]
        },
        {
            "positions": [
                -2.484587149124697,
                -1.1149860668604104,
                1.9308064732237016,
                -0.7358953286902807,
                0.6349676242449883,
                -3.088968969778096
            ]
        },
        {
            "positions": [
                -2.4738492730026578,
                -1.1621891055058373,
                2.005693272392634,
                -0.8246880963638308,
                0.6644379248922255,
                -3.162799270192673
            ]
        }
    ]
}