{
    "goal": {
        "global_pose": {
            "orientation": {
                "w": 0.7031023480610252,
                "x": -0.7110244013736278,
                "y": 0.0077485991402295624,
                "z": 0.005598929693374583
            },
            "position": {
                "x": -0.8841497679147869,
                "y": 0.44412534475326537,
                "z": 0.3711530566215515
            }
        },
        "name": "move_to_auspresseinheit_D"
    },
    "id": "BiTRRT_move_to_auspresseinheit_D_53",
    "joint_names": [
        "shoulder_pan_joint",
        "shoulder_lift_joint",
        "elbow_joint",
        "wrist_1_joint",
        "wrist_2_joint",
        "wrist_3_joint"
    ],
    "metrics": {
        "cart_traj_len": 0.3426826731739277,
        "distance_elbow_joint": 0.6430711502328235,
        "distance_shoulder_lift_joint": 0.12388101613105595,
        "distance_shoulder_pan_joint": 0.13309666042381657,
        "distance_wrist_1_joint": 0.5527295466337736,
        "distance_wrist_2_joint": 1.4317454719681928,
        "distance_wrist_3_joint": 0.02455456797996014,
        "smoothness": 1.9737298371844314e-16,
        "time": 0.044328769,
        "traj_len": 1.7056020677079464,
        "weighted_distance": 2.223209969375702
    },
    "planner": "BiTRRT",
    "start": {
        "state": {
            "elbow_joint": -1.8275523626775212,
            "shoulder_lift_joint": -2.126789852344167,
            "shoulder_pan_joint": -0.03513704404078235,
            "wrist_1_joint": -2.347782403156801,
            "wrist_2_joint": -1.6058999987535132,
            "wrist_3_joint": -3.0880379163319196
        }
    },
    "waypoints": [
        {
            "positions": [
                -0.03513704404078235,
                -2.126789852344167,
                -1.8275523626775212,
                -2.347782403156801,
                -1.6058999987535132,
                -3.0880379163319196
            ]
        },
        {
            "positions": [
                -0.05177412659375942,
                -2.1422749793605487,
                -1.7471684688984181,
                -2.4168735964860226,
                -1.4269318147574892,
                -3.0849685953344244
            ]
        },
        {
            "positions": [
                -0.06841120914673648,
                -2.157760106376931,
                -1.6667845751193153,
                -2.4859647898152444,
                -1.247963630761465,
                -3.0818992743369296
            ]
        },
        {
            "positions": [
                -0.08504829169971356,
                -2.1732452333933128,
                -1.5864006813402125,
                -2.555055983144466,
                -1.0689954467654408,
                -3.0788299533394348
            ]
        },
        {
            "positions": [
                -0.10168537425269064,
                -2.1887303604096946,
                -1.5060167875611095,
                -2.624147176473688,
                -0.8900272627694168,
                -3.0757606323419395
            ]
        },
        {
            "positions": [
                -0.11832245680566772,
                -2.204215487426077,
                -1.4256328937820064,
                -2.693238369802909,
                -0.7110590787733927,
                -3.0726913113444443
            ]
        },
        {
            "positions": [
                -0.13495953935864477,
                -2.2197006144424587,
                -1.3452490000029036,
                -2.762329563132131,
                -0.5320908947773686,
                -3.0696219903469495
            ]
        },
        {
            "positions": [
                -0.15159662191162185,
                -2.235185741458841,
                -1.2648651062238008,
                -2.8314207564613527,
                -0.3531227107813444,
                -3.0665526693494547
            ]
        },
        {
            "positions": [
                -0.16823370446459893,
                -2.250670868475223,
                -1.1844812124446977,
                -2.9005119497905745,
                -0.1741545267853205,
                -3.0634833483519595
            ]
        }
    ]
}