{
    "goal": {
        "global_pose": {
            "orientation": {
                "w": -0.00223480608172531,
                "x": 0.0024358444001904467,
                "y": 0.7094548369677653,
                "z": -0.704743149386269
            },
            "position": {
                "x": 0.6205249238014221,
                "y": -0.6371506643295288,
                "z": 0.19426114857196808
            }
        },
        "name": "move_to_magneteinheit_B"
    },
    "id": "BiTRRT_move_to_magneteinheit_B_59",
    "joint_names": [
        "shoulder_pan_joint",
        "shoulder_lift_joint",
        "elbow_joint",
        "wrist_1_joint",
        "wrist_2_joint",
        "wrist_3_joint"
    ],
    "metrics": {
        "cart_traj_len": 3.46238446392893,
        "distance_elbow_joint": 4.536520140036904,
        "distance_shoulder_lift_joint": 0.8398942542460457,
        "distance_shoulder_pan_joint": 1.9994325941548752,
        "distance_wrist_1_joint": 4.546087772606942,
        "distance_wrist_2_joint": 1.1319576071890034,
        "distance_wrist_3_joint": 3.2296784865764514,
        "smoothness": 0.2374366619275186,
        "time": 0.140472444,
        "traj_len": 4.035290677858315,
        "weighted_distance": 5.331132450779953
    },
    "planner": "BiTRRT",
    "start": {
        "state": {
            "elbow_joint": 2.6216224122426386,
            "shoulder_lift_joint": -1.4174107377796124,
            "shoulder_pan_joint": 0.7066234856936794,
            "wrist_1_joint": 1.9546482284002225,
            "wrist_2_joint": -0.7096286983471962,
            "wrist_3_joint": 0.005740856962016249
        }
    },
    "waypoints": [
        {
            "positions": [
                0.7066234856936794,
                -1.4174107377796124,
                2.6216224122426386,
                1.9546482284002225,
                -0.7096286983471962,
                0.005740856962016249
            ]
        },
        {
            "positions": [
                0.7421424229637361,
                -1.4687385155475121,
                2.6207976163363433,
                1.7920946114749832,
                -0.7958866326818568,
                0.0016316232861712087
            ]
        },
        {
            "positions": [
                0.777661360233793,
                -1.5200662933154119,
                2.619972820430048,
                1.6295409945497437,
                -0.8821445670165174,
                -0.0024776103896738313
            ]
        },
        {
            "positions": [
                0.7896174807222709,
                -1.532524420300902,
                2.4830612155729437,
                1.5640642762224584,
                -0.8731065489815578,
                -0.019514174075430456
            ]
        },
        {
            "positions": [
                0.8015736012107488,
                -1.5449825472863923,
                2.346149610715839,
                1.4985875578951733,
                -0.8640685309465982,
                -0.036550737761187085
            ]
        },
        {
            "positions": [
                0.8343845887983129,
                -1.5414037307886683,
                2.1800812838029566,
                1.3999911640358964,
                -0.8335613279446231,
                0.008956856910718444
            ]
        },
        {
            "positions": [
                0.867195576385877,
                -1.5378249142909444,
                2.0140129568900744,
                1.3013947701766198,
                -0.8030541249426479,
                0.054464451582623974
            ]
        },
        {
            "positions": [
                0.900006563973441,
                -1.5342460977932204,
                1.847944629977192,
                1.202798376317343,
                -0.7725469219406729,
                0.09997204625452949
            ]
        },
        {
            "positions": [
                0.9328175515610051,
                -1.5306672812954965,
                1.6818763030643096,
                1.1042019824580662,
                -0.7420397189386977,
                0.14547964092643503
            ]
        },
        {
            "positions": [
                0.9656285391485692,
                -1.5270884647977725,
                1.5158079761514274,
                1.0056055885987893,
                -0.7115325159367226,
                0.19098723559834055
            ]
        },
        {
            "positions": [
                0.9984395267361332,
                -1.5235096483000485,
                1.3497396492385452,
                0.9070091947395127,
                -0.6810253129347476,
                0.23649483027024606
            ]
        },
        {
            "positions": [
                1.0312505143236972,
                -1.5199308318023246,
                1.183671322325663,
                0.8084128008802359,
                -0.6505181099327724,
                0.28200242494215155
            ]
        },
        {
            "positions": [
                1.0640615019112614,
                -1.5163520153046006,
                1.0176029954127805,
                0.7098164070209592,
                -0.6200109069307973,
                0.3275100196140571
            ]
        },
        {
            "positions": [
                1.0968724894988253,
                -1.5127731988068767,
                0.8515346684998983,
                0.6112200131616824,
                -0.5895037039288222,
                0.3730176142859627
            ]
        },
        {
            "positions": [
                1.1296834770863895,
                -1.5091943823091527,
                0.6854663415870161,
                0.5126236193024056,
                -0.558996500926847,
                0.41852520895786816
            ]
        },
        {
            "positions": [
                1.1855194290899815,
                -1.5157302951146985,
                0.5834511312910838,
                0.3969635159554371,
                -0.5437615864456864,
                0.5178607809170142
            ]
        },
        {
            "positions": [
                1.2413553810935736,
                -1.522266207920244,
                0.48143592099515164,
                0.2813034126084686,
                -0.5285266719645257,
                0.61719635287616
            ]
        },
        {
            "positions": [
                1.2971913330971656,
                -1.5288021207257898,
                0.37942071069921934,
                0.16564330926150006,
                -0.5132917574833651,
                0.7165319248353059
            ]
        },
        {
            "positions": [
                1.3530272851007576,
                -1.5353380335313356,
                0.2774055004032871,
                0.04998320591453154,
                -0.49805684300220443,
                0.8158674967944519
            ]
        },
        {
            "positions": [
                1.4088632371043497,
                -1.5418739463368811,
                0.17539029010735474,
                -0.06567689743243699,
                -0.4828219285210438,
                0.9152030687535979
            ]
        },
        {
            "positions": [
                1.4646991891079417,
                -1.548409859142427,
                0.07337507981142255,
                -0.1813370007794055,
                -0.4675870140398831,
                1.0145386407127437
            ]
        },
        {
            "positions": [
                1.5205351411115338,
                -1.5549457719479727,
                -0.02864013048450975,
                -0.29699710412637403,
                -0.4523520995587224,
                1.11387421267189
            ]
        },
        {
            "positions": [
                1.5763710931151258,
                -1.5614816847535182,
                -0.13065534078044194,
                -0.41265720747334256,
                -0.4371171850775618,
                1.2132097846310357
            ]
        },
        {
            "positions": [
                1.6322070451187178,
                -1.568017597559064,
                -0.23267055107637424,
                -0.528317310820311,
                -0.4218822705964011,
                1.3125453565901817
            ]
        },
        {
            "positions": [
                1.6880429971223099,
                -1.5745535103646098,
                -0.33468576137230666,
                -0.6439774141672796,
                -0.40664735611524044,
                1.4118809285493277
            ]
        },
        {
            "positions": [
                1.743878949125902,
                -1.5810894231701553,
                -0.4367009716682386,
                -0.759637517514248,
                -0.3914124416340798,
                1.5112165005084734
            ]
        },
        {
            "positions": [
                1.799714901129494,
                -1.587625335975701,
                -0.538716181964171,
                -0.8752976208612167,
                -0.37617752715291913,
                1.6105520724676194
            ]
        },
        {
            "positions": [
                1.855550853133086,
                -1.5941612487812469,
                -0.6407313922601032,
                -0.9909577242081851,
                -0.3609426126717585,
                1.7098876444267652
            ]
        },
        {
            "positions": [
                1.911386805136678,
                -1.6006971615867924,
                -0.7427466025560356,
                -1.1066178275551537,
                -0.34570769819059777,
                1.8092232163859114
            ]
        },
        {
            "positions": [
                1.96722275714027,
                -1.6072330743923382,
                -0.8447618128519678,
                -1.2222779309021223,
                -0.33047278370943717,
                1.9085587883450572
            ]
        },
        {
            "positions": [
                2.023058709143862,
                -1.613768987197884,
                -0.9467770231479,
                -1.3379380342490907,
                -0.3152378692282765,
                2.007894360304203
            ]
        },
        {
            "positions": [
                2.078894661147454,
                -1.6203049000034295,
                -1.0487922334438324,
                -1.4535981375960594,
                -0.3000029547471158,
                2.1072299322633494
            ]
        },
        {
            "positions": [
                2.134730613151046,
                -1.6268408128089753,
                -1.1508074437397646,
                -1.5692582409430276,
                -0.28476804026595515,
                2.206565504222495
            ]
        },
        {
            "positions": [
                2.190566565154638,
                -1.633376725614521,
                -1.2528226540356968,
                -1.6849183442899964,
                -0.26953312578479455,
                2.305901076181641
            ]
        },
        {
            "positions": [
                2.2464025171582302,
                -1.6399126384200666,
                -1.3548378643316294,
                -1.8005784476369648,
                -0.25429821130363384,
                2.4052366481407867
            ]
        },
        {
            "positions": [
                2.3022384691618223,
                -1.6464485512256124,
                -1.4568530746275614,
                -1.9162385509839333,
                -0.23906329682247318,
                2.504572220099933
            ]
        },
        {
            "positions": [
                2.3580744211654143,
                -1.6529844640311582,
                -1.5588682849234934,
                -2.0318986543309014,
                -0.22382838234131253,
                2.6039077920590787
            ]
        },
        {
            "positions": [
                2.4139103731690064,
                -1.6595203768367037,
                -1.6608834952194262,
                -2.1475587576778707,
                -0.20859346786015187,
                2.703243364018225
            ]
        },
        {
            "positions": [
                2.4697463251725984,
                -1.6660562896422495,
                -1.762898705515358,
                -2.2632188610248387,
                -0.19335855337899122,
                2.8025789359773707
            ]
        },
        {
            "positions": [
                2.5232169901234056,
                -1.7396556058060448,
                -1.768016300138974,
                -2.327336209435578,
                -0.24877737040931736,
                2.879254032522165
            ]
        },
        {
            "positions": [
                2.5766876550742124,
                -1.8132549219698404,
                -1.77313389476259,
                -2.3914535578463174,
                -0.3041961874396435,
                2.9559291290669587
            ]
        },
        {
            "positions": [
                2.6301583200250196,
                -1.886854238133636,
                -1.7782514893862063,
                -2.4555709062570568,
                -0.3596150044699696,
                3.0326042256117525
            ]
        },
        {
            "positions": [
                2.683628984975827,
                -1.9604535542974313,
                -1.7833690840098222,
                -2.519688254667796,
                -0.4150338215002957,
                3.1092793221565467
            ]
        },
        {
            "positions": [
                2.672415437539463,
                -2.073091108184305,
                -1.717604762117602,
                -2.483812609898335,
                -0.4395240498807215,
                3.1300577381243038
            ]
        },
        {
            "positions": [
                2.661201890103099,
                -2.185728662071179,
                -1.651840440225382,
                -2.447936965128873,
                -0.46401427826114733,
                3.150836154092061
            ]
        }
    ]
}