{
    "goal": {
        "global_pose": {
            "orientation": {
                "w": -0.4816463035849501,
                "x": 0.5182115481033762,
                "y": 0.4908360881923453,
                "z": -0.5084816262002911
            },
            "position": {
                "x": -0.8240239810943604,
                "y": -0.300875300988555,
                "z": 0.16403168439865112
            }
        },
        "name": "move_to_storage_C"
    },
    "id": "BiTRRT_move_to_storage_C_14",
    "joint_names": [
        "shoulder_pan_joint",
        "shoulder_lift_joint",
        "elbow_joint",
        "wrist_1_joint",
        "wrist_2_joint",
        "wrist_3_joint"
    ],
    "metrics": {
        "cart_traj_len": 0.5773009019658928,
        "distance_elbow_joint": 0.261733508366752,
        "distance_shoulder_lift_joint": 0.18928271258938756,
        "distance_shoulder_pan_joint": 0.4948022121177864,
        "distance_wrist_1_joint": 0.08917324247643377,
        "distance_wrist_2_joint": 1.0697721351845453,
        "distance_wrist_3_joint": 0.06371815746288467,
        "smoothness": 0.0,
        "time": 0.050366064,
        "traj_len": 1.4725766425547395,
        "weighted_distance": 1.8587263544654815
    },
    "planner": "BiTRRT",
    "start": {
        "state": {
            "elbow_joint": 2.010868314990456,
            "shoulder_lift_joint": -1.1634956873337592,
            "shoulder_pan_joint": -2.4736205022346125,
            "wrist_1_joint": -0.8367026794202681,
            "wrist_2_joint": 0.6746043897044499,
            "wrist_3_joint": -3.1496632123970403
        }
    },
    "waypoints": [
        {
            "positions": [
                -2.4736205022346125,
                -1.1634956873337592,
                2.010868314990456,
                -0.8367026794202681,
                0.6746043897044499,
                -3.1496632123970403
            ]
        },
        {
            "positions": [
                -2.556087537587577,
                -1.1319485685688613,
                1.9672460635959972,
                -0.8218404723408624,
                0.8528997455685408,
                -3.1390435194865596
            ]
        },
        {
            "positions": [
                -2.6385545729405413,
                -1.1004014498039634,
                1.9236238122015386,
                -0.8069782652614569,
                1.0311951014326317,
                -3.128423826576079
            ]
        },
        {
            "positions": [
                -2.7210216082935057,
                -1.0688543310390655,
                1.88000156080708,
                -0.7921160581820512,
                1.2094904572967224,
                -3.117804133665598
            ]
        },
        {
            "positions": [
                -2.80348864364647,
                -1.0373072122741676,
                1.836379309412621,
                -0.7772538511026456,
                1.3877858131608134,
                -3.107184440755117
            ]
        },
        {
            "positions": [
                -2.8859556789994345,
                -1.0057600935092696,
                1.7927570580181624,
                -0.76239164402324,
                1.5660811690249044,
                -3.0965647478446363
            ]
        },
        {
            "positions": [
                -2.968422714352399,
                -0.9742129747443716,
                1.7491348066237038,
                -0.7475294369438343,
                1.7443765248889953,
                -3.0859450549341556
            ]
        }
    ]
}