{
    "goal": {
        "global_pose": {
            "orientation": {
                "w": 0.005598929693374612,
                "x": 0.007748599140229565,
                "y": 0.7110244013736278,
                "z": -0.7031023480610252
            },
            "position": {
                "x": -0.8858502320852131,
                "y": -0.7141253447532654,
                "z": 0.3711530566215515
            }
        },
        "name": "move_to_auspresseinheit_C"
    },
    "id": "BiTRRT_move_to_auspresseinheit_C_142",
    "joint_names": [
        "shoulder_pan_joint",
        "shoulder_lift_joint",
        "elbow_joint",
        "wrist_1_joint",
        "wrist_2_joint",
        "wrist_3_joint"
    ],
    "metrics": {
        "cart_traj_len": 0.49193528720535484,
        "distance_elbow_joint": 0.9888519891595738,
        "distance_shoulder_lift_joint": 0.31908187062382865,
        "distance_shoulder_pan_joint": 0.2558939453215556,
        "distance_wrist_1_joint": 0.6606551348819302,
        "distance_wrist_2_joint": 1.3037013354344678,
        "distance_wrist_3_joint": 0.056003251103885265,
        "smoothness": 1.6148698667872622e-16,
        "time": 0.19007522599999999,
        "traj_len": 1.893195057706744,
        "weighted_distance": 2.3791911438657904
    },
    "planner": "BiTRRT",
    "start": {
        "state": {
            "elbow_joint": 1.7527959577737207,
            "shoulder_lift_joint": -0.9740617694225068,
            "shoulder_pan_joint": -2.967991417825858,
            "wrist_1_joint": -0.759517768980727,
            "wrist_2_joint": 1.7443932448377408,
            "wrist_3_joint": -3.0840537646736568
        }
    },
    "waypoints": [
        {
            "positions": [
                -2.967991417825858,
                -0.9740617694225068,
                1.7527959577737207,
                -0.759517768980727,
                1.7443932448377408,
                -3.0840537646736568
            ]
        },
        {
            "positions": [
                -2.9424020232937025,
                -0.9421535823601239,
                1.6539107588577633,
                -0.693452255492534,
                1.614023111294294,
                -3.0896540897840454
            ]
        },
        {
            "positions": [
                -2.916812628761547,
                -0.9102453952977411,
                1.555025559941806,
                -0.627386742004341,
                1.4836529777508471,
                -3.0952544148944336
            ]
        },
        {
            "positions": [
                -2.891223234229391,
                -0.8783372082353582,
                1.4561403610258485,
                -0.561321228516148,
                1.3532828442074005,
                -3.1008547400048223
            ]
        },
        {
            "positions": [
                -2.8656338396972356,
                -0.8464290211729752,
                1.3572551621098912,
                -0.4952557150279549,
                1.2229127106639537,
                -3.106455065115211
            ]
        },
        {
            "positions": [
                -2.84004444516508,
                -0.8145208341105925,
                1.2583699631939338,
                -0.4291902015397619,
                1.0925425771205068,
                -3.112055390225599
            ]
        },
        {
            "positions": [
                -2.8144550506329247,
                -0.7826126470482095,
                1.1594847642779764,
                -0.3631246880515689,
                0.9621724435770602,
                -3.117655715335988
            ]
        },
        {
            "positions": [
                -2.788865656100769,
                -0.7507044599858268,
                1.060599565362019,
                -0.2970591745633759,
                0.8318023100336135,
                -3.1232560404463765
            ]
        },
        {
            "positions": [
                -2.7632762615686133,
                -0.7187962729234438,
                0.9617143664460616,
                -0.23099366107518282,
                0.7014321764901665,
                -3.128856365556765
            ]
        },
        {
            "positions": [
                -2.737686867036458,
                -0.686888085861061,
                0.8628291675301042,
                -0.16492814758698982,
                0.5710620429467199,
                -3.1344566906671534
            ]
        },
        {
            "positions": [
                -2.7120974725043023,
                -0.6549798987986781,
                0.7639439686141468,
                -0.09886263409879685,
                0.44069190940327313,
                -3.140057015777542
            ]
        }
    ]
}