{
    "goal": {
        "global_pose": {
            "orientation": {
                "w": 0.5084816262002911,
                "x": -0.4908360881923452,
                "y": 0.5182115481033761,
                "z": -0.48164630358495003
            },
            "position": {
                "x": 0.5540239810943604,
                "y": -0.46912469901144505,
                "z": 0.16403168439865112
            }
        },
        "name": "move_to_storage_B"
    },
    "id": "BiTRRT_move_to_storage_B_30",
    "joint_names": [
        "shoulder_pan_joint",
        "shoulder_lift_joint",
        "elbow_joint",
        "wrist_1_joint",
        "wrist_2_joint",
        "wrist_3_joint"
    ],
    "metrics": {
        "cart_traj_len": 1.3008537328835825,
        "distance_elbow_joint": 1.0007893493339433,
        "distance_shoulder_lift_joint": 0.45807134587814713,
        "distance_shoulder_pan_joint": 1.1420054395814707,
        "distance_wrist_1_joint": 3.0047990788396253,
        "distance_wrist_2_joint": 2.702060165071047,
        "distance_wrist_3_joint": 3.184146679112834,
        "smoothness": 0.43125856232088866,
        "time": 0.077710793,
        "traj_len": 3.3899663800422957,
        "weighted_distance": 4.854588001051522
    },
    "planner": "BiTRRT",
    "start": {
        "state": {
            "elbow_joint": 1.664937868594044,
            "shoulder_lift_joint": -0.661644460510453,
            "shoulder_pan_joint": -0.9139846352900073,
            "wrist_1_joint": 2.146753192139373,
            "wrist_2_joint": -2.2341966793290973,
            "wrist_3_joint": 0.005466555786416001
        }
    },
    "waypoints": [
        {
            "positions": [
                -0.9139846352900073,
                -0.661644460510453,
                1.664937868594044,
                2.146753192139373,
                -2.2341966793290973,
                0.005466555786416001
            ]
        },
        {
            "positions": [
                -0.8912169812909851,
                -0.6645480404241846,
                1.6686843629171393,
                2.151649078803083,
                -2.2247219307265373,
                -0.008471725149436768
            ]
        },
        {
            "positions": [
                -0.8454251524890067,
                -0.6872549878497836,
                1.6361746270066138,
                2.07525124865192,
                -2.0845585329731664,
                0.05354616562757822
            ]
        },
        {
            "positions": [
                -0.7996333236870283,
                -0.7099619352753825,
                1.6036648910960882,
                1.9988534185007572,
                -1.944395135219796,
                0.1155640564045932
            ]
        },
        {
            "positions": [
                -0.75384149488505,
                -0.7326688827009815,
                1.5711551551855627,
                1.9224555883495942,
                -1.804231737466425,
                0.1775819471816082
            ]
        },
        {
            "positions": [
                -0.7080496660830715,
                -0.7553758301265805,
                1.5386454192750372,
                1.8460577581984312,
                -1.6640683397130542,
                0.23959983795862316
            ]
        },
        {
            "positions": [
                -0.6622578372810932,
                -0.7780827775521795,
                1.5061356833645116,
                1.7696599280472682,
                -1.5239049419596835,
                0.30161772873563814
            ]
        },
        {
            "positions": [
                -0.6164660084791148,
                -0.8007897249777783,
                1.4736259474539863,
                1.6932620978961055,
                -1.3837415442063128,
                0.3636356195126531
            ]
        },
        {
            "positions": [
                -0.5706741796771364,
                -0.8234966724033773,
                1.4411162115434608,
                1.6168642677449425,
                -1.243578146452942,
                0.4256535102896681
            ]
        },
        {
            "positions": [
                -0.524882350875158,
                -0.8462036198289763,
                1.4086064756329353,
                1.5404664375937793,
                -1.1034147486995711,
                0.4876714010666831
            ]
        },
        {
            "positions": [
                -0.47909052207317965,
                -0.8689105672545753,
                1.3760967397224098,
                1.4640686074426166,
                -0.9632513509462004,
                0.5496892918436982
            ]
        },
        {
            "positions": [
                -0.43329869327120124,
                -0.8916175146801743,
                1.3435870038118842,
                1.3876707772914536,
                -0.8230879531928297,
                0.6117071826207131
            ]
        },
        {
            "positions": [
                -0.46636466814933447,
                -0.9030224292655955,
                1.377184278607164,
                1.2758745327582393,
                -0.7585403812460907,
                0.7392086571410547
            ]
        },
        {
            "positions": [
                -0.4994306430274677,
                -0.9144273438510169,
                1.4107815534024435,
                1.164078288225025,
                -0.6939928092993517,
                0.8667101316613963
            ]
        },
        {
            "positions": [
                -0.532496617905601,
                -0.9258322584364381,
                1.4443788281977232,
                1.0522820436918106,
                -0.6294452373526128,
                0.9942116061817379
            ]
        },
        {
            "positions": [
                -0.5655625927837342,
                -0.9372371730218594,
                1.4779761029930027,
                0.9404857991585962,
                -0.5648976654058738,
                1.1217130807020794
            ]
        },
        {
            "positions": [
                -0.5986285676618675,
                -0.9486420876072807,
                1.5115733777882825,
                0.8286895546253819,
                -0.500350093459135,
                1.249214555222421
            ]
        },
        {
            "positions": [
                -0.6316945425400007,
                -0.960047002192702,
                1.545170652583562,
                0.7168933100921675,
                -0.43580252151239596,
                1.3767160297427625
            ]
        },
        {
            "positions": [
                -0.6647605174181338,
                -0.9714519167781233,
                1.5787679273788418,
                0.6050970655589532,
                -0.371254949565657,
                1.504217504263104
            ]
        },
        {
            "positions": [
                -0.6978264922962671,
                -0.9828568313635446,
                1.6123652021741215,
                0.4933008210257388,
                -0.306707377618918,
                1.6317189787834456
            ]
        },
        {
            "positions": [
                -0.7308924671744004,
                -0.9942617459489659,
                1.645962476969401,
                0.38150457649252445,
                -0.2421598056721791,
                1.7592204533037874
            ]
        },
        {
            "positions": [
                -0.7639584420525336,
                -1.0056666605343871,
                1.6795597517646805,
                0.2697083319593101,
                -0.1776122337254401,
                1.8867219278241287
            ]
        },
        {
            "positions": [
                -0.7970244169306668,
                -1.0170715751198085,
                1.7131570265599603,
                0.15791208742609575,
                -0.11306466177870111,
                2.0142234023444705
            ]
        },
        {
            "positions": [
                -0.8300903918088001,
                -1.0284764897052299,
                1.74675430135524,
                0.0461158428928814,
                -0.048517089831962235,
                2.141724876864812
            ]
        },
        {
            "positions": [
                -0.8631563666869333,
                -1.039881404290651,
                1.7803515761505195,
                -0.06568040164033295,
                0.016030482114776756,
                2.2692263513851536
            ]
        },
        {
            "positions": [
                -0.8962223415650664,
                -1.0512863188760724,
                1.813948850945799,
                -0.1774766461735473,
                0.08057805406151564,
                2.396727825905495
            ]
        },
        {
            "positions": [
                -0.9292883164431998,
                -1.0626912334614937,
                1.8475461257410788,
                -0.28927289070676165,
                0.14512562600825474,
                2.5242293004258367
            ]
        },
        {
            "positions": [
                -0.962354291321333,
                -1.074096148046915,
                1.8811434005363585,
                -0.401069135239976,
                0.20967319795499373,
                2.6517307749461785
            ]
        },
        {
            "positions": [
                -0.9954202661994662,
                -1.0855010626323363,
                1.9147406753316383,
                -0.5128653797731904,
                0.2742207699017325,
                2.77923224946652
            ]
        },
        {
            "positions": [
                -1.0284862410775995,
                -1.0969059772177576,
                1.9483379501269178,
                -0.6246616243064047,
                0.3387683418484715,
                2.9067337239868616
            ]
        },
        {
            "positions": [
                -1.0615522159557327,
                -1.1083108918031788,
                1.9819352249221973,
                -0.7364578688396188,
                0.4033159137952105,
                3.034235198507203
            ]
        },
        {
            "positions": [
                -1.094618190833866,
                -1.1197158063886001,
                2.015532499717477,
                -0.8482541133728335,
                0.4678634857419494,
                3.1617366730275447
            ]
        }
    ]
}