{
    "goal": {
        "global_pose": {
            "orientation": {
                "w": -0.00223480608172531,
                "x": 0.0024358444001904467,
                "y": 0.7094548369677653,
                "z": -0.704743149386269
            },
            "position": {
                "x": 0.6205249238014221,
                "y": -0.6371506643295288,
                "z": 0.19426114857196808
            }
        },
        "name": "move_to_magneteinheit_B"
    },
    "id": "BiTRRT_move_to_magneteinheit_B_31",
    "joint_names": [
        "shoulder_pan_joint",
        "shoulder_lift_joint",
        "elbow_joint",
        "wrist_1_joint",
        "wrist_2_joint",
        "wrist_3_joint"
    ],
    "metrics": {
        "cart_traj_len": 1.4639036034410076,
        "distance_elbow_joint": 0.9586312726278685,
        "distance_shoulder_lift_joint": 0.7567278410753017,
        "distance_shoulder_pan_joint": 1.619551849894889,
        "distance_wrist_1_joint": 1.4397334803117348,
        "distance_wrist_2_joint": 2.8990343190347723,
        "distance_wrist_3_joint": 0.8141489742503063,
        "smoothness": 0.6603940561194964,
        "time": 0.097745183,
        "traj_len": 2.9133876736876045,
        "weighted_distance": 3.801959164041875
    },
    "planner": "BiTRRT",
    "start": {
        "state": {
            "elbow_joint": 2.6216224122426386,
            "shoulder_lift_joint": -1.4174107377796124,
            "shoulder_pan_joint": 0.7066234856936794,
            "wrist_1_joint": 1.9546482284002225,
            "wrist_2_joint": -0.7096286983471962,
            "wrist_3_joint": 0.005740856962016249
        }
    },
    "waypoints": [
        {
            "positions": [
                0.7066234856936794,
                -1.4174107377796124,
                2.6216224122426386,
                1.9546482284002225,
                -0.7096286983471962,
                0.005740856962016249
            ]
        },
        {
            "positions": [
                0.6298121633133114,
                -1.3882166238178935,
                2.5855260300106884,
                1.8765874601101098,
                -0.6242174993212092,
                0.056952896345542896
            ]
        },
        {
            "positions": [
                0.5530008409329432,
                -1.3590225098561743,
                2.549429647778738,
                1.798526691819997,
                -0.5388063002952221,
                0.10816493572906954
            ]
        },
        {
            "positions": [
                0.47618951855257513,
                -1.3298283958944555,
                2.513333265546788,
                1.7204659235298843,
                -0.4533951012692351,
                0.15937697511259621
            ]
        },
        {
            "positions": [
                0.39937819617220705,
                -1.3006342819327363,
                2.4772368833148377,
                1.6424051552397714,
                -0.36798390224324806,
                0.21058901449612286
            ]
        },
        {
            "positions": [
                0.32256687379183896,
                -1.2714401679710174,
                2.4411405010828875,
                1.5643443869496587,
                -0.282572703217261,
                0.2618010538796495
            ]
        },
        {
            "positions": [
                0.24575555141147087,
                -1.2422460540092986,
                2.4050441188509373,
                1.486283618659546,
                -0.19716150419127398,
                0.31301309326317617
            ]
        },
        {
            "positions": [
                0.16894422903110284,
                -1.2130519400475794,
                2.368947736618987,
                1.4082228503694334,
                -0.11175030516528695,
                0.3642251326467028
            ]
        },
        {
            "positions": [
                0.09213290665073465,
                -1.1838578260858605,
                2.332851354387037,
                1.3301620820793205,
                -0.02633910613929985,
                0.41543717203022945
            ]
        },
        {
            "positions": [
                0.025128821927271672,
                -1.148979497460424,
                2.2881940067355524,
                1.384511904345376,
                -0.1740554212610916,
                0.3884736614180899
            ]
        },
        {
            "positions": [
                -0.041875262796191304,
                -1.1141011688349873,
                2.243536659084068,
                1.4388617266114316,
                -0.32177173638288337,
                0.36151015080595034
            ]
        },
        {
            "positions": [
                -0.10887934751965428,
                -1.0792228402095505,
                2.1988793114325835,
                1.493211548877487,
                -0.46948805150467515,
                0.3345466401938108
            ]
        },
        {
            "positions": [
                -0.17588343224311725,
                -1.044344511584114,
                2.154221963781099,
                1.5475613711435425,
                -0.6172043666264668,
                0.3075831295816712
            ]
        },
        {
            "positions": [
                -0.24288751696658023,
                -1.0094661829586773,
                2.1095646161296147,
                1.601911193409598,
                -0.7649206817482586,
                0.2806196189695317
            ]
        },
        {
            "positions": [
                -0.3098916016900432,
                -0.9745878543332406,
                2.06490726847813,
                1.6562610156756536,
                -0.9126369968700505,
                0.25365610835739216
            ]
        },
        {
            "positions": [
                -0.3768956864135062,
                -0.939709525707804,
                2.020249920826646,
                1.710610837941709,
                -1.0603533119918422,
                0.22669259774525258
            ]
        },
        {
            "positions": [
                -0.44389977113696916,
                -0.9048311970823673,
                1.9755925731751613,
                1.7649606602077648,
                -1.208069627113634,
                0.19972908713311305
            ]
        },
        {
            "positions": [
                -0.5109038558604322,
                -0.8699528684569307,
                1.930935225523677,
                1.8193104824738202,
                -1.3557859422354257,
                0.1727655765209735
            ]
        },
        {
            "positions": [
                -0.5779079405838952,
                -0.835074539831494,
                1.8862778778721925,
                1.8736603047398757,
                -1.5035022573572174,
                0.14580206590883393
            ]
        },
        {
            "positions": [
                -0.6449120253073581,
                -0.8001962112060573,
                1.841620530220708,
                1.928010127005931,
                -1.6512185724790092,
                0.1188385552966944
            ]
        },
        {
            "positions": [
                -0.7119161100308211,
                -0.7653178825806206,
                1.7969631825692234,
                1.9823599492719868,
                -1.7989348876008011,
                0.09187504468455482
            ]
        },
        {
            "positions": [
                -0.7789201947542841,
                -0.730439553955184,
                1.752305834917739,
                2.0367097715380424,
                -1.9466512027225928,
                0.06491153407241529
            ]
        },
        {
            "positions": [
                -0.8459242794777471,
                -0.6955612253297474,
                1.7076484872662545,
                2.091059593804098,
                -2.0943675178443844,
                0.037948023460275704
            ]
        },
        {
            "positions": [
                -0.9129283642012099,
                -0.6606828967043107,
                1.66299113961477,
                2.1454094160701533,
                -2.242083832966176,
                0.010984512848136181
            ]
        }
    ]
}