{
    "goal": {
        "global_pose": {
            "orientation": {
                "w": -0.00223480608172531,
                "x": 0.0024358444001904467,
                "y": 0.7094548369677653,
                "z": -0.704743149386269
            },
            "position": {
                "x": -0.37947507619857795,
                "y": -0.6371506643295288,
                "z": 0.19426114857196808
            }
        },
        "name": "move_to_magneteinheit_C"
    },
    "id": "BiTRRT_move_to_magneteinheit_C_84",
    "joint_names": [
        "shoulder_pan_joint",
        "shoulder_lift_joint",
        "elbow_joint",
        "wrist_1_joint",
        "wrist_2_joint",
        "wrist_3_joint"
    ],
    "metrics": {
        "cart_traj_len": 8.033031101591165,
        "distance_elbow_joint": 8.742899406411023,
        "distance_shoulder_lift_joint": 2.4664026048752365,
        "distance_shoulder_pan_joint": 8.237351994970286,
        "distance_wrist_1_joint": 5.365939048672268,
        "distance_wrist_2_joint": 4.14756099090287,
        "distance_wrist_3_joint": 10.865037594253234,
        "smoothness": 0.6211003511827797,
        "time": 0.162221102,
        "traj_len": 6.310720374100325,
        "weighted_distance": 8.430229348491453
    },
    "planner": "BiTRRT",
    "start": {
        "state": {
            "elbow_joint": 1.9565354010623817,
            "shoulder_lift_joint": -1.4165861575791021,
            "shoulder_pan_joint": -1.6717766225146293,
            "wrist_1_joint": -0.5286633292919765,
            "wrist_2_joint": 1.472756589071564,
            "wrist_3_joint": -3.1238370188695823
        }
    },
    "waypoints": [
        {
            "positions": [
                -1.6717766225146293,
                -1.4165861575791021,
                1.9565354010623817,
                -0.5286633292919765,
                1.472756589071564,
                -3.1238370188695823
            ]
        },
        {
            "positions": [
                -1.528157222799224,
                -1.4637846392961502,
                1.8874280473818659,
                -0.44271382278000565,
                1.4835600746849125,
                -3.1595782777083685
            ]
        },
        {
            "positions": [
                -1.3845378230838183,
                -1.5109831210131983,
                1.81832069370135,
                -0.35676431626803484,
                1.494363560298261,
                -3.1953195365471547
            ]
        },
        {
            "positions": [
                -1.240918423368413,
                -1.5581816027302464,
                1.7492133400208345,
                -0.27081480975606403,
                1.5051670459116098,
                -3.231060795385941
            ]
        },
        {
            "positions": [
                -1.0972990236530076,
                -1.6053800844472945,
                1.6801059863403187,
                -0.18486530324409323,
                1.5159705315249583,
                -3.266802054224727
            ]
        },
        {
            "positions": [
                -1.0324699091174945,
                -1.5820534189951083,
                1.593498929676781,
                -0.23897106561636566,
                1.4664043084482206,
                -3.1515192094146753
            ]
        },
        {
            "positions": [
                -0.9676407945819813,
                -1.5587267535429221,
                1.5068918730132432,
                -0.2930768279886381,
                1.416838085371483,
                -3.0362363646046235
            ]
        },
        {
            "positions": [
                -0.9028116800464681,
                -1.5354000880907361,
                1.4202848163497055,
                -0.3471825903609105,
                1.3672718622947453,
                -2.9209535197945713
            ]
        },
        {
            "positions": [
                -0.837982565510955,
                -1.51207342263855,
                1.3336777596861678,
                -0.401288352733183,
                1.3177056392180075,
                -2.8056706749845195
            ]
        },
        {
            "positions": [
                -0.7731534509754417,
                -1.4887467571863637,
                1.24707070302263,
                -0.4553941151054554,
                1.26813941614127,
                -2.6903878301744677
            ]
        },
        {
            "positions": [
                -0.7083243364399285,
                -1.4654200917341775,
                1.1604636463590923,
                -0.5094998774777277,
                1.2185731930645323,
                -2.5751049853644155
            ]
        },
        {
            "positions": [
                -0.6434952219044154,
                -1.4420934262819913,
                1.0738565896955545,
                -0.5636056398500002,
                1.1690069699877945,
                -2.4598221405543637
            ]
        },
        {
            "positions": [
                -0.5786661073689022,
                -1.4187667608298051,
                0.9872495330320168,
                -0.6177114022222727,
                1.119440746911057,
                -2.344539295744312
            ]
        },
        {
            "positions": [
                -0.5138369928333891,
                -1.395440095377619,
                0.900642476368479,
                -0.6718171645945451,
                1.0698745238343192,
                -2.22925645093426
            ]
        },
        {
            "positions": [
                -0.4490078782978759,
                -1.3721134299254327,
                0.8140354197049413,
                -0.7259229269668176,
                1.0203083007575815,
                -2.1139736061242083
            ]
        },
        {
            "positions": [
                -0.3841787637623627,
                -1.3487867644732465,
                0.7274283630414036,
                -0.78002868933909,
                0.970742077680844,
                -1.998690761314156
            ]
        },
        {
            "positions": [
                -0.3193496492268496,
                -1.3254600990210605,
                0.6408213063778658,
                -0.8341344517113624,
                0.9211758546041063,
                -1.8834079165041042
            ]
        },
        {
            "positions": [
                -0.2545205346913364,
                -1.3021334335688743,
                0.5542142497143281,
                -0.8882402140836348,
                0.8716096315273686,
                -1.7681250716940522
            ]
        },
        {
            "positions": [
                -0.1896914201558233,
                -1.2788067681166881,
                0.46760719305079035,
                -0.9423459764559072,
                0.822043408450631,
                -1.6528422268840004
            ]
        },
        {
            "positions": [
                -0.12486230562031009,
                -1.255480102664502,
                0.3810001363872526,
                -0.9964517388281797,
                0.7724771853738933,
                -1.5375593820739484
            ]
        },
        {
            "positions": [
                -0.06003319108479688,
                -1.232153437212316,
                0.29439307972371487,
                -1.0505575012004522,
                0.7229109622971557,
                -1.4222765372638966
            ]
        },
        {
            "positions": [
                0.004795923450716222,
                -1.2088267717601298,
                0.20778602306017713,
                -1.1046632635727245,
                0.6733447392204179,
                -1.3069936924538446
            ]
        },
        {
            "positions": [
                0.06962503798622932,
                -1.1855001063079436,
                0.12117896639663939,
                -1.158769025944997,
                0.6237785161436803,
                -1.1917108476437925
            ]
        },
        {
            "positions": [
                0.13445415252174242,
                -1.1621734408557574,
                0.03457190973310165,
                -1.2128747883172692,
                0.5742122930669427,
                -1.0764280028337407
            ]
        },
        {
            "positions": [
                0.19928326705725574,
                -1.1388467754035712,
                -0.052035146930436094,
                -1.266980550689542,
                0.5246460699902049,
                -0.9611451580236889
            ]
        },
        {
            "positions": [
                0.26411238159276884,
                -1.115520109951385,
                -0.13864220359397383,
                -1.3210863130618142,
                0.4750798469134674,
                -0.8458623132136371
            ]
        },
        {
            "positions": [
                0.32894149612828216,
                -1.0921934444991988,
                -0.22524926025751157,
                -1.3751920754340867,
                0.42551362383672964,
                -0.7305794684035849
            ]
        },
        {
            "positions": [
                0.39377061066379526,
                -1.0688667790470125,
                -0.3118563169210493,
                -1.429297837806359,
                0.3759474007599919,
                -0.6152966235935331
            ]
        },
        {
            "positions": [
                0.45859972519930836,
                -1.0455401135948266,
                -0.39846337358458706,
                -1.4834036001786315,
                0.32638117768325436,
                -0.5000137787834813
            ]
        },
        {
            "positions": [
                0.5234288397348215,
                -1.0222134481426404,
                -0.4850704302481248,
                -1.537509362550904,
                0.2768149546065166,
                -0.3847309339734295
            ]
        },
        {
            "positions": [
                0.5882579542703348,
                -0.9988867826904542,
                -0.5716774869116625,
                -1.5916151249231765,
                0.22724873152977887,
                -0.26944808916337726
            ]
        },
        {
            "positions": [
                0.6530870688058481,
                -0.975560117238268,
                -0.6582845435752003,
                -1.645720887295449,
                0.17768250845304112,
                -0.15416524435332501
            ]
        },
        {
            "positions": [
                0.717916183341361,
                -0.9522334517860819,
                -0.744891600238738,
                -1.6998266496677212,
                0.1281162853763036,
                -0.03888239954327366
            ]
        },
        {
            "positions": [
                0.7827452978768743,
                -0.9289067863338957,
                -0.8314986569022758,
                -1.7539324120399937,
                0.07855006229956585,
                0.07640044526677814
            ]
        },
        {
            "positions": [
                0.8475744124123874,
                -0.9055801208817095,
                -0.9181057135658135,
                -1.8080381744122662,
                0.028983839222828323,
                0.19168329007683038
            ]
        },
        {
            "positions": [
                0.9124035269479003,
                -0.8822534554295234,
                -1.0047127702293512,
                -1.8621439367845385,
                -0.020582383853909203,
                0.30696613488688174
            ]
        },
        {
            "positions": [
                0.9772326414834138,
                -0.8589267899773372,
                -1.091319826892889,
                -1.916249699156811,
                -0.07014860693064695,
                0.422248979696934
            ]
        },
        {
            "positions": [
                1.042061756018927,
                -0.835600124525151,
                -1.1779268835564267,
                -1.9703554615290835,
                -0.1197148300073847,
                0.5375318245069862
            ]
        },
        {
            "positions": [
                1.10689087055444,
                -0.8122734590729648,
                -1.2645339402199645,
                -2.0244612239013557,
                -0.16928105308412245,
                0.652814669317038
            ]
        },
        {
            "positions": [
                1.1717199850899531,
                -0.7889467936207787,
                -1.3511409968835022,
                -2.0785669862736285,
                -0.21884727616085997,
                0.7680975141270894
            ]
        },
        {
            "positions": [
                1.2365490996254662,
                -0.7656201281685925,
                -1.43774805354704,
                -2.1326727486459007,
                -0.2684134992375977,
                0.8833803589371421
            ]
        },
        {
            "positions": [
                1.3013782141609798,
                -0.7422934627164063,
                -1.5243551102105777,
                -2.1867785110181734,
                -0.31797972231433547,
                0.9986632037471939
            ]
        },
        {
            "positions": [
                1.3662073286964924,
                -0.7189667972642202,
                -1.6109621668741154,
                -2.2408842733904453,
                -0.367545945391073,
                1.1139460485572457
            ]
        },
        {
            "positions": [
                1.431036443232006,
                -0.695640131812034,
                -1.6975692235376532,
                -2.294990035762718,
                -0.41711216846781074,
                1.2292288933672975
            ]
        },
        {
            "positions": [
                1.495865557767519,
                -0.6723134663598478,
                -1.784176280201191,
                -2.3490957981349907,
                -0.4666783915445485,
                1.3445117381773493
            ]
        },
        {
            "positions": [
                1.5606946723030322,
                -0.6489868009076616,
                -1.8707833368647286,
                -2.403201560507263,
                -0.516244614621286,
                1.459794582987401
            ]
        },
        {
            "positions": [
                1.6255237868385453,
                -0.6256601354554755,
                -1.9573903935282664,
                -2.4573073228795352,
                -0.5658108376980235,
                1.5750774277974529
            ]
        },
        {
            "positions": [
                1.6903529013740584,
                -0.6023334700032892,
                -2.043997450191804,
                -2.5114130852518075,
                -0.6153770607747615,
                1.6903602726075047
            ]
        },
        {
            "positions": [
                1.755182015909572,
                -0.579006804551103,
                -2.1306045068553416,
                -2.5655188476240802,
                -0.664943283851499,
                1.8056431174175573
            ]
        },
        {
            "positions": [
                1.820011130445085,
                -0.5556801390989168,
                -2.2172115635188794,
                -2.619624609996353,
                -0.714509506928237,
                1.9209259622276091
            ]
        },
        {
            "positions": [
                1.884840244980598,
                -0.5323534736467308,
                -2.303818620182417,
                -2.6737303723686248,
                -0.7640757300049745,
                2.036208807037661
            ]
        },
        {
            "positions": [
                1.9496693595161112,
                -0.5090268081945446,
                -2.390425676845955,
                -2.7278361347408975,
                -0.8136419530817123,
                2.151491651847713
            ]
        },
        {
            "positions": [
                1.8437817542506867,
                -0.5273092585347193,
                -2.3023759569643367,
                -2.681437101047096,
                -0.7816923058363935,
                2.0541777623109385
            ]
        },
        {
            "positions": [
                1.7378941489852622,
                -0.5455917088748939,
                -2.214326237082719,
                -2.635038067353294,
                -0.7497426585910747,
                1.956863872774164
            ]
        },
        {
            "positions": [
                1.6320065437198377,
                -0.5638741592150687,
                -2.126276517201101,
                -2.588639033659492,
                -0.7177930113457559,
                1.8595499832373894
            ]
        },
        {
            "positions": [
                1.5261189384544132,
                -0.5821566095552433,
                -2.038226797319483,
                -2.5422399999656906,
                -0.6858433641004371,
                1.762236093700615
            ]
        },
        {
            "positions": [
                1.4202313331889886,
                -0.600439059895418,
                -1.950177077437865,
                -2.4958409662718886,
                -0.6538937168551182,
                1.6649222041638403
            ]
        },
        {
            "positions": [
                1.3143437279235641,
                -0.6187215102355926,
                -1.8621273575562471,
                -2.449441932578087,
                -0.6219440696097994,
                1.5676083146270656
            ]
        },
        {
            "positions": [
                1.2084561226581396,
                -0.6370039605757674,
                -1.7740776376746292,
                -2.4030428988842853,
                -0.5899944223644806,
                1.470294425090291
            ]
        },
        {
            "positions": [
                1.102568517392715,
                -0.655286410915942,
                -1.686027917793011,
                -2.3566438651904833,
                -0.5580447751191618,
                1.3729805355535165
            ]
        },
        {
            "positions": [
                0.9966809121272906,
                -0.6735688612561167,
                -1.5979781979113934,
                -2.3102448314966817,
                -0.526095127873843,
                1.275666646016742
            ]
        },
        {
            "positions": [
                0.8907933068618661,
                -0.6918513115962913,
                -1.5099284780297753,
                -2.26384579780288,
                -0.49414548062852426,
                1.1783527564799674
            ]
        },
        {
            "positions": [
                0.7849057015964416,
                -0.710133761936466,
                -1.4218787581481573,
                -2.217446764109078,
                -0.4621958333832054,
                1.0810388669431927
            ]
        },
        {
            "positions": [
                0.6790180963310171,
                -0.7284162122766407,
                -1.3338290382665394,
                -2.1710477304152764,
                -0.4302461861378866,
                0.9837249774064183
            ]
        },
        {
            "positions": [
                0.5731304910655926,
                -0.7466986626168154,
                -1.2457793183849215,
                -2.124648696721475,
                -0.39829653889256783,
                0.8864110878696436
            ]
        },
        {
            "positions": [
                0.4672428858001678,
                -0.7649811129569901,
                -1.1577295985033034,
                -2.0782496630276728,
                -0.366346891647249,
                0.789097198332869
            ]
        },
        {
            "positions": [
                0.36135528053474353,
                -0.7832635632971647,
                -1.0696798786216857,
                -2.031850629333871,
                -0.33439724440193025,
                0.6917833087960945
            ]
        },
        {
            "positions": [
                0.255467675269319,
                -0.8015460136373393,
                -0.9816301587400675,
                -1.9854515956400696,
                -0.3024475971566114,
                0.5944694192593198
            ]
        },
        {
            "positions": [
                0.1495800700038945,
                -0.8198284639775141,
                -0.8935804388584496,
                -1.9390525619462677,
                -0.2704979499112926,
                0.4971555297225454
            ]
        },
        {
            "positions": [
                0.043692464738469994,
                -0.8381109143176888,
                -0.8055307189768317,
                -1.892653528252466,
                -0.23854830266597382,
                0.39984164018577073
            ]
        },
        {
            "positions": [
                -0.06219514052695452,
                -0.8563933646578634,
                -0.7174809990952136,
                -1.8462544945586643,
                -0.20659865542065492,
                0.30252775064899606
            ]
        },
        {
            "positions": [
                -0.16808274579237903,
                -0.874675814998038,
                -0.6294312792135959,
                -1.7998554608648625,
                -0.17464900817533624,
                0.20521386111222162
            ]
        },
        {
            "positions": [
                -0.27397035105780354,
                -0.8929582653382129,
                -0.5413815593319777,
                -1.7534564271710606,
                -0.14269936093001734,
                0.10789997157544695
            ]
        },
        {
            "positions": [
                -0.37985795632322805,
                -0.9112407156783875,
                -0.4533318394503598,
                -1.7070573934772588,
                -0.11074971368469855,
                0.010586082038672284
            ]
        },
        {
            "positions": [
                -0.485745561588653,
                -0.9295231660185621,
                -0.3652821195687417,
                -1.660658359783457,
                -0.07880006643937976,
                -0.08672780749810238
            ]
        },
        {
            "positions": [
                -0.5916331668540771,
                -0.9478056163587367,
                -0.277232399687124,
                -1.6142593260896554,
                -0.046850419194060966,
                -0.1840416970348766
            ]
        },
        {
            "positions": [
                -0.6975207721195016,
                -0.9660880666989116,
                -0.18918267980550585,
                -1.5678602923958538,
                -0.014900771948742175,
                -0.2813555865716513
            ]
        },
        {
            "positions": [
                -0.8034083773849261,
                -0.9843705170390862,
                -0.10113295992388815,
                -1.521461258702052,
                0.017048875296576615,
                -0.37866947610842594
            ]
        },
        {
            "positions": [
                -0.9092959826503506,
                -1.0026529673792608,
                -0.013083240042270017,
                -1.4750622250082501,
                0.04899852254189552,
                -0.4759833656452006
            ]
        },
        {
            "positions": [
                -1.0151835879157756,
                -1.0209354177194356,
                0.07496647983934812,
                -1.4286631913144483,
                0.08094816978721431,
                -0.5732972551819753
            ]
        },
        {
            "positions": [
                -1.1210711931811996,
                -1.0392178680596103,
                0.16301619972096582,
                -1.3822641576206467,
                0.11289781703253299,
                -0.6706111447187495
            ]
        },
        {
            "positions": [
                -1.2269587984466241,
                -1.0575003183997849,
                0.2510659196025835,
                -1.3358651239268449,
                0.14484746427785178,
                -0.7679250342555242
            ]
        },
        {
            "positions": [
                -1.3328464037120487,
                -1.0757827687399595,
                0.33911563948420165,
                -1.2894660902330433,
                0.17679711152317068,
                -0.8652389237922988
            ]
        },
        {
            "positions": [
                -1.4387340089774732,
                -1.094065219080134,
                0.4271653593658198,
                -1.2430670565392414,
                0.20874675876848947,
                -0.9625528133290735
            ]
        },
        {
            "positions": [
                -1.5446216142428977,
                -1.112347669420309,
                0.5152150792474379,
                -1.1966680228454396,
                0.24069640601380837,
                -1.0598667028658482
            ]
        },
        {
            "positions": [
                -1.6505092195083222,
                -1.1306301197604836,
                0.6032647991290556,
                -1.150268989151638,
                0.27264605325912705,
                -1.1571805924026224
            ]
        },
        {
            "positions": [
                -1.7563968247737467,
                -1.1489125701006584,
                0.6913145190106733,
                -1.1038699554578362,
                0.30459570050444595,
                -1.254494481939397
            ]
        },
        {
            "positions": [
                -1.8622844300391712,
                -1.167195020440833,
                0.7793642388922914,
                -1.0574709217640343,
                0.33654534774976463,
                -1.3518083714761717
            ]
        },
        {
            "positions": [
                -1.9681720353045957,
                -1.1854774707810076,
                0.8674139587739096,
                -1.0110718880702325,
                0.36849499499508354,
                -1.4491222610129464
            ]
        },
        {
            "positions": [
                -2.0740596405700202,
                -1.2037599211211822,
                0.9554636786555277,
                -0.9646728543764309,
                0.40044464224040244,
                -1.546436150549721
            ]
        },
        {
            "positions": [
                -2.1799472458354447,
                -1.2220423714613569,
                1.043513398537145,
                -0.9182738206826293,
                0.4323942894857211,
                -1.6437500400864953
            ]
        },
        {
            "positions": [
                -2.2858348511008693,
                -1.2403248218015315,
                1.1315631184187631,
                -0.8718747869888275,
                0.4643439367310398,
                -1.74106392962327
            ]
        },
        {
            "positions": [
                -2.3917224563662938,
                -1.2586072721417063,
                1.2196128383003813,
                -0.8254757532950256,
                0.4962935839763587,
                -1.8383778191600446
            ]
        },
        {
            "positions": [
                -2.4364224738964877,
                -1.19415214303201,
                1.2342609173343762,
                -0.7670174656034652,
                0.49472724417500363,
                -2.0125912107086705
            ]
        },
        {
            "positions": [
                -2.481122491426681,
                -1.1296970139223133,
                1.248908996368371,
                -0.7085591779119047,
                0.49316090437364857,
                -2.1868046022572964
            ]
        },
        {
            "positions": [
                -2.5258225089568747,
                -1.0652418848126168,
                1.263557075402366,
                -0.6501008902203442,
                0.49159456457229345,
                -2.3610179938059224
            ]
        },
        {
            "positions": [
                -2.5705225264870686,
                -1.0007867557029204,
                1.2782051544363608,
                -0.5916426025287838,
                0.4900282247709384,
                -2.5352313853545483
            ]
        },
        {
            "positions": [
                -2.567486091828683,
                -1.0241291549712963,
                1.4047806558451583,
                -0.6060702162391256,
                0.5680542548149158,
                -2.6255072359995775
            ]
        },
        {
            "positions": [
                -2.564449657170298,
                -1.0474715542396722,
                1.5313561572539556,
                -0.6204978299494676,
                0.6460802848588932,
                -2.715783086644606
            ]
        },
        {
            "positions": [
                -2.561413222511913,
                -1.0708139535080479,
                1.6579316586627528,
                -0.6349254436598095,
                0.7241063149028706,
                -2.8060589372896354
            ]
        },
        {
            "positions": [
                -2.5583767878535273,
                -1.0941563527764238,
                1.7845071600715503,
                -0.6493530573701514,
                0.802132344946848,
                -2.8963347879346646
            ]
        },
        {
            "positions": [
                -2.5332009076301674,
                -1.0907508295495414,
                1.8084696542548813,
                -0.6215858808232172,
                0.7310661244320388,
                -2.9838796056098627
            ]
        },
        {
            "positions": [
                -2.508025027406808,
                -1.0873453063226592,
                1.8324321484382122,
                -0.593818704276283,
                0.6599999039172295,
                -3.0714244232850603
            ]
        },
        {
            "positions": [
                -2.4914167134787544,
                -1.1241821952431994,
                1.91897240004747,
                -0.708684629766401,
                0.6621484571041252,
                -3.1118558121314965
            ]
        },
        {
            "positions": [
                -2.474808399550701,
                -1.1610190841637396,
                2.0055126516567277,
                -0.823550555256519,
                0.6642970102910207,
                -3.152287200977933
            ]
        }
    ]
}