{
    "goal": {
        "global_pose": {
            "orientation": {
                "w": -0.4816463035849501,
                "x": 0.5182115481033762,
                "y": 0.4908360881923453,
                "z": -0.5084816262002911
            },
            "position": {
                "x": -0.8240239810943604,
                "y": -0.300875300988555,
                "z": 0.16403168439865112
            }
        },
        "name": "move_to_storage_C"
    },
    "id": "BiTRRT_move_to_storage_C_130",
    "joint_names": [
        "shoulder_pan_joint",
        "shoulder_lift_joint",
        "elbow_joint",
        "wrist_1_joint",
        "wrist_2_joint",
        "wrist_3_joint"
    ],
    "metrics": {
        "cart_traj_len": 0.5769220115136314,
        "distance_elbow_joint": 0.257804922335904,
        "distance_shoulder_lift_joint": 0.18928791423034297,
        "distance_shoulder_pan_joint": 0.49587986255425065,
        "distance_wrist_1_joint": 0.07504492961919573,
        "distance_wrist_2_joint": 1.0585441241865232,
        "distance_wrist_3_joint": 0.0716310800546931,
        "smoothness": 2.5376526478085547e-16,
        "time": 0.033966095,
        "traj_len": 1.4656714614745385,
        "weighted_distance": 1.8506874525148795
    },
    "planner": "BiTRRT",
    "start": {
        "state": {
            "elbow_joint": 2.010868314990456,
            "shoulder_lift_joint": -1.1634956873337592,
            "shoulder_pan_joint": -2.4736205022346125,
            "wrist_1_joint": -0.8367026794202681,
            "wrist_2_joint": 0.6746043897044499,
            "wrist_3_joint": -3.1496632123970403
        }
    },
    "waypoints": [
        {
            "positions": [
                -2.4736205022346125,
                -1.1634956873337592,
                2.010868314990456,
                -0.8367026794202681,
                0.6746043897044499,
                -3.1496632123970403
            ]
        },
        {
            "positions": [
                -2.556267145993654,
                -1.131947701628702,
                1.9679008279344719,
                -0.8241951911504022,
                0.8510284104022038,
                -3.1377246990545915
            ]
        },
        {
            "positions": [
                -2.638913789752696,
                -1.100399715923645,
                1.9249333408784879,
                -0.8116877028805362,
                1.0274524310999578,
                -3.1257861857121427
            ]
        },
        {
            "positions": [
                -2.721560433511738,
                -1.0688517302185878,
                1.881965853822504,
                -0.7991802146106702,
                1.2038764517977114,
                -3.113847672369694
            ]
        },
        {
            "positions": [
                -2.8042070772707794,
                -1.0373037445135305,
                1.8389983667665197,
                -0.7866727263408043,
                1.3803004724954655,
                -3.1019091590272447
            ]
        },
        {
            "positions": [
                -2.8868537210298215,
                -1.0057557588084733,
                1.7960308797105358,
                -0.7741652380709383,
                1.5567244931932191,
                -3.089970645684796
            ]
        },
        {
            "positions": [
                -2.969500364788863,
                -0.9742077731034162,
                1.7530633926545518,
                -0.7616577498010724,
                1.733148513890973,
                -3.078032132342347
            ]
        }
    ]
}