{
    "goal": {
        "global_pose": {
            "orientation": {
                "w": -0.00223480608172531,
                "x": 0.0024358444001904467,
                "y": 0.7094548369677653,
                "z": -0.704743149386269
            },
            "position": {
                "x": 0.6205249238014221,
                "y": -0.6371506643295288,
                "z": 0.19426114857196808
            }
        },
        "name": "move_to_magneteinheit_B"
    },
    "id": "BiTRRT_move_to_magneteinheit_B_26",
    "joint_names": [
        "shoulder_pan_joint",
        "shoulder_lift_joint",
        "elbow_joint",
        "wrist_1_joint",
        "wrist_2_joint",
        "wrist_3_joint"
    ],
    "metrics": {
        "cart_traj_len": 4.8067990393396895,
        "distance_elbow_joint": 4.366323545196372,
        "distance_shoulder_lift_joint": 1.7325994524051285,
        "distance_shoulder_pan_joint": 3.318850414199897,
        "distance_wrist_1_joint": 4.470063576709681,
        "distance_wrist_2_joint": 1.0887588448164505,
        "distance_wrist_3_joint": 3.140204618789102,
        "smoothness": 0.028756090798669687,
        "time": 0.242139936,
        "traj_len": 4.256383494484094,
        "weighted_distance": 5.473210402608415
    },
    "planner": "BiTRRT",
    "start": {
        "state": {
            "elbow_joint": 2.6216224122426386,
            "shoulder_lift_joint": -1.4174107377796124,
            "shoulder_pan_joint": 0.7066234856936794,
            "wrist_1_joint": 1.9546482284002225,
            "wrist_2_joint": -0.7096286983471962,
            "wrist_3_joint": 0.005740856962016249
        }
    },
    "waypoints": [
        {
            "positions": [
                0.7066234856936794,
                -1.4174107377796124,
                2.6216224122426386,
                1.9546482284002225,
                -0.7096286983471962,
                0.005740856962016249
            ]
        },
        {
            "positions": [
                0.6318659388076199,
                -1.3522133403555607,
                2.5881166341254334,
                1.815505524401809,
                -0.7102608873199191,
                0.04290119564295404
            ]
        },
        {
            "positions": [
                0.5571083919215604,
                -1.2870159429315091,
                2.554610856008228,
                1.6763628204033956,
                -0.710893076292642,
                0.08006153432389183
            ]
        },
        {
            "positions": [
                0.48235084503550085,
                -1.2218185455074575,
                2.521105077891023,
                1.5372201164049824,
                -0.7115252652653649,
                0.11722187300482963
            ]
        },
        {
            "positions": [
                0.40759329814944134,
                -1.1566211480834059,
                2.487599299773817,
                1.398077412406569,
                -0.7121574542380876,
                0.15438221168576743
            ]
        },
        {
            "positions": [
                0.33283575126338183,
                -1.091423750659354,
                2.454093521656612,
                1.2589347084081555,
                -0.7127896432108105,
                0.19154255036670526
            ]
        },
        {
            "positions": [
                0.2580782043773223,
                -1.0262263532353024,
                2.4205877435394068,
                1.1197920044097422,
                -0.7134218321835334,
                0.22870288904764302
            ]
        },
        {
            "positions": [
                0.18332065749126275,
                -0.9610289558112508,
                2.3870819654222015,
                0.9806493004113287,
                -0.7140540211562563,
                0.26586322772858084
            ]
        },
        {
            "positions": [
                0.09384656370086156,
                -0.9364526340850263,
                2.241065455296829,
                0.9530790489584869,
                -0.6635244363819643,
                0.3076819672213039
            ]
        },
        {
            "positions": [
                0.07359885325588968,
                -0.94477675855791,
                2.0918498935313163,
                0.8762055286717128,
                -0.6198443678649587,
                0.3298617641542332
            ]
        },
        {
            "positions": [
                0.053351142810917795,
                -0.9531008830307938,
                1.9426343317658035,
                0.7993320083849386,
                -0.5761642993479529,
                0.35204156108716245
            ]
        },
        {
            "positions": [
                0.033103432365945915,
                -0.9614250075036774,
                1.7934187700002906,
                0.7224584880981644,
                -0.5324842308309472,
                0.3742213580200917
            ]
        },
        {
            "positions": [
                0.031323355030680976,
                -0.96891229305734,
                1.6256568412668726,
                0.6235703091279539,
                -0.48548662436479983,
                0.40668983523855046
            ]
        },
        {
            "positions": [
                0.02954327769541604,
                -0.9763995786110024,
                1.4578949125334546,
                0.5246821301577433,
                -0.4384890178986525,
                0.4391583124570092
            ]
        },
        {
            "positions": [
                0.0277632003601511,
                -0.9838868641646649,
                1.2901329838000368,
                0.4257939511875329,
                -0.3914914114325052,
                0.471626789675468
            ]
        },
        {
            "positions": [
                0.025983123024886166,
                -0.9913741497183273,
                1.1223710550666188,
                0.32690577221732237,
                -0.34449380496635784,
                0.5040952668939267
            ]
        },
        {
            "positions": [
                0.024203045689621228,
                -0.9988614352719898,
                0.9546091263332009,
                0.22801759324711193,
                -0.2974961985002105,
                0.5365637441123855
            ]
        },
        {
            "positions": [
                0.08977432082376177,
                -0.9999779084516778,
                0.8258762881795741,
                0.11527143479378019,
                -0.2697322344695847,
                0.5948650457137115
            ]
        },
        {
            "positions": [
                0.15534559595790232,
                -1.0010943816313658,
                0.6971434500259472,
                0.00252527634044844,
                -0.24196827043895897,
                0.6531663473150375
            ]
        },
        {
            "positions": [
                0.2209168710920429,
                -1.0022108548110535,
                0.5684106118723204,
                -0.1102208821128833,
                -0.2142043064083332,
                0.7114676489163635
            ]
        },
        {
            "positions": [
                0.2864881462261834,
                -1.0033273279907415,
                0.43967777371869365,
                -0.22296704056621505,
                -0.18644034237770746,
                0.7697689505176896
            ]
        },
        {
            "positions": [
                0.35205942136032403,
                -1.0044438011704295,
                0.31094493556506686,
                -0.3357131990195469,
                -0.15867637834708168,
                0.8280702521190155
            ]
        },
        {
            "positions": [
                0.41763069649446455,
                -1.0055602743501175,
                0.18221209741144007,
                -0.4484593574728786,
                -0.13091241431645595,
                0.8863715537203416
            ]
        },
        {
            "positions": [
                0.4832019716286051,
                -1.0066767475298053,
                0.05347925925781316,
                -0.5612055159262104,
                -0.10314845028583017,
                0.9446728553216676
            ]
        },
        {
            "positions": [
                0.5487732467627455,
                -1.0077932207094933,
                -0.07525357889581363,
                -0.6739516743795421,
                -0.07538448625520444,
                1.0029741569229935
            ]
        },
        {
            "positions": [
                0.6143445218968863,
                -1.0089096938891813,
                -0.2039864170494405,
                -0.7866978328328738,
                -0.04762052222457865,
                1.0612754585243196
            ]
        },
        {
            "positions": [
                0.711985815135172,
                -1.0430912361602294,
                -0.28693061798505515,
                -0.8804280692365088,
                -0.048588403297836355,
                1.14313695722696
            ]
        },
        {
            "positions": [
                0.8096271083734577,
                -1.0772727784312774,
                -0.36987481892066987,
                -0.9741583056401439,
                -0.04955628437109405,
                1.2249984559296003
            ]
        },
        {
            "positions": [
                0.9072684016117436,
                -1.1114543207023253,
                -0.4528190198562845,
                -1.0678885420437791,
                -0.050524165444351746,
                1.3068599546322408
            ]
        },
        {
            "positions": [
                1.0049096948500293,
                -1.1456358629733734,
                -0.5357632207918992,
                -1.1616187784474141,
                -0.05149204651760945,
                1.388721453334881
            ]
        },
        {
            "positions": [
                1.102550988088315,
                -1.1798174052444215,
                -0.6187074217275139,
                -1.2553490148510493,
                -0.05245992759086715,
                1.4705829520375215
            ]
        },
        {
            "positions": [
                1.2001922813266008,
                -1.2139989475154696,
                -0.7016516226631285,
                -1.3490792512546843,
                -0.053427808664124846,
                1.5524444507401618
            ]
        },
        {
            "positions": [
                1.2978335745648866,
                -1.2481804897865176,
                -0.7845958235987432,
                -1.4428094876583195,
                -0.05439568973738254,
                1.6343059494428023
            ]
        },
        {
            "positions": [
                1.3954748678031723,
                -1.2823620320575655,
                -0.8675400245343579,
                -1.5365397240619547,
                -0.05536357081064024,
                1.7161674481454425
            ]
        },
        {
            "positions": [
                1.493116161041458,
                -1.3165435743286136,
                -0.9504842254699726,
                -1.63026996046559,
                -0.056331451883897946,
                1.798028946848083
            ]
        },
        {
            "positions": [
                1.590757454279744,
                -1.3507251165996617,
                -1.0334284264055873,
                -1.7240001968692251,
                -0.05729933295715564,
                1.8798904455507235
            ]
        },
        {
            "positions": [
                1.68839874751803,
                -1.3849066588707097,
                -1.116372627341202,
                -1.81773043327286,
                -0.058267214030413336,
                1.961751944253364
            ]
        },
        {
            "positions": [
                1.7860400407563155,
                -1.4190882011417576,
                -1.1993168282768165,
                -1.911460669676495,
                -0.05923509510367104,
                2.043613442956004
            ]
        },
        {
            "positions": [
                1.883681333994601,
                -1.4532697434128057,
                -1.2822610292124312,
                -2.0051909060801303,
                -0.06020297617692874,
                2.1254749416586445
            ]
        },
        {
            "positions": [
                1.981322627232887,
                -1.4874512856838538,
                -1.365205230148046,
                -2.0989211424837655,
                -0.061170857250186436,
                2.207336440361285
            ]
        },
        {
            "positions": [
                2.078963920471173,
                -1.5216328279549018,
                -1.4481494310836607,
                -2.1926513788874002,
                -0.06213873832344413,
                2.2891979390639254
            ]
        },
        {
            "positions": [
                2.1766052137094585,
                -1.5558143702259497,
                -1.5310936320192752,
                -2.2863816152910355,
                -0.06310661939670184,
                2.371059437766566
            ]
        },
        {
            "positions": [
                2.2742465069477444,
                -1.5899959124969978,
                -1.61403783295489,
                -2.3801118516946707,
                -0.06407450046995954,
                2.452920936469206
            ]
        },
        {
            "positions": [
                2.37188780018603,
                -1.6241774547680459,
                -1.6969820338905046,
                -2.473842088098306,
                -0.06504238154321723,
                2.5347824351718464
            ]
        },
        {
            "positions": [
                2.433753721748131,
                -1.751799711089731,
                -1.695049102959971,
                -2.476177492889898,
                -0.14552058823830072,
                2.656627953179443
            ]
        },
        {
            "positions": [
                2.4956196433102313,
                -1.879421967411416,
                -1.6931161720294372,
                -2.4785128976814903,
                -0.2259987949333842,
                2.7784734711870387
            ]
        },
        {
            "positions": [
                2.5574855648723323,
                -2.007044223733101,
                -1.6911832410989036,
                -2.4808483024730825,
                -0.3064770016284677,
                2.900318989194635
            ]
        },
        {
            "positions": [
                2.619351486434433,
                -2.1346664800547863,
                -1.68925031016837,
                -2.4831837072646747,
                -0.3869552083235512,
                3.0221645072022314
            ]
        },
        {
            "positions": [
                2.66063301988546,
                -2.1880939827955688,
                -1.649262934827274,
                -2.4509520662198936,
                -0.46552054530029063,
                3.1459454757511183
            ]
        }
    ]
}