{
    "goal": {
        "global_pose": {
            "orientation": {
                "w": 0.5084816217422485,
                "x": -0.49083608388900757,
                "y": 0.5182115435600281,
                "z": -0.4816462993621826
            },
            "position": {
                "x": 0.5540239810943604,
                "y": 0.030875300988554955,
                "z": 0.16403168439865112
            }
        },
        "name": "move_to_storage_A"
    },
    "id": "BiTRRT_move_to_storage_A_22",
    "joint_names": [
        "shoulder_pan_joint",
        "shoulder_lift_joint",
        "elbow_joint",
        "wrist_1_joint",
        "wrist_2_joint",
        "wrist_3_joint"
    ],
    "metrics": {
        "cart_traj_len": 0.35312327916610015,
        "distance_elbow_joint": 0.45324104476183247,
        "distance_shoulder_lift_joint": 0.23255127860300373,
        "distance_shoulder_pan_joint": 0.46275352773373196,
        "distance_wrist_1_joint": 0.262443929144618,
        "distance_wrist_2_joint": 1.093711811008808,
        "distance_wrist_3_joint": 0.10853982258916872,
        "smoothness": 1.1102230298998083e-15,
        "time": 0.038055528,
        "traj_len": 1.6165523232611938,
        "weighted_distance": 2.0460881699411013
    },
    "planner": "BiTRRT",
    "start": {
        "state": {
            "elbow_joint": 1.971548259319323,
            "shoulder_lift_joint": -1.1394851275133948,
            "shoulder_pan_joint": 0.1228115487234821,
            "wrist_1_joint": -0.7804723859257726,
            "wrist_2_joint": 0.12958671773740124,
            "wrist_3_joint": -3.192489227718131
        }
    },
    "waypoints": [
        {
            "positions": [
                0.1228115487234821,
                -1.1394851275133948,
                1.971548259319323,
                -0.7804723859257726,
                0.12958671773740124,
                -3.192489227718131
            ]
        },
        {
            "positions": [
                0.05670390190437753,
                -1.1727067387423953,
                2.0362969799995847,
                -0.8179643758035752,
                0.285831262167231,
                -3.1769835387768213
            ]
        },
        {
            "positions": [
                -0.009403744914727036,
                -1.205928349971396,
                2.1010457006798466,
                -0.8554563656813777,
                0.4420758065970607,
                -3.1614778498355114
            ]
        },
        {
            "positions": [
                -0.07551139173383159,
                -1.2391499612003964,
                2.165794421360108,
                -0.8929483555591803,
                0.5983203510268904,
                -3.1459721608942015
            ]
        },
        {
            "positions": [
                -0.14161903855293617,
                -1.272371572429397,
                2.23054314204037,
                -0.930440345436983,
                0.7545648954567201,
                -3.130466471952892
            ]
        },
        {
            "positions": [
                -0.20772668537204075,
                -1.3055931836583974,
                2.295291862720632,
                -0.9679323353147855,
                0.9108094398865498,
                -3.114960783011582
            ]
        },
        {
            "positions": [
                -0.2738343321911453,
                -1.338814794887398,
                2.3600405834008935,
                -1.005424325192588,
                1.0670539843163795,
                -3.0994550940702723
            ]
        },
        {
            "positions": [
                -0.33994197901024986,
                -1.3720364061163985,
                2.4247893040811554,
                -1.0429163150703906,
                1.2232985287462093,
                -3.0839494051289624
            ]
        }
    ]
}{
    "goal": {
        "global_pose": {
            "orientation": {
                "w": 0.5084816217422485,
                "x": -0.49083608388900757,
                "y": 0.5182115435600281,
                "z": -0.4816462993621826
            },
            "position": {
                "x": 0.5540239810943604,
                "y": 0.030875300988554955,
                "z": 0.16403168439865112
            }
        },
        "name": "move_to_storage_A"
    },
    "id": "BiTRRT_move_to_storage_A_22",
    "joint_names": [
        "shoulder_pan_joint",
        "shoulder_lift_joint",
        "elbow_joint",
        "wrist_1_joint",
        "wrist_2_joint",
        "wrist_3_joint"
    ],
    "metrics": {
        "cart_traj_len": 0.3534235426244723,
        "distance_elbow_joint": 0.4528375482885463,
        "distance_shoulder_lift_joint": 0.23223657927099906,
        "distance_shoulder_pan_joint": 0.4610867483239828,
        "distance_wrist_1_joint": 0.2603997710443131,
        "distance_wrist_2_joint": 1.103066233223937,
        "distance_wrist_3_joint": 0.09155050967354095,
        "smoothness": 2.2204460668324854e-16,
        "time": 0.042041395999999995,
        "traj_len": 1.6128166014229017,
        "weighted_distance": 2.036601191554363
    },
    "planner": "BiTRRT",
    "start": {
        "state": {
            "elbow_joint": 1.97154746011099,
            "shoulder_lift_joint": -1.13948474672311,
            "shoulder_pan_joint": 0.12281154466712228,
            "wrist_1_joint": -0.7804688027058302,
            "wrist_2_joint": 0.12958655903071145,
            "wrist_3_joint": 3.0906928834467795
        }
    },
    "waypoints": [
        {
            "positions": [
                0.12281154466712228,
                -1.13948474672311,
                1.97154746011099,
                -0.7804688027058302,
                0.12958655903071145,
                3.0906928834467795
            ]
        },
        {
            "positions": [
                0.056942009192267606,
                -1.1726614009046812,
                2.036238538437925,
                -0.817668769997875,
                0.2871674494912739,
                3.103771527685857
            ]
        },
        {
            "positions": [
                -0.00892752628258707,
                -1.2058380550862526,
                2.1009296167648603,
                -0.8548687372899196,
                0.44474833995183627,
                3.116850171924934
            ]
        },
        {
            "positions": [
                -0.07479706175744176,
                -1.2390147092678239,
                2.1656206950917953,
                -0.8920687045819644,
                0.6023292304123987,
                3.1299288161640115
            ]
        },
        {
            "positions": [
                -0.1406665972322964,
                -1.272191363449395,
                2.2303117734187308,
                -0.9292686718740091,
                0.7599101208729612,
                3.1430074604030884
            ]
        },
        {
            "positions": [
                -0.2065361327071511,
                -1.3053680176309665,
                2.2950028517456658,
                -0.9664686391660539,
                0.9174910113335236,
                3.1560861046421658
            ]
        },
        {
            "positions": [
                -0.2724056681820058,
                -1.3385446718125378,
                2.359693930072601,
                -1.0036686064580986,
                1.075071901794086,
                3.169164748881243
            ]
        },
        {
            "positions": [
                -0.3382752036568605,
                -1.371721325994109,
                2.424385008399536,
                -1.0408685737501433,
                1.2326527922546484,
                3.1822433931203205
            ]
        }
    ]
}{
    "goal": {
        "global_pose": {
            "orientation": {
                "w": 0.5084816217422485,
                "x": -0.49083608388900757,
                "y": 0.5182115435600281,
                "z": -0.4816462993621826
            },
            "position": {
                "x": 0.5540239810943604,
                "y": 0.030875300988554955,
                "z": 0.16403168439865112
            }
        },
        "name": "move_to_storage_A"
    },
    "id": "BiTRRT_move_to_storage_A_22",
    "joint_names": [
        "shoulder_pan_joint",
        "shoulder_lift_joint",
        "elbow_joint",
        "wrist_1_joint",
        "wrist_2_joint",
        "wrist_3_joint"
    ],
    "metrics": {
        "cart_traj_len": 0.35280910078074434,
        "distance_elbow_joint": 0.45085263616879523,
        "distance_shoulder_lift_joint": 0.2362241329526673,
        "distance_shoulder_pan_joint": 0.46211909717503624,
        "distance_wrist_1_joint": 0.23924842719546668,
        "distance_wrist_2_joint": 1.0964208590979878,
        "distance_wrist_3_joint": 0.09204941768882335,
        "smoothness": 8.881784232165597e-16,
        "time": 0.028373258000000002,
        "traj_len": 1.6052771007769273,
        "weighted_distance": 2.024026356535378
    },
    "planner": "BiTRRT",
    "start": {
        "state": {
            "elbow_joint": 1.9715472970024885,
            "shoulder_lift_joint": -1.1394870060712896,
            "shoulder_pan_joint": 0.12281152778156021,
            "wrist_1_joint": -0.780463741449964,
            "wrist_2_joint": 0.12958659822042276,
            "wrist_3_joint": 3.090690232415272
        }
    },
    "waypoints": [
        {
            "positions": [
                0.12281152778156021,
                -1.1394870060712896,
                1.9715472970024885,
                -0.780463741449964,
                0.12958659822042276,
                3.090690232415272
            ]
        },
        {
            "positions": [
                0.05679451389941219,
                -1.1732333107788135,
                2.0359548164551735,
                -0.8146420881921735,
                0.2862181495201353,
                3.103840149227961
            ]
        },
        {
            "positions": [
                -0.009222499982735832,
                -1.2069796154863375,
                2.1003623359078585,
                -0.8488204349343831,
                0.44284970081984787,
                3.1169900660406498
            ]
        },
        {
            "positions": [
                -0.07523951386488387,
                -1.2407259201938614,
                2.1647698553605434,
                -0.8829987816765925,
                0.5994812521195604,
                3.130139982853339
            ]
        },
        {
            "positions": [
                -0.14125652774703187,
                -1.2744722249013851,
                2.2291773748132284,
                -0.9171771284188021,
                0.7561128034192729,
                3.143289899666028
            ]
        },
        {
            "positions": [
                -0.2072735416291799,
                -1.308218529608909,
                2.293584894265914,
                -0.9513554751610116,
                0.9127443547189855,
                3.1564398164787173
            ]
        },
        {
            "positions": [
                -0.27329055551132797,
                -1.341964834316433,
                2.357992413718599,
                -0.9855338219032211,
                1.069375906018698,
                3.169589733291406
            ]
        },
        {
            "positions": [
                -0.339307569393476,
                -1.375711139023957,
                2.4223999331712838,
                -1.0197121686454307,
                1.2260074573184105,
                3.182739650104095
            ]
        }
    ]
}