{
    "goal": {
        "global_pose": {
            "orientation": {
                "w": -0.00223480608172531,
                "x": 0.0024358444001904467,
                "y": 0.7094548369677653,
                "z": -0.704743149386269
            },
            "position": {
                "x": -0.37947507619857795,
                "y": -0.6371506643295288,
                "z": 0.19426114857196808
            }
        },
        "name": "move_to_magneteinheit_C"
    },
    "id": "BiTRRT_move_to_magneteinheit_C_37",
    "joint_names": [
        "shoulder_pan_joint",
        "shoulder_lift_joint",
        "elbow_joint",
        "wrist_1_joint",
        "wrist_2_joint",
        "wrist_3_joint"
    ],
    "metrics": {
        "cart_traj_len": 2.6343881173062793,
        "distance_elbow_joint": 3.1374893406656565,
        "distance_shoulder_lift_joint": 0.9372565297079372,
        "distance_shoulder_pan_joint": 1.7641928193513177,
        "distance_wrist_1_joint": 1.5246003424002015,
        "distance_wrist_2_joint": 1.3028794481829538,
        "distance_wrist_3_joint": 3.085934573641894,
        "smoothness": 0.6168972587965984,
        "time": 0.11917741600000001,
        "traj_len": 3.4281705112129353,
        "weighted_distance": 4.555403603613724
    },
    "planner": "BiTRRT",
    "start": {
        "state": {
            "elbow_joint": 1.9565354010623817,
            "shoulder_lift_joint": -1.4165861575791021,
            "shoulder_pan_joint": -1.6717766225146293,
            "wrist_1_joint": -0.5286633292919765,
            "wrist_2_joint": 1.472756589071564,
            "wrist_3_joint": -3.1238370188695823
        }
    },
    "waypoints": [
        {
            "positions": [
                -1.6717766225146293,
                -1.4165861575791021,
                1.9565354010623817,
                -0.5286633292919765,
                1.472756589071564,
                -3.1238370188695823
            ]
        },
        {
            "positions": [
                -1.5964586669648066,
                -1.4291321216470396,
                1.932222213515906,
                -0.4854885302482248,
                1.4008874241486087,
                -3.0132444876570488
            ]
        },
        {
            "positions": [
                -1.521140711414984,
                -1.441678085714977,
                1.90790902596943,
                -0.44231373120447315,
                1.3290182592256534,
                -2.9026519564445157
            ]
        },
        {
            "positions": [
                -1.4458227558651613,
                -1.4542240497829142,
                1.8835958384229543,
                -0.39913893216072144,
                1.2571490943026982,
                -2.792059425231982
            ]
        },
        {
            "positions": [
                -1.3705048003153384,
                -1.4667700138508517,
                1.8592826508764786,
                -0.3559641331169698,
                1.185279929379743,
                -2.6814668940194486
            ]
        },
        {
            "positions": [
                -1.2951868447655157,
                -1.4793159779187892,
                1.8349694633300027,
                -0.3127893340732181,
                1.1134107644567877,
                -2.570874362806915
            ]
        },
        {
            "positions": [
                -1.219868889215693,
                -1.4918619419867265,
                1.810656275783527,
                -0.2696145350294664,
                1.0415415995338324,
                -2.460281831594382
            ]
        },
        {
            "positions": [
                -1.2286152060491486,
                -1.4679794048979398,
                1.7179895005581518,
                -0.21465014165042284,
                0.9747559721779274,
                -2.3402376187792444
            ]
        },
        {
            "positions": [
                -1.2373615228826043,
                -1.444096867809153,
                1.6253227253327769,
                -0.15968574827137924,
                0.9079703448220224,
                -2.2201934059641064
            ]
        },
        {
            "positions": [
                -1.2461078397160599,
                -1.4202143307203663,
                1.5326559501074017,
                -0.10472135489233564,
                0.8411847174661174,
                -2.100149193148969
            ]
        },
        {
            "positions": [
                -1.2548541565495155,
                -1.3963317936315796,
                1.4399891748820268,
                -0.049756961513292064,
                0.7743990901102125,
                -1.9801049803338313
            ]
        },
        {
            "positions": [
                -1.263600473382971,
                -1.3724492565427928,
                1.3473223996566515,
                0.005207431865751566,
                0.7076134627543075,
                -1.8600607675186933
            ]
        },
        {
            "positions": [
                -1.2723467902164267,
                -1.348566719454006,
                1.2546556244312765,
                0.06017182524479513,
                0.6408278353984025,
                -1.7400165547035558
            ]
        },
        {
            "positions": [
                -1.4101336766767338,
                -1.284145497459554,
                1.1346466778170827,
                0.06374999968070276,
                0.6692509577348386,
                -1.719129413193508
            ]
        },
        {
            "positions": [
                -1.5479205631370412,
                -1.219724275465102,
                1.0146377312028891,
                0.06732817411661038,
                0.6976740800712745,
                -1.6982422716834602
            ]
        },
        {
            "positions": [
                -1.6857074495973485,
                -1.15530305347065,
                0.8946287845886953,
                0.07090634855251801,
                0.7260972024077106,
                -1.6773551301734124
            ]
        },
        {
            "positions": [
                -1.8234943360576557,
                -1.0908818314761983,
                0.7746198379745015,
                0.07448452298842563,
                0.7545203247441465,
                -1.6564679886633644
            ]
        },
        {
            "positions": [
                -1.961281222517963,
                -1.0264606094817463,
                0.6546108913603078,
                0.07806269742433326,
                0.7829434470805826,
                -1.6355808471533166
            ]
        },
        {
            "positions": [
                -2.09906810897827,
                -0.9620393874872943,
                0.5346019447461141,
                0.08164087186024088,
                0.8113665694170186,
                -1.6146937056432689
            ]
        },
        {
            "positions": [
                -2.2368549954385775,
                -0.8976181654928423,
                0.41459299813192035,
                0.08521904629614852,
                0.8397896917534546,
                -1.593806564133221
            ]
        },
        {
            "positions": [
                -2.273371387175161,
                -0.9081735362321927,
                0.5535239068157631,
                0.023355191339723427,
                0.8437924925649986,
                -1.7027841507655854
            ]
        },
        {
            "positions": [
                -2.3098877789117447,
                -0.9187289069715429,
                0.692454815499606,
                -0.03850866361670166,
                0.8477952933765424,
                -1.8117617373979498
            ]
        },
        {
            "positions": [
                -2.346404170648328,
                -0.9292842777108932,
                0.8313857241834488,
                -0.10037251857312676,
                0.8517980941880863,
                -1.9207393240303139
            ]
        },
        {
            "positions": [
                -2.382920562384912,
                -0.9398396484502435,
                0.9703166328672916,
                -0.16223637352955184,
                0.8558008949996301,
                -2.0297169106626782
            ]
        },
        {
            "positions": [
                -2.4194369541214953,
                -0.9503950191895938,
                1.1092475415511345,
                -0.22410022848597694,
                0.859803695811174,
                -2.1386944972950426
            ]
        },
        {
            "positions": [
                -2.455953345858079,
                -0.960950389928944,
                1.2481784502349773,
                -0.28596408344240204,
                0.8638064966227178,
                -2.247672083927407
            ]
        },
        {
            "positions": [
                -2.4924697375946625,
                -0.9715057606682943,
                1.3871093589188201,
                -0.34782793839882714,
                0.8678092974342617,
                -2.3566496705597713
            ]
        },
        {
            "positions": [
                -2.4945010851927134,
                -0.9758327734800526,
                1.474517101011457,
                -0.4141246917513498,
                0.8249769148516023,
                -2.4906558177432094
            ]
        },
        {
            "positions": [
                -2.4965324327907643,
                -0.9801597862918109,
                1.561924843104094,
                -0.4804214451038725,
                0.7821445322689429,
                -2.624661964926647
            ]
        },
        {
            "positions": [
                -2.4985637803888148,
                -0.9844867991035693,
                1.6493325851967306,
                -0.5467181984563951,
                0.7393121496862834,
                -2.7586681121100853
            ]
        },
        {
            "positions": [
                -2.5005951279868657,
                -0.9888138119153276,
                1.7367403272893676,
                -0.6130149518089179,
                0.696479767103624,
                -2.892674259293523
            ]
        },
        {
            "positions": [
                -2.5026264755849166,
                -0.9931408247270859,
                1.8241480693820045,
                -0.6793117051614406,
                0.6536473845209646,
                -3.0266804064769612
            ]
        },
        {
            "positions": [
                -2.4878627257433377,
                -1.0792479795131784,
                1.9171440026245596,
                -0.7524053128386845,
                0.6685510443012824,
                -3.0881955447578573
            ]
        },
        {
            "positions": [
                -2.4730989759017588,
                -1.165355134299271,
                2.0101399358671146,
                -0.8254989205159283,
                0.6834547040816003,
                -3.149710683038754
            ]
        }
    ]
}