{
    "goal": {
        "global_pose": {
            "orientation": {
                "w": -0.00223480608172531,
                "x": 0.0024358444001904467,
                "y": 0.7094548369677653,
                "z": -0.704743149386269
            },
            "position": {
                "x": 0.6205249238014221,
                "y": -0.6371506643295288,
                "z": 0.19426114857196808
            }
        },
        "name": "move_to_magneteinheit_B"
    },
    "id": "BKPIECE_move_to_magneteinheit_B_110",
    "joint_names": [
        "shoulder_pan_joint",
        "shoulder_lift_joint",
        "elbow_joint",
        "wrist_1_joint",
        "wrist_2_joint",
        "wrist_3_joint"
    ],
    "metrics": {
        "cart_traj_len": 3.3439701902899173,
        "distance_elbow_joint": 4.745923819316911,
        "distance_shoulder_lift_joint": 1.0593405071944968,
        "distance_shoulder_pan_joint": 2.2793107741883243,
        "distance_wrist_1_joint": 3.329693252537375,
        "distance_wrist_2_joint": 1.1821561083433507,
        "distance_wrist_3_joint": 1.2925983522812192,
        "smoothness": 0.2225637173279138,
        "time": 0.398380829,
        "traj_len": 3.726797930376917,
        "weighted_distance": 4.581055432900243
    },
    "planner": "BKPIECE",
    "start": {
        "state": {
            "elbow_joint": 2.6216224122426386,
            "shoulder_lift_joint": -1.4174107377796124,
            "shoulder_pan_joint": 0.7066234856936794,
            "wrist_1_joint": 1.9546482284002225,
            "wrist_2_joint": -0.7096286983471962,
            "wrist_3_joint": 0.005740856962016249
        }
    },
    "waypoints": [
        {
            "positions": [
                0.7066234856936794,
                -1.4174107377796124,
                2.6216224122426386,
                1.9546482284002225,
                -0.7096286983471962,
                0.005740856962016249
            ]
        },
        {
            "positions": [
                0.6254571422177266,
                -1.4587965565805214,
                2.5736359769945505,
                1.950697349385868,
                -0.7087908623915744,
                -0.2122070538987017
            ]
        },
        {
            "positions": [
                0.5442907987417738,
                -1.5001823753814305,
                2.525649541746463,
                1.9467464703715134,
                -0.7079530264359525,
                -0.43015496475941967
            ]
        },
        {
            "positions": [
                0.5501093089717949,
                -1.512304787022634,
                2.3569613639070415,
                1.8356343812526643,
                -0.6885976134593051,
                -0.45487644490032064
            ]
        },
        {
            "positions": [
                0.5559278192018161,
                -1.5244271986638376,
                2.18827318606762,
                1.724522292133815,
                -0.6692422004826577,
                -0.4795979250412216
            ]
        },
        {
            "positions": [
                0.5617463294318372,
                -1.5365496103050411,
                2.0195850082281988,
                1.613410203014966,
                -0.6498867875060104,
                -0.5043194051821226
            ]
        },
        {
            "positions": [
                0.5675648396618583,
                -1.5486720219462446,
                1.8508968303887778,
                1.502298113896117,
                -0.630531374529363,
                -0.5290408853230236
            ]
        },
        {
            "positions": [
                0.5733833498918796,
                -1.5607944335874482,
                1.6822086525493565,
                1.3911860247772676,
                -0.6111759615527156,
                -0.5537623654639245
            ]
        },
        {
            "positions": [
                0.5792018601219007,
                -1.5729168452286517,
                1.5135204747099351,
                1.2800739356584185,
                -0.5918205485760683,
                -0.5784838456048256
            ]
        },
        {
            "positions": [
                0.6647885940434878,
                -1.5934933506319464,
                1.3248911394201204,
                1.1978902520060861,
                -0.5882876772655434,
                -0.5815776454661707
            ]
        },
        {
            "positions": [
                0.7503753279650749,
                -1.6140698560352413,
                1.1362618041303056,
                1.1157065683537537,
                -0.5847548059550187,
                -0.5846714453275158
            ]
        },
        {
            "positions": [
                0.8359620618866621,
                -1.634646361438536,
                0.9476324688404907,
                1.033522884701421,
                -0.5812219346444939,
                -0.587765245188861
            ]
        },
        {
            "positions": [
                0.9215487958082492,
                -1.6552228668418307,
                0.759003133550676,
                0.9513392010490886,
                -0.5776890633339692,
                -0.590859045050206
            ]
        },
        {
            "positions": [
                1.0071355297298363,
                -1.6757993722451257,
                0.570373798260861,
                0.8691555173967562,
                -0.5741561920234444,
                -0.5939528449115512
            ]
        },
        {
            "positions": [
                1.0927222636514236,
                -1.6963758776484203,
                0.38174446297104625,
                0.7869718337444238,
                -0.5706233207129195,
                -0.5970466447728963
            ]
        },
        {
            "positions": [
                1.1783089975730108,
                -1.716952383051715,
                0.1931151276812315,
                0.7047881500920913,
                -0.5670904494023948,
                -0.6001404446342414
            ]
        },
        {
            "positions": [
                1.2638957314945978,
                -1.73752888845501,
                0.004485792391416776,
                0.6226044664397589,
                -0.56355757809187,
                -0.6032342444955865
            ]
        },
        {
            "positions": [
                1.349482465416185,
                -1.7581053938583047,
                -0.18414354289839818,
                0.5404207827874263,
                -0.5600247067813453,
                -0.6063280443569317
            ]
        },
        {
            "positions": [
                1.4350691993377722,
                -1.7786818992615994,
                -0.37277287818821314,
                0.4582370991350938,
                -0.5564918354708205,
                -0.6094218442182768
            ]
        },
        {
            "positions": [
                1.5206559332593592,
                -1.7992584046648943,
                -0.5614022134780279,
                0.3760534154827613,
                -0.5529589641602957,
                -0.6125156440796219
            ]
        },
        {
            "positions": [
                1.6062426671809464,
                -1.819834910068189,
                -0.7500315487678426,
                0.29386973183042897,
                -0.549426092849771,
                -0.6156094439409671
            ]
        },
        {
            "positions": [
                1.6918294011025337,
                -1.8404114154714837,
                -0.9386608840576574,
                0.21168604817809644,
                -0.5458932215392461,
                -0.6187032438023121
            ]
        },
        {
            "positions": [
                1.7774161350241207,
                -1.8609879208747786,
                -1.127290219347472,
                0.12950236452576402,
                -0.5423603502287213,
                -0.6217970436636573
            ]
        },
        {
            "positions": [
                1.8630028689457079,
                -1.8815644262780733,
                -1.3159195546372873,
                0.047318680873431385,
                -0.5388274789181966,
                -0.6248908435250023
            ]
        },
        {
            "positions": [
                1.9485896028672949,
                -1.902140931681368,
                -1.5045488899271016,
                -0.03486500277890081,
                -0.5352946076076718,
                -0.6279846433863475
            ]
        },
        {
            "positions": [
                2.034176336788882,
                -1.922717437084663,
                -1.6931782252169167,
                -0.11704868643123345,
                -0.5317617362971471,
                -0.6310784432476926
            ]
        },
        {
            "positions": [
                2.1197630707104693,
                -1.9432939424879576,
                -1.8818075605067315,
                -0.19923237008356579,
                -0.5282288649866222,
                -0.6341722431090377
            ]
        },
        {
            "positions": [
                2.186875110696471,
                -1.9949062586009767,
                -1.8869051020890784,
                -0.09928544272863567,
                -0.4394611350504059,
                -0.5744291647180566
            ]
        },
        {
            "positions": [
                2.253987150682472,
                -2.046518574713996,
                -1.8920026436714255,
                0.0006614846262944507,
                -0.35069340511418956,
                -0.5146860863270756
            ]
        },
        {
            "positions": [
                2.3210991906684733,
                -2.098130890827015,
                -1.8971001852537723,
                0.10060841198122455,
                -0.2619256751779732,
                -0.45494300793609443
            ]
        },
        {
            "positions": [
                2.363620402582188,
                -2.145458435095402,
                -1.86870003252621,
                0.21010489597982415,
                -0.17011903953120724,
                -0.3957610058064417
            ]
        },
        {
            "positions": [
                2.406141614495903,
                -2.1927859793637885,
                -1.8402998797986476,
                0.31960137997842375,
                -0.07831240388444127,
                -0.336579003676789
            ]
        },
        {
            "positions": [
                2.4486628264096177,
                -2.2401135236321754,
                -1.8118997270710855,
                0.4290978639770234,
                0.013494231762324727,
                -0.27739700154713626
            ]
        },
        {
            "positions": [
                2.4911840383233326,
                -2.287441067900562,
                -1.7834995743435231,
                0.538594347975623,
                0.10530086740909067,
                -0.21821499941748354
            ]
        },
        {
            "positions": [
                2.533705250237048,
                -2.334768612168949,
                -1.7550994216159608,
                0.6480908319742225,
                0.19710750305585661,
                -0.15903299728783082
            ]
        },
        {
            "positions": [
                2.5762264621507627,
                -2.3820961564373357,
                -1.7266992688883986,
                0.7575873159728221,
                0.28891413870262267,
                -0.09985099515817808
            ]
        },
        {
            "positions": [
                2.6187476740644775,
                -2.4294237007057222,
                -1.6982991161608363,
                0.8670837999714218,
                0.3807207743493886,
                -0.04066899302852539
            ]
        },
        {
            "positions": [
                2.6612688859781923,
                -2.476751244974109,
                -1.669898963433274,
                0.9765802839700213,
                0.4725274099961546,
                0.01851300910112736
            ]
        }
    ]
}