{
    "goal": {
        "global_pose": {
            "orientation": {
                "w": 0.5084816262002911,
                "x": -0.4908360881923452,
                "y": 0.5182115481033761,
                "z": -0.48164630358495003
            },
            "position": {
                "x": 0.5540239810943604,
                "y": -0.46912469901144505,
                "z": 0.16403168439865112
            }
        },
        "name": "move_to_storage_B"
    },
    "id": "BKPIECE_move_to_storage_B_74",
    "joint_names": [
        "shoulder_pan_joint",
        "shoulder_lift_joint",
        "elbow_joint",
        "wrist_1_joint",
        "wrist_2_joint",
        "wrist_3_joint"
    ],
    "metrics": {
        "cart_traj_len": 0.8403884367390096,
        "distance_elbow_joint": 0.3479019117917366,
        "distance_shoulder_lift_joint": 0.45845962405927976,
        "distance_shoulder_pan_joint": 0.6393108427396131,
        "distance_wrist_1_joint": 2.9834707047823215,
        "distance_wrist_2_joint": 2.7012172660095817,
        "distance_wrist_3_joint": 3.398727739056608,
        "smoothness": 0.24440812341117857,
        "time": 0.136842182,
        "traj_len": 3.2448556344526547,
        "weighted_distance": 4.797002349107644
    },
    "planner": "BKPIECE",
    "start": {
        "state": {
            "elbow_joint": 1.664937868594044,
            "shoulder_lift_joint": -0.661644460510453,
            "shoulder_pan_joint": -0.9139846352900073,
            "wrist_1_joint": 2.146753192139373,
            "wrist_2_joint": -2.2341966793290973,
            "wrist_3_joint": 0.005466555786416001
        }
    },
    "waypoints": [
        {
            "positions": [
                -0.9139846352900073,
                -0.661644460510453,
                1.664937868594044,
                2.146753192139373,
                -2.2341966793290973,
                0.005466555786416001
            ]
        },
        {
            "positions": [
                -0.7993370395883984,
                -0.7502739883538716,
                1.686026502826206,
                2.116721021229892,
                -2.161075236282244,
                0.06970171254138709
            ]
        },
        {
            "positions": [
                -0.6846894438867895,
                -0.8389035161972902,
                1.7071151370583681,
                2.086688850320411,
                -2.087953793235391,
                0.13393686929635817
            ]
        },
        {
            "positions": [
                -0.7010900699402454,
                -0.8501515389321879,
                1.7193441227914645,
                1.9697525958018767,
                -1.9857548180387559,
                0.0031265722744915347
            ]
        },
        {
            "positions": [
                -0.7174906959937012,
                -0.8613995616670856,
                1.7315731085245611,
                1.8528163412833423,
                -1.8835558428421209,
                -0.1276837247473751
            ]
        },
        {
            "positions": [
                -0.733891322047157,
                -0.8726475844019833,
                1.7438020942576575,
                1.735880086764808,
                -1.7813568676454858,
                -0.2584940217692417
            ]
        },
        {
            "positions": [
                -0.7502919481006128,
                -0.883895607136881,
                1.7560310799907541,
                1.6189438322462735,
                -1.6791578924488508,
                -0.3893043187911084
            ]
        },
        {
            "positions": [
                -0.7666925741540687,
                -0.8951436298717788,
                1.7682600657238505,
                1.5020075777277393,
                -1.5769589172522158,
                -0.520114615812975
            ]
        },
        {
            "positions": [
                -0.7830932002075244,
                -0.9063916526066764,
                1.7804890514569471,
                1.385071323209205,
                -1.4747599420555808,
                -0.6509249128348416
            ]
        },
        {
            "positions": [
                -0.7994938262609803,
                -0.9176396753415741,
                1.7927180371900435,
                1.2681350686906705,
                -1.3725609668589458,
                -0.7817352098567084
            ]
        },
        {
            "positions": [
                -0.815894452314436,
                -0.9288876980764719,
                1.8049470229231401,
                1.151198814172136,
                -1.2703619916623108,
                -0.9125455068785749
            ]
        },
        {
            "positions": [
                -0.8322950783678918,
                -0.9401357208113695,
                1.8171760086562365,
                1.0342625596536017,
                -1.1681630164656758,
                -1.0433558039004414
            ]
        },
        {
            "positions": [
                -0.8486957044213477,
                -0.9513837435462672,
                1.8294049943893331,
                0.9173263051350673,
                -1.0659640412690408,
                -1.1741661009223083
            ]
        },
        {
            "positions": [
                -0.8650963304748035,
                -0.962631766281165,
                1.8416339801224295,
                0.8003900506165329,
                -0.9637650660724058,
                -1.3049763979441749
            ]
        },
        {
            "positions": [
                -0.8814969565282593,
                -0.9738797890160626,
                1.8538629658555261,
                0.6834537960979987,
                -0.8615660908757707,
                -1.4357866949660414
            ]
        },
        {
            "positions": [
                -0.8978975825817151,
                -0.9851278117509603,
                1.8660919515886225,
                0.5665175415794641,
                -0.7593671156791357,
                -1.5665969919879084
            ]
        },
        {
            "positions": [
                -0.914298208635171,
                -0.996375834485858,
                1.8783209373217191,
                0.4495812870609297,
                -0.6571681404825005,
                -1.6974072890097749
            ]
        },
        {
            "positions": [
                -0.9306988346886268,
                -1.0076238572207556,
                1.8905499230548155,
                0.3326450325423955,
                -0.5549691652858657,
                -1.8282175860316414
            ]
        },
        {
            "positions": [
                -0.9470994607420826,
                -1.0188718799556535,
                1.9027789087879121,
                0.21570877802386113,
                -0.4527701900892307,
                -1.959027883053508
            ]
        },
        {
            "positions": [
                -0.9635000867955384,
                -1.0301199026905512,
                1.9150078945210085,
                0.0987725235053265,
                -0.35057121489259546,
                -2.0898381800753745
            ]
        },
        {
            "positions": [
                -0.9799007128489943,
                -1.0413679254254489,
                1.9272368802541051,
                -0.018163731013207673,
                -0.24837223969596067,
                -2.220648477097241
            ]
        },
        {
            "positions": [
                -0.99630133890245,
                -1.0526159481603465,
                1.9394658659872015,
                -0.13509998553174185,
                -0.14617326449932566,
                -2.351458774119108
            ]
        },
        {
            "positions": [
                -1.012701964955906,
                -1.0638639708952442,
                1.951694851720298,
                -0.25203624005027647,
                -0.04397428930269065,
                -2.4822690711409745
            ]
        },
        {
            "positions": [
                -1.0291025910093616,
                -1.0751119936301419,
                1.9639238374533945,
                -0.36897249456881065,
                0.05822468589394436,
                -2.613079368162841
            ]
        },
        {
            "positions": [
                -1.0455032170628176,
                -1.0863600163650395,
                1.9761528231864909,
                -0.48590874908734527,
                0.16042366109057937,
                -2.7438896651847076
            ]
        },
        {
            "positions": [
                -1.0619038431162733,
                -1.0976080390999374,
                1.9883818089195875,
                -0.6028450036058794,
                0.2626226362872144,
                -2.8746999622065745
            ]
        },
        {
            "positions": [
                -1.078304469169729,
                -1.108856061834835,
                2.000610794652684,
                -0.7197812581244136,
                0.3648216114838494,
                -3.0055102592284406
            ]
        },
        {
            "positions": [
                -1.094705095223185,
                -1.1201040845697328,
                2.0128397803857805,
                -0.8367175126429482,
                0.46702058668048424,
                -3.1363205562503076
            ]
        }
    ]
}