{
    "goal": {
        "global_pose": {
            "orientation": {
                "w": -0.00223480608172531,
                "x": 0.0024358444001904467,
                "y": 0.7094548369677653,
                "z": -0.704743149386269
            },
            "position": {
                "x": -0.37947507619857795,
                "y": -0.6371506643295288,
                "z": 0.19426114857196808
            }
        },
        "name": "move_to_magneteinheit_C"
    },
    "id": "BKPIECE_move_to_magneteinheit_C_109",
    "joint_names": [
        "shoulder_pan_joint",
        "shoulder_lift_joint",
        "elbow_joint",
        "wrist_1_joint",
        "wrist_2_joint",
        "wrist_3_joint"
    ],
    "metrics": {
        "cart_traj_len": 0.5477354835175747,
        "distance_elbow_joint": 0.2979808393867507,
        "distance_shoulder_lift_joint": 0.25360125341490125,
        "distance_shoulder_pan_joint": 0.80384387033488,
        "distance_wrist_1_joint": 0.32330499967828696,
        "distance_wrist_2_joint": 0.9102740801497996,
        "distance_wrist_3_joint": 0.5781521275255219,
        "smoothness": 0.8795584591424743,
        "time": 0.201210281,
        "traj_len": 1.7796508563451823,
        "weighted_distance": 2.357337588333345
    },
    "planner": "BKPIECE",
    "start": {
        "state": {
            "elbow_joint": 1.9565354010623817,
            "shoulder_lift_joint": -1.4165861575791021,
            "shoulder_pan_joint": -1.6717766225146293,
            "wrist_1_joint": -0.5286633292919765,
            "wrist_2_joint": 1.472756589071564,
            "wrist_3_joint": -3.1238370188695823
        }
    },
    "waypoints": [
        {
            "positions": [
                -1.6717766225146293,
                -1.4165861575791021,
                1.9565354010623817,
                -0.5286633292919765,
                1.472756589071564,
                -3.1238370188695823
            ]
        },
        {
            "positions": [
                -1.7327983251736416,
                -1.4089074697519757,
                1.9860884718263232,
                -0.5789222062882009,
                1.3295348347889564,
                -3.0766213629522525
            ]
        },
        {
            "positions": [
                -1.793820027832654,
                -1.4012287819248495,
                2.0156415425902647,
                -0.6291810832844253,
                1.186313080506349,
                -3.0294057070349227
            ]
        },
        {
            "positions": [
                -1.8548417304916662,
                -1.3935500940977232,
                2.0451946133542065,
                -0.6794399602806498,
                1.0430913262237418,
                -2.982190051117593
            ]
        },
        {
            "positions": [
                -1.9158634331506783,
                -1.3858714062705968,
                2.0747476841181482,
                -0.7296988372768742,
                0.8998695719411343,
                -2.9349743952002627
            ]
        },
        {
            "positions": [
                -1.9768851358096906,
                -1.3781927184434704,
                2.1043007548820896,
                -0.7799577142730987,
                0.7566478176585268,
                -2.887758739282933
            ]
        },
        {
            "positions": [
                -2.037906838468703,
                -1.3705140306163441,
                2.1338538256460313,
                -0.8302165912693231,
                0.6134260633759194,
                -2.840543083365603
            ]
        },
        {
            "positions": [
                -2.1838113899289717,
                -1.3013376551322964,
                2.0936330207116645,
                -0.8374671705029699,
                0.6304072481939711,
                -2.938829147372784
            ]
        },
        {
            "positions": [
                -2.3297159413892405,
                -1.2321612796482486,
                2.053412215777297,
                -0.8447177497366166,
                0.6473884330120229,
                -3.037115211379965
            ]
        },
        {
            "positions": [
                -2.4756204928495094,
                -1.1629849041642009,
                2.0131914108429303,
                -0.8519683289702634,
                0.6643696178300745,
                -3.135401275387146
            ]
        }
    ]
}