{
    "goal": {
        "global_pose": {
            "orientation": {
                "w": 0.7031023502349854,
                "x": -0.7110244035720825,
                "y": 0.007748599164187908,
                "z": 0.005598929710686207
            },
            "position": {
                "x": 0.11585023208521307,
                "y": 0.44412534475326537,
                "z": 0.3711530566215515
            }
        },
        "name": "move_to_auspresseinheit_A"
    },
    "id": "BKPIECE_move_to_auspresseinheit_A_59",
    "joint_names": [
        "shoulder_pan_joint",
        "shoulder_lift_joint",
        "elbow_joint",
        "wrist_1_joint",
        "wrist_2_joint",
        "wrist_3_joint"
    ],
    "metrics": {
        "cart_traj_len": 0.6774086386093129,
        "distance_elbow_joint": 0.028398467644815906,
        "distance_shoulder_lift_joint": 0.5372689576136989,
        "distance_shoulder_pan_joint": 1.0460523673828304,
        "distance_wrist_1_joint": 0.564743881491692,
        "distance_wrist_2_joint": 0.5165671697221984,
        "distance_wrist_3_joint": 0.18503710267180473,
        "smoothness": 0.1263310798689402,
        "time": 0.194893221,
        "traj_len": 1.6964869426338183,
        "weighted_distance": 2.0807338136062814
    },
    "planner": "BKPIECE",
    "start": {
        "state": {
            "elbow_joint": 2.4225746658250005,
            "shoulder_lift_joint": -1.3736534386056498,
            "shoulder_pan_joint": -0.3378633547517467,
            "wrist_1_joint": -1.0288598680537169,
            "wrist_2_joint": 1.233022673432363,
            "wrist_3_joint": -3.0940220416140027
        }
    },
    "waypoints": [
        {
            "positions": [
                -0.3378633547517467,
                -1.3736534386056498,
                2.4225746658250005,
                -1.0288598680537169,
                1.233022673432363,
                -3.0940220416140027
            ]
        },
        {
            "positions": [
                -0.2166256513170297,
                -1.455019904131034,
                2.4218220252375673,
                -0.9499065802156219,
                1.1622622721259979,
                -3.081533664670065
            ]
        },
        {
            "positions": [
                -0.0953879478823127,
                -1.5363863696564182,
                2.4210693846501337,
                -0.870953292377527,
                1.0915018708196325,
                -3.069045287726128
            ]
        },
        {
            "positions": [
                0.02584975555240432,
                -1.6177528351818022,
                2.4203167440627005,
                -0.7920000045394321,
                1.020741469513267,
                -3.05655691078219
            ]
        },
        {
            "positions": [
                0.14708745898712133,
                -1.6991193007071865,
                2.4195641034752673,
                -0.7130467167013372,
                0.9499810682069019,
                -3.0440685338382525
            ]
        },
        {
            "positions": [
                0.2683251624218384,
                -1.7804857662325708,
                2.4188114628878337,
                -0.6340934288632423,
                0.8792206669005366,
                -3.0315801568943153
            ]
        },
        {
            "positions": [
                0.38956286585655536,
                -1.861852231757955,
                2.4180588223004005,
                -0.5551401410251473,
                0.8084602655941713,
                -3.0190917799503776
            ]
        },
        {
            "positions": [
                0.5488759392438196,
                -1.8863873139886518,
                2.4061175102402927,
                -0.5096280637935862,
                0.7624578846521679,
                -3.0741452004544674
            ]
        },
        {
            "positions": [
                0.7081890126310838,
                -1.9109223962193487,
                2.3941761981801846,
                -0.4641159865620249,
                0.7164555037101646,
                -3.129198620958557
            ]
        }
    ]
}