{
    "goal": {
        "global_pose": {
            "orientation": {
                "w": 0.5084816217422485,
                "x": -0.49083608388900757,
                "y": 0.5182115435600281,
                "z": -0.4816462993621826
            },
            "position": {
                "x": 0.5540239810943604,
                "y": 0.030875300988554955,
                "z": 0.16403168439865112
            }
        },
        "name": "move_to_storage_A"
    },
    "id": "BKPIECE_move_to_storage_A_47",
    "joint_names": [
        "shoulder_pan_joint",
        "shoulder_lift_joint",
        "elbow_joint",
        "wrist_1_joint",
        "wrist_2_joint",
        "wrist_3_joint"
    ],
    "metrics": {
        "cart_traj_len": 0.35378903786803245,
        "distance_elbow_joint": 0.44810588259120654,
        "distance_shoulder_lift_joint": 0.23601048943660774,
        "distance_shoulder_pan_joint": 0.4636559958704956,
        "distance_wrist_1_joint": 0.2334897162822559,
        "distance_wrist_2_joint": 1.0962208612522546,
        "distance_wrist_3_joint": 0.09859345236897443,
        "smoothness": 4.440892098500626e-16,
        "time": 0.24229064300000003,
        "traj_len": 1.6050160116963925,
        "weighted_distance": 2.025579887359236
    },
    "planner": "BKPIECE",
    "start": {
        "state": {
            "elbow_joint": 1.971548259319323,
            "shoulder_lift_joint": -1.1394851275133948,
            "shoulder_pan_joint": 0.1228115487234821,
            "wrist_1_joint": -0.7804723859257726,
            "wrist_2_joint": 0.12958671773740124,
            "wrist_3_joint": -3.192489227718131
        }
    },
    "waypoints": [
        {
            "positions": [
                0.1228115487234821,
                -1.1394851275133948,
                1.971548259319323,
                -0.7804723859257726,
                0.12958671773740124,
                -3.192489227718131
            ]
        },
        {
            "positions": [
                0.05657497788483988,
                -1.1732009117186244,
                2.035563385403781,
                -0.8138280596803806,
                0.2861896979162948,
                -3.1784044488082777
            ]
        },
        {
            "positions": [
                -0.00966159295380234,
                -1.2069166959238542,
                2.099578511488239,
                -0.8471837334349885,
                0.4427926780951883,
                -3.164319669898424
            ]
        },
        {
            "positions": [
                -0.07589816379244457,
                -1.2406324801290838,
                2.1635936375726974,
                -0.8805394071895966,
                0.5993956582740818,
                -3.1502348909885707
            ]
        },
        {
            "positions": [
                -0.14213473463108678,
                -1.2743482643343136,
                2.2276087636571553,
                -0.9138950809442046,
                0.7559986384529753,
                -3.136150112078717
            ]
        },
        {
            "positions": [
                -0.20837130546972904,
                -1.3080640485395432,
                2.2916238897416132,
                -0.9472507546988125,
                0.9126016186318688,
                -3.1220653331688637
            ]
        },
        {
            "positions": [
                -0.27460787630837125,
                -1.341779832744773,
                2.3556390158260716,
                -0.9806064284534205,
                1.0692045988107624,
                -3.10798055425901
            ]
        },
        {
            "positions": [
                -0.3408444471470135,
                -1.3754956169500026,
                2.4196541419105295,
                -1.0139621022080285,
                1.2258075789896559,
                -3.0938957753491567
            ]
        }
    ]
}{
    "goal": {
        "global_pose": {
            "orientation": {
                "w": 0.5084816217422485,
                "x": -0.49083608388900757,
                "y": 0.5182115435600281,
                "z": -0.4816462993621826
            },
            "position": {
                "x": 0.5540239810943604,
                "y": 0.030875300988554955,
                "z": 0.16403168439865112
            }
        },
        "name": "move_to_storage_A"
    },
    "id": "BKPIECE_move_to_storage_A_47",
    "joint_names": [
        "shoulder_pan_joint",
        "shoulder_lift_joint",
        "elbow_joint",
        "wrist_1_joint",
        "wrist_2_joint",
        "wrist_3_joint"
    ],
    "metrics": {
        "cart_traj_len": 0.35239758990628706,
        "distance_elbow_joint": 0.44723824994221584,
        "distance_shoulder_lift_joint": 0.23451980336621903,
        "distance_shoulder_pan_joint": 0.45917554672420785,
        "distance_wrist_1_joint": 0.23447703829303035,
        "distance_wrist_2_joint": 1.104059038790604,
        "distance_wrist_3_joint": 0.0882584411298386,
        "smoothness": 4.440892098500626e-16,
        "time": 0.151096546,
        "traj_len": 1.6024132170717127,
        "weighted_distance": 2.0205892896849242
    },
    "planner": "BKPIECE",
    "start": {
        "state": {
            "elbow_joint": 1.97154746011099,
            "shoulder_lift_joint": -1.13948474672311,
            "shoulder_pan_joint": 0.12281154466712228,
            "wrist_1_joint": -0.7804688027058302,
            "wrist_2_joint": 0.12958655903071145,
            "wrist_3_joint": 3.0906928834467795
        }
    },
    "waypoints": [
        {
            "positions": [
                0.12281154466712228,
                -1.13948474672311,
                1.97154746011099,
                -0.7804688027058302,
                0.12958655903071145,
                3.0906928834467795
            ]
        },
        {
            "positions": [
                0.05721503799223546,
                -1.172987575775427,
                2.0354386386741634,
                -0.8139655224619774,
                0.28730927885794055,
                3.1033012321796134
            ]
        },
        {
            "positions": [
                -0.008381468682651369,
                -1.206490404827744,
                2.0993298172373374,
                -0.8474622422181246,
                0.44503199868516974,
                3.1159095809124477
            ]
        },
        {
            "positions": [
                -0.07397797535753821,
                -1.239993233880061,
                2.163220995800511,
                -0.8809589619742717,
                0.6027547185123988,
                3.1285179296452816
            ]
        },
        {
            "positions": [
                -0.139574482032425,
                -1.273496062932378,
                2.227112174363685,
                -0.9144556817304189,
                0.760477438339628,
                3.141126278378116
            ]
        },
        {
            "positions": [
                -0.20517098870731187,
                -1.306998891984695,
                2.2910033529268583,
                -0.9479524014865661,
                0.9182001581668572,
                3.15373462711095
            ]
        },
        {
            "positions": [
                -0.2707674953821987,
                -1.340501721037012,
                2.3548945314900323,
                -0.9814491212427133,
                1.0759228779940861,
                3.166342975843784
            ]
        },
        {
            "positions": [
                -0.33636400205708555,
                -1.374004550089329,
                2.4187857100532058,
                -1.0149458409988605,
                1.2336455978213154,
                3.178951324576618
            ]
        }
    ]
}{
    "goal": {
        "global_pose": {
            "orientation": {
                "w": 0.5084816217422485,
                "x": -0.49083608388900757,
                "y": 0.5182115435600281,
                "z": -0.4816462993621826
            },
            "position": {
                "x": 0.5540239810943604,
                "y": 0.030875300988554955,
                "z": 0.16403168439865112
            }
        },
        "name": "move_to_storage_A"
    },
    "id": "BKPIECE_move_to_storage_A_47",
    "joint_names": [
        "shoulder_pan_joint",
        "shoulder_lift_joint",
        "elbow_joint",
        "wrist_1_joint",
        "wrist_2_joint",
        "wrist_3_joint"
    ],
    "metrics": {
        "cart_traj_len": 0.35307186377559047,
        "distance_elbow_joint": 0.44902947440502405,
        "distance_shoulder_lift_joint": 0.23338688386426765,
        "distance_shoulder_pan_joint": 0.4603021877277289,
        "distance_wrist_1_joint": 0.2375527564647002,
        "distance_wrist_2_joint": 1.1044949320398671,
        "distance_wrist_3_joint": 0.09848614992213722,
        "smoothness": 1.1102230263833737e-15,
        "time": 0.199422961,
        "traj_len": 1.6072499446021844,
        "weighted_distance": 2.03033799471235
    },
    "planner": "BKPIECE",
    "start": {
        "state": {
            "elbow_joint": 1.9715472970024885,
            "shoulder_lift_joint": -1.1394870060712896,
            "shoulder_pan_joint": 0.12281152778156021,
            "wrist_1_joint": -0.780463741449964,
            "wrist_2_joint": 0.12958659822042276,
            "wrist_3_joint": 3.090690232415272
        }
    },
    "waypoints": [
        {
            "positions": [
                0.12281152778156021,
                -1.1394870060712896,
                1.9715472970024885,
                -0.780463741449964,
                0.12958659822042276,
                3.090690232415272
            ]
        },
        {
            "positions": [
                0.05705407239188466,
                -1.1728279894804707,
                2.035694364774635,
                -0.8143998495163497,
                0.2873715885118323,
                3.104759682404149
            ]
        },
        {
            "positions": [
                -0.008703382997790887,
                -1.2061689728896519,
                2.099841432546781,
                -0.8483359575827355,
                0.4451565788032419,
                3.1188291323930253
            ]
        },
        {
            "positions": [
                -0.07446083838746645,
                -1.239509956298833,
                2.1639885003189274,
                -0.8822720656491212,
                0.6029415690946515,
                3.132898582381902
            ]
        },
        {
            "positions": [
                -0.14021829377714198,
                -1.2728509397080139,
                2.2281355680910737,
                -0.916208173715507,
                0.760726559386061,
                3.1469680323707787
            ]
        },
        {
            "positions": [
                -0.20597574916681757,
                -1.306191923117195,
                2.29228263586322,
                -0.9501442817818927,
                0.9185115496774707,
                3.1610374823596556
            ]
        },
        {
            "positions": [
                -0.2717332045564931,
                -1.3395329065263761,
                2.3564297036353663,
                -0.9840803898482784,
                1.0762965399688802,
                3.175106932348532
            ]
        },
        {
            "positions": [
                -0.33749065994616867,
                -1.3728738899355573,
                2.4205767714075126,
                -1.0180164979146642,
                1.2340815302602899,
                3.189176382337409
            ]
        }
    ]
}