{
    "goal": {
        "global_pose": {
            "orientation": {
                "w": -0.00223480608172531,
                "x": 0.0024358444001904467,
                "y": 0.7094548369677653,
                "z": -0.704743149386269
            },
            "position": {
                "x": 0.6205249238014221,
                "y": -0.6371506643295288,
                "z": 0.19426114857196808
            }
        },
        "name": "move_to_magneteinheit_B"
    },
    "id": "BKPIECE_move_to_magneteinheit_B_137",
    "joint_names": [
        "shoulder_pan_joint",
        "shoulder_lift_joint",
        "elbow_joint",
        "wrist_1_joint",
        "wrist_2_joint",
        "wrist_3_joint"
    ],
    "metrics": {
        "cart_traj_len": 1.5500217439272153,
        "distance_elbow_joint": 0.9615541146392959,
        "distance_shoulder_lift_joint": 1.0170843596351222,
        "distance_shoulder_pan_joint": 1.620121705353838,
        "distance_wrist_1_joint": 2.3912344732198676,
        "distance_wrist_2_joint": 2.052531611741184,
        "distance_wrist_3_joint": 0.2501569722118587,
        "smoothness": 0.6156234383155865,
        "time": 0.28659062999999996,
        "traj_len": 2.8797019354094906,
        "weighted_distance": 3.6382362850955596
    },
    "planner": "BKPIECE",
    "start": {
        "state": {
            "elbow_joint": 2.6216224122426386,
            "shoulder_lift_joint": -1.4174107377796124,
            "shoulder_pan_joint": 0.7066234856936794,
            "wrist_1_joint": 1.9546482284002225,
            "wrist_2_joint": -0.7096286983471962,
            "wrist_3_joint": 0.005740856962016249
        }
    },
    "waypoints": [
        {
            "positions": [
                0.7066234856936794,
                -1.4174107377796124,
                2.6216224122426386,
                1.9546482284002225,
                -0.7096286983471962,
                0.005740856962016249
            ]
        },
        {
            "positions": [
                0.6685109413771513,
                -1.4389250831186406,
                2.568217006936018,
                1.7707280645178618,
                -0.6661426558261253,
                -0.01631910105851094
            ]
        },
        {
            "positions": [
                0.6303983970606231,
                -1.460439428457669,
                2.5148116016293978,
                1.5868079006355011,
                -0.6226566133050544,
                -0.03837905907903813
            ]
        },
        {
            "positions": [
                0.592285852744095,
                -1.4819537737966972,
                2.4614061963227774,
                1.4028877367531403,
                -0.5791705707839834,
                -0.060439017099565326
            ]
        },
        {
            "positions": [
                0.5541733084275668,
                -1.5034681191357255,
                2.408000791016157,
                1.2189675728707796,
                -0.5356845282629126,
                -0.08249897512009251
            ]
        },
        {
            "positions": [
                0.5160607641110386,
                -1.5249824644747538,
                2.3545953857095365,
                1.0350474089884187,
                -0.49219848574184155,
                -0.10455893314061972
            ]
        },
        {
            "positions": [
                0.4779482197945105,
                -1.5464968098137821,
                2.301189980402916,
                0.851127245106058,
                -0.44871244322077064,
                -0.12661889116114688
            ]
        },
        {
            "positions": [
                0.3909828173285937,
                -1.4909969168387227,
                2.261119875227943,
                0.9316093382264145,
                -0.560688403009193,
                -0.11925656465560341
            ]
        },
        {
            "positions": [
                0.30401741486267686,
                -1.435497023863663,
                2.2210497700529697,
                1.0120914313467708,
                -0.6726643627976154,
                -0.11189423815005993
            ]
        },
        {
            "positions": [
                0.21705201239676003,
                -1.3799971308886037,
                2.180979664877996,
                1.0925735244671273,
                -0.7846403225860379,
                -0.10453191164451646
            ]
        },
        {
            "positions": [
                0.1300866099308432,
                -1.324497237913544,
                2.1409095597030228,
                1.1730556175874838,
                -0.8966162823744602,
                -0.09716958513897299
            ]
        },
        {
            "positions": [
                0.04312120746492637,
                -1.2689973449384846,
                2.1008394545280495,
                1.2535377107078403,
                -1.0085922421628828,
                -0.0898072586334295
            ]
        },
        {
            "positions": [
                -0.04384419500099046,
                -1.213497451963425,
                2.060769349353076,
                1.3340198038281967,
                -1.120568201951305,
                -0.08244493212788603
            ]
        },
        {
            "positions": [
                -0.13080959746690735,
                -1.1579975589883655,
                2.0206992441781026,
                1.4145018969485532,
                -1.2325441617397273,
                -0.07508260562234256
            ]
        },
        {
            "positions": [
                -0.21777499993282412,
                -1.102497666013306,
                1.9806291390031294,
                1.4949839900689095,
                -1.34452012152815,
                -0.06772027911679909
            ]
        },
        {
            "positions": [
                -0.3047404023987409,
                -1.0469977730382465,
                1.9405590338281562,
                1.5754660831892662,
                -1.4564960813165722,
                -0.06035795261125561
            ]
        },
        {
            "positions": [
                -0.3917058048646578,
                -0.991497880063187,
                1.9004889286531828,
                1.6559481763096224,
                -1.5684720411049948,
                -0.05299562610571214
            ]
        },
        {
            "positions": [
                -0.47867120733057467,
                -0.9359979870881274,
                1.8604188234782093,
                1.736430269429979,
                -1.680448000893417,
                -0.04563329960016867
            ]
        },
        {
            "positions": [
                -0.5656366097964914,
                -0.8804980941130679,
                1.820348718303236,
                1.8169123625503354,
                -1.7924239606818393,
                -0.03827097309462518
            ]
        },
        {
            "positions": [
                -0.6526020122624082,
                -0.8249982011380084,
                1.7802786131282629,
                1.8973944556706916,
                -1.904399920470262,
                -0.030908646589081712
            ]
        },
        {
            "positions": [
                -0.7395674147283252,
                -0.7694983081629488,
                1.7402085079532894,
                1.9778765487910484,
                -2.016375880258684,
                -0.02354632008353824
            ]
        },
        {
            "positions": [
                -0.826532817194242,
                -0.7139984151878893,
                1.700138402778316,
                2.0583586419114046,
                -2.1283518400471064,
                -0.016183993577994757
            ]
        },
        {
            "positions": [
                -0.9134982196601588,
                -0.6584985222128298,
                1.6600682976033427,
                2.1388407350317613,
                -2.240327799835529,
                -0.008821667072451288
            ]
        }
    ]
}