{
    "goal": {
        "global_pose": {
            "orientation": {
                "w": -0.00223480608172531,
                "x": 0.0024358444001904467,
                "y": 0.7094548369677653,
                "z": -0.704743149386269
            },
            "position": {
                "x": 0.6205249238014221,
                "y": -0.6371506643295288,
                "z": 0.19426114857196808
            }
        },
        "name": "move_to_magneteinheit_B"
    },
    "id": "BKPIECE_move_to_magneteinheit_B_64",
    "joint_names": [
        "shoulder_pan_joint",
        "shoulder_lift_joint",
        "elbow_joint",
        "wrist_1_joint",
        "wrist_2_joint",
        "wrist_3_joint"
    ],
    "metrics": {
        "cart_traj_len": 1.7890661134422923,
        "distance_elbow_joint": 2.1266682250562994,
        "distance_shoulder_lift_joint": 0.7806186947107316,
        "distance_shoulder_pan_joint": 1.620298322254062,
        "distance_wrist_1_joint": 3.459331531934131,
        "distance_wrist_2_joint": 1.5421747267423058,
        "distance_wrist_3_joint": 0.7419308138521086,
        "smoothness": 0.7976374508374903,
        "time": 0.46553927900000003,
        "traj_len": 3.204843570995258,
        "weighted_distance": 4.093456998788469
    },
    "planner": "BKPIECE",
    "start": {
        "state": {
            "elbow_joint": 2.6216224122426386,
            "shoulder_lift_joint": -1.4174107377796124,
            "shoulder_pan_joint": 0.7066234856936794,
            "wrist_1_joint": 1.9546482284002225,
            "wrist_2_joint": -0.7096286983471962,
            "wrist_3_joint": 0.005740856962016249
        }
    },
    "waypoints": [
        {
            "positions": [
                0.7066234856936794,
                -1.4174107377796124,
                2.6216224122426386,
                1.9546482284002225,
                -0.7096286983471962,
                0.005740856962016249
            ]
        },
        {
            "positions": [
                0.6341211880641149,
                -1.4296115602142074,
                2.6062800853254515,
                1.9541476428010738,
                -0.6980900457153691,
                -0.049407569232138314
            ]
        },
        {
            "positions": [
                0.5358365112395881,
                -1.4188853505332502,
                2.4972355248961295,
                1.8373068307415432,
                -0.729649671882104,
                -0.026680105494075717
            ]
        },
        {
            "positions": [
                0.43755183441506124,
                -1.4081591408522929,
                2.3881909644668076,
                1.7204660186820127,
                -0.7612092980488387,
                -0.00395264175601312
            ]
        },
        {
            "positions": [
                0.33926715759053444,
                -1.3974329311713354,
                2.279146404037486,
                1.603625206622482,
                -0.7927689242155735,
                0.018774821982049474
            ]
        },
        {
            "positions": [
                0.2409824807660076,
                -1.386706721490378,
                2.170101843608164,
                1.4867843945629515,
                -0.8243285503823083,
                0.041502285720112074
            ]
        },
        {
            "positions": [
                0.14269780394148074,
                -1.3759805118094208,
                2.061057283178842,
                1.369943582503421,
                -0.8558881765490433,
                0.06422974945817467
            ]
        },
        {
            "positions": [
                0.044413127116954,
                -1.3652543021284635,
                1.95201272274952,
                1.2531027704438904,
                -0.8874478027157781,
                0.08695721319623725
            ]
        },
        {
            "positions": [
                -0.05387154970757291,
                -1.3545280924475063,
                1.8429681623201983,
                1.1362619583843598,
                -0.9190074288825129,
                0.10968467693429987
            ]
        },
        {
            "positions": [
                -0.1521562265320997,
                -1.3438018827665488,
                1.7339236018908766,
                1.0194211463248293,
                -0.9505670550492477,
                0.13241214067236245
            ]
        },
        {
            "positions": [
                -0.2504409033566266,
                -1.3330756730855915,
                1.6248790414615546,
                0.9025803342652987,
                -0.9821266812159826,
                0.15513960441042507
            ]
        },
        {
            "positions": [
                -0.3487255801811534,
                -1.3223494634046342,
                1.5158344810322326,
                0.7857395222057681,
                -1.0136863073827174,
                0.17786706814848766
            ]
        },
        {
            "positions": [
                -0.4470102570056802,
                -1.311623253723677,
                1.4067899206029109,
                0.6688987101462376,
                -1.0452459335494522,
                0.20059453188655027
            ]
        },
        {
            "positions": [
                -0.5452949338302069,
                -1.3008970440427197,
                1.2977453601735889,
                0.552057898086707,
                -1.076805559716187,
                0.22332199562461283
            ]
        },
        {
            "positions": [
                -0.643579610654734,
                -1.2901708343617622,
                1.188700799744267,
                0.43521708602717646,
                -1.1083651858829218,
                0.24604945936267544
            ]
        },
        {
            "positions": [
                -0.7418642874792607,
                -1.2794446246808049,
                1.0796562393149451,
                0.318376273967646,
                -1.1399248120496566,
                0.2687769231007381
            ]
        },
        {
            "positions": [
                -0.7430116469522392,
                -1.2332297259088028,
                1.1312422754542277,
                0.45960235308049957,
                -1.2226552664088968,
                0.23340543524671492
            ]
        },
        {
            "positions": [
                -0.7441590064252176,
                -1.1870148271368006,
                1.1828283115935103,
                0.6008284321933531,
                -1.3053857207681372,
                0.19803394739269176
            ]
        },
        {
            "positions": [
                -0.7453063658981961,
                -1.1407999283647985,
                1.2344143477327927,
                0.7420545113062067,
                -1.3881161751273774,
                0.16266245953866856
            ]
        },
        {
            "positions": [
                -0.7464537253711746,
                -1.0945850295927964,
                1.2860003838720753,
                0.8832805904190603,
                -1.4708466294866178,
                0.1272909716846454
            ]
        },
        {
            "positions": [
                -0.747601084844153,
                -1.048370130820794,
                1.3375864200113579,
                1.024506669531914,
                -1.553577083845858,
                0.09191948383062218
            ]
        },
        {
            "positions": [
                -0.7487484443171315,
                -1.0021552320487919,
                1.3891724561506402,
                1.1657327486447673,
                -1.6363075382050982,
                0.05654799597659904
            ]
        },
        {
            "positions": [
                -0.74989580379011,
                -0.9559403332767897,
                1.4407584922899228,
                1.306958827757621,
                -1.7190379925643386,
                0.02117650812257585
            ]
        },
        {
            "positions": [
                -0.7510431632630884,
                -0.9097254345047876,
                1.4923445284292054,
                1.4481849068704746,
                -1.801768446923579,
                -0.014194979731447288
            ]
        },
        {
            "positions": [
                -0.7521905227360669,
                -0.8635105357327855,
                1.543930564568488,
                1.5894109859833283,
                -1.8844989012828193,
                -0.0495664675854705
            ]
        },
        {
            "positions": [
                -0.7687265052283596,
                -0.8338076176680242,
                1.5669790170070714,
                1.6742221109431226,
                -1.9354352338107388,
                -0.05103119956987691
            ]
        },
        {
            "positions": [
                -0.7852624877206524,
                -0.804104699603263,
                1.5900274694456549,
                1.7590332359029168,
                -1.9863715663386583,
                -0.05249593155428331
            ]
        },
        {
            "positions": [
                -0.8211522825425844,
                -0.7641918609037855,
                1.610785923826891,
                1.8657443922447023,
                -2.0540128671586957,
                -0.03906958057797963
            ]
        },
        {
            "positions": [
                -0.8570420773645164,
                -0.7242790222043081,
                1.631544378208127,
                1.9724555485864879,
                -2.1216541679787326,
                -0.025643229601675956
            ]
        },
        {
            "positions": [
                -0.8929318721864484,
                -0.6843661835048306,
                1.652302832589363,
                2.0791667049282734,
                -2.18929546879877,
                -0.012216878625372275
            ]
        },
        {
            "positions": [
                -0.9136748365603825,
                -0.6611936879380709,
                1.6643582914435509,
                2.1414358514692005,
                -2.228726119825848,
                -0.005170890884227202
            ]
        }
    ]
}