{
    "goal": {
        "global_pose": {
            "orientation": {
                "w": 0.5084816262002911,
                "x": -0.4908360881923452,
                "y": 0.5182115481033761,
                "z": -0.48164630358495003
            },
            "position": {
                "x": 0.5540239810943604,
                "y": -0.46912469901144505,
                "z": 0.16403168439865112
            }
        },
        "name": "move_to_storage_B"
    },
    "id": "BKPIECE_move_to_storage_B_122",
    "joint_names": [
        "shoulder_pan_joint",
        "shoulder_lift_joint",
        "elbow_joint",
        "wrist_1_joint",
        "wrist_2_joint",
        "wrist_3_joint"
    ],
    "metrics": {
        "cart_traj_len": 3.1326165302669096,
        "distance_elbow_joint": 1.4197388262317436,
        "distance_shoulder_lift_joint": 0.8183115123101556,
        "distance_shoulder_pan_joint": 3.250345411553667,
        "distance_wrist_1_joint": 3.0070882226467326,
        "distance_wrist_2_joint": 2.714824980750877,
        "distance_wrist_3_joint": 3.1315037696818226,
        "smoothness": 0.2559015239039284,
        "time": 0.207273016,
        "traj_len": 3.7870585845976814,
        "weighted_distance": 5.130958337965359
    },
    "planner": "BKPIECE",
    "start": {
        "state": {
            "elbow_joint": 1.664937868594044,
            "shoulder_lift_joint": -0.661644460510453,
            "shoulder_pan_joint": -0.9139846352900073,
            "wrist_1_joint": 2.146753192139373,
            "wrist_2_joint": -2.2341966793290973,
            "wrist_3_joint": 0.005466555786416001
        }
    },
    "waypoints": [
        {
            "positions": [
                -0.9139846352900073,
                -0.661644460510453,
                1.664937868594044,
                2.146753192139373,
                -2.2341966793290973,
                0.005466555786416001
            ]
        },
        {
            "positions": [
                -0.7958940665237864,
                -0.7108593005615353,
                1.624056684680713,
                2.1238000058623845,
                -2.160329597503346,
                -0.06105873064895352
            ]
        },
        {
            "positions": [
                -0.6778034977575653,
                -0.7600741406126178,
                1.5831755007673818,
                2.100846819585396,
                -2.0864625156775944,
                -0.12758401708432304
            ]
        },
        {
            "positions": [
                -0.5597129289913444,
                -0.8092889806637003,
                1.5422943168540508,
                2.0778936333084075,
                -2.0125954338518435,
                -0.19410930351969258
            ]
        },
        {
            "positions": [
                -0.44162236022512347,
                -0.8585038207147826,
                1.5014131329407197,
                2.0549404470314188,
                -1.938728352026092,
                -0.26063458995506206
            ]
        },
        {
            "positions": [
                -0.32353179145890254,
                -0.9077186607658649,
                1.4605319490273887,
                2.03198726075443,
                -1.8648612702003406,
                -0.3271598763904316
            ]
        },
        {
            "positions": [
                -0.2054412226926815,
                -0.9569335008169474,
                1.4196507651140575,
                2.0090340744774418,
                -1.7909941883745895,
                -0.3936851628258011
            ]
        },
        {
            "positions": [
                -0.08735065392646069,
                -1.0061483408680298,
                1.3787695812007266,
                1.986080888200453,
                -1.7171271065488383,
                -0.4602104492611706
            ]
        },
        {
            "positions": [
                0.03073991483976035,
                -1.0553631809191122,
                1.3378883972873954,
                1.9631277019234643,
                -1.6432600247230869,
                -0.5267357356965402
            ]
        },
        {
            "positions": [
                0.14883048360598117,
                -1.1045780209701945,
                1.2970072133740644,
                1.9401745156464758,
                -1.5693929428973354,
                -0.5932610221319097
            ]
        },
        {
            "positions": [
                0.2669210523722022,
                -1.153792861021277,
                1.2561260294607333,
                1.917221329369487,
                -1.495525861071584,
                -0.6597863085672793
            ]
        },
        {
            "positions": [
                0.38501162113842324,
                -1.2030077010723592,
                1.2152448455474023,
                1.8942681430924986,
                -1.4216587792458328,
                -0.7263115950026487
            ]
        },
        {
            "positions": [
                0.5031021899046443,
                -1.2522225411234418,
                1.1743636616340711,
                1.8713149568155099,
                -1.3477916974200816,
                -0.7928368814380183
            ]
        },
        {
            "positions": [
                0.6211927586708651,
                -1.3014373811745241,
                1.1334824777207402,
                1.8483617705385214,
                -1.2739246155943302,
                -0.8593621678733878
            ]
        },
        {
            "positions": [
                0.5525860379671532,
                -1.2942966375086808,
                1.1690138151350777,
                1.7400138984966862,
                -1.2037424989136858,
                -0.9500291697142685
            ]
        },
        {
            "positions": [
                0.48397931726344146,
                -1.2871558938428374,
                1.2045451525494153,
                1.6316660264548508,
                -1.1335603822330413,
                -1.0406961715551493
            ]
        },
        {
            "positions": [
                0.4153725965597297,
                -1.280015150176994,
                1.2400764899637529,
                1.5233181544130157,
                -1.0633782655523971,
                -1.13136317339603
            ]
        },
        {
            "positions": [
                0.3467658758560178,
                -1.2728744065111506,
                1.2756078273780906,
                1.4149702823711805,
                -0.9931961488717527,
                -1.2220301752369107
            ]
        },
        {
            "positions": [
                0.278159155152306,
                -1.2657336628453073,
                1.3111391647924282,
                1.3066224103293451,
                -0.9230140321911082,
                -1.3126971770777915
            ]
        },
        {
            "positions": [
                0.20955243444859423,
                -1.2585929191794638,
                1.3466705022067658,
                1.1982745382875102,
                -0.8528319155104638,
                -1.4033641789186722
            ]
        },
        {
            "positions": [
                0.1409457137448823,
                -1.2514521755136205,
                1.3822018396211033,
                1.0899266662456748,
                -0.7826497988298193,
                -1.494031180759553
            ]
        },
        {
            "positions": [
                0.07233899304117053,
                -1.244311431847777,
                1.4177331770354409,
                0.9815787942038395,
                -0.712467682149175,
                -1.5846981826004338
            ]
        },
        {
            "positions": [
                0.003732272337458764,
                -1.2371706881819338,
                1.4532645144497787,
                0.8732309221620044,
                -0.6422855654685307,
                -1.6753651844413144
            ]
        },
        {
            "positions": [
                -0.06487444836625311,
                -1.2300299445160903,
                1.4887958518641162,
                0.7648830501201691,
                -0.5721034487878862,
                -1.7660321862821953
            ]
        },
        {
            "positions": [
                -0.13348116906996488,
                -1.222889200850247,
                1.5243271892784538,
                0.656535178078334,
                -0.5019213321072418,
                -1.8566991881230759
            ]
        },
        {
            "positions": [
                -0.20208788977367664,
                -1.2157484571844035,
                1.5598585266927913,
                0.5481873060364988,
                -0.43173921542659743,
                -1.9473661899639567
            ]
        },
        {
            "positions": [
                -0.27069461047738863,
                -1.2086077135185602,
                1.595389864107129,
                0.4398394339946634,
                -0.361557098745953,
                -2.0380331918048373
            ]
        },
        {
            "positions": [
                -0.3393013311811005,
                -1.2014669698527167,
                1.6309212015214665,
                0.33149156195282803,
                -0.29137498206530854,
                -2.1287001936457184
            ]
        },
        {
            "positions": [
                -0.40790805188481205,
                -1.1943262261868735,
                1.666452538935804,
                0.2231436899109931,
                -0.2211928653846642,
                -2.2193671954865986
            ]
        },
        {
            "positions": [
                -0.47651477258852404,
                -1.18718548252103,
                1.7019838763501416,
                0.11479581786915771,
                -0.15101074870401976,
                -2.3100341973274796
            ]
        },
        {
            "positions": [
                -0.5451214932922358,
                -1.1800447388551867,
                1.7375152137644794,
                0.006447945827322554,
                -0.08082863202337531,
                -2.4007011991683607
            ]
        },
        {
            "positions": [
                -0.6137282139959476,
                -1.1729039951893432,
                1.773046551178817,
                -0.1018999262145126,
                -0.010646515342731089,
                -2.491368201009241
            ]
        },
        {
            "positions": [
                -0.6823349346996596,
                -1.1657632515235,
                1.8085778885931545,
                -0.21024779825634776,
                0.05953560133791336,
                -2.582035202850122
            ]
        },
        {
            "positions": [
                -0.7509416554033713,
                -1.1586225078576564,
                1.8441092260074923,
                -0.31859567029818314,
                0.1297177180185578,
                -2.672702204691003
            ]
        },
        {
            "positions": [
                -0.8195483761070831,
                -1.1514817641918131,
                1.8796405634218296,
                -0.4269435423400181,
                0.19989983469920225,
                -2.763369206531883
            ]
        },
        {
            "positions": [
                -0.8881550968107949,
                -1.1443410205259696,
                1.9151719008361674,
                -0.5352914143818535,
                0.2700819513798467,
                -2.854036208372764
            ]
        },
        {
            "positions": [
                -0.9567618175145068,
                -1.1372002768601264,
                1.950703238250505,
                -0.6436392864236888,
                0.34026406806049114,
                -2.9447032102136452
            ]
        },
        {
            "positions": [
                -1.0253685382182183,
                -1.130059533194283,
                1.9862345756648425,
                -0.7519871584655238,
                0.41044618474113537,
                -3.0353702120545254
            ]
        },
        {
            "positions": [
                -1.0939752589219303,
                -1.1229187895284396,
                2.02176591307918,
                -0.8603350305073592,
                0.4806283014217797,
                -3.1260372138954065
            ]
        }
    ]
}