{
    "goal": {
        "global_pose": {
            "orientation": {
                "w": 0.5084816262002911,
                "x": -0.4908360881923452,
                "y": 0.5182115481033761,
                "z": -0.48164630358495003
            },
            "position": {
                "x": 0.5540239810943604,
                "y": -0.46912469901144505,
                "z": 0.16403168439865112
            }
        },
        "name": "move_to_storage_B"
    },
    "id": "BKPIECE_move_to_storage_B_43",
    "joint_names": [
        "shoulder_pan_joint",
        "shoulder_lift_joint",
        "elbow_joint",
        "wrist_1_joint",
        "wrist_2_joint",
        "wrist_3_joint"
    ],
    "metrics": {
        "cart_traj_len": 1.0656685386141986,
        "distance_elbow_joint": 1.122080400421698,
        "distance_shoulder_lift_joint": 0.4600639811742928,
        "distance_shoulder_pan_joint": 0.6251765425088108,
        "distance_wrist_1_joint": 2.979534764511563,
        "distance_wrist_2_joint": 2.712945036660471,
        "distance_wrist_3_joint": 3.6583986365517527,
        "smoothness": 0.24539550849332822,
        "time": 0.19720093300000002,
        "traj_len": 3.399735189956505,
        "weighted_distance": 4.956558930962501
    },
    "planner": "BKPIECE",
    "start": {
        "state": {
            "elbow_joint": 1.664937868594044,
            "shoulder_lift_joint": -0.661644460510453,
            "shoulder_pan_joint": -0.9139846352900073,
            "wrist_1_joint": 2.146753192139373,
            "wrist_2_joint": -2.2341966793290973,
            "wrist_3_joint": 0.005466555786416001
        }
    },
    "waypoints": [
        {
            "positions": [
                -0.9139846352900073,
                -0.661644460510453,
                1.664937868594044,
                2.146753192139373,
                -2.2341966793290973,
                0.005466555786416001
            ]
        },
        {
            "positions": [
                -0.8922664702477527,
                -0.6876811582956728,
                1.6631352702890527,
                2.11882270830845,
                -2.1706256401600115,
                -0.003935355767959575
            ]
        },
        {
            "positions": [
                -0.8597824931762236,
                -0.7276624868466751,
                1.641970246375777,
                2.0487040760782813,
                -2.075513699054687,
                -0.02638238945847984
            ]
        },
        {
            "positions": [
                -0.8272985161046943,
                -0.7676438153976776,
                1.6208052224625016,
                1.9785854438481125,
                -1.9804017579493627,
                -0.0488294231490001
            ]
        },
        {
            "positions": [
                -0.7948145390331651,
                -0.8076251439486799,
                1.599640198549226,
                1.9084668116179437,
                -1.8852898168440384,
                -0.07127645683952037
            ]
        },
        {
            "positions": [
                -0.7741268508820965,
                -0.8359337239849256,
                1.5355252191970665,
                1.7861039356349733,
                -1.8246391481382889,
                -0.1085598315022542
            ]
        },
        {
            "positions": [
                -0.753439162731028,
                -0.8642423040211713,
                1.4714102398449072,
                1.663741059652003,
                -1.7639884794325393,
                -0.14584320616498803
            ]
        },
        {
            "positions": [
                -0.7327514745799595,
                -0.892550884057417,
                1.4072952604927478,
                1.5413781836690326,
                -1.7033378107267898,
                -0.18312658082772185
            ]
        },
        {
            "positions": [
                -0.7120637864288909,
                -0.9208594640936627,
                1.3431802811405884,
                1.4190153076860623,
                -1.6426871420210403,
                -0.22040995549045567
            ]
        },
        {
            "positions": [
                -0.6913760982778223,
                -0.9491680441299084,
                1.279065301788429,
                1.2966524317030919,
                -1.5820364733152907,
                -0.2576933301531895
            ]
        },
        {
            "positions": [
                -0.7088790550385452,
                -0.9566698005453361,
                1.3110743380326066,
                1.2040683445693838,
                -1.4924371328523922,
                -0.1100742540396179
            ]
        },
        {
            "positions": [
                -0.7263820117992681,
                -0.9641715569607638,
                1.343083374276784,
                1.111484257435676,
                -1.402837792389494,
                0.03754482207395371
            ]
        },
        {
            "positions": [
                -0.7438849685599909,
                -0.9716733133761916,
                1.3750924105209616,
                1.018900170301968,
                -1.3132384519265954,
                0.18516389818752532
            ]
        },
        {
            "positions": [
                -0.7613879253207138,
                -0.9791750697916193,
                1.407101446765139,
                0.9263160831682601,
                -1.223639111463697,
                0.33278297430109693
            ]
        },
        {
            "positions": [
                -0.7788908820814366,
                -0.986676826207047,
                1.4391104830093167,
                0.8337319960345522,
                -1.1340397710007986,
                0.48040205041466855
            ]
        },
        {
            "positions": [
                -0.7963938388421595,
                -0.9941785826224747,
                1.4711195192534943,
                0.7411479089008443,
                -1.0444404305379003,
                0.6280211265282402
            ]
        },
        {
            "positions": [
                -0.8138967956028824,
                -1.0016803390379023,
                1.5031285554976717,
                0.6485638217671362,
                -0.9548410900750017,
                0.7756402026418118
            ]
        },
        {
            "positions": [
                -0.8313997523636052,
                -1.0091820954533302,
                1.5351375917418493,
                0.5559797346334283,
                -0.8652417496121033,
                0.9232592787553834
            ]
        },
        {
            "positions": [
                -0.8489027091243281,
                -1.0166838518687578,
                1.5671466279860269,
                0.4633956474997204,
                -0.7756424091492049,
                1.070878354868955
            ]
        },
        {
            "positions": [
                -0.866405665885051,
                -1.0241856082841856,
                1.5991556642302043,
                0.3708115603660125,
                -0.6860430686863065,
                1.2184974309825267
            ]
        },
        {
            "positions": [
                -0.8839086226457739,
                -1.0316873646996132,
                1.631164700474382,
                0.27822747323230446,
                -0.596443728223408,
                1.3661165070960983
            ]
        },
        {
            "positions": [
                -0.9014115794064966,
                -1.039189121115041,
                1.6631737367185593,
                0.18564338609859665,
                -0.5068443877605096,
                1.51373558320967
            ]
        },
        {
            "positions": [
                -0.9189145361672195,
                -1.0466908775304686,
                1.695182772962737,
                0.09305929896488885,
                -0.41724504729761125,
                1.6613546593232411
            ]
        },
        {
            "positions": [
                -0.9364174929279424,
                -1.0541926339458965,
                1.7271918092069145,
                0.00047521183118059973,
                -0.3276457068347127,
                1.8089737354368132
            ]
        },
        {
            "positions": [
                -0.9539204496886653,
                -1.061694390361324,
                1.759200845451092,
                -0.0921088753025272,
                -0.2380463663718142,
                1.9565928115503848
            ]
        },
        {
            "positions": [
                -0.9714234064493881,
                -1.069196146776752,
                1.7912098816952695,
                -0.18469296243623523,
                -0.1484470259089159,
                2.1042118876639564
            ]
        },
        {
            "positions": [
                -0.988926363210111,
                -1.0766979031921795,
                1.823218917939447,
                -0.27727704956994303,
                -0.058847685446017595,
                2.251830963777528
            ]
        },
        {
            "positions": [
                -1.0064293199708338,
                -1.0841996596076073,
                1.8552279541836245,
                -0.36986113670365106,
                0.03075165501688093,
                2.3994500398910996
            ]
        },
        {
            "positions": [
                -1.0239322767315566,
                -1.091701416023035,
                1.8872369904278021,
                -0.4624452238373591,
                0.12035099547977945,
                2.5470691160046712
            ]
        },
        {
            "positions": [
                -1.0414352334922796,
                -1.0992031724384628,
                1.9192460266719795,
                -0.5550293109710669,
                0.20995033594267776,
                2.694688192118243
            ]
        },
        {
            "positions": [
                -1.0589381902530024,
                -1.1067049288538904,
                1.951255062916157,
                -0.6476133981047747,
                0.29954967640557606,
                2.8423072682318145
            ]
        },
        {
            "positions": [
                -1.0764411470137254,
                -1.114206685269318,
                1.9832640991603347,
                -0.7401974852384829,
                0.3891490168684748,
                2.989926344345386
            ]
        },
        {
            "positions": [
                -1.0939441037744482,
                -1.1217084416847458,
                2.015273135404512,
                -0.8327815723721906,
                0.478748357331373,
                3.1375454204589577
            ]
        }
    ]
}