{
    "goal": {
        "global_pose": {
            "orientation": {
                "w": 0.7031023480610252,
                "x": -0.7110244013736278,
                "y": 0.0077485991402295624,
                "z": 0.005598929693374583
            },
            "position": {
                "x": -0.8841497679147869,
                "y": 0.44412534475326537,
                "z": 0.3711530566215515
            }
        },
        "name": "move_to_auspresseinheit_D"
    },
    "id": "BKPIECE_move_to_auspresseinheit_D_93",
    "joint_names": [
        "shoulder_pan_joint",
        "shoulder_lift_joint",
        "elbow_joint",
        "wrist_1_joint",
        "wrist_2_joint",
        "wrist_3_joint"
    ],
    "metrics": {
        "cart_traj_len": 0.3454892634127493,
        "distance_elbow_joint": 0.6722073605324403,
        "distance_shoulder_lift_joint": 0.13999906850355703,
        "distance_shoulder_pan_joint": 0.134295951895418,
        "distance_wrist_1_joint": 0.633261703840533,
        "distance_wrist_2_joint": 1.4441033676016952,
        "distance_wrist_3_joint": 0.0906098050711166,
        "smoothness": 2.07241630955877e-15,
        "time": 0.126989026,
        "traj_len": 1.7647881622009935,
        "weighted_distance": 2.317986613211824
    },
    "planner": "BKPIECE",
    "start": {
        "state": {
            "elbow_joint": -1.8275523626775212,
            "shoulder_lift_joint": -2.126789852344167,
            "shoulder_pan_joint": -0.03513704404078235,
            "wrist_1_joint": -2.347782403156801,
            "wrist_2_joint": -1.6058999987535132,
            "wrist_3_joint": -3.0880379163319196
        }
    },
    "waypoints": [
        {
            "positions": [
                -0.03513704404078235,
                -2.126789852344167,
                -1.8275523626775212,
                -2.347782403156801,
                -1.6058999987535132,
                -3.0880379163319196
            ]
        },
        {
            "positions": [
                -0.0519240380277096,
                -2.1442897359071114,
                -1.7435264426109662,
                -2.4269401161368673,
                -1.4253870778033013,
                -3.07671169069803
            ]
        },
        {
            "positions": [
                -0.06871103201463685,
                -2.1617896194700563,
                -1.659500522544411,
                -2.5060978291169342,
                -1.2448741568530894,
                -3.0653854650641406
            ]
        },
        {
            "positions": [
                -0.08549802600156409,
                -2.179289503033001,
                -1.575474602477856,
                -2.5852555420970007,
                -1.0643612359028776,
                -3.054059239430251
            ]
        },
        {
            "positions": [
                -0.10228501998849135,
                -2.1967893865959454,
                -1.491448682411301,
                -2.6644132550770676,
                -0.8838483149526656,
                -3.0427330137963615
            ]
        },
        {
            "positions": [
                -0.11907201397541858,
                -2.21428927015889,
                -1.407422762344746,
                -2.743570968057134,
                -0.7033353940024537,
                -3.0314067881624718
            ]
        },
        {
            "positions": [
                -0.13585900796234585,
                -2.2317891537218344,
                -1.323396842278191,
                -2.8227286810372005,
                -0.5228224730522417,
                -3.020080562528582
            ]
        },
        {
            "positions": [
                -0.15264600194927308,
                -2.2492890372847794,
                -1.239370922211636,
                -2.901886394017267,
                -0.34230955210202985,
                -3.0087543368946927
            ]
        },
        {
            "positions": [
                -0.16943299593620034,
                -2.266788920847724,
                -1.1553450021450808,
                -2.981044106997334,
                -0.16179663115181805,
                -2.997428111260803
            ]
        }
    ]
}