{
    "goal": {
        "global_pose": {
            "orientation": {
                "w": 0.5084816217422485,
                "x": -0.49083608388900757,
                "y": 0.5182115435600281,
                "z": -0.4816462993621826
            },
            "position": {
                "x": 0.5540239810943604,
                "y": 0.030875300988554955,
                "z": 0.16403168439865112
            }
        },
        "name": "move_to_storage_A"
    },
    "id": "BKPIECE_move_to_storage_A_123",
    "joint_names": [
        "shoulder_pan_joint",
        "shoulder_lift_joint",
        "elbow_joint",
        "wrist_1_joint",
        "wrist_2_joint",
        "wrist_3_joint"
    ],
    "metrics": {
        "cart_traj_len": 0.3534364172878825,
        "distance_elbow_joint": 0.4523459859305363,
        "distance_shoulder_lift_joint": 0.23433448584831296,
        "distance_shoulder_pan_joint": 0.46302730429446726,
        "distance_wrist_1_joint": 0.2518720005089444,
        "distance_wrist_2_joint": 1.0960984792343467,
        "distance_wrist_3_joint": 0.10514937940356672,
        "smoothness": 8.881784197001252e-16,
        "time": 0.237745038,
        "traj_len": 1.6133281238545911,
        "weighted_distance": 2.0398766810203504
    },
    "planner": "BKPIECE",
    "start": {
        "state": {
            "elbow_joint": 1.971548259319323,
            "shoulder_lift_joint": -1.1394851275133948,
            "shoulder_pan_joint": 0.1228115487234821,
            "wrist_1_joint": -0.7804723859257726,
            "wrist_2_joint": 0.12958671773740124,
            "wrist_3_joint": -3.192489227718131
        }
    },
    "waypoints": [
        {
            "positions": [
                0.1228115487234821,
                -1.1394851275133948,
                1.971548259319323,
                -0.7804723859257726,
                0.12958671773740124,
                -3.192489227718131
            ]
        },
        {
            "positions": [
                0.05666479096712963,
                -1.1729614826345824,
                2.0361691144522567,
                -0.8164541002841933,
                0.28617221477087934,
                -3.1774678878033358
            ]
        },
        {
            "positions": [
                -0.009481966789222834,
                -1.2064378377557698,
                2.1007899695851906,
                -0.8524358146426139,
                0.4427577118043574,
                -3.162446547888541
            ]
        },
        {
            "positions": [
                -0.07562872454557529,
                -1.2399141928769575,
                2.165410824718124,
                -0.8884175290010345,
                0.5993432088378355,
                -3.1474252079737455
            ]
        },
        {
            "positions": [
                -0.14177548230192777,
                -1.273390547998145,
                2.230031679851058,
                -0.9243992433594551,
                0.7559287058713137,
                -3.13240386805895
            ]
        },
        {
            "positions": [
                -0.20792224005828025,
                -1.3068669031193327,
                2.294652534983992,
                -0.9603809577178758,
                0.9125142029047918,
                -3.1173825281441547
            ]
        },
        {
            "positions": [
                -0.2740689978146327,
                -1.3403432582405201,
                2.3592733901169254,
                -0.9963626720762964,
                1.0690996999382698,
                -3.10236118822936
            ]
        },
        {
            "positions": [
                -0.34021575557098516,
                -1.3738196133617078,
                2.4238942452498593,
                -1.032344386434717,
                1.225685196971748,
                -3.0873398483145644
            ]
        }
    ]
}{
    "goal": {
        "global_pose": {
            "orientation": {
                "w": 0.5084816217422485,
                "x": -0.49083608388900757,
                "y": 0.5182115435600281,
                "z": -0.4816462993621826
            },
            "position": {
                "x": 0.5540239810943604,
                "y": 0.030875300988554955,
                "z": 0.16403168439865112
            }
        },
        "name": "move_to_storage_A"
    },
    "id": "BKPIECE_move_to_storage_A_123",
    "joint_names": [
        "shoulder_pan_joint",
        "shoulder_lift_joint",
        "elbow_joint",
        "wrist_1_joint",
        "wrist_2_joint",
        "wrist_3_joint"
    ],
    "metrics": {
        "cart_traj_len": 0.3525549699600547,
        "distance_elbow_joint": 0.4478583999712562,
        "distance_shoulder_lift_joint": 0.2354242829977744,
        "distance_shoulder_pan_joint": 0.4617616588145009,
        "distance_wrist_1_joint": 0.2370496820050969,
        "distance_wrist_2_joint": 1.0944246846479677,
        "distance_wrist_3_joint": 0.09440977647427218,
        "smoothness": 4.440892098500626e-16,
        "time": 0.16948697299999999,
        "traj_len": 1.6034115145248484,
        "weighted_distance": 2.022677039102505
    },
    "planner": "BKPIECE",
    "start": {
        "state": {
            "elbow_joint": 1.97154746011099,
            "shoulder_lift_joint": -1.13948474672311,
            "shoulder_pan_joint": 0.12281154466712228,
            "wrist_1_joint": -0.7804688027058302,
            "wrist_2_joint": 0.12958655903071145,
            "wrist_3_joint": 3.0906928834467795
        }
    },
    "waypoints": [
        {
            "positions": [
                0.12281154466712228,
                -1.13948474672311,
                1.97154746011099,
                -0.7804688027058302,
                0.12958655903071145,
                3.0906928834467795
            ]
        },
        {
            "positions": [
                0.056845593407907874,
                -1.1731167871513635,
                2.035527231535455,
                -0.8143330429922726,
                0.2859329425518497,
                3.1041799943716755
            ]
        },
        {
            "positions": [
                -0.009120357851306535,
                -1.206748827579617,
                2.0995070029599203,
                -0.848197283278715,
                0.4422793260729879,
                3.1176671052965714
            ]
        },
        {
            "positions": [
                -0.07508630911052093,
                -1.2403808680078705,
                2.1634867743843853,
                -0.8820615235651574,
                0.5986257095941262,
                3.1311542162214674
            ]
        },
        {
            "positions": [
                -0.14105226036973534,
                -1.2740129084361238,
                2.2274665458088507,
                -0.9159257638515999,
                0.7549720931152645,
                3.144641327146364
            ]
        },
        {
            "positions": [
                -0.2070182116289498,
                -1.3076449488643773,
                2.2914463172333157,
                -0.9497900041380423,
                0.9113184766364028,
                3.1581284380712598
            ]
        },
        {
            "positions": [
                -0.27298416288816413,
                -1.3412769892926308,
                2.355426088657781,
                -0.9836542444244847,
                1.067664860157541,
                3.1716155489961557
            ]
        },
        {
            "positions": [
                -0.3389501141473786,
                -1.3749090297208844,
                2.419405860082246,
                -1.017518484710927,
                1.2240112436786792,
                3.1851026599210517
            ]
        }
    ]
}{
    "goal": {
        "global_pose": {
            "orientation": {
                "w": 0.5084816217422485,
                "x": -0.49083608388900757,
                "y": 0.5182115435600281,
                "z": -0.4816462993621826
            },
            "position": {
                "x": 0.5540239810943604,
                "y": 0.030875300988554955,
                "z": 0.16403168439865112
            }
        },
        "name": "move_to_storage_A"
    },
    "id": "BKPIECE_move_to_storage_A_123",
    "joint_names": [
        "shoulder_pan_joint",
        "shoulder_lift_joint",
        "elbow_joint",
        "wrist_1_joint",
        "wrist_2_joint",
        "wrist_3_joint"
    ],
    "metrics": {
        "cart_traj_len": 0.35354940963311055,
        "distance_elbow_joint": 0.44968987108107417,
        "distance_shoulder_lift_joint": 0.23503037040000674,
        "distance_shoulder_pan_joint": 0.46309314988855493,
        "distance_wrist_1_joint": 0.24065860041309173,
        "distance_wrist_2_joint": 1.0966330198822838,
        "distance_wrist_3_joint": 0.09544304408602944,
        "smoothness": 8.881784197001252e-16,
        "time": 0.252096225,
        "traj_len": 1.6064084336653117,
        "weighted_distance": 2.026999201829758
    },
    "planner": "BKPIECE",
    "start": {
        "state": {
            "elbow_joint": 1.9715472970024885,
            "shoulder_lift_joint": -1.1394870060712896,
            "shoulder_pan_joint": 0.12281152778156021,
            "wrist_1_joint": -0.780463741449964,
            "wrist_2_joint": 0.12958659822042276,
            "wrist_3_joint": 3.090690232415272
        }
    },
    "waypoints": [
        {
            "positions": [
                0.12281152778156021,
                -1.1394870060712896,
                1.9715472970024885,
                -0.780463741449964,
                0.12958659822042276,
                3.090690232415272
            ]
        },
        {
            "positions": [
                0.05665536351176666,
                -1.1730627732712906,
                2.035788707156928,
                -0.8148435415089771,
                0.2862484582036061,
                3.1043249529989905
            ]
        },
        {
            "positions": [
                -0.009500800758026895,
                -1.2066385404712916,
                2.1000301173113667,
                -0.8492233415679902,
                0.4429103181867895,
                3.1179596735827086
            ]
        },
        {
            "positions": [
                -0.07565696502782043,
                -1.2402143076712926,
                2.164271527465806,
                -0.8836031416270033,
                0.5995721781699729,
                3.1315943941664273
            ]
        },
        {
            "positions": [
                -0.141813129297614,
                -1.2737900748712934,
                2.2285129376202453,
                -0.9179829416860164,
                0.7562340381531563,
                3.145229114750146
            ]
        },
        {
            "positions": [
                -0.2079692935674076,
                -1.3073658420712944,
                2.2927543477746846,
                -0.9523627417450296,
                0.9128958981363398,
                3.1588638353338645
            ]
        },
        {
            "positions": [
                -0.2741254578372011,
                -1.3409416092712954,
                2.3569957579291234,
                -0.9867425418040426,
                1.069557758119523,
                3.1724985559175827
            ]
        },
        {
            "positions": [
                -0.3402816221069947,
                -1.3745173764712963,
                2.4212371680835627,
                -1.0211223418630557,
                1.2262196181027065,
                3.1861332765013013
            ]
        }
    ]
}