{
    "goal": {
        "global_pose": {
            "orientation": {
                "w": 0.7031023480610252,
                "x": -0.7110244013736278,
                "y": 0.0077485991402295624,
                "z": 0.005598929693374583
            },
            "position": {
                "x": -0.8841497679147869,
                "y": 0.44412534475326537,
                "z": 0.3711530566215515
            }
        },
        "name": "move_to_auspresseinheit_D"
    },
    "id": "BKPIECE_move_to_auspresseinheit_D_12",
    "joint_names": [
        "shoulder_pan_joint",
        "shoulder_lift_joint",
        "elbow_joint",
        "wrist_1_joint",
        "wrist_2_joint",
        "wrist_3_joint"
    ],
    "metrics": {
        "cart_traj_len": 0.3424328209375562,
        "distance_elbow_joint": 0.6336794285924663,
        "distance_shoulder_lift_joint": 0.1190194553348185,
        "distance_shoulder_pan_joint": 0.13383998920157872,
        "distance_wrist_1_joint": 0.5247742368961026,
        "distance_wrist_2_joint": 1.434368400165747,
        "distance_wrist_3_joint": 0.003461447678376306,
        "smoothness": 1.9737298371844314e-16,
        "time": 0.21090069099999997,
        "traj_len": 1.6879404485553064,
        "weighted_distance": 2.194358332243777
    },
    "planner": "BKPIECE",
    "start": {
        "state": {
            "elbow_joint": -1.8275523626775212,
            "shoulder_lift_joint": -2.126789852344167,
            "shoulder_pan_joint": -0.03513704404078235,
            "wrist_1_joint": -2.347782403156801,
            "wrist_2_joint": -1.6058999987535132,
            "wrist_3_joint": -3.0880379163319196
        }
    },
    "waypoints": [
        {
            "positions": [
                -0.03513704404078235,
                -2.126789852344167,
                -1.8275523626775212,
                -2.347782403156801,
                -1.6058999987535132,
                -3.0880379163319196
            ]
        },
        {
            "positions": [
                -0.05186704269097969,
                -2.141667284261019,
                -1.748342434103463,
                -2.413379182768814,
                -1.4266039487327948,
                -3.0876052353721226
            ]
        },
        {
            "positions": [
                -0.06859704134117703,
                -2.1565447161778715,
                -1.6691325055294046,
                -2.4789759623808267,
                -1.2473078987120765,
                -3.0871725544123256
            ]
        },
        {
            "positions": [
                -0.08532703999137436,
                -2.171422148094724,
                -1.5899225769553462,
                -2.5445727419928392,
                -1.068011848691358,
                -3.0867398734525286
            ]
        },
        {
            "positions": [
                -0.1020570386415717,
                -2.186299580011576,
                -1.510712648381288,
                -2.610169521604852,
                -0.8887157986706397,
                -3.0863071924927317
            ]
        },
        {
            "positions": [
                -0.11878703729176904,
                -2.2011770119284284,
                -1.4315027198072299,
                -2.675766301216865,
                -0.7094197486499213,
                -3.0858745115329342
            ]
        },
        {
            "positions": [
                -0.1355170359419664,
                -2.2160544438452807,
                -1.3522927912331715,
                -2.7413630808288776,
                -0.5301236986292028,
                -3.0854418305731373
            ]
        },
        {
            "positions": [
                -0.15224703459216374,
                -2.230931875762133,
                -1.273082862659113,
                -2.8069598604408905,
                -0.3508276486084845,
                -3.0850091496133403
            ]
        },
        {
            "positions": [
                -0.16897703324236107,
                -2.2458093076789853,
                -1.193872934085055,
                -2.8725566400529035,
                -0.17153159858776607,
                -3.0845764686535433
            ]
        }
    ]
}