{
    "goal": {
        "global_pose": {
            "orientation": {
                "w": 0.005598929693374612,
                "x": 0.007748599140229565,
                "y": 0.7110244013736278,
                "z": -0.7031023480610252
            },
            "position": {
                "x": 0.1141497679147869,
                "y": -0.7141253447532654,
                "z": 0.3711530566215515
            }
        },
        "name": "move_to_auspresseinheit_B"
    },
    "id": "BKPIECE_move_to_auspresseinheit_B_72",
    "joint_names": [
        "shoulder_pan_joint",
        "shoulder_lift_joint",
        "elbow_joint",
        "wrist_1_joint",
        "wrist_2_joint",
        "wrist_3_joint"
    ],
    "metrics": {
        "cart_traj_len": 0.5653937626483816,
        "distance_elbow_joint": 0.06644735416846226,
        "distance_shoulder_lift_joint": 0.29339544337810475,
        "distance_shoulder_pan_joint": 0.577451944490472,
        "distance_wrist_1_joint": 0.3391055090143732,
        "distance_wrist_2_joint": 0.9953833731501451,
        "distance_wrist_3_joint": 0.004667943101430705,
        "smoothness": 3.806478935924272e-16,
        "time": 0.18337698100000002,
        "traj_len": 1.508791426043702,
        "weighted_distance": 1.9027023770601559
    },
    "planner": "BKPIECE",
    "start": {
        "state": {
            "elbow_joint": 2.0193083361928714,
            "shoulder_lift_joint": -1.1220246554650708,
            "shoulder_pan_joint": -1.0952077554168747,
            "wrist_1_joint": -0.8559753972642168,
            "wrist_2_joint": 0.4759566250798843,
            "wrist_3_joint": -3.1240929996934557
        }
    },
    "waypoints": [
        {
            "positions": [
                -1.0952077554168747,
                -1.1220246554650708,
                2.0193083361928714,
                -0.8559753972642168,
                0.4759566250798843,
                -3.1240929996934557
            ]
        },
        {
            "positions": [
                -1.1914497461652866,
                -1.1709238960280883,
                2.0082337771647945,
                -0.7994578124284879,
                0.6418538539382418,
                -3.1233150091765505
            ]
        },
        {
            "positions": [
                -1.2876917369136986,
                -1.2198231365911056,
                1.9971592181367173,
                -0.742940227592759,
                0.8077510827965992,
                -3.1225370186596453
            ]
        },
        {
            "positions": [
                -1.3839337276621106,
                -1.2687223771541232,
                1.9860846591086403,
                -0.6864226427570301,
                0.9736483116549568,
                -3.1217590281427405
            ]
        },
        {
            "positions": [
                -1.4801757184105226,
                -1.3176216177171407,
                1.9750101000805633,
                -0.6299050579213014,
                1.1395455405133144,
                -3.1209810376258353
            ]
        },
        {
            "positions": [
                -1.5764177091589346,
                -1.366520858280158,
                1.9639355410524861,
                -0.5733874730855724,
                1.305442769371672,
                -3.12020304710893
            ]
        },
        {
            "positions": [
                -1.6726596999073466,
                -1.4154200988431755,
                1.9528609820244092,
                -0.5168698882498436,
                1.4713399982300295,
                -3.119425056592025
            ]
        }
    ]
}