{
    "goal": {
        "global_pose": {
            "orientation": {
                "w": 0.5084816262002911,
                "x": -0.4908360881923452,
                "y": 0.5182115481033761,
                "z": -0.48164630358495003
            },
            "position": {
                "x": 0.5540239810943604,
                "y": -0.46912469901144505,
                "z": 0.16403168439865112
            }
        },
        "name": "move_to_storage_B"
    },
    "id": "BKPIECE_move_to_storage_B_140",
    "joint_names": [
        "shoulder_pan_joint",
        "shoulder_lift_joint",
        "elbow_joint",
        "wrist_1_joint",
        "wrist_2_joint",
        "wrist_3_joint"
    ],
    "metrics": {
        "cart_traj_len": 1.7727294727517708,
        "distance_elbow_joint": 1.451302382580384,
        "distance_shoulder_lift_joint": 0.8389783272967641,
        "distance_shoulder_pan_joint": 0.8859509984987378,
        "distance_wrist_1_joint": 2.9799718950239855,
        "distance_wrist_2_joint": 2.705200115279314,
        "distance_wrist_3_joint": 3.1598724767521476,
        "smoothness": 0.24585342803532748,
        "time": 0.317173039,
        "traj_len": 3.467171209420055,
        "weighted_distance": 4.901652084679095
    },
    "planner": "BKPIECE",
    "start": {
        "state": {
            "elbow_joint": 1.664937868594044,
            "shoulder_lift_joint": -0.661644460510453,
            "shoulder_pan_joint": -0.9139846352900073,
            "wrist_1_joint": 2.146753192139373,
            "wrist_2_joint": -2.2341966793290973,
            "wrist_3_joint": 0.005466555786416001
        }
    },
    "waypoints": [
        {
            "positions": [
                -0.9139846352900073,
                -0.661644460510453,
                1.664937868594044,
                2.146753192139373,
                -2.2341966793290973,
                0.005466555786416001
            ]
        },
        {
            "positions": [
                -0.8835933024134732,
                -0.6926071542157953,
                1.6670547361673544,
                2.136338426040246,
                -2.2177382450273715,
                -0.008520784070289361
            ]
        },
        {
            "positions": [
                -0.8300160276262504,
                -0.7778947040908235,
                1.6177920905473893,
                2.0395848220814523,
                -2.1314615678084974,
                0.009561934141212085
            ]
        },
        {
            "positions": [
                -0.7764387528390276,
                -0.8631822539658517,
                1.5685294449274239,
                1.9428312181226586,
                -2.0451848905896237,
                0.02764465235271353
            ]
        },
        {
            "positions": [
                -0.7228614780518048,
                -0.9484698038408799,
                1.5192667993074587,
                1.8460776141638648,
                -1.9589082133707496,
                0.045727370564214984
            ]
        },
        {
            "positions": [
                -0.669284203264582,
                -1.0337573537159082,
                1.4700041536874935,
                1.7493240102050713,
                -1.8726315361518757,
                0.06381008877571642
            ]
        },
        {
            "positions": [
                -0.6157069284773591,
                -1.1190449035909364,
                1.420741508067528,
                1.6525704062462776,
                -1.7863548589330016,
                0.08189280698721789
            ]
        },
        {
            "positions": [
                -0.5621296536901363,
                -1.2043324534659645,
                1.371478862447563,
                1.5558168022874839,
                -1.7000781817141277,
                0.09997552519871933
            ]
        },
        {
            "positions": [
                -0.570591340103596,
                -1.239845758996616,
                1.2864215429494101,
                1.441373199772741,
                -1.6151200796279728,
                0.1646120359880921
            ]
        },
        {
            "positions": [
                -0.5790530265170556,
                -1.2753590645272674,
                1.2013642234512574,
                1.3269295972579984,
                -1.5301619775418178,
                0.2292485467774649
            ]
        },
        {
            "positions": [
                -0.5875147129305153,
                -1.310872370057919,
                1.1163069039531046,
                1.2124859947432556,
                -1.4452038754556629,
                0.2938850575668377
            ]
        },
        {
            "positions": [
                -0.6106379382786283,
                -1.3022473510693144,
                1.1571449804436875,
                1.1194994175783526,
                -1.358103543119032,
                0.42313411644221566
            ]
        },
        {
            "positions": [
                -0.6337611636267414,
                -1.29362233208071,
                1.1979830569342704,
                1.0265128404134496,
                -1.2710032107824012,
                0.5523831753175936
            ]
        },
        {
            "positions": [
                -0.6568843889748546,
                -1.2849973130921057,
                1.2388211334248533,
                0.9335262632485466,
                -1.1839028784457701,
                0.6816322341929715
            ]
        },
        {
            "positions": [
                -0.6800076143229676,
                -1.2763722941035012,
                1.2796592099154362,
                0.8405396860836436,
                -1.0968025461091393,
                0.8108812930683496
            ]
        },
        {
            "positions": [
                -0.7031308396710807,
                -1.2677472751148966,
                1.320497286406019,
                0.7475531089187406,
                -1.0097022137725085,
                0.9401303519437274
            ]
        },
        {
            "positions": [
                -0.7262540650191938,
                -1.2591222561262922,
                1.3613353628966018,
                0.6545665317538376,
                -0.9226018814358776,
                1.0693794108191055
            ]
        },
        {
            "positions": [
                -0.7493772903673068,
                -1.250497237137688,
                1.4021734393871848,
                0.5615799545889346,
                -0.8355015490992467,
                1.1986284696944833
            ]
        },
        {
            "positions": [
                -0.77250051571542,
                -1.2418722181490833,
                1.4430115158777677,
                0.4685933774240316,
                -0.7484012167626157,
                1.3278775285698614
            ]
        },
        {
            "positions": [
                -0.7956237410635331,
                -1.2332471991604788,
                1.4838495923683506,
                0.3756068002591286,
                -0.6613008844259848,
                1.4571265874452393
            ]
        },
        {
            "positions": [
                -0.8187469664116461,
                -1.2246221801718744,
                1.5246876688589335,
                0.28262022309422563,
                -0.574200552089354,
                1.5863756463206171
            ]
        },
        {
            "positions": [
                -0.8418701917597593,
                -1.21599716118327,
                1.5655257453495164,
                0.18963364592932264,
                -0.4871002197527231,
                1.7156247051959952
            ]
        },
        {
            "positions": [
                -0.8649934171078724,
                -1.2073721421946655,
                1.6063638218400993,
                0.09664706876441964,
                -0.3999998874160924,
                1.844873764071373
            ]
        },
        {
            "positions": [
                -0.8881166424559854,
                -1.198747123206061,
                1.6472018983306822,
                0.0036604915995166465,
                -0.3128995550794613,
                1.9741228229467511
            ]
        },
        {
            "positions": [
                -0.9112398678040985,
                -1.1901221042174566,
                1.6880399748212649,
                -0.08932608556538635,
                -0.22579922274283049,
                2.103371881822129
            ]
        },
        {
            "positions": [
                -0.9343630931522116,
                -1.1814970852288522,
                1.728878051311848,
                -0.18231266273028934,
                -0.13869889040619965,
                2.232620940697507
            ]
        },
        {
            "positions": [
                -0.9574863185003246,
                -1.1728720662402476,
                1.7697161278024307,
                -0.27529923989519234,
                -0.05159855806956859,
                2.3618699995728853
            ]
        },
        {
            "positions": [
                -0.9806095438484378,
                -1.164247047251643,
                1.8105542042930138,
                -0.36828581706009533,
                0.03550177426706225,
                2.4911190584482625
            ]
        },
        {
            "positions": [
                -1.003732769196551,
                -1.1556220282630387,
                1.8513922807835965,
                -0.46127239422499833,
                0.1226021066036933,
                2.6203681173236406
            ]
        },
        {
            "positions": [
                -1.026855994544664,
                -1.1469970092744344,
                1.8922303572741797,
                -0.5542589713899013,
                0.20970243894032392,
                2.7496171761990187
            ]
        },
        {
            "positions": [
                -1.049979219892777,
                -1.1383719902858298,
                1.9330684337647623,
                -0.6472455485548043,
                0.29680277127695476,
                2.8788662350743968
            ]
        },
        {
            "positions": [
                -1.0731024452408902,
                -1.1297469712972252,
                1.9739065102553455,
                -0.7402321257197073,
                0.3839031036135858,
                3.008115293949775
            ]
        },
        {
            "positions": [
                -1.0962256705890032,
                -1.1211219523086209,
                2.014744586745928,
                -0.8332187028846104,
                0.4710034359502166,
                3.137364352825153
            ]
        }
    ]
}