{
    "goal": {
        "global_pose": {
            "orientation": {
                "w": 0.005598929693374612,
                "x": 0.007748599140229565,
                "y": 0.7110244013736278,
                "z": -0.7031023480610252
            },
            "position": {
                "x": 0.1141497679147869,
                "y": -0.7141253447532654,
                "z": 0.3711530566215515
            }
        },
        "name": "move_to_auspresseinheit_B"
    },
    "id": "BKPIECE_move_to_auspresseinheit_B_29",
    "joint_names": [
        "shoulder_pan_joint",
        "shoulder_lift_joint",
        "elbow_joint",
        "wrist_1_joint",
        "wrist_2_joint",
        "wrist_3_joint"
    ],
    "metrics": {
        "cart_traj_len": 0.5642179223011354,
        "distance_elbow_joint": 0.06004690088825182,
        "distance_shoulder_lift_joint": 0.29390312368627924,
        "distance_shoulder_pan_joint": 0.5769943664185133,
        "distance_wrist_1_joint": 0.31625458356453384,
        "distance_wrist_2_joint": 0.9918942719554411,
        "distance_wrist_3_joint": 0.010750013147390103,
        "smoothness": 0.0,
        "time": 0.210892319,
        "traj_len": 1.499947752310196,
        "weighted_distance": 1.891954582297145
    },
    "planner": "BKPIECE",
    "start": {
        "state": {
            "elbow_joint": 2.0193083361928714,
            "shoulder_lift_joint": -1.1220246554650708,
            "shoulder_pan_joint": -1.0952077554168747,
            "wrist_1_joint": -0.8559753972642168,
            "wrist_2_joint": 0.4759566250798843,
            "wrist_3_joint": -3.1240929996934557
        }
    },
    "waypoints": [
        {
            "positions": [
                -1.0952077554168747,
                -1.1220246554650708,
                2.0193083361928714,
                -0.8559753972642168,
                0.4759566250798843,
                -3.1240929996934557
            ]
        },
        {
            "positions": [
                -1.1913734831532936,
                -1.171008509412784,
                2.009300519378163,
                -0.8032663000034611,
                0.6412723370724578,
                -3.1223013308355574
            ]
        },
        {
            "positions": [
                -1.2875392108897123,
                -1.2199923633604972,
                1.9992927025634541,
                -0.7505572027427055,
                0.8065880490650312,
                -3.120509661977659
            ]
        },
        {
            "positions": [
                -1.3837049386261313,
                -1.2689762173082104,
                1.9892848857487455,
                -0.6978481054819499,
                0.9719037610576049,
                -3.118717993119761
            ]
        },
        {
            "positions": [
                -1.47987066636255,
                -1.3179600712559236,
                1.9792770689340369,
                -0.6451390082211943,
                1.1372194730501783,
                -3.116926324261862
            ]
        },
        {
            "positions": [
                -1.5760363940989692,
                -1.3669439252036368,
                1.9692692521193282,
                -0.5924299109604385,
                1.302535185042752,
                -3.115134655403964
            ]
        },
        {
            "positions": [
                -1.672202121835388,
                -1.41592777915135,
                1.9592614353046196,
                -0.5397208136996829,
                1.4678508970353255,
                -3.1133429865460656
            ]
        }
    ]
}