{
    "goal": {
        "global_pose": {
            "orientation": {
                "w": 0.7047431493862688,
                "x": -0.7094548369677653,
                "y": 0.0024358444001904,
                "z": -0.0022348060817251984
            },
            "position": {
                "x": -0.39052492380142206,
                "y": 0.3671506643295288,
                "z": 0.19426114857196808
            }
        },
        "name": "move_to_magneteinheit_D"
    },
    "id": "BKPIECE_move_to_magneteinheit_D_72",
    "joint_names": [
        "shoulder_pan_joint",
        "shoulder_lift_joint",
        "elbow_joint",
        "wrist_1_joint",
        "wrist_2_joint",
        "wrist_3_joint"
    ],
    "metrics": {
        "cart_traj_len": 4.117228666933771,
        "distance_elbow_joint": 3.1698376479628707,
        "distance_shoulder_lift_joint": 1.6262082947276608,
        "distance_shoulder_pan_joint": 3.1569740176710566,
        "distance_wrist_1_joint": 1.9433736425490842,
        "distance_wrist_2_joint": 1.2059978484675367,
        "distance_wrist_3_joint": 5.146027764832077,
        "smoothness": 0.3938338874569221,
        "time": 0.328507971,
        "traj_len": 4.030932797282819,
        "weighted_distance": 5.4488389806353315
    },
    "planner": "BKPIECE",
    "start": {
        "state": {
            "elbow_joint": 0.749534889911806,
            "shoulder_lift_joint": -0.6476975780787326,
            "shoulder_pan_joint": -2.711696901376241,
            "wrist_1_joint": -0.07506478083263063,
            "wrist_2_joint": 0.43296659715538205,
            "wrist_3_joint": -3.14703540197715
        }
    },
    "waypoints": [
        {
            "positions": [
                -2.711696901376241,
                -0.6476975780787326,
                0.749534889911806,
                -0.07506478083263063,
                0.43296659715538205,
                -3.14703540197715
            ]
        },
        {
            "positions": [
                -2.717765484034375,
                -0.6598989105509866,
                0.7436437841088197,
                -0.007643029342681587,
                0.388390973386465,
                -3.0470995972160084
            ]
        },
        {
            "positions": [
                -2.7202093635904885,
                -0.6793221017018111,
                0.7258747803025491,
                0.08554409127984114,
                0.31809247527240536,
                -2.8815875012644425
            ]
        },
        {
            "positions": [
                -2.7226532431466026,
                -0.6987452928526356,
                0.7081057764962786,
                0.17873121190236385,
                0.24779397715834578,
                -2.716075405312876
            ]
        },
        {
            "positions": [
                -2.7250971227027163,
                -0.7181684840034601,
                0.690336772690008,
                0.2719183325248866,
                0.17749547904428617,
                -2.5505633093613103
            ]
        },
        {
            "positions": [
                -2.6956180051685057,
                -0.7376567841224407,
                0.6482341226866196,
                0.32460957665147705,
                0.117785886123078,
                -2.3744733764275883
            ]
        },
        {
            "positions": [
                -2.666138887634295,
                -0.7571450842414214,
                0.6061314726832311,
                0.3773008207780675,
                0.05807629320186983,
                -2.1983834434938663
            ]
        },
        {
            "positions": [
                -2.636659770100085,
                -0.7766333843604021,
                0.5640288226798427,
                0.42999206490465786,
                -0.0016332997193383436,
                -2.022293510560144
            ]
        },
        {
            "positions": [
                -2.6071806525658743,
                -0.7961216844793827,
                0.5219261726764541,
                0.4826833090312483,
                -0.061342892640546515,
                -1.846203577626422
            ]
        },
        {
            "positions": [
                -2.5777015350316637,
                -0.8156099845983633,
                0.4798235226730657,
                0.5353745531578387,
                -0.12105248556175466,
                -1.6701136446927
            ]
        },
        {
            "positions": [
                -2.5482224174974535,
                -0.835098284717344,
                0.4377208726696773,
                0.5880657972844291,
                -0.18076207848296286,
                -1.4940237117589779
            ]
        },
        {
            "positions": [
                -2.518743299963243,
                -0.8545865848363247,
                0.3956182226662888,
                0.6407570414110195,
                -0.24047167140417106,
                -1.3179337788252559
            ]
        },
        {
            "positions": [
                -2.4892641824290322,
                -0.8740748849553053,
                0.35351557266290035,
                0.69344828553761,
                -0.30018126432537917,
                -1.1418438458915339
            ]
        },
        {
            "positions": [
                -2.358962449735169,
                -0.9181724401438287,
                0.26104425120018,
                0.6830184512187361,
                -0.2963587095108482,
                -1.0402107295264864
            ]
        },
        {
            "positions": [
                -2.2286607170413055,
                -0.9622699953323522,
                0.1685729297374596,
                0.672588616899862,
                -0.2925361546963172,
                -0.938577613161439
            ]
        },
        {
            "positions": [
                -2.0983589843474424,
                -1.0063675505208758,
                0.07610160827473927,
                0.6621587825809881,
                -0.2887135998817862,
                -0.8369444967963915
            ]
        },
        {
            "positions": [
                -1.968057251653579,
                -1.0504651057093992,
                -0.01636971318798114,
                0.6517289482621141,
                -0.2848910450672552,
                -0.735311380431344
            ]
        },
        {
            "positions": [
                -1.8377555189597157,
                -1.0945626608979226,
                -0.1088410346507015,
                0.6412991139432402,
                -0.28106849025272423,
                -0.6336782640662966
            ]
        },
        {
            "positions": [
                -1.7074537862658525,
                -1.138660216086446,
                -0.2013123561134218,
                0.6308692796243662,
                -0.2772459354381932,
                -0.5320451477012491
            ]
        },
        {
            "positions": [
                -1.5771520535719894,
                -1.1827577712749695,
                -0.2937836775761422,
                0.6204394453054923,
                -0.2734233806236622,
                -0.43041203133620165
            ]
        },
        {
            "positions": [
                -1.4468503208781258,
                -1.2268553264634932,
                -0.3862549990388626,
                0.6100096109866183,
                -0.26960082580913125,
                -0.3287789149711542
            ]
        },
        {
            "positions": [
                -1.3165485881842627,
                -1.2709528816520166,
                -0.47872632050158304,
                0.5995797766677444,
                -0.2657782709946003,
                -0.22714579860610673
            ]
        },
        {
            "positions": [
                -1.1862468554903993,
                -1.31505043684054,
                -0.5711976419643033,
                0.5891499423488704,
                -0.2619557161800693,
                -0.12551268224105927
            ]
        },
        {
            "positions": [
                -1.055945122796536,
                -1.3591479920290634,
                -0.6636689634270238,
                0.5787201080299965,
                -0.25813316136553827,
                -0.02387956587601181
            ]
        },
        {
            "positions": [
                -0.9256433901026728,
                -1.4032455472175869,
                -0.7561402848897439,
                0.5682902737111226,
                -0.2543106065510073,
                0.07775355048903565
            ]
        },
        {
            "positions": [
                -0.7953416574088095,
                -1.4473431024061103,
                -0.8486116063524646,
                0.5578604393922486,
                -0.2504880517364763,
                0.1793866668540831
            ]
        },
        {
            "positions": [
                -0.6650399247149463,
                -1.4914406575946337,
                -0.9410829278151848,
                0.5474306050733747,
                -0.2466654969219453,
                0.28101978321913057
            ]
        },
        {
            "positions": [
                -0.534738192021083,
                -1.5355382127831574,
                -1.033554249277905,
                0.5370007707545007,
                -0.2428429421074143,
                0.38265289958417803
            ]
        },
        {
            "positions": [
                -0.4044364593272194,
                -1.579635767971681,
                -1.1260255707406257,
                0.5265709364356268,
                -0.23902038729288333,
                0.4842860159492255
            ]
        },
        {
            "positions": [
                -0.27413472663335625,
                -1.6237333231602045,
                -1.218496892203346,
                0.5161411021167528,
                -0.23519783247835235,
                0.585919132314273
            ]
        },
        {
            "positions": [
                -0.14383299393949311,
                -1.667830878348728,
                -1.3109682136660665,
                0.5057112677978789,
                -0.23137527766382135,
                0.6875522486793204
            ]
        },
        {
            "positions": [
                -0.013531261245629977,
                -1.7119284335372513,
                -1.4034395351287867,
                0.49528143347900494,
                -0.22755272284929035,
                0.7891853650443679
            ]
        },
        {
            "positions": [
                0.11677047144823371,
                -1.7560259887257748,
                -1.495910856591507,
                0.484851599160131,
                -0.22373016803475937,
                0.8908184814094151
            ]
        },
        {
            "positions": [
                0.10700693405914032,
                -1.8072131344806164,
                -1.5970807216763059,
                0.5758819077354778,
                -0.20971321194988676,
                0.7837157221178412
            ]
        },
        {
            "positions": [
                0.09724339667004692,
                -1.858400280235458,
                -1.6982505867611046,
                0.6669122163108244,
                -0.19569625586501413,
                0.6766129628262673
            ]
        },
        {
            "positions": [
                0.08747985928095352,
                -1.9095874259902994,
                -1.7994204518459034,
                0.7579425248861711,
                -0.18167929978014152,
                0.5695102035346934
            ]
        },
        {
            "positions": [
                0.07771632189186012,
                -1.960774571745141,
                -1.9005903169307024,
                0.8489728334615179,
                -0.16766234369526892,
                0.46240744424311947
            ]
        },
        {
            "positions": [
                0.0679527845027667,
                -2.0119617174999824,
                -2.0017601820155013,
                0.9400031420368646,
                -0.15364538761039628,
                0.35530468495154555
            ]
        },
        {
            "positions": [
                0.05818924711367331,
                -2.063148863254824,
                -2.1029300471003003,
                1.0310334506122114,
                -0.13962843152552368,
                0.24820192565997168
            ]
        },
        {
            "positions": [
                0.04842570972457991,
                -2.1143360090096657,
                -2.2040999121850993,
                1.122063759187558,
                -0.12561147544065104,
                0.1410991663683977
            ]
        },
        {
            "positions": [
                0.03866217233548651,
                -2.1655231547645073,
                -2.305269777269898,
                1.2130940677629047,
                -0.11159451935577845,
                0.03399640707682383
            ]
        },
        {
            "positions": [
                0.02889863494639311,
                -2.216710300519349,
                -2.4064396423546968,
                1.3041243763382515,
                -0.09757756327090582,
                -0.07310635221475009
            ]
        },
        {
            "positions": [
                -0.042379486950871154,
                -2.235775491281697,
                -2.401818603789241,
                1.353121413879333,
                -0.007495467960138433,
                -0.02502333627430125
            ]
        },
        {
            "positions": [
                -0.11365760884813542,
                -2.2548406820440454,
                -2.397197565223785,
                1.4021184514204144,
                0.08258662735062895,
                0.023059679666147595
            ]
        },
        {
            "positions": [
                -0.18493573074539968,
                -2.2739058728063934,
                -2.392576526658329,
                1.451115488961496,
                0.17266872266139635,
                0.07114269560659645
            ]
        }
    ]
}