{
    "goal": {
        "global_pose": {
            "orientation": {
                "w": 0.005598929693374612,
                "x": 0.007748599140229565,
                "y": 0.7110244013736278,
                "z": -0.7031023480610252
            },
            "position": {
                "x": 0.1141497679147869,
                "y": -0.7141253447532654,
                "z": 0.3711530566215515
            }
        },
        "name": "move_to_auspresseinheit_B"
    },
    "id": "BKPIECE_move_to_auspresseinheit_B_68",
    "joint_names": [
        "shoulder_pan_joint",
        "shoulder_lift_joint",
        "elbow_joint",
        "wrist_1_joint",
        "wrist_2_joint",
        "wrist_3_joint"
    ],
    "metrics": {
        "cart_traj_len": 0.564807028753945,
        "distance_elbow_joint": 0.06454710270863329,
        "distance_shoulder_lift_joint": 0.29391830918839834,
        "distance_shoulder_pan_joint": 0.579177456554502,
        "distance_wrist_1_joint": 0.3366485405669227,
        "distance_wrist_2_joint": 0.9849799330410183,
        "distance_wrist_3_joint": 0.0012087909738696112,
        "smoothness": 5.075305255429287e-16,
        "time": 0.358203353,
        "traj_len": 1.5034893192282226,
        "weighted_distance": 1.8932844975304226
    },
    "planner": "BKPIECE",
    "start": {
        "state": {
            "elbow_joint": 2.0193083361928714,
            "shoulder_lift_joint": -1.1220246554650708,
            "shoulder_pan_joint": -1.0952077554168747,
            "wrist_1_joint": -0.8559753972642168,
            "wrist_2_joint": 0.4759566250798843,
            "wrist_3_joint": -3.1240929996934557
        }
    },
    "waypoints": [
        {
            "positions": [
                -1.0952077554168747,
                -1.1220246554650708,
                2.0193083361928714,
                -0.8559753972642168,
                0.4759566250798843,
                -3.1240929996934557
            ]
        },
        {
            "positions": [
                -1.1917373315092916,
                -1.171011040329804,
                2.0085504857414325,
                -0.7998673071697296,
                0.6401199472533874,
                -3.124294464855767
            ]
        },
        {
            "positions": [
                -1.2882669076017086,
                -1.219997425194537,
                1.9977926352899937,
                -0.7437592170752425,
                0.8042832694268904,
                -3.124495930018079
            ]
        },
        {
            "positions": [
                -1.3847964836941258,
                -1.2689838100592699,
                1.9870347848385548,
                -0.6876511269807555,
                0.9684465916003935,
                -3.1246973951803905
            ]
        },
        {
            "positions": [
                -1.4813260597865425,
                -1.317970194924003,
                1.9762769343871158,
                -0.6315430368862683,
                1.1326099137738965,
                -3.124898860342702
            ]
        },
        {
            "positions": [
                -1.5778556358789597,
                -1.3669565797887362,
                1.965519083935677,
                -0.5754349467917812,
                1.2967732359473996,
                -3.125100325505014
            ]
        },
        {
            "positions": [
                -1.6743852119713767,
                -1.4159429646534691,
                1.9547612334842381,
                -0.5193268566972941,
                1.4609365581209026,
                -3.1253017906673253
            ]
        }
    ]
}