{
    "goal": {
        "global_pose": {
            "orientation": {
                "w": 0.005598929693374612,
                "x": 0.007748599140229565,
                "y": 0.7110244013736278,
                "z": -0.7031023480610252
            },
            "position": {
                "x": 0.1141497679147869,
                "y": -0.7141253447532654,
                "z": 0.3711530566215515
            }
        },
        "name": "move_to_auspresseinheit_B"
    },
    "id": "BKPIECE_move_to_auspresseinheit_B_128",
    "joint_names": [
        "shoulder_pan_joint",
        "shoulder_lift_joint",
        "elbow_joint",
        "wrist_1_joint",
        "wrist_2_joint",
        "wrist_3_joint"
    ],
    "metrics": {
        "cart_traj_len": 0.5635368787225152,
        "distance_elbow_joint": 0.05955111680835623,
        "distance_shoulder_lift_joint": 0.2958556747381804,
        "distance_shoulder_pan_joint": 0.5773484693633815,
        "distance_wrist_1_joint": 0.3207663080010379,
        "distance_wrist_2_joint": 0.9872323129934266,
        "distance_wrist_3_joint": 0.004811177885934992,
        "smoothness": 7.612957903237841e-16,
        "time": 0.213367384,
        "traj_len": 1.498520957407776,
        "weighted_distance": 1.8876403355927347
    },
    "planner": "BKPIECE",
    "start": {
        "state": {
            "elbow_joint": 2.0193083361928714,
            "shoulder_lift_joint": -1.1220246554650708,
            "shoulder_pan_joint": -1.0952077554168747,
            "wrist_1_joint": -0.8559753972642168,
            "wrist_2_joint": 0.4759566250798843,
            "wrist_3_joint": -3.1240929996934557
        }
    },
    "waypoints": [
        {
            "positions": [
                -1.0952077554168747,
                -1.1220246554650708,
                2.0193083361928714,
                -0.8559753972642168,
                0.4759566250798843,
                -3.1240929996934557
            ]
        },
        {
            "positions": [
                -1.1914325003107715,
                -1.1713339345881009,
                2.009383150058145,
                -0.8025143459307105,
                0.640495343912122,
                -3.1232911367124663
            ]
        },
        {
            "positions": [
                -1.2876572452046684,
                -1.220643213711131,
                1.9994579639234193,
                -0.7490532945972042,
                0.8050340627443597,
                -3.1224892737314773
            ]
        },
        {
            "positions": [
                -1.3838819900985655,
                -1.269952492834161,
                1.9895327777886933,
                -0.6955922432636978,
                0.9695727815765975,
                -3.1216874107504884
            ]
        },
        {
            "positions": [
                -1.4801067349924621,
                -1.319261771957191,
                1.9796075916539673,
                -0.6421311919301915,
                1.1341115004088353,
                -3.120885547769499
            ]
        },
        {
            "positions": [
                -1.5763314798863592,
                -1.3685710510802211,
                1.9696824055192412,
                -0.5886701405966852,
                1.2986502192410732,
                -3.1200836847885096
            ]
        },
        {
            "positions": [
                -1.6725562247802561,
                -1.4178803302032512,
                1.9597572193845152,
                -0.5352090892631789,
                1.463188938073311,
                -3.1192818218075207
            ]
        }
    ]
}