{
    "goal": {
        "global_pose": {
            "orientation": {
                "w": 0.7047431493862688,
                "x": -0.7094548369677653,
                "y": 0.0024358444001904,
                "z": -0.0022348060817251984
            },
            "position": {
                "x": -0.39052492380142206,
                "y": 0.3671506643295288,
                "z": 0.19426114857196808
            }
        },
        "name": "move_to_magneteinheit_D"
    },
    "id": "BKPIECE_move_to_magneteinheit_D_56",
    "joint_names": [
        "shoulder_pan_joint",
        "shoulder_lift_joint",
        "elbow_joint",
        "wrist_1_joint",
        "wrist_2_joint",
        "wrist_3_joint"
    ],
    "metrics": {
        "cart_traj_len": 4.157270706216386,
        "distance_elbow_joint": 3.113709853807132,
        "distance_shoulder_lift_joint": 1.0960345923623724,
        "distance_shoulder_pan_joint": 2.970437549460867,
        "distance_wrist_1_joint": 2.7863653331157066,
        "distance_wrist_2_joint": 1.1838495193068852,
        "distance_wrist_3_joint": 6.287261499516873,
        "smoothness": 0.23985100519494765,
        "time": 0.341805825,
        "traj_len": 4.175842232121544,
        "weighted_distance": 5.829442185923639
    },
    "planner": "BKPIECE",
    "start": {
        "state": {
            "elbow_joint": 0.749534889911806,
            "shoulder_lift_joint": -0.6476975780787326,
            "shoulder_pan_joint": -2.711696901376241,
            "wrist_1_joint": -0.07506478083263063,
            "wrist_2_joint": 0.43296659715538205,
            "wrist_3_joint": -3.14703540197715
        }
    },
    "waypoints": [
        {
            "positions": [
                -2.711696901376241,
                -0.6476975780787326,
                0.749534889911806,
                -0.07506478083263063,
                0.43296659715538205,
                -3.14703540197715
            ]
        },
        {
            "positions": [
                -2.728890973182168,
                -0.667935264787409,
                0.6296795882934105,
                0.031887524851553564,
                0.3700612246200293,
                -3.120224216690032
            ]
        },
        {
            "positions": [
                -2.7460850449880945,
                -0.6881729514960854,
                0.5098242866750151,
                0.13883983053573776,
                0.3071558520846766,
                -3.093413031402914
            ]
        },
        {
            "positions": [
                -2.7632791167940214,
                -0.7084106382047618,
                0.3899689850566196,
                0.24579213621992194,
                0.24425047954932388,
                -3.066601846115796
            ]
        },
        {
            "positions": [
                -2.753367157258931,
                -0.7117191333713901,
                0.3594667033331084,
                0.2698562884524998,
                0.22379122654514982,
                -3.049659997581306
            ]
        },
        {
            "positions": [
                -2.6729544856995644,
                -0.734385712088957,
                0.28842763622633716,
                0.22504164706378602,
                0.2074449070765657,
                -2.896616595026407
            ]
        },
        {
            "positions": [
                -2.5925418141401977,
                -0.7570522908065237,
                0.217388569119566,
                0.18022700567507222,
                0.19109858760798162,
                -2.743573192471508
            ]
        },
        {
            "positions": [
                -2.5121291425808305,
                -0.7797188695240905,
                0.1463495020127948,
                0.1354123642863584,
                0.1747522681393975,
                -2.590529789916609
            ]
        },
        {
            "positions": [
                -2.431716471021464,
                -0.8023854482416573,
                0.07531043490602363,
                0.09059772289764459,
                0.15840594867081342,
                -2.4374863873617105
            ]
        },
        {
            "positions": [
                -2.351303799462097,
                -0.8250520269592241,
                0.004271367799252412,
                0.04578308150893079,
                0.1420596292022293,
                -2.2844429848068115
            ]
        },
        {
            "positions": [
                -2.2708911279027304,
                -0.8477186056767909,
                -0.06676769930751875,
                0.0009684401202169624,
                0.1257133097336452,
                -2.1313995822519125
            ]
        },
        {
            "positions": [
                -2.1904784563433637,
                -0.8703851843943577,
                -0.1378067664142899,
                -0.04384620126849681,
                0.1093669902650611,
                -1.9783561796970135
            ]
        },
        {
            "positions": [
                -2.1100657847839965,
                -0.8930517631119245,
                -0.20884583352106112,
                -0.08866084265721064,
                0.093020670796477,
                -1.8253127771421145
            ]
        },
        {
            "positions": [
                -2.02965311322463,
                -0.9157183418294912,
                -0.27988490062783233,
                -0.13347548404592446,
                0.07667435132789288,
                -1.6722693745872155
            ]
        },
        {
            "positions": [
                -1.9492404416652631,
                -0.938384920547058,
                -0.35092396773460355,
                -0.17829012543463824,
                0.060328031859308795,
                -1.5192259720323165
            ]
        },
        {
            "positions": [
                -1.8688277701058962,
                -0.9610514992646249,
                -0.42196303484137465,
                -0.22310476682335206,
                0.04398171239072468,
                -1.3661825694774177
            ]
        },
        {
            "positions": [
                -1.7884150985465295,
                -0.9837180779821917,
                -0.49300210194814587,
                -0.2679194082120659,
                0.027635392922140567,
                -1.2131391669225187
            ]
        },
        {
            "positions": [
                -1.7080024269871625,
                -1.0063846566997583,
                -0.5640411690549171,
                -0.3127340496007797,
                0.01128907345355648,
                -1.0600957643676197
            ]
        },
        {
            "positions": [
                -1.6275897554277958,
                -1.0290512354173251,
                -0.6350802361616882,
                -0.35754869098949343,
                -0.005057246015027633,
                -0.9070523618127209
            ]
        },
        {
            "positions": [
                -1.547177083868429,
                -1.051717814134892,
                -0.7061193032684595,
                -0.40236333237820726,
                -0.02140356548361172,
                -0.7540089592578219
            ]
        },
        {
            "positions": [
                -1.4667644123090622,
                -1.0743843928524588,
                -0.7771583703752306,
                -0.4471779737669211,
                -0.037749884952195834,
                -0.6009655567029228
            ]
        },
        {
            "positions": [
                -1.3863517407496955,
                -1.0970509715700256,
                -0.8481974374820017,
                -0.4919926151556349,
                -0.05409620442077995,
                -0.44792215414802383
            ]
        },
        {
            "positions": [
                -1.3059390691903285,
                -1.1197175502875925,
                -0.919236504588773,
                -0.5368072565443487,
                -0.07044252388936406,
                -0.2948787515931248
            ]
        },
        {
            "positions": [
                -1.2255263976309618,
                -1.1423841290051593,
                -0.9902755716955441,
                -0.5816218979330625,
                -0.08678884335794812,
                -0.1418353490382258
            ]
        },
        {
            "positions": [
                -1.145113726071595,
                -1.165050707722726,
                -1.0613146388023154,
                -0.6264365393217763,
                -0.10313516282653223,
                0.0112080535166732
            ]
        },
        {
            "positions": [
                -1.0647010545122282,
                -1.1877172864402927,
                -1.1323537059090865,
                -0.6712511807104902,
                -0.11948148229511635,
                0.16425145607157177
            ]
        },
        {
            "positions": [
                -0.9842883829528613,
                -1.2103838651578596,
                -1.2033927730158576,
                -0.716065822099204,
                -0.13582780176370046,
                0.3172948586264708
            ]
        },
        {
            "positions": [
                -0.9038757113934945,
                -1.2330504438754262,
                -1.2744318401226291,
                -0.7608804634879178,
                -0.15217412123228458,
                0.4703382611813698
            ]
        },
        {
            "positions": [
                -0.8234630398341278,
                -1.255717022592993,
                -1.3454709072294002,
                -0.8056951048766317,
                -0.1685204407008687,
                0.6233816637362688
            ]
        },
        {
            "positions": [
                -0.7430503682747611,
                -1.2783836013105598,
                -1.4165099743361713,
                -0.8505097462653455,
                -0.18486676016945275,
                0.7764250662911678
            ]
        },
        {
            "positions": [
                -0.662637696715394,
                -1.3010501800281267,
                -1.4875490414429424,
                -0.8953243876540593,
                -0.20121307963803686,
                0.9294684688460668
            ]
        },
        {
            "positions": [
                -0.5822250251560273,
                -1.3237167587456935,
                -1.5585881085497135,
                -0.9401390290427729,
                -0.21755939910662098,
                1.0825118714009654
            ]
        },
        {
            "positions": [
                -0.5018123535966605,
                -1.3463833374632603,
                -1.6296271756564846,
                -0.9849536704314867,
                -0.2339057185752051,
                1.2355552739558644
            ]
        },
        {
            "positions": [
                -0.42139968203729383,
                -1.3690499161808272,
                -1.7006662427632557,
                -1.0297683118202006,
                -0.2502520380437892,
                1.3885986765107634
            ]
        },
        {
            "positions": [
                -0.3409870104779267,
                -1.391716494898394,
                -1.7717053098700273,
                -1.0745829532089144,
                -0.26659835751237326,
                1.5416420790656624
            ]
        },
        {
            "positions": [
                -0.26057433891855997,
                -1.4143830736159606,
                -1.8427443769767984,
                -1.1193975945976282,
                -0.2829446769809574,
                1.6946854816205614
            ]
        },
        {
            "positions": [
                -0.1801616673591933,
                -1.4370496523335274,
                -1.9137834440835697,
                -1.164212235986342,
                -0.2992909964495415,
                1.84772888417546
            ]
        },
        {
            "positions": [
                -0.15640452537665567,
                -1.4675847607528973,
                -1.9669894338451095,
                -1.2711383842672985,
                -0.25903352583680966,
                1.9832570038520843
            ]
        },
        {
            "positions": [
                -0.132647383394118,
                -1.4981198691722672,
                -2.020195423606649,
                -1.378064532548255,
                -0.2187760552240778,
                2.1187851235287085
            ]
        },
        {
            "positions": [
                -0.1128871209902501,
                -1.526760402418696,
                -2.0692253267393044,
                -1.4776631534010494,
                -0.18389467896494074,
                2.2451887358984397
            ]
        },
        {
            "positions": [
                -0.0931268585863822,
                -1.5554009356651248,
                -2.1182552298719597,
                -1.5772617742538435,
                -0.14901330270580368,
                2.371592348268171
            ]
        },
        {
            "positions": [
                -0.07336659618251429,
                -1.5840414689115536,
                -2.167285133004615,
                -1.6768603951066379,
                -0.11413192644666662,
                2.497995960637902
            ]
        },
        {
            "positions": [
                -0.0536063337786464,
                -1.6126820021579826,
                -2.2163150361372708,
                -1.776459015959432,
                -0.07925055018752955,
                2.6243995730076337
            ]
        },
        {
            "positions": [
                -0.03384607137477849,
                -1.6413225354044114,
                -2.265344939269926,
                -1.8760576368122264,
                -0.044369173928392486,
                2.750803185377365
            ]
        },
        {
            "positions": [
                -0.014085808970910598,
                -1.6699630686508402,
                -2.3143748424025814,
                -1.9756562576650207,
                -0.00948779766925541,
                2.877206797747096
            ]
        },
        {
            "positions": [
                -0.026300583196400745,
                -1.6834470005137407,
                -2.329996052504164,
                -2.0166346590925177,
                -0.01761517623887654,
                2.9306143516616836
            ]
        },
        {
            "positions": [
                -0.10502420919364407,
                -1.7135895854774228,
                -2.3470855081997453,
                -2.0941113172352965,
                -0.09444585041490344,
                3.0354202246007027
            ]
        },
        {
            "positions": [
                -0.1837478351908874,
                -1.743732170441105,
                -2.3641749638953264,
                -2.171587975378076,
                -0.17127652459093035,
                3.140226097539722
            ]
        }
    ]
}