{
    "goal": {
        "global_pose": {
            "orientation": {
                "w": 0.7047431493862688,
                "x": -0.7094548369677653,
                "y": 0.0024358444001904,
                "z": -0.0022348060817251984
            },
            "position": {
                "x": -0.39052492380142206,
                "y": 0.3671506643295288,
                "z": 0.19426114857196808
            }
        },
        "name": "move_to_magneteinheit_D"
    },
    "id": "BKPIECE_move_to_magneteinheit_D_90",
    "joint_names": [
        "shoulder_pan_joint",
        "shoulder_lift_joint",
        "elbow_joint",
        "wrist_1_joint",
        "wrist_2_joint",
        "wrist_3_joint"
    ],
    "metrics": {
        "cart_traj_len": 7.446513721566137,
        "distance_elbow_joint": 6.671010082743938,
        "distance_shoulder_lift_joint": 2.6963780645271034,
        "distance_shoulder_pan_joint": 8.915972517498663,
        "distance_wrist_1_joint": 6.920771714847558,
        "distance_wrist_2_joint": 1.6271410023373245,
        "distance_wrist_3_joint": 6.659891526230064,
        "smoothness": 0.33706579107141915,
        "time": 0.297858732,
        "traj_len": 5.787155165380021,
        "weighted_distance": 7.440353531777215
    },
    "planner": "BKPIECE",
    "start": {
        "state": {
            "elbow_joint": 0.749534889911806,
            "shoulder_lift_joint": -0.6476975780787326,
            "shoulder_pan_joint": -2.711696901376241,
            "wrist_1_joint": -0.07506478083263063,
            "wrist_2_joint": 0.43296659715538205,
            "wrist_3_joint": -3.14703540197715
        }
    },
    "waypoints": [
        {
            "positions": [
                -2.711696901376241,
                -0.6476975780787326,
                0.749534889911806,
                -0.07506478083263063,
                0.43296659715538205,
                -3.14703540197715
            ]
        },
        {
            "positions": [
                -2.707467750742996,
                -0.6822712299699454,
                0.7710933944154958,
                0.031654850908864024,
                0.475346681447097,
                -2.9771619006632624
            ]
        },
        {
            "positions": [
                -2.703238600109751,
                -0.716844881861158,
                0.7926518989191859,
                0.13837448265035868,
                0.517726765738812,
                -2.8072883993493747
            ]
        },
        {
            "positions": [
                -2.699009449476506,
                -0.7514185337523707,
                0.8142104034228759,
                0.24509411439185336,
                0.5601068500305271,
                -2.637414898035487
            ]
        },
        {
            "positions": [
                -2.694780298843261,
                -0.7859921856435834,
                0.8357689079265658,
                0.351813746133348,
                0.602486934322242,
                -2.4675413967215993
            ]
        },
        {
            "positions": [
                -2.690551148210016,
                -0.8205658375347962,
                0.8573274124302557,
                0.45853337787484266,
                0.644867018613957,
                -2.297667895407711
            ]
        },
        {
            "positions": [
                -2.686321997576771,
                -0.8551394894260088,
                0.8788859169339457,
                0.5652530096163373,
                0.6872471029056719,
                -2.127794394093824
            ]
        },
        {
            "positions": [
                -2.6820928469435263,
                -0.8897131413172216,
                0.9004444214376357,
                0.671972641357832,
                0.729627187197387,
                -1.9579208927799359
            ]
        },
        {
            "positions": [
                -2.6778636963102813,
                -0.9242867932084342,
                0.9220029259413256,
                0.7786922730993266,
                0.772007271489102,
                -1.7880473914660484
            ]
        },
        {
            "positions": [
                -2.6736345456770363,
                -0.958860445099647,
                0.9435614304450155,
                0.8854119048408213,
                0.814387355780817,
                -1.6181738901521605
            ]
        },
        {
            "positions": [
                -2.6694053950437913,
                -0.9934340969908596,
                0.9651199349487055,
                0.992131536582316,
                0.856767440072532,
                -1.4483003888382728
            ]
        },
        {
            "positions": [
                -2.6651762444105462,
                -1.0280077488820722,
                0.9866784394523955,
                1.0988511683238107,
                0.8991475243642468,
                -1.2784268875243854
            ]
        },
        {
            "positions": [
                -2.660947093777301,
                -1.062581400773285,
                1.0082369439560854,
                1.2055708000653054,
                0.9415276086559619,
                -1.1085533862104975
            ]
        },
        {
            "positions": [
                -2.591133613007703,
                -1.1224389079321346,
                0.9570407465460143,
                1.231864527350323,
                0.9391370105809531,
                -0.9693842897428926
            ]
        },
        {
            "positions": [
                -2.5213201322381047,
                -1.182296415090984,
                0.9058445491359431,
                1.258158254635341,
                0.9367464125059444,
                -0.8302151932752877
            ]
        },
        {
            "positions": [
                -2.4515066514685064,
                -1.2421539222498337,
                0.8546483517258721,
                1.2844519819203586,
                0.9343558144309356,
                -0.6910460968076827
            ]
        },
        {
            "positions": [
                -2.2934690696100795,
                -1.2367857529664699,
                0.7979615228317172,
                1.2162841757101879,
                0.9268442525595062,
                -0.5992071460793337
            ]
        },
        {
            "positions": [
                -2.1354314877516525,
                -1.2314175836831063,
                0.7412746939375623,
                1.148116369500017,
                0.9193326906880768,
                -0.5073681953509848
            ]
        },
        {
            "positions": [
                -1.9773939058932253,
                -1.2260494143997425,
                0.6845878650434074,
                1.0799485632898462,
                0.9118211288166473,
                -0.4155292446226357
            ]
        },
        {
            "positions": [
                -1.819356324034798,
                -1.2206812451163787,
                0.6279010361492525,
                1.0117807570796753,
                0.9043095669452179,
                -0.3236902938942867
            ]
        },
        {
            "positions": [
                -1.661318742176371,
                -1.215313075833015,
                0.5712142072550975,
                0.9436129508695046,
                0.8967980050737885,
                -0.23185134316593764
            ]
        },
        {
            "positions": [
                -1.5032811603179441,
                -1.2099449065496513,
                0.5145273783609428,
                0.8754451446593338,
                0.8892864432023591,
                -0.14001239243758867
            ]
        },
        {
            "positions": [
                -1.345243578459517,
                -1.2045767372662874,
                0.45784054946678776,
                0.8072773384491629,
                0.8817748813309296,
                -0.04817344170923965
            ]
        },
        {
            "positions": [
                -1.18720599660109,
                -1.1992085679829239,
                0.4011537205726329,
                0.7391095322389921,
                0.8742633194595002,
                0.04366550901910926
            ]
        },
        {
            "positions": [
                -1.0291684147426627,
                -1.19384039869956,
                0.3444668916784779,
                0.6709417260288213,
                0.8667517575880708,
                0.1355044597474584
            ]
        },
        {
            "positions": [
                -0.8711308328842358,
                -1.1884722294161965,
                0.287780062784323,
                0.6027739198186505,
                0.8592401957166413,
                0.22734341047580742
            ]
        },
        {
            "positions": [
                -0.7130932510258086,
                -1.1831040601328326,
                0.23109323389016823,
                0.5346061136084798,
                0.8517286338452119,
                0.31918236120415633
            ]
        },
        {
            "positions": [
                -0.5550556691673816,
                -1.1777358908494688,
                0.17440640499601334,
                0.46643830739830894,
                0.8442170719737825,
                0.41102131193250535
            ]
        },
        {
            "positions": [
                -0.3970180873089544,
                -1.1723677215661052,
                0.11771957610185835,
                0.3982705011881381,
                0.8367055101023531,
                0.5028602626608544
            ]
        },
        {
            "positions": [
                -0.23898050545052754,
                -1.1669995522827414,
                0.06103274720770349,
                0.3301026949779673,
                0.8291939482309236,
                0.5946992133892034
            ]
        },
        {
            "positions": [
                -0.14343804966331117,
                -1.2052794407075609,
                0.10569654427334214,
                0.22581460027006783,
                0.8047127920428383,
                0.6747630651415866
            ]
        },
        {
            "positions": [
                -0.047895593876094794,
                -1.24355932913238,
                0.1503603413389808,
                0.12152650556216837,
                0.7802316358547531,
                0.7548269168939699
            ]
        },
        {
            "positions": [
                0.047646861911121635,
                -1.2818392175571995,
                0.19502413840461946,
                0.017238410854268915,
                0.7557504796666678,
                0.8348907686463531
            ]
        },
        {
            "positions": [
                0.14318931769833795,
                -1.320119105982019,
                0.2396879354702581,
                -0.08704968385363054,
                0.7312693234785824,
                0.9149546203987362
            ]
        },
        {
            "positions": [
                0.23873177348555438,
                -1.3583989944068382,
                0.28435173253589674,
                -0.19133777856153,
                0.7067881672904972,
                0.9950184721511195
            ]
        },
        {
            "positions": [
                0.33427422927277084,
                -1.3966788828316576,
                0.32901552960153546,
                -0.29562587326942946,
                0.6823070111024119,
                1.0750823239035028
            ]
        },
        {
            "positions": [
                0.42981668505998705,
                -1.4349587712564769,
                0.37367932666717407,
                -0.3999139679773289,
                0.6578258549143265,
                1.155146175655886
            ]
        },
        {
            "positions": [
                0.5253591408472035,
                -1.4732386596812963,
                0.4183431237328127,
                -0.5042020626852284,
                0.6333446987262413,
                1.2352100274082691
            ]
        },
        {
            "positions": [
                0.6209015966344199,
                -1.5115185481061157,
                0.4630069207984513,
                -0.6084901573931278,
                0.608863542538156,
                1.3152738791606524
            ]
        },
        {
            "positions": [
                0.7164440524216363,
                -1.549798436530935,
                0.50767071786409,
                -0.7127782521010273,
                0.5843823863500708,
                1.3953377309130355
            ]
        },
        {
            "positions": [
                0.8119865082088528,
                -1.5880783249557544,
                0.5523345149297286,
                -0.8170663468089268,
                0.5599012301619855,
                1.4754015826654188
            ]
        },
        {
            "positions": [
                0.9075289639960692,
                -1.6263582133805738,
                0.5969983119953673,
                -0.9213544415168262,
                0.5354200739739001,
                1.555465434417802
            ]
        },
        {
            "positions": [
                1.0030714197832853,
                -1.664638101805393,
                0.6416621090610058,
                -1.0256425362247257,
                0.5109389177858149,
                1.6355292861701853
            ]
        },
        {
            "positions": [
                1.0986138755705015,
                -1.7029179902302125,
                0.6863259061266446,
                -1.1299306309326251,
                0.4864577615977296,
                1.7155931379225686
            ]
        },
        {
            "positions": [
                1.194156331357718,
                -1.741197878655032,
                0.7309897031922832,
                -1.2342187256405246,
                0.4619766054096443,
                1.7956569896749515
            ]
        },
        {
            "positions": [
                1.2896987871449344,
                -1.7794777670798512,
                0.7756535002579219,
                -1.338506820348424,
                0.437495449221559,
                1.8757208414273348
            ]
        },
        {
            "positions": [
                1.3852412429321508,
                -1.8177576555046706,
                0.8203172973235605,
                -1.4427949150563235,
                0.4130142930334737,
                1.955784693179718
            ]
        },
        {
            "positions": [
                1.4807836987193672,
                -1.85603754392949,
                0.8649810943891991,
                -1.547083009764223,
                0.3885331368453884,
                2.0358485449321013
            ]
        },
        {
            "positions": [
                1.5763261545065836,
                -1.8943174323543093,
                0.9096448914548378,
                -1.6513711044721224,
                0.3640519806573031,
                2.1159123966844846
            ]
        },
        {
            "positions": [
                1.6718686102938,
                -1.9325973207791287,
                0.9543086885204765,
                -1.755659199180022,
                0.3395708244692178,
                2.195976248436868
            ]
        },
        {
            "positions": [
                1.7674110660810165,
                -1.9708772092039482,
                0.9989724855861152,
                -1.8599472938879216,
                0.3150896682811325,
                2.276040100189251
            ]
        },
        {
            "positions": [
                1.862953521868233,
                -2.0091570976287674,
                1.0436362826517538,
                -1.9642353885958208,
                0.2906085120930473,
                2.3561039519416345
            ]
        },
        {
            "positions": [
                1.9584959776554494,
                -2.0474369860535866,
                1.0883000797173925,
                -2.0685234833037205,
                0.26612735590496195,
                2.4361678036940178
            ]
        },
        {
            "positions": [
                2.054038433442666,
                -2.0857168744784063,
                1.1329638767830312,
                -2.1728115780116197,
                0.24164619971687662,
                2.516231655446401
            ]
        },
        {
            "positions": [
                2.149580889229882,
                -2.1239967629032255,
                1.1776276738486697,
                -2.2770996727195194,
                0.2171650435287913,
                2.5962955071987843
            ]
        },
        {
            "positions": [
                2.2451233450170984,
                -2.1622766513280447,
                1.2222914709143082,
                -2.3813877674274186,
                0.19268388734070618,
                2.676359358951167
            ]
        },
        {
            "positions": [
                2.3406658008043144,
                -2.2005565397528644,
                1.266955267979947,
                -2.485675862135318,
                0.16820273115262085,
                2.7564232107035505
            ]
        },
        {
            "positions": [
                2.436208256591531,
                -2.2388364281776836,
                1.3116190650455857,
                -2.5899639568432176,
                0.14372157496453553,
                2.8364870624559337
            ]
        },
        {
            "positions": [
                2.5317507123787473,
                -2.277116316602503,
                1.3562828621112242,
                -2.694252051551117,
                0.1192404187764502,
                2.916550914208317
            ]
        },
        {
            "positions": [
                2.6272931681659637,
                -2.315396205027322,
                1.400946659176863,
                -2.7985401462590165,
                0.09475926258836498,
                2.9966147659607
            ]
        },
        {
            "positions": [
                2.72283562395318,
                -2.3536760934521417,
                1.4456104562425016,
                -2.9028282409669157,
                0.07027810640027965,
                3.076678617713083
            ]
        },
        {
            "positions": [
                2.8183780797403966,
                -2.3919559818769613,
                1.4902742533081403,
                -3.0071163356748154,
                0.04579695021219432,
                3.1567424694654664
            ]
        },
        {
            "positions": [
                2.913920535527613,
                -2.4302358703017806,
                1.5349380503737788,
                -3.1114044303827146,
                0.021315794024109103,
                3.2368063212178497
            ]
        },
        {
            "positions": [
                3.0094629913148294,
                -2.4685157587266,
                1.5796018474394176,
                -3.2156925250906143,
                -0.0031653621639762264,
                3.316870172970233
            ]
        },
        {
            "positions": [
                2.876345798614513,
                -2.4382969610622225,
                1.415162900284436,
                -3.171479589878798,
                -0.010410654664676453,
                3.308704091666788
            ]
        },
        {
            "positions": [
                2.743228605914196,
                -2.4080781633978456,
                1.250723953129454,
                -3.1272666546669816,
                -0.01765594716537668,
                3.3005380103633426
            ]
        },
        {
            "positions": [
                2.610111413213879,
                -2.3778593657334683,
                1.0862850059744722,
                -3.0830537194551653,
                -0.024901239666076908,
                3.2923719290598976
            ]
        },
        {
            "positions": [
                2.4769942205135624,
                -2.347640568069091,
                0.9218460588194906,
                -3.0388407842433494,
                -0.03214653216677713,
                3.284205847756452
            ]
        },
        {
            "positions": [
                2.3438770278132455,
                -2.3174217704047138,
                0.7574071116645088,
                -2.994627849031533,
                -0.039391824667477364,
                3.276039766453007
            ]
        },
        {
            "positions": [
                2.210759835112929,
                -2.287202972740337,
                0.592968164509527,
                -2.9504149138197167,
                -0.04663711716817759,
                3.267873685149562
            ]
        },
        {
            "positions": [
                2.077642642412612,
                -2.2569841750759596,
                0.4285292173545452,
                -2.9062019786079003,
                -0.05388240966887782,
                3.259707603846117
            ]
        },
        {
            "positions": [
                1.9445254497122955,
                -2.2267653774115823,
                0.26409027019956355,
                -2.861989043396084,
                -0.06112770216957804,
                3.251541522542672
            ]
        },
        {
            "positions": [
                1.8114082570119785,
                -2.1965465797472055,
                0.09965132304458191,
                -2.817776108184268,
                -0.06837299467027827,
                3.2433754412392264
            ]
        },
        {
            "positions": [
                1.6782910643116618,
                -2.166327782082828,
                -0.06478762411039996,
                -2.7735631729724517,
                -0.0756182871709785,
                3.2352093599357814
            ]
        },
        {
            "positions": [
                1.545173871611345,
                -2.136108984418451,
                -0.2292265712653816,
                -2.7293502377606353,
                -0.08286357967167872,
                3.227043278632336
            ]
        },
        {
            "positions": [
                1.4120566789110283,
                -2.105890186754074,
                -0.39366551842036346,
                -2.685137302548819,
                -0.09010887217237895,
                3.218877197328891
            ]
        },
        {
            "positions": [
                1.2789394862107115,
                -2.0756713890896967,
                -0.5581044655753451,
                -2.6409243673370026,
                -0.09735416467307917,
                3.210711116025446
            ]
        },
        {
            "positions": [
                1.1458222935103946,
                -2.0454525914253194,
                -0.7225434127303272,
                -2.5967114321251863,
                -0.10459945717377941,
                3.2025450347220006
            ]
        },
        {
            "positions": [
                1.012705100810078,
                -2.015233793760942,
                -0.8869823598853088,
                -2.55249849691337,
                -0.11184474967447963,
                3.1943789534185556
            ]
        },
        {
            "positions": [
                0.8795879081097615,
                -1.9850149960965653,
                -1.0514213070402905,
                -2.508285561701554,
                -0.11909004217517985,
                3.18621287211511
            ]
        },
        {
            "positions": [
                0.7464707154094445,
                -1.954796198432188,
                -1.2158602541952725,
                -2.4640726264897377,
                -0.1263353346758801,
                3.178046790811665
            ]
        },
        {
            "positions": [
                0.6133535227091276,
                -1.9245774007678107,
                -1.3802992013502537,
                -2.4198596912779213,
                -0.1335806271765803,
                3.16988070950822
            ]
        },
        {
            "positions": [
                0.48023633000881105,
                -1.8943586031034336,
                -1.5447381485052354,
                -2.375646756066105,
                -0.14082591967728053,
                3.161714628204775
            ]
        },
        {
            "positions": [
                0.3471191373084941,
                -1.8641398054390566,
                -1.7091770956602175,
                -2.3314338208542886,
                -0.14807121217798078,
                3.15354854690133
            ]
        },
        {
            "positions": [
                0.21400194460817756,
                -1.8339210077746793,
                -1.8736160428151991,
                -2.2872208856424727,
                -0.155316504678681,
                3.1453824655978844
            ]
        },
        {
            "positions": [
                0.0808847519078606,
                -1.8037022101103022,
                -2.0380549899701808,
                -2.2430079504306564,
                -0.1625617971793812,
                3.1372163842944394
            ]
        },
        {
            "positions": [
                -0.05223244079245637,
                -1.7734834124459251,
                -2.202493937125163,
                -2.19879501521884,
                -0.16980708968008146,
                3.129050302990994
            ]
        },
        {
            "positions": [
                -0.18534963349277275,
                -1.7432646147815478,
                -2.3669328842801445,
                -2.1545820800070237,
                -0.17705238218078168,
                3.120884221687549
            ]
        }
    ]
}