{
    "goal": {
        "global_pose": {
            "orientation": {
                "w": -0.00223480608172531,
                "x": 0.0024358444001904467,
                "y": 0.7094548369677653,
                "z": -0.704743149386269
            },
            "position": {
                "x": 0.6205249238014221,
                "y": -0.6371506643295288,
                "z": 0.19426114857196808
            }
        },
        "name": "move_to_magneteinheit_B"
    },
    "id": "BKPIECE_move_to_magneteinheit_B_143",
    "joint_names": [
        "shoulder_pan_joint",
        "shoulder_lift_joint",
        "elbow_joint",
        "wrist_1_joint",
        "wrist_2_joint",
        "wrist_3_joint"
    ],
    "metrics": {
        "cart_traj_len": 3.310543401434776,
        "distance_elbow_joint": 4.284837571426731,
        "distance_shoulder_lift_joint": 1.0643222200447222,
        "distance_shoulder_pan_joint": 2.369251467117933,
        "distance_wrist_1_joint": 1.0491648357697094,
        "distance_wrist_2_joint": 1.2352702495017502,
        "distance_wrist_3_joint": 1.0850132775794727,
        "smoothness": 0.2465581537393122,
        "time": 0.857197801,
        "traj_len": 3.32984378333884,
        "weighted_distance": 3.942375078790795
    },
    "planner": "BKPIECE",
    "start": {
        "state": {
            "elbow_joint": 2.6216224122426386,
            "shoulder_lift_joint": -1.4174107377796124,
            "shoulder_pan_joint": 0.7066234856936794,
            "wrist_1_joint": 1.9546482284002225,
            "wrist_2_joint": -0.7096286983471962,
            "wrist_3_joint": 0.005740856962016249
        }
    },
    "waypoints": [
        {
            "positions": [
                0.7066234856936794,
                -1.4174107377796124,
                2.6216224122426386,
                1.9546482284002225,
                -0.7096286983471962,
                0.005740856962016249
            ]
        },
        {
            "positions": [
                0.6229004437400788,
                -1.455062606767508,
                2.601607585583511,
                1.9808779863784942,
                -0.7205407642026079,
                -0.10594615511764234
            ]
        },
        {
            "positions": [
                0.5391774017864782,
                -1.4927144757554036,
                2.581592758924383,
                2.007107744356766,
                -0.7314528300580196,
                -0.21763316719730091
            ]
        },
        {
            "positions": [
                0.5366877690266201,
                -1.519763707664464,
                2.4558302927842592,
                1.9421608672017276,
                -0.6961664283890976,
                -0.2827290242651981
            ]
        },
        {
            "positions": [
                0.5341981362667618,
                -1.5468129395735242,
                2.3300678266441355,
                1.8772139900466895,
                -0.6608800267201757,
                -0.34782488133309525
            ]
        },
        {
            "positions": [
                0.5317085035069037,
                -1.5738621714825844,
                2.2043053605040113,
                1.8122671128916512,
                -0.6255936250512536,
                -0.4129207384009924
            ]
        },
        {
            "positions": [
                0.5292188707470454,
                -1.6009114033916447,
                2.0785428943638875,
                1.747320235736613,
                -0.5903072233823317,
                -0.4780165954688896
            ]
        },
        {
            "positions": [
                0.5267292379871873,
                -1.627960635300705,
                1.9527804282237637,
                1.6823733585815748,
                -0.5550208217134096,
                -0.5431124525367867
            ]
        },
        {
            "positions": [
                0.6296468675257201,
                -1.6504210565105057,
                1.7871790474869063,
                1.6585677591116657,
                -0.5069965827743845,
                -0.5186665263514616
            ]
        },
        {
            "positions": [
                0.7325644970642529,
                -1.6728814777203063,
                1.6215776667500488,
                1.6347621596417568,
                -0.4589723438353594,
                -0.4942206001661364
            ]
        },
        {
            "positions": [
                0.8354821266027856,
                -1.695341898930107,
                1.4559762860131913,
                1.6109565601718476,
                -0.41094810489633427,
                -0.4697746739808112
            ]
        },
        {
            "positions": [
                0.9383997561413184,
                -1.7178023201399075,
                1.2903749052763338,
                1.5871509607019387,
                -0.3629238659573092,
                -0.44532874779548604
            ]
        },
        {
            "positions": [
                1.041317385679851,
                -1.7402627413497083,
                1.1247735245394763,
                1.5633453612320296,
                -0.3148996270182841,
                -0.42088282161016083
            ]
        },
        {
            "positions": [
                1.144235015218384,
                -1.762723162559509,
                0.9591721438026188,
                1.5395397617621207,
                -0.266875388079259,
                -0.3964368954248356
            ]
        },
        {
            "positions": [
                1.2471526447569166,
                -1.7851835837693095,
                0.7935707630657614,
                1.5157341622922116,
                -0.21885114914023385,
                -0.37199096923951047
            ]
        },
        {
            "positions": [
                1.3500702742954496,
                -1.8076440049791103,
                0.6279693823289039,
                1.4919285628223027,
                -0.17082691020120877,
                -0.3475450430541853
            ]
        },
        {
            "positions": [
                1.4529879038339821,
                -1.8301044261889108,
                0.4623680015920464,
                1.4681229633523936,
                -0.12280267126218364,
                -0.3230991168688601
            ]
        },
        {
            "positions": [
                1.555905533372515,
                -1.8525648473987115,
                0.2967666208551889,
                1.4443173638824847,
                -0.07477843232315856,
                -0.2986531906835349
            ]
        },
        {
            "positions": [
                1.658823162911048,
                -1.8750252686085123,
                0.1311652401183312,
                1.4205117644125755,
                -0.02675419338413343,
                -0.2742072644982097
            ]
        },
        {
            "positions": [
                1.7617407924495805,
                -1.8974856898183128,
                -0.03443614061852607,
                1.3967061649426666,
                0.021270045554891648,
                -0.24976133831288455
            ]
        },
        {
            "positions": [
                1.8646584219881135,
                -1.9199461110281135,
                -0.20003752135538377,
                1.3729005654727575,
                0.06929428449391684,
                -0.22531541212755934
            ]
        },
        {
            "positions": [
                1.967576051526646,
                -1.9424065322379143,
                -0.36563890209224104,
                1.3490949660028486,
                0.11731852343294191,
                -0.2008694859422342
            ]
        },
        {
            "positions": [
                2.070493681065179,
                -1.9648669534477148,
                -0.5312402828290987,
                1.3252893665329395,
                0.165342762371967,
                -0.176423559756909
            ]
        },
        {
            "positions": [
                2.1734113106037114,
                -1.9873273746575155,
                -0.696841663565956,
                1.3014837670630306,
                0.21336700131099207,
                -0.15197763357158384
            ]
        },
        {
            "positions": [
                2.2763289401422444,
                -2.0097877958673163,
                -0.8624430443028137,
                1.2776781675931215,
                0.26139124025001725,
                -0.12753170738625863
            ]
        },
        {
            "positions": [
                2.3792465696807774,
                -2.032248217077117,
                -1.028044425039671,
                1.2538725681232126,
                0.30941547918904233,
                -0.10308578120093348
            ]
        },
        {
            "positions": [
                2.48216419921931,
                -2.0547086382869173,
                -1.1936458057765287,
                1.2300669686533034,
                0.3574397181280674,
                -0.07863985501560827
            ]
        },
        {
            "positions": [
                2.5850818287578425,
                -2.0771690594967183,
                -1.359247186513386,
                1.2062613691833945,
                0.4054639570670925,
                -0.05419392883028312
            ]
        },
        {
            "positions": [
                2.6879994582963755,
                -2.099629480706519,
                -1.5248485672502434,
                1.1824557697134854,
                0.45348819600611756,
                -0.029748002644957923
            ]
        },
        {
            "positions": [
                2.6739559587452493,
                -2.2906812192654264,
                -1.5940318632171677,
                1.0964290971285426,
                0.4677407418695123,
                -0.018350243550537108
            ]
        },
        {
            "positions": [
                2.659912459194123,
                -2.4817329578243346,
                -1.6632151591840922,
                1.0104024245436,
                0.48199328773290706,
                -0.0069524844561162915
            ]
        }
    ]
}