{
    "goal": {
        "global_pose": {
            "orientation": {
                "w": -0.4816463035849501,
                "x": 0.5182115481033762,
                "y": 0.4908360881923453,
                "z": -0.5084816262002911
            },
            "position": {
                "x": -0.8240239810943604,
                "y": -0.300875300988555,
                "z": 0.16403168439865112
            }
        },
        "name": "move_to_storage_C"
    },
    "id": "BKPIECE_move_to_storage_C_135",
    "joint_names": [
        "shoulder_pan_joint",
        "shoulder_lift_joint",
        "elbow_joint",
        "wrist_1_joint",
        "wrist_2_joint",
        "wrist_3_joint"
    ],
    "metrics": {
        "cart_traj_len": 0.5759198156568712,
        "distance_elbow_joint": 0.2605157637289781,
        "distance_shoulder_lift_joint": 0.18922549800729105,
        "distance_shoulder_pan_joint": 0.4947360090426387,
        "distance_wrist_1_joint": 0.08888800277190878,
        "distance_wrist_2_joint": 1.059438042794428,
        "distance_wrist_3_joint": 0.06950118371717062,
        "smoothness": 0.0,
        "time": 0.333540143,
        "traj_len": 1.4704776435098954,
        "weighted_distance": 1.8573187429903069
    },
    "planner": "BKPIECE",
    "start": {
        "state": {
            "elbow_joint": 2.010868314990456,
            "shoulder_lift_joint": -1.1634956873337592,
            "shoulder_pan_joint": -2.4736205022346125,
            "wrist_1_joint": -0.8367026794202681,
            "wrist_2_joint": 0.6746043897044499,
            "wrist_3_joint": -3.1496632123970403
        }
    },
    "waypoints": [
        {
            "positions": [
                -2.4736205022346125,
                -1.1634956873337592,
                2.010868314990456,
                -0.8367026794202681,
                0.6746043897044499,
                -3.1496632123970403
            ]
        },
        {
            "positions": [
                -2.556076503741719,
                -1.131958104332544,
                1.9674490210356261,
                -0.8218880122916167,
                0.8511773968368546,
                -3.138079681777512
            ]
        },
        {
            "positions": [
                -2.6385325052488255,
                -1.100420521331329,
                1.9240297270807964,
                -0.8070733451629651,
                1.0277504039692593,
                -3.1264961511579834
            ]
        },
        {
            "positions": [
                -2.7209885067559316,
                -1.0688829383301137,
                1.8806104331259668,
                -0.7922586780343137,
                1.2043234111016639,
                -3.1149126205384547
            ]
        },
        {
            "positions": [
                -2.803444508263038,
                -1.0373453553288985,
                1.837191139171137,
                -0.7774440109056623,
                1.3808964182340686,
                -3.1033290899189265
            ]
        },
        {
            "positions": [
                -2.8859005097701447,
                -1.0058077723276833,
                1.7937718452163074,
                -0.7626293437770107,
                1.5574694253664734,
                -3.0917455592993983
            ]
        },
        {
            "positions": [
                -2.968356511277251,
                -0.9742701893264681,
                1.7503525512614777,
                -0.7478146766483593,
                1.734042432498878,
                -3.0801620286798697
            ]
        }
    ]
}