{
    "goal": {
        "global_pose": {
            "orientation": {
                "w": 0.5084816217422485,
                "x": -0.49083608388900757,
                "y": 0.5182115435600281,
                "z": -0.4816462993621826
            },
            "position": {
                "x": 0.5540239810943604,
                "y": 0.030875300988554955,
                "z": 0.16403168439865112
            }
        },
        "name": "move_to_storage_A"
    },
    "id": "BKPIECE_move_to_storage_A_107",
    "joint_names": [
        "shoulder_pan_joint",
        "shoulder_lift_joint",
        "elbow_joint",
        "wrist_1_joint",
        "wrist_2_joint",
        "wrist_3_joint"
    ],
    "metrics": {
        "cart_traj_len": 0.35217231489877643,
        "distance_elbow_joint": 0.4522345296835544,
        "distance_shoulder_lift_joint": 0.23332997950069778,
        "distance_shoulder_pan_joint": 0.4604412319316711,
        "distance_wrist_1_joint": 0.25770171187854596,
        "distance_wrist_2_joint": 1.0967694110468302,
        "distance_wrist_3_joint": 0.09771562130349265,
        "smoothness": 1.3322676365830568e-15,
        "time": 0.18366601999999999,
        "traj_len": 1.6118909657122569,
        "weighted_distance": 2.0366872246069483
    },
    "planner": "BKPIECE",
    "start": {
        "state": {
            "elbow_joint": 1.971548259319323,
            "shoulder_lift_joint": -1.1394851275133948,
            "shoulder_pan_joint": 0.1228115487234821,
            "wrist_1_joint": -0.7804723859257726,
            "wrist_2_joint": 0.12958671773740124,
            "wrist_3_joint": -3.192489227718131
        }
    },
    "waypoints": [
        {
            "positions": [
                0.1228115487234821,
                -1.1394851275133948,
                1.971548259319323,
                -0.7804723859257726,
                0.12958671773740124,
                -3.192489227718131
            ]
        },
        {
            "positions": [
                0.05703422987610052,
                -1.1728179817277802,
                2.0361531921312594,
                -0.8172869161941363,
                0.2862680621726627,
                -3.1785298532462036
            ]
        },
        {
            "positions": [
                -0.008743088971281066,
                -1.2061508359421655,
                2.1007581249431957,
                -0.8541014464625001,
                0.44294940660792415,
                -3.164570478774276
            ]
        },
        {
            "positions": [
                -0.07452040781866265,
                -1.239483690156551,
                2.165363057755132,
                -0.8909159767308638,
                0.5996307510431856,
                -3.1506111043023486
            ]
        },
        {
            "positions": [
                -0.14029772666604423,
                -1.2728165443709365,
                2.229967990567068,
                -0.9277305069992274,
                0.7563120954784471,
                -3.136651729830421
            ]
        },
        {
            "positions": [
                -0.20607504551342581,
                -1.3061493985853219,
                2.294572923379005,
                -0.9645450372675912,
                0.9129934399137086,
                -3.1226923553584935
            ]
        },
        {
            "positions": [
                -0.2718523643608074,
                -1.3394822527997072,
                2.359177856190941,
                -1.0013595675359548,
                1.06967478434897,
                -3.108732980886566
            ]
        },
        {
            "positions": [
                -0.337629683208189,
                -1.3728151070140926,
                2.4237827890028774,
                -1.0381740978043186,
                1.2263561287842315,
                -3.0947736064146385
            ]
        }
    ]
}{
    "goal": {
        "global_pose": {
            "orientation": {
                "w": 0.5084816217422485,
                "x": -0.49083608388900757,
                "y": 0.5182115435600281,
                "z": -0.4816462993621826
            },
            "position": {
                "x": 0.5540239810943604,
                "y": 0.030875300988554955,
                "z": 0.16403168439865112
            }
        },
        "name": "move_to_storage_A"
    },
    "id": "BKPIECE_move_to_storage_A_107",
    "joint_names": [
        "shoulder_pan_joint",
        "shoulder_lift_joint",
        "elbow_joint",
        "wrist_1_joint",
        "wrist_2_joint",
        "wrist_3_joint"
    ],
    "metrics": {
        "cart_traj_len": 0.3532492153006186,
        "distance_elbow_joint": 0.4478993826280213,
        "distance_shoulder_lift_joint": 0.23341307846432868,
        "distance_shoulder_pan_joint": 0.46017937541349363,
        "distance_wrist_1_joint": 0.2378519419697651,
        "distance_wrist_2_joint": 1.1057517190377917,
        "distance_wrist_3_joint": 0.10047616075470378,
        "smoothness": 0.0,
        "time": 0.17340756699999998,
        "traj_len": 1.607971286518545,
        "weighted_distance": 2.032271547009668
    },
    "planner": "BKPIECE",
    "start": {
        "state": {
            "elbow_joint": 1.97154746011099,
            "shoulder_lift_joint": -1.13948474672311,
            "shoulder_pan_joint": 0.12281154466712228,
            "wrist_1_joint": -0.7804688027058302,
            "wrist_2_joint": 0.12958655903071145,
            "wrist_3_joint": 3.0906928834467795
        }
    },
    "waypoints": [
        {
            "positions": [
                0.12281154466712228,
                -1.13948474672311,
                1.97154746011099,
                -0.7804688027058302,
                0.12958655903071145,
                3.0906928834467795
            ]
        },
        {
            "positions": [
                0.05707163389376606,
                -1.1728294722180141,
                2.035533086200707,
                -0.8144476515586537,
                0.2875510903218246,
                3.1050466206974514
            ]
        },
        {
            "positions": [
                -0.008668276879590167,
                -1.2061741977129181,
                2.0995187122904246,
                -0.8484265004114774,
                0.4455156216129377,
                3.1194003579481233
            ]
        },
        {
            "positions": [
                -0.07440818765294639,
                -1.2395189232078223,
                2.1635043383801418,
                -0.8824053492643009,
                0.6034801529040508,
                3.133754095198795
            ]
        },
        {
            "positions": [
                -0.1401480984263026,
                -1.2728636487027263,
                2.2274899644698594,
                -0.9163841981171246,
                0.7614446841951639,
                3.1481078324494676
            ]
        },
        {
            "positions": [
                -0.20588800919965888,
                -1.3062083741976305,
                2.2914755905595765,
                -0.9503630469699481,
                0.919409215486277,
                3.1624615697001395
            ]
        },
        {
            "positions": [
                -0.27162791997301505,
                -1.3395530996925344,
                2.355461216649294,
                -0.9843418958227717,
                1.07737374677739,
                3.1768153069508114
            ]
        },
        {
            "positions": [
                -0.33736783074637133,
                -1.3728978251874386,
                2.4194468427390112,
                -1.0183207446755953,
                1.2353382780685032,
                3.1911690442014833
            ]
        }
    ]
}{
    "goal": {
        "global_pose": {
            "orientation": {
                "w": 0.5084816217422485,
                "x": -0.49083608388900757,
                "y": 0.5182115435600281,
                "z": -0.4816462993621826
            },
            "position": {
                "x": 0.5540239810943604,
                "y": 0.030875300988554955,
                "z": 0.16403168439865112
            }
        },
        "name": "move_to_storage_A"
    },
    "id": "BKPIECE_move_to_storage_A_107",
    "joint_names": [
        "shoulder_pan_joint",
        "shoulder_lift_joint",
        "elbow_joint",
        "wrist_1_joint",
        "wrist_2_joint",
        "wrist_3_joint"
    ],
    "metrics": {
        "cart_traj_len": 0.3527010388917109,
        "distance_elbow_joint": 0.45031747526112564,
        "distance_shoulder_lift_joint": 0.23335619090319715,
        "distance_shoulder_pan_joint": 0.4613308890204294,
        "distance_wrist_1_joint": 0.24850440157977838,
        "distance_wrist_2_joint": 1.0968299962636048,
        "distance_wrist_3_joint": 0.09674237689169063,
        "smoothness": 2.2204460668324854e-16,
        "time": 0.24188816800000001,
        "traj_len": 1.6084406516622942,
        "weighted_distance": 2.0312312722943666
    },
    "planner": "BKPIECE",
    "start": {
        "state": {
            "elbow_joint": 1.9715472970024885,
            "shoulder_lift_joint": -1.1394870060712896,
            "shoulder_pan_joint": 0.12281152778156021,
            "wrist_1_joint": -0.780463741449964,
            "wrist_2_joint": 0.12958659822042276,
            "wrist_3_joint": 3.090690232415272
        }
    },
    "waypoints": [
        {
            "positions": [
                0.12281152778156021,
                -1.1394870060712896,
                1.9715472970024885,
                -0.780463741449964,
                0.12958659822042276,
                3.090690232415272
            ]
        },
        {
            "positions": [
                0.056907115064356015,
                -1.1728236047717464,
                2.035878364896935,
                -0.8159643702470752,
                0.28627659768665203,
                3.1045105719712276
            ]
        },
        {
            "positions": [
                -0.00899729765284818,
                -1.206160203472203,
                2.1002094327913814,
                -0.8514649990441864,
                0.4429665971528812,
                3.1183309115271833
            ]
        },
        {
            "positions": [
                -0.07490171037005239,
                -1.2394968021726598,
                2.164540500685828,
                -0.8869656278412976,
                0.5996565966191105,
                3.132151251083139
            ]
        },
        {
            "positions": [
                -0.14080612308725657,
                -1.2728334008731166,
                2.2288715685802747,
                -0.9224662566384088,
                0.7563465960853397,
                3.1459715906390953
            ]
        },
        {
            "positions": [
                -0.20671053580446078,
                -1.3061699995735734,
                2.2932026364747213,
                -0.95796688543552,
                0.913036595551569,
                3.159791930195051
            ]
        },
        {
            "positions": [
                -0.272614948521665,
                -1.33950659827403,
                2.3575337043691675,
                -0.9934675142326311,
                1.0697265950177983,
                3.1736122697510067
            ]
        },
        {
            "positions": [
                -0.33851936123886917,
                -1.3728431969744868,
                2.421864772263614,
                -1.0289681430297424,
                1.2264165944840275,
                3.1874326093069625
            ]
        }
    ]
}