{
    "goal": {
        "global_pose": {
            "orientation": {
                "w": 0.7047431468963623,
                "x": -0.7094548344612122,
                "y": 0.0024358443915843964,
                "z": -0.0022348060738295317
            },
            "position": {
                "x": 0.6094750761985779,
                "y": 0.3671506643295288,
                "z": 0.19426114857196808
            }
        },
        "name": "move_to_magneteinheit_A"
    },
    "id": "BKPIECE_move_to_magneteinheit_A_100",
    "joint_names": [
        "shoulder_pan_joint",
        "shoulder_lift_joint",
        "elbow_joint",
        "wrist_1_joint",
        "wrist_2_joint",
        "wrist_3_joint"
    ],
    "metrics": {
        "cart_traj_len": 3.0682845017311924,
        "distance_elbow_joint": 3.908349506747873,
        "distance_shoulder_lift_joint": 1.1342812052085562,
        "distance_shoulder_pan_joint": 3.247594175939178,
        "distance_wrist_1_joint": 3.455728186031392,
        "distance_wrist_2_joint": 1.9105933619770863,
        "distance_wrist_3_joint": 0.4254851910823314,
        "smoothness": 0.19227129464539514,
        "time": 0.298759497,
        "traj_len": 3.7526033132995043,
        "weighted_distance": 4.505477062105585
    },
    "planner": "BKPIECE",
    "start": {
        "state": {
            "elbow_joint": -1.9196185241190666,
            "shoulder_lift_joint": -1.2443396400964142,
            "shoulder_pan_joint": 2.6996025414629847,
            "wrist_1_joint": -1.5485510000780065,
            "wrist_2_joint": -1.5709468930060704,
            "wrist_3_joint": 0.4420197071253992
        }
    },
    "waypoints": [
        {
            "positions": [
                2.6996025414629847,
                -1.2443396400964142,
                -1.9196185241190666,
                -1.5485510000780065,
                -1.5709468930060704,
                0.4420197071253992
            ]
        },
        {
            "positions": [
                2.599171886669256,
                -1.2558266394672934,
                -1.7921643473185815,
                -1.4721211769122153,
                -1.5131704251277842,
                0.4320523670771244
            ]
        },
        {
            "positions": [
                2.4987412318755275,
                -1.267313638838173,
                -1.6647101705180964,
                -1.395691353746424,
                -1.4553939572494978,
                0.42208502702884965
            ]
        },
        {
            "positions": [
                2.3983105770817987,
                -1.2788006382090522,
                -1.5372559937176116,
                -1.3192615305806328,
                -1.3976174893712117,
                0.4121176869805748
            ]
        },
        {
            "positions": [
                2.2978799222880704,
                -1.2902876375799317,
                -1.4098018169171265,
                -1.2428317074148416,
                -1.3398410214929255,
                0.40215034693230006
            ]
        },
        {
            "positions": [
                2.1974492674943416,
                -1.301774636950811,
                -1.2823476401166414,
                -1.1664018842490502,
                -1.2820645536146391,
                0.3921830068840253
            ]
        },
        {
            "positions": [
                2.097018612700613,
                -1.3132616363216902,
                -1.1548934633161565,
                -1.089972061083259,
                -1.224288085736353,
                0.38221566683575053
            ]
        },
        {
            "positions": [
                1.9965879579068844,
                -1.3247486356925697,
                -1.0274392865156714,
                -1.0135422379174677,
                -1.1665116178580668,
                0.3722483267874757
            ]
        },
        {
            "positions": [
                1.8961573031131556,
                -1.336235635063449,
                -0.8999851097151863,
                -0.9371124147516766,
                -1.1087351499797806,
                0.36228098673920095
            ]
        },
        {
            "positions": [
                1.7957266483194272,
                -1.3477226344343285,
                -0.7725309329147012,
                -0.8606825915858853,
                -1.0509586821014945,
                0.3523136466909262
            ]
        },
        {
            "positions": [
                1.6952959935256984,
                -1.3592096338052078,
                -0.6450767561142161,
                -0.7842527684200941,
                -0.9931822142232081,
                0.3423463066426514
            ]
        },
        {
            "positions": [
                1.5948653387319698,
                -1.3706966331760873,
                -0.5176225793137312,
                -0.7078229452543029,
                -0.9354057463449219,
                0.3323789665943766
            ]
        },
        {
            "positions": [
                1.4944346839382412,
                -1.3821836325469665,
                -0.39016840251324614,
                -0.6313931220885116,
                -0.8776292784666356,
                0.32241162654610184
            ]
        },
        {
            "positions": [
                1.3940040291445126,
                -1.3936706319178458,
                -0.26271422571276104,
                -0.5549632989227203,
                -0.8198528105883495,
                0.3124442864978271
            ]
        },
        {
            "positions": [
                1.2935733743507838,
                -1.4051576312887253,
                -0.13526004891227594,
                -0.47853347575692906,
                -0.7620763427100632,
                0.30247694644955225
            ]
        },
        {
            "positions": [
                1.1931427195570552,
                -1.4166446306596046,
                -0.007805872111790846,
                -0.4021036525911377,
                -0.7042998748317769,
                0.2925096064012775
            ]
        },
        {
            "positions": [
                1.0927120647633266,
                -1.428131630030484,
                0.11964830468869403,
                -0.32567382942534673,
                -0.6465234069534908,
                0.2825422663530027
            ]
        },
        {
            "positions": [
                0.9922814099695982,
                -1.4396186294013633,
                0.24710248148917913,
                -0.24924400625955556,
                -0.5887469390752046,
                0.27257492630472796
            ]
        },
        {
            "positions": [
                0.8918507551758694,
                -1.4511056287722428,
                0.3745566582896642,
                -0.17281418309376417,
                -0.5309704711969183,
                0.2626075862564532
            ]
        },
        {
            "positions": [
                0.7914201003821408,
                -1.462592628143122,
                0.5020108350901493,
                -0.096384359927973,
                -0.47319400331863215,
                0.2526402462081784
            ]
        },
        {
            "positions": [
                0.690989445588412,
                -1.4740796275140013,
                0.6294650118906344,
                -0.01995453676218162,
                -0.41541753544034576,
                0.2426729061599036
            ]
        },
        {
            "positions": [
                0.5905587907946837,
                -1.4855666268848808,
                0.7569191886911195,
                0.05647528640360955,
                -0.3576410675620596,
                0.23270556611162885
            ]
        },
        {
            "positions": [
                0.49012813600095484,
                -1.49705362625576,
                0.8843733654916042,
                0.13290510956940071,
                -0.29986459968377344,
                0.22273822606335408
            ]
        },
        {
            "positions": [
                0.389697481207226,
                -1.5085406256266394,
                1.0118275422920897,
                0.2093349327351921,
                -0.24208813180548705,
                0.2127708860150793
            ]
        },
        {
            "positions": [
                0.28926682641349766,
                -1.5200276249975189,
                1.1392817190925744,
                0.28576475590098327,
                -0.18431166392720089,
                0.20280354596680453
            ]
        },
        {
            "positions": [
                0.1888361716197693,
                -1.5315146243683981,
                1.2667358958930595,
                0.36219457906677444,
                -0.12653519604891494,
                0.19283620591852974
            ]
        },
        {
            "positions": [
                0.08840551682604048,
                -1.5430016237392776,
                1.3941900726935446,
                0.4386244022325658,
                -0.06875872817062856,
                0.18286886587025497
            ]
        },
        {
            "positions": [
                -0.012025137967688337,
                -1.554488623110157,
                1.5216442494940297,
                0.5150542253983572,
                -0.010982260292342394,
                0.1729015258219802
            ]
        },
        {
            "positions": [
                -0.11245579276141715,
                -1.5659756224810364,
                1.6490984262945148,
                0.5914840485641484,
                0.04679420758594399,
                0.1629341857737054
            ]
        },
        {
            "positions": [
                -0.21288644755514574,
                -1.5774626218519157,
                1.7765526030949998,
                0.6679138717299395,
                0.10457067546423016,
                0.15296684572543062
            ]
        },
        {
            "positions": [
                -0.1709982991900147,
                -1.4773178439202839,
                1.8030749005367257,
                0.8228217860078704,
                0.07518620127588198,
                0.13591280451513527
            ]
        },
        {
            "positions": [
                -0.12911015082488364,
                -1.3771730659886519,
                1.8295971979784513,
                0.9777297002858012,
                0.0458017270875338,
                0.11885876330483991
            ]
        },
        {
            "positions": [
                -0.08722200245975256,
                -1.27702828805702,
                1.8561194954201772,
                1.1326376145637318,
                0.016417252899185622,
                0.10180472209454454
            ]
        },
        {
            "positions": [
                -0.04533385409462151,
                -1.1768835101253883,
                1.8826417928619028,
                1.2875455288416626,
                -0.012967221289162556,
                0.08475068088424918
            ]
        },
        {
            "positions": [
                -0.0034457057294904614,
                -1.0767387321937565,
                1.9091640903036287,
                1.4424534431195934,
                -0.04235169547751072,
                0.06769663967395383
            ]
        },
        {
            "positions": [
                0.03844244263564062,
                -0.9765939542621246,
                1.9356863877453545,
                1.5973613573975243,
                -0.07173616966585891,
                0.050642598463658456
            ]
        },
        {
            "positions": [
                0.08033059100077167,
                -0.8764491763304927,
                1.9622086851870801,
                1.752269271675455,
                -0.1011206438542071,
                0.0335885572533631
            ]
        },
        {
            "positions": [
                0.12221873936590273,
                -0.7763043983988609,
                1.988730982628806,
                1.907177185953386,
                -0.13050511804255527,
                0.016534516043067743
            ]
        }
    ]
}