{
    "goal": {
        "global_pose": {
            "orientation": {
                "w": -0.00223480608172531,
                "x": 0.0024358444001904467,
                "y": 0.7094548369677653,
                "z": -0.704743149386269
            },
            "position": {
                "x": 0.6205249238014221,
                "y": -0.6371506643295288,
                "z": 0.19426114857196808
            }
        },
        "name": "move_to_magneteinheit_B"
    },
    "id": "BKPIECE_move_to_magneteinheit_B_74",
    "joint_names": [
        "shoulder_pan_joint",
        "shoulder_lift_joint",
        "elbow_joint",
        "wrist_1_joint",
        "wrist_2_joint",
        "wrist_3_joint"
    ],
    "metrics": {
        "cart_traj_len": 1.8949969148801757,
        "distance_elbow_joint": 1.9108020464337991,
        "distance_shoulder_lift_joint": 0.7593710702542479,
        "distance_shoulder_pan_joint": 1.6211005816458626,
        "distance_wrist_1_joint": 2.8581597373510736,
        "distance_wrist_2_joint": 2.025978907544491,
        "distance_wrist_3_joint": 0.32400319358364593,
        "smoothness": 0.685321705940643,
        "time": 0.419270762,
        "traj_len": 3.0821121875773954,
        "weighted_distance": 3.877055657180585
    },
    "planner": "BKPIECE",
    "start": {
        "state": {
            "elbow_joint": 2.6216224122426386,
            "shoulder_lift_joint": -1.4174107377796124,
            "shoulder_pan_joint": 0.7066234856936794,
            "wrist_1_joint": 1.9546482284002225,
            "wrist_2_joint": -0.7096286983471962,
            "wrist_3_joint": 0.005740856962016249
        }
    },
    "waypoints": [
        {
            "positions": [
                0.7066234856936794,
                -1.4174107377796124,
                2.6216224122426386,
                1.9546482284002225,
                -0.7096286983471962,
                0.005740856962016249
            ]
        },
        {
            "positions": [
                0.5504200301542275,
                -1.4078646102409427,
                2.563464273988898,
                1.8421272141887732,
                -0.7348626004957255,
                -0.019143060384413338
            ]
        },
        {
            "positions": [
                0.5134290199182677,
                -1.3934552998673353,
                2.410423262080009,
                1.7058271574974269,
                -0.7065780891005151,
                -0.03451295198157824
            ]
        },
        {
            "positions": [
                0.476438009682308,
                -1.379045989493728,
                2.2573822501711196,
                1.5695271008060805,
                -0.6782935777053046,
                -0.04988284357874315
            ]
        },
        {
            "positions": [
                0.43944699944634824,
                -1.3646366791201205,
                2.1043412382622306,
                1.4332270441147341,
                -0.6500090663100941,
                -0.06525273517590804
            ]
        },
        {
            "positions": [
                0.4024559892103885,
                -1.3502273687465132,
                1.9513002263533412,
                1.2969269874233877,
                -0.6217245549148838,
                -0.08062262677307294
            ]
        },
        {
            "positions": [
                0.36546497897442876,
                -1.3358180583729056,
                1.7982592144444522,
                1.1606269307320414,
                -0.5934400435196734,
                -0.09599251837023785
            ]
        },
        {
            "positions": [
                0.328473968738469,
                -1.3214087479992982,
                1.645218202535563,
                1.024326874040695,
                -0.5651555321244629,
                -0.11136240996740275
            ]
        },
        {
            "positions": [
                0.2914829585025092,
                -1.3069994376256908,
                1.4921771906266739,
                0.8880268173493486,
                -0.5368710207292524,
                -0.12673230156456766
            ]
        },
        {
            "positions": [
                0.2544919482665495,
                -1.2925901272520834,
                1.3391361787177847,
                0.7517267606580023,
                -0.508586509334042,
                -0.14210219316173256
            ]
        },
        {
            "positions": [
                0.21750093803058973,
                -1.278180816878476,
                1.1860951668088955,
                0.6154267039666559,
                -0.4803019979388316,
                -0.15747208475889748
            ]
        },
        {
            "positions": [
                0.14203573576507156,
                -1.2368380735882687,
                1.2177801535422326,
                0.7166892514944897,
                -0.5967142914614361,
                -0.14675273463471533
            ]
        },
        {
            "positions": [
                0.06657053349955336,
                -1.195495330298061,
                1.2494651402755697,
                0.8179517990223235,
                -0.7131265849840406,
                -0.13603338451053318
            ]
        },
        {
            "positions": [
                -0.008894668765964842,
                -1.1541525870078537,
                1.2811501270089067,
                0.9192143465501574,
                -0.8295388785066451,
                -0.12531403438635103
            ]
        },
        {
            "positions": [
                -0.08435987103148301,
                -1.1128098437176464,
                1.3128351137422438,
                1.0204768940779911,
                -0.9459511720292496,
                -0.11459468426216887
            ]
        },
        {
            "positions": [
                -0.15982507329700119,
                -1.071467100427439,
                1.344520100475581,
                1.121739441605825,
                -1.0623634655518541,
                -0.10387533413798673
            ]
        },
        {
            "positions": [
                -0.2352902755625194,
                -1.0301243571372314,
                1.376205087208918,
                1.223001989133659,
                -1.1787757590744588,
                -0.09315598401380458
            ]
        },
        {
            "positions": [
                -0.31075547782803753,
                -0.988781613847024,
                1.407890073942255,
                1.324264536661493,
                -1.2951880525970632,
                -0.08243663388962243
            ]
        },
        {
            "positions": [
                -0.38622068009355576,
                -0.9474388705568165,
                1.4395750606755922,
                1.4255270841893264,
                -1.4116003461196676,
                -0.07171728376544027
            ]
        },
        {
            "positions": [
                -0.4616858823590739,
                -0.906096127266609,
                1.471260047408929,
                1.5267896317171603,
                -1.5280126396422722,
                -0.06099793364125812
            ]
        },
        {
            "positions": [
                -0.5371510846245922,
                -0.8647533839764017,
                1.502945034142266,
                1.6280521792449942,
                -1.6444249331648766,
                -0.05027858351707598
            ]
        },
        {
            "positions": [
                -0.6126162868901102,
                -0.8234106406861943,
                1.5346300208756032,
                1.729314726772828,
                -1.7608372266874812,
                -0.03955923339289383
            ]
        },
        {
            "positions": [
                -0.6880814891556286,
                -0.7820678973959867,
                1.5663150076089403,
                1.830577274300662,
                -1.8772495202100858,
                -0.028839883268711675
            ]
        },
        {
            "positions": [
                -0.7635466914211466,
                -0.7407251541057793,
                1.5979999943422774,
                1.9318398218284958,
                -1.9936618137326902,
                -0.01812053314452952
            ]
        },
        {
            "positions": [
                -0.8390118936866648,
                -0.699382410815572,
                1.6296849810756144,
                2.03310236935633,
                -2.110074107255295,
                -0.007401183020347368
            ]
        },
        {
            "positions": [
                -0.9144770959521831,
                -0.6580396675253645,
                1.6613699678089515,
                2.1343649168841634,
                -2.2264864007778993,
                0.0033181671038347766
            ]
        }
    ]
}