{
    "goal": {
        "global_pose": {
            "orientation": {
                "w": 0.7047431468963623,
                "x": -0.7094548344612122,
                "y": 0.0024358443915843964,
                "z": -0.0022348060738295317
            },
            "position": {
                "x": 0.6094750761985779,
                "y": 0.3671506643295288,
                "z": 0.19426114857196808
            }
        },
        "name": "move_to_magneteinheit_A"
    },
    "id": "BKPIECE_move_to_magneteinheit_A_134",
    "joint_names": [
        "shoulder_pan_joint",
        "shoulder_lift_joint",
        "elbow_joint",
        "wrist_1_joint",
        "wrist_2_joint",
        "wrist_3_joint"
    ],
    "metrics": {
        "cart_traj_len": 3.0667932977771604,
        "distance_elbow_joint": 3.9308236537822046,
        "distance_shoulder_lift_joint": 0.5683436651091428,
        "distance_shoulder_pan_joint": 2.8498975948583043,
        "distance_wrist_1_joint": 3.5474555532099927,
        "distance_wrist_2_joint": 1.6671734826772648,
        "distance_wrist_3_joint": 0.6682065046447834,
        "smoothness": 0.10188254493869096,
        "time": 0.298299976,
        "traj_len": 3.63756793122571,
        "weighted_distance": 4.447801985189822
    },
    "planner": "BKPIECE",
    "start": {
        "state": {
            "elbow_joint": -1.9196185241190666,
            "shoulder_lift_joint": -1.2443396400964142,
            "shoulder_pan_joint": 2.6996025414629847,
            "wrist_1_joint": -1.5485510000780065,
            "wrist_2_joint": -1.5709468930060704,
            "wrist_3_joint": 0.4420197071253992
        }
    },
    "waypoints": [
        {
            "positions": [
                2.6996025414629847,
                -1.2443396400964142,
                -1.9196185241190666,
                -1.5485510000780065,
                -1.5709468930060704,
                0.4420197071253992
            ]
        },
        {
            "positions": [
                2.601896423782133,
                -1.2463733776275994,
                -1.8028963919853591,
                -1.455258358122021,
                -1.5132101890985676,
                0.41978025734340874
            ]
        },
        {
            "positions": [
                2.5041903061012807,
                -1.2484071151587846,
                -1.6861742598516518,
                -1.3619657161660357,
                -1.4554734851910647,
                0.3975408075614183
            ]
        },
        {
            "positions": [
                2.406484188420429,
                -1.2504408526899697,
                -1.5694521277179443,
                -1.2686730742100503,
                -1.397736781283562,
                0.37530135777942786
            ]
        },
        {
            "positions": [
                2.308778070739577,
                -1.252474590221155,
                -1.452729995584237,
                -1.175380432254065,
                -1.340000077376059,
                0.3530619079974375
            ]
        },
        {
            "positions": [
                2.2110719530587253,
                -1.2545083277523401,
                -1.3360078634505295,
                -1.0820877902980797,
                -1.2822633734685562,
                0.33082245821544704
            ]
        },
        {
            "positions": [
                2.1133658353778735,
                -1.2565420652835253,
                -1.219285731316822,
                -0.9887951483420943,
                -1.2245266695610533,
                0.3085830084334566
            ]
        },
        {
            "positions": [
                2.0156597176970212,
                -1.2585758028147105,
                -1.1025635991831146,
                -0.8955025063861088,
                -1.1667899656535505,
                0.28634355865146616
            ]
        },
        {
            "positions": [
                1.9179536000161694,
                -1.2606095403458957,
                -0.9858414670494071,
                -0.8022098644301234,
                -1.1090532617460478,
                0.2641041088694758
            ]
        },
        {
            "positions": [
                1.8202474823353176,
                -1.2626432778770809,
                -0.8691193349156996,
                -0.708917222474138,
                -1.0513165578385448,
                0.2418646590874853
            ]
        },
        {
            "positions": [
                1.7225413646544656,
                -1.264677015408266,
                -0.7523972027819923,
                -0.6156245805181527,
                -0.993579853931042,
                0.21962520930549487
            ]
        },
        {
            "positions": [
                1.6248352469736138,
                -1.2667107529394512,
                -0.6356750706482848,
                -0.5223319385621672,
                -0.9358431500235392,
                0.19738575952350446
            ]
        },
        {
            "positions": [
                1.5271291292927618,
                -1.2687444904706364,
                -0.5189529385145772,
                -0.429039296606182,
                -0.8781064461160364,
                0.17514630974151402
            ]
        },
        {
            "positions": [
                1.42942301161191,
                -1.2707782280018216,
                -0.40223080638086994,
                -0.3357466546501966,
                -0.8203697422085335,
                0.15290685995952358
            ]
        },
        {
            "positions": [
                1.331716893931058,
                -1.272811965533007,
                -0.2855086742471624,
                -0.24245401269421119,
                -0.7626330383010307,
                0.13066741017753314
            ]
        },
        {
            "positions": [
                1.234010776250206,
                -1.2748457030641922,
                -0.1687865421134549,
                -0.14916137073822555,
                -0.7048963343935277,
                0.1084279603955427
            ]
        },
        {
            "positions": [
                1.1363046585693541,
                -1.2768794405953774,
                -0.052064409979747595,
                -0.05586872878224036,
                -0.647159630486025,
                0.08618851061355232
            ]
        },
        {
            "positions": [
                1.0385985408885021,
                -1.2789131781265626,
                0.06465772215396015,
                0.03742391317374505,
                -0.5894229265785221,
                0.06394906083156182
            ]
        },
        {
            "positions": [
                0.9408924232076503,
                -1.2809469156577478,
                0.18137985428766745,
                0.13071655512973046,
                -0.5316862226710193,
                0.04170961104957144
            ]
        },
        {
            "positions": [
                0.8431863055267983,
                -1.282980653188933,
                0.29810198642137475,
                0.22400919708571587,
                -0.4739495187635163,
                0.019470161267581
            ]
        },
        {
            "positions": [
                0.7454801878459465,
                -1.2850143907201181,
                0.41482411855508206,
                0.31730183904170106,
                -0.4162128148560136,
                -0.0027692885144094403
            ]
        },
        {
            "positions": [
                0.6477740701650943,
                -1.2870481282513033,
                0.5315462506887898,
                0.4105944809976867,
                -0.35847611094851084,
                -0.02500873829639988
            ]
        },
        {
            "positions": [
                0.5500679524842429,
                -1.2890818657824885,
                0.6482683828224971,
                0.5038871229536721,
                -0.3007394070410081,
                -0.04724818807839026
            ]
        },
        {
            "positions": [
                0.45236183480339065,
                -1.2911156033136737,
                0.7649905149562048,
                0.5971797649096573,
                -0.24300270313350514,
                -0.0694876378603807
            ]
        },
        {
            "positions": [
                0.35465571712253885,
                -1.2931493408448589,
                0.8817126470899121,
                0.6904724068656425,
                -0.1852659992260024,
                -0.09172708764237114
            ]
        },
        {
            "positions": [
                0.2569495994416866,
                -1.295183078376044,
                0.9984347792236195,
                0.7837650488216281,
                -0.12752929531849944,
                -0.11396653742436158
            ]
        },
        {
            "positions": [
                0.15924348176083525,
                -1.2972168159072293,
                1.1151569113573268,
                0.8770576907776133,
                -0.0697925914109967,
                -0.13620598720635202
            ]
        },
        {
            "positions": [
                0.061537364079983094,
                -1.2992505534384144,
                1.2318790434910345,
                0.9703503327335988,
                -0.01205588750349377,
                -0.1584454369883424
            ]
        },
        {
            "positions": [
                0.03713324388775956,
                -1.239409051748135,
                1.3596303632903992,
                1.1211091779780213,
                -0.036918066750987806,
                -0.1572430498470327
            ]
        },
        {
            "positions": [
                0.01272912369553602,
                -1.1795675500578557,
                1.487381683089764,
                1.271868023222444,
                -0.06178024599848184,
                -0.15604066270572295
            ]
        },
        {
            "positions": [
                -0.0006536076244275692,
                -1.1236297252813685,
                1.5949765758371246,
                1.4022202527644307,
                -0.08244229960606496,
                -0.15170865358678132
            ]
        },
        {
            "positions": [
                -0.014036338944391158,
                -1.0676919005048815,
                1.702571468584485,
                1.5325724823064175,
                -0.10310435321364807,
                -0.14737664446783966
            ]
        },
        {
            "positions": [
                0.02002833966834116,
                -0.9972233757964791,
                1.7797298838541482,
                1.6491555000128095,
                -0.10741285607978135,
                -0.13320850246520488
            ]
        },
        {
            "positions": [
                0.05409301828107348,
                -0.9267548510880768,
                1.8568882991238116,
                1.7657385177192015,
                -0.11172135894591465,
                -0.11904036046257009
            ]
        },
        {
            "positions": [
                0.08815769689380579,
                -0.8562863263796743,
                1.9340467143934748,
                1.8823215354255938,
                -0.11602986181204794,
                -0.1048722184599353
            ]
        },
        {
            "positions": [
                0.12222237550653811,
                -0.7858178016712719,
                2.011205129663138,
                1.9989045531319858,
                -0.12033836467818122,
                -0.09070407645730053
            ]
        }
    ]
}