{
    "goal": {
        "global_pose": {
            "orientation": {
                "w": -0.4816463035849501,
                "x": 0.5182115481033762,
                "y": 0.4908360881923453,
                "z": -0.5084816262002911
            },
            "position": {
                "x": -0.8240239810943604,
                "y": 0.19912469901144506,
                "z": 0.16403168439865112
            }
        },
        "name": "move_to_storage_D"
    },
    "id": "BKPIECE_move_to_storage_D_104",
    "joint_names": [
        "shoulder_pan_joint",
        "shoulder_lift_joint",
        "elbow_joint",
        "wrist_1_joint",
        "wrist_2_joint",
        "wrist_3_joint"
    ],
    "metrics": {
        "cart_traj_len": 3.7412403301755375,
        "distance_elbow_joint": 4.208087140438156,
        "distance_shoulder_lift_joint": 1.2648614390226576,
        "distance_shoulder_pan_joint": 2.8140486435422742,
        "distance_wrist_1_joint": 2.260883290478098,
        "distance_wrist_2_joint": 0.8781363446108102,
        "distance_wrist_3_joint": 3.1784857978258403,
        "smoothness": 0.15891786393907972,
        "time": 0.323183487,
        "traj_len": 3.821583788943773,
        "weighted_distance": 4.909225385603967
    },
    "planner": "BKPIECE",
    "start": {
        "state": {
            "elbow_joint": -2.384821988534728,
            "shoulder_lift_joint": -2.2788054721415256,
            "shoulder_pan_joint": -0.1854694642142757,
            "wrist_1_joint": 1.4845938289331202,
            "wrist_2_joint": 0.17898776772866878,
            "wrist_3_joint": 0.037105688729662994
        }
    },
    "waypoints": [
        {
            "positions": [
                -0.1854694642142757,
                -2.2788054721415256,
                -2.384821988534728,
                1.4845938289331202,
                0.17898776772866878,
                0.037105688729662994
            ]
        },
        {
            "positions": [
                -0.16605957292036205,
                -2.2728841000174658,
                -2.3814823465443204,
                1.4762814733069376,
                0.19060828923901296,
                0.01600450503159601
            ]
        },
        {
            "positions": [
                -0.07656664431353642,
                -2.2320731125442608,
                -2.256557897650555,
                1.406665458017408,
                0.19921977220835219,
                0.07873691252286535
            ]
        },
        {
            "positions": [
                0.012926284293289209,
                -2.1912621250710558,
                -2.13163344875679,
                1.3370494427278783,
                0.2078312551776914,
                0.1414693200141347
            ]
        },
        {
            "positions": [
                0.10241921290011485,
                -2.150451137597851,
                -2.0067089998630245,
                1.2674334274383487,
                0.21644273814703063,
                0.20420172750540405
            ]
        },
        {
            "positions": [
                0.19191214150694047,
                -2.109640150124646,
                -1.8817845509692592,
                1.1978174121488192,
                0.22505422111636986,
                0.2669341349966734
            ]
        },
        {
            "positions": [
                0.28140507011376614,
                -2.068829162651441,
                -1.7568601020754937,
                1.1282013968592897,
                0.2336657040857091,
                0.32966654248794275
            ]
        },
        {
            "positions": [
                0.37089799872059176,
                -2.028018175178236,
                -1.6319356531817286,
                1.0585853815697601,
                0.24227718705504833,
                0.3923989499792121
            ]
        },
        {
            "positions": [
                0.46039092732741743,
                -1.987207187705031,
                -1.507011204287963,
                0.9889693662802304,
                0.25088867002438753,
                0.45513135747048145
            ]
        },
        {
            "positions": [
                0.5498838559342429,
                -1.946396200231826,
                -1.3820867553941978,
                0.9193533509907008,
                0.25950015299372675,
                0.5178637649617508
            ]
        },
        {
            "positions": [
                0.6393767845410687,
                -1.905585212758621,
                -1.2571623065004323,
                0.849737335701171,
                0.26811163596306603,
                0.5805961724530202
            ]
        },
        {
            "positions": [
                0.7288697131478943,
                -1.8647742252854163,
                -1.132237857606667,
                0.7801213204116415,
                0.27672311893240525,
                0.6433285799442895
            ]
        },
        {
            "positions": [
                0.8183626417547201,
                -1.8239632378122113,
                -1.0073134087129019,
                0.710505305122112,
                0.2853346019017445,
                0.7060609874355588
            ]
        },
        {
            "positions": [
                0.9078555703615456,
                -1.7831522503390063,
                -0.8823889598191366,
                0.6408892898325824,
                0.2939460848710837,
                0.7687933949268282
            ]
        },
        {
            "positions": [
                0.9973484989683714,
                -1.7423412628658013,
                -0.757464510925371,
                0.5712732745430527,
                0.3025575678404229,
                0.8315258024180976
            ]
        },
        {
            "positions": [
                1.086841427575197,
                -1.7015302753925963,
                -0.6325400620316057,
                0.5016572592535231,
                0.31116905080976215,
                0.8942582099093669
            ]
        },
        {
            "positions": [
                1.1763343561820225,
                -1.6607192879193913,
                -0.5076156131378404,
                0.43204124396399357,
                0.3197805337791014,
                0.9569906174006362
            ]
        },
        {
            "positions": [
                1.265827284788848,
                -1.6199083004461863,
                -0.3826911642440751,
                0.36242522867446403,
                0.3283920167484406,
                1.0197230248919056
            ]
        },
        {
            "positions": [
                1.3553202133956739,
                -1.5790973129729813,
                -0.2577667153503098,
                0.2928092133849345,
                0.3370034997177798,
                1.0824554323831748
            ]
        },
        {
            "positions": [
                1.4448131420024997,
                -1.5382863254997763,
                -0.13284226645654407,
                0.2231931980954045,
                0.3456149826871191,
                1.1451878398744444
            ]
        },
        {
            "positions": [
                1.5343060706093252,
                -1.4974753380265713,
                -0.007917817562778762,
                0.15357718280587496,
                0.3542264656564583,
                1.2079202473657138
            ]
        },
        {
            "positions": [
                1.6237989992161508,
                -1.4566643505533665,
                0.11700663133098654,
                0.08396116751634541,
                0.36283794862579755,
                1.270652654856983
            ]
        },
        {
            "positions": [
                1.7132919278229766,
                -1.4158533630801615,
                0.2419310802247514,
                0.014345152226815872,
                0.37144943159513677,
                1.3333850623482524
            ]
        },
        {
            "positions": [
                1.8027848564298021,
                -1.3750423756069565,
                0.3668555291185167,
                -0.05527086306271367,
                0.380060914564476,
                1.3961174698395216
            ]
        },
        {
            "positions": [
                1.8922777850366277,
                -1.3342313881337518,
                0.491779978012282,
                -0.12488687835224321,
                0.3886723975338152,
                1.458849877330791
            ]
        },
        {
            "positions": [
                1.9817707136434533,
                -1.2934204006605468,
                0.6167044269060473,
                -0.19450289364177276,
                0.39728388050315444,
                1.5215822848220604
            ]
        },
        {
            "positions": [
                2.0712636422502793,
                -1.2526094131873415,
                0.7416288757998131,
                -0.26411890893130274,
                0.40589536347249366,
                1.5843146923133298
            ]
        },
        {
            "positions": [
                2.160756570857105,
                -1.2117984257141368,
                0.8665533246935784,
                -0.3337349242208323,
                0.4145068464418329,
                1.6470470998045992
            ]
        },
        {
            "positions": [
                2.2502494994639304,
                -1.1709874382409318,
                0.9914777735873437,
                -0.40335093951036183,
                0.4231183294111721,
                1.7097795072958684
            ]
        },
        {
            "positions": [
                2.339742428070756,
                -1.1301764507677268,
                1.116402222481109,
                -0.47296695479989137,
                0.43172981238051134,
                1.7725119147871378
            ]
        },
        {
            "positions": [
                2.371835400432672,
                -1.1172617376956313,
                1.194942547972478,
                -0.5066694555493454,
                0.5012180679315077,
                1.9281649374951635
            ]
        },
        {
            "positions": [
                2.4039283727945877,
                -1.1043470246235358,
                1.2734828734638468,
                -0.5403719562987994,
                0.5707063234825042,
                2.083817960203189
            ]
        },
        {
            "positions": [
                2.4360213451565036,
                -1.0914323115514406,
                1.3520231989552158,
                -0.5740744570482534,
                0.6401945790335005,
                2.239470982911215
            ]
        },
        {
            "positions": [
                2.4681143175184195,
                -1.0785175984793451,
                1.4305635244465846,
                -0.6077769577977075,
                0.709682834584497,
                2.3951240056192407
            ]
        },
        {
            "positions": [
                2.500207289880335,
                -1.0656028854072497,
                1.5091038499379537,
                -0.6414794585471615,
                0.7791710901354933,
                2.5507770283272664
            ]
        },
        {
            "positions": [
                2.532300262242251,
                -1.0526881723351542,
                1.5876441754293225,
                -0.6751819592966154,
                0.8486593456864897,
                2.706430051035292
            ]
        },
        {
            "positions": [
                2.5643932346041667,
                -1.039773459263059,
                1.6661845009206915,
                -0.7088844600460694,
                0.9181476012374862,
                2.862083073743318
            ]
        },
        {
            "positions": [
                2.5964862069660826,
                -1.0268587461909635,
                1.7447248264120603,
                -0.7425869607955234,
                0.9876358567884825,
                3.0177360964513436
            ]
        },
        {
            "positions": [
                2.6285791793279984,
                -1.013944033118868,
                1.8232651519034293,
                -0.7762894615449775,
                1.057124112339479,
                3.1733891191593693
            ]
        }
    ]
}