{
    "goal": {
        "global_pose": {
            "orientation": {
                "w": 0.7031023480610252,
                "x": -0.7110244013736278,
                "y": 0.0077485991402295624,
                "z": 0.005598929693374583
            },
            "position": {
                "x": -0.8841497679147869,
                "y": 0.44412534475326537,
                "z": 0.3711530566215515
            }
        },
        "name": "move_to_auspresseinheit_D"
    },
    "id": "BKPIECE_move_to_auspresseinheit_D_111",
    "joint_names": [
        "shoulder_pan_joint",
        "shoulder_lift_joint",
        "elbow_joint",
        "wrist_1_joint",
        "wrist_2_joint",
        "wrist_3_joint"
    ],
    "metrics": {
        "cart_traj_len": 0.34333799816522087,
        "distance_elbow_joint": 0.6570422953200852,
        "distance_shoulder_lift_joint": 0.13234800947709058,
        "distance_shoulder_pan_joint": 0.13323776585830638,
        "distance_wrist_1_joint": 0.5911845219286835,
        "distance_wrist_2_joint": 1.4439315560027826,
        "distance_wrist_3_joint": 0.05701601652476285,
        "smoothness": 0.0,
        "time": 0.17739291999999998,
        "traj_len": 1.7363064721159427,
        "weighted_distance": 2.2724234367944507
    },
    "planner": "BKPIECE",
    "start": {
        "state": {
            "elbow_joint": -1.8275523626775212,
            "shoulder_lift_joint": -2.126789852344167,
            "shoulder_pan_joint": -0.03513704404078235,
            "wrist_1_joint": -2.347782403156801,
            "wrist_2_joint": -1.6058999987535132,
            "wrist_3_joint": -3.0880379163319196
        }
    },
    "waypoints": [
        {
            "positions": [
                -0.03513704404078235,
                -2.126789852344167,
                -1.8275523626775212,
                -2.347782403156801,
                -1.6058999987535132,
                -3.0880379163319196
            ]
        },
        {
            "positions": [
                -0.051791764773070646,
                -2.1433333535288033,
                -1.7454220757625105,
                -2.421680468397886,
                -1.4254085542531654,
                -3.0809109142663242
            ]
        },
        {
            "positions": [
                -0.06844648550535895,
                -2.1598768547134393,
                -1.6632917888474998,
                -2.4955785336389718,
                -1.2449171097528176,
                -3.073783912200729
            ]
        },
        {
            "positions": [
                -0.08510120623764725,
                -2.1764203558980757,
                -1.5811615019324892,
                -2.5694765988800574,
                -1.0644256652524697,
                -3.0666569101351335
            ]
        },
        {
            "positions": [
                -0.10175592696993555,
                -2.192963857082712,
                -1.4990312150174785,
                -2.6433746641211426,
                -0.8839342207521219,
                -3.059529908069538
            ]
        },
        {
            "positions": [
                -0.11841064770222384,
                -2.2095073582673486,
                -1.4169009281024678,
                -2.717272729362228,
                -0.7034427762517741,
                -3.052402906003943
            ]
        },
        {
            "positions": [
                -0.13506536843451214,
                -2.226050859451985,
                -1.3347706411874574,
                -2.7911707946033135,
                -0.5229513317514263,
                -3.0452759039383475
            ]
        },
        {
            "positions": [
                -0.15172008916680044,
                -2.242594360636621,
                -1.2526403542724467,
                -2.865068859844399,
                -0.34245988725107845,
                -3.038148901872752
            ]
        },
        {
            "positions": [
                -0.16837480989908873,
                -2.2591378618212574,
                -1.170510067357436,
                -2.9389669250854844,
                -0.16196844275073063,
                -3.0310218998071567
            ]
        }
    ]
}