{
    "goal": {
        "global_pose": {
            "orientation": {
                "w": 0.7031023480610252,
                "x": -0.7110244013736278,
                "y": 0.0077485991402295624,
                "z": 0.005598929693374583
            },
            "position": {
                "x": -0.8841497679147869,
                "y": 0.44412534475326537,
                "z": 0.3711530566215515
            }
        },
        "name": "move_to_auspresseinheit_D"
    },
    "id": "BKPIECE_move_to_auspresseinheit_D_40",
    "joint_names": [
        "shoulder_pan_joint",
        "shoulder_lift_joint",
        "elbow_joint",
        "wrist_1_joint",
        "wrist_2_joint",
        "wrist_3_joint"
    ],
    "metrics": {
        "cart_traj_len": 0.3450207907287488,
        "distance_elbow_joint": 0.6682699321644405,
        "distance_shoulder_lift_joint": 0.13756237645088065,
        "distance_shoulder_pan_joint": 0.13367384462997492,
        "distance_wrist_1_joint": 0.6190893029030362,
        "distance_wrist_2_joint": 1.4400790056989872,
        "distance_wrist_3_joint": 0.07846310347546126,
        "smoothness": 2.9605947279411004e-16,
        "time": 0.183181449,
        "traj_len": 1.7541771761491995,
        "weighted_distance": 2.3007025189875647
    },
    "planner": "BKPIECE",
    "start": {
        "state": {
            "elbow_joint": -1.8275523626775212,
            "shoulder_lift_joint": -2.126789852344167,
            "shoulder_pan_joint": -0.03513704404078235,
            "wrist_1_joint": -2.347782403156801,
            "wrist_2_joint": -1.6058999987535132,
            "wrist_3_joint": -3.0880379163319196
        }
    },
    "waypoints": [
        {
            "positions": [
                -0.03513704404078235,
                -2.126789852344167,
                -1.8275523626775212,
                -2.347782403156801,
                -1.6058999987535132,
                -3.0880379163319196
            ]
        },
        {
            "positions": [
                -0.05184627461952922,
                -2.143985149400527,
                -1.7440186211569662,
                -2.4251685660196802,
                -1.4258901230411398,
                -3.078230028397487
            ]
        },
        {
            "positions": [
                -0.06855550519827608,
                -2.161180446456887,
                -1.6604848796364111,
                -2.50255472888256,
                -1.2458802473287665,
                -3.0684221404630545
            ]
        },
        {
            "positions": [
                -0.08526473577702295,
                -2.178375743513247,
                -1.5769511381158559,
                -2.5799408917454394,
                -1.065870371616393,
                -3.0586142525286215
            ]
        },
        {
            "positions": [
                -0.1019739663557698,
                -2.1955710405696074,
                -1.493417396595301,
                -2.657327054608319,
                -0.8858604959040196,
                -3.048806364594189
            ]
        },
        {
            "positions": [
                -0.11868319693451668,
                -2.2127663376259674,
                -1.4098836550747458,
                -2.7347132174711986,
                -0.7058506201916462,
                -3.0389984766597564
            ]
        },
        {
            "positions": [
                -0.13539242751326355,
                -2.2299616346823274,
                -1.3263499135541907,
                -2.812099380334078,
                -0.5258407444792728,
                -3.0291905887253234
            ]
        },
        {
            "positions": [
                -0.1521016580920104,
                -2.2471569317386875,
                -1.2428161720336357,
                -2.8894855431969573,
                -0.3458308687668994,
                -3.019382700790891
            ]
        },
        {
            "positions": [
                -0.16881088867075728,
                -2.2643522287950475,
                -1.1592824305130807,
                -2.966871706059837,
                -0.1658209930545261,
                -3.0095748128564583
            ]
        }
    ]
}