{
    "goal": {
        "global_pose": {
            "orientation": {
                "w": 0.7031023480610252,
                "x": -0.7110244013736278,
                "y": 0.0077485991402295624,
                "z": 0.005598929693374583
            },
            "position": {
                "x": -0.8841497679147869,
                "y": 0.44412534475326537,
                "z": 0.3711530566215515
            }
        },
        "name": "move_to_auspresseinheit_D"
    },
    "id": "BKPIECE_move_to_auspresseinheit_D_148",
    "joint_names": [
        "shoulder_pan_joint",
        "shoulder_lift_joint",
        "elbow_joint",
        "wrist_1_joint",
        "wrist_2_joint",
        "wrist_3_joint"
    ],
    "metrics": {
        "cart_traj_len": 0.3434560028820585,
        "distance_elbow_joint": 0.6411994444854148,
        "distance_shoulder_lift_joint": 0.12231708060826252,
        "distance_shoulder_pan_joint": 0.13403864336477794,
        "distance_wrist_1_joint": 0.5465149021575271,
        "distance_wrist_2_joint": 1.4303792892975138,
        "distance_wrist_3_joint": 0.012419161713338678,
        "smoothness": 5.921189511553294e-16,
        "time": 0.237096952,
        "traj_len": 1.699078727318671,
        "weighted_distance": 2.21101809954341
    },
    "planner": "BKPIECE",
    "start": {
        "state": {
            "elbow_joint": -1.8275523626775212,
            "shoulder_lift_joint": -2.126789852344167,
            "shoulder_pan_joint": -0.03513704404078235,
            "wrist_1_joint": -2.347782403156801,
            "wrist_2_joint": -1.6058999987535132,
            "wrist_3_joint": -3.0880379163319196
        }
    },
    "waypoints": [
        {
            "positions": [
                -0.03513704404078235,
                -2.126789852344167,
                -1.8275523626775212,
                -2.347782403156801,
                -1.6058999987535132,
                -3.0880379163319196
            ]
        },
        {
            "positions": [
                -0.05189187446137959,
                -2.1420794874201996,
                -1.7474024321168444,
                -2.4160967659264916,
                -1.427102587591324,
                -3.086485521117752
            ]
        },
        {
            "positions": [
                -0.06864670488197683,
                -2.1573691224962324,
                -1.6672525015561674,
                -2.4844111286961827,
                -1.2483051764291346,
                -3.084933125903585
            ]
        },
        {
            "positions": [
                -0.08540153530257408,
                -2.172658757572265,
                -1.5871025709954907,
                -2.5527254914658735,
                -1.0695077652669456,
                -3.0833807306894174
            ]
        },
        {
            "positions": [
                -0.10215636572317133,
                -2.1879483926482983,
                -1.5069526404348137,
                -2.6210398542355646,
                -0.8907103541047563,
                -3.08182833547525
            ]
        },
        {
            "positions": [
                -0.11891119614376858,
                -2.203238027724331,
                -1.426802709874137,
                -2.6893542170052553,
                -0.711912942942567,
                -3.080275940261083
            ]
        },
        {
            "positions": [
                -0.1356660265643658,
                -2.218527662800364,
                -1.3466527793134602,
                -2.757668579774946,
                -0.533115531780378,
                -3.0787235450469157
            ]
        },
        {
            "positions": [
                -0.15242085698496305,
                -2.2338172978763966,
                -1.2665028487527832,
                -2.8259829425446372,
                -0.3543181206181887,
                -3.0771711498327483
            ]
        },
        {
            "positions": [
                -0.1691756874055603,
                -2.2491069329524294,
                -1.1863529181921064,
                -2.894297305314328,
                -0.1755207094559994,
                -3.075618754618581
            ]
        }
    ]
}