{
    "goal": {
        "global_pose": {
            "orientation": {
                "w": 0.7047431493862688,
                "x": -0.7094548369677653,
                "y": 0.0024358444001904,
                "z": -0.0022348060817251984
            },
            "position": {
                "x": -0.39052492380142206,
                "y": 0.3671506643295288,
                "z": 0.19426114857196808
            }
        },
        "name": "move_to_magneteinheit_D"
    },
    "id": "BKPIECE_move_to_magneteinheit_D_10",
    "joint_names": [
        "shoulder_pan_joint",
        "shoulder_lift_joint",
        "elbow_joint",
        "wrist_1_joint",
        "wrist_2_joint",
        "wrist_3_joint"
    ],
    "metrics": {
        "cart_traj_len": 4.624595240162171,
        "distance_elbow_joint": 3.9930189655481065,
        "distance_shoulder_lift_joint": 1.0979263478411223,
        "distance_shoulder_pan_joint": 3.0513559659686433,
        "distance_wrist_1_joint": 2.289452482517029,
        "distance_wrist_2_joint": 1.1285914951243172,
        "distance_wrist_3_joint": 6.297097196620037,
        "smoothness": 0.27170679003284626,
        "time": 0.310976081,
        "traj_len": 4.225806722227042,
        "weighted_distance": 5.819766389168956
    },
    "planner": "BKPIECE",
    "start": {
        "state": {
            "elbow_joint": 0.749534889911806,
            "shoulder_lift_joint": -0.6476975780787326,
            "shoulder_pan_joint": -2.711696901376241,
            "wrist_1_joint": -0.07506478083263063,
            "wrist_2_joint": 0.43296659715538205,
            "wrist_3_joint": -3.14703540197715
        }
    },
    "waypoints": [
        {
            "positions": [
                -2.711696901376241,
                -0.6476975780787326,
                0.749534889911806,
                -0.07506478083263063,
                0.43296659715538205,
                -3.14703540197715
            ]
        },
        {
            "positions": [
                -2.7172492148095695,
                -0.7256760233863475,
                0.7868427302598707,
                -0.14656713913194477,
                0.46369575936207996,
                -3.0340649198636394
            ]
        },
        {
            "positions": [
                -2.722801528242898,
                -0.8036544686939624,
                0.8241505706079356,
                -0.21806949743125892,
                0.4944249215687779,
                -2.921094437750129
            ]
        },
        {
            "positions": [
                -2.7283538416762263,
                -0.8816329140015774,
                0.8614584109560004,
                -0.2895718557305731,
                0.5251540837754758,
                -2.8081239556366184
            ]
        },
        {
            "positions": [
                -2.660618176824795,
                -0.9860871912573563,
                0.9271036491328594,
                -0.3390054502485829,
                0.5312204369938482,
                -2.7420068794365298
            ]
        },
        {
            "positions": [
                -2.592882511973364,
                -1.0905414685131354,
                0.9927488873097183,
                -0.38843904476659274,
                0.5372867902122208,
                -2.6758898032364415
            ]
        },
        {
            "positions": [
                -2.5251468471219325,
                -1.1949957457689142,
                1.0583941254865772,
                -0.4378726392846025,
                0.5433531434305933,
                -2.609772727036353
            ]
        },
        {
            "positions": [
                -2.4574111822705014,
                -1.299450023024693,
                1.1240393636634363,
                -0.4873062338026124,
                0.5494194966489658,
                -2.5436556508362647
            ]
        },
        {
            "positions": [
                -2.3896755174190702,
                -1.403904300280472,
                1.1896846018402951,
                -0.5367398283206222,
                0.5554858498673383,
                -2.477538574636176
            ]
        },
        {
            "positions": [
                -2.2954454944574354,
                -1.4110474984990968,
                1.1082021038477436,
                -0.567485861628289,
                0.5245271357085567,
                -2.3406046514796817
            ]
        },
        {
            "positions": [
                -2.2012154714958005,
                -1.4181906967177216,
                1.026719605855192,
                -0.5982318949359559,
                0.49356842154977515,
                -2.2036707283231873
            ]
        },
        {
            "positions": [
                -2.1069854485341657,
                -1.4253338949363463,
                0.9452371078626405,
                -0.6289779282436226,
                0.4626097073909936,
                -2.066736805166693
            ]
        },
        {
            "positions": [
                -2.012755425572531,
                -1.432477093154971,
                0.863754609870089,
                -0.6597239615512895,
                0.43165099323221207,
                -1.9298028820101987
            ]
        },
        {
            "positions": [
                -1.9185254026108962,
                -1.4396202913735958,
                0.7822721118775373,
                -0.6904699948589563,
                0.4006922790734305,
                -1.7928689588537043
            ]
        },
        {
            "positions": [
                -1.8242953796492614,
                -1.4467634895922206,
                0.7007896138849858,
                -0.7212160281666232,
                0.3697335649146489,
                -1.65593503569721
            ]
        },
        {
            "positions": [
                -1.7300653566876267,
                -1.4539066878108453,
                0.6193071158924344,
                -0.75196206147429,
                0.3387748507558674,
                -1.5190011125407157
            ]
        },
        {
            "positions": [
                -1.6358353337259919,
                -1.46104988602947,
                0.5378246178998828,
                -0.7827080947819569,
                0.30781613659708584,
                -1.3820671893842214
            ]
        },
        {
            "positions": [
                -1.541605310764357,
                -1.4681930842480948,
                0.4563421199073313,
                -0.8134541280896237,
                0.27685742243830425,
                -1.245133266227727
            ]
        },
        {
            "positions": [
                -1.4473752878027222,
                -1.4753362824667196,
                0.3748596219147796,
                -0.8442001613972906,
                0.2458987082795227,
                -1.1081993430712327
            ]
        },
        {
            "positions": [
                -1.3531452648410875,
                -1.4824794806853443,
                0.29337712392222814,
                -0.8749461947049574,
                0.21493999412074116,
                -0.9712654199147384
            ]
        },
        {
            "positions": [
                -1.2589152418794525,
                -1.489622678903969,
                0.21189462592967656,
                -0.9056922280126243,
                0.18398127996195957,
                -0.834331496758244
            ]
        },
        {
            "positions": [
                -1.1646852189178178,
                -1.4967658771225936,
                0.1304121279371251,
                -0.9364382613202911,
                0.15302256580317802,
                -0.6973975736017497
            ]
        },
        {
            "positions": [
                -1.0704551959561832,
                -1.5039090753412183,
                0.048929629944573616,
                -0.9671842946279579,
                0.12206385164439648,
                -0.5604636504452554
            ]
        },
        {
            "positions": [
                -0.9762251729945484,
                -1.511052273559843,
                -0.032552868047977856,
                -0.9979303279356246,
                0.09110513748561494,
                -0.42352972728876104
            ]
        },
        {
            "positions": [
                -0.8819951500329133,
                -1.5181954717784678,
                -0.11403536604052955,
                -1.0286763612432916,
                0.06014642332683334,
                -0.2865958041322667
            ]
        },
        {
            "positions": [
                -0.7877651270712787,
                -1.5253386699970926,
                -0.19551786403308102,
                -1.0594223945509584,
                0.0291877091680518,
                -0.14966188097577238
            ]
        },
        {
            "positions": [
                -0.6935351041096438,
                -1.5324818682157173,
                -0.2770003620256325,
                -1.0901684278586252,
                -0.0017710049907297964,
                -0.012727957819278046
            ]
        },
        {
            "positions": [
                -0.5993050811480092,
                -1.539625066434342,
                -0.35848286001818397,
                -1.120914461166292,
                -0.03272971914951128,
                0.12420596533721628
            ]
        },
        {
            "positions": [
                -0.5050750581863741,
                -1.5467682646529668,
                -0.4399653580107359,
                -1.151660494473959,
                -0.06368843330829288,
                0.2611398884937106
            ]
        },
        {
            "positions": [
                -0.4108450352247395,
                -1.5539114628715915,
                -0.5214478560032874,
                -1.1824065277816258,
                -0.09464714746707448,
                0.39807381165020495
            ]
        },
        {
            "positions": [
                -0.31661501226310484,
                -1.5610546610902163,
                -0.6029303539958388,
                -1.2131525610892926,
                -0.12560586162585596,
                0.5350077348066993
            ]
        },
        {
            "positions": [
                -0.22238498930147,
                -1.568197859308841,
                -0.6844128519883903,
                -1.2438985943969594,
                -0.15656457578463756,
                0.6719416579631936
            ]
        },
        {
            "positions": [
                -0.1281549663398347,
                -1.5753410575274658,
                -0.765895349980942,
                -1.2746446277046264,
                -0.18752328994341916,
                0.8088755811196879
            ]
        },
        {
            "positions": [
                -0.03392494337820029,
                -1.5824842557460905,
                -0.8473778479734935,
                -1.3053906610122932,
                -0.21848200410220076,
                0.9458095042761823
            ]
        },
        {
            "positions": [
                0.060305079583434756,
                -1.5896274539647153,
                -0.9288603459660449,
                -1.33613669431996,
                -0.24944071826098224,
                1.0827434274326768
            ]
        },
        {
            "positions": [
                0.05942405683819758,
                -1.6012796694002773,
                -1.0551194941173414,
                -1.42010253405166,
                -0.2555133262932867,
                1.2433707155823357
            ]
        },
        {
            "positions": [
                0.05854303409296039,
                -1.6129318848358392,
                -1.1813786422686379,
                -1.5040683737833602,
                -0.2615859343255912,
                1.4039980037319946
            ]
        },
        {
            "positions": [
                0.05766201134772321,
                -1.6245841002714012,
                -1.3076377904199346,
                -1.5880342135150602,
                -0.26765854235789566,
                1.5646252918816532
            ]
        },
        {
            "positions": [
                0.05678098860248603,
                -1.6362363157069633,
                -1.433896938571231,
                -1.6720000532467605,
                -0.27373115039020013,
                1.725252580031312
            ]
        },
        {
            "positions": [
                0.05589996585724885,
                -1.647888531142525,
                -1.5601560867225275,
                -1.7559658929784605,
                -0.2798037584225046,
                1.885879868180971
            ]
        },
        {
            "positions": [
                0.055018943112011665,
                -1.6595407465780871,
                -1.6864152348738242,
                -1.8399317327101605,
                -0.28587636645480907,
                2.04650715633063
            ]
        },
        {
            "positions": [
                0.054137920366774485,
                -1.671192962013649,
                -1.8126743830251206,
                -1.9238975724418608,
                -0.29194897448711354,
                2.207134444480289
            ]
        },
        {
            "positions": [
                0.053256897621537305,
                -1.682845177449211,
                -1.938933531176417,
                -2.007863412173561,
                -0.298021582519418,
                2.3677617326299476
            ]
        },
        {
            "positions": [
                0.05237587487630012,
                -1.694497392884773,
                -2.0651926793277138,
                -2.0918292519052613,
                -0.3040941905517225,
                2.5283890207796063
            ]
        },
        {
            "positions": [
                0.05149485213106294,
                -1.706149608320335,
                -2.1914518274790105,
                -2.175795091636961,
                -0.31016679858402696,
                2.689016308929265
            ]
        },
        {
            "positions": [
                0.05061382938582576,
                -1.717801823755897,
                -2.3177109756303067,
                -2.2597609313686613,
                -0.31623940661633143,
                2.849643597078924
            ]
        },
        {
            "positions": [
                -0.050974565916838216,
                -1.7259064365395436,
                -2.3320699366205035,
                -2.2120839382863053,
                -0.26104253028189406,
                2.9825979535548375
            ]
        },
        {
            "positions": [
                -0.1525629612195022,
                -1.7340110493231902,
                -2.346428897610701,
                -2.1644069452039494,
                -0.20584565394745674,
                3.115552310030751
            ]
        },
        {
            "positions": [
                -0.18573502482556026,
                -1.745623925919855,
                -2.3631846517793207,
                -2.173809291020236,
                -0.18189242068764017,
                3.1500617946428884
            ]
        }
    ]
}