{
    "goal": {
        "global_pose": {
            "orientation": {
                "w": 0.5084816262002911,
                "x": -0.4908360881923452,
                "y": 0.5182115481033761,
                "z": -0.48164630358495003
            },
            "position": {
                "x": 0.5540239810943604,
                "y": -0.46912469901144505,
                "z": 0.16403168439865112
            }
        },
        "name": "move_to_storage_B"
    },
    "id": "BKPIECE_move_to_storage_B_108",
    "joint_names": [
        "shoulder_pan_joint",
        "shoulder_lift_joint",
        "elbow_joint",
        "wrist_1_joint",
        "wrist_2_joint",
        "wrist_3_joint"
    ],
    "metrics": {
        "cart_traj_len": 1.4643535094170415,
        "distance_elbow_joint": 0.9724669041449707,
        "distance_shoulder_lift_joint": 0.4590178138082608,
        "distance_shoulder_pan_joint": 1.2531456782130037,
        "distance_wrist_1_joint": 2.9811512059144207,
        "distance_wrist_2_joint": 2.7057360478891423,
        "distance_wrist_3_joint": 3.754300847590439,
        "smoothness": 0.2606753920453548,
        "time": 0.353369643,
        "traj_len": 3.482214596712879,
        "weighted_distance": 5.032028164323475
    },
    "planner": "BKPIECE",
    "start": {
        "state": {
            "elbow_joint": 1.664937868594044,
            "shoulder_lift_joint": -0.661644460510453,
            "shoulder_pan_joint": -0.9139846352900073,
            "wrist_1_joint": 2.146753192139373,
            "wrist_2_joint": -2.2341966793290973,
            "wrist_3_joint": 0.005466555786416001
        }
    },
    "waypoints": [
        {
            "positions": [
                -0.9139846352900073,
                -0.661644460510453,
                1.664937868594044,
                2.146753192139373,
                -2.2341966793290973,
                0.005466555786416001
            ]
        },
        {
            "positions": [
                -0.8469429454718355,
                -0.7111973947115564,
                1.6259154577305133,
                2.0600015513048526,
                -2.1485045927609914,
                -0.033462449437451455
            ]
        },
        {
            "positions": [
                -0.7799012556536635,
                -0.7607503289126598,
                1.5868930468669826,
                1.9732499104703325,
                -2.062812506192886,
                -0.07239145466131891
            ]
        },
        {
            "positions": [
                -0.7128595658354917,
                -0.8103032631137631,
                1.547870636003452,
                1.886498269635812,
                -1.9771204196247802,
                -0.11132045988518637
            ]
        },
        {
            "positions": [
                -0.6458178760173199,
                -0.8598561973148665,
                1.5088482251399213,
                1.7997466288012915,
                -1.8914283330566746,
                -0.15024946510905382
            ]
        },
        {
            "positions": [
                -0.578776186199148,
                -0.9094091315159699,
                1.4698258142763905,
                1.7129949879667712,
                -1.805736246488569,
                -0.18917847033292126
            ]
        },
        {
            "positions": [
                -0.5117344963809761,
                -0.9589620657170732,
                1.4308034034128598,
                1.6262433471322506,
                -1.7200441599204632,
                -0.22810747555678873
            ]
        },
        {
            "positions": [
                -0.44469280656280424,
                -1.0085149999181766,
                1.3917809925493292,
                1.5394917062977302,
                -1.6343520733523575,
                -0.26703648078065617
            ]
        },
        {
            "positions": [
                -0.37765111674463236,
                -1.05806793411928,
                1.3527585816857985,
                1.4527400654632099,
                -1.5486599867842519,
                -0.3059654860045236
            ]
        },
        {
            "positions": [
                -0.4075182900641169,
                -1.0606760316275898,
                1.3802705657373289,
                1.357442645494949,
                -1.4644850136449061,
                -0.16251261909621115
            ]
        },
        {
            "positions": [
                -0.43738546338360146,
                -1.0632841291358994,
                1.407782549788859,
                1.2621452255266883,
                -1.3803100405055604,
                -0.019059752187898682
            ]
        },
        {
            "positions": [
                -0.467252636703086,
                -1.0658922266442092,
                1.4352945338403893,
                1.1668478055584277,
                -1.2961350673662146,
                0.12439311472041381
            ]
        },
        {
            "positions": [
                -0.4971198100225705,
                -1.068500324152519,
                1.4628065178919194,
                1.071550385590167,
                -1.211960094226869,
                0.26784598162872625
            ]
        },
        {
            "positions": [
                -0.5269869833420551,
                -1.0711084216608286,
                1.4903185019434497,
                0.9762529656219061,
                -1.1277851210875232,
                0.41129884853703874
            ]
        },
        {
            "positions": [
                -0.5568541566615396,
                -1.0737165191691385,
                1.5178304859949798,
                0.8809555456536453,
                -1.0436101479481774,
                0.5547517154453512
            ]
        },
        {
            "positions": [
                -0.5867213299810241,
                -1.0763246166774483,
                1.5453424700465102,
                0.7856581256853845,
                -0.9594351748088318,
                0.6982045823536638
            ]
        },
        {
            "positions": [
                -0.6165885033005086,
                -1.0789327141857579,
                1.5728544540980403,
                0.6903607057171238,
                -0.8752602016694861,
                0.8416574492619762
            ]
        },
        {
            "positions": [
                -0.6464556766199931,
                -1.0815408116940677,
                1.6003664381495706,
                0.595063285748863,
                -0.7910852285301404,
                0.9851103161702888
            ]
        },
        {
            "positions": [
                -0.6763228499394778,
                -1.0841489092023775,
                1.6278784222011007,
                0.4997658657806022,
                -0.7069102553907946,
                1.1285631830786012
            ]
        },
        {
            "positions": [
                -0.7061900232589622,
                -1.086757006710687,
                1.655390406252631,
                0.40446844581234154,
                -0.6227352822514489,
                1.2720160499869135
            ]
        },
        {
            "positions": [
                -0.7360571965784468,
                -1.089365104218997,
                1.6829023903041613,
                0.30917102584408074,
                -0.5385603091121032,
                1.4154689168952261
            ]
        },
        {
            "positions": [
                -0.7659243698979313,
                -1.0919732017273067,
                1.7104143743556914,
                0.21387360587582016,
                -0.45438533597275743,
                1.5589217838035385
            ]
        },
        {
            "positions": [
                -0.7957915432174159,
                -1.0945812992356163,
                1.7379263584072218,
                0.11857618590755914,
                -0.3702103628334117,
                1.7023746507118511
            ]
        },
        {
            "positions": [
                -0.8256587165369005,
                -1.0971893967439261,
                1.7654383424587519,
                0.023278765939298562,
                -0.28603538969406594,
                1.8458275176201637
            ]
        },
        {
            "positions": [
                -0.8555258898563849,
                -1.099797494252236,
                1.7929503265102822,
                -0.07201865402896224,
                -0.20186041655472042,
                1.9892803845284759
            ]
        },
        {
            "positions": [
                -0.8853930631758695,
                -1.1024055917605455,
                1.8204623105618123,
                -0.16731607399722326,
                -0.11768544341537446,
                2.1327332514367883
            ]
        },
        {
            "positions": [
                -0.915260236495354,
                -1.1050136892688553,
                1.8479742946133426,
                -0.26261349396548384,
                -0.033510470276028936,
                2.276186118345101
            ]
        },
        {
            "positions": [
                -0.9451274098148386,
                -1.1076217867771652,
                1.8754862786648727,
                -0.3579109139337444,
                0.05066450286331681,
                2.419638985253413
            ]
        },
        {
            "positions": [
                -0.9749945831343232,
                -1.1102298842854748,
                1.902998262716403,
                -0.45320833390200543,
                0.13483947600266277,
                2.5630918521617256
            ]
        },
        {
            "positions": [
                -1.0048617564538076,
                -1.1128379817937846,
                1.9305102467679331,
                -0.5485057538702662,
                0.2190144491420083,
                2.7065447190700382
            ]
        },
        {
            "positions": [
                -1.034728929773292,
                -1.1154460793020944,
                1.9580222308194635,
                -0.6438031738385268,
                0.30318942228135404,
                2.8499975859783504
            ]
        },
        {
            "positions": [
                -1.0645961030927769,
                -1.118054176810404,
                1.9855342148709938,
                -0.7391005938067878,
                0.3873643954206998,
                2.9934504528866634
            ]
        },
        {
            "positions": [
                -1.0944632764122613,
                -1.1206622743187138,
                2.013046198922524,
                -0.8343980137750485,
                0.4715393685600456,
                3.1369033197949756
            ]
        }
    ]
}