{
    "goal": {
        "global_pose": {
            "orientation": {
                "w": 0.005598929693374612,
                "x": 0.007748599140229565,
                "y": 0.7110244013736278,
                "z": -0.7031023480610252
            },
            "position": {
                "x": 0.1141497679147869,
                "y": -0.7141253447532654,
                "z": 0.3711530566215515
            }
        },
        "name": "move_to_auspresseinheit_B"
    },
    "id": "BKPIECE_move_to_auspresseinheit_B_124",
    "joint_names": [
        "shoulder_pan_joint",
        "shoulder_lift_joint",
        "elbow_joint",
        "wrist_1_joint",
        "wrist_2_joint",
        "wrist_3_joint"
    ],
    "metrics": {
        "cart_traj_len": 0.5641908229841257,
        "distance_elbow_joint": 0.06615571471043036,
        "distance_shoulder_lift_joint": 0.29331266678447654,
        "distance_shoulder_pan_joint": 0.5757211760015091,
        "distance_wrist_1_joint": 0.33782512788419783,
        "distance_wrist_2_joint": 0.9953181221202714,
        "distance_wrist_3_joint": 0.004652773186653025,
        "smoothness": 0.0,
        "time": 0.232993183,
        "traj_len": 1.507642391513166,
        "weighted_distance": 1.9014295614261691
    },
    "planner": "BKPIECE",
    "start": {
        "state": {
            "elbow_joint": 2.0193083361928714,
            "shoulder_lift_joint": -1.1220246554650708,
            "shoulder_pan_joint": -1.0952077554168747,
            "wrist_1_joint": -0.8559753972642168,
            "wrist_2_joint": 0.4759566250798843,
            "wrist_3_joint": -3.1240929996934557
        }
    },
    "waypoints": [
        {
            "positions": [
                -1.0952077554168747,
                -1.1220246554650708,
                2.0193083361928714,
                -0.8559753972642168,
                0.4759566250798843,
                -3.1240929996934557
            ]
        },
        {
            "positions": [
                -1.1911612847504596,
                -1.1709100999291502,
                2.008282383741133,
                -0.7996712092835172,
                0.6418429787665962,
                -3.12331753749568
            ]
        },
        {
            "positions": [
                -1.2871148140840443,
                -1.2197955443932296,
                1.9972564312893946,
                -0.7433670213028175,
                0.8077293324533081,
                -3.1225420752979045
            ]
        },
        {
            "positions": [
                -1.3830683434176292,
                -1.2686809888573092,
                1.9862304788376561,
                -0.6870628333221178,
                0.97361568614002,
                -3.121766613100129
            ]
        },
        {
            "positions": [
                -1.4790218727512139,
                -1.3175664333213886,
                1.975204526385918,
                -0.6307586453414182,
                1.139502039826732,
                -3.120991150902354
            ]
        },
        {
            "positions": [
                -1.574975402084799,
                -1.366451877785468,
                1.9641785739341795,
                -0.5744544573607187,
                1.3053883935134438,
                -3.120215688704578
            ]
        },
        {
            "positions": [
                -1.6709289314183837,
                -1.4153373222495473,
                1.953152621482441,
                -0.518150269380019,
                1.4712747472001557,
                -3.1194402265068026
            ]
        }
    ]
}