{
    "goal": {
        "global_pose": {
            "orientation": {
                "w": -0.00223480608172531,
                "x": 0.0024358444001904467,
                "y": 0.7094548369677653,
                "z": -0.704743149386269
            },
            "position": {
                "x": -0.37947507619857795,
                "y": -0.6371506643295288,
                "z": 0.19426114857196808
            }
        },
        "name": "move_to_magneteinheit_C"
    },
    "id": "BKPIECE_move_to_magneteinheit_C_6",
    "joint_names": [
        "shoulder_pan_joint",
        "shoulder_lift_joint",
        "elbow_joint",
        "wrist_1_joint",
        "wrist_2_joint",
        "wrist_3_joint"
    ],
    "metrics": {
        "cart_traj_len": 1.0688589323240336,
        "distance_elbow_joint": 1.129904029839338,
        "distance_shoulder_lift_joint": 2.06415059597171,
        "distance_shoulder_pan_joint": 0.9241173441992527,
        "distance_wrist_1_joint": 1.6207436093115288,
        "distance_wrist_2_joint": 2.345248838430307,
        "distance_wrist_3_joint": 1.2452081458370814,
        "smoothness": 1.1733890222190462,
        "time": 0.15601426200000001,
        "traj_len": 3.054402161403966,
        "weighted_distance": 3.973132429583139
    },
    "planner": "BKPIECE",
    "start": {
        "state": {
            "elbow_joint": 1.9565354010623817,
            "shoulder_lift_joint": -1.4165861575791021,
            "shoulder_pan_joint": -1.6717766225146293,
            "wrist_1_joint": -0.5286633292919765,
            "wrist_2_joint": 1.472756589071564,
            "wrist_3_joint": -3.1238370188695823
        }
    },
    "waypoints": [
        {
            "positions": [
                -1.6717766225146293,
                -1.4165861575791021,
                1.9565354010623817,
                -0.5286633292919765,
                1.472756589071564,
                -3.1238370188695823
            ]
        },
        {
            "positions": [
                -1.721536162816657,
                -1.4812617820854839,
                1.9989147188102252,
                -0.5979014410024882,
                1.3639831844584531,
                -3.0799157746521884
            ]
        },
        {
            "positions": [
                -1.7712957031186847,
                -1.5459374065918656,
                2.0412940365580687,
                -0.667139552713,
                1.2552097798453423,
                -3.035994530434794
            ]
        },
        {
            "positions": [
                -1.8210552434207123,
                -1.6106130310982474,
                2.0836733543059123,
                -0.7363776644235118,
                1.1464363752322315,
                -2.9920732862174
            ]
        },
        {
            "positions": [
                -1.87081478372274,
                -1.6752886556046291,
                2.126052672053756,
                -0.8056157761340236,
                1.0376629706191207,
                -2.948152042000006
            ]
        },
        {
            "positions": [
                -1.9205743240247677,
                -1.739964280111011,
                2.1684319898015993,
                -0.8748538878445353,
                0.92888956600601,
                -2.904230797782612
            ]
        },
        {
            "positions": [
                -1.9703338643267954,
                -1.8046399046173924,
                2.210811307549443,
                -0.9440919995550472,
                0.8201161613928992,
                -2.8603095535652177
            ]
        },
        {
            "positions": [
                -2.020093404628823,
                -1.8693155291237744,
                2.2531906252972864,
                -1.0133301112655588,
                0.7113427567797884,
                -2.8163883093478237
            ]
        },
        {
            "positions": [
                -2.069852944930851,
                -1.933991153630156,
                2.29556994304513,
                -1.0825682229760707,
                0.6025693521666777,
                -2.7724670651304297
            ]
        },
        {
            "positions": [
                -2.1196124852328784,
                -1.998666778136538,
                2.3379492607929735,
                -1.1518063346865826,
                0.4937959475535668,
                -2.7285458209130353
            ]
        },
        {
            "positions": [
                -2.1693720255349063,
                -2.0633424026429195,
                2.380328578540817,
                -1.2210444463970944,
                0.3850225429404561,
                -2.6846245766956414
            ]
        },
        {
            "positions": [
                -2.2191315658369337,
                -2.1280180271493014,
                2.4227078962886606,
                -1.290282558107606,
                0.2762491383273453,
                -2.6407033324782474
            ]
        },
        {
            "positions": [
                -2.2688911061389616,
                -2.192693651655683,
                2.465087214036504,
                -1.3595206698181177,
                0.16747573371423452,
                -2.5967820882608534
            ]
        },
        {
            "positions": [
                -2.3186506464409895,
                -2.2573692761620645,
                2.5074665317843476,
                -1.4287587815286296,
                0.05870232910112372,
                -2.552860844043459
            ]
        },
        {
            "positions": [
                -2.368410186743017,
                -2.3220449006684465,
                2.549845849532191,
                -1.4979968932391414,
                -0.050071075511987126,
                -2.508939599826065
            ]
        },
        {
            "positions": [
                -2.3891137590190348,
                -2.211528947786012,
                2.488666455804135,
                -1.4168517720342697,
                0.04720879623570859,
                -2.5138392840231845
            ]
        },
        {
            "positions": [
                -2.409817331295053,
                -2.101012994903577,
                2.4274870620760787,
                -1.335706650829398,
                0.14448866798340432,
                -2.518738968220304
            ]
        },
        {
            "positions": [
                -2.430520903571071,
                -1.9904970420211427,
                2.3663076683480226,
                -1.2545615296245263,
                0.24176853973110002,
                -2.523638652417423
            ]
        },
        {
            "positions": [
                -2.4512244758470887,
                -1.8799810891387083,
                2.3051282746199666,
                -1.1734164084196546,
                0.3390484114787957,
                -2.528538336614542
            ]
        },
        {
            "positions": [
                -2.471928048123107,
                -1.7694651362562737,
                2.2439488808919106,
                -1.0922712872147828,
                0.4363282832264914,
                -2.5334380208116616
            ]
        },
        {
            "positions": [
                -2.492631620399125,
                -1.658949183373839,
                2.1827694871638545,
                -1.0111261660099111,
                0.5336081549741872,
                -2.5383377050087805
            ]
        },
        {
            "positions": [
                -2.513335192675143,
                -1.5484332304914044,
                2.121590093435798,
                -0.9299810448050394,
                0.6308880267218829,
                -2.5432373892059
            ]
        },
        {
            "positions": [
                -2.534038764951161,
                -1.43791727760897,
                2.060410699707742,
                -0.8488359236001677,
                0.7281678984695786,
                -2.5481370734030193
            ]
        },
        {
            "positions": [
                -2.5134203643635873,
                -1.3463958676680068,
                2.044691222526049,
                -0.8480862316917043,
                0.7134404985145153,
                -2.7451748244752228
            ]
        },
        {
            "positions": [
                -2.4928019637760133,
                -1.2548744577270439,
                2.028971745344356,
                -0.847336539783241,
                0.6987130985594519,
                -2.9422125755474258
            ]
        },
        {
            "positions": [
                -2.4721835631884397,
                -1.1633530477860807,
                2.013252268162663,
                -0.8465868478747776,
                0.6839856986043885,
                -3.139250326619629
            ]
        }
    ]
}