{
    "goal": {
        "global_pose": {
            "orientation": {
                "w": 0.5084816217422485,
                "x": -0.49083608388900757,
                "y": 0.5182115435600281,
                "z": -0.4816462993621826
            },
            "position": {
                "x": 0.5540239810943604,
                "y": 0.030875300988554955,
                "z": 0.16403168439865112
            }
        },
        "name": "move_to_storage_A"
    },
    "id": "BKPIECE_move_to_storage_A_79",
    "joint_names": [
        "shoulder_pan_joint",
        "shoulder_lift_joint",
        "elbow_joint",
        "wrist_1_joint",
        "wrist_2_joint",
        "wrist_3_joint"
    ],
    "metrics": {
        "cart_traj_len": 0.35302963620481265,
        "distance_elbow_joint": 0.448583074024844,
        "distance_shoulder_lift_joint": 0.23573438559370485,
        "distance_shoulder_pan_joint": 0.46064894283454266,
        "distance_wrist_1_joint": 0.23561783250166413,
        "distance_wrist_2_joint": 1.1034462293638474,
        "distance_wrist_3_joint": 0.09876419882974385,
        "smoothness": 6.661338165333112e-16,
        "time": 0.30062522,
        "traj_len": 1.6071075456074329,
        "weighted_distance": 2.029627335910055
    },
    "planner": "BKPIECE",
    "start": {
        "state": {
            "elbow_joint": 1.971548259319323,
            "shoulder_lift_joint": -1.1394851275133948,
            "shoulder_pan_joint": 0.1228115487234821,
            "wrist_1_joint": -0.7804723859257726,
            "wrist_2_joint": 0.12958671773740124,
            "wrist_3_joint": -3.192489227718131
        }
    },
    "waypoints": [
        {
            "positions": [
                0.1228115487234821,
                -1.1394851275133948,
                1.971548259319323,
                -0.7804723859257726,
                0.12958671773740124,
                -3.192489227718131
            ]
        },
        {
            "positions": [
                0.05700455688997601,
                -1.1731614683124956,
                2.035631555608586,
                -0.8141320762831532,
                0.287221893360808,
                -3.178380056456739
            ]
        },
        {
            "positions": [
                -0.008802434943530085,
                -1.206837809111596,
                2.0997148518978497,
                -0.8477917666405338,
                0.44485706898421473,
                -3.1642708851953474
            ]
        },
        {
            "positions": [
                -0.07460942677703616,
                -1.2405141499106969,
                2.163798148187113,
                -0.8814514569979144,
                0.6024922446076215,
                -3.1501617139339553
            ]
        },
        {
            "positions": [
                -0.14041641861054227,
                -1.2741904907097976,
                2.2278814444763766,
                -0.915111147355295,
                0.7601274202310283,
                -3.136052542672563
            ]
        },
        {
            "positions": [
                -0.2062234104440484,
                -1.3078668315088984,
                2.29196474076564,
                -0.9487708377126756,
                0.9177625958544351,
                -3.121943371411171
            ]
        },
        {
            "positions": [
                -0.27203040227755443,
                -1.341543172307999,
                2.3560480370549035,
                -0.9824305280700562,
                1.0753977714778418,
                -3.1078342001497794
            ]
        },
        {
            "positions": [
                -0.33783739411106056,
                -1.3752195131070997,
                2.420131333344167,
                -1.0160902184274367,
                1.2330329471012487,
                -3.0937250288883873
            ]
        }
    ]
}{
    "goal": {
        "global_pose": {
            "orientation": {
                "w": 0.5084816217422485,
                "x": -0.49083608388900757,
                "y": 0.5182115435600281,
                "z": -0.4816462993621826
            },
            "position": {
                "x": 0.5540239810943604,
                "y": 0.030875300988554955,
                "z": 0.16403168439865112
            }
        },
        "name": "move_to_storage_A"
    },
    "id": "BKPIECE_move_to_storage_A_79",
    "joint_names": [
        "shoulder_pan_joint",
        "shoulder_lift_joint",
        "elbow_joint",
        "wrist_1_joint",
        "wrist_2_joint",
        "wrist_3_joint"
    ],
    "metrics": {
        "cart_traj_len": 0.35294754347206475,
        "distance_elbow_joint": 0.4476697624557313,
        "distance_shoulder_lift_joint": 0.2329622014257149,
        "distance_shoulder_pan_joint": 0.462623140986727,
        "distance_wrist_1_joint": 0.23637568169098455,
        "distance_wrist_2_joint": 1.0927792326435557,
        "distance_wrist_3_joint": 0.0939272994603697,
        "smoothness": 1.1102230298998083e-15,
        "time": 0.218993135,
        "traj_len": 1.6019791879619045,
        "weighted_distance": 2.0207292821945155
    },
    "planner": "BKPIECE",
    "start": {
        "state": {
            "elbow_joint": 1.97154746011099,
            "shoulder_lift_joint": -1.13948474672311,
            "shoulder_pan_joint": 0.12281154466712228,
            "wrist_1_joint": -0.7804688027058302,
            "wrist_2_joint": 0.12958655903071145,
            "wrist_3_joint": 3.0906928834467795
        }
    },
    "waypoints": [
        {
            "positions": [
                0.12281154466712228,
                -1.13948474672311,
                1.97154746011099,
                -0.7804688027058302,
                0.12958655903071145,
                3.0906928834467795
            ]
        },
        {
            "positions": [
                0.05672252452616128,
                -1.1727650612124978,
                2.0355002833189517,
                -0.8142367572331137,
                0.28569787797979085,
                3.104111069083975
            ]
        },
        {
            "positions": [
                -0.009366495614799727,
                -1.2060453757018856,
                2.099453106526913,
                -0.8480047117603972,
                0.4418091969288702,
                3.117529254721171
            ]
        },
        {
            "positions": [
                -0.07545551575576072,
                -1.2393256901912735,
                2.163405929734875,
                -0.8817726662876807,
                0.5979205158779496,
                3.1309474403583666
            ]
        },
        {
            "positions": [
                -0.14154453589672172,
                -1.2726060046806613,
                2.2273587529428363,
                -0.9155406208149642,
                0.754031834827029,
                3.144365625995562
            ]
        },
        {
            "positions": [
                -0.20763355603768274,
                -1.3058863191700492,
                2.291311576150798,
                -0.9493085753422477,
                0.9101431537761084,
                3.1577838116327577
            ]
        },
        {
            "positions": [
                -0.2737225761786437,
                -1.339166633659437,
                2.3552643993587594,
                -0.9830765298695312,
                1.0662544727251877,
                3.1712019972699537
            ]
        },
        {
            "positions": [
                -0.3398115963196047,
                -1.3724469481488248,
                2.4192172225667212,
                -1.0168444843968147,
                1.2223657916742672,
                3.184620182907149
            ]
        }
    ]
}{
    "goal": {
        "global_pose": {
            "orientation": {
                "w": 0.5084816217422485,
                "x": -0.49083608388900757,
                "y": 0.5182115435600281,
                "z": -0.4816462993621826
            },
            "position": {
                "x": 0.5540239810943604,
                "y": 0.030875300988554955,
                "z": 0.16403168439865112
            }
        },
        "name": "move_to_storage_A"
    },
    "id": "BKPIECE_move_to_storage_A_79",
    "joint_names": [
        "shoulder_pan_joint",
        "shoulder_lift_joint",
        "elbow_joint",
        "wrist_1_joint",
        "wrist_2_joint",
        "wrist_3_joint"
    ],
    "metrics": {
        "cart_traj_len": 0.3526672159275167,
        "distance_elbow_joint": 0.4493271360856581,
        "distance_shoulder_lift_joint": 0.2326771747726546,
        "distance_shoulder_pan_joint": 0.4583921151076367,
        "distance_wrist_1_joint": 0.2428103846337033,
        "distance_wrist_2_joint": 1.1090878730477463,
        "distance_wrist_3_joint": 0.09204783037407527,
        "smoothness": 8.881784213138256e-16,
        "time": 0.350801483,
        "traj_len": 1.6075890376652469,
        "weighted_distance": 2.029861185512712
    },
    "planner": "BKPIECE",
    "start": {
        "state": {
            "elbow_joint": 1.9715472970024885,
            "shoulder_lift_joint": -1.1394870060712896,
            "shoulder_pan_joint": 0.12281152778156021,
            "wrist_1_joint": -0.780463741449964,
            "wrist_2_joint": 0.12958659822042276,
            "wrist_3_joint": 3.090690232415272
        }
    },
    "waypoints": [
        {
            "positions": [
                0.12281152778156021,
                -1.1394870060712896,
                1.9715472970024885,
                -0.780463741449964,
                0.12958659822042276,
                3.090690232415272
            ]
        },
        {
            "positions": [
                0.05732693990904068,
                -1.172726602467383,
                2.0357368878718685,
                -0.8151509392547788,
                0.28802772294152934,
                3.103839922468711
            ]
        },
        {
            "positions": [
                -0.008157647963478842,
                -1.2059661988634767,
                2.099926478741248,
                -0.8498381370595935,
                0.44646884766263595,
                3.1169896125221506
            ]
        },
        {
            "positions": [
                -0.07364223583599835,
                -1.23920579525957,
                2.164116069610628,
                -0.8845253348644082,
                0.6049099723837426,
                3.1301393025755897
            ]
        },
        {
            "positions": [
                -0.1391268237085179,
                -1.2724453916556637,
                2.2283056604800073,
                -0.919212532669223,
                0.7633510971048492,
                3.1432889926290293
            ]
        },
        {
            "positions": [
                -0.20461141158103743,
                -1.3056849880517571,
                2.2924952513493873,
                -0.9538997304740378,
                0.9217922218259558,
                3.1564386826824684
            ]
        },
        {
            "positions": [
                -0.2700959994535569,
                -1.3389245844478506,
                2.3566848422187667,
                -0.9885869282788525,
                1.0802333465470624,
                3.169588372735908
            ]
        },
        {
            "positions": [
                -0.3355805873260765,
                -1.3721641808439442,
                2.4208744330881466,
                -1.0232741260836673,
                1.238674471268169,
                3.182738062789347
            ]
        }
    ]
}