{
    "goal": {
        "global_pose": {
            "orientation": {
                "w": 0.005598929693374612,
                "x": 0.007748599140229565,
                "y": 0.7110244013736278,
                "z": -0.7031023480610252
            },
            "position": {
                "x": 0.1141497679147869,
                "y": -0.7141253447532654,
                "z": 0.3711530566215515
            }
        },
        "name": "move_to_auspresseinheit_B"
    },
    "id": "BKPIECE_move_to_auspresseinheit_B_20",
    "joint_names": [
        "shoulder_pan_joint",
        "shoulder_lift_joint",
        "elbow_joint",
        "wrist_1_joint",
        "wrist_2_joint",
        "wrist_3_joint"
    ],
    "metrics": {
        "cart_traj_len": 0.5651712414283436,
        "distance_elbow_joint": 0.06555654173310144,
        "distance_shoulder_lift_joint": 0.29430887172411135,
        "distance_shoulder_pan_joint": 0.5794891635460244,
        "distance_wrist_1_joint": 0.339439537245393,
        "distance_wrist_2_joint": 0.9841851546506792,
        "distance_wrist_3_joint": 0.008822895065634828,
        "smoothness": 3.806478935924272e-16,
        "time": 0.350836551,
        "traj_len": 1.5072498677939714,
        "weighted_distance": 1.9008084190660264
    },
    "planner": "BKPIECE",
    "start": {
        "state": {
            "elbow_joint": 2.0193083361928714,
            "shoulder_lift_joint": -1.1220246554650708,
            "shoulder_pan_joint": -1.0952077554168747,
            "wrist_1_joint": -0.8559753972642168,
            "wrist_2_joint": 0.4759566250798843,
            "wrist_3_joint": -3.1240929996934557
        }
    },
    "waypoints": [
        {
            "positions": [
                -1.0952077554168747,
                -1.1220246554650708,
                2.0193083361928714,
                -0.8559753972642168,
                0.4759566250798843,
                -3.1240929996934557
            ]
        },
        {
            "positions": [
                -1.1917892826745453,
                -1.171076134085756,
                2.0083822459040213,
                -0.7994021410566513,
                0.6399874841883308,
                -3.1226225171825166
            ]
        },
        {
            "positions": [
                -1.2883708099322162,
                -1.2201276127064413,
                1.9974561556151709,
                -0.7428288848490858,
                0.8040183432967773,
                -3.1211520346715775
            ]
        },
        {
            "positions": [
                -1.3849523371898869,
                -1.2691790913271266,
                1.9865300653263207,
                -0.6862556286415202,
                0.9680492024052239,
                -3.119681552160638
            ]
        },
        {
            "positions": [
                -1.4815338644475575,
                -1.3182305699478116,
                1.9756039750374705,
                -0.6296823724339549,
                1.1320800615136704,
                -3.118211069649699
            ]
        },
        {
            "positions": [
                -1.5781153917052284,
                -1.3672820485684969,
                1.9646778847486202,
                -0.5731091162263893,
                1.296110920622117,
                -3.11674058713876
            ]
        },
        {
            "positions": [
                -1.674696918962899,
                -1.4163335271891822,
                1.95375179445977,
                -0.5165358600188238,
                1.4601417797305636,
                -3.115270104627821
            ]
        }
    ]
}