{
    "goal": {
        "global_pose": {
            "orientation": {
                "w": 0.005598929693374612,
                "x": 0.007748599140229565,
                "y": 0.7110244013736278,
                "z": -0.7031023480610252
            },
            "position": {
                "x": -0.8858502320852131,
                "y": -0.7141253447532654,
                "z": 0.3711530566215515
            }
        },
        "name": "move_to_auspresseinheit_C"
    },
    "id": "BKPIECE_move_to_auspresseinheit_C_99",
    "joint_names": [
        "shoulder_pan_joint",
        "shoulder_lift_joint",
        "elbow_joint",
        "wrist_1_joint",
        "wrist_2_joint",
        "wrist_3_joint"
    ],
    "metrics": {
        "cart_traj_len": 0.4930544310682761,
        "distance_elbow_joint": 0.9938549115386234,
        "distance_shoulder_lift_joint": 0.32221685327381033,
        "distance_shoulder_pan_joint": 0.25694988699967247,
        "distance_wrist_1_joint": 0.6662090687866249,
        "distance_wrist_2_joint": 1.3109061427491742,
        "distance_wrist_3_joint": 0.04822255525564989,
        "smoothness": 4.844609574787718e-16,
        "time": 0.276425495,
        "traj_len": 1.8969342156763251,
        "weighted_distance": 2.3815792534893006
    },
    "planner": "BKPIECE",
    "start": {
        "state": {
            "elbow_joint": 1.7527959577737207,
            "shoulder_lift_joint": -0.9740617694225068,
            "shoulder_pan_joint": -2.967991417825858,
            "wrist_1_joint": -0.759517768980727,
            "wrist_2_joint": 1.7443932448377408,
            "wrist_3_joint": -3.0840537646736568
        }
    },
    "waypoints": [
        {
            "positions": [
                -2.967991417825858,
                -0.9740617694225068,
                1.7527959577737207,
                -0.759517768980727,
                1.7443932448377408,
                -3.0840537646736568
            ]
        },
        {
            "positions": [
                -2.9422964291258906,
                -0.9418400840951258,
                1.6534104666198584,
                -0.6928968621020645,
                1.6133026305628233,
                -3.088876020199222
            ]
        },
        {
            "positions": [
                -2.9166014404259233,
                -0.9096183987677448,
                1.554024975465996,
                -0.626275955223402,
                1.482212016287906,
                -3.093698275724787
            ]
        },
        {
            "positions": [
                -2.8909064517259564,
                -0.8773967134403636,
                1.4546394843121337,
                -0.5596550483447396,
                1.3511214020129887,
                -3.098520531250352
            ]
        },
        {
            "positions": [
                -2.865211463025989,
                -0.8451750281129826,
                1.3552539931582712,
                -0.493034141466077,
                1.2200307877380712,
                -3.103342786775917
            ]
        },
        {
            "positions": [
                -2.8395164743260217,
                -0.8129533427856016,
                1.255868502004409,
                -0.42641323458741454,
                1.0889401734631536,
                -3.108165042301482
            ]
        },
        {
            "positions": [
                -2.8138214856260544,
                -0.7807316574582206,
                1.1564830108505466,
                -0.3597923277087521,
                0.9578495591882363,
                -3.1129872978270465
            ]
        },
        {
            "positions": [
                -2.788126496926087,
                -0.7485099721308396,
                1.0570975196966843,
                -0.29317142083008957,
                0.826758944913319,
                -3.1178095533526116
            ]
        },
        {
            "positions": [
                -2.76243150822612,
                -0.7162882868034586,
                0.9577120285428219,
                -0.226550513951427,
                0.6956683306384015,
                -3.1226318088781766
            ]
        },
        {
            "positions": [
                -2.736736519526153,
                -0.6840666014760775,
                0.8583265373889596,
                -0.1599296070727646,
                0.564577716363484,
                -3.1274540644037416
            ]
        },
        {
            "positions": [
                -2.7110415308261855,
                -0.6518449161486964,
                0.7589410462350973,
                -0.09330870019410215,
                0.4334871020885667,
                -3.1322763199293067
            ]
        }
    ]
}