{
    "goal": {
        "global_pose": {
            "orientation": {
                "w": -0.00223480608172531,
                "x": 0.0024358444001904467,
                "y": 0.7094548369677653,
                "z": -0.704743149386269
            },
            "position": {
                "x": 0.6205249238014221,
                "y": -0.6371506643295288,
                "z": 0.19426114857196808
            }
        },
        "name": "move_to_magneteinheit_B"
    },
    "id": "BKPIECE_move_to_magneteinheit_B_37",
    "joint_names": [
        "shoulder_pan_joint",
        "shoulder_lift_joint",
        "elbow_joint",
        "wrist_1_joint",
        "wrist_2_joint",
        "wrist_3_joint"
    ],
    "metrics": {
        "cart_traj_len": 3.6216293159367647,
        "distance_elbow_joint": 4.711385450277913,
        "distance_shoulder_lift_joint": 0.7703322196373028,
        "distance_shoulder_pan_joint": 2.0942565197789587,
        "distance_wrist_1_joint": 4.817461923601607,
        "distance_wrist_2_joint": 0.8117516070428178,
        "distance_wrist_3_joint": 3.198168849164941,
        "smoothness": 0.20034080891934788,
        "time": 0.7570590119999999,
        "traj_len": 4.0501057479408535,
        "weighted_distance": 5.331876573822564
    },
    "planner": "BKPIECE",
    "start": {
        "state": {
            "elbow_joint": 2.6216224122426386,
            "shoulder_lift_joint": -1.4174107377796124,
            "shoulder_pan_joint": 0.7066234856936794,
            "wrist_1_joint": 1.9546482284002225,
            "wrist_2_joint": -0.7096286983471962,
            "wrist_3_joint": 0.005740856962016249
        }
    },
    "waypoints": [
        {
            "positions": [
                0.7066234856936794,
                -1.4174107377796124,
                2.6216224122426386,
                1.9546482284002225,
                -0.7096286983471962,
                0.005740856962016249
            ]
        },
        {
            "positions": [
                0.671494399987856,
                -1.473621398276253,
                2.588433524825339,
                1.8076007390001387,
                -0.7151183411568596,
                0.06628436846979163
            ]
        },
        {
            "positions": [
                0.6363653142820326,
                -1.5298320587728935,
                2.5552446374080393,
                1.6605532496000548,
                -0.720607983966523,
                0.126827879977567
            ]
        },
        {
            "positions": [
                0.6389374443947949,
                -1.5420196156585497,
                2.433306442504906,
                1.5378680743086615,
                -0.7083709540565248,
                0.10249881470830546
            ]
        },
        {
            "positions": [
                0.6901302565286058,
                -1.5462458642046117,
                2.2864731361969772,
                1.3823919538861387,
                -0.691911863598518,
                0.1232970341562315
            ]
        },
        {
            "positions": [
                0.7413230686624166,
                -1.5504721127506738,
                2.139639829889049,
                1.2269158334636157,
                -0.6754527731405112,
                0.14409525360415754
            ]
        },
        {
            "positions": [
                0.7925158807962275,
                -1.5546983612967358,
                1.99280652358112,
                1.0714397130410929,
                -0.6589936826825044,
                0.1648934730520836
            ]
        },
        {
            "positions": [
                0.8437086929300384,
                -1.5589246098427978,
                1.8459732172731915,
                0.91596359261857,
                -0.6425345922244975,
                0.18569169250000964
            ]
        },
        {
            "positions": [
                0.8949015050638491,
                -1.5631508583888598,
                1.699139910965263,
                0.7604874721960471,
                -0.6260755017664907,
                0.2064899119479357
            ]
        },
        {
            "positions": [
                0.9460943171976601,
                -1.5673771069349218,
                1.5523066046573342,
                0.6050113517735242,
                -0.6096164113084839,
                0.22728813139586174
            ]
        },
        {
            "positions": [
                0.9972871293314709,
                -1.5716033554809836,
                1.4054732983494056,
                0.44953523135100126,
                -0.593157320850477,
                0.24808635084378777
            ]
        },
        {
            "positions": [
                1.0484799414652817,
                -1.5758296040270456,
                1.258639992041477,
                0.2940591109284785,
                -0.5766982303924703,
                0.2688845702917138
            ]
        },
        {
            "positions": [
                1.0996727535990927,
                -1.5800558525731077,
                1.1118066857335482,
                0.13858299050595546,
                -0.5602391399344634,
                0.28968278973963985
            ]
        },
        {
            "positions": [
                1.1508655657329034,
                -1.5842821011191697,
                0.9649733794256197,
                -0.01689312991656733,
                -0.5437800494764566,
                0.31048100918756594
            ]
        },
        {
            "positions": [
                1.2020583778667144,
                -1.5885083496652317,
                0.8181400731176911,
                -0.17236925033909012,
                -0.5273209590184498,
                0.331279228635492
            ]
        },
        {
            "positions": [
                1.2532511900005252,
                -1.5927345982112937,
                0.6713067668097623,
                -0.32784537076161313,
                -0.5108618685604429,
                0.352077448083418
            ]
        },
        {
            "positions": [
                1.304444002134336,
                -1.5969608467573557,
                0.5244734605018337,
                -0.48332149118413614,
                -0.4944027781024361,
                0.37287566753134405
            ]
        },
        {
            "positions": [
                1.3556368142681468,
                -1.6011870953034177,
                0.3776401541939052,
                -0.6387976116066589,
                -0.4779436876444293,
                0.3936738869792701
            ]
        },
        {
            "positions": [
                1.4068296264019577,
                -1.6054133438494798,
                0.23080684788597639,
                -0.7942737320291822,
                -0.46148459718642243,
                0.4144721064271961
            ]
        },
        {
            "positions": [
                1.4580224385357685,
                -1.6096395923955418,
                0.08397354157804804,
                -0.9497498524517045,
                -0.4450255067284156,
                0.43527032587512215
            ]
        },
        {
            "positions": [
                1.5092152506695795,
                -1.6138658409416038,
                -0.0628597647298812,
                -1.1052259728742277,
                -0.42856641627040876,
                0.45606854532304825
            ]
        },
        {
            "positions": [
                1.5604080628033903,
                -1.6180920894876658,
                -0.20969307103780954,
                -1.2607020932967505,
                -0.41210732581240195,
                0.4768667647709742
            ]
        },
        {
            "positions": [
                1.611600874937201,
                -1.6223183380337278,
                -0.35652637734573833,
                -1.4161782137192733,
                -0.39564823535439514,
                0.4976649842189003
            ]
        },
        {
            "positions": [
                1.6627936870710118,
                -1.6265445865797896,
                -0.5033596836536667,
                -1.5716543341417961,
                -0.37918914489638833,
                0.5184632036668264
            ]
        },
        {
            "positions": [
                1.713986499204823,
                -1.6307708351258516,
                -0.6501929899615955,
                -1.7271304545643194,
                -0.36273005443838147,
                0.5392614231147523
            ]
        },
        {
            "positions": [
                1.7651793113386338,
                -1.6349970836719137,
                -0.7970262962695238,
                -1.8826065749868417,
                -0.34627096398037466,
                0.5600596425626785
            ]
        },
        {
            "positions": [
                1.8163721234724446,
                -1.6392233322179757,
                -0.9438596025774526,
                -2.038082695409365,
                -0.3298118735223678,
                0.5808578620106044
            ]
        },
        {
            "positions": [
                1.8675649356062554,
                -1.6434495807640377,
                -1.0906929088853814,
                -2.1935588158318877,
                -0.313352783064361,
                0.6016560814585306
            ]
        },
        {
            "positions": [
                1.9187577477400661,
                -1.6476758293100997,
                -1.2375262151933102,
                -2.349034936254411,
                -0.2968936926063542,
                0.6224543009064566
            ]
        },
        {
            "positions": [
                1.969950559873877,
                -1.6519020778561617,
                -1.3843595215012385,
                -2.5045110566769337,
                -0.28043460214834737,
                0.6432525203543826
            ]
        },
        {
            "positions": [
                2.021143372007688,
                -1.6561283264022237,
                -1.5311928278091673,
                -2.659987177099456,
                -0.2639755116903405,
                0.6640507398023087
            ]
        },
        {
            "positions": [
                2.0853199098006066,
                -1.677493569940455,
                -1.5959555664381841,
                -2.6621513690696963,
                -0.24657237969807383,
                0.8234721251689269
            ]
        },
        {
            "positions": [
                2.1494964475935245,
                -1.698858813478686,
                -1.660718305067201,
                -2.6643155610399365,
                -0.22916924770580716,
                0.9828935105355452
            ]
        },
        {
            "positions": [
                2.213672985386443,
                -1.7202240570169172,
                -1.7254810436962178,
                -2.6664797530101767,
                -0.21176611571354045,
                1.1423148959021634
            ]
        },
        {
            "positions": [
                2.2787555554587375,
                -1.7536327442486488,
                -1.7730193545717692,
                -2.656716364463009,
                -0.2059593183042363,
                1.3395271831865447
            ]
        },
        {
            "positions": [
                2.3438381255310317,
                -1.7870414314803806,
                -1.8205576654473203,
                -2.6469529759158408,
                -0.20015252089493213,
                1.5367394704709259
            ]
        },
        {
            "positions": [
                2.4089206956033262,
                -1.8204501187121123,
                -1.8680959763228717,
                -2.637189587368673,
                -0.19434572348562798,
                1.7339517577553072
            ]
        },
        {
            "positions": [
                2.444841119467043,
                -1.8729205242413698,
                -1.8364292532210995,
                -2.613326190718715,
                -0.23356144647742738,
                1.9369945888743252
            ]
        },
        {
            "positions": [
                2.48076154333076,
                -1.9253909297706273,
                -1.8047625301193273,
                -2.589462794068757,
                -0.27277716946922675,
                2.1400374199933436
            ]
        },
        {
            "positions": [
                2.516681967194477,
                -1.9778613352998848,
                -1.773095807017555,
                -2.565599397418799,
                -0.3119928924610262,
                2.3430802511123616
            ]
        },
        {
            "positions": [
                2.5526023910581936,
                -2.0303317408291424,
                -1.741429083915783,
                -2.541736000768841,
                -0.35120861545282556,
                2.5461230822313796
            ]
        },
        {
            "positions": [
                2.5885228149219106,
                -2.0828021463584,
                -1.709762360814011,
                -2.517872604118883,
                -0.390424338444625,
                2.7491659133503976
            ]
        },
        {
            "positions": [
                2.6244432387856276,
                -2.1352725518876574,
                -1.6780956377122387,
                -2.4940092074689253,
                -0.42964006143642436,
                2.9522087444694156
            ]
        },
        {
            "positions": [
                2.6603636626493445,
                -2.187742957416915,
                -1.6464289146104665,
                -2.470145810818967,
                -0.4688557844282238,
                3.155251575588434
            ]
        }
    ]
}