{
    "goal": {
        "global_pose": {
            "orientation": {
                "w": 0.5084816262002911,
                "x": -0.4908360881923452,
                "y": 0.5182115481033761,
                "z": -0.48164630358495003
            },
            "position": {
                "x": 0.5540239810943604,
                "y": -0.46912469901144505,
                "z": 0.16403168439865112
            }
        },
        "name": "move_to_storage_B"
    },
    "id": "BKPIECE_move_to_storage_B_142",
    "joint_names": [
        "shoulder_pan_joint",
        "shoulder_lift_joint",
        "elbow_joint",
        "wrist_1_joint",
        "wrist_2_joint",
        "wrist_3_joint"
    ],
    "metrics": {
        "cart_traj_len": 2.105301718206301,
        "distance_elbow_joint": 1.7639020644982428,
        "distance_shoulder_lift_joint": 0.6905529624867586,
        "distance_shoulder_pan_joint": 1.7952803117777563,
        "distance_wrist_1_joint": 2.9873173945627305,
        "distance_wrist_2_joint": 2.701071587106676,
        "distance_wrist_3_joint": 3.211093523155265,
        "smoothness": 0.39092251750129997,
        "time": 0.393679193,
        "traj_len": 3.62618502611042,
        "weighted_distance": 5.025912242724435
    },
    "planner": "BKPIECE",
    "start": {
        "state": {
            "elbow_joint": 1.664937868594044,
            "shoulder_lift_joint": -0.661644460510453,
            "shoulder_pan_joint": -0.9139846352900073,
            "wrist_1_joint": 2.146753192139373,
            "wrist_2_joint": -2.2341966793290973,
            "wrist_3_joint": 0.005466555786416001
        }
    },
    "waypoints": [
        {
            "positions": [
                -0.9139846352900073,
                -0.661644460510453,
                1.664937868594044,
                2.146753192139373,
                -2.2341966793290973,
                0.005466555786416001
            ]
        },
        {
            "positions": [
                -0.8773291360617079,
                -0.6861322464377363,
                1.655073667205295,
                2.1523000236084853,
                -2.2263292962917776,
                0.03383548644797931
            ]
        },
        {
            "positions": [
                -0.8367881081518479,
                -0.7150562882389406,
                1.6182788574609208,
                2.0432570386361846,
                -2.133753881309143,
                -0.0342387623014842
            ]
        },
        {
            "positions": [
                -0.7962470802419879,
                -0.743980330040145,
                1.5814840477165466,
                1.9342140536638837,
                -2.0411784663265085,
                -0.1023130110509477
            ]
        },
        {
            "positions": [
                -0.7557060523321278,
                -0.7729043718413493,
                1.5446892379721724,
                1.8251710686915827,
                -1.948603051343874,
                -0.1703872598004112
            ]
        },
        {
            "positions": [
                -0.7151650244222678,
                -0.8018284136425536,
                1.5078944282277982,
                1.7161280837192818,
                -1.8560276363612394,
                -0.23846150854987472
            ]
        },
        {
            "positions": [
                -0.6746239965124078,
                -0.830752455443758,
                1.471099618483424,
                1.607085098746981,
                -1.7634522213786048,
                -0.30653575729933824
            ]
        },
        {
            "positions": [
                -0.6340829686025478,
                -0.8596764972449623,
                1.4343048087390498,
                1.4980421137746802,
                -1.6708768063959702,
                -0.37461000604880174
            ]
        },
        {
            "positions": [
                -0.5935419406926878,
                -0.8886005390461666,
                1.3975099989946755,
                1.3889991288023793,
                -1.5783013914133357,
                -0.44268425479826523
            ]
        },
        {
            "positions": [
                -0.5530009127828277,
                -0.917524580847371,
                1.3607151892503013,
                1.2799561438300784,
                -1.4857259764307011,
                -0.5107585035477288
            ]
        },
        {
            "positions": [
                -0.5124598848729678,
                -0.9464486226485753,
                1.3239203795059271,
                1.1709131588577777,
                -1.3931505614480666,
                -0.5788327522971922
            ]
        },
        {
            "positions": [
                -0.4719188569631077,
                -0.9753726644497797,
                1.287125569761553,
                1.0618701738854768,
                -1.3005751464654318,
                -0.6469070010466558
            ]
        },
        {
            "positions": [
                -0.4313778290532477,
                -1.004296706250984,
                1.2503307600171787,
                0.9528271889131759,
                -1.2079997314827973,
                -0.7149812497961193
            ]
        },
        {
            "positions": [
                -0.3908368011433877,
                -1.0332207480521882,
                1.2135359502728047,
                0.8437842039408749,
                -1.1154243165001627,
                -0.7830554985455828
            ]
        },
        {
            "positions": [
                -0.3502957732335277,
                -1.0621447898533927,
                1.1767411405284303,
                0.734741218968574,
                -1.022848901517528,
                -0.8511297472950463
            ]
        },
        {
            "positions": [
                -0.30975474532366765,
                -1.0910688316545971,
                1.1399463307840563,
                0.6256982339962733,
                -0.9302734865348936,
                -0.9192039960445098
            ]
        },
        {
            "positions": [
                -0.2692137174138076,
                -1.1199928734558013,
                1.103151521039682,
                0.5166552490239724,
                -0.8376980715522588,
                -0.9872782447939734
            ]
        },
        {
            "positions": [
                -0.2286726895039476,
                -1.1489169152570056,
                1.0663567112953078,
                0.4076122640516717,
                -0.7451226565696245,
                -1.0553524935434369
            ]
        },
        {
            "positions": [
                -0.18813166159408756,
                -1.17784095705821,
                1.0295619015509336,
                0.2985692790793706,
                -0.6525472415869897,
                -1.1234267422929003
            ]
        },
        {
            "positions": [
                -0.14759063368422753,
                -1.2067649988594145,
                0.9927670918065593,
                0.1895262941070699,
                -0.5599718266043554,
                -1.1915009910423637
            ]
        },
        {
            "positions": [
                -0.10704960577436749,
                -1.2356890406606187,
                0.9559722820621851,
                0.08048330913476917,
                -0.4673964116217205,
                -1.2595752397918274
            ]
        },
        {
            "positions": [
                -0.1729392912585086,
                -1.2279218151715126,
                1.0263013805932775,
                0.019819719226775702,
                -0.40511165699510043,
                -1.385529497542087
            ]
        },
        {
            "positions": [
                -0.2388289767426497,
                -1.2201545896824062,
                1.0966304791243697,
                -0.04084387068121777,
                -0.3428269023684804,
                -1.5114837552923468
            ]
        },
        {
            "positions": [
                -0.30471866222679084,
                -1.2123873641933,
                1.166959577655462,
                -0.10150746058921126,
                -0.28054214774186037,
                -1.6374380130426065
            ]
        },
        {
            "positions": [
                -0.37060834771093193,
                -1.204620138704194,
                1.2372886761865542,
                -0.1621710504972047,
                -0.21825739311524028,
                -1.763392270792866
            ]
        },
        {
            "positions": [
                -0.436498033195073,
                -1.1968529132150878,
                1.3076177747176465,
                -0.22283464040519815,
                -0.15597263848862025,
                -1.8893465285431257
            ]
        },
        {
            "positions": [
                -0.5023877186792142,
                -1.1890856877259814,
                1.3779468732487388,
                -0.28349823031319166,
                -0.09368788386200017,
                -2.0153007862933854
            ]
        },
        {
            "positions": [
                -0.5682774041633553,
                -1.1813184622368753,
                1.448275971779831,
                -0.34416182022118513,
                -0.031403129235380134,
                -2.1412550440436453
            ]
        },
        {
            "positions": [
                -0.6341670896474964,
                -1.1735512367477692,
                1.5186050703109233,
                -0.4048254101291786,
                0.030881625391239953,
                -2.267209301793905
            ]
        },
        {
            "positions": [
                -0.7000567751316374,
                -1.165784011258663,
                1.5889341688420155,
                -0.465489000037172,
                0.09316638001785993,
                -2.3931635595441643
            ]
        },
        {
            "positions": [
                -0.7659464606157785,
                -1.1580167857695567,
                1.6592632673731078,
                -0.5261525899451654,
                0.15545113464448002,
                -2.5191178172944237
            ]
        },
        {
            "positions": [
                -0.8318361460999196,
                -1.1502495602804506,
                1.7295923659042,
                -0.5868161798531589,
                0.2177358892711001,
                -2.6450720750446837
            ]
        },
        {
            "positions": [
                -0.8977258315840608,
                -1.1424823347913444,
                1.7999214644352923,
                -0.6474797697611525,
                0.2800206438977202,
                -2.7710263327949436
            ]
        },
        {
            "positions": [
                -0.9636155170682019,
                -1.1347151093022383,
                1.8702505629663846,
                -0.7081433596691459,
                0.3423053985243403,
                -2.896980590545203
            ]
        },
        {
            "positions": [
                -1.029505202552343,
                -1.126947883813132,
                1.9405796614974768,
                -0.7688069495771394,
                0.40459015315096025,
                -3.0229348482954626
            ]
        },
        {
            "positions": [
                -1.095394888036484,
                -1.1191806583240258,
                2.010908760028569,
                -0.8294705394851328,
                0.4668749077775803,
                -3.1488891060457225
            ]
        }
    ]
}