{
    "goal": {
        "global_pose": {
            "orientation": {
                "w": 0.005598929693374612,
                "x": 0.007748599140229565,
                "y": 0.7110244013736278,
                "z": -0.7031023480610252
            },
            "position": {
                "x": 0.1141497679147869,
                "y": -0.7141253447532654,
                "z": 0.3711530566215515
            }
        },
        "name": "move_to_auspresseinheit_B"
    },
    "id": "BKPIECE_move_to_auspresseinheit_B_19",
    "joint_names": [
        "shoulder_pan_joint",
        "shoulder_lift_joint",
        "elbow_joint",
        "wrist_1_joint",
        "wrist_2_joint",
        "wrist_3_joint"
    ],
    "metrics": {
        "cart_traj_len": 0.5640736845660046,
        "distance_elbow_joint": 0.059604668393175464,
        "distance_shoulder_lift_joint": 0.2960742479202374,
        "distance_shoulder_pan_joint": 0.5775587392018058,
        "distance_wrist_1_joint": 0.31918341850879695,
        "distance_wrist_2_joint": 0.9885523566217338,
        "distance_wrist_3_joint": 0.007707495180985013,
        "smoothness": 2.5376526478085547e-16,
        "time": 0.244668935,
        "traj_len": 1.499560244147175,
        "weighted_distance": 1.8899290175345833
    },
    "planner": "BKPIECE",
    "start": {
        "state": {
            "elbow_joint": 2.0193083361928714,
            "shoulder_lift_joint": -1.1220246554650708,
            "shoulder_pan_joint": -1.0952077554168747,
            "wrist_1_joint": -0.8559753972642168,
            "wrist_2_joint": 0.4759566250798843,
            "wrist_3_joint": -3.1240929996934557
        }
    },
    "waypoints": [
        {
            "positions": [
                -1.0952077554168747,
                -1.1220246554650708,
                2.0193083361928714,
                -0.8559753972642168,
                0.4759566250798843,
                -3.1240929996934557
            ]
        },
        {
            "positions": [
                -1.1914675452838424,
                -1.1713703634517771,
                2.009374224794009,
                -0.802778160846084,
                0.6407153511835066,
                -3.1228084171632915
            ]
        },
        {
            "positions": [
                -1.2877273351508098,
                -1.2207160714384833,
                1.9994401133951463,
                -0.7495809244279511,
                0.8054740772871289,
                -3.1215238346331273
            ]
        },
        {
            "positions": [
                -1.3839871250177775,
                -1.2700617794251894,
                1.9895060019962836,
                -0.6963836880098183,
                0.9702328033907512,
                -3.120239252102963
            ]
        },
        {
            "positions": [
                -1.480246914884745,
                -1.3194074874118957,
                1.9795718905974211,
                -0.6431864515916855,
                1.1349915294943735,
                -3.118954669572799
            ]
        },
        {
            "positions": [
                -1.5765067047517127,
                -1.368753195398602,
                1.9696377791985586,
                -0.5899892151735526,
                1.2997502555979958,
                -3.117670087042635
            ]
        },
        {
            "positions": [
                -1.6727664946186804,
                -1.4180989033853082,
                1.959703667799696,
                -0.5367919787554198,
                1.4645089817016181,
                -3.1163855045124706
            ]
        }
    ]
}