{
    "goal": {
        "global_pose": {
            "orientation": {
                "w": -0.4816463035849501,
                "x": 0.5182115481033762,
                "y": 0.4908360881923453,
                "z": -0.5084816262002911
            },
            "position": {
                "x": -0.8240239810943604,
                "y": -0.300875300988555,
                "z": 0.16403168439865112
            }
        },
        "name": "move_to_storage_C"
    },
    "id": "BKPIECE_move_to_storage_C_132",
    "joint_names": [
        "shoulder_pan_joint",
        "shoulder_lift_joint",
        "elbow_joint",
        "wrist_1_joint",
        "wrist_2_joint",
        "wrist_3_joint"
    ],
    "metrics": {
        "cart_traj_len": 0.5767406645613705,
        "distance_elbow_joint": 0.25408340576525856,
        "distance_shoulder_lift_joint": 0.18988754026755028,
        "distance_shoulder_pan_joint": 0.49534156390864226,
        "distance_wrist_1_joint": 0.06261128795276072,
        "distance_wrist_2_joint": 1.0642678435195996,
        "distance_wrist_3_joint": 0.06687495282226852,
        "smoothness": 2.5376526478085547e-16,
        "time": 0.13242383,
        "traj_len": 1.460502171938159,
        "weighted_distance": 1.8421985862965418
    },
    "planner": "BKPIECE",
    "start": {
        "state": {
            "elbow_joint": 2.010868314990456,
            "shoulder_lift_joint": -1.1634956873337592,
            "shoulder_pan_joint": -2.4736205022346125,
            "wrist_1_joint": -0.8367026794202681,
            "wrist_2_joint": 0.6746043897044499,
            "wrist_3_joint": -3.1496632123970403
        }
    },
    "waypoints": [
        {
            "positions": [
                -2.4736205022346125,
                -1.1634956873337592,
                2.010868314990456,
                -0.8367026794202681,
                0.6746043897044499,
                -3.1496632123970403
            ]
        },
        {
            "positions": [
                -2.5561774295527195,
                -1.1318477639558342,
                1.968521080696246,
                -0.8262674647614746,
                0.8519823636243832,
                -3.138517386926662
            ]
        },
        {
            "positions": [
                -2.6387343568708266,
                -1.100199840577909,
                1.9261738464020364,
                -0.8158322501026812,
                1.0293603375443166,
                -3.1273715614562843
            ]
        },
        {
            "positions": [
                -2.7212912841889336,
                -1.068551917199984,
                1.8838266121078266,
                -0.8053970354438877,
                1.2067383114642496,
                -3.116225735985906
            ]
        },
        {
            "positions": [
                -2.8038482115070407,
                -1.036903993822059,
                1.8414793778136167,
                -0.7949618207850943,
                1.384116285384183,
                -3.105079910515528
            ]
        },
        {
            "positions": [
                -2.8864051388251477,
                -1.005256070444134,
                1.799132143519407,
                -0.7845266061263009,
                1.5614942593041161,
                -3.09393408504515
            ]
        },
        {
            "positions": [
                -2.9689620661432548,
                -0.9736081470662089,
                1.7567849092251973,
                -0.7740913914675074,
                1.7388722332240494,
                -3.0827882595747718
            ]
        }
    ]
}