{
    "goal": {
        "global_pose": {
            "orientation": {
                "w": 0.005598929693374612,
                "x": 0.007748599140229565,
                "y": 0.7110244013736278,
                "z": -0.7031023480610252
            },
            "position": {
                "x": 0.1141497679147869,
                "y": -0.7141253447532654,
                "z": 0.3711530566215515
            }
        },
        "name": "move_to_auspresseinheit_B"
    },
    "id": "BKPIECE_move_to_auspresseinheit_B_127",
    "joint_names": [
        "shoulder_pan_joint",
        "shoulder_lift_joint",
        "elbow_joint",
        "wrist_1_joint",
        "wrist_2_joint",
        "wrist_3_joint"
    ],
    "metrics": {
        "cart_traj_len": 0.565408109036637,
        "distance_elbow_joint": 0.060315985066847544,
        "distance_shoulder_lift_joint": 0.29557484890272323,
        "distance_shoulder_pan_joint": 0.5793460125124252,
        "distance_wrist_1_joint": 0.3199793225561456,
        "distance_wrist_2_joint": 0.9881684072938013,
        "distance_wrist_3_joint": 0.0035093969051525065,
        "smoothness": 2.5376526478085547e-16,
        "time": 0.33457987600000005,
        "traj_len": 1.4989643001876647,
        "weighted_distance": 1.8873421780104813
    },
    "planner": "BKPIECE",
    "start": {
        "state": {
            "elbow_joint": 2.0193083361928714,
            "shoulder_lift_joint": -1.1220246554650708,
            "shoulder_pan_joint": -1.0952077554168747,
            "wrist_1_joint": -0.8559753972642168,
            "wrist_2_joint": 0.4759566250798843,
            "wrist_3_joint": -3.1240929996934557
        }
    },
    "waypoints": [
        {
            "positions": [
                -1.0952077554168747,
                -1.1220246554650708,
                2.0193083361928714,
                -0.8559753972642168,
                0.4759566250798843,
                -3.1240929996934557
            ]
        },
        {
            "positions": [
                -1.1917654241689455,
                -1.1712871302821912,
                2.0092556720150636,
                -0.8026455101715259,
                0.6406513596288512,
                -3.1235081002092637
            ]
        },
        {
            "positions": [
                -1.2883230929210163,
                -1.2205496050993119,
                1.9992030078372556,
                -0.7493156230788349,
                0.8053460941778181,
                -3.1229232007250713
            ]
        },
        {
            "positions": [
                -1.3848807616730872,
                -1.2698120799164325,
                1.9891503436594475,
                -0.695985735986144,
                0.970040828726785,
                -3.1223383012408794
            ]
        },
        {
            "positions": [
                -1.481438430425158,
                -1.319074554733553,
                1.9790976794816397,
                -0.6426558488934531,
                1.1347355632757519,
                -3.1217534017566875
            ]
        },
        {
            "positions": [
                -1.577996099177229,
                -1.3683370295506734,
                1.969045015303832,
                -0.5893259618007621,
                1.2994302978247187,
                -3.121168502272495
            ]
        },
        {
            "positions": [
                -1.6745537679292999,
                -1.417599504367794,
                1.9589923511260239,
                -0.5359960747080712,
                1.4641250323736856,
                -3.120583602788303
            ]
        }
    ]
}