{
    "goal": {
        "global_pose": {
            "orientation": {
                "w": -0.4816463035849501,
                "x": 0.5182115481033762,
                "y": 0.4908360881923453,
                "z": -0.5084816262002911
            },
            "position": {
                "x": -0.8240239810943604,
                "y": -0.300875300988555,
                "z": 0.16403168439865112
            }
        },
        "name": "move_to_storage_C"
    },
    "id": "BKPIECE_move_to_storage_C_75",
    "joint_names": [
        "shoulder_pan_joint",
        "shoulder_lift_joint",
        "elbow_joint",
        "wrist_1_joint",
        "wrist_2_joint",
        "wrist_3_joint"
    ],
    "metrics": {
        "cart_traj_len": 0.5767885228956524,
        "distance_elbow_joint": 0.2590537471748986,
        "distance_shoulder_lift_joint": 0.19046131849459447,
        "distance_shoulder_pan_joint": 0.49521127253176367,
        "distance_wrist_1_joint": 0.08076774409498333,
        "distance_wrist_2_joint": 1.0627254795478538,
        "distance_wrist_3_joint": 0.07616205782317076,
        "smoothness": 2.5376526478085547e-16,
        "time": 0.203037657,
        "traj_len": 1.4711837477579968,
        "weighted_distance": 1.8601610035038483
    },
    "planner": "BKPIECE",
    "start": {
        "state": {
            "elbow_joint": 2.010868314990456,
            "shoulder_lift_joint": -1.1634956873337592,
            "shoulder_pan_joint": -2.4736205022346125,
            "wrist_1_joint": -0.8367026794202681,
            "wrist_2_joint": 0.6746043897044499,
            "wrist_3_joint": -3.1496632123970403
        }
    },
    "waypoints": [
        {
            "positions": [
                -2.4736205022346125,
                -1.1634956873337592,
                2.010868314990456,
                -0.8367026794202681,
                0.6746043897044499,
                -3.1496632123970403
            ]
        },
        {
            "positions": [
                -2.5561557143232396,
                -1.1317521342513268,
                1.9676926904613061,
                -0.8232413887377709,
                0.8517253029624255,
                -3.1369695360931784
            ]
        },
        {
            "positions": [
                -2.638690926411867,
                -1.1000085811688944,
                1.9245170659321562,
                -0.8097800980552736,
                1.0288462162204013,
                -3.1242758597893165
            ]
        },
        {
            "positions": [
                -2.7212261385004943,
                -1.0682650280864618,
                1.8813414414030065,
                -0.7963188073727765,
                1.2059671294783767,
                -3.1115821834854547
            ]
        },
        {
            "positions": [
                -2.8037613505891215,
                -1.0365214750040295,
                1.8381658168738568,
                -0.7828575166902793,
                1.3830880427363526,
                -3.0988885071815933
            ]
        },
        {
            "positions": [
                -2.886296562677749,
                -1.004777921921597,
                1.794990192344707,
                -0.769396226007782,
                1.560208955994328,
                -3.0861948308777314
            ]
        },
        {
            "positions": [
                -2.968831774766376,
                -0.9730343688391647,
                1.7518145678155572,
                -0.7559349353252848,
                1.7373298692523038,
                -3.0735011545738695
            ]
        }
    ]
}