{
    "goal": {
        "global_pose": {
            "orientation": {
                "w": 0.005598929693374612,
                "x": 0.007748599140229565,
                "y": 0.7110244013736278,
                "z": -0.7031023480610252
            },
            "position": {
                "x": 0.1141497679147869,
                "y": -0.7141253447532654,
                "z": 0.3711530566215515
            }
        },
        "name": "move_to_auspresseinheit_B"
    },
    "id": "BKPIECE_move_to_auspresseinheit_B_107",
    "joint_names": [
        "shoulder_pan_joint",
        "shoulder_lift_joint",
        "elbow_joint",
        "wrist_1_joint",
        "wrist_2_joint",
        "wrist_3_joint"
    ],
    "metrics": {
        "cart_traj_len": 0.5652061791276655,
        "distance_elbow_joint": 0.06645902302504547,
        "distance_shoulder_lift_joint": 0.292957534896942,
        "distance_shoulder_pan_joint": 0.5778305844690321,
        "distance_wrist_1_joint": 0.3367370915479534,
        "distance_wrist_2_joint": 0.9900251761350709,
        "distance_wrist_3_joint": 0.006521468592454394,
        "smoothness": 3.806478935924272e-16,
        "time": 0.28570391700000003,
        "traj_len": 1.5068280853058513,
        "weighted_distance": 1.9000884409770067
    },
    "planner": "BKPIECE",
    "start": {
        "state": {
            "elbow_joint": 2.0193083361928714,
            "shoulder_lift_joint": -1.1220246554650708,
            "shoulder_pan_joint": -1.0952077554168747,
            "wrist_1_joint": -0.8559753972642168,
            "wrist_2_joint": 0.4759566250798843,
            "wrist_3_joint": -3.1240929996934557
        }
    },
    "waypoints": [
        {
            "positions": [
                -1.0952077554168747,
                -1.1220246554650708,
                2.0193083361928714,
                -0.8559753972642168,
                0.4759566250798843,
                -3.1240929996934557
            ]
        },
        {
            "positions": [
                -1.19151285282838,
                -1.1708509112812278,
                2.0082318323553636,
                -0.7998525486728912,
                0.640960821102396,
                -3.1230060882613797
            ]
        },
        {
            "positions": [
                -1.2878179502398854,
                -1.2196771670973847,
                1.9971553285178563,
                -0.7437297000815657,
                0.805965017124908,
                -3.121919176829304
            ]
        },
        {
            "positions": [
                -1.3841230476513906,
                -1.268503422913542,
                1.9860788246803487,
                -0.68760685149024,
                0.9709692131474197,
                -3.1208322653972287
            ]
        },
        {
            "positions": [
                -1.480428145062896,
                -1.3173296787296989,
                1.975002320842841,
                -0.6314840028989146,
                1.1359734091699316,
                -3.1197453539651527
            ]
        },
        {
            "positions": [
                -1.5767332424744014,
                -1.3661559345458558,
                1.9639258170053335,
                -0.5753611543075889,
                1.3009776051924433,
                -3.118658442533077
            ]
        },
        {
            "positions": [
                -1.6730383398859068,
                -1.4149821903620128,
                1.952849313167826,
                -0.5192383057162634,
                1.4659818012149552,
                -3.1175715311010013
            ]
        }
    ]
}