{
    "goal": {
        "global_pose": {
            "orientation": {
                "w": 0.7031023480610252,
                "x": -0.7110244013736278,
                "y": 0.0077485991402295624,
                "z": 0.005598929693374583
            },
            "position": {
                "x": -0.8841497679147869,
                "y": 0.44412534475326537,
                "z": 0.3711530566215515
            }
        },
        "name": "move_to_auspresseinheit_D"
    },
    "id": "BKPIECE_move_to_auspresseinheit_D_110",
    "joint_names": [
        "shoulder_pan_joint",
        "shoulder_lift_joint",
        "elbow_joint",
        "wrist_1_joint",
        "wrist_2_joint",
        "wrist_3_joint"
    ],
    "metrics": {
        "cart_traj_len": 0.3443527679962147,
        "distance_elbow_joint": 0.6613147425235681,
        "distance_shoulder_lift_joint": 0.13326907808114363,
        "distance_shoulder_pan_joint": 0.13394563690428557,
        "distance_wrist_1_joint": 0.6187342289660922,
        "distance_wrist_2_joint": 1.4291868535495384,
        "distance_wrist_3_joint": 0.08160652932000723,
        "smoothness": 0.0,
        "time": 0.2691678,
        "traj_len": 1.7487301305074592,
        "weighted_distance": 2.2954718927706956
    },
    "planner": "BKPIECE",
    "start": {
        "state": {
            "elbow_joint": -1.8275523626775212,
            "shoulder_lift_joint": -2.126789852344167,
            "shoulder_pan_joint": -0.03513704404078235,
            "wrist_1_joint": -2.347782403156801,
            "wrist_2_joint": -1.6058999987535132,
            "wrist_3_joint": -3.0880379163319196
        }
    },
    "waypoints": [
        {
            "positions": [
                -0.03513704404078235,
                -2.126789852344167,
                -1.8275523626775212,
                -2.347782403156801,
                -1.6058999987535132,
                -3.0880379163319196
            ]
        },
        {
            "positions": [
                -0.051880248653818045,
                -2.14344848710431,
                -1.744888019862075,
                -2.425124181777562,
                -1.427251642059821,
                -3.077837100166919
            ]
        },
        {
            "positions": [
                -0.06862345326685373,
                -2.1601071218644528,
                -1.6622236770466292,
                -2.502465960398324,
                -1.2486032853661286,
                -3.067636284001918
            ]
        },
        {
            "positions": [
                -0.08536665787988944,
                -2.1767657566245955,
                -1.579559334231183,
                -2.5798077390190857,
                -1.0699549286724364,
                -3.0574354678369167
            ]
        },
        {
            "positions": [
                -0.10210986249292514,
                -2.1934243913847387,
                -1.4968949914157372,
                -2.657149517639847,
                -0.891306571978744,
                -3.047234651671916
            ]
        },
        {
            "positions": [
                -0.11885306710596083,
                -2.210083026144882,
                -1.4142306486002911,
                -2.7344912962606083,
                -0.7126582152850517,
                -3.0370338355069153
            ]
        },
        {
            "positions": [
                -0.13559627171899652,
                -2.2267416609050246,
                -1.331566305784845,
                -2.81183307488137,
                -0.5340098585913593,
                -3.026833019341914
            ]
        },
        {
            "positions": [
                -0.15233947633203224,
                -2.2434002956651673,
                -1.248901962969399,
                -2.8891748535021318,
                -0.355361501897667,
                -3.016632203176913
            ]
        },
        {
            "positions": [
                -0.16908268094506793,
                -2.2600589304253105,
                -1.166237620153953,
                -2.966516632122893,
                -0.1767131452039748,
                -3.0064313870119124
            ]
        }
    ]
}