{
    "goal": {
        "global_pose": {
            "orientation": {
                "w": -0.00223480608172531,
                "x": 0.0024358444001904467,
                "y": 0.7094548369677653,
                "z": -0.704743149386269
            },
            "position": {
                "x": -0.37947507619857795,
                "y": -0.6371506643295288,
                "z": 0.19426114857196808
            }
        },
        "name": "move_to_magneteinheit_C"
    },
    "id": "BKPIECE_move_to_magneteinheit_C_91",
    "joint_names": [
        "shoulder_pan_joint",
        "shoulder_lift_joint",
        "elbow_joint",
        "wrist_1_joint",
        "wrist_2_joint",
        "wrist_3_joint"
    ],
    "metrics": {
        "cart_traj_len": 3.9499712468969035,
        "distance_elbow_joint": 1.040523439967659,
        "distance_shoulder_lift_joint": 3.7511487291111836,
        "distance_shoulder_pan_joint": 3.141000261535434,
        "distance_wrist_1_joint": 4.387650267859201,
        "distance_wrist_2_joint": 1.1743108687116637,
        "distance_wrist_3_joint": 4.178558629512786,
        "smoothness": 0.9755999573650037,
        "time": 0.502696716,
        "traj_len": 4.2039495949283125,
        "weighted_distance": 5.620700187013569
    },
    "planner": "BKPIECE",
    "start": {
        "state": {
            "elbow_joint": 1.9565354010623817,
            "shoulder_lift_joint": -1.4165861575791021,
            "shoulder_pan_joint": -1.6717766225146293,
            "wrist_1_joint": -0.5286633292919765,
            "wrist_2_joint": 1.472756589071564,
            "wrist_3_joint": -3.1238370188695823
        }
    },
    "waypoints": [
        {
            "positions": [
                -1.6717766225146293,
                -1.4165861575791021,
                1.9565354010623817,
                -0.5286633292919765,
                1.472756589071564,
                -3.1238370188695823
            ]
        },
        {
            "positions": [
                -1.649217315168161,
                -1.4232078362448242,
                1.9624947467019478,
                -0.5449221489850754,
                1.4682196672946564,
                -3.1218672703146892
            ]
        },
        {
            "positions": [
                -1.5502542402727912,
                -1.4542279865061445,
                1.9133990490605532,
                -0.5138495467320312,
                1.3984238590753995,
                -3.0086853543979317
            ]
        },
        {
            "positions": [
                -1.4512911653774212,
                -1.4852481367674648,
                1.8643033514191587,
                -0.4827769444789871,
                1.3286280508561428,
                -2.895503438481174
            ]
        },
        {
            "positions": [
                -1.3523280904820514,
                -1.5162682870287854,
                1.815207653777764,
                -0.4517043422259429,
                1.258832242636886,
                -2.7823215225644167
            ]
        },
        {
            "positions": [
                -1.2533650155866813,
                -1.5472884372901057,
                1.7661119561363694,
                -0.42063173997289877,
                1.1890364344176292,
                -2.6691396066476587
            ]
        },
        {
            "positions": [
                -1.1544019406913115,
                -1.578308587551426,
                1.7170162584949749,
                -0.3895591377198546,
                1.1192406261983723,
                -2.555957690730901
            ]
        },
        {
            "positions": [
                -1.0554388657959417,
                -1.6093287378127463,
                1.6679205608535803,
                -0.3584865354668105,
                1.0494448179791156,
                -2.4427757748141437
            ]
        },
        {
            "positions": [
                -0.9564757909005717,
                -1.6403488880740666,
                1.6188248632121858,
                -0.32741393321376633,
                0.9796490097598589,
                -2.329593858897386
            ]
        },
        {
            "positions": [
                -0.8575127160052016,
                -1.6713690383353872,
                1.569729165570791,
                -0.2963413309607221,
                0.909853201540602,
                -2.2164119429806286
            ]
        },
        {
            "positions": [
                -0.7585496411098318,
                -1.7023891885967075,
                1.5206334679293965,
                -0.265268728707678,
                0.8400573933213452,
                -2.103230027063871
            ]
        },
        {
            "positions": [
                -0.6595865662144619,
                -1.7334093388580278,
                1.471537770288002,
                -0.23419612645463386,
                0.7702615851020884,
                -1.9900481111471136
            ]
        },
        {
            "positions": [
                -0.763396342406394,
                -1.8088044339962097,
                1.4964905558483033,
                -0.35735097632088264,
                0.7799620255575616,
                -1.940087131715353
            ]
        },
        {
            "positions": [
                -0.8672061185983261,
                -1.8841995291343918,
                1.5214433414086044,
                -0.48050582618713134,
                0.7896624660130346,
                -1.8901261522835922
            ]
        },
        {
            "positions": [
                -0.9710158947902583,
                -1.9595946242725737,
                1.5463961269689057,
                -0.6036606760533801,
                0.7993629064685077,
                -1.8401651728518316
            ]
        },
        {
            "positions": [
                -1.0748256709821904,
                -2.034989719410756,
                1.5713489125292068,
                -0.7268155259196288,
                0.8090633469239809,
                -1.7902041934200708
            ]
        },
        {
            "positions": [
                -1.1786354471741225,
                -2.1103848145489374,
                1.5963016980895082,
                -0.8499703757858775,
                0.818763787379454,
                -1.7402432139883102
            ]
        },
        {
            "positions": [
                -1.2824452233660546,
                -2.1857799096871195,
                1.6212544836498095,
                -0.9731252256521263,
                0.828464227834927,
                -1.6902822345565496
            ]
        },
        {
            "positions": [
                -1.3862549995579867,
                -2.2611750048253016,
                1.6462072692101106,
                -1.096280075518375,
                0.8381646682904001,
                -1.6403212551247888
            ]
        },
        {
            "positions": [
                -1.4900647757499188,
                -2.3365700999634837,
                1.671160054770412,
                -1.219434925384624,
                0.8478651087458733,
                -1.5903602756930282
            ]
        },
        {
            "positions": [
                -1.593874551941851,
                -2.4119651951016654,
                1.6961128403307133,
                -1.3425897752508726,
                0.8575655492013464,
                -1.5403992962612674
            ]
        },
        {
            "positions": [
                -1.697684328133783,
                -2.4873602902398475,
                1.7210656258910144,
                -1.4657446251171213,
                0.8672659896568194,
                -1.4904383168295068
            ]
        },
        {
            "positions": [
                -1.801494104325715,
                -2.562755385378029,
                1.7460184114513158,
                -1.5888994749833703,
                0.8769664301122926,
                -1.4404773373977462
            ]
        },
        {
            "positions": [
                -1.9053038805176472,
                -2.6381504805162113,
                1.770971197011617,
                -1.712054324849619,
                0.8866668705677657,
                -1.3905163579659854
            ]
        },
        {
            "positions": [
                -2.0091136567095798,
                -2.7135455756543934,
                1.7959239825719182,
                -1.8352091747158679,
                0.8963673110232389,
                -1.3405553785342246
            ]
        },
        {
            "positions": [
                -2.1129234329015114,
                -2.7889406707925755,
                1.8208767681322195,
                -1.9583640245821163,
                0.9060677514787119,
                -1.290594399102464
            ]
        },
        {
            "positions": [
                -2.216733209093444,
                -2.8643357659307576,
                1.8458295536925209,
                -2.0815188744483653,
                0.915768191934185,
                -1.2406334196707034
            ]
        },
        {
            "positions": [
                -2.3205429852853756,
                -2.939730861068939,
                1.870782339252822,
                -2.2046737243146137,
                0.9254686323896582,
                -1.1906724402389428
            ]
        },
        {
            "positions": [
                -2.424352761477308,
                -3.015125956207121,
                1.8957351248131233,
                -2.3278285741808626,
                0.9351690728451312,
                -1.140711460807182
            ]
        },
        {
            "positions": [
                -2.52816253766924,
                -3.090521051345303,
                1.9206879103734245,
                -2.450983424047111,
                0.9448695133006043,
                -1.0907504813754212
            ]
        },
        {
            "positions": [
                -2.6319723138611724,
                -3.165916146483485,
                1.9456406959337258,
                -2.57413827391336,
                0.9545699537560774,
                -1.0407895019436606
            ]
        },
        {
            "positions": [
                -2.6221957852618876,
                -3.04080247522056,
                1.9499847079505022,
                -2.4665930690273017,
                0.936600735250565,
                -1.1717589464803395
            ]
        },
        {
            "positions": [
                -2.6124192566626028,
                -2.915688803957635,
                1.9543287199672787,
                -2.3590478641412433,
                0.9186315167450525,
                -1.3027283910170186
            ]
        },
        {
            "positions": [
                -2.602642728063318,
                -2.79057513269471,
                1.9586727319840551,
                -2.251502659255185,
                0.9006622982395401,
                -1.4336978355536976
            ]
        },
        {
            "positions": [
                -2.592866199464033,
                -2.665461461431785,
                1.9630167440008317,
                -2.1439574543691267,
                0.8826930797340277,
                -1.5646672800903767
            ]
        },
        {
            "positions": [
                -2.5830896708647484,
                -2.54034779016886,
                1.967360756017608,
                -2.0364122494830683,
                0.8647238612285152,
                -1.6956367246270556
            ]
        },
        {
            "positions": [
                -2.5733131422654636,
                -2.4152341189059348,
                1.9717047680343844,
                -1.9288670445970095,
                0.8467546427230028,
                -1.8266061691637345
            ]
        },
        {
            "positions": [
                -2.563536613666179,
                -2.2901204476430097,
                1.976048780051161,
                -1.8213218397109512,
                0.8287854242174904,
                -1.9575756137004134
            ]
        },
        {
            "positions": [
                -2.5537600850668944,
                -2.1650067763800847,
                1.9803927920679374,
                -1.7137766348248928,
                0.8108162057119779,
                -2.0885450582370924
            ]
        },
        {
            "positions": [
                -2.5439835564676097,
                -2.0398931051171596,
                1.9847368040847138,
                -1.6062314299388345,
                0.7928469872064654,
                -2.2195145027737713
            ]
        },
        {
            "positions": [
                -2.534207027868325,
                -1.9147794338542345,
                1.9890808161014903,
                -1.4986862250527762,
                0.7748777687009529,
                -2.3504839473104506
            ]
        },
        {
            "positions": [
                -2.52443049926904,
                -1.7896657625913095,
                1.9934248281182667,
                -1.3911410201667176,
                0.7569085501954406,
                -2.4814533918471295
            ]
        },
        {
            "positions": [
                -2.5146539706697553,
                -1.6645520913283844,
                1.997768840135043,
                -1.2835958152806592,
                0.7389393316899281,
                -2.6124228363838085
            ]
        },
        {
            "positions": [
                -2.5048774420704705,
                -1.5394384200654594,
                2.0021128521518197,
                -1.176050610394601,
                0.7209701131844156,
                -2.743392280920488
            ]
        },
        {
            "positions": [
                -2.4951009134711857,
                -1.4143247488025343,
                2.0064568641685963,
                -1.0685054055085423,
                0.7030008946789033,
                -2.8743617254571667
            ]
        },
        {
            "positions": [
                -2.485324384871901,
                -1.2892110775396093,
                2.0108008761853724,
                -0.960960200622484,
                0.6850316761733908,
                -3.0053311699938456
            ]
        },
        {
            "positions": [
                -2.475547856272616,
                -1.1640974062766845,
                2.015144888202149,
                -0.8534149957364258,
                0.6670624576678783,
                -3.1363006145305246
            ]
        }
    ]
}