{
    "goal": {
        "global_pose": {
            "orientation": {
                "w": 0.7047431493862688,
                "x": -0.7094548369677653,
                "y": 0.0024358444001904,
                "z": -0.0022348060817251984
            },
            "position": {
                "x": -0.39052492380142206,
                "y": 0.3671506643295288,
                "z": 0.19426114857196808
            }
        },
        "name": "move_to_magneteinheit_D"
    },
    "id": "BKPIECE_move_to_magneteinheit_D_112",
    "joint_names": [
        "shoulder_pan_joint",
        "shoulder_lift_joint",
        "elbow_joint",
        "wrist_1_joint",
        "wrist_2_joint",
        "wrist_3_joint"
    ],
    "metrics": {
        "cart_traj_len": 4.510997082271394,
        "distance_elbow_joint": 3.2980526283259874,
        "distance_shoulder_lift_joint": 1.9685754243945275,
        "distance_shoulder_pan_joint": 3.0775141746572374,
        "distance_wrist_1_joint": 2.419679927975052,
        "distance_wrist_2_joint": 2.671401932800572,
        "distance_wrist_3_joint": 3.4479661324219166,
        "smoothness": 0.1829623632815521,
        "time": 0.251430363,
        "traj_len": 4.108915942262057,
        "weighted_distance": 5.37310006850745
    },
    "planner": "BKPIECE",
    "start": {
        "state": {
            "elbow_joint": 0.749534889911806,
            "shoulder_lift_joint": -0.6476975780787326,
            "shoulder_pan_joint": -2.711696901376241,
            "wrist_1_joint": -0.07506478083263063,
            "wrist_2_joint": 0.43296659715538205,
            "wrist_3_joint": -3.14703540197715
        }
    },
    "waypoints": [
        {
            "positions": [
                -2.711696901376241,
                -0.6476975780787326,
                0.749534889911806,
                -0.07506478083263063,
                0.43296659715538205,
                -3.14703540197715
            ]
        },
        {
            "positions": [
                -2.722948395737956,
                -0.6193513980818458,
                0.6815324555966331,
                -0.11330717607311346,
                0.32211078289336226,
                -3.024675298289586
            ]
        },
        {
            "positions": [
                -2.7341998900996707,
                -0.5910052180849589,
                0.6135300212814604,
                -0.15154957131359628,
                0.21125496863134247,
                -2.9023151946020227
            ]
        },
        {
            "positions": [
                -2.7454513844613855,
                -0.562659038088072,
                0.5455275869662877,
                -0.18979196655407912,
                0.10039915436932267,
                -2.779955090914459
            ]
        },
        {
            "positions": [
                -2.7567028788231007,
                -0.5343128580911851,
                0.47752515265111484,
                -0.22803436179456193,
                -0.010456659892697118,
                -2.657594987226895
            ]
        },
        {
            "positions": [
                -2.7679543731848155,
                -0.5059666780942983,
                0.40952271833594206,
                -0.26627675703504483,
                -0.12131247415471696,
                -2.5352348835393315
            ]
        },
        {
            "positions": [
                -2.7792058675465303,
                -0.4776204980974114,
                0.3415202840207693,
                -0.3045191522755276,
                -0.2321682884167367,
                -2.4128747798517676
            ]
        },
        {
            "positions": [
                -2.7662192309331655,
                -0.47777911827731856,
                0.2782512912658663,
                -0.33184356776368945,
                -0.3222824270234834,
                -2.3100057254614126
            ]
        },
        {
            "positions": [
                -2.7532325943198006,
                -0.4779377384572257,
                0.2149822985109633,
                -0.35916798325185123,
                -0.41239656563023014,
                -2.207136671071058
            ]
        },
        {
            "positions": [
                -2.7402459577064358,
                -0.47809635863713285,
                0.1517133057560603,
                -0.38649239874001307,
                -0.5025107042369769,
                -2.104267616680703
            ]
        },
        {
            "positions": [
                -2.68529774815268,
                -0.5065751571350999,
                0.08363020923248393,
                -0.4041408134660704,
                -0.5779718900877886,
                -2.0039837464759387
            ]
        },
        {
            "positions": [
                -2.630349538598925,
                -0.5350539556330671,
                0.015547112708907573,
                -0.4217892281921278,
                -0.6534330759386002,
                -1.9036998762711743
            ]
        },
        {
            "positions": [
                -2.575401329045169,
                -0.5635327541310342,
                -0.052535983814668785,
                -0.4394376429181851,
                -0.728894261789412,
                -1.80341600606641
            ]
        },
        {
            "positions": [
                -2.5204531194914135,
                -0.5920115526290014,
                -0.12061908033824514,
                -0.4570860576442425,
                -0.8043554476402237,
                -1.7031321358616456
            ]
        },
        {
            "positions": [
                -2.465504909937658,
                -0.6204903511269685,
                -0.18870217686182156,
                -0.4747344723702998,
                -0.8798166334910353,
                -1.6028482656568812
            ]
        },
        {
            "positions": [
                -2.4105567003839026,
                -0.6489691496249357,
                -0.25678527338539786,
                -0.49238288709635714,
                -0.9552778193418471,
                -1.5025643954521168
            ]
        },
        {
            "positions": [
                -2.355608490830147,
                -0.6774479481229028,
                -0.3248683699089743,
                -0.5100313018224145,
                -1.0307390051926588,
                -1.4022805252473525
            ]
        },
        {
            "positions": [
                -2.162183114748278,
                -0.6862526573362953,
                -0.3823573911730413,
                -0.5043189264247078,
                -1.0273090490176418,
                -1.2912559545380073
            ]
        },
        {
            "positions": [
                -1.968757738666409,
                -0.6950573665496877,
                -0.4398464124371083,
                -0.498606551027001,
                -1.023879092842625,
                -1.1802313838286622
            ]
        },
        {
            "positions": [
                -1.7753323625845403,
                -0.7038620757630802,
                -0.49733543370117533,
                -0.49289417562929433,
                -1.0204491366676078,
                -1.069206813119317
            ]
        },
        {
            "positions": [
                -1.5819069865026714,
                -0.7126667849764727,
                -0.5548244549652424,
                -0.4871818002315876,
                -1.017019180492591,
                -0.9581822424099719
            ]
        },
        {
            "positions": [
                -1.3884816104208024,
                -0.7214714941898652,
                -0.6123134762293094,
                -0.48146942483388083,
                -1.013589224317574,
                -0.8471576717006267
            ]
        },
        {
            "positions": [
                -1.1950562343389337,
                -0.7302762034032577,
                -0.6698024974933764,
                -0.4757570494361741,
                -1.010159268142557,
                -0.7361331009912816
            ]
        },
        {
            "positions": [
                -1.0016308582570648,
                -0.7390809126166502,
                -0.7272915187574435,
                -0.47004467403846734,
                -1.00672931196754,
                -0.6251085302819365
            ]
        },
        {
            "positions": [
                -0.8082054821751958,
                -0.7478856218300427,
                -0.7847805400215104,
                -0.4643322986407606,
                -1.0032993557925232,
                -0.5140839595725912
            ]
        },
        {
            "positions": [
                -0.6147801060933269,
                -0.7566903310434352,
                -0.8422695612855775,
                -0.4586199232430539,
                -0.9998693996175061,
                -0.4030593888632461
            ]
        },
        {
            "positions": [
                -0.4213547300114582,
                -0.7654950402568277,
                -0.8997585825496445,
                -0.45290754784534715,
                -0.9964394434424891,
                -0.292034818153901
            ]
        },
        {
            "positions": [
                -0.22792935392958932,
                -0.7742997494702202,
                -0.9572476038137115,
                -0.4471951724476404,
                -0.9930094872674722,
                -0.1810102474445559
            ]
        },
        {
            "positions": [
                -0.2131928072778454,
                -0.8605237163677517,
                -1.046111683118791,
                -0.3457628733162865,
                -0.931118251901391,
                -0.15985664250515205
            ]
        },
        {
            "positions": [
                -0.19845626062610144,
                -0.9467476832652834,
                -1.1349757624238705,
                -0.24433057418493265,
                -0.8692270165353098,
                -0.1387030375657482
            ]
        },
        {
            "positions": [
                -0.1837197139743575,
                -1.032971650162815,
                -1.2238398417289502,
                -0.14289827505357877,
                -0.8073357811692286,
                -0.11754943262634436
            ]
        },
        {
            "positions": [
                -0.16898316732261356,
                -1.1191956170603465,
                -1.3127039210340297,
                -0.041465975922224896,
                -0.7454445458031475,
                -0.09639582768694051
            ]
        },
        {
            "positions": [
                -0.15424662067086964,
                -1.205419583957878,
                -1.401568000339109,
                0.05996632320912898,
                -0.6835533104370662,
                -0.07524222274753667
            ]
        },
        {
            "positions": [
                -0.13951007401912568,
                -1.2916435508554096,
                -1.4904320796441888,
                0.16139862234048286,
                -0.621662075070985,
                -0.054088617808132816
            ]
        },
        {
            "positions": [
                -0.12477352736738175,
                -1.3778675177529411,
                -1.5792961589492682,
                0.26283092147183673,
                -0.5597708397049039,
                -0.03293501286872896
            ]
        },
        {
            "positions": [
                -0.1100369807156378,
                -1.464091484650473,
                -1.6681602382543477,
                0.3642632206031906,
                -0.4978796043388227,
                -0.01178140792932511
            ]
        },
        {
            "positions": [
                -0.09530043406389385,
                -1.5503154515480042,
                -1.7570243175594271,
                0.4656955197345445,
                -0.4359883689727415,
                0.009372197010078714
            ]
        },
        {
            "positions": [
                -0.08056388741214993,
                -1.636539418445536,
                -1.8458883968645068,
                0.5671278188658984,
                -0.3740971336066603,
                0.030525801949482567
            ]
        },
        {
            "positions": [
                -0.06582734076040597,
                -1.7227633853430675,
                -1.9347524761695865,
                0.6685601179972522,
                -0.3122058982405791,
                0.05167940688888642
            ]
        },
        {
            "positions": [
                -0.05109079410866202,
                -1.808987352240599,
                -2.023616555474666,
                0.7699924171286061,
                -0.2503146628744979,
                0.07283301182829027
            ]
        },
        {
            "positions": [
                -0.03635424745691812,
                -1.8952113191381306,
                -2.1124806347797453,
                0.87142471625996,
                -0.1884234275084169,
                0.0939866167676941
            ]
        },
        {
            "positions": [
                -0.021617700805174167,
                -1.981435286035662,
                -2.201344714084825,
                0.9728570153913139,
                -0.1265321921423357,
                0.11514022170709798
            ]
        },
        {
            "positions": [
                -0.006881154153430213,
                -2.0676592529331934,
                -2.2902087933899042,
                1.0742893145226677,
                -0.06464095677625448,
                0.1362938266465018
            ]
        },
        {
            "positions": [
                0.007855392498313712,
                -2.1538832198307256,
                -2.379072872694984,
                1.1757216136540216,
                -0.002749721410173267,
                0.15744743158590568
            ]
        },
        {
            "positions": [
                0.022591939150057694,
                -2.240107186728257,
                -2.4679369520000636,
                1.2771539127853755,
                0.059141513955907915,
                0.17860103652530948
            ]
        },
        {
            "positions": [
                -0.0815117617451222,
                -2.258113014619437,
                -2.427646558793005,
                1.3759180089741143,
                0.11804941960788999,
                0.1174361895655812
            ]
        },
        {
            "positions": [
                -0.1856154626403021,
                -2.2761188425106176,
                -2.3873561655859463,
                1.474682105162853,
                0.17695732525987207,
                0.05627134260585292
            ]
        }
    ]
}