{
    "goal": {
        "global_pose": {
            "orientation": {
                "w": 0.7031023480610252,
                "x": -0.7110244013736278,
                "y": 0.0077485991402295624,
                "z": 0.005598929693374583
            },
            "position": {
                "x": -0.8841497679147869,
                "y": 0.44412534475326537,
                "z": 0.3711530566215515
            }
        },
        "name": "move_to_auspresseinheit_D"
    },
    "id": "BKPIECE_move_to_auspresseinheit_D_131",
    "joint_names": [
        "shoulder_pan_joint",
        "shoulder_lift_joint",
        "elbow_joint",
        "wrist_1_joint",
        "wrist_2_joint",
        "wrist_3_joint"
    ],
    "metrics": {
        "cart_traj_len": 0.3434969453879393,
        "distance_elbow_joint": 0.647065954319479,
        "distance_shoulder_lift_joint": 0.12588835105678164,
        "distance_shoulder_pan_joint": 0.1339090407324581,
        "distance_wrist_1_joint": 0.5660821660011099,
        "distance_wrist_2_joint": 1.4380202212568753,
        "distance_wrist_3_joint": 0.03739878276864017,
        "smoothness": 0.0,
        "time": 0.208743815,
        "traj_len": 1.7170802299646177,
        "weighted_distance": 2.242156209752258
    },
    "planner": "BKPIECE",
    "start": {
        "state": {
            "elbow_joint": -1.8275523626775212,
            "shoulder_lift_joint": -2.126789852344167,
            "shoulder_pan_joint": -0.03513704404078235,
            "wrist_1_joint": -2.347782403156801,
            "wrist_2_joint": -1.6058999987535132,
            "wrist_3_joint": -3.0880379163319196
        }
    },
    "waypoints": [
        {
            "positions": [
                -0.03513704404078235,
                -2.126789852344167,
                -1.8275523626775212,
                -2.347782403156801,
                -1.6058999987535132,
                -3.0880379163319196
            ]
        },
        {
            "positions": [
                -0.05187567413233961,
                -2.1425258962262648,
                -1.7466691183875862,
                -2.4185426739069396,
                -1.4261474710964037,
                -3.0833630684858395
            ]
        },
        {
            "positions": [
                -0.06861430422389687,
                -2.1582619401083623,
                -1.6657858740976514,
                -2.4893029446570782,
                -1.2463949434392942,
                -3.0786882206397594
            ]
        },
        {
            "positions": [
                -0.08535293431545413,
                -2.1739979839904597,
                -1.5849026298077167,
                -2.560063215407217,
                -1.066642415782185,
                -3.0740133727936794
            ]
        },
        {
            "positions": [
                -0.10209156440701139,
                -2.1897340278725577,
                -1.5040193855177817,
                -2.6308234861573556,
                -0.8868898881250755,
                -3.0693385249475993
            ]
        },
        {
            "positions": [
                -0.11883019449856866,
                -2.2054700717546556,
                -1.4231361412278467,
                -2.7015837569074947,
                -0.707137360467966,
                -3.0646636771015197
            ]
        },
        {
            "positions": [
                -0.13556882459012592,
                -2.221206115636753,
                -1.342252896937912,
                -2.7723440276576334,
                -0.5273848328108568,
                -3.0599888292554396
            ]
        },
        {
            "positions": [
                -0.1523074546816832,
                -2.2369421595188506,
                -1.2613696526479772,
                -2.843104298407772,
                -0.3476323051537473,
                -3.0553139814093595
            ]
        },
        {
            "positions": [
                -0.16904608477324046,
                -2.2526782034009485,
                -1.1804864083580422,
                -2.913864569157911,
                -0.1678797774966378,
                -3.0506391335632794
            ]
        }
    ]
}