{
    "goal": {
        "global_pose": {
            "orientation": {
                "w": -0.00223480608172531,
                "x": 0.0024358444001904467,
                "y": 0.7094548369677653,
                "z": -0.704743149386269
            },
            "position": {
                "x": 0.6205249238014221,
                "y": -0.6371506643295288,
                "z": 0.19426114857196808
            }
        },
        "name": "move_to_magneteinheit_B"
    },
    "id": "BKPIECE_move_to_magneteinheit_B_11",
    "joint_names": [
        "shoulder_pan_joint",
        "shoulder_lift_joint",
        "elbow_joint",
        "wrist_1_joint",
        "wrist_2_joint",
        "wrist_3_joint"
    ],
    "metrics": {
        "cart_traj_len": 3.4897699890866645,
        "distance_elbow_joint": 5.3835384174395235,
        "distance_shoulder_lift_joint": 0.7683746808186247,
        "distance_shoulder_pan_joint": 3.626603366560397,
        "distance_wrist_1_joint": 4.724475508232754,
        "distance_wrist_2_joint": 0.7900139611023429,
        "distance_wrist_3_joint": 3.393954824345735,
        "smoothness": 0.5012761869632574,
        "time": 0.271320644,
        "traj_len": 4.322841745715355,
        "weighted_distance": 5.566808769530883
    },
    "planner": "BKPIECE",
    "start": {
        "state": {
            "elbow_joint": 2.6216224122426386,
            "shoulder_lift_joint": -1.4174107377796124,
            "shoulder_pan_joint": 0.7066234856936794,
            "wrist_1_joint": 1.9546482284002225,
            "wrist_2_joint": -0.7096286983471962,
            "wrist_3_joint": 0.005740856962016249
        }
    },
    "waypoints": [
        {
            "positions": [
                0.7066234856936794,
                -1.4174107377796124,
                2.6216224122426386,
                1.9546482284002225,
                -0.7096286983471962,
                0.005740856962016249
            ]
        },
        {
            "positions": [
                0.5672276202643998,
                -1.5067053900928307,
                2.6456249927706876,
                1.9822889706747033,
                -0.633698995337058,
                -0.016243830232998746
            ]
        },
        {
            "positions": [
                0.4278317548351202,
                -1.5960000424060492,
                2.6696275732987367,
                2.009929712949184,
                -0.5577692923269199,
                -0.038228517428013746
            ]
        },
        {
            "positions": [
                0.2884358894058406,
                -1.6852946947192675,
                2.6936301538267857,
                2.0375704552236655,
                -0.4818395893167816,
                -0.060213204623028746
            ]
        },
        {
            "positions": [
                0.14904002397656102,
                -1.7745893470324858,
                2.717632734354835,
                2.0652111974981464,
                -0.40590988630664343,
                -0.08219789181804374
            ]
        },
        {
            "positions": [
                0.0096441585472814,
                -1.8638839993457044,
                2.7416353148828843,
                2.0928519397726273,
                -0.3299801832965052,
                -0.10418257901305875
            ]
        },
        {
            "positions": [
                -0.12975170688199822,
                -1.9531786516589227,
                2.7656378954109333,
                2.120492682047108,
                -0.254050480286367,
                -0.12616726620807373
            ]
        },
        {
            "positions": [
                -0.034549687220480685,
                -1.9538918237495386,
                2.6021737249883654,
                2.019664387458519,
                -0.2536879655484979,
                -0.10241981986249461
            ]
        },
        {
            "positions": [
                0.06065233244103685,
                -1.9546049958401546,
                2.4387095545657975,
                1.9188360928699302,
                -0.2533254508106287,
                -0.0786723735169155
            ]
        },
        {
            "positions": [
                0.15585435210255438,
                -1.9553181679307703,
                2.275245384143229,
                1.8180077982813412,
                -0.25296293607275955,
                -0.05492492717133639
            ]
        },
        {
            "positions": [
                0.2510563717640719,
                -1.9560313400213862,
                2.1117812137206613,
                1.7171795036927524,
                -0.25260042133489036,
                -0.031177480825757276
            ]
        },
        {
            "positions": [
                0.34625839142558945,
                -1.9567445121120022,
                1.9483170432980934,
                1.6163512091041632,
                -0.2522379065970212,
                -0.007430034480178149
            ]
        },
        {
            "positions": [
                0.441460411087107,
                -1.9574576842026181,
                1.7848528728755255,
                1.5155229145155744,
                -0.25187539185915203,
                0.01631741186540095
            ]
        },
        {
            "positions": [
                0.5366624307486245,
                -1.958170856293234,
                1.6213887024529574,
                1.4146946199269854,
                -0.2515128771212829,
                0.040064858210980075
            ]
        },
        {
            "positions": [
                0.631864450410142,
                -1.9588840283838498,
                1.4579245320303895,
                1.3138663253383966,
                -0.2511503623834137,
                0.06381230455655917
            ]
        },
        {
            "positions": [
                0.7270664700716597,
                -1.9595972004744657,
                1.2944603616078214,
                1.2130380307498074,
                -0.25078784764554457,
                0.08755975090213833
            ]
        },
        {
            "positions": [
                0.8222684897331771,
                -1.9603103725650817,
                1.1309961911852535,
                1.1122097361612184,
                -0.2504253329076754,
                0.11130719724771743
            ]
        },
        {
            "positions": [
                0.9174705093946947,
                -1.9610235446556976,
                0.9675320207626854,
                1.0113814415726297,
                -0.25006281816980624,
                0.13505464359329655
            ]
        },
        {
            "positions": [
                1.0126725290562122,
                -1.9617367167463133,
                0.8040678503401175,
                0.9105531469840407,
                -0.24970030343193708,
                0.15880208993887562
            ]
        },
        {
            "positions": [
                1.1078745487177297,
                -1.9624498888369293,
                0.6406036799175494,
                0.8097248523954517,
                -0.24933778869406792,
                0.18254953628445475
            ]
        },
        {
            "positions": [
                1.2030765683792473,
                -1.9631630609275452,
                0.4771395094949815,
                0.7088965578068627,
                -0.24897527395619876,
                0.20629698263003388
            ]
        },
        {
            "positions": [
                1.2982785880407648,
                -1.9638762330181612,
                0.31367533907241363,
                0.6080682632182737,
                -0.2486127592183296,
                0.230044428975613
            ]
        },
        {
            "positions": [
                1.3934806077022823,
                -1.964589405108777,
                0.15021116864984574,
                0.5072399686296849,
                -0.24825024448046043,
                0.2537918753211921
            ]
        },
        {
            "positions": [
                1.4886826273637996,
                -1.9653025771993928,
                -0.01325300177272215,
                0.4064116740410959,
                -0.24788772974259127,
                0.2775393216667712
            ]
        },
        {
            "positions": [
                1.5838846470253176,
                -1.9660157492900088,
                -0.17671717219529048,
                0.3055833794525067,
                -0.2475252150047221,
                0.3012867680123504
            ]
        },
        {
            "positions": [
                1.679086666686835,
                -1.9667289213806247,
                -0.3401813426178584,
                0.2047550848639177,
                -0.24716270026685294,
                0.32503421435792945
            ]
        },
        {
            "positions": [
                1.7742886863483525,
                -1.9674420934712407,
                -0.5036455130404263,
                0.1039267902753287,
                -0.24680018552898378,
                0.3487816607035086
            ]
        },
        {
            "positions": [
                1.86949070600987,
                -1.9681552655618564,
                -0.6671096834629942,
                0.0030984956867401436,
                -0.24643767079111462,
                0.3725291070490877
            ]
        },
        {
            "positions": [
                1.9646927256713875,
                -1.9688684376524723,
                -0.8305738538855625,
                -0.09772979890184885,
                -0.24607515605324548,
                0.39627655339466683
            ]
        },
        {
            "positions": [
                2.0598947453329046,
                -1.9695816097430883,
                -0.9940380243081304,
                -0.19855809349043785,
                -0.24571264131537632,
                0.42002399974024585
            ]
        },
        {
            "positions": [
                2.155096764994423,
                -1.9702947818337042,
                -1.1575021947306983,
                -0.29938638807902684,
                -0.24535012657750715,
                0.44377144608582497
            ]
        },
        {
            "positions": [
                2.25029878465594,
                -1.9710079539243202,
                -1.3209663651532666,
                -0.4002146826676163,
                -0.244987611839638,
                0.4675188924314042
            ]
        },
        {
            "positions": [
                2.3455008043174574,
                -1.9717211260149359,
                -1.4844305355758345,
                -0.5010429772562048,
                -0.24462509710176883,
                0.4912663387769832
            ]
        },
        {
            "positions": [
                2.4407028239789756,
                -1.9724342981055518,
                -1.6478947059984024,
                -0.6018712718447938,
                -0.24426258236389967,
                0.5150137851225624
            ]
        },
        {
            "positions": [
                2.535904843640493,
                -1.9731474701961678,
                -1.8113588764209703,
                -0.702699566433383,
                -0.2439000676260305,
                0.5387612314681415
            ]
        },
        {
            "positions": [
                2.581845068991763,
                -2.045237183832306,
                -1.9378432141189228,
                -0.7184460460043915,
                -0.31363539747255254,
                0.5914053021922936
            ]
        },
        {
            "positions": [
                2.6277852943430333,
                -2.1173268974684443,
                -2.0643275518168753,
                -0.7341925255754002,
                -0.3833707273190745,
                0.6440493729164458
            ]
        },
        {
            "positions": [
                2.6331709972017507,
                -2.1383555059758956,
                -1.9828935639286864,
                -0.9105953700380047,
                -0.36861678659707975,
                0.7221326313043591
            ]
        },
        {
            "positions": [
                2.6385567000604686,
                -2.1593841144833474,
                -1.9014595760404978,
                -1.0869982145006092,
                -0.353862845875085,
                0.8002158896922723
            ]
        },
        {
            "positions": [
                2.643942402919186,
                -2.180412722990799,
                -1.8200255881523089,
                -1.2634010589632139,
                -0.3391089051530902,
                0.8782991480801856
            ]
        },
        {
            "positions": [
                2.64559580933754,
                -2.1809499925515428,
                -1.8035000358144238,
                -1.3808747903207685,
                -0.3531641900053051,
                1.1040571767689242
            ]
        },
        {
            "positions": [
                2.647249215755893,
                -2.1814872621122863,
                -1.7869744834765386,
                -1.4983485216783232,
                -0.36721947485751993,
                1.3298152054576629
            ]
        },
        {
            "positions": [
                2.648902622174247,
                -2.1820245316730302,
                -1.7704489311386533,
                -1.615822253035878,
                -0.3812747597097348,
                1.5555732341464013
            ]
        },
        {
            "positions": [
                2.6505560285926006,
                -2.182561801233774,
                -1.7539233788007682,
                -1.7332959843934326,
                -0.39533004456194965,
                1.78133126283514
            ]
        },
        {
            "positions": [
                2.6522094350109544,
                -2.183099070794518,
                -1.737397826462883,
                -1.8507697157509873,
                -0.4093853294141645,
                2.0070892915238785
            ]
        },
        {
            "positions": [
                2.6538628414293077,
                -2.1836363403552617,
                -1.720872274124998,
                -1.968243447108542,
                -0.42344061426637936,
                2.232847320212617
            ]
        },
        {
            "positions": [
                2.6555162478476615,
                -2.1841736099160056,
                -1.7043467217871129,
                -2.085717178466097,
                -0.4374958991185942,
                2.4586053489013553
            ]
        },
        {
            "positions": [
                2.6571696542660153,
                -2.1847108794767496,
                -1.6878211694492276,
                -2.2031909098236513,
                -0.4515511839708091,
                2.6843633775900946
            ]
        },
        {
            "positions": [
                2.6588230606843686,
                -2.185248149037493,
                -1.6712956171113424,
                -2.3206646411812057,
                -0.465606468823024,
                2.910121406278833
            ]
        },
        {
            "positions": [
                2.6604764671027223,
                -2.185785418598237,
                -1.6547700647734573,
                -2.4381383725387606,
                -0.47966175367523883,
                3.1358794349675714
            ]
        }
    ]
}