{
    "goal": {
        "global_pose": {
            "orientation": {
                "w": 0.5084816262002911,
                "x": -0.4908360881923452,
                "y": 0.5182115481033761,
                "z": -0.48164630358495003
            },
            "position": {
                "x": 0.5540239810943604,
                "y": -0.46912469901144505,
                "z": 0.16403168439865112
            }
        },
        "name": "move_to_storage_B"
    },
    "id": "BKPIECE_move_to_storage_B_110",
    "joint_names": [
        "shoulder_pan_joint",
        "shoulder_lift_joint",
        "elbow_joint",
        "wrist_1_joint",
        "wrist_2_joint",
        "wrist_3_joint"
    ],
    "metrics": {
        "cart_traj_len": 0.6188881594161535,
        "distance_elbow_joint": 0.34978184067393103,
        "distance_shoulder_lift_joint": 0.4581182269538804,
        "distance_shoulder_pan_joint": 0.25362521057148124,
        "distance_wrist_1_joint": 2.983402046186127,
        "distance_wrist_2_joint": 2.700318877999038,
        "distance_wrist_3_joint": 3.1441922535822666,
        "smoothness": 0.040607588026066205,
        "time": 0.277659149,
        "traj_len": 3.1447477571288167,
        "weighted_distance": 4.675632993223101
    },
    "planner": "BKPIECE",
    "start": {
        "state": {
            "elbow_joint": 1.664937868594044,
            "shoulder_lift_joint": -0.661644460510453,
            "shoulder_pan_joint": -0.9139846352900073,
            "wrist_1_joint": 2.146753192139373,
            "wrist_2_joint": -2.2341966793290973,
            "wrist_3_joint": 0.005466555786416001
        }
    },
    "waypoints": [
        {
            "positions": [
                -0.9139846352900073,
                -0.661644460510453,
                1.664937868594044,
                2.146753192139373,
                -2.2341966793290973,
                0.005466555786416001
            ]
        },
        {
            "positions": [
                -0.89600078827793,
                -0.6828111773236692,
                1.688880737228022,
                2.1032442435632963,
                -2.1713805142312093,
                -0.026357162078577655
            ]
        },
        {
            "positions": [
                -0.8780169412658527,
                -0.7039778941368855,
                1.7128236058619999,
                2.0597352949872194,
                -2.1085643491333212,
                -0.0581808799435713
            ]
        },
        {
            "positions": [
                -0.8870860044553247,
                -0.7213022605255291,
                1.7254026101705822,
                1.939052622110804,
                -2.001285742974852,
                -0.18653691402074957
            ]
        },
        {
            "positions": [
                -0.8961550676447966,
                -0.7386266269141728,
                1.7379816144791644,
                1.8183699492343883,
                -1.8940071368163827,
                -0.31489294809792784
            ]
        },
        {
            "positions": [
                -0.9052241308342686,
                -0.7559509933028165,
                1.7505606187877467,
                1.6976872763579727,
                -1.7867285306579135,
                -0.44324898217510617
            ]
        },
        {
            "positions": [
                -0.9142931940237405,
                -0.7732753596914601,
                1.763139623096329,
                1.5770046034815572,
                -1.6794499244994443,
                -0.5716050162522844
            ]
        },
        {
            "positions": [
                -0.9233622572132124,
                -0.7905997260801039,
                1.7757186274049113,
                1.4563219306051418,
                -1.572171318340975,
                -0.6999610503294629
            ]
        },
        {
            "positions": [
                -0.9324313204026844,
                -0.8079240924687474,
                1.7882976317134935,
                1.3356392577287262,
                -1.4648927121825057,
                -0.8283170844066411
            ]
        },
        {
            "positions": [
                -0.9415003835921564,
                -0.8252484588573912,
                1.800876636022076,
                1.2149565848523105,
                -1.3576141060240365,
                -0.9566731184838194
            ]
        },
        {
            "positions": [
                -0.9505694467816282,
                -0.8425728252460347,
                1.8134556403306583,
                1.094273911975895,
                -1.2503354998655674,
                -1.0850291525609974
            ]
        },
        {
            "positions": [
                -0.9596385099711002,
                -0.8598971916346785,
                1.8260346446392406,
                0.9735912390994796,
                -1.143056893707098,
                -1.213385186638176
            ]
        },
        {
            "positions": [
                -0.9687075731605722,
                -0.8772215580233221,
                1.8386136489478229,
                0.852908566223064,
                -1.0357782875486286,
                -1.3417412207153543
            ]
        },
        {
            "positions": [
                -0.9777766363500441,
                -0.8945459244119658,
                1.8511926532564051,
                0.7322258933466486,
                -0.9284996813901596,
                -1.4700972547925324
            ]
        },
        {
            "positions": [
                -0.9868456995395161,
                -0.9118702908006094,
                1.8637716575649874,
                0.6115432204702329,
                -0.8212210752316902,
                -1.5984532888697107
            ]
        },
        {
            "positions": [
                -0.995914762728988,
                -0.9291946571892531,
                1.8763506618735697,
                0.4908605475938175,
                -0.713942469073221,
                -1.7268093229468888
            ]
        },
        {
            "positions": [
                -1.00498382591846,
                -0.9465190235778967,
                1.888929666182152,
                0.3701778747174018,
                -0.6066638629147516,
                -1.8551653570240674
            ]
        },
        {
            "positions": [
                -1.014052889107932,
                -0.9638433899665404,
                1.9015086704907342,
                0.24949520184098617,
                -0.4993852567562824,
                -1.9835213911012455
            ]
        },
        {
            "positions": [
                -1.0231219522974038,
                -0.981167756355184,
                1.9140876747993165,
                0.12881252896457074,
                -0.39210665059781324,
                -2.111877425178424
            ]
        },
        {
            "positions": [
                -1.0321910154868759,
                -0.9984921227438277,
                1.9266666791078988,
                0.008129856088155307,
                -0.28482804443934384,
                -2.2402334592556024
            ]
        },
        {
            "positions": [
                -1.0412600786763477,
                -1.0158164891324715,
                1.9392456834164813,
                -0.11255281678826012,
                -0.17754943828087466,
                -2.368589493332781
            ]
        },
        {
            "positions": [
                -1.0503291418658196,
                -1.033140855521115,
                1.9518246877250633,
                -0.233235489664676,
                -0.07027083212240548,
                -2.496945527409959
            ]
        },
        {
            "positions": [
                -1.0593982050552917,
                -1.0504652219097588,
                1.9644036920336458,
                -0.35391816254109143,
                0.037007774036064145,
                -2.6253015614871376
            ]
        },
        {
            "positions": [
                -1.0684672682447636,
                -1.0677895882984023,
                1.9769826963422281,
                -0.47460083541750686,
                0.14428638019453333,
                -2.7536575955643157
            ]
        },
        {
            "positions": [
                -1.0775363314342354,
                -1.085113954687046,
                1.9895617006508104,
                -0.5952835082939223,
                0.25156498635300206,
                -2.8820136296414938
            ]
        },
        {
            "positions": [
                -1.0866053946237075,
                -1.1024383210756898,
                2.002140704959393,
                -0.7159661811703382,
                0.3588435925114717,
                -3.0103696637186723
            ]
        },
        {
            "positions": [
                -1.0956744578131794,
                -1.1197626874643334,
                2.014719709267975,
                -0.8366488540467535,
                0.466122198669941,
                -3.1387256977958504
            ]
        }
    ]
}