{
    "goal": {
        "global_pose": {
            "orientation": {
                "w": 0.5084816262002911,
                "x": -0.4908360881923452,
                "y": 0.5182115481033761,
                "z": -0.48164630358495003
            },
            "position": {
                "x": 0.5540239810943604,
                "y": -0.46912469901144505,
                "z": 0.16403168439865112
            }
        },
        "name": "move_to_storage_B"
    },
    "id": "BKPIECE_move_to_storage_B_1",
    "joint_names": [
        "shoulder_pan_joint",
        "shoulder_lift_joint",
        "elbow_joint",
        "wrist_1_joint",
        "wrist_2_joint",
        "wrist_3_joint"
    ],
    "metrics": {
        "cart_traj_len": 0.7791014290788978,
        "distance_elbow_joint": 0.7506682996513176,
        "distance_shoulder_lift_joint": 0.4634047983700891,
        "distance_shoulder_pan_joint": 0.5202558730717114,
        "distance_wrist_1_joint": 3.0233380860930996,
        "distance_wrist_2_joint": 2.7146507679980054,
        "distance_wrist_3_joint": 3.1121928736382394,
        "smoothness": 0.11787445468947762,
        "time": 0.32574048699999997,
        "traj_len": 3.2533844990751497,
        "weighted_distance": 4.7483560629116734
    },
    "planner": "BKPIECE",
    "start": {
        "state": {
            "elbow_joint": 1.664937868594044,
            "shoulder_lift_joint": -0.661644460510453,
            "shoulder_pan_joint": -0.9139846352900073,
            "wrist_1_joint": 2.146753192139373,
            "wrist_2_joint": -2.2341966793290973,
            "wrist_3_joint": 0.005466555786416001
        }
    },
    "waypoints": [
        {
            "positions": [
                -0.9139846352900073,
                -0.661644460510453,
                1.664937868594044,
                2.146753192139373,
                -2.2341966793290973,
                0.005466555786416001
            ]
        },
        {
            "positions": [
                -0.8290186253122607,
                -0.6616153860913628,
                1.5672127945155159,
                2.140601499456656,
                -2.158222963483592,
                -0.0225983581794562
            ]
        },
        {
            "positions": [
                -0.7440526153345142,
                -0.6615863116722727,
                1.4694877204369878,
                2.134449806773939,
                -2.082249247638087,
                -0.0506632721453284
            ]
        },
        {
            "positions": [
                -0.757526609685138,
                -0.6794073366542691,
                1.4908422647252286,
                2.0186407798228747,
                -1.9836837347032026,
                -0.1682041585186551
            ]
        },
        {
            "positions": [
                -0.7710006040357618,
                -0.6972283616362657,
                1.5121968090134694,
                1.9028317528718106,
                -1.885118221768318,
                -0.2857450448919818
            ]
        },
        {
            "positions": [
                -0.7844745983863856,
                -0.7150493866182621,
                1.5335513533017102,
                1.7870227259207465,
                -1.7865527088334336,
                -0.40328593126530854
            ]
        },
        {
            "positions": [
                -0.7979485927370092,
                -0.7328704116002587,
                1.5549058975899512,
                1.6712136989696824,
                -1.6879871958985493,
                -0.5208268176386353
            ]
        },
        {
            "positions": [
                -0.811422587087633,
                -0.7506914365822551,
                1.576260441878192,
                1.5554046720186183,
                -1.5894216829636647,
                -0.638367704011962
            ]
        },
        {
            "positions": [
                -0.8248965814382568,
                -0.7685124615642516,
                1.5976149861664328,
                1.4395956450675542,
                -1.4908561700287803,
                -0.7559085903852887
            ]
        },
        {
            "positions": [
                -0.8383705757888806,
                -0.7863334865462481,
                1.6189695304546736,
                1.3237866181164906,
                -1.392290657093896,
                -0.8734494767586154
            ]
        },
        {
            "positions": [
                -0.8518445701395044,
                -0.8041545115282446,
                1.6403240747429144,
                1.2079775911654262,
                -1.2937251441590116,
                -0.9909903631319421
            ]
        },
        {
            "positions": [
                -0.8653185644901282,
                -0.821975536510241,
                1.6616786190311552,
                1.0921685642143624,
                -1.195159631224127,
                -1.1085312495052688
            ]
        },
        {
            "positions": [
                -0.8787925588407519,
                -0.8397965614922376,
                1.6830331633193962,
                0.976359537263298,
                -1.0965941182892425,
                -1.2260721358785955
            ]
        },
        {
            "positions": [
                -0.8922665531913757,
                -0.857617586474234,
                1.704387707607637,
                0.8605505103122342,
                -0.9980286053543583,
                -1.3436130222519223
            ]
        },
        {
            "positions": [
                -0.9057405475419995,
                -0.8754386114562306,
                1.7257422518958778,
                0.7447414833611699,
                -0.8994630924194738,
                -1.461153908625249
            ]
        },
        {
            "positions": [
                -0.9192145418926233,
                -0.893259636438227,
                1.7470967961841186,
                0.628932456410106,
                -0.8008975794845894,
                -1.5786947949985757
            ]
        },
        {
            "positions": [
                -0.9326885362432471,
                -0.9110806614202235,
                1.7684513404723594,
                0.5131234294590421,
                -0.702332066549705,
                -1.6962356813719024
            ]
        },
        {
            "positions": [
                -0.9461625305938708,
                -0.9289016864022199,
                1.7898058847606002,
                0.397314402507978,
                -0.6037665536148207,
                -1.8137765677452289
            ]
        },
        {
            "positions": [
                -0.9596365249444947,
                -0.9467227113842165,
                1.811160429048841,
                0.2815053755569137,
                -0.5052010406799361,
                -1.9313174541185558
            ]
        },
        {
            "positions": [
                -0.9731105192951184,
                -0.964543736366213,
                1.832514973337082,
                0.16569634860584959,
                -0.40663552774505174,
                -2.0488583404918828
            ]
        },
        {
            "positions": [
                -0.9865845136457422,
                -0.9823647613482095,
                1.8538695176253228,
                0.04988732165478593,
                -0.3080700148101674,
                -2.1663992268652095
            ]
        },
        {
            "positions": [
                -1.000058507996366,
                -1.000185786330206,
                1.8752240619135636,
                -0.06592170529627817,
                -0.20950450187528302,
                -2.283940113238536
            ]
        },
        {
            "positions": [
                -1.0135325023469899,
                -1.0180068113122025,
                1.8965786062018044,
                -0.1817307322473427,
                -0.11093898894039822,
                -2.401480999611863
            ]
        },
        {
            "positions": [
                -1.0270064966976136,
                -1.035827836294199,
                1.9179331504900452,
                -0.2975397591984068,
                -0.012373476005513862,
                -2.5190218859851896
            ]
        },
        {
            "positions": [
                -1.0404804910482373,
                -1.0536488612761954,
                1.939287694778286,
                -0.41334878614947046,
                0.08619203692937027,
                -2.6365627723585163
            ]
        },
        {
            "positions": [
                -1.0539544853988612,
                -1.071469886258192,
                1.960642239066527,
                -0.5291578131005346,
                0.18475754986425486,
                -2.754103658731843
            ]
        },
        {
            "positions": [
                -1.0674284797494848,
                -1.0892909112401885,
                1.9819967833547678,
                -0.6449668400515991,
                0.28332306279913944,
                -2.8716445451051698
            ]
        },
        {
            "positions": [
                -1.0809024741001085,
                -1.1071119362221848,
                2.0033513276430086,
                -0.7607758670026628,
                0.38188857573402357,
                -2.9891854314784965
            ]
        },
        {
            "positions": [
                -1.0943764684507324,
                -1.1249329612041814,
                2.0247058719312494,
                -0.8765848939537266,
                0.4804540886689081,
                -3.106726317851823
            ]
        }
    ]
}