{
    "goal": {
        "global_pose": {
            "orientation": {
                "w": 0.5084816217422485,
                "x": -0.49083608388900757,
                "y": 0.5182115435600281,
                "z": -0.4816462993621826
            },
            "position": {
                "x": 0.5540239810943604,
                "y": 0.030875300988554955,
                "z": 0.16403168439865112
            }
        },
        "name": "move_to_storage_A"
    },
    "id": "BKPIECE_move_to_storage_A_42",
    "joint_names": [
        "shoulder_pan_joint",
        "shoulder_lift_joint",
        "elbow_joint",
        "wrist_1_joint",
        "wrist_2_joint",
        "wrist_3_joint"
    ],
    "metrics": {
        "cart_traj_len": 0.3536825655718774,
        "distance_elbow_joint": 0.45124753964255215,
        "distance_shoulder_lift_joint": 0.23365247432008407,
        "distance_shoulder_pan_joint": 0.4634502084338707,
        "distance_wrist_1_joint": 0.2477613557044448,
        "distance_wrist_2_joint": 1.0957241569044374,
        "distance_wrist_3_joint": 0.10713720909873015,
        "smoothness": 6.661338165333112e-16,
        "time": 0.151254846,
        "traj_len": 1.6121330416885944,
        "weighted_distance": 2.0388067281894235
    },
    "planner": "BKPIECE",
    "start": {
        "state": {
            "elbow_joint": 1.971548259319323,
            "shoulder_lift_joint": -1.1394851275133948,
            "shoulder_pan_joint": 0.1228115487234821,
            "wrist_1_joint": -0.7804723859257726,
            "wrist_2_joint": 0.12958671773740124,
            "wrist_3_joint": -3.192489227718131
        }
    },
    "waypoints": [
        {
            "positions": [
                0.1228115487234821,
                -1.1394851275133948,
                1.971548259319323,
                -0.7804723859257726,
                0.12958671773740124,
                -3.192489227718131
            ]
        },
        {
            "positions": [
                0.056604376090072,
                -1.172864052416264,
                2.0360121935539732,
                -0.8158668653121218,
                0.28611874015232086,
                -3.177183912132598
            ]
        },
        {
            "positions": [
                -0.009602796543338094,
                -1.2062429773191332,
                2.1004761277886237,
                -0.8512613446984711,
                0.44265076256724045,
                -3.1618785965470653
            ]
        },
        {
            "positions": [
                -0.07580996917674818,
                -1.2396219022220023,
                2.1649400620232737,
                -0.8866558240848204,
                0.59918278498216,
                -3.1465732809615323
            ]
        },
        {
            "positions": [
                -0.1420171418101583,
                -1.2730008271248714,
                2.229403996257924,
                -0.9220503034711697,
                0.7557148073970797,
                -3.131267965376
            ]
        },
        {
            "positions": [
                -0.20822431444356843,
                -1.3063797520277407,
                2.2938679304925746,
                -0.9574447828575189,
                0.9122468298119994,
                -3.115962649790467
            ]
        },
        {
            "positions": [
                -0.27443148707697845,
                -1.3397586769306098,
                2.3583318647272247,
                -0.9928392622438682,
                1.0687788522269188,
                -3.100657334204934
            ]
        },
        {
            "positions": [
                -0.3406386597103886,
                -1.3731376018334789,
                2.422795798961875,
                -1.0282337416302174,
                1.2253108746418386,
                -3.085352018619401
            ]
        }
    ]
}{
    "goal": {
        "global_pose": {
            "orientation": {
                "w": 0.5084816217422485,
                "x": -0.49083608388900757,
                "y": 0.5182115435600281,
                "z": -0.4816462993621826
            },
            "position": {
                "x": 0.5540239810943604,
                "y": 0.030875300988554955,
                "z": 0.16403168439865112
            }
        },
        "name": "move_to_storage_A"
    },
    "id": "BKPIECE_move_to_storage_A_42",
    "joint_names": [
        "shoulder_pan_joint",
        "shoulder_lift_joint",
        "elbow_joint",
        "wrist_1_joint",
        "wrist_2_joint",
        "wrist_3_joint"
    ],
    "metrics": {
        "cart_traj_len": 0.35247644130404826,
        "distance_elbow_joint": 0.4483541051170654,
        "distance_shoulder_lift_joint": 0.2360008375202729,
        "distance_shoulder_pan_joint": 0.4597858423991248,
        "distance_wrist_1_joint": 0.23358312185098495,
        "distance_wrist_2_joint": 1.103185032587922,
        "distance_wrist_3_joint": 0.10275578725386181,
        "smoothness": 0.0,
        "time": 0.259665991,
        "traj_len": 1.6073782152092368,
        "weighted_distance": 2.031242096766376
    },
    "planner": "BKPIECE",
    "start": {
        "state": {
            "elbow_joint": 1.97154746011099,
            "shoulder_lift_joint": -1.13948474672311,
            "shoulder_pan_joint": 0.12281154466712228,
            "wrist_1_joint": -0.7804688027058302,
            "wrist_2_joint": 0.12958655903071145,
            "wrist_3_joint": 3.0906928834467795
        }
    },
    "waypoints": [
        {
            "positions": [
                0.12281154466712228,
                -1.13948474672311,
                1.97154746011099,
                -0.7804688027058302,
                0.12958655903071145,
                3.0906928834467795
            ]
        },
        {
            "positions": [
                0.057127852895818745,
                -1.1731991520831488,
                2.035598046556285,
                -0.8138378201131138,
                0.287184420828986,
                3.1053722816259026
            ]
        },
        {
            "positions": [
                -0.008555838875484792,
                -1.206913557443188,
                2.0996486330015802,
                -0.8472068375203973,
                0.4447822826272606,
                3.1200516798050257
            ]
        },
        {
            "positions": [
                -0.07423953064678833,
                -1.2406279628032268,
                2.163699219446875,
                -0.8805758549276809,
                0.6023801444255351,
                3.134731077984149
            ]
        },
        {
            "positions": [
                -0.13992322241809185,
                -1.274342368163266,
                2.22774980589217,
                -0.9139448723349645,
                0.7599780062238097,
                3.149410476163272
            ]
        },
        {
            "positions": [
                -0.20560691418939542,
                -1.3080567735233048,
                2.291800392337465,
                -0.947313889742248,
                0.9175758680220844,
                3.164089874342395
            ]
        },
        {
            "positions": [
                -0.2712906059606989,
                -1.3417711788833437,
                2.3558509787827604,
                -0.9806829071495315,
                1.0751737298203587,
                3.178769272521518
            ]
        },
        {
            "positions": [
                -0.3369742977320025,
                -1.3754855842433829,
                2.4199015652280553,
                -1.0140519245568151,
                1.2327715916186335,
                3.1934486707006413
            ]
        }
    ]
}{
    "goal": {
        "global_pose": {
            "orientation": {
                "w": 0.5084816217422485,
                "x": -0.49083608388900757,
                "y": 0.5182115435600281,
                "z": -0.4816462993621826
            },
            "position": {
                "x": 0.5540239810943604,
                "y": 0.030875300988554955,
                "z": 0.16403168439865112
            }
        },
        "name": "move_to_storage_A"
    },
    "id": "BKPIECE_move_to_storage_A_42",
    "joint_names": [
        "shoulder_pan_joint",
        "shoulder_lift_joint",
        "elbow_joint",
        "wrist_1_joint",
        "wrist_2_joint",
        "wrist_3_joint"
    ],
    "metrics": {
        "cart_traj_len": 0.35298541714142223,
        "distance_elbow_joint": 0.45200175140886945,
        "distance_shoulder_lift_joint": 0.23358277706351838,
        "distance_shoulder_pan_joint": 0.46115341004105675,
        "distance_wrist_1_joint": 0.24844742182655288,
        "distance_wrist_2_joint": 1.1006974484493581,
        "distance_wrist_3_joint": 0.10529414346829569,
        "smoothness": 2.2204460668324854e-16,
        "time": 0.397985231,
        "traj_len": 1.6128164657696336,
        "weighted_distance": 2.0398309021755097
    },
    "planner": "BKPIECE",
    "start": {
        "state": {
            "elbow_joint": 1.9715472970024885,
            "shoulder_lift_joint": -1.1394870060712896,
            "shoulder_pan_joint": 0.12281152778156021,
            "wrist_1_joint": -0.780463741449964,
            "wrist_2_joint": 0.12958659822042276,
            "wrist_3_joint": 3.090690232415272
        }
    },
    "waypoints": [
        {
            "positions": [
                0.12281152778156021,
                -1.1394870060712896,
                1.9715472970024885,
                -0.780463741449964,
                0.12958659822042276,
                3.090690232415272
            ]
        },
        {
            "positions": [
                0.056932469204266395,
                -1.1728559742232207,
                2.0361189757751843,
                -0.8159562302823287,
                0.28682909085604535,
                3.1057322529107427
            ]
        },
        {
            "positions": [
                -0.00894658937302742,
                -1.206224942375152,
                2.1006906545478796,
                -0.8514487191146933,
                0.444071583491668,
                3.1207742734062136
            ]
        },
        {
            "positions": [
                -0.07482564795032123,
                -1.2395939105270832,
                2.1652623333205754,
                -0.8869412079470581,
                0.6013140761272905,
                3.1358162939016845
            ]
        },
        {
            "positions": [
                -0.14070470652761505,
                -1.2729628786790144,
                2.229834012093271,
                -0.9224336967794228,
                0.7585565687629131,
                3.150858314397155
            ]
        },
        {
            "positions": [
                -0.20658376510490886,
                -1.3063318468309455,
                2.294405690865967,
                -0.9579261856117876,
                0.9157990613985357,
                3.165900334892626
            ]
        },
        {
            "positions": [
                -0.27246282368220265,
                -1.3397008149828769,
                2.3589773696386622,
                -0.9934186744441522,
                1.0730415540341582,
                3.1809423553880967
            ]
        },
        {
            "positions": [
                -0.3383418822594965,
                -1.373069783134808,
                2.423549048411358,
                -1.0289111632765169,
                1.2302840466697809,
                3.1959843758835675
            ]
        }
    ]
}