{
    "goal": {
        "global_pose": {
            "orientation": {
                "w": 0.5084816217422485,
                "x": -0.49083608388900757,
                "y": 0.5182115435600281,
                "z": -0.4816462993621826
            },
            "position": {
                "x": 0.5540239810943604,
                "y": 0.030875300988554955,
                "z": 0.16403168439865112
            }
        },
        "name": "move_to_storage_A"
    },
    "id": "BKPIECE_move_to_storage_A_92",
    "joint_names": [
        "shoulder_pan_joint",
        "shoulder_lift_joint",
        "elbow_joint",
        "wrist_1_joint",
        "wrist_2_joint",
        "wrist_3_joint"
    ],
    "metrics": {
        "cart_traj_len": 0.3532276431552157,
        "distance_elbow_joint": 0.4463804774345277,
        "distance_shoulder_lift_joint": 0.23423331222530508,
        "distance_shoulder_pan_joint": 0.4599116321032612,
        "distance_wrist_1_joint": 0.23305533178491544,
        "distance_wrist_2_joint": 1.1067106325027072,
        "distance_wrist_3_joint": 0.09874415508532275,
        "smoothness": 8.881784213138256e-16,
        "time": 0.22782300100000002,
        "traj_len": 1.605937589427447,
        "weighted_distance": 2.028864168837901
    },
    "planner": "BKPIECE",
    "start": {
        "state": {
            "elbow_joint": 1.971548259319323,
            "shoulder_lift_joint": -1.1394851275133948,
            "shoulder_pan_joint": 0.1228115487234821,
            "wrist_1_joint": -0.7804723859257726,
            "wrist_2_joint": 0.12958671773740124,
            "wrist_3_joint": -3.192489227718131
        }
    },
    "waypoints": [
        {
            "positions": [
                0.1228115487234821,
                -1.1394851275133948,
                1.971548259319323,
                -0.7804723859257726,
                0.12958671773740124,
                -3.192489227718131
            ]
        },
        {
            "positions": [
                0.05710988699444479,
                -1.172947029259867,
                2.0353168989528267,
                -0.8137660047521891,
                0.2876882366663594,
                -3.1783829198487994
            ]
        },
        {
            "positions": [
                -0.008591774734592522,
                -1.206408931006339,
                2.0990855385863307,
                -0.8470596235786056,
                0.4457897555953175,
                -3.1642766119794676
            ]
        },
        {
            "positions": [
                -0.07429343646362982,
                -1.2398708327528112,
                2.1628541782198347,
                -0.8803532424050221,
                0.6038912745242757,
                -3.150170304110136
            ]
        },
        {
            "positions": [
                -0.13999509819266714,
                -1.2733327344992835,
                2.2266228178533387,
                -0.9136468612314386,
                0.7619927934532339,
                -3.1360639962408037
            ]
        },
        {
            "positions": [
                -0.2056967599217045,
                -1.3067946362457556,
                2.2903914574868427,
                -0.9469404800578551,
                0.9200943123821921,
                -3.121957688371472
            ]
        },
        {
            "positions": [
                -0.27139842165074174,
                -1.3402565379922278,
                2.3541600971203467,
                -0.9802340988842715,
                1.0781958313111502,
                -3.10785138050214
            ]
        },
        {
            "positions": [
                -0.3371000833797791,
                -1.3737184397387,
                2.4179287367538507,
                -1.013527717710688,
                1.2362973502401085,
                -3.0937450726328084
            ]
        }
    ]
}{
    "goal": {
        "global_pose": {
            "orientation": {
                "w": 0.5084816217422485,
                "x": -0.49083608388900757,
                "y": 0.5182115435600281,
                "z": -0.4816462993621826
            },
            "position": {
                "x": 0.5540239810943604,
                "y": 0.030875300988554955,
                "z": 0.16403168439865112
            }
        },
        "name": "move_to_storage_A"
    },
    "id": "BKPIECE_move_to_storage_A_92",
    "joint_names": [
        "shoulder_pan_joint",
        "shoulder_lift_joint",
        "elbow_joint",
        "wrist_1_joint",
        "wrist_2_joint",
        "wrist_3_joint"
    ],
    "metrics": {
        "cart_traj_len": 0.35221935714327907,
        "distance_elbow_joint": 0.4484729208317946,
        "distance_shoulder_lift_joint": 0.23405783670263047,
        "distance_shoulder_pan_joint": 0.4583304291357754,
        "distance_wrist_1_joint": 0.2384147967947634,
        "distance_wrist_2_joint": 1.1064591582704453,
        "distance_wrist_3_joint": 0.0893577639417229,
        "smoothness": 1.5543122362334363e-15,
        "time": 0.153012001,
        "traj_len": 1.6047096016654017,
        "weighted_distance": 2.02452028604946
    },
    "planner": "BKPIECE",
    "start": {
        "state": {
            "elbow_joint": 1.97154746011099,
            "shoulder_lift_joint": -1.13948474672311,
            "shoulder_pan_joint": 0.12281154466712228,
            "wrist_1_joint": -0.7804688027058302,
            "wrist_2_joint": 0.12958655903071145,
            "wrist_3_joint": 3.0906928834467795
        }
    },
    "waypoints": [
        {
            "positions": [
                0.12281154466712228,
                -1.13948474672311,
                1.97154746011099,
                -0.7804688027058302,
                0.12958655903071145,
                3.0906928834467795
            ]
        },
        {
            "positions": [
                0.05733576907629723,
                -1.1729215805377715,
                2.0356150202298178,
                -0.8145280593907964,
                0.2876521530693465,
                3.103458278295597
            ]
        },
        {
            "positions": [
                -0.008140006514527828,
                -1.2063584143524329,
                2.0996825803486456,
                -0.8485873160757625,
                0.4457177471079815,
                3.1162236731444146
            ]
        },
        {
            "positions": [
                -0.07361578210535287,
                -1.2397952481670944,
                2.1637501404674735,
                -0.8826465727607288,
                0.6037833411466166,
                3.128989067993232
            ]
        },
        {
            "positions": [
                -0.13909155769617793,
                -1.273232081981756,
                2.227817700586301,
                -0.916705829445695,
                0.7618489351852517,
                3.1417544628420497
            ]
        },
        {
            "positions": [
                -0.204567333287003,
                -1.3066689157964175,
                2.2918852607051288,
                -0.9507650861306611,
                0.9199145292238867,
                3.1545198576908673
            ]
        },
        {
            "positions": [
                -0.270043108877828,
                -1.3401057496110789,
                2.3559528208239566,
                -0.9848243428156274,
                1.0779801232625217,
                3.167285252539685
            ]
        },
        {
            "positions": [
                -0.3355188844686531,
                -1.3735425834257404,
                2.4200203809427845,
                -1.0188835995005936,
                1.2360457173011568,
                3.1800506473885024
            ]
        }
    ]
}{
    "goal": {
        "global_pose": {
            "orientation": {
                "w": 0.5084816217422485,
                "x": -0.49083608388900757,
                "y": 0.5182115435600281,
                "z": -0.4816462993621826
            },
            "position": {
                "x": 0.5540239810943604,
                "y": 0.030875300988554955,
                "z": 0.16403168439865112
            }
        },
        "name": "move_to_storage_A"
    },
    "id": "BKPIECE_move_to_storage_A_92",
    "joint_names": [
        "shoulder_pan_joint",
        "shoulder_lift_joint",
        "elbow_joint",
        "wrist_1_joint",
        "wrist_2_joint",
        "wrist_3_joint"
    ],
    "metrics": {
        "cart_traj_len": 0.3529539636081918,
        "distance_elbow_joint": 0.4494704508986236,
        "distance_shoulder_lift_joint": 0.23721659126151962,
        "distance_shoulder_pan_joint": 0.46276540829561824,
        "distance_wrist_1_joint": 0.23394733416317703,
        "distance_wrist_2_joint": 1.094864180775473,
        "distance_wrist_3_joint": 0.08834421662854819,
        "smoothness": 6.661338165333112e-16,
        "time": 0.19495331800000001,
        "traj_len": 1.6020637259556687,
        "weighted_distance": 2.0179465132204832
    },
    "planner": "BKPIECE",
    "start": {
        "state": {
            "elbow_joint": 1.9715472970024885,
            "shoulder_lift_joint": -1.1394870060712896,
            "shoulder_pan_joint": 0.12281152778156021,
            "wrist_1_joint": -0.780463741449964,
            "wrist_2_joint": 0.12958659822042276,
            "wrist_3_joint": 3.090690232415272
        }
    },
    "waypoints": [
        {
            "positions": [
                0.12281152778156021,
                -1.1394870060712896,
                1.9715472970024885,
                -0.780463741449964,
                0.12958659822042276,
                3.090690232415272
            ]
        },
        {
            "positions": [
                0.056702183739329046,
                -1.1733750905372209,
                2.035757361416578,
                -0.8138847891875607,
                0.2859957669026332,
                3.1033108347907787
            ]
        },
        {
            "positions": [
                -0.009407160302902118,
                -1.2072631750031524,
                2.0999674258306666,
                -0.8473058369251574,
                0.4424049355848436,
                3.1159314371662856
            ]
        },
        {
            "positions": [
                -0.0755165043451333,
                -1.2411512594690837,
                2.164177490244756,
                -0.8807268846627542,
                0.5988141042670541,
                3.1285520395417925
            ]
        },
        {
            "positions": [
                -0.14162584838736444,
                -1.2750393439350152,
                2.2283875546588447,
                -0.9141479324003509,
                0.7552232729492645,
                3.1411726419172994
            ]
        },
        {
            "positions": [
                -0.20773519242959562,
                -1.3089274284009464,
                2.292597619072934,
                -0.9475689801379477,
                0.9116324416314749,
                3.1537932442928063
            ]
        },
        {
            "positions": [
                -0.2738445364718268,
                -1.3428155128668777,
                2.356807683487023,
                -0.9809900278755443,
                1.0680416103136854,
                3.166413846668313
            ]
        },
        {
            "positions": [
                -0.339953880514058,
                -1.3767035973328092,
                2.421017747901112,
                -1.014411075613141,
                1.2244507789958958,
                3.17903444904382
            ]
        }
    ]
}