{
    "goal": {
        "global_pose": {
            "orientation": {
                "w": 0.005598929693374612,
                "x": 0.007748599140229565,
                "y": 0.7110244013736278,
                "z": -0.7031023480610252
            },
            "position": {
                "x": 0.1141497679147869,
                "y": -0.7141253447532654,
                "z": 0.3711530566215515
            }
        },
        "name": "move_to_auspresseinheit_B"
    },
    "id": "BKPIECE_move_to_auspresseinheit_B_136",
    "joint_names": [
        "shoulder_pan_joint",
        "shoulder_lift_joint",
        "elbow_joint",
        "wrist_1_joint",
        "wrist_2_joint",
        "wrist_3_joint"
    ],
    "metrics": {
        "cart_traj_len": 0.5652924826757609,
        "distance_elbow_joint": 0.06649425759590688,
        "distance_shoulder_lift_joint": 0.2937653523995303,
        "distance_shoulder_pan_joint": 0.577400989467262,
        "distance_wrist_1_joint": 0.3379075850000707,
        "distance_wrist_2_joint": 0.9929470201348054,
        "distance_wrist_3_joint": 0.0031055918533797744,
        "smoothness": 3.806478935924272e-16,
        "time": 0.18104046299999998,
        "traj_len": 1.5071897015475375,
        "weighted_distance": 1.8996543331071027
    },
    "planner": "BKPIECE",
    "start": {
        "state": {
            "elbow_joint": 2.0193083361928714,
            "shoulder_lift_joint": -1.1220246554650708,
            "shoulder_pan_joint": -1.0952077554168747,
            "wrist_1_joint": -0.8559753972642168,
            "wrist_2_joint": 0.4759566250798843,
            "wrist_3_joint": -3.1240929996934557
        }
    },
    "waypoints": [
        {
            "positions": [
                -1.0952077554168747,
                -1.1220246554650708,
                2.0193083361928714,
                -0.8559753972642168,
                0.4759566250798843,
                -3.1240929996934557
            ]
        },
        {
            "positions": [
                -1.1914412536614183,
                -1.170985547531659,
                2.008225959926887,
                -0.7996574664308717,
                0.6414477951023518,
                -3.1235754010512258
            ]
        },
        {
            "positions": [
                -1.287674751905962,
                -1.2199464395982476,
                1.9971435836609024,
                -0.7433395355975265,
                0.8069389651248193,
                -3.123057802408996
            ]
        },
        {
            "positions": [
                -1.3839082501505056,
                -1.268907331664836,
                1.986061207394918,
                -0.6870216047641815,
                0.972430135147287,
                -3.122540203766766
            ]
        },
        {
            "positions": [
                -1.4801417483950492,
                -1.3178682237314243,
                1.9749788311289336,
                -0.6307036739308364,
                1.1379213051697545,
                -3.1220226051245357
            ]
        },
        {
            "positions": [
                -1.576375246639593,
                -1.3668291157980126,
                1.963896454862949,
                -0.5743857430974912,
                1.3034124751922223,
                -3.1215050064823058
            ]
        },
        {
            "positions": [
                -1.6726087448841367,
                -1.415790007864601,
                1.9528140785969645,
                -0.5180678122641461,
                1.4689036452146897,
                -3.120987407840076
            ]
        }
    ]
}