{
    "goal": {
        "global_pose": {
            "orientation": {
                "w": 0.7031023502349854,
                "x": -0.7110244035720825,
                "y": 0.007748599164187908,
                "z": 0.005598929710686207
            },
            "position": {
                "x": 0.11585023208521307,
                "y": 0.44412534475326537,
                "z": 0.3711530566215515
            }
        },
        "name": "move_to_auspresseinheit_A"
    },
    "id": "BKPIECE_move_to_auspresseinheit_A_57",
    "joint_names": [
        "shoulder_pan_joint",
        "shoulder_lift_joint",
        "elbow_joint",
        "wrist_1_joint",
        "wrist_2_joint",
        "wrist_3_joint"
    ],
    "metrics": {
        "cart_traj_len": 1.9324164396307406,
        "distance_elbow_joint": 1.929783162011014,
        "distance_shoulder_lift_joint": 0.9950894285793623,
        "distance_shoulder_pan_joint": 1.6355066511344056,
        "distance_wrist_1_joint": 1.4607721092593349,
        "distance_wrist_2_joint": 1.0210823475730435,
        "distance_wrist_3_joint": 3.003590276762257,
        "smoothness": 0.5444672015994365,
        "time": 0.255382622,
        "traj_len": 3.1695147854710215,
        "weighted_distance": 4.305213001197073
    },
    "planner": "BKPIECE",
    "start": {
        "state": {
            "elbow_joint": 2.4225746658250005,
            "shoulder_lift_joint": -1.3736534386056498,
            "shoulder_pan_joint": -0.3378633547517467,
            "wrist_1_joint": -1.0288598680537169,
            "wrist_2_joint": 1.233022673432363,
            "wrist_3_joint": -3.0940220416140027
        }
    },
    "waypoints": [
        {
            "positions": [
                -0.3378633547517467,
                -1.3736534386056498,
                2.4225746658250005,
                -1.0288598680537169,
                1.233022673432363,
                -3.0940220416140027
            ]
        },
        {
            "positions": [
                -0.3004847487404332,
                -1.3966637187801703,
                2.3408356384317823,
                -0.9628041917296305,
                1.1862659815179148,
                -2.974798722892069
            ]
        },
        {
            "positions": [
                -0.2631061427291197,
                -1.4196739989546905,
                2.259096611038564,
                -0.8967485154055441,
                1.1395092896034664,
                -2.8555754041701356
            ]
        },
        {
            "positions": [
                -0.22572753671780615,
                -1.442684279129211,
                2.1773575836453456,
                -0.8306928390814576,
                1.0927525976890182,
                -2.736352085448202
            ]
        },
        {
            "positions": [
                -0.18834893070649264,
                -1.4656945593037314,
                2.0956185562521275,
                -0.7646371627573714,
                1.04599590577457,
                -2.6171287667262684
            ]
        },
        {
            "positions": [
                -0.1509703246951791,
                -1.4887048394782518,
                2.0138795288589093,
                -0.6985814864332849,
                0.9992392138601218,
                -2.4979054480043343
            ]
        },
        {
            "positions": [
                -0.11359171868386558,
                -1.5117151196527723,
                1.932140501465691,
                -0.6325258101091985,
                0.9524825219456735,
                -2.378682129282401
            ]
        },
        {
            "positions": [
                -0.07621311267255204,
                -1.5347253998272925,
                1.8504014740724726,
                -0.5664701337851121,
                0.9057258300312252,
                -2.259458810560467
            ]
        },
        {
            "positions": [
                -0.038834506661238555,
                -1.557735680001813,
                1.7686624466792544,
                -0.5004144574610258,
                0.858969138116777,
                -2.140235491838534
            ]
        },
        {
            "positions": [
                -0.0014559006499250127,
                -1.5807459601763334,
                1.6869234192860363,
                -0.4343587811369394,
                0.8122124462023288,
                -2.0210121731166
            ]
        },
        {
            "positions": [
                0.03592270536138853,
                -1.6037562403508536,
                1.605184391892818,
                -0.3683031048128529,
                0.7654557542878805,
                -1.9017888543946664
            ]
        },
        {
            "positions": [
                0.07330131137270202,
                -1.626766520525374,
                1.5234453644995996,
                -0.3022474284887665,
                0.7186990623734323,
                -1.7825655356727328
            ]
        },
        {
            "positions": [
                0.11067991738401553,
                -1.6497768006998945,
                1.4417063371063814,
                -0.23619175216468014,
                0.671942370458984,
                -1.6633422169507992
            ]
        },
        {
            "positions": [
                0.2334280015346495,
                -1.7300488661433788,
                1.4971271332981804,
                -0.19200092526241536,
                0.6290208107317353,
                -1.6526394093688557
            ]
        },
        {
            "positions": [
                0.3561760856852834,
                -1.810320931586863,
                1.5525479294899796,
                -0.14781009836015058,
                0.5860992510044867,
                -1.6419366017869121
            ]
        },
        {
            "positions": [
                0.47892416983591735,
                -1.8905929970303472,
                1.6079687256817785,
                -0.1036192714578858,
                0.543177691277238,
                -1.6312337942049686
            ]
        },
        {
            "positions": [
                0.6016722539865513,
                -1.9708650624738313,
                1.6633895218735777,
                -0.05942844455562102,
                0.5002561315499894,
                -1.620530986623025
            ]
        },
        {
            "positions": [
                0.7244203381371852,
                -2.0511371279173156,
                1.7188103180653767,
                -0.015237617653356243,
                0.45733457182274073,
                -1.6098281790410816
            ]
        },
        {
            "positions": [
                0.7798401175845464,
                -2.0685084597695735,
                1.829920930629061,
                -0.04839241162939417,
                0.4577991703904551,
                -1.7881321874557998
            ]
        },
        {
            "positions": [
                0.8352598970319076,
                -2.0858797916218315,
                1.941031543192745,
                -0.08154720560543209,
                0.4582637689581695,
                -1.966436195870518
            ]
        },
        {
            "positions": [
                0.8906796764792688,
                -2.10325112347409,
                2.052142155756429,
                -0.11470199958147002,
                0.45872836752588386,
                -2.1447402042852364
            ]
        },
        {
            "positions": [
                0.94609945592663,
                -2.1206224553263477,
                2.1632527683201133,
                -0.14785679355750794,
                0.4591929660935983,
                -2.323044212699955
            ]
        },
        {
            "positions": [
                1.0015192353739912,
                -2.1379937871786057,
                2.2743633808837975,
                -0.18101158753354588,
                0.45965756466131263,
                -2.501348221114673
            ]
        },
        {
            "positions": [
                0.9422944231722576,
                -2.0918439711773242,
                2.2976149387867935,
                -0.2372867653293027,
                0.5082718152862824,
                -2.626923495537822
            ]
        },
        {
            "positions": [
                0.8830696109705242,
                -2.0456941551760432,
                2.320866496689789,
                -0.2935619431250595,
                0.5568860659112522,
                -2.7524987699609706
            ]
        },
        {
            "positions": [
                0.8238447987687906,
                -1.9995443391747618,
                2.344118054592785,
                -0.3498371209208163,
                0.605500316536222,
                -2.8780740443841197
            ]
        },
        {
            "positions": [
                0.7646199865670571,
                -1.9533945231734804,
                2.3673696124957804,
                -0.4061122987165732,
                0.6541145671611919,
                -3.003649318807269
            ]
        },
        {
            "positions": [
                0.7053951743653235,
                -1.9072447071721992,
                2.3906211703987763,
                -0.4623874765123299,
                0.7027288177861617,
                -3.1292245932304175
            ]
        }
    ]
}