{
    "goal": {
        "global_pose": {
            "orientation": {
                "w": 0.005598929693374612,
                "x": 0.007748599140229565,
                "y": 0.7110244013736278,
                "z": -0.7031023480610252
            },
            "position": {
                "x": -0.8858502320852131,
                "y": -0.7141253447532654,
                "z": 0.3711530566215515
            }
        },
        "name": "move_to_auspresseinheit_C"
    },
    "id": "BKPIECE_move_to_auspresseinheit_C_61",
    "joint_names": [
        "shoulder_pan_joint",
        "shoulder_lift_joint",
        "elbow_joint",
        "wrist_1_joint",
        "wrist_2_joint",
        "wrist_3_joint"
    ],
    "metrics": {
        "cart_traj_len": 0.49290449855164187,
        "distance_elbow_joint": 0.9908399029481354,
        "distance_shoulder_lift_joint": 0.3201899237417012,
        "distance_shoulder_pan_joint": 0.2563800067573907,
        "distance_wrist_1_joint": 0.6569639160859183,
        "distance_wrist_2_joint": 1.3061703211188858,
        "distance_wrist_3_joint": 0.04651237088752991,
        "smoothness": 4.844609574787718e-16,
        "time": 0.312165429,
        "traj_len": 1.8913107733895984,
        "weighted_distance": 2.3734395759149685
    },
    "planner": "BKPIECE",
    "start": {
        "state": {
            "elbow_joint": 1.7527959577737207,
            "shoulder_lift_joint": -0.9740617694225068,
            "shoulder_pan_joint": -2.967991417825858,
            "wrist_1_joint": -0.759517768980727,
            "wrist_2_joint": 1.7443932448377408,
            "wrist_3_joint": -3.0840537646736568
        }
    },
    "waypoints": [
        {
            "positions": [
                -2.967991417825858,
                -0.9740617694225068,
                1.7527959577737207,
                -0.759517768980727,
                1.7443932448377408,
                -3.0840537646736568
            ]
        },
        {
            "positions": [
                -2.9423534171501187,
                -0.9420427770483366,
                1.6537119674789071,
                -0.6938213773721351,
                1.6137762127258521,
                -3.08870500176241
            ]
        },
        {
            "positions": [
                -2.91671541647438,
                -0.9100237846741666,
                1.5546279771840936,
                -0.6281249857635434,
                1.4831591806139637,
                -3.093356238851163
            ]
        },
        {
            "positions": [
                -2.891077415798641,
                -0.8780047922999964,
                1.45554398688928,
                -0.5624285941549515,
                1.3525421485020752,
                -3.098007475939916
            ]
        },
        {
            "positions": [
                -2.8654394151229017,
                -0.8459857999258262,
                1.3564599965944666,
                -0.49673220254635964,
                1.2219251163901865,
                -3.102658713028669
            ]
        },
        {
            "positions": [
                -2.8398014144471624,
                -0.8139668075516562,
                1.257376006299653,
                -0.4310358109377678,
                1.0913080842782978,
                -3.107309950117422
            ]
        },
        {
            "positions": [
                -2.8141634137714235,
                -0.7819478151774861,
                1.1582920160048396,
                -0.365339419329176,
                0.9606910521664094,
                -3.1119611872061745
            ]
        },
        {
            "positions": [
                -2.7885254130956847,
                -0.749928822803316,
                1.059208025710026,
                -0.2996430277205842,
                0.8300740200545209,
                -3.1166124242949276
            ]
        },
        {
            "positions": [
                -2.7628874124199454,
                -0.7179098304291458,
                0.9601240354152123,
                -0.2339466361119923,
                0.6994569879426322,
                -3.1212636613836806
            ]
        },
        {
            "positions": [
                -2.737249411744206,
                -0.6858908380549757,
                0.8610400451203988,
                -0.16825024450340054,
                0.5688399558307435,
                -3.1259148984724336
            ]
        },
        {
            "positions": [
                -2.7116114110684673,
                -0.6538718456808056,
                0.7619560548255853,
                -0.10255385289480867,
                0.4382229237188551,
                -3.1305661355611867
            ]
        }
    ]
}