{
    "goal": {
        "global_pose": {
            "orientation": {
                "w": 0.7047431468963623,
                "x": -0.7094548344612122,
                "y": 0.0024358443915843964,
                "z": -0.0022348060738295317
            },
            "position": {
                "x": 0.6094750761985779,
                "y": 0.3671506643295288,
                "z": 0.19426114857196808
            }
        },
        "name": "move_to_magneteinheit_A"
    },
    "id": "BKPIECE_move_to_magneteinheit_A_126",
    "joint_names": [
        "shoulder_pan_joint",
        "shoulder_lift_joint",
        "elbow_joint",
        "wrist_1_joint",
        "wrist_2_joint",
        "wrist_3_joint"
    ],
    "metrics": {
        "cart_traj_len": 3.4345283366570465,
        "distance_elbow_joint": 3.8733037966614576,
        "distance_shoulder_lift_joint": 0.12006448616577692,
        "distance_shoulder_pan_joint": 3.1456660496867714,
        "distance_wrist_1_joint": 1.408361878267899,
        "distance_wrist_2_joint": 1.7013714395724624,
        "distance_wrist_3_joint": 3.698017974101471,
        "smoothness": 0.12972909254484827,
        "time": 0.274320399,
        "traj_len": 3.734539546511167,
        "weighted_distance": 4.944952465949409
    },
    "planner": "BKPIECE",
    "start": {
        "state": {
            "elbow_joint": -1.9196185241190666,
            "shoulder_lift_joint": -1.2443396400964142,
            "shoulder_pan_joint": 2.6996025414629847,
            "wrist_1_joint": -1.5485510000780065,
            "wrist_2_joint": -1.5709468930060704,
            "wrist_3_joint": 0.4420197071253992
        }
    },
    "waypoints": [
        {
            "positions": [
                2.6996025414629847,
                -1.2443396400964142,
                -1.9196185241190666,
                -1.5485510000780065,
                -1.5709468930060704,
                0.4420197071253992
            ]
        },
        {
            "positions": [
                2.589575679419147,
                -1.2444303997347979,
                -1.8306708750865914,
                -1.5052182275227368,
                -1.5202962626584262,
                0.3483944664303185
            ]
        },
        {
            "positions": [
                2.4795488173753095,
                -1.2445211593731813,
                -1.7417232260541164,
                -1.4618854549674671,
                -1.469645632310782,
                0.25476922573523786
            ]
        },
        {
            "positions": [
                2.369521955331472,
                -1.244611919011565,
                -1.6527755770216412,
                -1.4185526824121975,
                -1.4189950019631379,
                0.16114398504015714
            ]
        },
        {
            "positions": [
                2.2594950932876348,
                -1.2447026786499484,
                -1.5638279279891663,
                -1.3752199098569275,
                -1.3683443716154937,
                0.06751874434507649
            ]
        },
        {
            "positions": [
                2.149468231243797,
                -1.244793438288332,
                -1.474880278956691,
                -1.3318871373016579,
                -1.3176937412678495,
                -0.026106496350004227
            ]
        },
        {
            "positions": [
                2.0394413691999596,
                -1.2448841979267158,
                -1.3859326299242158,
                -1.2885543647463882,
                -1.2670431109202054,
                -0.11973173704508489
            ]
        },
        {
            "positions": [
                1.929414507156122,
                -1.2449749575650992,
                -1.2969849808917409,
                -1.2452215921911185,
                -1.2163924805725612,
                -0.2133569777401655
            ]
        },
        {
            "positions": [
                1.8193876451122843,
                -1.245065717203483,
                -1.2080373318592659,
                -1.2018888196358488,
                -1.165741850224917,
                -0.3069822184352462
            ]
        },
        {
            "positions": [
                1.709360783068447,
                -1.2451564768418666,
                -1.1190896828267907,
                -1.1585560470805791,
                -1.1150912198772729,
                -0.4006074591303268
            ]
        },
        {
            "positions": [
                1.5993339210246094,
                -1.24524723648025,
                -1.0301420337943155,
                -1.1152232745253092,
                -1.0644405895296287,
                -0.49423269982540763
            ]
        },
        {
            "positions": [
                1.4893070589807718,
                -1.2453379961186337,
                -0.9411943847618405,
                -1.0718905019700395,
                -1.0137899591819846,
                -0.5878579405204881
            ]
        },
        {
            "positions": [
                1.3792801969369342,
                -1.2454287557570172,
                -0.8522467357293653,
                -1.0285577294147699,
                -0.9631393288343404,
                -0.681483181215569
            ]
        },
        {
            "positions": [
                1.2692533348930968,
                -1.2455195153954008,
                -0.7632990866968903,
                -0.9852249568595002,
                -0.9124886984866962,
                -0.7751084219106495
            ]
        },
        {
            "positions": [
                1.1592264728492594,
                -1.2456102750337845,
                -0.6743514376644153,
                -0.9418921843042305,
                -0.8618380681390521,
                -0.8687336626057302
            ]
        },
        {
            "positions": [
                1.0491996108054218,
                -1.245701034672168,
                -0.5854037886319401,
                -0.8985594117489608,
                -0.811187437791408,
                -0.9623589033008108
            ]
        },
        {
            "positions": [
                0.939172748761584,
                -1.2457917943105516,
                -0.4964561395994649,
                -0.855226639193691,
                -0.7605368074437637,
                -1.0559841439958917
            ]
        },
        {
            "positions": [
                0.8291458867177466,
                -1.245882553948935,
                -0.4075084905669899,
                -0.8118938666384213,
                -0.7098861770961196,
                -1.1496093846909723
            ]
        },
        {
            "positions": [
                0.7191190246739092,
                -1.2459733135873188,
                -0.3185608415345147,
                -0.7685610940831517,
                -0.6592355467484754,
                -1.243234625386053
            ]
        },
        {
            "positions": [
                0.6090921626300716,
                -1.2460640732257025,
                -0.2296131925020397,
                -0.725228321527882,
                -0.6085849164008313,
                -1.3368598660811335
            ]
        },
        {
            "positions": [
                0.499065300586234,
                -1.246154832864086,
                -0.1406655434695645,
                -0.6818955489726121,
                -0.5579342860531871,
                -1.4304851067762145
            ]
        },
        {
            "positions": [
                0.3890384385423964,
                -1.2462455925024696,
                -0.05171789443708952,
                -0.6385627764173424,
                -0.5072836557055429,
                -1.5241103474712951
            ]
        },
        {
            "positions": [
                0.2790115764985588,
                -1.2463363521408533,
                0.03722975459538569,
                -0.5952300038620727,
                -0.45663302535789874,
                -1.6177355881663753
            ]
        },
        {
            "positions": [
                0.16898471445472163,
                -1.2464271117792367,
                0.12617740362786067,
                -0.551897231306803,
                -0.40598239501025457,
                -1.711360828861456
            ]
        },
        {
            "positions": [
                0.05895785241088358,
                -1.2465178714176204,
                0.2151250526603361,
                -0.5085644587515332,
                -0.3553317646626104,
                -1.804986069556537
            ]
        },
        {
            "positions": [
                -0.05106900963295358,
                -1.2466086310560038,
                0.3040727016928111,
                -0.46523168619626354,
                -0.30468113431496624,
                -1.8986113102516176
            ]
        },
        {
            "positions": [
                -0.16109587167679096,
                -1.2466993906943875,
                0.39302035072528607,
                -0.42189891364099397,
                -0.2540305039673222,
                -1.9922365509466982
            ]
        },
        {
            "positions": [
                -0.13259910802209152,
                -1.2349289171376072,
                0.5490868429069965,
                -0.45006989282408255,
                -0.2155849989139507,
                -2.1186127225496354
            ]
        },
        {
            "positions": [
                -0.10410234436739205,
                -1.2231584435808267,
                0.7051533350887069,
                -0.47824087200717114,
                -0.1771394938605792,
                -2.244988894152573
            ]
        },
        {
            "positions": [
                -0.0756055807126926,
                -1.2113879700240464,
                0.8612198272704175,
                -0.5064118511902597,
                -0.13869398880720768,
                -2.3713650657555103
            ]
        },
        {
            "positions": [
                -0.047108817057993135,
                -1.1996174964672661,
                1.0172863194521278,
                -0.5345828303733483,
                -0.10024848375383619,
                -2.4977412373584476
            ]
        },
        {
            "positions": [
                -0.018612053403293694,
                -1.1878470229104856,
                1.1733528116338383,
                -0.5627538095564368,
                -0.061802978700464695,
                -2.624117408961385
            ]
        },
        {
            "positions": [
                0.009884710251405748,
                -1.1760765493537053,
                1.3294193038155488,
                -0.5909247887395254,
                -0.023357473647093202,
                -2.7504935805643225
            ]
        },
        {
            "positions": [
                0.03838147390610519,
                -1.164306075796925,
                1.4854857959972592,
                -0.619095767922614,
                0.01508803140627829,
                -2.8768697521672597
            ]
        },
        {
            "positions": [
                0.06687823756080469,
                -1.1525356022401447,
                1.6415522881789697,
                -0.6472667471057025,
                0.05353353645964981,
                -3.003245923770197
            ]
        },
        {
            "positions": [
                0.09537500121550413,
                -1.1407651286833642,
                1.7976187803606802,
                -0.6754377262887912,
                0.09197904151302133,
                -3.1296220953731346
            ]
        },
        {
            "positions": [
                0.12387176487020359,
                -1.128994655126584,
                1.9536852725423905,
                -0.7036087054718797,
                0.13042454656639282,
                -3.255998266976072
            ]
        }
    ]
}