{
    "goal": {
        "global_pose": {
            "orientation": {
                "w": 0.7047431493862688,
                "x": -0.7094548369677653,
                "y": 0.0024358444001904,
                "z": -0.0022348060817251984
            },
            "position": {
                "x": -0.39052492380142206,
                "y": 0.3671506643295288,
                "z": 0.19426114857196808
            }
        },
        "name": "move_to_magneteinheit_D"
    },
    "id": "BKPIECE_move_to_magneteinheit_D_32",
    "joint_names": [
        "shoulder_pan_joint",
        "shoulder_lift_joint",
        "elbow_joint",
        "wrist_1_joint",
        "wrist_2_joint",
        "wrist_3_joint"
    ],
    "metrics": {
        "cart_traj_len": 4.241332365241927,
        "distance_elbow_joint": 3.78497269654043,
        "distance_shoulder_lift_joint": 1.1082330707189212,
        "distance_shoulder_pan_joint": 2.9315770350186137,
        "distance_wrist_1_joint": 3.2701525095561177,
        "distance_wrist_2_joint": 1.1030406816192968,
        "distance_wrist_3_joint": 1.5669593108966824,
        "smoothness": 0.46112645807400293,
        "time": 0.432110042,
        "traj_len": 3.7101125730023425,
        "weighted_distance": 4.612162954332689
    },
    "planner": "BKPIECE",
    "start": {
        "state": {
            "elbow_joint": 0.749534889911806,
            "shoulder_lift_joint": -0.6476975780787326,
            "shoulder_pan_joint": -2.711696901376241,
            "wrist_1_joint": -0.07506478083263063,
            "wrist_2_joint": 0.43296659715538205,
            "wrist_3_joint": -3.14703540197715
        }
    },
    "waypoints": [
        {
            "positions": [
                -2.711696901376241,
                -0.6476975780787326,
                0.749534889911806,
                -0.07506478083263063,
                0.43296659715538205,
                -3.14703540197715
            ]
        },
        {
            "positions": [
                -2.7218862504184687,
                -0.7054245511850441,
                0.8272259218084732,
                0.019899893677946902,
                0.3534817709586308,
                -3.114223835542587
            ]
        },
        {
            "positions": [
                -2.70377070729288,
                -0.8124002891834347,
                0.8718711757523318,
                0.09393466976093792,
                0.2960270631228423,
                -3.0222933287611116
            ]
        },
        {
            "positions": [
                -2.6856551641672914,
                -0.9193760271818252,
                0.9165164296961903,
                0.16796944584392895,
                0.23857235528705387,
                -2.930362821979636
            ]
        },
        {
            "positions": [
                -2.667539621041703,
                -1.0263517651802156,
                0.9611616836400488,
                0.24200422192692,
                0.18111764745126538,
                -2.8384323151981605
            ]
        },
        {
            "positions": [
                -2.6494240779161142,
                -1.1333275031786063,
                1.0058069375839074,
                0.31603899800991103,
                0.12366293961547692,
                -2.746501808416685
            ]
        },
        {
            "positions": [
                -2.6313085347905254,
                -1.240303241176997,
                1.050452191527766,
                0.3900737740929021,
                0.06620823177968843,
                -2.6545713016352095
            ]
        },
        {
            "positions": [
                -2.613192991664937,
                -1.3472789791753874,
                1.0950974454716245,
                0.46410855017589314,
                0.008753523943899943,
                -2.562640794853734
            ]
        },
        {
            "positions": [
                -2.493256347174499,
                -1.3606746039190596,
                0.9576456751800102,
                0.3639440970257422,
                0.020655671647969526,
                -2.5510335101265436
            ]
        },
        {
            "positions": [
                -2.3733197026840607,
                -1.3740702286627315,
                0.8201939048883959,
                0.2637796438755913,
                0.03255781935203911,
                -2.5394262253993527
            ]
        },
        {
            "positions": [
                -2.2533830581936227,
                -1.3874658534064037,
                0.6827421345967817,
                0.16361519072544028,
                0.04445996705610868,
                -2.5278189406721623
            ]
        },
        {
            "positions": [
                -2.1334464137031848,
                -1.4008614781500757,
                0.5452903643051675,
                0.06345073757528935,
                0.056362114760178265,
                -2.5162116559449714
            ]
        },
        {
            "positions": [
                -2.013509769212747,
                -1.4142571028937478,
                0.40783859401355327,
                -0.03671371557486158,
                0.06826426246424785,
                -2.504604371217781
            ]
        },
        {
            "positions": [
                -1.8935731247223087,
                -1.4276527276374198,
                0.270386823721939,
                -0.13687816872501257,
                0.08016641016831742,
                -2.49299708649059
            ]
        },
        {
            "positions": [
                -1.7736364802318705,
                -1.441048352381092,
                0.13293505343032475,
                -0.23704262187516345,
                0.092068557872387,
                -2.4813898017633997
            ]
        },
        {
            "positions": [
                -1.6536998357414325,
                -1.454443977124764,
                -0.004516716861289405,
                -0.33720707502531444,
                0.10397070557645659,
                -2.4697825170362093
            ]
        },
        {
            "positions": [
                -1.5337631912509944,
                -1.467839601868436,
                -0.14196848715290367,
                -0.43737152817546543,
                0.11587285328052617,
                -2.4581752323090185
            ]
        },
        {
            "positions": [
                -1.4138265467605564,
                -1.481235226612108,
                -0.2794202574445179,
                -0.5375359813256163,
                0.12777500098459577,
                -2.446567947581828
            ]
        },
        {
            "positions": [
                -1.293889902270118,
                -1.4946308513557802,
                -0.4168720277361324,
                -0.6377004344757674,
                0.13967714868866535,
                -2.434960662854637
            ]
        },
        {
            "positions": [
                -1.1739532577796803,
                -1.5080264760994522,
                -0.5543237980277465,
                -0.7378648876259183,
                0.1515792963927349,
                -2.4233533781274468
            ]
        },
        {
            "positions": [
                -1.054016613289242,
                -1.5214221008431243,
                -0.6917755683193609,
                -0.8380293407760694,
                0.1634814440968045,
                -2.411746093400256
            ]
        },
        {
            "positions": [
                -0.934079968798804,
                -1.5348177255867963,
                -0.829227338610975,
                -0.93819379392622,
                0.17538359180087407,
                -2.4001388086730655
            ]
        },
        {
            "positions": [
                -0.8141433243083658,
                -1.5482133503304685,
                -0.9666791089025892,
                -1.038358247076371,
                0.18728573950494365,
                -2.388531523945875
            ]
        },
        {
            "positions": [
                -0.6942066798179278,
                -1.5616089750741404,
                -1.1041308791942033,
                -1.1385227002265221,
                0.19918788720901323,
                -2.3769242392186842
            ]
        },
        {
            "positions": [
                -0.5742700353274897,
                -1.5750045998178126,
                -1.2415826494858178,
                -1.2386871533766732,
                0.2110900349130828,
                -2.365316954491494
            ]
        },
        {
            "positions": [
                -0.4543333908370517,
                -1.5884002245614846,
                -1.3790344197774318,
                -1.338851606526824,
                0.2229921826171524,
                -2.353709669764303
            ]
        },
        {
            "positions": [
                -0.33439674634661376,
                -1.6017958493051567,
                -1.5164861900690463,
                -1.439016059676975,
                0.23489433032122198,
                -2.3421023850371125
            ]
        },
        {
            "positions": [
                -0.2144601018561758,
                -1.615191474048829,
                -1.6539379603606603,
                -1.5391805128271256,
                0.24679647802529156,
                -2.3304951003099217
            ]
        },
        {
            "positions": [
                -0.09452345736573733,
                -1.6285870987925009,
                -1.7913897306522748,
                -1.6393449659772767,
                0.25869862572936114,
                -2.3188878155827313
            ]
        },
        {
            "positions": [
                -0.060392279817653924,
                -1.6396645249985802,
                -1.9172509445392862,
                -1.7578515826579484,
                0.24361264246535527,
                -2.3893971727479273
            ]
        },
        {
            "positions": [
                -0.026261102269570513,
                -1.6507419512046597,
                -2.0431121584262977,
                -1.8763581993386198,
                0.2285266592013494,
                -2.4599065299131238
            ]
        },
        {
            "positions": [
                0.0078700752785129,
                -1.661819377410739,
                -2.1689733723133093,
                -1.9948648160192914,
                0.21344067593734353,
                -2.5304158870783198
            ]
        },
        {
            "positions": [
                -0.03137330485567692,
                -1.6799115898091617,
                -2.220061826694968,
                -2.0503647618985705,
                0.13136664164864928,
                -2.66145678866991
            ]
        },
        {
            "positions": [
                -0.07061668498986674,
                -1.698003802207584,
                -2.2711502810766264,
                -2.105864707777849,
                0.049292607359955026,
                -2.7924976902615004
            ]
        },
        {
            "positions": [
                -0.10986006512405658,
                -1.7160960146060067,
                -2.322238735458285,
                -2.1613646536571283,
                -0.03278142692873924,
                -2.9235385918530907
            ]
        },
        {
            "positions": [
                -0.14681067506247442,
                -1.7360133317018303,
                -2.3332757154836363,
                -2.2141176410144148,
                -0.10148265391086563,
                -2.990619065969043
            ]
        },
        {
            "positions": [
                -0.18376128500089223,
                -1.7559306487976538,
                -2.3443126955089872,
                -2.266870628371701,
                -0.170183880892992,
                -3.057699540084995
            ]
        }
    ]
}