{
    "goal": {
        "global_pose": {
            "orientation": {
                "w": 0.7047431468963623,
                "x": -0.7094548344612122,
                "y": 0.0024358443915843964,
                "z": -0.0022348060738295317
            },
            "position": {
                "x": 0.6094750761985779,
                "y": 0.3671506643295288,
                "z": 0.19426114857196808
            }
        },
        "name": "move_to_magneteinheit_A"
    },
    "id": "BKPIECE_move_to_magneteinheit_A_63",
    "joint_names": [
        "shoulder_pan_joint",
        "shoulder_lift_joint",
        "elbow_joint",
        "wrist_1_joint",
        "wrist_2_joint",
        "wrist_3_joint"
    ],
    "metrics": {
        "cart_traj_len": 3.0039014344215773,
        "distance_elbow_joint": 5.949833251840781,
        "distance_shoulder_lift_joint": 1.8323389504661616,
        "distance_shoulder_pan_joint": 2.8707503032306474,
        "distance_wrist_1_joint": 7.898604385556096,
        "distance_wrist_2_joint": 1.6985804166520215,
        "distance_wrist_3_joint": 3.6311304394458364,
        "smoothness": 0.3839976014844234,
        "time": 0.327174829,
        "traj_len": 4.8868433315578645,
        "weighted_distance": 6.382842895473093
    },
    "planner": "BKPIECE",
    "start": {
        "state": {
            "elbow_joint": -1.9196185241190666,
            "shoulder_lift_joint": -1.2443396400964142,
            "shoulder_pan_joint": 2.6996025414629847,
            "wrist_1_joint": -1.5485510000780065,
            "wrist_2_joint": -1.5709468930060704,
            "wrist_3_joint": 0.4420197071253992
        }
    },
    "waypoints": [
        {
            "positions": [
                2.6996025414629847,
                -1.2443396400964142,
                -1.9196185241190666,
                -1.5485510000780065,
                -1.5709468930060704,
                0.4420197071253992
            ]
        },
        {
            "positions": [
                2.6419811951571033,
                -1.2676699417981443,
                -1.792879247466283,
                -1.4313516793754644,
                -1.5572238697627856,
                0.3902294623203929
            ]
        },
        {
            "positions": [
                2.5843598488512223,
                -1.2910002434998744,
                -1.666139970813499,
                -1.314152358672922,
                -1.543500846519501,
                0.3384392175153867
            ]
        },
        {
            "positions": [
                2.526738502545341,
                -1.3143305452016045,
                -1.5394006941607152,
                -1.1969530379703799,
                -1.5297778232762163,
                0.2866489727103805
            ]
        },
        {
            "positions": [
                2.46911715623946,
                -1.3376608469033346,
                -1.4126614175079313,
                -1.0797537172678378,
                -1.5160548000329315,
                0.2348587279053742
            ]
        },
        {
            "positions": [
                2.4114958099335784,
                -1.3609911486050648,
                -1.2859221408551476,
                -0.9625543965652956,
                -1.502331776789647,
                0.18306848310036794
            ]
        },
        {
            "positions": [
                2.3538744636276974,
                -1.3843214503067949,
                -1.1591828642023638,
                -0.8453550758627534,
                -1.4886087535463621,
                0.13127823829536173
            ]
        },
        {
            "positions": [
                2.296253117321816,
                -1.4076517520085252,
                -1.0324435875495799,
                -0.7281557551602112,
                -1.4748857303030773,
                0.07948799349035546
            ]
        },
        {
            "positions": [
                2.238631771015935,
                -1.4309820537102553,
                -0.9057043108967961,
                -0.610956434457669,
                -1.4611627070597928,
                0.027697748685349244
            ]
        },
        {
            "positions": [
                2.1810104247100535,
                -1.4543123554119854,
                -0.7789650342440124,
                -0.4937571137551269,
                -1.447439683816508,
                -0.024092496119657025
            ]
        },
        {
            "positions": [
                2.1233890784041725,
                -1.4776426571137156,
                -0.6522257575912285,
                -0.37655779305258474,
                -1.4337166605732232,
                -0.0758827409246633
            ]
        },
        {
            "positions": [
                2.065767732098291,
                -1.5009729588154457,
                -0.5254864809384447,
                -0.2593584723500424,
                -1.4199936373299387,
                -0.12767298572966945
            ]
        },
        {
            "positions": [
                2.00814638579241,
                -1.5243032605171758,
                -0.3987472042856608,
                -0.14215915164750026,
                -1.4062706140866539,
                -0.17946323053467572
            ]
        },
        {
            "positions": [
                1.9505250394865286,
                -1.547633562218906,
                -0.27200792763287707,
                -0.024959830944958128,
                -1.3925475908433693,
                -0.231253475339682
            ]
        },
        {
            "positions": [
                1.8929036931806476,
                -1.570963863920636,
                -0.14526865098009334,
                0.092239489757584,
                -1.3788245676000845,
                -0.28304372014468826
            ]
        },
        {
            "positions": [
                1.835282346874766,
                -1.5942941656223661,
                -0.01852937432730939,
                0.20943881046012636,
                -1.3651015443567998,
                -0.3348339649496944
            ]
        },
        {
            "positions": [
                1.777661000568885,
                -1.6176244673240965,
                0.10820990232547434,
                0.3266381311626685,
                -1.3513785211135152,
                -0.3866242097547007
            ]
        },
        {
            "positions": [
                1.7200396542630036,
                -1.6409547690258264,
                0.2349491789782583,
                0.4438374518652106,
                -1.3376554978702304,
                -0.43841445455970696
            ]
        },
        {
            "positions": [
                1.6624183079571224,
                -1.6642850707275567,
                0.3616884556310418,
                0.5610367725677528,
                -1.3239324746269456,
                -0.4902046993647132
            ]
        },
        {
            "positions": [
                1.6047969616512414,
                -1.6876153724292866,
                0.48842773228382574,
                0.6782360932702949,
                -1.310209451383661,
                -0.5419949441697193
            ]
        },
        {
            "positions": [
                1.54717561534536,
                -1.710945674131017,
                0.6151670089366097,
                0.795435413972837,
                -1.2964864281403763,
                -0.5937851889747258
            ]
        },
        {
            "positions": [
                1.489554269039479,
                -1.7342759758327468,
                0.7419062855893932,
                0.9126347346753791,
                -1.2827634048970915,
                -0.6455754337797318
            ]
        },
        {
            "positions": [
                1.4319329227335975,
                -1.7576062775344772,
                0.8686455622421771,
                1.0298340553779217,
                -1.269040381653807,
                -0.6973656785847381
            ]
        },
        {
            "positions": [
                1.3743115764277165,
                -1.7809365792362073,
                0.9953848388949607,
                1.1470333760804634,
                -1.2553173584105222,
                -0.7491559233897443
            ]
        },
        {
            "positions": [
                1.316690230121835,
                -1.8042668809379374,
                1.122124115547745,
                1.264232696783006,
                -1.2415943351672374,
                -0.8009461681947506
            ]
        },
        {
            "positions": [
                1.2590688838159538,
                -1.8275971826396675,
                1.2488633922005286,
                1.3814320174855481,
                -1.2278713119239528,
                -0.8527364129997567
            ]
        },
        {
            "positions": [
                1.2014475375100726,
                -1.8509274843413976,
                1.3756026688533125,
                1.4986313381880902,
                -1.214148288680668,
                -0.9045266578047632
            ]
        },
        {
            "positions": [
                1.1438261912041914,
                -1.8742577860431278,
                1.502341945506096,
                1.6158306588906324,
                -1.2004252654373833,
                -0.9563169026097692
            ]
        },
        {
            "positions": [
                1.0862048448983102,
                -1.8975880877448579,
                1.62908122215888,
                1.7330299795931745,
                -1.1867022421940987,
                -1.0081071474147758
            ]
        },
        {
            "positions": [
                1.028583498592429,
                -1.9209183894465882,
                1.7558204988116635,
                1.8502293002957166,
                -1.172979218950814,
                -1.0598973922197819
            ]
        },
        {
            "positions": [
                0.9709621522865477,
                -1.944248691148318,
                1.8825597754644479,
                1.9674286209982592,
                -1.1592561957075294,
                -1.111687637024788
            ]
        },
        {
            "positions": [
                0.9133408059806665,
                -1.9675789928500484,
                2.0092990521172314,
                2.084627941700801,
                -1.1455331724642446,
                -1.1634778818297944
            ]
        },
        {
            "positions": [
                0.8557194596747852,
                -1.9909092945517786,
                2.1360383287700153,
                2.2018272624033433,
                -1.1318101492209598,
                -1.2152681266348004
            ]
        },
        {
            "positions": [
                0.798098113368904,
                -2.0142395962535087,
                2.2627776054227993,
                2.3190265831058854,
                -1.118087125977675,
                -1.2670583714398065
            ]
        },
        {
            "positions": [
                0.7404767670630228,
                -2.0375698979552386,
                2.389516882075583,
                2.4362259038084275,
                -1.1043641027343905,
                -1.318848616244813
            ]
        },
        {
            "positions": [
                0.6828554207571416,
                -2.060900199656969,
                2.5162561587283663,
                2.5534252245109696,
                -1.0906410794911057,
                -1.370638861049819
            ]
        },
        {
            "positions": [
                0.6252340744512601,
                -2.0842305013586993,
                2.6429954353811502,
                2.670624545213512,
                -1.076918056247821,
                -1.4224291058548255
            ]
        },
        {
            "positions": [
                0.5676127281453791,
                -2.107560803060429,
                2.769734712033934,
                2.787823865916054,
                -1.0631950330045363,
                -1.4742193506598316
            ]
        },
        {
            "positions": [
                0.5380335868115972,
                -2.0760526339579606,
                2.7182072591540876,
                2.6434899278312547,
                -1.0092189721338771,
                -1.544162677904495
            ]
        },
        {
            "positions": [
                0.5084544454778153,
                -2.0445444648554916,
                2.666679806274241,
                2.499155989746456,
                -0.9552429112632181,
                -1.6141060051491587
            ]
        },
        {
            "positions": [
                0.4788753041440334,
                -2.013036295753023,
                2.6151523533943943,
                2.3548220516616567,
                -0.9012668503925589,
                -1.6840493323938222
            ]
        },
        {
            "positions": [
                0.4492961628102515,
                -1.9815281266505542,
                2.5636249005145477,
                2.210488113576858,
                -0.8472907895218998,
                -1.7539926596384858
            ]
        },
        {
            "positions": [
                0.41971702147646955,
                -1.9500199575480854,
                2.512097447634701,
                2.0661541754920587,
                -0.7933147286512408,
                -1.8239359868831493
            ]
        },
        {
            "positions": [
                0.3901378801426877,
                -1.9185117884456169,
                2.4605699947548545,
                1.9218202374072597,
                -0.7393386677805817,
                -1.8938793141278127
            ]
        },
        {
            "positions": [
                0.36055873880890577,
                -1.887003619343148,
                2.409042541875008,
                1.7774862993224607,
                -0.6853626069099226,
                -1.9638226413724764
            ]
        },
        {
            "positions": [
                0.33097959747512384,
                -1.8554954502406793,
                2.357515088995161,
                1.6331523612376615,
                -0.6313865460392634,
                -2.03376596861714
            ]
        },
        {
            "positions": [
                0.3014004561413419,
                -1.8239872811382107,
                2.305987636115314,
                1.4888184231528625,
                -0.5774104851686043,
                -2.1037092958618033
            ]
        },
        {
            "positions": [
                0.27182131480756,
                -1.792479112035742,
                2.2544601832354676,
                1.3444844850680635,
                -0.5234344242979452,
                -2.173652623106467
            ]
        },
        {
            "positions": [
                0.24224217347377808,
                -1.7609709429332732,
                2.202932730355621,
                1.2001505469832643,
                -0.469458363427286,
                -2.2435959503511307
            ]
        },
        {
            "positions": [
                0.2126630321399962,
                -1.7294627738308046,
                2.1514052774757744,
                1.0558166088984655,
                -0.415482302556627,
                -2.313539277595794
            ]
        },
        {
            "positions": [
                0.18308389080621423,
                -1.6979546047283358,
                2.0998778245959278,
                0.9114826708136663,
                -0.3615062416859678,
                -2.3834826048404576
            ]
        },
        {
            "positions": [
                0.15350474947243237,
                -1.666446435625867,
                2.048350371716081,
                0.7671487327288675,
                -0.3075301808153088,
                -2.4534259320851213
            ]
        },
        {
            "positions": [
                0.12392560813865044,
                -1.6349382665233985,
                1.9968229188362345,
                0.6228147946440683,
                -0.2535541199446496,
                -2.523369259329785
            ]
        },
        {
            "positions": [
                0.09434646680486852,
                -1.6034300974209295,
                1.945295465956388,
                0.4784808565592691,
                -0.1995780590739904,
                -2.5933125865744486
            ]
        },
        {
            "positions": [
                0.06476732547108666,
                -1.571921928318461,
                1.8937680130765413,
                0.3341469184744703,
                -0.14560199820333142,
                -2.663255913819112
            ]
        },
        {
            "positions": [
                0.035188184137304734,
                -1.5404137592159923,
                1.8422405601966947,
                0.1898129803896711,
                -0.09162593733267221,
                -2.733199241063775
            ]
        },
        {
            "positions": [
                0.005609042803522812,
                -1.5089055901135235,
                1.790713107316848,
                0.04547904230487232,
                -0.03764987646201323,
                -2.8031425683084388
            ]
        },
        {
            "positions": [
                -0.023970098530259124,
                -1.4773974210110548,
                1.7391856544370015,
                -0.09885489577992682,
                0.016326184408645864,
                -2.8730858955531025
            ]
        },
        {
            "positions": [
                0.005465434117221234,
                -1.4096065399205002,
                1.7851718460551709,
                -0.23396504735313908,
                0.0385876522561069,
                -2.9362908629065694
            ]
        },
        {
            "positions": [
                0.03490096676470159,
                -1.341815658829946,
                1.83115803767334,
                -0.3690751989263513,
                0.06084912010356794,
                -2.999495830260036
            ]
        },
        {
            "positions": [
                0.06433649941218195,
                -1.2740247777393914,
                1.8771442292915095,
                -0.5041853504995636,
                0.08311058795102896,
                -3.062700797613503
            ]
        },
        {
            "positions": [
                0.09377203205966231,
                -1.206233896648837,
                1.9231304209096787,
                -0.6392955020727759,
                0.10537205579849002,
                -3.1259057649669693
            ]
        },
        {
            "positions": [
                0.12320756470714266,
                -1.1384430155582825,
                1.969116612527848,
                -0.7744056536459881,
                0.12763352364595104,
                -3.189110732320436
            ]
        }
    ]
}