{
    "goal": {
        "global_pose": {
            "orientation": {
                "w": 0.7047431493862688,
                "x": -0.7094548369677653,
                "y": 0.0024358444001904,
                "z": -0.0022348060817251984
            },
            "position": {
                "x": -0.39052492380142206,
                "y": 0.3671506643295288,
                "z": 0.19426114857196808
            }
        },
        "name": "move_to_magneteinheit_D"
    },
    "id": "BKPIECE_move_to_magneteinheit_D_24",
    "joint_names": [
        "shoulder_pan_joint",
        "shoulder_lift_joint",
        "elbow_joint",
        "wrist_1_joint",
        "wrist_2_joint",
        "wrist_3_joint"
    ],
    "metrics": {
        "cart_traj_len": 6.012298282307762,
        "distance_elbow_joint": 3.237769018481515,
        "distance_shoulder_lift_joint": 4.228549117253664,
        "distance_shoulder_pan_joint": 8.013968499141729,
        "distance_wrist_1_joint": 3.9852033988314215,
        "distance_wrist_2_joint": 4.296794858647901,
        "distance_wrist_3_joint": 5.877745172372007,
        "smoothness": 0.6429774177010672,
        "time": 0.363143466,
        "traj_len": 5.444265796664253,
        "weighted_distance": 7.0482280515709474
    },
    "planner": "BKPIECE",
    "start": {
        "state": {
            "elbow_joint": 0.749534889911806,
            "shoulder_lift_joint": -0.6476975780787326,
            "shoulder_pan_joint": -2.711696901376241,
            "wrist_1_joint": -0.07506478083263063,
            "wrist_2_joint": 0.43296659715538205,
            "wrist_3_joint": -3.14703540197715
        }
    },
    "waypoints": [
        {
            "positions": [
                -2.711696901376241,
                -0.6476975780787326,
                0.749534889911806,
                -0.07506478083263063,
                0.43296659715538205,
                -3.14703540197715
            ]
        },
        {
            "positions": [
                -2.728888297756955,
                -0.6560779572075868,
                0.7676215504728219,
                -0.1599962982730686,
                0.5517319708914407,
                -3.0572296081015367
            ]
        },
        {
            "positions": [
                -2.7460796941376686,
                -0.6644583363364409,
                0.7857082110338378,
                -0.24492781571350658,
                0.6704973446274993,
                -2.9674238142259233
            ]
        },
        {
            "positions": [
                -2.7632710905183826,
                -0.6728387154652951,
                0.8037948715948537,
                -0.32985933315394456,
                0.7892627183635579,
                -2.87761802035031
            ]
        },
        {
            "positions": [
                -2.734702527859204,
                -0.6914817193681106,
                0.7709667799063517,
                -0.34624630714982346,
                0.8833563070198334,
                -2.690336739788646
            ]
        },
        {
            "positions": [
                -2.7061339652000247,
                -0.7101247232709262,
                0.7381386882178497,
                -0.3626332811457023,
                0.9774498956761087,
                -2.503055459226983
            ]
        },
        {
            "positions": [
                -2.677565402540846,
                -0.7287677271737418,
                0.7053105965293476,
                -0.3790202551415812,
                1.071543484332384,
                -2.315774178665319
            ]
        },
        {
            "positions": [
                -2.6489968398816672,
                -0.7474107310765574,
                0.6724825048408456,
                -0.39540722913746007,
                1.1656370729886596,
                -2.128492898103656
            ]
        },
        {
            "positions": [
                -2.6204282772224885,
                -0.7660537349793731,
                0.6396544131523435,
                -0.411794203133339,
                1.259730661644935,
                -1.9412116175419922
            ]
        },
        {
            "positions": [
                -2.5918597145633093,
                -0.7846967388821887,
                0.6068263214638415,
                -0.4281811771292178,
                1.3538242503012106,
                -1.7539303369803287
            ]
        },
        {
            "positions": [
                -2.5632911519041306,
                -0.8033397427850043,
                0.5739982297753394,
                -0.44456815112509673,
                1.447917838957486,
                -1.5666490564186653
            ]
        },
        {
            "positions": [
                -2.466273431112004,
                -0.8491510184917307,
                0.47807162799246133,
                -0.37567144384127626,
                1.4119344615459402,
                -1.5157092954431204
            ]
        },
        {
            "positions": [
                -2.3692557103198775,
                -0.894962294198457,
                0.38214502620958324,
                -0.30677473655745585,
                1.375951084134394,
                -1.4647695344675753
            ]
        },
        {
            "positions": [
                -2.2722379895277514,
                -0.9407735699051833,
                0.28621842442670514,
                -0.23787802927363538,
                1.3399677067228482,
                -1.4138297734920304
            ]
        },
        {
            "positions": [
                -2.175220268735625,
                -0.9865848456119097,
                0.1902918226438271,
                -0.16898132198981497,
                1.303984329311302,
                -1.3628900125164853
            ]
        },
        {
            "positions": [
                -2.0782025479434982,
                -1.0323961213186361,
                0.094365220860949,
                -0.1000846147059945,
                1.2680009518997561,
                -1.3119502515409405
            ]
        },
        {
            "positions": [
                -1.981184827151372,
                -1.0782073970253625,
                -0.0015613809219291452,
                -0.031187907422174033,
                1.23201757448821,
                -1.2610104905653956
            ]
        },
        {
            "positions": [
                -1.8841671063592456,
                -1.1240186727320887,
                -0.09748798270480707,
                0.037708799861646325,
                1.1960341970766641,
                -1.2100707295898507
            ]
        },
        {
            "positions": [
                -1.787149385567119,
                -1.169829948438815,
                -0.19341458448768523,
                0.1066055071454668,
                1.160050819665118,
                -1.1591309686143056
            ]
        },
        {
            "positions": [
                -1.6901316647749927,
                -1.2156412241455414,
                -0.28934118627056327,
                0.17550221442928726,
                1.1240674422535721,
                -1.1081912076387606
            ]
        },
        {
            "positions": [
                -1.593113943982866,
                -1.2614524998522678,
                -0.3852677880534414,
                0.24439892171310773,
                1.088084064842026,
                -1.0572514466632157
            ]
        },
        {
            "positions": [
                -1.4960962231907398,
                -1.3072637755589942,
                -0.48119438983631957,
                0.3132956289969281,
                1.0521006874304801,
                -1.0063116856876708
            ]
        },
        {
            "positions": [
                -1.3990785023986132,
                -1.3530750512657206,
                -0.5771209916191977,
                0.38219233628074867,
                1.016117310018934,
                -0.9553719247121257
            ]
        },
        {
            "positions": [
                -1.3020607816064869,
                -1.398886326972447,
                -0.6730475934020757,
                0.451089043564569,
                0.9801339326073881,
                -0.9044321637365809
            ]
        },
        {
            "positions": [
                -1.2050430608143605,
                -1.4446976026791731,
                -0.7689741951849536,
                0.5199857508483894,
                0.9441505551958421,
                -0.853492402761036
            ]
        },
        {
            "positions": [
                -1.1080253400222342,
                -1.4905088783858995,
                -0.8649007969678317,
                0.5888824581322099,
                0.9081671777842962,
                -0.802552641785491
            ]
        },
        {
            "positions": [
                -1.0110076192301074,
                -1.536320154092626,
                -0.9608273987507099,
                0.6577791654160303,
                0.8721838003727501,
                -0.7516128808099459
            ]
        },
        {
            "positions": [
                -0.9139898984379811,
                -1.5821314297993523,
                -1.056754000533588,
                0.7266758726998508,
                0.8362004229612041,
                -0.7006731198344011
            ]
        },
        {
            "positions": [
                -0.8169721776458547,
                -1.6279427055060784,
                -1.152680602316466,
                0.7955725799836713,
                0.8002170455496582,
                -0.6497333588588561
            ]
        },
        {
            "positions": [
                -0.7199544568537284,
                -1.6737539812128048,
                -1.2486072040993441,
                0.8644692872674915,
                0.7642336681381122,
                -0.5987935978833112
            ]
        },
        {
            "positions": [
                -0.6229367360616016,
                -1.7195652569195312,
                -1.3445338058822223,
                0.9333659945513122,
                0.7282502907265661,
                -0.5478538369077661
            ]
        },
        {
            "positions": [
                -0.5259190152694755,
                -1.7653765326262576,
                -1.4404604076651004,
                1.0022627018351327,
                0.6922669133150201,
                -0.49691407593222126
            ]
        },
        {
            "positions": [
                -0.4289012944773489,
                -1.811187808332984,
                -1.5363870094479786,
                1.071159409118953,
                0.6562835359034742,
                -0.4459743149566764
            ]
        },
        {
            "positions": [
                -0.33188357368522237,
                -1.8569990840397104,
                -1.6323136112308563,
                1.1400561164027734,
                0.6203001584919282,
                -0.3950345539811313
            ]
        },
        {
            "positions": [
                -0.2348658528930958,
                -1.9028103597464368,
                -1.7282402130137349,
                1.208952823686594,
                0.5843167810803821,
                -0.3440947930055862
            ]
        },
        {
            "positions": [
                -0.1378481321009697,
                -1.9486216354531631,
                -1.8241668147966126,
                1.2778495309704143,
                0.5483334036688362,
                -0.29315503203004134
            ]
        },
        {
            "positions": [
                -0.040830411308842976,
                -1.9944329111598895,
                -1.920093416579491,
                1.3467462382542348,
                0.5123500262572902,
                -0.24221527105449653
            ]
        },
        {
            "positions": [
                0.08655097330925889,
                -1.9295276053050163,
                -1.9288176385633975,
                1.3050856653706555,
                0.4452804750347681,
                -0.16163534798325677
            ]
        },
        {
            "positions": [
                0.21393235792736076,
                -1.864622299450143,
                -1.937541860547304,
                1.2634250924870762,
                0.37821092381224597,
                -0.081055424912017
            ]
        },
        {
            "positions": [
                0.34131374254546254,
                -1.7997169935952697,
                -1.9462660825312106,
                1.221764519603497,
                0.31114137258972396,
                -0.0004755018407772704
            ]
        },
        {
            "positions": [
                0.4686951271635645,
                -1.7348116877403963,
                -1.9549903045151171,
                1.180103946719918,
                0.2440718213672018,
                0.08010442123046252
            ]
        },
        {
            "positions": [
                0.5960765117816662,
                -1.669906381885523,
                -1.963714526499024,
                1.1384433738363386,
                0.17700227014467973,
                0.16068434430170225
            ]
        },
        {
            "positions": [
                0.723457896399768,
                -1.60500107603065,
                -1.9724387484829304,
                1.0967828009527594,
                0.10993271892215767,
                0.241264267372942
            ]
        },
        {
            "positions": [
                0.8508392810178699,
                -1.5400957701757765,
                -1.981162970466837,
                1.05512222806918,
                0.04286316769963555,
                0.3218441904441817
            ]
        },
        {
            "positions": [
                0.9782206656359719,
                -1.475190464320903,
                -1.9898871924507435,
                1.0134616551856008,
                -0.02420638352288662,
                0.40242411351542157
            ]
        },
        {
            "positions": [
                1.1056020502540738,
                -1.41028515846603,
                -1.99861141443465,
                0.9718010823020216,
                -0.09127593474540863,
                0.4830040365866613
            ]
        },
        {
            "positions": [
                1.2329834348721755,
                -1.3453798526111567,
                -2.0073356364185564,
                0.9301405094184424,
                -0.15834548596793074,
                0.5635839596579011
            ]
        },
        {
            "positions": [
                1.3603648194902775,
                -1.2804745467562832,
                -2.016059858402463,
                0.8884799365348631,
                -0.22541503719045286,
                0.6441638827291409
            ]
        },
        {
            "positions": [
                1.487746204108379,
                -1.2155692409014103,
                -2.02478408038637,
                0.846819363651284,
                -0.29248458841297487,
                0.7247438058003806
            ]
        },
        {
            "positions": [
                1.615127588726481,
                -1.1506639350465369,
                -2.0335083023702762,
                0.8051587907677047,
                -0.3595541396354971,
                0.8053237288716204
            ]
        },
        {
            "positions": [
                1.7425089733445829,
                -1.0857586291916634,
                -2.042232524354183,
                0.7634982178841255,
                -0.4266236908580191,
                0.88590365194286
            ]
        },
        {
            "positions": [
                1.8698903579626849,
                -1.0208533233367902,
                -2.0509567463380893,
                0.7218376450005461,
                -0.49369324208054133,
                0.9664835750140999
            ]
        },
        {
            "positions": [
                1.9972717425807869,
                -0.9559480174819168,
                -2.059680968321996,
                0.6801770721169669,
                -0.5607627933030634,
                1.0470634980853397
            ]
        },
        {
            "positions": [
                2.124653127198888,
                -0.8910427116270436,
                -2.0684051903059024,
                0.6385164992333877,
                -0.6278323445255853,
                1.1276434211565793
            ]
        },
        {
            "positions": [
                2.25203451181699,
                -0.8261374057721704,
                -2.077129412289809,
                0.5968559263498084,
                -0.6949018957481075,
                1.2082233442278192
            ]
        },
        {
            "positions": [
                2.3794158964350918,
                -0.7612320999172972,
                -2.0858536342737155,
                0.5551953534662293,
                -0.7619714469706296,
                1.2888032672990588
            ]
        },
        {
            "positions": [
                2.5067972810531938,
                -0.6963267940624238,
                -2.0945778562576223,
                0.51353478058265,
                -0.8290409981931517,
                1.3693831903702987
            ]
        },
        {
            "positions": [
                2.372180984131793,
                -0.7755121774161757,
                -2.108834671704922,
                0.5630934896570522,
                -0.7787967592083938,
                1.3013168613690709
            ]
        },
        {
            "positions": [
                2.237564687210392,
                -0.8546975607699276,
                -2.1230914871522213,
                0.6126521987314544,
                -0.7285525202236357,
                1.2332505323678433
            ]
        },
        {
            "positions": [
                2.1029483902889914,
                -0.9338829441236796,
                -2.137348302599521,
                0.6622109078058565,
                -0.6783082812388778,
                1.1651842033666155
            ]
        },
        {
            "positions": [
                1.9683320933675903,
                -1.0130683274774315,
                -2.1516051180468203,
                0.7117696168802586,
                -0.6280640422541198,
                1.0971178743653878
            ]
        },
        {
            "positions": [
                1.8337157964461896,
                -1.0922537108311836,
                -2.16586193349412,
                0.7613283259546608,
                -0.5778198032693618,
                1.02905154536416
            ]
        },
        {
            "positions": [
                1.6990994995247886,
                -1.1714390941849353,
                -2.1801187489414193,
                0.8108870350290629,
                -0.5275755642846038,
                0.9609852163629324
            ]
        },
        {
            "positions": [
                1.564483202603388,
                -1.2506244775386874,
                -2.194375564388719,
                0.860445744103465,
                -0.4773313252998459,
                0.8929188873617047
            ]
        },
        {
            "positions": [
                1.429866905681987,
                -1.3298098608924394,
                -2.2086323798360183,
                0.9100044531778673,
                -0.4270870863150879,
                0.824852558360477
            ]
        },
        {
            "positions": [
                1.2952506087605862,
                -1.4089952442461913,
                -2.222889195283318,
                0.9595631622522693,
                -0.3768428473303299,
                0.7567862293592492
            ]
        },
        {
            "positions": [
                1.1606343118391853,
                -1.4881806275999432,
                -2.2371460107306174,
                1.0091218713266716,
                -0.326598608345572,
                0.6887199003580216
            ]
        },
        {
            "positions": [
                1.0260180149177844,
                -1.567366010953695,
                -2.251402826177917,
                1.0586805804010737,
                -0.2763543693608139,
                0.6206535713567938
            ]
        },
        {
            "positions": [
                0.8914017179963836,
                -1.646551394307447,
                -2.265659641625216,
                1.1082392894754758,
                -0.2261101303760561,
                0.5525872423555661
            ]
        },
        {
            "positions": [
                0.7567854210749827,
                -1.725736777661199,
                -2.2799164570725154,
                1.1577979985498779,
                -0.17586589139129805,
                0.48452091335433844
            ]
        },
        {
            "positions": [
                0.622169124153582,
                -1.8049221610149508,
                -2.294173272519815,
                1.20735670762428,
                -0.1256216524065401,
                0.4164545843531108
            ]
        },
        {
            "positions": [
                0.48755282723218096,
                -1.8841075443687028,
                -2.3084300879671145,
                1.2569154166986822,
                -0.07537741342178217,
                0.3483882553518831
            ]
        },
        {
            "positions": [
                0.3529365303107803,
                -1.963292927722455,
                -2.322686903414414,
                1.3064741257730845,
                -0.02513317443702412,
                0.28032192635065534
            ]
        },
        {
            "positions": [
                0.21832023338937923,
                -2.0424783110762066,
                -2.3369437188617135,
                1.3560328348474866,
                0.02511106454773382,
                0.21225559734942756
            ]
        },
        {
            "positions": [
                0.08370393646797858,
                -2.1216636944299587,
                -2.351200534309013,
                1.4055915439218887,
                0.07535530353249187,
                0.14418926834819978
            ]
        },
        {
            "positions": [
                -0.05091236045342207,
                -2.200849077783711,
                -2.3654573497563125,
                1.4551502529962907,
                0.1255995425172497,
                0.07612293934697223
            ]
        },
        {
            "positions": [
                -0.18552865737482302,
                -2.2800344611374626,
                -2.379714165203612,
                1.504708962070693,
                0.1758437815020078,
                0.008056610345744519
            ]
        }
    ]
}