{
    "goal": {
        "global_pose": {
            "orientation": {
                "w": 0.5084816217422485,
                "x": -0.49083608388900757,
                "y": 0.5182115435600281,
                "z": -0.4816462993621826
            },
            "position": {
                "x": 0.5540239810943604,
                "y": 0.030875300988554955,
                "z": 0.16403168439865112
            }
        },
        "name": "move_to_storage_A"
    },
    "id": "BKPIECE_move_to_storage_A_8",
    "joint_names": [
        "shoulder_pan_joint",
        "shoulder_lift_joint",
        "elbow_joint",
        "wrist_1_joint",
        "wrist_2_joint",
        "wrist_3_joint"
    ],
    "metrics": {
        "cart_traj_len": 0.3538361052284842,
        "distance_elbow_joint": 0.45030747042680175,
        "distance_shoulder_lift_joint": 0.23551117274768418,
        "distance_shoulder_pan_joint": 0.4618270903479104,
        "distance_wrist_1_joint": 0.24339666838268947,
        "distance_wrist_2_joint": 1.1044696818810793,
        "distance_wrist_3_joint": 0.10322459535838613,
        "smoothness": 6.661338165333112e-16,
        "time": 0.35342275900000003,
        "traj_len": 1.612059762894835,
        "weighted_distance": 2.0379038790200807
    },
    "planner": "BKPIECE",
    "start": {
        "state": {
            "elbow_joint": 1.971548259319323,
            "shoulder_lift_joint": -1.1394851275133948,
            "shoulder_pan_joint": 0.1228115487234821,
            "wrist_1_joint": -0.7804723859257726,
            "wrist_2_joint": 0.12958671773740124,
            "wrist_3_joint": -3.192489227718131
        }
    },
    "waypoints": [
        {
            "positions": [
                0.1228115487234821,
                -1.1394851275133948,
                1.971548259319323,
                -0.7804723859257726,
                0.12958671773740124,
                -3.192489227718131
            ]
        },
        {
            "positions": [
                0.05683625010235205,
                -1.173129580763064,
                2.0358778979517234,
                -0.8152433385518711,
                0.2873681008632697,
                -3.1777428569526474
            ]
        },
        {
            "positions": [
                -0.009139048518778004,
                -1.206774034012733,
                2.1002075365841235,
                -0.8500142911779696,
                0.4451494839891381,
                -3.1629964861871636
            ]
        },
        {
            "positions": [
                -0.07511434713990806,
                -1.2404184872624022,
                2.1645371752165237,
                -0.8847852438040681,
                0.6029308671150067,
                -3.1482501154216798
            ]
        },
        {
            "positions": [
                -0.1410896457610381,
                -1.2740629405120716,
                2.228866813848924,
                -0.9195561964301666,
                0.7607122502408751,
                -3.1335037446561964
            ]
        },
        {
            "positions": [
                -0.20706494438216821,
                -1.3077073937617407,
                2.2931964524813244,
                -0.954327149056265,
                0.9184936333667436,
                -3.1187573738907126
            ]
        },
        {
            "positions": [
                -0.2730402430032982,
                -1.3413518470114099,
                2.3575260911137246,
                -0.9890981016823636,
                1.076275016492612,
                -3.104011003125229
            ]
        },
        {
            "positions": [
                -0.3390155416244283,
                -1.374996300261079,
                2.4218557297461247,
                -1.023869054308462,
                1.2340563996184806,
                -3.089264632359745
            ]
        }
    ]
}{
    "goal": {
        "global_pose": {
            "orientation": {
                "w": 0.5084816217422485,
                "x": -0.49083608388900757,
                "y": 0.5182115435600281,
                "z": -0.4816462993621826
            },
            "position": {
                "x": 0.5540239810943604,
                "y": 0.030875300988554955,
                "z": 0.16403168439865112
            }
        },
        "name": "move_to_storage_A"
    },
    "id": "BKPIECE_move_to_storage_A_8",
    "joint_names": [
        "shoulder_pan_joint",
        "shoulder_lift_joint",
        "elbow_joint",
        "wrist_1_joint",
        "wrist_2_joint",
        "wrist_3_joint"
    ],
    "metrics": {
        "cart_traj_len": 0.35330012859470505,
        "distance_elbow_joint": 0.45245788337079373,
        "distance_shoulder_lift_joint": 0.23459739798626944,
        "distance_shoulder_pan_joint": 0.46046385819664726,
        "distance_wrist_1_joint": 0.24822713944472374,
        "distance_wrist_2_joint": 1.1066426123628192,
        "distance_wrist_3_joint": 0.09232480294449807,
        "smoothness": 0.0,
        "time": 0.17838414,
        "traj_len": 1.6108115017921096,
        "weighted_distance": 2.0332813509207943
    },
    "planner": "BKPIECE",
    "start": {
        "state": {
            "elbow_joint": 1.97154746011099,
            "shoulder_lift_joint": -1.13948474672311,
            "shoulder_pan_joint": 0.12281154466712228,
            "wrist_1_joint": -0.7804688027058302,
            "wrist_2_joint": 0.12958655903071145,
            "wrist_3_joint": 3.0906928834467795
        }
    },
    "waypoints": [
        {
            "positions": [
                0.12281154466712228,
                -1.13948474672311,
                1.97154746011099,
                -0.7804688027058302,
                0.12958655903071145,
                3.0906928834467795
            ]
        },
        {
            "positions": [
                0.057030993496172674,
                -1.1729986607211484,
                2.0361843005925317,
                -0.815929822626505,
                0.2876783607968285,
                3.103882141010279
            ]
        },
        {
            "positions": [
                -0.008749557674776934,
                -1.206512574719187,
                2.100821141074074,
                -0.8513908425471798,
                0.44577016256294555,
                3.117071398573779
            ]
        },
        {
            "positions": [
                -0.07453010884572654,
                -1.2400264887172254,
                2.165457981555616,
                -0.8868518624678546,
                0.6038619643290626,
                3.1302606561372786
            ]
        },
        {
            "positions": [
                -0.14031066001667614,
                -1.273540402715264,
                2.2300948220371577,
                -0.9223128823885295,
                0.7619537660951796,
                3.1434499137007785
            ]
        },
        {
            "positions": [
                -0.20609121118762574,
                -1.3070543167133024,
                2.2947316625187,
                -0.9577739023092042,
                0.9200455678612967,
                3.156639171264278
            ]
        },
        {
            "positions": [
                -0.27187176235857535,
                -1.340568230711341,
                2.359368503000242,
                -0.9932349222298791,
                1.0781373696274137,
                3.169828428827778
            ]
        },
        {
            "positions": [
                -0.33765231352952496,
                -1.3740821447093794,
                2.4240053434817836,
                -1.028695942150554,
                1.2362291713935307,
                3.1830176863912776
            ]
        }
    ]
}{
    "goal": {
        "global_pose": {
            "orientation": {
                "w": 0.5084816217422485,
                "x": -0.49083608388900757,
                "y": 0.5182115435600281,
                "z": -0.4816462993621826
            },
            "position": {
                "x": 0.5540239810943604,
                "y": 0.030875300988554955,
                "z": 0.16403168439865112
            }
        },
        "name": "move_to_storage_A"
    },
    "id": "BKPIECE_move_to_storage_A_8",
    "joint_names": [
        "shoulder_pan_joint",
        "shoulder_lift_joint",
        "elbow_joint",
        "wrist_1_joint",
        "wrist_2_joint",
        "wrist_3_joint"
    ],
    "metrics": {
        "cart_traj_len": 0.35236313503939937,
        "distance_elbow_joint": 0.4517804738297797,
        "distance_shoulder_lift_joint": 0.23445047832691035,
        "distance_shoulder_pan_joint": 0.4612103720428765,
        "distance_wrist_1_joint": 0.24962175922638985,
        "distance_wrist_2_joint": 1.0958338141308908,
        "distance_wrist_3_joint": 0.09842937964166376,
        "smoothness": 2.2204460668324854e-16,
        "time": 0.080500798,
        "traj_len": 1.609759695482065,
        "weighted_distance": 2.033135659477527
    },
    "planner": "BKPIECE",
    "start": {
        "state": {
            "elbow_joint": 1.9715472970024885,
            "shoulder_lift_joint": -1.1394870060712896,
            "shoulder_pan_joint": 0.12281152778156021,
            "wrist_1_joint": -0.780463741449964,
            "wrist_2_joint": 0.12958659822042276,
            "wrist_3_joint": 3.090690232415272
        }
    },
    "waypoints": [
        {
            "positions": [
                0.12281152778156021,
                -1.1394870060712896,
                1.9715472970024885,
                -0.780463741449964,
                0.12958659822042276,
                3.090690232415272
            ]
        },
        {
            "positions": [
                0.056924331775435,
                -1.1729799315465625,
                2.036087364692457,
                -0.8161239927680197,
                0.2861342859534072,
                3.104751572364081
            ]
        },
        {
            "positions": [
                -0.008962864230690204,
                -1.2064728570218355,
                2.1006274323824257,
                -0.8517842440860753,
                0.4426819736863915,
                3.1188129123128903
            ]
        },
        {
            "positions": [
                -0.07485006023681542,
                -1.2399657824971084,
                2.165167500072394,
                -0.8874444954041311,
                0.599229661419376,
                3.1328742522616992
            ]
        },
        {
            "positions": [
                -0.14073725624294062,
                -1.2734587079723811,
                2.229707567762363,
                -0.9231047467221868,
                0.7557773491523603,
                3.1469355922105082
            ]
        },
        {
            "positions": [
                -0.20662445224906587,
                -1.306951633447654,
                2.294247635452331,
                -0.9587649980402424,
                0.9123250368853447,
                3.160996932159317
            ]
        },
        {
            "positions": [
                -0.27251164825519103,
                -1.340444558922927,
                2.3587877031422995,
                -0.9944252493582981,
                1.0688727246183292,
                3.1750582721081266
            ]
        },
        {
            "positions": [
                -0.3383988442613163,
                -1.3739374843982,
                2.4233277708322682,
                -1.0300855006763538,
                1.2254204123513135,
                3.1891196120569356
            ]
        }
    ]
}