{
    "goal": {
        "global_pose": {
            "orientation": {
                "w": 0.005598929693374612,
                "x": 0.007748599140229565,
                "y": 0.7110244013736278,
                "z": -0.7031023480610252
            },
            "position": {
                "x": 0.1141497679147869,
                "y": -0.7141253447532654,
                "z": 0.3711530566215515
            }
        },
        "name": "move_to_auspresseinheit_B"
    },
    "id": "BKPIECE_move_to_auspresseinheit_B_147",
    "joint_names": [
        "shoulder_pan_joint",
        "shoulder_lift_joint",
        "elbow_joint",
        "wrist_1_joint",
        "wrist_2_joint",
        "wrist_3_joint"
    ],
    "metrics": {
        "cart_traj_len": 0.5650599818780268,
        "distance_elbow_joint": 0.061880268815786454,
        "distance_shoulder_lift_joint": 0.29540488519257346,
        "distance_shoulder_pan_joint": 0.5752769606450172,
        "distance_wrist_1_joint": 0.323529578586235,
        "distance_wrist_2_joint": 1.006044392920238,
        "distance_wrist_3_joint": 0.010058531210943134,
        "smoothness": 5.075305295617109e-16,
        "time": 0.200623778,
        "traj_len": 1.5073800507406199,
        "weighted_distance": 1.9031252326894184
    },
    "planner": "BKPIECE",
    "start": {
        "state": {
            "elbow_joint": 2.0193083361928714,
            "shoulder_lift_joint": -1.1220246554650708,
            "shoulder_pan_joint": -1.0952077554168747,
            "wrist_1_joint": -0.8559753972642168,
            "wrist_2_joint": 0.4759566250798843,
            "wrist_3_joint": -3.1240929996934557
        }
    },
    "waypoints": [
        {
            "positions": [
                -1.0952077554168747,
                -1.1220246554650708,
                2.0193083361928714,
                -0.8559753972642168,
                0.4759566250798843,
                -3.1240929996934557
            ]
        },
        {
            "positions": [
                -1.191087248857711,
                -1.1712588029971664,
                2.008994958056907,
                -0.8020538008331777,
                0.6436306905665906,
                -3.122416577824965
            ]
        },
        {
            "positions": [
                -1.2869667422985471,
                -1.2204929505292619,
                1.9986815799209425,
                -0.7481322044021385,
                0.8113047560532969,
                -3.1207401559564745
            ]
        },
        {
            "positions": [
                -1.3828462357393834,
                -1.2697270980613575,
                1.9883682017849782,
                -0.6942106079710992,
                0.9789788215400033,
                -3.119063734087984
            ]
        },
        {
            "positions": [
                -1.4787257291802194,
                -1.3189612455934532,
                1.9780548236490139,
                -0.6402890115400601,
                1.1466528870267096,
                -3.1173873122194937
            ]
        },
        {
            "positions": [
                -1.5746052226210556,
                -1.3681953931255486,
                1.9677414455130493,
                -0.586367415109021,
                1.314326952513416,
                -3.115710890351003
            ]
        },
        {
            "positions": [
                -1.6704847160618919,
                -1.4174295406576443,
                1.957428067377085,
                -0.5324458186779818,
                1.4820010180001224,
                -3.1140344684825125
            ]
        }
    ]
}