{
    "goal": {
        "global_pose": {
            "orientation": {
                "w": -0.00223480608172531,
                "x": 0.0024358444001904467,
                "y": 0.7094548369677653,
                "z": -0.704743149386269
            },
            "position": {
                "x": -0.37947507619857795,
                "y": -0.6371506643295288,
                "z": 0.19426114857196808
            }
        },
        "name": "move_to_magneteinheit_C"
    },
    "id": "BKPIECE_move_to_magneteinheit_C_75",
    "joint_names": [
        "shoulder_pan_joint",
        "shoulder_lift_joint",
        "elbow_joint",
        "wrist_1_joint",
        "wrist_2_joint",
        "wrist_3_joint"
    ],
    "metrics": {
        "cart_traj_len": 2.3188000728547995,
        "distance_elbow_joint": 2.1484454183157036,
        "distance_shoulder_lift_joint": 1.1891752998363594,
        "distance_shoulder_pan_joint": 1.5938702434231955,
        "distance_wrist_1_joint": 0.7780543281229985,
        "distance_wrist_2_joint": 1.4284800301030351,
        "distance_wrist_3_joint": 1.899209763587459,
        "smoothness": 1.2715754401446027,
        "time": 0.186679169,
        "traj_len": 3.0061994417185214,
        "weighted_distance": 3.878426094279702
    },
    "planner": "BKPIECE",
    "start": {
        "state": {
            "elbow_joint": 1.9565354010623817,
            "shoulder_lift_joint": -1.4165861575791021,
            "shoulder_pan_joint": -1.6717766225146293,
            "wrist_1_joint": -0.5286633292919765,
            "wrist_2_joint": 1.472756589071564,
            "wrist_3_joint": -3.1238370188695823
        }
    },
    "waypoints": [
        {
            "positions": [
                -1.6717766225146293,
                -1.4165861575791021,
                1.9565354010623817,
                -0.5286633292919765,
                1.472756589071564,
                -3.1238370188695823
            ]
        },
        {
            "positions": [
                -1.6441434341253574,
                -1.4775555767835804,
                1.9478035940297058,
                -0.6515527953895148,
                1.5240505505190003,
                -3.193395451758407
            ]
        },
        {
            "positions": [
                -1.6165102457360856,
                -1.538524995988059,
                1.93907178699703,
                -0.7744422614870533,
                1.5753445119664367,
                -3.2629538846472315
            ]
        },
        {
            "positions": [
                -1.5888770573468136,
                -1.5994944151925372,
                1.9303399799643541,
                -0.8973317275845918,
                1.626638473413873,
                -3.332512317536056
            ]
        },
        {
            "positions": [
                -1.5612438689575416,
                -1.6604638343970155,
                1.9216081729316783,
                -1.0202211936821302,
                1.6779324348613094,
                -3.4020707504248806
            ]
        },
        {
            "positions": [
                -1.6036494770516347,
                -1.6150437344602928,
                1.832149382498447,
                -1.0128579545083851,
                1.587886739864932,
                -3.3164884204523317
            ]
        },
        {
            "positions": [
                -1.6460550851457276,
                -1.5696236345235701,
                1.7426905920652156,
                -1.00549471533464,
                1.4978410448685544,
                -3.230906090479783
            ]
        },
        {
            "positions": [
                -1.6884606932398207,
                -1.5242035345868474,
                1.6532318016319842,
                -0.9981314761608949,
                1.4077953498721771,
                -3.145323760507234
            ]
        },
        {
            "positions": [
                -1.7308663013339138,
                -1.4787834346501247,
                1.563773011198753,
                -0.9907682369871499,
                1.3177496548757994,
                -3.059741430534685
            ]
        },
        {
            "positions": [
                -1.773271909428007,
                -1.433363334713402,
                1.4743142207655215,
                -0.9834049978134047,
                1.2277039598794222,
                -2.974159100562136
            ]
        },
        {
            "positions": [
                -1.8156775175220998,
                -1.3879432347766794,
                1.3848554303322902,
                -0.9760417586396597,
                1.1376582648830447,
                -2.8885767705895873
            ]
        },
        {
            "positions": [
                -1.858083125616193,
                -1.3425231348399567,
                1.2953966398990588,
                -0.9686785194659145,
                1.0476125698866672,
                -2.802994440617038
            ]
        },
        {
            "positions": [
                -1.900488733710286,
                -1.297103034903234,
                1.2059378494658273,
                -0.9613152802921695,
                0.9575668748902897,
                -2.717412110644489
            ]
        },
        {
            "positions": [
                -1.9428943418043791,
                -1.2516829349665113,
                1.116479059032596,
                -0.9539520411184245,
                0.8675211798939122,
                -2.63182978067194
            ]
        },
        {
            "positions": [
                -1.985299949898472,
                -1.2062628350297886,
                1.0270202685993646,
                -0.9465888019446793,
                0.7774754848975348,
                -2.5462474506993913
            ]
        },
        {
            "positions": [
                -2.027705557992565,
                -1.160842735093066,
                0.9375614781661332,
                -0.9392255627709343,
                0.6874297899011573,
                -2.4606651207268424
            ]
        },
        {
            "positions": [
                -2.141482200254681,
                -1.1223988357019965,
                0.9239763279140217,
                -0.9446368418191473,
                0.6520023928013462,
                -2.5045989241677002
            ]
        },
        {
            "positions": [
                -2.2552588425167976,
                -1.0839549363109273,
                0.9103911776619102,
                -0.9500481208673603,
                0.6165749957015351,
                -2.548532727608558
            ]
        },
        {
            "positions": [
                -2.3725865988268486,
                -1.04931346346804,
                0.9458926837292677,
                -0.962277437164753,
                0.6028547373067032,
                -2.632401990735776
            ]
        },
        {
            "positions": [
                -2.4899143551369,
                -1.014671990625153,
                0.9813941897966252,
                -0.9745067534621457,
                0.5891344789118714,
                -2.716271253862994
            ]
        },
        {
            "positions": [
                -2.607242111446951,
                -0.9800305177822657,
                1.0168956958639828,
                -0.9867360697595383,
                0.5754142205170396,
                -2.8001405169902123
            ]
        },
        {
            "positions": [
                -2.724569867757002,
                -0.9453890449393785,
                1.0523972019313401,
                -0.998965386056931,
                0.5616939621222078,
                -2.88400978011743
            ]
        },
        {
            "positions": [
                -2.759695396236411,
                -0.9394212974442797,
                1.094377066368188,
                -0.9985874247036045,
                0.5601664987459716,
                -2.922292941410395
            ]
        },
        {
            "positions": [
                -2.704121313409098,
                -0.9841675089622888,
                1.2805845229098742,
                -0.969212350011451,
                0.5814150741639555,
                -2.967781837614036
            ]
        },
        {
            "positions": [
                -2.648547230581785,
                -1.0289137204802978,
                1.4667919794515607,
                -0.9398372753192974,
                0.6026636495819395,
                -3.0132707338176763
            ]
        },
        {
            "positions": [
                -2.592973147754472,
                -1.0736599319983071,
                1.6529994359932472,
                -0.9104622006271439,
                0.6239122249999235,
                -3.058759630021317
            ]
        },
        {
            "positions": [
                -2.537399064927159,
                -1.1184061435163162,
                1.8392068925349334,
                -0.8810871259349904,
                0.6451608004179075,
                -3.104248526224958
            ]
        },
        {
            "positions": [
                -2.4748094336491726,
                -1.16367638350999,
                2.012692372577143,
                -0.8532043765212788,
                0.6657047469439238,
                -3.140235523060965
            ]
        }
    ]
}