{
    "goal": {
        "global_pose": {
            "orientation": {
                "w": 0.7047431468963623,
                "x": -0.7094548344612122,
                "y": 0.0024358443915843964,
                "z": -0.0022348060738295317
            },
            "position": {
                "x": 0.6094750761985779,
                "y": 0.3671506643295288,
                "z": 0.19426114857196808
            }
        },
        "name": "move_to_magneteinheit_A"
    },
    "id": "BKPIECE_move_to_magneteinheit_A_59",
    "joint_names": [
        "shoulder_pan_joint",
        "shoulder_lift_joint",
        "elbow_joint",
        "wrist_1_joint",
        "wrist_2_joint",
        "wrist_3_joint"
    ],
    "metrics": {
        "cart_traj_len": 3.2315383378905636,
        "distance_elbow_joint": 3.869082889831298,
        "distance_shoulder_lift_joint": 0.31941438977029324,
        "distance_shoulder_pan_joint": 2.8422701548771916,
        "distance_wrist_1_joint": 0.8598176067175024,
        "distance_wrist_2_joint": 1.692818139893796,
        "distance_wrist_3_joint": 2.5674822196936278,
        "smoothness": 0.0828715303329198,
        "time": 0.168126268,
        "traj_len": 3.4858120145503704,
        "weighted_distance": 4.45404148911775
    },
    "planner": "BKPIECE",
    "start": {
        "state": {
            "elbow_joint": -1.9196185241190666,
            "shoulder_lift_joint": -1.2443396400964142,
            "shoulder_pan_joint": 2.6996025414629847,
            "wrist_1_joint": -1.5485510000780065,
            "wrist_2_joint": -1.5709468930060704,
            "wrist_3_joint": 0.4420197071253992
        }
    },
    "waypoints": [
        {
            "positions": [
                2.6996025414629847,
                -1.2443396400964142,
                -1.9196185241190666,
                -1.5485510000780065,
                -1.5709468930060704,
                0.4420197071253992
            ]
        },
        {
            "positions": [
                2.5618915820223567,
                -1.2438388895066594,
                -1.8286497046886572,
                -1.4783074220551602,
                -1.5207332703968433,
                0.4873244246488153
            ]
        },
        {
            "positions": [
                2.4241806225817286,
                -1.2433381389169045,
                -1.7376808852582475,
                -1.408063844032314,
                -1.4705196477876161,
                0.5326291421722315
            ]
        },
        {
            "positions": [
                2.2864696631411006,
                -1.2428373883271497,
                -1.646712065827838,
                -1.3378202660094678,
                -1.420306025178389,
                0.5779338596956476
            ]
        },
        {
            "positions": [
                2.148758703700472,
                -1.242336637737395,
                -1.5557432463974283,
                -1.2675766879866215,
                -1.370092402569162,
                0.6232385772190637
            ]
        },
        {
            "positions": [
                2.0110477442598444,
                -1.24183588714764,
                -1.4647744269670189,
                -1.1973331099637754,
                -1.319878779959935,
                0.6685432947424799
            ]
        },
        {
            "positions": [
                1.8733367848192162,
                -1.2413351365578853,
                -1.3738056075366094,
                -1.127089531940929,
                -1.2696651573507078,
                0.713848012265896
            ]
        },
        {
            "positions": [
                1.735625825378588,
                -1.2408343859681306,
                -1.2828367881061997,
                -1.0568459539180828,
                -1.2194515347414807,
                0.7591527297893121
            ]
        },
        {
            "positions": [
                1.5979148659379598,
                -1.2403336353783756,
                -1.19186796867579,
                -0.9866023758952367,
                -1.1692379121322536,
                0.8044574473127283
            ]
        },
        {
            "positions": [
                1.4602039064973318,
                -1.2398328847886209,
                -1.1008991492453806,
                -0.9163587978723904,
                -1.1190242895230265,
                0.8497621648361444
            ]
        },
        {
            "positions": [
                1.3785170854997602,
                -1.245416015790184,
                -0.9528052735217521,
                -0.9066425431864095,
                -1.0636085560326605,
                0.9398407711160136
            ]
        },
        {
            "positions": [
                1.2968302645021883,
                -1.2509991467917472,
                -0.8047113977981237,
                -0.8969262885004285,
                -1.0081928225422947,
                1.0299193773958828
            ]
        },
        {
            "positions": [
                1.2151434435046164,
                -1.2565822777933102,
                -0.6566175220744952,
                -0.8872100338144476,
                -0.9527770890519287,
                1.119997983675752
            ]
        },
        {
            "positions": [
                1.1334566225070448,
                -1.2621654087948733,
                -0.5085236463508668,
                -0.8774937791284667,
                -0.8973613555615629,
                1.2100765899556212
            ]
        },
        {
            "positions": [
                1.0517698015094732,
                -1.2677485397964365,
                -0.36042977062723824,
                -0.8677775244424858,
                -0.8419456220711969,
                1.3001551962354905
            ]
        },
        {
            "positions": [
                0.9700829805119013,
                -1.2733316707979996,
                -0.21233589490360982,
                -0.8580612697565049,
                -0.7865298885808311,
                1.3902338025153596
            ]
        },
        {
            "positions": [
                0.8883961595143296,
                -1.2789148017995626,
                -0.06424201917998129,
                -0.848345015070524,
                -0.7311141550904652,
                1.4803124087952289
            ]
        },
        {
            "positions": [
                0.8067093385167579,
                -1.284497932801126,
                0.08385185654364702,
                -0.838628760384543,
                -0.6756984216000993,
                1.570391015075098
            ]
        },
        {
            "positions": [
                0.7250225175191861,
                -1.290081063802689,
                0.23194573226727555,
                -0.8289125056985621,
                -0.6202826881097334,
                1.6604696213549672
            ]
        },
        {
            "positions": [
                0.6433356965216144,
                -1.295664194804252,
                0.3800396079909041,
                -0.8191962510125812,
                -0.5648669546193674,
                1.7505482276348365
            ]
        },
        {
            "positions": [
                0.5616488755240425,
                -1.3012473258058153,
                0.5281334837145326,
                -0.8094799963266003,
                -0.5094512211290015,
                1.8406268339147056
            ]
        },
        {
            "positions": [
                0.4799620545264709,
                -1.3068304568073783,
                0.6762273594381609,
                -0.7997637416406194,
                -0.45403548763863566,
                1.9307054401945747
            ]
        },
        {
            "positions": [
                0.39827523352889926,
                -1.3124135878089414,
                0.8243212351617895,
                -0.7900474869546384,
                -0.3986197541482698,
                2.0207840464744438
            ]
        },
        {
            "positions": [
                0.3165884125313274,
                -1.3179967188105046,
                0.972415110885418,
                -0.7803312322686575,
                -0.3432040206579039,
                2.1108626527543133
            ]
        },
        {
            "positions": [
                0.23490159153375556,
                -1.3235798498120677,
                1.1205089866090465,
                -0.7706149775826766,
                -0.2877882871675379,
                2.200941259034183
            ]
        },
        {
            "positions": [
                0.15321477053618393,
                -1.3291629808136307,
                1.2686028623326746,
                -0.7608987228966957,
                -0.23237255367717213,
                2.291019865314052
            ]
        },
        {
            "positions": [
                0.0715279495386123,
                -1.334746111815194,
                1.4166967380563031,
                -0.7511824682107148,
                -0.17695682018680614,
                2.381098471593921
            ]
        },
        {
            "positions": [
                -0.010158871458959585,
                -1.340329242816757,
                1.5647906137799317,
                -0.7414662135247339,
                -0.12154108669644029,
                2.47117707787379
            ]
        },
        {
            "positions": [
                0.013719473002467484,
                -1.2969991199042883,
                1.6498355082001857,
                -0.7331090724304041,
                -0.07032017441838162,
                2.5847807698158944
            ]
        },
        {
            "positions": [
                0.04087707237592248,
                -1.2542288315238146,
                1.724742722578197,
                -0.7220151526629291,
                -0.022272319091854842,
                2.6909610590666775
            ]
        },
        {
            "positions": [
                0.06803467174937748,
                -1.211458543143341,
                1.7996499369562085,
                -0.7109212328954542,
                0.025775536234671936,
                2.797141348317461
            ]
        },
        {
            "positions": [
                0.09519227112283248,
                -1.168688254762867,
                1.8745571513342199,
                -0.6998273131279791,
                0.07382339156119871,
                2.903321637568244
            ]
        },
        {
            "positions": [
                0.12234987049628747,
                -1.1259179663823933,
                1.9494643657122313,
                -0.6887333933605041,
                0.1218712468877255,
                3.009501926819027
            ]
        }
    ]
}