{
    "goal": {
        "global_pose": {
            "orientation": {
                "w": -0.00223480608172531,
                "x": 0.0024358444001904467,
                "y": 0.7094548369677653,
                "z": -0.704743149386269
            },
            "position": {
                "x": 0.6205249238014221,
                "y": -0.6371506643295288,
                "z": 0.19426114857196808
            }
        },
        "name": "move_to_magneteinheit_B"
    },
    "id": "BKPIECE_move_to_magneteinheit_B_84",
    "joint_names": [
        "shoulder_pan_joint",
        "shoulder_lift_joint",
        "elbow_joint",
        "wrist_1_joint",
        "wrist_2_joint",
        "wrist_3_joint"
    ],
    "metrics": {
        "cart_traj_len": 3.383929750947246,
        "distance_elbow_joint": 4.28989111220965,
        "distance_shoulder_lift_joint": 1.06116539722749,
        "distance_shoulder_pan_joint": 2.5223125858628097,
        "distance_wrist_1_joint": 1.5041278883450906,
        "distance_wrist_2_joint": 1.595987092144235,
        "distance_wrist_3_joint": 1.1159443905946165,
        "smoothness": 0.23753332783021897,
        "time": 0.26816247699999995,
        "traj_len": 3.476985543021986,
        "weighted_distance": 4.17389892403523
    },
    "planner": "BKPIECE",
    "start": {
        "state": {
            "elbow_joint": 2.6216224122426386,
            "shoulder_lift_joint": -1.4174107377796124,
            "shoulder_pan_joint": 0.7066234856936794,
            "wrist_1_joint": 1.9546482284002225,
            "wrist_2_joint": -0.7096286983471962,
            "wrist_3_joint": 0.005740856962016249
        }
    },
    "waypoints": [
        {
            "positions": [
                0.7066234856936794,
                -1.4174107377796124,
                2.6216224122426386,
                1.9546482284002225,
                -0.7096286983471962,
                0.005740856962016249
            ]
        },
        {
            "positions": [
                0.6719308553400976,
                -1.44298788714435,
                2.6054277989849686,
                1.9480646472713445,
                -0.8042025771597137,
                -0.09676338861050203
            ]
        },
        {
            "positions": [
                0.6372382249865158,
                -1.4685650365090877,
                2.5892331857272985,
                1.9414810661424664,
                -0.898776455972231,
                -0.1992676341830203
            ]
        },
        {
            "positions": [
                0.6288677621925947,
                -1.493639776616323,
                2.40892399912927,
                1.8846620529196958,
                -0.9038711577409193,
                -0.22260833701168065
            ]
        },
        {
            "positions": [
                0.6204972993986735,
                -1.5187145167235583,
                2.2286148125312417,
                1.827843039696925,
                -0.9089658595096075,
                -0.24594903984034103
            ]
        },
        {
            "positions": [
                0.6121268366047522,
                -1.5437892568307936,
                2.0483056259332133,
                1.7710240264741544,
                -0.9140605612782957,
                -0.2692897426690014
            ]
        },
        {
            "positions": [
                0.603756373810831,
                -1.568863996938029,
                1.8679964393351849,
                1.7142050132513837,
                -0.919155263046984,
                -0.29263044549766176
            ]
        },
        {
            "positions": [
                0.7029640478680925,
                -1.5977637477611286,
                1.7166955942900304,
                1.668999899954889,
                -0.8901483481001542,
                -0.2668436318067767
            ]
        },
        {
            "positions": [
                0.8021717219253539,
                -1.626663498584228,
                1.5653947492448759,
                1.6237947866583942,
                -0.8611414331533244,
                -0.24105681811589164
            ]
        },
        {
            "positions": [
                0.9013793959826154,
                -1.6555632494073278,
                1.4140939041997216,
                1.5785896733618994,
                -0.8321345182064945,
                -0.2152700044250066
            ]
        },
        {
            "positions": [
                1.000587070039877,
                -1.6844630002304275,
                1.2627930591545669,
                1.5333845600654044,
                -0.8031276032596647,
                -0.1894831907341215
            ]
        },
        {
            "positions": [
                1.0997947440971383,
                -1.7133627510535272,
                1.1114922141094126,
                1.4881794467689096,
                -0.7741206883128349,
                -0.16369637704323647
            ]
        },
        {
            "positions": [
                1.1990024181543997,
                -1.7422625018766267,
                0.9601913690642582,
                1.4429743334724148,
                -0.7451137733660049,
                -0.1379095633523514
            ]
        },
        {
            "positions": [
                1.2982100922116613,
                -1.7711622526997264,
                0.8088905240191036,
                1.39776922017592,
                -0.7161068584191752,
                -0.11212274966146635
            ]
        },
        {
            "positions": [
                1.397417766268923,
                -1.800062003522826,
                0.657589678973949,
                1.3525641068794252,
                -0.6870999434723453,
                -0.08633593597058128
            ]
        },
        {
            "positions": [
                1.4966254403261843,
                -1.8289617543459258,
                0.5062888339287945,
                1.3073589935829304,
                -0.6580930285255154,
                -0.060549122279696194
            ]
        },
        {
            "positions": [
                1.5958331143834457,
                -1.8578615051690253,
                0.35498798888364025,
                1.2621538802864356,
                -0.6290861135786856,
                -0.034762308588811186
            ]
        },
        {
            "positions": [
                1.695040788440707,
                -1.886761255992125,
                0.20368714383848574,
                1.2169487669899408,
                -0.6000791986318558,
                -0.008975494897926095
            ]
        },
        {
            "positions": [
                1.7942484624979684,
                -1.9156610068152244,
                0.052386298793331454,
                1.1717436536934458,
                -0.5710722836850259,
                0.01681131879295894
            ]
        },
        {
            "positions": [
                1.8934561365552303,
                -1.9445607576383241,
                -0.09891454625182328,
                1.126538540396951,
                -0.542065368738196,
                0.04259813248384403
            ]
        },
        {
            "positions": [
                1.9926638106124916,
                -1.9734605084614238,
                -0.2502153912969778,
                1.0813334271004562,
                -0.5130584537913663,
                0.06838494617472907
            ]
        },
        {
            "positions": [
                2.091871484669753,
                -2.0023602592845235,
                -0.40151623634213207,
                1.0361283138039614,
                -0.48405153884453644,
                0.0941717598656141
            ]
        },
        {
            "positions": [
                2.1910791587270144,
                -2.0312600101076232,
                -0.5528170813872868,
                0.9909232005074665,
                -0.45504462389770656,
                0.11995857355649919
            ]
        },
        {
            "positions": [
                2.290286832784276,
                -2.060159760930723,
                -0.7041179264324411,
                0.9457180872109718,
                -0.4260377089508767,
                0.14574538724738428
            ]
        },
        {
            "positions": [
                2.3894945068415376,
                -2.089059511753822,
                -0.8554187714775958,
                0.9005129739144769,
                -0.39703079400404684,
                0.17153220093826937
            ]
        },
        {
            "positions": [
                2.488702180898799,
                -2.117959262576922,
                -1.00671961652275,
                0.8553078606179821,
                -0.368023879057217,
                0.1973190146291544
            ]
        },
        {
            "positions": [
                2.5879098549560604,
                -2.1468590134000216,
                -1.1580204615679044,
                0.8101027473214873,
                -0.3390169641103872,
                0.2231058283200394
            ]
        },
        {
            "positions": [
                2.687117529013322,
                -2.1757587642231213,
                -1.3093213066130591,
                0.7648976340249924,
                -0.31001004916355734,
                0.24889264201092448
            ]
        },
        {
            "positions": [
                2.786325203070583,
                -2.204658515046221,
                -1.4606221516582134,
                0.7196925207284977,
                -0.28100313421672757,
                0.2746794557018095
            ]
        },
        {
            "positions": [
                2.8425408883893355,
                -2.2485225077407978,
                -1.4984604883343728,
                0.7142956722162843,
                -0.17508418299062223,
                0.2748597669207325
            ]
        },
        {
            "positions": [
                2.806408696509044,
                -2.2945332331940587,
                -1.5324221306609005,
                0.7670507386485148,
                -0.04660629351300519,
                0.22484319177742362
            ]
        },
        {
            "positions": [
                2.7702765046287525,
                -2.3405439586473196,
                -1.5663837729874281,
                0.8198058050807453,
                0.08187159596461185,
                0.17482661663411475
            ]
        },
        {
            "positions": [
                2.7341443127484615,
                -2.3865546841005805,
                -1.6003454153139556,
                0.8725608715129758,
                0.21034948544222892,
                0.12481004149080588
            ]
        },
        {
            "positions": [
                2.69801212086817,
                -2.4325654095538414,
                -1.6343070576404832,
                0.9253159379452064,
                0.33882737491984594,
                0.074793466347497
            ]
        },
        {
            "positions": [
                2.6618799289878785,
                -2.4785761350071023,
                -1.6682686999670109,
                0.9780710043774369,
                0.467305264397463,
                0.02477689120418812
            ]
        }
    ]
}