{
    "goal": {
        "global_pose": {
            "orientation": {
                "w": 0.7031023502349854,
                "x": -0.7110244035720825,
                "y": 0.007748599164187908,
                "z": 0.005598929710686207
            },
            "position": {
                "x": 0.11585023208521307,
                "y": 0.44412534475326537,
                "z": 0.3711530566215515
            }
        },
        "name": "move_to_auspresseinheit_A"
    },
    "id": "BKPIECE_move_to_auspresseinheit_A_142",
    "joint_names": [
        "shoulder_pan_joint",
        "shoulder_lift_joint",
        "elbow_joint",
        "wrist_1_joint",
        "wrist_2_joint",
        "wrist_3_joint"
    ],
    "metrics": {
        "cart_traj_len": 1.8122542447798848,
        "distance_elbow_joint": 1.113599991778229,
        "distance_shoulder_lift_joint": 0.8143318001165476,
        "distance_shoulder_pan_joint": 2.9042429309943025,
        "distance_wrist_1_joint": 6.403759912449965,
        "distance_wrist_2_joint": 3.8090046301029714,
        "distance_wrist_3_joint": 0.8436442065586331,
        "smoothness": 0.7598208102337267,
        "time": 0.575383655,
        "traj_len": 3.986048603818153,
        "weighted_distance": 5.271492808272705
    },
    "planner": "BKPIECE",
    "start": {
        "state": {
            "elbow_joint": 2.4225746658250005,
            "shoulder_lift_joint": -1.3736534386056498,
            "shoulder_pan_joint": -0.3378633547517467,
            "wrist_1_joint": -1.0288598680537169,
            "wrist_2_joint": 1.233022673432363,
            "wrist_3_joint": -3.0940220416140027
        }
    },
    "waypoints": [
        {
            "positions": [
                -0.3378633547517467,
                -1.3736534386056498,
                2.4225746658250005,
                -1.0288598680537169,
                1.233022673432363,
                -3.0940220416140027
            ]
        },
        {
            "positions": [
                -0.38203270560424274,
                -1.4058547022822094,
                2.395463697418068,
                -0.8633811937254487,
                1.1301646226561888,
                -3.0749077010627364
            ]
        },
        {
            "positions": [
                -0.4262020564567388,
                -1.438055965958769,
                2.368352729011136,
                -0.6979025193971807,
                1.0273065718800143,
                -3.05579336051147
            ]
        },
        {
            "positions": [
                -0.47037140730923477,
                -1.470257229635329,
                2.3412417606042037,
                -0.5324238450689127,
                0.92444852110384,
                -3.0366790199602036
            ]
        },
        {
            "positions": [
                -0.5145407581617308,
                -1.5024584933118885,
                2.314130792197272,
                -0.3669451707406446,
                0.8215904703276655,
                -3.0175646794089372
            ]
        },
        {
            "positions": [
                -0.5587101090142268,
                -1.5346597569884481,
                2.2870198237903394,
                -0.20146649641237646,
                0.7187324195514911,
                -2.998450338857671
            ]
        },
        {
            "positions": [
                -0.6028794598667229,
                -1.5668610206650078,
                2.259908855383407,
                -0.035987822084108445,
                0.6158743687753169,
                -2.979335998306405
            ]
        },
        {
            "positions": [
                -0.6470488107192189,
                -1.5990622843415674,
                2.232797886976475,
                0.12949085224415957,
                0.5130163179991425,
                -2.9602216577551386
            ]
        },
        {
            "positions": [
                -0.691218161571715,
                -1.631263548018127,
                2.2056869185695427,
                0.2949695265724277,
                0.4101582672229681,
                -2.941107317203872
            ]
        },
        {
            "positions": [
                -0.735387512424211,
                -1.6634648116946869,
                2.1785759501626103,
                0.4604482009006958,
                0.30730021644679373,
                -2.921992976652606
            ]
        },
        {
            "positions": [
                -0.7795568632767069,
                -1.6956660753712465,
                2.1514649817556784,
                0.625926875228964,
                0.20444216567061924,
                -2.9028786361013394
            ]
        },
        {
            "positions": [
                -0.823726214129203,
                -1.727867339047806,
                2.124354013348746,
                0.7914055495572321,
                0.10158411489444497,
                -2.883764295550073
            ]
        },
        {
            "positions": [
                -0.8678955649816991,
                -1.7600686027243657,
                2.097243044941814,
                0.9568842238855,
                -0.0012739358817293045,
                -2.8646499549988067
            ]
        },
        {
            "positions": [
                -0.9120649158341951,
                -1.7922698664009253,
                2.0701320765348816,
                1.1223628982137683,
                -0.1041319866579038,
                -2.8455356144475403
            ]
        },
        {
            "positions": [
                -0.956234266686691,
                -1.8244711300774852,
                2.0430211081279492,
                1.287841572542036,
                -0.20699003743407807,
                -2.826421273896274
            ]
        },
        {
            "positions": [
                -1.000403617539187,
                -1.8566723937540448,
                2.0159101397210173,
                1.4533202468703046,
                -0.30984808821025256,
                -2.8073069333450076
            ]
        },
        {
            "positions": [
                -1.0445729683916831,
                -1.8888736574306044,
                1.988799171314085,
                1.6187989211985723,
                -0.41270613898642683,
                -2.7881925927937417
            ]
        },
        {
            "positions": [
                -1.0887423192441792,
                -1.9210749211071643,
                1.9616882029071527,
                1.7842775955268404,
                -0.5155641897626013,
                -2.7690782522424753
            ]
        },
        {
            "positions": [
                -1.1329116700966753,
                -1.9532761847837237,
                1.9345772345002206,
                1.9497562698551085,
                -0.6184222405387756,
                -2.749963911691209
            ]
        },
        {
            "positions": [
                -1.1770810209491713,
                -1.9854774484602835,
                1.9074662660932882,
                2.115234944183377,
                -0.7212802913149501,
                -2.7308495711399425
            ]
        },
        {
            "positions": [
                -1.2212503718016672,
                -2.017678712136843,
                1.8803552976863562,
                2.280713618511645,
                -0.8241383420911246,
                -2.711735230588676
            ]
        },
        {
            "positions": [
                -1.2654197226541632,
                -2.0498799758134028,
                1.8532443292794238,
                2.4461922928399127,
                -0.9269963928672986,
                -2.69262089003741
            ]
        },
        {
            "positions": [
                -1.166585394499569,
                -2.042974712667963,
                1.8804578120410564,
                2.299756905262096,
                -0.8445471146771333,
                -2.714733042786512
            ]
        },
        {
            "positions": [
                -1.0677510663449745,
                -2.036069449522523,
                1.907671294802689,
                2.153321517684279,
                -0.7620978364869678,
                -2.7368451955356137
            ]
        },
        {
            "positions": [
                -0.9689167381903802,
                -2.0291641863770837,
                1.9348847775643216,
                2.006886130106462,
                -0.6796485582968025,
                -2.758957348284716
            ]
        },
        {
            "positions": [
                -0.8700824100357858,
                -2.022258923231644,
                1.9620982603259542,
                1.8604507425286456,
                -0.597199280106637,
                -2.781069501033818
            ]
        },
        {
            "positions": [
                -0.7712480818811914,
                -2.015353660086204,
                1.9893117430875868,
                1.714015354950829,
                -0.5147500019164717,
                -2.8031816537829197
            ]
        },
        {
            "positions": [
                -0.6724137537265971,
                -2.0084483969407643,
                2.0165252258492194,
                1.5675799673730122,
                -0.43230072372630635,
                -2.825293806532022
            ]
        },
        {
            "positions": [
                -0.5735794255720027,
                -2.0015431337953244,
                2.043738708610852,
                1.4211445797951954,
                -0.349851445536141,
                -2.847405959281124
            ]
        },
        {
            "positions": [
                -0.47474509741740833,
                -1.9946378706498848,
                2.0709521913724847,
                1.2747091922173786,
                -0.26740216734597544,
                -2.8695181120302258
            ]
        },
        {
            "positions": [
                -0.37591076926281397,
                -1.9877326075044452,
                2.0981656741341173,
                1.128273804639562,
                -0.1849528891558101,
                -2.891630264779328
            ]
        },
        {
            "positions": [
                -0.2770764411082196,
                -1.9808273443590054,
                2.1253791568957503,
                0.9818384170617451,
                -0.10250361096564475,
                -2.9137424175284297
            ]
        },
        {
            "positions": [
                -0.17824211295362513,
                -1.9739220812135656,
                2.152592639657383,
                0.8354030294839283,
                -0.0200543327754793,
                -2.935854570277532
            ]
        },
        {
            "positions": [
                -0.07940778479903088,
                -1.967016818068126,
                2.1798061224190155,
                0.6889676419061117,
                0.06239494541468593,
                -2.957966723026634
            ]
        },
        {
            "positions": [
                0.019426543355563597,
                -1.9601115549226862,
                2.207019605180648,
                0.5425322543282949,
                0.1448442236048515,
                -2.980078875775736
            ]
        },
        {
            "positions": [
                0.11826087151015785,
                -1.9532062917772466,
                2.2342330879422807,
                0.39609686675047806,
                0.22729350179501662,
                -3.002191028524838
            ]
        },
        {
            "positions": [
                0.21709519966475233,
                -1.9463010286318068,
                2.2614465707039133,
                0.24966147917266124,
                0.3097427799851822,
                -3.02430318127394
            ]
        },
        {
            "positions": [
                0.3159295278193466,
                -1.939395765486367,
                2.288660053465546,
                0.10322609159484442,
                0.39219205817534775,
                -3.0464153340230418
            ]
        },
        {
            "positions": [
                0.41476385597394083,
                -1.9324905023409273,
                2.3158735362271785,
                -0.04320929598297196,
                0.47464133636551287,
                -3.068527486772144
            ]
        },
        {
            "positions": [
                0.5135981841285353,
                -1.9255852391954875,
                2.343087018988811,
                -0.18964468356078878,
                0.5570906145556784,
                -3.090639639521246
            ]
        },
        {
            "positions": [
                0.6124325122831296,
                -1.918679976050048,
                2.3703005017504437,
                -0.3360800711386056,
                0.6395398927458436,
                -3.112751792270348
            ]
        },
        {
            "positions": [
                0.7112668404377241,
                -1.911774712904608,
                2.3975139845120763,
                -0.4825154587164225,
                0.721989170936009,
                -3.13486394501945
            ]
        }
    ]
}