{
    "goal": {
        "global_pose": {
            "orientation": {
                "w": 0.7047431493862688,
                "x": -0.7094548369677653,
                "y": 0.0024358444001904,
                "z": -0.0022348060817251984
            },
            "position": {
                "x": -0.39052492380142206,
                "y": 0.3671506643295288,
                "z": 0.19426114857196808
            }
        },
        "name": "move_to_magneteinheit_D"
    },
    "id": "BKPIECE_move_to_magneteinheit_D_137",
    "joint_names": [
        "shoulder_pan_joint",
        "shoulder_lift_joint",
        "elbow_joint",
        "wrist_1_joint",
        "wrist_2_joint",
        "wrist_3_joint"
    ],
    "metrics": {
        "cart_traj_len": 8.392183066115724,
        "distance_elbow_joint": 4.660280714169742,
        "distance_shoulder_lift_joint": 3.801127395573782,
        "distance_shoulder_pan_joint": 4.652015055630518,
        "distance_wrist_1_joint": 8.828295216923644,
        "distance_wrist_2_joint": 9.578661638422698,
        "distance_wrist_3_joint": 11.664591815031375,
        "smoothness": 0.7226178374361126,
        "time": 0.368396733,
        "traj_len": 6.571527359431128,
        "weighted_distance": 9.215265179101522
    },
    "planner": "BKPIECE",
    "start": {
        "state": {
            "elbow_joint": 0.749534889911806,
            "shoulder_lift_joint": -0.6476975780787326,
            "shoulder_pan_joint": -2.711696901376241,
            "wrist_1_joint": -0.07506478083263063,
            "wrist_2_joint": 0.43296659715538205,
            "wrist_3_joint": -3.14703540197715
        }
    },
    "waypoints": [
        {
            "positions": [
                -2.711696901376241,
                -0.6476975780787326,
                0.749534889911806,
                -0.07506478083263063,
                0.43296659715538205,
                -3.14703540197715
            ]
        },
        {
            "positions": [
                -2.76662466222685,
                -0.6973204541305967,
                0.7654408674675501,
                -0.14128770070936164,
                0.47982343251071813,
                -3.0908347215115195
            ]
        },
        {
            "positions": [
                -2.8215524230774593,
                -0.7469433301824607,
                0.7813468450232943,
                -0.20751062058609268,
                0.5266802678660543,
                -3.0346340410458894
            ]
        },
        {
            "positions": [
                -2.8764801839280683,
                -0.7965662062343248,
                0.7972528225790385,
                -0.2737335404628237,
                0.5735371032213903,
                -2.978433360580259
            ]
        },
        {
            "positions": [
                -2.8566494242443263,
                -0.8332281097286136,
                0.7708636334779491,
                -0.3468885228613667,
                0.4660273225627559,
                -2.8545560483210513
            ]
        },
        {
            "positions": [
                -2.836818664560585,
                -0.8698900132229024,
                0.7444744443768595,
                -0.42004350525990963,
                0.35851754190412155,
                -2.730678736061844
            ]
        },
        {
            "positions": [
                -2.816987904876843,
                -0.9065519167171912,
                0.71808525527577,
                -0.49319848765845264,
                0.2510077612454872,
                -2.6068014238026365
            ]
        },
        {
            "positions": [
                -2.7971571451931014,
                -0.9432138202114798,
                0.6916960661746805,
                -0.5663534700569957,
                0.14349798058685287,
                -2.4829241115434293
            ]
        },
        {
            "positions": [
                -2.7773263855093595,
                -0.9798757237057686,
                0.665306877073591,
                -0.6395084524555386,
                0.035988199928218445,
                -2.3590467992842217
            ]
        },
        {
            "positions": [
                -2.757495625825618,
                -1.0165376272000572,
                0.6389176879725016,
                -0.7126634348540815,
                -0.07152158073041592,
                -2.235169487025014
            ]
        },
        {
            "positions": [
                -2.737664866141876,
                -1.053199530694346,
                0.6125284988714121,
                -0.7858184172526245,
                -0.1790313613890503,
                -2.111292174765807
            ]
        },
        {
            "positions": [
                -2.7178341064581346,
                -1.0898614341886348,
                0.5861393097703226,
                -0.8589733996511675,
                -0.28654114204768455,
                -1.9874148625065993
            ]
        },
        {
            "positions": [
                -2.6980033467743927,
                -1.1265233376829236,
                0.5597501206692331,
                -0.9321283820497103,
                -0.3940509227063189,
                -1.8635375502473919
            ]
        },
        {
            "positions": [
                -2.678172587090651,
                -1.1631852411772123,
                0.5333609315681436,
                -1.0052833644482533,
                -0.5015607033649534,
                -1.7396602379881845
            ]
        },
        {
            "positions": [
                -2.6583418274069093,
                -1.199847144671501,
                0.5069717424670541,
                -1.0784383468467964,
                -0.6090704840235877,
                -1.615782925728977
            ]
        },
        {
            "positions": [
                -2.638511067723168,
                -1.2365090481657899,
                0.4805825533659646,
                -1.1515933292453393,
                -0.7165802646822221,
                -1.4919056134697695
            ]
        },
        {
            "positions": [
                -2.618680308039426,
                -1.2731709516600787,
                0.45419336426487517,
                -1.2247483116438822,
                -0.8240900453408564,
                -1.3680283012105623
            ]
        },
        {
            "positions": [
                -2.5988495483556844,
                -1.3098328551543674,
                0.42780417516378566,
                -1.2979032940424253,
                -0.9315998259994909,
                -1.2441509889513547
            ]
        },
        {
            "positions": [
                -2.5790187886719425,
                -1.3464947586486562,
                0.40141498606269616,
                -1.371058276440968,
                -1.0391096066581251,
                -1.1202736766921473
            ]
        },
        {
            "positions": [
                -2.559188028988201,
                -1.383156662142945,
                0.37502579696160665,
                -1.4442132588395111,
                -1.1466193873167594,
                -0.9963963644329397
            ]
        },
        {
            "positions": [
                -2.539357269304459,
                -1.4198185656372337,
                0.3486366078605172,
                -1.5173682412380538,
                -1.2541291679753939,
                -0.8725190521737325
            ]
        },
        {
            "positions": [
                -2.5195265096207176,
                -1.4564804691315223,
                0.32224741875942775,
                -1.590523223636597,
                -1.3616389486340281,
                -0.7486417399145249
            ]
        },
        {
            "positions": [
                -2.4996957499369756,
                -1.4931423726258113,
                0.2958582296583382,
                -1.66367820603514,
                -1.4691487292926626,
                -0.6247644276553173
            ]
        },
        {
            "positions": [
                -2.479864990253234,
                -1.5298042761201,
                0.26946904055724874,
                -1.7368331884336832,
                -1.576658509951297,
                -0.5008871153961101
            ]
        },
        {
            "positions": [
                -2.460034230569492,
                -1.5664661796143886,
                0.24307985145615918,
                -1.8099881708322259,
                -1.6841682906099311,
                -0.37700980313690247
            ]
        },
        {
            "positions": [
                -2.4402034708857507,
                -1.6031280831086774,
                0.21669066235506973,
                -1.883143153230769,
                -1.7916780712685656,
                -0.2531324908776953
            ]
        },
        {
            "positions": [
                -2.420372711202009,
                -1.6397899866029662,
                0.19030147325398017,
                -1.956298135629312,
                -1.8991878519272,
                -0.12925517861848768
            ]
        },
        {
            "positions": [
                -2.4005419515182673,
                -1.676451890097255,
                0.16391228415289072,
                -2.0294531180278548,
                -2.0066976325858343,
                -0.005377866359280059
            ]
        },
        {
            "positions": [
                -2.3807111918345254,
                -1.7131137935915435,
                0.13752309505180127,
                -2.102608100426398,
                -2.1142074132444684,
                0.11849944589992711
            ]
        },
        {
            "positions": [
                -2.360880432150784,
                -1.7497756970858322,
                0.11113390595071182,
                -2.1757630828249406,
                -2.2217171939031033,
                0.2423767581591343
            ]
        },
        {
            "positions": [
                -2.341049672467042,
                -1.7864376005801212,
                0.08474471684962226,
                -2.2489180652234837,
                -2.3292269745617373,
                0.36625407041834235
            ]
        },
        {
            "positions": [
                -2.3212189127833005,
                -1.82309950407441,
                0.05835552774853281,
                -2.322073047622027,
                -2.4367367552203723,
                0.4901313826775495
            ]
        },
        {
            "positions": [
                -2.3013881530995586,
                -1.8597614075686986,
                0.03196633864744325,
                -2.3952280300205695,
                -2.5442465358790063,
                0.6140086949367571
            ]
        },
        {
            "positions": [
                -2.2815573934158166,
                -1.8964233110629873,
                0.005577149546353799,
                -2.4683830124191126,
                -2.6517563165376403,
                0.7378860071959643
            ]
        },
        {
            "positions": [
                -2.261726633732075,
                -1.933085214557276,
                -0.02081203955473576,
                -2.5415379948176557,
                -2.7592660971962752,
                0.8617633194551719
            ]
        },
        {
            "positions": [
                -2.2418958740483337,
                -1.9697471180515649,
                -0.04720122865582521,
                -2.614692977216199,
                -2.8667758778549093,
                0.9856406317143795
            ]
        },
        {
            "positions": [
                -2.2220651143645918,
                -2.0064090215458537,
                -0.07359041775691466,
                -2.6878479596147415,
                -2.9742856585135433,
                1.1095179439735872
            ]
        },
        {
            "positions": [
                -2.233327347057684,
                -1.9702122091645957,
                -0.04991188334263445,
                -2.6103020578819383,
                -2.8589449114996817,
                0.9855977014710695
            ]
        },
        {
            "positions": [
                -2.2445895797507767,
                -1.9340153967833378,
                -0.026233348928354237,
                -2.532756156149135,
                -2.7436041644858205,
                0.8616774589685517
            ]
        },
        {
            "positions": [
                -2.255851812443869,
                -1.8978185844020798,
                -0.002554814514074022,
                -2.4552102544163317,
                -2.628263417471959,
                0.737757216466034
            ]
        },
        {
            "positions": [
                -2.267114045136961,
                -1.861621772020822,
                0.021123719900206187,
                -2.3776643526835284,
                -2.512922670458097,
                0.6138369739635163
            ]
        },
        {
            "positions": [
                -2.278376277830054,
                -1.8254249596395637,
                0.044802254314486395,
                -2.300118450950725,
                -2.397581923444236,
                0.4899167314609987
            ]
        },
        {
            "positions": [
                -2.289638510523146,
                -1.7892281472583058,
                0.06848078872876662,
                -2.222572549217922,
                -2.2822411764303743,
                0.3659964889584809
            ]
        },
        {
            "positions": [
                -2.3009007432162383,
                -1.7530313348770479,
                0.09215932314304684,
                -2.1450266474851185,
                -2.1669004294165126,
                0.24207624645596326
            ]
        },
        {
            "positions": [
                -2.312162975909331,
                -1.71683452249579,
                0.11583785755732703,
                -2.067480745752315,
                -2.0515596824026514,
                0.11815600395344561
            ]
        },
        {
            "positions": [
                -2.323425208602423,
                -1.680637710114532,
                0.13951639197160726,
                -1.989934844019512,
                -1.9362189353887898,
                -0.005764238549072154
            ]
        },
        {
            "positions": [
                -2.3346874412955154,
                -1.644440897733274,
                0.16319492638588745,
                -1.9123889422867089,
                -1.8208781883749283,
                -0.1296844810515898
            ]
        },
        {
            "positions": [
                -2.345949673988608,
                -1.6082440853520161,
                0.18687346080016765,
                -1.8348430405539056,
                -1.7055374413610669,
                -0.25360472355410746
            ]
        },
        {
            "positions": [
                -2.3572119066817003,
                -1.5720472729707582,
                0.2105519952144479,
                -1.757297138821102,
                -1.5901966943472052,
                -0.37752496605662533
            ]
        },
        {
            "positions": [
                -2.3684741393747926,
                -1.5358504605895003,
                0.23423052962872815,
                -1.679751237088299,
                -1.4748559473333436,
                -0.501445208559143
            ]
        },
        {
            "positions": [
                -2.3797363720678852,
                -1.499653648208242,
                0.25790906404300834,
                -1.6022053353554957,
                -1.3595152003194821,
                -0.6253654510616606
            ]
        },
        {
            "positions": [
                -2.3909986047609775,
                -1.4634568358269844,
                0.28158759845728853,
                -1.5246594336226924,
                -1.2441744533056207,
                -0.7492856935641783
            ]
        },
        {
            "positions": [
                -2.4022608374540697,
                -1.4272600234457262,
                0.30526613287156873,
                -1.4471135318898891,
                -1.1288337062917593,
                -0.8732059360666959
            ]
        },
        {
            "positions": [
                -2.4135230701471624,
                -1.3910632110644685,
                0.3289446672858489,
                -1.3695676301570858,
                -1.0134929592778978,
                -0.9971261785692138
            ]
        },
        {
            "positions": [
                -2.4247853028402546,
                -1.3548663986832103,
                0.3526232017001292,
                -1.2920217284242825,
                -0.8981522122640362,
                -1.1210464210717315
            ]
        },
        {
            "positions": [
                -2.436047535533347,
                -1.3186695863019524,
                0.37630173611440937,
                -1.2144758266914795,
                -0.782811465250175,
                -1.2449666635742491
            ]
        },
        {
            "positions": [
                -2.4473097682264395,
                -1.2824727739206945,
                0.39998027052868956,
                -1.1369299249586762,
                -0.6674707182363133,
                -1.3688869060767668
            ]
        },
        {
            "positions": [
                -2.4585720009195318,
                -1.2462759615394365,
                0.42365880494296976,
                -1.0593840232258729,
                -0.5521299712224517,
                -1.4928071485792844
            ]
        },
        {
            "positions": [
                -2.469834233612624,
                -1.2100791491581786,
                0.44733733935724995,
                -0.9818381214930696,
                -0.43678922420859045,
                -1.616727391081802
            ]
        },
        {
            "positions": [
                -2.4810964663057167,
                -1.1738823367769204,
                0.4710158737715303,
                -0.9042922197602661,
                -0.32144847719472835,
                -1.7406476335843202
            ]
        },
        {
            "positions": [
                -2.492358698998809,
                -1.1376855243956627,
                0.49469440818581045,
                -0.8267463180274628,
                -0.20610773018086714,
                -1.8645678760868378
            ]
        },
        {
            "positions": [
                -2.503620931691901,
                -1.1014887120144046,
                0.5183729426000907,
                -0.7492004162946595,
                -0.09076698316700549,
                -1.9884881185893555
            ]
        },
        {
            "positions": [
                -2.514883164384994,
                -1.0652918996331469,
                0.542051477014371,
                -0.6716545145618564,
                0.024573763846856167,
                -2.112408361091873
            ]
        },
        {
            "positions": [
                -2.526145397078086,
                -1.0290950872518887,
                0.5657300114286511,
                -0.5941086128290531,
                0.13991451086071738,
                -2.236328603594391
            ]
        },
        {
            "positions": [
                -2.5374076297711783,
                -0.9928982748706308,
                0.5894085458429313,
                -0.5165627110962498,
                0.25525525787457903,
                -2.3602488460969084
            ]
        },
        {
            "positions": [
                -2.548669862464271,
                -0.9567014624893728,
                0.6130870802572115,
                -0.43901680936344656,
                0.37059600488844024,
                -2.484169088599426
            ]
        },
        {
            "positions": [
                -2.559932095157363,
                -0.9205046501081149,
                0.6367656146714917,
                -0.36147090763064327,
                0.4859367519023017,
                -2.6080893311019437
            ]
        },
        {
            "positions": [
                -2.4761034857205018,
                -0.9363715795690659,
                0.5623753241344995,
                -0.28002428824968895,
                0.4468865883452677,
                -2.517009206295222
            ]
        },
        {
            "positions": [
                -2.3922748762836403,
                -0.9522385090300169,
                0.4879850335975074,
                -0.1985776688687346,
                0.4078364247882337,
                -2.4259290814885004
            ]
        },
        {
            "positions": [
                -2.3084462668467784,
                -0.968105438490968,
                0.4135947430605152,
                -0.11713104948778025,
                0.3687862612311996,
                -2.3348489566817787
            ]
        },
        {
            "positions": [
                -2.224617657409917,
                -0.983972367951919,
                0.33920445252352305,
                -0.035684430106825926,
                0.3297360976741657,
                -2.243768831875057
            ]
        },
        {
            "positions": [
                -2.1407890479730556,
                -0.99983929741287,
                0.26481416198653085,
                0.045762189274128395,
                0.2906859341171316,
                -2.1526887070683354
            ]
        },
        {
            "positions": [
                -2.056960438536194,
                -1.015706226873821,
                0.19042387144953865,
                0.12720880865508277,
                0.2516357705600976,
                -2.0616085822616137
            ]
        },
        {
            "positions": [
                -1.9731318290993323,
                -1.031573156334772,
                0.11603358091254645,
                0.2086554280360371,
                0.21258560700306361,
                -1.970528457454892
            ]
        },
        {
            "positions": [
                -1.8893032196624708,
                -1.0474400857957231,
                0.041643290375554365,
                0.2901020474169914,
                0.1735354434460296,
                -1.8794483326481704
            ]
        },
        {
            "positions": [
                -1.8054746102256094,
                -1.0633070152566741,
                -0.032747000161437834,
                0.37154866679794574,
                0.1344852798889956,
                -1.7883682078414487
            ]
        },
        {
            "positions": [
                -1.721646000788748,
                -1.0791739447176252,
                -0.10713729069843003,
                0.45299528617890006,
                0.09543511633196161,
                -1.697288083034727
            ]
        },
        {
            "positions": [
                -1.6378173913518863,
                -1.0950408741785762,
                -0.18152758123542223,
                0.5344419055598544,
                0.05638495277492761,
                -1.606207958228005
            ]
        },
        {
            "positions": [
                -1.5539887819150247,
                -1.1109078036395272,
                -0.25591787177241443,
                0.6158885249408088,
                0.017334789217893554,
                -1.5151278334212834
            ]
        },
        {
            "positions": [
                -1.4701601724781632,
                -1.1267747331004783,
                -0.3303081623094066,
                0.6973351443217632,
                -0.021715374339140503,
                -1.4240477086145618
            ]
        },
        {
            "positions": [
                -1.3863315630413016,
                -1.1426416625614293,
                -0.4046984528463988,
                0.7787817637027175,
                -0.06076553789617445,
                -1.33296758380784
            ]
        },
        {
            "positions": [
                -1.3025029536044401,
                -1.1585085920223803,
                -0.4790887433833908,
                0.8602283830836717,
                -0.0998157014532084,
                -1.2418874590011184
            ]
        },
        {
            "positions": [
                -1.2186743441675787,
                -1.1743755214833311,
                -0.553479033920383,
                0.9416750024646261,
                -0.13886586501024245,
                -1.1508073341943967
            ]
        },
        {
            "positions": [
                -1.134845734730717,
                -1.1902424509442824,
                -0.6278693244573752,
                1.0231216218455805,
                -0.1779160285672765,
                -1.059727209387675
            ]
        },
        {
            "positions": [
                -1.0510171252938556,
                -1.2061093804052332,
                -0.7022596149943674,
                1.1045682412265347,
                -0.21696619212431045,
                -0.9686470845809536
            ]
        },
        {
            "positions": [
                -0.9671885158569942,
                -1.2219763098661842,
                -0.7766499055313596,
                1.186014860607489,
                -0.2560163556813444,
                -0.8775669597742319
            ]
        },
        {
            "positions": [
                -0.8833599064201325,
                -1.2378432393271352,
                -0.8510401960683518,
                1.2674614799884434,
                -0.29506651923837846,
                -0.78648683496751
            ]
        },
        {
            "positions": [
                -0.7995312969832711,
                -1.2537101687880863,
                -0.925430486605344,
                1.3489080993693978,
                -0.3341166827954125,
                -0.6954067101607884
            ]
        },
        {
            "positions": [
                -0.7157026875464094,
                -1.2695770982490373,
                -0.9998207771423362,
                1.430354718750352,
                -0.37316684635244646,
                -0.6043265853540665
            ]
        },
        {
            "positions": [
                -0.631874078109548,
                -1.2854440277099883,
                -1.0742110676793284,
                1.5118013381313065,
                -0.4122170099094805,
                -0.5132464605473448
            ]
        },
        {
            "positions": [
                -0.5480454686726861,
                -1.3013109571709394,
                -1.1486013582163206,
                1.593247957512261,
                -0.45126717346651457,
                -0.4221663357406231
            ]
        },
        {
            "positions": [
                -0.4642168592358247,
                -1.3171778866318904,
                -1.2229916487533128,
                1.674694576893215,
                -0.4903173370235485,
                -0.33108621093390145
            ]
        },
        {
            "positions": [
                -0.38038824979896324,
                -1.3330448160928414,
                -1.297381939290305,
                1.7561411962741698,
                -0.5293675005805827,
                -0.24000608612717977
            ]
        },
        {
            "positions": [
                -0.2965596403621018,
                -1.3489117455537925,
                -1.3717722298272974,
                1.837587815655124,
                -0.5684176641376166,
                -0.1489259613204581
            ]
        },
        {
            "positions": [
                -0.21273103092523993,
                -1.3647786750147435,
                -1.4461625203642894,
                1.9190344350360782,
                -0.6074678276946506,
                -0.057845836513736426
            ]
        },
        {
            "positions": [
                -0.1289024214883785,
                -1.3806456044756945,
                -1.5205528109012818,
                2.000481054417033,
                -0.6465179912516847,
                0.03323428829298525
            ]
        },
        {
            "positions": [
                -0.04507381205151706,
                -1.3965125339366455,
                -1.5949431014382733,
                2.0819276737979866,
                -0.6855681548087185,
                0.12431441309970692
            ]
        },
        {
            "positions": [
                0.038754797385344375,
                -1.4123794633975966,
                -1.6693333919752658,
                2.1633742931789413,
                -0.7246183183657526,
                0.2153945379064286
            ]
        },
        {
            "positions": [
                0.12258340682220581,
                -1.4282463928585476,
                -1.7437236825122577,
                2.2448209125598955,
                -0.7636684819227866,
                0.30647466271315027
            ]
        },
        {
            "positions": [
                0.20641201625906724,
                -1.4441133223194986,
                -1.8181139730492502,
                2.3262675319408497,
                -0.8027186454798205,
                0.39755478751987194
            ]
        },
        {
            "positions": [
                0.2902406256959291,
                -1.4599802517804497,
                -1.8925042635862421,
                2.4077141513218043,
                -0.8417688090368547,
                0.4886349123265936
            ]
        },
        {
            "positions": [
                0.3740692351327908,
                -1.4758471812414007,
                -1.9668945541232343,
                2.4891607707027585,
                -0.8808189725938886,
                0.5797150371333153
            ]
        },
        {
            "positions": [
                0.327323535763433,
                -1.5426112687027043,
                -2.00253649911852,
                2.4026188283840884,
                -0.792211452951413,
                0.537829468319159
            ]
        },
        {
            "positions": [
                0.2805778363940752,
                -1.609375356164008,
                -2.038178444113805,
                2.316076886065418,
                -0.7036039333089376,
                0.49594389950500284
            ]
        },
        {
            "positions": [
                0.2338321370247174,
                -1.6761394436253116,
                -2.0738203891090907,
                2.2295349437467475,
                -0.6149964136664621,
                0.45405833069084656
            ]
        },
        {
            "positions": [
                0.1870864376553596,
                -1.7429035310866152,
                -2.1094623341043763,
                2.1429930014280774,
                -0.5263888940239865,
                0.4121727618766904
            ]
        },
        {
            "positions": [
                0.1403407382860018,
                -1.8096676185479188,
                -2.1451042790996615,
                2.056451059109407,
                -0.43778137438151093,
                0.3702871930625341
            ]
        },
        {
            "positions": [
                0.093595038916644,
                -1.8764317060092224,
                -2.180746224094947,
                1.969909116790737,
                -0.3491738547390354,
                0.3284016242483779
            ]
        },
        {
            "positions": [
                0.046849339547286206,
                -1.9431957934705262,
                -2.2163881690902327,
                1.8833671744720666,
                -0.2605663350965598,
                0.2865160554342216
            ]
        },
        {
            "positions": [
                0.00010364017792841018,
                -2.00995988093183,
                -2.252030114085518,
                1.7968252321533964,
                -0.1719588154540843,
                0.24463048662006542
            ]
        },
        {
            "positions": [
                -0.046642059191429386,
                -2.076723968393133,
                -2.2876720590808035,
                1.710283289834726,
                -0.08335129581160872,
                0.2027449178059092
            ]
        },
        {
            "positions": [
                -0.09338775856078718,
                -2.143488055854437,
                -2.323314004076089,
                1.6237413475160558,
                0.005256223830866769,
                0.16085934899175292
            ]
        },
        {
            "positions": [
                -0.14013345793014498,
                -2.2102521433157407,
                -2.3589559490713743,
                1.5371994051973856,
                0.09386374347334225,
                0.11897378017759674
            ]
        },
        {
            "positions": [
                -0.1868791572995028,
                -2.2770162307770443,
                -2.39459789406666,
                1.4506574628787152,
                0.1824712631158179,
                0.07708821136344045
            ]
        }
    ]
}