{
    "goal": {
        "global_pose": {
            "orientation": {
                "w": -0.4816463035849501,
                "x": 0.5182115481033762,
                "y": 0.4908360881923453,
                "z": -0.5084816262002911
            },
            "position": {
                "x": -0.8240239810943604,
                "y": 0.19912469901144506,
                "z": 0.16403168439865112
            }
        },
        "name": "move_to_storage_D"
    },
    "id": "BKPIECE_move_to_storage_D_147",
    "joint_names": [
        "shoulder_pan_joint",
        "shoulder_lift_joint",
        "elbow_joint",
        "wrist_1_joint",
        "wrist_2_joint",
        "wrist_3_joint"
    ],
    "metrics": {
        "cart_traj_len": 3.340560108728044,
        "distance_elbow_joint": 4.209122774386088,
        "distance_shoulder_lift_joint": 1.2657620287819749,
        "distance_shoulder_pan_joint": 2.8142616518581147,
        "distance_wrist_1_joint": 2.267173294149054,
        "distance_wrist_2_joint": 0.8837368176508716,
        "distance_wrist_3_joint": 3.1356018469524547,
        "smoothness": 8.180590728168812e-16,
        "time": 0.515554622,
        "traj_len": 3.817808064030795,
        "weighted_distance": 4.898752108392849
    },
    "planner": "BKPIECE",
    "start": {
        "state": {
            "elbow_joint": -2.384821988534728,
            "shoulder_lift_joint": -2.2788054721415256,
            "shoulder_pan_joint": -0.1854694642142757,
            "wrist_1_joint": 1.4845938289331202,
            "wrist_2_joint": 0.17898776772866878,
            "wrist_3_joint": 0.037105688729662994
        }
    },
    "waypoints": [
        {
            "positions": [
                -0.1854694642142757,
                -2.2788054721415256,
                -2.384821988534728,
                1.4845938289331202,
                0.17898776772866878,
                0.037105688729662994
            ]
        },
        {
            "positions": [
                -0.07331281168256379,
                -2.246923785064541,
                -2.2043965916422836,
                1.437586791908141,
                0.18575644976772715,
                0.05207086856278846
            ]
        },
        {
            "positions": [
                0.03884384084914813,
                -2.2150420979875567,
                -2.0239711947498393,
                1.390579754883162,
                0.19252513180678552,
                0.06703604839591393
            ]
        },
        {
            "positions": [
                0.15100049338086005,
                -2.1831604109105727,
                -1.843545797857395,
                1.343572717858183,
                0.19929381384584388,
                0.08200122822903938
            ]
        },
        {
            "positions": [
                0.263157145912572,
                -2.151278723833588,
                -1.6631204009649507,
                1.296565680833204,
                0.20606249588490225,
                0.09696640806216485
            ]
        },
        {
            "positions": [
                0.3753137984442839,
                -2.1193970367566037,
                -1.4826950040725064,
                1.249558643808225,
                0.2128311779239606,
                0.1119315878952903
            ]
        },
        {
            "positions": [
                0.48747045097599584,
                -2.0875153496796193,
                -1.3022696071800623,
                1.202551606783246,
                0.21959985996301898,
                0.12689676772841577
            ]
        },
        {
            "positions": [
                0.5996271035077078,
                -2.0556336626026352,
                -1.121844210287618,
                1.1555445697582667,
                0.22636854200207734,
                0.14186194756154125
            ]
        },
        {
            "positions": [
                0.7117837560394197,
                -2.023751975525651,
                -0.9414188133951737,
                1.1085375327332878,
                0.23313722404113574,
                0.1568271273946667
            ]
        },
        {
            "positions": [
                0.8239404085711316,
                -1.9918702884486663,
                -0.7609934165027292,
                1.0615304957083087,
                0.23990590608019408,
                0.17179230722779218
            ]
        },
        {
            "positions": [
                0.9360970611028435,
                -1.9599886013716818,
                -0.5805680196102851,
                1.0145234586833296,
                0.24667458811925247,
                0.1867574870609176
            ]
        },
        {
            "positions": [
                1.0482537136345553,
                -1.9281069142946976,
                -0.40014262271784085,
                0.9675164216583506,
                0.2534432701583108,
                0.20172266689404308
            ]
        },
        {
            "positions": [
                1.1604103661662672,
                -1.8962252272177134,
                -0.21971722582539677,
                0.9205093846333716,
                0.2602119521973692,
                0.21668784672716854
            ]
        },
        {
            "positions": [
                1.2725670186979792,
                -1.864343540140729,
                -0.03929182893295202,
                0.8735023476083925,
                0.2669806342364276,
                0.23165302656029402
            ]
        },
        {
            "positions": [
                1.384723671229691,
                -1.8324618530637444,
                0.14113356795949183,
                0.8264953105834134,
                0.27374931627548593,
                0.24661820639341947
            ]
        },
        {
            "positions": [
                1.4968803237614028,
                -1.8005801659867602,
                0.32155896485193614,
                0.7794882735584344,
                0.28051799831454427,
                0.2615833862265449
            ]
        },
        {
            "positions": [
                1.609036976293115,
                -1.7686984789097757,
                0.5019843617443804,
                0.7324812365334553,
                0.28728668035360266,
                0.2765485660596704
            ]
        },
        {
            "positions": [
                1.7211936288248268,
                -1.7368167918327915,
                0.6824097586368247,
                0.6854741995084763,
                0.294055362392661,
                0.2915137458927959
            ]
        },
        {
            "positions": [
                1.8333502813565388,
                -1.704935104755807,
                0.8628351555292695,
                0.6384671624834972,
                0.3008240444317194,
                0.3064789257259214
            ]
        },
        {
            "positions": [
                1.9455069338882507,
                -1.6730534176788225,
                1.0432605524217133,
                0.5914601254585182,
                0.30759272647077773,
                0.3214441055590468
            ]
        },
        {
            "positions": [
                2.0576635864199626,
                -1.6411717306018383,
                1.2236859493141576,
                0.5444530884335391,
                0.3143614085098361,
                0.3364092853921722
            ]
        },
        {
            "positions": [
                2.1698202389516745,
                -1.609290043524854,
                1.404111346206602,
                0.49744605140856,
                0.3211300905488945,
                0.3513744652252977
            ]
        },
        {
            "positions": [
                2.2819768914833864,
                -1.5774083564478696,
                1.5845367430990462,
                0.45043901438358097,
                0.32789877258795286,
                0.3663396450584232
            ]
        },
        {
            "positions": [
                2.3050979112274166,
                -1.5397840289086484,
                1.6005210126158675,
                0.36823778241027993,
                0.37688716010739204,
                0.5534308377666695
            ]
        },
        {
            "positions": [
                2.3282189309714467,
                -1.502159701369427,
                1.6165052821326886,
                0.28603655043697895,
                0.4258755476268312,
                0.7405220304749158
            ]
        },
        {
            "positions": [
                2.351339950715477,
                -1.4645353738302058,
                1.63248955164951,
                0.20383531846367792,
                0.47486393514627034,
                0.9276132231831622
            ]
        },
        {
            "positions": [
                2.374460970459507,
                -1.4269110462909846,
                1.648473821166331,
                0.12163408649037694,
                0.5238523226657095,
                1.1147044158914086
            ]
        },
        {
            "positions": [
                2.397581990203537,
                -1.3892867187517632,
                1.6644580906831523,
                0.039432854517075955,
                0.5728407101851487,
                1.3017956085996547
            ]
        },
        {
            "positions": [
                2.4207030099475673,
                -1.351662391212542,
                1.6804423601999736,
                -0.04276837745622514,
                0.6218290977045879,
                1.4888868013079013
            ]
        },
        {
            "positions": [
                2.443824029691598,
                -1.3140380636733209,
                1.6964266297167947,
                -0.12496960942952612,
                0.6708174852240271,
                1.6759779940161472
            ]
        },
        {
            "positions": [
                2.466945049435628,
                -1.2764137361340995,
                1.712410899233616,
                -0.2071708414028271,
                0.7198058727434662,
                1.8630691867243936
            ]
        },
        {
            "positions": [
                2.490066069179658,
                -1.2387894085948783,
                1.728395168750437,
                -0.2893720733761281,
                0.7687942602629054,
                2.05016037943264
            ]
        },
        {
            "positions": [
                2.5131870889236883,
                -1.2011650810556571,
                1.7443794382672584,
                -0.37157330534942906,
                0.8177826477823446,
                2.2372515721408863
            ]
        },
        {
            "positions": [
                2.5363081086677184,
                -1.1635407535164357,
                1.7603637077840797,
                -0.45377453732273004,
                0.8667710353017837,
                2.4243427648491322
            ]
        },
        {
            "positions": [
                2.5594291284117485,
                -1.1259164259772145,
                1.7763479773009008,
                -0.5359757692960312,
                0.9157594228212229,
                2.611433957557379
            ]
        },
        {
            "positions": [
                2.5825501481557787,
                -1.0882920984379933,
                1.792332246817722,
                -0.6181770012693322,
                0.964747810340662,
                2.798525150265625
            ]
        },
        {
            "positions": [
                2.605671167899809,
                -1.0506677708987722,
                1.8083165163345432,
                -0.7003782332426332,
                1.0137361978601014,
                2.9856163429738714
            ]
        },
        {
            "positions": [
                2.628792187643839,
                -1.0130434433595508,
                1.8243007858513645,
                -0.7825794652159341,
                1.0627245853795404,
                3.1727075356821177
            ]
        }
    ]
}