{
    "goal": {
        "global_pose": {
            "orientation": {
                "w": -0.00223480608172531,
                "x": 0.0024358444001904467,
                "y": 0.7094548369677653,
                "z": -0.704743149386269
            },
            "position": {
                "x": 0.6205249238014221,
                "y": -0.6371506643295288,
                "z": 0.19426114857196808
            }
        },
        "name": "move_to_magneteinheit_B"
    },
    "id": "BKPIECE_move_to_magneteinheit_B_18",
    "joint_names": [
        "shoulder_pan_joint",
        "shoulder_lift_joint",
        "elbow_joint",
        "wrist_1_joint",
        "wrist_2_joint",
        "wrist_3_joint"
    ],
    "metrics": {
        "cart_traj_len": 1.5616117201450468,
        "distance_elbow_joint": 0.9610912349551093,
        "distance_shoulder_lift_joint": 0.7885136851404053,
        "distance_shoulder_pan_joint": 1.6205344795777052,
        "distance_wrist_1_joint": 1.3541203464656033,
        "distance_wrist_2_joint": 2.926636212703412,
        "distance_wrist_3_joint": 1.6477945948176358,
        "smoothness": 0.5828230836842117,
        "time": 0.308995339,
        "traj_len": 3.04937543665254,
        "weighted_distance": 4.107923599881595
    },
    "planner": "BKPIECE",
    "start": {
        "state": {
            "elbow_joint": 2.6216224122426386,
            "shoulder_lift_joint": -1.4174107377796124,
            "shoulder_pan_joint": 0.7066234856936794,
            "wrist_1_joint": 1.9546482284002225,
            "wrist_2_joint": -0.7096286983471962,
            "wrist_3_joint": 0.005740856962016249
        }
    },
    "waypoints": [
        {
            "positions": [
                0.7066234856936794,
                -1.4174107377796124,
                2.6216224122426386,
                1.9546482284002225,
                -0.7096286983471962,
                0.005740856962016249
            ]
        },
        {
            "positions": [
                0.6477453663704148,
                -1.4122603525413973,
                2.5790193792448597,
                1.9003892828524376,
                -0.6213715615674171,
                -0.07569500482240855
            ]
        },
        {
            "positions": [
                0.5888672470471501,
                -1.4071099673031822,
                2.536416346247081,
                1.8461303373046527,
                -0.533114424787638,
                -0.15713086660683334
            ]
        },
        {
            "positions": [
                0.5299891277238855,
                -1.4019595820649668,
                2.4938133132493023,
                1.7918713917568678,
                -0.44485728800785895,
                -0.23856672839125814
            ]
        },
        {
            "positions": [
                0.4711110084006209,
                -1.3968091968267518,
                2.4512102802515234,
                1.737612446209083,
                -0.35660015122807986,
                -0.32000259017568294
            ]
        },
        {
            "positions": [
                0.4122328890773563,
                -1.3916588115885367,
                2.4086072472537445,
                1.683353500661298,
                -0.2683430144483008,
                -0.40143845196010775
            ]
        },
        {
            "positions": [
                0.3394371923244329,
                -1.3946905555844717,
                2.32930657426922,
                1.6205964816244816,
                -0.21736814861723186,
                -0.4864290014125155
            ]
        },
        {
            "positions": [
                0.2666414955715095,
                -1.3977222995804068,
                2.2500059012846956,
                1.557839462587665,
                -0.16639328278616292,
                -0.5714195508649232
            ]
        },
        {
            "positions": [
                0.19384579881858616,
                -1.4007540435763421,
                2.1707052283001707,
                1.4950824435508487,
                -0.115418416955094,
                -0.6564101003173309
            ]
        },
        {
            "positions": [
                0.12105010206566275,
                -1.4037857875722772,
                2.091404555315646,
                1.4323254245140322,
                -0.06444355112402506,
                -0.7414006497697387
            ]
        },
        {
            "positions": [
                0.04825440531273939,
                -1.4068175315682123,
                2.0121038823311217,
                1.3695684054772157,
                -0.013468685292956126,
                -0.8263911992221464
            ]
        },
        {
            "positions": [
                -0.01588995463371161,
                -1.3569773289702354,
                1.9886657019948821,
                1.4208377737133888,
                -0.1621670986029009,
                -0.7720136966465815
            ]
        },
        {
            "positions": [
                -0.08003431458016261,
                -1.3071371263722584,
                1.9652275216586428,
                1.472107141949562,
                -0.31086551191284567,
                -0.7176361940710166
            ]
        },
        {
            "positions": [
                -0.1441786745266136,
                -1.2572969237742815,
                1.9417893413224032,
                1.523376510185735,
                -0.45956392522279044,
                -0.6632586914954517
            ]
        },
        {
            "positions": [
                -0.2083230344730646,
                -1.2074567211763045,
                1.9183511609861637,
                1.5746458784219082,
                -0.6082623385327351,
                -0.6088811889198869
            ]
        },
        {
            "positions": [
                -0.27246739441951556,
                -1.1576165185783276,
                1.8949129806499243,
                1.625915246658081,
                -0.7569607518426799,
                -0.5545036863443219
            ]
        },
        {
            "positions": [
                -0.3366117543659666,
                -1.1077763159803506,
                1.8714748003136847,
                1.6771846148942544,
                -0.9056591651526247,
                -0.500126183768757
            ]
        },
        {
            "positions": [
                -0.4007561143124176,
                -1.057936113382374,
                1.8480366199774452,
                1.7284539831304273,
                -1.0543575784625694,
                -0.44574868119319205
            ]
        },
        {
            "positions": [
                -0.4649004742588686,
                -1.0080959107843968,
                1.8245984396412058,
                1.7797233513666004,
                -1.2030559917725143,
                -0.3913711786176272
            ]
        },
        {
            "positions": [
                -0.5290448342053196,
                -0.95825570818642,
                1.8011602593049663,
                1.8309927196027735,
                -1.351754405082459,
                -0.3369936760420623
            ]
        },
        {
            "positions": [
                -0.5931891941517705,
                -0.9084155055884431,
                1.7777220789687267,
                1.8822620878389467,
                -1.5004528183924037,
                -0.28261617346649737
            ]
        },
        {
            "positions": [
                -0.6573335540982215,
                -0.8585753029904661,
                1.7542838986324873,
                1.9335314560751198,
                -1.6491512317023485,
                -0.22823867089093253
            ]
        },
        {
            "positions": [
                -0.7214779140446725,
                -0.8087351003924891,
                1.7308457182962478,
                1.984800824311293,
                -1.7978496450122934,
                -0.17386116831536746
            ]
        },
        {
            "positions": [
                -0.7856222739911236,
                -0.7588948977945122,
                1.7074075379600082,
                2.036070192547466,
                -1.946548058322238,
                -0.11948366573980262
            ]
        },
        {
            "positions": [
                -0.8497666339375746,
                -0.7090546951965353,
                1.6839693576237689,
                2.087339560783639,
                -2.0952464716321826,
                -0.06510616316423767
            ]
        },
        {
            "positions": [
                -0.9139109938840255,
                -0.6592144925985584,
                1.6605311772875293,
                2.1386089290198123,
                -2.2439448849421275,
                -0.01072866058867282
            ]
        }
    ]
}