{
    "goal": {
        "global_pose": {
            "orientation": {
                "w": 0.005598929693374612,
                "x": 0.007748599140229565,
                "y": 0.7110244013736278,
                "z": -0.7031023480610252
            },
            "position": {
                "x": 0.1141497679147869,
                "y": -0.7141253447532654,
                "z": 0.3711530566215515
            }
        },
        "name": "move_to_auspresseinheit_B"
    },
    "id": "BKPIECE_move_to_auspresseinheit_B_108",
    "joint_names": [
        "shoulder_pan_joint",
        "shoulder_lift_joint",
        "elbow_joint",
        "wrist_1_joint",
        "wrist_2_joint",
        "wrist_3_joint"
    ],
    "metrics": {
        "cart_traj_len": 0.564635424888147,
        "distance_elbow_joint": 0.06664245667264246,
        "distance_shoulder_lift_joint": 0.2935796934306232,
        "distance_shoulder_pan_joint": 0.5757043411880887,
        "distance_wrist_1_joint": 0.33808980524248644,
        "distance_wrist_2_joint": 0.9970636291200623,
        "distance_wrist_3_joint": 0.008443848001983056,
        "smoothness": 3.806478935924272e-16,
        "time": 0.201771502,
        "traj_len": 1.5098091845183237,
        "weighted_distance": 1.905666524873227
    },
    "planner": "BKPIECE",
    "start": {
        "state": {
            "elbow_joint": 2.0193083361928714,
            "shoulder_lift_joint": -1.1220246554650708,
            "shoulder_pan_joint": -1.0952077554168747,
            "wrist_1_joint": -0.8559753972642168,
            "wrist_2_joint": 0.4759566250798843,
            "wrist_3_joint": -3.1240929996934557
        }
    },
    "waypoints": [
        {
            "positions": [
                -1.0952077554168747,
                -1.1220246554650708,
                2.0193083361928714,
                -0.8559753972642168,
                0.4759566250798843,
                -3.1240929996934557
            ]
        },
        {
            "positions": [
                -1.1911584789482228,
                -1.1709546043701746,
                2.008201260080764,
                -0.799627096390469,
                0.6421338965998946,
                -3.122685691693125
            ]
        },
        {
            "positions": [
                -1.287109202479571,
                -1.2198845532752784,
                1.9970941839686573,
                -0.7432787955167213,
                0.8083111681199051,
                -3.1212783836927946
            ]
        },
        {
            "positions": [
                -1.3830599260109189,
                -1.2688145021803825,
                1.98598710785655,
                -0.6869304946429735,
                0.9744884396399154,
                -3.119871075692464
            ]
        },
        {
            "positions": [
                -1.479010649542267,
                -1.3177444510854863,
                1.974880031744443,
                -0.6305821937692259,
                1.1406657111599259,
                -3.1184637676921336
            ]
        },
        {
            "positions": [
                -1.5749613730736152,
                -1.3666743999905901,
                1.963772955632336,
                -0.574233892895478,
                1.3068429826799361,
                -3.117056459691803
            ]
        },
        {
            "positions": [
                -1.6709120966049633,
                -1.415604348895694,
                1.952665879520229,
                -0.5178855920217303,
                1.4730202541999466,
                -3.1156491516914726
            ]
        }
    ]
}