{
    "goal": {
        "global_pose": {
            "orientation": {
                "w": -0.00223480608172531,
                "x": 0.0024358444001904467,
                "y": 0.7094548369677653,
                "z": -0.704743149386269
            },
            "position": {
                "x": -0.37947507619857795,
                "y": -0.6371506643295288,
                "z": 0.19426114857196808
            }
        },
        "name": "move_to_magneteinheit_C"
    },
    "id": "BKPIECE_move_to_magneteinheit_C_131",
    "joint_names": [
        "shoulder_pan_joint",
        "shoulder_lift_joint",
        "elbow_joint",
        "wrist_1_joint",
        "wrist_2_joint",
        "wrist_3_joint"
    ],
    "metrics": {
        "cart_traj_len": 1.3833743988901055,
        "distance_elbow_joint": 0.889033884540348,
        "distance_shoulder_lift_joint": 0.6258317093031782,
        "distance_shoulder_pan_joint": 1.3640906017727803,
        "distance_wrist_1_joint": 1.445832794462119,
        "distance_wrist_2_joint": 1.3596144316308303,
        "distance_wrist_3_joint": 2.5361500337142955,
        "smoothness": 0.5852353113066595,
        "time": 0.308946915,
        "traj_len": 2.86715075561498,
        "weighted_distance": 4.0122687782531585
    },
    "planner": "BKPIECE",
    "start": {
        "state": {
            "elbow_joint": 1.9565354010623817,
            "shoulder_lift_joint": -1.4165861575791021,
            "shoulder_pan_joint": -1.6717766225146293,
            "wrist_1_joint": -0.5286633292919765,
            "wrist_2_joint": 1.472756589071564,
            "wrist_3_joint": -3.1238370188695823
        }
    },
    "waypoints": [
        {
            "positions": [
                -1.6717766225146293,
                -1.4165861575791021,
                1.9565354010623817,
                -0.5286633292919765,
                1.472756589071564,
                -3.1238370188695823
            ]
        },
        {
            "positions": [
                -1.6356075271285526,
                -1.4264445602649638,
                1.9820850596807462,
                -0.6428178260658166,
                1.3319988265295928,
                -3.0976570980226947
            ]
        },
        {
            "positions": [
                -1.5686651605299573,
                -1.4257468112332683,
                1.8781792281343703,
                -0.6526625077960274,
                1.218729703123533,
                -2.998778539857384
            ]
        },
        {
            "positions": [
                -1.501722793931362,
                -1.425049062201573,
                1.7742733965879944,
                -0.6625071895262383,
                1.1054605797174728,
                -2.8998999816920734
            ]
        },
        {
            "positions": [
                -1.4347804273327667,
                -1.4243513131698775,
                1.6703675650416185,
                -0.6723518712564491,
                0.9921914563114129,
                -2.8010214235267625
            ]
        },
        {
            "positions": [
                -1.4759413750273154,
                -1.4496293644907128,
                1.6550626083365225,
                -0.5898961867975536,
                0.907255883034709,
                -2.670479587200541
            ]
        },
        {
            "positions": [
                -1.5171023227218638,
                -1.474907415811548,
                1.6397576516314265,
                -0.5074405023386581,
                0.8223203097580052,
                -2.5399377508743193
            ]
        },
        {
            "positions": [
                -1.5582632704164125,
                -1.5001854671323833,
                1.6244526949263305,
                -0.4249848178797626,
                0.7373847364813013,
                -2.4093959145480977
            ]
        },
        {
            "positions": [
                -1.599424218110961,
                -1.5254635184532186,
                1.6091477382212345,
                -0.34252913342086705,
                0.6524491632045974,
                -2.278854078221876
            ]
        },
        {
            "positions": [
                -1.6405851658055097,
                -1.5507415697740539,
                1.5938427815161385,
                -0.2600734489619715,
                0.5675135899278935,
                -2.148312241895654
            ]
        },
        {
            "positions": [
                -1.6817461135000582,
                -1.5760196210948891,
                1.5785378248110424,
                -0.17761776450307604,
                0.4825780166511896,
                -2.0177704055694323
            ]
        },
        {
            "positions": [
                -1.722907061194607,
                -1.6012976724157244,
                1.5632328681059464,
                -0.09516208004418047,
                0.39764244337448573,
                -1.8872285692432107
            ]
        },
        {
            "positions": [
                -1.9151846362749885,
                -1.5820874051281166,
                1.653383296150123,
                -0.11461494359745293,
                0.4127813784719264,
                -1.8828082886627817
            ]
        },
        {
            "positions": [
                -2.10746221135537,
                -1.5628771378405089,
                1.7435337241942994,
                -0.1340678071507254,
                0.4279203135693671,
                -1.8783880080823527
            ]
        },
        {
            "positions": [
                -2.299739786435752,
                -1.543666870552901,
                1.833684152238476,
                -0.15352067070399783,
                0.4430592486668078,
                -1.8739677275019238
            ]
        },
        {
            "positions": [
                -2.492017361516133,
                -1.5244566032652933,
                1.9238345802826524,
                -0.1729735342572703,
                0.4581981837642485,
                -1.8695474469214948
            ]
        },
        {
            "positions": [
                -2.5047462363004707,
                -1.4834797796283135,
                1.9505257739529833,
                -0.25164052377113943,
                0.48334661496924314,
                -2.018196303828219
            ]
        },
        {
            "positions": [
                -2.5174751110848086,
                -1.4425029559913334,
                1.977216967623314,
                -0.3303075132850085,
                0.5084950461742378,
                -2.1668451607349435
            ]
        },
        {
            "positions": [
                -2.5117445140465837,
                -1.4018919372664522,
                1.9825575035326772,
                -0.4020808924558844,
                0.5338293502458634,
                -2.3107410524170775
            ]
        },
        {
            "positions": [
                -2.5060139170083584,
                -1.3612809185415709,
                1.9878980394420405,
                -0.47385427162676036,
                0.559163654317489,
                -2.454636944099212
            ]
        },
        {
            "positions": [
                -2.5002833199701335,
                -1.3206698998166897,
                1.9932385753514037,
                -0.5456276507976363,
                0.5844979583891147,
                -2.598532835781346
            ]
        },
        {
            "positions": [
                -2.4912140093954,
                -1.2685679239242402,
                1.9981140177186458,
                -0.6371239476416103,
                0.6170462153621559,
                -2.7828245267501317
            ]
        },
        {
            "positions": [
                -2.4821446988206666,
                -1.2164659480317905,
                2.002989460085888,
                -0.7286202444855842,
                0.649594472335197,
                -2.967116217718917
            ]
        },
        {
            "positions": [
                -2.473075388245933,
                -1.164363972139341,
                2.00786490245313,
                -0.8201165413295581,
                0.6821427293082382,
                -3.1514079086877027
            ]
        }
    ]
}