{
    "goal": {
        "global_pose": {
            "orientation": {
                "w": 0.5084816262002911,
                "x": -0.4908360881923452,
                "y": 0.5182115481033761,
                "z": -0.48164630358495003
            },
            "position": {
                "x": 0.5540239810943604,
                "y": -0.46912469901144505,
                "z": 0.16403168439865112
            }
        },
        "name": "move_to_storage_B"
    },
    "id": "BKPIECE_move_to_storage_B_102",
    "joint_names": [
        "shoulder_pan_joint",
        "shoulder_lift_joint",
        "elbow_joint",
        "wrist_1_joint",
        "wrist_2_joint",
        "wrist_3_joint"
    ],
    "metrics": {
        "cart_traj_len": 0.7802618725234078,
        "distance_elbow_joint": 0.3538969529632001,
        "distance_shoulder_lift_joint": 0.46136168067723093,
        "distance_shoulder_pan_joint": 0.5911875290408432,
        "distance_wrist_1_joint": 2.9922512654226074,
        "distance_wrist_2_joint": 2.7755690842962806,
        "distance_wrist_3_joint": 3.3934400462020835,
        "smoothness": 0.3359917236274312,
        "time": 0.247023747,
        "traj_len": 3.250800910329983,
        "weighted_distance": 4.808576400633072
    },
    "planner": "BKPIECE",
    "start": {
        "state": {
            "elbow_joint": 1.664937868594044,
            "shoulder_lift_joint": -0.661644460510453,
            "shoulder_pan_joint": -0.9139846352900073,
            "wrist_1_joint": 2.146753192139373,
            "wrist_2_joint": -2.2341966793290973,
            "wrist_3_joint": 0.005466555786416001
        }
    },
    "waypoints": [
        {
            "positions": [
                -0.9139846352900073,
                -0.661644460510453,
                1.664937868594044,
                2.146753192139373,
                -2.2341966793290973,
                0.005466555786416001
            ]
        },
        {
            "positions": [
                -0.8115479006644084,
                -0.720563650363788,
                1.6772738631817843,
                2.1153614183175478,
                -2.248423205409834,
                0.07057055839203544
            ]
        },
        {
            "positions": [
                -0.7091111660388095,
                -0.7794828402171229,
                1.6896098577695244,
                2.083969644495722,
                -2.26264973149057,
                0.13567456099765487
            ]
        },
        {
            "positions": [
                -0.723969399107642,
                -0.7926952748698368,
                1.7022723563767443,
                1.9712978091965312,
                -2.1569914225623084,
                0.010165636344160844
            ]
        },
        {
            "positions": [
                -0.7388276321764745,
                -0.8059077095225506,
                1.7149348549839645,
                1.8586259738973405,
                -2.0513331136340462,
                -0.11534328830933319
            ]
        },
        {
            "positions": [
                -0.7536858652453071,
                -0.8191201441752646,
                1.7275973535911844,
                1.74595413859815,
                -1.9456748047057846,
                -0.24085221296282724
            ]
        },
        {
            "positions": [
                -0.7685440983141396,
                -0.8323325788279784,
                1.7402598521984043,
                1.6332823032989594,
                -1.8400164957775227,
                -0.3663611376163213
            ]
        },
        {
            "positions": [
                -0.7834023313829721,
                -0.8455450134806923,
                1.7529223508056244,
                1.5206104679997687,
                -1.7343581868492608,
                -0.49187006226981533
            ]
        },
        {
            "positions": [
                -0.7982605644518046,
                -0.8587574481334062,
                1.7655848494128443,
                1.407938632700578,
                -1.628699877920999,
                -0.6173789869233094
            ]
        },
        {
            "positions": [
                -0.8131187975206371,
                -0.8719698827861201,
                1.7782473480200642,
                1.2952667974013876,
                -1.5230415689927372,
                -0.7428879115768033
            ]
        },
        {
            "positions": [
                -0.8279770305894697,
                -0.885182317438834,
                1.7909098466272844,
                1.182594962102197,
                -1.4173832600644753,
                -0.8683968362302974
            ]
        },
        {
            "positions": [
                -0.8428352636583022,
                -0.8983947520915478,
                1.8035723452345043,
                1.0699231268030063,
                -1.3117249511362135,
                -0.9939057608837913
            ]
        },
        {
            "positions": [
                -0.8576934967271347,
                -0.9116071867442618,
                1.8162348438417242,
                0.9572512915038156,
                -1.2060666422079516,
                -1.1194146855372855
            ]
        },
        {
            "positions": [
                -0.8725517297959672,
                -0.9248196213969756,
                1.8288973424489443,
                0.8445794562046252,
                -1.10040833327969,
                -1.2449236101907795
            ]
        },
        {
            "positions": [
                -0.8874099628647998,
                -0.9380320560496895,
                1.8415598410561642,
                0.7319076209054343,
                -0.9947500243514278,
                -1.3704325348442736
            ]
        },
        {
            "positions": [
                -0.9022681959336323,
                -0.9512444907024034,
                1.8542223396633841,
                0.6192357856062438,
                -0.8890917154231661,
                -1.4959414594977676
            ]
        },
        {
            "positions": [
                -0.9171264290024648,
                -0.9644569253551173,
                1.8668848382706043,
                0.5065639503070534,
                -0.7834334064949044,
                -1.6214503841512615
            ]
        },
        {
            "positions": [
                -0.9319846620712973,
                -0.9776693600078312,
                1.8795473368778242,
                0.3938921150078627,
                -0.6777750975666426,
                -1.7469593088047555
            ]
        },
        {
            "positions": [
                -0.9468428951401298,
                -0.990881794660545,
                1.8922098354850443,
                0.2812202797086718,
                -0.5721167886383804,
                -1.8724682334582496
            ]
        },
        {
            "positions": [
                -0.9617011282089623,
                -1.0040942293132589,
                1.9048723340922642,
                0.16854844440948136,
                -0.4664584797101188,
                -1.9979771581117438
            ]
        },
        {
            "positions": [
                -0.9765593612777947,
                -1.017306663965973,
                1.917534832699484,
                0.05587660911029069,
                -0.3608001707818569,
                -2.1234860827652375
            ]
        },
        {
            "positions": [
                -0.9914175943466272,
                -1.0305190986186867,
                1.930197331306704,
                -0.05679522618889976,
                -0.2551418618535952,
                -2.2489950074187317
            ]
        },
        {
            "positions": [
                -1.0062758274154597,
                -1.0437315332714006,
                1.9428598299139241,
                -0.16946706148809065,
                -0.1494835529253331,
                -2.374503932072226
            ]
        },
        {
            "positions": [
                -1.0211340604842922,
                -1.0569439679241146,
                1.955522328521144,
                -0.2821388967872811,
                -0.04382524399707144,
                -2.50001285672572
            ]
        },
        {
            "positions": [
                -1.0359922935531247,
                -1.0701564025768284,
                1.968184827128364,
                -0.39481073208647155,
                0.06183306493119023,
                -2.6255217813792138
            ]
        },
        {
            "positions": [
                -1.0508505266219574,
                -1.0833688372295422,
                1.980847325735584,
                -0.5074825673856624,
                0.16749137385945234,
                -2.751030706032708
            ]
        },
        {
            "positions": [
                -1.06570875969079,
                -1.0965812718822563,
                1.9935098243428042,
                -0.6201544026848533,
                0.27314968278771445,
                -2.876539630686202
            ]
        },
        {
            "positions": [
                -1.0805669927596224,
                -1.1097937065349701,
                2.006172322950024,
                -0.7328262379840438,
                0.3788079917159761,
                -3.002048555339696
            ]
        },
        {
            "positions": [
                -1.095425225828455,
                -1.123006141187684,
                2.018834821557244,
                -0.8454980732832342,
                0.4844663006442379,
                -3.12755747999319
            ]
        }
    ]
}