{
    "goal": {
        "global_pose": {
            "orientation": {
                "w": 0.7031023502349854,
                "x": -0.7110244035720825,
                "y": 0.007748599164187908,
                "z": 0.005598929710686207
            },
            "position": {
                "x": 0.11585023208521307,
                "y": 0.44412534475326537,
                "z": 0.3711530566215515
            }
        },
        "name": "move_to_auspresseinheit_A"
    },
    "id": "BKPIECE_move_to_auspresseinheit_A_126",
    "joint_names": [
        "shoulder_pan_joint",
        "shoulder_lift_joint",
        "elbow_joint",
        "wrist_1_joint",
        "wrist_2_joint",
        "wrist_3_joint"
    ],
    "metrics": {
        "cart_traj_len": 0.6658499927670012,
        "distance_elbow_joint": 0.08137544047513545,
        "distance_shoulder_lift_joint": 0.5346289392896886,
        "distance_shoulder_pan_joint": 1.047036679108579,
        "distance_wrist_1_joint": 1.0505158463281932,
        "distance_wrist_2_joint": 0.9056360061105293,
        "distance_wrist_3_joint": 0.16387819575672857,
        "smoothness": 1.0320878532165843,
        "time": 0.286074846,
        "traj_len": 1.9450118526808144,
        "weighted_distance": 2.4631239008667496
    },
    "planner": "BKPIECE",
    "start": {
        "state": {
            "elbow_joint": 2.4225746658250005,
            "shoulder_lift_joint": -1.3736534386056498,
            "shoulder_pan_joint": -0.3378633547517467,
            "wrist_1_joint": -1.0288598680537169,
            "wrist_2_joint": 1.233022673432363,
            "wrist_3_joint": -3.0940220416140027
        }
    },
    "waypoints": [
        {
            "positions": [
                -0.3378633547517467,
                -1.3736534386056498,
                2.4225746658250005,
                -1.0288598680537169,
                1.233022673432363,
                -3.0940220416140027
            ]
        },
        {
            "positions": [
                -0.28220211770306713,
                -1.4298524458141333,
                2.4145854750085594,
                -0.9131098229224385,
                1.1317954072022396,
                -3.0852147553369003
            ]
        },
        {
            "positions": [
                -0.2265408806543876,
                -1.486051453022617,
                2.406596284192118,
                -0.7973597777911601,
                1.0305681409721164,
                -3.076407469059798
            ]
        },
        {
            "positions": [
                -0.17087964360570804,
                -1.5422504602311005,
                2.3986070933756767,
                -0.6816097326598818,
                0.9293408747419929,
                -3.0676001827826953
            ]
        },
        {
            "positions": [
                -0.11521840655702847,
                -1.5984494674395842,
                2.390617902559235,
                -0.5658596875286034,
                0.8281136085118694,
                -3.058792896505593
            ]
        },
        {
            "positions": [
                -0.059557169508348884,
                -1.6546484746480676,
                2.382628711742794,
                -0.450109642397325,
                0.726886342281746,
                -3.0499856102284904
            ]
        },
        {
            "positions": [
                -0.003895932459669349,
                -1.7108474818565513,
                2.3746395209263524,
                -0.3343595972660466,
                0.6256590760516226,
                -3.041178323951388
            ]
        },
        {
            "positions": [
                0.05176530458901024,
                -1.7670464890650348,
                2.3666503301099113,
                -0.21860955213476813,
                0.5244318098214992,
                -3.0323710376742854
            ]
        },
        {
            "positions": [
                0.21611730953096575,
                -1.8023554612726107,
                2.373013106299923,
                -0.2786759347370793,
                0.5736930954464156,
                -3.057927835628538
            ]
        },
        {
            "positions": [
                0.38046931447292126,
                -1.8376644334801866,
                2.3793758824899345,
                -0.3387423173393905,
                0.6229543810713318,
                -3.083484633582791
            ]
        },
        {
            "positions": [
                0.5448213194148768,
                -1.8729734056877625,
                2.385738658679946,
                -0.39880869994170165,
                0.6722156666962482,
                -3.109041431537044
            ]
        },
        {
            "positions": [
                0.7091733243568322,
                -1.9082823778953384,
                2.3921014348699576,
                -0.4588750825440128,
                0.7214769523211646,
                -3.1345982294912966
            ]
        }
    ]
}