{
    "goal": {
        "global_pose": {
            "orientation": {
                "w": -0.00223480608172531,
                "x": 0.0024358444001904467,
                "y": 0.7094548369677653,
                "z": -0.704743149386269
            },
            "position": {
                "x": 0.6205249238014221,
                "y": -0.6371506643295288,
                "z": 0.19426114857196808
            }
        },
        "name": "move_to_magneteinheit_B"
    },
    "id": "BKPIECE_move_to_magneteinheit_B_80",
    "joint_names": [
        "shoulder_pan_joint",
        "shoulder_lift_joint",
        "elbow_joint",
        "wrist_1_joint",
        "wrist_2_joint",
        "wrist_3_joint"
    ],
    "metrics": {
        "cart_traj_len": 3.120134270188587,
        "distance_elbow_joint": 4.461232844367274,
        "distance_shoulder_lift_joint": 1.0570179422228976,
        "distance_shoulder_pan_joint": 2.2734710426812788,
        "distance_wrist_1_joint": 1.0162498462975513,
        "distance_wrist_2_joint": 1.1833749581503947,
        "distance_wrist_3_joint": 0.490734127944663,
        "smoothness": 0.3181863114586061,
        "time": 0.431185134,
        "traj_len": 3.2376041700096785,
        "weighted_distance": 3.6963730631527616
    },
    "planner": "BKPIECE",
    "start": {
        "state": {
            "elbow_joint": 2.6216224122426386,
            "shoulder_lift_joint": -1.4174107377796124,
            "shoulder_pan_joint": 0.7066234856936794,
            "wrist_1_joint": 1.9546482284002225,
            "wrist_2_joint": -0.7096286983471962,
            "wrist_3_joint": 0.005740856962016249
        }
    },
    "waypoints": [
        {
            "positions": [
                0.7066234856936794,
                -1.4174107377796124,
                2.6216224122426386,
                1.9546482284002225,
                -0.7096286983471962,
                0.005740856962016249
            ]
        },
        {
            "positions": [
                0.6692177565517118,
                -1.4936828064392056,
                2.6010765862840977,
                1.8288038119689873,
                -0.6659412717717594,
                0.028020480455786964
            ]
        },
        {
            "positions": [
                0.6318120274097443,
                -1.5699548750987986,
                2.5805307603255563,
                1.7029593955377522,
                -0.6222538451963225,
                0.05030010394955768
            ]
        },
        {
            "positions": [
                0.5944062982677767,
                -1.6462269437583918,
                2.5599849343670154,
                1.577114979106517,
                -0.5785664186208858,
                0.0725797274433284
            ]
        },
        {
            "positions": [
                0.6842945428854593,
                -1.6632258290001682,
                2.3563218816782956,
                1.5474642175528373,
                -0.5330316991412666,
                0.0816101558104243
            ]
        },
        {
            "positions": [
                0.774182787503142,
                -1.6802247142419446,
                2.1526588289895754,
                1.5178134559991574,
                -0.4874969796616475,
                0.09064058417752022
            ]
        },
        {
            "positions": [
                0.8640710321208247,
                -1.697223599483721,
                1.9489957763008556,
                1.4881626944454778,
                -0.44196226018202833,
                0.09967101254461613
            ]
        },
        {
            "positions": [
                0.9539592767385073,
                -1.7142224847254974,
                1.7453327236121357,
                1.458511932891798,
                -0.3964275407024092,
                0.10870144091171204
            ]
        },
        {
            "positions": [
                1.04384752135619,
                -1.7312213699672738,
                1.5416696709234157,
                1.428861171338118,
                -0.3508928212227901,
                0.11773186927880794
            ]
        },
        {
            "positions": [
                1.1337357659738727,
                -1.7482202552090504,
                1.338006618234696,
                1.3992104097844384,
                -0.30535810174317096,
                0.12676229764590385
            ]
        },
        {
            "positions": [
                1.2236240105915552,
                -1.7652191404508268,
                1.134343565545976,
                1.3695596482307586,
                -0.25982338226355184,
                0.13579272601299974
            ]
        },
        {
            "positions": [
                1.313512255209238,
                -1.7822180256926032,
                0.930680512857256,
                1.3399088866770787,
                -0.21428866278393266,
                0.1448231543800957
            ]
        },
        {
            "positions": [
                1.4034004998269207,
                -1.7992169109343796,
                0.7270174601685362,
                1.310258125123399,
                -0.16875394330431354,
                0.15385358274719158
            ]
        },
        {
            "positions": [
                1.4932887444446035,
                -1.816215796176156,
                0.523354407479816,
                1.280607363569719,
                -0.12321922382469441,
                0.1628840111142875
            ]
        },
        {
            "positions": [
                1.5831769890622862,
                -1.8332146814179324,
                0.3196913547910962,
                1.2509566020160392,
                -0.07768450434507523,
                0.1719144394813834
            ]
        },
        {
            "positions": [
                1.6730652336799687,
                -1.8502135666597088,
                0.11602830210237647,
                1.2213058404623596,
                -0.032149784865456166,
                0.1809448678484793
            ]
        },
        {
            "positions": [
                1.7629534782976515,
                -1.8672124519014852,
                -0.08763475058634373,
                1.1916550789086797,
                0.013384934614163013,
                0.18997529621557524
            ]
        },
        {
            "positions": [
                1.852841722915334,
                -1.8842113371432616,
                -0.2912978032750635,
                1.162004317355,
                0.05891965409378208,
                0.19900572458267113
            ]
        },
        {
            "positions": [
                1.9427299675330167,
                -1.9012102223850382,
                -0.4949608559637837,
                1.1323535558013202,
                0.10445437357340126,
                0.20803615294976707
            ]
        },
        {
            "positions": [
                2.032618212150699,
                -1.9182091076268146,
                -0.6986239086525035,
                1.1027027942476404,
                0.14998909305302044,
                0.21706658131686296
            ]
        },
        {
            "positions": [
                2.122506456768382,
                -1.935207992868591,
                -0.9022869613412237,
                1.0730520326939605,
                0.19552381253263962,
                0.22609700968395885
            ]
        },
        {
            "positions": [
                2.2123947013860645,
                -1.9522068781103674,
                -1.105950014029943,
                1.0434012711402807,
                0.24105853201225869,
                0.23512743805105474
            ]
        },
        {
            "positions": [
                2.3022829460037473,
                -1.9692057633521438,
                -1.3096130667186632,
                1.0137505095866008,
                0.28659325149187787,
                0.24415786641815068
            ]
        },
        {
            "positions": [
                2.39217119062143,
                -1.9862046485939202,
                -1.5132761194073834,
                0.9840997480329212,
                0.33212797097149693,
                0.25318829478524657
            ]
        },
        {
            "positions": [
                2.4820594352391128,
                -2.0032035338356966,
                -1.7169391720961031,
                0.9544489864792414,
                0.37766269045111606,
                0.2622187231523425
            ]
        },
        {
            "positions": [
                2.5951886816266327,
                -2.1007740157716195,
                -1.7364913673231224,
                0.9570541773927059,
                0.398841571102987,
                0.22941546038308866
            ]
        },
        {
            "positions": [
                2.7083179280141523,
                -2.1983444977075424,
                -1.7560435625501416,
                0.9596593683061705,
                0.420020451754858,
                0.1966121976138348
            ]
        },
        {
            "positions": [
                2.684646815259652,
                -2.336386588855026,
                -1.7142601277628946,
                0.965079479580991,
                0.4468833557790281,
                0.11228732950592027
            ]
        },
        {
            "positions": [
                2.660975702505152,
                -2.47442868000251,
                -1.6724766929756476,
                0.9704995908558116,
                0.4737462598031982,
                0.02796246139800573
            ]
        }
    ]
}