{
    "goal": {
        "global_pose": {
            "orientation": {
                "w": -0.4816463035849501,
                "x": 0.5182115481033762,
                "y": 0.4908360881923453,
                "z": -0.5084816262002911
            },
            "position": {
                "x": -0.8240239810943604,
                "y": -0.300875300988555,
                "z": 0.16403168439865112
            }
        },
        "name": "move_to_storage_C"
    },
    "id": "BKPIECE_move_to_storage_C_97",
    "joint_names": [
        "shoulder_pan_joint",
        "shoulder_lift_joint",
        "elbow_joint",
        "wrist_1_joint",
        "wrist_2_joint",
        "wrist_3_joint"
    ],
    "metrics": {
        "cart_traj_len": 0.5761205793853461,
        "distance_elbow_joint": 0.25898427210372055,
        "distance_shoulder_lift_joint": 0.18837600989014525,
        "distance_shoulder_pan_joint": 0.4956629755050428,
        "distance_wrist_1_joint": 0.08719233470646148,
        "distance_wrist_2_joint": 1.0582254917198175,
        "distance_wrist_3_joint": 0.05752353403388444,
        "smoothness": 0.0,
        "time": 0.137512525,
        "traj_len": 1.4649111297137012,
        "weighted_distance": 1.8456515143583092
    },
    "planner": "BKPIECE",
    "start": {
        "state": {
            "elbow_joint": 2.010868314990456,
            "shoulder_lift_joint": -1.1634956873337592,
            "shoulder_pan_joint": -2.4736205022346125,
            "wrist_1_joint": -0.8367026794202681,
            "wrist_2_joint": 0.6746043897044499,
            "wrist_3_joint": -3.1496632123970403
        }
    },
    "waypoints": [
        {
            "positions": [
                -2.4736205022346125,
                -1.1634956873337592,
                2.010868314990456,
                -0.8367026794202681,
                0.6746043897044499,
                -3.1496632123970403
            ]
        },
        {
            "positions": [
                -2.5562309981521194,
                -1.1320996856854015,
                1.9677042696398357,
                -0.8221706236358579,
                0.8509753049910862,
                -3.140075956724726
            ]
        },
        {
            "positions": [
                -2.6388414940696268,
                -1.100703684037044,
                1.9245402242892156,
                -0.8076385678514476,
                1.0273462202777224,
                -3.1304887010524123
            ]
        },
        {
            "positions": [
                -2.721451989987134,
                -1.0693076823886867,
                1.8813761789385954,
                -0.7931065120670373,
                1.2037171355643586,
                -3.120901445380098
            ]
        },
        {
            "positions": [
                -2.804062485904641,
                -1.037911680740329,
                1.8382121335879755,
                -0.7785744562826271,
                1.3800880508509947,
                -3.111314189707784
            ]
        },
        {
            "positions": [
                -2.886672981822148,
                -1.0065156790919714,
                1.7950480882373554,
                -0.7640424004982169,
                1.5564589661376314,
                -3.10172693403547
            ]
        },
        {
            "positions": [
                -2.9692834777396553,
                -0.9751196774436139,
                1.7518840428867353,
                -0.7495103447138066,
                1.7328298814242675,
                -3.092139678363156
            ]
        }
    ]
}