{
    "goal": {
        "global_pose": {
            "orientation": {
                "w": -0.00223480608172531,
                "x": 0.0024358444001904467,
                "y": 0.7094548369677653,
                "z": -0.704743149386269
            },
            "position": {
                "x": -0.37947507619857795,
                "y": -0.6371506643295288,
                "z": 0.19426114857196808
            }
        },
        "name": "move_to_magneteinheit_C"
    },
    "id": "BKPIECE_move_to_magneteinheit_C_124",
    "joint_names": [
        "shoulder_pan_joint",
        "shoulder_lift_joint",
        "elbow_joint",
        "wrist_1_joint",
        "wrist_2_joint",
        "wrist_3_joint"
    ],
    "metrics": {
        "cart_traj_len": 0.8836405869910114,
        "distance_elbow_joint": 0.4919279915358148,
        "distance_shoulder_lift_joint": 0.5796036153643669,
        "distance_shoulder_pan_joint": 0.9434081609630465,
        "distance_wrist_1_joint": 2.2730650816158815,
        "distance_wrist_2_joint": 1.3916898646944262,
        "distance_wrist_3_joint": 1.3363238605601215,
        "smoothness": 2.8202798279816093,
        "time": 0.22449739800000001,
        "traj_len": 2.648776807270416,
        "weighted_distance": 3.6542333316530575
    },
    "planner": "BKPIECE",
    "start": {
        "state": {
            "elbow_joint": 1.9565354010623817,
            "shoulder_lift_joint": -1.4165861575791021,
            "shoulder_pan_joint": -1.6717766225146293,
            "wrist_1_joint": -0.5286633292919765,
            "wrist_2_joint": 1.472756589071564,
            "wrist_3_joint": -3.1238370188695823
        }
    },
    "waypoints": [
        {
            "positions": [
                -1.6717766225146293,
                -1.4165861575791021,
                1.9565354010623817,
                -0.5286633292919765,
                1.472756589071564,
                -3.1238370188695823
            ]
        },
        {
            "positions": [
                -1.7390219617171951,
                -1.4136187076454894,
                1.9321293097342207,
                -0.4363930736464373,
                1.3602472003182917,
                -3.0619775352678276
            ]
        },
        {
            "positions": [
                -1.806267300919761,
                -1.4106512577118764,
                1.9077232184060597,
                -0.3441228180008982,
                1.2477378115650195,
                -3.0001180516660724
            ]
        },
        {
            "positions": [
                -1.8735126401223268,
                -1.4076838077782636,
                1.883317127077899,
                -0.25185256235535913,
                1.1352284228117473,
                -2.9382585680643176
            ]
        },
        {
            "positions": [
                -1.9407579793248928,
                -1.4047163578446507,
                1.858911035749738,
                -0.15958230670982,
                1.022719034058475,
                -2.8763990844625624
            ]
        },
        {
            "positions": [
                -2.0080033185274586,
                -1.401748907911038,
                1.834504944421577,
                -0.06731205106428084,
                0.9102096453052028,
                -2.8145396008608077
            ]
        },
        {
            "positions": [
                -2.0752486577300244,
                -1.398781457977425,
                1.8100988530934161,
                0.024958204581258192,
                0.7977002565519306,
                -2.7526801172590525
            ]
        },
        {
            "positions": [
                -2.1424939969325902,
                -1.3958140080438122,
                1.7856927617652554,
                0.11722846022679745,
                0.6851908677986582,
                -2.6908206336572977
            ]
        },
        {
            "positions": [
                -2.209739336135156,
                -1.3928465581101992,
                1.7612866704370944,
                0.20949871587233648,
                0.5726814790453861,
                -2.6289611500555425
            ]
        },
        {
            "positions": [
                -2.276984675337722,
                -1.3898791081765864,
                1.7368805791089335,
                0.30176897151787563,
                0.46017209029211376,
                -2.567101666453788
            ]
        },
        {
            "positions": [
                -2.261893094342775,
                -1.3155676733611883,
                1.762985716301201,
                0.23761080661361444,
                0.41747201936875467,
                -2.664291210659614
            ]
        },
        {
            "positions": [
                -2.2468015133478283,
                -1.2412562385457901,
                1.7890908534934689,
                0.17345264170935326,
                0.37477194844539563,
                -2.7614807548654405
            ]
        },
        {
            "positions": [
                -2.3412987927337716,
                -1.3226274562233784,
                1.802448234885334,
                0.2517787303083646,
                0.44445099541977595,
                -2.7132385332382087
            ]
        },
        {
            "positions": [
                -2.435796072119715,
                -1.4039986739009664,
                1.815805616277199,
                0.330104818907376,
                0.5141300423941563,
                -2.6649963116109765
            ]
        },
        {
            "positions": [
                -2.475231193150496,
                -1.3754846262461657,
                1.8363555626343069,
                0.2347962607609959,
                0.5509524487114204,
                -2.766213497913751
            ]
        },
        {
            "positions": [
                -2.514666314181277,
                -1.3469705785913648,
                1.856905508991415,
                0.13948770261461582,
                0.5877748550286843,
                -2.867430684216526
            ]
        },
        {
            "positions": [
                -2.5066358851179547,
                -1.3100699454581095,
                1.887355156931392,
                -0.05392172888672905,
                0.6039153185256781,
                -2.924688804991058
            ]
        },
        {
            "positions": [
                -2.4986054560546322,
                -1.273169312324854,
                1.917804804871369,
                -0.24733116038807393,
                0.620055782022672,
                -2.98194692576559
            ]
        },
        {
            "positions": [
                -2.4905750269913103,
                -1.2362686791915987,
                1.9482544528113461,
                -0.4407405918894187,
                0.6361962455196659,
                -3.0392050465401224
            ]
        },
        {
            "positions": [
                -2.482544597927988,
                -1.1993680460583431,
                1.978704100751323,
                -0.6341500233907637,
                0.6523367090166597,
                -3.0964631673146545
            ]
        },
        {
            "positions": [
                -2.4745141688646655,
                -1.1624674129250878,
                2.0091537486913,
                -0.8275594548921085,
                0.6684771725136536,
                -3.1537212880891867
            ]
        }
    ]
}