{
    "goal": {
        "global_pose": {
            "orientation": {
                "w": 0.7031023502349854,
                "x": -0.7110244035720825,
                "y": 0.007748599164187908,
                "z": 0.005598929710686207
            },
            "position": {
                "x": 0.11585023208521307,
                "y": 0.44412534475326537,
                "z": 0.3711530566215515
            }
        },
        "name": "move_to_auspresseinheit_A"
    },
    "id": "BKPIECE_move_to_auspresseinheit_A_14",
    "joint_names": [
        "shoulder_pan_joint",
        "shoulder_lift_joint",
        "elbow_joint",
        "wrist_1_joint",
        "wrist_2_joint",
        "wrist_3_joint"
    ],
    "metrics": {
        "cart_traj_len": 0.994243440019545,
        "distance_elbow_joint": 0.6908159471372843,
        "distance_shoulder_lift_joint": 0.8833816798624834,
        "distance_shoulder_pan_joint": 1.0412966207568624,
        "distance_wrist_1_joint": 1.308400760590112,
        "distance_wrist_2_joint": 0.9261310946598911,
        "distance_wrist_3_joint": 1.591605068037964,
        "smoothness": 0.7123706202247758,
        "time": 0.171936439,
        "traj_len": 2.538036873460391,
        "weighted_distance": 3.443744061682071
    },
    "planner": "BKPIECE",
    "start": {
        "state": {
            "elbow_joint": 2.4225746658250005,
            "shoulder_lift_joint": -1.3736534386056498,
            "shoulder_pan_joint": -0.3378633547517467,
            "wrist_1_joint": -1.0288598680537169,
            "wrist_2_joint": 1.233022673432363,
            "wrist_3_joint": -3.0940220416140027
        }
    },
    "waypoints": [
        {
            "positions": [
                -0.3378633547517467,
                -1.3736534386056498,
                2.4225746658250005,
                -1.0288598680537169,
                1.233022673432363,
                -3.0940220416140027
            ]
        },
        {
            "positions": [
                -0.2834718676202412,
                -1.437895704609847,
                2.38961351017773,
                -0.9521678426054064,
                1.1665370155227663,
                -3.0237988535508915
            ]
        },
        {
            "positions": [
                -0.22908038048873564,
                -1.502137970614044,
                2.3566523545304596,
                -0.8754758171570961,
                1.1000513576131696,
                -2.9535756654877803
            ]
        },
        {
            "positions": [
                -0.17468889335723015,
                -1.5663802366182413,
                2.3236911988831896,
                -0.7987837917087857,
                1.0335656997035727,
                -2.883352477424669
            ]
        },
        {
            "positions": [
                -0.12029740622572457,
                -1.6306225026224386,
                2.2907300432359192,
                -0.7220917662604753,
                0.967080041793976,
                -2.813129289361558
            ]
        },
        {
            "positions": [
                -0.06590591909421906,
                -1.6948647686266356,
                2.257768887588649,
                -0.645399740812165,
                0.9005943838843793,
                -2.7429061012984466
            ]
        },
        {
            "positions": [
                -0.011514431962713567,
                -1.7591070346308328,
                2.2248077319413784,
                -0.5687077153638546,
                0.8341087259747826,
                -2.6726829132353354
            ]
        },
        {
            "positions": [
                0.04287705516879203,
                -1.82334930063503,
                2.191846576294108,
                -0.4920156899155441,
                0.7676230680651859,
                -2.602459725172224
            ]
        },
        {
            "positions": [
                0.09726854230029758,
                -1.8875915666392271,
                2.158885420646838,
                -0.4153236644672337,
                0.7011374101555891,
                -2.532236537109113
            ]
        },
        {
            "positions": [
                0.15166002943180312,
                -1.9518338326434244,
                2.1259242649995675,
                -0.33863163901892335,
                0.6346517522459922,
                -2.4620133490460017
            ]
        },
        {
            "positions": [
                0.2060515165633086,
                -2.0160760986476216,
                2.092963109352297,
                -0.261939613570613,
                0.5681660943363956,
                -2.3917901609828904
            ]
        },
        {
            "positions": [
                0.2604430036948142,
                -2.0803183646518186,
                2.0600019537050267,
                -0.18524758812230252,
                0.5016804364267988,
                -2.321566972919779
            ]
        },
        {
            "positions": [
                0.3456631353002263,
                -2.07272286040583,
                2.133399507687325,
                -0.15232344760408056,
                0.5026343636656836,
                -2.4789596388091244
            ]
        },
        {
            "positions": [
                0.43088326690563844,
                -2.065127356159841,
                2.206797061669623,
                -0.11939930708585861,
                0.5035882909045684,
                -2.636352304698469
            ]
        },
        {
            "positions": [
                0.5161033985110506,
                -2.0575318519138523,
                2.2801946156519213,
                -0.08647516656763665,
                0.5045422181434531,
                -2.7937449705878143
            ]
        },
        {
            "positions": [
                0.5629358653845669,
                -2.019049291644265,
                2.3072072589195254,
                -0.1779791813436447,
                0.5525239871278713,
                -2.880487971006741
            ]
        },
        {
            "positions": [
                0.6097683322580831,
                -1.9805667313746782,
                2.3342199021871295,
                -0.26948319611965277,
                0.6005057561122894,
                -2.967230971425667
            ]
        },
        {
            "positions": [
                0.6566007991315993,
                -1.9420841711050911,
                2.361232545454733,
                -0.3609872108956608,
                0.6484875250967075,
                -3.0539739718445933
            ]
        },
        {
            "positions": [
                0.7034332660051156,
                -1.903601610835504,
                2.3882451887223373,
                -0.4524912256716689,
                0.6964692940811257,
                -3.1407169722635198
            ]
        }
    ]
}