{
    "goal": {
        "global_pose": {
            "orientation": {
                "w": 0.5084816217422485,
                "x": -0.49083608388900757,
                "y": 0.5182115435600281,
                "z": -0.4816462993621826
            },
            "position": {
                "x": 0.5540239810943604,
                "y": 0.030875300988554955,
                "z": 0.16403168439865112
            }
        },
        "name": "move_to_storage_A"
    },
    "id": "BKPIECE_move_to_storage_A_30",
    "joint_names": [
        "shoulder_pan_joint",
        "shoulder_lift_joint",
        "elbow_joint",
        "wrist_1_joint",
        "wrist_2_joint",
        "wrist_3_joint"
    ],
    "metrics": {
        "cart_traj_len": 0.35366039989382686,
        "distance_elbow_joint": 0.45044543139278326,
        "distance_shoulder_lift_joint": 0.23668136833386755,
        "distance_shoulder_pan_joint": 0.46024889083166226,
        "distance_wrist_1_joint": 0.23893953232160448,
        "distance_wrist_2_joint": 1.1108614412111362,
        "distance_wrist_3_joint": 0.10618984359268957,
        "smoothness": 0.0,
        "time": 0.290211434,
        "traj_len": 1.6134951216795617,
        "weighted_distance": 2.0409672139458443
    },
    "planner": "BKPIECE",
    "start": {
        "state": {
            "elbow_joint": 1.971548259319323,
            "shoulder_lift_joint": -1.1394851275133948,
            "shoulder_pan_joint": 0.1228115487234821,
            "wrist_1_joint": -0.7804723859257726,
            "wrist_2_joint": 0.12958671773740124,
            "wrist_3_joint": -3.192489227718131
        }
    },
    "waypoints": [
        {
            "positions": [
                0.1228115487234821,
                -1.1394851275133948,
                1.971548259319323,
                -0.7804723859257726,
                0.12958671773740124,
                -3.192489227718131
            ]
        },
        {
            "positions": [
                0.057061707176101775,
                -1.1732967515610901,
                2.035897606661149,
                -0.8146066048288589,
                0.28828120933899215,
                -3.1773192500620326
            ]
        },
        {
            "positions": [
                -0.00868813437127855,
                -1.2071083756087855,
                2.1002469540029756,
                -0.8487408237319454,
                0.44697570094058303,
                -3.162149272405934
            ]
        },
        {
            "positions": [
                -0.07443797591865886,
                -1.2409199996564808,
                2.1645963013448015,
                -0.8828750426350317,
                0.6056701925421739,
                -3.1469792947498356
            ]
        },
        {
            "positions": [
                -0.1401878174660392,
                -1.2747316237041764,
                2.2289456486866275,
                -0.917009261538118,
                0.7643646841437648,
                -3.131809317093737
            ]
        },
        {
            "positions": [
                -0.20593765901341954,
                -1.3085432477518717,
                2.293294996028454,
                -0.9511434804412044,
                0.9230591757453557,
                -3.1166393394376386
            ]
        },
        {
            "positions": [
                -0.2716875005607998,
                -1.342354871799567,
                2.3576443433702803,
                -0.9852776993442907,
                1.0817536673469466,
                -3.10146936178154
            ]
        },
        {
            "positions": [
                -0.33743734210818016,
                -1.3761664958472624,
                2.4219936907121062,
                -1.019411918247377,
                1.2404481589485374,
                -3.0862993841254416
            ]
        }
    ]
}{
    "goal": {
        "global_pose": {
            "orientation": {
                "w": 0.5084816217422485,
                "x": -0.49083608388900757,
                "y": 0.5182115435600281,
                "z": -0.4816462993621826
            },
            "position": {
                "x": 0.5540239810943604,
                "y": 0.030875300988554955,
                "z": 0.16403168439865112
            }
        },
        "name": "move_to_storage_A"
    },
    "id": "BKPIECE_move_to_storage_A_30",
    "joint_names": [
        "shoulder_pan_joint",
        "shoulder_lift_joint",
        "elbow_joint",
        "wrist_1_joint",
        "wrist_2_joint",
        "wrist_3_joint"
    ],
    "metrics": {
        "cart_traj_len": 0.3537642638332389,
        "distance_elbow_joint": 0.4536487874064532,
        "distance_shoulder_lift_joint": 0.23509356024213157,
        "distance_shoulder_pan_joint": 0.46211368593448154,
        "distance_wrist_1_joint": 0.2594401022924011,
        "distance_wrist_2_joint": 1.102692898250624,
        "distance_wrist_3_joint": 0.09204880010068184,
        "smoothness": 4.440892133664971e-16,
        "time": 0.264537234,
        "traj_len": 1.6140129597456065,
        "weighted_distance": 2.0374661800803375
    },
    "planner": "BKPIECE",
    "start": {
        "state": {
            "elbow_joint": 1.97154746011099,
            "shoulder_lift_joint": -1.13948474672311,
            "shoulder_pan_joint": 0.12281154466712228,
            "wrist_1_joint": -0.7804688027058302,
            "wrist_2_joint": 0.12958655903071145,
            "wrist_3_joint": 3.0906928834467795
        }
    },
    "waypoints": [
        {
            "positions": [
                0.12281154466712228,
                -1.13948474672311,
                1.97154746011099,
                -0.7804688027058302,
                0.12958655903071145,
                3.0906928834467795
            ]
        },
        {
            "positions": [
                0.05679530381933921,
                -1.1730695410434144,
                2.0363544297404834,
                -0.8175316744618875,
                0.28711411592365776,
                3.1038427120325913
            ]
        },
        {
            "positions": [
                -0.009220937028443857,
                -1.206654335363719,
                2.1011613993699765,
                -0.8545945462179447,
                0.44464167281660405,
                3.1169925406184027
            ]
        },
        {
            "positions": [
                -0.07523717787622693,
                -1.2402391296840234,
                2.16596836899947,
                -0.8916574179740021,
                0.6021692297095503,
                3.1301423692042145
            ]
        },
        {
            "positions": [
                -0.14125341872400998,
                -1.2738239240043279,
                2.230775338628963,
                -0.9287202897300594,
                0.7596967866024966,
                3.1432921977900263
            ]
        },
        {
            "positions": [
                -0.2072696595717931,
                -1.3074087183246326,
                2.2955823082584565,
                -0.9657831614861168,
                0.917224343495443,
                3.156442026375838
            ]
        },
        {
            "positions": [
                -0.2732859004195761,
                -1.340993512644937,
                2.3603892778879496,
                -1.002846033242174,
                1.0747519003883892,
                3.1695918549616495
            ]
        },
        {
            "positions": [
                -0.33930214126735925,
                -1.3745783069652415,
                2.425196247517443,
                -1.0399089049982313,
                1.2322794572813356,
                3.1827416835474613
            ]
        }
    ]
}{
    "goal": {
        "global_pose": {
            "orientation": {
                "w": 0.5084816217422485,
                "x": -0.49083608388900757,
                "y": 0.5182115435600281,
                "z": -0.4816462993621826
            },
            "position": {
                "x": 0.5540239810943604,
                "y": 0.030875300988554955,
                "z": 0.16403168439865112
            }
        },
        "name": "move_to_storage_A"
    },
    "id": "BKPIECE_move_to_storage_A_30",
    "joint_names": [
        "shoulder_pan_joint",
        "shoulder_lift_joint",
        "elbow_joint",
        "wrist_1_joint",
        "wrist_2_joint",
        "wrist_3_joint"
    ],
    "metrics": {
        "cart_traj_len": 0.3524128646778972,
        "distance_elbow_joint": 0.4488944103274344,
        "distance_shoulder_lift_joint": 0.23297271248176643,
        "distance_shoulder_pan_joint": 0.4612752495828236,
        "distance_wrist_1_joint": 0.24088323826915814,
        "distance_wrist_2_joint": 1.0947826509480163,
        "distance_wrist_3_joint": 0.09128313923534703,
        "smoothness": 2.2204460668324854e-16,
        "time": 0.24736899699999998,
        "traj_len": 1.603150461074863,
        "weighted_distance": 2.021960328130207
    },
    "planner": "BKPIECE",
    "start": {
        "state": {
            "elbow_joint": 1.9715472970024885,
            "shoulder_lift_joint": -1.1394870060712896,
            "shoulder_pan_joint": 0.12281152778156021,
            "wrist_1_joint": -0.780463741449964,
            "wrist_2_joint": 0.12958659822042276,
            "wrist_3_joint": 3.090690232415272
        }
    },
    "waypoints": [
        {
            "positions": [
                0.12281152778156021,
                -1.1394870060712896,
                1.9715472970024885,
                -0.780463741449964,
                0.12958659822042276,
                3.090690232415272
            ]
        },
        {
            "positions": [
                0.056915063555442555,
                -1.1727688221401134,
                2.0356750699064077,
                -0.8148756326312723,
                0.28598411978442506,
                3.1037306808774643
            ]
        },
        {
            "positions": [
                -0.0089814006706751,
                -1.206050638208937,
                2.099802842810327,
                -0.8492875238125805,
                0.4423816413484274,
                3.1167711293396567
            ]
        },
        {
            "positions": [
                -0.07487786489679277,
                -1.2393324542777608,
                2.163930615714246,
                -0.8836994149938889,
                0.5987791629124297,
                3.129811577801849
            ]
        },
        {
            "positions": [
                -0.1407743291229104,
                -1.2726142703465846,
                2.228058388618165,
                -0.9181113061751972,
                0.755176684476432,
                3.1428520262640416
            ]
        },
        {
            "positions": [
                -0.20667079334902808,
                -1.3058960864154086,
                2.2921861615220847,
                -0.9525231973565056,
                0.9115742060404344,
                3.155892474726234
            ]
        },
        {
            "positions": [
                -0.27256725757514577,
                -1.3391779024842323,
                2.356313934426004,
                -0.9869350885378139,
                1.0679717276044367,
                3.1689329231884265
            ]
        },
        {
            "positions": [
                -0.3384637218012634,
                -1.372459718553056,
                2.420441707329923,
                -1.0213469797191221,
                1.224369249168439,
                3.181973371650619
            ]
        }
    ]
}