{
    "goal": {
        "global_pose": {
            "orientation": {
                "w": 0.7031023502349854,
                "x": -0.7110244035720825,
                "y": 0.007748599164187908,
                "z": 0.005598929710686207
            },
            "position": {
                "x": 0.11585023208521307,
                "y": 0.44412534475326537,
                "z": 0.3711530566215515
            }
        },
        "name": "move_to_auspresseinheit_A"
    },
    "id": "BKPIECE_move_to_auspresseinheit_A_106",
    "joint_names": [
        "shoulder_pan_joint",
        "shoulder_lift_joint",
        "elbow_joint",
        "wrist_1_joint",
        "wrist_2_joint",
        "wrist_3_joint"
    ],
    "metrics": {
        "cart_traj_len": 0.6997129702905627,
        "distance_elbow_joint": 0.1621199735465666,
        "distance_shoulder_lift_joint": 0.6290486465329161,
        "distance_shoulder_pan_joint": 1.0483612236789495,
        "distance_wrist_1_joint": 1.9085377849503522,
        "distance_wrist_2_joint": 0.8463465107414984,
        "distance_wrist_3_joint": 0.04868108894882939,
        "smoothness": 1.459604638706841,
        "time": 0.169145188,
        "traj_len": 2.154784264932133,
        "weighted_distance": 2.7377621704575836
    },
    "planner": "BKPIECE",
    "start": {
        "state": {
            "elbow_joint": 2.4225746658250005,
            "shoulder_lift_joint": -1.3736534386056498,
            "shoulder_pan_joint": -0.3378633547517467,
            "wrist_1_joint": -1.0288598680537169,
            "wrist_2_joint": 1.233022673432363,
            "wrist_3_joint": -3.0940220416140027
        }
    },
    "waypoints": [
        {
            "positions": [
                -0.3378633547517467,
                -1.3736534386056498,
                2.4225746658250005,
                -1.0288598680537169,
                1.233022673432363,
                -3.0940220416140027
            ]
        },
        {
            "positions": [
                -0.26453255936198433,
                -1.4381357516513527,
                2.411817107542342,
                -0.8911013825547175,
                1.157640605491721,
                -3.094865724432282
            ]
        },
        {
            "positions": [
                -0.1912017639722219,
                -1.5026180646970557,
                2.4010595492596836,
                -0.7533428970557181,
                1.082258537551079,
                -3.0957094072505615
            ]
        },
        {
            "positions": [
                -0.11787096858245952,
                -1.5671003777427586,
                2.390301990977025,
                -0.6155844115567187,
                1.0068764696104369,
                -3.0965530900688405
            ]
        },
        {
            "positions": [
                -0.0445401731926971,
                -1.6315826907884614,
                2.379544432694366,
                -0.47782592605771934,
                0.9314944016697948,
                -3.09739677288712
            ]
        },
        {
            "positions": [
                0.028790622197065296,
                -1.6960650038341645,
                2.368786874411708,
                -0.34006744055871985,
                0.8561123337291527,
                -3.0982404557053993
            ]
        },
        {
            "positions": [
                0.10212141758682769,
                -1.7605473168798673,
                2.3580293161290493,
                -0.20230895505972057,
                0.7807302657885108,
                -3.0990841385236787
            ]
        },
        {
            "positions": [
                0.17545221297659014,
                -1.8250296299255702,
                2.3472717578463906,
                -0.06455046956072108,
                0.7053481978478687,
                -3.0999278213419577
            ]
        },
        {
            "positions": [
                0.24878300836635253,
                -1.8895119429712732,
                2.3365141995637324,
                0.07320801593827819,
                0.6299661299072267,
                -3.100771504160237
            ]
        },
        {
            "positions": [
                0.3221138037561149,
                -1.953994256016976,
                2.3257566412810737,
                0.21096650143727758,
                0.5545840619665846,
                -3.1016151869785165
            ]
        },
        {
            "positions": [
                0.41920982004888685,
                -1.9418172987365785,
                2.3420821285317337,
                0.04378864757243822,
                0.5965610367855145,
                -3.1118871728745954
            ]
        },
        {
            "positions": [
                0.5163058363416588,
                -1.9296403414561811,
                2.3584076157823937,
                -0.12338920629240113,
                0.6385380116044446,
                -3.1221591587706743
            ]
        },
        {
            "positions": [
                0.6134018526344307,
                -1.9174633841757838,
                2.3747331030330536,
                -0.29056706015724043,
                0.6805149864233746,
                -3.132431144666753
            ]
        },
        {
            "positions": [
                0.7104978689272027,
                -1.9052864268953862,
                2.3910585902837136,
                -0.4577449140220799,
                0.7224919612423045,
                -3.142703130562832
            ]
        }
    ]
}