{
    "goal": {
        "global_pose": {
            "orientation": {
                "w": 0.7047431468963623,
                "x": -0.7094548344612122,
                "y": 0.0024358443915843964,
                "z": -0.0022348060738295317
            },
            "position": {
                "x": 0.6094750761985779,
                "y": 0.3671506643295288,
                "z": 0.19426114857196808
            }
        },
        "name": "move_to_magneteinheit_A"
    },
    "id": "BKPIECE_move_to_magneteinheit_A_71",
    "joint_names": [
        "shoulder_pan_joint",
        "shoulder_lift_joint",
        "elbow_joint",
        "wrist_1_joint",
        "wrist_2_joint",
        "wrist_3_joint"
    ],
    "metrics": {
        "cart_traj_len": 3.38066347104555,
        "distance_elbow_joint": 4.49028099645274,
        "distance_shoulder_lift_joint": 0.7806472451426718,
        "distance_shoulder_pan_joint": 3.6780765147873007,
        "distance_wrist_1_joint": 1.7498102175621988,
        "distance_wrist_2_joint": 1.7075326641277337,
        "distance_wrist_3_joint": 3.5951480959314237,
        "smoothness": 0.32469998675871675,
        "time": 0.339935667,
        "traj_len": 4.000186962381141,
        "weighted_distance": 5.162280000886899
    },
    "planner": "BKPIECE",
    "start": {
        "state": {
            "elbow_joint": -1.9196185241190666,
            "shoulder_lift_joint": -1.2443396400964142,
            "shoulder_pan_joint": 2.6996025414629847,
            "wrist_1_joint": -1.5485510000780065,
            "wrist_2_joint": -1.5709468930060704,
            "wrist_3_joint": 0.4420197071253992
        }
    },
    "waypoints": [
        {
            "positions": [
                2.6996025414629847,
                -1.2443396400964142,
                -1.9196185241190666,
                -1.5485510000780065,
                -1.5709468930060704,
                0.4420197071253992
            ]
        },
        {
            "positions": [
                2.6076257883431277,
                -1.2543703590028452,
                -1.7961939016091195,
                -1.5122290729226318,
                -1.5358061730338715,
                0.35426368020271626
            ]
        },
        {
            "positions": [
                2.515649035223271,
                -1.264401077909276,
                -1.6727692790991724,
                -1.475907145767257,
                -1.5006654530616725,
                0.26650765328003334
            ]
        },
        {
            "positions": [
                2.4236722821034142,
                -1.274431796815707,
                -1.5493446565892253,
                -1.4395852186118823,
                -1.4655247330894738,
                0.17875162635735042
            ]
        },
        {
            "positions": [
                2.3316955289835577,
                -1.2844625157221379,
                -1.4259200340792781,
                -1.4032632914565075,
                -1.430384013117275,
                0.0909955994346675
            ]
        },
        {
            "positions": [
                2.2397187758637007,
                -1.294493234628569,
                -1.302495411569331,
                -1.3669413643011328,
                -1.395243293145076,
                0.0032395725119845897
            ]
        },
        {
            "positions": [
                2.147742022743844,
                -1.304523953535,
                -1.1790707890593837,
                -1.3306194371457583,
                -1.360102573172877,
                -0.08451645441069833
            ]
        },
        {
            "positions": [
                2.055765269623987,
                -1.3145546724414308,
                -1.0556461665494368,
                -1.2942975099903835,
                -1.3249618532006782,
                -0.17227248133338124
            ]
        },
        {
            "positions": [
                1.9637885165041302,
                -1.3245853913478618,
                -0.9322215440394894,
                -1.2579755828350088,
                -1.2898211332284795,
                -0.26002850825606416
            ]
        },
        {
            "positions": [
                1.8718117633842737,
                -1.3346161102542926,
                -0.8087969215295423,
                -1.221653655679634,
                -1.2546804132562805,
                -0.3477845351787471
            ]
        },
        {
            "positions": [
                1.7798350102644167,
                -1.3446468291607236,
                -0.6853722990195952,
                -1.1853317285242593,
                -1.2195396932840816,
                -0.43554056210143
            ]
        },
        {
            "positions": [
                1.68785825714456,
                -1.3546775480671545,
                -0.5619476765096478,
                -1.1490098013688845,
                -1.1843989733118827,
                -0.5232965890241129
            ]
        },
        {
            "positions": [
                1.5958815040247032,
                -1.3647082669735855,
                -0.4385230539997007,
                -1.1126878742135098,
                -1.1492582533396838,
                -0.6110526159467958
            ]
        },
        {
            "positions": [
                1.5039047509048464,
                -1.3747389858800165,
                -0.3150984314897538,
                -1.076365947058135,
                -1.114117533367485,
                -0.6988086428694787
            ]
        },
        {
            "positions": [
                1.4119279977849897,
                -1.3847697047864473,
                -0.19167380897980668,
                -1.0400440199027603,
                -1.0789768133952862,
                -0.7865646697921617
            ]
        },
        {
            "positions": [
                1.319951244665133,
                -1.3948004236928784,
                -0.06824918646985934,
                -1.0037220927473856,
                -1.0438360934230873,
                -0.8743206967148446
            ]
        },
        {
            "positions": [
                1.227974491545276,
                -1.4048311425993092,
                0.05517543604008779,
                -0.9674001655920109,
                -1.0086953734508883,
                -0.9620767236375275
            ]
        },
        {
            "positions": [
                1.1359977384254192,
                -1.4148618615057402,
                0.1786000585500349,
                -0.9310782384366362,
                -0.9735546534786895,
                -1.0498327505602103
            ]
        },
        {
            "positions": [
                1.0440209853055624,
                -1.4248925804121713,
                0.30202468105998204,
                -0.8947563112812614,
                -0.9384139335064906,
                -1.1375887774828932
            ]
        },
        {
            "positions": [
                0.9520442321857054,
                -1.434923299318602,
                0.42544930356992916,
                -0.8584343841258867,
                -0.9032732135342918,
                -1.2253448044055761
            ]
        },
        {
            "positions": [
                0.8600674790658487,
                -1.444954018225033,
                0.5488739260798763,
                -0.8221124569705119,
                -0.8681324935620929,
                -1.313100831328259
            ]
        },
        {
            "positions": [
                0.7680907259459919,
                -1.454984737131464,
                0.6722985485898234,
                -0.7857905298151372,
                -0.832991773589894,
                -1.400856858250942
            ]
        },
        {
            "positions": [
                0.6761139728261352,
                -1.465015456037895,
                0.795723171099771,
                -0.7494686026597626,
                -0.7978510536176951,
                -1.4886128851736249
            ]
        },
        {
            "positions": [
                0.5841372197062782,
                -1.475046174944326,
                0.9191477936097181,
                -0.7131466755043878,
                -0.7627103336454962,
                -1.5763689120963078
            ]
        },
        {
            "positions": [
                0.49216046658642165,
                -1.4850768938507568,
                1.0425724161196652,
                -0.6768247483490131,
                -0.7275696136732973,
                -1.6641249390189907
            ]
        },
        {
            "positions": [
                0.40018371346656467,
                -1.4951076127571878,
                1.1659970386296123,
                -0.6405028211936383,
                -0.6924288937010985,
                -1.7518809659416736
            ]
        },
        {
            "positions": [
                0.30820696034670814,
                -1.5051383316636187,
                1.289421661139559,
                -0.6041808940382637,
                -0.6572881737288997,
                -1.8396369928643566
            ]
        },
        {
            "positions": [
                0.21623020722685116,
                -1.5151690505700497,
                1.4128462836495062,
                -0.567858966882889,
                -0.6221474537567009,
                -1.9273930197870395
            ]
        },
        {
            "positions": [
                0.12425345410699462,
                -1.5251997694764805,
                1.5362709061594533,
                -0.5315370397275143,
                -0.587006733784502,
                -2.0151490467097224
            ]
        },
        {
            "positions": [
                0.03227670098713764,
                -1.5352304883829115,
                1.6596955286694004,
                -0.49521511257213957,
                -0.551866013812303,
                -2.1029050736324053
            ]
        },
        {
            "positions": [
                -0.059700052132718895,
                -1.5452612072893426,
                1.783120151179348,
                -0.4588931854167648,
                -0.5167252938401041,
                -2.1906611005550882
            ]
        },
        {
            "positions": [
                -0.15167680525257587,
                -1.5552919261957734,
                1.906544773689295,
                -0.4225712582613901,
                -0.4815845738679052,
                -2.278417127477771
            ]
        },
        {
            "positions": [
                -0.24365355837243285,
                -1.5653226451022044,
                2.029969396199242,
                -0.38624933110601534,
                -0.4464438538957065,
                -2.366173154400454
            ]
        },
        {
            "positions": [
                -0.3356303114922894,
                -1.5753533640086355,
                2.153394018709189,
                -0.3499274039506406,
                -0.4113031339235076,
                -2.453929181323137
            ]
        },
        {
            "positions": [
                -0.4276070646121465,
                -1.5853840829150663,
                2.2768186412191365,
                -0.31360547679526585,
                -0.37616241395130867,
                -2.54168520824582
            ]
        },
        {
            "positions": [
                -0.3587487010231254,
                -1.5304337326245638,
                2.2400881623298194,
                -0.3779635635801981,
                -0.31206889081718725,
                -2.6181156058158455
            ]
        },
        {
            "positions": [
                -0.2898903374341043,
                -1.4754833823340614,
                2.203357683440502,
                -0.4423216503651304,
                -0.24797536768306577,
                -2.694546003385871
            ]
        },
        {
            "positions": [
                -0.22103197384508327,
                -1.420533032043559,
                2.166627204551185,
                -0.5066797371500626,
                -0.18388184454894432,
                -2.7709764009558966
            ]
        },
        {
            "positions": [
                -0.1521736102560622,
                -1.3655826817530565,
                2.129896725661868,
                -0.5710378239349949,
                -0.11978832141482287,
                -2.847406798525922
            ]
        },
        {
            "positions": [
                -0.0833152466670411,
                -1.3106323314625539,
                2.093166246772551,
                -0.6353959107199272,
                -0.05569479828070145,
                -2.9238371960959477
            ]
        },
        {
            "positions": [
                -0.014456883078020066,
                -1.2556819811720514,
                2.056435767883234,
                -0.6997539975048594,
                0.008398724853420025,
                -3.0002675936659733
            ]
        },
        {
            "positions": [
                0.05440148051100102,
                -1.200731630881549,
                2.0197052889939164,
                -0.7641120842897917,
                0.0724922479875415,
                -3.076697991235999
            ]
        },
        {
            "positions": [
                0.12325984410002211,
                -1.1457812805910466,
                1.9829748101045994,
                -0.828470171074724,
                0.13658577112166298,
                -3.1531283888060244
            ]
        }
    ]
}