{
    "goal": {
        "global_pose": {
            "orientation": {
                "w": 0.7047431468963623,
                "x": -0.7094548344612122,
                "y": 0.0024358443915843964,
                "z": -0.0022348060738295317
            },
            "position": {
                "x": 0.6094750761985779,
                "y": 0.3671506643295288,
                "z": 0.19426114857196808
            }
        },
        "name": "move_to_magneteinheit_A"
    },
    "id": "BKPIECE_move_to_magneteinheit_A_97",
    "joint_names": [
        "shoulder_pan_joint",
        "shoulder_lift_joint",
        "elbow_joint",
        "wrist_1_joint",
        "wrist_2_joint",
        "wrist_3_joint"
    ],
    "metrics": {
        "cart_traj_len": 3.4105346194367496,
        "distance_elbow_joint": 3.88306778517759,
        "distance_shoulder_lift_joint": 0.2834093736884773,
        "distance_shoulder_pan_joint": 2.8618795949847917,
        "distance_wrist_1_joint": 1.156613519329527,
        "distance_wrist_2_joint": 1.7148614182955668,
        "distance_wrist_3_joint": 3.6672615615588344,
        "smoothness": 0.07606023429018022,
        "time": 0.302413947,
        "traj_len": 3.6833535335390746,
        "weighted_distance": 4.875765715636627
    },
    "planner": "BKPIECE",
    "start": {
        "state": {
            "elbow_joint": -1.9196185241190666,
            "shoulder_lift_joint": -1.2443396400964142,
            "shoulder_pan_joint": 2.6996025414629847,
            "wrist_1_joint": -1.5485510000780065,
            "wrist_2_joint": -1.5709468930060704,
            "wrist_3_joint": 0.4420197071253992
        }
    },
    "waypoints": [
        {
            "positions": [
                2.6996025414629847,
                -1.2443396400964142,
                -1.9196185241190666,
                -1.5485510000780065,
                -1.5709468930060704,
                0.4420197071253992
            ]
        },
        {
            "positions": [
                2.608949515670776,
                -1.2472393696579416,
                -1.806661060784555,
                -1.5157473522107874,
                -1.5158812323585669,
                0.3516096896310565
            ]
        },
        {
            "positions": [
                2.518296489878567,
                -1.2501390992194692,
                -1.6937035974500432,
                -1.4829437043435685,
                -1.4608155717110631,
                0.2611996721367138
            ]
        },
        {
            "positions": [
                2.427643464086358,
                -1.2530388287809966,
                -1.5807461341155316,
                -1.4501400564763494,
                -1.4057499110635594,
                0.17078965464237117
            ]
        },
        {
            "positions": [
                2.336990438294149,
                -1.255938558342524,
                -1.46778867078102,
                -1.4173364086091302,
                -1.3506842504160559,
                0.08037963714802848
            ]
        },
        {
            "positions": [
                2.2463374125019406,
                -1.2588382879040514,
                -1.3548312074465083,
                -1.3845327607419111,
                -1.2956185897685524,
                -0.01003038034631415
            ]
        },
        {
            "positions": [
                2.1556843867097317,
                -1.261738017465579,
                -1.2418737441119965,
                -1.351729112874692,
                -1.2405529291210486,
                -0.10044039784065684
            ]
        },
        {
            "positions": [
                2.065031360917523,
                -1.2646377470271064,
                -1.1289162807774846,
                -1.318925465007473,
                -1.185487268473545,
                -0.19085041533499947
            ]
        },
        {
            "positions": [
                1.974378335125314,
                -1.2675374765886338,
                -1.0159588174429732,
                -1.286121817140254,
                -1.1304216078260414,
                -0.2812604328293422
            ]
        },
        {
            "positions": [
                1.883725309333105,
                -1.2704372061501612,
                -0.9030013541084614,
                -1.2533181692730349,
                -1.0753559471785379,
                -0.37167045032368484
            ]
        },
        {
            "positions": [
                1.793072283540896,
                -1.2733369357116888,
                -0.7900438907739498,
                -1.220514521405816,
                -1.0202902865310342,
                -0.4620804678180275
            ]
        },
        {
            "positions": [
                1.7024192577486872,
                -1.2762366652732162,
                -0.6770864274394381,
                -1.1877108735385968,
                -0.9652246258835305,
                -0.5524904853123701
            ]
        },
        {
            "positions": [
                1.6117662319564783,
                -1.2791363948347436,
                -0.5641289641049263,
                -1.1549072256713777,
                -0.9101589652360269,
                -0.6429005028067128
            ]
        },
        {
            "positions": [
                1.5211132061642694,
                -1.282036124396271,
                -0.45117150077041446,
                -1.1221035778041586,
                -0.8550933045885233,
                -0.7333105203010556
            ]
        },
        {
            "positions": [
                1.4304601803720607,
                -1.2849358539577986,
                -0.33821403743590284,
                -1.0892999299369395,
                -0.8000276439410197,
                -0.8237205377953981
            ]
        },
        {
            "positions": [
                1.3398071545798518,
                -1.287835583519326,
                -0.22525657410139122,
                -1.0564962820697206,
                -0.744961983293516,
                -0.9141305552897409
            ]
        },
        {
            "positions": [
                1.2491541287876429,
                -1.2907353130808534,
                -0.1122991107668796,
                -1.0236926342025015,
                -0.6898963226460124,
                -1.0045405727840837
            ]
        },
        {
            "positions": [
                1.1585011029954342,
                -1.293635042642381,
                0.0006583525676320257,
                -0.9908889863352824,
                -0.6348306619985088,
                -1.094950590278426
            ]
        },
        {
            "positions": [
                1.0678480772032253,
                -1.2965347722039084,
                0.11361581590214387,
                -0.9580853384680633,
                -0.5797650013510052,
                -1.1853606077727687
            ]
        },
        {
            "positions": [
                0.9771950514110164,
                -1.2994345017654358,
                0.22657327923665527,
                -0.9252816906008443,
                -0.5246993407035017,
                -1.2757706252671115
            ]
        },
        {
            "positions": [
                0.8865420256188075,
                -1.3023342313269632,
                0.3395307425711671,
                -0.8924780427336252,
                -0.4696336800559979,
                -1.3661806427614542
            ]
        },
        {
            "positions": [
                0.7958889998265988,
                -1.3052339608884909,
                0.45248820590567895,
                -0.8596743948664062,
                -0.4145680194084944,
                -1.4565906602557965
            ]
        },
        {
            "positions": [
                0.7052359740343899,
                -1.3081336904500183,
                0.5654456692401904,
                -0.8268707469991871,
                -0.3595023587609907,
                -1.5470006777501393
            ]
        },
        {
            "positions": [
                0.6145829482421807,
                -1.3110334200115457,
                0.6784031325747026,
                -0.7940670991319679,
                -0.30443669811348695,
                -1.637410695244482
            ]
        },
        {
            "positions": [
                0.5239299224499718,
                -1.313933149573073,
                0.791360595909214,
                -0.7612634512647489,
                -0.24937103746598344,
                -1.7278207127388248
            ]
        },
        {
            "positions": [
                0.4332768966577629,
                -1.3168328791346007,
                0.9043180592437259,
                -0.7284598033975298,
                -0.1943053768184797,
                -1.8182307302331675
            ]
        },
        {
            "positions": [
                0.342623870865554,
                -1.319732608696128,
                1.0172755225782377,
                -0.6956561555303108,
                -0.1392397161709762,
                -1.9086407477275102
            ]
        },
        {
            "positions": [
                0.25197084507334555,
                -1.3226323382576555,
                1.1302329859127491,
                -0.6628525076630917,
                -0.08417405552347246,
                -1.999050765221853
            ]
        },
        {
            "positions": [
                0.16131781928113664,
                -1.325532067819183,
                1.243190449247261,
                -0.6300488597958727,
                -0.029108394875968946,
                -2.0894607827161953
            ]
        },
        {
            "positions": [
                0.07066479348892774,
                -1.3284317973807105,
                1.3561479125817724,
                -0.5972452119286535,
                0.025957265771534788,
                -2.179870800210538
            ]
        },
        {
            "positions": [
                -0.019988232303281096,
                -1.3313315269422379,
                1.4691053759162842,
                -0.5644415640614345,
                0.08102292641903833,
                -2.2702808177048808
            ]
        },
        {
            "positions": [
                -0.01838937025573797,
                -1.2986990527015598,
                1.5639623936620033,
                -0.5892611538890165,
                0.09971709964378148,
                -2.4266672769479394
            ]
        },
        {
            "positions": [
                -0.016790508208194842,
                -1.2660665784608816,
                1.6588194114077222,
                -0.6140807437165984,
                0.11841127286852463,
                -2.583053736190998
            ]
        },
        {
            "positions": [
                -0.015191646160651717,
                -1.2334341042202035,
                1.7536764291534412,
                -0.6389003335441803,
                0.13710544609326777,
                -2.7394401954340566
            ]
        },
        {
            "positions": [
                0.03152908018001259,
                -1.1952134502515046,
                1.8373549867697023,
                -0.6752081739859226,
                0.1383596022633365,
                -2.926236955001645
            ]
        },
        {
            "positions": [
                0.0782498065206769,
                -1.1569927962828057,
                1.9210335443859634,
                -0.7115160144276649,
                0.13961375843340518,
                -3.1130337145692333
            ]
        },
        {
            "positions": [
                0.12230058891524503,
                -1.1349140400995843,
                1.9634492610585241,
                -0.7369456473743896,
                0.13531299157731416,
                -3.225241854433435
            ]
        }
    ]
}