{
    "goal": {
        "global_pose": {
            "orientation": {
                "w": 0.005598929693374612,
                "x": 0.007748599140229565,
                "y": 0.7110244013736278,
                "z": -0.7031023480610252
            },
            "position": {
                "x": 0.1141497679147869,
                "y": -0.7141253447532654,
                "z": 0.3711530566215515
            }
        },
        "name": "move_to_auspresseinheit_B"
    },
    "id": "BKPIECE_move_to_auspresseinheit_B_18",
    "joint_names": [
        "shoulder_pan_joint",
        "shoulder_lift_joint",
        "elbow_joint",
        "wrist_1_joint",
        "wrist_2_joint",
        "wrist_3_joint"
    ],
    "metrics": {
        "cart_traj_len": 0.5642599207314561,
        "distance_elbow_joint": 0.061641471451507224,
        "distance_shoulder_lift_joint": 0.2951418331476683,
        "distance_shoulder_pan_joint": 0.5743576565474764,
        "distance_wrist_1_joint": 0.32081687362567235,
        "distance_wrist_2_joint": 1.0034297049562906,
        "distance_wrist_3_joint": 0.0022366177795296593,
        "smoothness": 0.0,
        "time": 0.389221952,
        "traj_len": 1.5025392365952193,
        "weighted_distance": 1.8937644974096348
    },
    "planner": "BKPIECE",
    "start": {
        "state": {
            "elbow_joint": 2.0193083361928714,
            "shoulder_lift_joint": -1.1220246554650708,
            "shoulder_pan_joint": -1.0952077554168747,
            "wrist_1_joint": -0.8559753972642168,
            "wrist_2_joint": 0.4759566250798843,
            "wrist_3_joint": -3.1240929996934557
        }
    },
    "waypoints": [
        {
            "positions": [
                -1.0952077554168747,
                -1.1220246554650708,
                2.0193083361928714,
                -0.8559753972642168,
                0.4759566250798843,
                -3.1240929996934557
            ]
        },
        {
            "positions": [
                -1.1909340315081207,
                -1.1712149609896823,
                2.0090347576176204,
                -0.8025059183266048,
                0.643194909239266,
                -3.123720230063534
            ]
        },
        {
            "positions": [
                -1.2866603075993668,
                -1.2204052665142935,
                1.998761179042369,
                -0.7490364393889927,
                0.8104331933986477,
                -3.1233474604336124
            ]
        },
        {
            "positions": [
                -1.3823865836906128,
                -1.269595572038905,
                1.988487600467118,
                -0.6955669604513806,
                0.9776714775580295,
                -3.122974690803691
            ]
        },
        {
            "positions": [
                -1.478112859781859,
                -1.3187858775635164,
                1.9782140218918667,
                -0.6420974815137686,
                1.1449097617174113,
                -3.1226019211737692
            ]
        },
        {
            "positions": [
                -1.573839135873105,
                -1.3679761830881276,
                1.9679404433166154,
                -0.5886280025761566,
                1.3121480458767931,
                -3.1222291515438476
            ]
        },
        {
            "positions": [
                -1.669565411964351,
                -1.417166488612739,
                1.9576668647413642,
                -0.5351585236385444,
                1.479386330036175,
                -3.121856381913926
            ]
        }
    ]
}