{
    "goal": {
        "global_pose": {
            "orientation": {
                "w": -0.4816463035849501,
                "x": 0.5182115481033762,
                "y": 0.4908360881923453,
                "z": -0.5084816262002911
            },
            "position": {
                "x": -0.8240239810943604,
                "y": 0.19912469901144506,
                "z": 0.16403168439865112
            }
        },
        "name": "move_to_storage_D"
    },
    "id": "BKPIECE_move_to_storage_D_112",
    "joint_names": [
        "shoulder_pan_joint",
        "shoulder_lift_joint",
        "elbow_joint",
        "wrist_1_joint",
        "wrist_2_joint",
        "wrist_3_joint"
    ],
    "metrics": {
        "cart_traj_len": 3.761398328911135,
        "distance_elbow_joint": 4.208255392304839,
        "distance_shoulder_lift_joint": 1.26374979752084,
        "distance_shoulder_pan_joint": 2.812886848726891,
        "distance_wrist_1_joint": 2.2620683272946183,
        "distance_wrist_2_joint": 0.8707314305511642,
        "distance_wrist_3_joint": 3.1524335883257684,
        "smoothness": 1.465494390787504e-15,
        "time": 0.287590024,
        "traj_len": 3.8170833609870405,
        "weighted_distance": 4.899774721272545
    },
    "planner": "BKPIECE",
    "start": {
        "state": {
            "elbow_joint": -2.384821988534728,
            "shoulder_lift_joint": -2.2788054721415256,
            "shoulder_pan_joint": -0.1854694642142757,
            "wrist_1_joint": 1.4845938289331202,
            "wrist_2_joint": 0.17898776772866878,
            "wrist_3_joint": 0.037105688729662994
        }
    },
    "waypoints": [
        {
            "positions": [
                -0.1854694642142757,
                -2.2788054721415256,
                -2.384821988534728,
                1.4845938289331202,
                0.17898776772866878,
                0.037105688729662994
            ]
        },
        {
            "positions": [
                -0.17766455410410725,
                -2.2752480994456574,
                -2.381842739873772,
                1.4831413153632103,
                0.18048112684130718,
                0.03910255544016463
            ]
        },
        {
            "positions": [
                -0.09170072391891357,
                -2.2354404399118826,
                -2.2649257378479017,
                1.426010696778137,
                0.2003082384883561,
                0.10222489614459443
            ]
        },
        {
            "positions": [
                -0.005736893733719883,
                -2.1956327803781077,
                -2.1480087358220317,
                1.3688800781930637,
                0.22013535013540503,
                0.16534723684902425
            ]
        },
        {
            "positions": [
                0.08022693645147377,
                -2.1558251208443333,
                -2.0310917337961616,
                1.3117494596079904,
                0.23996246178245395,
                0.22846957755345404
            ]
        },
        {
            "positions": [
                0.1661907666366675,
                -2.1160174613105585,
                -1.9141747317702913,
                1.254618841022917,
                0.2597895734295029,
                0.29159191825788383
            ]
        },
        {
            "positions": [
                0.25215459682186114,
                -2.0762098017767836,
                -1.7972577297444212,
                1.1974882224378438,
                0.2796166850765518,
                0.3547142589623136
            ]
        },
        {
            "positions": [
                0.3381184270070548,
                -2.0364021422430088,
                -1.6803407277185511,
                1.1403576038527705,
                0.2994437967236007,
                0.4178365996667434
            ]
        },
        {
            "positions": [
                0.4240822571922485,
                -1.9965944827092341,
                -1.563423725692681,
                1.0832269852676972,
                0.31927090837064964,
                0.4809589403711732
            ]
        },
        {
            "positions": [
                0.5100460873774422,
                -1.9567868231754593,
                -1.4465067236668108,
                1.0260963666826237,
                0.3390980200176985,
                0.544081281075603
            ]
        },
        {
            "positions": [
                0.5960099175626359,
                -1.9169791636416846,
                -1.329589721640941,
                0.9689657480975505,
                0.35892513166474743,
                0.6072036217800328
            ]
        },
        {
            "positions": [
                0.6819737477478296,
                -1.8771715041079098,
                -1.2126727196150706,
                0.9118351295124772,
                0.37875224331179635,
                0.6703259624844626
            ]
        },
        {
            "positions": [
                0.7679375779330233,
                -1.837363844574135,
                -1.0957557175892005,
                0.854704510927404,
                0.3985793549588453,
                0.7334483031888924
            ]
        },
        {
            "positions": [
                0.8539014081182168,
                -1.79755618504036,
                -0.9788387155633305,
                0.7975738923423307,
                0.4184064666058942,
                0.7965706438933222
            ]
        },
        {
            "positions": [
                0.9398652383034105,
                -1.7577485255065854,
                -0.8619217135374604,
                0.7404432737572574,
                0.4382335782529431,
                0.859692984597752
            ]
        },
        {
            "positions": [
                1.0258290684886042,
                -1.7179408659728108,
                -0.7450047115115903,
                0.6833126551721841,
                0.45806068989999205,
                0.9228153253021818
            ]
        },
        {
            "positions": [
                1.1117928986737977,
                -1.678133206439036,
                -0.6280877094857202,
                0.6261820365871109,
                0.4778878015470409,
                0.9859376660066115
            ]
        },
        {
            "positions": [
                1.1977567288589916,
                -1.638325546905261,
                -0.5111707074598499,
                0.5690514180020374,
                0.4977149131940899,
                1.0490600067110416
            ]
        },
        {
            "positions": [
                1.2837205590441851,
                -1.5985178873714863,
                -0.39425370543397986,
                0.5119207994169642,
                0.5175420248411389,
                1.1121823474154713
            ]
        },
        {
            "positions": [
                1.3696843892293789,
                -1.5587102278377116,
                -0.27733670340811,
                0.4547901808318908,
                0.5373691364881876,
                1.1753046881199012
            ]
        },
        {
            "positions": [
                1.4556482194145726,
                -1.518902568303937,
                -0.16041970138223993,
                0.39765956224681775,
                0.5571962481352366,
                1.2384270288243309
            ]
        },
        {
            "positions": [
                1.5416120495997663,
                -1.4790949087701621,
                -0.04350269935636941,
                0.34052894366174424,
                0.5770233597822856,
                1.3015493695287608
            ]
        },
        {
            "positions": [
                1.62757587978496,
                -1.4392872492363873,
                0.07341430266950066,
                0.28339832507667095,
                0.5968504714293346,
                1.3646717102331904
            ]
        },
        {
            "positions": [
                1.7135397099701537,
                -1.3994795897026124,
                0.19033130469537074,
                0.22626770649159766,
                0.6166775830763833,
                1.4277940509376204
            ]
        },
        {
            "positions": [
                1.7995035401553472,
                -1.3596719301688378,
                0.3072483067212408,
                0.16913708790652437,
                0.6365046947234323,
                1.49091639164205
            ]
        },
        {
            "positions": [
                1.885467370340541,
                -1.319864270635063,
                0.4241653087471109,
                0.11200646932145109,
                0.6563318063704813,
                1.55403873234648
            ]
        },
        {
            "positions": [
                1.9714312005257348,
                -1.2800566111012883,
                0.541082310772981,
                0.054875850736377796,
                0.6761589180175301,
                1.6171610730509098
            ]
        },
        {
            "positions": [
                2.0573950307109286,
                -1.2402489515675135,
                0.6579993127988508,
                -0.002254767848695549,
                0.695986029664579,
                1.6802834137553395
            ]
        },
        {
            "positions": [
                2.104896893527736,
                -1.2214828451552777,
                0.7551188203797892,
                -0.06685641205809578,
                0.7254637937158501,
                1.8060547356970138
            ]
        },
        {
            "positions": [
                2.152398756344543,
                -1.2027167387430422,
                0.8522383279607275,
                -0.13145805626749602,
                0.7549415577671214,
                1.931826057638688
            ]
        },
        {
            "positions": [
                2.19990061916135,
                -1.1839506323308064,
                0.9493578355416659,
                -0.19605970047689625,
                0.7844193218183926,
                2.0575973795803626
            ]
        },
        {
            "positions": [
                2.2474024819781575,
                -1.165184525918571,
                1.046477343122604,
                -0.2606613446862965,
                0.8138970858696637,
                2.1833687015220367
            ]
        },
        {
            "positions": [
                2.2949043447949644,
                -1.1464184195063352,
                1.1435968507035426,
                -0.3252629888956967,
                0.8433748499209348,
                2.309140023463711
            ]
        },
        {
            "positions": [
                2.3424062076117718,
                -1.1276523130940994,
                1.2407163582844807,
                -0.38986463310509695,
                0.872852613972206,
                2.4349113454053857
            ]
        },
        {
            "positions": [
                2.389908070428579,
                -1.1088862066818639,
                1.337835865865419,
                -0.45446627731449724,
                0.9023303780234773,
                2.5606826673470597
            ]
        },
        {
            "positions": [
                2.437409933245386,
                -1.0901201002696281,
                1.4349553734463574,
                -0.5190679215238974,
                0.9318081420747484,
                2.686453989288734
            ]
        },
        {
            "positions": [
                2.4849117960621934,
                -1.0713539938573926,
                1.5320748810272957,
                -0.5836695657332975,
                0.9612859061260195,
                2.8122253112304083
            ]
        },
        {
            "positions": [
                2.5324136588790007,
                -1.0525878874451569,
                1.629194388608234,
                -0.6482712099426979,
                0.9907636701772907,
                2.937996633172083
            ]
        },
        {
            "positions": [
                2.5799155216958076,
                -1.0338217810329213,
                1.7263138961891724,
                -0.7128728541520981,
                1.020241434228562,
                3.0637679551137573
            ]
        },
        {
            "positions": [
                2.627417384512615,
                -1.0150556746206856,
                1.8234334037701108,
                -0.7774744983614984,
                1.049719198279833,
                3.1895392770554314
            ]
        }
    ]
}