{
    "goal": {
        "global_pose": {
            "orientation": {
                "w": 0.005598929693374612,
                "x": 0.007748599140229565,
                "y": 0.7110244013736278,
                "z": -0.7031023480610252
            },
            "position": {
                "x": 0.1141497679147869,
                "y": -0.7141253447532654,
                "z": 0.3711530566215515
            }
        },
        "name": "move_to_auspresseinheit_B"
    },
    "id": "BKPIECE_move_to_auspresseinheit_B_116",
    "joint_names": [
        "shoulder_pan_joint",
        "shoulder_lift_joint",
        "elbow_joint",
        "wrist_1_joint",
        "wrist_2_joint",
        "wrist_3_joint"
    ],
    "metrics": {
        "cart_traj_len": 0.5649813423730299,
        "distance_elbow_joint": 0.06464618342892314,
        "distance_shoulder_lift_joint": 0.2930680326955284,
        "distance_shoulder_pan_joint": 0.5767082159455004,
        "distance_wrist_1_joint": 0.33008770236979335,
        "distance_wrist_2_joint": 0.9956019695750187,
        "distance_wrist_3_joint": 0.005921305295249368,
        "smoothness": 2.5376526478085547e-16,
        "time": 0.373465641,
        "traj_len": 1.5053349824241824,
        "weighted_distance": 1.8983060058497745
    },
    "planner": "BKPIECE",
    "start": {
        "state": {
            "elbow_joint": 2.0193083361928714,
            "shoulder_lift_joint": -1.1220246554650708,
            "shoulder_pan_joint": -1.0952077554168747,
            "wrist_1_joint": -0.8559753972642168,
            "wrist_2_joint": 0.4759566250798843,
            "wrist_3_joint": -3.1240929996934557
        }
    },
    "waypoints": [
        {
            "positions": [
                -1.0952077554168747,
                -1.1220246554650708,
                2.0193083361928714,
                -0.8559753972642168,
                0.4759566250798843,
                -3.1240929996934557
            ]
        },
        {
            "positions": [
                -1.1913257914077913,
                -1.1708693275809923,
                2.008533972288051,
                -0.8009607802025845,
                0.6418902866757208,
                -3.1231061154775808
            ]
        },
        {
            "positions": [
                -1.287443827398708,
                -1.2197139996969135,
                1.9977596083832303,
                -0.7459461631409523,
                0.8078239482715572,
                -3.122119231261706
            ]
        },
        {
            "positions": [
                -1.383561863389625,
                -1.268558671812835,
                1.9869852444784097,
                -0.6909315460793202,
                0.9737576098673937,
                -3.121132347045831
            ]
        },
        {
            "positions": [
                -1.4796798993805416,
                -1.3174033439287565,
                1.9762108805735894,
                -0.6359169290176879,
                1.1396912714632301,
                -3.120145462829956
            ]
        },
        {
            "positions": [
                -1.5757979353714582,
                -1.3662480160446777,
                1.9654365166687688,
                -0.5809023119560557,
                1.3056249330590666,
                -3.119158578614081
            ]
        },
        {
            "positions": [
                -1.671915971362375,
                -1.4150926881605992,
                1.9546621527639483,
                -0.5258876948944234,
                1.471558594654903,
                -3.1181716943982063
            ]
        }
    ]
}