{
    "goal": {
        "global_pose": {
            "orientation": {
                "w": 0.005598929693374612,
                "x": 0.007748599140229565,
                "y": 0.7110244013736278,
                "z": -0.7031023480610252
            },
            "position": {
                "x": -0.8858502320852131,
                "y": -0.7141253447532654,
                "z": 0.3711530566215515
            }
        },
        "name": "move_to_auspresseinheit_C"
    },
    "id": "BKPIECE_move_to_auspresseinheit_C_117",
    "joint_names": [
        "shoulder_pan_joint",
        "shoulder_lift_joint",
        "elbow_joint",
        "wrist_1_joint",
        "wrist_2_joint",
        "wrist_3_joint"
    ],
    "metrics": {
        "cart_traj_len": 0.4929366356943285,
        "distance_elbow_joint": 0.998291531113249,
        "distance_shoulder_lift_joint": 0.3250164213238519,
        "distance_shoulder_pan_joint": 0.25593361482862464,
        "distance_wrist_1_joint": 0.6660176459517205,
        "distance_wrist_2_joint": 1.3162556213128687,
        "distance_wrist_3_joint": 0.04138184984200999,
        "smoothness": 1.6148698667872622e-16,
        "time": 0.267315399,
        "traj_len": 1.8981297859662611,
        "weighted_distance": 2.3807422479808547
    },
    "planner": "BKPIECE",
    "start": {
        "state": {
            "elbow_joint": 1.7527959577737207,
            "shoulder_lift_joint": -0.9740617694225068,
            "shoulder_pan_joint": -2.967991417825858,
            "wrist_1_joint": -0.759517768980727,
            "wrist_2_joint": 1.7443932448377408,
            "wrist_3_joint": -3.0840537646736568
        }
    },
    "waypoints": [
        {
            "positions": [
                -2.967991417825858,
                -0.9740617694225068,
                1.7527959577737207,
                -0.759517768980727,
                1.7443932448377408,
                -3.0840537646736568
            ]
        },
        {
            "positions": [
                -2.9423980563429954,
                -0.9415601272901216,
                1.6529668046623958,
                -0.6929160043855549,
                1.6127676827064539,
                -3.088191949657858
            ]
        },
        {
            "positions": [
                -2.916804694860133,
                -0.9090584851577364,
                1.5531376515510709,
                -0.6263142397903829,
                1.4811421205751671,
                -3.092330134642059
            ]
        },
        {
            "positions": [
                -2.8912113333772704,
                -0.8765568430253512,
                1.453308498439746,
                -0.5597124751952108,
                1.3495165584438802,
                -3.09646831962626
            ]
        },
        {
            "positions": [
                -2.865617971894408,
                -0.844055200892966,
                1.353479345328421,
                -0.49311071060003875,
                1.2178909963125935,
                -3.100606504610461
            ]
        },
        {
            "positions": [
                -2.840024610411546,
                -0.8115535587605809,
                1.2536501922170962,
                -0.4265089460048667,
                1.0862654341813065,
                -3.1047446895946615
            ]
        },
        {
            "positions": [
                -2.8144312489286833,
                -0.7790519166281956,
                1.1538210391057713,
                -0.3599071814096947,
                0.9546398720500197,
                -3.1088828745788626
            ]
        },
        {
            "positions": [
                -2.788837887445821,
                -0.7465502744958105,
                1.0539918859944464,
                -0.29330541681452266,
                0.8230143099187328,
                -3.1130210595630636
            ]
        },
        {
            "positions": [
                -2.7632445259629583,
                -0.7140486323634252,
                0.9541627328831215,
                -0.22670365221935052,
                0.6913887477874459,
                -3.1171592445472647
            ]
        },
        {
            "positions": [
                -2.737651164480096,
                -0.68154699023104,
                0.8543335797717966,
                -0.16010188762417854,
                0.5597631856561589,
                -3.1212974295314657
            ]
        },
        {
            "positions": [
                -2.7120578029972333,
                -0.6490453480986549,
                0.7545044266604717,
                -0.09350012302900648,
                0.4281376235248722,
                -3.1254356145156668
            ]
        }
    ]
}