{
    "goal": {
        "global_pose": {
            "orientation": {
                "w": 0.005598929693374612,
                "x": 0.007748599140229565,
                "y": 0.7110244013736278,
                "z": -0.7031023480610252
            },
            "position": {
                "x": 0.1141497679147869,
                "y": -0.7141253447532654,
                "z": 0.3711530566215515
            }
        },
        "name": "move_to_auspresseinheit_B"
    },
    "id": "BKPIECE_move_to_auspresseinheit_B_97",
    "joint_names": [
        "shoulder_pan_joint",
        "shoulder_lift_joint",
        "elbow_joint",
        "wrist_1_joint",
        "wrist_2_joint",
        "wrist_3_joint"
    ],
    "metrics": {
        "cart_traj_len": 0.5649655145406582,
        "distance_elbow_joint": 0.06392988494185192,
        "distance_shoulder_lift_joint": 0.2940866078519999,
        "distance_shoulder_pan_joint": 0.5782352844216547,
        "distance_wrist_1_joint": 0.32754403542461397,
        "distance_wrist_2_joint": 0.9855733254209265,
        "distance_wrist_3_joint": 0.0026740746793065817,
        "smoothness": 5.075305255429287e-16,
        "time": 0.291205197,
        "traj_len": 1.5006809163644195,
        "weighted_distance": 1.889578980340464
    },
    "planner": "BKPIECE",
    "start": {
        "state": {
            "elbow_joint": 2.0193083361928714,
            "shoulder_lift_joint": -1.1220246554650708,
            "shoulder_pan_joint": -1.0952077554168747,
            "wrist_1_joint": -0.8559753972642168,
            "wrist_2_joint": 0.4759566250798843,
            "wrist_3_joint": -3.1240929996934557
        }
    },
    "waypoints": [
        {
            "positions": [
                -1.0952077554168747,
                -1.1220246554650708,
                2.0193083361928714,
                -0.8559753972642168,
                0.4759566250798843,
                -3.1240929996934557
            ]
        },
        {
            "positions": [
                -1.1915803028204839,
                -1.1710390901070709,
                2.0086533553692294,
                -0.8013847246934478,
                0.640218845983372,
                -3.1245386788066734
            ]
        },
        {
            "positions": [
                -1.287952850224093,
                -1.2200535247490707,
                1.9979983745455874,
                -0.7467940521226788,
                0.8044810668868598,
                -3.124984357919891
            ]
        },
        {
            "positions": [
                -1.384325397627702,
                -1.2690679593910708,
                1.9873433937219454,
                -0.6922033795519098,
                0.9687432877903475,
                -3.1254300370331087
            ]
        },
        {
            "positions": [
                -1.4806979450313111,
                -1.3180823940330708,
                1.9766884128983035,
                -0.6376127069811408,
                1.1330055086938353,
                -3.125875716146327
            ]
        },
        {
            "positions": [
                -1.5770704924349204,
                -1.3670968286750707,
                1.9660334320746615,
                -0.5830220344103718,
                1.297267729597323,
                -3.1263213952595446
            ]
        },
        {
            "positions": [
                -1.6734430398385294,
                -1.4161112633170707,
                1.9553784512510195,
                -0.5284313618396028,
                1.4615299505008108,
                -3.1267670743727622
            ]
        }
    ]
}