{
    "goal": {
        "global_pose": {
            "orientation": {
                "w": 0.005598929693374612,
                "x": 0.007748599140229565,
                "y": 0.7110244013736278,
                "z": -0.7031023480610252
            },
            "position": {
                "x": 0.1141497679147869,
                "y": -0.7141253447532654,
                "z": 0.3711530566215515
            }
        },
        "name": "move_to_auspresseinheit_B"
    },
    "id": "BKPIECE_move_to_auspresseinheit_B_102",
    "joint_names": [
        "shoulder_pan_joint",
        "shoulder_lift_joint",
        "elbow_joint",
        "wrist_1_joint",
        "wrist_2_joint",
        "wrist_3_joint"
    ],
    "metrics": {
        "cart_traj_len": 0.565551872236361,
        "distance_elbow_joint": 0.0650171424930932,
        "distance_shoulder_lift_joint": 0.29349143979122183,
        "distance_shoulder_pan_joint": 0.5776700193003659,
        "distance_wrist_1_joint": 0.3319463603998638,
        "distance_wrist_2_joint": 0.9944431274421788,
        "distance_wrist_3_joint": 0.0037031668936275963,
        "smoothness": 5.075305255429287e-16,
        "time": 0.414098895,
        "traj_len": 1.505413981707474,
        "weighted_distance": 1.8973842726104928
    },
    "planner": "BKPIECE",
    "start": {
        "state": {
            "elbow_joint": 2.0193083361928714,
            "shoulder_lift_joint": -1.1220246554650708,
            "shoulder_pan_joint": -1.0952077554168747,
            "wrist_1_joint": -0.8559753972642168,
            "wrist_2_joint": 0.4759566250798843,
            "wrist_3_joint": -3.1240929996934557
        }
    },
    "waypoints": [
        {
            "positions": [
                -1.0952077554168747,
                -1.1220246554650708,
                2.0193083361928714,
                -0.8559753972642168,
                0.4759566250798843,
                -3.1240929996934557
            ]
        },
        {
            "positions": [
                -1.1914860919669357,
                -1.1709398954302745,
                2.0084721457773558,
                -0.8006510038642395,
                0.6416971463202474,
                -3.124710194175727
            ]
        },
        {
            "positions": [
                -1.2877644285169967,
                -1.219855135395478,
                1.9976359553618404,
                -0.7453266104642622,
                0.8074376675606105,
                -3.125327388657998
            ]
        },
        {
            "positions": [
                -1.3840427650670577,
                -1.2687703753606816,
                1.986799764946325,
                -0.6900022170642849,
                0.9731781888009736,
                -3.1259445831402695
            ]
        },
        {
            "positions": [
                -1.4803211016171185,
                -1.3176856153258854,
                1.9759635745308093,
                -0.6346778236643076,
                1.1389187100413367,
                -3.1265617776225407
            ]
        },
        {
            "positions": [
                -1.5765994381671795,
                -1.366600855291089,
                1.9651273841152936,
                -0.5793534302643303,
                1.3046592312817,
                -3.127178972104812
            ]
        },
        {
            "positions": [
                -1.6728777747172405,
                -1.4155160952562926,
                1.9542911936997782,
                -0.524029036864353,
                1.4703997525220631,
                -3.1277961665870833
            ]
        }
    ]
}