{
    "goal": {
        "global_pose": {
            "orientation": {
                "w": -0.4816463035849501,
                "x": 0.5182115481033762,
                "y": 0.4908360881923453,
                "z": -0.5084816262002911
            },
            "position": {
                "x": -0.8240239810943604,
                "y": -0.300875300988555,
                "z": 0.16403168439865112
            }
        },
        "name": "move_to_storage_C"
    },
    "id": "BKPIECE_move_to_storage_C_109",
    "joint_names": [
        "shoulder_pan_joint",
        "shoulder_lift_joint",
        "elbow_joint",
        "wrist_1_joint",
        "wrist_2_joint",
        "wrist_3_joint"
    ],
    "metrics": {
        "cart_traj_len": 0.5757873403262256,
        "distance_elbow_joint": 0.25863011130831315,
        "distance_shoulder_lift_joint": 0.18856844779871773,
        "distance_shoulder_pan_joint": 0.49430853756287974,
        "distance_wrist_1_joint": 0.08650903700594093,
        "distance_wrist_2_joint": 1.0670741940688422,
        "distance_wrist_3_joint": 0.07650383002005734,
        "smoothness": 0.0,
        "time": 0.25903512,
        "traj_len": 1.4736329793285543,
        "weighted_distance": 1.8649892892131177
    },
    "planner": "BKPIECE",
    "start": {
        "state": {
            "elbow_joint": 2.010868314990456,
            "shoulder_lift_joint": -1.1634956873337592,
            "shoulder_pan_joint": -2.4736205022346125,
            "wrist_1_joint": -0.8367026794202681,
            "wrist_2_joint": 0.6746043897044499,
            "wrist_3_joint": -3.1496632123970403
        }
    },
    "waypoints": [
        {
            "positions": [
                -2.4736205022346125,
                -1.1634956873337592,
                2.010868314990456,
                -0.8367026794202681,
                0.6746043897044499,
                -3.1496632123970403
            ]
        },
        {
            "positions": [
                -2.5560052584950923,
                -1.1320676127006395,
                1.9677632964390703,
                -0.8222845065859447,
                0.8524500887159236,
                -3.1369125740603643
            ]
        },
        {
            "positions": [
                -2.6383900147555726,
                -1.10063953806752,
                1.9246582778876848,
                -0.8078663337516211,
                1.0302957877273973,
                -3.124161935723688
            ]
        },
        {
            "positions": [
                -2.7207747710160524,
                -1.0692114634344003,
                1.8815532593362994,
                -0.7934481609172976,
                1.208141486738871,
                -3.1114112973870114
            ]
        },
        {
            "positions": [
                -2.803159527276532,
                -1.0377833888012806,
                1.8384482407849136,
                -0.7790299880829742,
                1.3859871857503445,
                -3.0986606590503354
            ]
        },
        {
            "positions": [
                -2.8855442835370124,
                -1.0063553141681612,
                1.7953432222335282,
                -0.7646118152486506,
                1.5638328847618186,
                -3.0859100207136594
            ]
        },
        {
            "positions": [
                -2.9679290397974922,
                -0.9749272395350415,
                1.7522382036821427,
                -0.7501936424143272,
                1.7416785837732922,
                -3.073159382376983
            ]
        }
    ]
}