{
    "goal": {
        "global_pose": {
            "orientation": {
                "w": 0.7031023480610252,
                "x": -0.7110244013736278,
                "y": 0.0077485991402295624,
                "z": 0.005598929693374583
            },
            "position": {
                "x": -0.8841497679147869,
                "y": 0.44412534475326537,
                "z": 0.3711530566215515
            }
        },
        "name": "move_to_auspresseinheit_D"
    },
    "id": "BKPIECE_move_to_auspresseinheit_D_103",
    "joint_names": [
        "shoulder_pan_joint",
        "shoulder_lift_joint",
        "elbow_joint",
        "wrist_1_joint",
        "wrist_2_joint",
        "wrist_3_joint"
    ],
    "metrics": {
        "cart_traj_len": 0.3434608408360057,
        "distance_elbow_joint": 0.6440066933422166,
        "distance_shoulder_lift_joint": 0.1239558870675781,
        "distance_shoulder_pan_joint": 0.1334182108095631,
        "distance_wrist_1_joint": 0.5466957919673736,
        "distance_wrist_2_joint": 1.4348377033386555,
        "distance_wrist_3_joint": 0.01642305101309205,
        "smoothness": 2.5658487678941247e-15,
        "time": 0.189658137,
        "traj_len": 1.7027440610786106,
        "weighted_distance": 2.216690536559105
    },
    "planner": "BKPIECE",
    "start": {
        "state": {
            "elbow_joint": -1.8275523626775212,
            "shoulder_lift_joint": -2.126789852344167,
            "shoulder_pan_joint": -0.03513704404078235,
            "wrist_1_joint": -2.347782403156801,
            "wrist_2_joint": -1.6058999987535132,
            "wrist_3_joint": -3.0880379163319196
        }
    },
    "waypoints": [
        {
            "positions": [
                -0.03513704404078235,
                -2.126789852344167,
                -1.8275523626775212,
                -2.347782403156801,
                -1.6058999987535132,
                -3.0880379163319196
            ]
        },
        {
            "positions": [
                -0.05181432039197774,
                -2.142284338227614,
                -1.7470515260097441,
                -2.4161193771527225,
                -1.4265452858361813,
                -3.085985034955283
            ]
        },
        {
            "positions": [
                -0.06849159674317312,
                -2.1577788241110616,
                -1.666550689341967,
                -2.484456351148644,
                -1.2471905729188493,
                -3.0839321535786466
            ]
        },
        {
            "positions": [
                -0.08516887309436852,
                -2.1732733099945087,
                -1.58604985267419,
                -2.552793325144566,
                -1.0678358600015174,
                -3.08187927220201
            ]
        },
        {
            "positions": [
                -0.10184614944556389,
                -2.188767795877956,
                -1.5055490160064129,
                -2.6211302991404875,
                -0.8884811470841855,
                -3.0798263908253736
            ]
        },
        {
            "positions": [
                -0.11852342579675929,
                -2.204262281761403,
                -1.4250481793386358,
                -2.6894672731364095,
                -0.7091264341668535,
                -3.077773509448737
            ]
        },
        {
            "positions": [
                -0.13520070214795468,
                -2.21975676764485,
                -1.3445473426708587,
                -2.757804247132331,
                -0.5297717212495217,
                -3.0757206280721006
            ]
        },
        {
            "positions": [
                -0.15187797849915005,
                -2.235251253528298,
                -1.2640465060030817,
                -2.826141221128253,
                -0.3504170083321896,
                -3.073667746695464
            ]
        },
        {
            "positions": [
                -0.16855525485034545,
                -2.250745739411745,
                -1.1835456693353046,
                -2.8944781951241745,
                -0.1710622954148578,
                -3.0716148653188275
            ]
        }
    ]
}