{
    "goal": {
        "global_pose": {
            "orientation": {
                "w": -0.00223480608172531,
                "x": 0.0024358444001904467,
                "y": 0.7094548369677653,
                "z": -0.704743149386269
            },
            "position": {
                "x": 0.6205249238014221,
                "y": -0.6371506643295288,
                "z": 0.19426114857196808
            }
        },
        "name": "move_to_magneteinheit_B"
    },
    "id": "BKPIECE_move_to_magneteinheit_B_134",
    "joint_names": [
        "shoulder_pan_joint",
        "shoulder_lift_joint",
        "elbow_joint",
        "wrist_1_joint",
        "wrist_2_joint",
        "wrist_3_joint"
    ],
    "metrics": {
        "cart_traj_len": 3.9294671925797173,
        "distance_elbow_joint": 4.355207405557669,
        "distance_shoulder_lift_joint": 0.9149466322558664,
        "distance_shoulder_pan_joint": 2.3820079498534033,
        "distance_wrist_1_joint": 4.4808507848556,
        "distance_wrist_2_joint": 2.963383125194124,
        "distance_wrist_3_joint": 3.2498615245690474,
        "smoothness": 0.23862279483426438,
        "time": 0.373075186,
        "traj_len": 4.283253135443399,
        "weighted_distance": 5.68244792158041
    },
    "planner": "BKPIECE",
    "start": {
        "state": {
            "elbow_joint": 2.6216224122426386,
            "shoulder_lift_joint": -1.4174107377796124,
            "shoulder_pan_joint": 0.7066234856936794,
            "wrist_1_joint": 1.9546482284002225,
            "wrist_2_joint": -0.7096286983471962,
            "wrist_3_joint": 0.005740856962016249
        }
    },
    "waypoints": [
        {
            "positions": [
                0.7066234856936794,
                -1.4174107377796124,
                2.6216224122426386,
                1.9546482284002225,
                -0.7096286983471962,
                0.005740856962016249
            ]
        },
        {
            "positions": [
                0.5996078911979458,
                -1.3809215613309371,
                2.5922215868787273,
                1.970531503909073,
                -0.6439122726631947,
                -0.020944533808191397
            ]
        },
        {
            "positions": [
                0.4925922967022121,
                -1.3444323848822621,
                2.5628207615148164,
                1.9864147794179237,
                -0.5781958469791931,
                -0.04762992457839904
            ]
        },
        {
            "positions": [
                0.4975448814248165,
                -1.3558270366301455,
                2.4232214328661623,
                1.8409555373908788,
                -0.5545797818155587,
                -0.00806989851613147
            ]
        },
        {
            "positions": [
                0.502497466147421,
                -1.3672216883780288,
                2.283622104217508,
                1.6954962953638337,
                -0.5309637166519242,
                0.0314901275461361
            ]
        },
        {
            "positions": [
                0.5074500508700254,
                -1.3786163401259122,
                2.144022775568854,
                1.5500370533367889,
                -0.5073476514882898,
                0.07105015360840367
            ]
        },
        {
            "positions": [
                0.5124026355926298,
                -1.3900109918737953,
                2.0044234469201996,
                1.404577811309744,
                -0.4837315863246553,
                0.11061017967067124
            ]
        },
        {
            "positions": [
                0.5173552203152342,
                -1.4014056436216786,
                1.8648241182715455,
                1.2591185692826992,
                -0.46011552116102084,
                0.15017020573293882
            ]
        },
        {
            "positions": [
                0.5223078050378386,
                -1.412800295369562,
                1.7252247896228914,
                1.1136593272556543,
                -0.43649945599738643,
                0.18973023179520637
            ]
        },
        {
            "positions": [
                0.527260389760443,
                -1.4241949471174453,
                1.5856254609742373,
                0.9682000852286092,
                -0.412883390833752,
                0.22929025785747398
            ]
        },
        {
            "positions": [
                0.5322129744830474,
                -1.4355895988653287,
                1.446026132325583,
                0.8227408432015643,
                -0.3892673256701175,
                0.26885028391974153
            ]
        },
        {
            "positions": [
                0.5924910155049562,
                -1.4468584261487158,
                1.322188269995259,
                0.7139903567603694,
                -0.3359362505083142,
                0.3004611613256222
            ]
        },
        {
            "positions": [
                0.652769056526865,
                -1.458127253432103,
                1.1983504076649352,
                0.6052398703191746,
                -0.282605175346511,
                0.33207203873150276
            ]
        },
        {
            "positions": [
                0.7130470975487737,
                -1.46939608071549,
                1.0745125453346112,
                0.49648938387797975,
                -0.22927410018470765,
                0.3636829161373834
            ]
        },
        {
            "positions": [
                0.7733251385706825,
                -1.4806649079988772,
                0.9506746830042871,
                0.3877388974367849,
                -0.17594302502290438,
                0.395293793543264
            ]
        },
        {
            "positions": [
                0.8336031795925913,
                -1.4919337352822644,
                0.8268368206739631,
                0.27898841099559,
                -0.12261194986110108,
                0.42690467094914464
            ]
        },
        {
            "positions": [
                0.8938812206145001,
                -1.5032025625656513,
                0.7029989583436392,
                0.17023792455439524,
                -0.06928087469929778,
                0.4585155483550253
            ]
        },
        {
            "positions": [
                0.954159261636409,
                -1.5144713898490385,
                0.5791610960133152,
                0.06148743811320034,
                -0.01594979953749448,
                0.4901264257609059
            ]
        },
        {
            "positions": [
                1.0144373026583178,
                -1.5257402171324257,
                0.4553232336829913,
                -0.04726304832799444,
                0.03738127562430876,
                0.5217373031667865
            ]
        },
        {
            "positions": [
                1.0747153436802264,
                -1.5370090444158129,
                0.3314853713526673,
                -0.15601353476918922,
                0.09071235078611212,
                0.5533481805726672
            ]
        },
        {
            "positions": [
                1.1349933847021354,
                -1.5482778716992,
                0.2076475090223433,
                -0.2647640212103842,
                0.14404342594791536,
                0.5849590579785477
            ]
        },
        {
            "positions": [
                1.195271425724044,
                -1.559546698982587,
                0.08380964669201951,
                -0.373514507651579,
                0.1973745011097186,
                0.6165699353844284
            ]
        },
        {
            "positions": [
                1.2555494667459528,
                -1.5708155262659742,
                -0.0400282156383045,
                -0.4822649940927738,
                0.25070557627152196,
                0.648180812790309
            ]
        },
        {
            "positions": [
                1.3158275077678616,
                -1.5820843535493614,
                -0.1638660779686283,
                -0.5910154805339686,
                0.3040366514333252,
                0.6797916901961896
            ]
        },
        {
            "positions": [
                1.3761055487897704,
                -1.5933531808327484,
                -0.2877039402989525,
                -0.6997659669751636,
                0.35736772659512855,
                0.7114025676020703
            ]
        },
        {
            "positions": [
                1.4363835898116792,
                -1.6046220081161355,
                -0.4115418026292763,
                -0.8085164534163584,
                0.4106988017569318,
                0.7430134450079509
            ]
        },
        {
            "positions": [
                1.496661630833588,
                -1.6158908353995227,
                -0.5353796649596003,
                -0.9172669398575531,
                0.46402987691873504,
                0.7746243224138315
            ]
        },
        {
            "positions": [
                1.5569396718554969,
                -1.62715966268291,
                -0.6592175272899243,
                -1.0260174262987483,
                0.5173609520805384,
                0.8062351998197121
            ]
        },
        {
            "positions": [
                1.6172177128774057,
                -1.638428489966297,
                -0.7830553896202483,
                -1.1347679127399428,
                0.5706920272423417,
                0.8378460772255928
            ]
        },
        {
            "positions": [
                1.6774957538993145,
                -1.649697317249684,
                -0.9068932519505719,
                -1.2435183991811378,
                0.6240231024041449,
                0.8694569546314734
            ]
        },
        {
            "positions": [
                1.7377737949212233,
                -1.6609661445330712,
                -1.0307311142808964,
                -1.3522688856223328,
                0.6773541775659482,
                0.9010678320373541
            ]
        },
        {
            "positions": [
                1.7980518359431321,
                -1.6722349718164584,
                -1.15456897661122,
                -1.4610193720635274,
                0.7306852527277514,
                0.9326787094432347
            ]
        },
        {
            "positions": [
                1.858329876965041,
                -1.6835037990998454,
                -1.278406838941544,
                -1.5697698585047224,
                0.7840163278895547,
                0.9642895868491153
            ]
        },
        {
            "positions": [
                1.9186079179869497,
                -1.6947726263832326,
                -1.402244701271868,
                -1.6785203449459174,
                0.8373474030513581,
                0.9959004642549959
            ]
        },
        {
            "positions": [
                1.9788859590088586,
                -1.7060414536666197,
                -1.526082563602192,
                -1.787270831387112,
                0.8906784782131614,
                1.0275113416608765
            ]
        },
        {
            "positions": [
                2.0316610155549113,
                -1.736450803148677,
                -1.54279683523063,
                -1.8514274723796793,
                0.8150041114957897,
                1.1572165736864388
            ]
        },
        {
            "positions": [
                2.084436072100964,
                -1.766860152630734,
                -1.5595111068590684,
                -1.9155841133722464,
                0.7393297447784181,
                1.2869218057120013
            ]
        },
        {
            "positions": [
                2.1372111286470172,
                -1.7972695021127911,
                -1.5762253784875064,
                -1.9797407543648138,
                0.6636553780610464,
                1.4166270377375636
            ]
        },
        {
            "positions": [
                2.18998618519307,
                -1.827678851594848,
                -1.5929396501159445,
                -2.043897395357381,
                0.5879810113436748,
                1.546332269763126
            ]
        },
        {
            "positions": [
                2.2427612417391227,
                -1.8580882010769053,
                -1.6096539217443828,
                -2.108054036349948,
                0.512306644626303,
                1.6760375017886884
            ]
        },
        {
            "positions": [
                2.2955362982851755,
                -1.8884975505589625,
                -1.626368193372821,
                -2.1722106773425156,
                0.4366322779089314,
                1.8057427338142507
            ]
        },
        {
            "positions": [
                2.348311354831228,
                -1.9189069000410195,
                -1.643082465001259,
                -2.2363673183350827,
                0.36095791119155973,
                1.935447965839813
            ]
        },
        {
            "positions": [
                2.4010864113772814,
                -1.9493162495230767,
                -1.659796736629697,
                -2.3005239593276503,
                0.285283544474188,
                2.065153197865375
            ]
        },
        {
            "positions": [
                2.453861467923334,
                -1.9797255990051337,
                -1.6765110082581354,
                -2.3646806003202174,
                0.2096091777568163,
                2.194858429890938
            ]
        },
        {
            "positions": [
                2.506636524469387,
                -2.010134948487191,
                -1.6932252798865735,
                -2.4288372413127846,
                0.13393481103944466,
                2.3245636619165
            ]
        },
        {
            "positions": [
                2.538302627606872,
                -2.045033076606641,
                -1.68629603763952,
                -2.435448556132629,
                0.01518016714326316,
                2.4872406060988395
            ]
        },
        {
            "positions": [
                2.5699687307443577,
                -2.0799312047260914,
                -1.6793667953924662,
                -2.442059870952473,
                -0.10357447675291834,
                2.649917550281179
            ]
        },
        {
            "positions": [
                2.601634833881843,
                -2.1148293328455416,
                -1.6724375531454125,
                -2.4486711857723167,
                -0.22232912064909982,
                2.8125944944635184
            ]
        },
        {
            "positions": [
                2.633300937019328,
                -2.149727460964992,
                -1.665508310898359,
                -2.455282500592161,
                -0.34108376454528133,
                2.9752714386458576
            ]
        },
        {
            "positions": [
                2.6605690575641483,
                -2.1864006642407783,
                -1.6528655664581198,
                -2.4478955467643466,
                -0.4723974704206052,
                3.1488608184502334
            ]
        }
    ]
}