{
    "goal": {
        "global_pose": {
            "orientation": {
                "w": 0.7031023502349854,
                "x": -0.7110244035720825,
                "y": 0.007748599164187908,
                "z": 0.005598929710686207
            },
            "position": {
                "x": 0.11585023208521307,
                "y": 0.44412534475326537,
                "z": 0.3711530566215515
            }
        },
        "name": "move_to_auspresseinheit_A"
    },
    "id": "BKPIECE_move_to_auspresseinheit_A_86",
    "joint_names": [
        "shoulder_pan_joint",
        "shoulder_lift_joint",
        "elbow_joint",
        "wrist_1_joint",
        "wrist_2_joint",
        "wrist_3_joint"
    ],
    "metrics": {
        "cart_traj_len": 0.7262797391920871,
        "distance_elbow_joint": 0.2833715558573062,
        "distance_shoulder_lift_joint": 0.9427347165309734,
        "distance_shoulder_pan_joint": 1.0426540112279317,
        "distance_wrist_1_joint": 1.2107975888339202,
        "distance_wrist_2_joint": 1.106583729644015,
        "distance_wrist_3_joint": 0.31789169821725105,
        "smoothness": 1.5925997817699196,
        "time": 0.20961916400000002,
        "traj_len": 2.2145052043992575,
        "weighted_distance": 2.8030693917960425
    },
    "planner": "BKPIECE",
    "start": {
        "state": {
            "elbow_joint": 2.4225746658250005,
            "shoulder_lift_joint": -1.3736534386056498,
            "shoulder_pan_joint": -0.3378633547517467,
            "wrist_1_joint": -1.0288598680537169,
            "wrist_2_joint": 1.233022673432363,
            "wrist_3_joint": -3.0940220416140027
        }
    },
    "waypoints": [
        {
            "positions": [
                -0.3378633547517467,
                -1.3736534386056498,
                2.4225746658250005,
                -1.0288598680537169,
                1.233022673432363,
                -3.0940220416140027
            ]
        },
        {
            "positions": [
                -0.260433402319047,
                -1.4556991073124905,
                2.4367574480776657,
                -0.9304867277898347,
                1.1418659853868118,
                -3.0789093165213015
            ]
        },
        {
            "positions": [
                -0.18300344988634723,
                -1.537744776019331,
                2.450940230330331,
                -0.8321135875259524,
                1.0507092973412604,
                -3.0637965914286
            ]
        },
        {
            "positions": [
                -0.10557349745364747,
                -1.6197904447261717,
                2.4651230125829966,
                -0.7337404472620702,
                0.9595526092957091,
                -3.0486838663358986
            ]
        },
        {
            "positions": [
                -0.028143545020947736,
                -1.7018361134330122,
                2.479305794835662,
                -0.635367306998188,
                0.8683959212501577,
                -3.033571141243197
            ]
        },
        {
            "positions": [
                0.04928640741175205,
                -1.783881782139853,
                2.493488577088327,
                -0.5369941667343057,
                0.7772392332046064,
                -3.0184584161504957
            ]
        },
        {
            "positions": [
                0.1267163598444518,
                -1.8659274508466934,
                2.5076713593409923,
                -0.43862102647042356,
                0.6860825451590551,
                -3.003345691057794
            ]
        },
        {
            "positions": [
                0.20414631227715158,
                -1.9479731195535341,
                2.521854141593658,
                -0.34024788620654123,
                0.5949258571135038,
                -2.988232965965093
            ]
        },
        {
            "positions": [
                0.28157626470985125,
                -2.030018788260375,
                2.536036923846323,
                -0.24187474594265912,
                0.5037691690679524,
                -2.973120240872391
            ]
        },
        {
            "positions": [
                0.35900621714255104,
                -2.1120644569672153,
                2.5502197060989884,
                -0.1435016056787768,
                0.4126124810224011,
                -2.95800751577969
            ]
        },
        {
            "positions": [
                0.44545232697595954,
                -2.0609835324248635,
                2.511288077203159,
                -0.22486143729352184,
                0.48415586533091437,
                -3.0034768088754245
            ]
        },
        {
            "positions": [
                0.531898436809368,
                -2.0099026078825113,
                2.4723564483073295,
                -0.3062212689082669,
                0.5556992496394276,
                -3.048946101971159
            ]
        },
        {
            "positions": [
                0.6183445466427765,
                -1.9588216833401595,
                2.4334248194114996,
                -0.387581100523012,
                0.6272426339479409,
                -3.0944153950668936
            ]
        },
        {
            "positions": [
                0.704790656476185,
                -1.9077407587978075,
                2.39449319051567,
                -0.468940932137757,
                0.6987860182564541,
                -3.139884688162628
            ]
        }
    ]
}