{
    "goal": {
        "global_pose": {
            "orientation": {
                "w": 0.005598929693374612,
                "x": 0.007748599140229565,
                "y": 0.7110244013736278,
                "z": -0.7031023480610252
            },
            "position": {
                "x": -0.8858502320852131,
                "y": -0.7141253447532654,
                "z": 0.3711530566215515
            }
        },
        "name": "move_to_auspresseinheit_C"
    },
    "id": "BKPIECE_move_to_auspresseinheit_C_92",
    "joint_names": [
        "shoulder_pan_joint",
        "shoulder_lift_joint",
        "elbow_joint",
        "wrist_1_joint",
        "wrist_2_joint",
        "wrist_3_joint"
    ],
    "metrics": {
        "cart_traj_len": 1.6352358348877731,
        "distance_elbow_joint": 1.474862456544579,
        "distance_shoulder_lift_joint": 0.31998683727338284,
        "distance_shoulder_pan_joint": 0.6690129258495618,
        "distance_wrist_1_joint": 3.1379455595190473,
        "distance_wrist_2_joint": 3.7986050828319486,
        "distance_wrist_3_joint": 11.011185046432546,
        "smoothness": 0.5537128464455895,
        "time": 0.41760031400000003,
        "traj_len": 4.517919643868299,
        "weighted_distance": 7.026415775035459
    },
    "planner": "BKPIECE",
    "start": {
        "state": {
            "elbow_joint": 1.7527959577737207,
            "shoulder_lift_joint": -0.9740617694225068,
            "shoulder_pan_joint": -2.967991417825858,
            "wrist_1_joint": -0.759517768980727,
            "wrist_2_joint": 1.7443932448377408,
            "wrist_3_joint": -3.0840537646736568
        }
    },
    "waypoints": [
        {
            "positions": [
                -2.967991417825858,
                -0.9740617694225068,
                1.7527959577737207,
                -0.759517768980727,
                1.7443932448377408,
                -3.0840537646736568
            ]
        },
        {
            "positions": [
                -2.9753550233637425,
                -0.9724482387521912,
                1.7087880232502761,
                -0.8038748597436577,
                1.6531634114152909,
                -2.8880310712347117
            ]
        },
        {
            "positions": [
                -2.982718628901627,
                -0.9708347080818758,
                1.6647800887268314,
                -0.8482319505065885,
                1.561933577992841,
                -2.692008377795766
            ]
        },
        {
            "positions": [
                -2.9900822344395115,
                -0.9692211774115602,
                1.6207721542033868,
                -0.8925890412695192,
                1.470703744570391,
                -2.495985684356821
            ]
        },
        {
            "positions": [
                -2.997445839977396,
                -0.9676076467412448,
                1.576764219679942,
                -0.93694613203245,
                1.3794739111479413,
                -2.2999629909178756
            ]
        },
        {
            "positions": [
                -3.0048094455152805,
                -0.9659941160709292,
                1.5327562851564975,
                -0.9813032227953807,
                1.2882440777254913,
                -2.1039402974789305
            ]
        },
        {
            "positions": [
                -3.012173051053165,
                -0.9643805854006138,
                1.488748350633053,
                -1.0256603135583116,
                1.1970142443030414,
                -1.9079176040399852
            ]
        },
        {
            "positions": [
                -3.0195366565910495,
                -0.9627670547302982,
                1.4447404161096082,
                -1.0700174043212423,
                1.1057844108805914,
                -1.71189491060104
            ]
        },
        {
            "positions": [
                -3.0269002621289336,
                -0.9611535240599828,
                1.4007324815861637,
                -1.114374495084173,
                1.0145545774581417,
                -1.5158722171620949
            ]
        },
        {
            "positions": [
                -3.034263867666818,
                -0.9595399933896672,
                1.356724547062719,
                -1.1587315858471037,
                0.9233247440356915,
                -1.3198495237231493
            ]
        },
        {
            "positions": [
                -3.0416274732047026,
                -0.9579264627193518,
                1.3127166125392744,
                -1.2030886766100346,
                0.8320949106132417,
                -1.123826830284204
            ]
        },
        {
            "positions": [
                -3.048991078742587,
                -0.9563129320490362,
                1.2687086780158296,
                -1.2474457673729653,
                0.7408650771907919,
                -0.9278041368452588
            ]
        },
        {
            "positions": [
                -3.0563546842804716,
                -0.9546994013787208,
                1.2247007434923851,
                -1.291802858135896,
                0.6496352437683419,
                -0.7317814434063137
            ]
        },
        {
            "positions": [
                -3.063718289818356,
                -0.9530858707084052,
                1.1806928089689404,
                -1.336159948898827,
                0.558405410345892,
                -0.5357587499673682
            ]
        },
        {
            "positions": [
                -3.0710818953562407,
                -0.9514723400380898,
                1.1366848744454958,
                -1.3805170396617577,
                0.467175576923442,
                -0.3397360565284231
            ]
        },
        {
            "positions": [
                -3.078445500894125,
                -0.9498588093677742,
                1.0926769399220513,
                -1.4248741304246884,
                0.3759457435009921,
                -0.14371336308947802
            ]
        },
        {
            "positions": [
                -3.0858091064320097,
                -0.9482452786974587,
                1.0486690053986067,
                -1.469231221187619,
                0.28471591007854236,
                0.052309330349467054
            ]
        },
        {
            "positions": [
                -3.093172711969894,
                -0.9466317480271432,
                1.004661070875162,
                -1.5135883119505498,
                0.1934860766560924,
                0.24833202378841257
            ]
        },
        {
            "positions": [
                -3.1005363175077787,
                -0.9450182173568277,
                0.9606531363517172,
                -1.5579454027134805,
                0.10225624323364224,
                0.4443547172273581
            ]
        },
        {
            "positions": [
                -3.107899923045663,
                -0.9434046866865122,
                0.9166452018282726,
                -1.6023024934764112,
                0.011026409811192295,
                0.6403774106663036
            ]
        },
        {
            "positions": [
                -3.1152635285835477,
                -0.9417911560161967,
                0.872637267304828,
                -1.6466595842393421,
                -0.08020342361125743,
                0.8364001041052487
            ]
        },
        {
            "positions": [
                -3.122627134121432,
                -0.9401776253458812,
                0.8286293327813834,
                -1.6910166750022728,
                -0.17143325703370738,
                1.0324227975441937
            ]
        },
        {
            "positions": [
                -3.1299907396593163,
                -0.9385640946755657,
                0.7846213982579388,
                -1.7353737657652035,
                -0.2626630904561571,
                1.2284454909831393
            ]
        },
        {
            "positions": [
                -3.137354345197201,
                -0.9369505640052502,
                0.7406134637344941,
                -1.7797308565281345,
                -0.35389292387860705,
                1.424468184422084
            ]
        },
        {
            "positions": [
                -3.1447179507350853,
                -0.9353370333349347,
                0.6966055292110496,
                -1.8240879472910652,
                -0.445122757301057,
                1.6204908778610294
            ]
        },
        {
            "positions": [
                -3.15208155627297,
                -0.9337235026646192,
                0.6525975946876048,
                -1.8684450380539959,
                -0.5363525907235069,
                1.816513571299975
            ]
        },
        {
            "positions": [
                -3.1594451618108543,
                -0.9321099719943037,
                0.6085896601641603,
                -1.9128021288169266,
                -0.6275824241459569,
                2.0125362647389204
            ]
        },
        {
            "positions": [
                -3.166808767348739,
                -0.9304964413239882,
                0.5645817256407155,
                -1.9571592195798573,
                -0.7188122575684068,
                2.208558958177865
            ]
        },
        {
            "positions": [
                -3.1741723728866234,
                -0.9288829106536727,
                0.520573791117271,
                -2.001516310342788,
                -0.8100420909908568,
                2.40458165161681
            ]
        },
        {
            "positions": [
                -3.1556590940550713,
                -0.9178905915134907,
                0.530279402712796,
                -1.9256784296165086,
                -0.7602753011107228,
                2.183679666411127
            ]
        },
        {
            "positions": [
                -3.1371458152235197,
                -0.9068982723733088,
                0.5399850143083211,
                -1.849840548890229,
                -0.7105085112305888,
                1.9627776812054438
            ]
        },
        {
            "positions": [
                -3.1186325363919676,
                -0.8959059532331268,
                0.5496906259038462,
                -1.7740026681639496,
                -0.6607417213504547,
                1.7418756959997608
            ]
        },
        {
            "positions": [
                -3.100119257560416,
                -0.8849136340929449,
                0.5593962374993713,
                -1.6981647874376702,
                -0.6109749314703208,
                1.5209737107940775
            ]
        },
        {
            "positions": [
                -3.081605978728864,
                -0.8739213149527629,
                0.5691018490948964,
                -1.6223269067113906,
                -0.5612081415901868,
                1.3000717255883942
            ]
        },
        {
            "positions": [
                -3.0630926998973123,
                -0.862928995812581,
                0.5788074606904214,
                -1.5464890259851112,
                -0.5114413517100528,
                1.0791697403827112
            ]
        },
        {
            "positions": [
                -3.04457942106576,
                -0.851936676672399,
                0.5885130722859465,
                -1.4706511452588318,
                -0.4616745618299188,
                0.8582677551770277
            ]
        },
        {
            "positions": [
                -3.0260661422342086,
                -0.8409443575322171,
                0.5982186838814716,
                -1.3948132645325524,
                -0.4119077719497848,
                0.6373657699713446
            ]
        },
        {
            "positions": [
                -3.0075528634026565,
                -0.8299520383920351,
                0.6079242954769967,
                -1.3189753838062728,
                -0.36214098206965084,
                0.4164637847656616
            ]
        },
        {
            "positions": [
                -2.989039584571105,
                -0.8189597192518532,
                0.6176299070725217,
                -1.2431375030799932,
                -0.3123741921895168,
                0.19556179955997832
            ]
        },
        {
            "positions": [
                -2.970526305739553,
                -0.8079674001116712,
                0.6273355186680469,
                -1.1672996223537138,
                -0.26260740230938284,
                -0.02534018564570495
            ]
        },
        {
            "positions": [
                -2.952013026908001,
                -0.7969750809714893,
                0.6370411302635719,
                -1.0914617416274344,
                -0.2128406124292488,
                -0.24624217085138778
            ]
        },
        {
            "positions": [
                -2.933499748076449,
                -0.7859827618313073,
                0.6467467418590971,
                -1.015623860901155,
                -0.16307382254911484,
                -0.4671441560570715
            ]
        },
        {
            "positions": [
                -2.9149864692448975,
                -0.7749904426911254,
                0.6564523534546222,
                -0.9397859801748754,
                -0.11330703266898079,
                -0.6880461412627548
            ]
        },
        {
            "positions": [
                -2.8964731904133454,
                -0.7639981235509434,
                0.6661579650501472,
                -0.863948099448596,
                -0.06354024278884685,
                -0.9089481264684376
            ]
        },
        {
            "positions": [
                -2.8779599115817938,
                -0.7530058044107615,
                0.6758635766456723,
                -0.7881102187223166,
                -0.013773452908712791,
                -1.1298501116741209
            ]
        },
        {
            "positions": [
                -2.8594466327502417,
                -0.7420134852705795,
                0.6855691882411974,
                -0.712272337996037,
                0.035993336971421264,
                -1.3507520968798041
            ]
        },
        {
            "positions": [
                -2.84093335391869,
                -0.7310211661303976,
                0.6952747998367225,
                -0.6364344572697576,
                0.0857601268515551,
                -1.571654082085487
            ]
        },
        {
            "positions": [
                -2.822420075087138,
                -0.7200288469902156,
                0.7049804114322475,
                -0.5605965765434782,
                0.13552691673168915,
                -1.7925560672911707
            ]
        },
        {
            "positions": [
                -2.8039067962555864,
                -0.7090365278500337,
                0.7146860230277726,
                -0.48475869581719855,
                0.1852937066118232,
                -2.0134580524968535
            ]
        },
        {
            "positions": [
                -2.7853935174240343,
                -0.6980442087098517,
                0.7243916346232977,
                -0.4089208150909194,
                0.23506049649195715,
                -2.2343600377025363
            ]
        },
        {
            "positions": [
                -2.7668802385924822,
                -0.6870518895696698,
                0.7340972462188228,
                -0.33308293436463976,
                0.2848272863720911,
                -2.45526202290822
            ]
        },
        {
            "positions": [
                -2.7483669597609306,
                -0.6760595704294878,
                0.7438028578143479,
                -0.25724505363836014,
                0.33459407625222526,
                -2.676164008113903
            ]
        },
        {
            "positions": [
                -2.729853680929379,
                -0.6650672512893059,
                0.7535084694098729,
                -0.18140717291208097,
                0.3843608661323592,
                -2.8970659933195857
            ]
        },
        {
            "positions": [
                -2.711340402097827,
                -0.6540749321491239,
                0.763214081005398,
                -0.10556929218580142,
                0.43412765601249315,
                -3.1179679785252694
            ]
        }
    ]
}