{
    "goal": {
        "global_pose": {
            "orientation": {
                "w": 0.5084816262002911,
                "x": -0.4908360881923452,
                "y": 0.5182115481033761,
                "z": -0.48164630358495003
            },
            "position": {
                "x": 0.5540239810943604,
                "y": -0.46912469901144505,
                "z": 0.16403168439865112
            }
        },
        "name": "move_to_storage_B"
    },
    "id": "BKPIECE_move_to_storage_B_91",
    "joint_names": [
        "shoulder_pan_joint",
        "shoulder_lift_joint",
        "elbow_joint",
        "wrist_1_joint",
        "wrist_2_joint",
        "wrist_3_joint"
    ],
    "metrics": {
        "cart_traj_len": 2.8495171095444434,
        "distance_elbow_joint": 2.271665451459673,
        "distance_shoulder_lift_joint": 0.702743683092786,
        "distance_shoulder_pan_joint": 2.841234644539357,
        "distance_wrist_1_joint": 2.981802981341785,
        "distance_wrist_2_joint": 2.7019481383073667,
        "distance_wrist_3_joint": 3.475412550374451,
        "smoothness": 0.28834575465401224,
        "time": 0.280602831,
        "traj_len": 3.8697296351444774,
        "weighted_distance": 5.254463214212605
    },
    "planner": "BKPIECE",
    "start": {
        "state": {
            "elbow_joint": 1.664937868594044,
            "shoulder_lift_joint": -0.661644460510453,
            "shoulder_pan_joint": -0.9139846352900073,
            "wrist_1_joint": 2.146753192139373,
            "wrist_2_joint": -2.2341966793290973,
            "wrist_3_joint": 0.005466555786416001
        }
    },
    "waypoints": [
        {
            "positions": [
                -0.9139846352900073,
                -0.661644460510453,
                1.664937868594044,
                2.146753192139373,
                -2.2341966793290973,
                0.005466555786416001
            ]
        },
        {
            "positions": [
                -0.8190119671262259,
                -0.7031040317754446,
                1.5962448632112425,
                2.0424278876009683,
                -2.1771526671383494,
                -0.006635725919590209
            ]
        },
        {
            "positions": [
                -0.7240392989624446,
                -0.7445636030404361,
                1.5275518578284408,
                1.9381025830625636,
                -2.1201086549476016,
                -0.01873800762559642
            ]
        },
        {
            "positions": [
                -0.6290666307986632,
                -0.7860231743054278,
                1.4588588524456392,
                1.8337772785241586,
                -2.0630646427568538,
                -0.030840289331602627
            ]
        },
        {
            "positions": [
                -0.5340939626348817,
                -0.8274827455704193,
                1.3901658470628377,
                1.729451973985754,
                -2.006020630566106,
                -0.04294257103760884
            ]
        },
        {
            "positions": [
                -0.4391212944711004,
                -0.8689423168354109,
                1.3214728416800363,
                1.625126669447349,
                -1.948976618375358,
                -0.05504485274361505
            ]
        },
        {
            "positions": [
                -0.344148626307319,
                -0.9104018881004026,
                1.2527798362972347,
                1.520801364908944,
                -1.8919326061846102,
                -0.06714713444962125
            ]
        },
        {
            "positions": [
                -0.24917595814353766,
                -0.9518614593653941,
                1.184086830914433,
                1.4164760603705393,
                -1.8348885939938624,
                -0.07924941615562747
            ]
        },
        {
            "positions": [
                -0.1542032899797563,
                -0.9933210306303857,
                1.1153938255316316,
                1.3121507558321346,
                -1.7778445818031148,
                -0.09135169786163368
            ]
        },
        {
            "positions": [
                -0.05923062181597483,
                -1.0347806018953773,
                1.0467008201488301,
                1.2078254512937296,
                -1.7208005696123667,
                -0.1034539795676399
            ]
        },
        {
            "positions": [
                0.03574204634780653,
                -1.076240173160369,
                0.9780078147660285,
                1.1035001467553247,
                -1.6637565574216189,
                -0.1155562612736461
            ]
        },
        {
            "positions": [
                0.13071471451158778,
                -1.1176997444253605,
                0.909314809383227,
                0.99917484221692,
                -1.6067125452308713,
                -0.12765854297965232
            ]
        },
        {
            "positions": [
                0.22568738267536925,
                -1.159159315690352,
                0.8406218040004254,
                0.894849537678515,
                -1.5496685330401234,
                -0.1397608246856585
            ]
        },
        {
            "positions": [
                0.3206600508391507,
                -1.2006188869553438,
                0.7719287986176239,
                0.7905242331401101,
                -1.4926245208493756,
                -0.15186310639166473
            ]
        },
        {
            "positions": [
                0.4156327190029319,
                -1.2420784582203352,
                0.7032357932348223,
                0.6861989286017055,
                -1.4355805086586277,
                -0.16396538809767094
            ]
        },
        {
            "positions": [
                0.35516802739307524,
                -1.237186070805019,
                0.7556343282788404,
                0.6253489798895409,
                -1.359447229953152,
                -0.031726163838056404
            ]
        },
        {
            "positions": [
                0.2947033357832185,
                -1.232293683389703,
                0.8080328633228584,
                0.5644990311773762,
                -1.2833139512476759,
                0.10051306042155814
            ]
        },
        {
            "positions": [
                0.23423864417336182,
                -1.2274012959743867,
                0.8604313983668763,
                0.5036490824652116,
                -1.2071806725422,
                0.23275228468117268
            ]
        },
        {
            "positions": [
                0.1737739525635051,
                -1.2225089085590706,
                0.9128299334108944,
                0.44279913375304686,
                -1.1310473938367243,
                0.36499150894078725
            ]
        },
        {
            "positions": [
                0.1133092609536484,
                -1.2176165211437544,
                0.9652284684549124,
                0.38194918504088216,
                -1.0549141151312482,
                0.4972307332004019
            ]
        },
        {
            "positions": [
                0.052844569343791725,
                -1.2127241337284382,
                1.0176270034989303,
                0.32109923632871756,
                -0.9787808364257724,
                0.6294699574600163
            ]
        },
        {
            "positions": [
                -0.007620122266065066,
                -1.2078317463131223,
                1.0700255385429485,
                0.26024928761655286,
                -0.9026475577202965,
                0.761709181719631
            ]
        },
        {
            "positions": [
                -0.06808481387592169,
                -1.2029393588978061,
                1.1224240735869664,
                0.1993993389043882,
                -0.8265142790148206,
                0.8939484059792454
            ]
        },
        {
            "positions": [
                -0.12854950548577843,
                -1.19804697148249,
                1.1748226086309845,
                0.13854939019222356,
                -0.7503810003093447,
                1.0261876302388597
            ]
        },
        {
            "positions": [
                -0.1890141970956351,
                -1.1931545840671738,
                1.2272211436750025,
                0.0776994414800588,
                -0.6742477216038687,
                1.1584268544984746
            ]
        },
        {
            "positions": [
                -0.24947888870549179,
                -1.1882621966518576,
                1.2796196787190204,
                0.01684949276789427,
                -0.5981144428983929,
                1.290666078758089
            ]
        },
        {
            "positions": [
                -0.30994358031534847,
                -1.1833698092365414,
                1.3320182137630385,
                -0.04400045594427038,
                -0.5219811641929171,
                1.4229053030177035
            ]
        },
        {
            "positions": [
                -0.37040827192520526,
                -1.1784774218212253,
                1.3844167488070567,
                -0.10485040465643514,
                -0.44584788548744103,
                1.5551445272773181
            ]
        },
        {
            "positions": [
                -0.43087296353506205,
                -1.1735850344059091,
                1.4368152838510746,
                -0.16570035336859978,
                -0.3697146067819652,
                1.6873837515369328
            ]
        },
        {
            "positions": [
                -0.4913376551449186,
                -1.168692646990593,
                1.4892138188950925,
                -0.22655030208076432,
                -0.2935813280764894,
                1.819622975796547
            ]
        },
        {
            "positions": [
                -0.5518023467547752,
                -1.1638002595752768,
                1.5416123539391107,
                -0.2874002507929291,
                -0.21744804937101336,
                1.9518622000561616
            ]
        },
        {
            "positions": [
                -0.6122670383646323,
                -1.1589078721599606,
                1.5940108889831286,
                -0.34825019950509384,
                -0.14131477066553733,
                2.0841014243157763
            ]
        },
        {
            "positions": [
                -0.6727317299744888,
                -1.1540154847446444,
                1.6464094240271465,
                -0.4091001482172584,
                -0.06518149196006173,
                2.2163406485753905
            ]
        },
        {
            "positions": [
                -0.7331964215843454,
                -1.1491230973293285,
                1.6988079590711647,
                -0.46995009692942313,
                0.010951786745414305,
                2.3485798728350056
            ]
        },
        {
            "positions": [
                -0.7936611131942022,
                -1.1442307099140123,
                1.7512064941151826,
                -0.5308000456415879,
                0.08708506545089034,
                2.4808190970946202
            ]
        },
        {
            "positions": [
                -0.8541258048040588,
                -1.1393383224986962,
                1.8036050291592005,
                -0.5916499943537524,
                0.16321834415636594,
                2.6130583213542344
            ]
        },
        {
            "positions": [
                -0.9145904964139155,
                -1.13444593508338,
                1.8560035642032187,
                -0.652499943065917,
                0.23935162286184197,
                2.745297545613849
            ]
        },
        {
            "positions": [
                -0.9750551880237723,
                -1.1295535476680638,
                1.9084020992472366,
                -0.7133498917780817,
                0.315484901567318,
                2.8775367698734637
            ]
        },
        {
            "positions": [
                -1.035519879633629,
                -1.1246611602527476,
                1.9608006342912545,
                -0.7741998404902463,
                0.3916181802727936,
                3.009775994133078
            ]
        },
        {
            "positions": [
                -1.0959845712434857,
                -1.1197687728374315,
                2.0131991693352727,
                -0.8350497892024109,
                0.46775145897826953,
                3.1420152183926926
            ]
        }
    ]
}