{
    "goal": {
        "global_pose": {
            "orientation": {
                "w": -0.4816463035849501,
                "x": 0.5182115481033762,
                "y": 0.4908360881923453,
                "z": -0.5084816262002911
            },
            "position": {
                "x": -0.8240239810943604,
                "y": 0.19912469901144506,
                "z": 0.16403168439865112
            }
        },
        "name": "move_to_storage_D"
    },
    "id": "BKPIECE_move_to_storage_D_119",
    "joint_names": [
        "shoulder_pan_joint",
        "shoulder_lift_joint",
        "elbow_joint",
        "wrist_1_joint",
        "wrist_2_joint",
        "wrist_3_joint"
    ],
    "metrics": {
        "cart_traj_len": 3.7983185970566753,
        "distance_elbow_joint": 4.210118643558546,
        "distance_shoulder_lift_joint": 1.2633313764787306,
        "distance_shoulder_pan_joint": 2.814570096866197,
        "distance_wrist_1_joint": 2.2625074679242885,
        "distance_wrist_2_joint": 0.8864521478278795,
        "distance_wrist_3_joint": 3.131694163517179,
        "smoothness": 0.006761078847312512,
        "time": 0.24578223,
        "traj_len": 3.8168932256709547,
        "weighted_distance": 4.897042152050495
    },
    "planner": "BKPIECE",
    "start": {
        "state": {
            "elbow_joint": -2.384821988534728,
            "shoulder_lift_joint": -2.2788054721415256,
            "shoulder_pan_joint": -0.1854694642142757,
            "wrist_1_joint": 1.4845938289331202,
            "wrist_2_joint": 0.17898776772866878,
            "wrist_3_joint": 0.037105688729662994
        }
    },
    "waypoints": [
        {
            "positions": [
                -0.1854694642142757,
                -2.2788054721415256,
                -2.384821988534728,
                1.4845938289331202,
                0.17898776772866878,
                0.037105688729662994
            ]
        },
        {
            "positions": [
                -0.15431538139157086,
                -2.2661922141667183,
                -2.38288549853086,
                1.4340653831822028,
                0.17767824037585694,
                0.03450472145946649
            ]
        },
        {
            "positions": [
                -0.07520971056654928,
                -2.2315981064071226,
                -2.2641329923037725,
                1.3613065249018406,
                0.1845017878288275,
                -0.04353844137144295
            ]
        },
        {
            "positions": [
                0.003895960258472303,
                -2.1970039986475265,
                -2.145380486076685,
                1.2885476666214783,
                0.19132533528179807,
                -0.1215816042023524
            ]
        },
        {
            "positions": [
                0.0830016310834939,
                -2.162409890887931,
                -2.026627979849597,
                1.215788808341116,
                0.19814888273476863,
                -0.19962476703326182
            ]
        },
        {
            "positions": [
                0.16210730190851547,
                -2.1278157831283346,
                -1.9078754736225094,
                1.1430299500607537,
                0.2049724301877392,
                -0.27766792986417127
            ]
        },
        {
            "positions": [
                0.24121297273353703,
                -2.093221675368739,
                -1.7891229673954219,
                1.0702710917803915,
                0.21179597764070973,
                -0.35571109269508067
            ]
        },
        {
            "positions": [
                0.32031864355855866,
                -2.0586275676091432,
                -1.6703704611683339,
                0.9975122335000293,
                0.2186195250936803,
                -0.4337542555259901
            ]
        },
        {
            "positions": [
                0.3994243143835803,
                -2.024033459849547,
                -1.5516179549412463,
                0.9247533752196669,
                0.22544307254665086,
                -0.5117974183568995
            ]
        },
        {
            "positions": [
                0.4785299852086018,
                -1.9894393520899514,
                -1.4328654487141588,
                0.8519945169393047,
                0.23226661999962142,
                -0.589840581187809
            ]
        },
        {
            "positions": [
                0.5576356560336234,
                -1.9548452443303554,
                -1.314112942487071,
                0.7792356586589425,
                0.23909016745259198,
                -0.6678837440187184
            ]
        },
        {
            "positions": [
                0.6367413268586449,
                -1.9202511365707595,
                -1.1953604362599834,
                0.7064768003785802,
                0.24591371490556252,
                -0.7459269068496278
            ]
        },
        {
            "positions": [
                0.7158469976836666,
                -1.8856570288111636,
                -1.076607930032896,
                0.633717942098218,
                0.2527372623585331,
                -0.8239700696805372
            ]
        },
        {
            "positions": [
                0.7949526685086882,
                -1.8510629210515677,
                -0.9578554238058079,
                0.5609590838178556,
                0.25956080981150365,
                -0.9020132325114467
            ]
        },
        {
            "positions": [
                0.8740583393337097,
                -1.816468813291972,
                -0.8391029175787204,
                0.4882002255374934,
                0.26638435726447424,
                -0.9800563953423562
            ]
        },
        {
            "positions": [
                0.9531640101587314,
                -1.781874705532376,
                -0.7203504113516326,
                0.4154413672571311,
                0.27320790471744477,
                -1.0580995581732655
            ]
        },
        {
            "positions": [
                1.0322696809837528,
                -1.74728059777278,
                -0.601597905124545,
                0.3426825089767689,
                0.28003145217041536,
                -1.136142721004175
            ]
        },
        {
            "positions": [
                1.1113753518087743,
                -1.7126864900131842,
                -0.4828453988974575,
                0.26992365069640667,
                0.2868549996233859,
                -1.2141858838350845
            ]
        },
        {
            "positions": [
                1.1904810226337963,
                -1.6780923822535883,
                -0.3640928926703699,
                0.19716479241604445,
                0.29367854707635643,
                -1.2922290466659938
            ]
        },
        {
            "positions": [
                1.2695866934588178,
                -1.6434982744939926,
                -0.24534038644328193,
                0.12440593413568224,
                0.300502094529327,
                -1.3702722094969033
            ]
        },
        {
            "positions": [
                1.3486923642838393,
                -1.6089041667343966,
                -0.12658788021619438,
                0.0516470758553198,
                0.30732564198229756,
                -1.4483153723278126
            ]
        },
        {
            "positions": [
                1.4277980351088608,
                -1.5743100589748007,
                -0.00783537398910683,
                -0.021111782425042414,
                0.31414918943526815,
                -1.526358535158722
            ]
        },
        {
            "positions": [
                1.5069037059338823,
                -1.539715951215205,
                0.11091713223798072,
                -0.09387064070540463,
                0.3209727368882387,
                -1.6044016979896316
            ]
        },
        {
            "positions": [
                1.5860093767589039,
                -1.5051218434556088,
                0.22966963846506827,
                -0.16662949898576684,
                0.3277962843412092,
                -1.682444860820541
            ]
        },
        {
            "positions": [
                1.6651150475839258,
                -1.4705277356960131,
                0.3484221446921567,
                -0.23938835726612928,
                0.3346198317941798,
                -1.7604880236514506
            ]
        },
        {
            "positions": [
                1.7442207184089473,
                -1.435933627936417,
                0.46717465091924426,
                -0.3121472155464915,
                0.3414433792471504,
                -1.83853118648236
            ]
        },
        {
            "positions": [
                1.8233263892339688,
                -1.4013395201768213,
                0.5859271571463318,
                -0.3849060738268537,
                0.34826692670012094,
                -1.9165743493132694
            ]
        },
        {
            "positions": [
                1.9024320600589903,
                -1.3667454124172254,
                0.7046796633734194,
                -0.4576649321072159,
                0.3550904741530915,
                -1.994617512144179
            ]
        },
        {
            "positions": [
                1.9815377308840123,
                -1.3321513046576294,
                0.8234321696005069,
                -0.5304237903875784,
                0.36191402160606206,
                -2.072660674975088
            ]
        },
        {
            "positions": [
                2.060643401709034,
                -1.2975571968980337,
                0.9421846758275949,
                -0.6031826486679406,
                0.3687375690590326,
                -2.1507038378059975
            ]
        },
        {
            "positions": [
                2.1397490725340553,
                -1.2629630891384378,
                1.0609371820546825,
                -0.6759415069483028,
                0.3755611165120032,
                -2.2287470006369072
            ]
        },
        {
            "positions": [
                2.218854743359077,
                -1.2283689813788419,
                1.17968968828177,
                -0.748700365228665,
                0.3823846639649737,
                -2.3067901634678165
            ]
        },
        {
            "positions": [
                2.2774612989723404,
                -1.1979554262765495,
                1.2719192549592053,
                -0.7528736900518798,
                0.479589834948681,
                -2.419332779370631
            ]
        },
        {
            "positions": [
                2.336067854585604,
                -1.1675418711742571,
                1.3641488216366409,
                -0.7570470148750945,
                0.5767950059323883,
                -2.531875395273445
            ]
        },
        {
            "positions": [
                2.3946744101988675,
                -1.1371283160719647,
                1.4563783883140762,
                -0.7612203396983093,
                0.6740001769160955,
                -2.6444180111762594
            ]
        },
        {
            "positions": [
                2.4532809658121306,
                -1.1067147609696721,
                1.5486079549915117,
                -0.7653936645215239,
                0.7712053478998028,
                -2.7569606270790734
            ]
        },
        {
            "positions": [
                2.511887521425394,
                -1.0763012058673798,
                1.640837521668947,
                -0.7695669893447387,
                0.8684105188835101,
                -2.869503242981888
            ]
        },
        {
            "positions": [
                2.5704940770386577,
                -1.0458876507650874,
                1.7330670883463823,
                -0.7737403141679534,
                0.9656156898672174,
                -2.982045858884702
            ]
        },
        {
            "positions": [
                2.6291006326519213,
                -1.015474095662795,
                1.8252966550238179,
                -0.7779136389911682,
                1.0628208608509246,
                -3.0945884747875163
            ]
        }
    ]
}