{
    "goal": {
        "global_pose": {
            "orientation": {
                "w": 0.7047431493862688,
                "x": -0.7094548369677653,
                "y": 0.0024358444001904,
                "z": -0.0022348060817251984
            },
            "position": {
                "x": -0.39052492380142206,
                "y": 0.3671506643295288,
                "z": 0.19426114857196808
            }
        },
        "name": "move_to_magneteinheit_D"
    },
    "id": "BKPIECE_move_to_magneteinheit_D_39",
    "joint_names": [
        "shoulder_pan_joint",
        "shoulder_lift_joint",
        "elbow_joint",
        "wrist_1_joint",
        "wrist_2_joint",
        "wrist_3_joint"
    ],
    "metrics": {
        "cart_traj_len": 4.2676161820031835,
        "distance_elbow_joint": 3.172871302296087,
        "distance_shoulder_lift_joint": 1.0970594529586533,
        "distance_shoulder_pan_joint": 3.4892350458023076,
        "distance_wrist_1_joint": 2.7796374339852417,
        "distance_wrist_2_joint": 0.8687554579645032,
        "distance_wrist_3_joint": 2.8515161082352942,
        "smoothness": 0.4677639193305401,
        "time": 0.30186802,
        "traj_len": 3.7761190131194335,
        "weighted_distance": 4.859063686520525
    },
    "planner": "BKPIECE",
    "start": {
        "state": {
            "elbow_joint": 0.749534889911806,
            "shoulder_lift_joint": -0.6476975780787326,
            "shoulder_pan_joint": -2.711696901376241,
            "wrist_1_joint": -0.07506478083263063,
            "wrist_2_joint": 0.43296659715538205,
            "wrist_3_joint": -3.14703540197715
        }
    },
    "waypoints": [
        {
            "positions": [
                -2.711696901376241,
                -0.6476975780787326,
                0.749534889911806,
                -0.07506478083263063,
                0.43296659715538205,
                -3.14703540197715
            ]
        },
        {
            "positions": [
                -2.770424627258721,
                -0.7431452327695455,
                0.7211332689123824,
                0.040585356310520584,
                0.4767243765623737,
                -3.103090777169573
            ]
        },
        {
            "positions": [
                -2.829152353141201,
                -0.8385928874603583,
                0.6927316479129588,
                0.1562354934536718,
                0.5204821559693654,
                -3.0591461523619956
            ]
        },
        {
            "positions": [
                -2.887880079023681,
                -0.9340405421511712,
                0.6643300269135353,
                0.271885630596823,
                0.5642399353763571,
                -3.0152015275544186
            ]
        },
        {
            "positions": [
                -2.75710646808159,
                -0.9581771431819696,
                0.538464962927067,
                0.23585004696936435,
                0.5438859923820825,
                -2.9589079458757834
            ]
        },
        {
            "positions": [
                -2.6263328571394995,
                -0.982313744212768,
                0.41259989894059873,
                0.1998144633419057,
                0.5235320493878078,
                -2.9026143641971487
            ]
        },
        {
            "positions": [
                -2.4955592461974088,
                -1.0064503452435662,
                0.2867348349541305,
                0.16377887971444705,
                0.5031781063935332,
                -2.8463207825185135
            ]
        },
        {
            "positions": [
                -2.364785635255318,
                -1.0305869462743646,
                0.1608697709676622,
                0.12774329608698837,
                0.4828241633992586,
                -2.7900272008398783
            ]
        },
        {
            "positions": [
                -2.2340120243132273,
                -1.054723547305163,
                0.035004706981193956,
                0.09170771245952969,
                0.46247022040498403,
                -2.7337336191612436
            ]
        },
        {
            "positions": [
                -2.1032384133711366,
                -1.0788601483359614,
                -0.09086035700527428,
                0.05567212883207104,
                0.4421162774107094,
                -2.6774400374826084
            ]
        },
        {
            "positions": [
                -1.9724648024290456,
                -1.1029967493667598,
                -0.21672542099174263,
                0.019636545204612332,
                0.4217623344164348,
                -2.6211464558039737
            ]
        },
        {
            "positions": [
                -1.841691191486955,
                -1.1271333503975582,
                -0.3425904849782109,
                -0.01639903842284629,
                0.40140839142216017,
                -2.5648528741253385
            ]
        },
        {
            "positions": [
                -1.7109175805448642,
                -1.1512699514283566,
                -0.4684555489646791,
                -0.05243462205030497,
                0.38105444842788555,
                -2.5085592924467033
            ]
        },
        {
            "positions": [
                -1.5801439696027735,
                -1.175406552459155,
                -0.5943206129511474,
                -0.08847020567776365,
                0.360700505433611,
                -2.4522657107680685
            ]
        },
        {
            "positions": [
                -1.4493703586606828,
                -1.1995431534899534,
                -0.7201856769376156,
                -0.12450578930522233,
                0.34034656243933636,
                -2.3959721290894334
            ]
        },
        {
            "positions": [
                -1.318596747718592,
                -1.2236797545207518,
                -0.8460507409240838,
                -0.16054137293268095,
                0.31999261944506174,
                -2.3396785474107986
            ]
        },
        {
            "positions": [
                -1.1878231367765013,
                -1.2478163555515502,
                -0.9719158049105521,
                -0.19657695656013963,
                0.2996386764507871,
                -2.2833849657321634
            ]
        },
        {
            "positions": [
                -1.0570495258344104,
                -1.2719529565823486,
                -1.0977808688970205,
                -0.23261254018759836,
                0.2792847334565125,
                -2.2270913840535282
            ]
        },
        {
            "positions": [
                -0.9262759148923199,
                -1.296089557613147,
                -1.2236459328834886,
                -0.268648123815057,
                0.2589307904622379,
                -2.170797802374893
            ]
        },
        {
            "positions": [
                -0.7955023039502289,
                -1.3202261586439454,
                -1.349510996869957,
                -0.3046837074425156,
                0.23857684746796326,
                -2.1145042206962583
            ]
        },
        {
            "positions": [
                -0.6647286930081386,
                -1.3443627596747438,
                -1.4753760608564248,
                -0.34071929106997423,
                0.2182229044736887,
                -2.0582106390176236
            ]
        },
        {
            "positions": [
                -0.5339550820660475,
                -1.3684993607055422,
                -1.6012411248428935,
                -0.37675487469743296,
                0.19786896147941402,
                -2.0019170573389884
            ]
        },
        {
            "positions": [
                -0.40318147112395675,
                -1.3926359617363406,
                -1.7271061888293617,
                -0.4127904583248916,
                0.1775150184851394,
                -1.9456234756603532
            ]
        },
        {
            "positions": [
                -0.272407860181866,
                -1.416772562767139,
                -1.85297125281583,
                -0.4488260419523503,
                0.15716107549086483,
                -1.8893298939817182
            ]
        },
        {
            "positions": [
                -0.1416342492397753,
                -1.4409091637979374,
                -1.9788363168022982,
                -0.48486162557980894,
                0.1368071324965902,
                -1.8330363123030833
            ]
        },
        {
            "positions": [
                -0.010860638297684577,
                -1.4650457648287358,
                -2.1047013807887662,
                -0.5208972092072677,
                0.11645318950231559,
                -1.776742730624448
            ]
        },
        {
            "positions": [
                0.11991297264440626,
                -1.4891823658595342,
                -2.230566444775235,
                -0.5569327928347263,
                0.09609924650804098,
                -1.7204491489458131
            ]
        },
        {
            "positions": [
                0.09295636092327045,
                -1.5086153325864697,
                -2.2715827914536675,
                -0.6764167845062806,
                0.07972805365604063,
                -1.849498351560479
            ]
        },
        {
            "positions": [
                0.06599974920213465,
                -1.528048299313405,
                -2.3125991381321,
                -0.795900776177835,
                0.06335686080404027,
                -1.9785475541751447
            ]
        },
        {
            "positions": [
                0.03904313748099886,
                -1.5474812660403403,
                -2.353615484810533,
                -0.9153847678493893,
                0.04698566795203991,
                -2.107596756789811
            ]
        },
        {
            "positions": [
                0.012086525759863048,
                -1.5669142327672758,
                -2.3946318314889656,
                -1.0348687595209436,
                0.030614475100039548,
                -2.2366459594044765
            ]
        },
        {
            "positions": [
                -0.01611809846902808,
                -1.5923203468058629,
                -2.3905311770753492,
                -1.195716278440661,
                0.0014920951761522895,
                -2.3664649657966614
            ]
        },
        {
            "positions": [
                -0.04432272269791921,
                -1.6177264608444502,
                -2.386430522661733,
                -1.3565637973603786,
                -0.02763028474773497,
                -2.4962839721888463
            ]
        },
        {
            "positions": [
                -0.07252734692681034,
                -1.6431325748830372,
                -2.3823298682481164,
                -1.517411316280096,
                -0.056752664671622224,
                -2.626102978581031
            ]
        },
        {
            "positions": [
                -0.10073197115570147,
                -1.6685386889216245,
                -2.3782292138344996,
                -1.6782588351998133,
                -0.08587504459550949,
                -2.7559219849732157
            ]
        },
        {
            "positions": [
                -0.12893659538459262,
                -1.6939448029602115,
                -2.374128559420883,
                -1.839106354119531,
                -0.11499742451939675,
                -2.8857409913654006
            ]
        },
        {
            "positions": [
                -0.15714121961348373,
                -1.7193509169987986,
                -2.370027905007267,
                -1.9999538730392485,
                -0.14411980444328398,
                -3.0155599977575855
            ]
        },
        {
            "positions": [
                -0.18534584384237487,
                -1.7447570310373859,
                -2.3659272505936504,
                -2.160801391958966,
                -0.17324218436717126,
                -3.1453790041497705
            ]
        }
    ]
}