{
    "goal": {
        "global_pose": {
            "orientation": {
                "w": -0.4816463035849501,
                "x": 0.5182115481033762,
                "y": 0.4908360881923453,
                "z": -0.5084816262002911
            },
            "position": {
                "x": -0.8240239810943604,
                "y": 0.19912469901144506,
                "z": 0.16403168439865112
            }
        },
        "name": "move_to_storage_D"
    },
    "id": "BKPIECE_move_to_storage_D_110",
    "joint_names": [
        "shoulder_pan_joint",
        "shoulder_lift_joint",
        "elbow_joint",
        "wrist_1_joint",
        "wrist_2_joint",
        "wrist_3_joint"
    ],
    "metrics": {
        "cart_traj_len": 4.162955019145002,
        "distance_elbow_joint": 5.168009706144793,
        "distance_shoulder_lift_joint": 1.2647396968384452,
        "distance_shoulder_pan_joint": 2.8130662043520887,
        "distance_wrist_1_joint": 2.2638063755142066,
        "distance_wrist_2_joint": 1.1757784090625398,
        "distance_wrist_3_joint": 3.131350838188126,
        "smoothness": 0.23443961613936773,
        "time": 0.174797582,
        "traj_len": 3.9770279393160166,
        "weighted_distance": 5.051637129788046
    },
    "planner": "BKPIECE",
    "start": {
        "state": {
            "elbow_joint": -2.384821988534728,
            "shoulder_lift_joint": -2.2788054721415256,
            "shoulder_pan_joint": -0.1854694642142757,
            "wrist_1_joint": 1.4845938289331202,
            "wrist_2_joint": 0.17898776772866878,
            "wrist_3_joint": 0.037105688729662994
        }
    },
    "waypoints": [
        {
            "positions": [
                -0.1854694642142757,
                -2.2788054721415256,
                -2.384821988534728,
                1.4845938289331202,
                0.17898776772866878,
                0.037105688729662994
            ]
        },
        {
            "positions": [
                -0.12104239846589569,
                -2.268321836985882,
                -2.4808048173743877,
                1.4767323838850124,
                0.2840466361221592,
                -0.009572598712486904
            ]
        },
        {
            "positions": [
                -0.056615332717515676,
                -2.257838201830239,
                -2.5767876462140475,
                1.4688709388369046,
                0.38910550451564957,
                -0.0562508861546368
            ]
        },
        {
            "positions": [
                0.007811733030864354,
                -2.2473545666745958,
                -2.6727704750537074,
                1.4610094937887965,
                0.49416437290913995,
                -0.10292917359678669
            ]
        },
        {
            "positions": [
                0.07223879877924436,
                -2.2368709315189528,
                -2.768753303893367,
                1.4531480487406887,
                0.5992232413026304,
                -0.1496074610389366
            ]
        },
        {
            "positions": [
                0.13666586452762441,
                -2.2263872963633093,
                -2.864736132733027,
                1.4452866036925809,
                0.7042821096961207,
                -0.19628574848108649
            ]
        },
        {
            "positions": [
                0.20551916586694227,
                -2.192851734894364,
                -2.734969217672193,
                1.3740307726967125,
                0.6993963333097456,
                -0.2822390091680727
            ]
        },
        {
            "positions": [
                0.27437246720626013,
                -2.159316173425419,
                -2.6052023026113593,
                1.3027749417008443,
                0.6945105569233704,
                -0.36819226985505893
            ]
        },
        {
            "positions": [
                0.34322576854557796,
                -2.1257806119564737,
                -2.475435387550525,
                1.2315191107049759,
                0.6896247805369953,
                -0.4541455305420451
            ]
        },
        {
            "positions": [
                0.41207906988489584,
                -2.092245050487529,
                -2.3456684724896912,
                1.1602632797091075,
                0.6847390041506201,
                -0.5400987912290314
            ]
        },
        {
            "positions": [
                0.48093237122421373,
                -2.0587094890185837,
                -2.2159015574288574,
                1.089007448713239,
                0.679853227764245,
                -0.6260520519160175
            ]
        },
        {
            "positions": [
                0.5497856725635315,
                -2.0251739275496385,
                -2.0861346423680236,
                1.0177516177173707,
                0.6749674513778697,
                -0.7120053126030037
            ]
        },
        {
            "positions": [
                0.6186389739028495,
                -1.9916383660806933,
                -1.9563677273071896,
                0.9464957867215025,
                0.6700816749914946,
                -0.79795857328999
            ]
        },
        {
            "positions": [
                0.6874922752421673,
                -1.9581028046117481,
                -1.8266008122463557,
                0.8752399557256341,
                0.6651958986051194,
                -0.8839118339769761
            ]
        },
        {
            "positions": [
                0.7563455765814852,
                -1.924567243142803,
                -1.6968338971855217,
                0.8039841247297657,
                0.6603101222187443,
                -0.9698650946639624
            ]
        },
        {
            "positions": [
                0.825198877920803,
                -1.8910316816738577,
                -1.5670669821246879,
                0.7327282937338974,
                0.6554243458323691,
                -1.0558183553509486
            ]
        },
        {
            "positions": [
                0.8940521792601209,
                -1.8574961202049127,
                -1.4373000670638538,
                0.661472462738029,
                0.650538569445994,
                -1.1417716160379348
            ]
        },
        {
            "positions": [
                0.9629054805994387,
                -1.8239605587359675,
                -1.30753315200302,
                0.5902166317421607,
                0.6456527930596188,
                -1.227724876724921
            ]
        },
        {
            "positions": [
                1.0317587819387566,
                -1.7904249972670223,
                -1.177766236942186,
                0.5189608007462923,
                0.6407670166732437,
                -1.3136781374119073
            ]
        },
        {
            "positions": [
                1.1006120832780746,
                -1.7568894357980773,
                -1.0479993218813521,
                0.44770496975042395,
                0.6358812402868684,
                -1.3996313980988935
            ]
        },
        {
            "positions": [
                1.1694653846173924,
                -1.7233538743291321,
                -0.9182324068205181,
                0.37644913875455566,
                0.6309954639004933,
                -1.4855846587858796
            ]
        },
        {
            "positions": [
                1.2383186859567101,
                -1.689818312860187,
                -0.7884654917596845,
                0.30519330775868725,
                0.6261096875141181,
                -1.5715379194728658
            ]
        },
        {
            "positions": [
                1.307171987296028,
                -1.6562827513912417,
                -0.6586985766988507,
                0.23393747676281906,
                0.621223911127743,
                -1.657491180159852
            ]
        },
        {
            "positions": [
                1.376025288635346,
                -1.6227471899222965,
                -0.5289316616380164,
                0.16268164576695043,
                0.6163381347413678,
                -1.7434444408468384
            ]
        },
        {
            "positions": [
                1.4448785899746637,
                -1.5892116284533515,
                -0.3991647465771826,
                0.09142581477108225,
                0.6114523583549927,
                -1.8293977015338245
            ]
        },
        {
            "positions": [
                1.5137318913139817,
                -1.5556760669844063,
                -0.2693978315163488,
                0.02016998377521384,
                0.6065665819686175,
                -1.9153509622208107
            ]
        },
        {
            "positions": [
                1.5825851926532994,
                -1.5221405055154613,
                -0.13963091645551495,
                -0.051085847220654346,
                0.6016808055822424,
                -2.001304222907797
            ]
        },
        {
            "positions": [
                1.6514384939926174,
                -1.488604944046516,
                -0.009864001394680688,
                -0.12234167821652298,
                0.5967950291958671,
                -2.087257483594783
            ]
        },
        {
            "positions": [
                1.7202917953319352,
                -1.455069382577571,
                0.11990291366615313,
                -0.19359750921239116,
                0.591909252809492,
                -2.1732107442817696
            ]
        },
        {
            "positions": [
                1.789145096671253,
                -1.4215338211086257,
                0.24966982872698695,
                -0.26485334020825957,
                0.5870234764231168,
                -2.2591640049687554
            ]
        },
        {
            "positions": [
                1.8579983980105708,
                -1.3879982596396805,
                0.3794367437878208,
                -0.33610917120412775,
                0.5821377000367417,
                -2.3451172656557415
            ]
        },
        {
            "positions": [
                1.9268516993498888,
                -1.3544626981707353,
                0.509203658848655,
                -0.4073650021999964,
                0.5772519236503666,
                -2.431070526342728
            ]
        },
        {
            "positions": [
                1.9957050006892065,
                -1.3209271367017903,
                0.6389705739094889,
                -0.47862083319586457,
                0.5723661472639914,
                -2.5170237870297143
            ]
        },
        {
            "positions": [
                2.0645583020285247,
                -1.2873915752328453,
                0.7687374889703227,
                -0.549876664191733,
                0.5674803708776162,
                -2.6029770477167005
            ]
        },
        {
            "positions": [
                2.1334116033678425,
                -1.2538560137639,
                0.8985044040311565,
                -0.6211324951876012,
                0.562594594491241,
                -2.688930308403686
            ]
        },
        {
            "positions": [
                2.2022649047071603,
                -1.220320452294955,
                1.0282713190919908,
                -0.6923883261834696,
                0.5577088181048659,
                -2.774883569090673
            ]
        },
        {
            "positions": [
                2.271118206046478,
                -1.1867848908260097,
                1.1580382341528241,
                -0.763644157179338,
                0.5528230417184907,
                -2.860836829777659
            ]
        },
        {
            "positions": [
                2.342413912864745,
                -1.1522410677214239,
                1.2911024731649523,
                -0.7667578350596876,
                0.6526280415419823,
                -2.9075184937138197
            ]
        },
        {
            "positions": [
                2.413709619683012,
                -1.117697244616838,
                1.4241667121770807,
                -0.7698715129400374,
                0.7524330413654738,
                -2.9542001576499803
            ]
        },
        {
            "positions": [
                2.485005326501279,
                -1.083153421512252,
                1.5572309511892088,
                -0.7729851908203871,
                0.8522380411889654,
                -3.0008818215861415
            ]
        },
        {
            "positions": [
                2.5563010333195457,
                -1.0486095984076662,
                1.6902951902013372,
                -0.7760988687007369,
                0.952043041012457,
                -3.047563485522302
            ]
        },
        {
            "positions": [
                2.627596740137813,
                -1.0140657753030804,
                1.8233594292134654,
                -0.7792125465810865,
                1.0518480408359485,
                -3.094245149458463
            ]
        }
    ]
}