{
    "goal": {
        "global_pose": {
            "orientation": {
                "w": -0.4816463035849501,
                "x": 0.5182115481033762,
                "y": 0.4908360881923453,
                "z": -0.5084816262002911
            },
            "position": {
                "x": -0.8240239810943604,
                "y": -0.300875300988555,
                "z": 0.16403168439865112
            }
        },
        "name": "move_to_storage_C"
    },
    "id": "BKPIECE_move_to_storage_C_74",
    "joint_names": [
        "shoulder_pan_joint",
        "shoulder_lift_joint",
        "elbow_joint",
        "wrist_1_joint",
        "wrist_2_joint",
        "wrist_3_joint"
    ],
    "metrics": {
        "cart_traj_len": 0.5770157689750866,
        "distance_elbow_joint": 0.2598816455117685,
        "distance_shoulder_lift_joint": 0.19142127032289735,
        "distance_shoulder_pan_joint": 0.4922988343061063,
        "distance_wrist_1_joint": 0.07374886676473036,
        "distance_wrist_2_joint": 1.0812079245199482,
        "distance_wrist_3_joint": 0.06925558778576502,
        "smoothness": 2.5376526478085547e-16,
        "time": 0.29261113,
        "traj_len": 1.47234986644181,
        "weighted_distance": 1.860452121412272
    },
    "planner": "BKPIECE",
    "start": {
        "state": {
            "elbow_joint": 2.010868314990456,
            "shoulder_lift_joint": -1.1634956873337592,
            "shoulder_pan_joint": -2.4736205022346125,
            "wrist_1_joint": -0.8367026794202681,
            "wrist_2_joint": 0.6746043897044499,
            "wrist_3_joint": -3.1496632123970403
        }
    },
    "waypoints": [
        {
            "positions": [
                -2.4736205022346125,
                -1.1634956873337592,
                2.010868314990456,
                -0.8367026794202681,
                0.6746043897044499,
                -3.1496632123970403
            ]
        },
        {
            "positions": [
                -2.5556703079522967,
                -1.1315921422799429,
                1.9675547074051611,
                -0.8244112016261463,
                0.8548057104577746,
                -3.1381206144327463
            ]
        },
        {
            "positions": [
                -2.6377201136699813,
                -1.0996885972261268,
                1.9242410998198662,
                -0.8121197238320247,
                1.0350070312110993,
                -3.126578016468452
            ]
        },
        {
            "positions": [
                -2.719769919387666,
                -1.0677850521723105,
                1.8809274922345716,
                -0.7998282460379029,
                1.215208351964424,
                -3.1150354185041578
            ]
        },
        {
            "positions": [
                -2.80181972510535,
                -1.0358815071184944,
                1.8376138846492769,
                -0.7875367682437812,
                1.3954096727177485,
                -3.1034928205398638
            ]
        },
        {
            "positions": [
                -2.883869530823034,
                -1.003977962064678,
                1.794300277063982,
                -0.7752452904496595,
                1.5756109934710736,
                -3.0919502225755693
            ]
        },
        {
            "positions": [
                -2.965919336540719,
                -0.9720744170108618,
                1.7509866694786873,
                -0.7629538126555377,
                1.755812314224398,
                -3.0804076246112753
            ]
        }
    ]
}