{
    "goal": {
        "global_pose": {
            "orientation": {
                "w": 0.7047431493862688,
                "x": -0.7094548369677653,
                "y": 0.0024358444001904,
                "z": -0.0022348060817251984
            },
            "position": {
                "x": -0.39052492380142206,
                "y": 0.3671506643295288,
                "z": 0.19426114857196808
            }
        },
        "name": "move_to_magneteinheit_D"
    },
    "id": "BKPIECE_move_to_magneteinheit_D_128",
    "joint_names": [
        "shoulder_pan_joint",
        "shoulder_lift_joint",
        "elbow_joint",
        "wrist_1_joint",
        "wrist_2_joint",
        "wrist_3_joint"
    ],
    "metrics": {
        "cart_traj_len": 4.974632925749981,
        "distance_elbow_joint": 4.078075425272664,
        "distance_shoulder_lift_joint": 1.3621473878375165,
        "distance_shoulder_pan_joint": 4.415963806018964,
        "distance_wrist_1_joint": 2.22372846131569,
        "distance_wrist_2_joint": 2.088846076675997,
        "distance_wrist_3_joint": 6.33895836085092,
        "smoothness": 0.38693261368747306,
        "time": 0.314755495,
        "traj_len": 4.5285449669813085,
        "weighted_distance": 6.123578265823445
    },
    "planner": "BKPIECE",
    "start": {
        "state": {
            "elbow_joint": 0.749534889911806,
            "shoulder_lift_joint": -0.6476975780787326,
            "shoulder_pan_joint": -2.711696901376241,
            "wrist_1_joint": -0.07506478083263063,
            "wrist_2_joint": 0.43296659715538205,
            "wrist_3_joint": -3.14703540197715
        }
    },
    "waypoints": [
        {
            "positions": [
                -2.711696901376241,
                -0.6476975780787326,
                0.749534889911806,
                -0.07506478083263063,
                0.43296659715538205,
                -3.14703540197715
            ]
        },
        {
            "positions": [
                -2.7318522855113336,
                -0.7756134873007227,
                0.814248820888555,
                -0.046958259351483435,
                0.4518024073266369,
                -3.116751843256483
            ]
        },
        {
            "positions": [
                -2.6838353188409205,
                -0.8988171039585606,
                0.8671570196623789,
                -0.06484594270250824,
                0.37265876339026816,
                -3.0622609414294084
            ]
        },
        {
            "positions": [
                -2.6358183521705074,
                -1.0220207206163987,
                0.9200652184362028,
                -0.08273362605353303,
                0.29351511945389946,
                -3.0077700396023332
            ]
        },
        {
            "positions": [
                -2.5878013855000943,
                -1.1452243372742366,
                0.9729734172100267,
                -0.10062130940455782,
                0.21437147551753075,
                -2.953279137775258
            ]
        },
        {
            "positions": [
                -2.539784418829681,
                -1.2684279539320746,
                1.0258816159838506,
                -0.11850899275558263,
                0.13522783158116203,
                -2.8987882359481834
            ]
        },
        {
            "positions": [
                -2.491767452159268,
                -1.3916315705899125,
                1.0787898147576747,
                -0.1363966761066074,
                0.05608418764479328,
                -2.8442973341211086
            ]
        },
        {
            "positions": [
                -2.443750485488855,
                -1.5148351872477506,
                1.1316980135314985,
                -0.15428435945763222,
                -0.02305945629157541,
                -2.7898064322940335
            ]
        },
        {
            "positions": [
                -2.395733518818442,
                -1.6380388039055886,
                1.1846062123053223,
                -0.172172042808657,
                -0.1022031002279441,
                -2.7353155304669583
            ]
        },
        {
            "positions": [
                -2.3477165521480288,
                -1.7612424205634265,
                1.2375144110791463,
                -0.1900597261596818,
                -0.1813467441643129,
                -2.6808246286398836
            ]
        },
        {
            "positions": [
                -2.2412491981248825,
                -1.76397250914183,
                1.177662569706956,
                -0.24543119013962716,
                -0.15649638532072208,
                -2.5396290855148136
            ]
        },
        {
            "positions": [
                -2.134781844101736,
                -1.7667025977202333,
                1.1178107283347658,
                -0.3008026541195725,
                -0.13164602647713125,
                -2.3984335423897436
            ]
        },
        {
            "positions": [
                -2.0283144900785897,
                -1.7694326862986365,
                1.0579588869625756,
                -0.3561741180995179,
                -0.10679566763354043,
                -2.2572379992646736
            ]
        },
        {
            "positions": [
                -1.9218471360554432,
                -1.7721627748770399,
                0.9981070455903854,
                -0.41154558207946323,
                -0.0819453087899496,
                -2.1160424561396036
            ]
        },
        {
            "positions": [
                -1.8153797820322968,
                -1.7748928634554433,
                0.9382552042181952,
                -0.46691704605940865,
                -0.05709494994635876,
                -1.9748469130145334
            ]
        },
        {
            "positions": [
                -1.7089124280091506,
                -1.7776229520338467,
                0.8784033628460051,
                -0.522288510039354,
                -0.03224459110276795,
                -1.8336513698894634
            ]
        },
        {
            "positions": [
                -1.602445073986004,
                -1.78035304061225,
                0.8185515214738148,
                -0.5776599740192994,
                -0.007394232259177097,
                -1.6924558267643934
            ]
        },
        {
            "positions": [
                -1.4959777199628577,
                -1.7830831291906533,
                0.7586996801016246,
                -0.6330314379992447,
                0.0174561265844137,
                -1.5512602836393234
            ]
        },
        {
            "positions": [
                -1.3895103659397114,
                -1.7858132177690567,
                0.6988478387294343,
                -0.6884029019791901,
                0.04230648542800455,
                -1.4100647405142535
            ]
        },
        {
            "positions": [
                -1.283043011916565,
                -1.78854330634746,
                0.6389959973572441,
                -0.7437743659591355,
                0.06715684427159538,
                -1.2688691973891832
            ]
        },
        {
            "positions": [
                -1.1765756578934188,
                -1.7912733949258635,
                0.579144155985054,
                -0.7991458299390807,
                0.09200720311518618,
                -1.1276736542641135
            ]
        },
        {
            "positions": [
                -1.0701083038702723,
                -1.7940034835042669,
                0.5192923146128637,
                -0.8545172939190261,
                0.116857561958777,
                -0.9864781111390433
            ]
        },
        {
            "positions": [
                -0.9636409498471259,
                -1.79673357208267,
                0.4594404732406735,
                -0.9098887578989715,
                0.14170792080236788,
                -0.8452825680139733
            ]
        },
        {
            "positions": [
                -0.8571735958239795,
                -1.7994636606610734,
                0.39958863186848337,
                -0.9652602218789169,
                0.1665582796459587,
                -0.7040870248889033
            ]
        },
        {
            "positions": [
                -0.750706241800833,
                -1.8021937492394768,
                0.33973679049629313,
                -1.0206316858588622,
                0.19140863848954953,
                -0.5628914817638333
            ]
        },
        {
            "positions": [
                -0.6442388877776868,
                -1.8049238378178802,
                0.279884949124103,
                -1.0760031498388076,
                0.2162589973331403,
                -0.4216959386387633
            ]
        },
        {
            "positions": [
                -0.5377715337545406,
                -1.8076539263962834,
                0.22003310775191287,
                -1.1313746138187528,
                0.24110935617673113,
                -0.2805003955136933
            ]
        },
        {
            "positions": [
                -0.4313041797313939,
                -1.8103840149746868,
                0.1601812663797224,
                -1.1867460777986985,
                0.265959715020322,
                -0.13930485238862333
            ]
        },
        {
            "positions": [
                -0.3248368257082479,
                -1.8131141035530902,
                0.10032942500753239,
                -1.2421175417786436,
                0.2908100738639128,
                0.001890690736446654
            ]
        },
        {
            "positions": [
                -0.21836947168510124,
                -1.8158441921314936,
                0.04047758363534193,
                -1.2974890057585893,
                0.31566043270750366,
                0.1430862338615171
            ]
        },
        {
            "positions": [
                -0.11190211766195501,
                -1.818574280709897,
                -0.01937425773684809,
                -1.3528604697385345,
                0.3405107915510945,
                0.28428177698658663
            ]
        },
        {
            "positions": [
                -0.005434763638808793,
                -1.8213043692883002,
                -0.07922609910903833,
                -1.4082319337184797,
                0.36536115039468525,
                0.4254773201116566
            ]
        },
        {
            "positions": [
                0.10103259038433787,
                -1.8240344578667036,
                -0.13907794048122857,
                -1.4636033976984253,
                0.39021150923827613,
                0.566672863236727
            ]
        },
        {
            "positions": [
                0.2074999444074841,
                -1.826764546445107,
                -0.1989297818534188,
                -1.5189748616783705,
                0.4150618680818669,
                0.707868406361797
            ]
        },
        {
            "positions": [
                0.3139672984306303,
                -1.8294946350235104,
                -0.2587816232256088,
                -1.5743463256583157,
                0.4399122269254578,
                0.8490639494868666
            ]
        },
        {
            "positions": [
                0.420434652453777,
                -1.8322247236019138,
                -0.3186334645977993,
                -1.6297177896382613,
                0.46476258576904866,
                0.990259492611937
            ]
        },
        {
            "positions": [
                0.5269020064769232,
                -1.834954812180317,
                -0.3784853059699893,
                -1.6850892536182065,
                0.48961294461263943,
                1.131455035737007
            ]
        },
        {
            "positions": [
                0.6333693605000699,
                -1.8376849007587204,
                -0.43833714734217955,
                -1.7404607175981521,
                0.5144633034562303,
                1.272650578862077
            ]
        },
        {
            "positions": [
                0.7398367145232161,
                -1.8404149893371238,
                -0.4981889887143698,
                -1.7958321815780973,
                0.5393136622998211,
                1.4138461219871472
            ]
        },
        {
            "positions": [
                0.6820577495142014,
                -1.8317043411257685,
                -0.6208602711293087,
                -1.8252478975696094,
                0.4927410287716789,
                1.5205854560202616
            ]
        },
        {
            "positions": [
                0.6242787845051866,
                -1.822993692914413,
                -0.7435315535442476,
                -1.8546636135611212,
                0.4461683952435367,
                1.6273247900533763
            ]
        },
        {
            "positions": [
                0.5664998194961719,
                -1.8142830447030578,
                -0.8662028359591865,
                -1.8840793295526332,
                0.39959576171539446,
                1.7340641240864907
            ]
        },
        {
            "positions": [
                0.5087208544871571,
                -1.8055723964917025,
                -0.9888741183741254,
                -1.913495045544145,
                0.3530231281872523,
                1.840803458119605
            ]
        },
        {
            "positions": [
                0.4509418894781424,
                -1.796861748280347,
                -1.1115454007890642,
                -1.9429107615356571,
                0.3064504946591101,
                1.9475427921527195
            ]
        },
        {
            "positions": [
                0.39316292446912765,
                -1.7881511000689918,
                -1.2342166832040031,
                -1.9723264775271692,
                0.25987786113096784,
                2.054282126185834
            ]
        },
        {
            "positions": [
                0.3353839594601129,
                -1.7794404518576366,
                -1.356887965618942,
                -2.001742193518681,
                0.21330522760282566,
                2.1610214602189486
            ]
        },
        {
            "positions": [
                0.2776049944510982,
                -1.770729803646281,
                -1.479559248033881,
                -2.031157909510193,
                0.16673259407468344,
                2.2677607942520632
            ]
        },
        {
            "positions": [
                0.21982602944208351,
                -1.7620191554349258,
                -1.6022305304488198,
                -2.060573625501705,
                0.12015996054654127,
                2.3745001282851774
            ]
        },
        {
            "positions": [
                0.1620470644330687,
                -1.7533085072235706,
                -1.7249018128637588,
                -2.089989341493217,
                0.07358732701839904,
                2.4812394623182916
            ]
        },
        {
            "positions": [
                0.10426809942405402,
                -1.744597859012215,
                -1.8475730952786977,
                -2.119405057484729,
                0.02701469349025687,
                2.5879787963514067
            ]
        },
        {
            "positions": [
                0.04648913441503921,
                -1.7358872108008598,
                -1.9702443776936367,
                -2.148820773476241,
                -0.01955794003788547,
                2.694718130384521
            ]
        },
        {
            "positions": [
                -0.01128983059397548,
                -1.7271765625895046,
                -2.0929156601085754,
                -2.1782364894677526,
                -0.06613057356602758,
                2.8014574644176355
            ]
        },
        {
            "positions": [
                -0.06906879560299028,
                -1.718465914378149,
                -2.2155869425235144,
                -2.2076522054592647,
                -0.11270320709416981,
                2.90819679845075
            ]
        },
        {
            "positions": [
                -0.126847760612005,
                -1.7097552661667939,
                -2.3382582249384534,
                -2.2370679214507767,
                -0.15927584062231198,
                3.0149361324838644
            ]
        },
        {
            "positions": [
                -0.18428270732610463,
                -1.7485255195755893,
                -2.352581493026176,
                -2.2315556437155273,
                -0.17688704624983617,
                3.1919229588737714
            ]
        }
    ]
}