{
    "goal": {
        "global_pose": {
            "orientation": {
                "w": 0.5084816217422485,
                "x": -0.49083608388900757,
                "y": 0.5182115435600281,
                "z": -0.4816462993621826
            },
            "position": {
                "x": 0.5540239810943604,
                "y": 0.030875300988554955,
                "z": 0.16403168439865112
            }
        },
        "name": "move_to_storage_A"
    },
    "id": "BKPIECE_move_to_storage_A_119",
    "joint_names": [
        "shoulder_pan_joint",
        "shoulder_lift_joint",
        "elbow_joint",
        "wrist_1_joint",
        "wrist_2_joint",
        "wrist_3_joint"
    ],
    "metrics": {
        "cart_traj_len": 0.3522985958912924,
        "distance_elbow_joint": 0.4498406462790492,
        "distance_shoulder_lift_joint": 0.2356539751532869,
        "distance_shoulder_pan_joint": 0.4597297348397359,
        "distance_wrist_1_joint": 0.23888733107656523,
        "distance_wrist_2_joint": 1.102212906503787,
        "distance_wrist_3_joint": 0.09485039718293065,
        "smoothness": 0.0,
        "time": 0.077910701,
        "traj_len": 1.606603557519824,
        "weighted_distance": 2.0278007848360176
    },
    "planner": "BKPIECE",
    "start": {
        "state": {
            "elbow_joint": 1.971548259319323,
            "shoulder_lift_joint": -1.1394851275133948,
            "shoulder_pan_joint": 0.1228115487234821,
            "wrist_1_joint": -0.7804723859257726,
            "wrist_2_joint": 0.12958671773740124,
            "wrist_3_joint": -3.192489227718131
        }
    },
    "waypoints": [
        {
            "positions": [
                0.1228115487234821,
                -1.1394851275133948,
                1.971548259319323,
                -0.7804723859257726,
                0.12958671773740124,
                -3.192489227718131
            ]
        },
        {
            "positions": [
                0.05713587231780555,
                -1.1731499811067214,
                2.0358112087877585,
                -0.8145991475081391,
                0.28704570438079935,
                -3.1789391709777126
            ]
        },
        {
            "positions": [
                -0.008539804087871,
                -1.2068148347000482,
                2.100074158256194,
                -0.8487259090905055,
                0.44450469102419743,
                -3.1653891142372936
            ]
        },
        {
            "positions": [
                -0.07421548049354756,
                -1.2404796882933748,
                2.16433710772463,
                -0.882852670672872,
                0.6019636776675956,
                -3.151839057496875
            ]
        },
        {
            "positions": [
                -0.1398911568992241,
                -1.2741445418867017,
                2.2286000571930655,
                -0.9169794322552385,
                0.7594226643109937,
                -3.1382890007564566
            ]
        },
        {
            "positions": [
                -0.20556683330490066,
                -1.3078093954800283,
                2.2928630066615012,
                -0.9511061938376049,
                0.9168816509543919,
                -3.124738944016038
            ]
        },
        {
            "positions": [
                -0.27124250971057723,
                -1.341474249073355,
                2.3571259561299365,
                -0.9852329554199714,
                1.07434063759779,
                -3.111188887275619
            ]
        },
        {
            "positions": [
                -0.3369181861162538,
                -1.3751391026666817,
                2.421388905598372,
                -1.0193597170023379,
                1.2317996242411882,
                -3.0976388305352005
            ]
        }
    ]
}{
    "goal": {
        "global_pose": {
            "orientation": {
                "w": 0.5084816217422485,
                "x": -0.49083608388900757,
                "y": 0.5182115435600281,
                "z": -0.4816462993621826
            },
            "position": {
                "x": 0.5540239810943604,
                "y": 0.030875300988554955,
                "z": 0.16403168439865112
            }
        },
        "name": "move_to_storage_A"
    },
    "id": "BKPIECE_move_to_storage_A_119",
    "joint_names": [
        "shoulder_pan_joint",
        "shoulder_lift_joint",
        "elbow_joint",
        "wrist_1_joint",
        "wrist_2_joint",
        "wrist_3_joint"
    ],
    "metrics": {
        "cart_traj_len": 0.35248918700611465,
        "distance_elbow_joint": 0.4475745154309996,
        "distance_shoulder_lift_joint": 0.23452909624486207,
        "distance_shoulder_pan_joint": 0.4606081493838941,
        "distance_wrist_1_joint": 0.23596068037895312,
        "distance_wrist_2_joint": 1.0985826304804573,
        "distance_wrist_3_joint": 0.09703044137912986,
        "smoothness": 4.440892133664971e-16,
        "time": 0.187672344,
        "traj_len": 1.6044580123201406,
        "weighted_distance": 2.0255591097067414
    },
    "planner": "BKPIECE",
    "start": {
        "state": {
            "elbow_joint": 1.97154746011099,
            "shoulder_lift_joint": -1.13948474672311,
            "shoulder_pan_joint": 0.12281154466712228,
            "wrist_1_joint": -0.7804688027058302,
            "wrist_2_joint": 0.12958655903071145,
            "wrist_3_joint": 3.0906928834467795
        }
    },
    "waypoints": [
        {
            "positions": [
                0.12281154466712228,
                -1.13948474672311,
                1.97154746011099,
                -0.7804688027058302,
                0.12958655903071145,
                3.0906928834467795
            ]
        },
        {
            "positions": [
                0.057010380469423125,
                -1.1729889033295189,
                2.0354866766011326,
                -0.814177471331395,
                0.2865269348136339,
                3.1045543750723694
            ]
        },
        {
            "positions": [
                -0.008790783728276033,
                -1.2064930599359276,
                2.0994258930912757,
                -0.8478861399569596,
                0.4434673105965564,
                3.1184158666979593
            ]
        },
        {
            "positions": [
                -0.07459194792597519,
                -1.2399972165423365,
                2.1633651095814184,
                -0.8815948085825244,
                0.6004076863794788,
                3.1322773583235493
            ]
        },
        {
            "positions": [
                -0.14039311212367434,
                -1.2735013731487455,
                2.227304326071561,
                -0.9153034772080891,
                0.7573480621624014,
                3.1461388499491396
            ]
        },
        {
            "positions": [
                -0.2061942763213735,
                -1.3070055297551544,
                2.2912435425617037,
                -0.9490121458336538,
                0.9142884379453239,
                3.1600003415747295
            ]
        },
        {
            "positions": [
                -0.27199544051907265,
                -1.340509686361563,
                2.355182759051847,
                -0.9827208144592186,
                1.0712288137282462,
                3.1738618332003194
            ]
        },
        {
            "positions": [
                -0.3377966047167718,
                -1.374013842967972,
                2.4191219755419895,
                -1.0164294830847833,
                1.2281691895111688,
                3.1877233248259094
            ]
        }
    ]
}{
    "goal": {
        "global_pose": {
            "orientation": {
                "w": 0.5084816217422485,
                "x": -0.49083608388900757,
                "y": 0.5182115435600281,
                "z": -0.4816462993621826
            },
            "position": {
                "x": 0.5540239810943604,
                "y": 0.030875300988554955,
                "z": 0.16403168439865112
            }
        },
        "name": "move_to_storage_A"
    },
    "id": "BKPIECE_move_to_storage_A_119",
    "joint_names": [
        "shoulder_pan_joint",
        "shoulder_lift_joint",
        "elbow_joint",
        "wrist_1_joint",
        "wrist_2_joint",
        "wrist_3_joint"
    ],
    "metrics": {
        "cart_traj_len": 0.35233140622940723,
        "distance_elbow_joint": 0.4498761867801049,
        "distance_shoulder_lift_joint": 0.23640406781082812,
        "distance_shoulder_pan_joint": 0.4605870883416098,
        "distance_wrist_1_joint": 0.23942935802339615,
        "distance_wrist_2_joint": 1.0989765514134235,
        "distance_wrist_3_joint": 0.10410394941768208,
        "smoothness": 4.440892098500626e-16,
        "time": 0.36786750399999996,
        "traj_len": 1.6091541883197658,
        "weighted_distance": 2.033713600795163
    },
    "planner": "BKPIECE",
    "start": {
        "state": {
            "elbow_joint": 1.9715472970024885,
            "shoulder_lift_joint": -1.1394870060712896,
            "shoulder_pan_joint": 0.12281152778156021,
            "wrist_1_joint": -0.780463741449964,
            "wrist_2_joint": 0.12958659822042276,
            "wrist_3_joint": 3.090690232415272
        }
    },
    "waypoints": [
        {
            "positions": [
                0.12281152778156021,
                -1.1394870060712896,
                1.9715472970024885,
                -0.780463741449964,
                0.12958659822042276,
                3.090690232415272
            ]
        },
        {
            "positions": [
                0.05701337230418739,
                -1.1732590157585507,
                2.0358153236853607,
                -0.8146679354533063,
                0.2865832484223404,
                3.1055622251892263
            ]
        },
        {
            "positions": [
                -0.008784783173185429,
                -1.2070310254458119,
                2.100083350368233,
                -0.8488721294566486,
                0.44357989862425806,
                3.120434217963181
            ]
        },
        {
            "positions": [
                -0.07458293865055826,
                -1.240803035133073,
                2.164351377051105,
                -0.8830763234599909,
                0.6005765488261757,
                3.1353062107371357
            ]
        },
        {
            "positions": [
                -0.14038109412793107,
                -1.2745750448203341,
                2.228619403733977,
                -0.9172805174633332,
                0.7575731990280933,
                3.15017820351109
            ]
        },
        {
            "positions": [
                -0.2061792496053039,
                -1.3083470545075955,
                2.292887430416849,
                -0.9514847114666756,
                0.914569849230011,
                3.1650501962850446
            ]
        },
        {
            "positions": [
                -0.27197740508267676,
                -1.3421190641948566,
                2.3571554570997213,
                -0.9856889054700179,
                1.0715664994319287,
                3.1799221890589995
            ]
        },
        {
            "positions": [
                -0.33777556056004954,
                -1.3758910738821177,
                2.4214234837825934,
                -1.0198930994733602,
                1.2285631496338463,
                3.194794181832954
            ]
        }
    ]
}