{
    "goal": {
        "global_pose": {
            "orientation": {
                "w": 0.005598929693374612,
                "x": 0.007748599140229565,
                "y": 0.7110244013736278,
                "z": -0.7031023480610252
            },
            "position": {
                "x": -0.8858502320852131,
                "y": -0.7141253447532654,
                "z": 0.3711530566215515
            }
        },
        "name": "move_to_auspresseinheit_C"
    },
    "id": "BKPIECE_move_to_auspresseinheit_C_7",
    "joint_names": [
        "shoulder_pan_joint",
        "shoulder_lift_joint",
        "elbow_joint",
        "wrist_1_joint",
        "wrist_2_joint",
        "wrist_3_joint"
    ],
    "metrics": {
        "cart_traj_len": 0.4922923504131083,
        "distance_elbow_joint": 0.9891535929834057,
        "distance_shoulder_lift_joint": 0.32050028086390525,
        "distance_shoulder_pan_joint": 0.2563189974421034,
        "distance_wrist_1_joint": 0.6536425442788673,
        "distance_wrist_2_joint": 1.3155006280048336,
        "distance_wrist_3_joint": 0.03375944400054376,
        "smoothness": 1.4533828698789083e-15,
        "time": 0.204591997,
        "traj_len": 1.8891467617878868,
        "weighted_distance": 2.367601644673032
    },
    "planner": "BKPIECE",
    "start": {
        "state": {
            "elbow_joint": 1.7527959577737207,
            "shoulder_lift_joint": -0.9740617694225068,
            "shoulder_pan_joint": -2.967991417825858,
            "wrist_1_joint": -0.759517768980727,
            "wrist_2_joint": 1.7443932448377408,
            "wrist_3_joint": -3.0840537646736568
        }
    },
    "waypoints": [
        {
            "positions": [
                -2.967991417825858,
                -0.9740617694225068,
                1.7527959577737207,
                -0.759517768980727,
                1.7443932448377408,
                -3.0840537646736568
            ]
        },
        {
            "positions": [
                -2.9423595180816475,
                -0.9420117413361162,
                1.6538805984753802,
                -0.6941535145528402,
                1.6128431820372575,
                -3.087429709073711
            ]
        },
        {
            "positions": [
                -2.916727618337437,
                -0.9099617132497257,
                1.5549652391770394,
                -0.6287892601249535,
                1.4812931192367742,
                -3.0908056534737653
            ]
        },
        {
            "positions": [
                -2.891095718593227,
                -0.8779116851633352,
                1.456049879878699,
                -0.5634250056970668,
                1.3497430564362909,
                -3.09418159787382
            ]
        },
        {
            "positions": [
                -2.8654638188490167,
                -0.8458616570769446,
                1.3571345205803584,
                -0.4980607512691801,
                1.2181929936358074,
                -3.0975575422738744
            ]
        },
        {
            "positions": [
                -2.8398319191048063,
                -0.8138116289905541,
                1.258219161282018,
                -0.43269649684129335,
                1.086642930835324,
                -3.1009334866739287
            ]
        },
        {
            "positions": [
                -2.814200019360596,
                -0.7817616009041637,
                1.1593038019836772,
                -0.3673322424134066,
                0.9550928680348407,
                -3.104309431073983
            ]
        },
        {
            "positions": [
                -2.7885681196163854,
                -0.7497115728177731,
                1.0603884426853367,
                -0.30196798798551994,
                0.8235428052343574,
                -3.1076853754740372
            ]
        },
        {
            "positions": [
                -2.7629362198721754,
                -0.7176615447313826,
                0.9614730833869961,
                -0.2366037335576332,
                0.6919927424338739,
                -3.111061319874092
            ]
        },
        {
            "positions": [
                -2.737304320127965,
                -0.6856115166449921,
                0.8625577240886555,
                -0.17123947912974646,
                0.5604426796333906,
                -3.1144372642741462
            ]
        },
        {
            "positions": [
                -2.7116724203837546,
                -0.6535614885586015,
                0.763642364790315,
                -0.10587522470185971,
                0.4288926168329072,
                -3.1178132086742005
            ]
        }
    ]
}