{
    "goal": {
        "global_pose": {
            "orientation": {
                "w": -0.4816463035849501,
                "x": 0.5182115481033762,
                "y": 0.4908360881923453,
                "z": -0.5084816262002911
            },
            "position": {
                "x": -0.8240239810943604,
                "y": 0.19912469901144506,
                "z": 0.16403168439865112
            }
        },
        "name": "move_to_storage_D"
    },
    "id": "BKPIECE_move_to_storage_D_73",
    "joint_names": [
        "shoulder_pan_joint",
        "shoulder_lift_joint",
        "elbow_joint",
        "wrist_1_joint",
        "wrist_2_joint",
        "wrist_3_joint"
    ],
    "metrics": {
        "cart_traj_len": 3.60315954338489,
        "distance_elbow_joint": 4.331753599235682,
        "distance_shoulder_lift_joint": 1.2649778350827432,
        "distance_shoulder_pan_joint": 2.8114650591829458,
        "distance_wrist_1_joint": 3.594876499965097,
        "distance_wrist_2_joint": 0.8677817938034174,
        "distance_wrist_3_joint": 3.1512418034260445,
        "smoothness": 0.28064772915326064,
        "time": 0.21595294799999998,
        "traj_len": 4.002761120863438,
        "weighted_distance": 5.1756389452237235
    },
    "planner": "BKPIECE",
    "start": {
        "state": {
            "elbow_joint": -2.384821988534728,
            "shoulder_lift_joint": -2.2788054721415256,
            "shoulder_pan_joint": -0.1854694642142757,
            "wrist_1_joint": 1.4845938289331202,
            "wrist_2_joint": 0.17898776772866878,
            "wrist_3_joint": 0.037105688729662994
        }
    },
    "waypoints": [
        {
            "positions": [
                -0.1854694642142757,
                -2.2788054721415256,
                -2.384821988534728,
                1.4845938289331202,
                0.17898776772866878,
                0.037105688729662994
            ]
        },
        {
            "positions": [
                -0.1164253612624978,
                -2.194990026066144,
                -2.396892211719466,
                1.5644509668905715,
                0.1978262700579136,
                0.12413914617849983
            ]
        },
        {
            "positions": [
                -0.047381258310719904,
                -2.111174579990763,
                -2.4089624349042045,
                1.6443081048480226,
                0.21666477238715837,
                0.21117260362733667
            ]
        },
        {
            "positions": [
                0.02166284464105797,
                -2.0273591339153816,
                -2.421032658088943,
                1.724165242805474,
                0.23550327471640317,
                0.29820606107617353
            ]
        },
        {
            "positions": [
                0.0907069475928359,
                -1.9435436878400003,
                -2.4331028812736815,
                1.804022380762925,
                0.254341777045648,
                0.38523951852501037
            ]
        },
        {
            "positions": [
                0.1597510505446138,
                -1.859728241764619,
                -2.4451731044584197,
                1.8838795187203763,
                0.27318027937489275,
                0.47227297597384715
            ]
        },
        {
            "positions": [
                0.22503327824258884,
                -1.844956585425581,
                -2.3226410417206345,
                1.7920911167673592,
                0.2933882469009499,
                0.5415427518180987
            ]
        },
        {
            "positions": [
                0.2903155059405639,
                -1.8301849290865428,
                -2.2001089789828496,
                1.7003027148143421,
                0.31359621442700697,
                0.6108125276623503
            ]
        },
        {
            "positions": [
                0.35559773363853897,
                -1.815413272747505,
                -2.0775769162450644,
                1.6085143128613248,
                0.3338041819530641,
                0.6800823035066019
            ]
        },
        {
            "positions": [
                0.420879961336514,
                -1.8006416164084669,
                -1.9550448535072795,
                1.516725910908308,
                0.3540121494791212,
                0.7493520793508535
            ]
        },
        {
            "positions": [
                0.48616218903448905,
                -1.7858699600694288,
                -1.8325127907694942,
                1.4249375089552907,
                0.3742201170051783,
                0.818621855195105
            ]
        },
        {
            "positions": [
                0.5514444167324641,
                -1.7710983037303907,
                -1.7099807280317094,
                1.3331491070022736,
                0.39442808453123546,
                0.8878916310393565
            ]
        },
        {
            "positions": [
                0.6167266444304391,
                -1.7563266473913526,
                -1.5874486652939241,
                1.2413607050492566,
                0.4146360520572926,
                0.9571614068836082
            ]
        },
        {
            "positions": [
                0.6820088721284142,
                -1.7415549910523147,
                -1.4649166025561393,
                1.1495723030962395,
                0.4348440195833497,
                1.0264311827278598
            ]
        },
        {
            "positions": [
                0.7472910998263893,
                -1.7267833347132766,
                -1.342384539818354,
                1.0577839011432224,
                0.45505198710940675,
                1.0957009585721114
            ]
        },
        {
            "positions": [
                0.8125733275243643,
                -1.7120116783742385,
                -1.219852477080569,
                0.9659954991902053,
                0.4752599546354639,
                1.164970734416363
            ]
        },
        {
            "positions": [
                0.8778555552223394,
                -1.6972400220352004,
                -1.097320414342784,
                0.8742070972371883,
                0.495467922161521,
                1.2342405102606144
            ]
        },
        {
            "positions": [
                0.9431377829203145,
                -1.6824683656961623,
                -0.9747883516049989,
                0.782418695284171,
                0.5156758896875782,
                1.303510286104866
            ]
        },
        {
            "positions": [
                1.0084200106182895,
                -1.6676967093571244,
                -0.8522562888672138,
                0.6906302933311539,
                0.5358838572136353,
                1.3727800619491177
            ]
        },
        {
            "positions": [
                1.0737022383162644,
                -1.6529250530180863,
                -0.7297242261294288,
                0.5988418913781368,
                0.5560918247396924,
                1.4420498377933693
            ]
        },
        {
            "positions": [
                1.1389844660142394,
                -1.6381533966790482,
                -0.6071921633916437,
                0.5070534894251197,
                0.5762997922657495,
                1.5113196136376208
            ]
        },
        {
            "positions": [
                1.2042666937122146,
                -1.6233817403400101,
                -0.48466010065385867,
                0.41526508747210267,
                0.5965077597918066,
                1.5805893894818723
            ]
        },
        {
            "positions": [
                1.2695489214101896,
                -1.608610084000972,
                -0.3621280379160736,
                0.3234766855190856,
                0.6167157273178637,
                1.6498591653261239
            ]
        },
        {
            "positions": [
                1.3348311491081648,
                -1.5938384276619342,
                -0.23959597517828835,
                0.23168828356606852,
                0.6369236948439208,
                1.7191289411703754
            ]
        },
        {
            "positions": [
                1.4001133768061398,
                -1.5790667713228959,
                -0.11706391244050351,
                0.13989988161305145,
                0.6571316623699779,
                1.7883987170146272
            ]
        },
        {
            "positions": [
                1.4653956045041148,
                -1.564295114983858,
                0.00546815029728176,
                0.04811147966003437,
                0.677339629896035,
                1.8576684928588787
            ]
        },
        {
            "positions": [
                1.53067783220209,
                -1.5495234586448199,
                0.1280002130350666,
                -0.04367692229298292,
                0.6975475974220922,
                1.9269382687031302
            ]
        },
        {
            "positions": [
                1.595960059900065,
                -1.5347518023057818,
                0.25053227577285186,
                -0.13546532424599977,
                0.7177555649481493,
                1.9962080445473818
            ]
        },
        {
            "positions": [
                1.66124228759804,
                -1.5199801459667437,
                0.3730643385106367,
                -0.22725372619901707,
                0.7379635324742064,
                2.0654778203916333
            ]
        },
        {
            "positions": [
                1.7265245152960151,
                -1.5052084896277056,
                0.49559640124842197,
                -0.31904212815203437,
                0.7581715000002636,
                2.134747596235885
            ]
        },
        {
            "positions": [
                1.7918067429939901,
                -1.4904368332886677,
                0.6181284639862068,
                -0.4108305301050512,
                0.7783794675263206,
                2.204017372080137
            ]
        },
        {
            "positions": [
                1.857088970691965,
                -1.4756651769496296,
                0.7406605267239921,
                -0.5026189320580685,
                0.7985874350523777,
                2.273287147924388
            ]
        },
        {
            "positions": [
                1.92237119838994,
                -1.4608935206105915,
                0.8631925894617769,
                -0.5944073340110854,
                0.8187954025784349,
                2.34255692376864
            ]
        },
        {
            "positions": [
                1.9876534260879153,
                -1.4461218642715534,
                0.9857246521995622,
                -0.6861957359641027,
                0.839003370104492,
                2.411826699612891
            ]
        },
        {
            "positions": [
                2.05293565378589,
                -1.4313502079325153,
                1.108256714937347,
                -0.7779841379171195,
                0.8592113376305491,
                2.481096475457143
            ]
        },
        {
            "positions": [
                2.118217881483865,
                -1.4165785515934775,
                1.2307887776751323,
                -0.8697725398701368,
                0.8794193051566062,
                2.5503662513013947
            ]
        },
        {
            "positions": [
                2.1835001091818405,
                -1.4018068952544394,
                1.3533208404129171,
                -0.9615609418231537,
                0.8996272726826633,
                2.619636027145646
            ]
        },
        {
            "positions": [
                2.2487823368798154,
                -1.3870352389154013,
                1.4758529031507024,
                -1.0533493437761707,
                0.9198352402087204,
                2.688905802989898
            ]
        },
        {
            "positions": [
                2.311651213227958,
                -1.324833971939298,
                1.5342489824345136,
                -1.0102890191626217,
                0.9409909604292814,
                2.7721460845175327
            ]
        },
        {
            "positions": [
                2.3745200895761003,
                -1.262632704963195,
                1.5926450617183248,
                -0.9672286945490726,
                0.9621466806498423,
                2.8553863660451677
            ]
        },
        {
            "positions": [
                2.4373889659242423,
                -1.200431437987092,
                1.651041141002136,
                -0.9241683699355234,
                0.9833024008704033,
                2.9386266475728027
            ]
        },
        {
            "positions": [
                2.5002578422723847,
                -1.1382301710109888,
                1.7094372202859471,
                -0.8811080453219744,
                1.0044581210909642,
                3.0218669291004376
            ]
        },
        {
            "positions": [
                2.563126718620527,
                -1.0760289040348856,
                1.7678332995697583,
                -0.8380477207084251,
                1.0256138413115252,
                3.1051072106280726
            ]
        },
        {
            "positions": [
                2.6259955949686695,
                -1.0138276370587824,
                1.8262293788535695,
                -0.7949873960948761,
                1.0467695615320862,
                3.1883474921557076
            ]
        }
    ]
}