{
    "goal": {
        "global_pose": {
            "orientation": {
                "w": 0.7047431493862688,
                "x": -0.7094548369677653,
                "y": 0.0024358444001904,
                "z": -0.0022348060817251984
            },
            "position": {
                "x": -0.39052492380142206,
                "y": 0.3671506643295288,
                "z": 0.19426114857196808
            }
        },
        "name": "move_to_magneteinheit_D"
    },
    "id": "BKPIECE_move_to_magneteinheit_D_93",
    "joint_names": [
        "shoulder_pan_joint",
        "shoulder_lift_joint",
        "elbow_joint",
        "wrist_1_joint",
        "wrist_2_joint",
        "wrist_3_joint"
    ],
    "metrics": {
        "cart_traj_len": 4.676289659376005,
        "distance_elbow_joint": 3.8777408637864004,
        "distance_shoulder_lift_joint": 1.8956551378979258,
        "distance_shoulder_pan_joint": 3.479704550845673,
        "distance_wrist_1_joint": 2.2514467425840543,
        "distance_wrist_2_joint": 0.9626317765771384,
        "distance_wrist_3_joint": 4.181199602481608,
        "smoothness": 0.8953446671159925,
        "time": 0.220669787,
        "traj_len": 4.080242477374696,
        "weighted_distance": 5.312707068745387
    },
    "planner": "BKPIECE",
    "start": {
        "state": {
            "elbow_joint": 0.749534889911806,
            "shoulder_lift_joint": -0.6476975780787326,
            "shoulder_pan_joint": -2.711696901376241,
            "wrist_1_joint": -0.07506478083263063,
            "wrist_2_joint": 0.43296659715538205,
            "wrist_3_joint": -3.14703540197715
        }
    },
    "waypoints": [
        {
            "positions": [
                -2.711696901376241,
                -0.6476975780787326,
                0.749534889911806,
                -0.07506478083263063,
                0.43296659715538205,
                -3.14703540197715
            ]
        },
        {
            "positions": [
                -2.7789229571380036,
                -0.7323413543420655,
                0.8408737826300379,
                -0.16031063383932065,
                0.4742287032875438,
                -3.1362827271098217
            ]
        },
        {
            "positions": [
                -2.846149012899766,
                -0.8169851306053983,
                0.9322126753482697,
                -0.24555648684601064,
                0.5154908094197056,
                -3.1255300522424934
            ]
        },
        {
            "positions": [
                -2.913375068661529,
                -0.9016289068687313,
                1.0235515680665015,
                -0.33080233985270063,
                0.5567529155518673,
                -3.1147773773751655
            ]
        },
        {
            "positions": [
                -2.9806011244232917,
                -0.9862726831320642,
                1.1148904607847334,
                -0.41604819285939065,
                0.5980150216840291,
                -3.104024702507837
            ]
        },
        {
            "positions": [
                -2.891342896166601,
                -1.0306441911308968,
                1.0483648144072444,
                -0.36897082391446717,
                0.5809218807130843,
                -2.9766751187182696
            ]
        },
        {
            "positions": [
                -2.80208466790991,
                -1.0750156991297293,
                0.9818391680297555,
                -0.3218934549695437,
                0.5638287397421394,
                -2.8493255349287017
            ]
        },
        {
            "positions": [
                -2.7128264396532193,
                -1.1193872071285618,
                0.9153135216522665,
                -0.2748160860246202,
                0.5467355987711946,
                -2.721975951139134
            ]
        },
        {
            "positions": [
                -2.6235682113965284,
                -1.1637587151273945,
                0.8487878752747775,
                -0.22773871707969673,
                0.5296424578002498,
                -2.5946263673495666
            ]
        },
        {
            "positions": [
                -2.5343099831398375,
                -1.208130223126227,
                0.7822622288972885,
                -0.18066134813477325,
                0.5125493168293049,
                -2.467276783559999
            ]
        },
        {
            "positions": [
                -2.4450517548831465,
                -1.2525017311250595,
                0.7157365825197995,
                -0.13358397918984977,
                0.4954561758583601,
                -2.3399271997704316
            ]
        },
        {
            "positions": [
                -2.3557935266264556,
                -1.296873239123892,
                0.6492109361423106,
                -0.08650661024492629,
                0.4783630348874153,
                -2.2125776159808637
            ]
        },
        {
            "positions": [
                -2.266535298369765,
                -1.3412447471227247,
                0.5826852897648216,
                -0.039429241300002804,
                0.46126989391647044,
                -2.085228032191296
            ]
        },
        {
            "positions": [
                -2.177277070113074,
                -1.3856162551215572,
                0.5161596433873326,
                0.0076481276449207325,
                0.44417675294552555,
                -1.9578784484017282
            ]
        },
        {
            "positions": [
                -2.088018841856383,
                -1.4299877631203897,
                0.44963399700984363,
                0.05472549658984416,
                0.4270836119745807,
                -1.8305288646121607
            ]
        },
        {
            "positions": [
                -1.9987606135996925,
                -1.4743592711192224,
                0.3831083506323547,
                0.10180286553476758,
                0.40999047100363595,
                -1.7031792808225932
            ]
        },
        {
            "positions": [
                -1.9095023853430015,
                -1.5187307791180549,
                0.3165827042548657,
                0.14888023447969112,
                0.3928973300326911,
                -1.5758296970330257
            ]
        },
        {
            "positions": [
                -1.8202441570863106,
                -1.5631022871168874,
                0.25005705787737664,
                0.19595760342461466,
                0.37580418906174623,
                -1.4484801132434577
            ]
        },
        {
            "positions": [
                -1.7309859288296199,
                -1.60747379511572,
                0.18353141149988772,
                0.24303497236953808,
                0.3587110480908014,
                -1.3211305294538902
            ]
        },
        {
            "positions": [
                -1.6417277005729292,
                -1.6518453031145524,
                0.1170057651223988,
                0.2901123413144615,
                0.34161790711985657,
                -1.1937809456643227
            ]
        },
        {
            "positions": [
                -1.5524694723162382,
                -1.696216811113385,
                0.05048011874490976,
                0.33718971025938504,
                0.32452476614891174,
                -1.0664313618747552
            ]
        },
        {
            "positions": [
                -1.4632112440595475,
                -1.7405883191122176,
                -0.01604552763257905,
                0.38426707920430847,
                0.3074316251779669,
                -0.9390817780851877
            ]
        },
        {
            "positions": [
                -1.3739530158028563,
                -1.7849598271110503,
                -0.0825711740100683,
                0.4313444481492321,
                0.290338484207022,
                -0.8117321942956193
            ]
        },
        {
            "positions": [
                -1.2846947875461656,
                -1.8293313351098828,
                -0.14909682038755734,
                0.47842181709415554,
                0.2732453432360772,
                -0.6843826105060518
            ]
        },
        {
            "positions": [
                -1.1954365592894747,
                -1.8737028431087155,
                -0.21562246676504615,
                0.525499186039079,
                0.25615220226513236,
                -0.5570330267164842
            ]
        },
        {
            "positions": [
                -1.106178331032784,
                -1.9180743511075478,
                -0.2821481131425352,
                0.5725765549840025,
                0.23905906129418752,
                -0.42968344292691674
            ]
        },
        {
            "positions": [
                -1.0169201027760932,
                -1.9624458591063805,
                -0.348673759520024,
                0.6196539239289258,
                0.22196592032324275,
                -0.3023338591373492
            ]
        },
        {
            "positions": [
                -0.9276618745194023,
                -2.0068173671052127,
                -0.41519940589751303,
                0.6667312928738494,
                0.20487277935229792,
                -0.17498427534778171
            ]
        },
        {
            "positions": [
                -0.8384036462627114,
                -2.0511888751040455,
                -0.48172505227500206,
                0.7138086618187729,
                0.1877796383813531,
                -0.047634691558214204
            ]
        },
        {
            "positions": [
                -0.7491454180060204,
                -2.095560383102878,
                -0.5482506986524911,
                0.7608860307636964,
                0.1706864974104082,
                0.0797148922313542
            ]
        },
        {
            "positions": [
                -0.6598871897493295,
                -2.139931891101711,
                -0.6147763450299801,
                0.80796339970862,
                0.15359335643946337,
                0.2070644760209217
            ]
        },
        {
            "positions": [
                -0.570628961492639,
                -2.184303399100543,
                -0.6813019914074689,
                0.8550407686535433,
                0.13650021546851854,
                0.3344140598104892
            ]
        },
        {
            "positions": [
                -0.481370733235948,
                -2.228674907099376,
                -0.747827637784958,
                0.9021181375984668,
                0.11940707449757369,
                0.46176364360005656
            ]
        },
        {
            "positions": [
                -0.4254790450462897,
                -2.2136844295599847,
                -0.9153327904257009,
                0.9649695084821637,
                0.14086417100270432,
                0.4093459888062281
            ]
        },
        {
            "positions": [
                -0.3695873568566314,
                -2.198693952020593,
                -1.0828379430664439,
                1.0278208793658605,
                0.16232126750783493,
                0.3569283340123996
            ]
        },
        {
            "positions": [
                -0.31369566866697307,
                -2.183703474481202,
                -1.2503430957071868,
                1.0906722502495574,
                0.18377836401296554,
                0.3045106792185711
            ]
        },
        {
            "positions": [
                -0.2578039804773148,
                -2.1687129969418106,
                -1.41784824834793,
                1.153523621133254,
                0.20523546051809616,
                0.2520930244247426
            ]
        },
        {
            "positions": [
                -0.2019122922876565,
                -2.153722519402419,
                -1.585353400988673,
                1.2163749920169509,
                0.2266925570232268,
                0.1996753696309141
            ]
        },
        {
            "positions": [
                -0.14602060409799822,
                -2.138732041863028,
                -1.7528585536294157,
                1.2792263629006477,
                0.24814965352835738,
                0.1472577148370856
            ]
        },
        {
            "positions": [
                -0.09012891590833988,
                -2.1237415643236366,
                -1.9203637062701588,
                1.3420777337843446,
                0.26960675003348805,
                0.09484006004325707
            ]
        },
        {
            "positions": [
                -0.03423722771868165,
                -2.108751086784245,
                -2.087868858910902,
                1.4049291046680414,
                0.2910638465386186,
                0.04242240524942864
            ]
        },
        {
            "positions": [
                0.02165446047097669,
                -2.0937606092448537,
                -2.2553740115516447,
                1.4677804755517383,
                0.3125209430437493,
                -0.009995249544399884
            ]
        },
        {
            "positions": [
                -0.08261791098120043,
                -2.183642364756234,
                -2.326434421840193,
                1.4544631444786555,
                0.24959017488581917,
                0.04032558233557206
            ]
        },
        {
            "positions": [
                -0.18689028243337755,
                -2.273524120267614,
                -2.3974948321287406,
                1.4411458134055728,
                0.18665940672788905,
                0.09064641421554401
            ]
        }
    ]
}