{
    "goal": {
        "global_pose": {
            "orientation": {
                "w": 0.5084816262002911,
                "x": -0.4908360881923452,
                "y": 0.5182115481033761,
                "z": -0.48164630358495003
            },
            "position": {
                "x": 0.5540239810943604,
                "y": -0.46912469901144505,
                "z": 0.16403168439865112
            }
        },
        "name": "move_to_storage_B"
    },
    "id": "BKPIECE_move_to_storage_B_7",
    "joint_names": [
        "shoulder_pan_joint",
        "shoulder_lift_joint",
        "elbow_joint",
        "wrist_1_joint",
        "wrist_2_joint",
        "wrist_3_joint"
    ],
    "metrics": {
        "cart_traj_len": 0.6485820118722778,
        "distance_elbow_joint": 0.37457186483928906,
        "distance_shoulder_lift_joint": 0.46041480840749216,
        "distance_shoulder_pan_joint": 0.3147748061643022,
        "distance_wrist_1_joint": 3.001904082484516,
        "distance_wrist_2_joint": 2.710266322398798,
        "distance_wrist_3_joint": 3.1345676898470285,
        "smoothness": 0.07885163795583537,
        "time": 0.25028667800000004,
        "traj_len": 3.161724145801058,
        "weighted_distance": 4.688049206089756
    },
    "planner": "BKPIECE",
    "start": {
        "state": {
            "elbow_joint": 1.664937868594044,
            "shoulder_lift_joint": -0.661644460510453,
            "shoulder_pan_joint": -0.9139846352900073,
            "wrist_1_joint": 2.146753192139373,
            "wrist_2_joint": -2.2341966793290973,
            "wrist_3_joint": 0.005466555786416001
        }
    },
    "waypoints": [
        {
            "positions": [
                -0.9139846352900073,
                -0.661644460510453,
                1.664937868594044,
                2.146753192139373,
                -2.2341966793290973,
                0.005466555786416001
            ]
        },
        {
            "positions": [
                -0.8475326722763248,
                -0.7012451608987847,
                1.654382150190332,
                2.0888407867209504,
                -2.177454864018564,
                -0.02327294407448936
            ]
        },
        {
            "positions": [
                -0.8574655860023496,
                -0.7180777252195512,
                1.668942796047755,
                1.9710811196383067,
                -2.071313883735033,
                -0.14750607167393429
            ]
        },
        {
            "positions": [
                -0.8673984997283744,
                -0.7349102895403176,
                1.6835034419051782,
                1.853321452555663,
                -1.9651729034515026,
                -0.2717391992733792
            ]
        },
        {
            "positions": [
                -0.8773314134543991,
                -0.751742853861084,
                1.6980640877626012,
                1.7355617854730192,
                -1.8590319231679722,
                -0.39597232687282413
            ]
        },
        {
            "positions": [
                -0.8872643271804239,
                -0.7685754181818504,
                1.7126247336200242,
                1.6178021183903755,
                -1.7528909428844415,
                -0.5202054544722691
            ]
        },
        {
            "positions": [
                -0.8971972409064487,
                -0.7854079825026168,
                1.7271853794774474,
                1.5000424513077317,
                -1.6467499626009108,
                -0.644438582071714
            ]
        },
        {
            "positions": [
                -0.9071301546324735,
                -0.8022405468233833,
                1.7417460253348704,
                1.382282784225088,
                -1.5406089823173803,
                -0.7686717096711588
            ]
        },
        {
            "positions": [
                -0.9170630683584983,
                -0.8190731111441497,
                1.7563066711922937,
                1.2645231171424443,
                -1.4344680020338496,
                -0.8929048372706039
            ]
        },
        {
            "positions": [
                -0.926995982084523,
                -0.8359056754649161,
                1.7708673170497167,
                1.1467634500598005,
                -1.3283270217503191,
                -1.0171379648700487
            ]
        },
        {
            "positions": [
                -0.9369288958105478,
                -0.8527382397856825,
                1.7854279629071397,
                1.0290037829771568,
                -1.2221860414667884,
                -1.1413710924694938
            ]
        },
        {
            "positions": [
                -0.9468618095365726,
                -0.8695708041064489,
                1.799988608764563,
                0.911244115894513,
                -1.116045061183258,
                -1.2656042200689388
            ]
        },
        {
            "positions": [
                -0.9567947232625975,
                -0.8864033684272153,
                1.814549254621986,
                0.7934844488118693,
                -1.0099040808997273,
                -1.3898373476683836
            ]
        },
        {
            "positions": [
                -0.9667276369886222,
                -0.9032359327479818,
                1.829109900479409,
                0.6757247817292256,
                -0.9037631006161968,
                -1.5140704752678285
            ]
        },
        {
            "positions": [
                -0.9766605507146471,
                -0.9200684970687482,
                1.8436705463368321,
                0.5579651146465818,
                -0.7976221203326661,
                -1.6383036028672735
            ]
        },
        {
            "positions": [
                -0.9865934644406719,
                -0.9369010613895146,
                1.8582311921942551,
                0.44020544756393787,
                -0.6914811400491354,
                -1.7625367304667185
            ]
        },
        {
            "positions": [
                -0.9965263781666966,
                -0.953733625710281,
                1.8727918380516781,
                0.32244578048129435,
                -0.5853401597656049,
                -1.8867698580661632
            ]
        },
        {
            "positions": [
                -1.0064592918927213,
                -0.9705661900310474,
                1.8873524839091014,
                0.20468611339865062,
                -0.47919917948207447,
                -2.011002985665608
            ]
        },
        {
            "positions": [
                -1.0163922056187462,
                -0.9873987543518139,
                1.9019131297665244,
                0.08692644631600688,
                -0.37305819919854377,
                -2.1352361132650532
            ]
        },
        {
            "positions": [
                -1.0263251193447709,
                -1.0042313186725802,
                1.9164737756239476,
                -0.03083322076663686,
                -0.2669172189150133,
                -2.259469240864498
            ]
        },
        {
            "positions": [
                -1.0362580330707958,
                -1.0210638829933467,
                1.9310344214813706,
                -0.1485928878492806,
                -0.16077623863148283,
                -2.383702368463943
            ]
        },
        {
            "positions": [
                -1.0461909467968207,
                -1.0378964473141132,
                1.9455950673387936,
                -0.26635255493192433,
                -0.05463525834795213,
                -2.507935496063388
            ]
        },
        {
            "positions": [
                -1.0561238605228453,
                -1.0547290116348795,
                1.9601557131962166,
                -0.38411222201456807,
                0.05150572193557856,
                -2.6321686236628326
            ]
        },
        {
            "positions": [
                -1.06605677424887,
                -1.0715615759556458,
                1.9747163590536398,
                -0.5018718890972118,
                0.15764670221910926,
                -2.7564017512622776
            ]
        },
        {
            "positions": [
                -1.075989687974895,
                -1.0883941402764123,
                1.9892770049110629,
                -0.6196315561798555,
                0.26378768250263995,
                -2.8806348788617226
            ]
        },
        {
            "positions": [
                -1.0859226017009198,
                -1.1052267045971789,
                2.003837650768486,
                -0.7373912232624993,
                0.3699286627861702,
                -3.0048680064611673
            ]
        },
        {
            "positions": [
                -1.0958555154269445,
                -1.1220592689179452,
                2.018398296625909,
                -0.8551508903451428,
                0.476069643069701,
                -3.1291011340606123
            ]
        }
    ]
}