{
    "goal": {
        "global_pose": {
            "orientation": {
                "w": 0.7047431468963623,
                "x": -0.7094548344612122,
                "y": 0.0024358443915843964,
                "z": -0.0022348060738295317
            },
            "position": {
                "x": 0.6094750761985779,
                "y": 0.3671506643295288,
                "z": 0.19426114857196808
            }
        },
        "name": "move_to_magneteinheit_A"
    },
    "id": "BKPIECE_move_to_magneteinheit_A_98",
    "joint_names": [
        "shoulder_pan_joint",
        "shoulder_lift_joint",
        "elbow_joint",
        "wrist_1_joint",
        "wrist_2_joint",
        "wrist_3_joint"
    ],
    "metrics": {
        "cart_traj_len": 3.137786659706384,
        "distance_elbow_joint": 3.8824889145190746,
        "distance_shoulder_lift_joint": 0.5135748530094808,
        "distance_shoulder_pan_joint": 2.77375929505493,
        "distance_wrist_1_joint": 1.328929899812545,
        "distance_wrist_2_joint": 1.6922866941024635,
        "distance_wrist_3_joint": 3.6573514493003514,
        "smoothness": 0.03684065338606611,
        "time": 0.327738423,
        "traj_len": 3.7213426482653875,
        "weighted_distance": 4.917754629738511
    },
    "planner": "BKPIECE",
    "start": {
        "state": {
            "elbow_joint": -1.9196185241190666,
            "shoulder_lift_joint": -1.2443396400964142,
            "shoulder_pan_joint": 2.6996025414629847,
            "wrist_1_joint": -1.5485510000780065,
            "wrist_2_joint": -1.5709468930060704,
            "wrist_3_joint": 0.4420197071253992
        }
    },
    "waypoints": [
        {
            "positions": [
                2.6996025414629847,
                -1.2443396400964142,
                -1.9196185241190666,
                -1.5485510000780065,
                -1.5709468930060704,
                0.4420197071253992
            ]
        },
        {
            "positions": [
                2.5996061872387495,
                -1.2524038281805294,
                -1.7896943697566987,
                -1.5080064704855907,
                -1.5279430585905471,
                0.37136778172218193
            ]
        },
        {
            "positions": [
                2.499609833014514,
                -1.2604680162646447,
                -1.6597702153943308,
                -1.4674619408931746,
                -1.4849392241750237,
                0.3007158563189647
            ]
        },
        {
            "positions": [
                2.3996134787902785,
                -1.26853220434876,
                -1.5298460610319626,
                -1.4269174113007588,
                -1.4419353897595004,
                0.23006393091574745
            ]
        },
        {
            "positions": [
                2.299617124566043,
                -1.2765963924328751,
                -1.3999219066695947,
                -1.386372881708343,
                -1.3989315553439772,
                0.15941200551253015
            ]
        },
        {
            "positions": [
                2.1996207703418076,
                -1.2846605805169904,
                -1.2699977523072268,
                -1.3458283521159269,
                -1.3559277209284537,
                0.08876008010931291
            ]
        },
        {
            "positions": [
                2.0996244161175723,
                -1.2927247686011056,
                -1.1400735979448586,
                -1.305283822523511,
                -1.3129238865129305,
                0.018108154706095725
            ]
        },
        {
            "positions": [
                1.9996280618933366,
                -1.3007889566852209,
                -1.0101494435824905,
                -1.264739292931095,
                -1.2699200520974072,
                -0.05254377069712163
            ]
        },
        {
            "positions": [
                1.8996317076691014,
                -1.3088531447693361,
                -0.8802252892201228,
                -1.2241947633386792,
                -1.226916217681884,
                -0.12319569610033887
            ]
        },
        {
            "positions": [
                1.799635353444866,
                -1.3169173328534514,
                -0.7503011348577548,
                -1.1836502337462633,
                -1.1839123832663607,
                -0.19384762150355606
            ]
        },
        {
            "positions": [
                1.6996389992206304,
                -1.3249815209375666,
                -0.6203769804953867,
                -1.1431057041538473,
                -1.1409085488508373,
                -0.26449954690677335
            ]
        },
        {
            "positions": [
                1.599642644996395,
                -1.3330457090216818,
                -0.49045282613301877,
                -1.1025611745614314,
                -1.097904714435314,
                -0.33515147230999054
            ]
        },
        {
            "positions": [
                1.4996462907721597,
                -1.341109897105797,
                -0.36052867177065084,
                -1.0620166449690156,
                -1.0549008800197908,
                -0.4058033977132077
            ]
        },
        {
            "positions": [
                1.399649936547924,
                -1.349174085189912,
                -0.2306045174082827,
                -1.0214721153765995,
                -1.0118970456042673,
                -0.47645532311642513
            ]
        },
        {
            "positions": [
                1.2996535823236885,
                -1.3572382732740276,
                -0.10068036304591454,
                -0.9809275857841836,
                -0.968893211188744,
                -0.5471072485196424
            ]
        },
        {
            "positions": [
                1.1996572280994533,
                -1.3653024613581426,
                0.02924379131645316,
                -0.9403830561917678,
                -0.9258893767732208,
                -0.6177591739228595
            ]
        },
        {
            "positions": [
                1.0996608738752178,
                -1.3733666494422578,
                0.1591679456788211,
                -0.8998385265993518,
                -0.8828855423576975,
                -0.6884110993260769
            ]
        },
        {
            "positions": [
                0.9996645196509824,
                -1.381430837526373,
                0.28909210004118924,
                -0.8592939970069359,
                -0.8398817079421741,
                -0.7590630247292941
            ]
        },
        {
            "positions": [
                0.8996681654267471,
                -1.3894950256104883,
                0.41901625440355694,
                -0.81874946741452,
                -0.7968778735266508,
                -0.8297149501325113
            ]
        },
        {
            "positions": [
                0.7996718112025116,
                -1.3975592136946036,
                0.5489404087659251,
                -0.7782049378221041,
                -0.7538740391111275,
                -0.9003668755357285
            ]
        },
        {
            "positions": [
                0.6996754569782762,
                -1.4056234017787188,
                0.6788645631282932,
                -0.7376604082296881,
                -0.7108702046956041,
                -0.9710188009389459
            ]
        },
        {
            "positions": [
                0.5996791027540409,
                -1.413687589862834,
                0.808788717490661,
                -0.6971158786372723,
                -0.667866370280081,
                -1.0416707263421632
            ]
        },
        {
            "positions": [
                0.4996827485298052,
                -1.4217517779469493,
                0.9387128718530291,
                -0.6565713490448564,
                -0.6248625358645576,
                -1.1123226517453801
            ]
        },
        {
            "positions": [
                0.39968639430556996,
                -1.4298159660310645,
                1.0686370262153972,
                -0.6160268194524404,
                -0.5818587014490343,
                -1.1829745771485976
            ]
        },
        {
            "positions": [
                0.2996900400813347,
                -1.4378801541151798,
                1.198561180577765,
                -0.5754822898600246,
                -0.5388548670335109,
                -1.2536265025518145
            ]
        },
        {
            "positions": [
                0.19969368585709918,
                -1.445944342199295,
                1.328485334940133,
                -0.5349377602676086,
                -0.4958510326179877,
                -1.3242784279550321
            ]
        },
        {
            "positions": [
                0.14398670651145312,
                -1.4419214347553693,
                1.421686769615053,
                -0.5114256645696142,
                -0.4596238353029608,
                -1.3966669043319877
            ]
        },
        {
            "positions": [
                0.08827972716580709,
                -1.4378985273114437,
                1.514888204289973,
                -0.4879135688716199,
                -0.42339663798793387,
                -1.469055380708943
            ]
        },
        {
            "positions": [
                0.055996307454023,
                -1.4067673035737716,
                1.6130362140699697,
                -0.48529799232834847,
                -0.35508237754547456,
                -1.630105331816925
            ]
        },
        {
            "positions": [
                0.023712887742238908,
                -1.3756360798360994,
                1.7111842238499664,
                -0.482682415785077,
                -0.2867681171030152,
                -1.7911552829249069
            ]
        },
        {
            "positions": [
                0.032435330768021964,
                -1.343364516576745,
                1.7490956128082598,
                -0.5087225790300526,
                -0.23010052566414335,
                -1.963748794141627
            ]
        },
        {
            "positions": [
                0.041157773793805016,
                -1.3110929533173903,
                1.787007001766553,
                -0.5347627422750281,
                -0.17343293422527148,
                -2.1363423053583475
            ]
        },
        {
            "positions": [
                0.04988021681958807,
                -1.2788213900580359,
                1.824918390724846,
                -0.5608029055200037,
                -0.1167653427863996,
                -2.3089358165750675
            ]
        },
        {
            "positions": [
                0.058602659845371115,
                -1.2465498267986814,
                1.8628297796831395,
                -0.5868430687649793,
                -0.060097751347527775,
                -2.4815293277917876
            ]
        },
        {
            "positions": [
                0.07434762715313431,
                -1.2184059179221849,
                1.8878399323623567,
                -0.6265682343999076,
                -0.01473836323654764,
                -2.664979931387579
            ]
        },
        {
            "positions": [
                0.09009259446089751,
                -1.1902620090456884,
                1.9128500850415737,
                -0.666293400034836,
                0.030621024874432495,
                -2.84843053498337
            ]
        },
        {
            "positions": [
                0.1058375617686607,
                -1.1621181001691916,
                1.9378602377207907,
                -0.7060185656697643,
                0.07598041298541262,
                -3.031881138579161
            ]
        },
        {
            "positions": [
                0.1215825290764239,
                -1.133974191292695,
                1.962870390400008,
                -0.7457437313046926,
                0.12133980109639277,
                -3.215331742174952
            ]
        }
    ]
}