{
    "goal": {
        "global_pose": {
            "orientation": {
                "w": 0.7031023502349854,
                "x": -0.7110244035720825,
                "y": 0.007748599164187908,
                "z": 0.005598929710686207
            },
            "position": {
                "x": 0.11585023208521307,
                "y": 0.44412534475326537,
                "z": 0.3711530566215515
            }
        },
        "name": "move_to_auspresseinheit_A"
    },
    "id": "BKPIECE_move_to_auspresseinheit_A_124",
    "joint_names": [
        "shoulder_pan_joint",
        "shoulder_lift_joint",
        "elbow_joint",
        "wrist_1_joint",
        "wrist_2_joint",
        "wrist_3_joint"
    ],
    "metrics": {
        "cart_traj_len": 2.1851031565762407,
        "distance_elbow_joint": 2.9131442804611685,
        "distance_shoulder_lift_joint": 0.5349149653660576,
        "distance_shoulder_pan_joint": 1.0749341956810656,
        "distance_wrist_1_joint": 1.290754089407657,
        "distance_wrist_2_joint": 0.6468340727768744,
        "distance_wrist_3_joint": 3.6702890887156157,
        "smoothness": 0.8991220818529232,
        "time": 0.20455878700000002,
        "traj_len": 3.18290287197213,
        "weighted_distance": 4.4055688658814764
    },
    "planner": "BKPIECE",
    "start": {
        "state": {
            "elbow_joint": 2.4225746658250005,
            "shoulder_lift_joint": -1.3736534386056498,
            "shoulder_pan_joint": -0.3378633547517467,
            "wrist_1_joint": -1.0288598680537169,
            "wrist_2_joint": 1.233022673432363,
            "wrist_3_joint": -3.0940220416140027
        }
    },
    "waypoints": [
        {
            "positions": [
                -0.3378633547517467,
                -1.3736534386056498,
                2.4225746658250005,
                -1.0288598680537169,
                1.233022673432363,
                -3.0940220416140027
            ]
        },
        {
            "positions": [
                -0.33916391094684967,
                -1.3949827308780407,
                2.309379599599313,
                -0.9735107600220982,
                1.1876536945433054,
                -2.954291977645236
            ]
        },
        {
            "positions": [
                -0.3404644671419526,
                -1.4163120231504314,
                2.196184533373626,
                -0.9181616519904795,
                1.1422847156542477,
                -2.814561913676469
            ]
        },
        {
            "positions": [
                -0.3417650233370556,
                -1.4376413154228223,
                2.0829894671479385,
                -0.8628125439588609,
                1.0969157367651898,
                -2.6748318497077026
            ]
        },
        {
            "positions": [
                -0.34306557953215855,
                -1.4589706076952131,
                1.9697944009222514,
                -0.8074634359272421,
                1.0515467578761322,
                -2.5351017857389357
            ]
        },
        {
            "positions": [
                -0.3443661357272615,
                -1.4802998999676038,
                1.8565993346965644,
                -0.7521143278956235,
                1.0061777789870745,
                -2.395371721770169
            ]
        },
        {
            "positions": [
                -0.34566669192236443,
                -1.5016291922399947,
                1.743404268470877,
                -0.6967652198640049,
                0.9608088000980168,
                -2.255641657801402
            ]
        },
        {
            "positions": [
                -0.34696724811746743,
                -1.5229584845123854,
                1.6302092022451897,
                -0.6414161118323862,
                0.9154398212089592,
                -2.1159115938326356
            ]
        },
        {
            "positions": [
                -0.3482678043125704,
                -1.5442877767847762,
                1.5170141360195024,
                -0.5860670038007674,
                0.8700708423199015,
                -1.9761815298638685
            ]
        },
        {
            "positions": [
                -0.3495683605076733,
                -1.5656170690571671,
                1.4038190697938153,
                -0.5307178957691487,
                0.8247018634308438,
                -1.8364514658951019
            ]
        },
        {
            "positions": [
                -0.35086891670277626,
                -1.5869463613295578,
                1.290624003568128,
                -0.4753687877375301,
                0.779332884541786,
                -1.696721401926335
            ]
        },
        {
            "positions": [
                -0.35216947289787925,
                -1.6082756536019487,
                1.1774289373424407,
                -0.4200196797059115,
                0.7339639056527283,
                -1.5569913379575684
            ]
        },
        {
            "positions": [
                -0.3534700290929822,
                -1.6296049458743394,
                1.0642338711167534,
                -0.36467057167429273,
                0.6885949267636706,
                -1.4172612739888015
            ]
        },
        {
            "positions": [
                -0.35477058528808514,
                -1.6509342381467302,
                0.9510388048910662,
                -0.3093214636426741,
                0.643225947874613,
                -1.277531210020035
            ]
        },
        {
            "positions": [
                -0.29487675516639844,
                -1.6766874454910698,
                1.0739793881666162,
                -0.2884340475959223,
                0.6435870281472874,
                -1.4061084960142238
            ]
        },
        {
            "positions": [
                -0.23498292504471174,
                -1.7024406528354097,
                1.196919971442166,
                -0.2675466315491705,
                0.6439481084199619,
                -1.5346857820084128
            ]
        },
        {
            "positions": [
                -0.17508909492302505,
                -1.7281938601797493,
                1.3198605547177162,
                -0.24665921550241873,
                0.6443091886926363,
                -1.663263068002602
            ]
        },
        {
            "positions": [
                -0.11519526480133835,
                -1.7539470675240891,
                1.4428011379932661,
                -0.22577179945566694,
                0.6446702689653108,
                -1.7918403539967909
            ]
        },
        {
            "positions": [
                -0.05530143467965165,
                -1.7797002748684287,
                1.5657417212688163,
                -0.20488438340891515,
                0.6450313492379852,
                -1.9204176399909798
            ]
        },
        {
            "positions": [
                0.004592395442035047,
                -1.8054534822127684,
                1.6886823045443662,
                -0.18399696736216337,
                0.6453924295106597,
                -2.048994925985169
            ]
        },
        {
            "positions": [
                0.06448622556372174,
                -1.8312066895571082,
                1.811622887819916,
                -0.16310955131541158,
                0.6457535097833341,
                -2.1775722119793577
            ]
        },
        {
            "positions": [
                0.12438005568540844,
                -1.8569598969014478,
                1.9345634710954662,
                -0.1422221352686598,
                0.6461145900560086,
                -2.306149497973547
            ]
        },
        {
            "positions": [
                0.18427388580709514,
                -1.8827131042457876,
                2.0575040543710164,
                -0.121334719221908,
                0.646475670328683,
                -2.4347267839677356
            ]
        },
        {
            "positions": [
                0.24416771592878178,
                -1.9084663115901273,
                2.1804446376465663,
                -0.10044730317515621,
                0.6468367506013575,
                -2.5633040699619247
            ]
        },
        {
            "positions": [
                0.3359854487143538,
                -1.9084458931138113,
                2.222885155000913,
                -0.1729156080809754,
                0.6575220594998334,
                -2.6769091493978765
            ]
        },
        {
            "positions": [
                0.4278031814999259,
                -1.9084254746374951,
                2.2653256723552597,
                -0.24538391298679457,
                0.6682073683983094,
                -2.790514228833828
            ]
        },
        {
            "positions": [
                0.519620914285498,
                -1.9084050561611792,
                2.3077661897096067,
                -0.31785221789261375,
                0.6788926772967854,
                -2.9041193082697796
            ]
        },
        {
            "positions": [
                0.61143864707107,
                -1.908384637684863,
                2.350206707063953,
                -0.39032052279843293,
                0.6895779861952613,
                -3.017724387705731
            ]
        },
        {
            "positions": [
                0.703256379856642,
                -1.908364219208547,
                2.3926472244183,
                -0.4627888277042521,
                0.7002632950937373,
                -3.1313294671416827
            ]
        }
    ]
}