{
    "goal": {
        "global_pose": {
            "orientation": {
                "w": 0.7031023502349854,
                "x": -0.7110244035720825,
                "y": 0.007748599164187908,
                "z": 0.005598929710686207
            },
            "position": {
                "x": 0.11585023208521307,
                "y": 0.44412534475326537,
                "z": 0.3711530566215515
            }
        },
        "name": "move_to_auspresseinheit_A"
    },
    "id": "BKPIECE_move_to_auspresseinheit_A_140",
    "joint_names": [
        "shoulder_pan_joint",
        "shoulder_lift_joint",
        "elbow_joint",
        "wrist_1_joint",
        "wrist_2_joint",
        "wrist_3_joint"
    ],
    "metrics": {
        "cart_traj_len": 2.234486893960483,
        "distance_elbow_joint": 3.167232700599412,
        "distance_shoulder_lift_joint": 0.5873664394614362,
        "distance_shoulder_pan_joint": 1.7572723292702794,
        "distance_wrist_1_joint": 0.9771219470624593,
        "distance_wrist_2_joint": 1.7589404256000813,
        "distance_wrist_3_joint": 3.365219107657945,
        "smoothness": 0.8096634161178523,
        "time": 0.321015243,
        "traj_len": 3.4078076456354776,
        "weighted_distance": 4.591258382799866
    },
    "planner": "BKPIECE",
    "start": {
        "state": {
            "elbow_joint": 2.4225746658250005,
            "shoulder_lift_joint": -1.3736534386056498,
            "shoulder_pan_joint": -0.3378633547517467,
            "wrist_1_joint": -1.0288598680537169,
            "wrist_2_joint": 1.233022673432363,
            "wrist_3_joint": -3.0940220416140027
        }
    },
    "waypoints": [
        {
            "positions": [
                -0.3378633547517467,
                -1.3736534386056498,
                2.4225746658250005,
                -1.0288598680537169,
                1.233022673432363,
                -3.0940220416140027
            ]
        },
        {
            "positions": [
                -0.3616827136287131,
                -1.3819374286750674,
                2.3159679018632655,
                -0.9770938787720215,
                1.157049794551506,
                -2.983358406523481
            ]
        },
        {
            "positions": [
                -0.38550207250567947,
                -1.3902214187444848,
                2.2093611379015305,
                -0.925327889490326,
                1.0810769156706486,
                -2.8726947714329594
            ]
        },
        {
            "positions": [
                -0.4093214313826459,
                -1.3985054088139024,
                2.1027543739397956,
                -0.8735619002086306,
                1.0051040367897914,
                -2.7620311363424377
            ]
        },
        {
            "positions": [
                -0.4331407902596123,
                -1.40678939888332,
                1.9961476099780604,
                -0.8217959109269352,
                0.9291311579089342,
                -2.651367501251916
            ]
        },
        {
            "positions": [
                -0.4569601491365786,
                -1.4150733889527374,
                1.8895408460163254,
                -0.7700299216452398,
                0.853158279028077,
                -2.540703866161394
            ]
        },
        {
            "positions": [
                -0.480779508013545,
                -1.423357379022155,
                1.7829340820545903,
                -0.7182639323635442,
                0.7771854001472197,
                -2.430040231070872
            ]
        },
        {
            "positions": [
                -0.5045988668905114,
                -1.4316413690915726,
                1.6763273180928553,
                -0.6664979430818487,
                0.7012125212663625,
                -2.3193765959803505
            ]
        },
        {
            "positions": [
                -0.5284182257674778,
                -1.43992535916099,
                1.5697205541311203,
                -0.6147319538001534,
                0.6252396423855053,
                -2.208712960889829
            ]
        },
        {
            "positions": [
                -0.5522375846444442,
                -1.4482093492304076,
                1.4631137901693854,
                -0.5629659645184579,
                0.5492667635046481,
                -2.098049325799307
            ]
        },
        {
            "positions": [
                -0.5760569435214106,
                -1.4564933392998252,
                1.3565070262076504,
                -0.5111999752367625,
                0.47329388462379085,
                -1.9873856907087855
            ]
        },
        {
            "positions": [
                -0.5998763023983769,
                -1.4647773293692425,
                1.2499002622459154,
                -0.4594339859550671,
                0.3973210057429337,
                -1.8767220556182638
            ]
        },
        {
            "positions": [
                -0.6236956612753433,
                -1.4730613194386601,
                1.1432934982841803,
                -0.4076679966733716,
                0.32134812686207637,
                -1.7660584205277419
            ]
        },
        {
            "positions": [
                -0.6475150201523097,
                -1.4813453095080777,
                1.0366867343224453,
                -0.3559020073916761,
                0.24537524798121912,
                -1.6553947854372202
            ]
        },
        {
            "positions": [
                -0.6713343790292761,
                -1.4896292995774951,
                0.9300799703607103,
                -0.3041360181099807,
                0.16940236910036188,
                -1.5447311503466985
            ]
        },
        {
            "positions": [
                -0.6951537379062425,
                -1.4979132896469127,
                0.8234732063989754,
                -0.25237002882828535,
                0.09342949021950486,
                -1.4340675152561768
            ]
        },
        {
            "positions": [
                -0.6114846758036606,
                -1.5341594079936243,
                0.9433407105634641,
                -0.25591160086259934,
                0.11619126972464361,
                -1.5504423902178204
            ]
        },
        {
            "positions": [
                -0.5278156137010788,
                -1.5704055263403358,
                1.0632082147279527,
                -0.2594531728969134,
                0.13895304922978235,
                -1.6668172651794642
            ]
        },
        {
            "positions": [
                -0.4441465515984969,
                -1.6066516446870476,
                1.1830757188924415,
                -0.2629947449312274,
                0.16171482873492113,
                -1.7831921401411077
            ]
        },
        {
            "positions": [
                -0.36047748949591507,
                -1.6428977630337591,
                1.3029432230569302,
                -0.26653631696554136,
                0.18447660824005988,
                -1.8995670151027513
            ]
        },
        {
            "positions": [
                -0.2768084273933332,
                -1.6791438813804707,
                1.422810727221419,
                -0.27007788899985535,
                0.20723838774519865,
                -2.0159418900643953
            ]
        },
        {
            "positions": [
                -0.19313936529075137,
                -1.7153899997271822,
                1.5426782313859078,
                -0.27361946103416934,
                0.2300001672503374,
                -2.132316765026039
            ]
        },
        {
            "positions": [
                -0.10947030318816953,
                -1.7516361180738937,
                1.6625457355503963,
                -0.2771610330684834,
                0.25276194675547614,
                -2.2486916399876824
            ]
        },
        {
            "positions": [
                -0.02580124108558768,
                -1.7878822364206053,
                1.782413239714885,
                -0.2807026051027974,
                0.2755237262606149,
                -2.365066514949326
            ]
        },
        {
            "positions": [
                0.05786782101699417,
                -1.8241283547673168,
                1.9022807438793738,
                -0.28424417713711136,
                0.29828550576575363,
                -2.4814413899109695
            ]
        },
        {
            "positions": [
                0.14153688311957602,
                -1.8603744731140286,
                2.0221482480438624,
                -0.2877857491714254,
                0.32104728527089244,
                -2.5978162648726135
            ]
        },
        {
            "positions": [
                0.22520594522215787,
                -1.8966205914607401,
                2.1420157522083514,
                -0.2913273212057394,
                0.3438090647760312,
                -2.7141911398342566
            ]
        },
        {
            "positions": [
                0.3088750073247398,
                -1.9328667098074517,
                2.26188325637284,
                -0.2948688932400534,
                0.3665708442811699,
                -2.8305660147959006
            ]
        },
        {
            "positions": [
                0.3816893198009782,
                -1.9337570174643126,
                2.3142714533231032,
                -0.32288297862802334,
                0.4282237078197633,
                -2.9094636376772742
            ]
        },
        {
            "positions": [
                0.4545036322772166,
                -1.9346473251211738,
                2.366659650273367,
                -0.3508970640159933,
                0.4898765713583567,
                -2.9883612605586483
            ]
        },
        {
            "positions": [
                0.5796659202433789,
                -1.9214610486482178,
                2.3791320489228647,
                -0.40194960034065325,
                0.6013266519825429,
                -3.0638466785574723
            ]
        },
        {
            "positions": [
                0.7048282082095414,
                -1.9082747721752615,
                2.3916044475723623,
                -0.4530021366653132,
                0.712776732606729,
                -3.139332096556296
            ]
        }
    ]
}