{
    "goal": {
        "global_pose": {
            "orientation": {
                "w": -0.00223480608172531,
                "x": 0.0024358444001904467,
                "y": 0.7094548369677653,
                "z": -0.704743149386269
            },
            "position": {
                "x": 0.6205249238014221,
                "y": -0.6371506643295288,
                "z": 0.19426114857196808
            }
        },
        "name": "move_to_magneteinheit_B"
    },
    "id": "BKPIECE_move_to_magneteinheit_B_139",
    "joint_names": [
        "shoulder_pan_joint",
        "shoulder_lift_joint",
        "elbow_joint",
        "wrist_1_joint",
        "wrist_2_joint",
        "wrist_3_joint"
    ],
    "metrics": {
        "cart_traj_len": 4.7006579385709095,
        "distance_elbow_joint": 6.667779647366245,
        "distance_shoulder_lift_joint": 5.675432494680919,
        "distance_shoulder_pan_joint": 3.57778316074725,
        "distance_wrist_1_joint": 2.6688840092551533,
        "distance_wrist_2_joint": 1.2445686540098344,
        "distance_wrist_3_joint": 5.032508246531081,
        "smoothness": 0.6979930153964911,
        "time": 0.365124287,
        "traj_len": 4.986677873353212,
        "weighted_distance": 6.232609836089347
    },
    "planner": "BKPIECE",
    "start": {
        "state": {
            "elbow_joint": 2.6216224122426386,
            "shoulder_lift_joint": -1.4174107377796124,
            "shoulder_pan_joint": 0.7066234856936794,
            "wrist_1_joint": 1.9546482284002225,
            "wrist_2_joint": -0.7096286983471962,
            "wrist_3_joint": 0.005740856962016249
        }
    },
    "waypoints": [
        {
            "positions": [
                0.7066234856936794,
                -1.4174107377796124,
                2.6216224122426386,
                1.9546482284002225,
                -0.7096286983471962,
                0.005740856962016249
            ]
        },
        {
            "positions": [
                0.595236490435825,
                -1.4569036766151422,
                2.599825118336284,
                1.9961515822666873,
                -0.7232669974586146,
                -0.05260441811856692
            ]
        },
        {
            "positions": [
                0.4838494951779707,
                -1.4963966154506718,
                2.5780278244299293,
                2.037654936133152,
                -0.7369052965700328,
                -0.11094969319915009
            ]
        },
        {
            "positions": [
                0.46099184745303867,
                -1.5457880896452239,
                2.4996323512723118,
                1.9643786829607566,
                -0.6925810265207648,
                0.002071547780480562
            ]
        },
        {
            "positions": [
                0.43813419972810663,
                -1.5951795638397757,
                2.421236878114694,
                1.891102429788361,
                -0.6482567564714969,
                0.11509278876011121
            ]
        },
        {
            "positions": [
                0.41527655200317465,
                -1.6445710380343277,
                2.3428414049570763,
                1.8178261766159654,
                -0.6039324864222291,
                0.22811402973974182
            ]
        },
        {
            "positions": [
                0.3924189042782426,
                -1.6939625122288795,
                2.2644459317994587,
                1.7445499234435697,
                -0.5596082163729611,
                0.3411352707193725
            ]
        },
        {
            "positions": [
                0.36956125655331057,
                -1.7433539864234315,
                2.1860504586418408,
                1.6712736702711743,
                -0.5152839463236932,
                0.4541565116990031
            ]
        },
        {
            "positions": [
                0.3467036088283786,
                -1.7927454606179833,
                2.1076549854842233,
                1.5979974170987787,
                -0.4709596762744253,
                0.5671777526786338
            ]
        },
        {
            "positions": [
                0.32384596110344654,
                -1.8421369348125354,
                2.0292595123266057,
                1.5247211639263831,
                -0.4266354062251574,
                0.6801989936582644
            ]
        },
        {
            "positions": [
                0.3009883133785145,
                -1.8915284090070874,
                1.950864039168988,
                1.4514449107539873,
                -0.3823111361758894,
                0.7932202346378951
            ]
        },
        {
            "positions": [
                0.27813066565358247,
                -1.9409198832016392,
                1.8724685660113702,
                1.378168657581592,
                -0.33798686612662154,
                0.9062414756175259
            ]
        },
        {
            "positions": [
                0.2552730179286504,
                -1.990311357396191,
                1.7940730928537527,
                1.3048924044091963,
                -0.2936625960773536,
                1.0192627165971564
            ]
        },
        {
            "positions": [
                0.23241537020371839,
                -2.039702831590743,
                1.715677619696135,
                1.2316161512368007,
                -0.24933832602808564,
                1.1322839575767871
            ]
        },
        {
            "positions": [
                0.2095577224787864,
                -2.089094305785295,
                1.6372821465385174,
                1.1583398980644053,
                -0.20501405597881783,
                1.2453051985564176
            ]
        },
        {
            "positions": [
                0.1867000747538543,
                -2.138485779979847,
                1.5588866733808997,
                1.0850636448920095,
                -0.16068978592954986,
                1.3583264395360484
            ]
        },
        {
            "positions": [
                0.16384242702892232,
                -2.1878772541743987,
                1.4804912002232822,
                1.011787391719614,
                -0.11636551588028199,
                1.4713476805156789
            ]
        },
        {
            "positions": [
                0.14098477930399028,
                -2.2372687283689507,
                1.4020957270656644,
                0.9385111385472182,
                -0.07204124583101401,
                1.5843689214953096
            ]
        },
        {
            "positions": [
                0.11812713157905824,
                -2.2866602025635028,
                1.3237002539080467,
                0.8652348853748226,
                -0.027716975781746034,
                1.6973901624749403
            ]
        },
        {
            "positions": [
                0.09526948385412626,
                -2.336051676758055,
                1.2453047807504292,
                0.7919586322024272,
                0.01660729426752172,
                1.8104114034545709
            ]
        },
        {
            "positions": [
                0.07241183612919416,
                -2.3854431509526064,
                1.1669093075928114,
                0.7186823790300316,
                0.0609315643167897,
                1.9234326444342018
            ]
        },
        {
            "positions": [
                0.04955418840426218,
                -2.4348346251471584,
                1.088513834435194,
                0.645406125857636,
                0.10525583436605757,
                2.036453885413832
            ]
        },
        {
            "positions": [
                0.02669654067933011,
                -2.4842260993417105,
                1.0101183612775761,
                0.5721298726852404,
                0.14958010441532554,
                2.1494751263934626
            ]
        },
        {
            "positions": [
                0.02122294414272682,
                -2.3881670180329317,
                0.8491253779061985,
                0.6045211674109962,
                0.14936508099698875,
                2.0494442866048423
            ]
        },
        {
            "positions": [
                0.01574934760612353,
                -2.292107936724153,
                0.6881323945348209,
                0.6369124621367518,
                0.14915005757865196,
                1.9494134468162223
            ]
        },
        {
            "positions": [
                0.01027575106952024,
                -2.1960488554153743,
                0.5271394111634432,
                0.6693037568625075,
                0.14893503416031517,
                1.8493826070276023
            ]
        },
        {
            "positions": [
                0.00480215453291695,
                -2.0999897741065956,
                0.36614642779206563,
                0.7016950515882632,
                0.14872001074197838,
                1.749351767238982
            ]
        },
        {
            "positions": [
                -0.0006714420036863407,
                -2.0039306927978164,
                0.20515344442068784,
                0.734086346314019,
                0.1485049873236416,
                1.649320927450362
            ]
        },
        {
            "positions": [
                -0.006145038540289631,
                -1.9078716114890377,
                0.04416046104931026,
                0.7664776410397747,
                0.1482899639053048,
                1.549290087661742
            ]
        },
        {
            "positions": [
                -0.011618635076892925,
                -1.811812530180259,
                -0.11683252232206742,
                0.7988689357655304,
                0.148074940486968,
                1.4492592478731217
            ]
        },
        {
            "positions": [
                -0.01709223161349621,
                -1.7157534488714803,
                -0.2778255056934449,
                0.8312602304912861,
                0.14785991706863122,
                1.3492284080845016
            ]
        },
        {
            "positions": [
                -0.0225658281500995,
                -1.6196943675627016,
                -0.4388184890648228,
                0.8636515252170418,
                0.14764489365029443,
                1.2491975682958814
            ]
        },
        {
            "positions": [
                -0.028039424686702792,
                -1.5236352862539229,
                -0.5998114724362005,
                0.8960428199427976,
                0.14742987023195764,
                1.1491667285072613
            ]
        },
        {
            "positions": [
                -0.03351302122330608,
                -1.427576204945144,
                -0.7608044558075779,
                0.9284341146685532,
                0.14721484681362085,
                1.0491358887186413
            ]
        },
        {
            "positions": [
                -0.03898661775990937,
                -1.3315171236363652,
                -0.9217974391789556,
                0.9608254093943089,
                0.14699982339528406,
                0.949105048930021
            ]
        },
        {
            "positions": [
                -0.04446021429651266,
                -1.2354580423275865,
                -1.082790422550333,
                0.9932167041200646,
                0.14678479997694727,
                0.849074209141401
            ]
        },
        {
            "positions": [
                -0.04993381083311596,
                -1.1393989610188076,
                -1.243783405921711,
                1.0256079988458204,
                0.14656977655861048,
                0.7490433693527807
            ]
        },
        {
            "positions": [
                -0.05540740736971925,
                -1.0433398797100288,
                -1.4047763892930885,
                1.057999293571576,
                0.14635475314027369,
                0.6490125295641607
            ]
        },
        {
            "positions": [
                -0.060881003906322534,
                -0.9472807984012501,
                -1.565769372664466,
                1.0903905882973317,
                0.1461397297219369,
                0.5489816897755406
            ]
        },
        {
            "positions": [
                -0.06635460044292583,
                -0.8512217170924712,
                -1.7267623560358438,
                1.1227818830230876,
                0.1459247063036001,
                0.44895084998692036
            ]
        },
        {
            "positions": [
                -0.07182819697952911,
                -0.7551626357836927,
                -1.8877553394072217,
                1.1551731777488432,
                0.14570968288526331,
                0.3489200101983001
            ]
        },
        {
            "positions": [
                -0.0773017935161324,
                -0.659103554474914,
                -2.048748322778599,
                1.1875644724745988,
                0.14549465946692652,
                0.24888917040968006
            ]
        },
        {
            "positions": [
                -0.0827753900527357,
                -0.563044473166135,
                -2.209741306149977,
                1.2199557672003547,
                0.14527963604858973,
                0.14885833062106002
            ]
        },
        {
            "positions": [
                -0.08824898658933898,
                -0.4669853918573561,
                -2.3707342895213546,
                1.2523470619261103,
                0.14506461263025294,
                0.04882749083243976
            ]
        },
        {
            "positions": [
                -0.09372258312594227,
                -0.3709263105485774,
                -2.531727272892732,
                1.284738356651866,
                0.14484958921191615,
                -0.05120334895618006
            ]
        },
        {
            "positions": [
                -0.09919617966254557,
                -0.27486722923979867,
                -2.69272025626411,
                1.3171296513776218,
                0.14463456579357936,
                -0.15123418874480032
            ]
        },
        {
            "positions": [
                -0.10466977619914886,
                -0.17880814793101996,
                -2.8537132396354874,
                1.3495209461033775,
                0.14441954237524257,
                -0.2512650285334206
            ]
        },
        {
            "positions": [
                0.040934955319504945,
                -0.30002915749460596,
                -2.790953029346639,
                1.3314703584898946,
                0.16155881041532455,
                -0.23786225369918776
            ]
        },
        {
            "positions": [
                0.18653968683815875,
                -0.42125016705819196,
                -2.728192819057791,
                1.3134197708764115,
                0.17869807845540653,
                -0.22445947886495493
            ]
        },
        {
            "positions": [
                0.3321444183568126,
                -0.542471176621778,
                -2.6654326087689424,
                1.2953691832629286,
                0.1958373464954885,
                -0.21105670403072208
            ]
        },
        {
            "positions": [
                0.47774914987546635,
                -0.663692186185364,
                -2.6026723984800944,
                1.2773185956494455,
                0.21297661453557049,
                -0.19765392919648925
            ]
        },
        {
            "positions": [
                0.6233538813941202,
                -0.7849131957489499,
                -2.539912188191246,
                1.2592680080359626,
                0.23011588257565246,
                -0.18425115436225642
            ]
        },
        {
            "positions": [
                0.768958612912774,
                -0.906134205312536,
                -2.477151977902398,
                1.2412174204224795,
                0.24725515061573444,
                -0.17084837952802356
            ]
        },
        {
            "positions": [
                0.9145633444314278,
                -1.0273552148761218,
                -2.4143917676135493,
                1.2231668328089966,
                0.2643944186558164,
                -0.15744560469379076
            ]
        },
        {
            "positions": [
                1.0601680759500816,
                -1.148576224439708,
                -2.3516315573247013,
                1.2051162451955135,
                0.2815336866958984,
                -0.1440428298595579
            ]
        },
        {
            "positions": [
                1.2057728074687353,
                -1.269797234003294,
                -2.288871347035853,
                1.1870656575820306,
                0.29867295473598043,
                -0.13064005502532508
            ]
        },
        {
            "positions": [
                1.3513775389873892,
                -1.3910182435668799,
                -2.2261111367470043,
                1.1690150699685475,
                0.31581222277606236,
                -0.11723728019109225
            ]
        },
        {
            "positions": [
                1.4969822705060432,
                -1.512239253130466,
                -2.163350926458156,
                1.1509644823550647,
                0.3329514908161444,
                -0.1038345053568594
            ]
        },
        {
            "positions": [
                1.6425870020246969,
                -1.633460262694052,
                -2.100590716169308,
                1.1329138947415816,
                0.3500907588562263,
                -0.09043173052262657
            ]
        },
        {
            "positions": [
                1.7881917335433508,
                -1.7546812722576381,
                -2.0378305058804598,
                1.1148633071280987,
                0.36723002689630835,
                -0.07702895568839371
            ]
        },
        {
            "positions": [
                1.9337964650620045,
                -1.8759022818212239,
                -1.9750702955916113,
                1.0968127195146158,
                0.38436929493639027,
                -0.06362618085416091
            ]
        },
        {
            "positions": [
                2.0794011965806583,
                -1.99712329138481,
                -1.9123100853027628,
                1.0787621319011327,
                0.4015085629764723,
                -0.05022340601992806
            ]
        },
        {
            "positions": [
                2.225005928099312,
                -2.118344300948396,
                -1.8495498750139148,
                1.0607115442876496,
                0.4186478310165543,
                -0.03682063118569523
            ]
        },
        {
            "positions": [
                2.370610659617966,
                -2.239565310511982,
                -1.7867896647250663,
                1.0426609566741667,
                0.43578709905663626,
                -0.023417856351462374
            ]
        },
        {
            "positions": [
                2.5162153911366194,
                -2.360786320075568,
                -1.724029454436218,
                1.0246103690606838,
                0.45292636709671824,
                -0.010015081517229574
            ]
        },
        {
            "positions": [
                2.6618201226552736,
                -2.482007329639154,
                -1.6612692441473698,
                1.0065597814472007,
                0.4700656351368002,
                0.0033876933170032793
            ]
        }
    ]
}