{
    "goal": {
        "global_pose": {
            "orientation": {
                "w": -0.4816463035849501,
                "x": 0.5182115481033762,
                "y": 0.4908360881923453,
                "z": -0.5084816262002911
            },
            "position": {
                "x": -0.8240239810943604,
                "y": 0.19912469901144506,
                "z": 0.16403168439865112
            }
        },
        "name": "move_to_storage_D"
    },
    "id": "BKPIECE_move_to_storage_D_17",
    "joint_names": [
        "shoulder_pan_joint",
        "shoulder_lift_joint",
        "elbow_joint",
        "wrist_1_joint",
        "wrist_2_joint",
        "wrist_3_joint"
    ],
    "metrics": {
        "cart_traj_len": 3.811823029870262,
        "distance_elbow_joint": 4.212654550396302,
        "distance_shoulder_lift_joint": 1.3078556641091679,
        "distance_shoulder_pan_joint": 2.812314570780427,
        "distance_wrist_1_joint": 2.6094852610984045,
        "distance_wrist_2_joint": 0.8848197099013877,
        "distance_wrist_3_joint": 3.1561695519166078,
        "smoothness": 0.10061668174433473,
        "time": 0.194611201,
        "traj_len": 3.8708266957075588,
        "weighted_distance": 4.978950028172136
    },
    "planner": "BKPIECE",
    "start": {
        "state": {
            "elbow_joint": -2.384821988534728,
            "shoulder_lift_joint": -2.2788054721415256,
            "shoulder_pan_joint": -0.1854694642142757,
            "wrist_1_joint": 1.4845938289331202,
            "wrist_2_joint": 0.17898776772866878,
            "wrist_3_joint": 0.037105688729662994
        }
    },
    "waypoints": [
        {
            "positions": [
                -0.1854694642142757,
                -2.2788054721415256,
                -2.384821988534728,
                1.4845938289331202,
                0.17898776772866878,
                0.037105688729662994
            ]
        },
        {
            "positions": [
                -0.1403047618860379,
                -2.2348600355647568,
                -2.3786286140535573,
                1.4973779130309408,
                0.1716951786548085,
                0.044048459654689426
            ]
        },
        {
            "positions": [
                -0.04701248910724061,
                -2.191999209843573,
                -2.270393363399294,
                1.4129432561833077,
                0.1740153812752387,
                0.1013451870628333
            ]
        },
        {
            "positions": [
                0.04627978367155669,
                -2.14913838412239,
                -2.162158112745031,
                1.3285085993356747,
                0.17633558389566892,
                0.1586419144709772
            ]
        },
        {
            "positions": [
                0.13957205645035398,
                -2.1062775584012066,
                -2.0539228620907672,
                1.2440739424880414,
                0.17865578651609912,
                0.21593864187912107
            ]
        },
        {
            "positions": [
                0.2328643292291513,
                -2.0634167326800235,
                -1.945687611436504,
                1.1596392856404083,
                0.18097598913652932,
                0.27323536928726494
            ]
        },
        {
            "positions": [
                0.32615660200794866,
                -2.02055590695884,
                -1.8374523607822408,
                1.075204628792775,
                0.18329619175695955,
                0.33053209669540884
            ]
        },
        {
            "positions": [
                0.41944887478674586,
                -1.9776950812376566,
                -1.7292171101279776,
                0.990769971945142,
                0.18561639437738975,
                0.3878288241035527
            ]
        },
        {
            "positions": [
                0.5127411475655432,
                -1.9348342555164733,
                -1.6209818594737142,
                0.9063353150975089,
                0.18793659699781995,
                0.44512555151169664
            ]
        },
        {
            "positions": [
                0.6060334203443405,
                -1.89197342979529,
                -1.5127466088194508,
                0.8219006582498758,
                0.19025679961825015,
                0.5024222789198405
            ]
        },
        {
            "positions": [
                0.6993256931231379,
                -1.8491126040741066,
                -1.4045113581651876,
                0.7374660014022426,
                0.19257700223868038,
                0.5597190063279843
            ]
        },
        {
            "positions": [
                0.7926179659019352,
                -1.806251778352923,
                -1.2962761075109244,
                0.6530313445546094,
                0.19489720485911058,
                0.6170157337361282
            ]
        },
        {
            "positions": [
                0.8859102386807324,
                -1.76339095263174,
                -1.1880408568566612,
                0.5685966877069764,
                0.19721740747954078,
                0.674312461144272
            ]
        },
        {
            "positions": [
                0.9792025114595296,
                -1.7205301269105564,
                -1.0798056062023977,
                0.4841620308593433,
                0.199537610099971,
                0.731609188552416
            ]
        },
        {
            "positions": [
                1.072494784238327,
                -1.677669301189373,
                -0.9715703555481345,
                0.39972737401171,
                0.2018578127204012,
                0.7889059159605598
            ]
        },
        {
            "positions": [
                1.1657870570171243,
                -1.6348084754681897,
                -0.8633351048938711,
                0.3152927171640769,
                0.2041780153408314,
                0.8462026433687038
            ]
        },
        {
            "positions": [
                1.259079329795922,
                -1.5919476497470062,
                -0.7550998542396077,
                0.23085806031644363,
                0.20649821796126164,
                0.9034993707768476
            ]
        },
        {
            "positions": [
                1.3523716025747188,
                -1.549086824025823,
                -0.6468646035853445,
                0.14642340346881078,
                0.20881842058169184,
                0.9607960981849915
            ]
        },
        {
            "positions": [
                1.445663875353516,
                -1.5062259983046398,
                -0.5386293529310815,
                0.061988746621177704,
                0.21113862320212204,
                1.0180928255931354
            ]
        },
        {
            "positions": [
                1.5389561481323137,
                -1.4633651725834564,
                -0.43039410227681785,
                -0.02244591022645559,
                0.21345882582255227,
                1.0753895530012794
            ]
        },
        {
            "positions": [
                1.632248420911111,
                -1.420504346862273,
                -0.32215885162255464,
                -0.10688056707408866,
                0.21577902844298247,
                1.132686280409423
            ]
        },
        {
            "positions": [
                1.7255406936899083,
                -1.3776435211410896,
                -0.21392360096829144,
                -0.19131522392172196,
                0.21809923106341267,
                1.189983007817567
            ]
        },
        {
            "positions": [
                1.8188329664687055,
                -1.3347826954199062,
                -0.10568835031402823,
                -0.275749880769355,
                0.22041943368384287,
                1.247279735225711
            ]
        },
        {
            "positions": [
                1.9121252392475028,
                -1.291921869698723,
                0.00254690034023497,
                -0.3601845376169881,
                0.2227396363042731,
                1.3045764626338547
            ]
        },
        {
            "positions": [
                2.0054175120263005,
                -1.2490610439775396,
                0.11078215099449862,
                -0.4446191944646214,
                0.2250598389247033,
                1.3618731900419987
            ]
        },
        {
            "positions": [
                2.0987097848050973,
                -1.2062002182563563,
                0.21901740164876182,
                -0.5290538513122542,
                0.22738004154513353,
                1.4191699174501426
            ]
        },
        {
            "positions": [
                2.1920020575838945,
                -1.163339392535173,
                0.327252652303025,
                -0.6134885081598873,
                0.22970024416556373,
                1.4764666448582864
            ]
        },
        {
            "positions": [
                2.2852943303626922,
                -1.1204785668139894,
                0.43548790295728823,
                -0.6979231650075208,
                0.23202044678599393,
                1.5337633722664303
            ]
        },
        {
            "positions": [
                2.3785866031414895,
                -1.077617741092806,
                0.5437231536115514,
                -0.7823578218551539,
                0.23434064940642413,
                1.591060099674574
            ]
        },
        {
            "positions": [
                2.4718788759202868,
                -1.0347569153716227,
                0.6519584042658151,
                -0.866792478702787,
                0.23666085202685436,
                1.6483568270827182
            ]
        },
        {
            "positions": [
                2.565171148699084,
                -0.9918960896504394,
                0.7601936549200783,
                -0.9512271355504198,
                0.23898105464728456,
                1.705653554490862
            ]
        },
        {
            "positions": [
                2.5713385444857906,
                -0.9939907178122476,
                0.866957545614228,
                -0.9364175227084974,
                0.3200051791307897,
                1.854415723106403
            ]
        },
        {
            "positions": [
                2.5775059402724976,
                -0.9960853459740557,
                0.9737214363083777,
                -0.9216079098665751,
                0.40102930361429484,
                2.003177891721944
            ]
        },
        {
            "positions": [
                2.583673336059204,
                -0.9981799741358639,
                1.0804853270025274,
                -0.9067982970246528,
                0.48205342809779994,
                2.1519400603374845
            ]
        },
        {
            "positions": [
                2.589840731845911,
                -1.000274602297672,
                1.1872492176966771,
                -0.8919886841827304,
                0.5630775525813051,
                2.3007022289530257
            ]
        },
        {
            "positions": [
                2.5960081276326177,
                -1.0023692304594802,
                1.2940131083908266,
                -0.8771790713408081,
                0.6441016770648103,
                2.4494643975685664
            ]
        },
        {
            "positions": [
                2.6021755234193242,
                -1.0044638586212884,
                1.4007769990849765,
                -0.8623694584988857,
                0.7251258015483153,
                2.598226566184107
            ]
        },
        {
            "positions": [
                2.6083429192060312,
                -1.0065584867830966,
                1.507540889779126,
                -0.8475598456569633,
                0.8061499260318205,
                2.746988734799648
            ]
        },
        {
            "positions": [
                2.614510314992738,
                -1.0086531149449047,
                1.614304780473276,
                -0.8327502328150409,
                0.8871740505153257,
                2.8957509034151894
            ]
        },
        {
            "positions": [
                2.620677710779445,
                -1.010747743106713,
                1.7210686711674255,
                -0.8179406199731186,
                0.9681981749988308,
                3.04451307203073
            ]
        },
        {
            "positions": [
                2.6268451065661513,
                -1.012842371268521,
                1.8278325618615752,
                -0.8031310071311962,
                1.049222299482336,
                3.1932752406462708
            ]
        }
    ]
}