{
    "goal": {
        "global_pose": {
            "orientation": {
                "w": -0.4816463035849501,
                "x": 0.5182115481033762,
                "y": 0.4908360881923453,
                "z": -0.5084816262002911
            },
            "position": {
                "x": -0.8240239810943604,
                "y": 0.19912469901144506,
                "z": 0.16403168439865112
            }
        },
        "name": "move_to_storage_D"
    },
    "id": "BKPIECE_move_to_storage_D_53",
    "joint_names": [
        "shoulder_pan_joint",
        "shoulder_lift_joint",
        "elbow_joint",
        "wrist_1_joint",
        "wrist_2_joint",
        "wrist_3_joint"
    ],
    "metrics": {
        "cart_traj_len": 3.9595609590071037,
        "distance_elbow_joint": 4.287890401868163,
        "distance_shoulder_lift_joint": 2.1850956718405965,
        "distance_shoulder_pan_joint": 2.814923436131725,
        "distance_wrist_1_joint": 2.295051974590175,
        "distance_wrist_2_joint": 0.8888431525971948,
        "distance_wrist_3_joint": 3.3052776017386174,
        "smoothness": 0.3683681331673372,
        "time": 0.210493883,
        "traj_len": 3.9720375424668974,
        "weighted_distance": 5.056830288770928
    },
    "planner": "BKPIECE",
    "start": {
        "state": {
            "elbow_joint": -2.384821988534728,
            "shoulder_lift_joint": -2.2788054721415256,
            "shoulder_pan_joint": -0.1854694642142757,
            "wrist_1_joint": 1.4845938289331202,
            "wrist_2_joint": 0.17898776772866878,
            "wrist_3_joint": 0.037105688729662994
        }
    },
    "waypoints": [
        {
            "positions": [
                -0.1854694642142757,
                -2.2788054721415256,
                -2.384821988534728,
                1.4845938289331202,
                0.17898776772866878,
                0.037105688729662994
            ]
        },
        {
            "positions": [
                -0.176453397438736,
                -2.294561941466277,
                -2.421607043316308,
                1.491935004653346,
                0.3303029376425923,
                0.1279720232136866
            ]
        },
        {
            "positions": [
                -0.08540014790282476,
                -2.2370954933182268,
                -2.335355411651536,
                1.4158356711478537,
                0.3393705832163217,
                0.06457290833092444
            ]
        },
        {
            "positions": [
                0.005653101633086494,
                -2.1796290451701763,
                -2.2491037799867635,
                1.3397363376423612,
                0.34843822879005115,
                0.0011737934481622914
            ]
        },
        {
            "positions": [
                0.09670635116899773,
                -2.1221625970221263,
                -2.1628521483219916,
                1.263637004136869,
                0.35750587436378056,
                -0.062225321434599884
            ]
        },
        {
            "positions": [
                0.187759600704909,
                -2.064696148874076,
                -2.0766005166572192,
                1.1875376706313765,
                0.36657351993751003,
                -0.125624436317362
            ]
        },
        {
            "positions": [
                0.2788128502408202,
                -2.007229700726026,
                -1.9903488849924469,
                1.1114383371258842,
                0.37564116551123944,
                -0.18902355120012418
            ]
        },
        {
            "positions": [
                0.36986609977673146,
                -1.9497632525779756,
                -1.9040972533276745,
                1.035339003620392,
                0.3847088110849689,
                -0.2524226660828863
            ]
        },
        {
            "positions": [
                0.46091934931264267,
                -1.8922968044299253,
                -1.8178456216629024,
                0.9592396701148995,
                0.3937764566586983,
                -0.3158217809656485
            ]
        },
        {
            "positions": [
                0.551972598848554,
                -1.834830356281875,
                -1.73159398999813,
                0.8831403366094073,
                0.4028441022324277,
                -0.37922089584841057
            ]
        },
        {
            "positions": [
                0.6430258483844652,
                -1.7773639081338248,
                -1.645342358333358,
                0.8070410031039149,
                0.4119117478061572,
                -0.44262001073117274
            ]
        },
        {
            "positions": [
                0.7340790979203764,
                -1.7198974599857748,
                -1.5590907266685856,
                0.7309416695984225,
                0.4209793933798866,
                -0.5060191256139349
            ]
        },
        {
            "positions": [
                0.8251323474562876,
                -1.6624310118377243,
                -1.4728390950038133,
                0.6548423360929303,
                0.43004703895361607,
                -0.569418240496697
            ]
        },
        {
            "positions": [
                0.9161855969921989,
                -1.6049645636896743,
                -1.3865874633390411,
                0.5787430025874378,
                0.4391146845273455,
                -0.6328173553794593
            ]
        },
        {
            "positions": [
                1.0072388465281104,
                -1.5474981155416239,
                -1.3003358316742688,
                0.5026436690819455,
                0.44818233010107494,
                -0.6962164702622214
            ]
        },
        {
            "positions": [
                1.0982920960640215,
                -1.4900316673935738,
                -1.2140842000094967,
                0.4265443355764531,
                0.45724997567480435,
                -0.7596155851449835
            ]
        },
        {
            "positions": [
                1.1893453455999325,
                -1.4325652192455236,
                -1.1278325683447243,
                0.35044500207096085,
                0.4663176212485338,
                -0.8230147000277457
            ]
        },
        {
            "positions": [
                1.280398595135844,
                -1.3750987710974734,
                -1.041580936679952,
                0.2743456685654686,
                0.47538526682226323,
                -0.8864138149105077
            ]
        },
        {
            "positions": [
                1.3714518446717552,
                -1.3176323229494233,
                -0.9553293050151799,
                0.19824633505997613,
                0.48445291239599264,
                -0.9498129297932699
            ]
        },
        {
            "positions": [
                1.4625050942076663,
                -1.260165874801373,
                -0.8690776733504075,
                0.12214700155448388,
                0.49352055796972205,
                -1.0132120446760322
            ]
        },
        {
            "positions": [
                1.5535583437435774,
                -1.2026994266533229,
                -0.7828260416856354,
                0.04604766804899163,
                0.5025882035434515,
                -1.0766111595587944
            ]
        },
        {
            "positions": [
                1.644611593279489,
                -1.1452329785052726,
                -0.6965744100208631,
                -0.030051665456500842,
                0.511655849117181,
                -1.1400102744415566
            ]
        },
        {
            "positions": [
                1.7356648428154,
                -1.0877665303572224,
                -0.610322778356091,
                -0.10615099896199309,
                0.5207234946909104,
                -1.2034093893243187
            ]
        },
        {
            "positions": [
                1.826718092351311,
                -1.0303000822091721,
                -0.5240711466913186,
                -0.18225033246748534,
                0.5297911402646398,
                -1.2668085042070807
            ]
        },
        {
            "positions": [
                1.9177713418872226,
                -0.9728336340611219,
                -0.43781951502654626,
                -0.25834966597297804,
                0.5388587858383693,
                -1.330207619089843
            ]
        },
        {
            "positions": [
                2.0088245914231337,
                -0.9153671859130716,
                -0.35156788336177414,
                -0.3344489994784703,
                0.5479264314120987,
                -1.3936067339726053
            ]
        },
        {
            "positions": [
                2.0998778409590453,
                -0.8579007377650214,
                -0.2653162516970018,
                -0.41054833298396254,
                0.5569940769858281,
                -1.4570058488553674
            ]
        },
        {
            "positions": [
                2.1909310904949564,
                -0.8004342896169712,
                -0.17906462003222945,
                -0.486647666489455,
                0.5660617225595576,
                -1.5204049637381296
            ]
        },
        {
            "positions": [
                2.2819843400308675,
                -0.7429678414689209,
                -0.0928129883674571,
                -0.5627469999949475,
                0.575129368133287,
                -1.5838040786208916
            ]
        },
        {
            "positions": [
                2.3730375895667786,
                -0.6855013933208709,
                -0.006561356702685206,
                -0.6388463335004397,
                0.5841970137070165,
                -1.6472031935036537
            ]
        },
        {
            "positions": [
                2.46409083910269,
                -0.6280349451728207,
                0.07969027496208714,
                -0.714945667005932,
                0.5932646592807459,
                -1.710602308386416
            ]
        },
        {
            "positions": [
                2.555144088638601,
                -0.5705684970247705,
                0.16594190662685943,
                -0.791045000511424,
                0.6023323048544753,
                -1.774001423269178
            ]
        },
        {
            "positions": [
                2.561899532573042,
                -0.6110544750315285,
                0.31717430636717003,
                -0.7914750726664402,
                0.6446503608064197,
                -1.8933139524302445
            ]
        },
        {
            "positions": [
                2.5686549765074824,
                -0.6515404530382866,
                0.4684067061074806,
                -0.7919051448214566,
                0.6869684167583641,
                -2.012626481591311
            ]
        },
        {
            "positions": [
                2.5754104204419233,
                -0.6920264310450446,
                0.6196391058477911,
                -0.7923352169764728,
                0.7292864727103084,
                -2.131939010752377
            ]
        },
        {
            "positions": [
                2.582165864376364,
                -0.7325124090518027,
                0.7708715055881017,
                -0.792765289131489,
                0.7716045286622528,
                -2.251251539913443
            ]
        },
        {
            "positions": [
                2.588921308310805,
                -0.7729983870585607,
                0.9221039053284124,
                -0.7931953612865053,
                0.8139225846141973,
                -2.3705640690745096
            ]
        },
        {
            "positions": [
                2.5956767522452453,
                -0.8134843650653187,
                1.0733363050687228,
                -0.7936254334415216,
                0.8562406405661416,
                -2.489876598235576
            ]
        },
        {
            "positions": [
                2.602432196179686,
                -0.8539703430720768,
                1.2245687048090335,
                -0.7940555055965378,
                0.8985586965180861,
                -2.6091891273966423
            ]
        },
        {
            "positions": [
                2.609187640114127,
                -0.8944563210788348,
                1.3758011045493441,
                -0.794485577751554,
                0.9408767524700304,
                -2.7285016565577083
            ]
        },
        {
            "positions": [
                2.615943084048568,
                -0.9349422990855929,
                1.5270335042896548,
                -0.7949156499065703,
                0.9831948084219748,
                -2.847814185718775
            ]
        },
        {
            "positions": [
                2.622698527983008,
                -0.9754282770923508,
                1.6782659040299652,
                -0.7953457220615866,
                1.025512864373919,
                -2.967126714879841
            ]
        },
        {
            "positions": [
                2.629453971917449,
                -1.015914255099109,
                1.829498303770276,
                -0.7957757942166028,
                1.0678309203258636,
                -3.0864392440409074
            ]
        }
    ]
}