{
    "goal": {
        "global_pose": {
            "orientation": {
                "w": 0.005598929693374612,
                "x": 0.007748599140229565,
                "y": 0.7110244013736278,
                "z": -0.7031023480610252
            },
            "position": {
                "x": 0.1141497679147869,
                "y": -0.7141253447532654,
                "z": 0.3711530566215515
            }
        },
        "name": "move_to_auspresseinheit_B"
    },
    "id": "BKPIECE_move_to_auspresseinheit_B_36",
    "joint_names": [
        "shoulder_pan_joint",
        "shoulder_lift_joint",
        "elbow_joint",
        "wrist_1_joint",
        "wrist_2_joint",
        "wrist_3_joint"
    ],
    "metrics": {
        "cart_traj_len": 0.5646432711347085,
        "distance_elbow_joint": 0.0657076010405282,
        "distance_shoulder_lift_joint": 0.2935106963010854,
        "distance_shoulder_pan_joint": 0.5780849011901315,
        "distance_wrist_1_joint": 0.3359515006476672,
        "distance_wrist_2_joint": 0.9852229974903504,
        "distance_wrist_3_joint": 0.0007794720237619401,
        "smoothness": 0.0,
        "time": 0.14328745,
        "traj_len": 1.5030825555150071,
        "weighted_distance": 1.8926147550093406
    },
    "planner": "BKPIECE",
    "start": {
        "state": {
            "elbow_joint": 2.0193083361928714,
            "shoulder_lift_joint": -1.1220246554650708,
            "shoulder_pan_joint": -1.0952077554168747,
            "wrist_1_joint": -0.8559753972642168,
            "wrist_2_joint": 0.4759566250798843,
            "wrist_3_joint": -3.1240929996934557
        }
    },
    "waypoints": [
        {
            "positions": [
                -1.0952077554168747,
                -1.1220246554650708,
                2.0193083361928714,
                -0.8559753972642168,
                0.4759566250798843,
                -3.1240929996934557
            ]
        },
        {
            "positions": [
                -1.1915552389485633,
                -1.170943104848585,
                2.0083570693527832,
                -0.7999834804896055,
                0.6401604579949427,
                -3.1239630876894955
            ]
        },
        {
            "positions": [
                -1.2879027224802517,
                -1.2198615542320992,
                1.9974058025126953,
                -0.7439915637149944,
                0.8043642909100011,
                -3.123833175685535
            ]
        },
        {
            "positions": [
                -1.3842502060119404,
                -1.2687800036156136,
                1.9864545356726073,
                -0.6879996469403832,
                0.9685681238250594,
                -3.1237032636815747
            ]
        },
        {
            "positions": [
                -1.4805976895436288,
                -1.3176984529991278,
                1.9755032688325194,
                -0.632007730165772,
                1.1327719567401178,
                -3.1235733516776145
            ]
        },
        {
            "positions": [
                -1.5769451730753175,
                -1.366616902382642,
                1.9645520019924312,
                -0.5760158133911608,
                1.2969757896551763,
                -3.123443439673654
            ]
        },
        {
            "positions": [
                -1.673292656607006,
                -1.4155353517661562,
                1.9536007351523432,
                -0.5200238966165496,
                1.4611796225702347,
                -3.1233135276696937
            ]
        }
    ]
}