{
    "goal": {
        "global_pose": {
            "orientation": {
                "w": -0.00223480608172531,
                "x": 0.0024358444001904467,
                "y": 0.7094548369677653,
                "z": -0.704743149386269
            },
            "position": {
                "x": 0.6205249238014221,
                "y": -0.6371506643295288,
                "z": 0.19426114857196808
            }
        },
        "name": "move_to_magneteinheit_B"
    },
    "id": "BKPIECE_move_to_magneteinheit_B_138",
    "joint_names": [
        "shoulder_pan_joint",
        "shoulder_lift_joint",
        "elbow_joint",
        "wrist_1_joint",
        "wrist_2_joint",
        "wrist_3_joint"
    ],
    "metrics": {
        "cart_traj_len": 3.6268747320915597,
        "distance_elbow_joint": 4.284037877424159,
        "distance_shoulder_lift_joint": 1.0636492316200998,
        "distance_shoulder_pan_joint": 3.0455451698989546,
        "distance_wrist_1_joint": 1.8881741465151989,
        "distance_wrist_2_joint": 1.1877112886458776,
        "distance_wrist_3_joint": 0.6487834254036459,
        "smoothness": 0.38631144230919917,
        "time": 0.324611717,
        "traj_len": 3.48107758309233,
        "weighted_distance": 4.060954743096296
    },
    "planner": "BKPIECE",
    "start": {
        "state": {
            "elbow_joint": 2.6216224122426386,
            "shoulder_lift_joint": -1.4174107377796124,
            "shoulder_pan_joint": 0.7066234856936794,
            "wrist_1_joint": 1.9546482284002225,
            "wrist_2_joint": -0.7096286983471962,
            "wrist_3_joint": 0.005740856962016249
        }
    },
    "waypoints": [
        {
            "positions": [
                0.7066234856936794,
                -1.4174107377796124,
                2.6216224122426386,
                1.9546482284002225,
                -0.7096286983471962,
                0.005740856962016249
            ]
        },
        {
            "positions": [
                0.5917606709270561,
                -1.4463824114566726,
                2.614808527696537,
                1.984192605430523,
                -0.6338658616202989,
                -0.0939033405871565
            ]
        },
        {
            "positions": [
                0.47689785616043284,
                -1.475354085133733,
                2.607994643150436,
                2.0137369824608236,
                -0.5581030248934016,
                -0.19354753813632924
            ]
        },
        {
            "positions": [
                0.45067527345743025,
                -1.4835946317877522,
                2.418891604788819,
                1.9131706677875384,
                -0.5231264856452821,
                -0.18682399945750897
            ]
        },
        {
            "positions": [
                0.42445269075442765,
                -1.4918351784417712,
                2.2297885664272017,
                1.8126043531142535,
                -0.4881499463971626,
                -0.1801004607786887
            ]
        },
        {
            "positions": [
                0.39823010805142506,
                -1.5000757250957903,
                2.0406855280655845,
                1.7120380384409684,
                -0.4531734071490431,
                -0.17337692209986844
            ]
        },
        {
            "positions": [
                0.37200752534842246,
                -1.5083162717498095,
                1.8515824897039672,
                1.6114717237676834,
                -0.4181968679009236,
                -0.16665338342104816
            ]
        },
        {
            "positions": [
                0.34578494264541987,
                -1.5165568184038287,
                1.66247945134235,
                1.5109054090943983,
                -0.3832203286528041,
                -0.15992984474222788
            ]
        },
        {
            "positions": [
                0.3195623599424173,
                -1.5247973650578477,
                1.4733764129807327,
                1.4103390944211132,
                -0.34824378940468464,
                -0.1532063060634076
            ]
        },
        {
            "positions": [
                0.2933397772394147,
                -1.5330379117118669,
                1.2842733746191155,
                1.3097727797478282,
                -0.31326725015656515,
                -0.14648276738458732
            ]
        },
        {
            "positions": [
                0.42764217137544086,
                -1.560468447267233,
                1.12715903191661,
                1.26996829430709,
                -0.29436701890575745,
                -0.15377443991363615
            ]
        },
        {
            "positions": [
                0.561944565511467,
                -1.5878989828225991,
                0.9700446892141046,
                1.2301638088663516,
                -0.2754667876549498,
                -0.16106611244268496
            ]
        },
        {
            "positions": [
                0.6962469596474932,
                -1.6153295183779652,
                0.8129303465115991,
                1.1903593234256133,
                -0.25656655640414217,
                -0.1683577849717338
            ]
        },
        {
            "positions": [
                0.8305493537835194,
                -1.6427600539333314,
                0.6558160038090937,
                1.150554837984875,
                -0.23766632515333447,
                -0.1756494575007826
            ]
        },
        {
            "positions": [
                0.9648517479195455,
                -1.6701905894886975,
                0.4987016611065882,
                1.1107503525441367,
                -0.2187660939025268,
                -0.18294113002983142
            ]
        },
        {
            "positions": [
                1.0991541420555717,
                -1.6976211250440636,
                0.34158731840408274,
                1.0709458671033985,
                -0.19986586265171913,
                -0.19023280255888023
            ]
        },
        {
            "positions": [
                1.233456536191598,
                -1.7250516605994297,
                0.18447297570157728,
                1.03114138166266,
                -0.18096563140091146,
                -0.19752447508792906
            ]
        },
        {
            "positions": [
                1.367758930327624,
                -1.7524821961547958,
                0.02735863299907182,
                0.9913368962219218,
                -0.1620654001501038,
                -0.20481614761697786
            ]
        },
        {
            "positions": [
                1.5020613244636503,
                -1.7799127317101622,
                -0.12975570970343364,
                0.9515324107811834,
                -0.14316516889929612,
                -0.2121078201460267
            ]
        },
        {
            "positions": [
                1.6363637185996764,
                -1.8073432672655283,
                -0.2868700524059391,
                0.9117279253404451,
                -0.12426493764848845,
                -0.21939949267507552
            ]
        },
        {
            "positions": [
                1.7706661127357028,
                -1.8347738028208944,
                -0.4439843951084448,
                0.8719234398997068,
                -0.10536470639768075,
                -0.22669116520412436
            ]
        },
        {
            "positions": [
                1.9049685068717288,
                -1.8622043383762605,
                -0.60109873781095,
                0.8321189544589686,
                -0.08646447514687311,
                -0.23398283773317313
            ]
        },
        {
            "positions": [
                2.039270901007755,
                -1.8896348739316267,
                -0.7582130805134555,
                0.7923144690182302,
                -0.06756424389606544,
                -0.24127451026222196
            ]
        },
        {
            "positions": [
                2.173573295143781,
                -1.9170654094869928,
                -0.915327423215961,
                0.7525099835774919,
                -0.04866401264525777,
                -0.2485661827912708
            ]
        },
        {
            "positions": [
                2.3078756892798076,
                -1.944495945042359,
                -1.0724417659184664,
                0.7127054981367535,
                -0.029763781394450073,
                -0.2558578553203196
            ]
        },
        {
            "positions": [
                2.4421780834158335,
                -1.971926480597725,
                -1.2295561086209719,
                0.6729010126960153,
                -0.010863550143642431,
                -0.2631495278493684
            ]
        },
        {
            "positions": [
                2.5764804775518595,
                -1.9993570161530911,
                -1.3866704513234773,
                0.633096527255277,
                0.008036681107165211,
                -0.27044120037841723
            ]
        },
        {
            "positions": [
                2.710782871687886,
                -2.0267875517084573,
                -1.5437847940259828,
                0.5932920418145387,
                0.02693691235797293,
                -0.27773287290746607
            ]
        },
        {
            "positions": [
                2.7926963733048247,
                -2.0860664228770625,
                -1.6243212911290432,
                0.6326965923596677,
                0.0666291420655752,
                -0.2524605868123197
            ]
        },
        {
            "positions": [
                2.7661154002289687,
                -2.1650651321815926,
                -1.6319401259395383,
                0.7065437726123044,
                0.14891983171219647,
                -0.20327901322521302
            ]
        },
        {
            "positions": [
                2.739534427153113,
                -2.2440638414861223,
                -1.6395589607500334,
                0.7803909528649411,
                0.2312105213588177,
                -0.15409743963810635
            ]
        },
        {
            "positions": [
                2.712953454077257,
                -2.3230625507906524,
                -1.6471777955605285,
                0.8542381331175779,
                0.31350121100543893,
                -0.1049158660509997
            ]
        },
        {
            "positions": [
                2.686372481001401,
                -2.4020612600951825,
                -1.6547966303710235,
                0.9280853133702146,
                0.3957919006520602,
                -0.055734292463893
            ]
        },
        {
            "positions": [
                2.659791507925545,
                -2.481059969399712,
                -1.6624154651815186,
                1.0019324936228513,
                0.47808259029868144,
                -0.006552718876786339
            ]
        }
    ]
}