{
    "goal": {
        "global_pose": {
            "orientation": {
                "w": 0.005598929693374612,
                "x": 0.007748599140229565,
                "y": 0.7110244013736278,
                "z": -0.7031023480610252
            },
            "position": {
                "x": -0.8858502320852131,
                "y": -0.7141253447532654,
                "z": 0.3711530566215515
            }
        },
        "name": "move_to_auspresseinheit_C"
    },
    "id": "BKPIECE_move_to_auspresseinheit_C_134",
    "joint_names": [
        "shoulder_pan_joint",
        "shoulder_lift_joint",
        "elbow_joint",
        "wrist_1_joint",
        "wrist_2_joint",
        "wrist_3_joint"
    ],
    "metrics": {
        "cart_traj_len": 0.4936125617854786,
        "distance_elbow_joint": 1.0014484438938394,
        "distance_shoulder_lift_joint": 0.3251338770171822,
        "distance_shoulder_pan_joint": 0.2563252180489908,
        "distance_wrist_1_joint": 0.678020999236191,
        "distance_wrist_2_joint": 1.3103660805180315,
        "distance_wrist_3_joint": 0.048124921452890046,
        "smoothness": 0.0,
        "time": 0.31068383,
        "traj_len": 1.9024772114711714,
        "weighted_distance": 2.3883166588262803
    },
    "planner": "BKPIECE",
    "start": {
        "state": {
            "elbow_joint": 1.7527959577737207,
            "shoulder_lift_joint": -0.9740617694225068,
            "shoulder_pan_joint": -2.967991417825858,
            "wrist_1_joint": -0.759517768980727,
            "wrist_2_joint": 1.7443932448377408,
            "wrist_3_joint": -3.0840537646736568
        }
    },
    "waypoints": [
        {
            "positions": [
                -2.967991417825858,
                -0.9740617694225068,
                1.7527959577737207,
                -0.759517768980727,
                1.7443932448377408,
                -3.0840537646736568
            ]
        },
        {
            "positions": [
                -2.942358896020959,
                -0.9415483817207886,
                1.6526511133843367,
                -0.6917156690571079,
                1.6133566367859378,
                -3.088866256818946
            ]
        },
        {
            "positions": [
                -2.9167263742160596,
                -0.9090349940190703,
                1.5525062689949527,
                -0.6239135691334887,
                1.4823200287341345,
                -3.093678748964235
            ]
        },
        {
            "positions": [
                -2.891093852411161,
                -0.8765216063173521,
                1.452361424605569,
                -0.5561114692098696,
                1.3512834206823314,
                -3.0984912411095236
            ]
        },
        {
            "positions": [
                -2.8654613306062617,
                -0.8440082186156339,
                1.352216580216185,
                -0.48830936928625057,
                1.2202468126305281,
                -3.103303733254813
            ]
        },
        {
            "positions": [
                -2.8398288088013626,
                -0.8114948309139156,
                1.252071735826801,
                -0.4205072693626315,
                1.089210204578725,
                -3.108116225400102
            ]
        },
        {
            "positions": [
                -2.8141962869964634,
                -0.7789814432121974,
                1.1519268914374172,
                -0.3527051694390124,
                0.9581735965269219,
                -3.112928717545391
            ]
        },
        {
            "positions": [
                -2.7885637651915642,
                -0.7464680555104792,
                1.0517820470480332,
                -0.28490306951539335,
                0.8271369884751189,
                -3.1177412096906796
            ]
        },
        {
            "positions": [
                -2.7629312433866655,
                -0.7139546678087609,
                0.9516372026586492,
                -0.21710096959177416,
                0.6961003804233157,
                -3.122553701835969
            ]
        },
        {
            "positions": [
                -2.7372987215817663,
                -0.6814412801070427,
                0.8514923582692652,
                -0.1492988696681551,
                0.5650637723715124,
                -3.127366193981258
            ]
        },
        {
            "positions": [
                -2.711666199776867,
                -0.6489278924053246,
                0.7513475138798814,
                -0.081496769744536,
                0.43402716431970945,
                -3.132178686126547
            ]
        }
    ]
}