{
    "goal": {
        "global_pose": {
            "orientation": {
                "w": 0.005598929693374612,
                "x": 0.007748599140229565,
                "y": 0.7110244013736278,
                "z": -0.7031023480610252
            },
            "position": {
                "x": -0.8858502320852131,
                "y": -0.7141253447532654,
                "z": 0.3711530566215515
            }
        },
        "name": "move_to_auspresseinheit_C"
    },
    "id": "BKPIECE_move_to_auspresseinheit_C_119",
    "joint_names": [
        "shoulder_pan_joint",
        "shoulder_lift_joint",
        "elbow_joint",
        "wrist_1_joint",
        "wrist_2_joint",
        "wrist_3_joint"
    ],
    "metrics": {
        "cart_traj_len": 0.49236140585625654,
        "distance_elbow_joint": 0.9923620960593098,
        "distance_shoulder_lift_joint": 0.32161704774527144,
        "distance_shoulder_pan_joint": 0.25614374007100826,
        "distance_wrist_1_joint": 0.662369916748877,
        "distance_wrist_2_joint": 1.3079441964587317,
        "distance_wrist_3_joint": 0.040504353989816444,
        "smoothness": 8.074349282788172e-16,
        "time": 0.43004495600000003,
        "traj_len": 1.8923375362426795,
        "weighted_distance": 2.373239172999691
    },
    "planner": "BKPIECE",
    "start": {
        "state": {
            "elbow_joint": 1.7527959577737207,
            "shoulder_lift_joint": -0.9740617694225068,
            "shoulder_pan_joint": -2.967991417825858,
            "wrist_1_joint": -0.759517768980727,
            "wrist_2_joint": 1.7443932448377408,
            "wrist_3_joint": -3.0840537646736568
        }
    },
    "waypoints": [
        {
            "positions": [
                -2.967991417825858,
                -0.9740617694225068,
                1.7527959577737207,
                -0.759517768980727,
                1.7443932448377408,
                -3.0840537646736568
            ]
        },
        {
            "positions": [
                -2.942377043818757,
                -0.9419000646479796,
                1.6535597481677897,
                -0.6932807773058393,
                1.6135988251918676,
                -3.0881042000726384
            ]
        },
        {
            "positions": [
                -2.916762669811656,
                -0.9097383598734525,
                1.5543235385618588,
                -0.6270437856309515,
                1.4828044055459944,
                -3.09215463547162
            ]
        },
        {
            "positions": [
                -2.8911482958045553,
                -0.8775766550989254,
                1.4550873289559276,
                -0.5608067939560639,
                1.3520099859001213,
                -3.0962050708706017
            ]
        },
        {
            "positions": [
                -2.8655339217974545,
                -0.8454149503243982,
                1.3558511193499967,
                -0.49456980228117614,
                1.221215566254248,
                -3.1002555062695833
            ]
        },
        {
            "positions": [
                -2.8399195477903536,
                -0.8132532455498711,
                1.2566149097440658,
                -0.42833281060628847,
                1.0904211466083749,
                -3.104305941668565
            ]
        },
        {
            "positions": [
                -2.814305173783253,
                -0.7810915407753439,
                1.1573787001381348,
                -0.3620958189314008,
                0.9596267269625018,
                -3.1083563770675466
            ]
        },
        {
            "positions": [
                -2.7886907997761523,
                -0.7489298360008168,
                1.0581424905322039,
                -0.2958588272565131,
                0.8288323073166287,
                -3.1124068124665283
            ]
        },
        {
            "positions": [
                -2.7630764257690514,
                -0.7167681312262897,
                0.9589062809262727,
                -0.2296218355816253,
                0.6980378876707554,
                -3.11645724786551
            ]
        },
        {
            "positions": [
                -2.7374620517619506,
                -0.6846064264517624,
                0.8596700713203418,
                -0.1633848439067377,
                0.5672434680248823,
                -3.1205076832644916
            ]
        },
        {
            "positions": [
                -2.7118476777548497,
                -0.6524447216772353,
                0.7604338617144109,
                -0.09714785223184992,
                0.43644904837900905,
                -3.124558118663473
            ]
        }
    ]
}