{
    "goal": {
        "global_pose": {
            "orientation": {
                "w": 0.5084816262002911,
                "x": -0.4908360881923452,
                "y": 0.5182115481033761,
                "z": -0.48164630358495003
            },
            "position": {
                "x": 0.5540239810943604,
                "y": -0.46912469901144505,
                "z": 0.16403168439865112
            }
        },
        "name": "move_to_storage_B"
    },
    "id": "BKPIECE_move_to_storage_B_19",
    "joint_names": [
        "shoulder_pan_joint",
        "shoulder_lift_joint",
        "elbow_joint",
        "wrist_1_joint",
        "wrist_2_joint",
        "wrist_3_joint"
    ],
    "metrics": {
        "cart_traj_len": 1.2873397042582193,
        "distance_elbow_joint": 1.1140115022800847,
        "distance_shoulder_lift_joint": 0.824710414504138,
        "distance_shoulder_pan_joint": 1.0545690523083922,
        "distance_wrist_1_joint": 3.1409752184868114,
        "distance_wrist_2_joint": 2.7063889960339202,
        "distance_wrist_3_joint": 3.904653981824152,
        "smoothness": 0.8361512509082112,
        "time": 0.416176601,
        "traj_len": 3.5700573056237483,
        "weighted_distance": 5.138285837086774
    },
    "planner": "BKPIECE",
    "start": {
        "state": {
            "elbow_joint": 1.664937868594044,
            "shoulder_lift_joint": -0.661644460510453,
            "shoulder_pan_joint": -0.9139846352900073,
            "wrist_1_joint": 2.146753192139373,
            "wrist_2_joint": -2.2341966793290973,
            "wrist_3_joint": 0.005466555786416001
        }
    },
    "waypoints": [
        {
            "positions": [
                -0.9139846352900073,
                -0.661644460510453,
                1.664937868594044,
                2.146753192139373,
                -2.2341966793290973,
                0.005466555786416001
            ]
        },
        {
            "positions": [
                -0.8120306598919089,
                -0.6865614200936097,
                1.719880860571546,
                2.1738415266387756,
                -2.2307107801120223,
                0.10332668324133897
            ]
        },
        {
            "positions": [
                -0.7100766844938107,
                -0.7114783796767663,
                1.7748238525490485,
                2.2009298611381785,
                -2.227224880894947,
                0.20118681069626193
            ]
        },
        {
            "positions": [
                -0.6081227090957123,
                -0.736395339259923,
                1.8297668445265507,
                2.228018195637581,
                -2.223738981677872,
                0.29904693815118494
            ]
        },
        {
            "positions": [
                -0.649675559288938,
                -0.7573706695314768,
                1.7659998211178694,
                2.1460177088649464,
                -2.157286033584754,
                0.23441816248795594
            ]
        },
        {
            "positions": [
                -0.6912284094821637,
                -0.7783459998030305,
                1.7022327977091882,
                2.0640172220923114,
                -2.0908330854916364,
                0.1697893868247269
            ]
        },
        {
            "positions": [
                -0.7327812596753893,
                -0.7993213300745844,
                1.6384657743005069,
                1.982016735319677,
                -2.024380137398519,
                0.10516061116149789
            ]
        },
        {
            "positions": [
                -0.7743341098686151,
                -0.8202966603461382,
                1.5746987508918258,
                1.9000162485470424,
                -1.9579271893054013,
                0.04053183549826889
            ]
        },
        {
            "positions": [
                -0.8158869600618408,
                -0.841271990617692,
                1.5109317274831442,
                1.8180157617744075,
                -1.8914742412122836,
                -0.024096940164960168
            ]
        },
        {
            "positions": [
                -0.8574398102550664,
                -0.8622473208892458,
                1.447164704074463,
                1.736015275001773,
                -1.8250212931191658,
                -0.08872571582818914
            ]
        },
        {
            "positions": [
                -0.8820168987258452,
                -0.8916725914005487,
                1.4574477774581727,
                1.6261062613076929,
                -1.7177963645502652,
                0.016909430259579403
            ]
        },
        {
            "positions": [
                -0.9065939871966239,
                -0.9210978619118515,
                1.4677308508418823,
                1.5161972476136127,
                -1.6105714359813645,
                0.12254457634734794
            ]
        },
        {
            "positions": [
                -0.9311710756674026,
                -0.9505231324231544,
                1.478013924225592,
                1.4062882339195324,
                -1.5033465074124641,
                0.2281797224351165
            ]
        },
        {
            "positions": [
                -0.9557481641381813,
                -0.9799484029344573,
                1.4882969976093017,
                1.2963792202254523,
                -1.3961215788435635,
                0.333814868522885
            ]
        },
        {
            "positions": [
                -0.9803252526089601,
                -1.0093736734457601,
                1.4985800709930113,
                1.1864702065313721,
                -1.2888966502746628,
                0.4394500146106536
            ]
        },
        {
            "positions": [
                -1.0049023410797389,
                -1.038798943957063,
                1.5088631443767209,
                1.0765611928372918,
                -1.1816717217057622,
                0.5450851606984222
            ]
        },
        {
            "positions": [
                -1.0294794295505176,
                -1.0682242144683658,
                1.5191462177604305,
                0.9666521791432117,
                -1.0744467931368615,
                0.6507203067861907
            ]
        },
        {
            "positions": [
                -1.0540565180212962,
                -1.0976494849796687,
                1.5294292911441403,
                0.8567431654491315,
                -0.967221864567961,
                0.7563554528739592
            ]
        },
        {
            "positions": [
                -1.078633606492075,
                -1.1270747554909715,
                1.5397123645278499,
                0.7468341517550514,
                -0.8599969359990605,
                0.8619905989617278
            ]
        },
        {
            "positions": [
                -1.1032106949628537,
                -1.1565000260022744,
                1.5499954379115595,
                0.6369251380609713,
                -0.7527720074301598,
                0.9676257450494963
            ]
        },
        {
            "positions": [
                -1.1277877834336325,
                -1.1859252965135774,
                1.560278511295269,
                0.5270161243668909,
                -0.6455470788612594,
                1.0732608911372647
            ]
        },
        {
            "positions": [
                -1.1523648719044113,
                -1.21535056702488,
                1.5705615846789787,
                0.4171071106728106,
                -0.5383221502923585,
                1.1788960372250334
            ]
        },
        {
            "positions": [
                -1.1769419603751898,
                -1.244775837536183,
                1.5808446580626885,
                0.30719809697873046,
                -0.4310972217234579,
                1.2845311833128021
            ]
        },
        {
            "positions": [
                -1.2015190488459686,
                -1.2742011080474858,
                1.591127731446398,
                0.19728908328465034,
                -0.32387229315455746,
                1.3901663294005706
            ]
        },
        {
            "positions": [
                -1.2260961373167474,
                -1.3036263785587887,
                1.6014108048301077,
                0.08738006959057013,
                -0.2166473645856569,
                1.495801475488339
            ]
        },
        {
            "positions": [
                -1.2142112556901055,
                -1.2870146970628067,
                1.638895739842821,
                0.0038280615049708783,
                -0.15402557537743147,
                1.6447809076850193
            ]
        },
        {
            "positions": [
                -1.2023263740634633,
                -1.2704030155668247,
                1.676380674855534,
                -0.07972394658062837,
                -0.09140378616920605,
                1.7937603398816995
            ]
        },
        {
            "positions": [
                -1.1904414924368214,
                -1.2537913340708426,
                1.7138656098682474,
                -0.1632759546662276,
                -0.02878199696098066,
                1.9427397720783794
            ]
        },
        {
            "positions": [
                -1.1785566108101793,
                -1.2371796525748606,
                1.7513505448809608,
                -0.24682796275182686,
                0.03383979224724479,
                2.0917192042750594
            ]
        },
        {
            "positions": [
                -1.1666717291835373,
                -1.2205679710788786,
                1.7888354798936739,
                -0.3303799708374261,
                0.09646158145547015,
                2.24069863647174
            ]
        },
        {
            "positions": [
                -1.1547868475568952,
                -1.2039562895828966,
                1.8263204149063872,
                -0.41393197892302536,
                0.15908337066369557,
                2.38967806866842
            ]
        },
        {
            "positions": [
                -1.1429019659302533,
                -1.1873446080869146,
                1.8638053499191005,
                -0.4974839870086246,
                0.221705159871921,
                2.5386575008651002
            ]
        },
        {
            "positions": [
                -1.1310170843036111,
                -1.1707329265909325,
                1.9012902849318136,
                -0.5810359950942239,
                0.28432694908014644,
                2.68763693306178
            ]
        },
        {
            "positions": [
                -1.1191322026769692,
                -1.1541212450949505,
                1.938775219944527,
                -0.6645880031798231,
                0.3469487382883718,
                2.83661636525846
            ]
        },
        {
            "positions": [
                -1.1072473210503273,
                -1.1375095635989685,
                1.97626015495724,
                -0.7481400112654223,
                0.40957052749659717,
                2.98559579745514
            ]
        },
        {
            "positions": [
                -1.0953624394236852,
                -1.1208978821029865,
                2.0137450899699534,
                -0.8316920193510215,
                0.4721923167048227,
                3.1345752296518206
            ]
        }
    ]
}