{
    "goal": {
        "global_pose": {
            "orientation": {
                "w": -0.4816463035849501,
                "x": 0.5182115481033762,
                "y": 0.4908360881923453,
                "z": -0.5084816262002911
            },
            "position": {
                "x": -0.8240239810943604,
                "y": 0.19912469901144506,
                "z": 0.16403168439865112
            }
        },
        "name": "move_to_storage_D"
    },
    "id": "BKPIECE_move_to_storage_D_95",
    "joint_names": [
        "shoulder_pan_joint",
        "shoulder_lift_joint",
        "elbow_joint",
        "wrist_1_joint",
        "wrist_2_joint",
        "wrist_3_joint"
    ],
    "metrics": {
        "cart_traj_len": 1.6066898259375155,
        "distance_elbow_joint": 1.314477604937892,
        "distance_shoulder_lift_joint": 0.569158752071385,
        "distance_shoulder_pan_joint": 0.8435372503162868,
        "distance_wrist_1_joint": 3.8457869260571935,
        "distance_wrist_2_joint": 1.920111421822855,
        "distance_wrist_3_joint": 3.135463699070709,
        "smoothness": 0.31354935674604517,
        "time": 0.156036666,
        "traj_len": 3.410063878327841,
        "weighted_distance": 4.864705684858827
    },
    "planner": "BKPIECE",
    "start": {
        "state": {
            "elbow_joint": -2.384821988534728,
            "shoulder_lift_joint": -2.2788054721415256,
            "shoulder_pan_joint": -0.1854694642142757,
            "wrist_1_joint": 1.4845938289331202,
            "wrist_2_joint": 0.17898776772866878,
            "wrist_3_joint": 0.037105688729662994
        }
    },
    "waypoints": [
        {
            "positions": [
                -0.1854694642142757,
                -2.2788054721415256,
                -2.384821988534728,
                1.4845938289331202,
                0.17898776772866878,
                0.037105688729662994
            ]
        },
        {
            "positions": [
                -0.10810519675115933,
                -2.2889843353889088,
                -2.245536017121818,
                1.4390905087031616,
                0.21163334013070673,
                -0.004940900439315721
            ]
        },
        {
            "positions": [
                -0.03074092928804295,
                -2.2991631986362924,
                -2.1062500457089084,
                1.393587188473203,
                0.24427891253274464,
                -0.046987489608294436
            ]
        },
        {
            "positions": [
                -0.011746233425947241,
                -2.2791339648670634,
                -2.069612932274236,
                1.2780557133417367,
                0.17643396963718552,
                -0.16330825192843712
            ]
        },
        {
            "positions": [
                0.007248462436148469,
                -2.259104731097835,
                -2.0329758188395637,
                1.1625242382102705,
                0.1085890267416264,
                -0.2796290142485798
            ]
        },
        {
            "positions": [
                0.026243158298244175,
                -2.239075497328606,
                -1.9963387054048913,
                1.0469927630788043,
                0.040744083846067314,
                -0.39594977656872254
            ]
        },
        {
            "positions": [
                0.04523785416033989,
                -2.219046263559377,
                -1.959701591970219,
                0.9314612879473381,
                -0.027100859049491832,
                -0.5122705388888652
            ]
        },
        {
            "positions": [
                0.0642325500224356,
                -2.199017029790148,
                -1.9230644785355464,
                0.8159298128158718,
                -0.09494580194505092,
                -0.628591301209008
            ]
        },
        {
            "positions": [
                0.0832272458845313,
                -2.1789877960209196,
                -1.886427365100874,
                0.7003983376844056,
                -0.16279074484061,
                -0.7449120635291506
            ]
        },
        {
            "positions": [
                0.10222194174662702,
                -2.1589585622516907,
                -1.8497902516662017,
                0.5848668625529394,
                -0.23063568773616916,
                -0.8612328258492933
            ]
        },
        {
            "positions": [
                0.12121663760872273,
                -2.1389293284824618,
                -1.8131531382315293,
                0.4693353874214732,
                -0.2984806306317283,
                -0.9775535881694359
            ]
        },
        {
            "positions": [
                0.14021133347081843,
                -2.118900094713233,
                -1.776516024796857,
                0.35380391229000696,
                -0.3663255735272874,
                -1.0938743504895787
            ]
        },
        {
            "positions": [
                0.15920602933291414,
                -2.0988708609440043,
                -1.7398789113621846,
                0.23827243715854074,
                -0.4341705164228465,
                -1.2101951128097215
            ]
        },
        {
            "positions": [
                0.17820072519500987,
                -2.0788416271747754,
                -1.7032417979275123,
                0.12274096202707452,
                -0.5020154593184056,
                -1.3265158751298642
            ]
        },
        {
            "positions": [
                0.19719542105710555,
                -2.0588123934055464,
                -1.66660468449284,
                0.007209486895608297,
                -0.5698604022139646,
                -1.4428366374500068
            ]
        },
        {
            "positions": [
                0.21619011691920126,
                -2.038783159636318,
                -1.6299675710581676,
                -0.10832198823585792,
                -0.6377053451095238,
                -1.5591573997701496
            ]
        },
        {
            "positions": [
                0.235184812781297,
                -2.018753925867089,
                -1.593330457623495,
                -0.22385346336732415,
                -0.705550288005083,
                -1.675478162090292
            ]
        },
        {
            "positions": [
                0.2541795086433927,
                -1.99872469209786,
                -1.5566933441888227,
                -0.33938493849879037,
                -0.773395230900642,
                -1.7917989244104349
            ]
        },
        {
            "positions": [
                0.2731742045054884,
                -1.9786954583286314,
                -1.5200562307541503,
                -0.4549164136302566,
                -0.8412401737962012,
                -1.9081196867305774
            ]
        },
        {
            "positions": [
                0.2921689003675841,
                -1.9586662245594026,
                -1.483419117319478,
                -0.5704478887617228,
                -0.9090851166917602,
                -2.02444044905072
            ]
        },
        {
            "positions": [
                0.3111635962296798,
                -1.9386369907901737,
                -1.4467820038848056,
                -0.685979363893189,
                -0.9769300595873194,
                -2.140761211370863
            ]
        },
        {
            "positions": [
                0.2796268516958315,
                -1.9557528833111282,
                -1.4810036057291665,
                -0.838271521459633,
                -1.0345310873053843,
                -2.227815465822698
            ]
        },
        {
            "positions": [
                0.2480901071619832,
                -1.9728687758320826,
                -1.5152252075735273,
                -0.990563679026077,
                -1.0921321150234493,
                -2.3148697202745327
            ]
        },
        {
            "positions": [
                0.21655336262813496,
                -1.9899846683530373,
                -1.5494468094178881,
                -1.142855836592521,
                -1.1497331427415145,
                -2.401923974726367
            ]
        },
        {
            "positions": [
                0.18501661809428663,
                -2.0071005608739916,
                -1.583668411262249,
                -1.295147994158965,
                -1.2073341704595795,
                -2.488978229178202
            ]
        },
        {
            "positions": [
                0.15347987356043835,
                -2.024216453394946,
                -1.6178900131066098,
                -1.447440151725409,
                -1.2649351981776444,
                -2.576032483630037
            ]
        },
        {
            "positions": [
                0.12194312902659007,
                -2.041332345915901,
                -1.6521116149509707,
                -1.599732309291853,
                -1.3225362258957094,
                -2.663086738081872
            ]
        },
        {
            "positions": [
                0.09040638449274177,
                -2.0584482384368554,
                -1.6863332167953318,
                -1.752024466858297,
                -1.3801372536137744,
                -2.750140992533707
            ]
        },
        {
            "positions": [
                0.05886963995889344,
                -2.07556413095781,
                -1.7205548186396926,
                -1.904316624424741,
                -1.4377382813318396,
                -2.8371952469855417
            ]
        },
        {
            "positions": [
                0.027332895425045134,
                -2.0926800234787644,
                -1.7547764204840535,
                -2.056608781991185,
                -1.4953393090499045,
                -2.9242495014373766
            ]
        },
        {
            "positions": [
                -0.004203849108803115,
                -2.109795915999719,
                -1.7889980223284143,
                -2.208900939557629,
                -1.5529403367679695,
                -3.011303755889211
            ]
        },
        {
            "positions": [
                -0.03574059364265142,
                -2.1269118085206733,
                -1.8232196241727752,
                -2.361193097124073,
                -1.6105413644860345,
                -3.098358010341046
            ]
        }
    ]
}