{
    "goal": {
        "global_pose": {
            "orientation": {
                "w": 0.7031023502349854,
                "x": -0.7110244035720825,
                "y": 0.007748599164187908,
                "z": 0.005598929710686207
            },
            "position": {
                "x": 0.11585023208521307,
                "y": 0.44412534475326537,
                "z": 0.3711530566215515
            }
        },
        "name": "move_to_auspresseinheit_A"
    },
    "id": "BKPIECE_move_to_auspresseinheit_A_127",
    "joint_names": [
        "shoulder_pan_joint",
        "shoulder_lift_joint",
        "elbow_joint",
        "wrist_1_joint",
        "wrist_2_joint",
        "wrist_3_joint"
    ],
    "metrics": {
        "cart_traj_len": 1.6224928638053,
        "distance_elbow_joint": 1.9372550908287276,
        "distance_shoulder_lift_joint": 0.981813390212394,
        "distance_shoulder_pan_joint": 1.2135902120252036,
        "distance_wrist_1_joint": 2.292626007284243,
        "distance_wrist_2_joint": 1.8978517270471966,
        "distance_wrist_3_joint": 2.402763544856336,
        "smoothness": 1.5359322320153441,
        "time": 0.294929579,
        "traj_len": 3.27504198022775,
        "weighted_distance": 4.440935126332989
    },
    "planner": "BKPIECE",
    "start": {
        "state": {
            "elbow_joint": 2.4225746658250005,
            "shoulder_lift_joint": -1.3736534386056498,
            "shoulder_pan_joint": -0.3378633547517467,
            "wrist_1_joint": -1.0288598680537169,
            "wrist_2_joint": 1.233022673432363,
            "wrist_3_joint": -3.0940220416140027
        }
    },
    "waypoints": [
        {
            "positions": [
                -0.3378633547517467,
                -1.3736534386056498,
                2.4225746658250005,
                -1.0288598680537169,
                1.233022673432363,
                -3.0940220416140027
            ]
        },
        {
            "positions": [
                -0.3088494168144471,
                -1.4100221574708827,
                2.354183791330014,
                -0.94454616577975,
                1.1578220799317303,
                -3.0097150005583453
            ]
        },
        {
            "positions": [
                -0.27983547887714744,
                -1.4463908763361153,
                2.2857929168350273,
                -0.8602324635057831,
                1.0826214864310972,
                -2.925407959502688
            ]
        },
        {
            "positions": [
                -0.2508215409398478,
                -1.482759595201348,
                2.217402042340041,
                -0.7759187612318162,
                1.0074208929304644,
                -2.8411009184470304
            ]
        },
        {
            "positions": [
                -0.22180760300254818,
                -1.5191283140665808,
                2.1490111678450545,
                -0.6916050589578493,
                0.9322202994298314,
                -2.7567938773913725
            ]
        },
        {
            "positions": [
                -0.19279366506524853,
                -1.5554970329318136,
                2.080620293350068,
                -0.6072913566838825,
                0.8570197059291986,
                -2.672486836335715
            ]
        },
        {
            "positions": [
                -0.1637797271279489,
                -1.5918657517970463,
                2.0122294188550813,
                -0.5229776544099156,
                0.7818191124285657,
                -2.5881797952800576
            ]
        },
        {
            "positions": [
                -0.13476578919064924,
                -1.6282344706622789,
                1.9438385443600947,
                -0.43866395213594866,
                0.7066185189279328,
                -2.5038727542244
            ]
        },
        {
            "positions": [
                -0.10575185125334963,
                -1.6646031895275117,
                1.8754476698651084,
                -0.3543502498619818,
                0.6314179254272999,
                -2.4195657131687427
            ]
        },
        {
            "positions": [
                -0.07673791331604995,
                -1.7009719083927446,
                1.8070567953701218,
                -0.2700365475880149,
                0.556217331926667,
                -2.335258672113085
            ]
        },
        {
            "positions": [
                -0.04772397537875034,
                -1.7373406272579772,
                1.7386659208751354,
                -0.18572284531404804,
                0.4810167384260341,
                -2.2509516310574273
            ]
        },
        {
            "positions": [
                -0.018710037441450666,
                -1.7737093461232099,
                1.6702750463801488,
                -0.10140914304008108,
                0.4058161449254013,
                -2.16664459000177
            ]
        },
        {
            "positions": [
                0.01030390049584895,
                -1.8100780649884427,
                1.6018841718851622,
                -0.017095440766114356,
                0.3306155514247684,
                -2.0823375489461124
            ]
        },
        {
            "positions": [
                0.03931783843314862,
                -1.8464467838536756,
                1.5334932973901756,
                0.0672182615078527,
                0.2554149579241355,
                -1.9980305078904548
            ]
        },
        {
            "positions": [
                0.06833177637044821,
                -1.8828155027189082,
                1.4651024228951892,
                0.1515319637818195,
                0.18021436442350255,
                -1.9137234668347973
            ]
        },
        {
            "positions": [
                0.15353063545279116,
                -1.9242350915375395,
                1.5402906259384777,
                0.18149640602054995,
                0.251260396851036,
                -1.9697695568150524
            ]
        },
        {
            "positions": [
                0.2387294945351341,
                -1.9656546803561707,
                1.615478828981766,
                0.21146084825928038,
                0.32230642927856945,
                -2.0258156467953077
            ]
        },
        {
            "positions": [
                0.32392835361747707,
                -2.007074269174802,
                1.6906670320250545,
                0.24142529049801084,
                0.39335246170610294,
                -2.0818617367755627
            ]
        },
        {
            "positions": [
                0.40912721269982,
                -2.0484938579934333,
                1.7658552350683427,
                0.2713897327367413,
                0.4643984941336363,
                -2.137907826755818
            ]
        },
        {
            "positions": [
                0.4943260717821629,
                -2.089913446812065,
                1.8410434381116312,
                0.3013541749754718,
                0.5354445265611698,
                -2.193953916736073
            ]
        },
        {
            "positions": [
                0.5795249308645058,
                -2.131333035630696,
                1.9162316411549196,
                0.3313186172142022,
                0.6064905589887033,
                -2.250000006716328
            ]
        },
        {
            "positions": [
                0.6388278783340682,
                -2.0912806437714853,
                1.9028273609091977,
                0.36682731257086615,
                0.526597660934933,
                -2.249571467204258
            ]
        },
        {
            "positions": [
                0.6981308258036304,
                -2.051228251912275,
                1.8894230806634758,
                0.4023360079275301,
                0.4467047628811627,
                -2.2491429276921884
            ]
        },
        {
            "positions": [
                0.7211565642297972,
                -2.0415121189211907,
                1.9747404964795565,
                0.3134327278060131,
                0.48748368052447416,
                -2.365059741524926
            ]
        },
        {
            "positions": [
                0.744182302655964,
                -2.0317959859301062,
                2.0600579122956373,
                0.22452944768449615,
                0.5282625981677856,
                -2.480976555357663
            ]
        },
        {
            "positions": [
                0.7672080410821307,
                -2.0220798529390214,
                2.145375328111718,
                0.13562616756297918,
                0.5690415158110971,
                -2.5968933691904006
            ]
        },
        {
            "positions": [
                0.7902337795082975,
                -2.012363719947937,
                2.230692743927799,
                0.04672288744146219,
                0.6098204334544086,
                -2.712810183023138
            ]
        },
        {
            "positions": [
                0.7688605100670078,
                -1.9860726005717897,
                2.2708365953986536,
                -0.07973136526276972,
                0.6337868726524958,
                -2.8182262069832658
            ]
        },
        {
            "positions": [
                0.7474872406257181,
                -1.9597814811956424,
                2.3109804468695083,
                -0.20618561796700163,
                0.657753311850583,
                -2.9236422309433934
            ]
        },
        {
            "positions": [
                0.7261139711844284,
                -1.9334903618194952,
                2.351124298340363,
                -0.3326398706712335,
                0.68171975104867,
                -3.029058254903521
            ]
        },
        {
            "positions": [
                0.7047407017431387,
                -1.907199242443348,
                2.391268149811218,
                -0.45909412337546546,
                0.7056861902467572,
                -3.1344742788636486
            ]
        }
    ]
}