{
    "goal": {
        "global_pose": {
            "orientation": {
                "w": 0.5084816217422485,
                "x": -0.49083608388900757,
                "y": 0.5182115435600281,
                "z": -0.4816462993621826
            },
            "position": {
                "x": 0.5540239810943604,
                "y": 0.030875300988554955,
                "z": 0.16403168439865112
            }
        },
        "name": "move_to_storage_A"
    },
    "id": "BKPIECE_move_to_storage_A_62",
    "joint_names": [
        "shoulder_pan_joint",
        "shoulder_lift_joint",
        "elbow_joint",
        "wrist_1_joint",
        "wrist_2_joint",
        "wrist_3_joint"
    ],
    "metrics": {
        "cart_traj_len": 0.3527926089002529,
        "distance_elbow_joint": 0.448156526505578,
        "distance_shoulder_lift_joint": 0.23467705948149087,
        "distance_shoulder_pan_joint": 0.46022796151432777,
        "distance_wrist_1_joint": 0.23860958770755214,
        "distance_wrist_2_joint": 1.1026001229907176,
        "distance_wrist_3_joint": 0.10231747466963093,
        "smoothness": 4.440892098500626e-16,
        "time": 0.092778063,
        "traj_len": 1.6082875156107186,
        "weighted_distance": 2.0328387523133333
    },
    "planner": "BKPIECE",
    "start": {
        "state": {
            "elbow_joint": 1.971548259319323,
            "shoulder_lift_joint": -1.1394851275133948,
            "shoulder_pan_joint": 0.1228115487234821,
            "wrist_1_joint": -0.7804723859257726,
            "wrist_2_joint": 0.12958671773740124,
            "wrist_3_joint": -3.192489227718131
        }
    },
    "waypoints": [
        {
            "positions": [
                0.1228115487234821,
                -1.1394851275133948,
                1.971548259319323,
                -0.7804723859257726,
                0.12958671773740124,
                -3.192489227718131
            ]
        },
        {
            "positions": [
                0.05706469707857814,
                -1.1730104217250363,
                2.0355706202486914,
                -0.8145594698839943,
                0.28710102102178947,
                -3.1778724456224694
            ]
        },
        {
            "positions": [
                -0.008682154566325817,
                -1.2065357159366779,
                2.0995929811780596,
                -0.8486465538422161,
                0.4446153243061777,
                -3.163255663526808
            ]
        },
        {
            "positions": [
                -0.07442900621122978,
                -1.2400610101483194,
                2.163615342107428,
                -0.8827336378004378,
                0.6021296275905659,
                -3.1486388814311463
            ]
        },
        {
            "positions": [
                -0.14017585785613373,
                -1.2735863043599611,
                2.227637703036796,
                -0.9168207217586596,
                0.7596439308749542,
                -3.134022099335485
            ]
        },
        {
            "positions": [
                -0.20592270950103775,
                -1.3071115985716026,
                2.2916600639661646,
                -0.9509078057168813,
                0.9171582341593425,
                -3.1194053172398233
            ]
        },
        {
            "positions": [
                -0.27166956114594165,
                -1.3406368927832442,
                2.355682424895533,
                -0.9849948896751031,
                1.0746725374437305,
                -3.104788535144162
            ]
        },
        {
            "positions": [
                -0.33741641279084567,
                -1.3741621869948857,
                2.419704785824901,
                -1.0190819736333248,
                1.232186840728119,
                -3.0901717530485002
            ]
        }
    ]
}{
    "goal": {
        "global_pose": {
            "orientation": {
                "w": 0.5084816217422485,
                "x": -0.49083608388900757,
                "y": 0.5182115435600281,
                "z": -0.4816462993621826
            },
            "position": {
                "x": 0.5540239810943604,
                "y": 0.030875300988554955,
                "z": 0.16403168439865112
            }
        },
        "name": "move_to_storage_A"
    },
    "id": "BKPIECE_move_to_storage_A_62",
    "joint_names": [
        "shoulder_pan_joint",
        "shoulder_lift_joint",
        "elbow_joint",
        "wrist_1_joint",
        "wrist_2_joint",
        "wrist_3_joint"
    ],
    "metrics": {
        "cart_traj_len": 0.35280406401782827,
        "distance_elbow_joint": 0.4513544849769504,
        "distance_shoulder_lift_joint": 0.2336171312131996,
        "distance_shoulder_pan_joint": 0.45838072737896146,
        "distance_wrist_1_joint": 0.25513575646879993,
        "distance_wrist_2_joint": 1.1103204599643377,
        "distance_wrist_3_joint": 0.10164619661409136,
        "smoothness": 4.440892098500626e-16,
        "time": 0.238585991,
        "traj_len": 1.6156901796496568,
        "weighted_distance": 2.0443099975976393
    },
    "planner": "BKPIECE",
    "start": {
        "state": {
            "elbow_joint": 1.97154746011099,
            "shoulder_lift_joint": -1.13948474672311,
            "shoulder_pan_joint": 0.12281154466712228,
            "wrist_1_joint": -0.7804688027058302,
            "wrist_2_joint": 0.12958655903071145,
            "wrist_3_joint": 3.0906928834467795
        }
    },
    "waypoints": [
        {
            "positions": [
                0.12281154466712228,
                -1.13948474672311,
                1.97154746011099,
                -0.7804688027058302,
                0.12958655903071145,
                3.0906928834467795
            ]
        },
        {
            "positions": [
                0.05732858361298493,
                -1.1728586226107098,
                2.0360266722505544,
                -0.8169167679156587,
                0.2882037675970454,
                3.105213768677364
            ]
        },
        {
            "positions": [
                -0.008154377441152424,
                -1.20623249849831,
                2.1005058843901185,
                -0.8533647331254873,
                0.44682097616337935,
                3.1197346539079485
            ]
        },
        {
            "positions": [
                -0.07363733849528976,
                -1.2396063743859098,
                2.164985096529683,
                -0.8898126983353158,
                0.6054381847297133,
                3.134255539138533
            ]
        },
        {
            "positions": [
                -0.13912029954942712,
                -1.2729802502735097,
                2.229464308669247,
                -0.9262606635451445,
                0.7640553932960473,
                3.1487764243691174
            ]
        },
        {
            "positions": [
                -0.20460326060356449,
                -1.3063541261611098,
                2.2939435208088117,
                -0.962708628754973,
                0.9226726018623813,
                3.163297309599702
            ]
        },
        {
            "positions": [
                -0.2700862216577018,
                -1.3397280020487097,
                2.358422732948376,
                -0.9991565939648015,
                1.0812898104287152,
                3.1778181948302864
            ]
        },
        {
            "positions": [
                -0.33556918271183916,
                -1.3731018779363096,
                2.4229019450879403,
                -1.0356045591746301,
                1.2399070189950492,
                3.192339080060871
            ]
        }
    ]
}{
    "goal": {
        "global_pose": {
            "orientation": {
                "w": 0.5084816217422485,
                "x": -0.49083608388900757,
                "y": 0.5182115435600281,
                "z": -0.4816462993621826
            },
            "position": {
                "x": 0.5540239810943604,
                "y": 0.030875300988554955,
                "z": 0.16403168439865112
            }
        },
        "name": "move_to_storage_A"
    },
    "id": "BKPIECE_move_to_storage_A_62",
    "joint_names": [
        "shoulder_pan_joint",
        "shoulder_lift_joint",
        "elbow_joint",
        "wrist_1_joint",
        "wrist_2_joint",
        "wrist_3_joint"
    ],
    "metrics": {
        "cart_traj_len": 0.3541998549743771,
        "distance_elbow_joint": 0.4511707911777538,
        "distance_shoulder_lift_joint": 0.23418235667849596,
        "distance_shoulder_pan_joint": 0.46078981608375974,
        "distance_wrist_1_joint": 0.24923707433311737,
        "distance_wrist_2_joint": 1.1110895994188854,
        "distance_wrist_3_joint": 0.08931038098575916,
        "smoothness": 1.1102230298998083e-15,
        "time": 0.14102337399999998,
        "traj_len": 1.611142457598884,
        "weighted_distance": 2.0334029247547796
    },
    "planner": "BKPIECE",
    "start": {
        "state": {
            "elbow_joint": 1.9715472970024885,
            "shoulder_lift_joint": -1.1394870060712896,
            "shoulder_pan_joint": 0.12281152778156021,
            "wrist_1_joint": -0.780463741449964,
            "wrist_2_joint": 0.12958659822042276,
            "wrist_3_joint": 3.090690232415272
        }
    },
    "waypoints": [
        {
            "positions": [
                0.12281152778156021,
                -1.1394870060712896,
                1.9715472970024885,
                -0.780463741449964,
                0.12958659822042276,
                3.090690232415272
            ]
        },
        {
            "positions": [
                0.05698441119816597,
                -1.1729416284539318,
                2.036000267170739,
                -0.8160690377832664,
                0.2883136838516921,
                3.1034488582703803
            ]
        },
        {
            "positions": [
                -0.008842705385228272,
                -1.2063962508365742,
                2.1004532373389897,
                -0.8516743341165689,
                0.44704076948296145,
                3.1162074841254888
            ]
        },
        {
            "positions": [
                -0.07466982196862251,
                -1.2398508732192164,
                2.16490620750724,
                -0.8872796304498715,
                0.6057678551142308,
                3.128966109980597
            ]
        },
        {
            "positions": [
                -0.14049693855201675,
                -1.2733054956018588,
                2.229359177675491,
                -0.9228849267831739,
                0.7644949407455001,
                3.1417247358357057
            ]
        },
        {
            "positions": [
                -0.206324055135411,
                -1.306760117984501,
                2.293812147843741,
                -0.9584902231164765,
                0.9232220263767694,
                3.154483361690814
            ]
        },
        {
            "positions": [
                -0.2721511717188052,
                -1.3402147403671432,
                2.3582651180119916,
                -0.9940955194497789,
                1.081949112008039,
                3.1672419875459226
            ]
        },
        {
            "positions": [
                -0.3379782883021995,
                -1.3736693627497856,
                2.4227180881802424,
                -1.0297008157830814,
                1.2406761976393081,
                3.180000613401031
            ]
        }
    ]
}