{
    "goal": {
        "global_pose": {
            "orientation": {
                "w": 0.7031023480610252,
                "x": -0.7110244013736278,
                "y": 0.0077485991402295624,
                "z": 0.005598929693374583
            },
            "position": {
                "x": -0.8841497679147869,
                "y": 0.44412534475326537,
                "z": 0.3711530566215515
            }
        },
        "name": "move_to_auspresseinheit_D"
    },
    "id": "BKPIECE_move_to_auspresseinheit_D_95",
    "joint_names": [
        "shoulder_pan_joint",
        "shoulder_lift_joint",
        "elbow_joint",
        "wrist_1_joint",
        "wrist_2_joint",
        "wrist_3_joint"
    ],
    "metrics": {
        "cart_traj_len": 0.34337139730972455,
        "distance_elbow_joint": 0.6600680689082721,
        "distance_shoulder_lift_joint": 0.13386495777486918,
        "distance_shoulder_pan_joint": 0.13343597740480506,
        "distance_wrist_1_joint": 0.610836457275659,
        "distance_wrist_2_joint": 1.432231910169653,
        "distance_wrist_3_joint": 0.07642730325541036,
        "smoothness": 0.0,
        "time": 0.204683345,
        "traj_len": 1.745527047853647,
        "weighted_distance": 2.2897134424955454
    },
    "planner": "BKPIECE",
    "start": {
        "state": {
            "elbow_joint": -1.8275523626775212,
            "shoulder_lift_joint": -2.126789852344167,
            "shoulder_pan_joint": -0.03513704404078235,
            "wrist_1_joint": -2.347782403156801,
            "wrist_2_joint": -1.6058999987535132,
            "wrist_3_joint": -3.0880379163319196
        }
    },
    "waypoints": [
        {
            "positions": [
                -0.03513704404078235,
                -2.126789852344167,
                -1.8275523626775212,
                -2.347782403156801,
                -1.6058999987535132,
                -3.0880379163319196
            ]
        },
        {
            "positions": [
                -0.05181654121638298,
                -2.1435229720660254,
                -1.7450438540639872,
                -2.4241369603162584,
                -1.4268710099823065,
                -3.0784845034249932
            ]
        },
        {
            "positions": [
                -0.06849603839198362,
                -2.1602560917878844,
                -1.6625353454504532,
                -2.500491517475716,
                -1.2478420212110999,
                -3.068931090518067
            ]
        },
        {
            "positions": [
                -0.08517553556758425,
                -2.176989211509743,
                -1.5800268368369192,
                -2.576846074635173,
                -1.0688130324398935,
                -3.0593776776111405
            ]
        },
        {
            "positions": [
                -0.10185503274318489,
                -2.1937223312316014,
                -1.4975183282233853,
                -2.6532006317946304,
                -0.8897840436686867,
                -3.049824264704214
            ]
        },
        {
            "positions": [
                -0.11853452991878552,
                -2.21045545095346,
                -1.415009819609851,
                -2.729555188954088,
                -0.71075505489748,
                -3.0402708517972883
            ]
        },
        {
            "positions": [
                -0.13521402709438615,
                -2.2271885706753185,
                -1.332501310996317,
                -2.805909746113545,
                -0.5317260661262735,
                -3.030717438890362
            ]
        },
        {
            "positions": [
                -0.15189352426998678,
                -2.2439216903971775,
                -1.249992802382783,
                -2.8822643032730024,
                -0.35269707735506683,
                -3.0211640259834356
            ]
        },
        {
            "positions": [
                -0.16857302144558742,
                -2.260654810119036,
                -1.1674842937692491,
                -2.95861886043246,
                -0.1736680885838601,
                -3.0116106130765092
            ]
        }
    ]
}