{
    "goal": {
        "global_pose": {
            "orientation": {
                "w": -0.4816463035849501,
                "x": 0.5182115481033762,
                "y": 0.4908360881923453,
                "z": -0.5084816262002911
            },
            "position": {
                "x": -0.8240239810943604,
                "y": -0.300875300988555,
                "z": 0.16403168439865112
            }
        },
        "name": "move_to_storage_C"
    },
    "id": "BKPIECE_move_to_storage_C_142",
    "joint_names": [
        "shoulder_pan_joint",
        "shoulder_lift_joint",
        "elbow_joint",
        "wrist_1_joint",
        "wrist_2_joint",
        "wrist_3_joint"
    ],
    "metrics": {
        "cart_traj_len": 0.5757753214145651,
        "distance_elbow_joint": 0.2587958758747011,
        "distance_shoulder_lift_joint": 0.1883844421029247,
        "distance_shoulder_pan_joint": 0.4949578474441778,
        "distance_wrist_1_joint": 0.08647849804095142,
        "distance_wrist_2_joint": 1.0606599026502015,
        "distance_wrist_3_joint": 0.07617959319011369,
        "smoothness": 0.0,
        "time": 0.232461042,
        "traj_len": 1.4715488980333173,
        "weighted_distance": 1.8614386227792876
    },
    "planner": "BKPIECE",
    "start": {
        "state": {
            "elbow_joint": 2.010868314990456,
            "shoulder_lift_joint": -1.1634956873337592,
            "shoulder_pan_joint": -2.4736205022346125,
            "wrist_1_joint": -0.8367026794202681,
            "wrist_2_joint": 0.6746043897044499,
            "wrist_3_joint": -3.1496632123970403
        }
    },
    "waypoints": [
        {
            "positions": [
                -2.4736205022346125,
                -1.1634956873337592,
                2.010868314990456,
                -0.8367026794202681,
                0.6746043897044499,
                -3.1496632123970403
            ]
        },
        {
            "positions": [
                -2.556113476808642,
                -1.132098280316605,
                1.967735669011339,
                -0.8222895964134429,
                0.8513810401461501,
                -3.1369666135320213
            ]
        },
        {
            "positions": [
                -2.638606451382672,
                -1.100700873299451,
                1.9246030230322222,
                -0.8078765134066176,
                1.0281576905878504,
                -3.1242700146670024
            ]
        },
        {
            "positions": [
                -2.7210994259567016,
                -1.0693034662822969,
                1.8814703770531054,
                -0.7934634303997924,
                1.2049343410295505,
                -3.1115734158019834
            ]
        },
        {
            "positions": [
                -2.803592400530731,
                -1.0379060592651428,
                1.8383377310739883,
                -0.7790503473929672,
                1.3817109914712509,
                -3.0988768169369645
            ]
        },
        {
            "positions": [
                -2.8860853751047606,
                -1.0065086522479887,
                1.7952050850948715,
                -0.7646372643861419,
                1.5584876419129512,
                -3.0861802180719455
            ]
        },
        {
            "positions": [
                -2.9685783496787903,
                -0.9751112452308345,
                1.7520724391157547,
                -0.7502241813793167,
                1.7352642923546515,
                -3.0734836192069266
            ]
        }
    ]
}