{
    "goal": {
        "global_pose": {
            "orientation": {
                "w": -0.4816463035849501,
                "x": 0.5182115481033762,
                "y": 0.4908360881923453,
                "z": -0.5084816262002911
            },
            "position": {
                "x": -0.8240239810943604,
                "y": -0.300875300988555,
                "z": 0.16403168439865112
            }
        },
        "name": "move_to_storage_C"
    },
    "id": "BKPIECE_move_to_storage_C_127",
    "joint_names": [
        "shoulder_pan_joint",
        "shoulder_lift_joint",
        "elbow_joint",
        "wrist_1_joint",
        "wrist_2_joint",
        "wrist_3_joint"
    ],
    "metrics": {
        "cart_traj_len": 0.5765381778751986,
        "distance_elbow_joint": 0.25269078275227685,
        "distance_shoulder_lift_joint": 0.18877016108925915,
        "distance_shoulder_pan_joint": 0.4957746220461887,
        "distance_wrist_1_joint": 0.062064618327177246,
        "distance_wrist_2_joint": 1.0635313296400497,
        "distance_wrist_3_joint": 0.06650925196193613,
        "smoothness": 0.0,
        "time": 0.127130497,
        "traj_len": 1.4592260845451221,
        "weighted_distance": 1.84063989354463
    },
    "planner": "BKPIECE",
    "start": {
        "state": {
            "elbow_joint": 2.010868314990456,
            "shoulder_lift_joint": -1.1634956873337592,
            "shoulder_pan_joint": -2.4736205022346125,
            "wrist_1_joint": -0.8367026794202681,
            "wrist_2_joint": 0.6746043897044499,
            "wrist_3_joint": -3.1496632123970403
        }
    },
    "waypoints": [
        {
            "positions": [
                -2.4736205022346125,
                -1.1634956873337592,
                2.010868314990456,
                -0.8367026794202681,
                0.6746043897044499,
                -3.1496632123970403
            ]
        },
        {
            "positions": [
                -2.5562496059089774,
                -1.1320339938188826,
                1.968753184531743,
                -0.8263585763657386,
                0.8518596113111249,
                -3.138578337070051
            ]
        },
        {
            "positions": [
                -2.638878709583342,
                -1.1005723003040062,
                1.9266380540730301,
                -0.816014473311209,
                1.0291148329178,
                -3.1274934617430614
            ]
        },
        {
            "positions": [
                -2.721507813257707,
                -1.0691106067891296,
                1.8845229236143175,
                -0.8056703702566794,
                1.2063700545244749,
                -3.116408586416072
            ]
        },
        {
            "positions": [
                -2.804136916932072,
                -1.037648913274253,
                1.8424077931556047,
                -0.7953262672021499,
                1.3836252761311498,
                -3.105323711089083
            ]
        },
        {
            "positions": [
                -2.8867660206064363,
                -1.0061872197593766,
                1.8002926626968918,
                -0.7849821641476205,
                1.5608804977378248,
                -3.0942388357620936
            ]
        },
        {
            "positions": [
                -2.969395124280801,
                -0.9747255262445,
                1.758177532238179,
                -0.7746380610930909,
                1.7381357193444995,
                -3.083153960435104
            ]
        }
    ]
}