{
    "goal": {
        "global_pose": {
            "orientation": {
                "w": 0.005598929693374612,
                "x": 0.007748599140229565,
                "y": 0.7110244013736278,
                "z": -0.7031023480610252
            },
            "position": {
                "x": -0.8858502320852131,
                "y": -0.7141253447532654,
                "z": 0.3711530566215515
            }
        },
        "name": "move_to_auspresseinheit_C"
    },
    "id": "BKPIECE_move_to_auspresseinheit_C_46",
    "joint_names": [
        "shoulder_pan_joint",
        "shoulder_lift_joint",
        "elbow_joint",
        "wrist_1_joint",
        "wrist_2_joint",
        "wrist_3_joint"
    ],
    "metrics": {
        "cart_traj_len": 0.49286043263367685,
        "distance_elbow_joint": 0.9941680201160407,
        "distance_shoulder_lift_joint": 0.3224430006039739,
        "distance_shoulder_pan_joint": 0.2562265024577264,
        "distance_wrist_1_joint": 0.6617480079322443,
        "distance_wrist_2_joint": 1.3110312882229311,
        "distance_wrist_3_joint": 0.04255813037715672,
        "smoothness": 1.6148698667872622e-16,
        "time": 0.182433187,
        "traj_len": 1.8942478585734426,
        "weighted_distance": 2.376146145888245
    },
    "planner": "BKPIECE",
    "start": {
        "state": {
            "elbow_joint": 1.7527959577737207,
            "shoulder_lift_joint": -0.9740617694225068,
            "shoulder_pan_joint": -2.967991417825858,
            "wrist_1_joint": -0.759517768980727,
            "wrist_2_joint": 1.7443932448377408,
            "wrist_3_joint": -3.0840537646736568
        }
    },
    "waypoints": [
        {
            "positions": [
                -2.967991417825858,
                -0.9740617694225068,
                1.7527959577737207,
                -0.759517768980727,
                1.7443932448377408,
                -3.0840537646736568
            ]
        },
        {
            "positions": [
                -2.9423687675800854,
                -0.9418174693621094,
                1.6533791557621167,
                -0.6933429681875025,
                1.6132901160154478,
                -3.0883095777113723
            ]
        },
        {
            "positions": [
                -2.9167461173343128,
                -0.909573169301712,
                1.5539623537505125,
                -0.6271681673942782,
                1.4821869871931546,
                -3.092565390749088
            ]
        },
        {
            "positions": [
                -2.89112346708854,
                -0.8773288692413146,
                1.4545455517389085,
                -0.5609933666010537,
                1.3510838583708615,
                -3.0968212037868037
            ]
        },
        {
            "positions": [
                -2.8655008168427676,
                -0.8450845691809172,
                1.3551287497273043,
                -0.49481856580782924,
                1.2199807295485683,
                -3.1010770168245196
            ]
        },
        {
            "positions": [
                -2.8398781665969945,
                -0.8128402691205199,
                1.2557119477157004,
                -0.4286437650146048,
                1.0888776007262753,
                -3.105332829862235
            ]
        },
        {
            "positions": [
                -2.814255516351222,
                -0.7805959690601224,
                1.1562951457040964,
                -0.3624689642213804,
                0.9577744719039821,
                -3.1095886428999506
            ]
        },
        {
            "positions": [
                -2.7886328661054494,
                -0.748351668999725,
                1.0568783436924922,
                -0.296294163428156,
                0.8266713430816891,
                -3.1138444559376666
            ]
        },
        {
            "positions": [
                -2.7630102158596768,
                -0.7161073689393276,
                0.957461541680888,
                -0.2301193626349315,
                0.695568214259396,
                -3.118100268975382
            ]
        },
        {
            "positions": [
                -2.737387565613904,
                -0.6838630688789302,
                0.8580447396692841,
                -0.16394456184170714,
                0.5644650854371027,
                -3.122356082013098
            ]
        },
        {
            "positions": [
                -2.7117649153681316,
                -0.6516187688185329,
                0.75862793765768,
                -0.09776976104848266,
                0.4333619566148097,
                -3.1266118950508135
            ]
        }
    ]
}