{
    "goal": {
        "global_pose": {
            "orientation": {
                "w": 0.7031023480610252,
                "x": -0.7110244013736278,
                "y": 0.0077485991402295624,
                "z": 0.005598929693374583
            },
            "position": {
                "x": -0.8841497679147869,
                "y": 0.44412534475326537,
                "z": 0.3711530566215515
            }
        },
        "name": "move_to_auspresseinheit_D"
    },
    "id": "BKPIECE_move_to_auspresseinheit_D_119",
    "joint_names": [
        "shoulder_pan_joint",
        "shoulder_lift_joint",
        "elbow_joint",
        "wrist_1_joint",
        "wrist_2_joint",
        "wrist_3_joint"
    ],
    "metrics": {
        "cart_traj_len": 0.3437106591648865,
        "distance_elbow_joint": 0.6594280171987232,
        "distance_shoulder_lift_joint": 0.13277040248391891,
        "distance_shoulder_pan_joint": 0.1328813934540351,
        "distance_wrist_1_joint": 0.6002537900142948,
        "distance_wrist_2_joint": 1.4393183439897337,
        "distance_wrist_3_joint": 0.054409388139733394,
        "smoothness": 0.0,
        "time": 0.27048758100000003,
        "traj_len": 1.737544628284534,
        "weighted_distance": 2.273203080581217
    },
    "planner": "BKPIECE",
    "start": {
        "state": {
            "elbow_joint": -1.8275523626775212,
            "shoulder_lift_joint": -2.126789852344167,
            "shoulder_pan_joint": -0.03513704404078235,
            "wrist_1_joint": -2.347782403156801,
            "wrist_2_joint": -1.6058999987535132,
            "wrist_3_joint": -3.0880379163319196
        }
    },
    "waypoints": [
        {
            "positions": [
                -0.03513704404078235,
                -2.126789852344167,
                -1.8275523626775212,
                -2.347782403156801,
                -1.6058999987535132,
                -3.0880379163319196
            ]
        },
        {
            "positions": [
                -0.05174721822253674,
                -2.1433861526546565,
                -1.7451238605276809,
                -2.422814126908588,
                -1.4259852057547966,
                -3.081236742814453
            ]
        },
        {
            "positions": [
                -0.06835739240429112,
                -2.1599824529651466,
                -1.6626953583778403,
                -2.4978458506603745,
                -1.2460704127560798,
                -3.0744355692969862
            ]
        },
        {
            "positions": [
                -0.08496756658604551,
                -2.1765787532756367,
                -1.580266856228,
                -2.5728775744121615,
                -1.066155619757363,
                -3.0676343957795194
            ]
        },
        {
            "positions": [
                -0.1015777407677999,
                -2.1931750535861263,
                -1.4978383540781595,
                -2.647909298163948,
                -0.8862408267586463,
                -3.060833222262053
            ]
        },
        {
            "positions": [
                -0.1181879149495543,
                -2.209771353896616,
                -1.4154098519283191,
                -2.722941021915735,
                -0.7063260337599296,
                -3.0540320487445864
            ]
        },
        {
            "positions": [
                -0.13479808913130867,
                -2.226367654207106,
                -1.3329813497784788,
                -2.797972745667522,
                -0.5264112407612129,
                -3.0472308752271196
            ]
        },
        {
            "positions": [
                -0.15140826331306306,
                -2.242963954517596,
                -1.2505528476286383,
                -2.8730044694193086,
                -0.3464964477624961,
                -3.0404297017096527
            ]
        },
        {
            "positions": [
                -0.16801843749481746,
                -2.2595602548280858,
                -1.168124345478798,
                -2.9480361931710957,
                -0.16658165476377942,
                -3.033628528192186
            ]
        }
    ]
}