{
    "goal": {
        "global_pose": {
            "orientation": {
                "w": 0.7047431468963623,
                "x": -0.7094548344612122,
                "y": 0.0024358443915843964,
                "z": -0.0022348060738295317
            },
            "position": {
                "x": 0.6094750761985779,
                "y": 0.3671506643295288,
                "z": 0.19426114857196808
            }
        },
        "name": "move_to_magneteinheit_A"
    },
    "id": "BKPIECE_move_to_magneteinheit_A_131",
    "joint_names": [
        "shoulder_pan_joint",
        "shoulder_lift_joint",
        "elbow_joint",
        "wrist_1_joint",
        "wrist_2_joint",
        "wrist_3_joint"
    ],
    "metrics": {
        "cart_traj_len": 3.3180473919391162,
        "distance_elbow_joint": 3.911216508528712,
        "distance_shoulder_lift_joint": 0.46776718865376854,
        "distance_shoulder_pan_joint": 3.0613451802989498,
        "distance_wrist_1_joint": 3.470877522128367,
        "distance_wrist_2_joint": 1.659523310359249,
        "distance_wrist_3_joint": 0.434365146550192,
        "smoothness": 0.10105261928973266,
        "time": 0.221686084,
        "traj_len": 3.6062577357309387,
        "weighted_distance": 4.359383669982173
    },
    "planner": "BKPIECE",
    "start": {
        "state": {
            "elbow_joint": -1.9196185241190666,
            "shoulder_lift_joint": -1.2443396400964142,
            "shoulder_pan_joint": 2.6996025414629847,
            "wrist_1_joint": -1.5485510000780065,
            "wrist_2_joint": -1.5709468930060704,
            "wrist_3_joint": 0.4420197071253992
        }
    },
    "waypoints": [
        {
            "positions": [
                2.6996025414629847,
                -1.2443396400964142,
                -1.9196185241190666,
                -1.5485510000780065,
                -1.5709468930060704,
                0.4420197071253992
            ]
        },
        {
            "positions": [
                2.5951741265381205,
                -1.235978341175967,
                -1.8170965649751007,
                -1.4477548327456369,
                -1.5133580623208687,
                0.4328608358132673
            ]
        },
        {
            "positions": [
                2.4907457116132563,
                -1.22761704225552,
                -1.7145746058311349,
                -1.3469586654132673,
                -1.455769231635667,
                0.4237019645011354
            ]
        },
        {
            "positions": [
                2.386317296688392,
                -1.2192557433350728,
                -1.612052646687169,
                -1.2461624980808976,
                -1.3981804009504653,
                0.4145430931890035
            ]
        },
        {
            "positions": [
                2.2818888817635283,
                -1.2108944444146257,
                -1.509530687543203,
                -1.1453663307485282,
                -1.3405915702652638,
                0.40538422187687156
            ]
        },
        {
            "positions": [
                2.177460466838664,
                -1.2025331454941788,
                -1.4070087283992372,
                -1.0445701634161586,
                -1.283002739580062,
                0.3962253505647397
            ]
        },
        {
            "positions": [
                2.0730320519138,
                -1.1941718465737317,
                -1.3044867692552713,
                -0.9437739960837889,
                -1.2254139088948603,
                0.3870664792526078
            ]
        },
        {
            "positions": [
                1.9686036369889357,
                -1.1858105476532845,
                -1.2019648101113054,
                -0.8429778287514192,
                -1.1678250782096586,
                0.3779076079404759
            ]
        },
        {
            "positions": [
                1.8641752220640715,
                -1.1774492487328374,
                -1.0994428509673397,
                -0.7421816614190497,
                -1.110236247524457,
                0.36874873662834395
            ]
        },
        {
            "positions": [
                1.7597468071392075,
                -1.1690879498123903,
                -0.9969208918233738,
                -0.6413854940866801,
                -1.0526474168392552,
                0.35958986531621207
            ]
        },
        {
            "positions": [
                1.6553183922143433,
                -1.1607266508919432,
                -0.894398932679408,
                -0.5405893267543105,
                -0.9950585861540536,
                0.3504309940040802
            ]
        },
        {
            "positions": [
                1.5508899772894793,
                -1.152365351971496,
                -0.7918769735354421,
                -0.43979315942194086,
                -0.9374697554688519,
                0.3412721226919483
            ]
        },
        {
            "positions": [
                1.446461562364615,
                -1.144004053051049,
                -0.6893550143914762,
                -0.33899699208957124,
                -0.8798809247836502,
                0.3321132513798164
            ]
        },
        {
            "positions": [
                1.3420331474397509,
                -1.1356427541306018,
                -0.5868330552475103,
                -0.2382008247572016,
                -0.8222920940984485,
                0.3229543800676845
            ]
        },
        {
            "positions": [
                1.237604732514887,
                -1.1272814552101549,
                -0.4843110961035444,
                -0.137404657424832,
                -0.7647032634132469,
                0.3137955087555526
            ]
        },
        {
            "positions": [
                1.1331763175900225,
                -1.1189201562897078,
                -0.3817891369595785,
                -0.036608490092462365,
                -0.7071144327280451,
                0.3046366374434207
            ]
        },
        {
            "positions": [
                1.0287479026651585,
                -1.1105588573692606,
                -0.27926717781561283,
                0.06418767723990704,
                -0.6495256020428435,
                0.2954777661312888
            ]
        },
        {
            "positions": [
                0.9243194877402943,
                -1.1021975584488135,
                -0.17674521867164672,
                0.16498384457227688,
                -0.5919367713576417,
                0.2863188948191569
            ]
        },
        {
            "positions": [
                0.8198910728154303,
                -1.0938362595283664,
                -0.07422325952768105,
                0.2657800119046463,
                -0.5343479406724401,
                0.277160023507025
            ]
        },
        {
            "positions": [
                0.7154626578905658,
                -1.0854749606079193,
                0.02829869961628506,
                0.36657617923701613,
                -0.47675910998723836,
                0.26800115219489307
            ]
        },
        {
            "positions": [
                0.6110342429657019,
                -1.0771136616874721,
                0.13082065876025073,
                0.46737234656938553,
                -0.4191702793020369,
                0.2588422808827612
            ]
        },
        {
            "positions": [
                0.5066058280408376,
                -1.068752362767025,
                0.23334261790421662,
                0.5681685139017552,
                -0.36158144861683494,
                0.2496834095706293
            ]
        },
        {
            "positions": [
                0.4021774131159739,
                -1.0603910638465779,
                0.3358645770481825,
                0.6689646812341248,
                -0.30399261793163346,
                0.2405245382584974
            ]
        },
        {
            "positions": [
                0.2977489981911092,
                -1.052029764926131,
                0.4383865361921484,
                0.7697608485664944,
                -0.24640378724643153,
                0.23136566694636548
            ]
        },
        {
            "positions": [
                0.19332058326624546,
                -1.0436684660056839,
                0.5409084953361143,
                0.870557015898864,
                -0.18881495656123004,
                0.22220679563423362
            ]
        },
        {
            "positions": [
                0.08889216834138125,
                -1.0353071670852367,
                0.6434304544800802,
                0.9713531832312337,
                -0.13122612587602833,
                0.2130479243221017
            ]
        },
        {
            "positions": [
                -0.01553624658348296,
                -1.0269458681647896,
                0.7459524136240461,
                1.0721493505636033,
                -0.07363729519082662,
                0.20388905300996982
            ]
        },
        {
            "positions": [
                -0.11996466150834735,
                -1.0185845692443425,
                0.8484743727680119,
                1.1729455178959727,
                -0.016048464505625026,
                0.1947301816978379
            ]
        },
        {
            "positions": [
                -0.09133823459455338,
                -0.9853880974581741,
                1.0089193055651702,
                1.2780765098294917,
                -0.029210739959130018,
                0.16851903451746933
            ]
        },
        {
            "positions": [
                -0.06271180768075942,
                -0.9521916256720057,
                1.1693642383623284,
                1.3832075017630108,
                -0.04237301541263501,
                0.14230788733710076
            ]
        },
        {
            "positions": [
                -0.03408538076696545,
                -0.9189951538858373,
                1.3298091711594866,
                1.4883384936965298,
                -0.05553529086614001,
                0.11609674015673216
            ]
        },
        {
            "positions": [
                -0.00545895385317148,
                -0.8857986820996689,
                1.4902541039566448,
                1.5934694856300489,
                -0.06869756631964499,
                0.08988559297636359
            ]
        },
        {
            "positions": [
                0.023167473060622487,
                -0.8526022103135005,
                1.6506990367538033,
                1.698600477563568,
                -0.08185984177315,
                0.06367444579599499
            ]
        },
        {
            "positions": [
                0.05179389997441646,
                -0.8194057385273321,
                1.8111439695509615,
                1.803731469497087,
                -0.09502211722665499,
                0.0374632986156264
            ]
        },
        {
            "positions": [
                0.08680360789684285,
                -0.7979890949849888,
                1.9013709769803033,
                1.863028995773723,
                -0.10784773179554179,
                0.022558929595416805
            ]
        },
        {
            "positions": [
                0.12181331581926924,
                -0.7765724514426456,
                1.9915979844096454,
                1.9223265220503591,
                -0.12067334636442859,
                0.007654560575207206
            ]
        }
    ]
}