{
    "goal": {
        "global_pose": {
            "orientation": {
                "w": 0.5084816217422485,
                "x": -0.49083608388900757,
                "y": 0.5182115435600281,
                "z": -0.4816462993621826
            },
            "position": {
                "x": 0.5540239810943604,
                "y": 0.030875300988554955,
                "z": 0.16403168439865112
            }
        },
        "name": "move_to_storage_A"
    },
    "id": "BKPIECE_move_to_storage_A_34",
    "joint_names": [
        "shoulder_pan_joint",
        "shoulder_lift_joint",
        "elbow_joint",
        "wrist_1_joint",
        "wrist_2_joint",
        "wrist_3_joint"
    ],
    "metrics": {
        "cart_traj_len": 0.3529529135979296,
        "distance_elbow_joint": 0.4496048701166291,
        "distance_shoulder_lift_joint": 0.23294924556478058,
        "distance_shoulder_pan_joint": 0.459882818411119,
        "distance_wrist_1_joint": 0.2452838007427619,
        "distance_wrist_2_joint": 1.1047944287812312,
        "distance_wrist_3_joint": 0.09388904827652311,
        "smoothness": 0.0,
        "time": 0.15237262699999998,
        "traj_len": 1.6082301489193158,
        "weighted_distance": 2.030827550032273
    },
    "planner": "BKPIECE",
    "start": {
        "state": {
            "elbow_joint": 1.971548259319323,
            "shoulder_lift_joint": -1.1394851275133948,
            "shoulder_pan_joint": 0.1228115487234821,
            "wrist_1_joint": -0.7804723859257726,
            "wrist_2_joint": 0.12958671773740124,
            "wrist_3_joint": -3.192489227718131
        }
    },
    "waypoints": [
        {
            "positions": [
                0.1228115487234821,
                -1.1394851275133948,
                1.971548259319323,
                -0.7804723859257726,
                0.12958671773740124,
                -3.192489227718131
            ]
        },
        {
            "positions": [
                0.05711400323617939,
                -1.1727635911655063,
                2.0357775264788414,
                -0.8155129288890243,
                0.2874144932775771,
                -3.179076506535771
            ]
        },
        {
            "positions": [
                -0.008583542251123316,
                -1.2060420548176178,
                2.10000679363836,
                -0.850553471852276,
                0.445242268817753,
                -3.16566378535341
            ]
        },
        {
            "positions": [
                -0.07428108773842604,
                -1.2393205184697293,
                2.164236060797878,
                -0.8855940148155277,
                0.6030700443579289,
                -3.15225106417105
            ]
        },
        {
            "positions": [
                -0.13997863322572873,
                -1.2725989821218409,
                2.2284653279573967,
                -0.9206345577787794,
                0.7608978198981048,
                -3.1388383429886892
            ]
        },
        {
            "positions": [
                -0.20567617871303145,
                -1.3058774457739524,
                2.2926945951169153,
                -0.9556751007420311,
                0.9187255954382807,
                -3.125425621806329
            ]
        },
        {
            "positions": [
                -0.2713737242003342,
                -1.3391559094260639,
                2.3569238622764335,
                -0.9907156437052829,
                1.0765533709784565,
                -3.1120129006239683
            ]
        },
        {
            "positions": [
                -0.3370712696876369,
                -1.3724343730781754,
                2.421153129435952,
                -1.0257561866685345,
                1.2343811465186325,
                -3.098600179441608
            ]
        }
    ]
}{
    "goal": {
        "global_pose": {
            "orientation": {
                "w": 0.5084816217422485,
                "x": -0.49083608388900757,
                "y": 0.5182115435600281,
                "z": -0.4816462993621826
            },
            "position": {
                "x": 0.5540239810943604,
                "y": 0.030875300988554955,
                "z": 0.16403168439865112
            }
        },
        "name": "move_to_storage_A"
    },
    "id": "BKPIECE_move_to_storage_A_34",
    "joint_names": [
        "shoulder_pan_joint",
        "shoulder_lift_joint",
        "elbow_joint",
        "wrist_1_joint",
        "wrist_2_joint",
        "wrist_3_joint"
    ],
    "metrics": {
        "cart_traj_len": 0.3533476846370449,
        "distance_elbow_joint": 0.4510476524224547,
        "distance_shoulder_lift_joint": 0.23670042011001202,
        "distance_shoulder_pan_joint": 0.46410923363448015,
        "distance_wrist_1_joint": 0.2428960937537974,
        "distance_wrist_2_joint": 1.0917734227214806,
        "distance_wrist_3_joint": 0.08802178802575478,
        "smoothness": 0.0,
        "time": 0.154926638,
        "traj_len": 1.6045399997095677,
        "weighted_distance": 2.021203033639809
    },
    "planner": "BKPIECE",
    "start": {
        "state": {
            "elbow_joint": 1.97154746011099,
            "shoulder_lift_joint": -1.13948474672311,
            "shoulder_pan_joint": 0.12281154466712228,
            "wrist_1_joint": -0.7804688027058302,
            "wrist_2_joint": 0.12958655903071145,
            "wrist_3_joint": 3.0906928834467795
        }
    },
    "waypoints": [
        {
            "positions": [
                0.12281154466712228,
                -1.13948474672311,
                1.97154746011099,
                -0.7804688027058302,
                0.12958655903071145,
                3.0906928834467795
            ]
        },
        {
            "positions": [
                0.05651022557648226,
                -1.1732990924531117,
                2.0359828390284833,
                -0.8151682446706584,
                0.2855541908480658,
                3.103267424593316
            ]
        },
        {
            "positions": [
                -0.009791093514157759,
                -1.2071134381831135,
                2.100418217945977,
                -0.8498676866354866,
                0.44152182266542017,
                3.115841965739852
            ]
        },
        {
            "positions": [
                -0.07609241260479778,
                -1.2409277839131152,
                2.1648535968634706,
                -0.8845671286003147,
                0.5974894544827746,
                3.1284165068863885
            ]
        },
        {
            "positions": [
                -0.1423937316954378,
                -1.2747421296431167,
                2.229288975780964,
                -0.9192665705651429,
                0.753457086300129,
                3.1409910480329253
            ]
        },
        {
            "positions": [
                -0.2086950507860778,
                -1.3085564753731185,
                2.2937243546984574,
                -0.9539660125299712,
                0.9094247181174834,
                3.1535655891794616
            ]
        },
        {
            "positions": [
                -0.27499636987671783,
                -1.3423708211031202,
                2.358159733615951,
                -0.9886654544947994,
                1.0653923499348377,
                3.166140130325998
            ]
        },
        {
            "positions": [
                -0.34129768896735785,
                -1.376185166833122,
                2.4225951125334446,
                -1.0233648964596276,
                1.221359981752192,
                3.1787146714725343
            ]
        }
    ]
}{
    "goal": {
        "global_pose": {
            "orientation": {
                "w": 0.5084816217422485,
                "x": -0.49083608388900757,
                "y": 0.5182115435600281,
                "z": -0.4816462993621826
            },
            "position": {
                "x": 0.5540239810943604,
                "y": 0.030875300988554955,
                "z": 0.16403168439865112
            }
        },
        "name": "move_to_storage_A"
    },
    "id": "BKPIECE_move_to_storage_A_34",
    "joint_names": [
        "shoulder_pan_joint",
        "shoulder_lift_joint",
        "elbow_joint",
        "wrist_1_joint",
        "wrist_2_joint",
        "wrist_3_joint"
    ],
    "metrics": {
        "cart_traj_len": 0.3528743055123844,
        "distance_elbow_joint": 0.44955384971029577,
        "distance_shoulder_lift_joint": 0.23444016273472523,
        "distance_shoulder_pan_joint": 0.45788837836864427,
        "distance_wrist_1_joint": 0.23987679541513485,
        "distance_wrist_2_joint": 1.113821237404983,
        "distance_wrist_3_joint": 0.0933460754747375,
        "smoothness": 4.440892098500626e-16,
        "time": 0.28179234400000003,
        "traj_len": 1.6090141388777541,
        "weighted_distance": 2.032072017148534
    },
    "planner": "BKPIECE",
    "start": {
        "state": {
            "elbow_joint": 1.9715472970024885,
            "shoulder_lift_joint": -1.1394870060712896,
            "shoulder_pan_joint": 0.12281152778156021,
            "wrist_1_joint": -0.780463741449964,
            "wrist_2_joint": 0.12958659822042276,
            "wrist_3_joint": 3.090690232415272
        }
    },
    "waypoints": [
        {
            "positions": [
                0.12281152778156021,
                -1.1394870060712896,
                1.9715472970024885,
                -0.780463741449964,
                0.12958659822042276,
                3.090690232415272
            ]
        },
        {
            "positions": [
                0.05739890230032532,
                -1.172978457890536,
                2.0357692755325307,
                -0.8147318550806976,
                0.28870391784970606,
                3.10402538605452
            ]
        },
        {
            "positions": [
                -0.008013723180909565,
                -1.2064699097097826,
                2.099991254062573,
                -0.8489999687114311,
                0.4478212374789893,
                3.1173605396937685
            ]
        },
        {
            "positions": [
                -0.07342634866214445,
                -1.239961361529029,
                2.164213232592615,
                -0.8832680823421646,
                0.6069385571082726,
                3.1306956933330166
            ]
        },
        {
            "positions": [
                -0.13883897414337934,
                -1.2734528133482754,
                2.2284352111226573,
                -0.9175361959728981,
                0.7660558767375558,
                3.1440308469722646
            ]
        },
        {
            "positions": [
                -0.20425159962461428,
                -1.3069442651675218,
                2.2926571896527,
                -0.9518043096036317,
                0.9251731963668391,
                3.1573660006115127
            ]
        },
        {
            "positions": [
                -0.2696642251058491,
                -1.3404357169867684,
                2.356879168182742,
                -0.9860724232343653,
                1.0842905159961225,
                3.1707011542507613
            ]
        },
        {
            "positions": [
                -0.33507685058708403,
                -1.3739271688060148,
                2.4211011467127843,
                -1.0203405368650988,
                1.2434078356254057,
                3.1840363078900094
            ]
        }
    ]
}