{
    "goal": {
        "global_pose": {
            "orientation": {
                "w": -0.4816463035849501,
                "x": 0.5182115481033762,
                "y": 0.4908360881923453,
                "z": -0.5084816262002911
            },
            "position": {
                "x": -0.8240239810943604,
                "y": 0.19912469901144506,
                "z": 0.16403168439865112
            }
        },
        "name": "move_to_storage_D"
    },
    "id": "BKPIECE_move_to_storage_D_99",
    "joint_names": [
        "shoulder_pan_joint",
        "shoulder_lift_joint",
        "elbow_joint",
        "wrist_1_joint",
        "wrist_2_joint",
        "wrist_3_joint"
    ],
    "metrics": {
        "cart_traj_len": 3.9097399158123385,
        "distance_elbow_joint": 4.2491392693429555,
        "distance_shoulder_lift_joint": 1.2655161508147499,
        "distance_shoulder_pan_joint": 2.8125971765711206,
        "distance_wrist_1_joint": 2.2908860372575273,
        "distance_wrist_2_joint": 0.9855121698567262,
        "distance_wrist_3_joint": 3.1734296761330354,
        "smoothness": 0.13821580278465367,
        "time": 0.30680148,
        "traj_len": 3.8440968354056997,
        "weighted_distance": 4.939669831006566
    },
    "planner": "BKPIECE",
    "start": {
        "state": {
            "elbow_joint": -2.384821988534728,
            "shoulder_lift_joint": -2.2788054721415256,
            "shoulder_pan_joint": -0.1854694642142757,
            "wrist_1_joint": 1.4845938289331202,
            "wrist_2_joint": 0.17898776772866878,
            "wrist_3_joint": 0.037105688729662994
        }
    },
    "waypoints": [
        {
            "positions": [
                -0.1854694642142757,
                -2.2788054721415256,
                -2.384821988534728,
                1.4845938289331202,
                0.17898776772866878,
                0.037105688729662994
            ]
        },
        {
            "positions": [
                -0.004088158634737354,
                -2.1935823034424864,
                -2.403177532820841,
                1.482635843397396,
                0.12254208136145733,
                0.020675027776740268
            ]
        },
        {
            "positions": [
                0.06732353816578987,
                -2.162223884503165,
                -2.2915786218014182,
                1.413455410772807,
                0.14803654638921696,
                0.107786353110343
            ]
        },
        {
            "positions": [
                0.1387352349663171,
                -2.130865465563843,
                -2.1799797107819954,
                1.3442749781482177,
                0.17353101141697658,
                0.19489767844394573
            ]
        },
        {
            "positions": [
                0.2101469317668443,
                -2.0995070466245216,
                -2.0683807997625725,
                1.2750945455236287,
                0.19902547644473623,
                0.28200900377754845
            ]
        },
        {
            "positions": [
                0.28155862856737157,
                -2.0681486276852,
                -1.9567818887431496,
                1.2059141128990394,
                0.22451994147249582,
                0.3691203291111512
            ]
        },
        {
            "positions": [
                0.35297032536789874,
                -2.0367902087458787,
                -1.8451829777237267,
                1.1367336802744503,
                0.25001440650025547,
                0.4562316544447539
            ]
        },
        {
            "positions": [
                0.4243820221684259,
                -2.005431789806557,
                -1.7335840667043039,
                1.067553247649861,
                0.27550887152801506,
                0.5433429797783565
            ]
        },
        {
            "positions": [
                0.4957937189689532,
                -1.9740733708672353,
                -1.621985155684881,
                0.998372815025272,
                0.3010033365557747,
                0.6304543051119593
            ]
        },
        {
            "positions": [
                0.5672054157694805,
                -1.9427149519279139,
                -1.5103862446654581,
                0.9291923824006828,
                0.32649780158353436,
                0.7175656304455621
            ]
        },
        {
            "positions": [
                0.6386171125700075,
                -1.9113565329885922,
                -1.3987873336460352,
                0.8600119497760936,
                0.35199226661129396,
                0.8046769557791646
            ]
        },
        {
            "positions": [
                0.7100288093705348,
                -1.8799981140492705,
                -1.2871884226266121,
                0.7908315171515045,
                0.3774867316390536,
                0.8917882811127675
            ]
        },
        {
            "positions": [
                0.781440506171062,
                -1.848639695109949,
                -1.1755895116071895,
                0.7216510845269153,
                0.4029811966668132,
                0.9788996064463702
            ]
        },
        {
            "positions": [
                0.8528522029715893,
                -1.8172812761706276,
                -1.0639906005877664,
                0.6524706519023261,
                0.42847566169457285,
                1.0660109317799729
            ]
        },
        {
            "positions": [
                0.9242638997721164,
                -1.785922857231306,
                -0.9523916895683435,
                0.583290219277737,
                0.45397012672233245,
                1.1531222571135755
            ]
        },
        {
            "positions": [
                0.9956755965726437,
                -1.7545644382919843,
                -0.8407927785489206,
                0.5141097866531478,
                0.4794645917500921,
                1.2402335824471784
            ]
        },
        {
            "positions": [
                1.0670872933731708,
                -1.7232060193526628,
                -0.7291938675294978,
                0.4449293540285586,
                0.5049590567778517,
                1.327344907780781
            ]
        },
        {
            "positions": [
                1.1384989901736982,
                -1.6918476004133411,
                -0.6175949565100749,
                0.37574892140396954,
                0.5304535218056113,
                1.414456233114384
            ]
        },
        {
            "positions": [
                1.209910686974225,
                -1.6604891814740197,
                -0.505996045490652,
                0.30656848877938025,
                0.555947986833371,
                1.5015675584479864
            ]
        },
        {
            "positions": [
                1.2813223837747523,
                -1.629130762534698,
                -0.39439713447122937,
                0.2373880561547912,
                0.5814424518611305,
                1.588678883781589
            ]
        },
        {
            "positions": [
                1.3527340805752797,
                -1.5977723435953766,
                -0.28279822345180605,
                0.1682076235302019,
                0.6069369168888903,
                1.6757902091151922
            ]
        },
        {
            "positions": [
                1.4241457773758068,
                -1.566413924656055,
                -0.17119931243238318,
                0.09902719090561285,
                0.6324313819166498,
                1.7629015344487948
            ]
        },
        {
            "positions": [
                1.495557474176334,
                -1.5350555057167332,
                -0.0596004014129603,
                0.02984675828102379,
                0.6579258469444094,
                1.8500128597823975
            ]
        },
        {
            "positions": [
                1.5669691709768612,
                -1.5036970867774118,
                0.05199850960646213,
                -0.039333674343565495,
                0.6834203119721691,
                1.9371241851160002
            ]
        },
        {
            "positions": [
                1.6383808677773886,
                -1.47233866783809,
                0.16359742062588545,
                -0.10851410696815478,
                0.7089147769999287,
                2.024235510449603
            ]
        },
        {
            "positions": [
                1.7097925645779157,
                -1.4409802488987686,
                0.2751963316453083,
                -0.17769453959274384,
                0.7344092420276884,
                2.1113468357832055
            ]
        },
        {
            "positions": [
                1.781204261378443,
                -1.409621829959447,
                0.3867952426647312,
                -0.2468749722173329,
                0.759903707055448,
                2.1984581611168084
            ]
        },
        {
            "positions": [
                1.85261595817897,
                -1.3782634110201255,
                0.4983941536841541,
                -0.31605540484192196,
                0.7853981720832075,
                2.285569486450411
            ]
        },
        {
            "positions": [
                1.9240276549794975,
                -1.3469049920808038,
                0.609993064703577,
                -0.38523583746651147,
                0.8108926371109673,
                2.372680811784014
            ]
        },
        {
            "positions": [
                1.9954393517800246,
                -1.3155465731414822,
                0.7215919757229998,
                -0.4544162700911005,
                0.8363871021387268,
                2.4597921371176166
            ]
        },
        {
            "positions": [
                2.0668510485805522,
                -1.2841881542021607,
                0.8331908867424227,
                -0.5235967027156896,
                0.8618815671664866,
                2.546903462451219
            ]
        },
        {
            "positions": [
                2.138262745381079,
                -1.2528297352628393,
                0.9447897977618456,
                -0.5927771353402789,
                0.8873760321942461,
                2.634014787784822
            ]
        },
        {
            "positions": [
                2.2096744421816066,
                -1.2214713163235176,
                1.0563887087812684,
                -0.6619575679648682,
                0.9128704972220059,
                2.721126113118425
            ]
        },
        {
            "positions": [
                2.281086138982134,
                -1.190112897384196,
                1.1679876198006913,
                -0.731138000589457,
                0.9383649622497654,
                2.8082374384520277
            ]
        },
        {
            "positions": [
                2.352497835782661,
                -1.1587544784448744,
                1.2795865308201144,
                -0.8003184332140465,
                0.963859427277525,
                2.89534876378563
            ]
        },
        {
            "positions": [
                2.4211553049262067,
                -1.1223881891653498,
                1.416591446174086,
                -0.7988249894364563,
                0.9857967116708868,
                2.965930083578436
            ]
        },
        {
            "positions": [
                2.489812774069753,
                -1.086021899885825,
                1.553596361528058,
                -0.7973315456588661,
                1.0077339960642486,
                3.0365114033712417
            ]
        },
        {
            "positions": [
                2.558470243213299,
                -1.0496556106063004,
                1.6906012768820295,
                -0.7958381018812759,
                1.0296712804576102,
                3.1070927231640475
            ]
        },
        {
            "positions": [
                2.627127712356845,
                -1.0132893213267757,
                1.8276061922360012,
                -0.7943446581036857,
                1.051608564850972,
                3.1776740429568533
            ]
        }
    ]
}