{
    "goal": {
        "global_pose": {
            "orientation": {
                "w": -0.00223480608172531,
                "x": 0.0024358444001904467,
                "y": 0.7094548369677653,
                "z": -0.704743149386269
            },
            "position": {
                "x": -0.37947507619857795,
                "y": -0.6371506643295288,
                "z": 0.19426114857196808
            }
        },
        "name": "move_to_magneteinheit_C"
    },
    "id": "BKPIECE_move_to_magneteinheit_C_60",
    "joint_names": [
        "shoulder_pan_joint",
        "shoulder_lift_joint",
        "elbow_joint",
        "wrist_1_joint",
        "wrist_2_joint",
        "wrist_3_joint"
    ],
    "metrics": {
        "cart_traj_len": 1.8953554602192133,
        "distance_elbow_joint": 0.06321751165465228,
        "distance_shoulder_lift_joint": 2.493827776688774,
        "distance_shoulder_pan_joint": 2.767336117260286,
        "distance_wrist_1_joint": 2.939028890214757,
        "distance_wrist_2_joint": 4.370359443846183,
        "distance_wrist_3_joint": 2.3073244009805256,
        "smoothness": 0.9770187817792209,
        "time": 0.235684444,
        "traj_len": 3.8653711517324147,
        "weighted_distance": 5.1831584267381965
    },
    "planner": "BKPIECE",
    "start": {
        "state": {
            "elbow_joint": 1.9565354010623817,
            "shoulder_lift_joint": -1.4165861575791021,
            "shoulder_pan_joint": -1.6717766225146293,
            "wrist_1_joint": -0.5286633292919765,
            "wrist_2_joint": 1.472756589071564,
            "wrist_3_joint": -3.1238370188695823
        }
    },
    "waypoints": [
        {
            "positions": [
                -1.6717766225146293,
                -1.4165861575791021,
                1.9565354010623817,
                -0.5286633292919765,
                1.472756589071564,
                -3.1238370188695823
            ]
        },
        {
            "positions": [
                -1.5318499449314338,
                -1.4602273726226875,
                1.9540790215495847,
                -0.4588100405314731,
                1.3911010467775304,
                -3.1214462321406007
            ]
        },
        {
            "positions": [
                -1.391923267348238,
                -1.503868587666273,
                1.9516226420367877,
                -0.3889567517709697,
                1.309445504483497,
                -3.119055445411619
            ]
        },
        {
            "positions": [
                -1.4811909510640187,
                -1.5555019152121485,
                1.9532231723357776,
                -0.33022163986451036,
                1.188230323965034,
                -3.0619861665366703
            ]
        },
        {
            "positions": [
                -1.5704586347797993,
                -1.6071352427580239,
                1.9548237026347675,
                -0.27148652795805106,
                1.0670151434465711,
                -3.004916887661721
            ]
        },
        {
            "positions": [
                -1.65972631849558,
                -1.6587685703038995,
                1.9564242329337573,
                -0.21275141605159176,
                0.9457999629281084,
                -2.9478476087867724
            ]
        },
        {
            "positions": [
                -1.7489940022113606,
                -1.7104018978497748,
                1.9580247632327472,
                -0.1540163041451324,
                0.8245847824096455,
                -2.8907783299118237
            ]
        },
        {
            "positions": [
                -1.8382616859271415,
                -1.7620352253956504,
                1.959625293531737,
                -0.0952811922386731,
                0.7033696018911826,
                -2.8337090510368745
            ]
        },
        {
            "positions": [
                -1.9275293696429219,
                -1.8136685529415257,
                1.961225823830727,
                -0.03654608033221379,
                0.5821544213727198,
                -2.776639772161926
            ]
        },
        {
            "positions": [
                -2.0167970533587027,
                -1.8653018804874013,
                1.9628263541297168,
                0.02218903157424551,
                0.46093924085425686,
                -2.719570493286977
            ]
        },
        {
            "positions": [
                -2.106064737074483,
                -1.9169352080332769,
                1.9644268844287067,
                0.08092414348070492,
                0.33972406033579394,
                -2.662501214412028
            ]
        },
        {
            "positions": [
                -2.195332420790264,
                -1.9685685355791522,
                1.9660274147276966,
                0.13965925538716423,
                0.21850887981733114,
                -2.605431935537079
            ]
        },
        {
            "positions": [
                -2.284600104506045,
                -2.0202018631250276,
                1.9676279450266865,
                0.19839436729362353,
                0.09729369929886822,
                -2.54836265666213
            ]
        },
        {
            "positions": [
                -2.3738677882218253,
                -2.071835190670903,
                1.9692284753256761,
                0.25712947920008294,
                -0.023921481219594698,
                -2.4912933777871813
            ]
        },
        {
            "positions": [
                -2.4631354719376057,
                -2.1234685182167787,
                1.970829005624666,
                0.31586459110654214,
                -0.1451366617380574,
                -2.4342240989122326
            ]
        },
        {
            "positions": [
                -2.5524031556533866,
                -2.1751018457626543,
                1.9724295359236559,
                0.37459970301300155,
                -0.26635184225652053,
                -2.3771548200372834
            ]
        },
        {
            "positions": [
                -2.6416708393691675,
                -2.2267351733085294,
                1.9740300662226458,
                0.43333481491946074,
                -0.3875670227749832,
                -2.3200855411623347
            ]
        },
        {
            "positions": [
                -2.730938523084948,
                -2.278368500854405,
                1.9756305965216356,
                0.49206992682592016,
                -0.5087822032934461,
                -2.263016262287386
            ]
        },
        {
            "positions": [
                -2.8202062068007288,
                -2.3300018284002806,
                1.9772311268206255,
                0.5508050387323795,
                -0.6299973838119091,
                -2.205946983412437
            ]
        },
        {
            "positions": [
                -2.9094738905165096,
                -2.3816351559461557,
                1.9788316571196154,
                0.6095401506388387,
                -0.751212564330372,
                -2.148877704537488
            ]
        },
        {
            "positions": [
                -2.99874157423229,
                -2.4332684834920313,
                1.9804321874186053,
                0.6682752625452981,
                -0.8724277448488347,
                -2.0918084256625393
            ]
        },
        {
            "positions": [
                -3.0880092579480705,
                -2.484901811037907,
                1.9820327177175951,
                0.7270103744517573,
                -0.9936429253672974,
                -2.03473914678759
            ]
        },
        {
            "positions": [
                -3.1772769416638513,
                -2.5365351385837824,
                1.983633248016585,
                0.7857454863582167,
                -1.1148581058857605,
                -1.9776698679126414
            ]
        },
        {
            "positions": [
                -3.13597523061807,
                -2.455718738837659,
                1.985179962525365,
                0.6901795996191247,
                -1.0099907677158277,
                -2.0459732355610876
            ]
        },
        {
            "positions": [
                -3.094673519572289,
                -2.3749023390915363,
                1.9867266770341452,
                0.5946137128800327,
                -0.9051234295458949,
                -2.1142766032095337
            ]
        },
        {
            "positions": [
                -3.0533718085265074,
                -2.294085939345413,
                1.9882733915429252,
                0.4990478261409407,
                -0.800256091375962,
                -2.18257997085798
            ]
        },
        {
            "positions": [
                -3.012070097480726,
                -2.2132695395992896,
                1.9898201060517053,
                0.40348193940184873,
                -0.6953887532060292,
                -2.250883338506426
            ]
        },
        {
            "positions": [
                -2.970768386434945,
                -2.1324531398531668,
                1.9913668205604853,
                0.3079160526627567,
                -0.5905214150360963,
                -2.319186706154872
            ]
        },
        {
            "positions": [
                -2.929466675389164,
                -2.0516367401070434,
                1.9929135350692653,
                0.21235016592366462,
                -0.4856540768661636,
                -2.3874900738033182
            ]
        },
        {
            "positions": [
                -2.888164964343382,
                -1.9708203403609201,
                1.9944602495780455,
                0.11678427918457279,
                -0.3807867386962308,
                -2.4557934414517644
            ]
        },
        {
            "positions": [
                -2.846863253297601,
                -1.890003940614797,
                1.9960069640868254,
                0.021218392445480738,
                -0.27591940052629793,
                -2.524096809100211
            ]
        },
        {
            "positions": [
                -2.80556154225182,
                -1.809187540868674,
                1.9975536785956056,
                -0.07434749429361132,
                -0.17105206235636516,
                -2.592400176748657
            ]
        },
        {
            "positions": [
                -2.7642598312060387,
                -1.7283711411225506,
                1.9991003931043856,
                -0.16991338103270337,
                -0.06618472418643218,
                -2.660703544397103
            ]
        },
        {
            "positions": [
                -2.722958120160257,
                -1.6475547413764275,
                2.0006471076131658,
                -0.2654792677717954,
                0.03868261398350059,
                -2.7290069120455493
            ]
        },
        {
            "positions": [
                -2.681656409114476,
                -1.5667383416303045,
                2.0021938221219457,
                -0.3610451545108875,
                0.14354995215343336,
                -2.7973102796939955
            ]
        },
        {
            "positions": [
                -2.6403546980686947,
                -1.4859219418841814,
                2.0037405366307257,
                -0.4566110412499793,
                0.24841729032336612,
                -2.8656136473424416
            ]
        },
        {
            "positions": [
                -2.5990529870229135,
                -1.405105542138058,
                2.0052872511395057,
                -0.5521769279890711,
                0.3532846284932989,
                -2.9339170149908878
            ]
        },
        {
            "positions": [
                -2.5577512759771324,
                -1.324289142391935,
                2.006833965648286,
                -0.6477428147281632,
                0.45815196666323166,
                -3.002220382639334
            ]
        },
        {
            "positions": [
                -2.5164495649313507,
                -1.2434727426458116,
                2.008380680157066,
                -0.7433087014672553,
                0.5630193048331646,
                -3.07052375028778
            ]
        },
        {
            "positions": [
                -2.4751478538855696,
                -1.1626563428996886,
                2.009927394665846,
                -0.8388745882063473,
                0.6678866430030974,
                -3.138827117936226
            ]
        }
    ]
}