{
    "goal": {
        "global_pose": {
            "orientation": {
                "w": -0.4816463035849501,
                "x": 0.5182115481033762,
                "y": 0.4908360881923453,
                "z": -0.5084816262002911
            },
            "position": {
                "x": -0.8240239810943604,
                "y": 0.19912469901144506,
                "z": 0.16403168439865112
            }
        },
        "name": "move_to_storage_D"
    },
    "id": "BKPIECE_move_to_storage_D_98",
    "joint_names": [
        "shoulder_pan_joint",
        "shoulder_lift_joint",
        "elbow_joint",
        "wrist_1_joint",
        "wrist_2_joint",
        "wrist_3_joint"
    ],
    "metrics": {
        "cart_traj_len": 3.6398488632575683,
        "distance_elbow_joint": 4.2153505554667206,
        "distance_shoulder_lift_joint": 1.2641003660514076,
        "distance_shoulder_pan_joint": 2.8122534746099808,
        "distance_wrist_1_joint": 2.6992384897929687,
        "distance_wrist_2_joint": 2.169864963163254,
        "distance_wrist_3_joint": 3.170459747373841,
        "smoothness": 0.08513309699638728,
        "time": 0.32282041100000003,
        "traj_len": 4.041196307587417,
        "weighted_distance": 5.247979663085794
    },
    "planner": "BKPIECE",
    "start": {
        "state": {
            "elbow_joint": -2.384821988534728,
            "shoulder_lift_joint": -2.2788054721415256,
            "shoulder_pan_joint": -0.1854694642142757,
            "wrist_1_joint": 1.4845938289331202,
            "wrist_2_joint": 0.17898776772866878,
            "wrist_3_joint": 0.037105688729662994
        }
    },
    "waypoints": [
        {
            "positions": [
                -0.1854694642142757,
                -2.2788054721415256,
                -2.384821988534728,
                1.4845938289331202,
                0.17898776772866878,
                0.037105688729662994
            ]
        },
        {
            "positions": [
                -0.1580609984439723,
                -2.2593776473043157,
                -2.365495241538289,
                1.3507388316345914,
                0.049607414520402404,
                0.03469569729833195
            ]
        },
        {
            "positions": [
                -0.1306525326736689,
                -2.2399498224671053,
                -2.3461684945418497,
                1.2168838343360626,
                -0.07977293868786398,
                0.0322857058670009
            ]
        },
        {
            "positions": [
                -0.1032440669033655,
                -2.2205219976298953,
                -2.326841747545411,
                1.083028837037534,
                -0.20915329189613033,
                0.029875714435669852
            ]
        },
        {
            "positions": [
                -0.07583560113306209,
                -2.201094172792685,
                -2.3075150005489715,
                0.9491738397390052,
                -0.33853364510439676,
                0.0274657230043388
            ]
        },
        {
            "positions": [
                -0.04842713536275871,
                -2.181666347955475,
                -2.2881882535525326,
                0.8153188424404765,
                -0.4679139983126631,
                0.025055731573007754
            ]
        },
        {
            "positions": [
                0.036796289927807924,
                -2.1511028479208427,
                -2.1636358072224517,
                0.7524123525551107,
                -0.4500191125361648,
                0.08831703707840279
            ]
        },
        {
            "positions": [
                0.12201971521837456,
                -2.1205393478862105,
                -2.039083360892371,
                0.689505862669745,
                -0.43212422675966644,
                0.15157834258379782
            ]
        },
        {
            "positions": [
                0.20724314050894116,
                -2.089975847851578,
                -1.9145309145622902,
                0.6265993727843793,
                -0.41422934098316816,
                0.21483964808919284
            ]
        },
        {
            "positions": [
                0.2924665657995078,
                -2.059412347816946,
                -1.7899784682322095,
                0.5636928828990134,
                -0.3963344552066698,
                0.2781009535945879
            ]
        },
        {
            "positions": [
                0.37768999109007445,
                -2.0288488477823137,
                -1.6654260219021286,
                0.5007863930136477,
                -0.3784395694301715,
                0.34136225909998297
            ]
        },
        {
            "positions": [
                0.46291341638064104,
                -1.9982853477476814,
                -1.5408735755720477,
                0.43787990312828196,
                -0.36054468365367315,
                0.40462356460537796
            ]
        },
        {
            "positions": [
                0.5481368416712078,
                -1.9677218477130491,
                -1.4163211292419668,
                0.37497341324291616,
                -0.34264979787717487,
                0.467884870110773
            ]
        },
        {
            "positions": [
                0.6333602669617744,
                -1.9371583476784169,
                -1.2917686829118864,
                0.3120669233575504,
                -0.32475491210067653,
                0.5311461756161681
            ]
        },
        {
            "positions": [
                0.718583692252341,
                -1.9065948476437846,
                -1.1672162365818055,
                0.24916043347218464,
                -0.3068600263241782,
                0.594407481121563
            ]
        },
        {
            "positions": [
                0.8038071175429077,
                -1.8760313476091524,
                -1.0426637902517246,
                0.1862539435868189,
                -0.28896514054767986,
                0.6576687866269582
            ]
        },
        {
            "positions": [
                0.8890305428334742,
                -1.84546784757452,
                -0.918111343921644,
                0.12334745370145317,
                -0.2710702547711815,
                0.720930092132353
            ]
        },
        {
            "positions": [
                0.9742539681240409,
                -1.8149043475398878,
                -0.7935588975915631,
                0.060440963816087434,
                -0.2531753689946832,
                0.7841913976377481
            ]
        },
        {
            "positions": [
                1.0594773934146073,
                -1.7843408475052556,
                -0.6690064512614822,
                -0.002465526069278412,
                -0.23528048321818487,
                0.8474527031431432
            ]
        },
        {
            "positions": [
                1.1447008187051742,
                -1.7537773474706233,
                -0.5444540049314013,
                -0.06537201595464415,
                -0.21738559744168656,
                0.9107140086485382
            ]
        },
        {
            "positions": [
                1.2299242439957407,
                -1.723213847435991,
                -0.4199015586013206,
                -0.12827850584001,
                -0.19949071166518823,
                0.9739753141539333
            ]
        },
        {
            "positions": [
                1.3151476692863073,
                -1.6926503474013588,
                -0.29534911227123994,
                -0.19118499572537573,
                -0.1815958258886899,
                1.0372366196593283
            ]
        },
        {
            "positions": [
                1.4003710945768737,
                -1.6620868473667267,
                -0.17079666594115928,
                -0.25409148561074124,
                -0.1637009401121916,
                1.1004979251647233
            ]
        },
        {
            "positions": [
                1.4855945198674405,
                -1.6315233473320943,
                -0.046244219611078385,
                -0.3169979754961072,
                -0.14580605433569327,
                1.1637592306701183
            ]
        },
        {
            "positions": [
                1.570817945158007,
                -1.600959847297462,
                0.0783082267190025,
                -0.37990446538147293,
                -0.12791116855919493,
                1.2270205361755133
            ]
        },
        {
            "positions": [
                1.656041370448574,
                -1.5703963472628297,
                0.2028606730490834,
                -0.44281095526683867,
                -0.1100162827826966,
                1.2902818416809085
            ]
        },
        {
            "positions": [
                1.7412647957391405,
                -1.5398328472281975,
                0.3274131193791643,
                -0.5057174451522044,
                -0.09212139700619826,
                1.3535431471863035
            ]
        },
        {
            "positions": [
                1.8264882210297069,
                -1.5092693471935654,
                0.45196556570924473,
                -0.5686239350375701,
                -0.07422651122969998,
                1.4168044526916983
            ]
        },
        {
            "positions": [
                1.9117116463202737,
                -1.478705847158933,
                0.5765180120393256,
                -0.6315304249229361,
                -0.056331625453201584,
                1.4800657581970935
            ]
        },
        {
            "positions": [
                1.9969350716108403,
                -1.448142347124301,
                0.7010704583694065,
                -0.6944369148083016,
                -0.0384367396767033,
                1.5433270637024885
            ]
        },
        {
            "positions": [
                2.082158496901407,
                -1.4175788470896686,
                0.825622904699487,
                -0.7573434046936673,
                -0.02054185390020502,
                1.6065883692078835
            ]
        },
        {
            "positions": [
                2.1673819221919737,
                -1.3870153470550364,
                0.9501753510295683,
                -0.8202498945790333,
                -0.002646968123706628,
                1.6698496747132787
            ]
        },
        {
            "positions": [
                2.2526053474825405,
                -1.3564518470204041,
                1.0747277973596487,
                -0.883156384464399,
                0.015247917652791654,
                1.7331109802186735
            ]
        },
        {
            "positions": [
                2.3378287727731073,
                -1.3258883469857718,
                1.19928024368973,
                -0.9460628743497648,
                0.03314280342928999,
                1.7963722857240687
            ]
        },
        {
            "positions": [
                2.4230521980636737,
                -1.2953248469511396,
                1.3238326900198107,
                -1.0089693642351305,
                0.0510376892057883,
                1.8596335912294637
            ]
        },
        {
            "positions": [
                2.445689066100566,
                -1.2641448757443594,
                1.3801322318989422,
                -0.9861165534990508,
                0.1625945236061739,
                2.006726027958434
            ]
        },
        {
            "positions": [
                2.4683259341374586,
                -1.2329649045375792,
                1.4364317737780734,
                -0.963263742762971,
                0.27415135800655954,
                2.1538184646874035
            ]
        },
        {
            "positions": [
                2.490962802174351,
                -1.201784933330799,
                1.4927313156572048,
                -0.9404109320268913,
                0.3857081924069451,
                2.3009109014163736
            ]
        },
        {
            "positions": [
                2.5135996702112435,
                -1.1706049621240189,
                1.549030857536336,
                -0.9175581212908116,
                0.49726502680733076,
                2.4480033381453437
            ]
        },
        {
            "positions": [
                2.5362365382481356,
                -1.1394249909172387,
                1.6053303994154675,
                -0.8947053105547318,
                0.6088218612077164,
                2.5950957748743138
            ]
        },
        {
            "positions": [
                2.558873406285028,
                -1.1082450197104585,
                1.6616299412945987,
                -0.8718524998186521,
                0.720378695608102,
                2.742188211603284
            ]
        },
        {
            "positions": [
                2.5815102743219205,
                -1.0770650485036783,
                1.7179294831737302,
                -0.8489996890825724,
                0.8319355300084876,
                2.889280648332254
            ]
        },
        {
            "positions": [
                2.604147142358813,
                -1.0458850772968982,
                1.7742290250528614,
                -0.8261468783464927,
                0.9434923644088732,
                3.0363730850612236
            ]
        },
        {
            "positions": [
                2.6267840103957054,
                -1.014705106090118,
                1.8305285669319928,
                -0.8032940676104129,
                1.0550491988092587,
                3.1834655217901937
            ]
        }
    ]
}