{
    "goal": {
        "global_pose": {
            "orientation": {
                "w": 0.005598929693374612,
                "x": 0.007748599140229565,
                "y": 0.7110244013736278,
                "z": -0.7031023480610252
            },
            "position": {
                "x": 0.1141497679147869,
                "y": -0.7141253447532654,
                "z": 0.3711530566215515
            }
        },
        "name": "move_to_auspresseinheit_B"
    },
    "id": "BKPIECE_move_to_auspresseinheit_B_50",
    "joint_names": [
        "shoulder_pan_joint",
        "shoulder_lift_joint",
        "elbow_joint",
        "wrist_1_joint",
        "wrist_2_joint",
        "wrist_3_joint"
    ],
    "metrics": {
        "cart_traj_len": 0.564466759466942,
        "distance_elbow_joint": 0.06568746439476425,
        "distance_shoulder_lift_joint": 0.2942932665158633,
        "distance_shoulder_pan_joint": 0.5775523633482771,
        "distance_wrist_1_joint": 0.33690168735355663,
        "distance_wrist_2_joint": 0.9865643623310865,
        "distance_wrist_3_joint": 0.008850022370113564,
        "smoothness": 0.0,
        "time": 0.268216979,
        "traj_len": 1.5066018605834992,
        "weighted_distance": 1.9002671550964965
    },
    "planner": "BKPIECE",
    "start": {
        "state": {
            "elbow_joint": 2.0193083361928714,
            "shoulder_lift_joint": -1.1220246554650708,
            "shoulder_pan_joint": -1.0952077554168747,
            "wrist_1_joint": -0.8559753972642168,
            "wrist_2_joint": 0.4759566250798843,
            "wrist_3_joint": -3.1240929996934557
        }
    },
    "waypoints": [
        {
            "positions": [
                -1.0952077554168747,
                -1.1220246554650708,
                2.0193083361928714,
                -0.8559753972642168,
                0.4759566250798843,
                -3.1240929996934557
            ]
        },
        {
            "positions": [
                -1.1914664826415875,
                -1.1710735332177147,
                2.0083604254604106,
                -0.799825116038624,
                0.640384018801732,
                -3.1226179959651033
            ]
        },
        {
            "positions": [
                -1.2877252098663003,
                -1.2201224109703586,
                1.99741251472795,
                -0.7436748348130312,
                0.8048114125235797,
                -3.1211429922367513
            ]
        },
        {
            "positions": [
                -1.3839839370910132,
                -1.2691712887230024,
                1.9864646039954894,
                -0.6875245535874385,
                0.9692388062454276,
                -3.119667988508399
            ]
        },
        {
            "positions": [
                -1.480242664315726,
                -1.3182201664756463,
                1.9755166932630286,
                -0.6313742723618457,
                1.1336661999672752,
                -3.1181929847800465
            ]
        },
        {
            "positions": [
                -1.576501391540439,
                -1.3672690442282902,
                1.9645687825305678,
                -0.5752239911362529,
                1.2980935936891231,
                -3.1167179810516945
            ]
        },
        {
            "positions": [
                -1.6727601187651517,
                -1.416317921980934,
                1.9536208717981072,
                -0.5190737099106602,
                1.4625209874109708,
                -3.115242977323342
            ]
        }
    ]
}