{
    "goal": {
        "global_pose": {
            "orientation": {
                "w": 0.7047431493862688,
                "x": -0.7094548369677653,
                "y": 0.0024358444001904,
                "z": -0.0022348060817251984
            },
            "position": {
                "x": -0.39052492380142206,
                "y": 0.3671506643295288,
                "z": 0.19426114857196808
            }
        },
        "name": "move_to_magneteinheit_D"
    },
    "id": "BKPIECE_move_to_magneteinheit_D_84",
    "joint_names": [
        "shoulder_pan_joint",
        "shoulder_lift_joint",
        "elbow_joint",
        "wrist_1_joint",
        "wrist_2_joint",
        "wrist_3_joint"
    ],
    "metrics": {
        "cart_traj_len": 4.3024882791330015,
        "distance_elbow_joint": 3.470482401516,
        "distance_shoulder_lift_joint": 1.0948381868434818,
        "distance_shoulder_pan_joint": 3.438422305300941,
        "distance_wrist_1_joint": 4.413879542435008,
        "distance_wrist_2_joint": 1.0174205863565295,
        "distance_wrist_3_joint": 6.285254906608509,
        "smoothness": 0.34823337274434424,
        "time": 0.324520427,
        "traj_len": 4.440754207233324,
        "weighted_distance": 6.141832615031855
    },
    "planner": "BKPIECE",
    "start": {
        "state": {
            "elbow_joint": 0.749534889911806,
            "shoulder_lift_joint": -0.6476975780787326,
            "shoulder_pan_joint": -2.711696901376241,
            "wrist_1_joint": -0.07506478083263063,
            "wrist_2_joint": 0.43296659715538205,
            "wrist_3_joint": -3.14703540197715
        }
    },
    "waypoints": [
        {
            "positions": [
                -2.711696901376241,
                -0.6476975780787326,
                0.749534889911806,
                -0.07506478083263063,
                0.43296659715538205,
                -3.14703540197715
            ]
        },
        {
            "positions": [
                -2.713278477951002,
                -0.6944878931593547,
                0.767208703543961,
                0.04128754583769545,
                0.4285192571991828,
                -2.9629093577985723
            ]
        },
        {
            "positions": [
                -2.7148600545257633,
                -0.7412782082399767,
                0.7848825171761161,
                0.15763987250802153,
                0.42407191724298354,
                -2.778783313619995
            ]
        },
        {
            "positions": [
                -2.7164416311005244,
                -0.7880685233205988,
                0.8025563308082712,
                0.27399219917834755,
                0.41962457728678426,
                -2.5946572694414174
            ]
        },
        {
            "positions": [
                -2.7180232076752855,
                -0.8348588384012209,
                0.8202301444404263,
                0.3903445258486737,
                0.41517723733058504,
                -2.41053122526284
            ]
        },
        {
            "positions": [
                -2.7196047842500466,
                -0.8816491534818429,
                0.8379039580725813,
                0.5066968525189997,
                0.4107298973743858,
                -2.2264051810842624
            ]
        },
        {
            "positions": [
                -2.7211863608248077,
                -0.928439468562465,
                0.8555777717047364,
                0.6230491791893258,
                0.40628255741818653,
                -2.0422791369056847
            ]
        },
        {
            "positions": [
                -2.722767937399569,
                -0.975229783643087,
                0.8732515853368915,
                0.7394015058596517,
                0.4018352174619873,
                -1.8581530927271075
            ]
        },
        {
            "positions": [
                -2.72434951397433,
                -1.0220200987237091,
                0.8909253989690465,
                0.855753832529978,
                0.397387877505788,
                -1.6740270485485298
            ]
        },
        {
            "positions": [
                -2.725931090549091,
                -1.0688104138043313,
                0.9085992126012017,
                0.972106159200304,
                0.3929405375495888,
                -1.4899010043699523
            ]
        },
        {
            "positions": [
                -2.727512667123852,
                -1.1156007288849532,
                0.9262730262333567,
                1.08845848587063,
                0.3884931975933895,
                -1.3057749601913748
            ]
        },
        {
            "positions": [
                -2.6469298912820873,
                -1.1253346463181595,
                0.8443487276467083,
                1.0016333029372828,
                0.3675871370912972,
                -1.194862390088378
            ]
        },
        {
            "positions": [
                -2.566347115440323,
                -1.1350685637513658,
                0.7624244290600598,
                0.9148081200039356,
                0.34668107658920483,
                -1.0839498199853808
            ]
        },
        {
            "positions": [
                -2.4857643395985582,
                -1.144802481184572,
                0.6805001304734113,
                0.8279829370705885,
                0.3257750160871125,
                -0.9730372498823838
            ]
        },
        {
            "positions": [
                -2.405181563756794,
                -1.1545363986177783,
                0.5985758318867629,
                0.7411577541372412,
                0.30486895558502014,
                -0.8621246797793869
            ]
        },
        {
            "positions": [
                -2.324598787915029,
                -1.1642703160509846,
                0.5166515333001145,
                0.6543325712038939,
                0.2839628950829278,
                -0.7512121096763898
            ]
        },
        {
            "positions": [
                -2.2440160120732644,
                -1.174004233484191,
                0.43472723471346597,
                0.5675073882705467,
                0.2630568345808355,
                -0.6402995395733928
            ]
        },
        {
            "positions": [
                -2.1634332362314996,
                -1.183738150917397,
                0.35280293612681746,
                0.4806822053371994,
                0.24215077407874314,
                -0.5293869694703958
            ]
        },
        {
            "positions": [
                -2.0828504603897353,
                -1.1934720683506033,
                0.27087863754016905,
                0.39385702240385223,
                0.2212447135766508,
                -0.41847439936739883
            ]
        },
        {
            "positions": [
                -2.0022676845479705,
                -1.2032059857838096,
                0.18895433895352054,
                0.30703183947050494,
                0.20033865307455845,
                -0.3075618292644018
            ]
        },
        {
            "positions": [
                -1.9216849087062062,
                -1.2129399032170158,
                0.10703004036687214,
                0.22020665653715776,
                0.1794325925724661,
                -0.19664925916140485
            ]
        },
        {
            "positions": [
                -1.8411021328644415,
                -1.2226738206502221,
                0.025105741780223623,
                0.13338147360381047,
                0.15852653207037376,
                -0.0857366890584077
            ]
        },
        {
            "positions": [
                -1.760519357022677,
                -1.2324077380834284,
                -0.05681855680642478,
                0.046556290670463296,
                0.13762047156828144,
                0.025175881044589232
            ]
        },
        {
            "positions": [
                -1.6799365811809124,
                -1.2421416555166347,
                -0.13874285539307318,
                -0.04026889226288399,
                0.11671441106618907,
                0.13608845114758616
            ]
        },
        {
            "positions": [
                -1.5993538053391476,
                -1.251875572949841,
                -0.2206671539797218,
                -0.12709407519623128,
                0.09580835056409676,
                0.24700102125058332
            ]
        },
        {
            "positions": [
                -1.518771029497383,
                -1.2616094903830473,
                -0.3025914525663702,
                -0.21391925812957835,
                0.07490229006200438,
                0.35791359135358025
            ]
        },
        {
            "positions": [
                -1.4381882536556185,
                -1.2713434078162535,
                -0.3845157511530186,
                -0.30074444106292564,
                0.05399622955991207,
                0.4688261614565772
            ]
        },
        {
            "positions": [
                -1.357605477813854,
                -1.2810773252494598,
                -0.466440049739667,
                -0.3875696239962729,
                0.033090169057819696,
                0.5797387315595743
            ]
        },
        {
            "positions": [
                -1.2770227019720892,
                -1.2908112426826661,
                -0.5483643483263156,
                -0.4743948069296202,
                0.01218410855572738,
                0.6906513016625713
            ]
        },
        {
            "positions": [
                -1.196439926130325,
                -1.3005451601158722,
                -0.6302886469129638,
                -0.5612199898629671,
                -0.008721951946364936,
                0.801563871765568
            ]
        },
        {
            "positions": [
                -1.1158571502885601,
                -1.3102790775490785,
                -0.7122129454996124,
                -0.6480451727963146,
                -0.029628012448457308,
                0.9124764418685651
            ]
        },
        {
            "positions": [
                -1.0352743744467956,
                -1.3200129949822847,
                -0.7941372440862609,
                -0.7348703557296616,
                -0.050534072950549624,
                1.0233890119715618
            ]
        },
        {
            "positions": [
                -0.9546915986050308,
                -1.329746912415491,
                -0.8760615426729095,
                -0.8216955386630092,
                -0.071440133452642,
                1.1343015820745594
            ]
        },
        {
            "positions": [
                -0.8741088227632665,
                -1.3394808298486973,
                -0.9579858412595577,
                -0.908520721596356,
                -0.09234619395473431,
                1.2452141521775562
            ]
        },
        {
            "positions": [
                -0.7935260469215017,
                -1.3492147472819036,
                -1.0399101398462063,
                -0.9953459045297035,
                -0.11325225445682663,
                1.3561267222805533
            ]
        },
        {
            "positions": [
                -0.7129432710797374,
                -1.3589486647151099,
                -1.1218344384328545,
                -1.0821710874630504,
                -0.13415831495891894,
                1.46703929238355
            ]
        },
        {
            "positions": [
                -0.6323604952379727,
                -1.3686825821483162,
                -1.203758737019503,
                -1.168996270396398,
                -0.15506437546101137,
                1.5779518624865472
            ]
        },
        {
            "positions": [
                -0.5517777193962079,
                -1.3784164995815225,
                -1.2856830356061517,
                -1.255821453329745,
                -0.1759704359631037,
                1.6888644325895439
            ]
        },
        {
            "positions": [
                -0.47119494355444314,
                -1.3881504170147287,
                -1.3676073341928003,
                -1.3426466362630927,
                -0.196876496465196,
                1.7997770026925415
            ]
        },
        {
            "positions": [
                -0.3906121677126788,
                -1.397884334447935,
                -1.4495316327794485,
                -1.4294718191964395,
                -0.21778255696728832,
                1.9106895727955382
            ]
        },
        {
            "positions": [
                -0.31002939187091405,
                -1.4076182518811413,
                -1.5314559313660971,
                -1.5162970021297868,
                -0.23868861746938075,
                2.0216021428985353
            ]
        },
        {
            "positions": [
                -0.22944661602914973,
                -1.4173521693143476,
                -1.6133802299527453,
                -1.603122185063134,
                -0.25959467797147306,
                2.132514713001532
            ]
        },
        {
            "positions": [
                -0.14886384018738497,
                -1.4270860867475537,
                -1.695304528539394,
                -1.6899473679964814,
                -0.2805007384735654,
                2.243427283104529
            ]
        },
        {
            "positions": [
                -0.06828106434562065,
                -1.43682000418076,
                -1.7772288271260421,
                -1.7767725509298282,
                -0.3014067989756577,
                2.354339853207526
            ]
        },
        {
            "positions": [
                0.012301711496144119,
                -1.4465539216139662,
                -1.8591531257126908,
                -1.863597733863176,
                -0.3223128594777501,
                2.4652524233105235
            ]
        },
        {
            "positions": [
                0.09288448733790888,
                -1.4562878390471725,
                -1.9410774242993394,
                -1.9504229167965228,
                -0.34321891997984244,
                2.5761649934135202
            ]
        },
        {
            "positions": [
                0.17346726317967365,
                -1.4660217564803788,
                -2.0230017228859882,
                -2.0372480997298705,
                -0.36412498048193476,
                2.6870775635165174
            ]
        },
        {
            "positions": [
                0.25405003902143797,
                -1.475755673913585,
                -2.104926021472636,
                -2.1240732826632174,
                -0.38503104098402713,
                2.7979901336195137
            ]
        },
        {
            "positions": [
                0.143789080669428,
                -1.5424506966657425,
                -2.17056232584475,
                -2.1335294094626924,
                -0.33517530392974704,
                2.8830474763724747
            ]
        },
        {
            "positions": [
                0.03352812231741803,
                -1.6091457194178997,
                -2.2361986302168644,
                -2.142985536262167,
                -0.28531956687546695,
                2.9681048191254358
            ]
        },
        {
            "positions": [
                -0.07673283603459191,
                -1.675840742170057,
                -2.301834934588978,
                -2.1524416630616416,
                -0.23546382982118683,
                3.053162161878397
            ]
        },
        {
            "positions": [
                -0.18699379438660194,
                -1.7425357649222144,
                -2.3674712389610924,
                -2.1618977898611167,
                -0.18560809276690673,
                3.138219504631358
            ]
        }
    ]
}