{
    "goal": {
        "global_pose": {
            "orientation": {
                "w": -0.00223480608172531,
                "x": 0.0024358444001904467,
                "y": 0.7094548369677653,
                "z": -0.704743149386269
            },
            "position": {
                "x": -0.37947507619857795,
                "y": -0.6371506643295288,
                "z": 0.19426114857196808
            }
        },
        "name": "move_to_magneteinheit_C"
    },
    "id": "BKPIECE_move_to_magneteinheit_C_118",
    "joint_names": [
        "shoulder_pan_joint",
        "shoulder_lift_joint",
        "elbow_joint",
        "wrist_1_joint",
        "wrist_2_joint",
        "wrist_3_joint"
    ],
    "metrics": {
        "cart_traj_len": 1.509678240626595,
        "distance_elbow_joint": 0.6733108235578298,
        "distance_shoulder_lift_joint": 2.133964728870647,
        "distance_shoulder_pan_joint": 1.6428605576336721,
        "distance_wrist_1_joint": 4.339653458919847,
        "distance_wrist_2_joint": 5.229011380056338,
        "distance_wrist_3_joint": 2.3634217739217576,
        "smoothness": 0.7410753914516203,
        "time": 0.3519112,
        "traj_len": 4.0474958583005485,
        "weighted_distance": 5.538748153669725
    },
    "planner": "BKPIECE",
    "start": {
        "state": {
            "elbow_joint": 1.9565354010623817,
            "shoulder_lift_joint": -1.4165861575791021,
            "shoulder_pan_joint": -1.6717766225146293,
            "wrist_1_joint": -0.5286633292919765,
            "wrist_2_joint": 1.472756589071564,
            "wrist_3_joint": -3.1238370188695823
        }
    },
    "waypoints": [
        {
            "positions": [
                -1.6717766225146293,
                -1.4165861575791021,
                1.9565354010623817,
                -0.5286633292919765,
                1.472756589071564,
                -3.1238370188695823
            ]
        },
        {
            "positions": [
                -1.7249257771037754,
                -1.4574920854714244,
                1.9723034735964962,
                -0.4408248000130495,
                1.3416480954959273,
                -3.073135839156114
            ]
        },
        {
            "positions": [
                -1.7780749316929214,
                -1.4983980133637467,
                1.9880715461306107,
                -0.3529862707341226,
                1.210539601920291,
                -3.0224346594426454
            ]
        },
        {
            "positions": [
                -1.8312240862820675,
                -1.539303941256069,
                2.003839618664725,
                -0.2651477414551956,
                1.0794311083446546,
                -2.9717334797291772
            ]
        },
        {
            "positions": [
                -1.8843732408712135,
                -1.5802098691483912,
                2.0196076911988396,
                -0.17730921217626866,
                0.948322614769018,
                -2.9210323000157086
            ]
        },
        {
            "positions": [
                -1.9375223954603595,
                -1.6211157970407135,
                2.035375763732954,
                -0.08947068289734172,
                0.8172141211933815,
                -2.8703311203022404
            ]
        },
        {
            "positions": [
                -1.9906715500495056,
                -1.6620217249330358,
                2.0511438362670686,
                -0.0016321536184147334,
                0.6861056276177451,
                -2.8196299405887717
            ]
        },
        {
            "positions": [
                -2.0438207046386516,
                -1.702927652825358,
                2.066911908801183,
                0.08620637566051226,
                0.5549971340421086,
                -2.7689287608753035
            ]
        },
        {
            "positions": [
                -2.096969859227798,
                -1.7438335807176804,
                2.0826799813352976,
                0.17404490493943914,
                0.4238886404664721,
                -2.718227581161835
            ]
        },
        {
            "positions": [
                -2.1501190138169437,
                -1.7847395086100026,
                2.098448053869412,
                0.26188343421836613,
                0.29278014689083554,
                -2.6675264014483666
            ]
        },
        {
            "positions": [
                -2.2032681684060895,
                -1.825645436502325,
                2.1142161264035266,
                0.349721963497293,
                0.16167165331519917,
                -2.6168252217348984
            ]
        },
        {
            "positions": [
                -2.256417322995236,
                -1.8665513643946472,
                2.129984198937641,
                0.43756049277622,
                0.030563159739562806,
                -2.5661240420214297
            ]
        },
        {
            "positions": [
                -2.309566477584382,
                -1.9074572922869695,
                2.1457522714717556,
                0.525399022055147,
                -0.10054533383607378,
                -2.515422862307961
            ]
        },
        {
            "positions": [
                -2.362715632173528,
                -1.9483632201792918,
                2.16152034400587,
                0.6132375513340738,
                -0.23165382741171014,
                -2.464721682594493
            ]
        },
        {
            "positions": [
                -2.4158647867626737,
                -1.989269148071614,
                2.1772884165399846,
                0.701076080613001,
                -0.36276232098734673,
                -2.4140205028810247
            ]
        },
        {
            "positions": [
                -2.46901394135182,
                -2.0301750759639363,
                2.193056489074099,
                0.7889146098919277,
                -0.4938708145629831,
                -2.363319323167556
            ]
        },
        {
            "positions": [
                -2.522163095940966,
                -2.071081003856259,
                2.2088245616082136,
                0.8767531391708547,
                -0.6249793081386197,
                -2.312618143454088
            ]
        },
        {
            "positions": [
                -2.575312250530112,
                -2.111986931748581,
                2.224592634142328,
                0.9645916684497817,
                -0.7560878017142558,
                -2.261916963740619
            ]
        },
        {
            "positions": [
                -2.628461405119258,
                -2.152892859640903,
                2.2403607066764426,
                1.0524301977287087,
                -0.8871962952898929,
                -2.211215784027151
            ]
        },
        {
            "positions": [
                -2.681610559708404,
                -2.1937987875332254,
                2.256128779210557,
                1.1402687270076357,
                -1.018304788865529,
                -2.1605146043136823
            ]
        },
        {
            "positions": [
                -2.7347597142975504,
                -2.234704715425548,
                2.271896851744671,
                1.2281072562865625,
                -1.1494132824411656,
                -2.109813424600214
            ]
        },
        {
            "positions": [
                -2.787908868886696,
                -2.27561064331787,
                2.287664924278786,
                1.3159457855654895,
                -1.2805217760168017,
                -2.0591122448867454
            ]
        },
        {
            "positions": [
                -2.841058023475842,
                -2.316516571210192,
                2.3034329968129006,
                1.4037843148444165,
                -1.4116302695924383,
                -2.008411065173277
            ]
        },
        {
            "positions": [
                -2.8942071780649883,
                -2.3574224991025146,
                2.319201069347015,
                1.4916228441233437,
                -1.5427387631680751,
                -1.9577098854598087
            ]
        },
        {
            "positions": [
                -2.8731856779608225,
                -2.297766079735153,
                2.3036688115833552,
                1.3756544798481174,
                -1.4320629617772402,
                -2.017574617485408
            ]
        },
        {
            "positions": [
                -2.852164177856657,
                -2.2381096603677912,
                2.288136553819695,
                1.2596861155728911,
                -1.3213871603864054,
                -2.0774393495110073
            ]
        },
        {
            "positions": [
                -2.8311426777524913,
                -2.178453241000429,
                2.2726042960560355,
                1.1437177512976646,
                -1.2107113589955705,
                -2.1373040815366062
            ]
        },
        {
            "positions": [
                -2.8101211776483255,
                -2.1187968216330675,
                2.2570720382923755,
                1.0277493870224383,
                -1.1000355576047356,
                -2.1971688135622056
            ]
        },
        {
            "positions": [
                -2.78909967754416,
                -2.059140402265706,
                2.241539780528716,
                0.9117810227472121,
                -0.9893597562139008,
                -2.2570335455878046
            ]
        },
        {
            "positions": [
                -2.7680781774399943,
                -1.999483982898344,
                2.2260075227650558,
                0.7958126584719858,
                -0.8786839548230659,
                -2.316898277613404
            ]
        },
        {
            "positions": [
                -2.747056677335829,
                -1.9398275635309823,
                2.210475265001396,
                0.6798442941967595,
                -0.7680081534322312,
                -2.376763009639003
            ]
        },
        {
            "positions": [
                -2.726035177231663,
                -1.8801711441636204,
                2.194943007237736,
                0.563875929921533,
                -0.6573323520413962,
                -2.4366277416646023
            ]
        },
        {
            "positions": [
                -2.7050136771274973,
                -1.8205147247962588,
                2.1794107494740764,
                0.44790756564630674,
                -0.5466565506505614,
                -2.4964924736902017
            ]
        },
        {
            "positions": [
                -2.683992177023332,
                -1.760858305428897,
                2.163878491710417,
                0.33193920137108046,
                -0.4359807492597265,
                -2.5563572057158006
            ]
        },
        {
            "positions": [
                -2.662970676919166,
                -1.7012018860615352,
                2.1483462339467567,
                0.21597083709585396,
                -0.32530494786889164,
                -2.6162219377414
            ]
        },
        {
            "positions": [
                -2.6419491768150003,
                -1.6415454666941733,
                2.132813976183097,
                0.10000247282062791,
                -0.21462914647805675,
                -2.676086669766999
            ]
        },
        {
            "positions": [
                -2.620927676710835,
                -1.5818890473268117,
                2.117281718419437,
                -0.01596589145459859,
                -0.10395334508722187,
                -2.7359514017925983
            ]
        },
        {
            "positions": [
                -2.599906176606669,
                -1.52223262795945,
                2.1017494606557774,
                -0.13193425572982465,
                0.006722456303612789,
                -2.7958161338181977
            ]
        },
        {
            "positions": [
                -2.5788846765025033,
                -1.4625762085920881,
                2.0862172028921173,
                -0.24790262000505114,
                0.1173982576944479,
                -2.8556808658437967
            ]
        },
        {
            "positions": [
                -2.557863176398338,
                -1.4029197892247263,
                2.0706849451284577,
                -0.36387098428027764,
                0.22807405908528278,
                -2.915545597869396
            ]
        },
        {
            "positions": [
                -2.536841676294172,
                -1.3432633698573646,
                2.0551526873647976,
                -0.4798393485555037,
                0.33874986047611744,
                -2.975410329894995
            ]
        },
        {
            "positions": [
                -2.5158201761900063,
                -1.283606950490003,
                2.039620429601138,
                -0.5958077128307302,
                0.4494256618669523,
                -3.0352750619205944
            ]
        },
        {
            "positions": [
                -2.494798676085841,
                -1.2239505311226413,
                2.0240881718374784,
                -0.7117760771059563,
                0.560101463257787,
                -3.0951397939461938
            ]
        },
        {
            "positions": [
                -2.473777175981675,
                -1.1642941117552794,
                2.0085559140738183,
                -0.827744441381183,
                0.670777264648622,
                -3.1550045259717927
            ]
        }
    ]
}