{
    "goal": {
        "global_pose": {
            "orientation": {
                "w": 0.005598929693374612,
                "x": 0.007748599140229565,
                "y": 0.7110244013736278,
                "z": -0.7031023480610252
            },
            "position": {
                "x": -0.8858502320852131,
                "y": -0.7141253447532654,
                "z": 0.3711530566215515
            }
        },
        "name": "move_to_auspresseinheit_C"
    },
    "id": "BKPIECE_move_to_auspresseinheit_C_47",
    "joint_names": [
        "shoulder_pan_joint",
        "shoulder_lift_joint",
        "elbow_joint",
        "wrist_1_joint",
        "wrist_2_joint",
        "wrist_3_joint"
    ],
    "metrics": {
        "cart_traj_len": 0.49217031435333064,
        "distance_elbow_joint": 0.988021977526359,
        "distance_shoulder_lift_joint": 0.3192829221746153,
        "distance_shoulder_pan_joint": 0.25658800254614267,
        "distance_wrist_1_joint": 0.6587162116908323,
        "distance_wrist_2_joint": 1.3064322288878836,
        "distance_wrist_3_joint": 0.0485242524442695,
        "smoothness": 4.844609574787718e-16,
        "time": 0.225144593,
        "traj_len": 1.8914453720026125,
        "weighted_distance": 2.374818422687797
    },
    "planner": "BKPIECE",
    "start": {
        "state": {
            "elbow_joint": 1.7527959577737207,
            "shoulder_lift_joint": -0.9740617694225068,
            "shoulder_pan_joint": -2.967991417825858,
            "wrist_1_joint": -0.759517768980727,
            "wrist_2_joint": 1.7443932448377408,
            "wrist_3_joint": -3.0840537646736568
        }
    },
    "waypoints": [
        {
            "positions": [
                -2.967991417825858,
                -0.9740617694225068,
                1.7527959577737207,
                -0.759517768980727,
                1.7443932448377408,
                -3.0840537646736568
            ]
        },
        {
            "positions": [
                -2.942332617571244,
                -0.9421334772050453,
                1.6539937600210848,
                -0.6936461478116438,
                1.6137500219489525,
                -3.0889061899180836
            ]
        },
        {
            "positions": [
                -2.9166738173166293,
                -0.9102051849875837,
                1.555191562268449,
                -0.6277745266425605,
                1.483106799060164,
                -3.0937586151625105
            ]
        },
        {
            "positions": [
                -2.8910150170620152,
                -0.8782768927701222,
                1.456389364515813,
                -0.5619029054734773,
                1.3524635761713757,
                -3.098611040406938
            ]
        },
        {
            "positions": [
                -2.8653562168074007,
                -0.8463486005526606,
                1.3575871667631771,
                -0.4960312843043941,
                1.2218203532825873,
                -3.1034634656513647
            ]
        },
        {
            "positions": [
                -2.8396974165527866,
                -0.8144203083351991,
                1.258784969010541,
                -0.43015966313531084,
                1.091177130393799,
                -3.1083158908957915
            ]
        },
        {
            "positions": [
                -2.8140386162981725,
                -0.7824920161177376,
                1.1599827712579054,
                -0.3642880419662276,
                0.9605339075050107,
                -3.1131683161402184
            ]
        },
        {
            "positions": [
                -2.788379816043558,
                -0.750563723900276,
                1.0611805735052693,
                -0.2984164207971444,
                0.8298906846162224,
                -3.1180207413846452
            ]
        },
        {
            "positions": [
                -2.762721015788944,
                -0.7186354316828145,
                0.9623783757526334,
                -0.23254479962806118,
                0.699247461727434,
                -3.1228731666290725
            ]
        },
        {
            "positions": [
                -2.7370622155343294,
                -0.686707139465353,
                0.8635761779999975,
                -0.1666731784589779,
                0.5686042388386456,
                -3.1277255918734994
            ]
        },
        {
            "positions": [
                -2.7114034152797153,
                -0.6547788472478915,
                0.7647739802473617,
                -0.10080155728989476,
                0.43796101594985726,
                -3.1325780171179263
            ]
        }
    ]
}