{
    "goal": {
        "global_pose": {
            "orientation": {
                "w": 0.7047431468963623,
                "x": -0.7094548344612122,
                "y": 0.0024358443915843964,
                "z": -0.0022348060738295317
            },
            "position": {
                "x": 0.6094750761985779,
                "y": 0.3671506643295288,
                "z": 0.19426114857196808
            }
        },
        "name": "move_to_magneteinheit_A"
    },
    "id": "BKPIECE_move_to_magneteinheit_A_107",
    "joint_names": [
        "shoulder_pan_joint",
        "shoulder_lift_joint",
        "elbow_joint",
        "wrist_1_joint",
        "wrist_2_joint",
        "wrist_3_joint"
    ],
    "metrics": {
        "cart_traj_len": 3.636668507974699,
        "distance_elbow_joint": 3.8894340398299234,
        "distance_shoulder_lift_joint": 0.9052463729403597,
        "distance_shoulder_pan_joint": 3.5129593864242388,
        "distance_wrist_1_joint": 0.771233995270792,
        "distance_wrist_2_joint": 3.4422181975161448,
        "distance_wrist_3_joint": 2.6421091354235213,
        "smoothness": 0.24808527255176888,
        "time": 0.14560759899999998,
        "traj_len": 3.893995522263088,
        "weighted_distance": 4.965971364299129
    },
    "planner": "BKPIECE",
    "start": {
        "state": {
            "elbow_joint": -1.9196185241190666,
            "shoulder_lift_joint": -1.2443396400964142,
            "shoulder_pan_joint": 2.6996025414629847,
            "wrist_1_joint": -1.5485510000780065,
            "wrist_2_joint": -1.5709468930060704,
            "wrist_3_joint": 0.4420197071253992
        }
    },
    "waypoints": [
        {
            "positions": [
                2.6996025414629847,
                -1.2443396400964142,
                -1.9196185241190666,
                -1.5485510000780065,
                -1.5709468930060704,
                0.4420197071253992
            ]
        },
        {
            "positions": [
                2.5825121997397975,
                -1.2597196498680852,
                -1.8023958387744194,
                -1.5323730253452417,
                -1.471983895502931,
                0.4656507572053261
            ]
        },
        {
            "positions": [
                2.46542185801661,
                -1.275099659639756,
                -1.6851731534297723,
                -1.5161950506124768,
                -1.3730208979997918,
                0.489281807285253
            ]
        },
        {
            "positions": [
                2.3483315162934226,
                -1.2904796694114269,
                -1.567950468085125,
                -1.5000170758797118,
                -1.2740579004966524,
                0.51291285736518
            ]
        },
        {
            "positions": [
                2.231241174570235,
                -1.3058596791830976,
                -1.4507277827404779,
                -1.483839101146947,
                -1.1750949029935132,
                0.5365439074451068
            ]
        },
        {
            "positions": [
                2.1141508328470477,
                -1.3212396889547686,
                -1.3335050973958307,
                -1.4676611264141821,
                -1.0761319054903737,
                0.5601749575250338
            ]
        },
        {
            "positions": [
                1.99706049112386,
                -1.3366196987264396,
                -1.2162824120511835,
                -1.4514831516814173,
                -0.9771689079872344,
                0.5838060076049607
            ]
        },
        {
            "positions": [
                1.8799701494006729,
                -1.3519997084981104,
                -1.0990597267065367,
                -1.4353051769486522,
                -0.8782059104840952,
                0.6074370576848875
            ]
        },
        {
            "positions": [
                1.7628798076774854,
                -1.3673797182697813,
                -0.9818370413618893,
                -1.4191272022158874,
                -0.7792429129809558,
                0.6310681077648146
            ]
        },
        {
            "positions": [
                1.6457894659542982,
                -1.382759728041452,
                -0.8646143560172423,
                -1.4029492274831226,
                -0.6802799154778166,
                0.6546991578447414
            ]
        },
        {
            "positions": [
                1.5286991242311105,
                -1.398139737813123,
                -0.7473916706725949,
                -1.3867712527503577,
                -0.5813169179746772,
                0.6783302079246684
            ]
        },
        {
            "positions": [
                1.4116087825079233,
                -1.413519747584794,
                -0.630168985327948,
                -1.370593278017593,
                -0.4823539204715379,
                0.7019612580045953
            ]
        },
        {
            "positions": [
                1.2945184407847357,
                -1.4288997573564648,
                -0.5129462999833005,
                -1.3544153032848278,
                -0.3833909229683985,
                0.7255923080845222
            ]
        },
        {
            "positions": [
                1.1774280990615484,
                -1.4442797671281358,
                -0.3957236146386536,
                -1.338237328552063,
                -0.2844279254652593,
                0.7492233581644492
            ]
        },
        {
            "positions": [
                1.0603377573383612,
                -1.4596597768998067,
                -0.2785009292940066,
                -1.3220593538192982,
                -0.1854649279621201,
                0.772854408244376
            ]
        },
        {
            "positions": [
                0.9432474156151738,
                -1.4750397866714775,
                -0.1612782439493594,
                -1.3058813790865333,
                -0.08650193045898091,
                0.796485458324303
            ]
        },
        {
            "positions": [
                0.8261570738919861,
                -1.4904197964431485,
                -0.044055558604712,
                -1.2897034043537683,
                0.012461067044158725,
                0.8201165084042299
            ]
        },
        {
            "positions": [
                0.7090667321687987,
                -1.5057998062148195,
                0.0731671267399352,
                -1.2735254296210035,
                0.11142406454729792,
                0.8437475584841568
            ]
        },
        {
            "positions": [
                0.5919763904456117,
                -1.5211798159864902,
                0.19038981208458194,
                -1.2573474548882386,
                0.2103870620504371,
                0.8673786085640838
            ]
        },
        {
            "positions": [
                0.474886048722424,
                -1.536559825758161,
                0.30761249742922914,
                -1.2411694801554738,
                0.30935005955357653,
                0.8910096586440106
            ]
        },
        {
            "positions": [
                0.35779570699923635,
                -1.551939835529832,
                0.4248351827738768,
                -1.2249915054227087,
                0.40831305705671594,
                0.9146407087239377
            ]
        },
        {
            "positions": [
                0.24070536527604913,
                -1.567319845301503,
                0.542057868118524,
                -1.208813530689944,
                0.5072760545598551,
                0.9382717588038645
            ]
        },
        {
            "positions": [
                0.12361502355286191,
                -1.582699855073174,
                0.6592805534631707,
                -1.192635555957179,
                0.6062390520629946,
                0.9619028088837914
            ]
        },
        {
            "positions": [
                0.0065246818296746945,
                -1.5980798648448447,
                0.7765032388078179,
                -1.1764575812244142,
                0.7052020495661335,
                0.9855338589637183
            ]
        },
        {
            "positions": [
                -0.11056565989351341,
                -1.6134598746165156,
                0.8937259241524655,
                -1.1602796064916492,
                0.8041650470692734,
                1.0091649090436454
            ]
        },
        {
            "positions": [
                -0.22765600161670063,
                -1.6288398843881864,
                1.0109486094971123,
                -1.1441016317588844,
                0.9031280445724124,
                1.0327959591235722
            ]
        },
        {
            "positions": [
                -0.34474634333988785,
                -1.6442198941598574,
                1.1281712948417593,
                -1.1279236570261195,
                1.002091042075552,
                1.056427009203499
            ]
        },
        {
            "positions": [
                -0.3104201135821421,
                -1.6063296193519963,
                1.1915792056528118,
                -1.1014823522334012,
                0.9358475444872404,
                1.2092151442690937
            ]
        },
        {
            "positions": [
                -0.27609388382439637,
                -1.5684393445441351,
                1.2549871164638642,
                -1.0750410474406826,
                0.8696040468989288,
                1.3620032793346883
            ]
        },
        {
            "positions": [
                -0.24176765406665057,
                -1.530549069736274,
                1.3183950272749168,
                -1.0485997426479643,
                0.8033605493106172,
                1.5147914144002828
            ]
        },
        {
            "positions": [
                -0.20744142430890483,
                -1.492658794928413,
                1.3818029380859693,
                -1.0221584378552457,
                0.7371170517223056,
                1.6675795494658774
            ]
        },
        {
            "positions": [
                -0.17311519455115906,
                -1.4547685201205518,
                1.4452108488970217,
                -0.9957171330625273,
                0.6708735541339939,
                1.820367684531472
            ]
        },
        {
            "positions": [
                -0.13878896479341332,
                -1.4168782453126907,
                1.5086187597080742,
                -0.9692758282698088,
                0.6046300565456824,
                1.9731558195970667
            ]
        },
        {
            "positions": [
                -0.10446273503566758,
                -1.3789879705048294,
                1.5720266705191266,
                -0.9428345234770905,
                0.5383865589573706,
                2.1259439546626613
            ]
        },
        {
            "positions": [
                -0.07013650527792181,
                -1.3410976956969682,
                1.6354345813301792,
                -0.916393218684372,
                0.47214306136905904,
                2.2787320897282557
            ]
        },
        {
            "positions": [
                -0.03581027552017607,
                -1.3032074208891071,
                1.6988424921412317,
                -0.8899519138916536,
                0.40589956378074743,
                2.43152022479385
            ]
        },
        {
            "positions": [
                -0.001484045762430275,
                -1.265317146081246,
                1.7622504029522843,
                -0.8635106090989351,
                0.3396560661924358,
                2.584308359859445
            ]
        },
        {
            "positions": [
                0.03284218399531541,
                -1.227426871273385,
                1.8256583137633364,
                -0.8370693043062167,
                0.2734125686041242,
                2.7370964949250394
            ]
        },
        {
            "positions": [
                0.0671684137530612,
                -1.1895365964655238,
                1.889066224574389,
                -0.8106279995134983,
                0.2071690710158126,
                2.8898846299906342
            ]
        },
        {
            "positions": [
                0.10149464351080696,
                -1.1516463216576627,
                1.9524741353854416,
                -0.7841866947207798,
                0.140925573427501,
                3.0426727650562286
            ]
        },
        {
            "positions": [
                0.123864158281478,
                -1.1388537752829409,
                1.9698155157108563,
                -0.7773170048072146,
                0.13291077964102832,
                3.0841288425489206
            ]
        }
    ]
}