{
    "goal": {
        "global_pose": {
            "orientation": {
                "w": -0.00223480608172531,
                "x": 0.0024358444001904467,
                "y": 0.7094548369677653,
                "z": -0.704743149386269
            },
            "position": {
                "x": -0.37947507619857795,
                "y": -0.6371506643295288,
                "z": 0.19426114857196808
            }
        },
        "name": "move_to_magneteinheit_C"
    },
    "id": "BKPIECE_move_to_magneteinheit_C_69",
    "joint_names": [
        "shoulder_pan_joint",
        "shoulder_lift_joint",
        "elbow_joint",
        "wrist_1_joint",
        "wrist_2_joint",
        "wrist_3_joint"
    ],
    "metrics": {
        "cart_traj_len": 1.8528061259029844,
        "distance_elbow_joint": 1.0083715120360708,
        "distance_shoulder_lift_joint": 0.8433757928971277,
        "distance_shoulder_pan_joint": 1.6409749821808746,
        "distance_wrist_1_joint": 1.5306863915188735,
        "distance_wrist_2_joint": 0.8095031004654404,
        "distance_wrist_3_joint": 2.0077402358721197,
        "smoothness": 0.762145036818453,
        "time": 0.20146014,
        "traj_len": 2.8001164288240776,
        "weighted_distance": 3.7678006819229513
    },
    "planner": "BKPIECE",
    "start": {
        "state": {
            "elbow_joint": 1.9565354010623817,
            "shoulder_lift_joint": -1.4165861575791021,
            "shoulder_pan_joint": -1.6717766225146293,
            "wrist_1_joint": -0.5286633292919765,
            "wrist_2_joint": 1.472756589071564,
            "wrist_3_joint": -3.1238370188695823
        }
    },
    "waypoints": [
        {
            "positions": [
                -1.6717766225146293,
                -1.4165861575791021,
                1.9565354010623817,
                -0.5286633292919765,
                1.472756589071564,
                -3.1238370188695823
            ]
        },
        {
            "positions": [
                -1.4890398638515685,
                -1.4514886637873807,
                1.9375380043518118,
                -0.5204748553843925,
                1.4626315523357807,
                -3.0120447713873313
            ]
        },
        {
            "positions": [
                -1.4700353147206409,
                -1.4677119905414815,
                1.8609002256144715,
                -0.4354285614058644,
                1.4271421693952129,
                -2.8769804267509835
            ]
        },
        {
            "positions": [
                -1.451030765589713,
                -1.4839353172955823,
                1.7842624468771315,
                -0.35038226742733625,
                1.3916527864546449,
                -2.7419160821146362
            ]
        },
        {
            "positions": [
                -1.4320262164587854,
                -1.500158644049683,
                1.7076246681397913,
                -0.2653359734488081,
                1.356163403514077,
                -2.606851737478289
            ]
        },
        {
            "positions": [
                -1.4130216673278577,
                -1.5163819708037838,
                1.6309868894024513,
                -0.18028967947027996,
                1.3206740205735092,
                -2.471787392841941
            ]
        },
        {
            "positions": [
                -1.3940171181969299,
                -1.5326052975578845,
                1.554349110665111,
                -0.09524338549175182,
                1.2851846376329412,
                -2.3367230482055934
            ]
        },
        {
            "positions": [
                -1.3750125690660022,
                -1.5488286243119853,
                1.4777113319277708,
                -0.01019709151322366,
                1.2496952546923734,
                -2.201658703569246
            ]
        },
        {
            "positions": [
                -1.5990122985475124,
                -1.5772088003037275,
                1.523494725924669,
                0.009425608731312988,
                1.2453371998482508,
                -2.219798900890253
            ]
        },
        {
            "positions": [
                -1.8230120280290225,
                -1.6055889762954696,
                1.569278119921567,
                0.029048308975849636,
                1.2409791450041283,
                -2.2379390982112604
            ]
        },
        {
            "positions": [
                -2.0470117575105324,
                -1.6339691522872117,
                1.615061513918465,
                0.048671009220386266,
                1.2366210901600057,
                -2.2560792955322673
            ]
        },
        {
            "positions": [
                -2.271011486992043,
                -1.6623493282789539,
                1.660844907915363,
                0.06829370946492293,
                1.2322630353158832,
                -2.2742194928532746
            ]
        },
        {
            "positions": [
                -2.4950112164735527,
                -1.690729504270696,
                1.7066283019122612,
                0.08791640970945956,
                1.2279049804717606,
                -2.2923596901742815
            ]
        },
        {
            "positions": [
                -2.5077886897427817,
                -1.6221622780083065,
                1.731994432463638,
                -0.010591696411771837,
                1.2012366003091675,
                -2.408104844479546
            ]
        },
        {
            "positions": [
                -2.52056616301201,
                -1.553595051745917,
                1.7573605630150149,
                -0.10909980253300323,
                1.1745682201465741,
                -2.523849998784811
            ]
        },
        {
            "positions": [
                -2.5333436362812387,
                -1.4850278254835272,
                1.7827266935663917,
                -0.20760790865423462,
                1.147899839983981,
                -2.6395951530900756
            ]
        },
        {
            "positions": [
                -2.5461211095504677,
                -1.4164605992211377,
                1.8080928241177685,
                -0.306116014775466,
                1.121231459821388,
                -2.7553403073953406
            ]
        },
        {
            "positions": [
                -2.5588985828196966,
                -1.3478933729587481,
                1.8334589546691453,
                -0.4046241208966974,
                1.0945630796587946,
                -2.871085461700605
            ]
        },
        {
            "positions": [
                -2.571676056088925,
                -1.2793261466963584,
                1.8588250852205221,
                -0.5031322270179288,
                1.0678946994962015,
                -2.9868306160058697
            ]
        },
        {
            "positions": [
                -2.5844535293581536,
                -1.2107589204339688,
                1.884191215771899,
                -0.6016403331391602,
                1.0412263193336082,
                -3.1025757703111347
            ]
        },
        {
            "positions": [
                -2.5972310026273826,
                -1.1421916941715793,
                1.9095573463232758,
                -0.7001484392603916,
                1.014557939171015,
                -3.2183209246163993
            ]
        },
        {
            "positions": [
                -2.5362347550419493,
                -1.1525390122247878,
                1.9584080605762533,
                -0.7631693410341849,
                0.8389057138885694,
                -3.183871074854084
            ]
        },
        {
            "positions": [
                -2.4752385074565155,
                -1.1628863302779964,
                2.0072587748292308,
                -0.8261902428079783,
                0.6632534886061235,
                -3.149421225091769
            ]
        }
    ]
}