{
    "goal": {
        "global_pose": {
            "orientation": {
                "w": 0.005598929693374612,
                "x": 0.007748599140229565,
                "y": 0.7110244013736278,
                "z": -0.7031023480610252
            },
            "position": {
                "x": -0.8858502320852131,
                "y": -0.7141253447532654,
                "z": 0.3711530566215515
            }
        },
        "name": "move_to_auspresseinheit_C"
    },
    "id": "BKPIECE_move_to_auspresseinheit_C_93",
    "joint_names": [
        "shoulder_pan_joint",
        "shoulder_lift_joint",
        "elbow_joint",
        "wrist_1_joint",
        "wrist_2_joint",
        "wrist_3_joint"
    ],
    "metrics": {
        "cart_traj_len": 0.49322206018707504,
        "distance_elbow_joint": 0.9986846779329784,
        "distance_shoulder_lift_joint": 0.3238721722002861,
        "distance_shoulder_pan_joint": 0.2567827849693014,
        "distance_wrist_1_joint": 0.6795555350057862,
        "distance_wrist_2_joint": 1.301862990248721,
        "distance_wrist_3_joint": 0.05988645232864753,
        "smoothness": 8.074349282788172e-16,
        "time": 0.36165740199999996,
        "traj_len": 1.902799151956328,
        "weighted_distance": 2.3920359618110933
    },
    "planner": "BKPIECE",
    "start": {
        "state": {
            "elbow_joint": 1.7527959577737207,
            "shoulder_lift_joint": -0.9740617694225068,
            "shoulder_pan_joint": -2.967991417825858,
            "wrist_1_joint": -0.759517768980727,
            "wrist_2_joint": 1.7443932448377408,
            "wrist_3_joint": -3.0840537646736568
        }
    },
    "waypoints": [
        {
            "positions": [
                -2.967991417825858,
                -0.9740617694225068,
                1.7527959577737207,
                -0.759517768980727,
                1.7443932448377408,
                -3.0840537646736568
            ]
        },
        {
            "positions": [
                -2.942313139328928,
                -0.9416745522024782,
                1.6529274899804227,
                -0.6915622154801484,
                1.6142069458128687,
                -3.0900424099065216
            ]
        },
        {
            "positions": [
                -2.916634860831998,
                -0.9092873349824495,
                1.553059022187125,
                -0.6236066619795697,
                1.4840206467879966,
                -3.0960310551393864
            ]
        },
        {
            "positions": [
                -2.8909565823350674,
                -0.8769001177624209,
                1.453190554393827,
                -0.5556511084789911,
                1.3538343477631245,
                -3.102019700372251
            ]
        },
        {
            "positions": [
                -2.8652783038381373,
                -0.8445129005423924,
                1.3533220866005293,
                -0.4876955549784125,
                1.2236480487382524,
                -3.108008345605116
            ]
        },
        {
            "positions": [
                -2.8396000253412073,
                -0.8121256833223638,
                1.2534536188072314,
                -0.41974000147783386,
                1.0934617497133803,
                -3.1139969908379808
            ]
        },
        {
            "positions": [
                -2.813921746844277,
                -0.7797384661023351,
                1.1535851510139337,
                -0.3517844479772552,
                0.9632754506885082,
                -3.119985636070845
            ]
        },
        {
            "positions": [
                -2.788243468347347,
                -0.7473512488823065,
                1.0537166832206357,
                -0.28382889447667664,
                0.8330891516636362,
                -3.12597428130371
            ]
        },
        {
            "positions": [
                -2.7625651898504167,
                -0.7149640316622778,
                0.9538482154273379,
                -0.215873340976098,
                0.702902852638764,
                -3.1319629265365747
            ]
        },
        {
            "positions": [
                -2.7368869113534866,
                -0.6825768144422493,
                0.85397974763404,
                -0.1479177874755193,
                0.5727165536138918,
                -3.1379515717694395
            ]
        },
        {
            "positions": [
                -2.7112086328565566,
                -0.6501895972222207,
                0.7541112798407422,
                -0.07996223397494076,
                0.4425302545890197,
                -3.1439402170023043
            ]
        }
    ]
}