{
    "goal": {
        "global_pose": {
            "orientation": {
                "w": 0.7031023480610252,
                "x": -0.7110244013736278,
                "y": 0.0077485991402295624,
                "z": 0.005598929693374583
            },
            "position": {
                "x": -0.8841497679147869,
                "y": 0.44412534475326537,
                "z": 0.3711530566215515
            }
        },
        "name": "move_to_auspresseinheit_D"
    },
    "id": "BKPIECE_move_to_auspresseinheit_D_6",
    "joint_names": [
        "shoulder_pan_joint",
        "shoulder_lift_joint",
        "elbow_joint",
        "wrist_1_joint",
        "wrist_2_joint",
        "wrist_3_joint"
    ],
    "metrics": {
        "cart_traj_len": 0.3447477920164672,
        "distance_elbow_joint": 0.664151553493981,
        "distance_shoulder_lift_joint": 0.13539001060707134,
        "distance_shoulder_pan_joint": 0.1339082612119421,
        "distance_wrist_1_joint": 0.6088997581744691,
        "distance_wrist_2_joint": 1.4370715856112826,
        "distance_wrist_3_joint": 0.06935768604022341,
        "smoothness": 0.0,
        "time": 0.30522432,
        "traj_len": 1.7460752718995163,
        "weighted_distance": 2.2876768939264935
    },
    "planner": "BKPIECE",
    "start": {
        "state": {
            "elbow_joint": -1.8275523626775212,
            "shoulder_lift_joint": -2.126789852344167,
            "shoulder_pan_joint": -0.03513704404078235,
            "wrist_1_joint": -2.347782403156801,
            "wrist_2_joint": -1.6058999987535132,
            "wrist_3_joint": -3.0880379163319196
        }
    },
    "waypoints": [
        {
            "positions": [
                -0.03513704404078235,
                -2.126789852344167,
                -1.8275523626775212,
                -2.347782403156801,
                -1.6058999987535132,
                -3.0880379163319196
            ]
        },
        {
            "positions": [
                -0.05187557669227511,
                -2.143713603670051,
                -1.7445334184907735,
                -2.4238948729286096,
                -1.426266050552103,
                -3.0793682055768916
            ]
        },
        {
            "positions": [
                -0.06861410934376788,
                -2.160637354995935,
                -1.661514474304026,
                -2.5000073427004184,
                -1.2466321023506926,
                -3.0706984948218636
            ]
        },
        {
            "positions": [
                -0.08535264199526063,
                -2.1775611063218188,
                -1.5784955301172783,
                -2.5761198124722267,
                -1.0669981541492821,
                -3.0620287840668357
            ]
        },
        {
            "positions": [
                -0.10209117464675341,
                -2.1944848576477023,
                -1.4954765859305308,
                -2.6522322822440354,
                -0.8873642059478719,
                -3.0533590733118077
            ]
        },
        {
            "positions": [
                -0.11882970729824616,
                -2.2114086089735863,
                -1.412457641743783,
                -2.728344752015844,
                -0.7077302577464616,
                -3.04468936255678
            ]
        },
        {
            "positions": [
                -0.13556823994973893,
                -2.2283323602994702,
                -1.3294386975570354,
                -2.8044572217876524,
                -0.5280963095450513,
                -3.036019651801752
            ]
        },
        {
            "positions": [
                -0.15230677260123168,
                -2.245256111625354,
                -1.2464197533702879,
                -2.880569691559461,
                -0.34846236134364084,
                -3.027349941046724
            ]
        },
        {
            "positions": [
                -0.16904530525272446,
                -2.262179862951238,
                -1.1634008091835402,
                -2.95668216133127,
                -0.1688284131422307,
                -3.018680230291696
            ]
        }
    ]
}