{
    "goal": {
        "global_pose": {
            "orientation": {
                "w": 0.7047431468963623,
                "x": -0.7094548344612122,
                "y": 0.0024358443915843964,
                "z": -0.0022348060738295317
            },
            "position": {
                "x": 0.6094750761985779,
                "y": 0.3671506643295288,
                "z": 0.19426114857196808
            }
        },
        "name": "move_to_magneteinheit_A"
    },
    "id": "BKPIECE_move_to_magneteinheit_A_133",
    "joint_names": [
        "shoulder_pan_joint",
        "shoulder_lift_joint",
        "elbow_joint",
        "wrist_1_joint",
        "wrist_2_joint",
        "wrist_3_joint"
    ],
    "metrics": {
        "cart_traj_len": 3.185038364978139,
        "distance_elbow_joint": 3.913127580949914,
        "distance_shoulder_lift_joint": 1.239108140996866,
        "distance_shoulder_pan_joint": 2.9412883633622013,
        "distance_wrist_1_joint": 3.474954362028744,
        "distance_wrist_2_joint": 1.807396323904941,
        "distance_wrist_3_joint": 0.8954059087483425,
        "smoothness": 0.14777726369439112,
        "time": 0.221241652,
        "traj_len": 3.7777348609968655,
        "weighted_distance": 4.620004673528088
    },
    "planner": "BKPIECE",
    "start": {
        "state": {
            "elbow_joint": -1.9196185241190666,
            "shoulder_lift_joint": -1.2443396400964142,
            "shoulder_pan_joint": 2.6996025414629847,
            "wrist_1_joint": -1.5485510000780065,
            "wrist_2_joint": -1.5709468930060704,
            "wrist_3_joint": 0.4420197071253992
        }
    },
    "waypoints": [
        {
            "positions": [
                2.6996025414629847,
                -1.2443396400964142,
                -1.9196185241190666,
                -1.5485510000780065,
                -1.5709468930060704,
                0.4420197071253992
            ]
        },
        {
            "positions": [
                2.582973754620796,
                -1.2627143899862314,
                -1.808485124538499,
                -1.501999125920529,
                -1.5051232555353171,
                0.4166492553350246
            ]
        },
        {
            "positions": [
                2.4663449677786073,
                -1.2810891398760487,
                -1.697351724957931,
                -1.4554472517630517,
                -1.4392996180645639,
                0.39127880354465006
            ]
        },
        {
            "positions": [
                2.349716180936418,
                -1.299463889765866,
                -1.5862183253773634,
                -1.4088953776055742,
                -1.3734759805938106,
                0.3659083517542755
            ]
        },
        {
            "positions": [
                2.2330873940942295,
                -1.317838639655683,
                -1.4750849257967955,
                -1.3623435034480968,
                -1.3076523431230571,
                0.34053789996390094
            ]
        },
        {
            "positions": [
                2.116458607252041,
                -1.3362133895455002,
                -1.3639515262162278,
                -1.3157916292906193,
                -1.2418287056523039,
                0.3151674481735264
            ]
        },
        {
            "positions": [
                1.9998298204098521,
                -1.3545881394353174,
                -1.2528181266356602,
                -1.269239755133142,
                -1.1760050681815506,
                0.2897969963831518
            ]
        },
        {
            "positions": [
                1.8832010335676632,
                -1.3729628893251347,
                -1.1416847270550923,
                -1.2226878809756645,
                -1.1101814307107973,
                0.26442654459277726
            ]
        },
        {
            "positions": [
                1.7665722467254743,
                -1.391337639214952,
                -1.0305513274745246,
                -1.176136006818187,
                -1.044357793240044,
                0.23905609280240267
            ]
        },
        {
            "positions": [
                1.6499434598832856,
                -1.4097123891047691,
                -0.9194179278939567,
                -1.1295841326607097,
                -0.9785341557692907,
                0.2136856410120281
            ]
        },
        {
            "positions": [
                1.533314673041097,
                -1.4280871389945862,
                -0.808284528313389,
                -1.0830322585032321,
                -0.9127105182985374,
                0.18831518922165352
            ]
        },
        {
            "positions": [
                1.4166858861989078,
                -1.4464618888844036,
                -0.6971511287328211,
                -1.0364803843457548,
                -0.846886880827784,
                0.16294473743127896
            ]
        },
        {
            "positions": [
                1.3000570993567193,
                -1.4648366387742207,
                -0.5860177291522535,
                -0.9899285101882773,
                -0.7810632433570308,
                0.1375742856409044
            ]
        },
        {
            "positions": [
                1.1834283125145304,
                -1.483211388664038,
                -0.4748843295716856,
                -0.9433766360307998,
                -0.7152396058862774,
                0.11220383385052984
            ]
        },
        {
            "positions": [
                1.0667995256723417,
                -1.5015861385538551,
                -0.3637509299911179,
                -0.8968247618733225,
                -0.6494159684155242,
                0.08683338206015528
            ]
        },
        {
            "positions": [
                0.9501707388301528,
                -1.5199608884436724,
                -0.25261753041055,
                -0.850272887715845,
                -0.5835923309447708,
                0.06146293026978067
            ]
        },
        {
            "positions": [
                0.8335419519879641,
                -1.5383356383334896,
                -0.14148413082998257,
                -0.8037210135583676,
                -0.5177686934740175,
                0.036092478479406165
            ]
        },
        {
            "positions": [
                0.7169131651457752,
                -1.5567103882233067,
                -0.030350731249414675,
                -0.7571691394008901,
                -0.4519450560032643,
                0.01072202668903155
            ]
        },
        {
            "positions": [
                0.6002843783035865,
                -1.575085138113124,
                0.08078266833115322,
                -0.7106172652434127,
                -0.38612141853251103,
                -0.014648425101342955
            ]
        },
        {
            "positions": [
                0.48365559146139736,
                -1.5934598880029411,
                0.1919160679117211,
                -0.6640653910859352,
                -0.32029778106175755,
                -0.04001887689171757
            ]
        },
        {
            "positions": [
                0.3670268046192091,
                -1.6118346378927584,
                0.30304946749228856,
                -0.6175135169284579,
                -0.2544741435910045,
                -0.06538932868209213
            ]
        },
        {
            "positions": [
                0.2503980177770202,
                -1.6302093877825756,
                0.41418286707285656,
                -0.5709616427709804,
                -0.18865050612025105,
                -0.0907597804724667
            ]
        },
        {
            "positions": [
                0.21686763784709645,
                -1.5800462859301196,
                0.5252287708100065,
                -0.40315197284935106,
                -0.17020658841797756,
                -0.09822591043523361
            ]
        },
        {
            "positions": [
                0.1833372579171727,
                -1.5298831840776634,
                0.6362746745471564,
                -0.23534230292772174,
                -0.15176267071570404,
                -0.10569204039800052
            ]
        },
        {
            "positions": [
                0.14980687798724895,
                -1.4797200822252075,
                0.7473205782843063,
                -0.06753263300609247,
                -0.13331875301343055,
                -0.11315817036076742
            ]
        },
        {
            "positions": [
                0.1162764980573252,
                -1.4295569803727513,
                0.8583664820214563,
                0.10027703691553691,
                -0.11487483531115705,
                -0.12062430032353433
            ]
        },
        {
            "positions": [
                0.08274611812740146,
                -1.3793938785202953,
                0.9694123857586061,
                0.2680867068371663,
                -0.09643091760888356,
                -0.12809043028630124
            ]
        },
        {
            "positions": [
                0.04921573819747771,
                -1.3292307766678393,
                1.080458289495756,
                0.43589637675879545,
                -0.07798699990661005,
                -0.13555656024906815
            ]
        },
        {
            "positions": [
                0.01568535826755396,
                -1.279067674815383,
                1.1915041932329058,
                0.6037060466804248,
                -0.059543082204336545,
                -0.14302269021183506
            ]
        },
        {
            "positions": [
                -0.01784502166236981,
                -1.228904572962927,
                1.3025500969700559,
                0.7715157166020543,
                -0.04109916450206305,
                -0.15048882017460197
            ]
        },
        {
            "positions": [
                -0.026195242784368175,
                -1.176652864341328,
                1.4191580361494727,
                0.9275484094874162,
                -0.02143721945161221,
                -0.16633968292800405
            ]
        },
        {
            "positions": [
                -0.034545463906366536,
                -1.1244011557197289,
                1.5357659753288893,
                1.0835811023727784,
                -0.0017752744011613683,
                -0.18219054568140614
            ]
        },
        {
            "positions": [
                -0.0428956850283649,
                -1.0721494470981299,
                1.652373914508306,
                1.23961379525814,
                0.01788667064928947,
                -0.19804140843480822
            ]
        },
        {
            "positions": [
                -0.05124590615036327,
                -1.0198977384765306,
                1.7689818536877229,
                1.3956464881435022,
                0.037548615699740315,
                -0.2138922711882103
            ]
        },
        {
            "positions": [
                -0.059596127272361625,
                -0.9676460298549316,
                1.8855897928671395,
                1.5516791810288642,
                0.05721056075019115,
                -0.2297431339416124
            ]
        },
        {
            "positions": [
                -0.014073703615648324,
                -0.9199772710091666,
                1.9125696088580664,
                1.6453602262593328,
                0.012400843213021415,
                -0.1738323670212797
            ]
        },
        {
            "positions": [
                0.03144872004106498,
                -0.8723085121634016,
                1.9395494248489933,
                1.7390412714898014,
                -0.032408874324148323,
                -0.117921600100947
            ]
        },
        {
            "positions": [
                0.07697114369777827,
                -0.8246397533176364,
                1.9665292408399202,
                1.83272231672027,
                -0.07721859186131808,
                -0.062010833180614316
            ]
        },
        {
            "positions": [
                0.12249356735449159,
                -0.7769709944718713,
                1.9935090568308471,
                1.9264033619507386,
                -0.1220283093984878,
                -0.0061000662602816134
            ]
        }
    ]
}