{
    "goal": {
        "global_pose": {
            "orientation": {
                "w": 0.5084816262002911,
                "x": -0.4908360881923452,
                "y": 0.5182115481033761,
                "z": -0.48164630358495003
            },
            "position": {
                "x": 0.5540239810943604,
                "y": -0.46912469901144505,
                "z": 0.16403168439865112
            }
        },
        "name": "move_to_storage_B"
    },
    "id": "BKPIECE_move_to_storage_B_23",
    "joint_names": [
        "shoulder_pan_joint",
        "shoulder_lift_joint",
        "elbow_joint",
        "wrist_1_joint",
        "wrist_2_joint",
        "wrist_3_joint"
    ],
    "metrics": {
        "cart_traj_len": 0.9482138899525523,
        "distance_elbow_joint": 0.349790535011286,
        "distance_shoulder_lift_joint": 0.45831497267202903,
        "distance_shoulder_pan_joint": 0.7873473314630214,
        "distance_wrist_1_joint": 2.979993747229325,
        "distance_wrist_2_joint": 2.7069669915847525,
        "distance_wrist_3_joint": 3.1411748300434112,
        "smoothness": 0.06715056095187487,
        "time": 0.39739677399999995,
        "traj_len": 3.2285582553213787,
        "weighted_distance": 4.732113566568825
    },
    "planner": "BKPIECE",
    "start": {
        "state": {
            "elbow_joint": 1.664937868594044,
            "shoulder_lift_joint": -0.661644460510453,
            "shoulder_pan_joint": -0.9139846352900073,
            "wrist_1_joint": 2.146753192139373,
            "wrist_2_joint": -2.2341966793290973,
            "wrist_3_joint": 0.005466555786416001
        }
    },
    "waypoints": [
        {
            "positions": [
                -0.9139846352900073,
                -0.661644460510453,
                1.664937868594044,
                2.146753192139373,
                -2.2341966793290973,
                0.005466555786416001
            ]
        },
        {
            "positions": [
                -0.8535158109061944,
                -0.6928759618795826,
                1.720726568126381,
                2.1399682115508574,
                -2.075405277223552,
                0.06075444604604236
            ]
        },
        {
            "positions": [
                -0.7930469865223815,
                -0.7241074632487121,
                1.7765152676587181,
                2.133183230962342,
                -1.916613875118007,
                0.11604233630566872
            ]
        },
        {
            "positions": [
                -0.7325781621385686,
                -0.7553389646178416,
                1.832303967191055,
                2.126398250373826,
                -1.7578224730124619,
                0.17133022656529506
            ]
        },
        {
            "positions": [
                -0.6721093377547557,
                -0.7865704659869711,
                1.8880926667233922,
                2.1196132697853107,
                -1.5990310709069169,
                0.22661811682492145
            ]
        },
        {
            "positions": [
                -0.6116405133709428,
                -0.8178019673561007,
                1.9438813662557293,
                2.112828289196795,
                -1.4402396688013717,
                0.2819060070845478
            ]
        },
        {
            "positions": [
                -0.633686113804759,
                -0.8315363976209362,
                1.9471016861352566,
                1.9789160690019427,
                -1.353284669662416,
                0.41212125157296964
            ]
        },
        {
            "positions": [
                -0.6557317142385752,
                -0.8452708278857717,
                1.950322006014784,
                1.8450038488070906,
                -1.2663296705234601,
                0.5423364960613914
            ]
        },
        {
            "positions": [
                -0.6777773146723916,
                -0.8590052581506072,
                1.9535423258943112,
                1.7110916286122386,
                -1.1793746713845046,
                0.6725517405498131
            ]
        },
        {
            "positions": [
                -0.6998229151062078,
                -0.8727396884154427,
                1.9567626457738385,
                1.5771794084173862,
                -1.0924196722455488,
                0.8027669850382351
            ]
        },
        {
            "positions": [
                -0.721868515540024,
                -0.8864741186802783,
                1.9599829656533658,
                1.4432671882225343,
                -1.005464673106593,
                0.9329822295266568
            ]
        },
        {
            "positions": [
                -0.7439141159738402,
                -0.9002085489451137,
                1.9632032855328931,
                1.3093549680276824,
                -0.9185096739676374,
                1.0631974740150785
            ]
        },
        {
            "positions": [
                -0.7659597164076564,
                -0.9139429792099493,
                1.9664236054124205,
                1.1754427478328302,
                -0.8315546748286816,
                1.1934127185035004
            ]
        },
        {
            "positions": [
                -0.7880053168414727,
                -0.9276774094747848,
                1.9696439252919478,
                1.0415305276379778,
                -0.7445996756897258,
                1.3236279629919223
            ]
        },
        {
            "positions": [
                -0.8100509172752889,
                -0.9414118397396203,
                1.972864245171475,
                0.9076183074431257,
                -0.6576446765507701,
                1.453843207480344
            ]
        },
        {
            "positions": [
                -0.8320965177091051,
                -0.9551462700044558,
                1.9760845650510024,
                0.7737060872482737,
                -0.5706896774118144,
                1.5840584519687657
            ]
        },
        {
            "positions": [
                -0.8541421181429213,
                -0.9688807002692914,
                1.9793048849305297,
                0.6397938670534216,
                -0.48373467827285865,
                1.7142736964571876
            ]
        },
        {
            "positions": [
                -0.8761877185767375,
                -0.9826151305341269,
                1.9825252048100568,
                0.5058816468585696,
                -0.3967796791339031,
                1.8444889409456093
            ]
        },
        {
            "positions": [
                -0.8982333190105538,
                -0.9963495607989624,
                1.985745524689584,
                0.37196942666371724,
                -0.3098246799949471,
                1.9747041854340313
            ]
        },
        {
            "positions": [
                -0.9202789194443699,
                -1.010083991063798,
                1.9889658445691114,
                0.2380572064688653,
                -0.22286968085599157,
                2.104919429922453
            ]
        },
        {
            "positions": [
                -0.9423245198781862,
                -1.0238184213286334,
                1.9921861644486387,
                0.10414498627401336,
                -0.1359146817170358,
                2.2351346744108747
            ]
        },
        {
            "positions": [
                -0.9643701203120024,
                -1.0375528515934689,
                1.995406484328166,
                -0.029767233920839242,
                -0.04895968257808003,
                2.365349918899297
            ]
        },
        {
            "positions": [
                -0.9864157207458186,
                -1.0512872818583046,
                1.9986268042076933,
                -0.16367945411569096,
                0.037995316560875736,
                2.4955651633877185
            ]
        },
        {
            "positions": [
                -1.008461321179635,
                -1.06502171212314,
                2.0018471240872207,
                -0.29759167431054356,
                0.1249503156998315,
                2.62578040787614
            ]
        },
        {
            "positions": [
                -1.030506921613451,
                -1.0787561423879755,
                2.005067443966748,
                -0.4315038945053953,
                0.21190531483878727,
                2.755995652364562
            ]
        },
        {
            "positions": [
                -1.0525525220472673,
                -1.092490572652811,
                2.0082877638462753,
                -0.5654161147002474,
                0.2988603139777428,
                2.8862108968529836
            ]
        },
        {
            "positions": [
                -1.0745981224810834,
                -1.1062250029176466,
                2.011508083725803,
                -0.6993283348950996,
                0.3858153131166988,
                3.0164261413414057
            ]
        },
        {
            "positions": [
                -1.0966437229148998,
                -1.119959433182482,
                2.01472840360533,
                -0.8332405550899517,
                0.4727703122556544,
                3.1466413858298274
            ]
        }
    ]
}