{
    "goal": {
        "global_pose": {
            "orientation": {
                "w": 0.5084816217422485,
                "x": -0.49083608388900757,
                "y": 0.5182115435600281,
                "z": -0.4816462993621826
            },
            "position": {
                "x": 0.5540239810943604,
                "y": 0.030875300988554955,
                "z": 0.16403168439865112
            }
        },
        "name": "move_to_storage_A"
    },
    "id": "BKPIECE_move_to_storage_A_127",
    "joint_names": [
        "shoulder_pan_joint",
        "shoulder_lift_joint",
        "elbow_joint",
        "wrist_1_joint",
        "wrist_2_joint",
        "wrist_3_joint"
    ],
    "metrics": {
        "cart_traj_len": 0.35287621878271713,
        "distance_elbow_joint": 0.448175583765966,
        "distance_shoulder_lift_joint": 0.23446700967299638,
        "distance_shoulder_pan_joint": 0.4585503832251092,
        "distance_wrist_1_joint": 0.23704795340838503,
        "distance_wrist_2_joint": 1.1105658297843342,
        "distance_wrist_3_joint": 0.10200120797640455,
        "smoothness": 0.0,
        "time": 0.08142746,
        "traj_len": 1.609598697760779,
        "weighted_distance": 2.035294614295121
    },
    "planner": "BKPIECE",
    "start": {
        "state": {
            "elbow_joint": 1.971548259319323,
            "shoulder_lift_joint": -1.1394851275133948,
            "shoulder_pan_joint": 0.1228115487234821,
            "wrist_1_joint": -0.7804723859257726,
            "wrist_2_joint": 0.12958671773740124,
            "wrist_3_joint": -3.192489227718131
        }
    },
    "waypoints": [
        {
            "positions": [
                0.1228115487234821,
                -1.1394851275133948,
                1.971548259319323,
                -0.7804723859257726,
                0.12958671773740124,
                -3.192489227718131
            ]
        },
        {
            "positions": [
                0.05730435111989507,
                -1.172980414609537,
                2.035573342714461,
                -0.8143363792698276,
                0.2882389791351633,
                -3.177917626578645
            ]
        },
        {
            "positions": [
                -0.008202846483691961,
                -1.2064757017056795,
                2.099598426109599,
                -0.8482003726138826,
                0.4468912405329253,
                -3.1633460254391585
            ]
        },
        {
            "positions": [
                -0.07371004408727899,
                -1.2399709888018218,
                2.163623509504737,
                -0.8820643659579376,
                0.6055435019306873,
                -3.1487744242996722
            ]
        },
        {
            "positions": [
                -0.13921724169086602,
                -1.2734662758979642,
                2.227648592899875,
                -0.9159283593019927,
                0.7641957633284493,
                -3.1342028231601855
            ]
        },
        {
            "positions": [
                -0.20472443929445305,
                -1.3069615629941065,
                2.291673676295013,
                -0.9497923526460477,
                0.9228480247262114,
                -3.119631222020699
            ]
        },
        {
            "positions": [
                -0.2702316368980401,
                -1.340456850090249,
                2.355698759690151,
                -0.9836563459901027,
                1.0815002861239733,
                -3.105059620881213
            ]
        },
        {
            "positions": [
                -0.3357388345016271,
                -1.3739521371863912,
                2.419723843085289,
                -1.0175203393341576,
                1.2401525475217354,
                -3.0904880197417266
            ]
        }
    ]
}{
    "goal": {
        "global_pose": {
            "orientation": {
                "w": 0.5084816217422485,
                "x": -0.49083608388900757,
                "y": 0.5182115435600281,
                "z": -0.4816462993621826
            },
            "position": {
                "x": 0.5540239810943604,
                "y": 0.030875300988554955,
                "z": 0.16403168439865112
            }
        },
        "name": "move_to_storage_A"
    },
    "id": "BKPIECE_move_to_storage_A_127",
    "joint_names": [
        "shoulder_pan_joint",
        "shoulder_lift_joint",
        "elbow_joint",
        "wrist_1_joint",
        "wrist_2_joint",
        "wrist_3_joint"
    ],
    "metrics": {
        "cart_traj_len": 0.3535341809154441,
        "distance_elbow_joint": 0.45083366493064414,
        "distance_shoulder_lift_joint": 0.23490681279038195,
        "distance_shoulder_pan_joint": 0.4595350554540321,
        "distance_wrist_1_joint": 0.2485627294745112,
        "distance_wrist_2_joint": 1.1116401763621468,
        "distance_wrist_3_joint": 0.10580860767213052,
        "smoothness": 8.881784197001252e-16,
        "time": 0.225828122,
        "traj_len": 1.6159477239947606,
        "weighted_distance": 2.0452645716055335
    },
    "planner": "BKPIECE",
    "start": {
        "state": {
            "elbow_joint": 1.97154746011099,
            "shoulder_lift_joint": -1.13948474672311,
            "shoulder_pan_joint": 0.12281154466712228,
            "wrist_1_joint": -0.7804688027058302,
            "wrist_2_joint": 0.12958655903071145,
            "wrist_3_joint": 3.0906928834467795
        }
    },
    "waypoints": [
        {
            "positions": [
                0.12281154466712228,
                -1.13948474672311,
                1.97154746011099,
                -0.7804688027058302,
                0.12958655903071145,
                3.0906928834467795
            ]
        },
        {
            "positions": [
                0.057163679602260556,
                -1.1730428628360217,
                2.0359522693867964,
                -0.8159777640593318,
                0.2883922985110181,
                3.1058083988285126
            ]
        },
        {
            "positions": [
                -0.008484185462601171,
                -1.2066009789489334,
                2.1003570786626025,
                -0.8514867254128333,
                0.44719803799132485,
                3.120923914210245
            ]
        },
        {
            "positions": [
                -0.0741320505274629,
                -1.240159095061845,
                2.164761887938409,
                -0.886995686766335,
                0.6060037774716315,
                3.1360394295919782
            ]
        },
        {
            "positions": [
                -0.1397799155923246,
                -1.2737172111747568,
                2.229166697214215,
                -0.9225046481198366,
                0.7648095169519382,
                3.1511549449737113
            ]
        },
        {
            "positions": [
                -0.20542778065718637,
                -1.3072753272876685,
                2.2935715064900215,
                -0.9580136094733382,
                0.923615256432245,
                3.1662704603554443
            ]
        },
        {
            "positions": [
                -0.27107564572204806,
                -1.3408334434005802,
                2.3579763157658276,
                -0.9935225708268398,
                1.0824209959125515,
                3.181385975737177
            ]
        },
        {
            "positions": [
                -0.3367235107869098,
                -1.374391559513492,
                2.422381125041634,
                -1.0290315321803414,
                1.2412267353928583,
                3.19650149111891
            ]
        }
    ]
}{
    "goal": {
        "global_pose": {
            "orientation": {
                "w": 0.5084816217422485,
                "x": -0.49083608388900757,
                "y": 0.5182115435600281,
                "z": -0.4816462993621826
            },
            "position": {
                "x": 0.5540239810943604,
                "y": 0.030875300988554955,
                "z": 0.16403168439865112
            }
        },
        "name": "move_to_storage_A"
    },
    "id": "BKPIECE_move_to_storage_A_127",
    "joint_names": [
        "shoulder_pan_joint",
        "shoulder_lift_joint",
        "elbow_joint",
        "wrist_1_joint",
        "wrist_2_joint",
        "wrist_3_joint"
    ],
    "metrics": {
        "cart_traj_len": 0.35324307332488414,
        "distance_elbow_joint": 0.4522797074770768,
        "distance_shoulder_lift_joint": 0.23564369685751463,
        "distance_shoulder_pan_joint": 0.46325739517950865,
        "distance_wrist_1_joint": 0.2540201245168512,
        "distance_wrist_2_joint": 1.0938338694272527,
        "distance_wrist_3_joint": 0.09434866294288868,
        "smoothness": 8.881784197001252e-16,
        "time": 0.291750521,
        "traj_len": 1.6103985396171634,
        "weighted_distance": 2.0322240959675124
    },
    "planner": "BKPIECE",
    "start": {
        "state": {
            "elbow_joint": 1.9715472970024885,
            "shoulder_lift_joint": -1.1394870060712896,
            "shoulder_pan_joint": 0.12281152778156021,
            "wrist_1_joint": -0.780463741449964,
            "wrist_2_joint": 0.12958659822042276,
            "wrist_3_joint": 3.090690232415272
        }
    },
    "waypoints": [
        {
            "positions": [
                0.12281152778156021,
                -1.1394870060712896,
                1.9715472970024885,
                -0.780463741449964,
                0.12958659822042276,
                3.090690232415272
            ]
        },
        {
            "positions": [
                0.05663189989877328,
                -1.1731503913366488,
                2.036158683784928,
                -0.816752330666657,
                0.28584857956717313,
                3.1041686128356845
            ]
        },
        {
            "positions": [
                -0.009547727984013654,
                -1.2068137766020082,
                2.1007700705673678,
                -0.8530409198833501,
                0.44211056091392353,
                3.117646993256097
            ]
        },
        {
            "positions": [
                -0.0757273558668006,
                -1.2404771618673673,
                2.1653814573498074,
                -0.889329509100043,
                0.5983725422606739,
                3.1311253736765097
            ]
        },
        {
            "positions": [
                -0.14190698374958752,
                -1.2741405471327265,
                2.2299928441322465,
                -0.9256180983167361,
                0.7546345236074242,
                3.1446037540969227
            ]
        },
        {
            "positions": [
                -0.2080866116323745,
                -1.3078039323980857,
                2.294604230914686,
                -0.9619066875334291,
                0.9108965049541746,
                3.1580821345173353
            ]
        },
        {
            "positions": [
                -0.2742662395151614,
                -1.341467317663445,
                2.3592156176971257,
                -0.9981952767501221,
                1.0671584863009251,
                3.171560514937748
            ]
        },
        {
            "positions": [
                -0.3404458673979484,
                -1.3751307029288042,
                2.4238270044795653,
                -1.0344838659668152,
                1.2234204676476754,
                3.1850388953581605
            ]
        }
    ]
}