{
    "goal": {
        "global_pose": {
            "orientation": {
                "w": 0.5084816217422485,
                "x": -0.49083608388900757,
                "y": 0.5182115435600281,
                "z": -0.4816462993621826
            },
            "position": {
                "x": 0.5540239810943604,
                "y": 0.030875300988554955,
                "z": 0.16403168439865112
            }
        },
        "name": "move_to_storage_A"
    },
    "id": "BKPIECE_move_to_storage_A_141",
    "joint_names": [
        "shoulder_pan_joint",
        "shoulder_lift_joint",
        "elbow_joint",
        "wrist_1_joint",
        "wrist_2_joint",
        "wrist_3_joint"
    ],
    "metrics": {
        "cart_traj_len": 0.3533837647206369,
        "distance_elbow_joint": 0.4498410432184612,
        "distance_shoulder_lift_joint": 0.23721935377693226,
        "distance_shoulder_pan_joint": 0.4624257674169756,
        "distance_wrist_1_joint": 0.23510871895406538,
        "distance_wrist_2_joint": 1.099647260286876,
        "distance_wrist_3_joint": 0.09968792299850593,
        "smoothness": 0.0,
        "time": 0.13906232699999999,
        "traj_len": 1.6074607512010415,
        "weighted_distance": 2.0293008381927433
    },
    "planner": "BKPIECE",
    "start": {
        "state": {
            "elbow_joint": 1.971548259319323,
            "shoulder_lift_joint": -1.1394851275133948,
            "shoulder_pan_joint": 0.1228115487234821,
            "wrist_1_joint": -0.7804723859257726,
            "wrist_2_joint": 0.12958671773740124,
            "wrist_3_joint": -3.192489227718131
        }
    },
    "waypoints": [
        {
            "positions": [
                0.1228115487234821,
                -1.1394851275133948,
                1.971548259319323,
                -0.7804723859257726,
                0.12958671773740124,
                -3.192489227718131
            ]
        },
        {
            "positions": [
                0.056750724806771305,
                -1.1733736066243852,
                2.035811265493389,
                -0.8140593457763534,
                0.28667918349266924,
                -3.1782480958612016
            ]
        },
        {
            "positions": [
                -0.00931009910993949,
                -1.2072620857353755,
                2.100074271667455,
                -0.8476463056269341,
                0.4437716492479372,
                -3.1640069640042725
            ]
        },
        {
            "positions": [
                -0.0753709230266503,
                -1.2411505648463659,
                2.1643372778415206,
                -0.8812332654775149,
                0.6008641150032052,
                -3.149765832147343
            ]
        },
        {
            "positions": [
                -0.14143174694336108,
                -1.275039043957356,
                2.2286002840155863,
                -0.9148202253280957,
                0.7579565807584733,
                -3.1355247002904134
            ]
        },
        {
            "positions": [
                -0.2074925708600719,
                -1.3089275230683464,
                2.2928632901896524,
                -0.9484071851786764,
                0.9150490465137413,
                -3.121283568433484
            ]
        },
        {
            "positions": [
                -0.2735533947767827,
                -1.3428160021793367,
                2.3571262963637185,
                -0.9819941450292572,
                1.0721415122690092,
                -3.1070424365765548
            ]
        },
        {
            "positions": [
                -0.3396142186934935,
                -1.376704481290327,
                2.421389302537784,
                -1.015581104879838,
                1.2292339780242774,
                -3.092801304719625
            ]
        }
    ]
}{
    "goal": {
        "global_pose": {
            "orientation": {
                "w": 0.5084816217422485,
                "x": -0.49083608388900757,
                "y": 0.5182115435600281,
                "z": -0.4816462993621826
            },
            "position": {
                "x": 0.5540239810943604,
                "y": 0.030875300988554955,
                "z": 0.16403168439865112
            }
        },
        "name": "move_to_storage_A"
    },
    "id": "BKPIECE_move_to_storage_A_141",
    "joint_names": [
        "shoulder_pan_joint",
        "shoulder_lift_joint",
        "elbow_joint",
        "wrist_1_joint",
        "wrist_2_joint",
        "wrist_3_joint"
    ],
    "metrics": {
        "cart_traj_len": 0.3536114281869696,
        "distance_elbow_joint": 0.4493576749350594,
        "distance_shoulder_lift_joint": 0.23504608958779682,
        "distance_shoulder_pan_joint": 0.4639038371664216,
        "distance_wrist_1_joint": 0.23676799681107918,
        "distance_wrist_2_joint": 1.0938179129539956,
        "distance_wrist_3_joint": 0.0942875361066382,
        "smoothness": 0.0,
        "time": 0.17806838,
        "traj_len": 1.6041137888444792,
        "weighted_distance": 2.02295378828567
    },
    "planner": "BKPIECE",
    "start": {
        "state": {
            "elbow_joint": 1.97154746011099,
            "shoulder_lift_joint": -1.13948474672311,
            "shoulder_pan_joint": 0.12281154466712228,
            "wrist_1_joint": -0.7804688027058302,
            "wrist_2_joint": 0.12958655903071145,
            "wrist_3_joint": 3.0906928834467795
        }
    },
    "waypoints": [
        {
            "positions": [
                0.12281154466712228,
                -1.13948474672311,
                1.97154746011099,
                -0.7804688027058302,
                0.12958655903071145,
                3.0906928834467795
            ]
        },
        {
            "positions": [
                0.05653956792906206,
                -1.1730627595213667,
                2.0357414136731413,
                -0.8142928022502701,
                0.28584626088128223,
                3.1041625314620136
            ]
        },
        {
            "positions": [
                -0.009732408808998158,
                -1.2066407723196233,
                2.0999353672352927,
                -0.8481168017947099,
                0.442105962731853,
                3.1176321794772477
            ]
        },
        {
            "positions": [
                -0.07600438554705839,
                -1.24021878511788,
                2.164129320797444,
                -0.8819408013391499,
                0.5983656645824238,
                3.131101827492482
            ]
        },
        {
            "positions": [
                -0.14227636228511858,
                -1.2737967979161366,
                2.228323274359595,
                -0.9157648008835897,
                0.7546253664329946,
                3.1445714755077154
            ]
        },
        {
            "positions": [
                -0.20854833902317882,
                -1.3073748107143934,
                2.2925172279217465,
                -0.9495888004280296,
                0.9108850682835654,
                3.1580411235229495
            ]
        },
        {
            "positions": [
                -0.27482031576123905,
                -1.34095282351265,
                2.356711181483898,
                -0.9834127999724694,
                1.0671447701341361,
                3.1715107715381836
            ]
        },
        {
            "positions": [
                -0.3410922924992993,
                -1.3745308363109068,
                2.4209051350460493,
                -1.0172367995169094,
                1.223404471984707,
                3.1849804195534177
            ]
        }
    ]
}{
    "goal": {
        "global_pose": {
            "orientation": {
                "w": 0.5084816217422485,
                "x": -0.49083608388900757,
                "y": 0.5182115435600281,
                "z": -0.4816462993621826
            },
            "position": {
                "x": 0.5540239810943604,
                "y": 0.030875300988554955,
                "z": 0.16403168439865112
            }
        },
        "name": "move_to_storage_A"
    },
    "id": "BKPIECE_move_to_storage_A_141",
    "joint_names": [
        "shoulder_pan_joint",
        "shoulder_lift_joint",
        "elbow_joint",
        "wrist_1_joint",
        "wrist_2_joint",
        "wrist_3_joint"
    ],
    "metrics": {
        "cart_traj_len": 0.3530500549419558,
        "distance_elbow_joint": 0.4481631682368099,
        "distance_shoulder_lift_joint": 0.23458556519366303,
        "distance_shoulder_pan_joint": 0.4613467371759696,
        "distance_wrist_1_joint": 0.23915491863050753,
        "distance_wrist_2_joint": 1.0996163954843667,
        "distance_wrist_3_joint": 0.09435910055633823,
        "smoothness": 2.2204460668324854e-16,
        "time": 0.213739457,
        "traj_len": 1.605374063973146,
        "weighted_distance": 2.0260097236946337
    },
    "planner": "BKPIECE",
    "start": {
        "state": {
            "elbow_joint": 1.9715472970024885,
            "shoulder_lift_joint": -1.1394870060712896,
            "shoulder_pan_joint": 0.12281152778156021,
            "wrist_1_joint": -0.780463741449964,
            "wrist_2_joint": 0.12958659822042276,
            "wrist_3_joint": 3.090690232415272
        }
    },
    "waypoints": [
        {
            "positions": [
                0.12281152778156021,
                -1.1394870060712896,
                1.9715472970024885,
                -0.780463741449964,
                0.12958659822042276,
                3.090690232415272
            ]
        },
        {
            "positions": [
                0.056904851042135995,
                -1.1729992296703844,
                2.0355706067506043,
                -0.8146287298257507,
                0.2866746547181894,
                3.10417010392332
            ]
        },
        {
            "positions": [
                -0.009001825697288218,
                -1.206511453269479,
                2.09959391649872,
                -0.8487937182015376,
                0.4437627112159561,
                3.1176499754313687
            ]
        },
        {
            "positions": [
                -0.07490850243671243,
                -1.2400236768685737,
                2.163617226246836,
                -0.8829587065773243,
                0.6008507677137228,
                3.131129846939417
            ]
        },
        {
            "positions": [
                -0.14081517917613665,
                -1.2735359004676685,
                2.227640535994951,
                -0.9171236949531112,
                0.7579388242114894,
                3.144609718447465
            ]
        },
        {
            "positions": [
                -0.2067218559155609,
                -1.3070481240667633,
                2.291663845743067,
                -0.9512886833288979,
                0.9150268807092561,
                3.1580895899555133
            ]
        },
        {
            "positions": [
                -0.2726285326549851,
                -1.3405603476658579,
                2.3556871554911827,
                -0.9854536717046847,
                1.0721149372070229,
                3.171569461463562
            ]
        },
        {
            "positions": [
                -0.33853520939440934,
                -1.3740725712649526,
                2.4197104652392984,
                -1.0196186600804715,
                1.2292029937047895,
                3.18504933297161
            ]
        }
    ]
}