{
    "goal": {
        "global_pose": {
            "orientation": {
                "w": 0.005598929693374612,
                "x": 0.007748599140229565,
                "y": 0.7110244013736278,
                "z": -0.7031023480610252
            },
            "position": {
                "x": 0.1141497679147869,
                "y": -0.7141253447532654,
                "z": 0.3711530566215515
            }
        },
        "name": "move_to_auspresseinheit_B"
    },
    "id": "BKPIECE_move_to_auspresseinheit_B_26",
    "joint_names": [
        "shoulder_pan_joint",
        "shoulder_lift_joint",
        "elbow_joint",
        "wrist_1_joint",
        "wrist_2_joint",
        "wrist_3_joint"
    ],
    "metrics": {
        "cart_traj_len": 0.5653775723729195,
        "distance_elbow_joint": 0.06540504432187011,
        "distance_shoulder_lift_joint": 0.2943485881891508,
        "distance_shoulder_pan_joint": 0.5780963528317578,
        "distance_wrist_1_joint": 0.3350336599520839,
        "distance_wrist_2_joint": 0.9904671013109518,
        "distance_wrist_3_joint": 0.0002929540868374936,
        "smoothness": 5.075305255429287e-16,
        "time": 0.146376104,
        "traj_len": 1.5045410265900534,
        "weighted_distance": 1.8946583782121154
    },
    "planner": "BKPIECE",
    "start": {
        "state": {
            "elbow_joint": 2.0193083361928714,
            "shoulder_lift_joint": -1.1220246554650708,
            "shoulder_pan_joint": -1.0952077554168747,
            "wrist_1_joint": -0.8559753972642168,
            "wrist_2_joint": 0.4759566250798843,
            "wrist_3_joint": -3.1240929996934557
        }
    },
    "waypoints": [
        {
            "positions": [
                -1.0952077554168747,
                -1.1220246554650708,
                2.0193083361928714,
                -0.8559753972642168,
                0.4759566250798843,
                -3.1240929996934557
            ]
        },
        {
            "positions": [
                -1.191557147555501,
                -1.171082753496596,
                2.00840749547256,
                -0.8001364539388695,
                0.6410344752983763,
                -3.124044174012316
            ]
        },
        {
            "positions": [
                -1.2879065396941272,
                -1.2201408515281211,
                1.997506654752248,
                -0.7442975106135221,
                0.8061123255168683,
                -3.1239953483311766
            ]
        },
        {
            "positions": [
                -1.3842559318327536,
                -1.2691989495596463,
                1.9866058140319365,
                -0.6884585672881749,
                0.9711901757353603,
                -3.123946522650037
            ]
        },
        {
            "positions": [
                -1.4806053239713797,
                -1.3182570475911712,
                1.9757049733116248,
                -0.6326196239628276,
                1.1362680259538522,
                -3.123897696968897
            ]
        },
        {
            "positions": [
                -1.5769547161100061,
                -1.3673151456226964,
                1.964804132591313,
                -0.5767806806374802,
                1.3013458761723442,
                -3.1238488712877577
            ]
        },
        {
            "positions": [
                -1.6733041082486324,
                -1.4163732436542216,
                1.9539032918710013,
                -0.5209417373121329,
                1.4664237263908362,
                -3.123800045606618
            ]
        }
    ]
}