{
    "goal": {
        "global_pose": {
            "orientation": {
                "w": -0.00223480608172531,
                "x": 0.0024358444001904467,
                "y": 0.7094548369677653,
                "z": -0.704743149386269
            },
            "position": {
                "x": -0.37947507619857795,
                "y": -0.6371506643295288,
                "z": 0.19426114857196808
            }
        },
        "name": "move_to_magneteinheit_C"
    },
    "id": "BKPIECE_move_to_magneteinheit_C_142",
    "joint_names": [
        "shoulder_pan_joint",
        "shoulder_lift_joint",
        "elbow_joint",
        "wrist_1_joint",
        "wrist_2_joint",
        "wrist_3_joint"
    ],
    "metrics": {
        "cart_traj_len": 0.5397669341796154,
        "distance_elbow_joint": 0.12579994101699477,
        "distance_shoulder_lift_joint": 0.25331565843832893,
        "distance_shoulder_pan_joint": 0.8020550799234731,
        "distance_wrist_1_joint": 0.29706822444857395,
        "distance_wrist_2_joint": 0.996095817325312,
        "distance_wrist_3_joint": 0.08168783648393685,
        "smoothness": 0.7951009914034262,
        "time": 0.470082574,
        "traj_len": 1.5987565660964835,
        "weighted_distance": 2.003138106167016
    },
    "planner": "BKPIECE",
    "start": {
        "state": {
            "elbow_joint": 1.9565354010623817,
            "shoulder_lift_joint": -1.4165861575791021,
            "shoulder_pan_joint": -1.6717766225146293,
            "wrist_1_joint": -0.5286633292919765,
            "wrist_2_joint": 1.472756589071564,
            "wrist_3_joint": -3.1238370188695823
        }
    },
    "waypoints": [
        {
            "positions": [
                -1.6717766225146293,
                -1.4165861575791021,
                1.9565354010623817,
                -0.5286633292919765,
                1.472756589071564,
                -3.1238370188695823
            ]
        },
        {
            "positions": [
                -1.777066646809398,
                -1.3888161876606337,
                1.9742118564760722,
                -0.5503876022511253,
                1.2928623687291854,
                -3.1186257721132855
            ]
        },
        {
            "positions": [
                -1.8823566711041668,
                -1.3610462177421654,
                1.9918883118897628,
                -0.572111875210274,
                1.1129681483868068,
                -3.1134145253569887
            ]
        },
        {
            "positions": [
                -1.9876466953989356,
                -1.3332762478236972,
                2.0095647673034533,
                -0.5938361481694228,
                0.9330739280444281,
                -3.1082032786006915
            ]
        },
        {
            "positions": [
                -2.0929367196937045,
                -1.3055062779052289,
                2.027241222717144,
                -0.6155604211285715,
                0.7531797077020495,
                -3.1029920318443946
            ]
        },
        {
            "positions": [
                -2.198226743988473,
                -1.2777363079867605,
                2.0449176781308345,
                -0.6372846940877203,
                0.5732854873596709,
                -3.097780785088098
            ]
        },
        {
            "positions": [
                -2.3360292232132878,
                -1.2205034035637667,
                2.0262088461565635,
                -0.7315081239141353,
                0.6215978451663804,
                -3.125596586439324
            ]
        },
        {
            "positions": [
                -2.4738317024381025,
                -1.1632704991407732,
                2.0075000141822925,
                -0.8257315537405504,
                0.6699102029730899,
                -3.15341238779055
            ]
        }
    ]
}