{
    "goal": {
        "global_pose": {
            "orientation": {
                "w": 0.005598929693374612,
                "x": 0.007748599140229565,
                "y": 0.7110244013736278,
                "z": -0.7031023480610252
            },
            "position": {
                "x": -0.8858502320852131,
                "y": -0.7141253447532654,
                "z": 0.3711530566215515
            }
        },
        "name": "move_to_auspresseinheit_C"
    },
    "id": "BKPIECE_move_to_auspresseinheit_C_83",
    "joint_names": [
        "shoulder_pan_joint",
        "shoulder_lift_joint",
        "elbow_joint",
        "wrist_1_joint",
        "wrist_2_joint",
        "wrist_3_joint"
    ],
    "metrics": {
        "cart_traj_len": 0.49205506177115876,
        "distance_elbow_joint": 0.9909782926575711,
        "distance_shoulder_lift_joint": 0.3212373277201379,
        "distance_shoulder_pan_joint": 0.25549084166243574,
        "distance_wrist_1_joint": 0.6543925596463531,
        "distance_wrist_2_joint": 1.316221669955437,
        "distance_wrist_3_joint": 0.04788368517857222,
        "smoothness": 0.0,
        "time": 0.214820818,
        "traj_len": 1.8937276406126904,
        "weighted_distance": 2.377516766876617
    },
    "planner": "BKPIECE",
    "start": {
        "state": {
            "elbow_joint": 1.7527959577737207,
            "shoulder_lift_joint": -0.9740617694225068,
            "shoulder_pan_joint": -2.967991417825858,
            "wrist_1_joint": -0.759517768980727,
            "wrist_2_joint": 1.7443932448377408,
            "wrist_3_joint": -3.0840537646736568
        }
    },
    "waypoints": [
        {
            "positions": [
                -2.967991417825858,
                -0.9740617694225068,
                1.7527959577737207,
                -0.759517768980727,
                1.7443932448377408,
                -3.0840537646736568
            ]
        },
        {
            "positions": [
                -2.9424423336596144,
                -0.941938036650493,
                1.6536981285079635,
                -0.6940785130160917,
                1.612771077842197,
                -3.088842133191514
            ]
        },
        {
            "positions": [
                -2.916893249493371,
                -0.9098143038784792,
                1.5546002992422063,
                -0.6286392570514563,
                1.4811489108466533,
                -3.093630501709371
            ]
        },
        {
            "positions": [
                -2.8913441653271272,
                -0.8776905711064654,
                1.4555024699764494,
                -0.563200001086821,
                1.3495267438511098,
                -3.0984188702272286
            ]
        },
        {
            "positions": [
                -2.8657950811608837,
                -0.8455668383344516,
                1.3564046407106922,
                -0.4977607451221857,
                1.2179045768555659,
                -3.1032072387450857
            ]
        },
        {
            "positions": [
                -2.84024599699464,
                -0.8134431055624378,
                1.257306811444935,
                -0.4323214891575504,
                1.0862824098600223,
                -3.107995607262943
            ]
        },
        {
            "positions": [
                -2.8146969128283965,
                -0.7813193727904241,
                1.1582089821791781,
                -0.36688223319291513,
                0.9546602428644787,
                -3.1127839757808
            ]
        },
        {
            "positions": [
                -2.789147828662153,
                -0.7491956400184102,
                1.059111152913421,
                -0.30144297722827984,
                0.823038075868935,
                -3.117572344298657
            ]
        },
        {
            "positions": [
                -2.7635987444959094,
                -0.7170719072463965,
                0.9600133236476638,
                -0.23600372126364444,
                0.6914159088733911,
                -3.1223607128165147
            ]
        },
        {
            "positions": [
                -2.738049660329666,
                -0.6849481744743826,
                0.8609154943819066,
                -0.17056446529900915,
                0.5597937418778476,
                -3.127149081334372
            ]
        },
        {
            "positions": [
                -2.712500576163422,
                -0.6528244417023689,
                0.7618176651161496,
                -0.10512520933437391,
                0.42817157488230395,
                -3.131937449852229
            ]
        }
    ]
}