{
    "goal": {
        "global_pose": {
            "orientation": {
                "w": -0.00223480608172531,
                "x": 0.0024358444001904467,
                "y": 0.7094548369677653,
                "z": -0.704743149386269
            },
            "position": {
                "x": -0.37947507619857795,
                "y": -0.6371506643295288,
                "z": 0.19426114857196808
            }
        },
        "name": "move_to_magneteinheit_C"
    },
    "id": "BKPIECE_move_to_magneteinheit_C_129",
    "joint_names": [
        "shoulder_pan_joint",
        "shoulder_lift_joint",
        "elbow_joint",
        "wrist_1_joint",
        "wrist_2_joint",
        "wrist_3_joint"
    ],
    "metrics": {
        "cart_traj_len": 3.2607722265481724,
        "distance_elbow_joint": 1.8053547613609346,
        "distance_shoulder_lift_joint": 1.0747416205316664,
        "distance_shoulder_pan_joint": 3.091913640698296,
        "distance_wrist_1_joint": 0.5673645974510156,
        "distance_wrist_2_joint": 1.7182774847750242,
        "distance_wrist_3_joint": 3.184387768998086,
        "smoothness": 1.0492419427937438,
        "time": 0.24704875399999998,
        "traj_len": 3.382608442284597,
        "weighted_distance": 4.482907259138564
    },
    "planner": "BKPIECE",
    "start": {
        "state": {
            "elbow_joint": 1.9565354010623817,
            "shoulder_lift_joint": -1.4165861575791021,
            "shoulder_pan_joint": -1.6717766225146293,
            "wrist_1_joint": -0.5286633292919765,
            "wrist_2_joint": 1.472756589071564,
            "wrist_3_joint": -3.1238370188695823
        }
    },
    "waypoints": [
        {
            "positions": [
                -1.6717766225146293,
                -1.4165861575791021,
                1.9565354010623817,
                -0.5286633292919765,
                1.472756589071564,
                -3.1238370188695823
            ]
        },
        {
            "positions": [
                -1.6451560626335255,
                -1.4342202487323679,
                1.964100705584154,
                -0.5248549922538247,
                1.4428583032810773,
                -3.0363829187085916
            ]
        },
        {
            "positions": [
                -1.5652232506163657,
                -1.462328314952124,
                1.9016501229425276,
                -0.5458804544474036,
                1.3551840838829325,
                -2.9292792181001266
            ]
        },
        {
            "positions": [
                -1.485290438599206,
                -1.4904363811718804,
                1.8391995403009012,
                -0.5669059166409826,
                1.2675098644847875,
                -2.822175517491661
            ]
        },
        {
            "positions": [
                -1.4053576265820462,
                -1.5185444473916365,
                1.7767489576592748,
                -0.5879313788345616,
                1.1798356450866427,
                -2.715071816883196
            ]
        },
        {
            "positions": [
                -1.3254248145648864,
                -1.5466525136113927,
                1.7142983750176484,
                -0.6089568410281405,
                1.0921614256884977,
                -2.607968116274731
            ]
        },
        {
            "positions": [
                -1.2454920025477265,
                -1.5747605798311488,
                1.651847792376022,
                -0.6299823032217194,
                1.004487206290353,
                -2.500864415666266
            ]
        },
        {
            "positions": [
                -1.165559190530567,
                -1.6028686460509052,
                1.5893972097343956,
                -0.6510077654152984,
                0.916812986892208,
                -2.393760715057801
            ]
        },
        {
            "positions": [
                -1.085626378513407,
                -1.6309767122706613,
                1.5269466270927692,
                -0.6720332276088774,
                0.8291387674940631,
                -2.2866570144493354
            ]
        },
        {
            "positions": [
                -1.0056935664962472,
                -1.6590847784904175,
                1.4644960444511428,
                -0.6930586898024563,
                0.7414645480959182,
                -2.1795533138408705
            ]
        },
        {
            "positions": [
                -0.9257607544790875,
                -1.6871928447101738,
                1.4020454618095164,
                -0.7140841519960353,
                0.6537903286977733,
                -2.072449613232405
            ]
        },
        {
            "positions": [
                -0.8458279424619277,
                -1.71530091092993,
                1.33959487916789,
                -0.7351096141896142,
                0.5661161092996284,
                -1.9653459126239399
            ]
        },
        {
            "positions": [
                -0.7658951304447679,
                -1.7434089771496861,
                1.2771442965262636,
                -0.7561350763831931,
                0.4784418899014836,
                -1.858242212015475
            ]
        },
        {
            "positions": [
                -0.6859623184276081,
                -1.7715170433694423,
                1.2146937138846372,
                -0.7771605385767721,
                0.3907676705033387,
                -1.7511385114070097
            ]
        },
        {
            "positions": [
                -0.6060295064104484,
                -1.7996251095891986,
                1.1522431312430108,
                -0.7981860007703511,
                0.3030934511051937,
                -1.6440348107985445
            ]
        },
        {
            "positions": [
                -0.5260966943932884,
                -1.8277331758089548,
                1.0897925486013844,
                -0.81921146296393,
                0.21541923170704885,
                -1.5369311101900793
            ]
        },
        {
            "positions": [
                -0.6412463869172396,
                -1.7887769718665063,
                1.172956575635675,
                -0.8328517153163281,
                0.25438601119807663,
                -1.636551501215369
            ]
        },
        {
            "positions": [
                -0.7563960794411908,
                -1.7498207679240578,
                1.2561206026699658,
                -0.846491967668726,
                0.29335279068910436,
                -1.7361718922406588
            ]
        },
        {
            "positions": [
                -0.8715457719651418,
                -1.7108645639816094,
                1.3392846297042564,
                -0.8601322200211241,
                0.33231957018013214,
                -1.8357922832659486
            ]
        },
        {
            "positions": [
                -0.9866954644890931,
                -1.6719083600391609,
                1.422448656738547,
                -0.8737724723735222,
                0.3712863496711599,
                -1.9354126742912385
            ]
        },
        {
            "positions": [
                -1.1018451570130443,
                -1.6329521560967124,
                1.5056126837728376,
                -0.8874127247259203,
                0.4102531291621877,
                -2.035033065316528
            ]
        },
        {
            "positions": [
                -1.2169948495369953,
                -1.593995952154264,
                1.5887767108071285,
                -0.9010529770783182,
                0.4492199086532154,
                -2.134653456341818
            ]
        },
        {
            "positions": [
                -1.3321445420609466,
                -1.5550397482118155,
                1.671940737841419,
                -0.9146932294307163,
                0.4881866881442432,
                -2.234273847367108
            ]
        },
        {
            "positions": [
                -1.4472942345848976,
                -1.5160835442693668,
                1.7551047648757097,
                -0.9283334817831144,
                0.5271534676352709,
                -2.3338942383923977
            ]
        },
        {
            "positions": [
                -1.5624439271088488,
                -1.4771273403269183,
                1.8382687919100005,
                -0.9419737341355124,
                0.5661202471262987,
                -2.4335146294176875
            ]
        },
        {
            "positions": [
                -1.6775936196328,
                -1.4381711363844698,
                1.9214328189442909,
                -0.9556139864879104,
                0.6050870266173265,
                -2.5331350204429772
            ]
        },
        {
            "positions": [
                -1.7927433121567513,
                -1.3992149324420213,
                2.0045968459785817,
                -0.9692542388403085,
                0.6440538061083543,
                -2.632755411468267
            ]
        },
        {
            "positions": [
                -1.9626400858601243,
                -1.3404458427083012,
                2.0067660965983807,
                -0.9394649853837135,
                0.6521301943606552,
                -2.758169801228366
            ]
        },
        {
            "positions": [
                -2.1325368595634977,
                -1.2816767529745812,
                2.0089353472181797,
                -0.9096757319271185,
                0.6602065826129561,
                -2.883584190988465
            ]
        },
        {
            "positions": [
                -2.3024336332668707,
                -1.222907663240861,
                2.0111045978379782,
                -0.8798864784705234,
                0.6682829708652569,
                -3.0089985807485635
            ]
        },
        {
            "positions": [
                -2.4723304069702436,
                -1.164138573507141,
                2.0132738484577772,
                -0.8500972250139284,
                0.6763593591175578,
                -3.1344129705086625
            ]
        }
    ]
}