{
    "goal": {
        "global_pose": {
            "orientation": {
                "w": -0.4816463035849501,
                "x": 0.5182115481033762,
                "y": 0.4908360881923453,
                "z": -0.5084816262002911
            },
            "position": {
                "x": -0.8240239810943604,
                "y": 0.19912469901144506,
                "z": 0.16403168439865112
            }
        },
        "name": "move_to_storage_D"
    },
    "id": "BKPIECE_move_to_storage_D_64",
    "joint_names": [
        "shoulder_pan_joint",
        "shoulder_lift_joint",
        "elbow_joint",
        "wrist_1_joint",
        "wrist_2_joint",
        "wrist_3_joint"
    ],
    "metrics": {
        "cart_traj_len": 3.853713790824801,
        "distance_elbow_joint": 4.2117831178153615,
        "distance_shoulder_lift_joint": 1.263521911147025,
        "distance_shoulder_pan_joint": 2.814076931680485,
        "distance_wrist_1_joint": 2.5387608740385343,
        "distance_wrist_2_joint": 0.8947106475535728,
        "distance_wrist_3_joint": 3.131720398772447,
        "smoothness": 0.061842844434113343,
        "time": 0.115319418,
        "traj_len": 3.854163188165159,
        "weighted_distance": 4.954945630392369
    },
    "planner": "BKPIECE",
    "start": {
        "state": {
            "elbow_joint": -2.384821988534728,
            "shoulder_lift_joint": -2.2788054721415256,
            "shoulder_pan_joint": -0.1854694642142757,
            "wrist_1_joint": 1.4845938289331202,
            "wrist_2_joint": 0.17898776772866878,
            "wrist_3_joint": 0.037105688729662994
        }
    },
    "waypoints": [
        {
            "positions": [
                -0.1854694642142757,
                -2.2788054721415256,
                -2.384821988534728,
                1.4845938289331202,
                0.17898776772866878,
                0.037105688729662994
            ]
        },
        {
            "positions": [
                -0.10387630245014288,
                -2.2499815600863755,
                -2.257758261329389,
                1.411737840528496,
                0.20594707705405155,
                -0.02178158179129208
            ]
        },
        {
            "positions": [
                -0.02228314068601006,
                -2.2211576480312254,
                -2.1306945341240504,
                1.3388818521238717,
                0.2329063863794343,
                -0.08066885231224716
            ]
        },
        {
            "positions": [
                0.05931002107812275,
                -2.1923337359760753,
                -2.0036308069187116,
                1.2660258637192474,
                0.2598656957048171,
                -0.13955612283320223
            ]
        },
        {
            "positions": [
                0.1409031828422556,
                -2.163509823920925,
                -1.8765670797133729,
                1.1931698753146232,
                0.2868250050301998,
                -0.1984433933541573
            ]
        },
        {
            "positions": [
                0.22249634460638837,
                -2.134685911865775,
                -1.7495033525080341,
                1.1203138869099987,
                0.3137843143555826,
                -0.2573306638751124
            ]
        },
        {
            "positions": [
                0.30408950637052123,
                -2.105861999810625,
                -1.6224396253026954,
                1.0474578985053746,
                0.34074362368096534,
                -0.3162179343960675
            ]
        },
        {
            "positions": [
                0.385682668134654,
                -2.077038087755475,
                -1.4953758980973566,
                0.9746019101007503,
                0.36770293300634815,
                -0.3751052049170226
            ]
        },
        {
            "positions": [
                0.4672758298987869,
                -2.0482141757003247,
                -1.3683121708920178,
                0.9017459216961259,
                0.39466224233173086,
                -0.4339924754379776
            ]
        },
        {
            "positions": [
                0.5488689916629196,
                -2.0193902636451746,
                -1.2412484436866793,
                0.8288899332915017,
                0.4216215516571136,
                -0.4928797459589326
            ]
        },
        {
            "positions": [
                0.6304621534270525,
                -1.9905663515900245,
                -1.1141847164813403,
                0.7560339448868774,
                0.4485808609824964,
                -0.5517670164798878
            ]
        },
        {
            "positions": [
                0.7120553151911853,
                -1.9617424395348744,
                -0.9871209892760018,
                0.6831779564822531,
                0.4755401703078791,
                -0.6106542870008428
            ]
        },
        {
            "positions": [
                0.7936484769553181,
                -1.9329185274797243,
                -0.860057262070663,
                0.6103219680776288,
                0.5024994796332619,
                -0.6695415575217979
            ]
        },
        {
            "positions": [
                0.8752416387194509,
                -1.9040946154245741,
                -0.7329935348653243,
                0.5374659796730046,
                0.5294587889586446,
                -0.728428828042753
            ]
        },
        {
            "positions": [
                0.9568348004835837,
                -1.875270703369424,
                -0.6059298076599855,
                0.4646099912683803,
                0.5564180982840274,
                -0.7873160985637081
            ]
        },
        {
            "positions": [
                1.0384279622477164,
                -1.846446791314274,
                -0.47886608045464674,
                0.39175400286375606,
                0.5833774076094101,
                -0.8462033690846631
            ]
        },
        {
            "positions": [
                1.1200211240118494,
                -1.8176228792591238,
                -0.35180235324930775,
                0.3188980144591316,
                0.610336716934793,
                -0.9050906396056182
            ]
        },
        {
            "positions": [
                1.201614285775982,
                -1.7887989672039737,
                -0.22473862604396944,
                0.24604202605450753,
                0.6372960262601757,
                -0.9639779101265733
            ]
        },
        {
            "positions": [
                1.2832074475401147,
                -1.7599750551488236,
                -0.09767489883863067,
                0.17318603764988327,
                0.6642553355855585,
                -1.0228651806475282
            ]
        },
        {
            "positions": [
                1.3648006093042477,
                -1.7311511430936735,
                0.02938882836670853,
                0.10033004924525879,
                0.6912146449109413,
                -1.0817524511684835
            ]
        },
        {
            "positions": [
                1.4463937710683805,
                -1.7023272310385233,
                0.1564525555720473,
                0.02747406084063453,
                0.718173954236324,
                -1.1406397216894386
            ]
        },
        {
            "positions": [
                1.5279869328325133,
                -1.6735033189833732,
                0.2835162827773856,
                -0.04538192756398973,
                0.7451332635617067,
                -1.1995269922103935
            ]
        },
        {
            "positions": [
                1.609580094596646,
                -1.6446794069282231,
                0.41058000998272437,
                -0.118237915968614,
                0.7720925728870894,
                -1.2584142627313486
            ]
        },
        {
            "positions": [
                1.691173256360779,
                -1.615855494873073,
                0.5376437371880636,
                -0.19109390437323848,
                0.7990518822124724,
                -1.317301533252304
            ]
        },
        {
            "positions": [
                1.7727664181249119,
                -1.587031582817923,
                0.6647074643934019,
                -0.2639498927778625,
                0.8260111915378551,
                -1.3761888037732588
            ]
        },
        {
            "positions": [
                1.8543595798890444,
                -1.5582076707627728,
                0.7917711915987407,
                -0.3368058811824868,
                0.8529705008632378,
                -1.435076074294214
            ]
        },
        {
            "positions": [
                1.9359527416531774,
                -1.5293837587076227,
                0.9188349188040794,
                -0.40966186958711104,
                0.8799298101886205,
                -1.493963344815169
            ]
        },
        {
            "positions": [
                2.0175459034173104,
                -1.5005598466524726,
                1.0458986460094186,
                -0.4825178579917355,
                0.9068891195140033,
                -1.5528506153361241
            ]
        },
        {
            "positions": [
                2.099139065181443,
                -1.4717359345973224,
                1.172962373214757,
                -0.5553738463963596,
                0.9338484288393861,
                -1.6117378858570792
            ]
        },
        {
            "positions": [
                2.180732226945576,
                -1.4429120225421723,
                1.3000261004200957,
                -0.628229834800984,
                0.9608077381647688,
                -1.670625156378034
            ]
        },
        {
            "positions": [
                2.2623253887097086,
                -1.4140881104870222,
                1.4270898276254345,
                -0.7010858232056081,
                0.9877670474901515,
                -1.7295124268989892
            ]
        },
        {
            "positions": [
                2.3439185504738416,
                -1.385264198431872,
                1.5541535548307737,
                -0.7739418116102326,
                1.0147263568155345,
                -1.7883996974199445
            ]
        },
        {
            "positions": [
                2.4255117122379746,
                -1.356440286376722,
                1.6812172820361124,
                -0.846797800014857,
                1.0416856661409173,
                -1.8472869679408994
            ]
        },
        {
            "positions": [
                2.507104874002107,
                -1.3276163743215719,
                1.8082810092414507,
                -0.9196537884194811,
                1.0686449754662999,
                -1.9061742384618545
            ]
        },
        {
            "positions": [
                2.5314053926949276,
                -1.2651498116561577,
                1.8120170332492869,
                -0.8927511370822944,
                1.0676342875031115,
                -2.1438623327780406
            ]
        },
        {
            "positions": [
                2.555705911387748,
                -1.2026832489907433,
                1.8157530572571232,
                -0.8658484857451076,
                1.0666235995399231,
                -2.3815504270942265
            ]
        },
        {
            "positions": [
                2.580006430080568,
                -1.1402166863253291,
                1.8194890812649593,
                -0.8389458344079209,
                1.065612911576735,
                -2.6192385214104124
            ]
        },
        {
            "positions": [
                2.6043069487733885,
                -1.0777501236599147,
                1.8232251052727957,
                -0.8120431830707342,
                1.0646022236135466,
                -2.8569266157265982
            ]
        },
        {
            "positions": [
                2.628607467466209,
                -1.0152835609945006,
                1.8269611292806318,
                -0.7851405317335475,
                1.0635915356503582,
                -3.094614710042784
            ]
        }
    ]
}