{
    "goal": {
        "global_pose": {
            "orientation": {
                "w": -0.00223480608172531,
                "x": 0.0024358444001904467,
                "y": 0.7094548369677653,
                "z": -0.704743149386269
            },
            "position": {
                "x": -0.37947507619857795,
                "y": -0.6371506643295288,
                "z": 0.19426114857196808
            }
        },
        "name": "move_to_magneteinheit_C"
    },
    "id": "BKPIECE_move_to_magneteinheit_C_28",
    "joint_names": [
        "shoulder_pan_joint",
        "shoulder_lift_joint",
        "elbow_joint",
        "wrist_1_joint",
        "wrist_2_joint",
        "wrist_3_joint"
    ],
    "metrics": {
        "cart_traj_len": 2.127544019573928,
        "distance_elbow_joint": 0.5077128510098743,
        "distance_shoulder_lift_joint": 1.2927429408611248,
        "distance_shoulder_pan_joint": 2.6222157767105547,
        "distance_wrist_1_joint": 1.641721686386386,
        "distance_wrist_2_joint": 2.8725794881538773,
        "distance_wrist_3_joint": 0.11696060084507565,
        "smoothness": 1.1141844353645336,
        "time": 0.231843226,
        "traj_len": 3.0089754641683095,
        "weighted_distance": 3.7151252630560534
    },
    "planner": "BKPIECE",
    "start": {
        "state": {
            "elbow_joint": 1.9565354010623817,
            "shoulder_lift_joint": -1.4165861575791021,
            "shoulder_pan_joint": -1.6717766225146293,
            "wrist_1_joint": -0.5286633292919765,
            "wrist_2_joint": 1.472756589071564,
            "wrist_3_joint": -3.1238370188695823
        }
    },
    "waypoints": [
        {
            "positions": [
                -1.6717766225146293,
                -1.4165861575791021,
                1.9565354010623817,
                -0.5286633292919765,
                1.472756589071564,
                -3.1238370188695823
            ]
        },
        {
            "positions": [
                -1.595962852916561,
                -1.4598052856227717,
                1.9798284936571102,
                -0.609829197448509,
                1.319395936400685,
                -3.120186568342155
            ]
        },
        {
            "positions": [
                -1.5201490833184927,
                -1.5030244136664415,
                2.0031215862518383,
                -0.6909950656050418,
                1.1660352837298062,
                -3.1165361178147277
            ]
        },
        {
            "positions": [
                -1.4443353137204245,
                -1.546243541710111,
                2.026414678846567,
                -0.7721609337615745,
                1.0126746310589272,
                -3.1128856672873004
            ]
        },
        {
            "positions": [
                -1.3685215441223564,
                -1.5894626697537806,
                2.0497077714412955,
                -0.8533268019181071,
                0.8593139783880483,
                -3.1092352167598727
            ]
        },
        {
            "positions": [
                -1.2927077745242879,
                -1.6326817977974504,
                2.073000864036024,
                -0.9344926700746397,
                0.7059533257171693,
                -3.1055847662324454
            ]
        },
        {
            "positions": [
                -1.2168940049262198,
                -1.67590092584112,
                2.0962939566307526,
                -1.0156585382311722,
                0.5525926730462905,
                -3.101934315705018
            ]
        },
        {
            "positions": [
                -1.1410802353281513,
                -1.7191200538847897,
                2.1195870492254807,
                -1.096824406387705,
                0.3992320203754114,
                -3.098283865177591
            ]
        },
        {
            "positions": [
                -1.0652664657300832,
                -1.7623391819284593,
                2.1428801418202092,
                -1.1779902745442377,
                0.24587136770453277,
                -3.0946334146501635
            ]
        },
        {
            "positions": [
                -0.9894526961320149,
                -1.8055583099721288,
                2.166173234414938,
                -1.2591561427007703,
                0.09251071503365371,
                -3.0909829641227358
            ]
        },
        {
            "positions": [
                -0.9136389265339465,
                -1.8487774380157984,
                2.189466327009666,
                -1.340322010857303,
                -0.06084993763722535,
                -3.0873325135953085
            ]
        },
        {
            "positions": [
                -0.8378251569358783,
                -1.891996566059468,
                2.2127594196043945,
                -1.4214878790138354,
                -0.21421059030810397,
                -3.083682063067881
            ]
        },
        {
            "positions": [
                -0.76201138733781,
                -1.9352156941031378,
                2.236052512199123,
                -1.5026537471703683,
                -0.367571242978983,
                -3.080031612540454
            ]
        },
        {
            "positions": [
                -0.9047155991322879,
                -1.8707062437417137,
                2.2170362005430286,
                -1.447009474794702,
                -0.28155027163703883,
                -3.086127878750116
            ]
        },
        {
            "positions": [
                -1.0474198109267658,
                -1.8061967933802896,
                2.1980198888869342,
                -1.391365202419036,
                -0.19552930029509463,
                -3.0922241449597783
            ]
        },
        {
            "positions": [
                -1.190124022721244,
                -1.7416873430188655,
                2.17900357723084,
                -1.3357209300433697,
                -0.10950832895315044,
                -3.098320411169441
            ]
        },
        {
            "positions": [
                -1.3328282345157216,
                -1.6771778926574414,
                2.1599872655747454,
                -1.2800766576677036,
                -0.02348735761120624,
                -3.104416677379103
            ]
        },
        {
            "positions": [
                -1.4755324463101998,
                -1.6126684422960174,
                2.140970953918651,
                -1.2244323852920374,
                0.06253361373073796,
                -3.1105129435887653
            ]
        },
        {
            "positions": [
                -1.6182366581046776,
                -1.548158991934593,
                2.1219546422625566,
                -1.168788112916371,
                0.14855458507268215,
                -3.1166092097984275
            ]
        },
        {
            "positions": [
                -1.7609408698991555,
                -1.483649541573169,
                2.102938330606462,
                -1.113143840540705,
                0.23457555641462635,
                -3.1227054760080897
            ]
        },
        {
            "positions": [
                -1.9036450816936334,
                -1.419140091211745,
                2.0839220189503678,
                -1.0574995681650388,
                0.32059652775657055,
                -3.128801742217752
            ]
        },
        {
            "positions": [
                -2.0463492934881113,
                -1.3546306408503208,
                2.0649057072942734,
                -1.0018552957893725,
                0.40661749909851475,
                -3.134898008427414
            ]
        },
        {
            "positions": [
                -2.1890535052825895,
                -1.2901211904888967,
                2.045889395638179,
                -0.9462110234137063,
                0.49263847044045894,
                -3.1409942746370767
            ]
        },
        {
            "positions": [
                -2.3317577170770676,
                -1.2256117401274726,
                2.0268730839820845,
                -0.8905667510380402,
                0.5786594417824031,
                -3.147090540846739
            ]
        },
        {
            "positions": [
                -2.4744619288715453,
                -1.1611022897660486,
                2.00785677232599,
                -0.834922478662374,
                0.6646804131243474,
                -3.153186807056401
            ]
        }
    ]
}