{
    "goal": {
        "global_pose": {
            "orientation": {
                "w": 0.7047431493862688,
                "x": -0.7094548369677653,
                "y": 0.0024358444001904,
                "z": -0.0022348060817251984
            },
            "position": {
                "x": -0.39052492380142206,
                "y": 0.3671506643295288,
                "z": 0.19426114857196808
            }
        },
        "name": "move_to_magneteinheit_D"
    },
    "id": "BKPIECE_move_to_magneteinheit_D_113",
    "joint_names": [
        "shoulder_pan_joint",
        "shoulder_lift_joint",
        "elbow_joint",
        "wrist_1_joint",
        "wrist_2_joint",
        "wrist_3_joint"
    ],
    "metrics": {
        "cart_traj_len": 4.475541734829746,
        "distance_elbow_joint": 4.052362298273758,
        "distance_shoulder_lift_joint": 1.1060434119157048,
        "distance_shoulder_pan_joint": 3.6635198857165663,
        "distance_wrist_1_joint": 2.169893811407138,
        "distance_wrist_2_joint": 1.0473010772378277,
        "distance_wrist_3_joint": 1.0762534232514418,
        "smoothness": 0.4962288502953352,
        "time": 0.199711268,
        "traj_len": 3.6215154159277625,
        "weighted_distance": 4.2994273622135175
    },
    "planner": "BKPIECE",
    "start": {
        "state": {
            "elbow_joint": 0.749534889911806,
            "shoulder_lift_joint": -0.6476975780787326,
            "shoulder_pan_joint": -2.711696901376241,
            "wrist_1_joint": -0.07506478083263063,
            "wrist_2_joint": 0.43296659715538205,
            "wrist_3_joint": -3.14703540197715
        }
    },
    "waypoints": [
        {
            "positions": [
                -2.711696901376241,
                -0.6476975780787326,
                0.749534889911806,
                -0.07506478083263063,
                0.43296659715538205,
                -3.14703540197715
            ]
        },
        {
            "positions": [
                -2.71268105996531,
                -0.7387160990607367,
                0.8306843080733672,
                -0.16741715693988662,
                0.47621997488201473,
                -3.0706374166183874
            ]
        },
        {
            "positions": [
                -2.713665218554379,
                -0.8297346200427407,
                0.9118337262349284,
                -0.2597695330471426,
                0.5194733526086474,
                -2.994239431259625
            ]
        },
        {
            "positions": [
                -2.7146493771434472,
                -0.9207531410247447,
                0.9929831443964897,
                -0.35212190915439856,
                0.56272673033528,
                -2.9178414459008626
            ]
        },
        {
            "positions": [
                -2.715633535732516,
                -1.0117716620067487,
                1.074132562558051,
                -0.4444742852616546,
                0.6059801080619127,
                -2.8414434605421004
            ]
        },
        {
            "positions": [
                -2.716617694321585,
                -1.1027901829887528,
                1.1552819807196122,
                -0.5368266613689106,
                0.6492334857885453,
                -2.7650454751833378
            ]
        },
        {
            "positions": [
                -2.575976525318936,
                -1.120502295629732,
                0.9927546168497523,
                -0.5721960796435953,
                0.6303966361946091,
                -2.75648064634003
            ]
        },
        {
            "positions": [
                -2.435335356316287,
                -1.1382144082707109,
                0.8302272529798925,
                -0.60756549791828,
                0.6115597866006728,
                -2.747915817496722
            ]
        },
        {
            "positions": [
                -2.294694187313638,
                -1.15592652091169,
                0.6676998891100328,
                -0.6429349161929647,
                0.5927229370067366,
                -2.7393509886534146
            ]
        },
        {
            "positions": [
                -2.1540530183109894,
                -1.173638633552669,
                0.5051725252401729,
                -0.6783043344676494,
                0.5738860874128003,
                -2.730786159810107
            ]
        },
        {
            "positions": [
                -2.0134118493083406,
                -1.1913507461936481,
                0.3426451613703131,
                -0.7136737527423341,
                0.5550492378188641,
                -2.722221330966799
            ]
        },
        {
            "positions": [
                -1.8727706803056916,
                -1.2090628588346273,
                0.1801177975004533,
                -0.7490431710170188,
                0.5362123882249278,
                -2.7136565021234915
            ]
        },
        {
            "positions": [
                -1.7321295113030426,
                -1.2267749714756062,
                0.017590433630593427,
                -0.7844125892917035,
                0.5173755386309915,
                -2.7050916732801835
            ]
        },
        {
            "positions": [
                -1.5914883423003936,
                -1.2444870841165854,
                -0.14493693023926646,
                -0.8197820075663882,
                0.4985386890370553,
                -2.696526844436876
            ]
        },
        {
            "positions": [
                -1.4508471732977448,
                -1.2621991967575643,
                -0.30746429410912635,
                -0.855151425841073,
                0.479701839443119,
                -2.6879620155935684
            ]
        },
        {
            "positions": [
                -1.310206004295096,
                -1.2799113093985435,
                -0.469991657978986,
                -0.8905208441157577,
                0.4608649898491828,
                -2.6793971867502604
            ]
        },
        {
            "positions": [
                -1.169564835292447,
                -1.2976234220395226,
                -0.6325190218488459,
                -0.9258902623904424,
                0.4420281402552465,
                -2.670832357906953
            ]
        },
        {
            "positions": [
                -1.0289236662897983,
                -1.3153355346805016,
                -0.7950463857187056,
                -0.961259680665127,
                0.4231912906613102,
                -2.6622675290636453
            ]
        },
        {
            "positions": [
                -0.888282497287149,
                -1.3330476473214807,
                -0.9575737495885654,
                -0.9966290989398119,
                0.40435444106737395,
                -2.6537027002203373
            ]
        },
        {
            "positions": [
                -0.7476413282845005,
                -1.3507597599624597,
                -1.1201011134584253,
                -1.0319985172144965,
                0.3855175914734377,
                -2.6451378713770297
            ]
        },
        {
            "positions": [
                -0.6070001592818515,
                -1.3684718726034388,
                -1.2826284773282852,
                -1.0673679354891812,
                0.3666807418795015,
                -2.636573042533722
            ]
        },
        {
            "positions": [
                -0.46635899027920225,
                -1.386183985244418,
                -1.445155841198145,
                -1.102737353763866,
                0.3478438922855652,
                -2.628008213690414
            ]
        },
        {
            "positions": [
                -0.3257178212765539,
                -1.403896097885397,
                -1.607683205068005,
                -1.1381067720385505,
                0.32900704269162895,
                -2.6194433848471066
            ]
        },
        {
            "positions": [
                -0.18507665227390468,
                -1.421608210526376,
                -1.7702105689378649,
                -1.1734761903132354,
                0.31017019309769267,
                -2.6108785560037986
            ]
        },
        {
            "positions": [
                -0.044435483271255904,
                -1.439320323167355,
                -1.9327379328077243,
                -1.20884560858792,
                0.29133334350375645,
                -2.602313727160491
            ]
        },
        {
            "positions": [
                0.09620568573139288,
                -1.4570324358083342,
                -2.095265296677584,
                -1.2442150268626047,
                0.27249649390982017,
                -2.5937488983171835
            ]
        },
        {
            "positions": [
                0.2368468547340421,
                -1.4747445484493134,
                -2.257792660547444,
                -1.2795844451372895,
                0.2536596443158839,
                -2.5851840694738755
            ]
        },
        {
            "positions": [
                0.37748802373669066,
                -1.4924566610902923,
                -2.420320024417304,
                -1.3149538634119742,
                0.23482279472194767,
                -2.576619240630568
            ]
        },
        {
            "positions": [
                0.2968461130634124,
                -1.5297829937908844,
                -2.410175281227442,
                -1.4478116818159448,
                0.17530515221650955,
                -2.6488817066169763
            ]
        },
        {
            "positions": [
                0.21620420239013413,
                -1.5671093264914766,
                -2.4000305380375795,
                -1.5806695002199156,
                0.1157875097110714,
                -2.721144172603385
            ]
        },
        {
            "positions": [
                0.13556229171685585,
                -1.6044356591920688,
                -2.3898857948477175,
                -1.7135273186238862,
                0.05626986720563329,
                -2.7934066385897935
            ]
        },
        {
            "positions": [
                0.054920381043577604,
                -1.641761991892661,
                -2.379741051657855,
                -1.8463851370278568,
                -0.003247775299804856,
                -2.865669104576202
            ]
        },
        {
            "positions": [
                -0.0257215296297007,
                -1.679088324593253,
                -2.369596308467993,
                -1.9792429554318276,
                -0.06276541780524303,
                -2.9379315705626103
            ]
        },
        {
            "positions": [
                -0.10636344030297895,
                -1.7164146572938452,
                -2.3594515652781305,
                -2.112100773835798,
                -0.12228306031068109,
                -3.010194036549019
            ]
        },
        {
            "positions": [
                -0.18700535097625728,
                -1.7537409899944374,
                -2.3493068220882685,
                -2.244958592239769,
                -0.18180070281611924,
                -3.0824565025354276
            ]
        }
    ]
}