{
    "goal": {
        "global_pose": {
            "orientation": {
                "w": 0.7031023480610252,
                "x": -0.7110244013736278,
                "y": 0.0077485991402295624,
                "z": 0.005598929693374583
            },
            "position": {
                "x": -0.8841497679147869,
                "y": 0.44412534475326537,
                "z": 0.3711530566215515
            }
        },
        "name": "move_to_auspresseinheit_D"
    },
    "id": "BKPIECE_move_to_auspresseinheit_D_80",
    "joint_names": [
        "shoulder_pan_joint",
        "shoulder_lift_joint",
        "elbow_joint",
        "wrist_1_joint",
        "wrist_2_joint",
        "wrist_3_joint"
    ],
    "metrics": {
        "cart_traj_len": 0.34456343250351634,
        "distance_elbow_joint": 0.6668098279684491,
        "distance_shoulder_lift_joint": 0.13652413592395485,
        "distance_shoulder_pan_joint": 0.13313442270224074,
        "distance_wrist_1_joint": 0.6226649748034951,
        "distance_wrist_2_joint": 1.4430526353347501,
        "distance_wrist_3_joint": 0.08477448104834862,
        "smoothness": 0.0,
        "time": 0.163634169,
        "traj_len": 1.756974808522091,
        "weighted_distance": 2.3069952427380906
    },
    "planner": "BKPIECE",
    "start": {
        "state": {
            "elbow_joint": -1.8275523626775212,
            "shoulder_lift_joint": -2.126789852344167,
            "shoulder_pan_joint": -0.03513704404078235,
            "wrist_1_joint": -2.347782403156801,
            "wrist_2_joint": -1.6058999987535132,
            "wrist_3_joint": -3.0880379163319196
        }
    },
    "waypoints": [
        {
            "positions": [
                -0.03513704404078235,
                -2.126789852344167,
                -1.8275523626775212,
                -2.347782403156801,
                -1.6058999987535132,
                -3.0880379163319196
            ]
        },
        {
            "positions": [
                -0.05177884687856244,
                -2.1438553693346614,
                -1.744201134181465,
                -2.4256155250072378,
                -1.4255184193366695,
                -3.077441106200876
            ]
        },
        {
            "positions": [
                -0.06842064971634254,
                -2.1609208863251554,
                -1.660849905685409,
                -2.5034486468576747,
                -1.2451368399198257,
                -3.0668442960698323
            ]
        },
        {
            "positions": [
                -0.08506245255412262,
                -2.17798640331565,
                -1.5774986771893529,
                -2.5812817687081115,
                -1.0647552605029817,
                -3.0562474859387887
            ]
        },
        {
            "positions": [
                -0.10170425539190273,
                -2.1950519203061445,
                -1.4941474486932966,
                -2.6591148905585484,
                -0.8843736810861381,
                -3.045650675807745
            ]
        },
        {
            "positions": [
                -0.1183460582296828,
                -2.2121174372966386,
                -1.4107962201972404,
                -2.7369480124089853,
                -0.7039921016692944,
                -3.035053865676702
            ]
        },
        {
            "positions": [
                -0.1349878610674629,
                -2.229182954287133,
                -1.3274449917011844,
                -2.8147811342594222,
                -0.5236105222524505,
                -3.0244570555456582
            ]
        },
        {
            "positions": [
                -0.151629663905243,
                -2.246248471277627,
                -1.2440937632051283,
                -2.892614256109859,
                -0.3432289428356068,
                -3.0138602454146146
            ]
        },
        {
            "positions": [
                -0.1682714667430231,
                -2.2633139882681217,
                -1.160742534709072,
                -2.970447377960296,
                -0.162847363418763,
                -3.003263435283571
            ]
        }
    ]
}