{
    "goal": {
        "global_pose": {
            "orientation": {
                "w": 0.5084816262002911,
                "x": -0.4908360881923452,
                "y": 0.5182115481033761,
                "z": -0.48164630358495003
            },
            "position": {
                "x": 0.5540239810943604,
                "y": -0.46912469901144505,
                "z": 0.16403168439865112
            }
        },
        "name": "move_to_storage_B"
    },
    "id": "BKPIECE_move_to_storage_B_139",
    "joint_names": [
        "shoulder_pan_joint",
        "shoulder_lift_joint",
        "elbow_joint",
        "wrist_1_joint",
        "wrist_2_joint",
        "wrist_3_joint"
    ],
    "metrics": {
        "cart_traj_len": 0.665108731636735,
        "distance_elbow_joint": 0.35735580723755467,
        "distance_shoulder_lift_joint": 0.4601443698131693,
        "distance_shoulder_pan_joint": 0.3031704025107872,
        "distance_wrist_1_joint": 3.0206012892218785,
        "distance_wrist_2_joint": 2.7004205699804986,
        "distance_wrist_3_joint": 3.1203329180505293,
        "smoothness": 0.03145433995982472,
        "time": 0.25916737500000003,
        "traj_len": 3.1562676307332396,
        "weighted_distance": 4.682276481810729
    },
    "planner": "BKPIECE",
    "start": {
        "state": {
            "elbow_joint": 1.664937868594044,
            "shoulder_lift_joint": -0.661644460510453,
            "shoulder_pan_joint": -0.9139846352900073,
            "wrist_1_joint": 2.146753192139373,
            "wrist_2_joint": -2.2341966793290973,
            "wrist_3_joint": 0.005466555786416001
        }
    },
    "waypoints": [
        {
            "positions": [
                -0.9139846352900073,
                -0.661644460510453,
                1.664937868594044,
                2.146753192139373,
                -2.2341966793290973,
                0.005466555786416001
            ]
        },
        {
            "positions": [
                -0.8539437522888531,
                -0.7325341900767812,
                1.6712140469070214,
                2.108347311519582,
                -2.148859967989738,
                -0.08670009855093853
            ]
        },
        {
            "positions": [
                -0.8636689330692384,
                -0.7481043756866549,
                1.6852572320640045,
                1.9890594951754983,
                -2.0442566136440923,
                -0.20782674909946552
            ]
        },
        {
            "positions": [
                -0.8733941138496237,
                -0.7636745612965286,
                1.6993004172209876,
                1.869771678831415,
                -1.9396532592984468,
                -0.32895339964799253
            ]
        },
        {
            "positions": [
                -0.883119294630009,
                -0.7792447469064021,
                1.7133436023779707,
                1.7504838624873313,
                -1.8350499049528013,
                -0.4500800501965195
            ]
        },
        {
            "positions": [
                -0.8928444754103944,
                -0.7948149325162758,
                1.7273867875349538,
                1.631196046143248,
                -1.7304465506071556,
                -0.5712067007450465
            ]
        },
        {
            "positions": [
                -0.9025696561907797,
                -0.8103851181261494,
                1.741429972691937,
                1.5119082297991644,
                -1.62584319626151,
                -0.6923333512935734
            ]
        },
        {
            "positions": [
                -0.912294836971165,
                -0.8259553037360231,
                1.75547315784892,
                1.392620413455081,
                -1.5212398419158646,
                -0.8134600018421004
            ]
        },
        {
            "positions": [
                -0.9220200177515504,
                -0.8415254893458968,
                1.769516343005903,
                1.2733325971109974,
                -1.4166364875702189,
                -0.9345866523906274
            ]
        },
        {
            "positions": [
                -0.9317451985319357,
                -0.8570956749557703,
                1.783559528162886,
                1.154044780766914,
                -1.3120331332245734,
                -1.0557133029391546
            ]
        },
        {
            "positions": [
                -0.941470379312321,
                -0.872665860565644,
                1.797602713319869,
                1.0347569644228305,
                -1.2074297788789279,
                -1.1768399534876812
            ]
        },
        {
            "positions": [
                -0.9511955600927063,
                -0.8882360461755177,
                1.8116458984768522,
                0.9154691480787469,
                -1.1028264245332822,
                -1.2979666040362083
            ]
        },
        {
            "positions": [
                -0.9609207408730916,
                -0.9038062317853913,
                1.8256890836338353,
                0.7961813317346635,
                -0.9982230701876367,
                -1.4190932545847352
            ]
        },
        {
            "positions": [
                -0.970645921653477,
                -0.919376417395265,
                1.8397322687908184,
                0.6768935153905802,
                -0.8936197158419912,
                -1.5402199051332623
            ]
        },
        {
            "positions": [
                -0.9803711024338623,
                -0.9349466030051385,
                1.8537754539478015,
                0.5576056990464964,
                -0.7890163614963455,
                -1.6613465556817892
            ]
        },
        {
            "positions": [
                -0.9900962832142476,
                -0.9505167886150123,
                1.8678186391047846,
                0.4383178827024128,
                -0.6844130071506997,
                -1.7824732062303164
            ]
        },
        {
            "positions": [
                -0.9998214639946329,
                -0.9660869742248859,
                1.8818618242617677,
                0.31903006635832964,
                -0.5798096528050545,
                -1.9035998567788432
            ]
        },
        {
            "positions": [
                -1.0095466447750183,
                -0.9816571598347595,
                1.8959050094187508,
                0.19974225001424606,
                -0.47520629845940876,
                -2.0247265073273706
            ]
        },
        {
            "positions": [
                -1.0192718255554036,
                -0.9972273454446332,
                1.909948194575734,
                0.08045443367016247,
                -0.37060294411376304,
                -2.1458531578758975
            ]
        },
        {
            "positions": [
                -1.028997006335789,
                -1.0127975310545068,
                1.9239913797327168,
                -0.03883338267392089,
                -0.2659995897681178,
                -2.266979808424424
            ]
        },
        {
            "positions": [
                -1.0387221871161743,
                -1.0283677166643805,
                1.9380345648897,
                -0.15812119901800425,
                -0.16139623542247206,
                -2.3881064589729513
            ]
        },
        {
            "positions": [
                -1.0484473678965596,
                -1.043937902274254,
                1.952077750046683,
                -0.27740901536208806,
                -0.05679288107682634,
                -2.509233109521478
            ]
        },
        {
            "positions": [
                -1.0581725486769449,
                -1.0595080878841276,
                1.9661209352036662,
                -0.3966968317061714,
                0.04781047326881893,
                -2.630359760070005
            ]
        },
        {
            "positions": [
                -1.0678977294573302,
                -1.0750782734940014,
                1.9801641203606493,
                -0.5159846480502548,
                0.15241382761446465,
                -2.751486410618532
            ]
        },
        {
            "positions": [
                -1.0776229102377155,
                -1.090648459103875,
                1.9942073055176324,
                -0.6352724643943386,
                0.25701718196011036,
                -2.8726130611670593
            ]
        },
        {
            "positions": [
                -1.0873480910181008,
                -1.1062186447137488,
                2.0082504906746155,
                -0.7545602807384215,
                0.36162053630575564,
                -2.993739711715586
            ]
        },
        {
            "positions": [
                -1.0970732717984861,
                -1.1217888303236223,
                2.0222936758315986,
                -0.8738480970825054,
                0.4662238906514013,
                -3.114866362264113
            ]
        }
    ]
}