{
    "goal": {
        "global_pose": {
            "orientation": {
                "w": 0.7031023502349854,
                "x": -0.7110244035720825,
                "y": 0.007748599164187908,
                "z": 0.005598929710686207
            },
            "position": {
                "x": 0.11585023208521307,
                "y": 0.44412534475326537,
                "z": 0.3711530566215515
            }
        },
        "name": "move_to_auspresseinheit_A"
    },
    "id": "BKPIECE_move_to_auspresseinheit_A_70",
    "joint_names": [
        "shoulder_pan_joint",
        "shoulder_lift_joint",
        "elbow_joint",
        "wrist_1_joint",
        "wrist_2_joint",
        "wrist_3_joint"
    ],
    "metrics": {
        "cart_traj_len": 6.0601434380861905,
        "distance_elbow_joint": 5.152544313221294,
        "distance_shoulder_lift_joint": 2.8333644419064457,
        "distance_shoulder_pan_joint": 6.056687505739508,
        "distance_wrist_1_joint": 7.842915426746918,
        "distance_wrist_2_joint": 1.111679976854589,
        "distance_wrist_3_joint": 4.294817404473724,
        "smoothness": 0.49462330770728874,
        "time": 0.37899838900000005,
        "traj_len": 5.224175443928206,
        "weighted_distance": 6.695986804160491
    },
    "planner": "BKPIECE",
    "start": {
        "state": {
            "elbow_joint": 2.4225746658250005,
            "shoulder_lift_joint": -1.3736534386056498,
            "shoulder_pan_joint": -0.3378633547517467,
            "wrist_1_joint": -1.0288598680537169,
            "wrist_2_joint": 1.233022673432363,
            "wrist_3_joint": -3.0940220416140027
        }
    },
    "waypoints": [
        {
            "positions": [
                -0.3378633547517467,
                -1.3736534386056498,
                2.4225746658250005,
                -1.0288598680537169,
                1.233022673432363,
                -3.0940220416140027
            ]
        },
        {
            "positions": [
                -0.27203631028660397,
                -1.4059301652883491,
                2.314688275152259,
                -1.0895936962811084,
                1.19876885091953,
                -3.0050654549727147
            ]
        },
        {
            "positions": [
                -0.2062092658214612,
                -1.4382068919710485,
                2.2068018844795176,
                -1.1503275245084996,
                1.164515028406697,
                -2.916108868331427
            ]
        },
        {
            "positions": [
                -0.14038222135631845,
                -1.4704836186537478,
                2.0989154938067758,
                -1.211061352735891,
                1.130261205893864,
                -2.827152281690139
            ]
        },
        {
            "positions": [
                -0.07455517689117569,
                -1.502760345336447,
                1.9910291031340346,
                -1.2717951809632826,
                1.096007383381031,
                -2.738195695048851
            ]
        },
        {
            "positions": [
                -0.00872813242603293,
                -1.5350370720191464,
                1.883142712461293,
                -1.332529009190674,
                1.061753560868198,
                -2.6492391084075635
            ]
        },
        {
            "positions": [
                0.05709891203910983,
                -1.5673137987018457,
                1.7752563217885515,
                -1.3932628374180653,
                1.027499738355365,
                -2.5602825217662755
            ]
        },
        {
            "positions": [
                0.12292595650425264,
                -1.599590525384545,
                1.6673699311158101,
                -1.4539966656454568,
                0.993245915842532,
                -2.4713259351249874
            ]
        },
        {
            "positions": [
                0.18875300096939535,
                -1.6318672520672441,
                1.5594835404430687,
                -1.514730493872848,
                0.9589920933296989,
                -2.3823693484837
            ]
        },
        {
            "positions": [
                0.2545800454345381,
                -1.6641439787499435,
                1.451597149770327,
                -1.5754643221002396,
                0.9247382708168659,
                -2.293412761842412
            ]
        },
        {
            "positions": [
                0.32040708989968086,
                -1.696420705432643,
                1.3437107590975854,
                -1.636198150327631,
                0.8904844483040328,
                -2.204456175201124
            ]
        },
        {
            "positions": [
                0.3862341343648236,
                -1.728697432115342,
                1.2358243684248442,
                -1.6969319785550225,
                0.8562306257911999,
                -2.115499588559836
            ]
        },
        {
            "positions": [
                0.4520611788299664,
                -1.7609741587980414,
                1.1279379777521026,
                -1.757665806782414,
                0.8219768032783669,
                -2.026543001918548
            ]
        },
        {
            "positions": [
                0.517888223295109,
                -1.7932508854807407,
                1.0200515870793612,
                -1.8183996350098053,
                0.7877229807655339,
                -1.9375864152772604
            ]
        },
        {
            "positions": [
                0.583715267760252,
                -1.82552761216344,
                0.9121651964066195,
                -1.8791334632371968,
                0.7534691582527008,
                -1.8486298286359724
            ]
        },
        {
            "positions": [
                0.6495423122253947,
                -1.8578043388461394,
                0.8042788057338781,
                -1.939867291464588,
                0.7192153357398678,
                -1.7596732419946846
            ]
        },
        {
            "positions": [
                0.7153693566905375,
                -1.8900810655288387,
                0.6963924150611367,
                -2.0006011196919795,
                0.6849615132270348,
                -1.6707166553533968
            ]
        },
        {
            "positions": [
                0.7811964011556802,
                -1.922357792211538,
                0.588506024388395,
                -2.061334947919371,
                0.6507076907142018,
                -1.5817600687121087
            ]
        },
        {
            "positions": [
                0.847023445620823,
                -1.9546345188942373,
                0.48061963371565364,
                -2.1220687761467625,
                0.6164538682013687,
                -1.492803482070821
            ]
        },
        {
            "positions": [
                0.9128504900859657,
                -1.9869112455769367,
                0.3727332430429122,
                -2.182802604374154,
                0.5822000456885358,
                -1.4038468954295331
            ]
        },
        {
            "positions": [
                0.9786775345511085,
                -2.019187972259636,
                0.26484685237017036,
                -2.2435364326015454,
                0.5479462231757027,
                -1.314890308788245
            ]
        },
        {
            "positions": [
                1.0445045790162513,
                -2.0514646989423353,
                0.1569604616974294,
                -2.304270260828937,
                0.5136924006628697,
                -1.2259337221469573
            ]
        },
        {
            "positions": [
                1.110331623481394,
                -2.0837414256250346,
                0.04907407102468797,
                -2.365004089056328,
                0.47943857815003676,
                -1.1369771355056695
            ]
        },
        {
            "positions": [
                1.1761586679465368,
                -2.116018152307734,
                -0.05881231964805389,
                -2.42573791728372,
                0.4451847556372036,
                -1.0480205488643812
            ]
        },
        {
            "positions": [
                1.2419857124116795,
                -2.1482948789904333,
                -0.16669871032079508,
                -2.486471745511111,
                0.4109309331243707,
                -0.9590639622230936
            ]
        },
        {
            "positions": [
                1.320771065199559,
                -2.184727129451762,
                -0.07880531871369174,
                -2.3185872243534367,
                0.4132707371106118,
                -0.9785929601222846
            ]
        },
        {
            "positions": [
                1.3995564179874382,
                -2.2211593799130904,
                0.009088072893411597,
                -2.150702703195763,
                0.4156105410968529,
                -0.9981219580214755
            ]
        },
        {
            "positions": [
                1.4783417707753177,
                -2.2575916303744186,
                0.09698146450051492,
                -1.9828181820380886,
                0.417950345083094,
                -1.0176509559206666
            ]
        },
        {
            "positions": [
                1.557127123563197,
                -2.294023880835747,
                0.18487485610761828,
                -1.8149336608804145,
                0.4202901490693351,
                -1.0371799538198574
            ]
        },
        {
            "positions": [
                1.6359124763510764,
                -2.3304561312970757,
                0.27276824771472163,
                -1.6470491397227405,
                0.4226299530555762,
                -1.0567089517190484
            ]
        },
        {
            "positions": [
                1.7146978291389556,
                -2.3668883817584043,
                0.36066163932182493,
                -1.4791646185650664,
                0.42496975704181733,
                -1.0762379496182393
            ]
        },
        {
            "positions": [
                1.793483181926835,
                -2.403320632219733,
                0.44855503092892834,
                -1.3112800974073922,
                0.4273095610280584,
                -1.0957669475174303
            ]
        },
        {
            "positions": [
                1.8722685347147143,
                -2.439752882681061,
                0.5364484225360316,
                -1.143395576249718,
                0.4296493650142995,
                -1.1152959454166211
            ]
        },
        {
            "positions": [
                1.9510538875025938,
                -2.4761851331423896,
                0.6243418141431349,
                -0.975511055092044,
                0.43198916900054063,
                -1.1348249433158122
            ]
        },
        {
            "positions": [
                2.0298392402904732,
                -2.5126173836037182,
                0.7122352057502384,
                -0.80762653393437,
                0.43432897298678175,
                -1.154353941215003
            ]
        },
        {
            "positions": [
                2.1086245930783525,
                -2.549049634065047,
                0.8001285973573417,
                -0.639742012776696,
                0.4366687769730228,
                -1.173882939114194
            ]
        },
        {
            "positions": [
                2.1874099458662317,
                -2.5854818845263754,
                0.888021988964445,
                -0.4718574916190219,
                0.4390085809592639,
                -1.1934119370133849
            ]
        },
        {
            "positions": [
                2.266195298654111,
                -2.6219141349877035,
                0.9759153805715484,
                -0.30397297046134764,
                0.44134838494550505,
                -1.212940934912576
            ]
        },
        {
            "positions": [
                2.3449806514419906,
                -2.658346385449032,
                1.0638087721786518,
                -0.13608844930367336,
                0.44368818893174616,
                -1.232469932811767
            ]
        },
        {
            "positions": [
                2.42376600422987,
                -2.6947786359103607,
                1.151702163785755,
                0.03179607185400046,
                0.4460279929179872,
                -1.2519989307109578
            ]
        },
        {
            "positions": [
                2.502551357017749,
                -2.7312108863716893,
                1.2395955553928584,
                0.19968059301167473,
                0.44836779690422834,
                -1.2715279286101486
            ]
        },
        {
            "positions": [
                2.581336709805629,
                -2.767643136833018,
                1.3274889469999618,
                0.367565114169349,
                0.45070760089046946,
                -1.2910569265093397
            ]
        },
        {
            "positions": [
                2.660122062593508,
                -2.804075387294346,
                1.415382338607065,
                0.5354496353270228,
                0.4530474048767106,
                -1.3105859244085305
            ]
        },
        {
            "positions": [
                2.7389074153813873,
                -2.8405076377556746,
                1.5032757302141684,
                0.7033341564846967,
                0.4553872088629517,
                -1.3301149223077215
            ]
        },
        {
            "positions": [
                2.817692768169267,
                -2.876939888217003,
                1.5911691218212718,
                0.8712186776423709,
                0.45772701284919276,
                -1.3496439202069124
            ]
        },
        {
            "positions": [
                2.8964781209571457,
                -2.913372138678332,
                1.679062513428375,
                1.0391031988000448,
                0.4600668168354339,
                -1.3691729181061034
            ]
        },
        {
            "positions": [
                2.9752634737450254,
                -2.9498043891396604,
                1.7669559050354784,
                1.206987719957719,
                0.462406620821675,
                -1.3887019160052945
            ]
        },
        {
            "positions": [
                3.054048826532905,
                -2.986236639600989,
                1.854849296642582,
                1.3748722411153933,
                0.46474642480791606,
                -1.4082309139044853
            ]
        },
        {
            "positions": [
                3.132834179320784,
                -3.022668890062317,
                1.942742688249685,
                1.5427567622730671,
                0.4670862287941572,
                -1.4277599118036761
            ]
        },
        {
            "positions": [
                3.2116195321086636,
                -3.0591011405236457,
                2.030636079856788,
                1.7106412834307414,
                0.4694260327803983,
                -1.4472889097028672
            ]
        },
        {
            "positions": [
                3.092228835971564,
                -3.0044384386194336,
                2.0480616106614504,
                1.6064417348427573,
                0.48043046787042537,
                -1.5268905467315832
            ]
        },
        {
            "positions": [
                2.972838139834464,
                -2.949775736715222,
                2.065487141466113,
                1.5022421862547735,
                0.4914349029604525,
                -1.6064921837602995
            ]
        },
        {
            "positions": [
                2.8534474436973642,
                -2.89511303481101,
                2.0829126722707754,
                1.3980426376667894,
                0.5024393380504796,
                -1.6860938207890155
            ]
        },
        {
            "positions": [
                2.7340567475602646,
                -2.840450332906798,
                2.100338203075438,
                1.2938430890788055,
                0.5134437731405067,
                -1.7656954578177315
            ]
        },
        {
            "positions": [
                2.614666051423165,
                -2.785787631002586,
                2.1177637338801003,
                1.1896435404908214,
                0.5244482082305337,
                -1.8452970948464475
            ]
        },
        {
            "positions": [
                2.495275355286065,
                -2.731124929098374,
                2.135189264684763,
                1.0854439919028374,
                0.5354526433205609,
                -1.9248987318751638
            ]
        },
        {
            "positions": [
                2.3758846591489653,
                -2.676462227194162,
                2.1526147954894252,
                0.9812444433148534,
                0.546457078410588,
                -2.00450036890388
            ]
        },
        {
            "positions": [
                2.2564939630118657,
                -2.6217995252899504,
                2.1700403262940875,
                0.8770448947268694,
                0.557461513500615,
                -2.084102005932596
            ]
        },
        {
            "positions": [
                2.1371032668747656,
                -2.5671368233857383,
                2.18746585709875,
                0.7728453461388853,
                0.5684659485906421,
                -2.163703642961312
            ]
        },
        {
            "positions": [
                2.017712570737666,
                -2.5124741214815267,
                2.2048913879034124,
                0.6686457975509015,
                0.5794703836806693,
                -2.243305279990028
            ]
        },
        {
            "positions": [
                1.898321874600566,
                -2.4578114195773146,
                2.222316918708075,
                0.5644462489629172,
                0.5904748187706963,
                -2.322906917018744
            ]
        },
        {
            "positions": [
                1.7789311784634663,
                -2.4031487176731026,
                2.2397424495127374,
                0.4602467003749333,
                0.6014792538607234,
                -2.4025085540474604
            ]
        },
        {
            "positions": [
                1.6595404823263664,
                -2.3484860157688905,
                2.2571679803174,
                0.35604715178694923,
                0.6124836889507506,
                -2.4821101910761767
            ]
        },
        {
            "positions": [
                1.5401497861892668,
                -2.293823313864679,
                2.2745935111220623,
                0.2518476031989654,
                0.6234881240407776,
                -2.5617118281048925
            ]
        },
        {
            "positions": [
                1.420759090052167,
                -2.239160611960467,
                2.292019041926725,
                0.1476480546109813,
                0.6344925591308047,
                -2.6413134651336088
            ]
        },
        {
            "positions": [
                1.3013683939150673,
                -2.184497910056255,
                2.3094445727313873,
                0.043448506022997435,
                0.6454969942208317,
                -2.7209151021623246
            ]
        },
        {
            "positions": [
                1.1819776977779672,
                -2.129835208152043,
                2.3268701035360495,
                -0.060751042564986646,
                0.6565014293108589,
                -2.800516739191041
            ]
        },
        {
            "positions": [
                1.0625870016408676,
                -2.0751725062478314,
                2.344295634340712,
                -0.16495059115297073,
                0.667505864400886,
                -2.880118376219757
            ]
        },
        {
            "positions": [
                0.943196305503768,
                -2.0205098043436194,
                2.3617211651453744,
                -0.2691501397409548,
                0.6785102994909131,
                -2.9597200132484733
            ]
        },
        {
            "positions": [
                0.8238056093666684,
                -1.9658471024394075,
                2.3791466959500367,
                -0.37334968832893844,
                0.6895147345809401,
                -3.039321650277189
            ]
        },
        {
            "positions": [
                0.7044149132295683,
                -1.9111844005351954,
                2.3965722267546994,
                -0.4775492369169228,
                0.7005191696709673,
                -3.1189232873059054
            ]
        }
    ]
}