{
    "goal": {
        "global_pose": {
            "orientation": {
                "w": 0.005598929693374612,
                "x": 0.007748599140229565,
                "y": 0.7110244013736278,
                "z": -0.7031023480610252
            },
            "position": {
                "x": -0.8858502320852131,
                "y": -0.7141253447532654,
                "z": 0.3711530566215515
            }
        },
        "name": "move_to_auspresseinheit_C"
    },
    "id": "BKPIECE_move_to_auspresseinheit_C_57",
    "joint_names": [
        "shoulder_pan_joint",
        "shoulder_lift_joint",
        "elbow_joint",
        "wrist_1_joint",
        "wrist_2_joint",
        "wrist_3_joint"
    ],
    "metrics": {
        "cart_traj_len": 0.49305391053319747,
        "distance_elbow_joint": 0.9960728430128445,
        "distance_shoulder_lift_joint": 0.3227298084696909,
        "distance_shoulder_pan_joint": 0.2559344423177392,
        "distance_wrist_1_joint": 0.6655517464600103,
        "distance_wrist_2_joint": 1.3186017418976625,
        "distance_wrist_3_joint": 0.043739954651439206,
        "smoothness": 1.6148698667872622e-16,
        "time": 0.42873932200000003,
        "traj_len": 1.8980596768303641,
        "weighted_distance": 2.3820713537738407
    },
    "planner": "BKPIECE",
    "start": {
        "state": {
            "elbow_joint": 1.7527959577737207,
            "shoulder_lift_joint": -0.9740617694225068,
            "shoulder_pan_joint": -2.967991417825858,
            "wrist_1_joint": -0.759517768980727,
            "wrist_2_joint": 1.7443932448377408,
            "wrist_3_joint": -3.0840537646736568
        }
    },
    "waypoints": [
        {
            "positions": [
                -2.967991417825858,
                -0.9740617694225068,
                1.7527959577737207,
                -0.759517768980727,
                1.7443932448377408,
                -3.0840537646736568
            ]
        },
        {
            "positions": [
                -2.942397973594084,
                -0.9417887885755377,
                1.6531886734724361,
                -0.692962594334726,
                1.6125330706479746,
                -3.0884277601388006
            ]
        },
        {
            "positions": [
                -2.91680452936231,
                -0.9095158077285685,
                1.5535813891711516,
                -0.6264074196887249,
                1.4806728964582083,
                -3.0928017556039444
            ]
        },
        {
            "positions": [
                -2.891211085130536,
                -0.8772428268815995,
                1.4539741048698673,
                -0.5598522450427239,
                1.348812722268442,
                -3.0971757510690887
            ]
        },
        {
            "positions": [
                -2.8656176408987624,
                -0.8449698460346304,
                1.3543668205685828,
                -0.4932970703967229,
                1.2169525480786758,
                -3.1015497465342325
            ]
        },
        {
            "positions": [
                -2.840024196666988,
                -0.8126968651876614,
                1.2547595362672985,
                -0.42674189575072186,
                1.0850923738889096,
                -3.1059237419993764
            ]
        },
        {
            "positions": [
                -2.8144307524352143,
                -0.7804238843406922,
                1.155152251966014,
                -0.36018672110472083,
                0.9532321996991433,
                -3.11029773746452
            ]
        },
        {
            "positions": [
                -2.7888373082034406,
                -0.7481509034937232,
                1.0555449676647295,
                -0.29363154645871986,
                0.8213720255093772,
                -3.114671732929664
            ]
        },
        {
            "positions": [
                -2.7632438639716668,
                -0.715877922646754,
                0.955937683363445,
                -0.22707637181271878,
                0.6895118513196108,
                -3.1190457283948083
            ]
        },
        {
            "positions": [
                -2.7376504197398925,
                -0.6836049417997849,
                0.8563303990621606,
                -0.16052119716671776,
                0.5576516771298445,
                -3.123419723859952
            ]
        },
        {
            "positions": [
                -2.7120569755081188,
                -0.6513319609528159,
                0.7567231147608762,
                -0.09396602252071676,
                0.4257915029400783,
                -3.127793719325096
            ]
        }
    ]
}