{
    "goal": {
        "global_pose": {
            "orientation": {
                "w": 0.5084816262002911,
                "x": -0.4908360881923452,
                "y": 0.5182115481033761,
                "z": -0.48164630358495003
            },
            "position": {
                "x": 0.5540239810943604,
                "y": -0.46912469901144505,
                "z": 0.16403168439865112
            }
        },
        "name": "move_to_storage_B"
    },
    "id": "BKPIECE_move_to_storage_B_119",
    "joint_names": [
        "shoulder_pan_joint",
        "shoulder_lift_joint",
        "elbow_joint",
        "wrist_1_joint",
        "wrist_2_joint",
        "wrist_3_joint"
    ],
    "metrics": {
        "cart_traj_len": 0.7966910497930922,
        "distance_elbow_joint": 0.35406985859983076,
        "distance_shoulder_lift_joint": 0.4614817139662657,
        "distance_shoulder_pan_joint": 0.6700042333517534,
        "distance_wrist_1_joint": 3.3679928837598414,
        "distance_wrist_2_joint": 2.71248426425361,
        "distance_wrist_3_joint": 5.279256660394795,
        "smoothness": 0.2803813880567282,
        "time": 0.262306981,
        "traj_len": 3.584032591136149,
        "weighted_distance": 5.429942917115164
    },
    "planner": "BKPIECE",
    "start": {
        "state": {
            "elbow_joint": 1.664937868594044,
            "shoulder_lift_joint": -0.661644460510453,
            "shoulder_pan_joint": -0.9139846352900073,
            "wrist_1_joint": 2.146753192139373,
            "wrist_2_joint": -2.2341966793290973,
            "wrist_3_joint": 0.005466555786416001
        }
    },
    "waypoints": [
        {
            "positions": [
                -0.9139846352900073,
                -0.661644460510453,
                1.664937868594044,
                2.146753192139373,
                -2.2341966793290973,
                0.005466555786416001
            ]
        },
        {
            "positions": [
                -0.9612558087647376,
                -0.6824968256569076,
                1.705146005877815,
                2.172612052212461,
                -2.0988619418246146,
                -0.11373199410471901
            ]
        },
        {
            "positions": [
                -1.0085269822394678,
                -0.7033491908033622,
                1.745354143161586,
                2.198470912285549,
                -1.9635272043201315,
                -0.23293054399585403
            ]
        },
        {
            "positions": [
                -1.0557981557141982,
                -0.7242015559498168,
                1.785562280445357,
                2.2243297723586366,
                -1.8281924668156488,
                -0.35212909388698904
            ]
        },
        {
            "positions": [
                -1.1030693291889284,
                -0.7450539210962714,
                1.825770417729128,
                2.2501886324317244,
                -1.692857729311166,
                -0.47132764377812403
            ]
        },
        {
            "positions": [
                -1.1503405026636588,
                -0.765906286242726,
                1.865978555012899,
                2.276047492504812,
                -1.557522991806683,
                -0.5905261936692592
            ]
        },
        {
            "positions": [
                -1.197611676138389,
                -0.7867586513891807,
                1.9061866922966701,
                2.3019063525779,
                -1.4221882543022002,
                -0.7097247435603942
            ]
        },
        {
            "positions": [
                -1.2331634448299107,
                -0.8162488370371703,
                1.9322817117689386,
                2.309167305497023,
                -1.2636290526710865,
                -0.797645691312409
            ]
        },
        {
            "positions": [
                -1.2687152135214324,
                -0.8457390226851599,
                1.9583767312412068,
                2.3164282584161464,
                -1.1050698510399728,
                -0.8855666390644238
            ]
        },
        {
            "positions": [
                -1.304266982212954,
                -0.8752292083331494,
                1.984471750713475,
                2.3236892113352696,
                -0.9465106494088591,
                -0.9734875868164385
            ]
        },
        {
            "positions": [
                -1.3398187509044757,
                -0.9047193939811391,
                2.0105667701857435,
                2.330950164254393,
                -0.7879514477777454,
                -1.0614085345684534
            ]
        },
        {
            "positions": [
                -1.3296449959987555,
                -0.9138196765017883,
                2.010918476727749,
                2.1982920012691918,
                -0.735191488081818,
                -0.8858926358167898
            ]
        },
        {
            "positions": [
                -1.3194712410930352,
                -0.9229199590224374,
                2.0112701832697546,
                2.065633838283991,
                -0.6824315283858905,
                -0.7103767370651263
            ]
        },
        {
            "positions": [
                -1.309297486187315,
                -0.9320202415430865,
                2.0116218898117597,
                1.93297567529879,
                -0.6296715686899631,
                -0.5348608383134626
            ]
        },
        {
            "positions": [
                -1.2991237312815949,
                -0.9411205240637357,
                2.0119735963537653,
                1.8003175123135893,
                -0.5769116089940356,
                -0.35934493956179914
            ]
        },
        {
            "positions": [
                -1.2889499763758747,
                -0.9502208065843849,
                2.012325302895771,
                1.6676593493283882,
                -0.5241516492981082,
                -0.1838290408101354
            ]
        },
        {
            "positions": [
                -1.2787762214701544,
                -0.959321089105034,
                2.0126770094377764,
                1.5350011863431874,
                -0.47139168960218075,
                -0.00831314205847189
            ]
        },
        {
            "positions": [
                -1.2686024665644342,
                -0.9684213716256831,
                2.013028715979782,
                1.4023430233579863,
                -0.4186317299062533,
                0.16720275669319173
            ]
        },
        {
            "positions": [
                -1.258428711658714,
                -0.9775216541463323,
                2.013380422521787,
                1.2696848603727857,
                -0.3658717702103259,
                0.34271865544485514
            ]
        },
        {
            "positions": [
                -1.2482549567529937,
                -0.9866219366669815,
                2.0137321290637926,
                1.1370266973875847,
                -0.3131118105143984,
                0.5182345541965188
            ]
        },
        {
            "positions": [
                -1.2380812018472735,
                -0.9957222191876306,
                2.014083835605798,
                1.0043685344023836,
                -0.260351850818471,
                0.6937504529481826
            ]
        },
        {
            "positions": [
                -1.2279074469415534,
                -1.0048225017082797,
                2.0144355421478037,
                0.871710371417183,
                -0.20759189112254361,
                0.869266351699846
            ]
        },
        {
            "positions": [
                -1.217733692035833,
                -1.013922784228929,
                2.0147872486898093,
                0.7390522084319819,
                -0.1548319314266161,
                1.0447822504515096
            ]
        },
        {
            "positions": [
                -1.207559937130113,
                -1.023023066749578,
                2.0151389552318144,
                0.6063940454467811,
                -0.10207197173068872,
                1.2202981492031733
            ]
        },
        {
            "positions": [
                -1.1973861822243927,
                -1.0321233492702273,
                2.01549066177382,
                0.47373588246158005,
                -0.04931201203476121,
                1.3958140479548369
            ]
        },
        {
            "positions": [
                -1.1872124273186726,
                -1.0412236317908763,
                2.0158423683158255,
                0.3410777194763792,
                0.003447947661166184,
                1.5713299467065005
            ]
        },
        {
            "positions": [
                -1.1770386724129522,
                -1.0503239143115255,
                2.016194074857831,
                0.2084195564911786,
                0.05620790735709358,
                1.7468458454581637
            ]
        },
        {
            "positions": [
                -1.166864917507232,
                -1.0594241968321747,
                2.016545781399836,
                0.0757613935059771,
                0.1089678670530212,
                1.9223617442098277
            ]
        },
        {
            "positions": [
                -1.156691162601512,
                -1.0685244793528237,
                2.0168974879418418,
                -0.05689676947922351,
                0.1617278267489486,
                2.0978776429614907
            ]
        },
        {
            "positions": [
                -1.1465174076957916,
                -1.077624761873473,
                2.0172491944838473,
                -0.18955493246442412,
                0.21448778644487598,
                2.2733935417131548
            ]
        },
        {
            "positions": [
                -1.1363436527900714,
                -1.086725044394122,
                2.017600901025853,
                -0.3222130954496256,
                0.2672477461408034,
                2.448909440464819
            ]
        },
        {
            "positions": [
                -1.1261698978843513,
                -1.0958253269147713,
                2.0179526075678584,
                -0.45487125843482623,
                0.32000770583673077,
                2.624425339216482
            ]
        },
        {
            "positions": [
                -1.1159961429786311,
                -1.1049256094354205,
                2.0183043141098636,
                -0.5875294214200268,
                0.37276766553265817,
                2.799941237968145
            ]
        },
        {
            "positions": [
                -1.1058223880729108,
                -1.1140258919560695,
                2.018656020651869,
                -0.7201875844052283,
                0.4255276252285858,
                2.9754571367198093
            ]
        },
        {
            "positions": [
                -1.0956486331671906,
                -1.1231261744767187,
                2.0190077271938747,
                -0.8528457473904288,
                0.47828758492451323,
                3.1509730354714724
            ]
        }
    ]
}