{
    "goal": {
        "global_pose": {
            "orientation": {
                "w": 0.7047431468963623,
                "x": -0.7094548344612122,
                "y": 0.0024358443915843964,
                "z": -0.0022348060738295317
            },
            "position": {
                "x": 0.6094750761985779,
                "y": 0.3671506643295288,
                "z": 0.19426114857196808
            }
        },
        "name": "move_to_magneteinheit_A"
    },
    "id": "BKPIECE_move_to_magneteinheit_A_39",
    "joint_names": [
        "shoulder_pan_joint",
        "shoulder_lift_joint",
        "elbow_joint",
        "wrist_1_joint",
        "wrist_2_joint",
        "wrist_3_joint"
    ],
    "metrics": {
        "cart_traj_len": 3.1964750209403867,
        "distance_elbow_joint": 3.9048609261116267,
        "distance_shoulder_lift_joint": 0.9144193352733881,
        "distance_shoulder_pan_joint": 3.5657285021312846,
        "distance_wrist_1_joint": 3.4535807036907546,
        "distance_wrist_2_joint": 2.2034679158782247,
        "distance_wrist_3_joint": 1.913543891803478,
        "smoothness": 0.22022325762957035,
        "time": 0.320700068,
        "traj_len": 3.9944463039185747,
        "weighted_distance": 5.043782080747016
    },
    "planner": "BKPIECE",
    "start": {
        "state": {
            "elbow_joint": -1.9196185241190666,
            "shoulder_lift_joint": -1.2443396400964142,
            "shoulder_pan_joint": 2.6996025414629847,
            "wrist_1_joint": -1.5485510000780065,
            "wrist_2_joint": -1.5709468930060704,
            "wrist_3_joint": 0.4420197071253992
        }
    },
    "waypoints": [
        {
            "positions": [
                2.6996025414629847,
                -1.2443396400964142,
                -1.9196185241190666,
                -1.5485510000780065,
                -1.5709468930060704,
                0.4420197071253992
            ]
        },
        {
            "positions": [
                2.5936934573981203,
                -1.2519926282611529,
                -1.818887444263431,
                -1.4570805897537875,
                -1.5080207375550956,
                0.4677034941124657
            ]
        },
        {
            "positions": [
                2.487784373333256,
                -1.2596456164258916,
                -1.7181563644077955,
                -1.3656101794295685,
                -1.4450945821041208,
                0.4933872810995323
            ]
        },
        {
            "positions": [
                2.3818752892683914,
                -1.2672986045906303,
                -1.6174252845521602,
                -1.2741397691053495,
                -1.382168426653146,
                0.5190710680865989
            ]
        },
        {
            "positions": [
                2.2759662052035274,
                -1.2749515927553692,
                -1.5166942046965246,
                -1.1826693587811306,
                -1.3192422712021712,
                0.5447548550736654
            ]
        },
        {
            "positions": [
                2.1700571211386626,
                -1.2826045809201079,
                -1.415963124840889,
                -1.0911989484569116,
                -1.2563161157511964,
                0.5704386420607319
            ]
        },
        {
            "positions": [
                2.0641480370737986,
                -1.2902575690848466,
                -1.3152320449852537,
                -0.9997285381326926,
                -1.1933899603002218,
                0.5961224290477984
            ]
        },
        {
            "positions": [
                1.9582389530089341,
                -1.2979105572495853,
                -1.2145009651296181,
                -0.9082581278084735,
                -1.130463804849247,
                0.621806216034865
            ]
        },
        {
            "positions": [
                1.8523298689440697,
                -1.305563545414324,
                -1.1137698852739826,
                -0.8167877174842546,
                -1.0675376493982722,
                0.6474900030219315
            ]
        },
        {
            "positions": [
                1.7464207848792053,
                -1.3132165335790627,
                -1.013038805418347,
                -0.7253173071600355,
                -1.0046114939472974,
                0.673173790008998
            ]
        },
        {
            "positions": [
                1.6405117008143408,
                -1.3208695217438013,
                -0.9123077255627114,
                -0.6338468968358165,
                -0.9416853384963225,
                0.6988575769960647
            ]
        },
        {
            "positions": [
                1.5346026167494766,
                -1.3285225099085403,
                -0.8115766457070761,
                -0.5423764865115976,
                -0.8787591830453478,
                0.7245413639831312
            ]
        },
        {
            "positions": [
                1.4286935326846122,
                -1.336175498073279,
                -0.7108455658514405,
                -0.45090607618737866,
                -0.815833027594373,
                0.7502251509701977
            ]
        },
        {
            "positions": [
                1.3227844486197478,
                -1.3438284862380176,
                -0.610114485995805,
                -0.35943566586315945,
                -0.7529068721433982,
                0.7759089379572643
            ]
        },
        {
            "positions": [
                1.2168753645548835,
                -1.3514814744027563,
                -0.5093834061401694,
                -0.26796525553894046,
                -0.6899807166924234,
                0.8015927249443309
            ]
        },
        {
            "positions": [
                1.110966280490019,
                -1.359134462567495,
                -0.40865232628453385,
                -0.17649484521472147,
                -0.6270545612414486,
                0.8272765119313974
            ]
        },
        {
            "positions": [
                1.005057196425155,
                -1.3667874507322337,
                -0.3079212464288983,
                -0.08502443489050271,
                -0.5641284057904739,
                0.8529602989184639
            ]
        },
        {
            "positions": [
                0.8991481123602905,
                -1.3744404388969724,
                -0.20719016657326295,
                0.006445975433716278,
                -0.5012022503394993,
                0.8786440859055304
            ]
        },
        {
            "positions": [
                0.793239028295426,
                -1.3820934270617111,
                -0.10645908671762716,
                0.09791638575793549,
                -0.43827609488852426,
                0.904327872892597
            ]
        },
        {
            "positions": [
                0.6873299442305618,
                -1.38974641522645,
                -0.005728006861991819,
                0.18938679608215425,
                -0.37534993943754946,
                0.9300116598796635
            ]
        },
        {
            "positions": [
                0.5814208601656969,
                -1.3973994033911887,
                0.09500307299364374,
                0.28085720640637346,
                -0.31242378398657467,
                0.9556954468667301
            ]
        },
        {
            "positions": [
                0.47551177610083295,
                -1.4050523915559274,
                0.1957341528492793,
                0.37232761673059245,
                -0.24949762853559987,
                0.9813792338537967
            ]
        },
        {
            "positions": [
                0.3696026920359685,
                -1.4127053797206661,
                0.2964652327049144,
                0.4637980270548112,
                -0.1865714730846253,
                1.0070630208408633
            ]
        },
        {
            "positions": [
                0.2636936079711041,
                -1.4203583678854048,
                0.39719631256055044,
                0.5552684373790304,
                -0.12364531763365028,
                1.0327468078279298
            ]
        },
        {
            "positions": [
                0.15778452390623965,
                -1.4280113560501435,
                0.49792739241618555,
                0.6467388477032492,
                -0.0607191621826757,
                1.0584305948149964
            ]
        },
        {
            "positions": [
                0.05187543984137566,
                -1.4356643442148822,
                0.5986584722718211,
                0.7382092580274684,
                0.0022069932682990956,
                1.0841143818020629
            ]
        },
        {
            "positions": [
                -0.05403364422348922,
                -1.4433173323796211,
                0.6993895521274567,
                0.8296796683516876,
                0.06513314871927389,
                1.1097981687891294
            ]
        },
        {
            "positions": [
                -0.1599427282883532,
                -1.4509703205443598,
                0.8001206319830922,
                0.9211500786759064,
                0.1280593041702487,
                1.135481955776196
            ]
        },
        {
            "positions": [
                -0.26585181235321764,
                -1.4586233087090985,
                0.9008517118387278,
                1.0126204890001256,
                0.19098545962122349,
                1.1611657427632625
            ]
        },
        {
            "positions": [
                -0.371760896418082,
                -1.4662762968738372,
                1.0015827916943634,
                1.1040908993243446,
                0.2539116150721984,
                1.186849529750329
            ]
        },
        {
            "positions": [
                -0.33056380773056393,
                -1.4085694069991734,
                1.0835544258858798,
                1.1708357996817114,
                0.22236083108886867,
                1.0894566906521166
            ]
        },
        {
            "positions": [
                -0.28936671904304584,
                -1.3508625171245097,
                1.165526060077396,
                1.2375807000390784,
                0.19081004710553892,
                0.9920638515539044
            ]
        },
        {
            "positions": [
                -0.24816963035552775,
                -1.293155627249846,
                1.2474976942689124,
                1.3043256003964454,
                0.15925926312220917,
                0.894671012455692
            ]
        },
        {
            "positions": [
                -0.20697254166800966,
                -1.2354487373751821,
                1.3294693284604286,
                1.3710705007538122,
                0.12770847913887945,
                0.7972781733574797
            ]
        },
        {
            "positions": [
                -0.16577545298049157,
                -1.1777418475005184,
                1.411440962651945,
                1.437815401111179,
                0.0961576951555497,
                0.6998853342592674
            ]
        },
        {
            "positions": [
                -0.12457836429297348,
                -1.1200349576258546,
                1.4934125968434615,
                1.504560301468546,
                0.06460691117221998,
                0.6024924951610551
            ]
        },
        {
            "positions": [
                -0.08338127560545538,
                -1.0623280677511908,
                1.5753842310349777,
                1.571305201825913,
                0.03305612718889023,
                0.5050996560628427
            ]
        },
        {
            "positions": [
                -0.042184186917937294,
                -1.004621177876527,
                1.657355865226494,
                1.6380501021832798,
                0.0015053432055605054,
                0.4077068169646305
            ]
        },
        {
            "positions": [
                -0.0009870982304192033,
                -0.9469142880018634,
                1.7393274994180103,
                1.7047950025406466,
                -0.030045440777769217,
                0.3103139778664181
            ]
        },
        {
            "positions": [
                0.04020999045709889,
                -0.8892073981271996,
                1.8212991336095268,
                1.7715399028980137,
                -0.061596224761098994,
                0.21292113876820573
            ]
        },
        {
            "positions": [
                0.08140707914461698,
                -0.8315005082525359,
                1.9032707678010432,
                1.8382848032553807,
                -0.09314700874442866,
                0.11552829966999356
            ]
        },
        {
            "positions": [
                0.12260416783213508,
                -0.7737936183778721,
                1.9852424019925594,
                1.9050297036127475,
                -0.12469779272775842,
                0.018135460571781142
            ]
        }
    ]
}