{
    "goal": {
        "global_pose": {
            "orientation": {
                "w": -0.4816463035849501,
                "x": 0.5182115481033762,
                "y": 0.4908360881923453,
                "z": -0.5084816262002911
            },
            "position": {
                "x": -0.8240239810943604,
                "y": -0.300875300988555,
                "z": 0.16403168439865112
            }
        },
        "name": "move_to_storage_C"
    },
    "id": "BKPIECE_move_to_storage_C_2",
    "joint_names": [
        "shoulder_pan_joint",
        "shoulder_lift_joint",
        "elbow_joint",
        "wrist_1_joint",
        "wrist_2_joint",
        "wrist_3_joint"
    ],
    "metrics": {
        "cart_traj_len": 0.5771280019642019,
        "distance_elbow_joint": 0.2585458228026172,
        "distance_shoulder_lift_joint": 0.18931832103184687,
        "distance_shoulder_pan_joint": 0.49624990881796105,
        "distance_wrist_1_joint": 0.08209603565725443,
        "distance_wrist_2_joint": 1.0609777785243644,
        "distance_wrist_3_joint": 0.07528665011776381,
        "smoothness": 0.0,
        "time": 0.184550454,
        "traj_len": 1.4705354524634242,
        "weighted_distance": 1.859064719521339
    },
    "planner": "BKPIECE",
    "start": {
        "state": {
            "elbow_joint": 2.010868314990456,
            "shoulder_lift_joint": -1.1634956873337592,
            "shoulder_pan_joint": -2.4736205022346125,
            "wrist_1_joint": -0.8367026794202681,
            "wrist_2_joint": 0.6746043897044499,
            "wrist_3_joint": -3.1496632123970403
        }
    },
    "waypoints": [
        {
            "positions": [
                -2.4736205022346125,
                -1.1634956873337592,
                2.010868314990456,
                -0.8367026794202681,
                0.6746043897044499,
                -3.1496632123970403
            ]
        },
        {
            "positions": [
                -2.5563288203709393,
                -1.1319426338284513,
                1.9677773445233528,
                -0.8230200068107257,
                0.8514340194585106,
                -3.137115437377413
            ]
        },
        {
            "positions": [
                -2.639037138507266,
                -1.1003895803231436,
                1.92468637405625,
                -0.8093373342011833,
                1.0282636492125714,
                -3.124567662357786
            ]
        },
        {
            "positions": [
                -2.721745456643593,
                -1.0688365268178357,
                1.8815954035891473,
                -0.7956546615916409,
                1.2050932789666322,
                -3.1120198873381586
            ]
        },
        {
            "positions": [
                -2.80445377477992,
                -1.037283473312528,
                1.8385044331220444,
                -0.7819719889820985,
                1.3819229087206928,
                -3.099472112318531
            ]
        },
        {
            "positions": [
                -2.8871620929162467,
                -1.00573041980722,
                1.7954134626549414,
                -0.768289316372556,
                1.5587525384747536,
                -3.0869243372989037
            ]
        },
        {
            "positions": [
                -2.9698704110525735,
                -0.9741773663019123,
                1.7523224921878386,
                -0.7546066437630137,
                1.7355821682288144,
                -3.0743765622792765
            ]
        }
    ]
}