{
    "goal": {
        "global_pose": {
            "orientation": {
                "w": 0.7031023502349854,
                "x": -0.7110244035720825,
                "y": 0.007748599164187908,
                "z": 0.005598929710686207
            },
            "position": {
                "x": 0.11585023208521307,
                "y": 0.44412534475326537,
                "z": 0.3711530566215515
            }
        },
        "name": "move_to_auspresseinheit_A"
    },
    "id": "BKPIECE_move_to_auspresseinheit_A_74",
    "joint_names": [
        "shoulder_pan_joint",
        "shoulder_lift_joint",
        "elbow_joint",
        "wrist_1_joint",
        "wrist_2_joint",
        "wrist_3_joint"
    ],
    "metrics": {
        "cart_traj_len": 0.7145076855341375,
        "distance_elbow_joint": 0.28147326504900283,
        "distance_shoulder_lift_joint": 0.5335278526507596,
        "distance_shoulder_pan_joint": 1.0431976560188247,
        "distance_wrist_1_joint": 1.301168373388755,
        "distance_wrist_2_joint": 0.5547121606738232,
        "distance_wrist_3_joint": 0.568801395835183,
        "smoothness": 1.0706714539217794,
        "time": 0.32530655399999997,
        "traj_len": 2.0695121897723503,
        "weighted_distance": 2.697473638304792
    },
    "planner": "BKPIECE",
    "start": {
        "state": {
            "elbow_joint": 2.4225746658250005,
            "shoulder_lift_joint": -1.3736534386056498,
            "shoulder_pan_joint": -0.3378633547517467,
            "wrist_1_joint": -1.0288598680537169,
            "wrist_2_joint": 1.233022673432363,
            "wrist_3_joint": -3.0940220416140027
        }
    },
    "waypoints": [
        {
            "positions": [
                -0.3378633547517467,
                -1.3736534386056498,
                2.4225746658250005,
                -1.0288598680537169,
                1.233022673432363,
                -3.0940220416140027
            ]
        },
        {
            "positions": [
                -0.28793344178009445,
                -1.4349112835298539,
                2.4029732085467117,
                -0.9114701442994868,
                1.1651729345189916,
                -3.061372002294678
            ]
        },
        {
            "positions": [
                -0.23800352880844214,
                -1.4961691284540581,
                2.383371751268423,
                -0.7940804205452567,
                1.09732319560562,
                -3.0287219629753537
            ]
        },
        {
            "positions": [
                -0.18807361583678983,
                -1.5574269733782624,
                2.363770293990134,
                -0.6766906967910266,
                1.0294734566922485,
                -2.996071923656029
            ]
        },
        {
            "positions": [
                -0.13814370286513755,
                -1.6186848183024665,
                2.3441688367118454,
                -0.5593009730367965,
                0.9616237177788769,
                -2.9634218843367046
            ]
        },
        {
            "positions": [
                -0.08821378989348527,
                -1.6799426632266705,
                2.324567379433556,
                -0.4419112492825664,
                0.8937739788655055,
                -2.9307718450173805
            ]
        },
        {
            "positions": [
                -0.03828387692183294,
                -1.7412005081508748,
                2.3049659221552674,
                -0.32452152552833624,
                0.8259242399521339,
                -2.898121805698056
            ]
        },
        {
            "positions": [
                0.011646036049819342,
                -1.802458353075079,
                2.2853644648769786,
                -0.20713180177410617,
                0.7580745010387624,
                -2.8654717663787315
            ]
        },
        {
            "positions": [
                0.061575949021471635,
                -1.8637161979992831,
                2.26576300759869,
                -0.08974207801987613,
                0.6902247621253909,
                -2.832821727059407
            ]
        },
        {
            "positions": [
                0.22251553708287325,
                -1.8745824713135648,
                2.296928409304363,
                -0.18025472385860464,
                0.6932033244671036,
                -2.909721997379554
            ]
        },
        {
            "positions": [
                0.3834551251442748,
                -1.8854487446278463,
                2.328093811010036,
                -0.27076736969733317,
                0.6961818868088163,
                -2.9866222676997003
            ]
        },
        {
            "positions": [
                0.5443947132056765,
                -1.8963150179421278,
                2.359259212715709,
                -0.3612800155360616,
                0.6991604491505291,
                -3.063522538019847
            ]
        },
        {
            "positions": [
                0.7053343012670781,
                -1.9071812912564094,
                2.390424614421382,
                -0.4517926613747902,
                0.7021390114922419,
                -3.140422808339994
            ]
        }
    ]
}