{
    "goal": {
        "global_pose": {
            "orientation": {
                "w": 0.7047431493862688,
                "x": -0.7094548369677653,
                "y": 0.0024358444001904,
                "z": -0.0022348060817251984
            },
            "position": {
                "x": -0.39052492380142206,
                "y": 0.3671506643295288,
                "z": 0.19426114857196808
            }
        },
        "name": "move_to_magneteinheit_D"
    },
    "id": "BKPIECE_move_to_magneteinheit_D_86",
    "joint_names": [
        "shoulder_pan_joint",
        "shoulder_lift_joint",
        "elbow_joint",
        "wrist_1_joint",
        "wrist_2_joint",
        "wrist_3_joint"
    ],
    "metrics": {
        "cart_traj_len": 4.267721260625933,
        "distance_elbow_joint": 5.583115157872097,
        "distance_shoulder_lift_joint": 1.6265344881826957,
        "distance_shoulder_pan_joint": 3.766831879280132,
        "distance_wrist_1_joint": 3.7753937309183088,
        "distance_wrist_2_joint": 2.56009649091617,
        "distance_wrist_3_joint": 3.41477881850965,
        "smoothness": 0.44006760074186585,
        "time": 0.312519542,
        "traj_len": 4.552664117379958,
        "weighted_distance": 5.821666292783608
    },
    "planner": "BKPIECE",
    "start": {
        "state": {
            "elbow_joint": 0.749534889911806,
            "shoulder_lift_joint": -0.6476975780787326,
            "shoulder_pan_joint": -2.711696901376241,
            "wrist_1_joint": -0.07506478083263063,
            "wrist_2_joint": 0.43296659715538205,
            "wrist_3_joint": -3.14703540197715
        }
    },
    "waypoints": [
        {
            "positions": [
                -2.711696901376241,
                -0.6476975780787326,
                0.749534889911806,
                -0.07506478083263063,
                0.43296659715538205,
                -3.14703540197715
            ]
        },
        {
            "positions": [
                -2.711712585797281,
                -0.6846853848717426,
                0.8072447261463119,
                -0.13336305037656027,
                0.3412622273927184,
                -2.999767580652416
            ]
        },
        {
            "positions": [
                -2.7117282702183205,
                -0.7216731916647525,
                0.864954562380818,
                -0.19166131992048993,
                0.24955785763005475,
                -2.852499759327683
            ]
        },
        {
            "positions": [
                -2.71174395463936,
                -0.7586609984577625,
                0.922664398615324,
                -0.2499595894644196,
                0.15785348786739112,
                -2.705231938002949
            ]
        },
        {
            "positions": [
                -2.7117596390603995,
                -0.7956488052507724,
                0.9803742348498301,
                -0.30825785900834923,
                0.06614911810472746,
                -2.5579641166782157
            ]
        },
        {
            "positions": [
                -2.7117753234814392,
                -0.8326366120437825,
                1.0380840710843362,
                -0.36655612855227887,
                -0.025555251657936207,
                -2.410696295353482
            ]
        },
        {
            "positions": [
                -2.711791007902479,
                -0.8696244188367923,
                1.095793907318842,
                -0.42485439809620856,
                -0.11725962142059981,
                -2.263428474028748
            ]
        },
        {
            "positions": [
                -2.7118066923235182,
                -0.9066122256298024,
                1.1535037435533482,
                -0.48315266764013814,
                -0.20896399118326342,
                -2.1161606527040147
            ]
        },
        {
            "positions": [
                -2.711822376744558,
                -0.9436000324228123,
                1.2112135797878543,
                -0.5414509371840679,
                -0.30066836094592714,
                -1.9688928313792808
            ]
        },
        {
            "positions": [
                -2.7118380611655977,
                -0.9805878392158223,
                1.2689234160223601,
                -0.5997492067279975,
                -0.39237273070859074,
                -1.8216250100545472
            ]
        },
        {
            "positions": [
                -2.7118537455866374,
                -1.017575646008832,
                1.3266332522568662,
                -0.6580474762719271,
                -0.48407710047125446,
                -1.6743571887298134
            ]
        },
        {
            "positions": [
                -2.7118694300076767,
                -1.0545634528018422,
                1.3843430884913723,
                -0.7163457458158569,
                -0.5757814702339181,
                -1.52708936740508
            ]
        },
        {
            "positions": [
                -2.7118851144287164,
                -1.0915512595948522,
                1.4420529247258784,
                -0.7746440153597864,
                -0.6674858399965817,
                -1.3798215460803462
            ]
        },
        {
            "positions": [
                -2.711900798849756,
                -1.128539066387862,
                1.4997627609603843,
                -0.832942284903716,
                -0.7591902097592453,
                -1.2325537247556126
            ]
        },
        {
            "positions": [
                -2.6394389861850556,
                -1.1790833850526858,
                1.5195110798900622,
                -0.8580296269054252,
                -0.803142942666046,
                -1.0636525989908039
            ]
        },
        {
            "positions": [
                -2.566977173520355,
                -1.2296277037175096,
                1.5392593988197398,
                -0.8831169689071343,
                -0.8470956755728467,
                -0.8947514732259949
            ]
        },
        {
            "positions": [
                -2.4945153608556545,
                -1.2801720223823334,
                1.5590077177494177,
                -0.9082043109088436,
                -0.8910484084796473,
                -0.7258503474611862
            ]
        },
        {
            "positions": [
                -2.422053548190954,
                -1.3307163410471572,
                1.5787560366790954,
                -0.9332916529105527,
                -0.935001141386448,
                -0.5569492216963773
            ]
        },
        {
            "positions": [
                -2.3495917355262534,
                -1.381260659711981,
                1.5985043556087732,
                -0.9583789949122619,
                -0.9789538742932486,
                -0.3880480959315685
            ]
        },
        {
            "positions": [
                -2.223620402509622,
                -1.4016229683676162,
                1.5037049248486176,
                -0.888410091675481,
                -0.93138231373926,
                -0.38290890397691013
            ]
        },
        {
            "positions": [
                -2.0976490694929906,
                -1.4219852770232517,
                1.408905494088462,
                -0.8184411884387002,
                -0.8838107531852712,
                -0.37776971202225174
            ]
        },
        {
            "positions": [
                -1.9716777364763587,
                -1.442347585678887,
                1.3141060633283064,
                -0.7484722852019194,
                -0.8362391926312827,
                -0.37263052006759334
            ]
        },
        {
            "positions": [
                -1.8457064034597273,
                -1.4627098943345223,
                1.2193066325681508,
                -0.6785033819651386,
                -0.7886676320772938,
                -0.36749132811293495
            ]
        },
        {
            "positions": [
                -1.7197350704430958,
                -1.4830722029901577,
                1.1245072018079951,
                -0.6085344787283578,
                -0.7410960715233053,
                -0.36235213615827655
            ]
        },
        {
            "positions": [
                -1.5937637374264642,
                -1.503434511645793,
                1.0297077710478393,
                -0.538565575491577,
                -0.6935245109693166,
                -0.35721294420361815
            ]
        },
        {
            "positions": [
                -1.4677924044098325,
                -1.5237968203014285,
                0.9349083402876837,
                -0.4685966722547962,
                -0.6459529504153279,
                -0.35207375224895976
            ]
        },
        {
            "positions": [
                -1.341821071393201,
                -1.5441591289570638,
                0.840108909527528,
                -0.39862776901801533,
                -0.5983813898613392,
                -0.34693456029430136
            ]
        },
        {
            "positions": [
                -1.257180536649549,
                -1.5584632327148102,
                0.6684231095065809,
                -0.2993988611141229,
                -0.5885775335462599,
                -0.35122335676557986
            ]
        },
        {
            "positions": [
                -1.172540001905897,
                -1.5727673364725567,
                0.4967373094856338,
                -0.20016995321023048,
                -0.5787736772311806,
                -0.35551215323685836
            ]
        },
        {
            "positions": [
                -1.0878994671622448,
                -1.5870714402303032,
                0.32505150946468675,
                -0.10094104530633802,
                -0.5689698209161012,
                -0.35980094970813686
            ]
        },
        {
            "positions": [
                -1.0032589324185928,
                -1.6013755439880497,
                0.15336570944373962,
                -0.0017121374024456348,
                -0.5591659646010219,
                -0.36408974617941536
            ]
        },
        {
            "positions": [
                -0.9186183976749407,
                -1.6156796477457962,
                -0.018320090577207404,
                0.0975167705014468,
                -0.5493621082859426,
                -0.36837854265069386
            ]
        },
        {
            "positions": [
                -0.8339778629312886,
                -1.6299837515035427,
                -0.19000589059815454,
                0.1967456784053393,
                -0.5395582519708633,
                -0.37266733912197236
            ]
        },
        {
            "positions": [
                -0.7493373281876365,
                -1.6442878552612892,
                -0.36169169061910167,
                0.2959745863092317,
                -0.529754395655784,
                -0.37695613559325086
            ]
        },
        {
            "positions": [
                -0.6646967934439845,
                -1.6585919590190357,
                -0.5333774906400488,
                0.39520349421312406,
                -0.5199505393407046,
                -0.38124493206452936
            ]
        },
        {
            "positions": [
                -0.5800562587003324,
                -1.6728960627767822,
                -0.7050632906609957,
                0.49443240211701656,
                -0.5101466830256253,
                -0.3855337285358078
            ]
        },
        {
            "positions": [
                -0.4954157239566802,
                -1.6872001665345286,
                -0.8767490906819428,
                0.5936613100209089,
                -0.500342826710546,
                -0.38982252500708636
            ]
        },
        {
            "positions": [
                -0.41077518921302814,
                -1.7015042702922751,
                -1.0484348907028902,
                0.6928902179248015,
                -0.4905389703954666,
                -0.3941113214783648
            ]
        },
        {
            "positions": [
                -0.3261346544693762,
                -1.7158083740500216,
                -1.220120690723837,
                0.7921191258286939,
                -0.4807351140803873,
                -0.3984001179496433
            ]
        },
        {
            "positions": [
                -0.24149411972572388,
                -1.7301124778077681,
                -1.3918064907447845,
                0.8913480337325863,
                -0.470931257765308,
                -0.4026889144209218
            ]
        },
        {
            "positions": [
                -0.15685358498207203,
                -1.7444165815655146,
                -1.5634922907657314,
                0.9905769416364787,
                -0.4611274014502287,
                -0.4069777108922003
            ]
        },
        {
            "positions": [
                -0.07221305023841973,
                -1.758720685323261,
                -1.7351780907866787,
                1.0898058495403713,
                -0.4513235451351494,
                -0.4112665073634788
            ]
        },
        {
            "positions": [
                0.012427484505232123,
                -1.7730247890810076,
                -1.9068638908076256,
                1.1890347574442635,
                -0.4415196888200701,
                -0.4155553038347573
            ]
        },
        {
            "positions": [
                0.09706801924888442,
                -1.787328892838754,
                -2.0785496908285728,
                1.288263665348156,
                -0.4317158325049907,
                -0.4198441003060358
            ]
        },
        {
            "positions": [
                0.18170855399253627,
                -1.8016329965965006,
                -2.2502354908495192,
                1.3874925732520484,
                -0.4219119761899114,
                -0.4241328967773143
            ]
        },
        {
            "positions": [
                0.26634908873618857,
                -1.815937100354247,
                -2.4219212908704666,
                1.486721481155941,
                -0.4121081198748321,
                -0.4284216932485928
            ]
        },
        {
            "positions": [
                0.35098962347984064,
                -1.8302412041119935,
                -2.593607090891414,
                1.5859503890598332,
                -0.4023042635597528,
                -0.4327104897198713
            ]
        },
        {
            "positions": [
                0.4356301582234927,
                -1.84454530786974,
                -2.7652928909123613,
                1.6851792969637258,
                -0.39250040724467344,
                -0.4369992861911498
            ]
        },
        {
            "positions": [
                0.3471877261187258,
                -1.905929130497124,
                -2.712385970104648,
                1.6496762648261987,
                -0.3122543283276786,
                -0.36205453605829924
            ]
        },
        {
            "positions": [
                0.25874529401395885,
                -1.9673129531245082,
                -2.6594790492969342,
                1.6141732326886717,
                -0.2320082494106837,
                -0.28710978592544867
            ]
        },
        {
            "positions": [
                0.17030286190919197,
                -2.028696775751892,
                -2.606572128489221,
                1.5786702005511446,
                -0.15176217049368884,
                -0.21216503579259813
            ]
        },
        {
            "positions": [
                0.08186042980442504,
                -2.0900805983792763,
                -2.5536652076815076,
                1.5431671684136175,
                -0.07151609157669397,
                -0.1372202856597476
            ]
        },
        {
            "positions": [
                -0.006582002300341894,
                -2.1514644210066605,
                -2.5007582868737943,
                1.5076641362760903,
                0.008729987340300893,
                -0.06227553552689702
            ]
        },
        {
            "positions": [
                -0.09502443440510877,
                -2.212848243634044,
                -2.4478513660660806,
                1.4721611041385634,
                0.08897606625729576,
                0.01266921460595355
            ]
        },
        {
            "positions": [
                -0.18346686650987576,
                -2.2742320662614284,
                -2.3949444452583672,
                1.4366580720010362,
                0.16922214517429066,
                0.08761396473880409
            ]
        }
    ]
}