{
    "goal": {
        "global_pose": {
            "orientation": {
                "w": 0.7047431493862688,
                "x": -0.7094548369677653,
                "y": 0.0024358444001904,
                "z": -0.0022348060817251984
            },
            "position": {
                "x": -0.39052492380142206,
                "y": 0.3671506643295288,
                "z": 0.19426114857196808
            }
        },
        "name": "move_to_magneteinheit_D"
    },
    "id": "BKPIECE_move_to_magneteinheit_D_148",
    "joint_names": [
        "shoulder_pan_joint",
        "shoulder_lift_joint",
        "elbow_joint",
        "wrist_1_joint",
        "wrist_2_joint",
        "wrist_3_joint"
    ],
    "metrics": {
        "cart_traj_len": 4.855420877478974,
        "distance_elbow_joint": 3.147726390989262,
        "distance_shoulder_lift_joint": 1.6264539235028355,
        "distance_shoulder_pan_joint": 3.976994820339222,
        "distance_wrist_1_joint": 1.5133450124744496,
        "distance_wrist_2_joint": 0.5930753130945523,
        "distance_wrist_3_joint": 3.35417453063034,
        "smoothness": 0.30141591703164666,
        "time": 0.166151076,
        "traj_len": 3.7698501284574513,
        "weighted_distance": 4.798597647006919
    },
    "planner": "BKPIECE",
    "start": {
        "state": {
            "elbow_joint": 0.749534889911806,
            "shoulder_lift_joint": -0.6476975780787326,
            "shoulder_pan_joint": -2.711696901376241,
            "wrist_1_joint": -0.07506478083263063,
            "wrist_2_joint": 0.43296659715538205,
            "wrist_3_joint": -3.14703540197715
        }
    },
    "waypoints": [
        {
            "positions": [
                -2.711696901376241,
                -0.6476975780787326,
                0.749534889911806,
                -0.07506478083263063,
                0.43296659715538205,
                -3.14703540197715
            ]
        },
        {
            "positions": [
                -2.7233867814557,
                -0.6605918460440021,
                0.7445058620675888,
                -0.06096806187181959,
                0.40220861423458404,
                -2.968085097852536
            ]
        },
        {
            "positions": [
                -2.734639752146095,
                -0.6823555263783043,
                0.7357229330347169,
                -0.04149255702417611,
                0.35310853923790525,
                -2.6864759407745016
            ]
        },
        {
            "positions": [
                -2.7458927228364898,
                -0.7041192067126065,
                0.726940004001845,
                -0.02201705217653263,
                0.3040084642412264,
                -2.404866783696467
            ]
        },
        {
            "positions": [
                -2.757145693526885,
                -0.7258828870469088,
                0.7181570749689731,
                -0.00254154732888915,
                0.2549083892445476,
                -2.123257626618433
            ]
        },
        {
            "positions": [
                -2.76839866421728,
                -0.747646567381211,
                0.7093741459361012,
                0.01693395751875433,
                0.2058083142478688,
                -1.8416484695403983
            ]
        },
        {
            "positions": [
                -2.779651634907675,
                -0.7694102477155133,
                0.7005912169032292,
                0.03640946236639782,
                0.15670823925118998,
                -1.5600393124623637
            ]
        },
        {
            "positions": [
                -2.7909046055980706,
                -0.7911739280498156,
                0.6918082878703573,
                0.05588496721404129,
                0.1076081642545112,
                -1.2784301553843294
            ]
        },
        {
            "positions": [
                -2.8021575762884656,
                -0.8129376083841178,
                0.6830253588374854,
                0.07536047206168477,
                0.05850808925783235,
                -0.996820998306295
            ]
        },
        {
            "positions": [
                -2.8134105469788606,
                -0.83470128871842,
                0.6742424298046135,
                0.09483597690932827,
                0.00940801426115358,
                -0.7152118412282603
            ]
        },
        {
            "positions": [
                -2.6655937711876247,
                -0.8951570515100054,
                0.5737758492469668,
                0.13382879671733472,
                0.013871718609609665,
                -0.6761395786862502
            ]
        },
        {
            "positions": [
                -2.5177769953963893,
                -0.9556128143015908,
                0.4733092686893201,
                0.17282161652534117,
                0.01833542295806575,
                -0.6370673161442401
            ]
        },
        {
            "positions": [
                -2.3699602196051535,
                -1.0160685770931763,
                0.3728426881316735,
                0.2118144363333476,
                0.02279912730652183,
                -0.5979950536022299
            ]
        },
        {
            "positions": [
                -2.222143443813918,
                -1.0765243398847617,
                0.2723761075740268,
                0.250807256141354,
                0.027262831654977917,
                -0.5589227910602197
            ]
        },
        {
            "positions": [
                -2.074326668022682,
                -1.136980102676347,
                0.17190952701638018,
                0.2898000759493605,
                0.031726536003434,
                -0.5198505285182096
            ]
        },
        {
            "positions": [
                -1.9265098922314468,
                -1.1974358654679325,
                0.0714429464587335,
                0.3287928957573669,
                0.036190240351890085,
                -0.4807782659761995
            ]
        },
        {
            "positions": [
                -1.7786931164402109,
                -1.257891628259518,
                -0.029023634098913176,
                0.36778571556537337,
                0.04065394470034617,
                -0.44170600343418936
            ]
        },
        {
            "positions": [
                -1.6308763406489752,
                -1.3183473910511034,
                -0.12949021465655985,
                0.4067785353733798,
                0.04511764904880225,
                -0.4026337408921792
            ]
        },
        {
            "positions": [
                -1.4830595648577396,
                -1.3788031538426888,
                -0.22995679521420664,
                0.44577135518138633,
                0.049581353397258346,
                -0.36356147835016905
            ]
        },
        {
            "positions": [
                -1.335242789066504,
                -1.4392589166342742,
                -0.3304233757718531,
                0.4847641749893927,
                0.05404505774571443,
                -0.3244892158081589
            ]
        },
        {
            "positions": [
                -1.1874260132752683,
                -1.4997146794258596,
                -0.4308899563294999,
                0.5237569947973992,
                0.05850876209417051,
                -0.2854169532661488
            ]
        },
        {
            "positions": [
                -1.0396092374840329,
                -1.5601704422174452,
                -0.5313565368871465,
                0.5627498146054055,
                0.06297246644262659,
                -0.24634469072413867
            ]
        },
        {
            "positions": [
                -0.8917924616927968,
                -1.6206262050090305,
                -0.6318231174447932,
                0.601742634413412,
                0.06743617079108268,
                -0.20727242818212854
            ]
        },
        {
            "positions": [
                -0.7439756859015612,
                -1.681081967800616,
                -0.7322896980024398,
                0.6407354542214185,
                0.07189987513953876,
                -0.16820016564011842
            ]
        },
        {
            "positions": [
                -0.5961589101103257,
                -1.7415377305922013,
                -0.8327562785600864,
                0.6797282740294248,
                0.07636357948799484,
                -0.1291279030981083
            ]
        },
        {
            "positions": [
                -0.44834213431908987,
                -1.801993493383787,
                -0.9332228591177332,
                0.7187210938374313,
                0.08082728383645092,
                -0.09005564055609805
            ]
        },
        {
            "positions": [
                -0.30052535852785445,
                -1.8624492561753723,
                -1.03368943967538,
                0.7577139136454378,
                0.085290988184907,
                -0.05098337801408803
            ]
        },
        {
            "positions": [
                -0.15270858273661858,
                -1.9229050189669576,
                -1.1341560202330268,
                0.7967067334534443,
                0.0897546925333631,
                -0.011911115472077793
            ]
        },
        {
            "positions": [
                -0.004891806945383159,
                -1.983360781758543,
                -1.2346226007906733,
                0.8356995532614508,
                0.09421839688181918,
                0.027161147069932334
            ]
        },
        {
            "positions": [
                0.1429249688458527,
                -2.043816544550128,
                -1.3350891813483197,
                0.8746923730694571,
                0.09868210123027527,
                0.06623340961194246
            ]
        },
        {
            "positions": [
                0.2907417446370886,
                -2.1042723073417138,
                -1.4355557619059665,
                0.9136851928774636,
                0.10314580557873135,
                0.10530567215395259
            ]
        },
        {
            "positions": [
                0.4385585204283242,
                -2.1647280701332994,
                -1.536022342463613,
                0.9526780126854701,
                0.10760950992718743,
                0.14437793469596275
            ]
        },
        {
            "positions": [
                0.3346731692067547,
                -2.182965308708011,
                -1.6797172022325868,
                1.0336117158448617,
                0.11949538234956898,
                0.13391773570309182
            ]
        },
        {
            "positions": [
                0.23078781798518527,
                -2.201202547282722,
                -1.8234120620015606,
                1.1145454190042532,
                0.13138125477195053,
                0.12345753671022087
            ]
        },
        {
            "positions": [
                0.12690246676361577,
                -2.2194397858574337,
                -1.9671069217705344,
                1.1954791221636447,
                0.1432671271943321,
                0.11299733771734993
            ]
        },
        {
            "positions": [
                0.02301711554204633,
                -2.2376770244321453,
                -2.110801781539508,
                1.276412825323036,
                0.15515299961671364,
                0.102537138724479
            ]
        },
        {
            "positions": [
                -0.08086823567952317,
                -2.2559142630068565,
                -2.254496641308482,
                1.3573465284824275,
                0.16703887203909523,
                0.09207693973160808
            ]
        },
        {
            "positions": [
                -0.18475358690109267,
                -2.274151501581568,
                -2.3981915010774557,
                1.438280231641819,
                0.17892474446147677,
                0.08161674073873713
            ]
        }
    ]
}