{
    "goal": {
        "global_pose": {
            "orientation": {
                "w": 0.5084816262002911,
                "x": -0.4908360881923452,
                "y": 0.5182115481033761,
                "z": -0.48164630358495003
            },
            "position": {
                "x": 0.5540239810943604,
                "y": -0.46912469901144505,
                "z": 0.16403168439865112
            }
        },
        "name": "move_to_storage_B"
    },
    "id": "BKPIECE_move_to_storage_B_148",
    "joint_names": [
        "shoulder_pan_joint",
        "shoulder_lift_joint",
        "elbow_joint",
        "wrist_1_joint",
        "wrist_2_joint",
        "wrist_3_joint"
    ],
    "metrics": {
        "cart_traj_len": 0.9736195393224552,
        "distance_elbow_joint": 0.9909632850857473,
        "distance_shoulder_lift_joint": 0.5369277388813327,
        "distance_shoulder_pan_joint": 0.4431482414977729,
        "distance_wrist_1_joint": 2.9795196961249726,
        "distance_wrist_2_joint": 2.716505546233339,
        "distance_wrist_3_joint": 3.2742436176066234,
        "smoothness": 0.07604812059076962,
        "time": 0.283041429,
        "traj_len": 3.3077648231743715,
        "weighted_distance": 4.815165688011301
    },
    "planner": "BKPIECE",
    "start": {
        "state": {
            "elbow_joint": 1.664937868594044,
            "shoulder_lift_joint": -0.661644460510453,
            "shoulder_pan_joint": -0.9139846352900073,
            "wrist_1_joint": 2.146753192139373,
            "wrist_2_joint": -2.2341966793290973,
            "wrist_3_joint": 0.005466555786416001
        }
    },
    "waypoints": [
        {
            "positions": [
                -0.9139846352900073,
                -0.661644460510453,
                1.664937868594044,
                2.146753192139373,
                -2.2341966793290973,
                0.005466555786416001
            ]
        },
        {
            "positions": [
                -0.8913400612788211,
                -0.6663790206687241,
                1.6462223484374165,
                2.088630714530785,
                -2.1995966277315873,
                -0.008963308388977353
            ]
        },
        {
            "positions": [
                -0.8531682905468354,
                -0.6855017508523423,
                1.6075605321086566,
                1.9713735045303327,
                -2.1235541397817568,
                -0.030654201447020163
            ]
        },
        {
            "positions": [
                -0.8149965198148497,
                -0.7046244810359605,
                1.5688987157798966,
                1.8541162945298804,
                -2.0475116518319263,
                -0.05234509450506297
            ]
        },
        {
            "positions": [
                -0.7985989397969827,
                -0.7241915254773154,
                1.5414808453007378,
                1.7734445738951468,
                -1.9823598841649848,
                -0.058562358778044166
            ]
        },
        {
            "positions": [
                -0.7822013597791158,
                -0.7437585699186702,
                1.514062974821579,
                1.6927728532604132,
                -1.9172081164980432,
                -0.06477962305102536
            ]
        },
        {
            "positions": [
                -0.7854291364306718,
                -0.7734919466290252,
                1.5019220876171833,
                1.5683288261583979,
                -1.7923585719735118,
                0.01604499055508493
            ]
        },
        {
            "positions": [
                -0.788656913082228,
                -0.8032253233393802,
                1.4897812004127877,
                1.4438847990563828,
                -1.6675090274489806,
                0.09686960416119522
            ]
        },
        {
            "positions": [
                -0.791884689733784,
                -0.8329587000497352,
                1.477640313208392,
                1.3194407719543675,
                -1.5426594829244493,
                0.1776942177673055
            ]
        },
        {
            "positions": [
                -0.79511246638534,
                -0.8626920767600902,
                1.4654994260039962,
                1.1949967448523524,
                -1.4178099383999179,
                0.2585188313734158
            ]
        },
        {
            "positions": [
                -0.7983402430368961,
                -0.8924254534704452,
                1.4533585387996006,
                1.0705527177503371,
                -1.2929603938753864,
                0.3393434449795261
            ]
        },
        {
            "positions": [
                -0.8015680196884523,
                -0.9221588301808002,
                1.4412176515952049,
                0.9461086906483219,
                -1.1681108493508552,
                0.4201680585856364
            ]
        },
        {
            "positions": [
                -0.8047957963400083,
                -0.9518922068911553,
                1.429076764390809,
                0.8216646635463066,
                -1.043261304826324,
                0.5009926721917467
            ]
        },
        {
            "positions": [
                -0.8080235729915644,
                -0.9816255836015103,
                1.4169358771864136,
                0.6972206364442914,
                -0.9184117603017925,
                0.581817285797857
            ]
        },
        {
            "positions": [
                -0.8112513496431205,
                -1.0113589603118653,
                1.4047949899820178,
                0.5727766093422761,
                -0.793562215777261,
                0.6626418994039673
            ]
        },
        {
            "positions": [
                -0.8144791262946766,
                -1.0410923370222203,
                1.3926541027776222,
                0.44833258224026085,
                -0.6687126712527298,
                0.7434665130100776
            ]
        },
        {
            "positions": [
                -0.8177069029462326,
                -1.0708257137325754,
                1.3805132155732265,
                0.32388855513824577,
                -0.5438631267281986,
                0.8242911266161879
            ]
        },
        {
            "positions": [
                -0.8209346795977887,
                -1.1005590904429303,
                1.3683723283688307,
                0.1994445280362307,
                -0.41901358220366713,
                0.9051157402222981
            ]
        },
        {
            "positions": [
                -0.8241624562493448,
                -1.1302924671532855,
                1.3562314411644352,
                0.07500050093421518,
                -0.2941640376791357,
                0.9859403538284086
            ]
        },
        {
            "positions": [
                -0.8273902329009009,
                -1.1600258438636404,
                1.3440905539600394,
                -0.049443526167799845,
                -0.1693144931546045,
                1.0667649674345188
            ]
        },
        {
            "positions": [
                -0.8495715739729922,
                -1.1568136475696282,
                1.3999335514976847,
                -0.11472044098594972,
                -0.11501254648303409,
                1.2394693714581553
            ]
        },
        {
            "positions": [
                -0.8717529150450836,
                -1.153601451275616,
                1.4557765490353298,
                -0.1799973558040996,
                -0.06071059981146368,
                1.4121737754817918
            ]
        },
        {
            "positions": [
                -0.8939342561171749,
                -1.150389254981604,
                1.5116195465729751,
                -0.2452742706222495,
                -0.00640865313989325,
                1.584878179505428
            ]
        },
        {
            "positions": [
                -0.9161155971892663,
                -1.147177058687592,
                1.5674625441106202,
                -0.31055118544039934,
                0.04789329353167715,
                1.7575825835290646
            ]
        },
        {
            "positions": [
                -0.9382969382613576,
                -1.1439648623935799,
                1.6233055416482656,
                -0.3758281002585493,
                0.1021952402032476,
                1.9302869875527011
            ]
        },
        {
            "positions": [
                -0.960478279333449,
                -1.1407526660995677,
                1.6791485391859107,
                -0.44110501507669914,
                0.156497186874818,
                2.102991391576338
            ]
        },
        {
            "positions": [
                -0.9826596204055403,
                -1.1375404698055556,
                1.734991536723556,
                -0.5063819298948491,
                0.21079913354638846,
                2.275695795599974
            ]
        },
        {
            "positions": [
                -1.0048409614776317,
                -1.1343282735115434,
                1.7908345342612013,
                -0.5716588447129989,
                0.2651010802179588,
                2.4484001996236104
            ]
        },
        {
            "positions": [
                -1.0270223025497232,
                -1.1311160772175315,
                1.8466775317988464,
                -0.6369357595311489,
                0.31940302688952926,
                2.621104603647247
            ]
        },
        {
            "positions": [
                -1.0492036436218144,
                -1.1279038809235193,
                1.9025205293364917,
                -0.7022126743492987,
                0.3737049735610997,
                2.793809007670884
            ]
        },
        {
            "positions": [
                -1.0713849846939056,
                -1.1246916846295072,
                1.958363526874137,
                -0.7674895891674485,
                0.4280069202326701,
                2.96651341169452
            ]
        },
        {
            "positions": [
                -1.093566325765997,
                -1.121479488335495,
                2.014206524411782,
                -0.8327665039855984,
                0.4823088669042405,
                3.1392178157181565
            ]
        }
    ]
}