{
    "goal": {
        "global_pose": {
            "orientation": {
                "w": -0.00223480608172531,
                "x": 0.0024358444001904467,
                "y": 0.7094548369677653,
                "z": -0.704743149386269
            },
            "position": {
                "x": 0.6205249238014221,
                "y": -0.6371506643295288,
                "z": 0.19426114857196808
            }
        },
        "name": "move_to_magneteinheit_B"
    },
    "id": "BKPIECE_move_to_magneteinheit_B_41",
    "joint_names": [
        "shoulder_pan_joint",
        "shoulder_lift_joint",
        "elbow_joint",
        "wrist_1_joint",
        "wrist_2_joint",
        "wrist_3_joint"
    ],
    "metrics": {
        "cart_traj_len": 2.9469337737949477,
        "distance_elbow_joint": 3.0570138366524766,
        "distance_shoulder_lift_joint": 1.2149381966456945,
        "distance_shoulder_pan_joint": 2.305642873389691,
        "distance_wrist_1_joint": 3.8279704321737538,
        "distance_wrist_2_joint": 3.3814572681014377,
        "distance_wrist_3_joint": 1.4044243273150228,
        "smoothness": 0.6681573306875135,
        "time": 0.186499482,
        "traj_len": 3.8976206760378913,
        "weighted_distance": 5.020928528587445
    },
    "planner": "BKPIECE",
    "start": {
        "state": {
            "elbow_joint": 2.6216224122426386,
            "shoulder_lift_joint": -1.4174107377796124,
            "shoulder_pan_joint": 0.7066234856936794,
            "wrist_1_joint": 1.9546482284002225,
            "wrist_2_joint": -0.7096286983471962,
            "wrist_3_joint": 0.005740856962016249
        }
    },
    "waypoints": [
        {
            "positions": [
                0.7066234856936794,
                -1.4174107377796124,
                2.6216224122426386,
                1.9546482284002225,
                -0.7096286983471962,
                0.005740856962016249
            ]
        },
        {
            "positions": [
                0.6401992254098279,
                -1.446355072857749,
                2.6105819934899572,
                1.9772762532063688,
                -0.6743627714247624,
                -0.07108023016980974
            ]
        },
        {
            "positions": [
                0.5737749651259763,
                -1.4752994079358857,
                2.599541574737276,
                1.9999042780125151,
                -0.6390968445023286,
                -0.14790131730163572
            ]
        },
        {
            "positions": [
                0.5095945606608779,
                -1.4906127891614813,
                2.523371143564668,
                1.992819121426064,
                -0.6365867191800554,
                -0.28596935100077625
            ]
        },
        {
            "positions": [
                0.44541415619577956,
                -1.505926170387077,
                2.4472007123920605,
                1.9857339648396128,
                -0.634076593857782,
                -0.4240373846999167
            ]
        },
        {
            "positions": [
                0.3812337517306812,
                -1.5212395516126729,
                2.3710302812194524,
                1.978648808253162,
                -0.6315664685355087,
                -0.5621054183990573
            ]
        },
        {
            "positions": [
                0.3170533472655829,
                -1.5365529328382685,
                2.2948598500468447,
                1.9715636516667108,
                -0.6290563432132354,
                -0.7001734520981977
            ]
        },
        {
            "positions": [
                0.34337507615787405,
                -1.5450502424301678,
                2.165686002138365,
                1.8338776502002792,
                -0.5635572512175491,
                -0.6724885791813531
            ]
        },
        {
            "positions": [
                0.3696968050501653,
                -1.5535475520220672,
                2.036512154229885,
                1.6961916487338473,
                -0.4980581592218627,
                -0.6448037062645084
            ]
        },
        {
            "positions": [
                0.39601853394245645,
                -1.5620448616139664,
                1.9073383063214053,
                1.558505647267416,
                -0.4325590672261763,
                -0.6171188333476638
            ]
        },
        {
            "positions": [
                0.4223402628347477,
                -1.5705421712058656,
                1.7781644584129257,
                1.420819645800984,
                -0.36705997523049,
                -0.5894339604308192
            ]
        },
        {
            "positions": [
                0.44866199172703886,
                -1.579039480797765,
                1.6489906105044458,
                1.2831336443345525,
                -0.3015608832348036,
                -0.5617490875139745
            ]
        },
        {
            "positions": [
                0.47498372061933003,
                -1.5875367903896642,
                1.519816762595966,
                1.1454476428681208,
                -0.23606179123911725,
                -0.5340642145971298
            ]
        },
        {
            "positions": [
                0.5013054495116213,
                -1.5960340999815634,
                1.3906429146874864,
                1.0077616414016892,
                -0.17056269924343098,
                -0.5063793416802852
            ]
        },
        {
            "positions": [
                0.5276271784039125,
                -1.6045314095734629,
                1.2614690667790065,
                0.8700756399352574,
                -0.10506360724774455,
                -0.4786944687634406
            ]
        },
        {
            "positions": [
                0.5539489072962036,
                -1.613028719165362,
                1.1322952188705269,
                0.732389638468826,
                -0.039564515252058285,
                -0.45100959584659595
            ]
        },
        {
            "positions": [
                0.5802706361884948,
                -1.6215260287572613,
                1.003121370962047,
                0.5947036370023941,
                0.0259345767436282,
                -0.42332472292975126
            ]
        },
        {
            "positions": [
                0.6065923650807861,
                -1.6300233383491605,
                0.8739475230535672,
                0.45701763553596253,
                0.09143366873931447,
                -0.3956398500129067
            ]
        },
        {
            "positions": [
                0.6329140939730773,
                -1.63852064794106,
                0.7447736751450873,
                0.3193316340695309,
                0.15693276073500095,
                -0.367954977096062
            ]
        },
        {
            "positions": [
                0.6592358228653684,
                -1.647017957532959,
                0.6155998272366076,
                0.18164563260309935,
                0.22243185273068725,
                -0.3402701041792174
            ]
        },
        {
            "positions": [
                0.5876953565307407,
                -1.6022301858560342,
                0.6633721568569003,
                0.2709390752009196,
                0.1110956383205257,
                -0.32487889189122526
            ]
        },
        {
            "positions": [
                0.516154890196113,
                -1.5574424141791092,
                0.7111444864771932,
                0.3602325177987398,
                -0.00024057608963584665,
                -0.30948767960323315
            ]
        },
        {
            "positions": [
                0.4446144238614853,
                -1.5126546425021845,
                0.758916816097486,
                0.44952596039656006,
                -0.11157679049979738,
                -0.29409646731524103
            ]
        },
        {
            "positions": [
                0.3730739575268576,
                -1.4678668708252596,
                0.8066891457177787,
                0.5388194029943802,
                -0.22291300490995894,
                -0.27870525502724885
            ]
        },
        {
            "positions": [
                0.30153349119222994,
                -1.4230790991483346,
                0.8544614753380716,
                0.6281128455922005,
                -0.3342492193201205,
                -0.26331404273925674
            ]
        },
        {
            "positions": [
                0.22999302485760226,
                -1.37829132747141,
                0.9022338049583644,
                0.7174062881900207,
                -0.44558543373028203,
                -0.24792283045126462
            ]
        },
        {
            "positions": [
                0.15845255852297457,
                -1.333503555794485,
                0.9500061345786572,
                0.806699730787841,
                -0.5569216481404435,
                -0.2325316181632725
            ]
        },
        {
            "positions": [
                0.08691209218834683,
                -1.28871578411756,
                0.99777846419895,
                0.8959931733856612,
                -0.6682578625506052,
                -0.21714040587528038
            ]
        },
        {
            "positions": [
                0.015371625853719095,
                -1.2439280124406351,
                1.0455507938192428,
                0.9852866159834814,
                -0.7795940769607668,
                -0.20174919358728824
            ]
        },
        {
            "positions": [
                -0.05616884048090853,
                -1.1991402407637102,
                1.0933231234395355,
                1.0745800585813017,
                -0.8909302913709283,
                -0.18635798129929612
            ]
        },
        {
            "positions": [
                -0.12770930681553627,
                -1.1543524690867852,
                1.1410954530598283,
                1.163873501179122,
                -1.0022665057810898,
                -0.170966769011304
            ]
        },
        {
            "positions": [
                -0.1992497731501639,
                -1.1095646974098605,
                1.1888677826801213,
                1.2531669437769422,
                -1.1136027201912513,
                -0.1555755567233119
            ]
        },
        {
            "positions": [
                -0.27079023948479175,
                -1.0647769257329356,
                1.236640112300414,
                1.3424603863747624,
                -1.224938934601413,
                -0.14018434443531974
            ]
        },
        {
            "positions": [
                -0.34233070581941927,
                -1.0199891540560106,
                1.2844124419207068,
                1.4317538289725826,
                -1.3362751490115743,
                -0.12479313214732762
            ]
        },
        {
            "positions": [
                -0.413871172154047,
                -0.9752013823790858,
                1.3321847715409996,
                1.5210472715704029,
                -1.4476113634217358,
                -0.10940191985933553
            ]
        },
        {
            "positions": [
                -0.48541163848867475,
                -0.9304136107021609,
                1.3799571011612923,
                1.610340714168223,
                -1.5589475778318975,
                -0.09401070757134336
            ]
        },
        {
            "positions": [
                -0.5569521048233025,
                -0.8856258390252361,
                1.4277294307815853,
                1.6996341567660433,
                -1.670283792242059,
                -0.07861949528335127
            ]
        },
        {
            "positions": [
                -0.6284925711579302,
                -0.8408380673483111,
                1.475501760401878,
                1.7889275993638636,
                -1.7816200066522208,
                -0.0632282829953591
            ]
        },
        {
            "positions": [
                -0.700033037492558,
                -0.7960502956713863,
                1.5232740900221708,
                1.8782210419616838,
                -1.892956221062382,
                -0.04783707070736698
            ]
        },
        {
            "positions": [
                -0.7715735038271855,
                -0.7512625239944614,
                1.5710464196424636,
                1.967514484559504,
                -2.0042924354725438,
                -0.03244585841937486
            ]
        },
        {
            "positions": [
                -0.8431139701618132,
                -0.7064747523175364,
                1.6188187492627564,
                2.0568079271573243,
                -2.1156286498827055,
                -0.017054646131382745
            ]
        },
        {
            "positions": [
                -0.914654436496441,
                -0.6616869806406116,
                1.6665910788830491,
                2.1461013697551445,
                -2.2269648642928668,
                -0.0016634338433906034
            ]
        }
    ]
}