{
    "goal": {
        "global_pose": {
            "orientation": {
                "w": 0.7031023502349854,
                "x": -0.7110244035720825,
                "y": 0.007748599164187908,
                "z": 0.005598929710686207
            },
            "position": {
                "x": 0.11585023208521307,
                "y": 0.44412534475326537,
                "z": 0.3711530566215515
            }
        },
        "name": "move_to_auspresseinheit_A"
    },
    "id": "BKPIECE_move_to_auspresseinheit_A_134",
    "joint_names": [
        "shoulder_pan_joint",
        "shoulder_lift_joint",
        "elbow_joint",
        "wrist_1_joint",
        "wrist_2_joint",
        "wrist_3_joint"
    ],
    "metrics": {
        "cart_traj_len": 1.3887364567299334,
        "distance_elbow_joint": 1.5448803648931086,
        "distance_shoulder_lift_joint": 0.5737778195291365,
        "distance_shoulder_pan_joint": 1.041506276889634,
        "distance_wrist_1_joint": 0.9067151481992142,
        "distance_wrist_2_joint": 0.5773917127731061,
        "distance_wrist_3_joint": 0.6253998076581984,
        "smoothness": 0.998733077856681,
        "time": 0.252813999,
        "traj_len": 2.295576426508688,
        "weighted_distance": 2.829236223122968
    },
    "planner": "BKPIECE",
    "start": {
        "state": {
            "elbow_joint": 2.4225746658250005,
            "shoulder_lift_joint": -1.3736534386056498,
            "shoulder_pan_joint": -0.3378633547517467,
            "wrist_1_joint": -1.0288598680537169,
            "wrist_2_joint": 1.233022673432363,
            "wrist_3_joint": -3.0940220416140027
        }
    },
    "waypoints": [
        {
            "positions": [
                -0.3378633547517467,
                -1.3736534386056498,
                2.4225746658250005,
                -1.0288598680537169,
                1.233022673432363,
                -3.0940220416140027
            ]
        },
        {
            "positions": [
                -0.2712472572767711,
                -1.425799858555025,
                2.335218216593383,
                -0.9477899701286865,
                1.1770910935819618,
                -3.060683757365908
            ]
        },
        {
            "positions": [
                -0.20463115980179558,
                -1.4779462785044002,
                2.247861767361766,
                -0.8667200722036561,
                1.1211595137315606,
                -3.027345473117813
            ]
        },
        {
            "positions": [
                -0.13801506232681998,
                -1.5300926984537753,
                2.1605053181301486,
                -0.7856501742786257,
                1.0652279338811594,
                -2.994007188869718
            ]
        },
        {
            "positions": [
                -0.07139896485184444,
                -1.5822391184031506,
                2.073148868898531,
                -0.7045802763535953,
                1.0092963540307582,
                -2.960668904621623
            ]
        },
        {
            "positions": [
                -0.004782867376868782,
                -1.6343855383525256,
                1.9857924196669139,
                -0.6235103784285649,
                0.953364774180357,
                -2.927330620373528
            ]
        },
        {
            "positions": [
                0.06183323009810676,
                -1.686531958301901,
                1.8984359704352967,
                -0.5424404805035346,
                0.8974331943299558,
                -2.893992336125433
            ]
        },
        {
            "positions": [
                0.12844932757308236,
                -1.738678378251276,
                1.8110795212036792,
                -0.46137058257850416,
                0.8415016144795546,
                -2.8606540518773382
            ]
        },
        {
            "positions": [
                0.19506542504805785,
                -1.790824798200651,
                1.7237230719720622,
                -0.3803006846534738,
                0.7855700346291534,
                -2.8273157676292433
            ]
        },
        {
            "positions": [
                0.26168152252303345,
                -1.8429712181500264,
                1.6363666227404448,
                -0.29923078672844344,
                0.7296384547787522,
                -2.7939774833811484
            ]
        },
        {
            "positions": [
                0.3437280250960224,
                -1.8644581430852638,
                1.8169622187362664,
                -0.31405528768809854,
                0.7164626582583999,
                -2.871218279447664
            ]
        },
        {
            "positions": [
                0.4257745276690113,
                -1.8859450680205012,
                1.997557814732088,
                -0.3288797886477536,
                0.7032868617380478,
                -2.948459075514179
            ]
        },
        {
            "positions": [
                0.5078210302420002,
                -1.9074319929557386,
                2.1781534107279095,
                -0.3437042896074087,
                0.6901110652176956,
                -3.025699871580694
            ]
        },
        {
            "positions": [
                0.5898675328149892,
                -1.928918917890976,
                2.3587490067237313,
                -0.35852879056706377,
                0.6769352686973433,
                -3.1029406676472098
            ]
        },
        {
            "positions": [
                0.7036429221378873,
                -1.9104065776471657,
                2.3950389445489977,
                -0.4763168536023843,
                0.6982395767354297,
                -3.1193327328064924
            ]
        }
    ]
}