{
    "goal": {
        "global_pose": {
            "orientation": {
                "w": 0.5084816262002911,
                "x": -0.4908360881923452,
                "y": 0.5182115481033761,
                "z": -0.48164630358495003
            },
            "position": {
                "x": 0.5540239810943604,
                "y": -0.46912469901144505,
                "z": 0.16403168439865112
            }
        },
        "name": "move_to_storage_B"
    },
    "id": "BKPIECE_move_to_storage_B_90",
    "joint_names": [
        "shoulder_pan_joint",
        "shoulder_lift_joint",
        "elbow_joint",
        "wrist_1_joint",
        "wrist_2_joint",
        "wrist_3_joint"
    ],
    "metrics": {
        "cart_traj_len": 2.7305863291564516,
        "distance_elbow_joint": 3.4681751050817646,
        "distance_shoulder_lift_joint": 0.7444717360216917,
        "distance_shoulder_pan_joint": 1.0426734160128448,
        "distance_wrist_1_joint": 3.059842386467932,
        "distance_wrist_2_joint": 2.748291708605832,
        "distance_wrist_3_joint": 3.6340739762337835,
        "smoothness": 0.642085191180271,
        "time": 0.132048497,
        "traj_len": 3.83373555796743,
        "weighted_distance": 5.270086372723427
    },
    "planner": "BKPIECE",
    "start": {
        "state": {
            "elbow_joint": 1.664937868594044,
            "shoulder_lift_joint": -0.661644460510453,
            "shoulder_pan_joint": -0.9139846352900073,
            "wrist_1_joint": 2.146753192139373,
            "wrist_2_joint": -2.2341966793290973,
            "wrist_3_joint": 0.005466555786416001
        }
    },
    "waypoints": [
        {
            "positions": [
                -0.9139846352900073,
                -0.661644460510453,
                1.664937868594044,
                2.146753192139373,
                -2.2341966793290973,
                0.005466555786416001
            ]
        },
        {
            "positions": [
                -0.8270170231344324,
                -0.6932978935015586,
                1.7362020204438522,
                2.1831729685598305,
                -2.256320152794294,
                -0.0036051016474399136
            ]
        },
        {
            "positions": [
                -0.8089260201023444,
                -0.7233405265159788,
                1.6541734638004815,
                2.0450216934300878,
                -2.141990874139903,
                -0.015928970961289708
            ]
        },
        {
            "positions": [
                -0.7908350170702565,
                -0.753383159530399,
                1.5721449071571107,
                1.9068704183003449,
                -2.0276615954855113,
                -0.028252840275139503
            ]
        },
        {
            "positions": [
                -0.7727440140381685,
                -0.7834257925448193,
                1.49011635051374,
                1.768719143170602,
                -1.91333231683112,
                -0.0405767095889893
            ]
        },
        {
            "positions": [
                -0.7546530110060805,
                -0.8134684255592395,
                1.4080877938703693,
                1.6305678680408593,
                -1.7990030381767288,
                -0.05290057890283909
            ]
        },
        {
            "positions": [
                -0.7365620079739926,
                -0.8435110585736597,
                1.3260592372269986,
                1.4924165929111164,
                -1.6846737595223373,
                -0.06522444821668888
            ]
        },
        {
            "positions": [
                -0.7184710049419046,
                -0.8735536915880799,
                1.244030680583628,
                1.3542653177813735,
                -1.5703444808679459,
                -0.07754831753053867
            ]
        },
        {
            "positions": [
                -0.7003800019098168,
                -0.9035963246025002,
                1.1620021239402574,
                1.2161140426516308,
                -1.4560152022135546,
                -0.08987218684438847
            ]
        },
        {
            "positions": [
                -0.6822889988777288,
                -0.9336389576169204,
                1.0799735672968866,
                1.077962767521888,
                -1.3416859235591632,
                -0.10219605615823826
            ]
        },
        {
            "positions": [
                -0.6641979958456408,
                -0.9636815906313407,
                0.9979450106535158,
                0.9398114923921452,
                -1.227356644904772,
                -0.11451992547208806
            ]
        },
        {
            "positions": [
                -0.6461069928135528,
                -0.9937242236457609,
                0.9159164540101451,
                0.8016602172624023,
                -1.1130273662503805,
                -0.12684379478593785
            ]
        },
        {
            "positions": [
                -0.6280159897814649,
                -1.0237668566601812,
                0.8338878973667744,
                0.6635089421326594,
                -0.998698087595989,
                -0.13916766409978765
            ]
        },
        {
            "positions": [
                -0.6099249867493769,
                -1.0538094896746013,
                0.7518593407234038,
                0.5253576670029168,
                -0.8843688089415978,
                -0.15149153341363744
            ]
        },
        {
            "positions": [
                -0.591833983717289,
                -1.0838521226890216,
                0.669830784080033,
                0.38720639187317385,
                -0.7700395302872063,
                -0.16381540272748724
            ]
        },
        {
            "positions": [
                -0.573742980685201,
                -1.1138947557034418,
                0.5878022274366623,
                0.24905511674343117,
                -0.655710251632815,
                -0.17613927204133703
            ]
        },
        {
            "positions": [
                -0.555651977653113,
                -1.143937388717862,
                0.5057736707932916,
                0.11090384161368805,
                -0.5413809729784234,
                -0.18846314135518683
            ]
        },
        {
            "positions": [
                -0.537560974621025,
                -1.1739800217322822,
                0.4237451141499209,
                -0.02724743351605463,
                -0.4270516943240321,
                -0.20078701066903662
            ]
        },
        {
            "positions": [
                -0.5194699715889372,
                -1.2040226547467026,
                0.34171655750655017,
                -0.1653987086457973,
                -0.31272241566964065,
                -0.21311087998288641
            ]
        },
        {
            "positions": [
                -0.5013789685568493,
                -1.2340652877611227,
                0.25968800086317945,
                -0.30354998377554,
                -0.19839313701524963,
                -0.2254347492967362
            ]
        },
        {
            "positions": [
                -0.4832879655247612,
                -1.264107920775543,
                0.17765944421980878,
                -0.44170125890528333,
                -0.08406385836085786,
                -0.237758618610586
            ]
        },
        {
            "positions": [
                -0.5172866736496278,
                -1.2562185721223984,
                0.2797910207202484,
                -0.4638428357154144,
                -0.05329097276601356,
                -0.04937812961965374
            ]
        },
        {
            "positions": [
                -0.5512853817744944,
                -1.248329223469254,
                0.3819225972206881,
                -0.4859844125255454,
                -0.02251808717116925,
                0.13900235937127853
            ]
        },
        {
            "positions": [
                -0.585284089899361,
                -1.2404398748161094,
                0.48405417372112775,
                -0.5081259893356764,
                0.008254798423675047,
                0.32738284836221077
            ]
        },
        {
            "positions": [
                -0.6192827980242276,
                -1.2325505261629648,
                0.5861857502215674,
                -0.5302675661458075,
                0.03902768401851936,
                0.5157633373531431
            ]
        },
        {
            "positions": [
                -0.6532815061490942,
                -1.2246611775098204,
                0.6883173267220071,
                -0.5524091429559386,
                0.06980056961336367,
                0.7041438263440755
            ]
        },
        {
            "positions": [
                -0.6872802142739608,
                -1.2167718288566758,
                0.7904489032224467,
                -0.5745507197660695,
                0.10057345520820796,
                0.8925243153350075
            ]
        },
        {
            "positions": [
                -0.7212789223988274,
                -1.2088824802035312,
                0.8925804797228865,
                -0.5966922965762007,
                0.1313463408030523,
                1.08090480432594
            ]
        },
        {
            "positions": [
                -0.7552776305236939,
                -1.2009931315503868,
                0.994712056223326,
                -0.6188338733863317,
                0.16211922639789658,
                1.2692852933168721
            ]
        },
        {
            "positions": [
                -0.7892763386485606,
                -1.1931037828972422,
                1.0968436327237656,
                -0.6409754501964627,
                0.1928921119927409,
                1.4576657823078045
            ]
        },
        {
            "positions": [
                -0.8232750467734271,
                -1.1852144342440976,
                1.1989752092242054,
                -0.6631170270065938,
                0.2236649975875852,
                1.646046271298737
            ]
        },
        {
            "positions": [
                -0.8572737548982938,
                -1.1773250855909532,
                1.301106785724645,
                -0.6852586038167249,
                0.25443788318242955,
                1.8344267602896693
            ]
        },
        {
            "positions": [
                -0.8912724630231603,
                -1.1694357369378086,
                1.4032383622250846,
                -0.7074001806268558,
                0.2852107687772738,
                2.022807249280601
            ]
        },
        {
            "positions": [
                -0.9252711711480269,
                -1.161546388284664,
                1.5053699387255242,
                -0.7295417574369869,
                0.31598365437211806,
                2.2111877382715335
            ]
        },
        {
            "positions": [
                -0.9592698792728935,
                -1.1536570396315196,
                1.607501515225964,
                -0.751683334247118,
                0.34675653996696243,
                2.399568227262466
            ]
        },
        {
            "positions": [
                -0.9932685873977602,
                -1.145767690978375,
                1.7096330917264035,
                -0.773824911057249,
                0.3775294255618068,
                2.5879487162533987
            ]
        },
        {
            "positions": [
                -1.0272672955226267,
                -1.1378783423252303,
                1.8117646682268431,
                -0.79596648786738,
                0.40830231115665105,
                2.7763292052443305
            ]
        },
        {
            "positions": [
                -1.0612660036474932,
                -1.129988993672086,
                1.9138962447272827,
                -0.8181080646775111,
                0.4390751967514953,
                2.964709694235263
            ]
        },
        {
            "positions": [
                -1.09526471177236,
                -1.1220996450189413,
                2.0160278212277225,
                -0.8402496414876421,
                0.4698480823463396,
                3.153090183226195
            ]
        }
    ]
}