{
    "goal": {
        "global_pose": {
            "orientation": {
                "w": 0.7031023480610252,
                "x": -0.7110244013736278,
                "y": 0.0077485991402295624,
                "z": 0.005598929693374583
            },
            "position": {
                "x": -0.8841497679147869,
                "y": 0.44412534475326537,
                "z": 0.3711530566215515
            }
        },
        "name": "move_to_auspresseinheit_D"
    },
    "id": "BKPIECE_move_to_auspresseinheit_D_128",
    "joint_names": [
        "shoulder_pan_joint",
        "shoulder_lift_joint",
        "elbow_joint",
        "wrist_1_joint",
        "wrist_2_joint",
        "wrist_3_joint"
    ],
    "metrics": {
        "cart_traj_len": 0.3433365243461786,
        "distance_elbow_joint": 0.646602125921381,
        "distance_shoulder_lift_joint": 0.12600645123477072,
        "distance_shoulder_pan_joint": 0.13373587317100477,
        "distance_wrist_1_joint": 0.559102454807975,
        "distance_wrist_2_joint": 1.4432913886819565,
        "distance_wrist_3_joint": 0.027204815811340044,
        "smoothness": 0.0,
        "time": 0.155414351,
        "traj_len": 1.713459398301701,
        "weighted_distance": 2.2344454758935246
    },
    "planner": "BKPIECE",
    "start": {
        "state": {
            "elbow_joint": -1.8275523626775212,
            "shoulder_lift_joint": -2.126789852344167,
            "shoulder_pan_joint": -0.03513704404078235,
            "wrist_1_joint": -2.347782403156801,
            "wrist_2_joint": -1.6058999987535132,
            "wrist_3_joint": -3.0880379163319196
        }
    },
    "waypoints": [
        {
            "positions": [
                -0.03513704404078235,
                -2.126789852344167,
                -1.8275523626775212,
                -2.347782403156801,
                -1.6058999987535132,
                -3.0880379163319196
            ]
        },
        {
            "positions": [
                -0.051854028187157945,
                -2.142540658748513,
                -1.7467270969373485,
                -2.4176702100077976,
                -1.4254885751682687,
                -3.084637314355502
            ]
        },
        {
            "positions": [
                -0.06857101233353355,
                -2.1582914651528595,
                -1.6659018311971758,
                -2.4875580168587947,
                -1.2450771515830241,
                -3.0812367123790847
            ]
        },
        {
            "positions": [
                -0.08528799647990915,
                -2.174042271557206,
                -1.5850765654570034,
                -2.5574458237097915,
                -1.0646657279977796,
                -3.077836110402667
            ]
        },
        {
            "positions": [
                -0.10200498062628474,
                -2.189793077961552,
                -1.5042512997168307,
                -2.6273336305607886,
                -0.8842543044125349,
                -3.07443550842625
            ]
        },
        {
            "positions": [
                -0.11872196477266034,
                -2.2055438843658983,
                -1.423426033976658,
                -2.6972214374117853,
                -0.7038428808272904,
                -3.071034906449832
            ]
        },
        {
            "positions": [
                -0.13543894891903593,
                -2.221294690770245,
                -1.3426007682364856,
                -2.767109244262782,
                -0.5234314572420458,
                -3.0676343044734145
            ]
        },
        {
            "positions": [
                -0.15215593306541153,
                -2.2370454971745914,
                -1.2617755024963129,
                -2.836997051113779,
                -0.3430200336568012,
                -3.0642337024969972
            ]
        },
        {
            "positions": [
                -0.16887291721178713,
                -2.2527963035789376,
                -1.1809502367561402,
                -2.906884857964776,
                -0.1626086100715567,
                -3.0608331005205796
            ]
        }
    ]
}