{
    "goal": {
        "global_pose": {
            "orientation": {
                "w": 0.005598929693374612,
                "x": 0.007748599140229565,
                "y": 0.7110244013736278,
                "z": -0.7031023480610252
            },
            "position": {
                "x": -0.8858502320852131,
                "y": -0.7141253447532654,
                "z": 0.3711530566215515
            }
        },
        "name": "move_to_auspresseinheit_C"
    },
    "id": "BKPIECE_move_to_auspresseinheit_C_16",
    "joint_names": [
        "shoulder_pan_joint",
        "shoulder_lift_joint",
        "elbow_joint",
        "wrist_1_joint",
        "wrist_2_joint",
        "wrist_3_joint"
    ],
    "metrics": {
        "cart_traj_len": 0.4934899318141247,
        "distance_elbow_joint": 0.9926362343374453,
        "distance_shoulder_lift_joint": 0.32147280047669147,
        "distance_shoulder_pan_joint": 0.2574183676748336,
        "distance_wrist_1_joint": 0.6619935556503566,
        "distance_wrist_2_joint": 1.3018730002788337,
        "distance_wrist_3_joint": 0.05739647993738117,
        "smoothness": 3.2297397080004555e-16,
        "time": 0.230437382,
        "traj_len": 1.8954657576320235,
        "weighted_distance": 2.3814806222515217
    },
    "planner": "BKPIECE",
    "start": {
        "state": {
            "elbow_joint": 1.7527959577737207,
            "shoulder_lift_joint": -0.9740617694225068,
            "shoulder_pan_joint": -2.967991417825858,
            "wrist_1_joint": -0.759517768980727,
            "wrist_2_joint": 1.7443932448377408,
            "wrist_3_joint": -3.0840537646736568
        }
    },
    "waypoints": [
        {
            "positions": [
                -2.967991417825858,
                -0.9740617694225068,
                1.7527959577737207,
                -0.759517768980727,
                1.7443932448377408,
                -3.0840537646736568
            ]
        },
        {
            "positions": [
                -2.9422495810583746,
                -0.9419144893748377,
                1.6535323343399762,
                -0.6933184134156913,
                1.6142059448098576,
                -3.0897934126673947
            ]
        },
        {
            "positions": [
                -2.9165077442908913,
                -0.9097672093271685,
                1.5542687109062316,
                -0.6271190578506557,
                1.484018644781974,
                -3.095533060661133
            ]
        },
        {
            "positions": [
                -2.890765907523408,
                -0.8776199292794993,
                1.4550050874724871,
                -0.56091970228562,
                1.3538313447540906,
                -3.101272708654871
            ]
        },
        {
            "positions": [
                -2.8650240707559247,
                -0.8454726492318302,
                1.3557414640387426,
                -0.49472034672058435,
                1.2236440447262074,
                -3.1070123566486094
            ]
        },
        {
            "positions": [
                -2.839282233988441,
                -0.8133253691841611,
                1.256477840604998,
                -0.4285209911555487,
                1.093456744698324,
                -3.1127520046423474
            ]
        },
        {
            "positions": [
                -2.8135403972209576,
                -0.7811780891364919,
                1.1572142171712536,
                -0.36232163559051306,
                0.9632694446704406,
                -3.1184916526360853
            ]
        },
        {
            "positions": [
                -2.7877985604534743,
                -0.7490308090888228,
                1.0579505937375089,
                -0.2961222800254774,
                0.8330821446425574,
                -3.1242313006298237
            ]
        },
        {
            "positions": [
                -2.762056723685991,
                -0.7168835290411536,
                0.9586869703037644,
                -0.2299229244604417,
                0.7028948446146739,
                -3.1299709486235616
            ]
        },
        {
            "positions": [
                -2.7363148869185077,
                -0.6847362489934845,
                0.8594233468700199,
                -0.16372356889540607,
                0.5727075445867904,
                -3.1357105966173
            ]
        },
        {
            "positions": [
                -2.7105730501510243,
                -0.6525889689458153,
                0.7601597234362754,
                -0.0975242133303704,
                0.44252024455890715,
                -3.141450244611038
            ]
        }
    ]
}