{
    "goal": {
        "global_pose": {
            "orientation": {
                "w": 0.005598929693374612,
                "x": 0.007748599140229565,
                "y": 0.7110244013736278,
                "z": -0.7031023480610252
            },
            "position": {
                "x": -0.8858502320852131,
                "y": -0.7141253447532654,
                "z": 0.3711530566215515
            }
        },
        "name": "move_to_auspresseinheit_C"
    },
    "id": "BKPIECE_move_to_auspresseinheit_C_121",
    "joint_names": [
        "shoulder_pan_joint",
        "shoulder_lift_joint",
        "elbow_joint",
        "wrist_1_joint",
        "wrist_2_joint",
        "wrist_3_joint"
    ],
    "metrics": {
        "cart_traj_len": 0.49328658775560574,
        "distance_elbow_joint": 0.9979989994094401,
        "distance_shoulder_lift_joint": 0.32399898122164383,
        "distance_shoulder_pan_joint": 0.2568308363527665,
        "distance_wrist_1_joint": 0.6745198206879549,
        "distance_wrist_2_joint": 1.3041849293343377,
        "distance_wrist_3_joint": 0.047372350451844625,
        "smoothness": 4.844609600361787e-16,
        "time": 0.30087902,
        "traj_len": 1.898658978715764,
        "weighted_distance": 2.382929996534512
    },
    "planner": "BKPIECE",
    "start": {
        "state": {
            "elbow_joint": 1.7527959577737207,
            "shoulder_lift_joint": -0.9740617694225068,
            "shoulder_pan_joint": -2.967991417825858,
            "wrist_1_joint": -0.759517768980727,
            "wrist_2_joint": 1.7443932448377408,
            "wrist_3_joint": -3.0840537646736568
        }
    },
    "waypoints": [
        {
            "positions": [
                -2.967991417825858,
                -0.9740617694225068,
                1.7527959577737207,
                -0.759517768980727,
                1.7443932448377408,
                -3.0840537646736568
            ]
        },
        {
            "positions": [
                -2.942308334190581,
                -0.9416618713003424,
                1.6529960578327767,
                -0.6920657869119315,
                1.613974751904307,
                -3.0887909997188414
            ]
        },
        {
            "positions": [
                -2.9166252505553047,
                -0.909261973178178,
                1.5531961578918327,
                -0.624613804843136,
                1.4835562589708733,
                -3.0935282347640256
            ]
        },
        {
            "positions": [
                -2.890942166920028,
                -0.8768620750560137,
                1.4533962579508886,
                -0.5571618227743405,
                1.3531377660374395,
                -3.0982654698092102
            ]
        },
        {
            "positions": [
                -2.8652590832847515,
                -0.8444621769338492,
                1.3535963580099446,
                -0.489709840705545,
                1.2227192731040057,
                -3.1030027048543944
            ]
        },
        {
            "positions": [
                -2.8395759996494747,
                -0.8120622788116849,
                1.2537964580690006,
                -0.42225785863674953,
                1.092300780170572,
                -3.107739939899579
            ]
        },
        {
            "positions": [
                -2.813892916014198,
                -0.7796623806895204,
                1.1539965581280565,
                -0.35480587656795404,
                0.9618822872371382,
                -3.1124771749447637
            ]
        },
        {
            "positions": [
                -2.7882098323789215,
                -0.7472624825673562,
                1.0541966581871125,
                -0.2873538944991586,
                0.8314637943037045,
                -3.117214409989948
            ]
        },
        {
            "positions": [
                -2.7625267487436447,
                -0.7148625844451917,
                0.9543967582461685,
                -0.21990191243036306,
                0.7010453013702707,
                -3.1219516450351326
            ]
        },
        {
            "positions": [
                -2.7368436651083683,
                -0.6824626863230273,
                0.8545968583052245,
                -0.1524499303615675,
                0.5706268084368369,
                -3.1266888800803168
            ]
        },
        {
            "positions": [
                -2.7111605814730915,
                -0.6500627882008629,
                0.7547969583642805,
                -0.08499794829277212,
                0.4402083155034032,
                -3.1314261151255014
            ]
        }
    ]
}