{
    "goal": {
        "global_pose": {
            "orientation": {
                "w": -0.4816463035849501,
                "x": 0.5182115481033762,
                "y": 0.4908360881923453,
                "z": -0.5084816262002911
            },
            "position": {
                "x": -0.8240239810943604,
                "y": 0.19912469901144506,
                "z": 0.16403168439865112
            }
        },
        "name": "move_to_storage_D"
    },
    "id": "BKPIECE_move_to_storage_D_54",
    "joint_names": [
        "shoulder_pan_joint",
        "shoulder_lift_joint",
        "elbow_joint",
        "wrist_1_joint",
        "wrist_2_joint",
        "wrist_3_joint"
    ],
    "metrics": {
        "cart_traj_len": 4.677418444766003,
        "distance_elbow_joint": 4.479249303237319,
        "distance_shoulder_lift_joint": 2.1650076115771832,
        "distance_shoulder_pan_joint": 6.35833316818983,
        "distance_wrist_1_joint": 2.301195573429111,
        "distance_wrist_2_joint": 3.5467969893330986,
        "distance_wrist_3_joint": 4.124035488469795,
        "smoothness": 0.2743996240110658,
        "time": 0.365624023,
        "traj_len": 4.7931845504044945,
        "weighted_distance": 6.08856975602137
    },
    "planner": "BKPIECE",
    "start": {
        "state": {
            "elbow_joint": -2.384821988534728,
            "shoulder_lift_joint": -2.2788054721415256,
            "shoulder_pan_joint": -0.1854694642142757,
            "wrist_1_joint": 1.4845938289331202,
            "wrist_2_joint": 0.17898776772866878,
            "wrist_3_joint": 0.037105688729662994
        }
    },
    "waypoints": [
        {
            "positions": [
                -0.1854694642142757,
                -2.2788054721415256,
                -2.384821988534728,
                1.4845938289331202,
                0.17898776772866878,
                0.037105688729662994
            ]
        },
        {
            "positions": [
                -0.26203993070583154,
                -2.240032704156369,
                -2.3968821577447588,
                1.3719038283188012,
                0.11838358642675428,
                -0.04519111255725236
            ]
        },
        {
            "positions": [
                -0.3386103971973873,
                -2.201259936171212,
                -2.408942326954789,
                1.2592138277044822,
                0.05777940512483977,
                -0.12748791384416772
            ]
        },
        {
            "positions": [
                -0.41518086368894314,
                -2.1624871681860554,
                -2.42100249616482,
                1.1465238270901632,
                -0.002824776177074717,
                -0.20978471513108302
            ]
        },
        {
            "positions": [
                -0.4917513301804989,
                -2.1237144002008987,
                -2.433062665374851,
                1.0338338264758442,
                -0.06342895747898925,
                -0.2920815164179984
            ]
        },
        {
            "positions": [
                -0.5683217966720547,
                -2.0849416322157417,
                -2.4451228345848817,
                0.9211438258615253,
                -0.12403313878090375,
                -0.3743783177049137
            ]
        },
        {
            "positions": [
                -0.6448922631636105,
                -2.046168864230585,
                -2.457183003794912,
                0.8084538252472063,
                -0.18463732008281822,
                -0.456675118991829
            ]
        },
        {
            "positions": [
                -0.7214627296551662,
                -2.0073960962454285,
                -2.469243173004943,
                0.6957638246328874,
                -0.24524150138473275,
                -0.5389719202787443
            ]
        },
        {
            "positions": [
                -0.7980331961467221,
                -1.9686233282602716,
                -2.4813033422149737,
                0.5830738240185683,
                -0.30584568268664725,
                -0.6212687215656598
            ]
        },
        {
            "positions": [
                -0.8746036626382779,
                -1.9298505602751148,
                -2.493363511425004,
                0.47038382340424945,
                -0.36644986398856183,
                -0.7035655228525751
            ]
        },
        {
            "positions": [
                -0.9511741291298337,
                -1.8910777922899582,
                -2.505423680635035,
                0.35769382278993045,
                -0.42705404529047625,
                -0.7858623241394904
            ]
        },
        {
            "positions": [
                -1.0238883629093316,
                -1.8511512706075552,
                -2.5079784992774727,
                0.2507634899483056,
                -0.4866872291469275,
                -0.8710752750785676
            ]
        },
        {
            "positions": [
                -1.0966025966888295,
                -1.811224748925152,
                -2.51053331791991,
                0.14383315710668074,
                -0.5463204130033789,
                -0.9562882260176448
            ]
        },
        {
            "positions": [
                -1.1693168304683277,
                -1.771298227242749,
                -2.513088136562348,
                0.03690282426505587,
                -0.6059535968598302,
                -1.041501176956722
            ]
        },
        {
            "positions": [
                -1.2420310642478256,
                -1.7313717055603461,
                -2.5156429552047856,
                -0.07002750857656898,
                -0.6655867807162814,
                -1.1267141278957993
            ]
        },
        {
            "positions": [
                -1.3147452980273235,
                -1.691445183877943,
                -2.518197773847223,
                -0.17695784141819393,
                -0.7252199645727329,
                -1.2119270788348766
            ]
        },
        {
            "positions": [
                -1.3874595318068215,
                -1.65151866219554,
                -2.5207525924896608,
                -0.28388817425981877,
                -0.7848531484291841,
                -1.2971400297739537
            ]
        },
        {
            "positions": [
                -1.4128941227313139,
                -1.603543785395291,
                -2.423908142880161,
                -0.32133066619817974,
                -0.8289586006472951,
                -1.4044237097449832
            ]
        },
        {
            "positions": [
                -1.4383287136558065,
                -1.555568908595042,
                -2.3270636932706616,
                -0.35877315813654065,
                -0.8730640528654061,
                -1.5117073897160127
            ]
        },
        {
            "positions": [
                -1.463763304580299,
                -1.5075940317947927,
                -2.2302192436611623,
                -0.39621565007490156,
                -0.9171695050835171,
                -1.6189910696870422
            ]
        },
        {
            "positions": [
                -1.4891978955047913,
                -1.4596191549945436,
                -2.1333747940516625,
                -0.4336581420132625,
                -0.9612749573016282,
                -1.7262747496580717
            ]
        },
        {
            "positions": [
                -1.514632486429284,
                -1.4116442781942946,
                -2.0365303444421627,
                -0.4711006339516235,
                -1.0053804095197392,
                -1.8335584296291014
            ]
        },
        {
            "positions": [
                -1.5400670773537763,
                -1.3636694013940456,
                -1.9396858948326634,
                -0.5085431258899844,
                -1.0494858617378502,
                -1.940842109600131
            ]
        },
        {
            "positions": [
                -1.3637065699824171,
                -1.3809658694547453,
                -1.8476266439956215,
                -0.5078034763461998,
                -0.9645586208464294,
                -1.9218560953473878
            ]
        },
        {
            "positions": [
                -1.187346062611058,
                -1.3982623375154448,
                -1.7555673931585793,
                -0.5070638268024152,
                -0.8796313799550086,
                -1.9028700810946444
            ]
        },
        {
            "positions": [
                -1.0109855552396987,
                -1.4155588055761446,
                -1.6635081423215374,
                -0.5063241772586307,
                -0.7947041390635878,
                -1.8838840668419012
            ]
        },
        {
            "positions": [
                -0.8346250478683395,
                -1.4328552736368443,
                -1.5714488914844953,
                -0.5055845277148461,
                -0.709776898172167,
                -1.8648980525891579
            ]
        },
        {
            "positions": [
                -0.6582645404969802,
                -1.4501517416975438,
                -1.4793896406474534,
                -0.5048448781710614,
                -0.6248496572807463,
                -1.8459120383364147
            ]
        },
        {
            "positions": [
                -0.481904033125621,
                -1.4674482097582435,
                -1.3873303898104115,
                -0.5041052286272768,
                -0.5399224163893256,
                -1.8269260240836713
            ]
        },
        {
            "positions": [
                -0.305543525754262,
                -1.4847446778189433,
                -1.2952711389733693,
                -0.5033655790834922,
                -0.4549951754979048,
                -1.8079400098309282
            ]
        },
        {
            "positions": [
                -0.12918301838290258,
                -1.502041145879643,
                -1.2032118881363272,
                -0.5026259295397076,
                -0.370067934606484,
                -1.788953995578185
            ]
        },
        {
            "positions": [
                0.04717748898845642,
                -1.5193376139403425,
                -1.1111526372992855,
                -0.5018862799959231,
                -0.28514069371506334,
                -1.7699679813254416
            ]
        },
        {
            "positions": [
                0.22353799635981586,
                -1.5366340820010422,
                -1.0190933864622433,
                -0.5011466304521385,
                -0.20021345282364245,
                -1.7509819670726985
            ]
        },
        {
            "positions": [
                0.39989850373117486,
                -1.553930550061742,
                -0.9270341356252014,
                -0.5004069809083539,
                -0.11528621193222177,
                -1.731995952819955
            ]
        },
        {
            "positions": [
                0.5762590111025343,
                -1.5712270181224415,
                -0.8349748847881593,
                -0.49966733136456926,
                -0.030358971040800986,
                -1.713009938567212
            ]
        },
        {
            "positions": [
                0.7526195184738933,
                -1.5885234861831412,
                -0.7429156339511174,
                -0.4989276818207847,
                0.0545682698506198,
                -1.6940239243144686
            ]
        },
        {
            "positions": [
                0.9289800258452523,
                -1.605819954243841,
                -0.6508563831140755,
                -0.4981880322770001,
                0.13949551074204058,
                -1.6750379100617254
            ]
        },
        {
            "positions": [
                1.1053405332166113,
                -1.6231164223045405,
                -0.5587971322770335,
                -0.4974483827332155,
                0.22442275163346115,
                -1.6560518958089823
            ]
        },
        {
            "positions": [
                1.2817010405879712,
                -1.6404128903652402,
                -0.4667378814399912,
                -0.4967087331894309,
                0.30934999252488216,
                -1.6370658815562389
            ]
        },
        {
            "positions": [
                1.4580615479593302,
                -1.65770935842594,
                -0.37467863060294926,
                -0.4959690836456463,
                0.39427723341630294,
                -1.6180798673034957
            ]
        },
        {
            "positions": [
                1.6344220553306892,
                -1.6750058264866396,
                -0.28261937976590734,
                -0.4952294341018617,
                0.4792044743077235,
                -1.5990938530507526
            ]
        },
        {
            "positions": [
                1.8107825627020482,
                -1.6923022945473392,
                -0.19056012892886542,
                -0.49448978455807713,
                0.5641317151991443,
                -1.5801078387980092
            ]
        },
        {
            "positions": [
                1.987143070073408,
                -1.709598762608039,
                -0.09850087809182329,
                -0.4937501350142925,
                0.6490589560905653,
                -1.5611218245452658
            ]
        },
        {
            "positions": [
                2.163503577444767,
                -1.7268952306687386,
                -0.006441627254781368,
                -0.4930104854705079,
                0.7339861969819861,
                -1.5421358102925227
            ]
        },
        {
            "positions": [
                2.339864084816126,
                -1.7441916987294381,
                0.08561762358226055,
                -0.4922708359267233,
                0.8189134378734066,
                -1.5231497960397795
            ]
        },
        {
            "positions": [
                2.516224592187485,
                -1.7614881667901379,
                0.1776768744193027,
                -0.49153118638293875,
                0.9038406787648274,
                -1.5041637817870361
            ]
        },
        {
            "positions": [
                2.692585099558845,
                -1.7787846348508376,
                0.2697361252563448,
                -0.4907915368391541,
                0.9887679196562482,
                -1.485177767534293
            ]
        },
        {
            "positions": [
                2.868945606930204,
                -1.796081102911537,
                0.3617953760933865,
                -0.4900518872953695,
                1.0736951605476692,
                -1.4661917532815496
            ]
        },
        {
            "positions": [
                3.045306114301563,
                -1.8133775709722368,
                0.4538546269304286,
                -0.48931223775158494,
                1.1586224014390898,
                -1.4472057390288064
            ]
        },
        {
            "positions": [
                3.010442584018647,
                -1.746697290034611,
                0.5679139169189532,
                -0.5133812152905521,
                1.1494378100482865,
                -1.5849100156595295
            ]
        },
        {
            "positions": [
                2.975579053735731,
                -1.6800170090969848,
                0.6819732069074779,
                -0.5374501928295193,
                1.1402532186574832,
                -1.7226142922902525
            ]
        },
        {
            "positions": [
                2.9407155234528153,
                -1.613336728159359,
                0.7960324968960024,
                -0.5615191703684865,
                1.13106862726668,
                -1.8603185689209756
            ]
        },
        {
            "positions": [
                2.905851993169899,
                -1.546656447221733,
                0.9100917868845271,
                -0.5855881479074538,
                1.1218840358758764,
                -1.9980228455516986
            ]
        },
        {
            "positions": [
                2.870988462886983,
                -1.4799761662841069,
                1.0241510768730517,
                -0.609657125446421,
                1.112699444485073,
                -2.1357271221824217
            ]
        },
        {
            "positions": [
                2.836124932604067,
                -1.4132958853464808,
                1.1382103668615764,
                -0.6337261029853882,
                1.1035148530942698,
                -2.2734313988131447
            ]
        },
        {
            "positions": [
                2.8012614023211513,
                -1.3466156044088549,
                1.252269656850101,
                -0.6577950805243554,
                1.0943302617034665,
                -2.411135675443868
            ]
        },
        {
            "positions": [
                2.7663978720382354,
                -1.279935323471229,
                1.3663289468386255,
                -0.6818640580633226,
                1.0851456703126632,
                -2.548839952074591
            ]
        },
        {
            "positions": [
                2.731534341755319,
                -1.2132550425336028,
                1.4803882368271504,
                -0.7059330356022899,
                1.0759610789218597,
                -2.6865442287053143
            ]
        },
        {
            "positions": [
                2.696670811472403,
                -1.1465747615959767,
                1.594447526815675,
                -0.7300020131412571,
                1.0667764875310564,
                -2.8242485053360373
            ]
        },
        {
            "positions": [
                2.6618072811894873,
                -1.0798944806583508,
                1.7085068168041995,
                -0.7540709906802243,
                1.057591896140253,
                -2.9619527819667604
            ]
        },
        {
            "positions": [
                2.6269437509065714,
                -1.013214199720725,
                1.8225661067927241,
                -0.7781399682191915,
                1.0484073047494498,
                -3.0996570585974834
            ]
        }
    ]
}