{
    "goal": {
        "global_pose": {
            "orientation": {
                "w": -0.00223480608172531,
                "x": 0.0024358444001904467,
                "y": 0.7094548369677653,
                "z": -0.704743149386269
            },
            "position": {
                "x": -0.37947507619857795,
                "y": -0.6371506643295288,
                "z": 0.19426114857196808
            }
        },
        "name": "move_to_magneteinheit_C"
    },
    "id": "BKPIECE_move_to_magneteinheit_C_48",
    "joint_names": [
        "shoulder_pan_joint",
        "shoulder_lift_joint",
        "elbow_joint",
        "wrist_1_joint",
        "wrist_2_joint",
        "wrist_3_joint"
    ],
    "metrics": {
        "cart_traj_len": 0.8638198662648419,
        "distance_elbow_joint": 0.44630913213605306,
        "distance_shoulder_lift_joint": 0.34576869484272055,
        "distance_shoulder_pan_joint": 1.0126748191798682,
        "distance_wrist_1_joint": 0.3097123159374948,
        "distance_wrist_2_joint": 1.2802081895171584,
        "distance_wrist_3_joint": 0.45681905302910986,
        "smoothness": 0.993858865343642,
        "time": 0.33550826899999997,
        "traj_len": 1.9625218991497662,
        "weighted_distance": 2.520922612091707
    },
    "planner": "BKPIECE",
    "start": {
        "state": {
            "elbow_joint": 1.9565354010623817,
            "shoulder_lift_joint": -1.4165861575791021,
            "shoulder_pan_joint": -1.6717766225146293,
            "wrist_1_joint": -0.5286633292919765,
            "wrist_2_joint": 1.472756589071564,
            "wrist_3_joint": -3.1238370188695823
        }
    },
    "waypoints": [
        {
            "positions": [
                -1.6717766225146293,
                -1.4165861575791021,
                1.9565354010623817,
                -0.5286633292919765,
                1.472756589071564,
                -3.1238370188695823
            ]
        },
        {
            "positions": [
                -1.567383990123662,
                -1.462793013048488,
                1.9517801703757036,
                -0.5195299152194758,
                1.4719364415295875,
                -2.910757573669825
            ]
        },
        {
            "positions": [
                -1.6001706110066238,
                -1.454861658041866,
                1.90355801452903,
                -0.5342173203970377,
                1.2109657726399958,
                -2.9190997898063435
            ]
        },
        {
            "positions": [
                -1.632957231889586,
                -1.4469303030352438,
                1.8553358586823565,
                -0.5489047255745998,
                0.949995103750404,
                -2.9274420059428623
            ]
        },
        {
            "positions": [
                -1.665743852772548,
                -1.4389989480286216,
                1.807113702835683,
                -0.5635921307521617,
                0.6890244348608122,
                -2.935784222079381
            ]
        },
        {
            "positions": [
                -1.69853047365551,
                -1.4310675930219996,
                1.7588915469890094,
                -0.5782795359297237,
                0.4280537659712206,
                -2.9441264382159
            ]
        },
        {
            "positions": [
                -1.7609679395616136,
                -1.4195281174973486,
                1.819089303695199,
                -0.579240372834019,
                0.4391045309651599,
                -3.0344290499228244
            ]
        },
        {
            "positions": [
                -1.8234054054677171,
                -1.4079886419726977,
                1.8792870604013885,
                -0.5802012097383141,
                0.4501552959590992,
                -3.1247316616297485
            ]
        },
        {
            "positions": [
                -1.9864705983289286,
                -1.3467992748983115,
                1.911354501563964,
                -0.640178111574853,
                0.5035062550663332,
                -3.1321730415971056
            ]
        },
        {
            "positions": [
                -2.14953579119014,
                -1.2856099078239256,
                1.9434219427265393,
                -0.7001550134113921,
                0.5568572141735673,
                -3.139614421564463
            ]
        },
        {
            "positions": [
                -2.3126009840513513,
                -1.2244205407495397,
                1.9754893838891148,
                -0.760131915247931,
                0.6102081732808012,
                -3.14705580153182
            ]
        },
        {
            "positions": [
                -2.4756661769125627,
                -1.1632311736751535,
                2.00755682505169,
                -0.8201088170844699,
                0.6635591323880352,
                -3.154497181499177
            ]
        }
    ]
}