{
    "goal": {
        "global_pose": {
            "orientation": {
                "w": -0.4816463035849501,
                "x": 0.5182115481033762,
                "y": 0.4908360881923453,
                "z": -0.5084816262002911
            },
            "position": {
                "x": -0.8240239810943604,
                "y": 0.19912469901144506,
                "z": 0.16403168439865112
            }
        },
        "name": "move_to_storage_D"
    },
    "id": "BKPIECE_move_to_storage_D_34",
    "joint_names": [
        "shoulder_pan_joint",
        "shoulder_lift_joint",
        "elbow_joint",
        "wrist_1_joint",
        "wrist_2_joint",
        "wrist_3_joint"
    ],
    "metrics": {
        "cart_traj_len": 3.9020733976805584,
        "distance_elbow_joint": 4.6720254815522795,
        "distance_shoulder_lift_joint": 1.2640362871929554,
        "distance_shoulder_pan_joint": 2.8122638270830476,
        "distance_wrist_1_joint": 2.8959734989859847,
        "distance_wrist_2_joint": 1.7976488481376163,
        "distance_wrist_3_joint": 3.4546699205053137,
        "smoothness": 0.4314155695274673,
        "time": 0.327414836,
        "traj_len": 4.110549581680921,
        "weighted_distance": 5.3384997940986585
    },
    "planner": "BKPIECE",
    "start": {
        "state": {
            "elbow_joint": -2.384821988534728,
            "shoulder_lift_joint": -2.2788054721415256,
            "shoulder_pan_joint": -0.1854694642142757,
            "wrist_1_joint": 1.4845938289331202,
            "wrist_2_joint": 0.17898776772866878,
            "wrist_3_joint": 0.037105688729662994
        }
    },
    "waypoints": [
        {
            "positions": [
                -0.1854694642142757,
                -2.2788054721415256,
                -2.384821988534728,
                1.4845938289331202,
                0.17898776772866878,
                0.037105688729662994
            ]
        },
        {
            "positions": [
                -0.08114118295824072,
                -2.260522008760019,
                -2.461563791069211,
                1.510630709220558,
                0.2658811766981971,
                0.09174624122672843
            ]
        },
        {
            "positions": [
                0.02318709829779428,
                -2.2422385453785116,
                -2.538305593603694,
                1.536667589507996,
                0.3527745856677254,
                0.14638679372379387
            ]
        },
        {
            "positions": [
                0.1275153795538293,
                -2.223955081997005,
                -2.615047396138177,
                1.5627044697954338,
                0.4396679946372537,
                0.20102734622085933
            ]
        },
        {
            "positions": [
                0.19972573673089636,
                -2.1869009797665293,
                -2.4921412540321106,
                1.4765154755384888,
                0.42428986202136,
                0.13981165057166708
            ]
        },
        {
            "positions": [
                0.2719360939079634,
                -2.149846877536054,
                -2.369235111926044,
                1.390326481281544,
                0.4089117294054663,
                0.07859595492247484
            ]
        },
        {
            "positions": [
                0.3441464510850305,
                -2.1127927753055786,
                -2.2463289698199773,
                1.304137487024599,
                0.3935335967895725,
                0.0173802592732826
            ]
        },
        {
            "positions": [
                0.41635680826209753,
                -2.0757386730751035,
                -2.123422827713911,
                1.217948492767654,
                0.3781554641736788,
                -0.04383543637590964
            ]
        },
        {
            "positions": [
                0.48856716543916456,
                -2.038684570844628,
                -2.0005166856078445,
                1.1317594985107093,
                0.3627773315577851,
                -0.10505113202510186
            ]
        },
        {
            "positions": [
                0.5607775226162317,
                -2.0016304686141524,
                -1.8776105435017776,
                1.0455705042537642,
                0.3473991989418913,
                -0.16626682767429413
            ]
        },
        {
            "positions": [
                0.6329878797932986,
                -1.964576366383677,
                -1.7547044013957112,
                0.9593815099968195,
                0.3320210663259976,
                -0.22748252332348634
            ]
        },
        {
            "positions": [
                0.7051982369703658,
                -1.9275222641532017,
                -1.6317982592896447,
                0.8731925157398746,
                0.3166429337101039,
                -0.2886982189726786
            ]
        },
        {
            "positions": [
                0.7774085941474328,
                -1.8904681619227264,
                -1.508892117183578,
                0.7870035214829297,
                0.30126480109421017,
                -0.34991391462187077
            ]
        },
        {
            "positions": [
                0.8496189513244998,
                -1.853414059692251,
                -1.3859859750775116,
                0.7008145272259848,
                0.28588666847831645,
                -0.41112961027106304
            ]
        },
        {
            "positions": [
                0.9218293085015669,
                -1.8163599574617755,
                -1.2630798329714452,
                0.61462553296904,
                0.27050853586242274,
                -0.4723453059202553
            ]
        },
        {
            "positions": [
                0.994039665678634,
                -1.7793058552313001,
                -1.1401736908653783,
                0.5284365387120948,
                0.2551304032465289,
                -0.5335610015694476
            ]
        },
        {
            "positions": [
                1.066250022855701,
                -1.7422517530008248,
                -1.017267548759312,
                0.44224754445515013,
                0.23975227063063523,
                -0.5947766972186399
            ]
        },
        {
            "positions": [
                1.138460380032768,
                -1.7051976507703492,
                -0.8943614066532453,
                0.3560585501982052,
                0.2243741380147415,
                -0.655992392867832
            ]
        },
        {
            "positions": [
                1.210670737209835,
                -1.6681435485398741,
                -0.7714552645471788,
                0.2698695559412603,
                0.20899600539884777,
                -0.7172080885170242
            ]
        },
        {
            "positions": [
                1.2828810943869022,
                -1.6310894463093986,
                -0.6485491224411124,
                0.18368056168431535,
                0.19361787278295406,
                -0.7784237841662165
            ]
        },
        {
            "positions": [
                1.3550914515639692,
                -1.5940353440789232,
                -0.525642980335046,
                0.09749156742737042,
                0.17823974016706035,
                -0.8396394798154088
            ]
        },
        {
            "positions": [
                1.4273018087410363,
                -1.5569812418484479,
                -0.4027368382289791,
                0.011302573170425712,
                0.16286160755116658,
                -0.9008551754646008
            ]
        },
        {
            "positions": [
                1.4995121659181032,
                -1.5199271396179723,
                -0.27983069612291267,
                -0.07488642108651922,
                0.14748347493527286,
                -0.9620708711137931
            ]
        },
        {
            "positions": [
                1.5717225230951704,
                -1.4828730373874972,
                -0.15692455401684624,
                -0.16107541534346415,
                0.13210534231937915,
                -1.0232865667629854
            ]
        },
        {
            "positions": [
                1.6439328802722373,
                -1.4458189351570216,
                -0.03401841191077981,
                -0.24726440960040907,
                0.11672720970348544,
                -1.0845022624121776
            ]
        },
        {
            "positions": [
                1.7161432374493044,
                -1.4087648329265463,
                0.08888773019528662,
                -0.3334534038573538,
                0.10134907708759172,
                -1.14571795806137
            ]
        },
        {
            "positions": [
                1.7883535946263716,
                -1.371710730696071,
                0.21179387230135394,
                -0.41964239811429915,
                0.0859709444716979,
                -1.2069336537105622
            ]
        },
        {
            "positions": [
                1.8605639518034387,
                -1.3346566284655954,
                0.33470001440742037,
                -0.5058313923712441,
                0.07059281185580418,
                -1.2681493493597544
            ]
        },
        {
            "positions": [
                1.9327743089805056,
                -1.29760252623512,
                0.4576061565134868,
                -0.5920203866281888,
                0.05521467923991047,
                -1.3293650450089467
            ]
        },
        {
            "positions": [
                2.004984666157573,
                -1.2605484240046447,
                0.5805122986195532,
                -0.6782093808851335,
                0.039836546624016755,
                -1.390580740658139
            ]
        },
        {
            "positions": [
                2.0771950233346397,
                -1.2234943217741694,
                0.7034184407256197,
                -0.7643983751420786,
                0.02445841400812304,
                -1.4517964363073312
            ]
        },
        {
            "positions": [
                2.1494053805117064,
                -1.1864402195436938,
                0.8263245828316865,
                -0.8505873693990234,
                0.009080281392229272,
                -1.5130121319565233
            ]
        },
        {
            "positions": [
                2.221615737688774,
                -1.1493861173132185,
                0.949230724937753,
                -0.9367763636559685,
                -0.006297851223664441,
                -1.5742278276057156
            ]
        },
        {
            "positions": [
                2.293826094865841,
                -1.1123320150827432,
                1.0721368670438192,
                -1.0229653579129132,
                -0.021675983839558134,
                -1.6354435232549078
            ]
        },
        {
            "positions": [
                2.327122921666134,
                -1.102575732069326,
                1.1475984481205024,
                -0.9997460548713808,
                0.0858864804356638,
                -1.7808712626087428
            ]
        },
        {
            "positions": [
                2.3604197484664273,
                -1.0928194490559087,
                1.2230600291971856,
                -0.9765267518298484,
                0.19344894471088572,
                -1.9262990019625779
            ]
        },
        {
            "positions": [
                2.39371657526672,
                -1.0830631660424912,
                1.2985216102738686,
                -0.9533074487883161,
                0.30101140898610756,
                -2.0717267413164127
            ]
        },
        {
            "positions": [
                2.427013402067013,
                -1.073306883029074,
                1.3739831913505518,
                -0.9300881457467837,
                0.40857387326132955,
                -2.217154480670248
            ]
        },
        {
            "positions": [
                2.460310228867306,
                -1.0635506000156567,
                1.449444772427235,
                -0.9068688427052513,
                0.5161363375365514,
                -2.362582220024083
            ]
        },
        {
            "positions": [
                2.4936070556675993,
                -1.0537943170022395,
                1.5249063535039182,
                -0.8836495396637188,
                0.6236988018117733,
                -2.508009959377918
            ]
        },
        {
            "positions": [
                2.5269038824678924,
                -1.0440380339888222,
                1.6003679345806012,
                -0.8604302366221865,
                0.7312612660869952,
                -2.6534376987317527
            ]
        },
        {
            "positions": [
                2.560200709268185,
                -1.0342817509754048,
                1.6758295156572847,
                -0.8372109335806541,
                0.8388237303622172,
                -2.798865438085588
            ]
        },
        {
            "positions": [
                2.593497536068478,
                -1.0245254679619875,
                1.7512910967339677,
                -0.8139916305391217,
                0.9463861946374391,
                -2.944293177439423
            ]
        },
        {
            "positions": [
                2.6267943628687713,
                -1.0147691849485703,
                1.8267526778106509,
                -0.7907723274975893,
                1.053948658912661,
                -3.089720916793258
            ]
        }
    ]
}