{
    "goal": {
        "global_pose": {
            "orientation": {
                "w": -0.00223480608172531,
                "x": 0.0024358444001904467,
                "y": 0.7094548369677653,
                "z": -0.704743149386269
            },
            "position": {
                "x": -0.37947507619857795,
                "y": -0.6371506643295288,
                "z": 0.19426114857196808
            }
        },
        "name": "move_to_magneteinheit_C"
    },
    "id": "BKPIECE_move_to_magneteinheit_C_27",
    "joint_names": [
        "shoulder_pan_joint",
        "shoulder_lift_joint",
        "elbow_joint",
        "wrist_1_joint",
        "wrist_2_joint",
        "wrist_3_joint"
    ],
    "metrics": {
        "cart_traj_len": 1.6868802693962741,
        "distance_elbow_joint": 1.3538582087687328,
        "distance_shoulder_lift_joint": 0.5234722266617402,
        "distance_shoulder_pan_joint": 1.5226397700484655,
        "distance_wrist_1_joint": 0.6599389583477389,
        "distance_wrist_2_joint": 1.8390264686816584,
        "distance_wrist_3_joint": 4.778315043549527,
        "smoothness": 0.42739431812810086,
        "time": 0.143215832,
        "traj_len": 3.267606260867098,
        "weighted_distance": 4.767897460116598
    },
    "planner": "BKPIECE",
    "start": {
        "state": {
            "elbow_joint": 1.9565354010623817,
            "shoulder_lift_joint": -1.4165861575791021,
            "shoulder_pan_joint": -1.6717766225146293,
            "wrist_1_joint": -0.5286633292919765,
            "wrist_2_joint": 1.472756589071564,
            "wrist_3_joint": -3.1238370188695823
        }
    },
    "waypoints": [
        {
            "positions": [
                -1.6717766225146293,
                -1.4165861575791021,
                1.9565354010623817,
                -0.5286633292919765,
                1.472756589071564,
                -3.1238370188695823
            ]
        },
        {
            "positions": [
                -1.59642510169065,
                -1.4262619560033887,
                1.929750401838374,
                -0.5008375552268653,
                1.4510540032710455,
                -3.058837650366955
            ]
        },
        {
            "positions": [
                -1.521073580866671,
                -1.4359377544276755,
                1.9029654026143663,
                -0.47301178116175435,
                1.429351417470527,
                -2.9938382818643277
            ]
        },
        {
            "positions": [
                -1.5380146479720347,
                -1.435853072167573,
                1.853098179058396,
                -0.4622228519850236,
                1.3229066307731614,
                -2.806808338842724
            ]
        },
        {
            "positions": [
                -1.554955715077398,
                -1.4357683899074707,
                1.803230955502426,
                -0.45143392280829286,
                1.2164618440757957,
                -2.6197783958211196
            ]
        },
        {
            "positions": [
                -1.5718967821827616,
                -1.4356837076473685,
                1.7533637319464557,
                -0.4406449936315622,
                1.11001705737843,
                -2.4327484527995153
            ]
        },
        {
            "positions": [
                -1.5888378492881252,
                -1.4355990253872661,
                1.7034965083904854,
                -0.42985606445483143,
                1.0035722706810644,
                -2.2457185097779115
            ]
        },
        {
            "positions": [
                -1.6057789163934886,
                -1.4355143431271637,
                1.6536292848345153,
                -0.4190671352781007,
                0.8971274839836986,
                -2.0586885667563077
            ]
        },
        {
            "positions": [
                -1.6227199834988522,
                -1.4354296608670616,
                1.603762061278545,
                -0.40827820610137,
                0.7906826972863329,
                -1.8716586237347035
            ]
        },
        {
            "positions": [
                -1.6396610506042157,
                -1.4353449786069592,
                1.5538948377225748,
                -0.39748927692463926,
                0.6842379105889671,
                -1.6846286807130995
            ]
        },
        {
            "positions": [
                -1.656602117709579,
                -1.4352602963468568,
                1.5040276141666047,
                -0.3867003477479085,
                0.5777931238916015,
                -1.4975987376914954
            ]
        },
        {
            "positions": [
                -1.6735431848149427,
                -1.4351756140867544,
                1.4541603906106344,
                -0.37591141857117777,
                0.47134833719423574,
                -1.3105687946698914
            ]
        },
        {
            "positions": [
                -1.6904842519203063,
                -1.435090931826652,
                1.4042931670546641,
                -0.365122489394447,
                0.36490355049687007,
                -1.1235388516482874
            ]
        },
        {
            "positions": [
                -1.7074253190256696,
                -1.4350062495665499,
                1.354425943498694,
                -0.35433356021771634,
                0.2584587637995044,
                -0.9365089086266836
            ]
        },
        {
            "positions": [
                -1.7243663861310332,
                -1.4349215673064475,
                1.3045587199427238,
                -0.3435446310409856,
                0.15201397710213865,
                -0.7494789656050795
            ]
        },
        {
            "positions": [
                -1.916306554873251,
                -1.4580698173848654,
                1.38583666822277,
                -0.3907693265132516,
                0.1798716917660877,
                -0.7634571081065992
            ]
        },
        {
            "positions": [
                -2.1082467236154687,
                -1.4812180674632833,
                1.4671146165028164,
                -0.4379940219855176,
                0.20772940643003676,
                -0.7774352506081187
            ]
        },
        {
            "positions": [
                -2.3001868923576865,
                -1.504366317541701,
                1.5483925647828625,
                -0.4852187174577836,
                0.2355871210939858,
                -0.7914133931096383
            ]
        },
        {
            "positions": [
                -2.4921270610999042,
                -1.527514567620119,
                1.6296705130629088,
                -0.5324434129300497,
                0.26344483575793487,
                -0.8053915356111578
            ]
        },
        {
            "positions": [
                -2.684067229842122,
                -1.5506628176985369,
                1.710948461342955,
                -0.5796681084023156,
                0.2913025504218839,
                -0.8193696781126775
            ]
        },
        {
            "positions": [
                -2.6831090202082066,
                -1.5116181983979902,
                1.7601202067426729,
                -0.6013648719044646,
                0.3240499405469117,
                -1.0088476470512084
            ]
        },
        {
            "positions": [
                -2.6821508105742917,
                -1.4725735790974432,
                1.8092919521423907,
                -0.6230616354066137,
                0.3567973306719396,
                -1.1983256159897393
            ]
        },
        {
            "positions": [
                -2.6811926009403764,
                -1.4335289597968965,
                1.8584636975421085,
                -0.6447583989087627,
                0.38954472079696745,
                -1.3878035849282702
            ]
        },
        {
            "positions": [
                -2.680234391306461,
                -1.3944843404963498,
                1.9076354429418263,
                -0.6664551624109117,
                0.42229211092199526,
                -1.577281553866801
            ]
        },
        {
            "positions": [
                -2.679276181672546,
                -1.355439721195803,
                1.956807188341544,
                -0.6881519259130608,
                0.45503950104702307,
                -1.7667595228053319
            ]
        },
        {
            "positions": [
                -2.6783179720386308,
                -1.3163951018952562,
                2.005978933741262,
                -0.7098486894152098,
                0.48778689117205093,
                -1.9562374917438625
            ]
        },
        {
            "positions": [
                -2.6376792077143176,
                -1.2857760065959425,
                2.0060711965113693,
                -0.7315519297597146,
                0.5242890797005149,
                -2.1956771845731105
            ]
        },
        {
            "positions": [
                -2.5970404433900045,
                -1.2551569112966288,
                2.0061634592814768,
                -0.7532551701042194,
                0.5607912682289787,
                -2.4351168774023586
            ]
        },
        {
            "positions": [
                -2.556401679065692,
                -1.2245378159973148,
                2.0062557220515838,
                -0.774958410448724,
                0.5972934567574426,
                -2.6745565702316063
            ]
        },
        {
            "positions": [
                -2.5157629147413787,
                -1.193918720698001,
                2.006347984821691,
                -0.7966616507932288,
                0.6337956452859065,
                -2.913996263060854
            ]
        },
        {
            "positions": [
                -2.4751241504170656,
                -1.1632996253986874,
                2.0064402475917986,
                -0.8183648911377336,
                0.6702978338143704,
                -3.153435955890102
            ]
        }
    ]
}