{
    "goal": {
        "global_pose": {
            "orientation": {
                "w": 0.7031023502349854,
                "x": -0.7110244035720825,
                "y": 0.007748599164187908,
                "z": 0.005598929710686207
            },
            "position": {
                "x": 0.11585023208521307,
                "y": 0.44412534475326537,
                "z": 0.3711530566215515
            }
        },
        "name": "move_to_auspresseinheit_A"
    },
    "id": "BKPIECE_move_to_auspresseinheit_A_72",
    "joint_names": [
        "shoulder_pan_joint",
        "shoulder_lift_joint",
        "elbow_joint",
        "wrist_1_joint",
        "wrist_2_joint",
        "wrist_3_joint"
    ],
    "metrics": {
        "cart_traj_len": 0.9639482107160108,
        "distance_elbow_joint": 0.2733517637588969,
        "distance_shoulder_lift_joint": 0.6657954011695564,
        "distance_shoulder_pan_joint": 1.2741715107278941,
        "distance_wrist_1_joint": 1.2459840457401699,
        "distance_wrist_2_joint": 0.9188677933596583,
        "distance_wrist_3_joint": 0.8864964327446327,
        "smoothness": 1.5793361621211015,
        "time": 0.142409167,
        "traj_len": 2.294486205559059,
        "weighted_distance": 3.0335641829521096
    },
    "planner": "BKPIECE",
    "start": {
        "state": {
            "elbow_joint": 2.4225746658250005,
            "shoulder_lift_joint": -1.3736534386056498,
            "shoulder_pan_joint": -0.3378633547517467,
            "wrist_1_joint": -1.0288598680537169,
            "wrist_2_joint": 1.233022673432363,
            "wrist_3_joint": -3.0940220416140027
        }
    },
    "waypoints": [
        {
            "positions": [
                -0.3378633547517467,
                -1.3736534386056498,
                2.4225746658250005,
                -1.0288598680537169,
                1.233022673432363,
                -3.0940220416140027
            ]
        },
        {
            "positions": [
                -0.37649340865243036,
                -1.4011979075715537,
                2.37210774385408,
                -1.0583344411288045,
                1.1178136317989689,
                -3.070496373954406
            ]
        },
        {
            "positions": [
                -0.41512346255311405,
                -1.4287423765374574,
                2.3216408218831592,
                -1.0878090142038923,
                1.002604590165575,
                -3.0469707062948097
            ]
        },
        {
            "positions": [
                -0.4537535164537977,
                -1.4562868455033613,
                2.2711738999122386,
                -1.11728358727898,
                0.8873955485321807,
                -3.023445038635213
            ]
        },
        {
            "positions": [
                -0.3400730691026045,
                -1.513844559728785,
                2.2768343990765847,
                -1.0167504219211958,
                0.8451866232597479,
                -2.9844000972176756
            ]
        },
        {
            "positions": [
                -0.22639262175141134,
                -1.5714022739542088,
                2.2824948982409303,
                -0.9162172565634117,
                0.802977697987315,
                -2.945355155800138
            ]
        },
        {
            "positions": [
                -0.11271217440021819,
                -1.6289599881796326,
                2.2881553974052764,
                -0.8156840912056276,
                0.7607687727148822,
                -2.9063102143826005
            ]
        },
        {
            "positions": [
                0.0009682729509750132,
                -1.6865177024050564,
                2.2938158965696225,
                -0.7151509258478435,
                0.7185598474424494,
                -2.867265272965063
            ]
        },
        {
            "positions": [
                0.11464872030216822,
                -1.7440754166304802,
                2.299476395733968,
                -0.6146177604900592,
                0.6763509221700165,
                -2.8282203315475254
            ]
        },
        {
            "positions": [
                0.2283291676533613,
                -1.801633130855904,
                2.305136894898314,
                -0.5140845951322751,
                0.6341419968975837,
                -2.789175390129988
            ]
        },
        {
            "positions": [
                0.3420096150045546,
                -1.8591908450813277,
                2.3107973940626603,
                -0.4135514297744909,
                0.5919330716251507,
                -2.7501304487124507
            ]
        },
        {
            "positions": [
                0.4556900623557477,
                -1.9167485593067515,
                2.316457893227006,
                -0.3130182644167069,
                0.549724146352718,
                -2.711085507294913
            ]
        },
        {
            "positions": [
                0.569370509706941,
                -1.9743062735321752,
                2.322118392391352,
                -0.2124850990589226,
                0.5075152210802851,
                -2.6720405658773756
            ]
        },
        {
            "positions": [
                0.6144229506619758,
                -1.9525920847844982,
                2.3457872275136924,
                -0.2967390451572057,
                0.5719686680828119,
                -2.826878884880044
            ]
        },
        {
            "positions": [
                0.6594753916170107,
                -1.9308778960368214,
                2.3694560626360333,
                -0.3809929912554889,
                0.6364221150853386,
                -2.9817172038827127
            ]
        },
        {
            "positions": [
                0.7045278325720455,
                -1.9091637072891443,
                2.3931248977583737,
                -0.46524693735377204,
                0.7008755620878655,
                -3.136555522885381
            ]
        }
    ]
}