{
    "goal": {
        "global_pose": {
            "orientation": {
                "w": 0.5084816262002911,
                "x": -0.4908360881923452,
                "y": 0.5182115481033761,
                "z": -0.48164630358495003
            },
            "position": {
                "x": 0.5540239810943604,
                "y": -0.46912469901144505,
                "z": 0.16403168439865112
            }
        },
        "name": "move_to_storage_B"
    },
    "id": "BKPIECE_move_to_storage_B_4",
    "joint_names": [
        "shoulder_pan_joint",
        "shoulder_lift_joint",
        "elbow_joint",
        "wrist_1_joint",
        "wrist_2_joint",
        "wrist_3_joint"
    ],
    "metrics": {
        "cart_traj_len": 1.6024735336940146,
        "distance_elbow_joint": 2.5010102619710937,
        "distance_shoulder_lift_joint": 0.45984300987973525,
        "distance_shoulder_pan_joint": 1.2906627992453026,
        "distance_wrist_1_joint": 3.019984847061721,
        "distance_wrist_2_joint": 2.7027862428266736,
        "distance_wrist_3_joint": 3.6776262361306156,
        "smoothness": 0.27224052672505444,
        "time": 0.263805664,
        "traj_len": 3.6948495770619867,
        "weighted_distance": 5.170100285223176
    },
    "planner": "BKPIECE",
    "start": {
        "state": {
            "elbow_joint": 1.664937868594044,
            "shoulder_lift_joint": -0.661644460510453,
            "shoulder_pan_joint": -0.9139846352900073,
            "wrist_1_joint": 2.146753192139373,
            "wrist_2_joint": -2.2341966793290973,
            "wrist_3_joint": 0.005466555786416001
        }
    },
    "waypoints": [
        {
            "positions": [
                -0.9139846352900073,
                -0.661644460510453,
                1.664937868594044,
                2.146753192139373,
                -2.2341966793290973,
                0.005466555786416001
            ]
        },
        {
            "positions": [
                -0.8836502667417034,
                -0.663646159621071,
                1.636722982302179,
                2.144699873296106,
                -2.226591153889985,
                0.010507688340969622
            ]
        },
        {
            "positions": [
                -0.825368259140804,
                -0.6694338906626546,
                1.5207153752867233,
                2.0664892486202073,
                -2.144526276421163,
                0.04133529534476007
            ]
        },
        {
            "positions": [
                -0.7670862515399047,
                -0.6752216217042382,
                1.4047077682712676,
                1.9882786239443087,
                -2.062461398952341,
                0.07216290234855052
            ]
        },
        {
            "positions": [
                -0.7088042439390054,
                -0.6810093527458219,
                1.2887001612558122,
                1.91006799926841,
                -1.9803965214835184,
                0.10299050935234097
            ]
        },
        {
            "positions": [
                -0.650522236338106,
                -0.6867970837874054,
                1.1726925542403563,
                1.8318573745925115,
                -1.8983316440146962,
                0.13381811635613142
            ]
        },
        {
            "positions": [
                -0.5922402287372066,
                -0.692584814828989,
                1.056684947224901,
                1.7536467499166126,
                -1.816266766545874,
                0.16464572335992186
            ]
        },
        {
            "positions": [
                -0.5339582211363073,
                -0.6983725458705726,
                0.9406773402094453,
                1.6754361252407142,
                -1.7342018890770519,
                0.1954733303637123
            ]
        },
        {
            "positions": [
                -0.4756762135354079,
                -0.7041602769121563,
                0.8246697331939895,
                1.5972255005648157,
                -1.6521370116082297,
                0.22630093736750276
            ]
        },
        {
            "positions": [
                -0.4173942059345086,
                -0.7099480079537399,
                0.708662126178534,
                1.519014875888917,
                -1.5700721341394073,
                0.2571285443712932
            ]
        },
        {
            "positions": [
                -0.35911219833360913,
                -0.7157357389953235,
                0.5926545191630783,
                1.4408042512130184,
                -1.488007256670585,
                0.2879561513750836
            ]
        },
        {
            "positions": [
                -0.38741182765241317,
                -0.7313415748182029,
                0.6476055542607756,
                1.351802870207812,
                -1.4127535328179635,
                0.15737397289270103
            ]
        },
        {
            "positions": [
                -0.41571145697121714,
                -0.7469474106410823,
                0.7025565893584729,
                1.2628014892026056,
                -1.3374998089653418,
                0.026791794410318426
            ]
        },
        {
            "positions": [
                -0.4440110862900212,
                -0.7625532464639617,
                0.7575076244561701,
                1.1738001081973992,
                -1.2622460851127202,
                -0.1037903840720642
            ]
        },
        {
            "positions": [
                -0.47231071560882515,
                -0.7781590822868412,
                0.8124586595538674,
                1.0847987271921928,
                -1.1869923612600988,
                -0.23437256255444677
            ]
        },
        {
            "positions": [
                -0.5006103449276291,
                -0.7937649181097206,
                0.8674096946515647,
                0.9957973461869865,
                -1.111738637407477,
                -0.3649547410368294
            ]
        },
        {
            "positions": [
                -0.5289099742464332,
                -0.8093707539325999,
                0.922360729749262,
                0.9067959651817802,
                -1.0364849135548555,
                -0.495536919519212
            ]
        },
        {
            "positions": [
                -0.5572096035652372,
                -0.8249765897554794,
                0.9773117648469591,
                0.8177945841765738,
                -0.9612311897022339,
                -0.6261190980015945
            ]
        },
        {
            "positions": [
                -0.5855092328840412,
                -0.8405824255783588,
                1.0322627999446565,
                0.7287932031713674,
                -0.8859774658496122,
                -0.7567012764839771
            ]
        },
        {
            "positions": [
                -0.6138088622028453,
                -0.8561882614012382,
                1.0872138350423537,
                0.6397918221661612,
                -0.8107237419969906,
                -0.8872834549663595
            ]
        },
        {
            "positions": [
                -0.6421084915216493,
                -0.8717940972241176,
                1.142164870140051,
                0.5507904411609547,
                -0.735470018144369,
                -1.0178656334487424
            ]
        },
        {
            "positions": [
                -0.6704081208404532,
                -0.887399933046997,
                1.1971159052377482,
                0.4617890601557484,
                -0.6602162942917474,
                -1.1484478119311248
            ]
        },
        {
            "positions": [
                -0.6987077501592572,
                -0.9030057688698765,
                1.2520669403354456,
                0.372787679150542,
                -0.5849625704391257,
                -1.2790299904135076
            ]
        },
        {
            "positions": [
                -0.7270073794780612,
                -0.9186116046927559,
                1.3070179754331428,
                0.2837862981453356,
                -0.5097088465865042,
                -1.40961216889589
            ]
        },
        {
            "positions": [
                -0.7553070087968652,
                -0.9342174405156353,
                1.36196901053084,
                0.19478491714012924,
                -0.43445512273388265,
                -1.5401943473782724
            ]
        },
        {
            "positions": [
                -0.7836066381156692,
                -0.9498232763385147,
                1.4169200456285371,
                0.10578353613492308,
                -0.359201398881261,
                -1.670776525860655
            ]
        },
        {
            "positions": [
                -0.8119062674344732,
                -0.9654291121613942,
                1.4718710807262347,
                0.01678215512971648,
                -0.2839476750286394,
                -1.801358704343038
            ]
        },
        {
            "positions": [
                -0.8402058967532773,
                -0.9810349479842735,
                1.526822115823932,
                -0.0722192258754899,
                -0.20869395117601774,
                -1.9319408828254205
            ]
        },
        {
            "positions": [
                -0.8685055260720813,
                -0.9966407838071529,
                1.581773150921629,
                -0.16122060688069606,
                -0.1334402273233961,
                -2.062523061307803
            ]
        },
        {
            "positions": [
                -0.8968051553908851,
                -1.0122466196300324,
                1.6367241860193262,
                -0.25022198788590244,
                -0.0581865034707747,
                -2.1931052397901856
            ]
        },
        {
            "positions": [
                -0.9251047847096894,
                -1.0278524554529118,
                1.6916752211170238,
                -0.33922336889110905,
                0.01706722038184716,
                -2.3236874182725686
            ]
        },
        {
            "positions": [
                -0.9534044140284932,
                -1.0434582912757913,
                1.746626256214721,
                -0.4282247498963154,
                0.0923209442344688,
                -2.4542695967549513
            ]
        },
        {
            "positions": [
                -0.9817040433472972,
                -1.0590641270986705,
                1.8015772913124182,
                -0.5172261309015216,
                0.1675746680870902,
                -2.5848517752373334
            ]
        },
        {
            "positions": [
                -1.0100036726661012,
                -1.07466996292155,
                1.8565283264101153,
                -0.6062275119067277,
                0.24282839193971184,
                -2.715433953719716
            ]
        },
        {
            "positions": [
                -1.0383033019849053,
                -1.0902757987444294,
                1.9114793615078127,
                -0.6952288929119343,
                0.3180821157923337,
                -2.846016132202099
            ]
        },
        {
            "positions": [
                -1.0666029313037093,
                -1.1058816345673088,
                1.9664303966055101,
                -0.784230273917141,
                0.3933358396449551,
                -2.9765983106844813
            ]
        },
        {
            "positions": [
                -1.0949025606225133,
                -1.1214874703901883,
                2.0213814317032073,
                -0.8732316549223473,
                0.4685895634975767,
                -3.107180489166864
            ]
        }
    ]
}