{
    "goal": {
        "global_pose": {
            "orientation": {
                "w": 0.5084816262002911,
                "x": -0.4908360881923452,
                "y": 0.5182115481033761,
                "z": -0.48164630358495003
            },
            "position": {
                "x": 0.5540239810943604,
                "y": -0.46912469901144505,
                "z": 0.16403168439865112
            }
        },
        "name": "move_to_storage_B"
    },
    "id": "BKPIECE_move_to_storage_B_83",
    "joint_names": [
        "shoulder_pan_joint",
        "shoulder_lift_joint",
        "elbow_joint",
        "wrist_1_joint",
        "wrist_2_joint",
        "wrist_3_joint"
    ],
    "metrics": {
        "cart_traj_len": 0.9290655741764675,
        "distance_elbow_joint": 0.354672918688975,
        "distance_shoulder_lift_joint": 0.4601990718865665,
        "distance_shoulder_pan_joint": 0.6985614144213507,
        "distance_wrist_1_joint": 3.1508744940536864,
        "distance_wrist_2_joint": 2.700883980264105,
        "distance_wrist_3_joint": 3.1151480417092503,
        "smoothness": 0.11571385385760853,
        "time": 0.268879938,
        "traj_len": 3.2373353117994954,
        "weighted_distance": 4.74998889248809
    },
    "planner": "BKPIECE",
    "start": {
        "state": {
            "elbow_joint": 1.664937868594044,
            "shoulder_lift_joint": -0.661644460510453,
            "shoulder_pan_joint": -0.9139846352900073,
            "wrist_1_joint": 2.146753192139373,
            "wrist_2_joint": -2.2341966793290973,
            "wrist_3_joint": 0.005466555786416001
        }
    },
    "waypoints": [
        {
            "positions": [
                -0.9139846352900073,
                -0.661644460510453,
                1.664937868594044,
                2.146753192139373,
                -2.2341966793290973,
                0.005466555786416001
            ]
        },
        {
            "positions": [
                -0.8494695899613951,
                -0.7425324480490472,
                1.7271924011305684,
                2.1645213446371048,
                -2.156652465605827,
                -0.015146480608195373
            ]
        },
        {
            "positions": [
                -0.784954544632783,
                -0.8234204355876413,
                1.7894469336670926,
                2.1822894971348363,
                -2.0791082518825568,
                -0.035759517002806746
            ]
        },
        {
            "positions": [
                -0.7204394993041708,
                -0.9043084231262356,
                1.8517014662036169,
                2.200057649632568,
                -2.0015640381592865,
                -0.05637255339741812
            ]
        },
        {
            "positions": [
                -0.6559244539755587,
                -0.9851964106648298,
                1.9139559987401413,
                2.2178258021302995,
                -1.9240198244360163,
                -0.07698558979202949
            ]
        },
        {
            "positions": [
                -0.6742786720216796,
                -0.9908900407370044,
                1.9183582815960945,
                2.0895007236276846,
                -1.8244070275455568,
                -0.20334791879747968
            ]
        },
        {
            "positions": [
                -0.6926328900678005,
                -0.9965836708091789,
                1.9227605644520478,
                1.9611756451250695,
                -1.7247942306550976,
                -0.3297102478029299
            ]
        },
        {
            "positions": [
                -0.7109871081139214,
                -1.0022773008813535,
                1.9271628473080011,
                1.8328505666224544,
                -1.6251814337646382,
                -0.4560725768083801
            ]
        },
        {
            "positions": [
                -0.7293413261600423,
                -1.007970930953528,
                1.9315651301639543,
                1.7045254881198395,
                -1.525568636874179,
                -0.5824349058138303
            ]
        },
        {
            "positions": [
                -0.7476955442061632,
                -1.0136645610257027,
                1.9359674130199074,
                1.5762004096172244,
                -1.4259558399837196,
                -0.7087972348192806
            ]
        },
        {
            "positions": [
                -0.7660497622522842,
                -1.0193581910978773,
                1.9403696958758607,
                1.4478753311146093,
                -1.3263430430932601,
                -0.8351595638247308
            ]
        },
        {
            "positions": [
                -0.7844039802984051,
                -1.025051821170052,
                1.944771978731814,
                1.3195502526119944,
                -1.2267302462028007,
                -0.9615218928301811
            ]
        },
        {
            "positions": [
                -0.802758198344526,
                -1.0307454512422263,
                1.9491742615877672,
                1.1912251741093796,
                -1.1271174493123415,
                -1.087884221835631
            ]
        },
        {
            "positions": [
                -0.8211124163906469,
                -1.0364390813144009,
                1.9535765444437203,
                1.0629000956067645,
                -1.027504652421882,
                -1.2142465508410814
            ]
        },
        {
            "positions": [
                -0.8394666344367678,
                -1.0421327113865755,
                1.9579788272996737,
                0.9345750171041494,
                -0.9278918555314226,
                -1.3406088798465317
            ]
        },
        {
            "positions": [
                -0.8578208524828888,
                -1.04782634145875,
                1.962381110155627,
                0.8062499386015345,
                -0.8282790586409634,
                -1.4669712088519817
            ]
        },
        {
            "positions": [
                -0.8761750705290097,
                -1.0535199715309247,
                1.9667833930115801,
                0.6779248600989194,
                -0.728666261750504,
                -1.593333537857432
            ]
        },
        {
            "positions": [
                -0.8945292885751306,
                -1.0592136016030993,
                1.9711856758675332,
                0.5495997815963045,
                -0.6290534648600448,
                -1.7196958668628821
            ]
        },
        {
            "positions": [
                -0.9128835066212515,
                -1.064907231675274,
                1.9755879587234866,
                0.4212747030936892,
                -0.5294406679695851,
                -1.8460581958683326
            ]
        },
        {
            "positions": [
                -0.9312377246673724,
                -1.0706008617474483,
                1.97999024157944,
                0.2929496245910743,
                -0.4298278710791259,
                -1.9724205248737827
            ]
        },
        {
            "positions": [
                -0.9495919427134933,
                -1.076294491819623,
                1.984392524435393,
                0.16462454608845967,
                -0.3302150741886667,
                -2.0987828538792326
            ]
        },
        {
            "positions": [
                -0.9679461607596143,
                -1.0819881218917975,
                1.9887948072913462,
                0.03629946758584435,
                -0.23060227729820704,
                -2.2251451828846833
            ]
        },
        {
            "positions": [
                -0.9863003788057352,
                -1.087681751963972,
                1.9931970901472995,
                -0.09202561091677053,
                -0.13098948040774783,
                -2.351507511890133
            ]
        },
        {
            "positions": [
                -1.004654596851856,
                -1.0933753820361467,
                1.9975993730032529,
                -0.2203506894193854,
                -0.03137668351728862,
                -2.4778698408955835
            ]
        },
        {
            "positions": [
                -1.023008814897977,
                -1.0990690121083213,
                2.002001655859206,
                -0.3486757679220007,
                0.06823611337317104,
                -2.604232169901034
            ]
        },
        {
            "positions": [
                -1.041363032944098,
                -1.1047626421804957,
                2.006403938715159,
                -0.4770008464246156,
                0.16784891026363047,
                -2.730594498906484
            ]
        },
        {
            "positions": [
                -1.0597172509902189,
                -1.1104562722526703,
                2.010806221571112,
                -0.6053259249272305,
                0.26746170715408946,
                -2.856956827911934
            ]
        },
        {
            "positions": [
                -1.0780714690363398,
                -1.116149902324845,
                2.015208504427066,
                -0.7336510034298458,
                0.3670745040445489,
                -2.9833191569173843
            ]
        },
        {
            "positions": [
                -1.0964256870824607,
                -1.1218435323970195,
                2.019610787283019,
                -0.8619760819324607,
                0.4666873009350084,
                -3.1096814859228346
            ]
        }
    ]
}