{
    "goal": {
        "global_pose": {
            "orientation": {
                "w": 0.7047431493862688,
                "x": -0.7094548369677653,
                "y": 0.0024358444001904,
                "z": -0.0022348060817251984
            },
            "position": {
                "x": -0.39052492380142206,
                "y": 0.3671506643295288,
                "z": 0.19426114857196808
            }
        },
        "name": "move_to_magneteinheit_D"
    },
    "id": "BKPIECE_move_to_magneteinheit_D_127",
    "joint_names": [
        "shoulder_pan_joint",
        "shoulder_lift_joint",
        "elbow_joint",
        "wrist_1_joint",
        "wrist_2_joint",
        "wrist_3_joint"
    ],
    "metrics": {
        "cart_traj_len": 5.945806160075053,
        "distance_elbow_joint": 3.1303150857536286,
        "distance_shoulder_lift_joint": 1.6330012574093666,
        "distance_shoulder_pan_joint": 8.453061576023334,
        "distance_wrist_1_joint": 4.641926974044369,
        "distance_wrist_2_joint": 0.8384976373001732,
        "distance_wrist_3_joint": 3.1552278930050224,
        "smoothness": 0.4140881507769402,
        "time": 0.387123707,
        "traj_len": 4.674615537510641,
        "weighted_distance": 5.800250927407404
    },
    "planner": "BKPIECE",
    "start": {
        "state": {
            "elbow_joint": 0.749534889911806,
            "shoulder_lift_joint": -0.6476975780787326,
            "shoulder_pan_joint": -2.711696901376241,
            "wrist_1_joint": -0.07506478083263063,
            "wrist_2_joint": 0.43296659715538205,
            "wrist_3_joint": -3.14703540197715
        }
    },
    "waypoints": [
        {
            "positions": [
                -2.711696901376241,
                -0.6476975780787326,
                0.749534889911806,
                -0.07506478083263063,
                0.43296659715538205,
                -3.14703540197715
            ]
        },
        {
            "positions": [
                -2.714099973182226,
                -0.6799224004316518,
                0.6890023116439932,
                -0.0855595129363788,
                0.43631301449322424,
                -3.047447788486429
            ]
        },
        {
            "positions": [
                -2.7177045808912035,
                -0.7282596339610306,
                0.5982034442422741,
                -0.10130161109200106,
                0.44133264049998744,
                -2.8980663682503476
            ]
        },
        {
            "positions": [
                -2.721309188600181,
                -0.7765968674904093,
                0.5074045768405551,
                -0.11704370924762332,
                0.4463522665067507,
                -2.748684948014266
            ]
        },
        {
            "positions": [
                -2.568850351963926,
                -0.7846506633174148,
                0.4439104896479917,
                -0.030653103562258532,
                0.45426331318207713,
                -2.6815742917361063
            ]
        },
        {
            "positions": [
                -2.4163915153276707,
                -0.7927044591444203,
                0.3804164024554283,
                0.055737502123106256,
                0.4621743598574036,
                -2.6144636354579465
            ]
        },
        {
            "positions": [
                -2.2639326786914156,
                -0.8007582549714258,
                0.31692231526286496,
                0.14212810780847107,
                0.47008540653273007,
                -2.5473529791797866
            ]
        },
        {
            "positions": [
                -2.1114738420551604,
                -0.8088120507984313,
                0.2534282280703016,
                0.22851871349383585,
                0.47799645320805656,
                -2.480242322901627
            ]
        },
        {
            "positions": [
                -1.9590150054189053,
                -0.8168658466254367,
                0.18993414087773813,
                0.3149093191792007,
                0.485907499883383,
                -2.413131666623467
            ]
        },
        {
            "positions": [
                -1.8065561687826501,
                -0.8249196424524422,
                0.1264400536851748,
                0.40129992486456545,
                0.4938185465587095,
                -2.346021010345307
            ]
        },
        {
            "positions": [
                -1.654097332146395,
                -0.8329734382794477,
                0.06294596649261142,
                0.4876905305499303,
                0.501729593234036,
                -2.2789103540671474
            ]
        },
        {
            "positions": [
                -1.5016384955101398,
                -0.8410272341064532,
                -0.000548120699951915,
                0.574081136235295,
                0.5096406399093624,
                -2.2117996977889876
            ]
        },
        {
            "positions": [
                -1.3491796588738847,
                -0.8490810299334587,
                -0.06404220789251536,
                0.6604717419206598,
                0.5175516865846889,
                -2.1446890415108277
            ]
        },
        {
            "positions": [
                -1.1967208222376295,
                -0.8571348257604642,
                -0.1275362950850788,
                0.7468623476060247,
                0.5254627332600154,
                -2.077578385232668
            ]
        },
        {
            "positions": [
                -1.0442619856013742,
                -0.8651886215874697,
                -0.19103038227764213,
                0.8332529532913895,
                0.5333737799353419,
                -2.010467728954508
            ]
        },
        {
            "positions": [
                -0.8918031489651193,
                -0.8732424174144752,
                -0.25452446947020546,
                0.9196435589767542,
                0.5412848266106682,
                -1.9433570726763485
            ]
        },
        {
            "positions": [
                -0.7393443123288641,
                -0.8812962132414806,
                -0.3180185566627689,
                1.006034164662119,
                0.5491958732859947,
                -1.8762464163981887
            ]
        },
        {
            "positions": [
                -0.586885475692609,
                -0.889350009068486,
                -0.38151264385533223,
                1.0924247703474839,
                0.5571069199613212,
                -1.8091357601200286
            ]
        },
        {
            "positions": [
                -0.4344266390563538,
                -0.8974038048954915,
                -0.4450067310478957,
                1.1788153760328486,
                0.5650179666366477,
                -1.742025103841869
            ]
        },
        {
            "positions": [
                -0.28196780242009867,
                -0.905457600722497,
                -0.5085008182404589,
                1.2652059817182133,
                0.5729290133119741,
                -1.6749144475637092
            ]
        },
        {
            "positions": [
                -0.12950896578384352,
                -0.9135113965495025,
                -0.5719949054330224,
                1.351596587403578,
                0.5808400599873006,
                -1.6078037912855494
            ]
        },
        {
            "positions": [
                0.022949870852411625,
                -0.921565192376508,
                -0.6354889926255858,
                1.437987193088943,
                0.5887511066626271,
                -1.5406931350073896
            ]
        },
        {
            "positions": [
                0.17540870748866677,
                -0.9296189882035135,
                -0.6989830798181491,
                1.524377798774308,
                0.5966621533379535,
                -1.4735824787292298
            ]
        },
        {
            "positions": [
                0.3278675441249219,
                -0.937672784030519,
                -0.7624771670107127,
                1.6107684044596726,
                0.60457320001328,
                -1.40647182245107
            ]
        },
        {
            "positions": [
                0.48032638076117706,
                -0.9457265798575245,
                -0.825971254203276,
                1.6971590101450376,
                0.6124842466886065,
                -1.3393611661729101
            ]
        },
        {
            "positions": [
                0.6327852173974327,
                -0.95378037568453,
                -0.8894653413958393,
                1.7835496158304023,
                0.620395293363933,
                -1.2722505098947503
            ]
        },
        {
            "positions": [
                0.7852440540336869,
                -0.9618341715115354,
                -0.9529594285884027,
                1.8699402215157668,
                0.6283063400392593,
                -1.2051398536165907
            ]
        },
        {
            "positions": [
                0.9377028906699425,
                -0.9698879673385409,
                -1.016453515780966,
                1.9563308272011317,
                0.6362173867145858,
                -1.1380291973384309
            ]
        },
        {
            "positions": [
                1.0901617273061976,
                -0.9779417631655464,
                -1.0799476029735293,
                2.042721432886496,
                0.6441284333899123,
                -1.070918541060271
            ]
        },
        {
            "positions": [
                1.2426205639424528,
                -0.9859955589925519,
                -1.1434416901660929,
                2.129112038571861,
                0.6520394800652387,
                -1.0038078847821112
            ]
        },
        {
            "positions": [
                1.3950794005787084,
                -0.9940493548195574,
                -1.2069357773586562,
                2.2155026442572257,
                0.6599505267405652,
                -0.9366972285039514
            ]
        },
        {
            "positions": [
                1.547538237214963,
                -1.0021031506465627,
                -1.2704298645512195,
                2.301893249942591,
                0.6678615734158917,
                -0.8695865722257914
            ]
        },
        {
            "positions": [
                1.6999970738512187,
                -1.0101569464735682,
                -1.333923951743783,
                2.3882838556279555,
                0.6757726200912182,
                -0.8024759159476316
            ]
        },
        {
            "positions": [
                1.8524559104874734,
                -1.0182107423005737,
                -1.3974180389363464,
                2.4746744613133203,
                0.6836836667665447,
                -0.735365259669472
            ]
        },
        {
            "positions": [
                2.004914747123729,
                -1.0262645381275792,
                -1.4609121261289097,
                2.5610650669986854,
                0.6915947134418712,
                -0.6682546033913122
            ]
        },
        {
            "positions": [
                2.1573735837599837,
                -1.0343183339545847,
                -1.5244062133214729,
                2.6474556726840497,
                0.6995057601171976,
                -0.6011439471131523
            ]
        },
        {
            "positions": [
                2.3098324203962384,
                -1.0423721297815902,
                -1.5879003005140362,
                2.7338462783694144,
                0.7074168067925239,
                -0.5340332908349925
            ]
        },
        {
            "positions": [
                2.462291257032494,
                -1.0504259256085957,
                -1.6513943877066,
                2.820236884054779,
                0.7153278534678504,
                -0.4669226345568327
            ]
        },
        {
            "positions": [
                2.6147500936687487,
                -1.0584797214356012,
                -1.7148884748991633,
                2.9066274897401443,
                0.7232389001431769,
                -0.3998119782786729
            ]
        },
        {
            "positions": [
                2.7672089303050047,
                -1.0665335172626067,
                -1.7783825620917268,
                2.993018095425509,
                0.7311499468185034,
                -0.33270132200051306
            ]
        },
        {
            "positions": [
                2.611686237152678,
                -1.1304369550639484,
                -1.810087700710153,
                2.9146030301120227,
                0.7027123527323428,
                -0.3147595423674401
            ]
        },
        {
            "positions": [
                2.456163544000351,
                -1.19434039286529,
                -1.841792839328579,
                2.836187964798536,
                0.6742747586461822,
                -0.29681776273436716
            ]
        },
        {
            "positions": [
                2.3006408508480245,
                -1.258243830666632,
                -1.8734979779470051,
                2.7577728994850497,
                0.6458371645600216,
                -0.2788759831012942
            ]
        },
        {
            "positions": [
                2.145118157695698,
                -1.3221472684679736,
                -1.9052031165654313,
                2.6793578341715634,
                0.617399570473861,
                -0.2609342034682212
            ]
        },
        {
            "positions": [
                1.989595464543371,
                -1.3860507062693153,
                -1.9369082551838572,
                2.6009427688580766,
                0.5889619763877003,
                -0.2429924238351483
            ]
        },
        {
            "positions": [
                1.8340727713910443,
                -1.449954144070657,
                -1.9686133938022834,
                2.5225277035445903,
                0.5605243823015398,
                -0.22505064420207532
            ]
        },
        {
            "positions": [
                1.6785500782387177,
                -1.5138575818719986,
                -2.0003185324207093,
                2.4441126382311036,
                0.5320867882153791,
                -0.20710886456900238
            ]
        },
        {
            "positions": [
                1.523027385086391,
                -1.5777610196733405,
                -2.0320236710391355,
                2.3656975729176173,
                0.5036491941292185,
                -0.1891670849359294
            ]
        },
        {
            "positions": [
                1.3675046919340643,
                -1.6416644574746821,
                -2.0637288096575617,
                2.2872825076041305,
                0.4752116000430579,
                -0.17122530530285646
            ]
        },
        {
            "positions": [
                1.2119819987817375,
                -1.7055678952760238,
                -2.095433948275988,
                2.2088674422906442,
                0.4467740059568973,
                -0.1532835256697835
            ]
        },
        {
            "positions": [
                1.0564593056294107,
                -1.7694713330773655,
                -2.127139086894414,
                2.130452376977158,
                0.41833641187073667,
                -0.13534174603671054
            ]
        },
        {
            "positions": [
                0.9009366124770841,
                -1.8333747708787071,
                -2.1588442255128397,
                2.052037311663671,
                0.3898988177845761,
                -0.11739996640363759
            ]
        },
        {
            "positions": [
                0.7454139193247573,
                -1.897278208680049,
                -2.190549364131266,
                1.973622246350185,
                0.36146122369841543,
                -0.09945818677056462
            ]
        },
        {
            "positions": [
                0.5898912261724307,
                -1.9611816464813905,
                -2.222254502749692,
                1.8952071810366984,
                0.33302362961225485,
                -0.0815164071374917
            ]
        },
        {
            "positions": [
                0.4343685330201037,
                -2.0250850842827326,
                -2.253959641368118,
                1.8167921157232119,
                0.3045860355260942,
                -0.06357462750441872
            ]
        },
        {
            "positions": [
                0.2788458398677771,
                -2.0889885220840743,
                -2.2856647799865444,
                1.7383770504097256,
                0.2761484414399336,
                -0.04563284787134575
            ]
        },
        {
            "positions": [
                0.12332314671545053,
                -2.152891959885416,
                -2.31736991860497,
                1.659961985096239,
                0.24771084735377297,
                -0.027691068238272776
            ]
        },
        {
            "positions": [
                -0.03219954643687606,
                -2.2167953976867576,
                -2.3490750572233963,
                1.5815469197827525,
                0.21927325326761238,
                -0.009749288605199857
            ]
        },
        {
            "positions": [
                -0.18772223958920312,
                -2.2806988354880993,
                -2.3807801958418224,
                1.503131854469266,
                0.19083565918145176,
                0.008192491027873136
            ]
        }
    ]
}