{
    "goal": {
        "global_pose": {
            "orientation": {
                "w": 0.5084816217422485,
                "x": -0.49083608388900757,
                "y": 0.5182115435600281,
                "z": -0.4816462993621826
            },
            "position": {
                "x": 0.5540239810943604,
                "y": 0.030875300988554955,
                "z": 0.16403168439865112
            }
        },
        "name": "move_to_storage_A"
    },
    "id": "BKPIECE_move_to_storage_A_15",
    "joint_names": [
        "shoulder_pan_joint",
        "shoulder_lift_joint",
        "elbow_joint",
        "wrist_1_joint",
        "wrist_2_joint",
        "wrist_3_joint"
    ],
    "metrics": {
        "cart_traj_len": 0.3527826382583868,
        "distance_elbow_joint": 0.4494893927582997,
        "distance_shoulder_lift_joint": 0.23240252488331214,
        "distance_shoulder_pan_joint": 0.4588327337968617,
        "distance_wrist_1_joint": 0.24941454459726498,
        "distance_wrist_2_joint": 1.1073910135988225,
        "distance_wrist_3_joint": 0.10624456872908894,
        "smoothness": 0.0,
        "time": 0.196022473,
        "traj_len": 1.6136216342016645,
        "weighted_distance": 2.0428092113601592
    },
    "planner": "BKPIECE",
    "start": {
        "state": {
            "elbow_joint": 1.971548259319323,
            "shoulder_lift_joint": -1.1394851275133948,
            "shoulder_pan_joint": 0.1228115487234821,
            "wrist_1_joint": -0.7804723859257726,
            "wrist_2_joint": 0.12958671773740124,
            "wrist_3_joint": -3.192489227718131
        }
    },
    "waypoints": [
        {
            "positions": [
                0.1228115487234821,
                -1.1394851275133948,
                1.971548259319323,
                -0.7804723859257726,
                0.12958671773740124,
                -3.192489227718131
            ]
        },
        {
            "positions": [
                0.05726401532393044,
                -1.172685488211011,
                2.035761029713366,
                -0.8161030351539533,
                0.28778543396580447,
                -3.1773114321854043
            ]
        },
        {
            "positions": [
                -0.008283518075621221,
                -1.2058858489086268,
                2.0999738001074086,
                -0.851733684382134,
                0.4459841501942077,
                -3.162133636652677
            ]
        },
        {
            "positions": [
                -0.07383105147517288,
                -1.239086209606243,
                2.1641865705014514,
                -0.8873643336103147,
                0.6041828664226109,
                -3.1469558411199503
            ]
        },
        {
            "positions": [
                -0.13937858487472454,
                -1.2722865703038588,
                2.228399340895494,
                -0.9229949828384955,
                0.7623815826510141,
                -3.131778045587223
            ]
        },
        {
            "positions": [
                -0.20492611827427626,
                -1.305486931001475,
                2.2926121112895372,
                -0.9586256320666762,
                0.9205802988794174,
                -3.1166002500544963
            ]
        },
        {
            "positions": [
                -0.27047365167382786,
                -1.3386872916990908,
                2.35682488168358,
                -0.9942562812948569,
                1.0787790151078205,
                -3.101422454521769
            ]
        },
        {
            "positions": [
                -0.3360211850733796,
                -1.371887652396707,
                2.4210376520776227,
                -1.0298869305230376,
                1.2369777313362238,
                -3.086244658989042
            ]
        }
    ]
}{
    "goal": {
        "global_pose": {
            "orientation": {
                "w": 0.5084816217422485,
                "x": -0.49083608388900757,
                "y": 0.5182115435600281,
                "z": -0.4816462993621826
            },
            "position": {
                "x": 0.5540239810943604,
                "y": 0.030875300988554955,
                "z": 0.16403168439865112
            }
        },
        "name": "move_to_storage_A"
    },
    "id": "BKPIECE_move_to_storage_A_15",
    "joint_names": [
        "shoulder_pan_joint",
        "shoulder_lift_joint",
        "elbow_joint",
        "wrist_1_joint",
        "wrist_2_joint",
        "wrist_3_joint"
    ],
    "metrics": {
        "cart_traj_len": 0.35344766634037955,
        "distance_elbow_joint": 0.4499390530000742,
        "distance_shoulder_lift_joint": 0.23609059009969813,
        "distance_shoulder_pan_joint": 0.46082819404939407,
        "distance_wrist_1_joint": 0.23563469105248425,
        "distance_wrist_2_joint": 1.1066350671286254,
        "distance_wrist_3_joint": 0.08602293394602034,
        "smoothness": 6.661338146305771e-16,
        "time": 0.149194279,
        "traj_len": 1.6047275560905334,
        "weighted_distance": 2.022242852713157
    },
    "planner": "BKPIECE",
    "start": {
        "state": {
            "elbow_joint": 1.97154746011099,
            "shoulder_lift_joint": -1.13948474672311,
            "shoulder_pan_joint": 0.12281154466712228,
            "wrist_1_joint": -0.7804688027058302,
            "wrist_2_joint": 0.12958655903071145,
            "wrist_3_joint": 3.0906928834467795
        }
    },
    "waypoints": [
        {
            "positions": [
                0.12281154466712228,
                -1.13948474672311,
                1.97154746011099,
                -0.7804688027058302,
                0.12958655903071145,
                3.0906928834467795
            ]
        },
        {
            "positions": [
                0.05697894551720885,
                -1.1732119738802096,
                2.035824467682429,
                -0.8141309014276137,
                0.28767728290622935,
                3.1029818740104966
            ]
        },
        {
            "positions": [
                -0.008853653632704586,
                -1.2069392010373095,
                2.1001014752538683,
                -0.8477930001493971,
                0.4457680067817472,
                3.1152708645742138
            ]
        },
        {
            "positions": [
                -0.07468625278261802,
                -1.240666428194409,
                2.1643784828253074,
                -0.8814550988711806,
                0.6038587306572651,
                3.127559855137931
            ]
        },
        {
            "positions": [
                -0.14051885193253144,
                -1.274393655351509,
                2.2286554903967466,
                -0.9151171975929641,
                0.7619494545327831,
                3.1398488457016485
            ]
        },
        {
            "positions": [
                -0.2063514510824449,
                -1.3081208825086086,
                2.2929324979681858,
                -0.9487792963147474,
                0.920040178408301,
                3.1521378362653656
            ]
        },
        {
            "positions": [
                -0.2721840502323583,
                -1.3418481096657082,
                2.357209505539625,
                -0.9824413950365309,
                1.0781309022838188,
                3.1644268268290827
            ]
        },
        {
            "positions": [
                -0.33801664938227177,
                -1.375575336822808,
                2.421486513111064,
                -1.0161034937583144,
                1.2362216261593368,
                3.1767158173928
            ]
        }
    ]
}{
    "goal": {
        "global_pose": {
            "orientation": {
                "w": 0.5084816217422485,
                "x": -0.49083608388900757,
                "y": 0.5182115435600281,
                "z": -0.4816462993621826
            },
            "position": {
                "x": 0.5540239810943604,
                "y": 0.030875300988554955,
                "z": 0.16403168439865112
            }
        },
        "name": "move_to_storage_A"
    },
    "id": "BKPIECE_move_to_storage_A_15",
    "joint_names": [
        "shoulder_pan_joint",
        "shoulder_lift_joint",
        "elbow_joint",
        "wrist_1_joint",
        "wrist_2_joint",
        "wrist_3_joint"
    ],
    "metrics": {
        "cart_traj_len": 0.353067229341247,
        "distance_elbow_joint": 0.45356912929834303,
        "distance_shoulder_lift_joint": 0.2356814139722443,
        "distance_shoulder_pan_joint": 0.46269714411804114,
        "distance_wrist_1_joint": 0.25627063353342905,
        "distance_wrist_2_joint": 1.095402768904114,
        "distance_wrist_3_joint": 0.096349059089329,
        "smoothness": 6.661338165333112e-16,
        "time": 0.272115145,
        "traj_len": 1.6124422932047835,
        "weighted_distance": 2.0357656224456933
    },
    "planner": "BKPIECE",
    "start": {
        "state": {
            "elbow_joint": 1.9715472970024885,
            "shoulder_lift_joint": -1.1394870060712896,
            "shoulder_pan_joint": 0.12281152778156021,
            "wrist_1_joint": -0.780463741449964,
            "wrist_2_joint": 0.12958659822042276,
            "wrist_3_joint": 3.090690232415272
        }
    },
    "waypoints": [
        {
            "positions": [
                0.12281152778156021,
                -1.1394870060712896,
                1.9715472970024885,
                -0.780463741449964,
                0.12958659822042276,
                3.090690232415272
            ]
        },
        {
            "positions": [
                0.0567119357646972,
                -1.173155779495896,
                2.036342886902252,
                -0.8170738319547396,
                0.2860727080638676,
                3.1044543837137475
            ]
        },
        {
            "positions": [
                -0.00938765625216581,
                -1.2068245529205022,
                2.101138476802015,
                -0.8536839224595152,
                0.44255881790731244,
                3.118218535012223
            ]
        },
        {
            "positions": [
                -0.0754872482690288,
                -1.2404933263451086,
                2.1659340667017783,
                -0.8902940129642907,
                0.5990449277507572,
                3.1319826863106988
            ]
        },
        {
            "positions": [
                -0.14158684028589183,
                -1.274162099769715,
                2.2307296566015418,
                -0.9269041034690663,
                0.755531037594202,
                3.145746837609174
            ]
        },
        {
            "positions": [
                -0.20768643230275488,
                -1.3078308731943213,
                2.295525246501305,
                -0.9635141939738419,
                0.912017147437647,
                3.1595109889076496
            ]
        },
        {
            "positions": [
                -0.27378602431961785,
                -1.3414996466189275,
                2.360320836401068,
                -1.0001242844786176,
                1.0685032572810917,
                3.1732751402061252
            ]
        },
        {
            "positions": [
                -0.3398856163364809,
                -1.375168420043534,
                2.4251164263008316,
                -1.036734374983393,
                1.2249893671245367,
                3.187039291504601
            ]
        }
    ]
}