{
    "goal": {
        "global_pose": {
            "orientation": {
                "w": -0.4816463035849501,
                "x": 0.5182115481033762,
                "y": 0.4908360881923453,
                "z": -0.5084816262002911
            },
            "position": {
                "x": -0.8240239810943604,
                "y": -0.300875300988555,
                "z": 0.16403168439865112
            }
        },
        "name": "move_to_storage_C"
    },
    "id": "BKPIECE_move_to_storage_C_149",
    "joint_names": [
        "shoulder_pan_joint",
        "shoulder_lift_joint",
        "elbow_joint",
        "wrist_1_joint",
        "wrist_2_joint",
        "wrist_3_joint"
    ],
    "metrics": {
        "cart_traj_len": 0.577268338213558,
        "distance_elbow_joint": 0.2625335544856835,
        "distance_shoulder_lift_joint": 0.1909116293423564,
        "distance_shoulder_pan_joint": 0.49398019429422124,
        "distance_wrist_1_joint": 0.08852662585356963,
        "distance_wrist_2_joint": 1.0723334891739031,
        "distance_wrist_3_joint": 0.06421564801699153,
        "smoothness": 0.0,
        "time": 0.258910185,
        "traj_len": 1.4739406844126142,
        "weighted_distance": 1.860589302406144
    },
    "planner": "BKPIECE",
    "start": {
        "state": {
            "elbow_joint": 2.010868314990456,
            "shoulder_lift_joint": -1.1634956873337592,
            "shoulder_pan_joint": -2.4736205022346125,
            "wrist_1_joint": -0.8367026794202681,
            "wrist_2_joint": 0.6746043897044499,
            "wrist_3_joint": -3.1496632123970403
        }
    },
    "waypoints": [
        {
            "positions": [
                -2.4736205022346125,
                -1.1634956873337592,
                2.010868314990456,
                -0.8367026794202681,
                0.6746043897044499,
                -3.1496632123970403
            ]
        },
        {
            "positions": [
                -2.555950534616983,
                -1.1316770824433664,
                1.9671127225761753,
                -0.8219482417780065,
                0.8533266379001004,
                -3.1389606043942084
            ]
        },
        {
            "positions": [
                -2.6382805669993528,
                -1.0998584775529738,
                1.9233571301618946,
                -0.8071938041357449,
                1.032048886095751,
                -3.1282579963913766
            ]
        },
        {
            "positions": [
                -2.720610599381723,
                -1.068039872662581,
                1.879601537747614,
                -0.7924393664934832,
                1.2107711342914014,
                -3.1175553883885447
            ]
        },
        {
            "positions": [
                -2.8029406317640935,
                -1.0362212677721883,
                1.8358459453333336,
                -0.7776849288512216,
                1.3894933824870521,
                -3.1068527803857124
            ]
        },
        {
            "positions": [
                -2.8852706641464634,
                -1.0044026628817955,
                1.7920903529190528,
                -0.7629304912089601,
                1.5682156306827024,
                -3.0961501723828806
            ]
        },
        {
            "positions": [
                -2.9676006965288337,
                -0.9725840579914028,
                1.7483347605047723,
                -0.7481760535666985,
                1.746937878878353,
                -3.0854475643800487
            ]
        }
    ]
}