{
    "goal": {
        "global_pose": {
            "orientation": {
                "w": 0.7031023480610252,
                "x": -0.7110244013736278,
                "y": 0.0077485991402295624,
                "z": 0.005598929693374583
            },
            "position": {
                "x": -0.8841497679147869,
                "y": 0.44412534475326537,
                "z": 0.3711530566215515
            }
        },
        "name": "move_to_auspresseinheit_D"
    },
    "id": "BKPIECE_move_to_auspresseinheit_D_112",
    "joint_names": [
        "shoulder_pan_joint",
        "shoulder_lift_joint",
        "elbow_joint",
        "wrist_1_joint",
        "wrist_2_joint",
        "wrist_3_joint"
    ],
    "metrics": {
        "cart_traj_len": 0.3447458169859839,
        "distance_elbow_joint": 0.6641207022986033,
        "distance_shoulder_lift_joint": 0.1351758481668881,
        "distance_shoulder_pan_joint": 0.1344885486701689,
        "distance_wrist_1_joint": 0.6245980369954061,
        "distance_wrist_2_joint": 1.4315511847462903,
        "distance_wrist_3_joint": 0.07575923976673504,
        "smoothness": 0.0,
        "time": 0.23989238400000001,
        "traj_len": 1.7509122081486814,
        "weighted_distance": 2.2963800342972975
    },
    "planner": "BKPIECE",
    "start": {
        "state": {
            "elbow_joint": -1.8275523626775212,
            "shoulder_lift_joint": -2.126789852344167,
            "shoulder_pan_joint": -0.03513704404078235,
            "wrist_1_joint": -2.347782403156801,
            "wrist_2_joint": -1.6058999987535132,
            "wrist_3_joint": -3.0880379163319196
        }
    },
    "waypoints": [
        {
            "positions": [
                -0.03513704404078235,
                -2.126789852344167,
                -1.8275523626775212,
                -2.347782403156801,
                -1.6058999987535132,
                -3.0880379163319196
            ]
        },
        {
            "positions": [
                -0.05194811262455346,
                -2.143686833365028,
                -1.7445372748901957,
                -2.4258571577812265,
                -1.426956100660227,
                -3.0785680113610776
            ]
        },
        {
            "positions": [
                -0.06875918120832458,
                -2.160583814385889,
                -1.6615221871028703,
                -2.5039319124056525,
                -1.2480122025669407,
                -3.0690981063902356
            ]
        },
        {
            "positions": [
                -0.08557024979209568,
                -2.17748079540675,
                -1.578507099315545,
                -2.582006667030078,
                -1.0690683044736544,
                -3.059628201419394
            ]
        },
        {
            "positions": [
                -0.10238131837586681,
                -2.194377776427611,
                -1.4954920115282195,
                -2.660081421654504,
                -0.890124406380368,
                -3.050158296448552
            ]
        },
        {
            "positions": [
                -0.11919238695963791,
                -2.211274757448472,
                -1.412476923740894,
                -2.7381561762789297,
                -0.7111805082870818,
                -3.04068839147771
            ]
        },
        {
            "positions": [
                -0.13600345554340904,
                -2.228171738469333,
                -1.3294618359535688,
                -2.8162309309033553,
                -0.5322366101937954,
                -3.0312184865068685
            ]
        },
        {
            "positions": [
                -0.15281452412718013,
                -2.245068719490194,
                -1.2464467481662433,
                -2.8943056855277813,
                -0.35329271210050917,
                -3.0217485815360265
            ]
        },
        {
            "positions": [
                -0.16962559271095126,
                -2.261965700511055,
                -1.1634316603789179,
                -2.972380440152207,
                -0.174348814007223,
                -3.0122786765651846
            ]
        }
    ]
}