{
    "goal": {
        "global_pose": {
            "orientation": {
                "w": 0.7031023480610252,
                "x": -0.7110244013736278,
                "y": 0.0077485991402295624,
                "z": 0.005598929693374583
            },
            "position": {
                "x": -0.8841497679147869,
                "y": 0.44412534475326537,
                "z": 0.3711530566215515
            }
        },
        "name": "move_to_auspresseinheit_D"
    },
    "id": "BKPIECE_move_to_auspresseinheit_D_52",
    "joint_names": [
        "shoulder_pan_joint",
        "shoulder_lift_joint",
        "elbow_joint",
        "wrist_1_joint",
        "wrist_2_joint",
        "wrist_3_joint"
    ],
    "metrics": {
        "cart_traj_len": 0.3440865859015081,
        "distance_elbow_joint": 0.6464484251500817,
        "distance_shoulder_lift_joint": 0.12565323170535558,
        "distance_shoulder_pan_joint": 0.13466147265511452,
        "distance_wrist_1_joint": 0.5554278376177857,
        "distance_wrist_2_joint": 1.4331646784682222,
        "distance_wrist_3_joint": 0.012498507837872541,
        "smoothness": 3.947459674368863e-16,
        "time": 0.235554032,
        "traj_len": 1.7052431361639995,
        "weighted_distance": 2.21843270918822
    },
    "planner": "BKPIECE",
    "start": {
        "state": {
            "elbow_joint": -1.8275523626775212,
            "shoulder_lift_joint": -2.126789852344167,
            "shoulder_pan_joint": -0.03513704404078235,
            "wrist_1_joint": -2.347782403156801,
            "wrist_2_joint": -1.6058999987535132,
            "wrist_3_joint": -3.0880379163319196
        }
    },
    "waypoints": [
        {
            "positions": [
                -0.03513704404078235,
                -2.126789852344167,
                -1.8275523626775212,
                -2.347782403156801,
                -1.6058999987535132,
                -3.0880379163319196
            ]
        },
        {
            "positions": [
                -0.051969728122671664,
                -2.1424965063073365,
                -1.746746309533761,
                -2.417210882859024,
                -1.4267544139449855,
                -3.0864756028521856
            ]
        },
        {
            "positions": [
                -0.06880241220456099,
                -2.1582031602705056,
                -1.6659402563900008,
                -2.486639362561247,
                -1.2476088291364578,
                -3.0849132893724516
            ]
        },
        {
            "positions": [
                -0.0856350962864503,
                -2.1739098142336752,
                -1.5851342032462405,
                -2.5560678422634706,
                -1.0684632443279298,
                -3.0833509758927176
            ]
        },
        {
            "positions": [
                -0.10246778036833962,
                -2.189616468196845,
                -1.5043281501024803,
                -2.6254963219656937,
                -0.8893176595194021,
                -3.0817886624129835
            ]
        },
        {
            "positions": [
                -0.11930046445022893,
                -2.205323122160014,
                -1.4235220969587201,
                -2.694924801667917,
                -0.7101720747108744,
                -3.080226348933249
            ]
        },
        {
            "positions": [
                -0.13613314853211825,
                -2.2210297761231836,
                -1.34271604381496,
                -2.7643532813701404,
                -0.5310264899023465,
                -3.078664035453515
            ]
        },
        {
            "positions": [
                -0.15296583261400756,
                -2.236736430086353,
                -1.2619099906711997,
                -2.8337817610723635,
                -0.35188090509381875,
                -3.077101721973781
            ]
        },
        {
            "positions": [
                -0.16979851669589688,
                -2.2524430840495224,
                -1.1811039375274395,
                -2.9032102407745866,
                -0.1727353202852911,
                -3.075539408494047
            ]
        }
    ]
}