{
    "goal": {
        "global_pose": {
            "orientation": {
                "w": 0.7031023480610252,
                "x": -0.7110244013736278,
                "y": 0.0077485991402295624,
                "z": 0.005598929693374583
            },
            "position": {
                "x": -0.8841497679147869,
                "y": 0.44412534475326537,
                "z": 0.3711530566215515
            }
        },
        "name": "move_to_auspresseinheit_D"
    },
    "id": "BKPIECE_move_to_auspresseinheit_D_9",
    "joint_names": [
        "shoulder_pan_joint",
        "shoulder_lift_joint",
        "elbow_joint",
        "wrist_1_joint",
        "wrist_2_joint",
        "wrist_3_joint"
    ],
    "metrics": {
        "cart_traj_len": 0.34362580777488816,
        "distance_elbow_joint": 0.6497894666569026,
        "distance_shoulder_lift_joint": 0.12757093738122505,
        "distance_shoulder_pan_joint": 0.1334037966935189,
        "distance_wrist_1_joint": 0.5616940891615787,
        "distance_wrist_2_joint": 1.4394868913972316,
        "distance_wrist_3_joint": 0.021476978913288924,
        "smoothness": 0.0,
        "time": 0.292568746,
        "traj_len": 1.7127236088183482,
        "weighted_distance": 2.2310439481527777
    },
    "planner": "BKPIECE",
    "start": {
        "state": {
            "elbow_joint": -1.8275523626775212,
            "shoulder_lift_joint": -2.126789852344167,
            "shoulder_pan_joint": -0.03513704404078235,
            "wrist_1_joint": -2.347782403156801,
            "wrist_2_joint": -1.6058999987535132,
            "wrist_3_joint": -3.0880379163319196
        }
    },
    "waypoints": [
        {
            "positions": [
                -0.03513704404078235,
                -2.126789852344167,
                -1.8275523626775212,
                -2.347782403156801,
                -1.6058999987535132,
                -3.0880379163319196
            ]
        },
        {
            "positions": [
                -0.051812518627472215,
                -2.14273621951682,
                -1.7463286793454085,
                -2.417994164301998,
                -1.4259641373288592,
                -3.0853532939677586
            ]
        },
        {
            "positions": [
                -0.06848799321416207,
                -2.158682586689473,
                -1.6651049960132955,
                -2.4882059254471955,
                -1.2460282759042052,
                -3.0826686716035976
            ]
        },
        {
            "positions": [
                -0.08516346780085193,
                -2.1746289538621264,
                -1.5838813126811826,
                -2.558417686592393,
                -1.0660924144795514,
                -3.079984049239436
            ]
        },
        {
            "positions": [
                -0.10183894238754179,
                -2.190575321034779,
                -1.5026576293490699,
                -2.62862944773759,
                -0.8861565530548974,
                -3.077299426875275
            ]
        },
        {
            "positions": [
                -0.11851441697423165,
                -2.2065216882074323,
                -1.4214339460169572,
                -2.6988412088827873,
                -0.7062206916302434,
                -3.074614804511114
            ]
        },
        {
            "positions": [
                -0.13518989156092154,
                -2.2224680553800855,
                -1.3402102626848442,
                -2.769052970027985,
                -0.5262848302055896,
                -3.0719301821469527
            ]
        },
        {
            "positions": [
                -0.1518653661476114,
                -2.2384144225527387,
                -1.2589865793527313,
                -2.8392647311731825,
                -0.3463489687809356,
                -3.0692455597827917
            ]
        },
        {
            "positions": [
                -0.16854084073430126,
                -2.254360789725392,
                -1.1777628960206186,
                -2.9094764923183796,
                -0.1664131073562816,
                -3.0665609374186307
            ]
        }
    ]
}