{
    "goal": {
        "global_pose": {
            "orientation": {
                "w": -0.4816463035849501,
                "x": 0.5182115481033762,
                "y": 0.4908360881923453,
                "z": -0.5084816262002911
            },
            "position": {
                "x": -0.8240239810943604,
                "y": 0.19912469901144506,
                "z": 0.16403168439865112
            }
        },
        "name": "move_to_storage_D"
    },
    "id": "BKPIECE_move_to_storage_D_96",
    "joint_names": [
        "shoulder_pan_joint",
        "shoulder_lift_joint",
        "elbow_joint",
        "wrist_1_joint",
        "wrist_2_joint",
        "wrist_3_joint"
    ],
    "metrics": {
        "cart_traj_len": 0.6390355716487247,
        "distance_elbow_joint": 0.5538424370796153,
        "distance_shoulder_lift_joint": 0.1980525667614379,
        "distance_shoulder_pan_joint": 0.4261532301115661,
        "distance_wrist_1_joint": 3.9203830277291067,
        "distance_wrist_2_joint": 1.7832314321785485,
        "distance_wrist_3_joint": 3.1225484267827213,
        "smoothness": 0.08458125606434012,
        "time": 0.21604512,
        "traj_len": 3.1629434267218555,
        "weighted_distance": 4.6853945868108156
    },
    "planner": "BKPIECE",
    "start": {
        "state": {
            "elbow_joint": -2.384821988534728,
            "shoulder_lift_joint": -2.2788054721415256,
            "shoulder_pan_joint": -0.1854694642142757,
            "wrist_1_joint": 1.4845938289331202,
            "wrist_2_joint": 0.17898776772866878,
            "wrist_3_joint": 0.037105688729662994
        }
    },
    "waypoints": [
        {
            "positions": [
                -0.1854694642142757,
                -2.2788054721415256,
                -2.384821988534728,
                1.4845938289331202,
                0.17898776772866878,
                0.037105688729662994
            ]
        },
        {
            "positions": [
                -0.08933924445371683,
                -2.2203645393212628,
                -2.368528055544153,
                1.5011566856017016,
                0.09996690400901993,
                0.03097456533337128
            ]
        },
        {
            "positions": [
                0.006790975306842056,
                -2.1619236065010004,
                -2.3522341225535772,
                1.5177195422702832,
                0.020946040289371082,
                0.024843441937079568
            ]
        },
        {
            "positions": [
                0.10292119506740097,
                -2.1034826736807375,
                -2.335940189563002,
                1.5342823989388645,
                -0.0580748234302778,
                0.018712318540787854
            ]
        },
        {
            "positions": [
                0.09718108794948892,
                -2.1044297473599314,
                -2.3149001629751735,
                1.3730034632003911,
                -0.12249852513942787,
                -0.11062747548395573
            ]
        },
        {
            "positions": [
                0.09144098083157687,
                -2.105376821039125,
                -2.2938601363873445,
                1.2117245274619177,
                -0.18692222684857795,
                -0.2399672695086993
            ]
        },
        {
            "positions": [
                0.0857008737136648,
                -2.1063238947183187,
                -2.272820109799516,
                1.0504455917234443,
                -0.251345928557728,
                -0.3693070635334429
            ]
        },
        {
            "positions": [
                0.07996076659575277,
                -2.1072709683975126,
                -2.251780083211687,
                0.8891666559849708,
                -0.3157696302668781,
                -0.49864685755818644
            ]
        },
        {
            "positions": [
                0.0742206594778407,
                -2.108218042076706,
                -2.2307400566238584,
                0.7278877202464973,
                -0.3801933319760282,
                -0.6279866515829301
            ]
        },
        {
            "positions": [
                0.06848055235992866,
                -2.1091651157559,
                -2.20970003003603,
                0.5666087845080239,
                -0.4446170336851783,
                -0.7573264456076737
            ]
        },
        {
            "positions": [
                0.06274044524201661,
                -2.110112189435094,
                -2.188660003448201,
                0.40532984876955047,
                -0.5090407353943284,
                -0.8866662396324173
            ]
        },
        {
            "positions": [
                0.05700033812410456,
                -2.1110592631142873,
                -2.1676199768603723,
                0.24405091303107707,
                -0.5734644371034784,
                -1.0160060336571608
            ]
        },
        {
            "positions": [
                0.0512602310061925,
                -2.112006336793481,
                -2.1465799502725433,
                0.08277197729260366,
                -0.6378881388126285,
                -1.1453458276819044
            ]
        },
        {
            "positions": [
                0.045520123888280445,
                -2.112953410472675,
                -2.125539923684715,
                -0.07850695844586997,
                -0.7023118405217786,
                -1.274685621706648
            ]
        },
        {
            "positions": [
                0.039780016770368395,
                -2.1139004841518685,
                -2.1044998970968862,
                -0.23978589418434337,
                -0.7667355422309287,
                -1.4040254157313916
            ]
        },
        {
            "positions": [
                0.034039909652456346,
                -2.1148475578310624,
                -2.0834598705090572,
                -0.4010648299228168,
                -0.8311592439400788,
                -1.5333652097561352
            ]
        },
        {
            "positions": [
                0.028299802534544297,
                -2.1157946315102563,
                -2.0624198439212287,
                -0.56234376566129,
                -0.8955829456492288,
                -1.6627050037808786
            ]
        },
        {
            "positions": [
                0.022559695416632233,
                -2.1167417051894497,
                -2.0413798173333997,
                -0.7236227013997636,
                -0.960006647358379,
                -1.7920447978056224
            ]
        },
        {
            "positions": [
                0.016819588298720184,
                -2.1176887788686436,
                -2.020339790745571,
                -0.8849016371382372,
                -1.024430349067529,
                -1.921384591830366
            ]
        },
        {
            "positions": [
                0.011079481180808148,
                -2.1186358525478375,
                -1.9992997641577426,
                -1.0461805728767104,
                -1.0888540507766789,
                -2.0507243858551094
            ]
        },
        {
            "positions": [
                0.005339374062896085,
                -2.119582926227031,
                -1.9782597375699136,
                -1.207459508615184,
                -1.153277752485829,
                -2.1800641798798535
            ]
        },
        {
            "positions": [
                -0.00040073305501596435,
                -2.120529999906225,
                -1.957219710982085,
                -1.3687384443536572,
                -1.217701454194979,
                -2.3094039739045966
            ]
        },
        {
            "positions": [
                -0.006140840172928014,
                -2.1214770735854187,
                -1.9361796843942563,
                -1.5300173800921308,
                -1.2821251559041291,
                -2.4387437679293402
            ]
        },
        {
            "positions": [
                -0.011880947290840077,
                -2.122424147264612,
                -1.9151396578064275,
                -1.6912963158306045,
                -1.3465488576132794,
                -2.568083561954084
            ]
        },
        {
            "positions": [
                -0.017621054408752113,
                -2.123371220943806,
                -1.894099631218599,
                -1.8525752515690777,
                -1.4109725593224294,
                -2.6974233559788274
            ]
        },
        {
            "positions": [
                -0.023361161526664176,
                -2.124318294623,
                -1.8730596046307701,
                -2.013854187307551,
                -1.4753962610315794,
                -2.826763150003571
            ]
        },
        {
            "positions": [
                -0.02910126864457624,
                -2.1252653683021934,
                -1.8520195780429414,
                -2.1751331230460247,
                -1.5398199627407296,
                -2.9561029440283146
            ]
        },
        {
            "positions": [
                -0.03484137576248826,
                -2.1262124419813873,
                -1.8309795514551126,
                -2.336412058784498,
                -1.6042436644498796,
                -3.0854427380530582
            ]
        }
    ]
}