{
    "goal": {
        "global_pose": {
            "orientation": {
                "w": 0.5084816217422485,
                "x": -0.49083608388900757,
                "y": 0.5182115435600281,
                "z": -0.4816462993621826
            },
            "position": {
                "x": 0.5540239810943604,
                "y": 0.030875300988554955,
                "z": 0.16403168439865112
            }
        },
        "name": "move_to_storage_A"
    },
    "id": "BKPIECE_move_to_storage_A_134",
    "joint_names": [
        "shoulder_pan_joint",
        "shoulder_lift_joint",
        "elbow_joint",
        "wrist_1_joint",
        "wrist_2_joint",
        "wrist_3_joint"
    ],
    "metrics": {
        "cart_traj_len": 0.3529348531810263,
        "distance_elbow_joint": 0.44813677708852784,
        "distance_shoulder_lift_joint": 0.23582551687471387,
        "distance_shoulder_pan_joint": 0.4599686921603988,
        "distance_wrist_1_joint": 0.23537092912725044,
        "distance_wrist_2_joint": 1.105492578316383,
        "distance_wrist_3_joint": 0.10557857969179496,
        "smoothness": 1.3322676295501878e-15,
        "time": 0.142783244,
        "traj_len": 1.6094635979912901,
        "weighted_distance": 2.0352871394686036
    },
    "planner": "BKPIECE",
    "start": {
        "state": {
            "elbow_joint": 1.971548259319323,
            "shoulder_lift_joint": -1.1394851275133948,
            "shoulder_pan_joint": 0.1228115487234821,
            "wrist_1_joint": -0.7804723859257726,
            "wrist_2_joint": 0.12958671773740124,
            "wrist_3_joint": -3.192489227718131
        }
    },
    "waypoints": [
        {
            "positions": [
                0.1228115487234821,
                -1.1394851275133948,
                1.971548259319323,
                -0.7804723859257726,
                0.12958671773740124,
                -3.192489227718131
            ]
        },
        {
            "positions": [
                0.05710173555771085,
                -1.1731744870669254,
                2.0355677989033985,
                -0.8140968043725226,
                0.287514228925456,
                -3.1774065734764463
            ]
        },
        {
            "positions": [
                -0.0086080776080604,
                -1.206863846620456,
                2.0995873384874737,
                -0.8477212228192728,
                0.4454417401135107,
                -3.162323919234761
            ]
        },
        {
            "positions": [
                -0.07431789077383166,
                -1.2405532061739866,
                2.1636068780715494,
                -0.8813456412660228,
                0.6033692513015654,
                -3.147241264993076
            ]
        },
        {
            "positions": [
                -0.1400277039396029,
                -1.274242565727517,
                2.2276264176556246,
                -0.9149700597127729,
                0.7612967624896201,
                -3.1321586107513912
            ]
        },
        {
            "positions": [
                -0.2057375171053742,
                -1.3079319252810475,
                2.2916459572397,
                -0.9485944781595229,
                0.9192242736776748,
                -3.1170759565097064
            ]
        },
        {
            "positions": [
                -0.2714473302711454,
                -1.341621284834578,
                2.3556654968237756,
                -0.982218896606273,
                1.0771517848657295,
                -3.101993302268021
            ]
        },
        {
            "positions": [
                -0.3371571434369167,
                -1.3753106443881087,
                2.419685036407851,
                -1.015843315053023,
                1.2350792960537842,
                -3.086910648026336
            ]
        }
    ]
}{
    "goal": {
        "global_pose": {
            "orientation": {
                "w": 0.5084816217422485,
                "x": -0.49083608388900757,
                "y": 0.5182115435600281,
                "z": -0.4816462993621826
            },
            "position": {
                "x": 0.5540239810943604,
                "y": 0.030875300988554955,
                "z": 0.16403168439865112
            }
        },
        "name": "move_to_storage_A"
    },
    "id": "BKPIECE_move_to_storage_A_134",
    "joint_names": [
        "shoulder_pan_joint",
        "shoulder_lift_joint",
        "elbow_joint",
        "wrist_1_joint",
        "wrist_2_joint",
        "wrist_3_joint"
    ],
    "metrics": {
        "cart_traj_len": 0.3538551604687218,
        "distance_elbow_joint": 0.44978552595421073,
        "distance_shoulder_lift_joint": 0.23481523986375863,
        "distance_shoulder_pan_joint": 0.46330841850792254,
        "distance_wrist_1_joint": 0.2407768986627563,
        "distance_wrist_2_joint": 1.0979691167955177,
        "distance_wrist_3_joint": 0.08878310855961757,
        "smoothness": 1.8873791356367994e-15,
        "time": 0.289598566,
        "traj_len": 1.6048172196059536,
        "weighted_distance": 2.022807588704693
    },
    "planner": "BKPIECE",
    "start": {
        "state": {
            "elbow_joint": 1.97154746011099,
            "shoulder_lift_joint": -1.13948474672311,
            "shoulder_pan_joint": 0.12281154466712228,
            "wrist_1_joint": -0.7804688027058302,
            "wrist_2_joint": 0.12958655903071145,
            "wrist_3_joint": 3.0906928834467795
        }
    },
    "waypoints": [
        {
            "positions": [
                0.12281154466712228,
                -1.13948474672311,
                1.97154746011099,
                -0.7804688027058302,
                0.12958655903071145,
                3.0906928834467795
            ]
        },
        {
            "positions": [
                0.05662462773741907,
                -1.1730297809893613,
                2.035802535247306,
                -0.8148655025147954,
                0.2864392900014997,
                3.103376184669582
            ]
        },
        {
            "positions": [
                -0.009562289192284149,
                -1.2065748152556124,
                2.1000576103836215,
                -0.8492622023237606,
                0.4432920209722879,
                3.1160594858923845
            ]
        },
        {
            "positions": [
                -0.07574920612198736,
                -1.2401198495218637,
                2.1643126855199375,
                -0.8836589021327257,
                0.6001447519430761,
                3.128742787115187
            ]
        },
        {
            "positions": [
                -0.14193612305169057,
                -1.2736648837881148,
                2.228567760656253,
                -0.9180556019416909,
                0.7569974829138644,
                3.1414260883379894
            ]
        },
        {
            "positions": [
                -0.2081230399813938,
                -1.3072099180543661,
                2.292822835792569,
                -0.9524523017506561,
                0.9138502138846527,
                3.154109389560792
            ]
        },
        {
            "positions": [
                -0.274309956911097,
                -1.3407549523206173,
                2.3570779109288846,
                -0.9868490015596213,
                1.0707029448554408,
                3.1667926907835944
            ]
        },
        {
            "positions": [
                -0.34049687384080024,
                -1.3742999865868686,
                2.4213329860652006,
                -1.0212457013685865,
                1.2275556758262292,
                3.179475992006397
            ]
        }
    ]
}{
    "goal": {
        "global_pose": {
            "orientation": {
                "w": 0.5084816217422485,
                "x": -0.49083608388900757,
                "y": 0.5182115435600281,
                "z": -0.4816462993621826
            },
            "position": {
                "x": 0.5540239810943604,
                "y": 0.030875300988554955,
                "z": 0.16403168439865112
            }
        },
        "name": "move_to_storage_A"
    },
    "id": "BKPIECE_move_to_storage_A_134",
    "joint_names": [
        "shoulder_pan_joint",
        "shoulder_lift_joint",
        "elbow_joint",
        "wrist_1_joint",
        "wrist_2_joint",
        "wrist_3_joint"
    ],
    "metrics": {
        "cart_traj_len": 0.35290390099630997,
        "distance_elbow_joint": 0.45121695213195023,
        "distance_shoulder_lift_joint": 0.23659160672123392,
        "distance_shoulder_pan_joint": 0.4612276367531484,
        "distance_wrist_1_joint": 0.24356841503876114,
        "distance_wrist_2_joint": 1.1008688928446948,
        "distance_wrist_3_joint": 0.0891548303341585,
        "smoothness": 6.661338165333112e-16,
        "time": 0.299217438,
        "traj_len": 1.6070557967363632,
        "weighted_distance": 2.026172574677616
    },
    "planner": "BKPIECE",
    "start": {
        "state": {
            "elbow_joint": 1.9715472970024885,
            "shoulder_lift_joint": -1.1394870060712896,
            "shoulder_pan_joint": 0.12281152778156021,
            "wrist_1_joint": -0.780463741449964,
            "wrist_2_joint": 0.12958659822042276,
            "wrist_3_joint": 3.090690232415272
        }
    },
    "waypoints": [
        {
            "positions": [
                0.12281152778156021,
                -1.1394870060712896,
                1.9715472970024885,
                -0.780463741449964,
                0.12958659822042276,
                3.090690232415272
            ]
        },
        {
            "positions": [
                0.05692186538825331,
                -1.1732858070314658,
                2.0360068615927673,
                -0.8152592293126442,
                0.286853582912522,
                3.103426636748723
            ]
        },
        {
            "positions": [
                -0.008967797005053596,
                -1.2070846079916422,
                2.1004664261830457,
                -0.8500547171753243,
                0.44412056760462126,
                3.1161630410821743
            ]
        },
        {
            "positions": [
                -0.0748574593983605,
                -1.2408834089518184,
                2.1649259907733245,
                -0.8848502050380045,
                0.6013875522967205,
                3.1288994454156254
            ]
        },
        {
            "positions": [
                -0.1407471217916674,
                -1.2746822099119948,
                2.229385555363603,
                -0.9196456929006847,
                0.7586545369888197,
                3.141635849749077
            ]
        },
        {
            "positions": [
                -0.20663678418497436,
                -1.308481010872171,
                2.2938451199538816,
                -0.9544411807633648,
                0.915921521680919,
                3.154372254082528
            ]
        },
        {
            "positions": [
                -0.2725264465782812,
                -1.3422798118323471,
                2.35830468454416,
                -0.989236668626045,
                1.0731885063730182,
                3.1671086584159793
            ]
        },
        {
            "positions": [
                -0.33841610897158814,
                -1.3760786127925235,
                2.4227642491344388,
                -1.0240321564887251,
                1.2304554910651175,
                3.1798450627494304
            ]
        }
    ]
}