{
    "goal": {
        "global_pose": {
            "orientation": {
                "w": 0.5084816217422485,
                "x": -0.49083608388900757,
                "y": 0.5182115435600281,
                "z": -0.4816462993621826
            },
            "position": {
                "x": 0.5540239810943604,
                "y": 0.030875300988554955,
                "z": 0.16403168439865112
            }
        },
        "name": "move_to_storage_A"
    },
    "id": "BKPIECE_move_to_storage_A_43",
    "joint_names": [
        "shoulder_pan_joint",
        "shoulder_lift_joint",
        "elbow_joint",
        "wrist_1_joint",
        "wrist_2_joint",
        "wrist_3_joint"
    ],
    "metrics": {
        "cart_traj_len": 0.35313868078763566,
        "distance_elbow_joint": 0.44916913666278835,
        "distance_shoulder_lift_joint": 0.23632963063024626,
        "distance_shoulder_pan_joint": 0.4641574709472688,
        "distance_wrist_1_joint": 0.23470015207245043,
        "distance_wrist_2_joint": 1.0896995799858904,
        "distance_wrist_3_joint": 0.09368201879919091,
        "smoothness": 4.440892098500626e-16,
        "time": 0.22858163199999998,
        "traj_len": 1.6024162970644786,
        "weighted_distance": 2.019777650820644
    },
    "planner": "BKPIECE",
    "start": {
        "state": {
            "elbow_joint": 1.971548259319323,
            "shoulder_lift_joint": -1.1394851275133948,
            "shoulder_pan_joint": 0.1228115487234821,
            "wrist_1_joint": -0.7804723859257726,
            "wrist_2_joint": 0.12958671773740124,
            "wrist_3_joint": -3.192489227718131
        }
    },
    "waypoints": [
        {
            "positions": [
                0.1228115487234821,
                -1.1394851275133948,
                1.971548259319323,
                -0.7804723859257726,
                0.12958671773740124,
                -3.192489227718131
            ]
        },
        {
            "positions": [
                0.056503338588157995,
                -1.1732465033177157,
                2.0357152788425785,
                -0.8140009790789798,
                0.28525808630681415,
                -3.1791060821753896
            ]
        },
        {
            "positions": [
                -0.00980487154716611,
                -1.2070078791220367,
                2.099882298365834,
                -0.8475295722321871,
                0.44092945487622703,
                -3.165722936632648
            ]
        },
        {
            "positions": [
                -0.07611308168249023,
                -1.2407692549263576,
                2.1640493178890896,
                -0.8810581653853942,
                0.5966008234456399,
                -3.1523397910899065
            ]
        },
        {
            "positions": [
                -0.14242129181781432,
                -1.2745306307306783,
                2.228216337412345,
                -0.9145867585386014,
                0.7522721920150529,
                -3.138956645547165
            ]
        },
        {
            "positions": [
                -0.20872950195313844,
                -1.3082920065349992,
                2.2923833569356002,
                -0.9481153516918086,
                0.9079435605844659,
                -3.1255735000044234
            ]
        },
        {
            "positions": [
                -0.27503771208846256,
                -1.3420533823393201,
                2.356550376458856,
                -0.9816439448450158,
                1.0636149291538786,
                -3.112190354461682
            ]
        },
        {
            "positions": [
                -0.3413459222237867,
                -1.375814758143641,
                2.4207173959821113,
                -1.015172537998223,
                1.2192862977232917,
                -3.0988072089189402
            ]
        }
    ]
}{
    "goal": {
        "global_pose": {
            "orientation": {
                "w": 0.5084816217422485,
                "x": -0.49083608388900757,
                "y": 0.5182115435600281,
                "z": -0.4816462993621826
            },
            "position": {
                "x": 0.5540239810943604,
                "y": 0.030875300988554955,
                "z": 0.16403168439865112
            }
        },
        "name": "move_to_storage_A"
    },
    "id": "BKPIECE_move_to_storage_A_43",
    "joint_names": [
        "shoulder_pan_joint",
        "shoulder_lift_joint",
        "elbow_joint",
        "wrist_1_joint",
        "wrist_2_joint",
        "wrist_3_joint"
    ],
    "metrics": {
        "cart_traj_len": 0.3535846561146076,
        "distance_elbow_joint": 0.45035704216488526,
        "distance_shoulder_lift_joint": 0.23610308957186965,
        "distance_shoulder_pan_joint": 0.4641075408980963,
        "distance_wrist_1_joint": 0.23665574062207617,
        "distance_wrist_2_joint": 1.093635799296847,
        "distance_wrist_3_joint": 0.08734281670930821,
        "smoothness": 4.440892133664971e-16,
        "time": 0.186381505,
        "traj_len": 1.602561084409291,
        "weighted_distance": 2.0182118824842505
    },
    "planner": "BKPIECE",
    "start": {
        "state": {
            "elbow_joint": 1.97154746011099,
            "shoulder_lift_joint": -1.13948474672311,
            "shoulder_pan_joint": 0.12281154466712228,
            "wrist_1_joint": -0.7804688027058302,
            "wrist_2_joint": 0.12958655903071145,
            "wrist_3_joint": 3.0906928834467795
        }
    },
    "waypoints": [
        {
            "positions": [
                0.12281154466712228,
                -1.13948474672311,
                1.97154746011099,
                -0.7804688027058302,
                0.12958655903071145,
                3.0906928834467795
            ]
        },
        {
            "positions": [
                0.05651046739596567,
                -1.1732137595190912,
                2.0358841804202594,
                -0.814276765651841,
                0.28582024464454675,
                3.1031704286909663
            ]
        },
        {
            "positions": [
                -0.00979060987519094,
                -1.2069427723150727,
                2.1002209007295285,
                -0.8480847285978519,
                0.442053930258382,
                3.1156479739351535
            ]
        },
        {
            "positions": [
                -0.07609168714634755,
                -1.240671785111054,
                2.164557621038798,
                -0.8818926915438628,
                0.5982876158722173,
                3.1281255191793402
            ]
        },
        {
            "positions": [
                -0.14239276441750415,
                -1.2744007979070355,
                2.228894341348067,
                -0.9157006544898737,
                0.7545213014860527,
                3.140603064423527
            ]
        },
        {
            "positions": [
                -0.20869384168866079,
                -1.3081298107030168,
                2.2932310616573366,
                -0.9495086174358847,
                0.910754987099888,
                3.1530806096677138
            ]
        },
        {
            "positions": [
                -0.27499491895981737,
                -1.341858823498998,
                2.3575677819666057,
                -0.9833165803818955,
                1.0669886727137232,
                3.165558154911901
            ]
        },
        {
            "positions": [
                -0.341295996230974,
                -1.3755878362949796,
                2.421904502275875,
                -1.0171245433279064,
                1.2232223583275585,
                3.1780357001560877
            ]
        }
    ]
}{
    "goal": {
        "global_pose": {
            "orientation": {
                "w": 0.5084816217422485,
                "x": -0.49083608388900757,
                "y": 0.5182115435600281,
                "z": -0.4816462993621826
            },
            "position": {
                "x": 0.5540239810943604,
                "y": 0.030875300988554955,
                "z": 0.16403168439865112
            }
        },
        "name": "move_to_storage_A"
    },
    "id": "BKPIECE_move_to_storage_A_43",
    "joint_names": [
        "shoulder_pan_joint",
        "shoulder_lift_joint",
        "elbow_joint",
        "wrist_1_joint",
        "wrist_2_joint",
        "wrist_3_joint"
    ],
    "metrics": {
        "cart_traj_len": 0.35336145806847225,
        "distance_elbow_joint": 0.4491914725683466,
        "distance_shoulder_lift_joint": 0.2355523531761199,
        "distance_shoulder_pan_joint": 0.45949627086325867,
        "distance_wrist_1_joint": 0.23830858936939547,
        "distance_wrist_2_joint": 1.11089799554746,
        "distance_wrist_3_joint": 0.09421791745566832,
        "smoothness": 4.440892098500626e-16,
        "time": 0.211355585,
        "traj_len": 1.6086219565144102,
        "weighted_distance": 2.0310851825584373
    },
    "planner": "BKPIECE",
    "start": {
        "state": {
            "elbow_joint": 1.9715472970024885,
            "shoulder_lift_joint": -1.1394870060712896,
            "shoulder_pan_joint": 0.12281152778156021,
            "wrist_1_joint": -0.780463741449964,
            "wrist_2_joint": 0.12958659822042276,
            "wrist_3_joint": 3.090690232415272
        }
    },
    "waypoints": [
        {
            "positions": [
                0.12281152778156021,
                -1.1394870060712896,
                1.9715472970024885,
                -0.780463741449964,
                0.12958659822042276,
                3.090690232415272
            ]
        },
        {
            "positions": [
                0.057169203372523264,
                -1.1731373422393068,
                2.0357175073693954,
                -0.8145078256455919,
                0.28828631187005993,
                3.1041499349089388
            ]
        },
        {
            "positions": [
                -0.008473121036513681,
                -1.206787678407324,
                2.099887717736302,
                -0.8485519098412199,
                0.446986025519697,
                3.1176096374026057
            ]
        },
        {
            "positions": [
                -0.07411544544555063,
                -1.240438014575341,
                2.1640579281032086,
                -0.8825959940368477,
                0.6056857391693342,
                3.1310693398962726
            ]
        },
        {
            "positions": [
                -0.13975776985458757,
                -1.274088350743358,
                2.228228138470115,
                -0.9166400782324757,
                0.7643854528189713,
                3.1445290423899395
            ]
        },
        {
            "positions": [
                -0.20540009426362452,
                -1.3077386869113752,
                2.292398348837022,
                -0.9506841624281036,
                0.9230851664686085,
                3.1579887448836064
            ]
        },
        {
            "positions": [
                -0.27104241867266143,
                -1.3413890230793923,
                2.3565685592039283,
                -0.9847282466237315,
                1.0817848801182457,
                3.1714484473772733
            ]
        },
        {
            "positions": [
                -0.33668474308169843,
                -1.3750393592474095,
                2.420738769570835,
                -1.0187723308193595,
                1.2404845937678828,
                3.18490814987094
            ]
        }
    ]
}