{
    "goal": {
        "global_pose": {
            "orientation": {
                "w": 0.5084816262002911,
                "x": -0.4908360881923452,
                "y": 0.5182115481033761,
                "z": -0.48164630358495003
            },
            "position": {
                "x": 0.5540239810943604,
                "y": -0.46912469901144505,
                "z": 0.16403168439865112
            }
        },
        "name": "move_to_storage_B"
    },
    "id": "BKPIECE_move_to_storage_B_28",
    "joint_names": [
        "shoulder_pan_joint",
        "shoulder_lift_joint",
        "elbow_joint",
        "wrist_1_joint",
        "wrist_2_joint",
        "wrist_3_joint"
    ],
    "metrics": {
        "cart_traj_len": 2.02669353324114,
        "distance_elbow_joint": 0.4844425900501683,
        "distance_shoulder_lift_joint": 1.530076073230019,
        "distance_shoulder_pan_joint": 1.7931593229768157,
        "distance_wrist_1_joint": 2.9836779060670295,
        "distance_wrist_2_joint": 2.708309298636054,
        "distance_wrist_3_joint": 3.1338842286766786,
        "smoothness": 0.21499186091115843,
        "time": 0.211454923,
        "traj_len": 3.5543704674156804,
        "weighted_distance": 4.959163748223404
    },
    "planner": "BKPIECE",
    "start": {
        "state": {
            "elbow_joint": 1.664937868594044,
            "shoulder_lift_joint": -0.661644460510453,
            "shoulder_pan_joint": -0.9139846352900073,
            "wrist_1_joint": 2.146753192139373,
            "wrist_2_joint": -2.2341966793290973,
            "wrist_3_joint": 0.005466555786416001
        }
    },
    "waypoints": [
        {
            "positions": [
                -0.9139846352900073,
                -0.661644460510453,
                1.664937868594044,
                2.146753192139373,
                -2.2341966793290973,
                0.005466555786416001
            ]
        },
        {
            "positions": [
                -0.8715716912373803,
                -0.7139514225596815,
                1.6613552388384856,
                2.0228272723198755,
                -2.1214698920978314,
                -0.03888330871319094
            ]
        },
        {
            "positions": [
                -0.8291587471847534,
                -0.76625838460891,
                1.6577726090829272,
                1.898901352500378,
                -2.008743104866565,
                -0.08323317321279788
            ]
        },
        {
            "positions": [
                -0.7867458031321264,
                -0.8185653466581386,
                1.6541899793273689,
                1.7749754326808804,
                -1.8960163176352993,
                -0.1275830377124048
            ]
        },
        {
            "positions": [
                -0.7443328590794995,
                -0.8708723087073671,
                1.6506073495718108,
                1.651049512861383,
                -1.7832895304040335,
                -0.17193290221201177
            ]
        },
        {
            "positions": [
                -0.7019199150268726,
                -0.9231792707565956,
                1.6470247198162524,
                1.5271235930418854,
                -1.6705627431727674,
                -0.2162827667116187
            ]
        },
        {
            "positions": [
                -0.6595069709742456,
                -0.9754862328058241,
                1.643442090060694,
                1.4031976732223876,
                -1.5578359559415014,
                -0.2606326312112256
            ]
        },
        {
            "positions": [
                -0.6170940269216186,
                -1.0277931948550527,
                1.6398594603051357,
                1.27927175340289,
                -1.4451091687102355,
                -0.3049824957108326
            ]
        },
        {
            "positions": [
                -0.5746810828689917,
                -1.0801001569042812,
                1.6362768305495774,
                1.1553458335833926,
                -1.3323823814789695,
                -0.3493323602104395
            ]
        },
        {
            "positions": [
                -0.5322681388163647,
                -1.1324071189535097,
                1.632694200794019,
                1.0314199137638949,
                -1.2196555942477036,
                -0.39368222471004644
            ]
        },
        {
            "positions": [
                -0.4898551947637378,
                -1.1847140810027383,
                1.629111571038461,
                0.9074939939443973,
                -1.1069288070164376,
                -0.43803208920965336
            ]
        },
        {
            "positions": [
                -0.44744225071111077,
                -1.2370210430519668,
                1.6255289412829026,
                0.7835680741248996,
                -0.9942020197851715,
                -0.48238195370926035
            ]
        },
        {
            "positions": [
                -0.4050293066584839,
                -1.2893280051011953,
                1.6219463115273443,
                0.6596421543054021,
                -0.8814752325539057,
                -0.5267318182088673
            ]
        },
        {
            "positions": [
                -0.36261636260585683,
                -1.3416349671504237,
                1.618363681771786,
                0.5357162344859043,
                -0.7687484453226396,
                -0.5710816827084743
            ]
        },
        {
            "positions": [
                -0.32020341855323,
                -1.3939419291996522,
                1.6147810520162276,
                0.4117903146664068,
                -0.6560216580913738,
                -0.6154315472080812
            ]
        },
        {
            "positions": [
                -0.2777904745006029,
                -1.446248891248881,
                1.6111984222606692,
                0.28786439484690907,
                -0.5432948708601075,
                -0.6597814117076882
            ]
        },
        {
            "positions": [
                -0.23537753044797605,
                -1.4985558532981094,
                1.607615792505111,
                0.16393847502741177,
                -0.4305680836288417,
                -0.7041312762072951
            ]
        },
        {
            "positions": [
                -0.19296458639534908,
                -1.550862815347338,
                1.6040331627495528,
                0.0400125552079138,
                -0.31784129639757563,
                -0.7484811407069021
            ]
        },
        {
            "positions": [
                -0.15055164234272211,
                -1.6031697773965665,
                1.6004505329939944,
                -0.0839133646115835,
                -0.20511450916631002,
                -0.792831005206509
            ]
        },
        {
            "positions": [
                -0.10813869829009518,
                -1.655476739445795,
                1.596867903238436,
                -0.20783928443108124,
                -0.09238772193504391,
                -0.8371808697061159
            ]
        },
        {
            "positions": [
                -0.17866108300273115,
                -1.6171736112818895,
                1.6266088050023333,
                -0.2527739579665509,
                -0.051923411846329565,
                -1.0008406413621265
            ]
        },
        {
            "positions": [
                -0.24918346771536715,
                -1.578870483117984,
                1.6563497067662305,
                -0.29770863150202054,
                -0.01145910175761522,
                -1.164500413018137
            ]
        },
        {
            "positions": [
                -0.31970585242800315,
                -1.5405673549540786,
                1.6860906085301277,
                -0.3426433050374902,
                0.029005208331099125,
                -1.3281601846741473
            ]
        },
        {
            "positions": [
                -0.39022823714063914,
                -1.5022642267901731,
                1.7158315102940247,
                -0.3875779785729598,
                0.06946951841981347,
                -1.4918199563301577
            ]
        },
        {
            "positions": [
                -0.4607506218532751,
                -1.4639610986262674,
                1.745572412057922,
                -0.4325126521084295,
                0.10993382850852784,
                -1.6554797279861684
            ]
        },
        {
            "positions": [
                -0.5312730065659111,
                -1.425657970462362,
                1.7753133138218191,
                -0.4774473256438991,
                0.15039813859724216,
                -1.8191394996421786
            ]
        },
        {
            "positions": [
                -0.6017953912785471,
                -1.3873548422984565,
                1.8050542155857163,
                -0.5223819991793688,
                0.19086244868595653,
                -1.9827992712981892
            ]
        },
        {
            "positions": [
                -0.672317775991183,
                -1.349051714134551,
                1.8347951173496135,
                -0.5673166727148383,
                0.23132675877467085,
                -2.1464590429541994
            ]
        },
        {
            "positions": [
                -0.7428401607038191,
                -1.3107485859706456,
                1.8645360191135107,
                -0.6122513462503081,
                0.2717910688633853,
                -2.31011881461021
            ]
        },
        {
            "positions": [
                -0.813362545416455,
                -1.27244545780674,
                1.8942769208774077,
                -0.6571860197857777,
                0.3122553789520996,
                -2.4737785862662207
            ]
        },
        {
            "positions": [
                -0.8838849301290911,
                -1.2341423296428347,
                1.924017822641305,
                -0.7021206933212473,
                0.3527196890408139,
                -2.637438357922231
            ]
        },
        {
            "positions": [
                -0.954407314841727,
                -1.195839201478929,
                1.9537587244052022,
                -0.7470553668567169,
                0.39318399912952823,
                -2.801098129578241
            ]
        },
        {
            "positions": [
                -1.024929699554363,
                -1.1575360733150235,
                1.9834996261690994,
                -0.7919900403921866,
                0.43364830921824266,
                -2.964757901234252
            ]
        },
        {
            "positions": [
                -1.095452084266999,
                -1.119232945151118,
                2.0132405279329966,
                -0.8369247139276562,
                0.4741126193069569,
                -3.1284176728902624
            ]
        }
    ]
}