{
    "goal": {
        "global_pose": {
            "orientation": {
                "w": 0.7047431493862688,
                "x": -0.7094548369677653,
                "y": 0.0024358444001904,
                "z": -0.0022348060817251984
            },
            "position": {
                "x": -0.39052492380142206,
                "y": 0.3671506643295288,
                "z": 0.19426114857196808
            }
        },
        "name": "move_to_magneteinheit_D"
    },
    "id": "BKPIECE_move_to_magneteinheit_D_92",
    "joint_names": [
        "shoulder_pan_joint",
        "shoulder_lift_joint",
        "elbow_joint",
        "wrist_1_joint",
        "wrist_2_joint",
        "wrist_3_joint"
    ],
    "metrics": {
        "cart_traj_len": 4.645791242727882,
        "distance_elbow_joint": 3.5217339400363854,
        "distance_shoulder_lift_joint": 1.6271474537539035,
        "distance_shoulder_pan_joint": 6.163487421319246,
        "distance_wrist_1_joint": 1.9052199404268606,
        "distance_wrist_2_joint": 0.899831050236368,
        "distance_wrist_3_joint": 3.2470889086426613,
        "smoothness": 0.4600625074929954,
        "time": 0.390978001,
        "traj_len": 4.167074359117608,
        "weighted_distance": 5.163694173976998
    },
    "planner": "BKPIECE",
    "start": {
        "state": {
            "elbow_joint": 0.749534889911806,
            "shoulder_lift_joint": -0.6476975780787326,
            "shoulder_pan_joint": -2.711696901376241,
            "wrist_1_joint": -0.07506478083263063,
            "wrist_2_joint": 0.43296659715538205,
            "wrist_3_joint": -3.14703540197715
        }
    },
    "waypoints": [
        {
            "positions": [
                -2.711696901376241,
                -0.6476975780787326,
                0.749534889911806,
                -0.07506478083263063,
                0.43296659715538205,
                -3.14703540197715
            ]
        },
        {
            "positions": [
                -2.758978948631777,
                -0.7112346674529585,
                0.7703927920511708,
                0.04621584586804482,
                0.4157322837954987,
                -3.0259339343308627
            ]
        },
        {
            "positions": [
                -2.8062609958873135,
                -0.7747717568271844,
                0.7912506941905356,
                0.16749647256872027,
                0.3984979704356154,
                -2.9048324666845753
            ]
        },
        {
            "positions": [
                -2.8535430431428495,
                -0.8383088462014102,
                0.8121085963299005,
                0.2887770992693957,
                0.38126365707573207,
                -2.7837309990382875
            ]
        },
        {
            "positions": [
                -2.9008250903983854,
                -0.9018459355756361,
                0.8329664984692653,
                0.4100577259700712,
                0.3640293437158487,
                -2.662629531392
            ]
        },
        {
            "positions": [
                -2.948107137653922,
                -0.9653830249498621,
                0.8538244006086302,
                0.5313383526707467,
                0.3467950303559654,
                -2.5415280637457127
            ]
        },
        {
            "positions": [
                -2.995389184909458,
                -1.0289201143240878,
                0.874682302747995,
                0.6526189793714221,
                0.3295607169960821,
                -2.4204265960994253
            ]
        },
        {
            "positions": [
                -3.042671232164994,
                -1.0924572036983138,
                0.8955402048873599,
                0.7738996060720975,
                0.31232640363619874,
                -2.2993251284531375
            ]
        },
        {
            "positions": [
                -3.08995327942053,
                -1.1559942930725398,
                0.9163981070267246,
                0.8951802327727729,
                0.29509209027631544,
                -2.17822366080685
            ]
        },
        {
            "positions": [
                -3.137235326676066,
                -1.2195313824467655,
                0.9372560091660895,
                1.0164608594734486,
                0.2778577769164321,
                -2.0571221931605628
            ]
        },
        {
            "positions": [
                -2.963414648067691,
                -1.2245591745894877,
                0.8371990871945434,
                1.041169447802044,
                0.2907761363785135,
                -1.9821900959390715
            ]
        },
        {
            "positions": [
                -2.7895939694593155,
                -1.22958696673221,
                0.7371421652229972,
                1.0658780361306395,
                0.303694495840595,
                -1.9072579987175804
            ]
        },
        {
            "positions": [
                -2.6157732908509406,
                -1.234614758874932,
                0.6370852432514511,
                1.0905866244592348,
                0.3166128553026764,
                -1.832325901496089
            ]
        },
        {
            "positions": [
                -2.441952612242565,
                -1.2396425510176543,
                0.537028321279905,
                1.1152952127878304,
                0.32953121476475783,
                -1.757393804274598
            ]
        },
        {
            "positions": [
                -2.26813193363419,
                -1.2446703431603767,
                0.43697139930835893,
                1.1400038011164257,
                0.3424495742268393,
                -1.6824617070531067
            ]
        },
        {
            "positions": [
                -2.094311255025815,
                -1.249698135303099,
                0.3369144773368128,
                1.1647123894450213,
                0.3553679336889207,
                -1.6075296098316154
            ]
        },
        {
            "positions": [
                -1.9204905764174394,
                -1.2547259274458211,
                0.23685755536526665,
                1.1894209777736167,
                0.36828629315100214,
                -1.5325975126101241
            ]
        },
        {
            "positions": [
                -1.7466698978090642,
                -1.2597537195885433,
                0.1368006333937205,
                1.214129566102212,
                0.38120465261308356,
                -1.457665415388633
            ]
        },
        {
            "positions": [
                -1.572849219200689,
                -1.2647815117312655,
                0.036743711422174474,
                1.2388381544308076,
                0.39412301207516504,
                -1.382733318167142
            ]
        },
        {
            "positions": [
                -1.3990285405923137,
                -1.2698093038739877,
                -0.06331321054937167,
                1.2635467427594032,
                0.4070413715372465,
                -1.3078012209456507
            ]
        },
        {
            "positions": [
                -1.2252078619839386,
                -1.27483709601671,
                -0.1633701325209178,
                1.2882553310879985,
                0.41995973099932793,
                -1.2328691237241594
            ]
        },
        {
            "positions": [
                -1.0513871833755637,
                -1.2798648881594321,
                -0.26342705449246395,
                1.3129639194165938,
                0.43287809046140935,
                -1.1579370265026683
            ]
        },
        {
            "positions": [
                -0.8775665047671879,
                -1.2848926803021545,
                -0.3634839764640101,
                1.3376725077451894,
                0.44579644992349077,
                -1.083004929281177
            ]
        },
        {
            "positions": [
                -0.7037458261588125,
                -1.2899204724448767,
                -0.46354089843555624,
                1.3623810960737848,
                0.45871480938557224,
                -1.0080728320596857
            ]
        },
        {
            "positions": [
                -0.5299251475504376,
                -1.294948264587599,
                -0.5635978204071024,
                1.3870896844023801,
                0.4716331688476536,
                -0.9331407348381946
            ]
        },
        {
            "positions": [
                -0.35610446894206227,
                -1.2999760567303211,
                -0.6636547423786485,
                1.4117982727309757,
                0.4845515283097351,
                -0.8582086376167033
            ]
        },
        {
            "positions": [
                -0.1822837903336869,
                -1.3050038488730433,
                -0.7637116643501947,
                1.4365068610595713,
                0.49746988777181655,
                -0.783276540395212
            ]
        },
        {
            "positions": [
                -0.008463111725312,
                -1.3100316410157655,
                -0.8637685863217406,
                1.4612154493881666,
                0.510388247233898,
                -0.7083444431737209
            ]
        },
        {
            "positions": [
                0.16535756688306336,
                -1.3150594331584877,
                -0.963825508293287,
                1.485924037716762,
                0.5233066066959794,
                -0.6334123459522298
            ]
        },
        {
            "positions": [
                0.3391782454914387,
                -1.32008722530121,
                -1.0638824302648329,
                1.5106326260453575,
                0.5362249661580609,
                -0.5584802487307385
            ]
        },
        {
            "positions": [
                0.5129989240998136,
                -1.3251150174439323,
                -1.163939352236379,
                1.5353412143739529,
                0.5491433256201423,
                -0.48354815150924746
            ]
        },
        {
            "positions": [
                0.686819602708189,
                -1.3301428095866545,
                -1.2639962742079252,
                1.5600498027025482,
                0.5620616850822238,
                -0.40861605428775616
            ]
        },
        {
            "positions": [
                0.8606402813165643,
                -1.3351706017293767,
                -1.3640531961794713,
                1.5847583910311438,
                0.5749800445443052,
                -0.33368395706626486
            ]
        },
        {
            "positions": [
                1.0344609599249388,
                -1.340198393872099,
                -1.4641101181510174,
                1.6094669793597394,
                0.5878984040063866,
                -0.2587518598447738
            ]
        },
        {
            "positions": [
                1.208281638533315,
                -1.3452261860148211,
                -1.5641670401225634,
                1.6341755676883347,
                0.600816763468468,
                -0.1838197626232826
            ]
        },
        {
            "positions": [
                1.0816969084596755,
                -1.429736990180077,
                -1.6398570193492406,
                1.6163592411514351,
                0.5624746504279787,
                -0.15801310177884656
            ]
        },
        {
            "positions": [
                0.9551121783860357,
                -1.514247794345333,
                -1.715546998575918,
                1.5985429146145356,
                0.5241325373874894,
                -0.13220644093441056
            ]
        },
        {
            "positions": [
                0.828527448312396,
                -1.5987585985105888,
                -1.7912369778025952,
                1.580726588077636,
                0.48579042434700015,
                -0.10639978008997454
            ]
        },
        {
            "positions": [
                0.7019427182387563,
                -1.6832694026758448,
                -1.8669269570292726,
                1.5629102615407364,
                0.44744831130651086,
                -0.08059311924553851
            ]
        },
        {
            "positions": [
                0.5753579881651166,
                -1.7677802068411006,
                -1.9426169362559498,
                1.5450939350038368,
                0.40910619826602157,
                -0.054786458401102495
            ]
        },
        {
            "positions": [
                0.44877325809147695,
                -1.8522910110063564,
                -2.018306915482627,
                1.5272776084669373,
                0.3707640852255323,
                -0.028979797556666492
            ]
        },
        {
            "positions": [
                0.32218852801783715,
                -1.9368018151716124,
                -2.093996894709304,
                1.5094612819300377,
                0.332421972185043,
                -0.003173136712230462
            ]
        },
        {
            "positions": [
                0.19560379794419758,
                -2.0213126193368685,
                -2.169686873935982,
                1.4916449553931381,
                0.2940798591445537,
                0.022633524132205568
            ]
        },
        {
            "positions": [
                0.06901906787055778,
                -2.1058234235021245,
                -2.245376853162659,
                1.4738286288562386,
                0.2557377461040644,
                0.04844018497664157
            ]
        },
        {
            "positions": [
                -0.05756566220308179,
                -2.19033422766738,
                -2.321066832389336,
                1.456012302319339,
                0.21739563306357512,
                0.0742468458210776
            ]
        },
        {
            "positions": [
                -0.1841503922767216,
                -2.274845031832636,
                -2.3967568116160134,
                1.4381959757824394,
                0.17905352002308586,
                0.10005350666551359
            ]
        }
    ]
}