{
    "goal": {
        "global_pose": {
            "orientation": {
                "w": 0.005598929693374612,
                "x": 0.007748599140229565,
                "y": 0.7110244013736278,
                "z": -0.7031023480610252
            },
            "position": {
                "x": 0.1141497679147869,
                "y": -0.7141253447532654,
                "z": 0.3711530566215515
            }
        },
        "name": "move_to_auspresseinheit_B"
    },
    "id": "BKPIECE_move_to_auspresseinheit_B_84",
    "joint_names": [
        "shoulder_pan_joint",
        "shoulder_lift_joint",
        "elbow_joint",
        "wrist_1_joint",
        "wrist_2_joint",
        "wrist_3_joint"
    ],
    "metrics": {
        "cart_traj_len": 0.5647473359676918,
        "distance_elbow_joint": 0.06401721825500073,
        "distance_shoulder_lift_joint": 0.2946995920911224,
        "distance_shoulder_pan_joint": 0.577304178507092,
        "distance_wrist_1_joint": 0.333337194458007,
        "distance_wrist_2_joint": 0.9931875395216023,
        "distance_wrist_3_joint": 0.0033624473734863436,
        "smoothness": 0.0,
        "time": 0.293555662,
        "traj_len": 1.5052933834327151,
        "weighted_distance": 1.8971446436507926
    },
    "planner": "BKPIECE",
    "start": {
        "state": {
            "elbow_joint": 2.0193083361928714,
            "shoulder_lift_joint": -1.1220246554650708,
            "shoulder_pan_joint": -1.0952077554168747,
            "wrist_1_joint": -0.8559753972642168,
            "wrist_2_joint": 0.4759566250798843,
            "wrist_3_joint": -3.1240929996934557
        }
    },
    "waypoints": [
        {
            "positions": [
                -1.0952077554168747,
                -1.1220246554650708,
                2.0193083361928714,
                -0.8559753972642168,
                0.4759566250798843,
                -3.1240929996934557
            ]
        },
        {
            "positions": [
                -1.19142511850139,
                -1.1711412541469246,
                2.008638799817038,
                -0.8004191981878823,
                0.641487881666818,
                -3.1235325917978747
            ]
        },
        {
            "positions": [
                -1.2876424815859053,
                -1.2202578528287782,
                1.9979692634412045,
                -0.7448629991115477,
                0.8070191382537517,
                -3.1229721839022937
            ]
        },
        {
            "positions": [
                -1.3838598446704207,
                -1.269374451510632,
                1.9872997270653712,
                -0.6893068000352133,
                0.9725503948406855,
                -3.1224117760067127
            ]
        },
        {
            "positions": [
                -1.480077207754936,
                -1.3184910501924858,
                1.9766301906895376,
                -0.6337506009588788,
                1.138081651427619,
                -3.1218513681111313
            ]
        },
        {
            "positions": [
                -1.5762945708394513,
                -1.3676076488743394,
                1.965960654313704,
                -0.5781944018825442,
                1.3036129080145529,
                -3.1212909602155503
            ]
        },
        {
            "positions": [
                -1.6725119339239667,
                -1.4167242475561932,
                1.9552911179378707,
                -0.5226382028062098,
                1.4691441646014867,
                -3.1207305523199693
            ]
        }
    ]
}