{
    "goal": {
        "global_pose": {
            "orientation": {
                "w": 0.5084816217422485,
                "x": -0.49083608388900757,
                "y": 0.5182115435600281,
                "z": -0.4816462993621826
            },
            "position": {
                "x": 0.5540239810943604,
                "y": 0.030875300988554955,
                "z": 0.16403168439865112
            }
        },
        "name": "move_to_storage_A"
    },
    "id": "BKPIECE_move_to_storage_A_143",
    "joint_names": [
        "shoulder_pan_joint",
        "shoulder_lift_joint",
        "elbow_joint",
        "wrist_1_joint",
        "wrist_2_joint",
        "wrist_3_joint"
    ],
    "metrics": {
        "cart_traj_len": 0.35256304611002387,
        "distance_elbow_joint": 0.45260429577701156,
        "distance_shoulder_lift_joint": 0.23373764493593208,
        "distance_shoulder_pan_joint": 0.4605046188480817,
        "distance_wrist_1_joint": 0.2575940425490656,
        "distance_wrist_2_joint": 1.0997830466225205,
        "distance_wrist_3_joint": 0.09890686130142434,
        "smoothness": 0.0,
        "time": 0.219198959,
        "traj_len": 1.613421987588503,
        "weighted_distance": 2.0391962440649185
    },
    "planner": "BKPIECE",
    "start": {
        "state": {
            "elbow_joint": 1.971548259319323,
            "shoulder_lift_joint": -1.1394851275133948,
            "shoulder_pan_joint": 0.1228115487234821,
            "wrist_1_joint": -0.7804723859257726,
            "wrist_2_joint": 0.12958671773740124,
            "wrist_3_joint": -3.192489227718131
        }
    },
    "waypoints": [
        {
            "positions": [
                0.1228115487234821,
                -1.1394851275133948,
                1.971548259319323,
                -0.7804723859257726,
                0.12958671773740124,
                -3.192489227718131
            ]
        },
        {
            "positions": [
                0.057025174602327575,
                -1.1728762196470994,
                2.036206015858896,
                -0.8172715348613534,
                0.28669858154061845,
                -3.178359676103642
            ]
        },
        {
            "positions": [
                -0.008761199518826951,
                -1.206267311780804,
                2.100863772398469,
                -0.8540706837969342,
                0.4438104453438356,
                -3.1642301244891526
            ]
        },
        {
            "positions": [
                -0.07454757363998146,
                -1.2396584039145087,
                2.1655215289380423,
                -0.890869832732515,
                0.6009223091470528,
                -3.1501005728746634
            ]
        },
        {
            "positions": [
                -0.140333947761136,
                -1.273049496048213,
                2.2301792854776155,
                -0.9276689816680959,
                0.7580341729502701,
                -3.1359710212601746
            ]
        },
        {
            "positions": [
                -0.20612032188229057,
                -1.3064405881819177,
                2.294837042017188,
                -0.9644681306036766,
                0.9151460367534874,
                -3.1218414696456853
            ]
        },
        {
            "positions": [
                -0.271906696003445,
                -1.3398316803156223,
                2.3594947985567614,
                -1.0012672795392574,
                1.0722579005567043,
                -3.107711918031196
            ]
        },
        {
            "positions": [
                -0.3376930701245996,
                -1.373222772449327,
                2.4241525550963345,
                -1.0380664284748382,
                1.2293697643599217,
                -3.093582366416707
            ]
        }
    ]
}{
    "goal": {
        "global_pose": {
            "orientation": {
                "w": 0.5084816217422485,
                "x": -0.49083608388900757,
                "y": 0.5182115435600281,
                "z": -0.4816462993621826
            },
            "position": {
                "x": 0.5540239810943604,
                "y": 0.030875300988554955,
                "z": 0.16403168439865112
            }
        },
        "name": "move_to_storage_A"
    },
    "id": "BKPIECE_move_to_storage_A_143",
    "joint_names": [
        "shoulder_pan_joint",
        "shoulder_lift_joint",
        "elbow_joint",
        "wrist_1_joint",
        "wrist_2_joint",
        "wrist_3_joint"
    ],
    "metrics": {
        "cart_traj_len": 0.35320169183577144,
        "distance_elbow_joint": 0.45022833846079857,
        "distance_shoulder_lift_joint": 0.23522624512279622,
        "distance_shoulder_pan_joint": 0.4631083916832141,
        "distance_wrist_1_joint": 0.23945858091385053,
        "distance_wrist_2_joint": 1.0944183352447026,
        "distance_wrist_3_joint": 0.09082576852727398,
        "smoothness": 2.2204460668324854e-16,
        "time": 0.161898831,
        "traj_len": 1.6041401621905225,
        "weighted_distance": 2.0220766833049972
    },
    "planner": "BKPIECE",
    "start": {
        "state": {
            "elbow_joint": 1.97154746011099,
            "shoulder_lift_joint": -1.13948474672311,
            "shoulder_pan_joint": 0.12281154466712228,
            "wrist_1_joint": -0.7804688027058302,
            "wrist_2_joint": 0.12958655903071145,
            "wrist_3_joint": 3.0906928834467795
        }
    },
    "waypoints": [
        {
            "positions": [
                0.12281154466712228,
                -1.13948474672311,
                1.97154746011099,
                -0.7804688027058302,
                0.12958655903071145,
                3.0906928834467795
            ]
        },
        {
            "positions": [
                0.056653202998091706,
                -1.1730884960263666,
                2.0358657941768183,
                -0.8146771714078088,
                0.2859320354942404,
                3.10366799323639
            ]
        },
        {
            "positions": [
                -0.00950513867093887,
                -1.2066922453296232,
                2.1001841282426468,
                -0.8488855401097875,
                0.4422775119577693,
                3.1166431030260004
            ]
        },
        {
            "positions": [
                -0.07566348033996946,
                -1.2402959946328798,
                2.164502462308475,
                -0.8830939088117661,
                0.5986229884212982,
                3.129618212815611
            ]
        },
        {
            "positions": [
                -0.141821822009,
                -1.2738997439361364,
                2.228820796374303,
                -0.9173022775137447,
                0.7549684648848272,
                3.142593322605222
            ]
        },
        {
            "positions": [
                -0.20798016367803063,
                -1.307503493239393,
                2.2931391304401316,
                -0.9515106462157235,
                0.9113139413483562,
                3.1555684323948325
            ]
        },
        {
            "positions": [
                -0.2741385053470612,
                -1.3411072425426496,
                2.35745746450596,
                -0.9857190149177021,
                1.067659417811885,
                3.168543542184443
            ]
        },
        {
            "positions": [
                -0.3402968470160918,
                -1.3747109918459062,
                2.4217757985717885,
                -1.0199273836196807,
                1.224004894275414,
                3.1815186519740535
            ]
        }
    ]
}{
    "goal": {
        "global_pose": {
            "orientation": {
                "w": 0.5084816217422485,
                "x": -0.49083608388900757,
                "y": 0.5182115435600281,
                "z": -0.4816462993621826
            },
            "position": {
                "x": 0.5540239810943604,
                "y": 0.030875300988554955,
                "z": 0.16403168439865112
            }
        },
        "name": "move_to_storage_A"
    },
    "id": "BKPIECE_move_to_storage_A_143",
    "joint_names": [
        "shoulder_pan_joint",
        "shoulder_lift_joint",
        "elbow_joint",
        "wrist_1_joint",
        "wrist_2_joint",
        "wrist_3_joint"
    ],
    "metrics": {
        "cart_traj_len": 0.35320514053534935,
        "distance_elbow_joint": 0.4492348755702218,
        "distance_shoulder_lift_joint": 0.2357630994794524,
        "distance_shoulder_pan_joint": 0.46363423557878436,
        "distance_wrist_1_joint": 0.23860645501057887,
        "distance_wrist_2_joint": 1.0919106105404062,
        "distance_wrist_3_joint": 0.08882574373717977,
        "smoothness": 4.440892098500626e-16,
        "time": 0.214328407,
        "traj_len": 1.602490255794594,
        "weighted_distance": 2.018946154047197
    },
    "planner": "BKPIECE",
    "start": {
        "state": {
            "elbow_joint": 1.9715472970024885,
            "shoulder_lift_joint": -1.1394870060712896,
            "shoulder_pan_joint": 0.12281152778156021,
            "wrist_1_joint": -0.780463741449964,
            "wrist_2_joint": 0.12958659822042276,
            "wrist_3_joint": 3.090690232415272
        }
    },
    "waypoints": [
        {
            "positions": [
                0.12281152778156021,
                -1.1394870060712896,
                1.9715472970024885,
                -0.780463741449964,
                0.12958659822042276,
                3.090690232415272
            ]
        },
        {
            "positions": [
                0.05657806555601959,
                -1.1731674488540684,
                2.0357237077982346,
                -0.8145503778800467,
                0.2855738282976236,
                3.1033796243777263
            ]
        },
        {
            "positions": [
                -0.009655396669521032,
                -1.2068478916368475,
                2.0999001185939803,
                -0.8486370143101294,
                0.4415610583748245,
                3.1160690163401803
            ]
        },
        {
            "positions": [
                -0.07588885889506164,
                -1.2405283344196263,
                2.1640765293897264,
                -0.8827236507402121,
                0.5975482884520253,
                3.1287584083026347
            ]
        },
        {
            "positions": [
                -0.14212232112060227,
                -1.2742087772024053,
                2.2282529401854725,
                -0.9168102871702948,
                0.7535355185292262,
                3.1414478002650887
            ]
        },
        {
            "positions": [
                -0.20835578334614294,
                -1.3078892199851841,
                2.2924293509812186,
                -0.9508969236003775,
                0.9095227486064271,
                3.154137192227543
            ]
        },
        {
            "positions": [
                -0.2745892455716835,
                -1.341569662767963,
                2.3566057617769642,
                -0.9849835600304602,
                1.065509978683628,
                3.166826584189997
            ]
        },
        {
            "positions": [
                -0.3408227077972241,
                -1.375250105550742,
                2.4207821725727103,
                -1.0190701964605429,
                1.221497208760829,
                3.1795159761524516
            ]
        }
    ]
}