{
    "goal": {
        "global_pose": {
            "orientation": {
                "w": 0.005598929693374612,
                "x": 0.007748599140229565,
                "y": 0.7110244013736278,
                "z": -0.7031023480610252
            },
            "position": {
                "x": 0.1141497679147869,
                "y": -0.7141253447532654,
                "z": 0.3711530566215515
            }
        },
        "name": "move_to_auspresseinheit_B"
    },
    "id": "BKPIECE_move_to_auspresseinheit_B_4",
    "joint_names": [
        "shoulder_pan_joint",
        "shoulder_lift_joint",
        "elbow_joint",
        "wrist_1_joint",
        "wrist_2_joint",
        "wrist_3_joint"
    ],
    "metrics": {
        "cart_traj_len": 0.5644697063433869,
        "distance_elbow_joint": 0.06126842600048277,
        "distance_shoulder_lift_joint": 0.29635856733511323,
        "distance_shoulder_pan_joint": 0.5774762749675177,
        "distance_wrist_1_joint": 0.3255058070244091,
        "distance_wrist_2_joint": 0.9910986267846245,
        "distance_wrist_3_joint": 0.007212113626680061,
        "smoothness": 2.5376526478085547e-16,
        "time": 0.227240824,
        "traj_len": 1.50297033095761,
        "weighted_distance": 1.8947159356487244
    },
    "planner": "BKPIECE",
    "start": {
        "state": {
            "elbow_joint": 2.0193083361928714,
            "shoulder_lift_joint": -1.1220246554650708,
            "shoulder_pan_joint": -1.0952077554168747,
            "wrist_1_joint": -0.8559753972642168,
            "wrist_2_joint": 0.4759566250798843,
            "wrist_3_joint": -3.1240929996934557
        }
    },
    "waypoints": [
        {
            "positions": [
                -1.0952077554168747,
                -1.1220246554650708,
                2.0193083361928714,
                -0.8559753972642168,
                0.4759566250798843,
                -3.1240929996934557
            ]
        },
        {
            "positions": [
                -1.1914538012447942,
                -1.171417750020923,
                2.0090969318594576,
                -0.8017244294268153,
                0.6411397295439883,
                -3.1228909807556757
            ]
        },
        {
            "positions": [
                -1.287699847072714,
                -1.2208108445767751,
                1.9988855275260438,
                -0.7474734615894137,
                0.8063228340080923,
                -3.121688961817896
            ]
        },
        {
            "positions": [
                -1.3839458929006336,
                -1.2702039391326274,
                1.98867412319263,
                -0.6932224937520122,
                0.9715059384721965,
                -3.120486942880116
            ]
        },
        {
            "positions": [
                -1.4801919387285531,
                -1.3195970336884797,
                1.9784627188592163,
                -0.6389715259146107,
                1.1366890429363006,
                -3.1192849239423355
            ]
        },
        {
            "positions": [
                -1.5764379845564727,
                -1.3689901282443317,
                1.9682513145258025,
                -0.5847205580772092,
                1.3018721474004047,
                -3.1180829050045555
            ]
        },
        {
            "positions": [
                -1.6726840303843924,
                -1.418383222800184,
                1.9580399101923887,
                -0.5304695902398077,
                1.4670552518645088,
                -3.1168808860667756
            ]
        }
    ]
}