{
    "goal": {
        "global_pose": {
            "orientation": {
                "w": 0.005598929693374612,
                "x": 0.007748599140229565,
                "y": 0.7110244013736278,
                "z": -0.7031023480610252
            },
            "position": {
                "x": 0.1141497679147869,
                "y": -0.7141253447532654,
                "z": 0.3711530566215515
            }
        },
        "name": "move_to_auspresseinheit_B"
    },
    "id": "BKPIECE_move_to_auspresseinheit_B_112",
    "joint_names": [
        "shoulder_pan_joint",
        "shoulder_lift_joint",
        "elbow_joint",
        "wrist_1_joint",
        "wrist_2_joint",
        "wrist_3_joint"
    ],
    "metrics": {
        "cart_traj_len": 0.5640925961820273,
        "distance_elbow_joint": 0.05986482348301725,
        "distance_shoulder_lift_joint": 0.29665049715713065,
        "distance_shoulder_pan_joint": 0.5779605039275222,
        "distance_wrist_1_joint": 0.32132326372510556,
        "distance_wrist_2_joint": 0.9864330582653063,
        "distance_wrist_3_joint": 0.0038336021985911906,
        "smoothness": 5.075305255429287e-16,
        "time": 0.17976852699999998,
        "traj_len": 1.498688009145557,
        "weighted_distance": 1.8871908422690766
    },
    "planner": "BKPIECE",
    "start": {
        "state": {
            "elbow_joint": 2.0193083361928714,
            "shoulder_lift_joint": -1.1220246554650708,
            "shoulder_pan_joint": -1.0952077554168747,
            "wrist_1_joint": -0.8559753972642168,
            "wrist_2_joint": 0.4759566250798843,
            "wrist_3_joint": -3.1240929996934557
        }
    },
    "waypoints": [
        {
            "positions": [
                -1.0952077554168747,
                -1.1220246554650708,
                2.0193083361928714,
                -0.8559753972642168,
                0.4759566250798843,
                -3.1240929996934557
            ]
        },
        {
            "positions": [
                -1.1915345060714617,
                -1.1714664049912593,
                2.0093308656123687,
                -0.8024215199766992,
                0.6403621347907686,
                -3.1234540659936902
            ]
        },
        {
            "positions": [
                -1.2878612567260488,
                -1.2209081545174476,
                1.9993533950318656,
                -0.7488676426891816,
                0.804767644501653,
                -3.1228151322939253
            ]
        },
        {
            "positions": [
                -1.3841880073806356,
                -1.2703499040436361,
                1.989375924451363,
                -0.695313765401664,
                0.9691731542125375,
                -3.1221761985941603
            ]
        },
        {
            "positions": [
                -1.4805147580352227,
                -1.3197916535698246,
                1.97939845387086,
                -0.6417598881141464,
                1.1335786639234218,
                -3.121537264894395
            ]
        },
        {
            "positions": [
                -1.5768415086898098,
                -1.369233403096013,
                1.969420983290357,
                -0.5882060108266288,
                1.2979841736343063,
                -3.1208983311946294
            ]
        },
        {
            "positions": [
                -1.6731682593443968,
                -1.4186751526222015,
                1.9594435127098542,
                -0.5346521335391112,
                1.4623896833451906,
                -3.1202593974948645
            ]
        }
    ]
}