{
    "goal": {
        "global_pose": {
            "orientation": {
                "w": 0.005598929693374612,
                "x": 0.007748599140229565,
                "y": 0.7110244013736278,
                "z": -0.7031023480610252
            },
            "position": {
                "x": 0.1141497679147869,
                "y": -0.7141253447532654,
                "z": 0.3711530566215515
            }
        },
        "name": "move_to_auspresseinheit_B"
    },
    "id": "BKPIECE_move_to_auspresseinheit_B_105",
    "joint_names": [
        "shoulder_pan_joint",
        "shoulder_lift_joint",
        "elbow_joint",
        "wrist_1_joint",
        "wrist_2_joint",
        "wrist_3_joint"
    ],
    "metrics": {
        "cart_traj_len": 0.5651694329145982,
        "distance_elbow_joint": 0.06530882060407972,
        "distance_shoulder_lift_joint": 0.29486734653374547,
        "distance_shoulder_pan_joint": 0.5778706480221651,
        "distance_wrist_1_joint": 0.33908912142338843,
        "distance_wrist_2_joint": 0.9933534873857075,
        "distance_wrist_3_joint": 0.006547394339698531,
        "smoothness": 3.806478935924272e-16,
        "time": 0.324895053,
        "traj_len": 1.5089853605349473,
        "weighted_distance": 1.9033061277149501
    },
    "planner": "BKPIECE",
    "start": {
        "state": {
            "elbow_joint": 2.0193083361928714,
            "shoulder_lift_joint": -1.1220246554650708,
            "shoulder_pan_joint": -1.0952077554168747,
            "wrist_1_joint": -0.8559753972642168,
            "wrist_2_joint": 0.4759566250798843,
            "wrist_3_joint": -3.1240929996934557
        }
    },
    "waypoints": [
        {
            "positions": [
                -1.0952077554168747,
                -1.1220246554650708,
                2.0193083361928714,
                -0.8559753972642168,
                0.4759566250798843,
                -3.1240929996934557
            ]
        },
        {
            "positions": [
                -1.1915195300872354,
                -1.171169213220695,
                2.008423532758858,
                -0.799460543693652,
                0.6415155396441689,
                -3.123001767303506
            ]
        },
        {
            "positions": [
                -1.2878313047575964,
                -1.2203137709763192,
                1.9975387293248448,
                -0.7429456901230873,
                0.8070744542084534,
                -3.1219105349135563
            ]
        },
        {
            "positions": [
                -1.3841430794279572,
                -1.2694583287319436,
                1.9866539258908316,
                -0.6864308365525226,
                0.972633368772738,
                -3.120819302523606
            ]
        },
        {
            "positions": [
                -1.480454854098318,
                -1.3186028864875678,
                1.9757691224568183,
                -0.6299159829819578,
                1.1381922833370226,
                -3.1197280701336565
            ]
        },
        {
            "positions": [
                -1.576766628768679,
                -1.367747444243192,
                1.964884319022805,
                -0.5734011294113931,
                1.3037511979013072,
                -3.118636837743707
            ]
        },
        {
            "positions": [
                -1.6730784034390398,
                -1.4168920019988163,
                1.9539995155887917,
                -0.5168862758408284,
                1.4693101124655918,
                -3.117545605353757
            ]
        }
    ]
}