{
    "goal": {
        "global_pose": {
            "orientation": {
                "w": 0.005598929693374612,
                "x": 0.007748599140229565,
                "y": 0.7110244013736278,
                "z": -0.7031023480610252
            },
            "position": {
                "x": 0.1141497679147869,
                "y": -0.7141253447532654,
                "z": 0.3711530566215515
            }
        },
        "name": "move_to_auspresseinheit_B"
    },
    "id": "BKPIECE_move_to_auspresseinheit_B_60",
    "joint_names": [
        "shoulder_pan_joint",
        "shoulder_lift_joint",
        "elbow_joint",
        "wrist_1_joint",
        "wrist_2_joint",
        "wrist_3_joint"
    ],
    "metrics": {
        "cart_traj_len": 0.5650513179196457,
        "distance_elbow_joint": 0.06574729761761544,
        "distance_shoulder_lift_joint": 0.2935064222683157,
        "distance_shoulder_pan_joint": 0.5775329548004744,
        "distance_wrist_1_joint": 0.3382301972702352,
        "distance_wrist_2_joint": 0.9938435308836198,
        "distance_wrist_3_joint": 0.010289975444408128,
        "smoothness": 3.806478935924272e-16,
        "time": 0.162459898,
        "traj_len": 1.5096855229764472,
        "weighted_distance": 1.9057292717821543
    },
    "planner": "BKPIECE",
    "start": {
        "state": {
            "elbow_joint": 2.0193083361928714,
            "shoulder_lift_joint": -1.1220246554650708,
            "shoulder_pan_joint": -1.0952077554168747,
            "wrist_1_joint": -0.8559753972642168,
            "wrist_2_joint": 0.4759566250798843,
            "wrist_3_joint": -3.1240929996934557
        }
    },
    "waypoints": [
        {
            "positions": [
                -1.0952077554168747,
                -1.1220246554650708,
                2.0193083361928714,
                -0.8559753972642168,
                0.4759566250798843,
                -3.1240929996934557
            ]
        },
        {
            "positions": [
                -1.1914632478836205,
                -1.1709423925097902,
                2.008350453256602,
                -0.7996036977191776,
                0.6415972135604876,
                -3.125807995600857
            ]
        },
        {
            "positions": [
                -1.287718740350366,
                -1.2198601295545093,
                1.997392570320333,
                -0.7432319981741384,
                0.8072378020410909,
                -3.1275229915082585
            ]
        },
        {
            "positions": [
                -1.3839742328171118,
                -1.2687778665992286,
                1.9864346873840637,
                -0.6868602986290993,
                0.9728783905216942,
                -3.1292379874156597
            ]
        },
        {
            "positions": [
                -1.4802297252838574,
                -1.317695603643948,
                1.9754768044477944,
                -0.6304885990840601,
                1.1385189790022974,
                -3.130952983323061
            ]
        },
        {
            "positions": [
                -1.5764852177506032,
                -1.3666133406886671,
                1.9645189215115253,
                -0.5741168995390208,
                1.3041595674829007,
                -3.1326679792304626
            ]
        },
        {
            "positions": [
                -1.672740710217349,
                -1.4155310777333865,
                1.953561038575256,
                -0.5177451999939816,
                1.469800155963504,
                -3.134382975137864
            ]
        }
    ]
}