{
    "goal": {
        "global_pose": {
            "orientation": {
                "w": 0.7031023480610252,
                "x": -0.7110244013736278,
                "y": 0.0077485991402295624,
                "z": 0.005598929693374583
            },
            "position": {
                "x": -0.8841497679147869,
                "y": 0.44412534475326537,
                "z": 0.3711530566215515
            }
        },
        "name": "move_to_auspresseinheit_D"
    },
    "id": "BKPIECE_move_to_auspresseinheit_D_120",
    "joint_names": [
        "shoulder_pan_joint",
        "shoulder_lift_joint",
        "elbow_joint",
        "wrist_1_joint",
        "wrist_2_joint",
        "wrist_3_joint"
    ],
    "metrics": {
        "cart_traj_len": 0.3428656646993695,
        "distance_elbow_joint": 0.6303024876125647,
        "distance_shoulder_lift_joint": 0.11682307437066086,
        "distance_shoulder_pan_joint": 0.13430916526265174,
        "distance_wrist_1_joint": 0.5105436078187315,
        "distance_wrist_2_joint": 1.4376363482464478,
        "distance_wrist_3_joint": 0.023575315620153692,
        "smoothness": 0.0,
        "time": 0.169566086,
        "traj_len": 1.6891388335276678,
        "weighted_distance": 2.201935645344045
    },
    "planner": "BKPIECE",
    "start": {
        "state": {
            "elbow_joint": -1.8275523626775212,
            "shoulder_lift_joint": -2.126789852344167,
            "shoulder_pan_joint": -0.03513704404078235,
            "wrist_1_joint": -2.347782403156801,
            "wrist_2_joint": -1.6058999987535132,
            "wrist_3_joint": -3.0880379163319196
        }
    },
    "waypoints": [
        {
            "positions": [
                -0.03513704404078235,
                -2.126789852344167,
                -1.8275523626775212,
                -2.347782403156801,
                -1.6058999987535132,
                -3.0880379163319196
            ]
        },
        {
            "positions": [
                -0.05192568969861382,
                -2.1413927366404995,
                -1.7487645517259507,
                -2.4116003541341424,
                -1.4261954552227072,
                -3.0909848307844388
            ]
        },
        {
            "positions": [
                -0.06871433535644528,
                -2.155995620936832,
                -1.66997674077438,
                -2.475418305111484,
                -1.2464909116919012,
                -3.093931745236958
            ]
        },
        {
            "positions": [
                -0.08550298101427675,
                -2.1705985052331647,
                -1.5911889298228095,
                -2.539236256088825,
                -1.0667863681610954,
                -3.096878659689477
            ]
        },
        {
            "positions": [
                -0.10229162667210823,
                -2.1852013895294973,
                -1.5124011188712387,
                -2.6030542070661666,
                -0.8870818246302893,
                -3.099825574141996
            ]
        },
        {
            "positions": [
                -0.1190802723299397,
                -2.19980427382583,
                -1.4336133079196682,
                -2.666872158043508,
                -0.7073772810994833,
                -3.102772488594516
            ]
        },
        {
            "positions": [
                -0.13586891798777115,
                -2.2144071581221625,
                -1.3548254969680977,
                -2.7306901090208493,
                -0.5276727375686774,
                -3.105719403047035
            ]
        },
        {
            "positions": [
                -0.15265756364560262,
                -2.229010042418495,
                -1.2760376860165272,
                -2.794508059998191,
                -0.3479681940378714,
                -3.108666317499554
            ]
        },
        {
            "positions": [
                -0.1694462093034341,
                -2.2436129267148277,
                -1.1972498750649565,
                -2.8583260109755324,
                -0.1682636505070654,
                -3.1116132319520733
            ]
        }
    ]
}