{
    "goal": {
        "global_pose": {
            "orientation": {
                "w": 0.5084816217422485,
                "x": -0.49083608388900757,
                "y": 0.5182115435600281,
                "z": -0.4816462993621826
            },
            "position": {
                "x": 0.5540239810943604,
                "y": 0.030875300988554955,
                "z": 0.16403168439865112
            }
        },
        "name": "move_to_storage_A"
    },
    "id": "BKPIECE_move_to_storage_A_133",
    "joint_names": [
        "shoulder_pan_joint",
        "shoulder_lift_joint",
        "elbow_joint",
        "wrist_1_joint",
        "wrist_2_joint",
        "wrist_3_joint"
    ],
    "metrics": {
        "cart_traj_len": 0.3533883072495047,
        "distance_elbow_joint": 0.44994462782108413,
        "distance_shoulder_lift_joint": 0.23442450101278967,
        "distance_shoulder_pan_joint": 0.46412332965296543,
        "distance_wrist_1_joint": 0.2441483951180362,
        "distance_wrist_2_joint": 1.090528452478489,
        "distance_wrist_3_joint": 0.10547306983576377,
        "smoothness": 0.0,
        "time": 0.37558205100000003,
        "traj_len": 1.6089258453760784,
        "weighted_distance": 2.033289296481733
    },
    "planner": "BKPIECE",
    "start": {
        "state": {
            "elbow_joint": 1.971548259319323,
            "shoulder_lift_joint": -1.1394851275133948,
            "shoulder_pan_joint": 0.1228115487234821,
            "wrist_1_joint": -0.7804723859257726,
            "wrist_2_joint": 0.12958671773740124,
            "wrist_3_joint": -3.192489227718131
        }
    },
    "waypoints": [
        {
            "positions": [
                0.1228115487234821,
                -1.1394851275133948,
                1.971548259319323,
                -0.7804723859257726,
                0.12958671773740124,
                -3.192489227718131
            ]
        },
        {
            "positions": [
                0.05650821591591561,
                -1.1729743419437932,
                2.0358260632937637,
                -0.815350728085492,
                0.28537649666289966,
                -3.177421646313022
            ]
        },
        {
            "positions": [
                -0.009795116891650885,
                -1.206463556374192,
                2.100103867268204,
                -0.8502290702452115,
                0.44116627558839805,
                -3.162354064907913
            ]
        },
        {
            "positions": [
                -0.07609844969921736,
                -1.2399527708045903,
                2.1643816712426447,
                -0.885107412404931,
                0.5969560545138966,
                -3.147286483502804
            ]
        },
        {
            "positions": [
                -0.14240178250678387,
                -1.273441985234989,
                2.228659475217085,
                -0.9199857545646505,
                0.7527458334393949,
                -3.1322189020976947
            ]
        },
        {
            "positions": [
                -0.20870511531435038,
                -1.3069311996653874,
                2.292937279191526,
                -0.9548640967243699,
                0.9085356123648934,
                -3.1171513206925856
            ]
        },
        {
            "positions": [
                -0.2750084481219168,
                -1.340420414095786,
                2.3572150831659666,
                -0.9897424388840894,
                1.0643253912903918,
                -3.1020837392874765
            ]
        },
        {
            "positions": [
                -0.34131178092948333,
                -1.3739096285261845,
                2.421492887140407,
                -1.0246207810438088,
                1.2201151702158903,
                -3.0870161578823674
            ]
        }
    ]
}{
    "goal": {
        "global_pose": {
            "orientation": {
                "w": 0.5084816217422485,
                "x": -0.49083608388900757,
                "y": 0.5182115435600281,
                "z": -0.4816462993621826
            },
            "position": {
                "x": 0.5540239810943604,
                "y": 0.030875300988554955,
                "z": 0.16403168439865112
            }
        },
        "name": "move_to_storage_A"
    },
    "id": "BKPIECE_move_to_storage_A_133",
    "joint_names": [
        "shoulder_pan_joint",
        "shoulder_lift_joint",
        "elbow_joint",
        "wrist_1_joint",
        "wrist_2_joint",
        "wrist_3_joint"
    ],
    "metrics": {
        "cart_traj_len": 0.3537763066883346,
        "distance_elbow_joint": 0.4488443320295623,
        "distance_shoulder_lift_joint": 0.2361960446914002,
        "distance_shoulder_pan_joint": 0.46130744245150357,
        "distance_wrist_1_joint": 0.23355903046701143,
        "distance_wrist_2_joint": 1.106714470488565,
        "distance_wrist_3_joint": 0.09180364522541096,
        "smoothness": 8.881784197001252e-16,
        "time": 0.351536707,
        "traj_len": 1.6057474787006372,
        "weighted_distance": 2.0254149591527786
    },
    "planner": "BKPIECE",
    "start": {
        "state": {
            "elbow_joint": 1.97154746011099,
            "shoulder_lift_joint": -1.13948474672311,
            "shoulder_pan_joint": 0.12281154466712228,
            "wrist_1_joint": -0.7804688027058302,
            "wrist_2_joint": 0.12958655903071145,
            "wrist_3_joint": 3.0906928834467795
        }
    },
    "waypoints": [
        {
            "positions": [
                0.12281154466712228,
                -1.13948474672311,
                1.97154746011099,
                -0.7804688027058302,
                0.12958655903071145,
                3.0906928834467795
            ]
        },
        {
            "positions": [
                0.05691048145976463,
                -1.1732270388218815,
                2.035668078972356,
                -0.8138343784868318,
                0.28768862624336355,
                3.1038076899075526
            ]
        },
        {
            "positions": [
                -0.008990581747593027,
                -1.2069693309206528,
                2.099788697833722,
                -0.8471999542678335,
                0.44579069345601574,
                3.1169224963683253
            ]
        },
        {
            "positions": [
                -0.07489164495495067,
                -1.2407116230194244,
                2.1639093166950882,
                -0.8805655300488351,
                0.6038927606686678,
                3.1300373028290984
            ]
        },
        {
            "positions": [
                -0.14079270816230832,
                -1.2744539151181957,
                2.228029935556454,
                -0.9139311058298367,
                0.76199482788132,
                3.1431521092898715
            ]
        },
        {
            "positions": [
                -0.206693771369666,
                -1.3081962072169673,
                2.29215055441782,
                -0.9472966816108384,
                0.9200968950939722,
                3.1562669157506447
            ]
        },
        {
            "positions": [
                -0.2725948345770236,
                -1.3419384993157386,
                2.356271173279186,
                -0.98066225739184,
                1.0781989623066242,
                3.1693817222114173
            ]
        },
        {
            "positions": [
                -0.33849589778438127,
                -1.3756807914145102,
                2.4203917921405522,
                -1.0140278331728416,
                1.2363010295192765,
                3.1824965286721905
            ]
        }
    ]
}{
    "goal": {
        "global_pose": {
            "orientation": {
                "w": 0.5084816217422485,
                "x": -0.49083608388900757,
                "y": 0.5182115435600281,
                "z": -0.4816462993621826
            },
            "position": {
                "x": 0.5540239810943604,
                "y": 0.030875300988554955,
                "z": 0.16403168439865112
            }
        },
        "name": "move_to_storage_A"
    },
    "id": "BKPIECE_move_to_storage_A_133",
    "joint_names": [
        "shoulder_pan_joint",
        "shoulder_lift_joint",
        "elbow_joint",
        "wrist_1_joint",
        "wrist_2_joint",
        "wrist_3_joint"
    ],
    "metrics": {
        "cart_traj_len": 0.3526311757273,
        "distance_elbow_joint": 0.44964511234321414,
        "distance_shoulder_lift_joint": 0.23623936040354843,
        "distance_shoulder_pan_joint": 0.46192300385738055,
        "distance_wrist_1_joint": 0.24007761586011456,
        "distance_wrist_2_joint": 1.095217713276183,
        "distance_wrist_3_joint": 0.09476620612796571,
        "smoothness": 4.440892098500626e-16,
        "time": 0.210306954,
        "traj_len": 1.6055743557582147,
        "weighted_distance": 2.0255114794196145
    },
    "planner": "BKPIECE",
    "start": {
        "state": {
            "elbow_joint": 1.9715472970024885,
            "shoulder_lift_joint": -1.1394870060712896,
            "shoulder_pan_joint": 0.12281152778156021,
            "wrist_1_joint": -0.780463741449964,
            "wrist_2_joint": 0.12958659822042276,
            "wrist_3_joint": 3.090690232415272
        }
    },
    "waypoints": [
        {
            "positions": [
                0.12281152778156021,
                -1.1394870060712896,
                1.9715472970024885,
                -0.780463741449964,
                0.12958659822042276,
                3.090690232415272
            ]
        },
        {
            "positions": [
                0.05682252723050586,
                -1.1732354861289394,
                2.035782313051519,
                -0.8147605437156946,
                0.2860462715455917,
                3.104228261862124
            ]
        },
        {
            "positions": [
                -0.009166473320548485,
                -1.206983966186589,
                2.1000173291005497,
                -0.8490573459814252,
                0.44250594487076067,
                3.1177662913089765
            ]
        },
        {
            "positions": [
                -0.07515547387160285,
                -1.2407324462442388,
                2.1642523451495803,
                -0.883354148247156,
                0.5989656181959296,
                3.1313043207558287
            ]
        },
        {
            "positions": [
                -0.14114447442265718,
                -1.2744809263018886,
                2.228487361198611,
                -0.9176509505128866,
                0.7554252915210986,
                3.1448423502026808
            ]
        },
        {
            "positions": [
                -0.20713347497371157,
                -1.3082294063595385,
                2.2927223772476415,
                -0.9519477527786173,
                0.9118849648462677,
                3.158380379649533
            ]
        },
        {
            "positions": [
                -0.2731224755247659,
                -1.3419778864171883,
                2.356957393296672,
                -0.9862445550443479,
                1.0683446381714365,
                3.1719184090963854
            ]
        },
        {
            "positions": [
                -0.3391114760758203,
                -1.375726366474838,
                2.4211924093457027,
                -1.0205413573100786,
                1.2248043114966056,
                3.1854564385432376
            ]
        }
    ]
}