{
    "goal": {
        "global_pose": {
            "orientation": {
                "w": -0.00223480608172531,
                "x": 0.0024358444001904467,
                "y": 0.7094548369677653,
                "z": -0.704743149386269
            },
            "position": {
                "x": 0.6205249238014221,
                "y": -0.6371506643295288,
                "z": 0.19426114857196808
            }
        },
        "name": "move_to_magneteinheit_B"
    },
    "id": "BKPIECE_move_to_magneteinheit_B_97",
    "joint_names": [
        "shoulder_pan_joint",
        "shoulder_lift_joint",
        "elbow_joint",
        "wrist_1_joint",
        "wrist_2_joint",
        "wrist_3_joint"
    ],
    "metrics": {
        "cart_traj_len": 3.2512466849304364,
        "distance_elbow_joint": 4.875051989914219,
        "distance_shoulder_lift_joint": 1.0617428833202585,
        "distance_shoulder_pan_joint": 2.8114237325433646,
        "distance_wrist_1_joint": 1.7056187644525687,
        "distance_wrist_2_joint": 1.186067509931049,
        "distance_wrist_3_joint": 1.4702759550494497,
        "smoothness": 0.5547654669587695,
        "time": 0.25370877199999997,
        "traj_len": 3.6207983698641533,
        "weighted_distance": 4.352288940281128
    },
    "planner": "BKPIECE",
    "start": {
        "state": {
            "elbow_joint": 2.6216224122426386,
            "shoulder_lift_joint": -1.4174107377796124,
            "shoulder_pan_joint": 0.7066234856936794,
            "wrist_1_joint": 1.9546482284002225,
            "wrist_2_joint": -0.7096286983471962,
            "wrist_3_joint": 0.005740856962016249
        }
    },
    "waypoints": [
        {
            "positions": [
                0.7066234856936794,
                -1.4174107377796124,
                2.6216224122426386,
                1.9546482284002225,
                -0.7096286983471962,
                0.005740856962016249
            ]
        },
        {
            "positions": [
                0.6936558709524472,
                -1.447338701475752,
                2.57421709446058,
                1.8714553401539793,
                -0.7121301266083415,
                0.04007609713719502
            ]
        },
        {
            "positions": [
                0.6806882562112151,
                -1.4772666651718915,
                2.5268117766785214,
                1.7882624519077361,
                -0.7146315548694867,
                0.07441133731237379
            ]
        },
        {
            "positions": [
                0.6553252844068316,
                -1.5212239956616587,
                2.4411425369297266,
                1.6375243234994183,
                -0.7127928345336545,
                0.12445566436126512
            ]
        },
        {
            "positions": [
                0.6299623126024482,
                -1.5651813261514258,
                2.3554732971809313,
                1.4867861950911005,
                -0.7109541141978224,
                0.17449999141015649
            ]
        },
        {
            "positions": [
                0.6045993407980648,
                -1.6091386566411932,
                2.269804057432136,
                1.3360480666827828,
                -0.7091153938619902,
                0.22454431845904782
            ]
        },
        {
            "positions": [
                0.5792363689936812,
                -1.6530959871309603,
                2.1841348176833413,
                1.185309938274465,
                -0.707276673526158,
                0.27458864550793916
            ]
        },
        {
            "positions": [
                0.6828542365040143,
                -1.669712673609613,
                2.003978613061121,
                1.2014206310598532,
                -0.661884422034914,
                0.24279937297116233
            ]
        },
        {
            "positions": [
                0.7864721040143474,
                -1.6863293600882658,
                1.823822408438901,
                1.2175313238452412,
                -0.61649217054367,
                0.2110101004343855
            ]
        },
        {
            "positions": [
                0.8900899715246806,
                -1.7029460465669186,
                1.643666203816681,
                1.2336420166306294,
                -0.571099919052426,
                0.17922082789760868
            ]
        },
        {
            "positions": [
                0.9937078390350137,
                -1.7195627330455716,
                1.4635099991944607,
                1.2497527094160175,
                -0.525707667561182,
                0.14743155536083186
            ]
        },
        {
            "positions": [
                1.0973257065453468,
                -1.7361794195242244,
                1.2833537945722406,
                1.2658634022014057,
                -0.48031541606993805,
                0.11564228282405506
            ]
        },
        {
            "positions": [
                1.20094357405568,
                -1.7527961060028772,
                1.1031975899500206,
                1.281974094986794,
                -0.43492316457869407,
                0.08385301028727823
            ]
        },
        {
            "positions": [
                1.3045614415660132,
                -1.76941279248153,
                0.9230413853278003,
                1.298084787772182,
                -0.38953091308745,
                0.05206373775050138
            ]
        },
        {
            "positions": [
                1.4081793090763461,
                -1.7860294789601827,
                0.7428851807055803,
                1.3141954805575702,
                -0.3441386615962061,
                0.020274465213724557
            ]
        },
        {
            "positions": [
                1.5117971765866793,
                -1.8026461654388357,
                0.56272897608336,
                1.3303061733429584,
                -0.29874641010496206,
                -0.011514807323052267
            ]
        },
        {
            "positions": [
                1.6154150440970123,
                -1.8192628519174885,
                0.38257277146114,
                1.3464168661283464,
                -0.25335415861371813,
                -0.04330407985982904
            ]
        },
        {
            "positions": [
                1.7190329116073455,
                -1.8358795383961413,
                0.20241656683891973,
                1.3625275589137347,
                -0.2079619071224741,
                -0.07509335239660592
            ]
        },
        {
            "positions": [
                1.8226507791176787,
                -1.852496224874794,
                0.022260362216699914,
                1.3786382516991227,
                -0.16256965563123016,
                -0.10688262493338269
            ]
        },
        {
            "positions": [
                1.9262686466280117,
                -1.8691129113534468,
                -0.15789584240552035,
                1.394748944484511,
                -0.11717740413998623,
                -0.1386718974701595
            ]
        },
        {
            "positions": [
                2.029886514138345,
                -1.8857295978320998,
                -0.3380520470277406,
                1.4108596372698992,
                -0.07178515264874208,
                -0.1704611700069364
            ]
        },
        {
            "positions": [
                2.1335043816486783,
                -1.9023462843107526,
                -0.5182082516499609,
                1.4269703300552872,
                -0.02639290115749815,
                -0.20225044254371316
            ]
        },
        {
            "positions": [
                2.237122249159011,
                -1.9189629707894054,
                -0.6983644562721807,
                1.4430810228406754,
                0.01899935033374578,
                -0.23403971508049004
            ]
        },
        {
            "positions": [
                2.3407401166693442,
                -1.9355796572680581,
                -0.8785206608944005,
                1.4591917156260634,
                0.06439160182498971,
                -0.2658289876172668
            ]
        },
        {
            "positions": [
                2.4443579841796774,
                -1.952196343746711,
                -1.0586768655166212,
                1.4753024084114517,
                0.10978385331623386,
                -0.2976182601540437
            ]
        },
        {
            "positions": [
                2.54797585169001,
                -1.9688130302253637,
                -1.238833070138841,
                1.49141310119684,
                0.1551761048074778,
                -0.32940753269082046
            ]
        },
        {
            "positions": [
                2.6515937192003434,
                -1.9854297167040165,
                -1.4189892747610613,
                1.507523793982228,
                0.20056835629872172,
                -0.36119680522759723
            ]
        },
        {
            "positions": [
                2.7552115867106766,
                -2.0020464031826695,
                -1.599145479383281,
                1.5236344867676161,
                0.24596060778996565,
                -0.3929860777643741
            ]
        },
        {
            "positions": [
                2.8588294542210098,
                -2.018663089661322,
                -1.7793016840055018,
                1.5397451795530044,
                0.2913528592812098,
                -0.424775350301151
            ]
        },
        {
            "positions": [
                2.962447321731343,
                -2.035279776139975,
                -1.959457888627722,
                1.5558558723383924,
                0.3367451107724536,
                -0.45656462283792776
            ]
        },
        {
            "positions": [
                2.9123097112137257,
                -2.109258750299958,
                -1.9104626071204127,
                1.4615667822945784,
                0.35835977540025676,
                -0.37818547314498446
            ]
        },
        {
            "positions": [
                2.862172100696108,
                -2.18323772445994,
                -1.8614673256131034,
                1.3672776922507646,
                0.37997444002805986,
                -0.29980632345204117
            ]
        },
        {
            "positions": [
                2.8120344901784904,
                -2.257216698619923,
                -1.8124720441057938,
                1.2729886022069505,
                0.401589104655863,
                -0.22142717375909785
            ]
        },
        {
            "positions": [
                2.761896879660873,
                -2.3311956727799057,
                -1.7634767625984844,
                1.1786995121631367,
                0.4232037692836661,
                -0.14304802406615458
            ]
        },
        {
            "positions": [
                2.711759269143256,
                -2.405174646939888,
                -1.714481481091175,
                1.0844104221193227,
                0.44481843391146925,
                -0.06466887437321123
            ]
        },
        {
            "positions": [
                2.6616216586256383,
                -2.479153621099871,
                -1.6654861995838657,
                0.9901213320755088,
                0.4664330985392724,
                0.01371027531973209
            ]
        }
    ]
}