{
    "goal": {
        "global_pose": {
            "orientation": {
                "w": 0.7047431468963623,
                "x": -0.7094548344612122,
                "y": 0.0024358443915843964,
                "z": -0.0022348060738295317
            },
            "position": {
                "x": 0.6094750761985779,
                "y": 0.3671506643295288,
                "z": 0.19426114857196808
            }
        },
        "name": "move_to_magneteinheit_A"
    },
    "id": "BKPIECE_move_to_magneteinheit_A_15",
    "joint_names": [
        "shoulder_pan_joint",
        "shoulder_lift_joint",
        "elbow_joint",
        "wrist_1_joint",
        "wrist_2_joint",
        "wrist_3_joint"
    ],
    "metrics": {
        "cart_traj_len": 3.0335171259413714,
        "distance_elbow_joint": 3.921802811257865,
        "distance_shoulder_lift_joint": 0.46228963215426366,
        "distance_shoulder_pan_joint": 2.843820628122415,
        "distance_wrist_1_joint": 3.4908357496922564,
        "distance_wrist_2_joint": 1.431260244516103,
        "distance_wrist_3_joint": 0.990827616902519,
        "smoothness": 0.09848575619237059,
        "time": 0.337778989,
        "traj_len": 3.6250291974886797,
        "weighted_distance": 4.47711825962402
    },
    "planner": "BKPIECE",
    "start": {
        "state": {
            "elbow_joint": -1.9196185241190666,
            "shoulder_lift_joint": -1.2443396400964142,
            "shoulder_pan_joint": 2.6996025414629847,
            "wrist_1_joint": -1.5485510000780065,
            "wrist_2_joint": -1.5709468930060704,
            "wrist_3_joint": 0.4420197071253992
        }
    },
    "waypoints": [
        {
            "positions": [
                2.6996025414629847,
                -1.2443396400964142,
                -1.9196185241190666,
                -1.5485510000780065,
                -1.5709468930060704,
                0.4420197071253992
            ]
        },
        {
            "positions": [
                2.604785266496286,
                -1.2437956983193423,
                -1.7975038009646709,
                -1.4412722688880557,
                -1.5306797168705595,
                0.41605288587558076
            ]
        },
        {
            "positions": [
                2.509967991529588,
                -1.2432517565422707,
                -1.6753890778102751,
                -1.333993537698105,
                -1.4904125407350486,
                0.3900860646257624
            ]
        },
        {
            "positions": [
                2.415150716562889,
                -1.2427078147651989,
                -1.5532743546558794,
                -1.2267148065081541,
                -1.4501453645995377,
                0.364119243375944
            ]
        },
        {
            "positions": [
                2.320333441596191,
                -1.2421638729881272,
                -1.4311596315014836,
                -1.1194360753182033,
                -1.409878188464027,
                0.3381524221261256
            ]
        },
        {
            "positions": [
                2.2255161666294923,
                -1.2416199312110554,
                -1.3090449083470879,
                -1.0121573441282523,
                -1.369611012328516,
                0.3121856008763072
            ]
        },
        {
            "positions": [
                2.130698891662794,
                -1.2410759894339836,
                -1.1869301851926921,
                -0.9048786129383016,
                -1.3293438361930052,
                0.2862187796264888
            ]
        },
        {
            "positions": [
                2.0358816166960954,
                -1.240532047656912,
                -1.0648154620382964,
                -0.7975998817483508,
                -1.2890766600574943,
                0.2602519583766704
            ]
        },
        {
            "positions": [
                1.941064341729397,
                -1.23998810587984,
                -0.9427007388839006,
                -0.6903211505584,
                -1.2488094839219834,
                0.23428513712685203
            ]
        },
        {
            "positions": [
                1.8462470667626985,
                -1.2394441641027685,
                -0.8205860157295048,
                -0.5830424193684491,
                -1.2085423077864725,
                0.20831831587703362
            ]
        },
        {
            "positions": [
                1.7514297917959998,
                -1.2389002223256966,
                -0.6984712925751091,
                -0.47576368817849835,
                -1.1682751316509616,
                0.18235149462721523
            ]
        },
        {
            "positions": [
                1.6566125168293016,
                -1.2383562805486248,
                -0.5763565694207133,
                -0.36848495698854755,
                -1.1280079555154507,
                0.15638467337739687
            ]
        },
        {
            "positions": [
                1.561795241862603,
                -1.2378123387715532,
                -0.4542418462663176,
                -0.26120622579859676,
                -1.0877407793799398,
                0.13041785212757845
            ]
        },
        {
            "positions": [
                1.4669779668959044,
                -1.2372683969944813,
                -0.33212712311192183,
                -0.15392749460864597,
                -1.0474736032444292,
                0.10445103087776003
            ]
        },
        {
            "positions": [
                1.372160691929206,
                -1.2367244552174097,
                -0.21001239995752607,
                -0.04664876341869517,
                -1.007206427108918,
                0.07848420962794167
            ]
        },
        {
            "positions": [
                1.2773434169625075,
                -1.2361805134403379,
                -0.08789767680313032,
                0.06062996777125562,
                -0.9669392509734073,
                0.05251738837812331
            ]
        },
        {
            "positions": [
                1.182526141995809,
                -1.235636571663266,
                0.034217046351265434,
                0.16790869896120642,
                -0.9266720748378965,
                0.02655056712830489
            ]
        },
        {
            "positions": [
                1.0877088670291106,
                -1.2350926298861944,
                0.1563317695056612,
                0.2751874301511572,
                -0.8864048987023856,
                0.0005837458784865301
            ]
        },
        {
            "positions": [
                0.992891592062412,
                -1.2345486881091225,
                0.27844649266005694,
                0.3824661613411082,
                -0.8461377225668746,
                -0.025383075371331942
            ]
        },
        {
            "positions": [
                0.8980743170957135,
                -1.2340047463320507,
                0.4005612158144527,
                0.489744892531059,
                -0.8058705464313638,
                -0.051349896621150304
            ]
        },
        {
            "positions": [
                0.803257042129015,
                -1.233460804554979,
                0.5226759389688485,
                0.5970236237210098,
                -0.7656033702958529,
                -0.07731671787096872
            ]
        },
        {
            "positions": [
                0.7084397671623166,
                -1.2329168627779072,
                0.6447906621232442,
                0.7043023549109606,
                -0.725336194160342,
                -0.10328353912078703
            ]
        },
        {
            "positions": [
                0.6136224921956184,
                -1.2323729210008356,
                0.76690538527764,
                0.8115810861009114,
                -0.6850690180248312,
                -0.12925036037060544
            ]
        },
        {
            "positions": [
                0.5188052172289197,
                -1.2318289792237638,
                0.8890201084320357,
                0.9188598172908622,
                -0.6448018418893203,
                -0.15521718162042386
            ]
        },
        {
            "positions": [
                0.4239879422622215,
                -1.231285037446692,
                1.0111348315864315,
                1.026138548480813,
                -0.6045346657538095,
                -0.18118400287024228
            ]
        },
        {
            "positions": [
                0.32917066729552236,
                -1.2307410956696203,
                1.1332495547408272,
                1.1334172796707638,
                -0.5642674896182984,
                -0.2071508241200607
            ]
        },
        {
            "positions": [
                0.23435339232882413,
                -1.2301971538925485,
                1.255364277895223,
                1.2406960108607146,
                -0.5240003134827877,
                -0.2331176453698791
            ]
        },
        {
            "positions": [
                0.13953611736212546,
                -1.2296532121154768,
                1.3774790010496187,
                1.3479747420506654,
                -0.48373313734727685,
                -0.2590844666196974
            ]
        },
        {
            "positions": [
                0.04471884239542724,
                -1.229109270338405,
                1.4995937242040147,
                1.4552534732406162,
                -0.4434659612117659,
                -0.2850512878695159
            ]
        },
        {
            "positions": [
                0.03368284585903573,
                -1.166610703299417,
                1.5714188718572104,
                1.5355934232642767,
                -0.39312040233255247,
                -0.24088730955036675
            ]
        },
        {
            "positions": [
                0.022646849322644214,
                -1.1041121362604291,
                1.6432440195104063,
                1.615933373287937,
                -0.3427748434533391,
                -0.1967233312312176
            ]
        },
        {
            "positions": [
                0.0116108527862527,
                -1.0416135692214412,
                1.715069167163602,
                1.6962733233115976,
                -0.29242928457412565,
                -0.15255935291206846
            ]
        },
        {
            "positions": [
                0.0005748562498611859,
                -0.9791150021824533,
                1.786894314816798,
                1.7766132733352582,
                -0.24208372569491224,
                -0.10839537459291929
            ]
        },
        {
            "positions": [
                -0.010461140286530328,
                -0.9166164351434654,
                1.8587194624699936,
                1.8569532233589185,
                -0.19173816681569883,
                -0.06423139627377014
            ]
        },
        {
            "positions": [
                0.05641733289992008,
                -0.849333221542808,
                1.9304518748043957,
                1.8996189864865844,
                -0.16571240765283318,
                -0.04276303111784121
            ]
        },
        {
            "positions": [
                0.12329580608637049,
                -0.7820500079421505,
                2.002184287138798,
                1.9422847496142503,
                -0.1396866484899675,
                -0.02129466596191228
            ]
        }
    ]
}