{
    "goal": {
        "global_pose": {
            "orientation": {
                "w": 0.005598929693374612,
                "x": 0.007748599140229565,
                "y": 0.7110244013736278,
                "z": -0.7031023480610252
            },
            "position": {
                "x": -0.8858502320852131,
                "y": -0.7141253447532654,
                "z": 0.3711530566215515
            }
        },
        "name": "move_to_auspresseinheit_C"
    },
    "id": "BKPIECE_move_to_auspresseinheit_C_37",
    "joint_names": [
        "shoulder_pan_joint",
        "shoulder_lift_joint",
        "elbow_joint",
        "wrist_1_joint",
        "wrist_2_joint",
        "wrist_3_joint"
    ],
    "metrics": {
        "cart_traj_len": 0.49309979850035096,
        "distance_elbow_joint": 1.0006556119770522,
        "distance_shoulder_lift_joint": 0.32509700306833833,
        "distance_shoulder_pan_joint": 0.2559695025506037,
        "distance_wrist_1_joint": 0.6776242453754138,
        "distance_wrist_2_joint": 1.3200711142927708,
        "distance_wrist_3_joint": 0.05696492815216736,
        "smoothness": 1.6148698667872622e-16,
        "time": 0.287472281,
        "traj_len": 1.9069300997719727,
        "weighted_distance": 2.397500286003918
    },
    "planner": "BKPIECE",
    "start": {
        "state": {
            "elbow_joint": 1.7527959577737207,
            "shoulder_lift_joint": -0.9740617694225068,
            "shoulder_pan_joint": -2.967991417825858,
            "wrist_1_joint": -0.759517768980727,
            "wrist_2_joint": 1.7443932448377408,
            "wrist_3_joint": -3.0840537646736568
        }
    },
    "waypoints": [
        {
            "positions": [
                -2.967991417825858,
                -0.9740617694225068,
                1.7527959577737207,
                -0.759517768980727,
                1.7443932448377408,
                -3.0840537646736568
            ]
        },
        {
            "positions": [
                -2.9423944675707974,
                -0.9415520691156729,
                1.6527303965760154,
                -0.6917553444431856,
                1.6123861334084637,
                -3.0897502574888733
            ]
        },
        {
            "positions": [
                -2.916797517315737,
                -0.9090423688088392,
                1.5526648353783101,
                -0.6239929199056442,
                1.4803790219791866,
                -3.0954467503040903
            ]
        },
        {
            "positions": [
                -2.891200567060677,
                -0.8765326685020053,
                1.452599274180605,
                -0.5562304953681029,
                1.3483719105499097,
                -3.101143243119307
            ]
        },
        {
            "positions": [
                -2.8656036168056165,
                -0.8440229681951714,
                1.3525337129828998,
                -0.4884680708305615,
                1.2163647991206323,
                -3.106839735934524
            ]
        },
        {
            "positions": [
                -2.840006666550556,
                -0.8115132678883377,
                1.2524681517851946,
                -0.4207056462930201,
                1.0843576876913554,
                -3.1125362287497405
            ]
        },
        {
            "positions": [
                -2.8144097162954957,
                -0.7790035675815038,
                1.1524025905874895,
                -0.3529432217554787,
                0.9523505762620784,
                -3.118232721564957
            ]
        },
        {
            "positions": [
                -2.7888127660404356,
                -0.7464938672746699,
                1.052337029389784,
                -0.2851807972179374,
                0.8203434648328013,
                -3.123929214380174
            ]
        },
        {
            "positions": [
                -2.763215815785375,
                -0.7139841669678362,
                0.9522714681920789,
                -0.217418372680396,
                0.6883363534035241,
                -3.1296257071953906
            ]
        },
        {
            "positions": [
                -2.7376188655303144,
                -0.6814744666610022,
                0.8522059069943736,
                -0.14965594814285454,
                0.5563292419742472,
                -3.1353222000106076
            ]
        },
        {
            "positions": [
                -2.7120219152752543,
                -0.6489647663541684,
                0.7521403457966683,
                -0.08189352360531317,
                0.42432213054497003,
                -3.141018692825824
            ]
        }
    ]
}