{
    "goal": {
        "global_pose": {
            "orientation": {
                "w": 0.5084816217422485,
                "x": -0.49083608388900757,
                "y": 0.5182115435600281,
                "z": -0.4816462993621826
            },
            "position": {
                "x": 0.5540239810943604,
                "y": 0.030875300988554955,
                "z": 0.16403168439865112
            }
        },
        "name": "move_to_storage_A"
    },
    "id": "BKPIECE_move_to_storage_A_3",
    "joint_names": [
        "shoulder_pan_joint",
        "shoulder_lift_joint",
        "elbow_joint",
        "wrist_1_joint",
        "wrist_2_joint",
        "wrist_3_joint"
    ],
    "metrics": {
        "cart_traj_len": 0.3536558268838979,
        "distance_elbow_joint": 0.4506885739196458,
        "distance_shoulder_lift_joint": 0.23551207801813412,
        "distance_shoulder_pan_joint": 0.4649655447931469,
        "distance_wrist_1_joint": 0.24620342698223807,
        "distance_wrist_2_joint": 1.0894544660720658,
        "distance_wrist_3_joint": 0.09577410022777677,
        "smoothness": 2.2204460668324854e-16,
        "time": 0.378739916,
        "traj_len": 1.6070464181264357,
        "weighted_distance": 2.027265222787306
    },
    "planner": "BKPIECE",
    "start": {
        "state": {
            "elbow_joint": 1.971548259319323,
            "shoulder_lift_joint": -1.1394851275133948,
            "shoulder_pan_joint": 0.1228115487234821,
            "wrist_1_joint": -0.7804723859257726,
            "wrist_2_joint": 0.12958671773740124,
            "wrist_3_joint": -3.192489227718131
        }
    },
    "waypoints": [
        {
            "positions": [
                0.1228115487234821,
                -1.1394851275133948,
                1.971548259319323,
                -0.7804723859257726,
                0.12958671773740124,
                -3.192489227718131
            ]
        },
        {
            "positions": [
                0.05638789946731826,
                -1.173129710087414,
                2.0359323413078436,
                -0.8156443040660923,
                0.28522307003341063,
                -3.1788072133998773
            ]
        },
        {
            "positions": [
                -0.010035749788845583,
                -1.206774292661433,
                2.1003164232963645,
                -0.8508162222064121,
                0.44085942232942,
                -3.1651251990816234
            ]
        },
        {
            "positions": [
                -0.07645939904500942,
                -1.2404188752354524,
                2.1647005052848853,
                -0.8859881403467318,
                0.5964957746254294,
                -3.1514431847633695
            ]
        },
        {
            "positions": [
                -0.14288304830117327,
                -1.2740634578094714,
                2.229084587273406,
                -0.9211600584870515,
                0.7521321269214388,
                -3.137761170445116
            ]
        },
        {
            "positions": [
                -0.2093066975573371,
                -1.3077080403834906,
                2.293468669261927,
                -0.9563319766273712,
                0.9077684792174483,
                -3.124079156126862
            ]
        },
        {
            "positions": [
                -0.27573034681350095,
                -1.3413526229575097,
                2.357852751250448,
                -0.991503894767691,
                1.0634048315134574,
                -3.1103971418086083
            ]
        },
        {
            "positions": [
                -0.3421539960696648,
                -1.374997205531529,
                2.4222368332389688,
                -1.0266758129080107,
                1.219041183809467,
                -3.0967151274903544
            ]
        }
    ]
}{
    "goal": {
        "global_pose": {
            "orientation": {
                "w": 0.5084816217422485,
                "x": -0.49083608388900757,
                "y": 0.5182115435600281,
                "z": -0.4816462993621826
            },
            "position": {
                "x": 0.5540239810943604,
                "y": 0.030875300988554955,
                "z": 0.16403168439865112
            }
        },
        "name": "move_to_storage_A"
    },
    "id": "BKPIECE_move_to_storage_A_3",
    "joint_names": [
        "shoulder_pan_joint",
        "shoulder_lift_joint",
        "elbow_joint",
        "wrist_1_joint",
        "wrist_2_joint",
        "wrist_3_joint"
    ],
    "metrics": {
        "cart_traj_len": 0.35238677848690225,
        "distance_elbow_joint": 0.4479097105704515,
        "distance_shoulder_lift_joint": 0.23599667139061498,
        "distance_shoulder_pan_joint": 0.4616832643928654,
        "distance_wrist_1_joint": 0.23390735288542075,
        "distance_wrist_2_joint": 1.0940379924278478,
        "distance_wrist_3_joint": 0.10304757268527176,
        "smoothness": 4.440892098500626e-16,
        "time": 0.301374012,
        "traj_len": 1.6051736866621231,
        "weighted_distance": 2.0274671526405266
    },
    "planner": "BKPIECE",
    "start": {
        "state": {
            "elbow_joint": 1.97154746011099,
            "shoulder_lift_joint": -1.13948474672311,
            "shoulder_pan_joint": 0.12281154466712228,
            "wrist_1_joint": -0.7804688027058302,
            "wrist_2_joint": 0.12958655903071145,
            "wrist_3_joint": 3.0906928834467795
        }
    },
    "waypoints": [
        {
            "positions": [
                0.12281154466712228,
                -1.13948474672311,
                1.97154746011099,
                -0.7804688027058302,
                0.12958655903071145,
                3.0906928834467795
            ]
        },
        {
            "positions": [
                0.05685679261099866,
                -1.1731985569217693,
                2.0355345616210543,
                -0.8138841388323189,
                0.2858777008061183,
                3.105413965258961
            ]
        },
        {
            "positions": [
                -0.009097959445124967,
                -1.2069123671204285,
                2.099521663131119,
                -0.8472994749588075,
                0.4421688425815251,
                3.120135047071143
            ]
        },
        {
            "positions": [
                -0.07505271150124858,
                -1.2406261773190879,
                2.1635087646411835,
                -0.8807148110852963,
                0.5984599843569319,
                3.1348561288833245
            ]
        },
        {
            "positions": [
                -0.1410074635573722,
                -1.274339987517747,
                2.227495866151248,
                -0.9141301472117849,
                0.7547511261323387,
                3.1495772106955062
            ]
        },
        {
            "positions": [
                -0.20696221561349587,
                -1.3080537977164064,
                2.291482967661312,
                -0.9475454833382736,
                0.9110422679077457,
                3.164298292507688
            ]
        },
        {
            "positions": [
                -0.2729169676696194,
                -1.3417676079150656,
                2.355470069171377,
                -0.9809608194647622,
                1.0673334096831524,
                3.1790193743198696
            ]
        },
        {
            "positions": [
                -0.3388717197257431,
                -1.375481418113725,
                2.4194571706814414,
                -1.014376155591251,
                1.2236245514585593,
                3.1937404561320513
            ]
        }
    ]
}{
    "goal": {
        "global_pose": {
            "orientation": {
                "w": 0.5084816217422485,
                "x": -0.49083608388900757,
                "y": 0.5182115435600281,
                "z": -0.4816462993621826
            },
            "position": {
                "x": 0.5540239810943604,
                "y": 0.030875300988554955,
                "z": 0.16403168439865112
            }
        },
        "name": "move_to_storage_A"
    },
    "id": "BKPIECE_move_to_storage_A_3",
    "joint_names": [
        "shoulder_pan_joint",
        "shoulder_lift_joint",
        "elbow_joint",
        "wrist_1_joint",
        "wrist_2_joint",
        "wrist_3_joint"
    ],
    "metrics": {
        "cart_traj_len": 0.35258859577086155,
        "distance_elbow_joint": 0.4516361033478833,
        "distance_shoulder_lift_joint": 0.23300662286686524,
        "distance_shoulder_pan_joint": 0.45866549111064603,
        "distance_wrist_1_joint": 0.25571189539888106,
        "distance_wrist_2_joint": 1.1073547644843227,
        "distance_wrist_3_joint": 0.10574012561168988,
        "smoothness": 4.440892133664971e-16,
        "time": 0.11113182299999999,
        "traj_len": 1.6162038865255486,
        "weighted_distance": 2.046133405701317
    },
    "planner": "BKPIECE",
    "start": {
        "state": {
            "elbow_joint": 1.9715472970024885,
            "shoulder_lift_joint": -1.1394870060712896,
            "shoulder_pan_joint": 0.12281152778156021,
            "wrist_1_joint": -0.780463741449964,
            "wrist_2_joint": 0.12958659822042276,
            "wrist_3_joint": 3.090690232415272
        }
    },
    "waypoints": [
        {
            "positions": [
                0.12281152778156021,
                -1.1394870060712896,
                1.9715472970024885,
                -0.780463741449964,
                0.12958659822042276,
                3.090690232415272
            ]
        },
        {
            "positions": [
                0.057287886194325066,
                -1.1727736664808417,
                2.0360667403379002,
                -0.8169940122212327,
                0.2877801360038974,
                3.1057959646455133
            ]
        },
        {
            "positions": [
                -0.008235755392910077,
                -1.206060326890394,
                2.1005861836733124,
                -0.8535242829925014,
                0.44597367378737207,
                3.120901696875755
            ]
        },
        {
            "positions": [
                -0.07375939698014522,
                -1.239346987299946,
                2.165105627008724,
                -0.8900545537637702,
                0.6041672115708467,
                3.1360074291059963
            ]
        },
        {
            "positions": [
                -0.13928303856738036,
                -1.2726336477094984,
                2.2296250703441363,
                -0.9265848245350389,
                0.7623607493543214,
                3.1511131613362373
            ]
        },
        {
            "positions": [
                -0.20480668015461553,
                -1.3059203081190505,
                2.294144513679548,
                -0.9631150953063077,
                0.9205542871377961,
                3.166218893566479
            ]
        },
        {
            "positions": [
                -0.2703303217418507,
                -1.3392069685286025,
                2.3586639570149597,
                -0.9996453660775764,
                1.0787478249212707,
                3.1813246257967203
            ]
        },
        {
            "positions": [
                -0.3358539633290858,
                -1.3724936289381549,
                2.423183400350372,
                -1.036175636848845,
                1.2369413627047454,
                3.1964303580269617
            ]
        }
    ]
}