{
    "goal": {
        "global_pose": {
            "orientation": {
                "w": 0.7031023502349854,
                "x": -0.7110244035720825,
                "y": 0.007748599164187908,
                "z": 0.005598929710686207
            },
            "position": {
                "x": 0.11585023208521307,
                "y": 0.44412534475326537,
                "z": 0.3711530566215515
            }
        },
        "name": "move_to_auspresseinheit_A"
    },
    "id": "BKPIECE_move_to_auspresseinheit_A_118",
    "joint_names": [
        "shoulder_pan_joint",
        "shoulder_lift_joint",
        "elbow_joint",
        "wrist_1_joint",
        "wrist_2_joint",
        "wrist_3_joint"
    ],
    "metrics": {
        "cart_traj_len": 1.147370613005478,
        "distance_elbow_joint": 0.6682644842153755,
        "distance_shoulder_lift_joint": 0.9508214914251345,
        "distance_shoulder_pan_joint": 1.0465505652804272,
        "distance_wrist_1_joint": 1.0313123844979761,
        "distance_wrist_2_joint": 0.57807119877701,
        "distance_wrist_3_joint": 1.815704929347996,
        "smoothness": 1.32601353851894,
        "time": 0.279152536,
        "traj_len": 2.4679394347398236,
        "weighted_distance": 3.366232091748116
    },
    "planner": "BKPIECE",
    "start": {
        "state": {
            "elbow_joint": 2.4225746658250005,
            "shoulder_lift_joint": -1.3736534386056498,
            "shoulder_pan_joint": -0.3378633547517467,
            "wrist_1_joint": -1.0288598680537169,
            "wrist_2_joint": 1.233022673432363,
            "wrist_3_joint": -3.0940220416140027
        }
    },
    "waypoints": [
        {
            "positions": [
                -0.3378633547517467,
                -1.3736534386056498,
                2.4225746658250005,
                -1.0288598680537169,
                1.233022673432363,
                -3.0940220416140027
            ]
        },
        {
            "positions": [
                -0.33611234280476476,
                -1.462927116213227,
                2.378835572596105,
                -0.9771517416227194,
                1.1661779688639868,
                -2.9833497923522625
            ]
        },
        {
            "positions": [
                -0.33436133085778275,
                -1.5522007938208042,
                2.335096479367209,
                -0.9254436151917221,
                1.0993332642956104,
                -2.8726775430905223
            ]
        },
        {
            "positions": [
                -0.33261031891080073,
                -1.6414744714283813,
                2.291357386138314,
                -0.8737354887607247,
                1.0324885597272342,
                -2.762005293828782
            ]
        },
        {
            "positions": [
                -0.33085930696381877,
                -1.7307481490359584,
                2.247618292909418,
                -0.8220273623297274,
                0.965643855158858,
                -2.6513330445670418
            ]
        },
        {
            "positions": [
                -0.3291082950168368,
                -1.8200218266435357,
                2.2038791996805225,
                -0.77031923589873,
                0.8987991505904817,
                -2.5406607953053015
            ]
        },
        {
            "positions": [
                -0.3273572830698548,
                -1.9092955042511128,
                2.1601401064516272,
                -0.7186111094677325,
                0.8319544460221053,
                -2.4299885460435613
            ]
        },
        {
            "positions": [
                -0.32560627112287277,
                -1.9985691818586901,
                2.1164010132227316,
                -0.6669029830367352,
                0.7651097414537291,
                -2.319316296781821
            ]
        },
        {
            "positions": [
                -0.3238552591758908,
                -2.0878428594662672,
                2.072661919993836,
                -0.6151948566057378,
                0.6982650368853528,
                -2.208644047520081
            ]
        },
        {
            "positions": [
                -0.2076113520577063,
                -2.053116006361517,
                2.097863231066627,
                -0.5504246593731432,
                0.7030883431176672,
                -2.312108747028095
            ]
        },
        {
            "positions": [
                -0.09136744493952179,
                -2.018389153256767,
                2.1230645421394176,
                -0.48565446214054875,
                0.7079116493499815,
                -2.41557344653611
            ]
        },
        {
            "positions": [
                0.02487646217866274,
                -1.9836623001520166,
                2.1482658532122088,
                -0.42088426490795416,
                0.7127349555822959,
                -2.5190381460441245
            ]
        },
        {
            "positions": [
                0.14112036929684724,
                -1.9489354470472664,
                2.173467164285,
                -0.3561140676753597,
                0.7175582618146104,
                -2.622502845552139
            ]
        },
        {
            "positions": [
                0.25736427641503185,
                -1.9142085939425162,
                2.1986684753577905,
                -0.2913438704427651,
                0.7223815680469247,
                -2.7259675450601537
            ]
        },
        {
            "positions": [
                0.37360818353321634,
                -1.879481740837766,
                2.2238697864305816,
                -0.22657367321017058,
                0.7272048742792391,
                -2.829432244568168
            ]
        },
        {
            "positions": [
                0.48530119253170445,
                -1.8889053914831047,
                2.27958441041307,
                -0.3029157364283138,
                0.7224136326672013,
                -2.9326118239701637
            ]
        },
        {
            "positions": [
                0.5969942015301926,
                -1.8983290421284431,
                2.3352990343955584,
                -0.3792577996464571,
                0.7176223910551635,
                -3.0357914033721594
            ]
        },
        {
            "positions": [
                0.7086872105286807,
                -1.9077526927737818,
                2.391013658378047,
                -0.45559986286460036,
                0.7128311494431256,
                -3.138970982774155
            ]
        }
    ]
}