{
    "goal": {
        "global_pose": {
            "orientation": {
                "w": 0.5084816217422485,
                "x": -0.49083608388900757,
                "y": 0.5182115435600281,
                "z": -0.4816462993621826
            },
            "position": {
                "x": 0.5540239810943604,
                "y": 0.030875300988554955,
                "z": 0.16403168439865112
            }
        },
        "name": "move_to_storage_A"
    },
    "id": "BKPIECE_move_to_storage_A_9",
    "joint_names": [
        "shoulder_pan_joint",
        "shoulder_lift_joint",
        "elbow_joint",
        "wrist_1_joint",
        "wrist_2_joint",
        "wrist_3_joint"
    ],
    "metrics": {
        "cart_traj_len": 0.3523230963036951,
        "distance_elbow_joint": 0.4492196518966456,
        "distance_shoulder_lift_joint": 0.23579683429653842,
        "distance_shoulder_pan_joint": 0.4620951194587434,
        "distance_wrist_1_joint": 0.23698584981187276,
        "distance_wrist_2_joint": 1.0920865116407827,
        "distance_wrist_3_joint": 0.0906883978354287,
        "smoothness": 2.2204460668324854e-16,
        "time": 0.247032435,
        "traj_len": 1.602146174648247,
        "weighted_distance": 2.0192378567329614
    },
    "planner": "BKPIECE",
    "start": {
        "state": {
            "elbow_joint": 1.971548259319323,
            "shoulder_lift_joint": -1.1394851275133948,
            "shoulder_pan_joint": 0.1228115487234821,
            "wrist_1_joint": -0.7804723859257726,
            "wrist_2_joint": 0.12958671773740124,
            "wrist_3_joint": -3.192489227718131
        }
    },
    "waypoints": [
        {
            "positions": [
                0.1228115487234821,
                -1.1394851275133948,
                1.971548259319323,
                -0.7804723859257726,
                0.12958671773740124,
                -3.192489227718131
            ]
        },
        {
            "positions": [
                0.0567979602293759,
                -1.1731703895557575,
                2.035722495304558,
                -0.8143275073274687,
                0.28559907654322736,
                -3.17953374231307
            ]
        },
        {
            "positions": [
                -0.009215628264730297,
                -1.2068556515981201,
                2.0998967312897934,
                -0.8481826287291648,
                0.44161143534905345,
                -3.1665782569080085
            ]
        },
        {
            "positions": [
                -0.07522921675883648,
                -1.2405409136404828,
                2.1640709672750282,
                -0.8820377501308609,
                0.5976237941548795,
                -3.1536227715029472
            ]
        },
        {
            "positions": [
                -0.1412428052529427,
                -1.2742261756828452,
                2.228245203260263,
                -0.915892871532557,
                0.7536361529607056,
                -3.1406672860978864
            ]
        },
        {
            "positions": [
                -0.2072563937470489,
                -1.307911437725208,
                2.2924194392454984,
                -0.9497479929342532,
                0.9096485117665318,
                -3.127711800692825
            ]
        },
        {
            "positions": [
                -0.27326998224115506,
                -1.3415966997675706,
                2.3565936752307337,
                -0.9836031143359493,
                1.0656608705723578,
                -3.1147563152877638
            ]
        },
        {
            "positions": [
                -0.3392835707352613,
                -1.3752819618099332,
                2.4207679112159686,
                -1.0174582357376454,
                1.221673229378184,
                -3.1018008298827024
            ]
        }
    ]
}{
    "goal": {
        "global_pose": {
            "orientation": {
                "w": 0.5084816217422485,
                "x": -0.49083608388900757,
                "y": 0.5182115435600281,
                "z": -0.4816462993621826
            },
            "position": {
                "x": 0.5540239810943604,
                "y": 0.030875300988554955,
                "z": 0.16403168439865112
            }
        },
        "name": "move_to_storage_A"
    },
    "id": "BKPIECE_move_to_storage_A_9",
    "joint_names": [
        "shoulder_pan_joint",
        "shoulder_lift_joint",
        "elbow_joint",
        "wrist_1_joint",
        "wrist_2_joint",
        "wrist_3_joint"
    ],
    "metrics": {
        "cart_traj_len": 0.3532292001504146,
        "distance_elbow_joint": 0.4490248522140723,
        "distance_shoulder_lift_joint": 0.23567836777978157,
        "distance_shoulder_pan_joint": 0.46250491798588306,
        "distance_wrist_1_joint": 0.2380691396950234,
        "distance_wrist_2_joint": 1.096893170362722,
        "distance_wrist_3_joint": 0.09254377554041504,
        "smoothness": 0.0,
        "time": 0.20574955900000003,
        "traj_len": 1.6045916064774541,
        "weighted_distance": 2.0235523429643405
    },
    "planner": "BKPIECE",
    "start": {
        "state": {
            "elbow_joint": 1.97154746011099,
            "shoulder_lift_joint": -1.13948474672311,
            "shoulder_pan_joint": 0.12281154466712228,
            "wrist_1_joint": -0.7804688027058302,
            "wrist_2_joint": 0.12958655903071145,
            "wrist_3_joint": 3.0906928834467795
        }
    },
    "waypoints": [
        {
            "positions": [
                0.12281154466712228,
                -1.13948474672311,
                1.97154746011099,
                -0.7804688027058302,
                0.12958655903071145,
                3.0906928834467795
            ]
        },
        {
            "positions": [
                0.056739413526281854,
                -1.1731530849773644,
                2.035693867570143,
                -0.8144786798051192,
                0.28628558336824317,
                3.103913422809696
            ]
        },
        {
            "positions": [
                -0.009332717614558575,
                -1.206821423231619,
                2.099840275029296,
                -0.8484885569044083,
                0.44298460770577486,
                3.117133962172612
            ]
        },
        {
            "positions": [
                -0.075404848755399,
                -1.2404897614858734,
                2.1639866824884493,
                -0.8824984340036973,
                0.5996836320433065,
                3.1303545015355287
            ]
        },
        {
            "positions": [
                -0.14147697989623942,
                -1.274158099740128,
                2.228133089947603,
                -0.9165083111029864,
                0.7563826563808383,
                3.1435750408984453
            ]
        },
        {
            "positions": [
                -0.2075491110370799,
                -1.3078264379943825,
                2.292279497406756,
                -0.9505181882022755,
                0.9130816807183701,
                3.156795580261362
            ]
        },
        {
            "positions": [
                -0.2736212421779203,
                -1.3414947762486369,
                2.356425904865909,
                -0.9845280653015646,
                1.0697807050559016,
                3.170016119624278
            ]
        },
        {
            "positions": [
                -0.33969337331876076,
                -1.3751631145028915,
                2.420572312325062,
                -1.0185379424008536,
                1.2264797293934335,
                3.1832366589871945
            ]
        }
    ]
}{
    "goal": {
        "global_pose": {
            "orientation": {
                "w": 0.5084816217422485,
                "x": -0.49083608388900757,
                "y": 0.5182115435600281,
                "z": -0.4816462993621826
            },
            "position": {
                "x": 0.5540239810943604,
                "y": 0.030875300988554955,
                "z": 0.16403168439865112
            }
        },
        "name": "move_to_storage_A"
    },
    "id": "BKPIECE_move_to_storage_A_9",
    "joint_names": [
        "shoulder_pan_joint",
        "shoulder_lift_joint",
        "elbow_joint",
        "wrist_1_joint",
        "wrist_2_joint",
        "wrist_3_joint"
    ],
    "metrics": {
        "cart_traj_len": 0.352875963614184,
        "distance_elbow_joint": 0.4483904689421436,
        "distance_shoulder_lift_joint": 0.2367440730295416,
        "distance_shoulder_pan_joint": 0.4616949339877384,
        "distance_wrist_1_joint": 0.23397568486613585,
        "distance_wrist_2_joint": 1.0981738600572377,
        "distance_wrist_3_joint": 0.0894665665792953,
        "smoothness": 1.1102230298998083e-15,
        "time": 0.2232747,
        "traj_len": 1.6026370729089268,
        "weighted_distance": 2.0197842126187777
    },
    "planner": "BKPIECE",
    "start": {
        "state": {
            "elbow_joint": 1.9715472970024885,
            "shoulder_lift_joint": -1.1394870060712896,
            "shoulder_pan_joint": 0.12281152778156021,
            "wrist_1_joint": -0.780463741449964,
            "wrist_2_joint": 0.12958659822042276,
            "wrist_3_joint": 3.090690232415272
        }
    },
    "waypoints": [
        {
            "positions": [
                0.12281152778156021,
                -1.1394870060712896,
                1.9715472970024885,
                -0.780463741449964,
                0.12958659822042276,
                3.090690232415272
            ]
        },
        {
            "positions": [
                0.05685510864045472,
                -1.1733075879326527,
                2.0356030782799377,
                -0.8138888392879834,
                0.28646857822859956,
                3.1034711704980285
            ]
        },
        {
            "positions": [
                -0.009101310500650772,
                -1.2071281697940157,
                2.099658859557387,
                -0.8473139371260028,
                0.4433505582367764,
                3.1162521085807846
            ]
        },
        {
            "positions": [
                -0.07505772964175625,
                -1.2409487516553788,
                2.163714640834836,
                -0.8807390349640222,
                0.6002325382449532,
                3.129033046663541
            ]
        },
        {
            "positions": [
                -0.14101414878286175,
                -1.2747693335167418,
                2.2277704221122847,
                -0.9141641328020416,
                0.7571145182531299,
                3.141813984746298
            ]
        },
        {
            "positions": [
                -0.20697056792396726,
                -1.308589915378105,
                2.291826203389734,
                -0.9475892306400611,
                0.9139964982613068,
                3.1545949228290544
            ]
        },
        {
            "positions": [
                -0.2729269870650727,
                -1.3424104972394681,
                2.355881984667183,
                -0.9810143284780805,
                1.0708784782694836,
                3.1673758609118106
            ]
        },
        {
            "positions": [
                -0.3388834062061782,
                -1.3762310791008312,
                2.419937765944632,
                -1.0144394263160998,
                1.2277604582776604,
                3.180156798994567
            ]
        }
    ]
}