{
    "goal": {
        "global_pose": {
            "orientation": {
                "w": -0.4816463035849501,
                "x": 0.5182115481033762,
                "y": 0.4908360881923453,
                "z": -0.5084816262002911
            },
            "position": {
                "x": -0.8240239810943604,
                "y": -0.300875300988555,
                "z": 0.16403168439865112
            }
        },
        "name": "move_to_storage_C"
    },
    "id": "BKPIECE_move_to_storage_C_29",
    "joint_names": [
        "shoulder_pan_joint",
        "shoulder_lift_joint",
        "elbow_joint",
        "wrist_1_joint",
        "wrist_2_joint",
        "wrist_3_joint"
    ],
    "metrics": {
        "cart_traj_len": 0.5759781211243458,
        "distance_elbow_joint": 0.2594445234202767,
        "distance_shoulder_lift_joint": 0.18938012229572943,
        "distance_shoulder_pan_joint": 0.4941426849275614,
        "distance_wrist_1_joint": 0.08738834817123409,
        "distance_wrist_2_joint": 1.067981125819001,
        "distance_wrist_3_joint": 0.07595724429178219,
        "smoothness": 2.5376526478085547e-16,
        "time": 0.15366528200000001,
        "traj_len": 1.4745487611217152,
        "weighted_distance": 1.865898714158779
    },
    "planner": "BKPIECE",
    "start": {
        "state": {
            "elbow_joint": 2.010868314990456,
            "shoulder_lift_joint": -1.1634956873337592,
            "shoulder_pan_joint": -2.4736205022346125,
            "wrist_1_joint": -0.8367026794202681,
            "wrist_2_joint": 0.6746043897044499,
            "wrist_3_joint": -3.1496632123970403
        }
    },
    "waypoints": [
        {
            "positions": [
                -2.4736205022346125,
                -1.1634956873337592,
                2.010868314990456,
                -0.8367026794202681,
                0.6746043897044499,
                -3.1496632123970403
            ]
        },
        {
            "positions": [
                -2.555977616389206,
                -1.1319323336178042,
                1.9676275610870764,
                -0.8221379547250625,
                0.8526012440076167,
                -3.137003671681743
            ]
        },
        {
            "positions": [
                -2.6383347305437996,
                -1.1003689799018495,
                1.924386807183697,
                -0.8075732300298567,
                1.0305980983107836,
                -3.1243441309664464
            ]
        },
        {
            "positions": [
                -2.7206918446983934,
                -1.0688056261858945,
                1.8811460532803175,
                -0.7930085053346511,
                1.2085949526139506,
                -3.111684590251149
            ]
        },
        {
            "positions": [
                -2.8030489588529868,
                -1.0372422724699395,
                1.837905299376938,
                -0.7784437806394454,
                1.3865918069171173,
                -3.099025049535852
            ]
        },
        {
            "positions": [
                -2.88540607300758,
                -1.0056789187539847,
                1.7946645454735586,
                -0.7638790559442397,
                1.5645886612202842,
                -3.0863655088205553
            ]
        },
        {
            "positions": [
                -2.967763187162174,
                -0.9741155650380298,
                1.7514237915701791,
                -0.749314331249034,
                1.742585515523451,
                -3.073705968105258
            ]
        }
    ]
}