{
    "goal": {
        "global_pose": {
            "orientation": {
                "w": 0.5084816262002911,
                "x": -0.4908360881923452,
                "y": 0.5182115481033761,
                "z": -0.48164630358495003
            },
            "position": {
                "x": 0.5540239810943604,
                "y": -0.46912469901144505,
                "z": 0.16403168439865112
            }
        },
        "name": "move_to_storage_B"
    },
    "id": "BKPIECE_move_to_storage_B_11",
    "joint_names": [
        "shoulder_pan_joint",
        "shoulder_lift_joint",
        "elbow_joint",
        "wrist_1_joint",
        "wrist_2_joint",
        "wrist_3_joint"
    ],
    "metrics": {
        "cart_traj_len": 1.25880183712953,
        "distance_elbow_joint": 0.6668881215914086,
        "distance_shoulder_lift_joint": 0.4608725186082683,
        "distance_shoulder_pan_joint": 1.1956798573372152,
        "distance_wrist_1_joint": 3.0033900437424883,
        "distance_wrist_2_joint": 2.6991084065555224,
        "distance_wrist_3_joint": 3.1565556093776888,
        "smoothness": 0.1366929090584306,
        "time": 0.228663957,
        "traj_len": 3.3440237076331547,
        "weighted_distance": 4.816441033197228
    },
    "planner": "BKPIECE",
    "start": {
        "state": {
            "elbow_joint": 1.664937868594044,
            "shoulder_lift_joint": -0.661644460510453,
            "shoulder_pan_joint": -0.9139846352900073,
            "wrist_1_joint": 2.146753192139373,
            "wrist_2_joint": -2.2341966793290973,
            "wrist_3_joint": 0.005466555786416001
        }
    },
    "waypoints": [
        {
            "positions": [
                -0.9139846352900073,
                -0.661644460510453,
                1.664937868594044,
                2.146753192139373,
                -2.2341966793290973,
                0.005466555786416001
            ]
        },
        {
            "positions": [
                -0.7873794505075306,
                -0.7210844121851501,
                1.6258680803133632,
                2.1255899549608666,
                -2.116754232587666,
                0.020364521134769227
            ]
        },
        {
            "positions": [
                -0.6607742657250538,
                -0.7805243638598471,
                1.5867982920326822,
                2.10442671778236,
                -1.9993117858462344,
                0.035262486483122454
            ]
        },
        {
            "positions": [
                -0.5341690809425771,
                -0.8399643155345442,
                1.5477285037520012,
                2.0832634806038537,
                -1.8818693391048027,
                0.05016045183147568
            ]
        },
        {
            "positions": [
                -0.4075638961601004,
                -0.8994042672092413,
                1.5086587154713205,
                2.062100243425347,
                -1.7644268923633712,
                0.06505841717982891
            ]
        },
        {
            "positions": [
                -0.43513426088839274,
                -0.9083287756856204,
                1.5290830742100678,
                1.9453507596242086,
                -1.6752533475797793,
                0.18893696709919994
            ]
        },
        {
            "positions": [
                -0.4627046256166851,
                -0.9172532841619997,
                1.5495074329488152,
                1.82860127582307,
                -1.5860798027961875,
                0.312815517018571
            ]
        },
        {
            "positions": [
                -0.49027499034497746,
                -0.9261777926383788,
                1.5699317916875626,
                1.7118517920219316,
                -1.4969062580125958,
                0.436694066937942
            ]
        },
        {
            "positions": [
                -0.5178453550732698,
                -0.9351023011147581,
                1.5903561504263102,
                1.5951023082207931,
                -1.4077327132290038,
                0.5605726168573131
            ]
        },
        {
            "positions": [
                -0.5454157198015621,
                -0.9440268095911373,
                1.6107805091650576,
                1.4783528244196547,
                -1.3185591684454119,
                0.6844511667766842
            ]
        },
        {
            "positions": [
                -0.5729860845298544,
                -0.9529513180675164,
                1.631204867903805,
                1.3616033406185162,
                -1.2293856236618201,
                0.808329716696055
            ]
        },
        {
            "positions": [
                -0.6005564492581468,
                -0.9618758265438957,
                1.6516292266425523,
                1.2448538568173777,
                -1.1402120788782284,
                0.9322082666154263
            ]
        },
        {
            "positions": [
                -0.6281268139864391,
                -0.9708003350202749,
                1.6720535853812997,
                1.1281043730162392,
                -1.0510385340946364,
                1.0560868165347972
            ]
        },
        {
            "positions": [
                -0.6556971787147314,
                -0.9797248434966541,
                1.692477944120047,
                1.011354889215101,
                -0.9618649893110447,
                1.1799653664541683
            ]
        },
        {
            "positions": [
                -0.6832675434430238,
                -0.9886493519730333,
                1.7129023028587946,
                0.8946054054139623,
                -0.8726914445274527,
                1.3038439163735394
            ]
        },
        {
            "positions": [
                -0.7108379081713161,
                -0.9975738604494124,
                1.733326661597542,
                0.7778559216128238,
                -0.7835178997438609,
                1.4277224662929104
            ]
        },
        {
            "positions": [
                -0.7384082728996084,
                -1.0064983689257916,
                1.7537510203362894,
                0.6611064378116855,
                -0.694344354960269,
                1.5516010162122813
            ]
        },
        {
            "positions": [
                -0.7659786376279007,
                -1.015422877402171,
                1.7741753790750368,
                0.5443569540105468,
                -0.6051708101766773,
                1.6754795661316526
            ]
        },
        {
            "positions": [
                -0.7935490023561932,
                -1.0243473858785501,
                1.7945997378137841,
                0.42760747020940837,
                -0.5159972653930853,
                1.7993581160510237
            ]
        },
        {
            "positions": [
                -0.8211193670844854,
                -1.0332718943549293,
                1.8150240965525315,
                0.3108579864082701,
                -0.4268237206094936,
                1.9232366659703946
            ]
        },
        {
            "positions": [
                -0.8486897318127778,
                -1.0421964028313084,
                1.8354484552912789,
                0.19410850260713142,
                -0.3376501758259016,
                2.0471152158897654
            ]
        },
        {
            "positions": [
                -0.8762600965410702,
                -1.0511209113076876,
                1.8558728140300265,
                0.07735901880599294,
                -0.24847663104230966,
                2.1709937658091367
            ]
        },
        {
            "positions": [
                -0.9038304612693625,
                -1.060045419784067,
                1.8762971727687738,
                -0.03939046499514509,
                -0.15930308625871814,
                2.2948723157285076
            ]
        },
        {
            "positions": [
                -0.931400825997655,
                -1.0689699282604461,
                1.8967215315075212,
                -0.1561399487962838,
                -0.07012954147512618,
                2.418750865647879
            ]
        },
        {
            "positions": [
                -0.9589711907259473,
                -1.0778944367368253,
                1.9171458902462686,
                -0.2728894325974225,
                0.019044003308465784,
                2.5426294155672498
            ]
        },
        {
            "positions": [
                -0.9865415554542394,
                -1.0868189452132044,
                1.937570248985016,
                -0.38963891639856074,
                0.10821754809205753,
                2.6665079654866206
            ]
        },
        {
            "positions": [
                -1.014111920182532,
                -1.0957434536895836,
                1.9579946077237635,
                -0.5063884001996994,
                0.1973910928756495,
                2.790386515405992
            ]
        },
        {
            "positions": [
                -1.0416822849108243,
                -1.104667962165963,
                1.978418966462511,
                -0.6231378840008377,
                0.28656463765924145,
                2.914265065325363
            ]
        },
        {
            "positions": [
                -1.0692526496391166,
                -1.1135924706423421,
                1.9988433252012583,
                -0.739887367801976,
                0.3757381824428332,
                3.0381436152447336
            ]
        },
        {
            "positions": [
                -1.096823014367409,
                -1.1225169791187213,
                2.0192676839400057,
                -0.8566368516031146,
                0.4649117272264251,
                3.162022165164105
            ]
        }
    ]
}