{
    "goal": {
        "global_pose": {
            "orientation": {
                "w": 0.005598929693374612,
                "x": 0.007748599140229565,
                "y": 0.7110244013736278,
                "z": -0.7031023480610252
            },
            "position": {
                "x": -0.8858502320852131,
                "y": -0.7141253447532654,
                "z": 0.3711530566215515
            }
        },
        "name": "move_to_auspresseinheit_C"
    },
    "id": "BKPIECE_move_to_auspresseinheit_C_82",
    "joint_names": [
        "shoulder_pan_joint",
        "shoulder_lift_joint",
        "elbow_joint",
        "wrist_1_joint",
        "wrist_2_joint",
        "wrist_3_joint"
    ],
    "metrics": {
        "cart_traj_len": 0.492859023625636,
        "distance_elbow_joint": 0.9958069379972059,
        "distance_shoulder_lift_joint": 0.3232078077746111,
        "distance_shoulder_pan_joint": 0.25607534309143043,
        "distance_wrist_1_joint": 0.6650687903957306,
        "distance_wrist_2_joint": 1.311908210666249,
        "distance_wrist_3_joint": 0.05517320725075381,
        "smoothness": 1.6148698667872622e-16,
        "time": 0.298358512,
        "traj_len": 1.8992736235666468,
        "weighted_distance": 2.386328500592378
    },
    "planner": "BKPIECE",
    "start": {
        "state": {
            "elbow_joint": 1.7527959577737207,
            "shoulder_lift_joint": -0.9740617694225068,
            "shoulder_pan_joint": -2.967991417825858,
            "wrist_1_joint": -0.759517768980727,
            "wrist_2_joint": 1.7443932448377408,
            "wrist_3_joint": -3.0840537646736568
        }
    },
    "waypoints": [
        {
            "positions": [
                -2.967991417825858,
                -0.9740617694225068,
                1.7527959577737207,
                -0.759517768980727,
                1.7443932448377408,
                -3.0840537646736568
            ]
        },
        {
            "positions": [
                -2.942383883516715,
                -0.9417409886450456,
                1.653215263974,
                -0.6930108899411539,
                1.613202423771116,
                -3.089571085398732
            ]
        },
        {
            "positions": [
                -2.916776349207572,
                -0.9094202078675846,
                1.5536345701742795,
                -0.6265040109015808,
                1.482011602704491,
                -3.0950884061238075
            ]
        },
        {
            "positions": [
                -2.8911688148984287,
                -0.8770994270901235,
                1.454053876374559,
                -0.5599971318620078,
                1.3508207816378661,
                -3.100605726848883
            ]
        },
        {
            "positions": [
                -2.8655612805892856,
                -0.8447786463126623,
                1.3544731825748384,
                -0.4934902528224347,
                1.219629960571241,
                -3.1061230475739583
            ]
        },
        {
            "positions": [
                -2.839953746280143,
                -0.8124578655352013,
                1.2548924887751176,
                -0.42698337378286166,
                1.0884391395046165,
                -3.1116403682990335
            ]
        },
        {
            "positions": [
                -2.814346211971,
                -0.7801370847577401,
                1.1553117949753973,
                -0.36047649474328863,
                0.9572483184379915,
                -3.117157689024109
            ]
        },
        {
            "positions": [
                -2.788738677661857,
                -0.747816303980279,
                1.0557311011756765,
                -0.29396961570371555,
                0.8260574973713666,
                -3.1226750097491847
            ]
        },
        {
            "positions": [
                -2.7631311433527137,
                -0.715495523202818,
                0.9561504073759559,
                -0.2274627366641424,
                0.6948666763047415,
                -3.12819233047426
            ]
        },
        {
            "positions": [
                -2.7375236090435706,
                -0.6831747424253567,
                0.8565697135762353,
                -0.16095585762456943,
                0.5636758552381167,
                -3.133709651199335
            ]
        },
        {
            "positions": [
                -2.7119160747344275,
                -0.6508539616478957,
                0.7569890197765148,
                -0.09444897858499633,
                0.43248503417149187,
                -3.1392269719244106
            ]
        }
    ]
}