{
    "goal": {
        "global_pose": {
            "orientation": {
                "w": 0.7031023502349854,
                "x": -0.7110244035720825,
                "y": 0.007748599164187908,
                "z": 0.005598929710686207
            },
            "position": {
                "x": 0.11585023208521307,
                "y": 0.44412534475326537,
                "z": 0.3711530566215515
            }
        },
        "name": "move_to_auspresseinheit_A"
    },
    "id": "BKPIECE_move_to_auspresseinheit_A_67",
    "joint_names": [
        "shoulder_pan_joint",
        "shoulder_lift_joint",
        "elbow_joint",
        "wrist_1_joint",
        "wrist_2_joint",
        "wrist_3_joint"
    ],
    "metrics": {
        "cart_traj_len": 2.9172416935591383,
        "distance_elbow_joint": 6.9152528861710465,
        "distance_shoulder_lift_joint": 1.7770858238258664,
        "distance_shoulder_pan_joint": 1.0492397877107602,
        "distance_wrist_1_joint": 6.786453866915804,
        "distance_wrist_2_joint": 5.205954196196244,
        "distance_wrist_3_joint": 11.934697379304671,
        "smoothness": 0.4298288734983491,
        "time": 0.4659708,
        "traj_len": 5.802472226570708,
        "weighted_distance": 8.338494274258737
    },
    "planner": "BKPIECE",
    "start": {
        "state": {
            "elbow_joint": 2.4225746658250005,
            "shoulder_lift_joint": -1.3736534386056498,
            "shoulder_pan_joint": -0.3378633547517467,
            "wrist_1_joint": -1.0288598680537169,
            "wrist_2_joint": 1.233022673432363,
            "wrist_3_joint": -3.0940220416140027
        }
    },
    "waypoints": [
        {
            "positions": [
                -0.3378633547517467,
                -1.3736534386056498,
                2.4225746658250005,
                -1.0288598680537169,
                1.233022673432363,
                -3.0940220416140027
            ]
        },
        {
            "positions": [
                -0.329998896105367,
                -1.3592092862716865,
                2.34183175708077,
                -0.9434808360753006,
                1.168254362123916,
                -2.9555796505674166
            ]
        },
        {
            "positions": [
                -0.32213443745898723,
                -1.3447651339377233,
                2.2610888483365397,
                -0.8581018040968845,
                1.1034860508154694,
                -2.8171372595208304
            ]
        },
        {
            "positions": [
                -0.3142699788126075,
                -1.33032098160376,
                2.1803459395923093,
                -0.7727227721184684,
                1.0387177395070224,
                -2.678694868474244
            ]
        },
        {
            "positions": [
                -0.30640552016622774,
                -1.3158768292697967,
                2.099603030848079,
                -0.6873437401400522,
                0.9739494281985754,
                -2.540252477427658
            ]
        },
        {
            "positions": [
                -0.298541061519848,
                -1.3014326769358333,
                2.0188601221038485,
                -0.6019647081616359,
                0.9091811168901287,
                -2.4018100863810723
            ]
        },
        {
            "positions": [
                -0.29067660287346825,
                -1.2869885246018702,
                1.938117213359618,
                -0.5165856761832198,
                0.8444128055816817,
                -2.263367695334486
            ]
        },
        {
            "positions": [
                -0.28281214422708845,
                -1.2725443722679068,
                1.8573743046153877,
                -0.4312066442048036,
                0.7796444942732348,
                -2.1249253042879
            ]
        },
        {
            "positions": [
                -0.2749476855807087,
                -1.2581002199339435,
                1.7766313958711573,
                -0.34582761222638747,
                0.7148761829647879,
                -1.9864829132413138
            ]
        },
        {
            "positions": [
                -0.26708322693432895,
                -1.2436560675999804,
                1.6958884871269269,
                -0.26044858024797124,
                0.6501078716563411,
                -1.8480405221947276
            ]
        },
        {
            "positions": [
                -0.2592187682879492,
                -1.229211915266017,
                1.6151455783826965,
                -0.17506954826955512,
                0.5853395603478942,
                -1.7095981311481414
            ]
        },
        {
            "positions": [
                -0.25135430964156946,
                -1.2147677629320537,
                1.534402669638466,
                -0.08969051629113889,
                0.5205712490394473,
                -1.5711557401015552
            ]
        },
        {
            "positions": [
                -0.24348985099518972,
                -1.2003236105980906,
                1.4536597608942357,
                -0.004311484312722769,
                0.45580293773100045,
                -1.4327133490549693
            ]
        },
        {
            "positions": [
                -0.23562539234880997,
                -1.1858794582641272,
                1.3729168521500053,
                0.08106754766569324,
                0.3910346264225536,
                -1.2942709580083833
            ]
        },
        {
            "positions": [
                -0.22776093370243022,
                -1.1714353059301639,
                1.2921739434057746,
                0.1664465796441097,
                0.32626631511410664,
                -1.155828566961797
            ]
        },
        {
            "positions": [
                -0.21989647505605048,
                -1.1569911535962007,
                1.2114310346615442,
                0.2518256116225257,
                0.2614980038056598,
                -1.017386175915211
            ]
        },
        {
            "positions": [
                -0.21203201640967073,
                -1.1425470012622374,
                1.1306881259173138,
                0.33720464360094193,
                0.19672969249721284,
                -0.8789437848686248
            ]
        },
        {
            "positions": [
                -0.20416755776329099,
                -1.128102848928274,
                1.0499452171730836,
                0.42258367557935794,
                0.1319613811887661,
                -0.7405013938220386
            ]
        },
        {
            "positions": [
                -0.1963030991169112,
                -1.1136586965943107,
                0.969202308428853,
                0.5079627075577744,
                0.06719306988031915,
                -0.6020590027754524
            ]
        },
        {
            "positions": [
                -0.18843864047053147,
                -1.0992145442603476,
                0.8884593996846226,
                0.5933417395361904,
                0.0024247585718721876,
                -0.46361661172886626
            ]
        },
        {
            "positions": [
                -0.18057418182415172,
                -1.0847703919263842,
                0.8077164909403922,
                0.6787207715146066,
                -0.06234355273657455,
                -0.3251742206822801
            ]
        },
        {
            "positions": [
                -0.17270972317777197,
                -1.0703262395924211,
                0.7269735821961618,
                0.7640998034930226,
                -0.1271118640450215,
                -0.18673182963569435
            ]
        },
        {
            "positions": [
                -0.16484526453139223,
                -1.0558820872584578,
                0.6462306734519314,
                0.8494788354714391,
                -0.19188017535346846,
                -0.048289438589107725
            ]
        },
        {
            "positions": [
                -0.15698080588501248,
                -1.0414379349244944,
                0.5654877647077012,
                0.9348578674498549,
                -0.2566484866619152,
                0.09015295245747801
            ]
        },
        {
            "positions": [
                -0.14911634723863273,
                -1.026993782590531,
                0.4847448559634706,
                1.0202368994282713,
                -0.32141679797036216,
                0.22859534350406419
            ]
        },
        {
            "positions": [
                -0.14125188859225296,
                -1.0125496302565677,
                0.40400194721924,
                1.1056159314066878,
                -0.3861851092788091,
                0.3670377345506508
            ]
        },
        {
            "positions": [
                -0.13338742994587324,
                -0.9981054779226046,
                0.32325903847501003,
                1.1909949633851034,
                -0.45095342058725585,
                0.5054801255972361
            ]
        },
        {
            "positions": [
                -0.12552297129949347,
                -0.9836613255886413,
                0.24251612973077918,
                1.2763739953635198,
                -0.5157217318957028,
                0.6439225166438227
            ]
        },
        {
            "positions": [
                -0.11765851265311372,
                -0.9692171732546779,
                0.16177322098654878,
                1.3617530273419363,
                -0.5804900432041498,
                0.7823649076904089
            ]
        },
        {
            "positions": [
                -0.10979405400673398,
                -0.9547730209207148,
                0.08103031224231882,
                1.4471320593203523,
                -0.6452583545125965,
                0.9208072987369951
            ]
        },
        {
            "positions": [
                -0.10192959536035423,
                -0.9403288685867515,
                0.00028740349808797916,
                1.5325110912987683,
                -0.7100266658210435,
                1.0592496897835808
            ]
        },
        {
            "positions": [
                -0.09406513671397448,
                -0.9258847162527882,
                -0.08045550524614198,
                1.6178901232771843,
                -0.7747949771294904,
                1.1976920808301665
            ]
        },
        {
            "positions": [
                -0.08620067806759474,
                -0.911440563918825,
                -0.16119841399037282,
                1.7032691552556007,
                -0.8395632884379374,
                1.3361344718767532
            ]
        },
        {
            "positions": [
                -0.07833621942121499,
                -0.8969964115848617,
                -0.24194132273460323,
                1.7886481872340172,
                -0.9043315997463843,
                1.4745768629233398
            ]
        },
        {
            "positions": [
                -0.07047176077483525,
                -0.8825522592508984,
                -0.3226842314788332,
                1.8740272192124328,
                -0.9690999110548308,
                1.6130192539699255
            ]
        },
        {
            "positions": [
                -0.0626073021284555,
                -0.8681081069169351,
                -0.40342714022306403,
                1.9594062511908492,
                -1.0338682223632778,
                1.7514616450165112
            ]
        },
        {
            "positions": [
                -0.0547428434820757,
                -0.8536639545829718,
                -0.48417004896729443,
                2.044785283169266,
                -1.0986365336717248,
                1.8899040360630979
            ]
        },
        {
            "positions": [
                -0.04687838483569601,
                -0.8392198022490086,
                -0.5649129577115248,
                2.130164315147682,
                -1.1634048449801717,
                2.0283464271096836
            ]
        },
        {
            "positions": [
                -0.039013926189316206,
                -0.8247756499150453,
                -0.6456558664557552,
                2.215543347126098,
                -1.2281731562886187,
                2.1667888181562702
            ]
        },
        {
            "positions": [
                -0.031149467542936515,
                -0.810331497581082,
                -0.7263987751999852,
                2.300922379104514,
                -1.2929414675970652,
                2.305231209202856
            ]
        },
        {
            "positions": [
                -0.023285008896556714,
                -0.7958873452471187,
                -0.807141683944216,
                2.38630141108293,
                -1.3577097789055121,
                2.4436736002494426
            ]
        },
        {
            "positions": [
                -0.015420550250176968,
                -0.7814431929131554,
                -0.8878845926884464,
                2.471680443061346,
                -1.4224780902139595,
                2.5821159912960283
            ]
        },
        {
            "positions": [
                -0.0075560916037972214,
                -0.7669990405791922,
                -0.9686275014326768,
                2.557059475039762,
                -1.487246401522406,
                2.720558382342614
            ]
        },
        {
            "positions": [
                0.0003083670425825247,
                -0.7525548882452289,
                -1.0493704101769072,
                2.6424385070181784,
                -1.5520147128308532,
                2.859000773389201
            ]
        },
        {
            "positions": [
                0.011987231484842455,
                -0.7788547410787987,
                -0.9683794535909906,
                2.574947093990464,
                -1.4947428471682134,
                2.714144796570029
            ]
        },
        {
            "positions": [
                0.023666095927102386,
                -0.8051545939123685,
                -0.887388497005074,
                2.50745568096275,
                -1.4374709815055737,
                2.5692888197508568
            ]
        },
        {
            "positions": [
                0.03534496036936231,
                -0.8314544467459384,
                -0.8063975404191575,
                2.4399642679350357,
                -1.3801991158429339,
                2.424432842931685
            ]
        },
        {
            "positions": [
                0.04702382481162225,
                -0.8577542995795082,
                -0.7254065838332407,
                2.372472854907321,
                -1.3229272501802942,
                2.279576866112513
            ]
        },
        {
            "positions": [
                0.05870268925388217,
                -0.884054152413078,
                -0.6444156272473242,
                2.304981441879607,
                -1.2656553845176544,
                2.134720889293341
            ]
        },
        {
            "positions": [
                0.0703815536961421,
                -0.9103540052466479,
                -0.5634246706614076,
                2.2374900288518926,
                -1.2083835188550147,
                1.989864912474169
            ]
        },
        {
            "positions": [
                0.08206041813840204,
                -0.9366538580802177,
                -0.48243371407549085,
                2.1699986158241784,
                -1.1511116531923749,
                1.8450089356549966
            ]
        },
        {
            "positions": [
                0.09373928258066197,
                -0.9629537109137876,
                -0.40144275748957425,
                2.102507202796464,
                -1.0938397875297352,
                1.7001529588358246
            ]
        },
        {
            "positions": [
                0.10541814702292189,
                -0.9892535637473574,
                -0.32045180090365766,
                2.03501578976875,
                -1.0365679218670953,
                1.5552969820166527
            ]
        },
        {
            "positions": [
                0.11709701146518181,
                -1.0155534165809272,
                -0.23946084431774106,
                1.9675243767410358,
                -0.9792960562044556,
                1.4104410051974805
            ]
        },
        {
            "positions": [
                0.12877587590744174,
                -1.041853269414497,
                -0.15846988773182435,
                1.9000329637133213,
                -0.9220241905418157,
                1.2655850283783083
            ]
        },
        {
            "positions": [
                0.14045474034970168,
                -1.068153122248067,
                -0.07747893114590787,
                1.8325415506856073,
                -0.8647523248791761,
                1.1207290515591366
            ]
        },
        {
            "positions": [
                0.1521336047919616,
                -1.0944529750816367,
                0.003512025440008726,
                1.7650501376578929,
                -0.8074804592165362,
                0.9758730747399644
            ]
        },
        {
            "positions": [
                0.16381246923422155,
                -1.1207528279152066,
                0.08450298202592554,
                1.6975587246301784,
                -0.7502085935538965,
                0.831017097920792
            ]
        },
        {
            "positions": [
                0.17549133367648145,
                -1.1470526807487764,
                0.16549393861184192,
                1.6300673116024642,
                -0.6929367278912567,
                0.6861611211016201
            ]
        },
        {
            "positions": [
                0.18717019811874142,
                -1.1733525335823463,
                0.24648489519775874,
                1.56257589857475,
                -0.635664862228617,
                0.5413051442824481
            ]
        },
        {
            "positions": [
                0.19884906256100132,
                -1.199652386415916,
                0.3274758517836751,
                1.4950844855470358,
                -0.5783929965659772,
                0.3964491674632762
            ]
        },
        {
            "positions": [
                0.21052792700326126,
                -1.225952239249486,
                0.4084668083695919,
                1.4275930725193215,
                -0.5211211309033374,
                0.25159319064410424
            ]
        },
        {
            "positions": [
                0.2222067914455212,
                -1.2522520920830558,
                0.4894577649555085,
                1.360101659491607,
                -0.4638492652406976,
                0.10673721382493184
            ]
        },
        {
            "positions": [
                0.2338856558877811,
                -1.2785519449166256,
                0.5704487215414251,
                1.2926102464638929,
                -0.40657739957805794,
                -0.03811876299424011
            ]
        },
        {
            "positions": [
                0.24556452033004106,
                -1.3048517977501954,
                0.6514396781273417,
                1.2251188334361787,
                -0.3493055339154181,
                -0.18297473981341206
            ]
        },
        {
            "positions": [
                0.25724338477230096,
                -1.3311516505837653,
                0.7324306347132585,
                1.1576274204084642,
                -0.2920336682527782,
                -0.32783071663258445
            ]
        },
        {
            "positions": [
                0.2689222492145609,
                -1.3574515034173353,
                0.8134215912991751,
                1.09013600738075,
                -0.23476180259013857,
                -0.4726866934517564
            ]
        },
        {
            "positions": [
                0.28060111365682083,
                -1.383751356250905,
                0.8944125478850915,
                1.022644594353036,
                -0.17748993692749893,
                -0.6175426702709279
            ]
        },
        {
            "positions": [
                0.29227997809908074,
                -1.4100512090844748,
                0.9754035044710081,
                0.9551531813253216,
                -0.12021807126485906,
                -0.7623986470901003
            ]
        },
        {
            "positions": [
                0.3039588425413407,
                -1.4363510619180446,
                1.0563944610569247,
                0.8876617682976073,
                -0.0629462056022192,
                -0.9072546239092723
            ]
        },
        {
            "positions": [
                0.3156377069836006,
                -1.4626509147516147,
                1.1373854176428417,
                0.8201703552698929,
                -0.0056743399395795535,
                -1.0521106007284446
            ]
        },
        {
            "positions": [
                0.32731657142586057,
                -1.4889507675851845,
                1.2183763742287583,
                0.7526789422421787,
                0.05159752572306031,
                -1.196966577547617
            ]
        },
        {
            "positions": [
                0.3389954358681205,
                -1.5152506204187541,
                1.2993673308146745,
                0.6851875292144645,
                0.10886939138569995,
                -1.341822554366788
            ]
        },
        {
            "positions": [
                0.3506743003103804,
                -1.541550473252324,
                1.380358287400591,
                0.61769611618675,
                0.16614125704833982,
                -1.486678531185961
            ]
        },
        {
            "positions": [
                0.36235316475264034,
                -1.567850326085894,
                1.4613492439865081,
                0.5502047031590358,
                0.22341312271097946,
                -1.6315345080051329
            ]
        },
        {
            "positions": [
                0.3740320291949003,
                -1.5941501789194639,
                1.5423402005724247,
                0.4827132901313216,
                0.2806849883736193,
                -1.7763904848243048
            ]
        },
        {
            "positions": [
                0.3857108936371602,
                -1.6204500317530337,
                1.6233311571583413,
                0.41522187710360736,
                0.3379568540362592,
                -1.9212464616434768
            ]
        },
        {
            "positions": [
                0.3973897580794201,
                -1.6467498845866033,
                1.7043221137442575,
                0.34773046407589314,
                0.39522871969889883,
                -2.0661024384626487
            ]
        },
        {
            "positions": [
                0.40906862252168,
                -1.6730497374201734,
                1.7853130703301745,
                0.2802390510481789,
                0.4525005853615385,
                -2.2109584152818207
            ]
        },
        {
            "positions": [
                0.42074748696394,
                -1.6993495902537432,
                1.866304026916091,
                0.2127476380204647,
                0.5097724510241783,
                -2.3558143921009926
            ]
        },
        {
            "positions": [
                0.43242635140619995,
                -1.725649443087313,
                1.9472949835020077,
                0.14525622499275004,
                0.5670443166868182,
                -2.5006703689201655
            ]
        },
        {
            "positions": [
                0.44410521584845986,
                -1.7519492959208829,
                2.0282859400879243,
                0.07776481196503582,
                0.6243161823494581,
                -2.6455263457393374
            ]
        },
        {
            "positions": [
                0.45578408029071976,
                -1.7782491487544527,
                2.109276896673841,
                0.010273398937322042,
                0.6815880480120975,
                -2.7903823225585085
            ]
        },
        {
            "positions": [
                0.46746294473297967,
                -1.8045490015880226,
                2.1902678532597575,
                -0.05721801409039262,
                0.7388599136747374,
                -2.9352382993776813
            ]
        },
        {
            "positions": [
                0.47914180917523963,
                -1.8308488544215924,
                2.271258809845674,
                -0.12470942711810665,
                0.7961317793373772,
                -3.0800942761968537
            ]
        },
        {
            "positions": [
                0.5565533504364977,
                -1.856746623517953,
                2.3121516732278606,
                -0.2407119463539822,
                0.7718750067491112,
                -3.094287447768655
            ]
        },
        {
            "positions": [
                0.6339648916977556,
                -1.8826443926143137,
                2.353044536610047,
                -0.3567144655898577,
                0.7476182341608454,
                -3.1084806193404564
            ]
        },
        {
            "positions": [
                0.7113764329590136,
                -1.9085421617106744,
                2.3939373999922338,
                -0.4727169848257332,
                0.7233614615725794,
                -3.1226737909122577
            ]
        }
    ]
}