{
    "goal": {
        "global_pose": {
            "orientation": {
                "w": -0.00223480608172531,
                "x": 0.0024358444001904467,
                "y": 0.7094548369677653,
                "z": -0.704743149386269
            },
            "position": {
                "x": 0.6205249238014221,
                "y": -0.6371506643295288,
                "z": 0.19426114857196808
            }
        },
        "name": "move_to_magneteinheit_B"
    },
    "id": "BKPIECE_move_to_magneteinheit_B_150",
    "joint_names": [
        "shoulder_pan_joint",
        "shoulder_lift_joint",
        "elbow_joint",
        "wrist_1_joint",
        "wrist_2_joint",
        "wrist_3_joint"
    ],
    "metrics": {
        "cart_traj_len": 1.4015786264376155,
        "distance_elbow_joint": 1.4109087599613719,
        "distance_shoulder_lift_joint": 1.1998987722733054,
        "distance_shoulder_pan_joint": 1.6212580147967688,
        "distance_wrist_1_joint": 0.2890389909561679,
        "distance_wrist_2_joint": 1.7980470381965137,
        "distance_wrist_3_joint": 0.009301022427971904,
        "smoothness": 0.8141661244091687,
        "time": 0.53312338,
        "traj_len": 2.5156415878682123,
        "weighted_distance": 2.904159202354569
    },
    "planner": "BKPIECE",
    "start": {
        "state": {
            "elbow_joint": 2.6216224122426386,
            "shoulder_lift_joint": -1.4174107377796124,
            "shoulder_pan_joint": 0.7066234856936794,
            "wrist_1_joint": 1.9546482284002225,
            "wrist_2_joint": -0.7096286983471962,
            "wrist_3_joint": 0.005740856962016249
        }
    },
    "waypoints": [
        {
            "positions": [
                0.7066234856936794,
                -1.4174107377796124,
                2.6216224122426386,
                1.9546482284002225,
                -0.7096286983471962,
                0.005740856962016249
            ]
        },
        {
            "positions": [
                0.5750169767406925,
                -1.4728137727089745,
                2.6785507051413697,
                2.0137741292521745,
                -0.6743210222413251,
                0.0051487278046182024
            ]
        },
        {
            "positions": [
                0.44341046778770576,
                -1.528216807638337,
                2.7354789980401013,
                2.072900030104126,
                -0.6390133461354539,
                0.004556598647220155
            ]
        },
        {
            "positions": [
                0.31180395883471895,
                -1.5836198425676993,
                2.792407290938833,
                2.132025930956078,
                -0.6037056700295828,
                0.003964469489822108
            ]
        },
        {
            "positions": [
                0.18019744988173214,
                -1.6390228774970614,
                2.849335583837564,
                2.19115183180803,
                -0.5683979939237116,
                0.003372340332424062
            ]
        },
        {
            "positions": [
                0.0959796053444382,
                -1.5637700596081494,
                2.7583205385786065,
                2.187110648150464,
                -0.6958454042139446,
                0.0039056100092225016
            ]
        },
        {
            "positions": [
                0.01176176080714425,
                -1.4885172417192374,
                2.667305493319649,
                2.1830694644928976,
                -0.8232928145041776,
                0.004438879686020941
            ]
        },
        {
            "positions": [
                -0.07245608373014972,
                -1.4132644238303254,
                2.576290448060692,
                2.1790282808353316,
                -0.9507402247944106,
                0.004972149362819381
            ]
        },
        {
            "positions": [
                -0.15667392826744364,
                -1.3380116059414133,
                2.4852754028017343,
                2.174987097177765,
                -1.0781876350846438,
                0.005505419039617821
            ]
        },
        {
            "positions": [
                -0.24089177280473761,
                -1.2627587880525013,
                2.3942603575427768,
                2.170945913520199,
                -1.2056350453748768,
                0.006038688716416261
            ]
        },
        {
            "positions": [
                -0.3251096173420316,
                -1.1875059701635893,
                2.3032453122838197,
                2.166904729862633,
                -1.3330824556651097,
                0.0065719583932147005
            ]
        },
        {
            "positions": [
                -0.40932746187932545,
                -1.1122531522746772,
                2.212230267024862,
                2.1628635462050667,
                -1.4605298659553427,
                0.00710522807001314
            ]
        },
        {
            "positions": [
                -0.4935453064166194,
                -1.0370003343857652,
                2.1212152217659046,
                2.1588223625475007,
                -1.5879772762455757,
                0.007638497746811581
            ]
        },
        {
            "positions": [
                -0.5777631509539134,
                -0.9617475164968532,
                2.0302001765069475,
                2.1547811788899347,
                -1.7154246865358087,
                0.008171767423610019
            ]
        },
        {
            "positions": [
                -0.6619809954912074,
                -0.8864946986079412,
                1.9391851312479897,
                2.1507399952323683,
                -1.8428720968260417,
                0.00870503710040846
            ]
        },
        {
            "positions": [
                -0.7461988400285012,
                -0.8112418807190291,
                1.8481700859890324,
                2.1466988115748022,
                -1.9703195071162747,
                0.0092383067772069
            ]
        },
        {
            "positions": [
                -0.8304166845657953,
                -0.7359890628301171,
                1.757155040730075,
                2.142657627917236,
                -2.0977669174065077,
                0.009771576454005339
            ]
        },
        {
            "positions": [
                -0.9146345291030893,
                -0.6607362449412051,
                1.6661399954711176,
                2.13861644425967,
                -2.2252143276967407,
                0.010304846130803779
            ]
        }
    ]
}