{
    "goal": {
        "global_pose": {
            "orientation": {
                "w": 0.7047431468963623,
                "x": -0.7094548344612122,
                "y": 0.0024358443915843964,
                "z": -0.0022348060738295317
            },
            "position": {
                "x": 0.6094750761985779,
                "y": 0.3671506643295288,
                "z": 0.19426114857196808
            }
        },
        "name": "move_to_magneteinheit_A"
    },
    "id": "BKPIECE_move_to_magneteinheit_A_132",
    "joint_names": [
        "shoulder_pan_joint",
        "shoulder_lift_joint",
        "elbow_joint",
        "wrist_1_joint",
        "wrist_2_joint",
        "wrist_3_joint"
    ],
    "metrics": {
        "cart_traj_len": 3.1553640888634957,
        "distance_elbow_joint": 3.8742329134586306,
        "distance_shoulder_lift_joint": 0.8823137137101338,
        "distance_shoulder_pan_joint": 2.997602089904139,
        "distance_wrist_1_joint": 1.915859583264558,
        "distance_wrist_2_joint": 1.8281029438281313,
        "distance_wrist_3_joint": 3.6952166031049933,
        "smoothness": 0.210186528497926,
        "time": 0.182162249,
        "traj_len": 3.8978619584678182,
        "weighted_distance": 5.131054821435185
    },
    "planner": "BKPIECE",
    "start": {
        "state": {
            "elbow_joint": -1.9196185241190666,
            "shoulder_lift_joint": -1.2443396400964142,
            "shoulder_pan_joint": 2.6996025414629847,
            "wrist_1_joint": -1.5485510000780065,
            "wrist_2_joint": -1.5709468930060704,
            "wrist_3_joint": 0.4420197071253992
        }
    },
    "waypoints": [
        {
            "positions": [
                2.6996025414629847,
                -1.2443396400964142,
                -1.9196185241190666,
                -1.5485510000780065,
                -1.5709468930060704,
                0.4420197071253992
            ]
        },
        {
            "positions": [
                2.6057888846625166,
                -1.2580666112381258,
                -1.7955610960862791,
                -1.499248989777653,
                -1.5164879839166638,
                0.39387230123519335
            ]
        },
        {
            "positions": [
                2.511975227862049,
                -1.2717935823798376,
                -1.6715036680534918,
                -1.4499469794772994,
                -1.4620290748272575,
                0.34572489534498746
            ]
        },
        {
            "positions": [
                2.4181615710615807,
                -1.2855205535215493,
                -1.5474462400207043,
                -1.400644969176946,
                -1.407570165737851,
                0.2975774894547816
            ]
        },
        {
            "positions": [
                2.3243479142611125,
                -1.2992475246632609,
                -1.4233888119879168,
                -1.3513429588765926,
                -1.3531112566484447,
                0.24943008356457574
            ]
        },
        {
            "positions": [
                2.230534257460645,
                -1.3129744958049727,
                -1.2993313839551295,
                -1.3020409485762392,
                -1.2986523475590381,
                0.20128267767436986
            ]
        },
        {
            "positions": [
                2.1367206006601767,
                -1.3267014669466843,
                -1.175273955922342,
                -1.2527389382758858,
                -1.2441934384696318,
                0.15313527178416403
            ]
        },
        {
            "positions": [
                2.042906943859709,
                -1.340428438088396,
                -1.0512165278895544,
                -1.2034369279755321,
                -1.1897345293802253,
                0.10498786589395814
            ]
        },
        {
            "positions": [
                1.9490932870592408,
                -1.3541554092301078,
                -0.927159099856767,
                -1.1541349176751787,
                -1.1352756202908187,
                0.05684046000375231
            ]
        },
        {
            "positions": [
                1.8552796302587726,
                -1.3678823803718194,
                -0.8031016718239794,
                -1.104832907374825,
                -1.0808167112014122,
                0.008693054113546372
            ]
        },
        {
            "positions": [
                1.7614659734583047,
                -1.3816093515135313,
                -0.6790442437911921,
                -1.0555308970744717,
                -1.026357802112006,
                -0.03945435177665946
            ]
        },
        {
            "positions": [
                1.6676523166578368,
                -1.3953363226552429,
                -0.5549868157584046,
                -1.0062288867741183,
                -0.9718988930225995,
                -0.08760175766686529
            ]
        },
        {
            "positions": [
                1.5738386598573688,
                -1.4090632937969545,
                -0.4309293877256173,
                -0.9569268764737648,
                -0.917439983933193,
                -0.13574916355707112
            ]
        },
        {
            "positions": [
                1.4800250030569007,
                -1.4227902649386663,
                -0.30687195969282954,
                -0.9076248661734113,
                -0.8629810748437865,
                -0.18389656944727706
            ]
        },
        {
            "positions": [
                1.3862113462564327,
                -1.436517236080378,
                -0.18281453166004225,
                -0.8583228558730579,
                -0.8085221657543801,
                -0.2320439753374829
            ]
        },
        {
            "positions": [
                1.2923976894559648,
                -1.4502442072220896,
                -0.05875710362725495,
                -0.8090208455727045,
                -0.7540632566649736,
                -0.2801913812276887
            ]
        },
        {
            "positions": [
                1.1985840326554968,
                -1.4639711783638014,
                0.06530032440553257,
                -0.759718835272351,
                -0.6996043475755672,
                -0.32833878711789455
            ]
        },
        {
            "positions": [
                1.104770375855029,
                -1.477698149505513,
                0.18935775243831987,
                -0.7104168249719975,
                -0.6451454384861608,
                -0.3764861930081004
            ]
        },
        {
            "positions": [
                1.0109567190545605,
                -1.4914251206472247,
                0.31341518047110783,
                -0.6611148146716439,
                -0.5906865293967541,
                -0.42463359889830643
            ]
        },
        {
            "positions": [
                0.9171430622540926,
                -1.5051520917889365,
                0.43747260850389535,
                -0.6118128043712905,
                -0.5362276203073477,
                -0.47278100478851226
            ]
        },
        {
            "positions": [
                0.8233294054536247,
                -1.5188790629306481,
                0.5615300365366824,
                -0.5625107940709371,
                -0.4817687112179414,
                -0.5209284106787181
            ]
        },
        {
            "positions": [
                0.7295157486531567,
                -1.53260603407236,
                0.68558746456947,
                -0.5132087837705837,
                -0.42730980212853487,
                -0.5690758165689239
            ]
        },
        {
            "positions": [
                0.6357020918526888,
                -1.5463330052140716,
                0.8096448926022575,
                -0.46390677347023024,
                -0.37285089303912855,
                -0.6172232224591298
            ]
        },
        {
            "positions": [
                0.5418884350522206,
                -1.5600599763557832,
                0.9337023206350445,
                -0.4146047631698766,
                -0.318391983949722,
                -0.6653706283493356
            ]
        },
        {
            "positions": [
                0.4480747782517529,
                -1.5737869474974948,
                1.057759748667832,
                -0.3653027528695232,
                -0.2639330748603157,
                -0.7135180342395414
            ]
        },
        {
            "positions": [
                0.35426112145128474,
                -1.5875139186392067,
                1.18181717670062,
                -0.31600074256916955,
                -0.20947416577090894,
                -0.7616654401297475
            ]
        },
        {
            "positions": [
                0.2604474646508166,
                -1.6012408897809183,
                1.3058746047334076,
                -0.26669873226881613,
                -0.15501525668150262,
                -0.8098128460199533
            ]
        },
        {
            "positions": [
                0.16663380785034887,
                -1.6149678609226301,
                1.4299320327661946,
                -0.21739672196846271,
                -0.10055634759209608,
                -0.8579602519101591
            ]
        },
        {
            "positions": [
                0.07282015104988054,
                -1.6286948320643417,
                1.5539894607989821,
                -0.16809471166810924,
                -0.0460974385026898,
                -0.9061076578003648
            ]
        },
        {
            "positions": [
                0.0460512729894886,
                -1.587348698331582,
                1.5920639644319714,
                -0.23059393226145625,
                -0.005970736573360981,
                -1.089800300928775
            ]
        },
        {
            "positions": [
                0.019282394929096655,
                -1.5460025645988222,
                1.6301384680649604,
                -0.2930931528548032,
                0.034155965355967835,
                -1.273492944057185
            ]
        },
        {
            "positions": [
                -0.007486483131295296,
                -1.5046564308660626,
                1.6682129716979497,
                -0.3555923734481502,
                0.07428266728529666,
                -1.457185587185595
            ]
        },
        {
            "positions": [
                -0.034255361191687234,
                -1.463310297133303,
                1.706287475330939,
                -0.4180915940414972,
                0.11440936921462547,
                -1.640878230314005
            ]
        },
        {
            "positions": [
                -0.0610242392520792,
                -1.421964163400543,
                1.744361978963928,
                -0.4805908146348442,
                0.1545360711439543,
                -1.824570873442415
            ]
        },
        {
            "positions": [
                -0.08779311731247114,
                -1.3806180296677835,
                1.7824364825969172,
                -0.5430900352281912,
                0.1946627730732831,
                -2.008263516570825
            ]
        },
        {
            "positions": [
                -0.05275871212435756,
                -1.3389710764435088,
                1.8111328003873586,
                -0.569824697110621,
                0.18424722678182,
                -2.2157524131389534
            ]
        },
        {
            "positions": [
                -0.01772430693624398,
                -1.297324123219234,
                1.8398291181778,
                -0.5965593589930508,
                0.17383168049035694,
                -2.4232413097070817
            ]
        },
        {
            "positions": [
                0.017310098251869604,
                -1.2556771699949594,
                1.868525435968241,
                -0.6232940208754807,
                0.16341613419889384,
                -2.63073020627521
            ]
        },
        {
            "positions": [
                0.052344503439983175,
                -1.214030216770685,
                1.8972217537586824,
                -0.6500286827579105,
                0.15300058790743076,
                -2.838219102843338
            ]
        },
        {
            "positions": [
                0.08737890862809677,
                -1.1723832635464102,
                1.9259180715491238,
                -0.6767633446403403,
                0.14258504161596763,
                -3.0457079994114666
            ]
        },
        {
            "positions": [
                0.12241331381621036,
                -1.1307363103221355,
                1.954614389339565,
                -0.7034980065227701,
                0.13216949532450456,
                -3.2531968959795945
            ]
        }
    ]
}