{
    "goal": {
        "global_pose": {
            "orientation": {
                "w": -0.4816463035849501,
                "x": 0.5182115481033762,
                "y": 0.4908360881923453,
                "z": -0.5084816262002911
            },
            "position": {
                "x": -0.8240239810943604,
                "y": 0.19912469901144506,
                "z": 0.16403168439865112
            }
        },
        "name": "move_to_storage_D"
    },
    "id": "BKPIECE_move_to_storage_D_142",
    "joint_names": [
        "shoulder_pan_joint",
        "shoulder_lift_joint",
        "elbow_joint",
        "wrist_1_joint",
        "wrist_2_joint",
        "wrist_3_joint"
    ],
    "metrics": {
        "cart_traj_len": 3.828086844865221,
        "distance_elbow_joint": 4.208288020442897,
        "distance_shoulder_lift_joint": 1.2658958595209147,
        "distance_shoulder_pan_joint": 2.8122938219283253,
        "distance_wrist_1_joint": 2.2692684725588212,
        "distance_wrist_2_joint": 0.8706120913221841,
        "distance_wrist_3_joint": 3.1426957466689993,
        "smoothness": 2.2773805813666517e-16,
        "time": 0.24245903,
        "traj_len": 3.816943019281549,
        "weighted_distance": 4.898400358245654
    },
    "planner": "BKPIECE",
    "start": {
        "state": {
            "elbow_joint": -2.384821988534728,
            "shoulder_lift_joint": -2.2788054721415256,
            "shoulder_pan_joint": -0.1854694642142757,
            "wrist_1_joint": 1.4845938289331202,
            "wrist_2_joint": 0.17898776772866878,
            "wrist_3_joint": 0.037105688729662994
        }
    },
    "waypoints": [
        {
            "positions": [
                -0.1854694642142757,
                -2.2788054721415256,
                -2.384821988534728,
                1.4845938289331202,
                0.17898776772866878,
                0.037105688729662994
            ]
        },
        {
            "positions": [
                -0.10089595541730571,
                -2.2446350484910056,
                -2.258069789357432,
                1.4118005019860425,
                0.199004349119966,
                0.08576387354120163
            ]
        },
        {
            "positions": [
                -0.016322446620335718,
                -2.2104646248404856,
                -2.1313175901801364,
                1.3390071750389645,
                0.21902093051126323,
                0.13442205835274026
            ]
        },
        {
            "positions": [
                0.06825106217663426,
                -2.1762942011899655,
                -2.004565391002841,
                1.2662138480918868,
                0.23903751190256045,
                0.1830802431642789
            ]
        },
        {
            "positions": [
                0.15282457097360427,
                -2.142123777539445,
                -1.8778131918255454,
                1.1934205211448088,
                0.25905409329385765,
                0.23173842797581753
            ]
        },
        {
            "positions": [
                0.23739807977057428,
                -2.107953353888925,
                -1.7510609926482497,
                1.120627194197731,
                0.2790706746851549,
                0.28039661278735617
            ]
        },
        {
            "positions": [
                0.32197158856754426,
                -2.073782930238405,
                -1.624308793470954,
                1.047833867250653,
                0.29908725607645215,
                0.3290547975988948
            ]
        },
        {
            "positions": [
                0.4065450973645144,
                -2.039612506587885,
                -1.4975565942936582,
                0.9750405403035752,
                0.31910383746774934,
                0.3777129824104335
            ]
        },
        {
            "positions": [
                0.4911186061614843,
                -2.005442082937365,
                -1.3708043951163627,
                0.9022472133564974,
                0.33912041885904654,
                0.4263711672219721
            ]
        },
        {
            "positions": [
                0.5756921149584543,
                -1.971271659286845,
                -1.2440521959390671,
                0.8294538864094195,
                0.3591370002503438,
                0.4750293520335107
            ]
        },
        {
            "positions": [
                0.6602656237554243,
                -1.9371012356363249,
                -1.1172999967617714,
                0.7566605594623417,
                0.37915358164164104,
                0.5236875368450494
            ]
        },
        {
            "positions": [
                0.7448391325523942,
                -1.9029308119858048,
                -0.9905477975844759,
                0.6838672325152639,
                0.39917016303293823,
                0.572345721656588
            ]
        },
        {
            "positions": [
                0.8294126413493642,
                -1.8687603883352846,
                -0.8637955984071801,
                0.6110739055681861,
                0.4191867444242354,
                0.6210039064681266
            ]
        },
        {
            "positions": [
                0.9139861501463343,
                -1.8345899646847645,
                -0.7370433992298844,
                0.5382805786211081,
                0.4392033258155327,
                0.6696620912796654
            ]
        },
        {
            "positions": [
                0.9985596589433045,
                -1.8004195410342443,
                -0.6102912000525886,
                0.46548725167403027,
                0.4592199072068299,
                0.718320276091204
            ]
        },
        {
            "positions": [
                1.0831331677402742,
                -1.7662491173837243,
                -0.4835390008752931,
                0.3926939247269523,
                0.4792364885981272,
                0.7669784609027427
            ]
        },
        {
            "positions": [
                1.1677066765372441,
                -1.7320786937332042,
                -0.35678680169799737,
                0.31990059777987456,
                0.4992530699894243,
                0.8156366457142812
            ]
        },
        {
            "positions": [
                1.252280185334214,
                -1.6979082700826842,
                -0.23003460252070207,
                0.24710727083279682,
                0.5192696513807216,
                0.8642948305258198
            ]
        },
        {
            "positions": [
                1.3368536941311842,
                -1.6637378464321642,
                -0.10328240334340633,
                0.17431394388571886,
                0.5392862327720188,
                0.9129530153373585
            ]
        },
        {
            "positions": [
                1.421427202928154,
                -1.6295674227816441,
                0.023469795833889417,
                0.10152061693864112,
                0.5593028141633161,
                0.9616112001488971
            ]
        },
        {
            "positions": [
                1.5060007117251242,
                -1.5953969991311239,
                0.15022199501118516,
                0.028727289991563154,
                0.5793193955546133,
                1.0102693849604358
            ]
        },
        {
            "positions": [
                1.590574220522094,
                -1.5612265754806038,
                0.2769741941884809,
                -0.04406603695551459,
                0.5993359769459105,
                1.0589275697719744
            ]
        },
        {
            "positions": [
                1.675147729319064,
                -1.5270561518300838,
                0.4037263933657762,
                -0.11685936390259233,
                0.6193525583372077,
                1.107585754583513
            ]
        },
        {
            "positions": [
                1.7597212381160343,
                -1.4928857281795636,
                0.530478592543072,
                -0.1896526908496703,
                0.639369139728505,
                1.1562439393950517
            ]
        },
        {
            "positions": [
                1.844294746913004,
                -1.4587153045290435,
                0.6572307917203677,
                -0.26244601779674803,
                0.6593857211198021,
                1.2049021242065903
            ]
        },
        {
            "positions": [
                1.9288682557099741,
                -1.4245448808785235,
                0.783982990897663,
                -0.335239344743826,
                0.6794023025110993,
                1.2535603090181289
            ]
        },
        {
            "positions": [
                2.0134417645069442,
                -1.3903744572280035,
                0.9107351900749592,
                -0.40803267169090396,
                0.6994188839023966,
                1.3022184938296677
            ]
        },
        {
            "positions": [
                2.098015273303914,
                -1.3562040335774834,
                1.0374873892522545,
                -0.4808259986379817,
                0.7194354652936937,
                1.3508766786412063
            ]
        },
        {
            "positions": [
                2.1825887821008845,
                -1.3220336099269632,
                1.1642395884295507,
                -0.5536193255850597,
                0.739452046684991,
                1.399534863452745
            ]
        },
        {
            "positions": [
                2.267162290897854,
                -1.2878631862764431,
                1.290991787606846,
                -0.6264126525321376,
                0.7594686280762882,
                1.4481930482642835
            ]
        },
        {
            "positions": [
                2.3071247427663204,
                -1.257312789203573,
                1.350155592529215,
                -0.6439973182092003,
                0.7917054315179065,
                1.6405939801681033
            ]
        },
        {
            "positions": [
                2.3470871946347867,
                -1.2267623921307027,
                1.4093193974515843,
                -0.661581983886263,
                0.8239422349595248,
                1.832994912071923
            ]
        },
        {
            "positions": [
                2.3870496465032525,
                -1.1962119950578325,
                1.4684832023739534,
                -0.6791666495633256,
                0.8561790384011431,
                2.025395843975743
            ]
        },
        {
            "positions": [
                2.4270120983717187,
                -1.1656615979849623,
                1.5276470072963226,
                -0.6967513152403884,
                0.8884158418427615,
                2.217796775879563
            ]
        },
        {
            "positions": [
                2.466974550240185,
                -1.1351112009120918,
                1.5868108122186917,
                -0.714335980917451,
                0.9206526452843797,
                2.410197707783383
            ]
        },
        {
            "positions": [
                2.5069370021086512,
                -1.1045608038392216,
                1.6459746171410607,
                -0.7319206465945137,
                0.952889448725998,
                2.6025986396872027
            ]
        },
        {
            "positions": [
                2.546899453977117,
                -1.0740104067663514,
                1.70513842206343,
                -0.7495053122715764,
                0.9851262521676163,
                2.7949995715910223
            ]
        },
        {
            "positions": [
                2.5868619058455833,
                -1.0434600096934812,
                1.7643022269857993,
                -0.7670899779486391,
                1.0173630556092346,
                2.9874005034948423
            ]
        },
        {
            "positions": [
                2.6268243577140495,
                -1.012909612620611,
                1.8234660319081684,
                -0.7846746436257017,
                1.0495998590508528,
                3.1798014353986623
            ]
        }
    ]
}