{
    "goal": {
        "global_pose": {
            "orientation": {
                "w": 0.7031023480610252,
                "x": -0.7110244013736278,
                "y": 0.0077485991402295624,
                "z": 0.005598929693374583
            },
            "position": {
                "x": -0.8841497679147869,
                "y": 0.44412534475326537,
                "z": 0.3711530566215515
            }
        },
        "name": "move_to_auspresseinheit_D"
    },
    "id": "BKPIECE_move_to_auspresseinheit_D_90",
    "joint_names": [
        "shoulder_pan_joint",
        "shoulder_lift_joint",
        "elbow_joint",
        "wrist_1_joint",
        "wrist_2_joint",
        "wrist_3_joint"
    ],
    "metrics": {
        "cart_traj_len": 0.3442048629845881,
        "distance_elbow_joint": 0.644375587064278,
        "distance_shoulder_lift_joint": 0.12449068045940592,
        "distance_shoulder_pan_joint": 0.1346953823693587,
        "distance_wrist_1_joint": 0.5431394617188339,
        "distance_wrist_2_joint": 1.4387126989106618,
        "distance_wrist_3_joint": 0.014079352433551406,
        "smoothness": 3.947459674368863e-16,
        "time": 0.163083066,
        "traj_len": 1.7027898176099392,
        "weighted_distance": 2.2157400633767237
    },
    "planner": "BKPIECE",
    "start": {
        "state": {
            "elbow_joint": -1.8275523626775212,
            "shoulder_lift_joint": -2.126789852344167,
            "shoulder_pan_joint": -0.03513704404078235,
            "wrist_1_joint": -2.347782403156801,
            "wrist_2_joint": -1.6058999987535132,
            "wrist_3_joint": -3.0880379163319196
        }
    },
    "waypoints": [
        {
            "positions": [
                -0.03513704404078235,
                -2.126789852344167,
                -1.8275523626775212,
                -2.347782403156801,
                -1.6058999987535132,
                -3.0880379163319196
            ]
        },
        {
            "positions": [
                -0.051973966836952185,
                -2.1423511874015926,
                -1.7470054142944864,
                -2.415674835871655,
                -1.4260609113896805,
                -3.0862779972777257
            ]
        },
        {
            "positions": [
                -0.06881088963312203,
                -2.1579125224590183,
                -1.6664584659114516,
                -2.4835672685865093,
                -1.2462218240258478,
                -3.0845180782235317
            ]
        },
        {
            "positions": [
                -0.08564781242929187,
                -2.173473857516444,
                -1.5859115175284169,
                -2.5514597013013636,
                -1.0663827366620149,
                -3.082758159169338
            ]
        },
        {
            "positions": [
                -0.1024847352254617,
                -2.18903519257387,
                -1.505364569145382,
                -2.619352134016218,
                -0.8865436492981823,
                -3.080998240115144
            ]
        },
        {
            "positions": [
                -0.11932165802163155,
                -2.2045965276312955,
                -1.4248176207623473,
                -2.687244566731072,
                -0.7067045619343496,
                -3.07923832106095
            ]
        },
        {
            "positions": [
                -0.13615858081780138,
                -2.2201578626887213,
                -1.3442706723793127,
                -2.7551369994459263,
                -0.5268654745705168,
                -3.077478402006756
            ]
        },
        {
            "positions": [
                -0.1529955036139712,
                -2.235719197746147,
                -1.263723723996278,
                -2.8230294321607805,
                -0.3470263872066841,
                -3.075718482952562
            ]
        },
        {
            "positions": [
                -0.16983242641014107,
                -2.2512805328035728,
                -1.1831767756132432,
                -2.8909218648756347,
                -0.1671872998428514,
                -3.073958563898368
            ]
        }
    ]
}