{
    "goal": {
        "global_pose": {
            "orientation": {
                "w": 0.005598929693374612,
                "x": 0.007748599140229565,
                "y": 0.7110244013736278,
                "z": -0.7031023480610252
            },
            "position": {
                "x": -0.8858502320852131,
                "y": -0.7141253447532654,
                "z": 0.3711530566215515
            }
        },
        "name": "move_to_auspresseinheit_C"
    },
    "id": "BKPIECE_move_to_auspresseinheit_C_65",
    "joint_names": [
        "shoulder_pan_joint",
        "shoulder_lift_joint",
        "elbow_joint",
        "wrist_1_joint",
        "wrist_2_joint",
        "wrist_3_joint"
    ],
    "metrics": {
        "cart_traj_len": 0.49284614345778965,
        "distance_elbow_joint": 0.9946052908381247,
        "distance_shoulder_lift_joint": 0.3227015959031023,
        "distance_shoulder_pan_joint": 0.2558082377668187,
        "distance_wrist_1_joint": 0.6586972279540573,
        "distance_wrist_2_joint": 1.3171157323555116,
        "distance_wrist_3_joint": 0.035813151608491633,
        "smoothness": 4.844609600361787e-16,
        "time": 0.324673684,
        "traj_len": 1.8933412889455787,
        "weighted_distance": 2.3732215446419365
    },
    "planner": "BKPIECE",
    "start": {
        "state": {
            "elbow_joint": 1.7527959577737207,
            "shoulder_lift_joint": -0.9740617694225068,
            "shoulder_pan_joint": -2.967991417825858,
            "wrist_1_joint": -0.759517768980727,
            "wrist_2_joint": 1.7443932448377408,
            "wrist_3_joint": -3.0840537646736568
        }
    },
    "waypoints": [
        {
            "positions": [
                -2.967991417825858,
                -0.9740617694225068,
                1.7527959577737207,
                -0.759517768980727,
                1.7443932448377408,
                -3.0840537646736568
            ]
        },
        {
            "positions": [
                -2.9424105940491763,
                -0.9417916098321966,
                1.6533354286899082,
                -0.6936480461853213,
                1.6126816716021897,
                -3.087635079834506
            ]
        },
        {
            "positions": [
                -2.916829770272494,
                -0.9095214502418864,
                1.5538748996060958,
                -0.6277783233899155,
                1.4809700983666385,
                -3.0912163949953553
            ]
        },
        {
            "positions": [
                -2.8912489464958124,
                -0.877251290651576,
                1.4544143705222834,
                -0.5619086005945098,
                1.3492585251310873,
                -3.0947977101562043
            ]
        },
        {
            "positions": [
                -2.8656681227191303,
                -0.8449811310612658,
                1.3549538414384708,
                -0.49603887779910405,
                1.2175469518955362,
                -3.0983790253170533
            ]
        },
        {
            "positions": [
                -2.8400872989424486,
                -0.8127109714709556,
                1.2554933123546583,
                -0.43016915500369834,
                1.085835378659985,
                -3.101960340477903
            ]
        },
        {
            "positions": [
                -2.814506475165767,
                -0.7804408118806454,
                1.156032783270846,
                -0.36429943220829264,
                0.9541238054244339,
                -3.105541655638752
            ]
        },
        {
            "positions": [
                -2.7889256513890848,
                -0.7481706522903352,
                1.0565722541870335,
                -0.29842970941288693,
                0.8224122321888828,
                -3.109122970799601
            ]
        },
        {
            "positions": [
                -2.763344827612403,
                -0.715900492700025,
                0.9571117251032208,
                -0.23255998661748112,
                0.6907006589533315,
                -3.11270428596045
            ]
        },
        {
            "positions": [
                -2.737764003835721,
                -0.6836303331097147,
                0.8576511960194084,
                -0.1666902638220754,
                0.5589890857177804,
                -3.1162856011212994
            ]
        },
        {
            "positions": [
                -2.7121831800590392,
                -0.6513601735194045,
                0.758190666935596,
                -0.10082054102666971,
                0.4272775124822291,
                -3.1198669162821484
            ]
        }
    ]
}