{
    "goal": {
        "global_pose": {
            "orientation": {
                "w": 0.005598929693374612,
                "x": 0.007748599140229565,
                "y": 0.7110244013736278,
                "z": -0.7031023480610252
            },
            "position": {
                "x": -0.8858502320852131,
                "y": -0.7141253447532654,
                "z": 0.3711530566215515
            }
        },
        "name": "move_to_auspresseinheit_C"
    },
    "id": "BKPIECE_move_to_auspresseinheit_C_68",
    "joint_names": [
        "shoulder_pan_joint",
        "shoulder_lift_joint",
        "elbow_joint",
        "wrist_1_joint",
        "wrist_2_joint",
        "wrist_3_joint"
    ],
    "metrics": {
        "cart_traj_len": 0.493092934191181,
        "distance_elbow_joint": 1.00067030985526,
        "distance_shoulder_lift_joint": 0.32544823598316197,
        "distance_shoulder_pan_joint": 0.25623109660863097,
        "distance_wrist_1_joint": 0.6778348681730201,
        "distance_wrist_2_joint": 1.3081917318185603,
        "distance_wrist_3_joint": 0.05607453346912905,
        "smoothness": 8.074349294524176e-16,
        "time": 0.491293905,
        "traj_len": 1.9037990376895777,
        "weighted_distance": 2.3922011710635043
    },
    "planner": "BKPIECE",
    "start": {
        "state": {
            "elbow_joint": 1.7527959577737207,
            "shoulder_lift_joint": -0.9740617694225068,
            "shoulder_pan_joint": -2.967991417825858,
            "wrist_1_joint": -0.759517768980727,
            "wrist_2_joint": 1.7443932448377408,
            "wrist_3_joint": -3.0840537646736568
        }
    },
    "waypoints": [
        {
            "positions": [
                -2.967991417825858,
                -0.9740617694225068,
                1.7527959577737207,
                -0.759517768980727,
                1.7443932448377408,
                -3.0840537646736568
            ]
        },
        {
            "positions": [
                -2.942368308164995,
                -0.9415169458241905,
                1.6527289267881946,
                -0.6917342821634249,
                1.6135740716558848,
                -3.0896612180205696
            ]
        },
        {
            "positions": [
                -2.916745198504132,
                -0.9089721222258744,
                1.5526618958026686,
                -0.623950795346123,
                1.4827548984740289,
                -3.0952686713674824
            ]
        },
        {
            "positions": [
                -2.8911220888432685,
                -0.8764272986275582,
                1.4525948648171427,
                -0.556167308528821,
                1.3519357252921727,
                -3.1008761247143957
            ]
        },
        {
            "positions": [
                -2.8654989791824055,
                -0.843882475029242,
                1.3525278338316167,
                -0.48838382171151895,
                1.2211165521103167,
                -3.1064835780613085
            ]
        },
        {
            "positions": [
                -2.8398758695215425,
                -0.8113376514309258,
                1.2524608028460906,
                -0.42060033489421694,
                1.0902973789284607,
                -3.1120910314082213
            ]
        },
        {
            "positions": [
                -2.8142527598606795,
                -0.7787928278326096,
                1.1523937718605648,
                -0.35281684807691494,
                0.9594782057466047,
                -3.117698484755134
            ]
        },
        {
            "positions": [
                -2.7886296501998165,
                -0.7462480042342934,
                1.0523267408750385,
                -0.285033361259613,
                0.8286590325647487,
                -3.123305938102047
            ]
        },
        {
            "positions": [
                -2.763006540538953,
                -0.7137031806359773,
                0.9522597098895126,
                -0.21724987444231092,
                0.6978398593828925,
                -3.12891339144896
            ]
        },
        {
            "positions": [
                -2.73738343087809,
                -0.6811583570376609,
                0.8521926789039865,
                -0.14946638762500886,
                0.5670206862010365,
                -3.134520844795873
            ]
        },
        {
            "positions": [
                -2.711760321217227,
                -0.6486135334393448,
                0.7521256479184605,
                -0.08168290080770688,
                0.4362015130191806,
                -3.140128298142786
            ]
        }
    ]
}