{
    "goal": {
        "global_pose": {
            "orientation": {
                "w": -0.00223480608172531,
                "x": 0.0024358444001904467,
                "y": 0.7094548369677653,
                "z": -0.704743149386269
            },
            "position": {
                "x": -0.37947507619857795,
                "y": -0.6371506643295288,
                "z": 0.19426114857196808
            }
        },
        "name": "move_to_magneteinheit_C"
    },
    "id": "BKPIECE_move_to_magneteinheit_C_81",
    "joint_names": [
        "shoulder_pan_joint",
        "shoulder_lift_joint",
        "elbow_joint",
        "wrist_1_joint",
        "wrist_2_joint",
        "wrist_3_joint"
    ],
    "metrics": {
        "cart_traj_len": 1.8242026224726189,
        "distance_elbow_joint": 1.6819415825706345,
        "distance_shoulder_lift_joint": 2.959195502732906,
        "distance_shoulder_pan_joint": 1.825509682307245,
        "distance_wrist_1_joint": 3.6500944021493233,
        "distance_wrist_2_joint": 1.8932350147635177,
        "distance_wrist_3_joint": 4.603774390700959,
        "smoothness": 0.5418228842544641,
        "time": 0.371479048,
        "traj_len": 4.0759968811598215,
        "weighted_distance": 5.600413268102574
    },
    "planner": "BKPIECE",
    "start": {
        "state": {
            "elbow_joint": 1.9565354010623817,
            "shoulder_lift_joint": -1.4165861575791021,
            "shoulder_pan_joint": -1.6717766225146293,
            "wrist_1_joint": -0.5286633292919765,
            "wrist_2_joint": 1.472756589071564,
            "wrist_3_joint": -3.1238370188695823
        }
    },
    "waypoints": [
        {
            "positions": [
                -1.6717766225146293,
                -1.4165861575791021,
                1.9565354010623817,
                -0.5286633292919765,
                1.472756589071564,
                -3.1238370188695823
            ]
        },
        {
            "positions": [
                -1.6518215114430828,
                -1.4468626117033745,
                1.9322589270418769,
                -0.44807514092418177,
                1.4199469567063625,
                -2.995482336640504
            ]
        },
        {
            "positions": [
                -1.6318664003715362,
                -1.4771390658276466,
                1.907982453021372,
                -0.367486952556387,
                1.367137324341161,
                -2.8671276544114255
            ]
        },
        {
            "positions": [
                -1.5621055937380472,
                -1.481235003217818,
                1.8392090050049998,
                -0.3698330627284852,
                1.344001027517368,
                -2.780360589226848
            ]
        },
        {
            "positions": [
                -1.5748595799549718,
                -1.4808627727015662,
                1.8210605088113085,
                -0.442090193699353,
                1.2353560127107694,
                -2.6040370906162966
            ]
        },
        {
            "positions": [
                -1.5876135661718964,
                -1.4804905421853145,
                1.8029120126176172,
                -0.5143473246702208,
                1.126710997904171,
                -2.4277135920057455
            ]
        },
        {
            "positions": [
                -1.6003675523888212,
                -1.4801183116690626,
                1.784763516423926,
                -0.5866044556410885,
                1.0180659830975727,
                -2.251390093395194
            ]
        },
        {
            "positions": [
                -1.6131215386057458,
                -1.479746081152811,
                1.7666150202302346,
                -0.6588615866119565,
                0.9094209682909742,
                -2.0750665947846425
            ]
        },
        {
            "positions": [
                -1.6258755248226704,
                -1.479373850636559,
                1.7484665240365433,
                -0.7311187175828242,
                0.8007759534843757,
                -1.8987430961740912
            ]
        },
        {
            "positions": [
                -1.638629511039595,
                -1.4790016201203073,
                1.7303180278428523,
                -0.8033758485536919,
                0.6921309386777773,
                -1.72241959756354
            ]
        },
        {
            "positions": [
                -1.6513834972565196,
                -1.4786293896040554,
                1.712169531649161,
                -0.8756329795245599,
                0.5834859238711788,
                -1.5460960989529884
            ]
        },
        {
            "positions": [
                -1.6641374834734441,
                -1.4782571590878038,
                1.6940210354554697,
                -0.9478901104954276,
                0.4748409090645803,
                -1.3697726003424369
            ]
        },
        {
            "positions": [
                -1.676891469690369,
                -1.4778849285715518,
                1.6758725392617784,
                -1.0201472414662955,
                0.3661958942579818,
                -1.1934491017318853
            ]
        },
        {
            "positions": [
                -1.6896454559072935,
                -1.4775126980553002,
                1.657724043068087,
                -1.0924043724371633,
                0.25755087945138344,
                -1.0171256031213343
            ]
        },
        {
            "positions": [
                -1.7023994421242181,
                -1.4771404675390483,
                1.6395755468743958,
                -1.164661503408031,
                0.14890586464478497,
                -0.8408021045107827
            ]
        },
        {
            "positions": [
                -1.8002035782202523,
                -1.584497769825839,
                1.711979148183575,
                -1.2636957850967847,
                0.1468972467649741,
                -0.8400162374783482
            ]
        },
        {
            "positions": [
                -1.8980077143162868,
                -1.6918550721126298,
                1.7843827494927544,
                -1.3627300667855384,
                0.1448886288851632,
                -0.8392303704459136
            ]
        },
        {
            "positions": [
                -1.995811850412321,
                -1.7992123743994204,
                1.8567863508019338,
                -1.4617643484742922,
                0.14288001100535233,
                -0.8384445034134791
            ]
        },
        {
            "positions": [
                -2.0936159865083552,
                -1.906569676686211,
                1.929189952111113,
                -1.5607986301630459,
                0.14087139312554145,
                -0.8376586363810445
            ]
        },
        {
            "positions": [
                -2.1914201226043897,
                -2.013926978973002,
                2.0015935534202924,
                -1.6598329118517996,
                0.13886277524573057,
                -0.83687276934861
            ]
        },
        {
            "positions": [
                -2.289224258700424,
                -2.1212842812597925,
                2.073997154729472,
                -1.7588671935405533,
                0.13685415736591966,
                -0.8360869023161754
            ]
        },
        {
            "positions": [
                -2.3870283947964586,
                -2.228641583546583,
                2.1464007560386515,
                -1.857901475229307,
                0.13484553948610878,
                -0.8353010352837409
            ]
        },
        {
            "positions": [
                -2.4848325308924926,
                -2.335998885833374,
                2.218804357347831,
                -1.9569357569180608,
                0.1328369216062979,
                -0.8345151682513063
            ]
        },
        {
            "positions": [
                -2.582636666988527,
                -2.4433561881201644,
                2.29120795865701,
                -2.0559700386068145,
                0.13082830372648702,
                -0.8337293012188718
            ]
        },
        {
            "positions": [
                -2.6804408030845615,
                -2.5507134904069555,
                2.3636115599661895,
                -2.155004320295568,
                0.12881968584667614,
                -0.8329434341864372
            ]
        },
        {
            "positions": [
                -2.7782449391805955,
                -2.6580707926937457,
                2.436015161275369,
                -2.254038601984322,
                0.12681106796686525,
                -0.8321575671540027
            ]
        },
        {
            "positions": [
                -2.87604907527663,
                -2.7654280949805368,
                2.508418762584548,
                -2.3530728836730757,
                0.12480245008705437,
                -0.8313717001215681
            ]
        },
        {
            "positions": [
                -2.8537215657215143,
                -2.6764189564264296,
                2.4808555118805207,
                -2.2695544339899065,
                0.15509583207477703,
                -0.9597777596745094
            ]
        },
        {
            "positions": [
                -2.8313940561663986,
                -2.587409817872322,
                2.453292261176493,
                -2.1860359843067374,
                0.1853892140624997,
                -1.0881838192274507
            ]
        },
        {
            "positions": [
                -2.809066546611283,
                -2.4984006793182147,
                2.4257290104724656,
                -2.1025175346235683,
                0.21568259605022239,
                -1.216589878780392
            ]
        },
        {
            "positions": [
                -2.7867390370561678,
                -2.4093915407641076,
                2.398165759768438,
                -2.018999084940399,
                0.24597597803794505,
                -1.3449959383333332
            ]
        },
        {
            "positions": [
                -2.764411527501052,
                -2.32038240221,
                2.3706025090644105,
                -1.9354806352572298,
                0.2762693600256677,
                -1.4734019978862745
            ]
        },
        {
            "positions": [
                -2.7420840179459365,
                -2.2313732636558927,
                2.343039258360383,
                -1.851962185574061,
                0.3065627420133904,
                -1.6018080574392157
            ]
        },
        {
            "positions": [
                -2.719756508390821,
                -2.1423641251017855,
                2.3154760076563554,
                -1.7684437358908915,
                0.3368561240011131,
                -1.7302141169921572
            ]
        },
        {
            "positions": [
                -2.697428998835705,
                -2.0533549865476783,
                2.287912756952328,
                -1.6849252862077226,
                0.3671495059888357,
                -1.8586201765450985
            ]
        },
        {
            "positions": [
                -2.67510148928059,
                -1.9643458479935707,
                2.2603495062483,
                -1.6014068365245533,
                0.3974428879765584,
                -1.9870262360980397
            ]
        },
        {
            "positions": [
                -2.6527739797254744,
                -1.8753367094394635,
                2.2327862555442723,
                -1.517888386841384,
                0.4277362699642811,
                -2.1154322956509812
            ]
        },
        {
            "positions": [
                -2.6304464701703587,
                -1.786327570885356,
                2.205223004840245,
                -1.4343699371582148,
                0.4580296519520038,
                -2.2438383552039225
            ]
        },
        {
            "positions": [
                -2.608118960615243,
                -1.697318432331249,
                2.1776597541362173,
                -1.350851487475046,
                0.4883230339397264,
                -2.3722444147568638
            ]
        },
        {
            "positions": [
                -2.5857914510601274,
                -1.6083092937771415,
                2.1500965034321897,
                -1.2673330377918768,
                0.5186164159274491,
                -2.500650474309805
            ]
        },
        {
            "positions": [
                -2.563463941505012,
                -1.519300155223034,
                2.122533252728162,
                -1.1838145881087074,
                0.5489097979151718,
                -2.6290565338627463
            ]
        },
        {
            "positions": [
                -2.541136431949896,
                -1.4302910166689269,
                2.0949700020241346,
                -1.1002961384255383,
                0.5792031799028945,
                -2.7574625934156876
            ]
        },
        {
            "positions": [
                -2.518808922394781,
                -1.3412818781148197,
                2.067406751320107,
                -1.0167776887423694,
                0.6094965618906171,
                -2.885868652968629
            ]
        },
        {
            "positions": [
                -2.4964814128396653,
                -1.2522727395607123,
                2.0398435006160796,
                -0.9332592390592,
                0.6397899438783398,
                -3.01427471252157
            ]
        },
        {
            "positions": [
                -2.4741539032845496,
                -1.1632636010066049,
                2.012280249912052,
                -0.8497407893760308,
                0.6700833258660625,
                -3.1426807720745114
            ]
        }
    ]
}