{
    "goal": {
        "global_pose": {
            "orientation": {
                "w": -0.00223480608172531,
                "x": 0.0024358444001904467,
                "y": 0.7094548369677653,
                "z": -0.704743149386269
            },
            "position": {
                "x": -0.37947507619857795,
                "y": -0.6371506643295288,
                "z": 0.19426114857196808
            }
        },
        "name": "move_to_magneteinheit_C"
    },
    "id": "BKPIECE_move_to_magneteinheit_C_74",
    "joint_names": [
        "shoulder_pan_joint",
        "shoulder_lift_joint",
        "elbow_joint",
        "wrist_1_joint",
        "wrist_2_joint",
        "wrist_3_joint"
    ],
    "metrics": {
        "cart_traj_len": 0.9941296412742431,
        "distance_elbow_joint": 0.10761342740796342,
        "distance_shoulder_lift_joint": 0.9729587325820099,
        "distance_shoulder_pan_joint": 1.465383623070877,
        "distance_wrist_1_joint": 1.2552519201678989,
        "distance_wrist_2_joint": 2.994426039591863,
        "distance_wrist_3_joint": 0.48424744151520294,
        "smoothness": 1.3457954996869117,
        "time": 0.244983051,
        "traj_len": 2.698125494549098,
        "weighted_distance": 3.5352586930981422
    },
    "planner": "BKPIECE",
    "start": {
        "state": {
            "elbow_joint": 1.9565354010623817,
            "shoulder_lift_joint": -1.4165861575791021,
            "shoulder_pan_joint": -1.6717766225146293,
            "wrist_1_joint": -0.5286633292919765,
            "wrist_2_joint": 1.472756589071564,
            "wrist_3_joint": -3.1238370188695823
        }
    },
    "waypoints": [
        {
            "positions": [
                -1.6717766225146293,
                -1.4165861575791021,
                1.9565354010623817,
                -0.5286633292919765,
                1.472756589071564,
                -3.1238370188695823
            ]
        },
        {
            "positions": [
                -1.774791110530298,
                -1.449299259217202,
                1.96402999395203,
                -0.48609357510045254,
                1.3004765362570172,
                -3.1463300081348025
            ]
        },
        {
            "positions": [
                -1.8778055985459667,
                -1.4820123608553017,
                1.9715245868416784,
                -0.4435238209089286,
                1.1281964834424707,
                -3.1688229974000226
            ]
        },
        {
            "positions": [
                -1.9808200865616354,
                -1.5147254624934017,
                1.979019179731327,
                -0.40095406671740474,
                0.9559164306279241,
                -3.191315986665243
            ]
        },
        {
            "positions": [
                -2.0838345745773044,
                -1.5474385641315014,
                1.9865137726209754,
                -0.35838431252588077,
                0.7836363778133774,
                -3.2138089759304633
            ]
        },
        {
            "positions": [
                -2.186849062592973,
                -1.5801516657696013,
                1.9940083655106238,
                -0.3158145583343569,
                0.6113563249988307,
                -3.2363019651956835
            ]
        },
        {
            "positions": [
                -2.2898635506086418,
                -1.612864767407701,
                2.0015029584002724,
                -0.273244804142833,
                0.43907627218428424,
                -3.2587949544609036
            ]
        },
        {
            "positions": [
                -2.3928780386243105,
                -1.645577869045801,
                2.0089975512899207,
                -0.23067504995130905,
                0.2667962193697375,
                -3.2812879437261238
            ]
        },
        {
            "positions": [
                -2.495892526639979,
                -1.6782909706839009,
                2.016492144179569,
                -0.18810529575978513,
                0.0945161665551908,
                -3.303780932991344
            ]
        },
        {
            "positions": [
                -2.598907014655648,
                -1.7110040723220006,
                2.0239867370692175,
                -0.14553554156826115,
                -0.07776388625935593,
                -3.3262739222565645
            ]
        },
        {
            "positions": [
                -2.7019215026713166,
                -1.7437171739601003,
                2.031481329958866,
                -0.10296578737673728,
                -0.25004393907390243,
                -3.3487669115217846
            ]
        },
        {
            "positions": [
                -2.8049359906869853,
                -1.7764302755982002,
                2.0389759228485143,
                -0.06039603318521336,
                -0.42232399188844916,
                -3.3712599007870048
            ]
        },
        {
            "positions": [
                -2.7634079588246703,
                -1.6997909487778362,
                2.0358293096457856,
                -0.15876911119285536,
                -0.28490580955946787,
                -3.341656830837282
            ]
        },
        {
            "positions": [
                -2.7218799269623553,
                -1.6231516219574722,
                2.0326826964430564,
                -0.25714218920049736,
                -0.14748762723048664,
                -3.3120537608875598
            ]
        },
        {
            "positions": [
                -2.68035189510004,
                -1.5465122951371082,
                2.0295360832403277,
                -0.35551526720813936,
                -0.010069444901505409,
                -3.282450690937837
            ]
        },
        {
            "positions": [
                -2.6388238632377248,
                -1.4698729683167442,
                2.026389470037599,
                -0.45388834521578136,
                0.12734873742747588,
                -3.2528476209881143
            ]
        },
        {
            "positions": [
                -2.5972958313754098,
                -1.3932336414963804,
                2.02324285683487,
                -0.5522614232234233,
                0.26476691975645716,
                -3.223244551038392
            ]
        },
        {
            "positions": [
                -2.5557677995130943,
                -1.3165943146760164,
                2.0200962436321412,
                -0.6506345012310654,
                0.40218510208543834,
                -3.1936414810886693
            ]
        },
        {
            "positions": [
                -2.5142397676507793,
                -1.2399549878556524,
                2.016949630429412,
                -0.7490075792387074,
                0.5396032844144196,
                -3.164038411138947
            ]
        },
        {
            "positions": [
                -2.4727117357884643,
                -1.1633156610352884,
                2.0138030172266834,
                -0.8473806572463494,
                0.6770214667434009,
                -3.1344353411892243
            ]
        }
    ]
}