{
    "goal": {
        "global_pose": {
            "orientation": {
                "w": -0.4816463035849501,
                "x": 0.5182115481033762,
                "y": 0.4908360881923453,
                "z": -0.5084816262002911
            },
            "position": {
                "x": -0.8240239810943604,
                "y": 0.19912469901144506,
                "z": 0.16403168439865112
            }
        },
        "name": "move_to_storage_D"
    },
    "id": "BKPIECE_move_to_storage_D_48",
    "joint_names": [
        "shoulder_pan_joint",
        "shoulder_lift_joint",
        "elbow_joint",
        "wrist_1_joint",
        "wrist_2_joint",
        "wrist_3_joint"
    ],
    "metrics": {
        "cart_traj_len": 3.738067184998395,
        "distance_elbow_joint": 4.209075949813295,
        "distance_shoulder_lift_joint": 1.2652940766240044,
        "distance_shoulder_pan_joint": 2.81188475528678,
        "distance_wrist_1_joint": 2.2685416112761354,
        "distance_wrist_2_joint": 0.8695046400897671,
        "distance_wrist_3_joint": 3.1427617799665954,
        "smoothness": 6.376665602623395e-16,
        "time": 0.35226388,
        "traj_len": 3.816682173440248,
        "weighted_distance": 4.898023338486217
    },
    "planner": "BKPIECE",
    "start": {
        "state": {
            "elbow_joint": -2.384821988534728,
            "shoulder_lift_joint": -2.2788054721415256,
            "shoulder_pan_joint": -0.1854694642142757,
            "wrist_1_joint": 1.4845938289331202,
            "wrist_2_joint": 0.17898776772866878,
            "wrist_3_joint": 0.037105688729662994
        }
    },
    "waypoints": [
        {
            "positions": [
                -0.1854694642142757,
                -2.2788054721415256,
                -2.384821988534728,
                1.4845938289331202,
                0.17898776772866878,
                0.037105688729662994
            ]
        },
        {
            "positions": [
                -0.09461313611531393,
                -2.2420995990882933,
                -2.263404405513646,
                1.4302552747333395,
                0.20434694690131305,
                -0.015607389078003235
            ]
        },
        {
            "positions": [
                -0.0037568080163521422,
                -2.2053937260350605,
                -2.141986822492565,
                1.3759167205335587,
                0.22970612607395732,
                -0.06832046688566946
            ]
        },
        {
            "positions": [
                0.08709952008260965,
                -2.168687852981828,
                -2.020569239471483,
                1.321578166333778,
                0.2550653052466016,
                -0.12103354469333569
            ]
        },
        {
            "positions": [
                0.17795584818157142,
                -2.1319819799285953,
                -1.8991516564504014,
                1.2672396121339973,
                0.28042448441924583,
                -0.17374662250100192
            ]
        },
        {
            "positions": [
                0.2688121762805332,
                -2.095276106875363,
                -1.7777340734293199,
                1.2129010579342165,
                0.30578366359189013,
                -0.22645970030866816
            ]
        },
        {
            "positions": [
                0.35966850437949505,
                -2.05857023382213,
                -1.6563164904082384,
                1.1585625037344358,
                0.33114284276453443,
                -0.27917277811633434
            ]
        },
        {
            "positions": [
                0.45052483247845665,
                -2.0218643607688978,
                -1.5348989073871566,
                1.104223949534655,
                0.3565020219371786,
                -0.33188585592400055
            ]
        },
        {
            "positions": [
                0.5413811605774186,
                -1.985158487715665,
                -1.4134813243660749,
                1.0498853953348743,
                0.3818612011098229,
                -0.38459893373166687
            ]
        },
        {
            "positions": [
                0.6322374886763803,
                -1.9484526146624326,
                -1.2920637413449936,
                0.9955468411350938,
                0.4072203802824672,
                -0.4373120115393331
            ]
        },
        {
            "positions": [
                0.7230938167753421,
                -1.9117467416092,
                -1.1706461583239118,
                0.941208286935313,
                0.4325795594551115,
                -0.4900250893469993
            ]
        },
        {
            "positions": [
                0.8139501448743038,
                -1.8750408685559674,
                -1.0492285753028303,
                0.8868697327355324,
                0.4579387386277557,
                -0.5427381671546655
            ]
        },
        {
            "positions": [
                0.9048064729732658,
                -1.8383349955027348,
                -0.9278109922817486,
                0.8325311785357516,
                0.4832979178004,
                -0.5954512449623317
            ]
        },
        {
            "positions": [
                0.9956628010722274,
                -1.8016291224495022,
                -0.806393409260667,
                0.7781926243359709,
                0.5086570969730443,
                -0.6481643227699979
            ]
        },
        {
            "positions": [
                1.0865191291711889,
                -1.7649232493962697,
                -0.6849758262395855,
                0.7238540701361902,
                0.5340162761456885,
                -0.7008774005776641
            ]
        },
        {
            "positions": [
                1.1773754572701507,
                -1.728217376343037,
                -0.563558243218504,
                0.6695155159364096,
                0.5593754553183328,
                -0.7535904783853303
            ]
        },
        {
            "positions": [
                1.2682317853691127,
                -1.6915115032898045,
                -0.44214066019742204,
                0.6151769617366287,
                0.5847346344909771,
                -0.8063035561929967
            ]
        },
        {
            "positions": [
                1.3590881134680743,
                -1.654805630236572,
                -0.3207230771763405,
                0.5608384075368481,
                0.6100938136636214,
                -0.8590166340006629
            ]
        },
        {
            "positions": [
                1.4499444415670362,
                -1.6180997571833395,
                -0.19930549415525922,
                0.5064998533370674,
                0.6354529928362656,
                -0.9117297118083291
            ]
        },
        {
            "positions": [
                1.5408007696659978,
                -1.5813938841301067,
                -0.07788791113417748,
                0.45216129913728675,
                0.6608121720089098,
                -0.9644427896159953
            ]
        },
        {
            "positions": [
                1.6316570977649598,
                -1.5446880110768744,
                0.043529671886904264,
                0.3978227449375058,
                0.6861713511815541,
                -1.0171558674236616
            ]
        },
        {
            "positions": [
                1.7225134258639214,
                -1.5079821380236416,
                0.164947254907986,
                0.3434841907377253,
                0.7115305303541983,
                -1.0698689452313277
            ]
        },
        {
            "positions": [
                1.8133697539628832,
                -1.4712762649704092,
                0.2863648379290673,
                0.28914563653794456,
                0.7368897095268426,
                -1.122582023038994
            ]
        },
        {
            "positions": [
                1.9042260820618448,
                -1.4345703919171766,
                0.40778242095014905,
                0.23480708233816383,
                0.7622488886994869,
                -1.1752951008466601
            ]
        },
        {
            "positions": [
                1.9950824101608071,
                -1.397864518863944,
                0.5292000039712308,
                0.1804685281383831,
                0.7876080678721312,
                -1.2280081786543264
            ]
        },
        {
            "positions": [
                2.0859387382597685,
                -1.3611586458107114,
                0.6506175869923121,
                0.12612997393860237,
                0.8129672470447754,
                -1.2807212564619928
            ]
        },
        {
            "positions": [
                2.1767950663587303,
                -1.3244527727574789,
                0.7720351700133937,
                0.07179141973882167,
                0.8383264262174197,
                -1.3334343342696588
            ]
        },
        {
            "positions": [
                2.2142634184182115,
                -1.2985409913208157,
                0.8597200692854915,
                0.00047981956533531267,
                0.8558402580175044,
                -1.4811194806835983
            ]
        },
        {
            "positions": [
                2.2517317704776927,
                -1.2726292098841525,
                0.9474049685575893,
                -0.07083178060815104,
                0.8733540898175891,
                -1.6288046270975378
            ]
        },
        {
            "positions": [
                2.289200122537174,
                -1.2467174284474893,
                1.035089867829687,
                -0.1421433807816374,
                0.8908679216176738,
                -1.7764897735114773
            ]
        },
        {
            "positions": [
                2.326668474596655,
                -1.2208056470108264,
                1.122774767101785,
                -0.21345498095512375,
                0.9083817534177584,
                -1.9241749199254166
            ]
        },
        {
            "positions": [
                2.3641368266561362,
                -1.1948938655741632,
                1.2104596663738825,
                -0.2847665811286101,
                0.9258955852178431,
                -2.0718600663393563
            ]
        },
        {
            "positions": [
                2.4016051787156174,
                -1.1689820841375,
                1.2981445656459805,
                -0.35607818130209645,
                0.9434094170179278,
                -2.2195452127532955
            ]
        },
        {
            "positions": [
                2.439073530775098,
                -1.1430703027008369,
                1.385829464918078,
                -0.4273897814755828,
                0.9609232488180125,
                -2.3672303591672352
            ]
        },
        {
            "positions": [
                2.4765418828345793,
                -1.1171585212641737,
                1.473514364190176,
                -0.4987013816490692,
                0.9784370806180971,
                -2.5149155055811745
            ]
        },
        {
            "positions": [
                2.5140102348940605,
                -1.0912467398275107,
                1.5611992634622736,
                -0.5700129818225556,
                0.9959509124181818,
                -2.662600651995114
            ]
        },
        {
            "positions": [
                2.5514785869535417,
                -1.0653349583908476,
                1.6488841627343716,
                -0.6413245819960419,
                1.0134647442182665,
                -2.8102857984090535
            ]
        },
        {
            "positions": [
                2.588946939013023,
                -1.0394231769541844,
                1.736569062006469,
                -0.7126361821695283,
                1.0309785760183512,
                -2.9579709448229927
            ]
        },
        {
            "positions": [
                2.626415291072504,
                -1.0135113955175212,
                1.8242539612785669,
                -0.7839477823430147,
                1.048492407818436,
                -3.1056560912369324
            ]
        }
    ]
}