{
    "goal": {
        "global_pose": {
            "orientation": {
                "w": -0.4816463035849501,
                "x": 0.5182115481033762,
                "y": 0.4908360881923453,
                "z": -0.5084816262002911
            },
            "position": {
                "x": -0.8240239810943604,
                "y": 0.19912469901144506,
                "z": 0.16403168439865112
            }
        },
        "name": "move_to_storage_D"
    },
    "id": "BKPIECE_move_to_storage_D_101",
    "joint_names": [
        "shoulder_pan_joint",
        "shoulder_lift_joint",
        "elbow_joint",
        "wrist_1_joint",
        "wrist_2_joint",
        "wrist_3_joint"
    ],
    "metrics": {
        "cart_traj_len": 4.303350096913302,
        "distance_elbow_joint": 4.21148661576437,
        "distance_shoulder_lift_joint": 1.2631977346518224,
        "distance_shoulder_pan_joint": 2.8146671187215406,
        "distance_wrist_1_joint": 2.4936806300260765,
        "distance_wrist_2_joint": 2.9007778677988343,
        "distance_wrist_3_joint": 3.1391904077285075,
        "smoothness": 0.1410649243250003,
        "time": 0.211605072,
        "traj_len": 4.101585105138152,
        "weighted_distance": 5.338149462873168
    },
    "planner": "BKPIECE",
    "start": {
        "state": {
            "elbow_joint": -2.384821988534728,
            "shoulder_lift_joint": -2.2788054721415256,
            "shoulder_pan_joint": -0.1854694642142757,
            "wrist_1_joint": 1.4845938289331202,
            "wrist_2_joint": 0.17898776772866878,
            "wrist_3_joint": 0.037105688729662994
        }
    },
    "waypoints": [
        {
            "positions": [
                -0.1854694642142757,
                -2.2788054721415256,
                -2.384821988534728,
                1.4845938289331202,
                0.17898776772866878,
                0.037105688729662994
            ]
        },
        {
            "positions": [
                -0.003797199889746944,
                -2.2388754633750794,
                -2.343348872533012,
                1.4922158703892956,
                0.1119194983198419,
                0.07326449640221556
            ]
        },
        {
            "positions": [
                0.17787506443478182,
                -2.1989454546086336,
                -2.3018757565312957,
                1.4998379118454708,
                0.044851228911015006,
                0.10942330407476814
            ]
        },
        {
            "positions": [
                0.3595473287593106,
                -2.1590154458421873,
                -2.2604026405295796,
                1.5074599533016462,
                -0.022217040497811896,
                0.14558211174732072
            ]
        },
        {
            "positions": [
                0.5412195930838394,
                -2.119085437075741,
                -2.2189295245278635,
                1.5150819947578213,
                -0.08928530990663877,
                0.18174091941987328
            ]
        },
        {
            "positions": [
                0.7228918574083681,
                -2.0791554283092952,
                -2.1774564085261474,
                1.5227040362139967,
                -0.15635357931546565,
                0.21789972709242586
            ]
        },
        {
            "positions": [
                0.9045641217328969,
                -2.039225419542849,
                -2.1359832925244313,
                1.5303260776701721,
                -0.22342184872429258,
                0.2540585347649784
            ]
        },
        {
            "positions": [
                1.0862363860574256,
                -1.999295410776403,
                -2.094510176522715,
                1.5379481191263473,
                -0.2904901181331194,
                0.29021734243753106
            ]
        },
        {
            "positions": [
                1.2679086503819543,
                -1.9593654020099567,
                -2.053037060520999,
                1.5455701605825227,
                -0.35755838754194635,
                0.3263761501100836
            ]
        },
        {
            "positions": [
                1.449580914706483,
                -1.9194353932435106,
                -2.011563944519283,
                1.553192202038698,
                -0.4246266569507732,
                0.3625349577826361
            ]
        },
        {
            "positions": [
                1.6312531790310119,
                -1.8795053844770646,
                -1.9700908285175671,
                1.5608142434948733,
                -0.4916949263596001,
                0.39869376545518875
            ]
        },
        {
            "positions": [
                1.8129254433555404,
                -1.8395753757106186,
                -1.928617712515851,
                1.5684362849510487,
                -0.5587631957684269,
                0.4348525731277413
            ]
        },
        {
            "positions": [
                1.9945977076800694,
                -1.7996453669441723,
                -1.887144596514135,
                1.5760583264072239,
                -0.625831465177254,
                0.4710113808002939
            ]
        },
        {
            "positions": [
                2.176269972004598,
                -1.759715358177726,
                -1.8456714805124188,
                1.5836803678633993,
                -0.6928997345860808,
                0.5071701884728465
            ]
        },
        {
            "positions": [
                2.357942236329127,
                -1.7197853494112803,
                -1.8041983645107027,
                1.5913024093195745,
                -0.7599680039949077,
                0.5433289961453991
            ]
        },
        {
            "positions": [
                2.5396145006536557,
                -1.679855340644834,
                -1.7627252485089866,
                1.5989244507757499,
                -0.8270362734037344,
                0.5794878038179516
            ]
        },
        {
            "positions": [
                2.5427035749244697,
                -1.656950250880864,
                -1.6389531838283442,
                1.516877898769424,
                -0.7616999345531678,
                0.6690329173572696
            ]
        },
        {
            "positions": [
                2.545792649195284,
                -1.634045161116894,
                -1.5151811191477018,
                1.4348313467630984,
                -0.6963635957026011,
                0.7585780308965874
            ]
        },
        {
            "positions": [
                2.548881723466098,
                -1.6111400713529238,
                -1.3914090544670596,
                1.3527847947567726,
                -0.6310272568520344,
                0.8481231444359053
            ]
        },
        {
            "positions": [
                2.551970797736912,
                -1.5882349815889538,
                -1.2676369897864173,
                1.2707382427504468,
                -0.5656909180014678,
                0.9376682579752231
            ]
        },
        {
            "positions": [
                2.5550598720077264,
                -1.5653298918249838,
                -1.1438649251057749,
                1.188691690744121,
                -0.500354579150901,
                1.027213371514541
            ]
        },
        {
            "positions": [
                2.5581489462785405,
                -1.5424248020610138,
                -1.0200928604251325,
                1.1066451387377954,
                -0.43501824030033437,
                1.116758485053859
            ]
        },
        {
            "positions": [
                2.5612380205493546,
                -1.5195197122970439,
                -0.8963207957444902,
                1.0245985867314695,
                -0.36968190144976765,
                1.206303598593177
            ]
        },
        {
            "positions": [
                2.5643270948201686,
                -1.4966146225330739,
                -0.7725487310638478,
                0.9425520347251438,
                -0.304345562599201,
                1.2958487121324946
            ]
        },
        {
            "positions": [
                2.5674161690909827,
                -1.4737095327691037,
                -0.6487766663832055,
                0.860505482718818,
                -0.23900922374863431,
                1.3853938256718128
            ]
        },
        {
            "positions": [
                2.5705052433617968,
                -1.4508044430051337,
                -0.5250046017025631,
                0.7784589307124923,
                -0.17367288489806765,
                1.4749389392111305
            ]
        },
        {
            "positions": [
                2.573594317632611,
                -1.4278993532411637,
                -0.40123253702192097,
                0.6964123787061666,
                -0.10833654604750098,
                1.5644840527504484
            ]
        },
        {
            "positions": [
                2.576683391903425,
                -1.4049942634771937,
                -0.2774604723412786,
                0.6143658266998409,
                -0.043000207196934315,
                1.6540291662897664
            ]
        },
        {
            "positions": [
                2.579772466174239,
                -1.3820891737132237,
                -0.15368840766063618,
                0.532319274693515,
                0.022336131653632352,
                1.7435742798290843
            ]
        },
        {
            "positions": [
                2.582861540445053,
                -1.3591840839492537,
                -0.029916342979993793,
                0.4502727226871892,
                0.08767247050419913,
                1.8331193933684022
            ]
        },
        {
            "positions": [
                2.5859506147158675,
                -1.3362789941852835,
                0.0938557217006486,
                0.3682261706808634,
                0.1530088093547658,
                1.9226645069077202
            ]
        },
        {
            "positions": [
                2.5890396889866816,
                -1.3133739044213135,
                0.217627786381291,
                0.2861796186745378,
                0.21834514820533246,
                2.012209620447038
            ]
        },
        {
            "positions": [
                2.5921287632574956,
                -1.2904688146573435,
                0.34139985106193316,
                0.20413306666821218,
                0.283681487055899,
                2.101754733986356
            ]
        },
        {
            "positions": [
                2.5952178375283097,
                -1.2675637248933735,
                0.46517191574257555,
                0.12208651466188614,
                0.3490178259064658,
                2.1912998475256735
            ]
        },
        {
            "positions": [
                2.5983069117991238,
                -1.2446586351294036,
                0.5889439804232179,
                0.040039962655560535,
                0.41435416475703235,
                2.2808449610649912
            ]
        },
        {
            "positions": [
                2.601395986069938,
                -1.2217535453654333,
                0.7127160451038603,
                -0.04200658935076529,
                0.47969050360759913,
                2.37039007460431
            ]
        },
        {
            "positions": [
                2.604485060340752,
                -1.1988484556014634,
                0.8364881097845027,
                -0.12405314135709111,
                0.5450268424581659,
                2.4599351881436275
            ]
        },
        {
            "positions": [
                2.607574134611566,
                -1.1759433658374934,
                0.9602601744651447,
                -0.20609969336341671,
                0.6103631813087325,
                2.5494803016829453
            ]
        },
        {
            "positions": [
                2.61066320888238,
                -1.1530382760735234,
                1.0840322391457875,
                -0.28814624536974254,
                0.6756995201592992,
                2.6390254152222634
            ]
        },
        {
            "positions": [
                2.613752283153194,
                -1.1301331863095534,
                1.2078043038264294,
                -0.37019279737606814,
                0.7410358590098658,
                2.728570528761581
            ]
        },
        {
            "positions": [
                2.6168413574240086,
                -1.1072280965455834,
                1.3315763685070718,
                -0.45223934938239374,
                0.8063721978604323,
                2.818115642300899
            ]
        },
        {
            "positions": [
                2.6199304316948226,
                -1.0843230067816134,
                1.4553484331877142,
                -0.5342859013887198,
                0.8717085367109991,
                2.907660755840217
            ]
        },
        {
            "positions": [
                2.6230195059656367,
                -1.0614179170176432,
                1.5791204978683566,
                -0.6163324533950454,
                0.9370448755615659,
                2.9972058693795347
            ]
        },
        {
            "positions": [
                2.6261085802364508,
                -1.0385128272536732,
                1.702892562548999,
                -0.6983790054013714,
                1.0023812144121327,
                3.086750982918853
            ]
        },
        {
            "positions": [
                2.629197654507265,
                -1.0156077374897032,
                1.8266646272296416,
                -0.7804255574076969,
                1.0677175532626992,
                3.1762960964581706
            ]
        }
    ]
}