{
    "goal": {
        "global_pose": {
            "orientation": {
                "w": 0.5084816262002911,
                "x": -0.4908360881923452,
                "y": 0.5182115481033761,
                "z": -0.48164630358495003
            },
            "position": {
                "x": 0.5540239810943604,
                "y": -0.46912469901144505,
                "z": 0.16403168439865112
            }
        },
        "name": "move_to_storage_B"
    },
    "id": "BKPIECE_move_to_storage_B_143",
    "joint_names": [
        "shoulder_pan_joint",
        "shoulder_lift_joint",
        "elbow_joint",
        "wrist_1_joint",
        "wrist_2_joint",
        "wrist_3_joint"
    ],
    "metrics": {
        "cart_traj_len": 3.501236841883996,
        "distance_elbow_joint": 0.8713402180896206,
        "distance_shoulder_lift_joint": 2.3024436769860444,
        "distance_shoulder_pan_joint": 3.5751093751253498,
        "distance_wrist_1_joint": 2.9833503069154608,
        "distance_wrist_2_joint": 2.7025124929673057,
        "distance_wrist_3_joint": 3.136017248642622,
        "smoothness": 0.19284313235369585,
        "time": 0.37021592299999995,
        "traj_len": 3.945981920729795,
        "weighted_distance": 5.246777164688283
    },
    "planner": "BKPIECE",
    "start": {
        "state": {
            "elbow_joint": 1.664937868594044,
            "shoulder_lift_joint": -0.661644460510453,
            "shoulder_pan_joint": -0.9139846352900073,
            "wrist_1_joint": 2.146753192139373,
            "wrist_2_joint": -2.2341966793290973,
            "wrist_3_joint": 0.005466555786416001
        }
    },
    "waypoints": [
        {
            "positions": [
                -0.9139846352900073,
                -0.661644460510453,
                1.664937868594044,
                2.146753192139373,
                -2.2341966793290973,
                0.005466555786416001
            ]
        },
        {
            "positions": [
                -0.7782974098941641,
                -0.7715186642997383,
                1.655093423580095,
                2.090357203916217,
                -2.180049822591801,
                0.0216451613365036
            ]
        },
        {
            "positions": [
                -0.6426101844983207,
                -0.8813928680890235,
                1.6452489785661457,
                2.0339612156930604,
                -2.1259029658545048,
                0.0378237668865912
            ]
        },
        {
            "positions": [
                -0.5069229591024775,
                -0.9912670718783088,
                1.6354045335521965,
                1.977565227469904,
                -2.0717561091172083,
                0.054002372436678804
            ]
        },
        {
            "positions": [
                -0.3712357337066343,
                -1.101141275667594,
                1.6255600885382475,
                1.9211692392467477,
                -2.0176092523799123,
                0.0701809779867664
            ]
        },
        {
            "positions": [
                -0.235548508310791,
                -1.2110154794568793,
                1.6157156435242985,
                1.8647732510235913,
                -1.9634623956426158,
                0.08635958353685401
            ]
        },
        {
            "positions": [
                -0.09986128291494778,
                -1.3208896832461645,
                1.6058711985103493,
                1.8083772628004349,
                -1.9093155389053196,
                0.10253818908694161
            ]
        },
        {
            "positions": [
                0.035825942480895545,
                -1.4307638870354498,
                1.5960267534964,
                1.7519812745772783,
                -1.8551686821680233,
                0.11871679463702922
            ]
        },
        {
            "positions": [
                0.17151316787673865,
                -1.540638090824735,
                1.5861823084824511,
                1.695585286354122,
                -1.801021825430727,
                0.1348954001871168
            ]
        },
        {
            "positions": [
                0.3072003932725821,
                -1.6505122946140203,
                1.5763378634685021,
                1.6391892981309655,
                -1.7468749686934308,
                0.15107400573720442
            ]
        },
        {
            "positions": [
                0.4428876186684253,
                -1.7603864984033055,
                1.566493418454553,
                1.582793309907809,
                -1.6927281119561344,
                0.16725261128729202
            ]
        },
        {
            "positions": [
                0.5785748440642685,
                -1.8702607021925908,
                1.5566489734406037,
                1.5263973216846527,
                -1.6385812552188384,
                0.18343121683737962
            ]
        },
        {
            "positions": [
                0.7142620694601116,
                -1.980134905981876,
                1.5468045284266547,
                1.4700013334614963,
                -1.5844343984815419,
                0.19960982238746722
            ]
        },
        {
            "positions": [
                0.7827347551990027,
                -2.042515916110701,
                1.5210241668090208,
                1.408245517870625,
                -1.5407319416253433,
                0.21491504302584585
            ]
        },
        {
            "positions": [
                0.7457975208586409,
                -2.0309911402102574,
                1.4819472927596016,
                1.3241020189564792,
                -1.4930824540878402,
                0.26320221017681006
            ]
        },
        {
            "positions": [
                0.7088602865182791,
                -2.0194663643098134,
                1.4428704187101824,
                1.2399585200423335,
                -1.445432966550337,
                0.3114893773277742
            ]
        },
        {
            "positions": [
                0.6719230521779174,
                -2.00794158840937,
                1.4037935446607632,
                1.1558150211281877,
                -1.3977834790128338,
                0.3597765444787384
            ]
        },
        {
            "positions": [
                0.6039392721157921,
                -1.9738262848061212,
                1.4272626175129302,
                1.0791837851318695,
                -1.3260104292954862,
                0.46676528524605765
            ]
        },
        {
            "positions": [
                0.5359554920536669,
                -1.9397109812028726,
                1.450731690365097,
                1.0025525491355514,
                -1.2542373795781383,
                0.5737540260133769
            ]
        },
        {
            "positions": [
                0.4679717119915417,
                -1.905595677599624,
                1.474200763217264,
                0.925921313139233,
                -1.1824643298607906,
                0.680742766780696
            ]
        },
        {
            "positions": [
                0.3999879319294165,
                -1.8714803739963752,
                1.497669836069431,
                0.8492900771429148,
                -1.110691280143443,
                0.7877315075480154
            ]
        },
        {
            "positions": [
                0.33200415186729126,
                -1.8373650703931266,
                1.5211389089215979,
                0.7726588411465967,
                -1.038918230426095,
                0.8947202483153345
            ]
        },
        {
            "positions": [
                0.264020371805166,
                -1.803249766789878,
                1.5446079817737648,
                0.6960276051502784,
                -0.9671451807087474,
                1.0017089890826538
            ]
        },
        {
            "positions": [
                0.1960365917430409,
                -1.7691344631866293,
                1.5680770546259317,
                0.6193963691539602,
                -0.8953721309913998,
                1.1086977298499727
            ]
        },
        {
            "positions": [
                0.12805281168091565,
                -1.7350191595833806,
                1.5915461274780986,
                0.542765133157642,
                -0.823599081274052,
                1.215686470617292
            ]
        },
        {
            "positions": [
                0.0600690316187904,
                -1.700903855980132,
                1.6150152003302656,
                0.4661338971613238,
                -0.7518260315567044,
                1.3226752113846114
            ]
        },
        {
            "positions": [
                -0.00791474844333484,
                -1.6667885523768833,
                1.6384842731824325,
                0.38950266116500554,
                -0.6800529818393565,
                1.4296639521519305
            ]
        },
        {
            "positions": [
                -0.07589852850545997,
                -1.6326732487736346,
                1.6619533460345992,
                0.3128714251686874,
                -0.6082799321220088,
                1.5366526929192497
            ]
        },
        {
            "positions": [
                -0.14388230856758533,
                -1.598557945170386,
                1.6854224188867661,
                0.2362401891723691,
                -0.536506882404661,
                1.643641433686569
            ]
        },
        {
            "positions": [
                -0.21186608862971046,
                -1.5644426415671373,
                1.708891491738933,
                0.15960895317605095,
                -0.4647338326873134,
                1.7506301744538881
            ]
        },
        {
            "positions": [
                -0.2798498686918356,
                -1.5303273379638886,
                1.7323605645911,
                0.08297771717973279,
                -0.3929607829699657,
                1.8576189152212073
            ]
        },
        {
            "positions": [
                -0.34783364875396083,
                -1.49621203436064,
                1.755829637443267,
                0.006346481183414632,
                -0.32118773325261807,
                1.9646076559885264
            ]
        },
        {
            "positions": [
                -0.4158174288160861,
                -1.4620967307573913,
                1.7792987102954338,
                -0.07028475481290375,
                -0.2494146835352702,
                2.071596396755846
            ]
        },
        {
            "positions": [
                -0.4838012088782113,
                -1.4279814271541427,
                1.8027677831476008,
                -0.1469159908092219,
                -0.17764163381792253,
                2.1785851375231653
            ]
        },
        {
            "positions": [
                -0.5517849889403366,
                -1.393866123550894,
                1.8262368559997677,
                -0.22354722680554007,
                -0.10586858410057487,
                2.285573878290484
            ]
        },
        {
            "positions": [
                -0.6197687690024616,
                -1.3597508199476454,
                1.8497059288519346,
                -0.3001784628018582,
                -0.03409553438322721,
                2.392562619057803
            ]
        },
        {
            "positions": [
                -0.687752549064587,
                -1.3256355163443967,
                1.8731750017041016,
                -0.3768096987981766,
                0.03767751533412089,
                2.499551359825123
            ]
        },
        {
            "positions": [
                -0.7557363291267123,
                -1.291520212741148,
                1.8966440745562685,
                -0.45344093479449477,
                0.10945056505146855,
                2.606540100592442
            ]
        },
        {
            "positions": [
                -0.8237201091888373,
                -1.2574049091378994,
                1.9201131474084354,
                -0.5300721707908129,
                0.1812236147688162,
                2.7135288413597607
            ]
        },
        {
            "positions": [
                -0.8917038892509626,
                -1.2232896055346507,
                1.9435822202606023,
                -0.6067034067871311,
                0.25299666448616387,
                2.8205175821270805
            ]
        },
        {
            "positions": [
                -0.959687669313088,
                -1.189174301931402,
                1.9670512931127693,
                -0.6833346427834495,
                0.32476971420351175,
                2.9275063228943994
            ]
        },
        {
            "positions": [
                -1.027671449375213,
                -1.1550589983281534,
                1.9905203659649362,
                -0.7599658787797676,
                0.3965427639208594,
                3.0344950636617183
            ]
        },
        {
            "positions": [
                -1.0956552294373383,
                -1.1209436947249047,
                2.013989438817103,
                -0.8365971147760858,
                0.4683158136382071,
                3.1414838044290376
            ]
        }
    ]
}