{
    "goal": {
        "global_pose": {
            "orientation": {
                "w": 0.005598929693374612,
                "x": 0.007748599140229565,
                "y": 0.7110244013736278,
                "z": -0.7031023480610252
            },
            "position": {
                "x": 0.1141497679147869,
                "y": -0.7141253447532654,
                "z": 0.3711530566215515
            }
        },
        "name": "move_to_auspresseinheit_B"
    },
    "id": "BKPIECE_move_to_auspresseinheit_B_39",
    "joint_names": [
        "shoulder_pan_joint",
        "shoulder_lift_joint",
        "elbow_joint",
        "wrist_1_joint",
        "wrist_2_joint",
        "wrist_3_joint"
    ],
    "metrics": {
        "cart_traj_len": 0.5647377574821962,
        "distance_elbow_joint": 0.06200041639909837,
        "distance_shoulder_lift_joint": 0.2949212632151976,
        "distance_shoulder_pan_joint": 0.5794889425024685,
        "distance_wrist_1_joint": 0.33039302787177227,
        "distance_wrist_2_joint": 0.9855135011372671,
        "distance_wrist_3_joint": 0.00022703785483990657,
        "smoothness": 5.075305255429287e-16,
        "time": 0.121216104,
        "traj_len": 1.5008478233920466,
        "weighted_distance": 1.8891545182169094
    },
    "planner": "BKPIECE",
    "start": {
        "state": {
            "elbow_joint": 2.0193083361928714,
            "shoulder_lift_joint": -1.1220246554650708,
            "shoulder_pan_joint": -1.0952077554168747,
            "wrist_1_joint": -0.8559753972642168,
            "wrist_2_joint": 0.4759566250798843,
            "wrist_3_joint": -3.1240929996934557
        }
    },
    "waypoints": [
        {
            "positions": [
                -1.0952077554168747,
                -1.1220246554650708,
                2.0193083361928714,
                -0.8559753972642168,
                0.4759566250798843,
                -3.1240929996934557
            ]
        },
        {
            "positions": [
                -1.1917892458339527,
                -1.1711781993342705,
                2.0089749334596885,
                -0.8009098926189214,
                0.6402088752694288,
                -3.124130839335929
            ]
        },
        {
            "positions": [
                -1.2883707362510308,
                -1.22033174320347,
                1.9986415307265053,
                -0.7458443879736261,
                0.8044611254589733,
                -3.1241686789784024
            ]
        },
        {
            "positions": [
                -1.384952226668109,
                -1.2694852870726696,
                1.9883081279933221,
                -0.6907788833283306,
                0.9687133756485178,
                -3.1242065186208756
            ]
        },
        {
            "positions": [
                -1.481533717085187,
                -1.3186388309418693,
                1.9779747252601392,
                -0.6357133786830353,
                1.1329656258380623,
                -3.124244358263349
            ]
        },
        {
            "positions": [
                -1.578115207502265,
                -1.3677923748110687,
                1.9676413225269562,
                -0.5806478740377399,
                1.297217876027607,
                -3.1242821979058224
            ]
        },
        {
            "positions": [
                -1.6746966979193432,
                -1.4169459186802684,
                1.957307919793773,
                -0.5255823693924445,
                1.4614701262171514,
                -3.1243200375482956
            ]
        }
    ]
}