{
    "goal": {
        "global_pose": {
            "orientation": {
                "w": -0.00223480608172531,
                "x": 0.0024358444001904467,
                "y": 0.7094548369677653,
                "z": -0.704743149386269
            },
            "position": {
                "x": 0.6205249238014221,
                "y": -0.6371506643295288,
                "z": 0.19426114857196808
            }
        },
        "name": "move_to_magneteinheit_B"
    },
    "id": "BKPIECE_move_to_magneteinheit_B_122",
    "joint_names": [
        "shoulder_pan_joint",
        "shoulder_lift_joint",
        "elbow_joint",
        "wrist_1_joint",
        "wrist_2_joint",
        "wrist_3_joint"
    ],
    "metrics": {
        "cart_traj_len": 3.3093491544323625,
        "distance_elbow_joint": 4.636061583411024,
        "distance_shoulder_lift_joint": 1.0644900642440827,
        "distance_shoulder_pan_joint": 2.318350494942551,
        "distance_wrist_1_joint": 2.2020581546332254,
        "distance_wrist_2_joint": 1.7265002888723897,
        "distance_wrist_3_joint": 3.303787021092633,
        "smoothness": 0.40423096012739834,
        "time": 0.327357819,
        "traj_len": 3.9052845744191176,
        "weighted_distance": 5.078127616837408
    },
    "planner": "BKPIECE",
    "start": {
        "state": {
            "elbow_joint": 2.6216224122426386,
            "shoulder_lift_joint": -1.4174107377796124,
            "shoulder_pan_joint": 0.7066234856936794,
            "wrist_1_joint": 1.9546482284002225,
            "wrist_2_joint": -0.7096286983471962,
            "wrist_3_joint": 0.005740856962016249
        }
    },
    "waypoints": [
        {
            "positions": [
                0.7066234856936794,
                -1.4174107377796124,
                2.6216224122426386,
                1.9546482284002225,
                -0.7096286983471962,
                0.005740856962016249
            ]
        },
        {
            "positions": [
                0.6508768480055219,
                -1.5096890055861578,
                2.6069793508656574,
                1.9272015317084865,
                -0.6700638352698814,
                -0.06256389138194281
            ]
        },
        {
            "positions": [
                0.5951302103173645,
                -1.6019672733927035,
                2.592336289488676,
                1.8997548350167504,
                -0.6304989721925666,
                -0.13086863972590185
            ]
        },
        {
            "positions": [
                0.539383572629207,
                -1.694245541199249,
                2.577693228111695,
                1.8723081383250144,
                -0.5909341091152518,
                -0.19917338806986093
            ]
        },
        {
            "positions": [
                0.5318992813566852,
                -1.7207542289626407,
                2.4884504441633877,
                1.7883401130323593,
                -0.6058000546948383,
                -0.24901954848680063
            ]
        },
        {
            "positions": [
                0.5244149900841633,
                -1.7472629167260323,
                2.3992076602150805,
                1.7043720877397042,
                -0.6206660002744249,
                -0.29886570890374037
            ]
        },
        {
            "positions": [
                0.5405266071489887,
                -1.7563297601293368,
                2.270078289792921,
                1.6190085886909473,
                -0.6399581233775611,
                -0.35145429041076437
            ]
        },
        {
            "positions": [
                0.5566382242138141,
                -1.7653966035326416,
                2.1409489193707616,
                1.5336450896421905,
                -0.6592502464806972,
                -0.4040428719177883
            ]
        },
        {
            "positions": [
                0.5986462834119504,
                -1.7785789438678863,
                1.9474081591019197,
                1.4714841209076088,
                -0.6692210115394988,
                -0.46965608745454546
            ]
        },
        {
            "positions": [
                0.6406543426100866,
                -1.7917612842031312,
                1.7538673988330777,
                1.4093231521730272,
                -0.6791917765983002,
                -0.5352693029913026
            ]
        },
        {
            "positions": [
                0.6826624018082227,
                -1.8049436245383759,
                1.560326638564236,
                1.3471621834384455,
                -0.6891625416571017,
                -0.6008825185280597
            ]
        },
        {
            "positions": [
                0.7246704610063589,
                -1.8181259648736205,
                1.3667858782953939,
                1.2850012147038639,
                -0.6991333067159032,
                -0.666495734064817
            ]
        },
        {
            "positions": [
                0.7666785202044951,
                -1.8313083052088655,
                1.1732451180265522,
                1.2228402459692824,
                -0.7091040717747048,
                -0.732108949601574
            ]
        },
        {
            "positions": [
                0.8086865794026312,
                -1.8444906455441101,
                0.9797043577577103,
                1.1606792772347008,
                -0.7190748368335063,
                -0.7977221651383313
            ]
        },
        {
            "positions": [
                0.8506946386007674,
                -1.8576729858793548,
                0.7861635974888683,
                1.0985183085001191,
                -0.7290456018923077,
                -0.8633353806750884
            ]
        },
        {
            "positions": [
                0.8927026977989037,
                -1.8708553262145997,
                0.5926228372200264,
                1.0363573397655375,
                -0.7390163669511093,
                -0.9289485962118456
            ]
        },
        {
            "positions": [
                0.9347107569970399,
                -1.8840376665498444,
                0.3990820769511845,
                0.9741963710309558,
                -0.7489871320099108,
                -0.9945618117486027
            ]
        },
        {
            "positions": [
                0.9767188161951761,
                -1.897220006885089,
                0.20554131668234255,
                0.9120354022963741,
                -0.7589578970687123,
                -1.0601750272853598
            ]
        },
        {
            "positions": [
                1.0187268753933123,
                -1.910402347220334,
                0.012000556413500618,
                0.8498744335617925,
                -0.7689286621275139,
                -1.125788242822117
            ]
        },
        {
            "positions": [
                1.0607349345914483,
                -1.9235846875555787,
                -0.1815402038553411,
                0.7877134648272109,
                -0.7788994271863153,
                -1.1914014583588741
            ]
        },
        {
            "positions": [
                1.1027429937895845,
                -1.9367670278908233,
                -0.37508096412418324,
                0.7255524960926293,
                -0.7888701922451169,
                -1.2570146738956312
            ]
        },
        {
            "positions": [
                1.1447510529877207,
                -1.9499493682260682,
                -0.5686217243930249,
                0.6633915273580476,
                -0.7988409573039184,
                -1.3226278894323884
            ]
        },
        {
            "positions": [
                1.186759112185857,
                -1.963131708561313,
                -0.7621624846618671,
                0.601230558623466,
                -0.8088117223627198,
                -1.3882411049691457
            ]
        },
        {
            "positions": [
                1.2287671713839932,
                -1.9763140488965576,
                -0.9557032449307088,
                0.5390695898888844,
                -0.8187824874215214,
                -1.453854320505903
            ]
        },
        {
            "positions": [
                1.2707752305821294,
                -1.9894963892318025,
                -1.1492440051995505,
                0.47690862115430277,
                -0.8287532524803229,
                -1.5194675360426597
            ]
        },
        {
            "positions": [
                1.3127832897802656,
                -2.002678729567047,
                -1.3427847654683926,
                0.41474765241972117,
                -0.8387240175391244,
                -1.585080751579417
            ]
        },
        {
            "positions": [
                1.3845515375787698,
                -2.0130186034224895,
                -1.5026697895507306,
                0.48049366627004114,
                -0.8334231535227263,
                -1.6444792482411312
            ]
        },
        {
            "positions": [
                1.4778975175982527,
                -2.041573218171404,
                -1.601523367895403,
                0.5634269813072504,
                -0.8467489978132172,
                -1.566188343146616
            ]
        },
        {
            "positions": [
                1.5712434976177354,
                -2.0701278329203188,
                -1.7003769462400755,
                0.6463602963444597,
                -0.8600748421037081,
                -1.4878974380521004
            ]
        },
        {
            "positions": [
                1.681824733946788,
                -2.1118537291553565,
                -1.7200925305606423,
                0.7019361309422963,
                -0.822678869842656,
                -1.3971954497525454
            ]
        },
        {
            "positions": [
                1.7924059702758404,
                -2.153579625390394,
                -1.739808114881209,
                0.757511965540133,
                -0.7852828975816039,
                -1.3064934614529906
            ]
        },
        {
            "positions": [
                1.902987206604893,
                -2.1953055216254316,
                -1.7595236992017758,
                0.8130878001379696,
                -0.7478869253205518,
                -1.2157914731534356
            ]
        },
        {
            "positions": [
                2.0135684429339453,
                -2.237031417860469,
                -1.7792392835223425,
                0.8686636347358062,
                -0.7104909530594996,
                -1.1250894848538808
            ]
        },
        {
            "positions": [
                2.124149679262998,
                -2.2787573140955066,
                -1.7989548678429093,
                0.9242394693336429,
                -0.6730949807984475,
                -1.0343874965543258
            ]
        },
        {
            "positions": [
                2.2347309155920505,
                -2.320483210330544,
                -1.818670452163476,
                0.9798153039314795,
                -0.6356990085373955,
                -0.9436855082547709
            ]
        },
        {
            "positions": [
                2.345312151921103,
                -2.3622091065655817,
                -1.8383860364840428,
                1.0353911385293162,
                -0.5983030362763433,
                -0.852983519955216
            ]
        },
        {
            "positions": [
                2.3903471287062596,
                -2.379307920202455,
                -1.8132355886719937,
                1.0294605538802977,
                -0.44597568873465354,
                -0.729830493154706
            ]
        },
        {
            "positions": [
                2.4353821054914158,
                -2.3964067338393282,
                -1.7880851408599445,
                1.0235299692312791,
                -0.29364834119296385,
                -0.6066774663541961
            ]
        },
        {
            "positions": [
                2.4804170822765723,
                -2.4135055474762015,
                -1.7629346930478955,
                1.0175993845822608,
                -0.14132099365127415,
                -0.483524439553686
            ]
        },
        {
            "positions": [
                2.525452059061729,
                -2.430604361113075,
                -1.7377842452358463,
                1.0116687999332423,
                0.011006353890415599,
                -0.36037141275317597
            ]
        },
        {
            "positions": [
                2.5704870358468854,
                -2.4477031747499485,
                -1.7126337974237973,
                1.0057382152842238,
                0.16333370143210535,
                -0.23721838595266587
            ]
        },
        {
            "positions": [
                2.6155220126320415,
                -2.4648019883868217,
                -1.6874833496117483,
                0.9998076306352054,
                0.315661048973795,
                -0.11406535915215599
            ]
        },
        {
            "positions": [
                2.660556989417198,
                -2.481900802023695,
                -1.662332901799699,
                0.9938770459861869,
                0.46798839651548474,
                0.009087667648354164
            ]
        }
    ]
}