{
    "goal": {
        "global_pose": {
            "orientation": {
                "w": -0.00223480608172531,
                "x": 0.0024358444001904467,
                "y": 0.7094548369677653,
                "z": -0.704743149386269
            },
            "position": {
                "x": -0.37947507619857795,
                "y": -0.6371506643295288,
                "z": 0.19426114857196808
            }
        },
        "name": "move_to_magneteinheit_C"
    },
    "id": "BKPIECE_move_to_magneteinheit_C_99",
    "joint_names": [
        "shoulder_pan_joint",
        "shoulder_lift_joint",
        "elbow_joint",
        "wrist_1_joint",
        "wrist_2_joint",
        "wrist_3_joint"
    ],
    "metrics": {
        "cart_traj_len": 1.4567706741604551,
        "distance_elbow_joint": 0.8294716928104977,
        "distance_shoulder_lift_joint": 2.849248130343632,
        "distance_shoulder_pan_joint": 1.3712222839804793,
        "distance_wrist_1_joint": 3.6899016427183557,
        "distance_wrist_2_joint": 1.7614975689093955,
        "distance_wrist_3_joint": 4.247032103429887,
        "smoothness": 0.7973082327142976,
        "time": 0.37192700599999995,
        "traj_len": 3.840361105702463,
        "weighted_distance": 5.356662845529833
    },
    "planner": "BKPIECE",
    "start": {
        "state": {
            "elbow_joint": 1.9565354010623817,
            "shoulder_lift_joint": -1.4165861575791021,
            "shoulder_pan_joint": -1.6717766225146293,
            "wrist_1_joint": -0.5286633292919765,
            "wrist_2_joint": 1.472756589071564,
            "wrist_3_joint": -3.1238370188695823
        }
    },
    "waypoints": [
        {
            "positions": [
                -1.6717766225146293,
                -1.4165861575791021,
                1.9565354010623817,
                -0.5286633292919765,
                1.472756589071564,
                -3.1238370188695823
            ]
        },
        {
            "positions": [
                -1.7261313605961666,
                -1.4814901776963971,
                1.9786201307515354,
                -0.4440505725864585,
                1.4085420799534614,
                -3.018140268461352
            ]
        },
        {
            "positions": [
                -1.780486098677704,
                -1.546394197813692,
                2.000704860440689,
                -0.35943781588094065,
                1.344327570835359,
                -2.912443518053122
            ]
        },
        {
            "positions": [
                -1.8348408367592413,
                -1.611298217930987,
                2.022789590129843,
                -0.27482505917542277,
                1.2801130617172567,
                -2.8067467676448916
            ]
        },
        {
            "positions": [
                -1.8891955748407785,
                -1.676202238048282,
                2.0448743198189967,
                -0.19021230246990484,
                1.2158985525991541,
                -2.7010500172366614
            ]
        },
        {
            "positions": [
                -1.943550312922316,
                -1.741106258165577,
                2.0669590495081507,
                -0.10559954576438696,
                1.1516840434810516,
                -2.595353266828431
            ]
        },
        {
            "positions": [
                -1.9979050510038532,
                -1.806010278282872,
                2.089043779197304,
                -0.020986789058869082,
                1.0874695343629492,
                -2.489656516420201
            ]
        },
        {
            "positions": [
                -2.0522597890853906,
                -1.8709142984001668,
                2.111128508886458,
                0.06362596764664885,
                1.023255025244847,
                -2.3839597660119707
            ]
        },
        {
            "positions": [
                -2.106614527166928,
                -1.9358183185174618,
                2.1332132385756117,
                0.14823872435216678,
                0.9590405161267443,
                -2.2782630156037404
            ]
        },
        {
            "positions": [
                -2.160969265248465,
                -2.000722338634757,
                2.1552979682647657,
                0.2328514810576846,
                0.8948260070086419,
                -2.17256626519551
            ]
        },
        {
            "positions": [
                -2.2153240033300023,
                -2.0656263587520516,
                2.1773826979539193,
                0.31746423776320254,
                0.8306114978905395,
                -2.06686951478728
            ]
        },
        {
            "positions": [
                -2.26967874141154,
                -2.130530378869347,
                2.1994674276430732,
                0.40207699446872047,
                0.7663969887724369,
                -1.9611727643790497
            ]
        },
        {
            "positions": [
                -2.3240334794930773,
                -2.1954343989866416,
                2.221552157332227,
                0.4866897511742383,
                0.7021824796543346,
                -1.8554760139708195
            ]
        },
        {
            "positions": [
                -2.3783882175746145,
                -2.2603384191039364,
                2.2436368870213808,
                0.5713025078797562,
                0.6379679705362321,
                -1.7497792635625893
            ]
        },
        {
            "positions": [
                -2.4327429556561517,
                -2.325242439221231,
                2.2657216167105347,
                0.6559152645852742,
                0.5737534614181298,
                -1.644082513154359
            ]
        },
        {
            "positions": [
                -2.487097693737689,
                -2.3901464593385264,
                2.2878063463996883,
                0.7405280212907921,
                0.5095389523000272,
                -1.5383857627461288
            ]
        },
        {
            "positions": [
                -2.541452431819226,
                -2.4550504794558217,
                2.3098910760888423,
                0.82514077799631,
                0.44532444318192477,
                -1.4326890123378986
            ]
        },
        {
            "positions": [
                -2.5958071699007634,
                -2.5199544995731165,
                2.331975805777996,
                0.9097535347018277,
                0.38110993406382243,
                -1.3269922619296683
            ]
        },
        {
            "positions": [
                -2.650161907982301,
                -2.5848585196904112,
                2.3540605354671498,
                0.9943662914073457,
                0.3168954249457199,
                -1.2212955115214381
            ]
        },
        {
            "positions": [
                -2.704516646063838,
                -2.649762539807706,
                2.3761452651563033,
                1.0789790481128636,
                0.25268091582761754,
                -1.1155987611132079
            ]
        },
        {
            "positions": [
                -2.7588713841453756,
                -2.7146665599250013,
                2.3982299948454573,
                1.1635918048183815,
                0.18846640670951498,
                -1.0099020107049776
            ]
        },
        {
            "positions": [
                -2.7430865217926126,
                -2.6284905750362384,
                2.376686822677267,
                1.0526114432290483,
                0.21497792818436756,
                -1.1284074048863821
            ]
        },
        {
            "positions": [
                -2.7273016594398496,
                -2.5423145901474755,
                2.3551436505090773,
                0.9416310816397151,
                0.24148944965922012,
                -1.2469127990677866
            ]
        },
        {
            "positions": [
                -2.7115167970870866,
                -2.4561386052587126,
                2.333600478340887,
                0.8306507200503819,
                0.2680009711340727,
                -1.3654181932491911
            ]
        },
        {
            "positions": [
                -2.6957319347343236,
                -2.3699626203699493,
                2.312057306172697,
                0.7196703584610487,
                0.29451249260892526,
                -1.4839235874305956
            ]
        },
        {
            "positions": [
                -2.679947072381561,
                -2.2837866354811864,
                2.2905141340045065,
                0.6086899968717154,
                0.32102401408377784,
                -1.6024289816120003
            ]
        },
        {
            "positions": [
                -2.664162210028798,
                -2.1976106505924236,
                2.2689709618363167,
                0.4977096352823822,
                0.34753553555863037,
                -1.7209343757934046
            ]
        },
        {
            "positions": [
                -2.648377347676035,
                -2.1114346657036602,
                2.2474277896681265,
                0.386729273693049,
                0.37404705703348295,
                -1.8394397699748093
            ]
        },
        {
            "positions": [
                -2.632592485323272,
                -2.025258680814898,
                2.2258846174999363,
                0.27574891210371577,
                0.40055857850833554,
                -1.9579451641562136
            ]
        },
        {
            "positions": [
                -2.616807622970509,
                -1.9390826959261345,
                2.204341445331746,
                0.16476855051438255,
                0.4270700999831881,
                -2.0764505583376183
            ]
        },
        {
            "positions": [
                -2.601022760617746,
                -1.8529067110373716,
                2.1827982731635562,
                0.05378818892504933,
                0.4535816214580407,
                -2.194955952519023
            ]
        },
        {
            "positions": [
                -2.585237898264983,
                -1.7667307261486087,
                2.161255100995366,
                -0.05719217266428389,
                0.4800931429328933,
                -2.3134613467004277
            ]
        },
        {
            "positions": [
                -2.56945303591222,
                -1.6805547412598458,
                2.1397119288271758,
                -0.1681725342536171,
                0.5066046644077458,
                -2.4319667408818315
            ]
        },
        {
            "positions": [
                -2.553668173559457,
                -1.5943787563710827,
                2.118168756658986,
                -0.27915289584295033,
                0.5331161858825983,
                -2.5504721350632362
            ]
        },
        {
            "positions": [
                -2.5378833112066945,
                -1.5082027714823196,
                2.0966255844907957,
                -0.39013325743228355,
                0.5596277073574509,
                -2.668977529244641
            ]
        },
        {
            "positions": [
                -2.5220984488539315,
                -1.4220267865935567,
                2.0750824123226055,
                -0.5011136190216168,
                0.5861392288323035,
                -2.7874829234260456
            ]
        },
        {
            "positions": [
                -2.5063135865011685,
                -1.3358508017047939,
                2.0535392401544152,
                -0.61209398061095,
                0.6126507503071561,
                -2.9059883176074495
            ]
        },
        {
            "positions": [
                -2.4905287241484055,
                -1.249674816816031,
                2.0319960679862255,
                -0.7230743422002832,
                0.6391622717820087,
                -3.024493711788854
            ]
        },
        {
            "positions": [
                -2.4747438617956425,
                -1.1634988319272679,
                2.010452895818035,
                -0.8340547037896163,
                0.6656737932568613,
                -3.142999105970259
            ]
        }
    ]
}