{
    "goal": {
        "global_pose": {
            "orientation": {
                "w": -0.00223480608172531,
                "x": 0.0024358444001904467,
                "y": 0.7094548369677653,
                "z": -0.704743149386269
            },
            "position": {
                "x": 0.6205249238014221,
                "y": -0.6371506643295288,
                "z": 0.19426114857196808
            }
        },
        "name": "move_to_magneteinheit_B"
    },
    "id": "BKPIECE_move_to_magneteinheit_B_49",
    "joint_names": [
        "shoulder_pan_joint",
        "shoulder_lift_joint",
        "elbow_joint",
        "wrist_1_joint",
        "wrist_2_joint",
        "wrist_3_joint"
    ],
    "metrics": {
        "cart_traj_len": 4.444375135295011,
        "distance_elbow_joint": 4.265597165779618,
        "distance_shoulder_lift_joint": 1.0160882722824507,
        "distance_shoulder_pan_joint": 3.881423338646089,
        "distance_wrist_1_joint": 5.38288445338941,
        "distance_wrist_2_joint": 1.70647386901551,
        "distance_wrist_3_joint": 5.259297949648017,
        "smoothness": 0.2884978764353861,
        "time": 0.458088137,
        "traj_len": 4.638077732074042,
        "weighted_distance": 6.254575866552586
    },
    "planner": "BKPIECE",
    "start": {
        "state": {
            "elbow_joint": 2.6216224122426386,
            "shoulder_lift_joint": -1.4174107377796124,
            "shoulder_pan_joint": 0.7066234856936794,
            "wrist_1_joint": 1.9546482284002225,
            "wrist_2_joint": -0.7096286983471962,
            "wrist_3_joint": 0.005740856962016249
        }
    },
    "waypoints": [
        {
            "positions": [
                0.7066234856936794,
                -1.4174107377796124,
                2.6216224122426386,
                1.9546482284002225,
                -0.7096286983471962,
                0.005740856962016249
            ]
        },
        {
            "positions": [
                0.6061136356385282,
                -1.4074271692596576,
                2.5794914908713804,
                1.8760480011821563,
                -0.712638143001239,
                0.03427918544642771
            ]
        },
        {
            "positions": [
                0.5056037855833769,
                -1.3974436007397026,
                2.5373605695001222,
                1.7974477739640902,
                -0.7156475876552817,
                0.06281751393083918
            ]
        },
        {
            "positions": [
                0.45857820185474457,
                -1.450652889115277,
                2.3854047661492706,
                1.8340416194761209,
                -0.6409180476514573,
                0.07313606254991588
            ]
        },
        {
            "positions": [
                0.41155261812611227,
                -1.5038621774908512,
                2.2334489627984193,
                1.8706354649881516,
                -0.5661885076476331,
                0.0834546111689926
            ]
        },
        {
            "positions": [
                0.3645270343974799,
                -1.5570714658664255,
                2.0814931594475676,
                1.9072293105001823,
                -0.4914589676438087,
                0.0937731597880693
            ]
        },
        {
            "positions": [
                0.3175014506688476,
                -1.610280754242,
                1.9295373560967164,
                1.943823156012213,
                -0.4167294276399844,
                0.10409170840714602
            ]
        },
        {
            "positions": [
                0.2704758669402152,
                -1.663490042617574,
                1.7775815527458647,
                1.9804170015242437,
                -0.34199988763616007,
                0.11441025702622272
            ]
        },
        {
            "positions": [
                0.2234502832115829,
                -1.7166993309931484,
                1.6256257493950135,
                2.0170108470362744,
                -0.26727034763233576,
                0.12472880564529942
            ]
        },
        {
            "positions": [
                0.1764246994829506,
                -1.7699086193687226,
                1.473669946044162,
                2.0536046925483054,
                -0.19254080762851145,
                0.13504735426437614
            ]
        },
        {
            "positions": [
                0.12939911575431823,
                -1.823117907744297,
                1.3217141426933103,
                2.090198538060336,
                -0.11781126762468708,
                0.14536590288345286
            ]
        },
        {
            "positions": [
                0.08237353202568592,
                -1.8763271961198713,
                1.1697583393424589,
                2.1267923835723668,
                -0.04308172762086282,
                0.15568445150252955
            ]
        },
        {
            "positions": [
                0.03534794829705351,
                -1.9295364844954457,
                1.0178025359916074,
                2.1633862290843973,
                0.03164781238296155,
                0.16600300012160626
            ]
        },
        {
            "positions": [
                -0.011677635431578737,
                -1.9827457728710196,
                0.865846732640756,
                2.199980074596428,
                0.1063773523867858,
                0.17632154874068295
            ]
        },
        {
            "positions": [
                -0.05870321916021115,
                -2.035955061246594,
                0.7138909292899045,
                2.2365739201084587,
                0.18110689239061017,
                0.18664009735975967
            ]
        },
        {
            "positions": [
                -0.10572880288884345,
                -2.0891643496221683,
                0.5619351259390531,
                2.2731677656204896,
                0.25583643239443443,
                0.1969586459788364
            ]
        },
        {
            "positions": [
                0.019794721873322485,
                -2.0847259890265994,
                0.4934602185287236,
                2.127087218998718,
                0.25202269462760374,
                0.2352800584182235
            ]
        },
        {
            "positions": [
                0.14531824663548842,
                -2.08028762843103,
                0.4249853111183941,
                1.9810066723769468,
                0.24820895686077307,
                0.2736014708576106
            ]
        },
        {
            "positions": [
                0.2708417713976544,
                -2.075849267835461,
                0.3565104037080645,
                1.8349261257551754,
                0.2443952190939424,
                0.31192288329699774
            ]
        },
        {
            "positions": [
                0.3963652961598203,
                -2.0714109072398923,
                0.288035496297735,
                1.6888455791334043,
                0.2405814813271117,
                0.3502442957363848
            ]
        },
        {
            "positions": [
                0.5218888209219863,
                -2.066972546644323,
                0.21956058888740548,
                1.5427650325116329,
                0.23676774356028105,
                0.38856570817577196
            ]
        },
        {
            "positions": [
                0.6474123456841523,
                -2.062534186048754,
                0.15108568147707596,
                1.3966844858898615,
                0.23295400579345035,
                0.4268871206151591
            ]
        },
        {
            "positions": [
                0.7729358704463183,
                -2.0580958254531847,
                0.08261077406674638,
                1.25060393926809,
                0.2291402680266197,
                0.46520853305454624
            ]
        },
        {
            "positions": [
                0.8984593952084841,
                -2.053657464857616,
                0.014135866656416862,
                1.104523392646319,
                0.225326530259789,
                0.5035299454939333
            ]
        },
        {
            "positions": [
                1.0239829199706503,
                -2.049219104262047,
                -0.054339040753912715,
                0.9584428460245473,
                0.22151279249295833,
                0.5418513579333204
            ]
        },
        {
            "positions": [
                1.149506444732816,
                -2.0447807436664776,
                -0.12281394816424218,
                0.8123622994027762,
                0.21769905472612763,
                0.5801727703727075
            ]
        },
        {
            "positions": [
                1.275029969494982,
                -2.0403423830709086,
                -0.19128885557457176,
                0.6662817527810048,
                0.21388531695929697,
                0.6184941828120947
            ]
        },
        {
            "positions": [
                1.400553494257148,
                -2.0359040224753397,
                -0.2597637629849012,
                0.5202012061592334,
                0.21007157919246627,
                0.6568155952514818
            ]
        },
        {
            "positions": [
                1.5260770190193138,
                -2.0314656618797704,
                -0.3282386703952307,
                0.3741206595374622,
                0.2062578414256356,
                0.695137007690869
            ]
        },
        {
            "positions": [
                1.65160054378148,
                -2.0270273012842015,
                -0.3967135778055604,
                0.2280401129156906,
                0.2024441036588049,
                0.7334584201302561
            ]
        },
        {
            "positions": [
                1.777124068543646,
                -2.022588940688632,
                -0.46518848521588996,
                0.0819595662939192,
                0.19863036589197425,
                0.7717798325696431
            ]
        },
        {
            "positions": [
                1.9026475933058116,
                -2.0181505800930633,
                -0.5336633926262194,
                -0.06412098032785174,
                0.19481662812514355,
                0.8101012450090302
            ]
        },
        {
            "positions": [
                2.0281711180679776,
                -2.0137122194974943,
                -0.6021383000365489,
                -0.21020152694962313,
                0.1910028903583129,
                0.8484226574484174
            ]
        },
        {
            "positions": [
                2.153694642830144,
                -2.009273858901925,
                -0.6706132074468786,
                -0.35628207357139496,
                0.18718915259148222,
                0.8867440698878045
            ]
        },
        {
            "positions": [
                2.2792181675923096,
                -2.004835498306356,
                -0.739088114857208,
                -0.5023626201931659,
                0.18337541482465153,
                0.9250654823271917
            ]
        },
        {
            "positions": [
                2.4047416923544755,
                -2.000397137710787,
                -0.8075630222675375,
                -0.6484431668149373,
                0.17956167705782083,
                0.9633868947665787
            ]
        },
        {
            "positions": [
                2.5302652171166415,
                -1.9959587771152179,
                -0.876037929677867,
                -0.7945237134367087,
                0.17574793929099017,
                1.0017083072059658
            ]
        },
        {
            "positions": [
                2.6557887418788075,
                -1.991520416519649,
                -0.9445128370881967,
                -0.9406042600584801,
                0.1719342015241595,
                1.040029719645353
            ]
        },
        {
            "positions": [
                2.7813122666409735,
                -1.9870820559240798,
                -1.0129877444985262,
                -1.0866848066802515,
                0.1681204637573288,
                1.07835113208474
            ]
        },
        {
            "positions": [
                2.7864067017191796,
                -2.0088721224650126,
                -1.0705748008722784,
                -1.167847650677708,
                0.15339972580212502,
                0.8790062337693544
            ]
        },
        {
            "positions": [
                2.7915011367973857,
                -2.030662189005945,
                -1.1281618572460308,
                -1.2490104946751646,
                0.13867898784692126,
                0.6796613354539687
            ]
        },
        {
            "positions": [
                2.7965955718755913,
                -2.0524522555468776,
                -1.185748913619783,
                -1.330173338672621,
                0.12395824989171747,
                0.48031643713858285
            ]
        },
        {
            "positions": [
                2.8016900069537973,
                -2.07424232208781,
                -1.2433359699935351,
                -1.4113361826700777,
                0.1092375119365137,
                0.28097153882319714
            ]
        },
        {
            "positions": [
                2.8067844420320034,
                -2.0960323886287426,
                -1.3009230263672875,
                -1.4924990266675342,
                0.0945167739813099,
                0.08162664050781132
            ]
        },
        {
            "positions": [
                2.8118788771102095,
                -2.117822455169675,
                -1.3585100827410397,
                -1.5736618706649907,
                0.07979603602610613,
                -0.11771825780757433
            ]
        },
        {
            "positions": [
                2.8120114605604667,
                -2.134442999599493,
                -1.4045975371528931,
                -1.6498632661391828,
                0.05723694156684932,
                -0.32222277745442324
            ]
        },
        {
            "positions": [
                2.812144044010724,
                -2.15106354402931,
                -1.4506849915647464,
                -1.7260646616133748,
                0.0346778471075925,
                -0.5267272971012722
            ]
        },
        {
            "positions": [
                2.8122766274609816,
                -2.1676840884591275,
                -1.4967724459765996,
                -1.802266057087567,
                0.012118752648335687,
                -0.7312318167481211
            ]
        },
        {
            "positions": [
                2.812409210911239,
                -2.1843046328889453,
                -1.542859900388453,
                -1.878467452561759,
                -0.01044034181092112,
                -0.93573633639497
            ]
        },
        {
            "positions": [
                2.8015228045207854,
                -2.1870903998970803,
                -1.5568697558031066,
                -1.9327838947840323,
                -0.04715378608474598,
                -1.1224647267573604
            ]
        },
        {
            "positions": [
                2.7859620678682266,
                -2.187347038640301,
                -1.566548088884648,
                -1.9932297111054054,
                -0.09448497954902693,
                -1.3431171507221595
            ]
        },
        {
            "positions": [
                2.7704013312156675,
                -2.187603677383522,
                -1.5762264219661895,
                -2.0536755274267784,
                -0.1418161730133079,
                -1.5637695746869587
            ]
        },
        {
            "positions": [
                2.7548405945631087,
                -2.1878603161267423,
                -1.5859047550477308,
                -2.114121343748151,
                -0.18914736647758884,
                -1.7844219986517575
            ]
        },
        {
            "positions": [
                2.7392798579105495,
                -2.188116954869963,
                -1.595583088129272,
                -2.1745671600695244,
                -0.23647855994186984,
                -2.0050744226165564
            ]
        },
        {
            "positions": [
                2.7237191212579908,
                -2.188373593613184,
                -1.6052614212108136,
                -2.2350129763908972,
                -0.28380975340615083,
                -2.225726846581356
            ]
        },
        {
            "positions": [
                2.7081583846054316,
                -2.1886302323564046,
                -1.614939754292355,
                -2.2954587927122705,
                -0.3311409468704317,
                -2.4463792705461547
            ]
        },
        {
            "positions": [
                2.692597647952873,
                -2.188886871099625,
                -1.6246180873738962,
                -2.3559046090336433,
                -0.3784721403347127,
                -2.6670316945109542
            ]
        },
        {
            "positions": [
                2.6770369113003136,
                -2.189143509842846,
                -1.6342964204554378,
                -2.4163504253550165,
                -0.42580333379899366,
                -2.887684118475753
            ]
        },
        {
            "positions": [
                2.661476174647755,
                -2.1894001485860666,
                -1.643974753536979,
                -2.4767962416763893,
                -0.47313452726327465,
                -3.108336542440552
            ]
        }
    ]
}