{
    "goal": {
        "global_pose": {
            "orientation": {
                "w": -0.4816463035849501,
                "x": 0.5182115481033762,
                "y": 0.4908360881923453,
                "z": -0.5084816262002911
            },
            "position": {
                "x": -0.8240239810943604,
                "y": -0.300875300988555,
                "z": 0.16403168439865112
            }
        },
        "name": "move_to_storage_C"
    },
    "id": "BKPIECE_move_to_storage_C_123",
    "joint_names": [
        "shoulder_pan_joint",
        "shoulder_lift_joint",
        "elbow_joint",
        "wrist_1_joint",
        "wrist_2_joint",
        "wrist_3_joint"
    ],
    "metrics": {
        "cart_traj_len": 0.5776259297499582,
        "distance_elbow_joint": 0.25876596320185197,
        "distance_shoulder_lift_joint": 0.18991904483235122,
        "distance_shoulder_pan_joint": 0.49366201941938126,
        "distance_wrist_1_joint": 0.07311724324534319,
        "distance_wrist_2_joint": 1.0803144729367133,
        "distance_wrist_3_joint": 0.06596485164631671,
        "smoothness": 2.5376526478085547e-16,
        "time": 0.1760023,
        "traj_len": 1.4702869091717974,
        "weighted_distance": 1.8566380947176129
    },
    "planner": "BKPIECE",
    "start": {
        "state": {
            "elbow_joint": 2.010868314990456,
            "shoulder_lift_joint": -1.1634956873337592,
            "shoulder_pan_joint": -2.4736205022346125,
            "wrist_1_joint": -0.8367026794202681,
            "wrist_2_joint": 0.6746043897044499,
            "wrist_3_joint": -3.1496632123970403
        }
    },
    "waypoints": [
        {
            "positions": [
                -2.4736205022346125,
                -1.1634956873337592,
                2.010868314990456,
                -0.8367026794202681,
                0.6746043897044499,
                -3.1496632123970403
            ]
        },
        {
            "positions": [
                -2.555897505471176,
                -1.131842513195034,
                1.967740654456814,
                -0.824516472212711,
                0.8546568018605688,
                -3.1386690704559874
            ]
        },
        {
            "positions": [
                -2.6381745087077397,
                -1.1001893390563087,
                1.9246129939231718,
                -0.8123302650051537,
                1.0347092140166878,
                -3.1276749285149346
            ]
        },
        {
            "positions": [
                -2.720451511944303,
                -1.0685361649175835,
                1.8814853333895298,
                -0.8001440577975965,
                1.2147616261728067,
                -3.116680786573882
            ]
        },
        {
            "positions": [
                -2.8027285151808665,
                -1.0368829907788584,
                1.838357672855888,
                -0.7879578505900393,
                1.3948140383289256,
                -3.1056866446328293
            ]
        },
        {
            "positions": [
                -2.8850055184174304,
                -1.0052298166401332,
                1.7952300123222458,
                -0.7757716433824822,
                1.5748664504850445,
                -3.0946925026917764
            ]
        },
        {
            "positions": [
                -2.9672825216539938,
                -0.973576642501408,
                1.7521023517886039,
                -0.7635854361749249,
                1.7549188626411634,
                -3.0836983607507236
            ]
        }
    ]
}