{
    "goal": {
        "global_pose": {
            "orientation": {
                "w": 0.005598929693374612,
                "x": 0.007748599140229565,
                "y": 0.7110244013736278,
                "z": -0.7031023480610252
            },
            "position": {
                "x": 0.1141497679147869,
                "y": -0.7141253447532654,
                "z": 0.3711530566215515
            }
        },
        "name": "move_to_auspresseinheit_B"
    },
    "id": "BKPIECE_move_to_auspresseinheit_B_74",
    "joint_names": [
        "shoulder_pan_joint",
        "shoulder_lift_joint",
        "elbow_joint",
        "wrist_1_joint",
        "wrist_2_joint",
        "wrist_3_joint"
    ],
    "metrics": {
        "cart_traj_len": 0.5645002521598901,
        "distance_elbow_joint": 0.06086929806625441,
        "distance_shoulder_lift_joint": 0.29384942307752304,
        "distance_shoulder_pan_joint": 0.5759608962030549,
        "distance_wrist_1_joint": 0.31514287557941867,
        "distance_wrist_2_joint": 0.9960241575591917,
        "distance_wrist_3_joint": 0.005031056330507155,
        "smoothness": 2.5376526478085547e-16,
        "time": 0.41187437,
        "traj_len": 1.4989588742910693,
        "weighted_distance": 1.888943316411473
    },
    "planner": "BKPIECE",
    "start": {
        "state": {
            "elbow_joint": 2.0193083361928714,
            "shoulder_lift_joint": -1.1220246554650708,
            "shoulder_pan_joint": -1.0952077554168747,
            "wrist_1_joint": -0.8559753972642168,
            "wrist_2_joint": 0.4759566250798843,
            "wrist_3_joint": -3.1240929996934557
        }
    },
    "waypoints": [
        {
            "positions": [
                -1.0952077554168747,
                -1.1220246554650708,
                2.0193083361928714,
                -0.8559753972642168,
                0.4759566250798843,
                -3.1240929996934557
            ]
        },
        {
            "positions": [
                -1.1912012381173838,
                -1.1709995593113247,
                2.009163453181829,
                -0.803451584667647,
                0.6419606513397496,
                -3.1249315090818737
            ]
        },
        {
            "positions": [
                -1.2871947208178929,
                -1.2199744631575784,
                1.9990185701707865,
                -0.7509277720710772,
                0.8079646775996148,
                -3.1257700184702912
            ]
        },
        {
            "positions": [
                -1.3831882035184022,
                -1.2689493670038323,
                1.988873687159744,
                -0.6984039594745075,
                0.9739687038594802,
                -3.1266085278587092
            ]
        },
        {
            "positions": [
                -1.479181686218911,
                -1.3179242708500862,
                1.978728804148702,
                -0.6458801468779377,
                1.1399727301193454,
                -3.1274470372471272
            ]
        },
        {
            "positions": [
                -1.5751751689194204,
                -1.36689917469634,
                1.9685839211376595,
                -0.5933563342813679,
                1.3059767563792108,
                -3.128285546635545
            ]
        },
        {
            "positions": [
                -1.6711686516199296,
                -1.4158740785425938,
                1.958439038126617,
                -0.5408325216847981,
                1.471980782639076,
                -3.129124056023963
            ]
        }
    ]
}