{
    "goal": {
        "global_pose": {
            "orientation": {
                "w": 0.5084816262002911,
                "x": -0.4908360881923452,
                "y": 0.5182115481033761,
                "z": -0.48164630358495003
            },
            "position": {
                "x": 0.5540239810943604,
                "y": -0.46912469901144505,
                "z": 0.16403168439865112
            }
        },
        "name": "move_to_storage_B"
    },
    "id": "BKPIECE_move_to_storage_B_29",
    "joint_names": [
        "shoulder_pan_joint",
        "shoulder_lift_joint",
        "elbow_joint",
        "wrist_1_joint",
        "wrist_2_joint",
        "wrist_3_joint"
    ],
    "metrics": {
        "cart_traj_len": 1.876112060097673,
        "distance_elbow_joint": 1.064698397378852,
        "distance_shoulder_lift_joint": 0.575019732655222,
        "distance_shoulder_pan_joint": 1.643186645795868,
        "distance_wrist_1_joint": 2.9828237134256232,
        "distance_wrist_2_joint": 2.706679374355532,
        "distance_wrist_3_joint": 3.14040384091523,
        "smoothness": 0.31104220897959944,
        "time": 0.43336657199999995,
        "traj_len": 3.4803464920214946,
        "weighted_distance": 4.9074558046036385
    },
    "planner": "BKPIECE",
    "start": {
        "state": {
            "elbow_joint": 1.664937868594044,
            "shoulder_lift_joint": -0.661644460510453,
            "shoulder_pan_joint": -0.9139846352900073,
            "wrist_1_joint": 2.146753192139373,
            "wrist_2_joint": -2.2341966793290973,
            "wrist_3_joint": 0.005466555786416001
        }
    },
    "waypoints": [
        {
            "positions": [
                -0.9139846352900073,
                -0.661644460510453,
                1.664937868594044,
                2.146753192139373,
                -2.2341966793290973,
                0.005466555786416001
            ]
        },
        {
            "positions": [
                -0.9031123158575924,
                -0.671469322695594,
                1.67084853019792,
                2.1490285320278986,
                -2.232987716379303,
                0.021179814480004538
            ]
        },
        {
            "positions": [
                -0.8431623489993731,
                -0.7136986390021395,
                1.6410322399828443,
                2.081263470218884,
                -2.130075264277443,
                0.10752295370865052
            ]
        },
        {
            "positions": [
                -0.7832123821411537,
                -0.7559279553086851,
                1.6112159497677685,
                2.01349840840987,
                -2.027162812175584,
                0.19386609293729648
            ]
        },
        {
            "positions": [
                -0.7232624152829343,
                -0.7981572716152305,
                1.581399659552693,
                1.945733346600856,
                -1.9242503600737242,
                0.2802092321659425
            ]
        },
        {
            "positions": [
                -0.663312448424715,
                -0.840386587921776,
                1.5515833693376173,
                1.8779682847918417,
                -1.8213379079718646,
                0.36655237139458846
            ]
        },
        {
            "positions": [
                -0.6033624815664957,
                -0.8826159042283215,
                1.5217670791225417,
                1.8102032229828273,
                -1.7184254558700047,
                0.4528955106232345
            ]
        },
        {
            "positions": [
                -0.5434125147082763,
                -0.924845220534867,
                1.4919507889074661,
                1.7424381611738133,
                -1.6155130037681453,
                0.5392386498518804
            ]
        },
        {
            "positions": [
                -0.483462547850057,
                -0.9670745368414125,
                1.4621344986923903,
                1.674673099364799,
                -1.5126005516662855,
                0.6255817890805264
            ]
        },
        {
            "positions": [
                -0.42351258099183764,
                -1.0093038531479581,
                1.4323182084773147,
                1.606908037555785,
                -1.409688099564426,
                0.7119249283091723
            ]
        },
        {
            "positions": [
                -0.36356261413361834,
                -1.0515331694545034,
                1.4025019182622391,
                1.5391429757467705,
                -1.3067756474625662,
                0.7982680675378183
            ]
        },
        {
            "positions": [
                -0.30361264727539894,
                -1.093762485761049,
                1.3726856280471633,
                1.4713779139377563,
                -1.2038631953607066,
                0.8846112067664644
            ]
        },
        {
            "positions": [
                -0.24366268041717964,
                -1.1359918020675945,
                1.3428693378320877,
                1.403612852128742,
                -1.100950743258847,
                0.9709543459951103
            ]
        },
        {
            "positions": [
                -0.1837127135589603,
                -1.17822111837414,
                1.3130530476170121,
                1.335847790319728,
                -0.9980382911569874,
                1.0572974852237564
            ]
        },
        {
            "positions": [
                -0.23176085693079296,
                -1.1751451670693225,
                1.3499473767324894,
                1.2217758096971527,
                -0.9206424497789125,
                1.16722237530154
            ]
        },
        {
            "positions": [
                -0.2798090003026256,
                -1.1720692157645047,
                1.3868417058479667,
                1.1077038290745778,
                -0.8432466084008376,
                1.2771472653793237
            ]
        },
        {
            "positions": [
                -0.3278571436744583,
                -1.1689932644596872,
                1.423736034963444,
                0.9936318484520026,
                -0.7658507670227628,
                1.3870721554571075
            ]
        },
        {
            "positions": [
                -0.3759052870462909,
                -1.1659173131548695,
                1.4606303640789213,
                0.8795598678294276,
                -0.6884549256446879,
                1.4969970455348909
            ]
        },
        {
            "positions": [
                -0.4239534304181236,
                -1.162841361850052,
                1.4975246931943984,
                0.7654878872068525,
                -0.611059084266613,
                1.6069219356126747
            ]
        },
        {
            "positions": [
                -0.4720015737899562,
                -1.1597654105452342,
                1.5344190223098757,
                0.6514159065842774,
                -0.5336632428885383,
                1.7168468256904583
            ]
        },
        {
            "positions": [
                -0.5200497171617888,
                -1.1566894592404167,
                1.571313351425353,
                0.5373439259617023,
                -0.4562674015104634,
                1.826771715768242
            ]
        },
        {
            "positions": [
                -0.5680978605336215,
                -1.153613507935599,
                1.6082076805408303,
                0.42327194533912726,
                -0.37887156013238854,
                1.9366966058460255
            ]
        },
        {
            "positions": [
                -0.6161460039054543,
                -1.1505375566307814,
                1.6451020096563076,
                0.3091999647165522,
                -0.30147571875431367,
                2.046621495923809
            ]
        },
        {
            "positions": [
                -0.6641941472772869,
                -1.1474616053259636,
                1.681996338771785,
                0.19512798409397702,
                -0.2240798773762388,
                2.156546386001593
            ]
        },
        {
            "positions": [
                -0.7122422906491195,
                -1.1443856540211461,
                1.7188906678872622,
                0.08105600347140185,
                -0.14668403599816393,
                2.2664712760793764
            ]
        },
        {
            "positions": [
                -0.7602904340209522,
                -1.1413097027163284,
                1.7557849970027395,
                -0.033015977151173104,
                -0.06928819462008917,
                2.37639616615716
            ]
        },
        {
            "positions": [
                -0.8083385773927849,
                -1.1382337514115108,
                1.7926793261182168,
                -0.14708795777374828,
                0.008107646757985698,
                2.486321056234944
            ]
        },
        {
            "positions": [
                -0.8563867207646174,
                -1.135157800106693,
                1.8295736552336939,
                -0.26115993839632323,
                0.08550348813606057,
                2.5962459463127274
            ]
        },
        {
            "positions": [
                -0.9044348641364501,
                -1.1320818488018756,
                1.8664679843491712,
                -0.3752319190188984,
                0.16289932951413544,
                2.706170836390511
            ]
        },
        {
            "positions": [
                -0.9524830075082829,
                -1.1290058974970578,
                1.9033623134646485,
                -0.48930389964147336,
                0.2402951708922103,
                2.8160957264682946
            ]
        },
        {
            "positions": [
                -1.0005311508801156,
                -1.1259299461922403,
                1.9402566425801258,
                -0.6033758802640485,
                0.3176910122702852,
                2.9260206165460785
            ]
        },
        {
            "positions": [
                -1.048579294251948,
                -1.1228539948874228,
                1.977150971695603,
                -0.7174478608866235,
                0.39508685364836005,
                3.035945506623862
            ]
        },
        {
            "positions": [
                -1.0966274376237808,
                -1.119778043582605,
                2.0140453008110804,
                -0.8315198415091986,
                0.47248269502643486,
                3.1458703967016457
            ]
        }
    ]
}