{
    "goal": {
        "global_pose": {
            "orientation": {
                "w": 0.005598929693374612,
                "x": 0.007748599140229565,
                "y": 0.7110244013736278,
                "z": -0.7031023480610252
            },
            "position": {
                "x": -0.8858502320852131,
                "y": -0.7141253447532654,
                "z": 0.3711530566215515
            }
        },
        "name": "move_to_auspresseinheit_C"
    },
    "id": "BKPIECE_move_to_auspresseinheit_C_45",
    "joint_names": [
        "shoulder_pan_joint",
        "shoulder_lift_joint",
        "elbow_joint",
        "wrist_1_joint",
        "wrist_2_joint",
        "wrist_3_joint"
    ],
    "metrics": {
        "cart_traj_len": 0.553664568788564,
        "distance_elbow_joint": 0.9891930819299091,
        "distance_shoulder_lift_joint": 0.31915794587546187,
        "distance_shoulder_pan_joint": 0.2565561959396434,
        "distance_wrist_1_joint": 0.658579311794111,
        "distance_wrist_2_joint": 1.8789550067243908,
        "distance_wrist_3_joint": 0.516186266303289,
        "smoothness": 1.2215676010308256,
        "time": 0.27978502299999997,
        "traj_len": 2.1490993016998554,
        "weighted_distance": 2.861561577127406
    },
    "planner": "BKPIECE",
    "start": {
        "state": {
            "elbow_joint": 1.7527959577737207,
            "shoulder_lift_joint": -0.9740617694225068,
            "shoulder_pan_joint": -2.967991417825858,
            "wrist_1_joint": -0.759517768980727,
            "wrist_2_joint": 1.7443932448377408,
            "wrist_3_joint": -3.0840537646736568
        }
    },
    "waypoints": [
        {
            "positions": [
                -2.967991417825858,
                -0.9740617694225068,
                1.7527959577737207,
                -0.759517768980727,
                1.7443932448377408,
                -3.0840537646736568
            ]
        },
        {
            "positions": [
                -2.9474772730099694,
                -0.9483855874318805,
                1.656246691371901,
                -0.6938756012356225,
                1.5853430836658826,
                -3.060164531402151
            ]
        },
        {
            "positions": [
                -2.9269631281940813,
                -0.9227094054412541,
                1.5596974249700815,
                -0.628233433490518,
                1.4262929224940244,
                -3.0362752981306453
            ]
        },
        {
            "positions": [
                -2.906448983378193,
                -0.8970332234506279,
                1.463148158568262,
                -0.5625912657454135,
                1.2672427613221662,
                -3.0123860648591396
            ]
        },
        {
            "positions": [
                -2.8859348385623043,
                -0.8713570414600015,
                1.3665988921664423,
                -0.49694909800030906,
                1.108192600150308,
                -2.988496831587634
            ]
        },
        {
            "positions": [
                -2.865420693746416,
                -0.8456808594693752,
                1.2700496257646225,
                -0.4313069302552046,
                0.9491424389784496,
                -2.964607598316128
            ]
        },
        {
            "positions": [
                -2.8449065489305276,
                -0.8200046774787489,
                1.173500359362803,
                -0.36566476251010016,
                0.7900922778065914,
                -2.940718365044622
            ]
        },
        {
            "positions": [
                -2.824392404114639,
                -0.7943284954881226,
                1.0769510929609836,
                -0.3000225947649957,
                0.6310421166347333,
                -2.9168291317731163
            ]
        },
        {
            "positions": [
                -2.8038782592987506,
                -0.7686523134974963,
                0.9804018265591637,
                -0.23438042701989115,
                0.47199195546287487,
                -2.8929398985016106
            ]
        },
        {
            "positions": [
                -2.7833641144828625,
                -0.7429761315068699,
                0.8838525601573441,
                -0.1687382592747867,
                0.31294179429101665,
                -2.869050665230105
            ]
        },
        {
            "positions": [
                -2.762849969666974,
                -0.7172999495162437,
                0.7873032937555245,
                -0.10309609152968219,
                0.1538916331191585,
                -2.845161431958599
            ]
        },
        {
            "positions": [
                -2.7371425957765942,
                -0.6861018865316443,
                0.7754530847996681,
                -0.10417490870121535,
                0.2981183306220627,
                -2.983808398752715
            ]
        },
        {
            "positions": [
                -2.7114352218862146,
                -0.6549038235470449,
                0.7636028758438116,
                -0.10525372587274849,
                0.4423450281249669,
                -3.1224553655468306
            ]
        }
    ]
}