{
    "goal": {
        "global_pose": {
            "orientation": {
                "w": 0.5084816217422485,
                "x": -0.49083608388900757,
                "y": 0.5182115435600281,
                "z": -0.4816462993621826
            },
            "position": {
                "x": 0.5540239810943604,
                "y": 0.030875300988554955,
                "z": 0.16403168439865112
            }
        },
        "name": "move_to_storage_A"
    },
    "id": "BKPIECE_move_to_storage_A_24",
    "joint_names": [
        "shoulder_pan_joint",
        "shoulder_lift_joint",
        "elbow_joint",
        "wrist_1_joint",
        "wrist_2_joint",
        "wrist_3_joint"
    ],
    "metrics": {
        "cart_traj_len": 0.3528179013238143,
        "distance_elbow_joint": 0.45082209646097504,
        "distance_shoulder_lift_joint": 0.2344708892298728,
        "distance_shoulder_pan_joint": 0.45863000625119554,
        "distance_wrist_1_joint": 0.24310730730187136,
        "distance_wrist_2_joint": 1.11054162243823,
        "distance_wrist_3_joint": 0.10392204306862096,
        "smoothness": 4.440892133664971e-16,
        "time": 0.089596509,
        "traj_len": 1.6129147419348506,
        "weighted_distance": 2.0403399179127257
    },
    "planner": "BKPIECE",
    "start": {
        "state": {
            "elbow_joint": 1.971548259319323,
            "shoulder_lift_joint": -1.1394851275133948,
            "shoulder_pan_joint": 0.1228115487234821,
            "wrist_1_joint": -0.7804723859257726,
            "wrist_2_joint": 0.12958671773740124,
            "wrist_3_joint": -3.192489227718131
        }
    },
    "waypoints": [
        {
            "positions": [
                0.1228115487234821,
                -1.1394851275133948,
                1.971548259319323,
                -0.7804723859257726,
                0.12958671773740124,
                -3.192489227718131
            ]
        },
        {
            "positions": [
                0.057292976401882745,
                -1.1729809688319481,
                2.035951415956605,
                -0.8152020012546114,
                0.28823552094286264,
                -3.177643221565471
            ]
        },
        {
            "positions": [
                -0.00822559591971661,
                -1.2064768101505012,
                2.1003545725938872,
                -0.8499316165834502,
                0.44688432414832413,
                -3.162797215412811
            ]
        },
        {
            "positions": [
                -0.07374416824131597,
                -1.2399726514690546,
                2.1647577292311695,
                -0.8846612319122888,
                0.6055331273537855,
                -3.147951209260151
            ]
        },
        {
            "positions": [
                -0.13926274056291532,
                -1.2734684927876079,
                2.2291608858684517,
                -0.9193908472411276,
                0.764181930559247,
                -3.1331052031074904
            ]
        },
        {
            "positions": [
                -0.20478131288451473,
                -1.3069643341061612,
                2.293564042505734,
                -0.9541204625699664,
                0.9228307337647085,
                -3.1182591969548303
            ]
        },
        {
            "positions": [
                -0.27029988520611403,
                -1.3404601754247143,
                2.357967199143016,
                -0.9888500778988052,
                1.0814795369701697,
                -3.1034131908021703
            ]
        },
        {
            "positions": [
                -0.33581845752771344,
                -1.3739560167432676,
                2.422370355780298,
                -1.023579693227644,
                1.2401283401756313,
                -3.08856718464951
            ]
        }
    ]
}{
    "goal": {
        "global_pose": {
            "orientation": {
                "w": 0.5084816217422485,
                "x": -0.49083608388900757,
                "y": 0.5182115435600281,
                "z": -0.4816462993621826
            },
            "position": {
                "x": 0.5540239810943604,
                "y": 0.030875300988554955,
                "z": 0.16403168439865112
            }
        },
        "name": "move_to_storage_A"
    },
    "id": "BKPIECE_move_to_storage_A_24",
    "joint_names": [
        "shoulder_pan_joint",
        "shoulder_lift_joint",
        "elbow_joint",
        "wrist_1_joint",
        "wrist_2_joint",
        "wrist_3_joint"
    ],
    "metrics": {
        "cart_traj_len": 0.3534909387710348,
        "distance_elbow_joint": 0.45032208774591886,
        "distance_shoulder_lift_joint": 0.2323487581480388,
        "distance_shoulder_pan_joint": 0.4622801462656383,
        "distance_wrist_1_joint": 0.24769847641647247,
        "distance_wrist_2_joint": 1.098404759030342,
        "distance_wrist_3_joint": 0.09513912299794747,
        "smoothness": 5.551115138160447e-16,
        "time": 0.297511099,
        "traj_len": 1.6081645906449868,
        "weighted_distance": 2.03041247830264
    },
    "planner": "BKPIECE",
    "start": {
        "state": {
            "elbow_joint": 1.97154746011099,
            "shoulder_lift_joint": -1.13948474672311,
            "shoulder_pan_joint": 0.12281154466712228,
            "wrist_1_joint": -0.7804688027058302,
            "wrist_2_joint": 0.12958655903071145,
            "wrist_3_joint": 3.0906928834467795
        }
    },
    "waypoints": [
        {
            "positions": [
                0.12281154466712228,
                -1.13948474672311,
                1.97154746011099,
                -0.7804688027058302,
                0.12958655903071145,
                3.0906928834467795
            ]
        },
        {
            "positions": [
                0.056771523772031096,
                -1.172677426458544,
                2.0358791869318353,
                -0.8158542993367548,
                0.2865015246064746,
                3.1042841867322006
            ]
        },
        {
            "positions": [
                -0.00926849712306009,
                -1.2058701061939783,
                2.100210913752681,
                -0.8512397959676794,
                0.4434164901822377,
                3.1178754900176218
            ]
        },
        {
            "positions": [
                -0.07530851801815126,
                -1.2390627859294123,
                2.1645426405735266,
                -0.8866252925986041,
                0.6003314557580008,
                3.131466793303043
            ]
        },
        {
            "positions": [
                -0.14134853891324245,
                -1.2722554656648464,
                2.228874367394372,
                -0.9220107892295287,
                0.7572464213337641,
                3.1450580965884636
            ]
        },
        {
            "positions": [
                -0.20738855980833365,
                -1.3054481454002804,
                2.2932060942152175,
                -0.9573962858604534,
                0.9141613869095273,
                3.1586493998738847
            ]
        },
        {
            "positions": [
                -0.2734285807034248,
                -1.3386408251357147,
                2.3575378210360634,
                -0.992781782491378,
                1.0710763524852902,
                3.172240703159306
            ]
        },
        {
            "positions": [
                -0.339468601598516,
                -1.3718335048711487,
                2.4218695478569088,
                -1.0281672791223027,
                1.2279913180610535,
                3.185832006444727
            ]
        }
    ]
}{
    "goal": {
        "global_pose": {
            "orientation": {
                "w": 0.5084816217422485,
                "x": -0.49083608388900757,
                "y": 0.5182115435600281,
                "z": -0.4816462993621826
            },
            "position": {
                "x": 0.5540239810943604,
                "y": 0.030875300988554955,
                "z": 0.16403168439865112
            }
        },
        "name": "move_to_storage_A"
    },
    "id": "BKPIECE_move_to_storage_A_24",
    "joint_names": [
        "shoulder_pan_joint",
        "shoulder_lift_joint",
        "elbow_joint",
        "wrist_1_joint",
        "wrist_2_joint",
        "wrist_3_joint"
    ],
    "metrics": {
        "cart_traj_len": 0.35384612236203605,
        "distance_elbow_joint": 0.4510835622353957,
        "distance_shoulder_lift_joint": 0.2330643907813501,
        "distance_shoulder_pan_joint": 0.4641726380350011,
        "distance_wrist_1_joint": 0.25176543263253714,
        "distance_wrist_2_joint": 1.0931295195170811,
        "distance_wrist_3_joint": 0.09124859573019783,
        "smoothness": 8.881784232165597e-16,
        "time": 0.159283608,
        "traj_len": 1.607626865579063,
        "weighted_distance": 2.027771259916063
    },
    "planner": "BKPIECE",
    "start": {
        "state": {
            "elbow_joint": 1.9715472970024885,
            "shoulder_lift_joint": -1.1394870060712896,
            "shoulder_pan_joint": 0.12281152778156021,
            "wrist_1_joint": -0.780463741449964,
            "wrist_2_joint": 0.12958659822042276,
            "wrist_3_joint": 3.090690232415272
        }
    },
    "waypoints": [
        {
            "positions": [
                0.12281152778156021,
                -1.1394870060712896,
                1.9715472970024885,
                -0.780463741449964,
                0.12958659822042276,
                3.090690232415272
            ]
        },
        {
            "positions": [
                0.056501150919417195,
                -1.172781919040054,
                2.0359878058932592,
                -0.8164302318260407,
                0.28574795815143433,
                3.1037257460910146
            ]
        },
        {
            "positions": [
                -0.009809225942725819,
                -1.2060768320088182,
                2.1004283147840304,
                -0.8523967222021175,
                0.44190931808244593,
                3.116761259766757
            ]
        },
        {
            "positions": [
                -0.07611960280486882,
                -1.2393717449775825,
                2.164868823674801,
                -0.8883632125781942,
                0.5980706780134575,
                3.1297967734424996
            ]
        },
        {
            "positions": [
                -0.14242997966701185,
                -1.2726666579463468,
                2.2293093325655717,
                -0.924329702954271,
                0.754232037944469,
                3.142832287118242
            ]
        },
        {
            "positions": [
                -0.20874035652915487,
                -1.3059615709151111,
                2.293749841456343,
                -0.9602961933303477,
                0.9103933978754807,
                3.1558678007939847
            ]
        },
        {
            "positions": [
                -0.2750507333912978,
                -1.3392564838838754,
                2.3581903503471136,
                -0.9962626837064243,
                1.0665547578064922,
                3.168903314469727
            ]
        },
        {
            "positions": [
                -0.34136111025344085,
                -1.3725513968526397,
                2.4226308592378842,
                -1.0322291740825011,
                1.2227161177375039,
                3.1819388281454697
            ]
        }
    ]
}