{
    "goal": {
        "global_pose": {
            "orientation": {
                "w": -0.00223480608172531,
                "x": 0.0024358444001904467,
                "y": 0.7094548369677653,
                "z": -0.704743149386269
            },
            "position": {
                "x": -0.37947507619857795,
                "y": -0.6371506643295288,
                "z": 0.19426114857196808
            }
        },
        "name": "move_to_magneteinheit_C"
    },
    "id": "BKPIECE_move_to_magneteinheit_C_36",
    "joint_names": [
        "shoulder_pan_joint",
        "shoulder_lift_joint",
        "elbow_joint",
        "wrist_1_joint",
        "wrist_2_joint",
        "wrist_3_joint"
    ],
    "metrics": {
        "cart_traj_len": 6.315975350361388,
        "distance_elbow_joint": 1.1677654155511776,
        "distance_shoulder_lift_joint": 3.406948158128798,
        "distance_shoulder_pan_joint": 8.823792468452053,
        "distance_wrist_1_joint": 2.086600178202805,
        "distance_wrist_2_joint": 2.797473140218898,
        "distance_wrist_3_joint": 1.7206204851428013,
        "smoothness": 1.2174234652495897,
        "time": 0.216901899,
        "traj_len": 4.472493694316017,
        "weighted_distance": 5.322453770057929
    },
    "planner": "BKPIECE",
    "start": {
        "state": {
            "elbow_joint": 1.9565354010623817,
            "shoulder_lift_joint": -1.4165861575791021,
            "shoulder_pan_joint": -1.6717766225146293,
            "wrist_1_joint": -0.5286633292919765,
            "wrist_2_joint": 1.472756589071564,
            "wrist_3_joint": -3.1238370188695823
        }
    },
    "waypoints": [
        {
            "positions": [
                -1.6717766225146293,
                -1.4165861575791021,
                1.9565354010623817,
                -0.5286633292919765,
                1.472756589071564,
                -3.1238370188695823
            ]
        },
        {
            "positions": [
                -1.4998896598997273,
                -1.488269554136275,
                1.95233785273275,
                -0.5816031842760774,
                1.4015133826974469,
                -3.13228559648577
            ]
        },
        {
            "positions": [
                -1.3280026972848253,
                -1.5599529506934475,
                1.9481403044031183,
                -0.6345430392601784,
                1.3302701763233298,
                -3.140734174101958
            ]
        },
        {
            "positions": [
                -1.1561157346699233,
                -1.6316363472506203,
                1.9439427560734868,
                -0.6874828942442793,
                1.2590269699492127,
                -3.149182751718146
            ]
        },
        {
            "positions": [
                -0.9842287720550212,
                -1.7033197438077932,
                1.939745207743855,
                -0.7404227492283804,
                1.1877837635750956,
                -3.157631329334334
            ]
        },
        {
            "positions": [
                -0.8123418094401192,
                -1.7750031403649658,
                1.9355476594142234,
                -0.7933626042124813,
                1.1165405572009783,
                -3.1660799069505217
            ]
        },
        {
            "positions": [
                -0.6404548468252174,
                -1.8466865369221386,
                1.9313501110845916,
                -0.8463024591965822,
                1.0452973508268615,
                -3.1745284845667094
            ]
        },
        {
            "positions": [
                -0.46856788421031514,
                -1.9183699334793114,
                1.92715256275496,
                -0.8992423141806832,
                0.9740541444527443,
                -3.182977062182897
            ]
        },
        {
            "positions": [
                -0.29668092159541315,
                -1.990053330036484,
                1.9229550144253282,
                -0.9521821691647843,
                0.9028109380786271,
                -3.191425639799085
            ]
        },
        {
            "positions": [
                -0.12479395898051115,
                -2.061736726593657,
                1.9187574660956968,
                -1.0051220241488852,
                0.83156773170451,
                -3.1998742174152732
            ]
        },
        {
            "positions": [
                0.04709300363439084,
                -2.1334201231508296,
                1.914559917766065,
                -1.058061879132986,
                0.760324525330393,
                -3.208322795031461
            ]
        },
        {
            "positions": [
                0.21897996624929283,
                -2.2051035197080022,
                1.9103623694364333,
                -1.111001734117087,
                0.6890813189562759,
                -3.216771372647649
            ]
        },
        {
            "positions": [
                0.3908669288641946,
                -2.2767869162651753,
                1.9061648211068016,
                -1.1639415891011882,
                0.6178381125821588,
                -3.2252199502638366
            ]
        },
        {
            "positions": [
                0.5627538914790968,
                -2.348470312822348,
                1.90196727277717,
                -1.216881444085289,
                0.5465949062080416,
                -3.2336685278800243
            ]
        },
        {
            "positions": [
                0.734640854093999,
                -2.4201537093795205,
                1.8977697244475384,
                -1.26982129906939,
                0.47535169983392467,
                -3.2421171054962126
            ]
        },
        {
            "positions": [
                0.9065278167089008,
                -2.4918371059366935,
                1.8935721761179067,
                -1.322761154053491,
                0.4041084934598076,
                -3.2505656831124004
            ]
        },
        {
            "positions": [
                1.078414779323803,
                -2.563520502493866,
                1.889374627788275,
                -1.3757010090375918,
                0.3328652870856903,
                -3.259014260728588
            ]
        },
        {
            "positions": [
                1.2503017419387048,
                -2.6352038990510387,
                1.8851770794586433,
                -1.428640864021693,
                0.26162208071157345,
                -3.267462838344776
            ]
        },
        {
            "positions": [
                1.422188704553607,
                -2.7068872956082117,
                1.8809795311290116,
                -1.4815807190057941,
                0.19037887433745615,
                -3.2759114159609637
            ]
        },
        {
            "positions": [
                1.5940756671685088,
                -2.7785706921653843,
                1.87678198279938,
                -1.5345205739898948,
                0.11913566796333908,
                -3.2843599935771515
            ]
        },
        {
            "positions": [
                1.765962629783411,
                -2.850254088722557,
                1.8725844344697484,
                -1.5874604289739958,
                0.047892461589222,
                -3.2928085711933397
            ]
        },
        {
            "positions": [
                1.9378495923983132,
                -2.92193748527973,
                1.8683868861401167,
                -1.640400283958097,
                -0.023350744784895072,
                -3.3012571488095275
            ]
        },
        {
            "positions": [
                2.1097365550132148,
                -2.9936208818369026,
                1.864189337810485,
                -1.6933401389421978,
                -0.09459395115901215,
                -3.3097057264257153
            ]
        },
        {
            "positions": [
                1.921464448969268,
                -2.928432040928288,
                1.88159129172819,
                -1.6607005582378505,
                -0.05311366766289918,
                -3.274057295148648
            ]
        },
        {
            "positions": [
                1.7331923429253213,
                -2.863243200019673,
                1.8989932456458951,
                -1.628060977533503,
                -0.01163338416678622,
                -3.2384088638715807
            ]
        },
        {
            "positions": [
                1.5449202368813746,
                -2.7980543591110583,
                1.9163951995636002,
                -1.5954213968291555,
                0.029846899329326743,
                -3.2027604325945136
            ]
        },
        {
            "positions": [
                1.3566481308374279,
                -2.7328655182024435,
                1.9337971534813052,
                -1.5627818161248082,
                0.0713271828254397,
                -3.167112001317446
            ]
        },
        {
            "positions": [
                1.1683760247934811,
                -2.6676766772938287,
                1.9511991073990103,
                -1.5301422354204608,
                0.11280746632155267,
                -3.131463570040379
            ]
        },
        {
            "positions": [
                0.9801039187495344,
                -2.602487836385214,
                1.9686010613167153,
                -1.4975026547161134,
                0.15428774981766563,
                -3.095815138763312
            ]
        },
        {
            "positions": [
                0.7918318127055877,
                -2.5372989954765988,
                1.9860030152344206,
                -1.4648630740117659,
                0.19576803331377862,
                -3.0601667074862444
            ]
        },
        {
            "positions": [
                0.6035597066616409,
                -2.472110154567984,
                2.0034049691521254,
                -1.4322234933074185,
                0.23724831680989156,
                -3.0245182762091773
            ]
        },
        {
            "positions": [
                0.4152876006176942,
                -2.4069213136593692,
                2.0208069230698307,
                -1.3995839126030711,
                0.27872860030600455,
                -2.98886984493211
            ]
        },
        {
            "positions": [
                0.22701549457374748,
                -2.3417324727507545,
                2.0382088769875355,
                -1.3669443318987238,
                0.3202088838021175,
                -2.9532214136550428
            ]
        },
        {
            "positions": [
                0.03874338852980097,
                -2.2765436318421397,
                2.0556108309052408,
                -1.3343047511943764,
                0.3616891672982304,
                -2.9175729823779752
            ]
        },
        {
            "positions": [
                -0.14952871751414598,
                -2.211354790933525,
                2.0730127848229456,
                -1.3016651704900288,
                0.4031694507943434,
                -2.881924551100908
            ]
        },
        {
            "positions": [
                -0.3378008235580925,
                -2.14616595002491,
                2.090414738740651,
                -1.2690255897856815,
                0.4446497342904563,
                -2.846276119823841
            ]
        },
        {
            "positions": [
                -0.5260729296020394,
                -2.0809771091162954,
                2.107816692658356,
                -1.2363860090813341,
                0.4861300177865694,
                -2.8106276885467736
            ]
        },
        {
            "positions": [
                -0.7143450356459864,
                -2.0157882682076806,
                2.125218646576061,
                -1.2037464283769865,
                0.5276103012826823,
                -2.7749792572697065
            ]
        },
        {
            "positions": [
                -0.9026171416899329,
                -1.9505994272990659,
                2.1426206004937662,
                -1.1711068476726392,
                0.5690905847787953,
                -2.7393308259926394
            ]
        },
        {
            "positions": [
                -1.0908892477338799,
                -1.8854105863904511,
                2.160022554411471,
                -1.1384672669682918,
                0.6105708682749083,
                -2.703682394715572
            ]
        },
        {
            "positions": [
                -1.2791613537778264,
                -1.8202217454818364,
                2.1774245083291763,
                -1.1058276862639445,
                0.6520511517710212,
                -2.6680339634385044
            ]
        },
        {
            "positions": [
                -1.4674334598217729,
                -1.7550329045732216,
                2.194826462246881,
                -1.073188105559597,
                0.6935314352671341,
                -2.6323855321614373
            ]
        },
        {
            "positions": [
                -1.6557055658657198,
                -1.6898440636646066,
                2.2122284161645864,
                -1.0405485248552497,
                0.7350117187632471,
                -2.5967371008843703
            ]
        },
        {
            "positions": [
                -1.8439776719096663,
                -1.6246552227559918,
                2.2296303700822913,
                -1.0079089441509022,
                0.7764920022593601,
                -2.5610886696073027
            ]
        },
        {
            "positions": [
                -2.032249777953613,
                -1.5594663818473773,
                2.2470323239999965,
                -0.9752693634465548,
                0.817972285755473,
                -2.5254402383302357
            ]
        },
        {
            "positions": [
                -2.2205218839975602,
                -1.4942775409387623,
                2.264434277917702,
                -0.9426297827422073,
                0.8594525692515861,
                -2.489791807053168
            ]
        },
        {
            "positions": [
                -2.4087939900415067,
                -1.4290887000301475,
                2.2818362318354066,
                -0.90999020203786,
                0.900932852747699,
                -2.454143375776101
            ]
        },
        {
            "positions": [
                -2.4999072753777867,
                -1.4127982413803724,
                2.164418986147745,
                -0.8867497349805454,
                0.8875375703013839,
                -2.567467512871713
            ]
        },
        {
            "positions": [
                -2.5910205607140666,
                -1.3965077827305972,
                2.0470017404600833,
                -0.863509267923231,
                0.874142287855069,
                -2.680791649967325
            ]
        },
        {
            "positions": [
                -2.6821338460503465,
                -1.380217324080822,
                1.9295844947724219,
                -0.8402688008659165,
                0.8607470054087539,
                -2.7941157870629367
            ]
        },
        {
            "positions": [
                -2.5679521168465236,
                -1.3235724044441475,
                2.0267775745759127,
                -0.8594331303609835,
                0.8116543044981526,
                -2.834726046799279
            ]
        },
        {
            "positions": [
                -2.4537703876427006,
                -1.2669274848074732,
                2.1239706543794035,
                -0.8785974598560504,
                0.7625616035875513,
                -2.8753363065356217
            ]
        },
        {
            "positions": [
                -2.4647931033692023,
                -1.2153174663866886,
                2.068403373577207,
                -0.8633357741129661,
                0.7144493301268195,
                -3.0043345546243883
            ]
        },
        {
            "positions": [
                -2.4758158190957045,
                -1.1637074479659042,
                2.0128360927750104,
                -0.848074088369882,
                0.6663370566660878,
                -3.1333328027131553
            ]
        }
    ]
}