{
    "goal": {
        "global_pose": {
            "orientation": {
                "w": 0.7047431493862688,
                "x": -0.7094548369677653,
                "y": 0.0024358444001904,
                "z": -0.0022348060817251984
            },
            "position": {
                "x": -0.39052492380142206,
                "y": 0.3671506643295288,
                "z": 0.19426114857196808
            }
        },
        "name": "move_to_magneteinheit_D"
    },
    "id": "BKPIECE_move_to_magneteinheit_D_120",
    "joint_names": [
        "shoulder_pan_joint",
        "shoulder_lift_joint",
        "elbow_joint",
        "wrist_1_joint",
        "wrist_2_joint",
        "wrist_3_joint"
    ],
    "metrics": {
        "cart_traj_len": 7.615638272793972,
        "distance_elbow_joint": 9.340669262111543,
        "distance_shoulder_lift_joint": 2.363333104752695,
        "distance_shoulder_pan_joint": 8.410455570236026,
        "distance_wrist_1_joint": 4.172596433109842,
        "distance_wrist_2_joint": 1.5780655070819996,
        "distance_wrist_3_joint": 3.9241283119072787,
        "smoothness": 0.5869609004441556,
        "time": 0.6211724000000001,
        "traj_len": 5.457952747065458,
        "weighted_distance": 6.586969466545733
    },
    "planner": "BKPIECE",
    "start": {
        "state": {
            "elbow_joint": 0.749534889911806,
            "shoulder_lift_joint": -0.6476975780787326,
            "shoulder_pan_joint": -2.711696901376241,
            "wrist_1_joint": -0.07506478083263063,
            "wrist_2_joint": 0.43296659715538205,
            "wrist_3_joint": -3.14703540197715
        }
    },
    "waypoints": [
        {
            "positions": [
                -2.711696901376241,
                -0.6476975780787326,
                0.749534889911806,
                -0.07506478083263063,
                0.43296659715538205,
                -3.14703540197715
            ]
        },
        {
            "positions": [
                -2.716653063659264,
                -0.6594692853018734,
                0.6465979569932121,
                -0.1552802732001507,
                0.3658181831074479,
                -3.070995316500023
            ]
        },
        {
            "positions": [
                -2.721609225942287,
                -0.6712409925250142,
                0.5436610240746181,
                -0.23549576556767074,
                0.2986697690595137,
                -2.994955231022896
            ]
        },
        {
            "positions": [
                -2.7265653882253105,
                -0.683012699748155,
                0.44072409115602423,
                -0.3157112579351908,
                0.23152135501157955,
                -2.918915145545769
            ]
        },
        {
            "positions": [
                -2.7315215505083335,
                -0.6947844069712958,
                0.33778715823743033,
                -0.39592675030271085,
                0.1643729409636454,
                -2.842875060068642
            ]
        },
        {
            "positions": [
                -2.6231104738857915,
                -0.7454938519358034,
                0.27731781740136785,
                -0.3367643302545257,
                0.15096127534217724,
                -2.743331564486913
            ]
        },
        {
            "positions": [
                -2.514699397263249,
                -0.796203296900311,
                0.21684847656530543,
                -0.2776019102063405,
                0.13754960972070907,
                -2.6437880689051845
            ]
        },
        {
            "positions": [
                -2.4062883206407073,
                -0.8469127418648185,
                0.156379135729243,
                -0.21843949015815534,
                0.1241379440992409,
                -2.5442445733234558
            ]
        },
        {
            "positions": [
                -2.2978772440181654,
                -0.897622186829326,
                0.09590979489318052,
                -0.15927707010997016,
                0.11072627847777271,
                -2.444701077741727
            ]
        },
        {
            "positions": [
                -2.189466167395623,
                -0.9483316317938335,
                0.0354404540571181,
                -0.100114650061785,
                0.09731461285630454,
                -2.3451575821599984
            ]
        },
        {
            "positions": [
                -2.081055090773081,
                -0.9990410767583411,
                -0.025028886778944326,
                -0.04095223001359982,
                0.08390294723483636,
                -2.2456140865782697
            ]
        },
        {
            "positions": [
                -1.9726440141505392,
                -1.0497505217228487,
                -0.0854982276150068,
                0.01821019003458535,
                0.07049128161336819,
                -2.1460705909965405
            ]
        },
        {
            "positions": [
                -1.8642329375279971,
                -1.1004599666873562,
                -0.14596756845106929,
                0.07737261008277052,
                0.05707961599190001,
                -2.046527095414812
            ]
        },
        {
            "positions": [
                -1.755821860905455,
                -1.1511694116518638,
                -0.20643690928713176,
                0.1365350301309557,
                0.043667950370431835,
                -1.9469835998330831
            ]
        },
        {
            "positions": [
                -1.647410784282913,
                -1.2018788566163714,
                -0.26690625012319413,
                0.19569745017914086,
                0.030256284748963663,
                -1.8474401042513544
            ]
        },
        {
            "positions": [
                -1.538999707660371,
                -1.2525883015808787,
                -0.3273755909592566,
                0.25485987022732604,
                0.01684461912749549,
                -1.7478966086696257
            ]
        },
        {
            "positions": [
                -1.430588631037829,
                -1.3032977465453863,
                -0.387844931795319,
                0.3140222902755112,
                0.0034329535060273197,
                -1.648353113087897
            ]
        },
        {
            "positions": [
                -1.3221775544152867,
                -1.354007191509894,
                -0.44831427263138157,
                0.3731847103236964,
                -0.00997871211544088,
                -1.548809617506168
            ]
        },
        {
            "positions": [
                -1.2137664777927448,
                -1.4047166364744015,
                -0.5087836134674439,
                0.43234713037188155,
                -0.023390377736909024,
                -1.4492661219244396
            ]
        },
        {
            "positions": [
                -1.105355401170203,
                -1.455426081438909,
                -0.5692529543035063,
                0.4915095504200666,
                -0.036802043358377196,
                -1.349722626342711
            ]
        },
        {
            "positions": [
                -0.9969443245476608,
                -1.5061355264034166,
                -0.6297222951395689,
                0.5506719704682519,
                -0.050213708979845395,
                -1.250179130760982
            ]
        },
        {
            "positions": [
                -0.8885332479251187,
                -1.5568449713679242,
                -0.6901916359756313,
                0.609834390516437,
                -0.06362537460131354,
                -1.1506356351792533
            ]
        },
        {
            "positions": [
                -0.7801221713025766,
                -1.6075544163324318,
                -0.7506609768116939,
                0.6689968105646222,
                -0.07703704022278174,
                -1.0510921395975243
            ]
        },
        {
            "positions": [
                -0.6717110946800346,
                -1.6582638612969394,
                -0.8111303176477562,
                0.7281592306128075,
                -0.09044870584424991,
                -0.9515486440157956
            ]
        },
        {
            "positions": [
                -0.5633000180574927,
                -1.7089733062614467,
                -0.8715996584838186,
                0.7873216506609926,
                -0.10386037146571808,
                -0.8520051484340672
            ]
        },
        {
            "positions": [
                -0.4548889414349504,
                -1.7596827512259543,
                -0.9320689993198812,
                0.8464840707091779,
                -0.11727203708718625,
                -0.7524616528523382
            ]
        },
        {
            "positions": [
                -0.3464778648124085,
                -1.8103921961904619,
                -0.9925383401559436,
                0.9056464907573629,
                -0.13068370270865443,
                -0.6529181572706098
            ]
        },
        {
            "positions": [
                -0.21799860250809644,
                -1.7950884569339132,
                -0.8633097343503112,
                0.9706832544909582,
                -0.10302336025417366,
                -0.6683185737687674
            ]
        },
        {
            "positions": [
                -0.08951934020378438,
                -1.7797847176773645,
                -0.7340811285446789,
                1.0357200182245534,
                -0.0753630177996929,
                -0.683718990266925
            ]
        },
        {
            "positions": [
                0.03895992210052768,
                -1.7644809784208157,
                -0.6048525227390467,
                1.1007567819581487,
                -0.04770267534521214,
                -0.6991194067650824
            ]
        },
        {
            "positions": [
                0.16743918440483974,
                -1.749177239164267,
                -0.4756239169334143,
                1.165793545691744,
                -0.020042332890731374,
                -0.71451982326324
            ]
        },
        {
            "positions": [
                0.2959184467091518,
                -1.7338734999077186,
                -0.346395311127782,
                1.2308303094253392,
                0.007618009563749389,
                -0.7299202397613976
            ]
        },
        {
            "positions": [
                0.42439770901346385,
                -1.7185697606511698,
                -0.21716670532214966,
                1.2958670731589346,
                0.03527835201823015,
                -0.7453206562595551
            ]
        },
        {
            "positions": [
                0.552876971317776,
                -1.7032660213946211,
                -0.08793809951651732,
                1.36090383689253,
                0.06293869447271092,
                -0.7607210727577127
            ]
        },
        {
            "positions": [
                0.681356233622088,
                -1.6879622821380724,
                0.0412905062891149,
                1.425940600626125,
                0.09059903692719168,
                -0.7761214892558703
            ]
        },
        {
            "positions": [
                0.8098354959264,
                -1.6726585428815237,
                0.17051911209474735,
                1.4909773643597206,
                0.11825937938167244,
                -0.7915219057540279
            ]
        },
        {
            "positions": [
                0.9383147582307121,
                -1.657354803624975,
                0.2997477179003796,
                1.5560141280933157,
                0.1459197218361532,
                -0.8069223222521855
            ]
        },
        {
            "positions": [
                1.0667940205350241,
                -1.6420510643684263,
                0.4289763237060118,
                1.6210508918269109,
                0.17358006429063394,
                -0.822322738750343
            ]
        },
        {
            "positions": [
                1.1952732828393362,
                -1.6267473251118778,
                0.5582049295116442,
                1.6860876555605064,
                0.20124040674511473,
                -0.8377231552485006
            ]
        },
        {
            "positions": [
                1.323752545143648,
                -1.611443585855329,
                0.6874335353172765,
                1.7511244192941016,
                0.22890074919959547,
                -0.8531235717466582
            ]
        },
        {
            "positions": [
                1.4522318074479605,
                -1.5961398465987804,
                0.8166621411229089,
                1.816161183027697,
                0.25656109165407626,
                -0.8685239882448157
            ]
        },
        {
            "positions": [
                1.5807110697522724,
                -1.5808361073422317,
                0.9458907469285411,
                1.8811979467612923,
                0.284221434108557,
                -0.8839244047429733
            ]
        },
        {
            "positions": [
                1.7091903320565844,
                -1.565532368085683,
                1.0751193527341734,
                1.9462347104948874,
                0.3118817765630378,
                -0.8993248212411309
            ]
        },
        {
            "positions": [
                1.8376695943608965,
                -1.5502286288291343,
                1.204347958539806,
                2.011271474228483,
                0.3395421190175186,
                -0.9147252377392885
            ]
        },
        {
            "positions": [
                1.9661488566652086,
                -1.5349248895725855,
                1.3335765643454383,
                2.076308237962078,
                0.3672024614719993,
                -0.9301256542374461
            ]
        },
        {
            "positions": [
                2.0946281189695206,
                -1.5196211503160368,
                1.4628051701510705,
                2.141345001695673,
                0.39486280392648004,
                -0.9455260707356036
            ]
        },
        {
            "positions": [
                2.2231073812738327,
                -1.5043174110594881,
                1.5920337759567027,
                2.206381765429269,
                0.42252314638096083,
                -0.9609264872337612
            ]
        },
        {
            "positions": [
                2.3515866435781447,
                -1.4890136718029394,
                1.721262381762335,
                2.271418529162864,
                0.4501834888354416,
                -0.9763269037319188
            ]
        },
        {
            "positions": [
                2.480065905882457,
                -1.473709932546391,
                1.8504909875679671,
                2.336455292896459,
                0.4778438312899223,
                -0.9917273202300763
            ]
        },
        {
            "positions": [
                2.608545168186769,
                -1.4584061932898422,
                1.9797195933735998,
                2.4014920566300546,
                0.505504173744403,
                -1.0071277367282339
            ]
        },
        {
            "positions": [
                2.737024430491081,
                -1.4431024540332935,
                2.108948199179232,
                2.4665288203636497,
                0.5331645161988838,
                -1.0225281532263915
            ]
        },
        {
            "positions": [
                2.628799062339062,
                -1.4739672223475082,
                1.942388588338172,
                2.4298888613646348,
                0.5201805536688681,
                -0.9832540394765781
            ]
        },
        {
            "positions": [
                2.5205736941870427,
                -1.504831990661723,
                1.7758289774971119,
                2.39324890236562,
                0.5071965911388524,
                -0.9439799257267647
            ]
        },
        {
            "positions": [
                2.412348326035023,
                -1.5356967589759376,
                1.609269366656052,
                2.3566089433666053,
                0.49421262860883663,
                -0.9047058119769513
            ]
        },
        {
            "positions": [
                2.304122957883004,
                -1.5665615272901523,
                1.442709755814992,
                2.3199689843675904,
                0.48122866607882087,
                -0.865431698227138
            ]
        },
        {
            "positions": [
                2.195897589730985,
                -1.597426295604367,
                1.2761501449739319,
                2.2833290253685754,
                0.46824470354880515,
                -0.8261575844773245
            ]
        },
        {
            "positions": [
                2.087672221578966,
                -1.6282910639185817,
                1.109590534132872,
                2.2466890663695605,
                0.45526074101878944,
                -0.7868834707275111
            ]
        },
        {
            "positions": [
                1.9794468534269465,
                -1.6591558322327964,
                0.9430309232918119,
                2.2100491073705455,
                0.44227677848877367,
                -0.7476093569776977
            ]
        },
        {
            "positions": [
                1.8712214852749272,
                -1.690020600547011,
                0.7764713124507518,
                2.1734091483715305,
                0.42929281595875796,
                -0.7083352432278843
            ]
        },
        {
            "positions": [
                1.762996117122908,
                -1.7208853688612258,
                0.609911701609692,
                2.136769189372516,
                0.41630885342874224,
                -0.669061129478071
            ]
        },
        {
            "positions": [
                1.654770748970889,
                -1.7517501371754405,
                0.4433520907686319,
                2.100129230373501,
                0.4033248908987265,
                -0.6297870157282575
            ]
        },
        {
            "positions": [
                1.5465453808188696,
                -1.7826149054896552,
                0.27679247992757183,
                2.063489271374486,
                0.3903409283687107,
                -0.5905129019784441
            ]
        },
        {
            "positions": [
                1.4383200126668505,
                -1.8134796738038699,
                0.11023286908651198,
                2.026849312375471,
                0.37735696583869505,
                -0.5512387882286307
            ]
        },
        {
            "positions": [
                1.3300946445148314,
                -1.8443444421180848,
                -0.056326741754548326,
                1.9902093533764564,
                0.3643730033086793,
                -0.5119646744788173
            ]
        },
        {
            "positions": [
                1.221869276362812,
                -1.8752092104322995,
                -0.22288635259560818,
                1.9535693943774417,
                0.3513890407786635,
                -0.47269056072900395
            ]
        },
        {
            "positions": [
                1.1136439082107927,
                -1.9060739787465142,
                -0.3894459634366685,
                1.9169294353784267,
                0.33840507824864774,
                -0.4334164469791906
            ]
        },
        {
            "positions": [
                1.0054185400587736,
                -1.9369387470607289,
                -0.5560055742777283,
                1.8802894763794118,
                0.3254211157186321,
                -0.3941423332293772
            ]
        },
        {
            "positions": [
                0.8971931719067543,
                -1.9678035153749436,
                -0.7225651851187886,
                1.8436495173803968,
                0.3124371531886163,
                -0.3548682194795637
            ]
        },
        {
            "positions": [
                0.7889678037547352,
                -1.9986682836891583,
                -0.8891247959598481,
                1.807009558381382,
                0.2994531906586006,
                -0.31559410572975044
            ]
        },
        {
            "positions": [
                0.6807424356027161,
                -2.029533052003373,
                -1.0556844068009084,
                1.7703695993823672,
                0.28646922812858483,
                -0.27631999197993695
            ]
        },
        {
            "positions": [
                0.572517067450697,
                -2.0603978203175877,
                -1.2222440176419682,
                1.7337296403833524,
                0.2734852655985691,
                -0.23704587823012357
            ]
        },
        {
            "positions": [
                0.4642916992986774,
                -2.0912625886318024,
                -1.3888036284830285,
                1.6970896813843375,
                0.26050130306855335,
                -0.1977717644803102
            ]
        },
        {
            "positions": [
                0.3560663311466583,
                -2.122127356946017,
                -1.5553632393240884,
                1.6604497223853225,
                0.24751734053853763,
                -0.15849765073049682
            ]
        },
        {
            "positions": [
                0.2478409629946392,
                -2.1529921252602318,
                -1.7219228501651487,
                1.6238097633863076,
                0.23453337800852192,
                -0.11922353698068344
            ]
        },
        {
            "positions": [
                0.1396155948426201,
                -2.1838568935744465,
                -1.888482461006208,
                1.5871698043872928,
                0.2215494154785062,
                -0.07994942323087006
            ]
        },
        {
            "positions": [
                0.03139022669060054,
                -2.214721661888661,
                -2.055042071847269,
                1.5505298453882779,
                0.20856545294849044,
                -0.040675309481056576
            ]
        },
        {
            "positions": [
                -0.07683514146141812,
                -2.245586430202876,
                -2.2216016826883287,
                1.5138898863892631,
                0.19558149041847472,
                -0.0014011957312431988
            ]
        },
        {
            "positions": [
                -0.18506050961343745,
                -2.2764511985170905,
                -2.388161293529388,
                1.4772499273902482,
                0.18259752788845895,
                0.03787291801857007
            ]
        }
    ]
}