{
    "goal": {
        "global_pose": {
            "orientation": {
                "w": 0.5084816262002911,
                "x": -0.4908360881923452,
                "y": 0.5182115481033761,
                "z": -0.48164630358495003
            },
            "position": {
                "x": 0.5540239810943604,
                "y": -0.46912469901144505,
                "z": 0.16403168439865112
            }
        },
        "name": "move_to_storage_B"
    },
    "id": "BKPIECE_move_to_storage_B_67",
    "joint_names": [
        "shoulder_pan_joint",
        "shoulder_lift_joint",
        "elbow_joint",
        "wrist_1_joint",
        "wrist_2_joint",
        "wrist_3_joint"
    ],
    "metrics": {
        "cart_traj_len": 0.7525560233418943,
        "distance_elbow_joint": 0.44132495174803443,
        "distance_shoulder_lift_joint": 0.45772165091863104,
        "distance_shoulder_pan_joint": 0.4727551871150236,
        "distance_wrist_1_joint": 2.983120600031001,
        "distance_wrist_2_joint": 2.7048586139438937,
        "distance_wrist_3_joint": 3.1369515916052215,
        "smoothness": 0.11402947189734051,
        "time": 0.21354173799999998,
        "traj_len": 3.1932323115241408,
        "weighted_distance": 4.707293807756972
    },
    "planner": "BKPIECE",
    "start": {
        "state": {
            "elbow_joint": 1.664937868594044,
            "shoulder_lift_joint": -0.661644460510453,
            "shoulder_pan_joint": -0.9139846352900073,
            "wrist_1_joint": 2.146753192139373,
            "wrist_2_joint": -2.2341966793290973,
            "wrist_3_joint": 0.005466555786416001
        }
    },
    "waypoints": [
        {
            "positions": [
                -0.9139846352900073,
                -0.661644460510453,
                1.664937868594044,
                2.146753192139373,
                -2.2341966793290973,
                0.005466555786416001
            ]
        },
        {
            "positions": [
                -0.8413882022804262,
                -0.7035839631388989,
                1.6417980784828599,
                2.144512079444298,
                -2.153733007606921,
                -0.012435093482178462
            ]
        },
        {
            "positions": [
                -0.7687917692708452,
                -0.7455234657673449,
                1.6186582883716758,
                2.1422709667492223,
                -2.0732693358847447,
                -0.03033674275077292
            ]
        },
        {
            "positions": [
                -0.7818942621146797,
                -0.7604771715938144,
                1.6344601032327024,
                2.0231254317635883,
                -1.9715120850647632,
                -0.15438267447349424
            ]
        },
        {
            "positions": [
                -0.7949967549585142,
                -0.7754308774202839,
                1.650261918093729,
                1.9039798967779544,
                -1.8697548342447814,
                -0.27842860619621557
            ]
        },
        {
            "positions": [
                -0.8080992478023487,
                -0.7903845832467535,
                1.6660637329547558,
                1.7848343617923204,
                -1.7679975834247998,
                -0.40247453791893684
            ]
        },
        {
            "positions": [
                -0.8212017406461831,
                -0.8053382890732231,
                1.6818655478157825,
                1.6656888268066863,
                -1.666240332604818,
                -0.5265204696416582
            ]
        },
        {
            "positions": [
                -0.8343042334900176,
                -0.8202919948996927,
                1.697667362676809,
                1.5465432918210524,
                -1.5644830817848363,
                -0.6505664013643795
            ]
        },
        {
            "positions": [
                -0.8474067263338521,
                -0.8352457007261622,
                1.7134691775378357,
                1.4273977568354184,
                -1.462725830964855,
                -0.7746123330871008
            ]
        },
        {
            "positions": [
                -0.8605092191776865,
                -0.8501994065526318,
                1.7292709923988623,
                1.3082522218497843,
                -1.3609685801448732,
                -0.8986582648098221
            ]
        },
        {
            "positions": [
                -0.873611712021521,
                -0.8651531123791014,
                1.7450728072598891,
                1.1891066868641502,
                -1.2592113293248914,
                -1.0227041965325434
            ]
        },
        {
            "positions": [
                -0.8867142048653555,
                -0.8801068182055709,
                1.7608746221209157,
                1.0699611518785164,
                -1.1574540785049099,
                -1.1467501282552648
            ]
        },
        {
            "positions": [
                -0.8998166977091899,
                -0.8950605240320405,
                1.7766764369819423,
                0.9508156168928823,
                -1.0556968276849281,
                -1.2707960599779862
            ]
        },
        {
            "positions": [
                -0.9129191905530243,
                -0.9100142298585101,
                1.792478251842969,
                0.8316700819072482,
                -0.9539395768649466,
                -1.3948419917007076
            ]
        },
        {
            "positions": [
                -0.9260216833968589,
                -0.9249679356849796,
                1.8082800667039955,
                0.7125245469216144,
                -0.852182326044965,
                -1.5188879234234287
            ]
        },
        {
            "positions": [
                -0.9391241762406932,
                -0.9399216415114493,
                1.8240818815650224,
                0.5933790119359803,
                -0.7504250752249833,
                -1.64293385514615
            ]
        },
        {
            "positions": [
                -0.9522266690845278,
                -0.9548753473379188,
                1.839883696426049,
                0.47423347695034623,
                -0.6486678244050015,
                -1.7669797868688715
            ]
        },
        {
            "positions": [
                -0.9653291619283622,
                -0.9698290531643884,
                1.8556855112870756,
                0.3550879419647124,
                -0.5469105735850202,
                -1.8910257185915926
            ]
        },
        {
            "positions": [
                -0.9784316547721967,
                -0.984782758990858,
                1.8714873261481022,
                0.2359424069790783,
                -0.4451533227650384,
                -2.015071650314314
            ]
        },
        {
            "positions": [
                -0.9915341476160311,
                -0.9997364648173275,
                1.8872891410091288,
                0.11679687199344402,
                -0.3433960719450566,
                -2.1391175820370356
            ]
        },
        {
            "positions": [
                -1.0046366404598657,
                -1.0146901706437972,
                1.9030909558701556,
                -0.0023486629921896096,
                -0.24163882112507507,
                -2.2631635137597566
            ]
        },
        {
            "positions": [
                -1.0177391333037,
                -1.0296438764702667,
                1.9188927707311823,
                -0.12149419797782368,
                -0.13988157030509352,
                -2.387209445482478
            ]
        },
        {
            "positions": [
                -1.0308416261475346,
                -1.0445975822967362,
                1.9346945855922089,
                -0.24063973296345775,
                -0.038124319485111524,
                -2.5112553772051993
            ]
        },
        {
            "positions": [
                -1.043944118991369,
                -1.0595512881232056,
                1.9504964004532355,
                -0.3597852679490914,
                0.0636329313348698,
                -2.6353013089279202
            ]
        },
        {
            "positions": [
                -1.0570466118352035,
                -1.0745049939496754,
                1.966298215314262,
                -0.4789308029347259,
                0.16539018215485157,
                -2.759347240650642
            ]
        },
        {
            "positions": [
                -1.070149104679038,
                -1.0894586997761448,
                1.982100030175289,
                -0.59807633792036,
                0.26714743297483334,
                -2.8833931723733635
            ]
        },
        {
            "positions": [
                -1.0832515975228723,
                -1.1044124056026146,
                1.9979018450363155,
                -0.7172218729059936,
                0.36890468379481467,
                -3.0074391040960844
            ]
        },
        {
            "positions": [
                -1.0963540903667068,
                -1.119366111429084,
                2.013703659897342,
                -0.8363674078916276,
                0.4706619346147965,
                -3.1314850358188058
            ]
        }
    ]
}