{
    "goal": {
        "global_pose": {
            "orientation": {
                "w": -0.00223480608172531,
                "x": 0.0024358444001904467,
                "y": 0.7094548369677653,
                "z": -0.704743149386269
            },
            "position": {
                "x": 0.6205249238014221,
                "y": -0.6371506643295288,
                "z": 0.19426114857196808
            }
        },
        "name": "move_to_magneteinheit_B"
    },
    "id": "BKPIECE_move_to_magneteinheit_B_142",
    "joint_names": [
        "shoulder_pan_joint",
        "shoulder_lift_joint",
        "elbow_joint",
        "wrist_1_joint",
        "wrist_2_joint",
        "wrist_3_joint"
    ],
    "metrics": {
        "cart_traj_len": 1.6757729753179287,
        "distance_elbow_joint": 0.9576148954134107,
        "distance_shoulder_lift_joint": 1.1057859207149805,
        "distance_shoulder_pan_joint": 1.6214736888593304,
        "distance_wrist_1_joint": 1.1199102223380453,
        "distance_wrist_2_joint": 2.224113353156101,
        "distance_wrist_3_joint": 0.8325424645281987,
        "smoothness": 0.6202719622633052,
        "time": 0.46373551700000004,
        "traj_len": 2.8038260546991975,
        "weighted_distance": 3.5875547451656553
    },
    "planner": "BKPIECE",
    "start": {
        "state": {
            "elbow_joint": 2.6216224122426386,
            "shoulder_lift_joint": -1.4174107377796124,
            "shoulder_pan_joint": 0.7066234856936794,
            "wrist_1_joint": 1.9546482284002225,
            "wrist_2_joint": -0.7096286983471962,
            "wrist_3_joint": 0.005740856962016249
        }
    },
    "waypoints": [
        {
            "positions": [
                0.7066234856936794,
                -1.4174107377796124,
                2.6216224122426386,
                1.9546482284002225,
                -0.7096286983471962,
                0.005740856962016249
            ]
        },
        {
            "positions": [
                0.6261603379370526,
                -1.451913469951727,
                2.6140773894676492,
                1.9620244202073716,
                -0.679982449572349,
                -0.06040048307897314
            ]
        },
        {
            "positions": [
                0.545697190180426,
                -1.4864162021238418,
                2.60653236669266,
                1.9694006120145207,
                -0.6503362007975019,
                -0.1265418231199625
            ]
        },
        {
            "positions": [
                0.4713981169908968,
                -1.515558465525165,
                2.5538535209311455,
                1.9326146123757586,
                -0.6073650954488412,
                -0.18961542544659882
            ]
        },
        {
            "positions": [
                0.4225150462991162,
                -1.5308737623790092,
                2.4549498627340536,
                1.8471703850759957,
                -0.5572194488091393,
                -0.23386193938497302
            ]
        },
        {
            "positions": [
                0.3736319756073355,
                -1.5461890592328533,
                2.3560462045369617,
                1.7617261577762329,
                -0.5070738021694373,
                -0.2781084533233472
            ]
        },
        {
            "positions": [
                0.32474890491555486,
                -1.5615043560866977,
                2.2571425463398693,
                1.6762819304764702,
                -0.45692815552973537,
                -0.3223549672617214
            ]
        },
        {
            "positions": [
                0.27586583422377425,
                -1.5768196529405418,
                2.1582388881427774,
                1.5908377031767074,
                -0.4067825088900334,
                -0.3666014812000956
            ]
        },
        {
            "positions": [
                0.22698276353199362,
                -1.592134949794386,
                2.0593352299456855,
                1.5053934758769445,
                -0.3566368622503315,
                -0.4108479951384698
            ]
        },
        {
            "positions": [
                0.1454232659107333,
                -1.5256305420300855,
                2.031097536151653,
                1.5511899546330996,
                -0.49028839918313405,
                -0.38113702282220463
            ]
        },
        {
            "positions": [
                0.06386376828947299,
                -1.459126134265785,
                2.00285984235762,
                1.5969864333892547,
                -0.6239399361159366,
                -0.35142605050593945
            ]
        },
        {
            "positions": [
                -0.01769572933178734,
                -1.3926217265014844,
                1.9746221485635875,
                1.6427829121454096,
                -0.7575914730487392,
                -0.32171507818967426
            ]
        },
        {
            "positions": [
                -0.09925522695304764,
                -1.326117318737184,
                1.9463844547695548,
                1.6885793909015647,
                -0.8912430099815416,
                -0.292004105873409
            ]
        },
        {
            "positions": [
                -0.180814724574308,
                -1.2596129109728835,
                1.918146760975522,
                1.7343758696577198,
                -1.0248945469143442,
                -0.26229313355714384
            ]
        },
        {
            "positions": [
                -0.2623742221955683,
                -1.1931085032085829,
                1.8899090671814893,
                1.780172348413875,
                -1.1585460838471469,
                -0.23258216124087866
            ]
        },
        {
            "positions": [
                -0.34393371981682863,
                -1.1266040954442824,
                1.8616713733874568,
                1.8259688271700298,
                -1.2921976207799495,
                -0.20287118892461345
            ]
        },
        {
            "positions": [
                -0.4254932174380889,
                -1.060099687679982,
                1.833433679593424,
                1.871765305926185,
                -1.425849157712752,
                -0.17316021660834827
            ]
        },
        {
            "positions": [
                -0.5070527150593493,
                -0.9935952799156814,
                1.8051959857993913,
                1.91756178468234,
                -1.5595006946455547,
                -0.14344924429208306
            ]
        },
        {
            "positions": [
                -0.5886122126806096,
                -0.927090872151381,
                1.7769582920053586,
                1.9633582634384952,
                -1.6931522315783571,
                -0.11373827197581787
            ]
        },
        {
            "positions": [
                -0.67017171030187,
                -0.8605864643870805,
                1.7487205982113259,
                2.0091547421946503,
                -1.8268037685111598,
                -0.08402729965955269
            ]
        },
        {
            "positions": [
                -0.7517312079231302,
                -0.79408205662278,
                1.7204829044172933,
                2.054951220950805,
                -1.9604553054439622,
                -0.05431632734328751
            ]
        },
        {
            "positions": [
                -0.8332907055443906,
                -0.7275776488584794,
                1.6922452106232606,
                2.1007476997069605,
                -2.094106842376765,
                -0.02460535502702227
            ]
        },
        {
            "positions": [
                -0.9148502031656509,
                -0.661073241094179,
                1.6640075168292279,
                2.1465441784631154,
                -2.2277583793095674,
                0.005105617289242891
            ]
        }
    ]
}