{
    "goal": {
        "global_pose": {
            "orientation": {
                "w": 0.005598929693374612,
                "x": 0.007748599140229565,
                "y": 0.7110244013736278,
                "z": -0.7031023480610252
            },
            "position": {
                "x": -0.8858502320852131,
                "y": -0.7141253447532654,
                "z": 0.3711530566215515
            }
        },
        "name": "move_to_auspresseinheit_C"
    },
    "id": "BKPIECE_move_to_auspresseinheit_C_104",
    "joint_names": [
        "shoulder_pan_joint",
        "shoulder_lift_joint",
        "elbow_joint",
        "wrist_1_joint",
        "wrist_2_joint",
        "wrist_3_joint"
    ],
    "metrics": {
        "cart_traj_len": 0.4930712541496365,
        "distance_elbow_joint": 0.9975162334710882,
        "distance_shoulder_lift_joint": 0.32386837643717636,
        "distance_shoulder_pan_joint": 0.25583945680447373,
        "distance_wrist_1_joint": 0.6658178390739148,
        "distance_wrist_2_joint": 1.3218382022910826,
        "distance_wrist_3_joint": 0.042724863015631165,
        "smoothness": 3.2297397080004555e-16,
        "time": 0.315099006,
        "traj_len": 1.8993696246632374,
        "weighted_distance": 2.383424162521146
    },
    "planner": "BKPIECE",
    "start": {
        "state": {
            "elbow_joint": 1.7527959577737207,
            "shoulder_lift_joint": -0.9740617694225068,
            "shoulder_pan_joint": -2.967991417825858,
            "wrist_1_joint": -0.759517768980727,
            "wrist_2_joint": 1.7443932448377408,
            "wrist_3_joint": -3.0840537646736568
        }
    },
    "waypoints": [
        {
            "positions": [
                -2.967991417825858,
                -0.9740617694225068,
                1.7527959577737207,
                -0.759517768980727,
                1.7443932448377408,
                -3.0840537646736568
            ]
        },
        {
            "positions": [
                -2.9424074721454105,
                -0.9416749317787891,
                1.653044334426612,
                -0.6929359850733355,
                1.6122094246086325,
                -3.08832625097522
            ]
        },
        {
            "positions": [
                -2.916823526464963,
                -0.9092880941350715,
                1.553292711079503,
                -0.626354201165944,
                1.4800256043795244,
                -3.092598737276783
            ]
        },
        {
            "positions": [
                -2.8912395807845157,
                -0.8769012564913539,
                1.4535410877323942,
                -0.5597724172585525,
                1.347841784150416,
                -3.096871223578346
            ]
        },
        {
            "positions": [
                -2.8656556351040683,
                -0.8445144188476362,
                1.3537894643852852,
                -0.49319063335116103,
                1.2156579639213079,
                -3.101143709879909
            ]
        },
        {
            "positions": [
                -2.8400716894236213,
                -0.8121275812039186,
                1.2540378410381765,
                -0.4266088494437696,
                1.0834741436921995,
                -3.1054161961814724
            ]
        },
        {
            "positions": [
                -2.814487743743174,
                -0.779740743560201,
                1.1542862176910678,
                -0.36002706553637814,
                0.9512903234630913,
                -3.1096886824830356
            ]
        },
        {
            "positions": [
                -2.7889037980627265,
                -0.7473539059164833,
                1.0545345943439588,
                -0.29344528162898664,
                0.819106503233983,
                -3.1139611687845985
            ]
        },
        {
            "positions": [
                -2.763319852382279,
                -0.7149670682727657,
                0.9547829709968501,
                -0.2268634977215951,
                0.6869226830048747,
                -3.118233655086162
            ]
        },
        {
            "positions": [
                -2.7377359067018316,
                -0.682580230629048,
                0.8550313476497413,
                -0.16028171381420364,
                0.5547388627757663,
                -3.1225061413877246
            ]
        },
        {
            "positions": [
                -2.7121519610213842,
                -0.6501933929853304,
                0.7552797243026325,
                -0.09369992990681215,
                0.4225550425466582,
                -3.126778627689288
            ]
        }
    ]
}