{
    "goal": {
        "global_pose": {
            "orientation": {
                "w": -0.4816463035849501,
                "x": 0.5182115481033762,
                "y": 0.4908360881923453,
                "z": -0.5084816262002911
            },
            "position": {
                "x": -0.8240239810943604,
                "y": -0.300875300988555,
                "z": 0.16403168439865112
            }
        },
        "name": "move_to_storage_C"
    },
    "id": "BKPIECE_move_to_storage_C_131",
    "joint_names": [
        "shoulder_pan_joint",
        "shoulder_lift_joint",
        "elbow_joint",
        "wrist_1_joint",
        "wrist_2_joint",
        "wrist_3_joint"
    ],
    "metrics": {
        "cart_traj_len": 0.5769135443937918,
        "distance_elbow_joint": 0.25946900591115485,
        "distance_shoulder_lift_joint": 0.18955602854863163,
        "distance_shoulder_pan_joint": 0.49586248208439443,
        "distance_wrist_1_joint": 0.0856557615094301,
        "distance_wrist_2_joint": 1.0615387106592977,
        "distance_wrist_3_joint": 0.07208737175795843,
        "smoothness": 2.5376526478085547e-16,
        "time": 0.433729589,
        "traj_len": 1.4711116070750263,
        "weighted_distance": 1.8589078987823768
    },
    "planner": "BKPIECE",
    "start": {
        "state": {
            "elbow_joint": 2.010868314990456,
            "shoulder_lift_joint": -1.1634956873337592,
            "shoulder_pan_joint": -2.4736205022346125,
            "wrist_1_joint": -0.8367026794202681,
            "wrist_2_joint": 0.6746043897044499,
            "wrist_3_joint": -3.1496632123970403
        }
    },
    "waypoints": [
        {
            "positions": [
                -2.4736205022346125,
                -1.1634956873337592,
                2.010868314990456,
                -0.8367026794202681,
                0.6746043897044499,
                -3.1496632123970403
            ]
        },
        {
            "positions": [
                -2.5562642492486782,
                -1.1319030159089873,
                1.96762348067193,
                -0.8224267191686965,
                0.8515275081476662,
                -3.1376486504373804
            ]
        },
        {
            "positions": [
                -2.638907996262744,
                -1.1003103444842153,
                1.9243786463534043,
                -0.8081507589171247,
                1.0284506265908826,
                -3.125634088477721
            ]
        },
        {
            "positions": [
                -2.7215517432768097,
                -1.0687176730594434,
                1.8811338120348784,
                -0.793874798665553,
                1.2053737450340987,
                -3.113619526518061
            ]
        },
        {
            "positions": [
                -2.8041954902908754,
                -1.0371250016346714,
                1.8378889777163525,
                -0.7795988384139814,
                1.3822968634773152,
                -3.101604964558401
            ]
        },
        {
            "positions": [
                -2.886839237304941,
                -1.0055323302098995,
                1.7946441433978269,
                -0.7653228781624097,
                1.5592199819205312,
                -3.0895904025987417
            ]
        },
        {
            "positions": [
                -2.969482984319007,
                -0.9739396587851276,
                1.751399309079301,
                -0.751046917910838,
                1.7361431003637475,
                -3.077575840639082
            ]
        }
    ]
}