{
    "goal": {
        "global_pose": {
            "orientation": {
                "w": 0.7031023480610252,
                "x": -0.7110244013736278,
                "y": 0.0077485991402295624,
                "z": 0.005598929693374583
            },
            "position": {
                "x": -0.8841497679147869,
                "y": 0.44412534475326537,
                "z": 0.3711530566215515
            }
        },
        "name": "move_to_auspresseinheit_D"
    },
    "id": "BKPIECE_move_to_auspresseinheit_D_44",
    "joint_names": [
        "shoulder_pan_joint",
        "shoulder_lift_joint",
        "elbow_joint",
        "wrist_1_joint",
        "wrist_2_joint",
        "wrist_3_joint"
    ],
    "metrics": {
        "cart_traj_len": 0.3430503995029719,
        "distance_elbow_joint": 0.6346047292271251,
        "distance_shoulder_lift_joint": 0.11868444089057473,
        "distance_shoulder_pan_joint": 0.13387347029542523,
        "distance_wrist_1_joint": 0.5255614620072588,
        "distance_wrist_2_joint": 1.4349787016662305,
        "distance_wrist_3_joint": 0.002474069821837954,
        "smoothness": 0.0,
        "time": 0.364111895,
        "traj_len": 1.6882466863312517,
        "weighted_distance": 2.1944623891116515
    },
    "planner": "BKPIECE",
    "start": {
        "state": {
            "elbow_joint": -1.8275523626775212,
            "shoulder_lift_joint": -2.126789852344167,
            "shoulder_pan_joint": -0.03513704404078235,
            "wrist_1_joint": -2.347782403156801,
            "wrist_2_joint": -1.6058999987535132,
            "wrist_3_joint": -3.0880379163319196
        }
    },
    "waypoints": [
        {
            "positions": [
                -0.03513704404078235,
                -2.126789852344167,
                -1.8275523626775212,
                -2.347782403156801,
                -1.6058999987535132,
                -3.0880379163319196
            ]
        },
        {
            "positions": [
                -0.0518712278277105,
                -2.141625407455489,
                -1.7482267715241306,
                -2.4134775859077084,
                -1.4265276610452344,
                -3.08772865760419
            ]
        },
        {
            "positions": [
                -0.06860541161463865,
                -2.1564609625668103,
                -1.6689011803707399,
                -2.4791727686586156,
                -1.2471553233369557,
                -3.08741939887646
            ]
        },
        {
            "positions": [
                -0.08533959540156681,
                -2.1712965176781323,
                -1.5895755892173493,
                -2.5448679514095227,
                -1.0677829856286767,
                -3.0871101401487304
            ]
        },
        {
            "positions": [
                -0.10207377918849497,
                -2.186132072789454,
                -1.5102499980639585,
                -2.6105631341604303,
                -0.8884106479203979,
                -3.0868008814210004
            ]
        },
        {
            "positions": [
                -0.11880796297542312,
                -2.200967627900776,
                -1.430924406910568,
                -2.676258316911338,
                -0.7090383102121192,
                -3.086491622693271
            ]
        },
        {
            "positions": [
                -0.13554214676235127,
                -2.215803183012098,
                -1.3515988157571774,
                -2.741953499662245,
                -0.5296659725038402,
                -3.0861823639655412
            ]
        },
        {
            "positions": [
                -0.15227633054927944,
                -2.2306387381234196,
                -1.272273224603787,
                -2.807648682413152,
                -0.3502936347955614,
                -3.085873105237811
            ]
        },
        {
            "positions": [
                -0.1690105143362076,
                -2.2454742932347416,
                -1.1929476334503961,
                -2.8733438651640597,
                -0.1709212970872827,
                -3.0855638465100816
            ]
        }
    ]
}