{
    "goal": {
        "global_pose": {
            "orientation": {
                "w": 0.5084816262002911,
                "x": -0.4908360881923452,
                "y": 0.5182115481033761,
                "z": -0.48164630358495003
            },
            "position": {
                "x": 0.5540239810943604,
                "y": -0.46912469901144505,
                "z": 0.16403168439865112
            }
        },
        "name": "move_to_storage_B"
    },
    "id": "BKPIECE_move_to_storage_B_118",
    "joint_names": [
        "shoulder_pan_joint",
        "shoulder_lift_joint",
        "elbow_joint",
        "wrist_1_joint",
        "wrist_2_joint",
        "wrist_3_joint"
    ],
    "metrics": {
        "cart_traj_len": 0.8692296405870202,
        "distance_elbow_joint": 0.5109087951738571,
        "distance_shoulder_lift_joint": 0.46286375469893515,
        "distance_shoulder_pan_joint": 0.5094859811050573,
        "distance_wrist_1_joint": 3.0153809780345275,
        "distance_wrist_2_joint": 2.7181369437937106,
        "distance_wrist_3_joint": 3.1119903533224025,
        "smoothness": 0.10408272496260505,
        "time": 0.219333186,
        "traj_len": 3.2138398849551435,
        "weighted_distance": 4.720833129289949
    },
    "planner": "BKPIECE",
    "start": {
        "state": {
            "elbow_joint": 1.664937868594044,
            "shoulder_lift_joint": -0.661644460510453,
            "shoulder_pan_joint": -0.9139846352900073,
            "wrist_1_joint": 2.146753192139373,
            "wrist_2_joint": -2.2341966793290973,
            "wrist_3_joint": 0.005466555786416001
        }
    },
    "waypoints": [
        {
            "positions": [
                -0.9139846352900073,
                -0.661644460510453,
                1.664937868594044,
                2.146753192139373,
                -2.2341966793290973,
                0.005466555786416001
            ]
        },
        {
            "positions": [
                -0.8913290986849516,
                -0.6788816497100751,
                1.6666451967784022,
                2.1430877774660964,
                -2.2182412597915735,
                -0.013133302571453682
            ]
        },
        {
            "positions": [
                -0.8677770216658024,
                -0.7222813246471531,
                1.6540399394974568,
                2.0076385319933365,
                -2.1264629386624594,
                -0.045893183288453945
            ]
        },
        {
            "positions": [
                -0.8442249446466532,
                -0.7656809995842311,
                1.6414346822165116,
                1.8721892865205767,
                -2.0346846175333457,
                -0.07865306400545422
            ]
        },
        {
            "positions": [
                -0.820672867627504,
                -0.809080674521309,
                1.6288294249355664,
                1.7367400410478169,
                -1.9429062964042316,
                -0.11141294472245447
            ]
        },
        {
            "positions": [
                -0.7971207906083548,
                -0.852480349458387,
                1.616224167654621,
                1.601290795575057,
                -1.8511279752751177,
                -0.14417282543945473
            ]
        },
        {
            "positions": [
                -0.7735687135892056,
                -0.895880024395465,
                1.6036189103736755,
                1.465841550102297,
                -1.7593496541460036,
                -0.176932706156455
            ]
        },
        {
            "positions": [
                -0.7500166365700565,
                -0.939279699332543,
                1.5910136530927304,
                1.3303923046295372,
                -1.6675713330168898,
                -0.20969258687345527
            ]
        },
        {
            "positions": [
                -0.7664698738264901,
                -0.948100104850488,
                1.6116598399167221,
                1.2256770622235995,
                -1.5651183998034848,
                -0.3476369302383377
            ]
        },
        {
            "positions": [
                -0.7829231110829238,
                -0.956920510368433,
                1.632306026740714,
                1.1209618198176616,
                -1.4626654665900798,
                -0.4855812736032201
            ]
        },
        {
            "positions": [
                -0.7993763483393573,
                -0.965740915886378,
                1.6529522135647057,
                1.016246577411724,
                -1.360212533376675,
                -0.6235256169681025
            ]
        },
        {
            "positions": [
                -0.815829585595791,
                -0.9745613214043229,
                1.6735984003886974,
                0.9115313350057862,
                -1.25775960016327,
                -0.761469960332985
            ]
        },
        {
            "positions": [
                -0.8322828228522247,
                -0.983381726922268,
                1.6942445872126892,
                0.8068160925998484,
                -1.155306666949865,
                -0.8994143036978675
            ]
        },
        {
            "positions": [
                -0.8487360601086583,
                -0.992202132440213,
                1.714890774036681,
                0.7021008501939108,
                -1.0528537337364603,
                -1.0373586470627498
            ]
        },
        {
            "positions": [
                -0.865189297365092,
                -1.001022537958158,
                1.7355369608606728,
                0.597385607787973,
                -0.9504008005230553,
                -1.1753029904276322
            ]
        },
        {
            "positions": [
                -0.8816425346215255,
                -1.009842943476103,
                1.7561831476846645,
                0.49267036538203524,
                -0.8479478673096503,
                -1.3132473337925146
            ]
        },
        {
            "positions": [
                -0.8980957718779592,
                -1.018663348994048,
                1.776829334508656,
                0.3879551229760976,
                -0.7454949340962455,
                -1.451191677157397
            ]
        },
        {
            "positions": [
                -0.9145490091343929,
                -1.027483754511993,
                1.797475521332648,
                0.2832398805701597,
                -0.6430420008828406,
                -1.5891360205222798
            ]
        },
        {
            "positions": [
                -0.9310022463908265,
                -1.036304160029938,
                1.8181217081566396,
                0.17852463816422204,
                -0.5405890676694354,
                -1.7270803638871621
            ]
        },
        {
            "positions": [
                -0.9474554836472602,
                -1.0451245655478831,
                1.8387678949806314,
                0.07380939575828438,
                -0.4381361344560306,
                -1.8650247072520445
            ]
        },
        {
            "positions": [
                -0.9639087209036938,
                -1.0539449710658282,
                1.8594140818046232,
                -0.0309058466476535,
                -0.33568320124262563,
                -2.002969050616927
            ]
        },
        {
            "positions": [
                -0.9803619581601274,
                -1.062765376583773,
                1.880060268628615,
                -0.13562108905359116,
                -0.23323026802922087,
                -2.1409133939818092
            ]
        },
        {
            "positions": [
                -0.996815195416561,
                -1.071585782101718,
                1.9007064554526067,
                -0.24033633145952904,
                -0.13077733481581566,
                -2.2788577373466916
            ]
        },
        {
            "positions": [
                -1.0132684326729948,
                -1.0804061876196631,
                1.9213526422765985,
                -0.3450515738654667,
                -0.028324401602410898,
                -2.416802080711574
            ]
        },
        {
            "positions": [
                -1.0297216699294283,
                -1.0892265931376082,
                1.9419988291005903,
                -0.4497668162714046,
                0.07412853161099409,
                -2.5547464240764564
            ]
        },
        {
            "positions": [
                -1.046174907185862,
                -1.098046998655553,
                1.962645015924582,
                -0.554482058677342,
                0.17658146482439885,
                -2.6926907674413387
            ]
        },
        {
            "positions": [
                -1.0626281444422956,
                -1.106867404173498,
                1.9832912027485738,
                -0.6591973010832799,
                0.27903439803780405,
                -2.8306351108062215
            ]
        },
        {
            "positions": [
                -1.0790813816987292,
                -1.115687809691443,
                2.003937389572566,
                -0.7639125434892178,
                0.3814873312512086,
                -2.968579454171104
            ]
        },
        {
            "positions": [
                -1.095534618955163,
                -1.1245082152093882,
                2.0245835763965574,
                -0.8686277858951552,
                0.48394026446461375,
                -3.1065237975359863
            ]
        }
    ]
}