{
    "goal": {
        "global_pose": {
            "orientation": {
                "w": -0.00223480608172531,
                "x": 0.0024358444001904467,
                "y": 0.7094548369677653,
                "z": -0.704743149386269
            },
            "position": {
                "x": 0.6205249238014221,
                "y": -0.6371506643295288,
                "z": 0.19426114857196808
            }
        },
        "name": "move_to_magneteinheit_B"
    },
    "id": "BKPIECE_move_to_magneteinheit_B_68",
    "joint_names": [
        "shoulder_pan_joint",
        "shoulder_lift_joint",
        "elbow_joint",
        "wrist_1_joint",
        "wrist_2_joint",
        "wrist_3_joint"
    ],
    "metrics": {
        "cart_traj_len": 1.994572941191839,
        "distance_elbow_joint": 2.898554364995575,
        "distance_shoulder_lift_joint": 0.7554470097395078,
        "distance_shoulder_pan_joint": 1.6205669533605325,
        "distance_wrist_1_joint": 3.480810194150906,
        "distance_wrist_2_joint": 1.5175539326702256,
        "distance_wrist_3_joint": 0.21379849570062553,
        "smoothness": 0.6235473552369828,
        "time": 0.228920382,
        "traj_len": 3.2383222431712033,
        "weighted_distance": 3.9890715798089857
    },
    "planner": "BKPIECE",
    "start": {
        "state": {
            "elbow_joint": 2.6216224122426386,
            "shoulder_lift_joint": -1.4174107377796124,
            "shoulder_pan_joint": 0.7066234856936794,
            "wrist_1_joint": 1.9546482284002225,
            "wrist_2_joint": -0.7096286983471962,
            "wrist_3_joint": 0.005740856962016249
        }
    },
    "waypoints": [
        {
            "positions": [
                0.7066234856936794,
                -1.4174107377796124,
                2.6216224122426386,
                1.9546482284002225,
                -0.7096286983471962,
                0.005740856962016249
            ]
        },
        {
            "positions": [
                0.6564256981348722,
                -1.4004444557009719,
                2.584160075697791,
                1.8814227494458515,
                -0.7229656363858361,
                -0.025756770311474914
            ]
        },
        {
            "positions": [
                0.6062279105760648,
                -1.3834781736223316,
                2.5466977391529433,
                1.8081972704914806,
                -0.736302574424476,
                -0.057254397584966074
            ]
        },
        {
            "positions": [
                0.565318565184803,
                -1.3655287152189393,
                2.392364609109267,
                1.683158630826229,
                -0.7796118122960921,
                -0.061043343245953986
            ]
        },
        {
            "positions": [
                0.5244092197935412,
                -1.3475792568155467,
                2.238031479065591,
                1.5581199911609773,
                -0.8229210501677082,
                -0.0648322889069419
            ]
        },
        {
            "positions": [
                0.48349987440227926,
                -1.3296297984121543,
                2.0836983490219154,
                1.4330813514957255,
                -0.8662302880393242,
                -0.0686212345679298
            ]
        },
        {
            "positions": [
                0.4425905290110174,
                -1.311680340008762,
                1.9293652189782393,
                1.308042711830474,
                -0.9095395259109403,
                -0.07241018022891772
            ]
        },
        {
            "positions": [
                0.4016811836197555,
                -1.2937308816053696,
                1.7750320889345632,
                1.1830040721652222,
                -0.9528487637825565,
                -0.07619912588990563
            ]
        },
        {
            "positions": [
                0.3607718382284937,
                -1.2757814232019773,
                1.620698958890887,
                1.0579654324999705,
                -0.9961580016541726,
                -0.07998807155089355
            ]
        },
        {
            "positions": [
                0.3198624928372318,
                -1.2578319647985847,
                1.466365828847211,
                0.9329267928347188,
                -1.0394672395257887,
                -0.08377701721188145
            ]
        },
        {
            "positions": [
                0.27895314744597,
                -1.2398825063951924,
                1.3120326988035351,
                0.8078881531694673,
                -1.0827764773974047,
                -0.08756596287286936
            ]
        },
        {
            "positions": [
                0.2380438020547081,
                -1.2219330479918,
                1.157699568759859,
                0.6828495135042156,
                -1.126085715269021,
                -0.09135490853385728
            ]
        },
        {
            "positions": [
                0.1971344566634462,
                -1.2039835895884075,
                1.003366438716183,
                0.5578108738389638,
                -1.169394953140637,
                -0.0951438541948452
            ]
        },
        {
            "positions": [
                0.1562251112721844,
                -1.186034131185015,
                0.849033308672507,
                0.43277223417371213,
                -1.2127041910122531,
                -0.09893279985583309
            ]
        },
        {
            "positions": [
                0.11531576588092254,
                -1.1680846727816228,
                0.6947001786288308,
                0.30773359450846055,
                -1.2560134288838691,
                -0.102721745516821
            ]
        },
        {
            "positions": [
                0.041642024701841474,
                -1.1320652670075637,
                0.7638858619759263,
                0.4403962227746587,
                -1.3249783480059472,
                -0.09782790974560764
            ]
        },
        {
            "positions": [
                -0.0320317164772396,
                -1.096045861233505,
                0.8330715453230219,
                0.5730588510408567,
                -1.3939432671280252,
                -0.09293407397439425
            ]
        },
        {
            "positions": [
                -0.10570545765632067,
                -1.0600264554594458,
                0.9022572286701174,
                0.705721479307055,
                -1.462908186250103,
                -0.08804023820318088
            ]
        },
        {
            "positions": [
                -0.17937919883540174,
                -1.024007049685387,
                0.9714429120172128,
                0.838384107573253,
                -1.531873105372181,
                -0.0831464024319675
            ]
        },
        {
            "positions": [
                -0.25305294001448286,
                -0.987987643911328,
                1.0406285953643084,
                0.9710467358394512,
                -1.600838024494259,
                -0.07825256666075413
            ]
        },
        {
            "positions": [
                -0.32672668119356385,
                -0.9519682381372689,
                1.1098142787114038,
                1.1037093641056492,
                -1.6698029436163369,
                -0.07335873088954076
            ]
        },
        {
            "positions": [
                -0.40040042237264495,
                -0.91594883236321,
                1.1789999620584992,
                1.2363719923718475,
                -1.7387678627384149,
                -0.06846489511832737
            ]
        },
        {
            "positions": [
                -0.47407416355172605,
                -0.8799294265891511,
                1.2481856454055948,
                1.3690346206380455,
                -1.807732781860493,
                -0.063571059347114
            ]
        },
        {
            "positions": [
                -0.5473857142375805,
                -0.84360181016431,
                1.3178767561730955,
                1.4978003763263055,
                -1.8776410900533145,
                -0.05254019150510046
            ]
        },
        {
            "positions": [
                -0.620697264923435,
                -0.8072741937394688,
                1.387567866940596,
                1.6265661320145652,
                -1.9475493982461358,
                -0.041509323663086926
            ]
        },
        {
            "positions": [
                -0.6940088156092896,
                -0.7709465773146278,
                1.4572589777080966,
                1.7553318877028252,
                -2.0174577064389574,
                -0.030478455821073384
            ]
        },
        {
            "positions": [
                -0.767320366295144,
                -0.7346189608897867,
                1.5269500884755973,
                1.884097643391085,
                -2.0873660146317787,
                -0.01944758797905985
            ]
        },
        {
            "positions": [
                -0.8406319169809986,
                -0.6982913444649456,
                1.596641199243098,
                2.012863399079345,
                -2.1572743228246005,
                -0.0084167201370463
            ]
        },
        {
            "positions": [
                -0.9139434676668531,
                -0.6619637280401045,
                1.6663323100105984,
                2.141629154767605,
                -2.227182631017422,
                0.0026141477049672363
            ]
        }
    ]
}