{
    "goal": {
        "global_pose": {
            "orientation": {
                "w": 0.005598929693374612,
                "x": 0.007748599140229565,
                "y": 0.7110244013736278,
                "z": -0.7031023480610252
            },
            "position": {
                "x": -0.8858502320852131,
                "y": -0.7141253447532654,
                "z": 0.3711530566215515
            }
        },
        "name": "move_to_auspresseinheit_C"
    },
    "id": "BKPIECE_move_to_auspresseinheit_C_150",
    "joint_names": [
        "shoulder_pan_joint",
        "shoulder_lift_joint",
        "elbow_joint",
        "wrist_1_joint",
        "wrist_2_joint",
        "wrist_3_joint"
    ],
    "metrics": {
        "cart_traj_len": 0.4947903131580039,
        "distance_elbow_joint": 1.0194904284516992,
        "distance_shoulder_lift_joint": 0.333482609032671,
        "distance_shoulder_pan_joint": 0.25644460228358534,
        "distance_wrist_1_joint": 0.7167571952188272,
        "distance_wrist_2_joint": 1.311268679719082,
        "distance_wrist_3_joint": 0.09189669714254878,
        "smoothness": 6.459479467149049e-16,
        "time": 0.229848051,
        "traj_len": 1.9311499713508564,
        "weighted_distance": 2.437449380206986
    },
    "planner": "BKPIECE",
    "start": {
        "state": {
            "elbow_joint": 1.7527959577737207,
            "shoulder_lift_joint": -0.9740617694225068,
            "shoulder_pan_joint": -2.967991417825858,
            "wrist_1_joint": -0.759517768980727,
            "wrist_2_joint": 1.7443932448377408,
            "wrist_3_joint": -3.0840537646736568
        }
    },
    "waypoints": [
        {
            "positions": [
                -2.967991417825858,
                -0.9740617694225068,
                1.7527959577737207,
                -0.759517768980727,
                1.7443932448377408,
                -3.0840537646736568
            ]
        },
        {
            "positions": [
                -2.9423469575974996,
                -0.9407135085192396,
                1.6508469149285507,
                -0.6878420494588442,
                1.6132663768658326,
                -3.0932434343879116
            ]
        },
        {
            "positions": [
                -2.916702497369141,
                -0.9073652476159726,
                1.5488978720833808,
                -0.6161663299369615,
                1.4821395088939244,
                -3.1024331041021664
            ]
        },
        {
            "positions": [
                -2.891058037140782,
                -0.8740169867127054,
                1.4469488292382109,
                -0.5444906104150788,
                1.3510126409220162,
                -3.1116227738164213
            ]
        },
        {
            "positions": [
                -2.865413576912424,
                -0.8406687258094383,
                1.344999786393041,
                -0.47281489089319606,
                1.219885772950108,
                -3.120812443530676
            ]
        },
        {
            "positions": [
                -2.8397691166840655,
                -0.8073204649061713,
                1.243050743547871,
                -0.40113917137131333,
                1.0887589049781998,
                -3.130002113244931
            ]
        },
        {
            "positions": [
                -2.8141246564557068,
                -0.7739722040029042,
                1.1411017007027011,
                -0.3294634518494306,
                0.9576320370062916,
                -3.139191782959186
            ]
        },
        {
            "positions": [
                -2.788480196227348,
                -0.7406239430996371,
                1.0391526578575312,
                -0.2577877323275479,
                0.8265051690343835,
                -3.148381452673441
            ]
        },
        {
            "positions": [
                -2.7628357359989897,
                -0.7072756821963699,
                0.9372036150123613,
                -0.18611201280566514,
                0.6953783010624752,
                -3.157571122387696
            ]
        },
        {
            "positions": [
                -2.7371912757706314,
                -0.6739274212931028,
                0.8352545721671913,
                -0.11443629328378235,
                0.564251433090567,
                -3.1667607921019507
            ]
        },
        {
            "positions": [
                -2.7115468155422726,
                -0.6405791603898358,
                0.7333055293220214,
                -0.04276057376189973,
                0.4331245651186589,
                -3.1759504618162056
            ]
        }
    ]
}