{
    "goal": {
        "global_pose": {
            "orientation": {
                "w": 0.7047431468963623,
                "x": -0.7094548344612122,
                "y": 0.0024358443915843964,
                "z": -0.0022348060738295317
            },
            "position": {
                "x": 0.6094750761985779,
                "y": 0.3671506643295288,
                "z": 0.19426114857196808
            }
        },
        "name": "move_to_magneteinheit_A"
    },
    "id": "BKPIECE_move_to_magneteinheit_A_123",
    "joint_names": [
        "shoulder_pan_joint",
        "shoulder_lift_joint",
        "elbow_joint",
        "wrist_1_joint",
        "wrist_2_joint",
        "wrist_3_joint"
    ],
    "metrics": {
        "cart_traj_len": 3.0838884350430833,
        "distance_elbow_joint": 3.9056379139576505,
        "distance_shoulder_lift_joint": 1.1662889941250292,
        "distance_shoulder_pan_joint": 2.9950227276012935,
        "distance_wrist_1_joint": 3.453327442963541,
        "distance_wrist_2_joint": 2.3963744858931384,
        "distance_wrist_3_joint": 0.8479586400409049,
        "smoothness": 0.3130371671264315,
        "time": 0.167202716,
        "traj_len": 3.84247448977629,
        "weighted_distance": 4.723370556448017
    },
    "planner": "BKPIECE",
    "start": {
        "state": {
            "elbow_joint": -1.9196185241190666,
            "shoulder_lift_joint": -1.2443396400964142,
            "shoulder_pan_joint": 2.6996025414629847,
            "wrist_1_joint": -1.5485510000780065,
            "wrist_2_joint": -1.5709468930060704,
            "wrist_3_joint": 0.4420197071253992
        }
    },
    "waypoints": [
        {
            "positions": [
                2.6996025414629847,
                -1.2443396400964142,
                -1.9196185241190666,
                -1.5485510000780065,
                -1.5709468930060704,
                0.4420197071253992
            ]
        },
        {
            "positions": [
                2.6155933318223936,
                -1.2594690387706469,
                -1.8136464848398621,
                -1.450159186975693,
                -1.515419013690437,
                0.41531297911534787
            ]
        },
        {
            "positions": [
                2.5315841221818025,
                -1.2745984374448798,
                -1.7076744455606576,
                -1.3517673738733793,
                -1.4598911343748038,
                0.3886062511052965
            ]
        },
        {
            "positions": [
                2.447574912541211,
                -1.2897278361191125,
                -1.601702406281453,
                -1.2533755607710657,
                -1.4043632550591705,
                0.3618995230952452
            ]
        },
        {
            "positions": [
                2.36356570290062,
                -1.3048572347933451,
                -1.4957303670022486,
                -1.1549837476687521,
                -1.3488353757435372,
                0.33519279508519384
            ]
        },
        {
            "positions": [
                2.2795564932600287,
                -1.3199866334675778,
                -1.3897583277230439,
                -1.0565919345664385,
                -1.2933074964279039,
                0.3084860670751425
            ]
        },
        {
            "positions": [
                2.1955472836194376,
                -1.3351160321418107,
                -1.2837862884438396,
                -0.958200121464125,
                -1.2377796171122706,
                0.28177933906509117
            ]
        },
        {
            "positions": [
                2.1115380739788465,
                -1.3502454308160434,
                -1.1778142491646348,
                -0.8598083083618113,
                -1.182251737796637,
                0.25507261105503987
            ]
        },
        {
            "positions": [
                2.0275288643382554,
                -1.365374829490276,
                -1.0718422098854303,
                -0.7614164952594978,
                -1.126723858481004,
                0.22836588304498853
            ]
        },
        {
            "positions": [
                1.9435196546976639,
                -1.3805042281645088,
                -0.9658701706062257,
                -0.6630246821571841,
                -1.0711959791653705,
                0.20165915503493717
            ]
        },
        {
            "positions": [
                1.8595104450570727,
                -1.3956336268387417,
                -0.8598981313270213,
                -0.5646328690548706,
                -1.0156680998497372,
                0.17495242702488584
            ]
        },
        {
            "positions": [
                1.7755012354164816,
                -1.4107630255129744,
                -0.7539260920478166,
                -0.46624105595255694,
                -0.960140220534104,
                0.14824569901483453
            ]
        },
        {
            "positions": [
                1.6914920257758905,
                -1.425892424187207,
                -0.6479540527686123,
                -0.36784924285024356,
                -0.9046123412184707,
                0.12153897100478317
            ]
        },
        {
            "positions": [
                1.6074828161352994,
                -1.4410218228614398,
                -0.5419820134894078,
                -0.26945742974792997,
                -0.8490844619028374,
                0.09483224299473186
            ]
        },
        {
            "positions": [
                1.523473606494708,
                -1.4561512215356727,
                -0.43600997421020304,
                -0.17106561664561615,
                -0.793556582587204,
                0.0681255149846805
            ]
        },
        {
            "positions": [
                1.439464396854117,
                -1.4712806202099054,
                -0.33003793493099853,
                -0.07267380354330277,
                -0.7380287032715708,
                0.041418786974629196
            ]
        },
        {
            "positions": [
                1.3554551872135259,
                -1.486410018884138,
                -0.22406589565179402,
                0.025718009559010824,
                -0.6825008239559375,
                0.01471205896457789
            ]
        },
        {
            "positions": [
                1.2714459775729348,
                -1.5015394175583707,
                -0.11809385637258951,
                0.12410982266132442,
                -0.6269729446403042,
                -0.011994669045473472
            ]
        },
        {
            "positions": [
                1.1874367679323432,
                -1.5166688162326036,
                -0.012121817093384779,
                0.22250163576363824,
                -0.5714450653246708,
                -0.03870139705552483
            ]
        },
        {
            "positions": [
                1.103427558291752,
                -1.5317982149068363,
                0.09385022218581973,
                0.3208934488659516,
                -0.5159171860090375,
                -0.06540812506557614
            ]
        },
        {
            "positions": [
                1.019418348651161,
                -1.546927613581069,
                0.19982226146502402,
                0.4192852619682652,
                -0.46038930669340417,
                -0.0921148530756275
            ]
        },
        {
            "positions": [
                0.9354091390105699,
                -1.562057012255302,
                0.30579430074422875,
                0.5176770750705788,
                -0.40486142737777087,
                -0.11882158108567875
            ]
        },
        {
            "positions": [
                0.8513999293699785,
                -1.5771864109295346,
                0.4117663400234335,
                0.6160688881728926,
                -0.34933354806213757,
                -0.1455283090957301
            ]
        },
        {
            "positions": [
                0.7673907197293874,
                -1.5923158096037673,
                0.5177383793026377,
                0.7144607012752061,
                -0.2938056687465042,
                -0.17223503710578147
            ]
        },
        {
            "positions": [
                0.6725897098169953,
                -1.5350963142192704,
                0.5892994435382253,
                0.7783687732128948,
                -0.22220686743936613,
                -0.14780310567479288
            ]
        },
        {
            "positions": [
                0.5777886999046031,
                -1.4778768188347735,
                0.6608605077738129,
                0.8422768451505835,
                -0.15060806613222802,
                -0.12337117424380427
            ]
        },
        {
            "positions": [
                0.48298768999221087,
                -1.4206573234502766,
                0.7324215720094005,
                0.9061849170882721,
                -0.07900926482508991,
                -0.09893924281281566
            ]
        },
        {
            "positions": [
                0.3881866800798187,
                -1.3634378280657797,
                0.8039826362449882,
                0.9700929890259609,
                -0.007410463517951826,
                -0.07450731138182706
            ]
        },
        {
            "positions": [
                0.29338567016742645,
                -1.3062183326812828,
                0.875543700480576,
                1.0340010609636496,
                0.06418833778918631,
                -0.05007537995083844
            ]
        },
        {
            "positions": [
                0.1985846602550343,
                -1.248998837296786,
                0.9471047647161634,
                1.0979091329013382,
                0.1357871390963244,
                -0.025643448519849843
            ]
        },
        {
            "positions": [
                0.10378365034264214,
                -1.191779341912289,
                1.0186658289517512,
                1.161817204839027,
                0.20738594040346253,
                -0.001211517088861247
            ]
        },
        {
            "positions": [
                0.008982640430249988,
                -1.1345598465277922,
                1.0902268931873387,
                1.2257252767767155,
                0.27898474171060056,
                0.02322041434212735
            ]
        },
        {
            "positions": [
                -0.08581836948214228,
                -1.0773403511432953,
                1.1617879574229264,
                1.2896333487144043,
                0.35058354301773875,
                0.047652345773115966
            ]
        },
        {
            "positions": [
                -0.05587525281697538,
                -1.034006441692266,
                1.2795353049108775,
                1.3775109335959945,
                0.28274867875069176,
                0.04567855821156937
            ]
        },
        {
            "positions": [
                -0.02593213615180849,
                -0.9906725322412371,
                1.3972826523988289,
                1.4653885184775846,
                0.21491381448364472,
                0.04370477065002276
            ]
        },
        {
            "positions": [
                0.004010980513358395,
                -0.9473386227902079,
                1.51502999988678,
                1.5532661033591748,
                0.1470789502165977,
                0.04173098308847616
            ]
        },
        {
            "positions": [
                0.033954097178525294,
                -0.9040047133391788,
                1.6327773473747311,
                1.6411436882407648,
                0.07924408594955068,
                0.03975719552692956
            ]
        },
        {
            "positions": [
                0.06389721384369221,
                -0.8606708038881496,
                1.7505246948626825,
                1.729021273122355,
                0.011409221682503634,
                0.03778340796538296
            ]
        },
        {
            "positions": [
                0.09384033050885907,
                -0.8173368944371204,
                1.8682720423506334,
                1.8168988580039453,
                -0.056425642584543356,
                0.035809620403836354
            ]
        },
        {
            "positions": [
                0.12378344717402598,
                -0.7740029849860913,
                1.9860193898385847,
                1.9047764428855354,
                -0.12426050685159043,
                0.033835832842289755
            ]
        }
    ]
}