{
    "goal": {
        "global_pose": {
            "orientation": {
                "w": 0.7047431468963623,
                "x": -0.7094548344612122,
                "y": 0.0024358443915843964,
                "z": -0.0022348060738295317
            },
            "position": {
                "x": 0.6094750761985779,
                "y": 0.3671506643295288,
                "z": 0.19426114857196808
            }
        },
        "name": "move_to_magneteinheit_A"
    },
    "id": "BKPIECE_move_to_magneteinheit_A_150",
    "joint_names": [
        "shoulder_pan_joint",
        "shoulder_lift_joint",
        "elbow_joint",
        "wrist_1_joint",
        "wrist_2_joint",
        "wrist_3_joint"
    ],
    "metrics": {
        "cart_traj_len": 3.200749380123921,
        "distance_elbow_joint": 3.9081499326712597,
        "distance_shoulder_lift_joint": 0.9435525390532631,
        "distance_shoulder_pan_joint": 3.325991431489258,
        "distance_wrist_1_joint": 1.5781563267857772,
        "distance_wrist_2_joint": 1.692994617142663,
        "distance_wrist_3_joint": 3.5601802046624376,
        "smoothness": 0.23324432503392906,
        "time": 0.421298082,
        "traj_len": 3.874148300182204,
        "weighted_distance": 5.039894483524231
    },
    "planner": "BKPIECE",
    "start": {
        "state": {
            "elbow_joint": -1.9196185241190666,
            "shoulder_lift_joint": -1.2443396400964142,
            "shoulder_pan_joint": 2.6996025414629847,
            "wrist_1_joint": -1.5485510000780065,
            "wrist_2_joint": -1.5709468930060704,
            "wrist_3_joint": 0.4420197071253992
        }
    },
    "waypoints": [
        {
            "positions": [
                2.6996025414629847,
                -1.2443396400964142,
                -1.9196185241190666,
                -1.5485510000780065,
                -1.5709468930060704,
                0.4420197071253992
            ]
        },
        {
            "positions": [
                2.6073794102422236,
                -1.257572277651832,
                -1.8145612892949887,
                -1.5131602090481344,
                -1.530203384779937,
                0.3353736985575525
            ]
        },
        {
            "positions": [
                2.5151562790214625,
                -1.27080491520725,
                -1.7095040544709106,
                -1.4777694180182621,
                -1.4894598765538034,
                0.2287276899897058
            ]
        },
        {
            "positions": [
                2.4229331478007015,
                -1.2840375527626677,
                -1.6044468196468324,
                -1.44237862698839,
                -1.4487163683276698,
                0.1220816814218591
            ]
        },
        {
            "positions": [
                2.330710016579941,
                -1.2972701903180857,
                -1.4993895848227545,
                -1.406987835958518,
                -1.4079728601015364,
                0.015435672854012428
            ]
        },
        {
            "positions": [
                2.2384868853591797,
                -1.3105028278735036,
                -1.3943323499986766,
                -1.3715970449286459,
                -1.367229351875403,
                -0.0912103357138343
            ]
        },
        {
            "positions": [
                2.1462637541384186,
                -1.3237354654289213,
                -1.2892751151745985,
                -1.3362062538987738,
                -1.3264858436492695,
                -0.19785634428168097
            ]
        },
        {
            "positions": [
                2.0540406229176575,
                -1.3369681029843392,
                -1.1842178803505203,
                -1.3008154628689015,
                -1.2857423354231359,
                -0.30450235284952765
            ]
        },
        {
            "positions": [
                1.9618174916968965,
                -1.3502007405397571,
                -1.0791606455264424,
                -1.2654246718390294,
                -1.2449988271970025,
                -0.4111483614173743
            ]
        },
        {
            "positions": [
                1.8695943604761354,
                -1.363433378095175,
                -0.9741034107023644,
                -1.2300338808091573,
                -1.2042553189708691,
                -0.517794369985221
            ]
        },
        {
            "positions": [
                1.7773712292553743,
                -1.376666015650593,
                -0.8690461758782864,
                -1.194643089779285,
                -1.1635118107447355,
                -0.6244403785530678
            ]
        },
        {
            "positions": [
                1.6851480980346134,
                -1.3898986532060107,
                -0.7639889410542082,
                -1.159252298749413,
                -1.122768302518602,
                -0.7310863871209144
            ]
        },
        {
            "positions": [
                1.5929249668138523,
                -1.4031312907614286,
                -0.6589317062301303,
                -1.1238615077195409,
                -1.0820247942924686,
                -0.8377323956887611
            ]
        },
        {
            "positions": [
                1.5007018355930912,
                -1.4163639283168465,
                -0.5538744714060524,
                -1.0884707166896688,
                -1.0412812860663352,
                -0.9443784042566078
            ]
        },
        {
            "positions": [
                1.4084787043723304,
                -1.4295965658722642,
                -0.44881723658197425,
                -1.0530799256597967,
                -1.0005377778402016,
                -1.0510244128244546
            ]
        },
        {
            "positions": [
                1.3162555731515693,
                -1.4428292034276822,
                -0.3437600017578961,
                -1.0176891346299244,
                -0.9597942696140681,
                -1.157670421392301
            ]
        },
        {
            "positions": [
                1.2240324419308082,
                -1.4560618409831,
                -0.2387027669338182,
                -0.9822983436000523,
                -0.9190507613879346,
                -1.264316429960148
            ]
        },
        {
            "positions": [
                1.131809310710047,
                -1.469294478538518,
                -0.13364553210974028,
                -0.9469075525701802,
                -0.8783072531618011,
                -1.3709624385279944
            ]
        },
        {
            "positions": [
                1.039586179489286,
                -1.482527116093936,
                -0.028588297285662145,
                -0.911516761540308,
                -0.8375637449356677,
                -1.4776084470958413
            ]
        },
        {
            "positions": [
                0.9473630482685251,
                -1.4957597536493537,
                0.07646893753841599,
                -0.8761259705104358,
                -0.7968202367095342,
                -1.5842544556636877
            ]
        },
        {
            "positions": [
                0.855139917047764,
                -1.5089923912047716,
                0.1815261723624939,
                -0.8407351794805638,
                -0.7560767284834007,
                -1.6909004642315346
            ]
        },
        {
            "positions": [
                0.762916785827003,
                -1.5222250287601895,
                0.2865834071865718,
                -0.8053443884506917,
                -0.7153332202572672,
                -1.797546472799381
            ]
        },
        {
            "positions": [
                0.6706936546062421,
                -1.5354576663156072,
                0.3916406420106502,
                -0.7699535974208195,
                -0.6745897120311337,
                -1.904192481367228
            ]
        },
        {
            "positions": [
                0.578470523385481,
                -1.5486903038710251,
                0.4966978768347281,
                -0.7345628063909473,
                -0.6338462038050002,
                -2.0108384899350744
            ]
        },
        {
            "positions": [
                0.4862473921647199,
                -1.561922941426443,
                0.601755111658806,
                -0.6991720153610752,
                -0.5931026955788667,
                -2.1174844985029213
            ]
        },
        {
            "positions": [
                0.3940242609439588,
                -1.575155578981861,
                0.7068123464828839,
                -0.6637812243312031,
                -0.5523591873527331,
                -2.2241305070707678
            ]
        },
        {
            "positions": [
                0.3018011297231977,
                -1.588388216537279,
                0.8118695813069619,
                -0.6283904333013309,
                -0.5116156791265998,
                -2.3307765156386147
            ]
        },
        {
            "positions": [
                0.20957799850243664,
                -1.6016208540926966,
                0.9169268161310402,
                -0.5929996422714587,
                -0.4708721709004664,
                -2.437422524206461
            ]
        },
        {
            "positions": [
                0.11735486728167599,
                -1.6148534916481145,
                1.0219840509551181,
                -0.5576088512415867,
                -0.4301286626743328,
                -2.544068532774308
            ]
        },
        {
            "positions": [
                0.0251317360609149,
                -1.6280861292035325,
                1.127041285779196,
                -0.5222180602117146,
                -0.3893851544481992,
                -2.6507145413421545
            ]
        },
        {
            "positions": [
                -0.06709139515984619,
                -1.6413187667589502,
                1.2320985206032744,
                -0.48682726918184227,
                -0.34864164622206584,
                -2.7573605499100013
            ]
        },
        {
            "positions": [
                -0.15931452638060728,
                -1.654551404314368,
                1.3371557554273523,
                -0.4514364781519702,
                -0.30789813799593246,
                -2.864006558477848
            ]
        },
        {
            "positions": [
                -0.25153765760136815,
                -1.667784041869786,
                1.4422129902514302,
                -0.4160456871220981,
                -0.26715462976979887,
                -2.9706525670456947
            ]
        },
        {
            "positions": [
                -0.1979874815406673,
                -1.5934828794012301,
                1.5202584785801105,
                -0.4797101176692222,
                -0.2115542934974572,
                -2.991725128544458
            ]
        },
        {
            "positions": [
                -0.1444373054799665,
                -1.5191817169326742,
                1.598303966908791,
                -0.5433745482163463,
                -0.15595395722511549,
                -3.0127976900432216
            ]
        },
        {
            "positions": [
                -0.09088712941926566,
                -1.4448805544641183,
                1.6763494552374714,
                -0.6070389787634705,
                -0.10035362095277381,
                -3.033870251541985
            ]
        },
        {
            "positions": [
                -0.03733695335856485,
                -1.3705793919955624,
                1.7543949435661519,
                -0.6707034093105946,
                -0.044753284680432104,
                -3.054942813040748
            ]
        },
        {
            "positions": [
                0.016213222702135988,
                -1.2962782295270066,
                1.8324404318948322,
                -0.7343678398577187,
                0.010847051591909629,
                -3.0760153745395113
            ]
        },
        {
            "positions": [
                0.06976339876283683,
                -1.2219770670584507,
                1.9104859202235125,
                -0.7980322704048427,
                0.06644738786425125,
                -3.097087936038275
            ]
        },
        {
            "positions": [
                0.12331357482353769,
                -1.1476759045898948,
                1.988531408552193,
                -0.8616967009519668,
                0.122047724136593,
                -3.1181604975370383
            ]
        }
    ]
}