{
    "goal": {
        "global_pose": {
            "orientation": {
                "w": 0.5084816217422485,
                "x": -0.49083608388900757,
                "y": 0.5182115435600281,
                "z": -0.4816462993621826
            },
            "position": {
                "x": 0.5540239810943604,
                "y": 0.030875300988554955,
                "z": 0.16403168439865112
            }
        },
        "name": "move_to_storage_A"
    },
    "id": "BKPIECE_move_to_storage_A_132",
    "joint_names": [
        "shoulder_pan_joint",
        "shoulder_lift_joint",
        "elbow_joint",
        "wrist_1_joint",
        "wrist_2_joint",
        "wrist_3_joint"
    ],
    "metrics": {
        "cart_traj_len": 0.352803450869602,
        "distance_elbow_joint": 0.4504154059585097,
        "distance_shoulder_lift_joint": 0.23672336982027264,
        "distance_shoulder_pan_joint": 0.4615442894066042,
        "distance_wrist_1_joint": 0.2407070904897629,
        "distance_wrist_2_joint": 1.0986560981843136,
        "distance_wrist_3_joint": 0.10368024799055364,
        "smoothness": 4.440892098500626e-16,
        "time": 0.213117571,
        "traj_len": 1.6098840026070254,
        "weighted_distance": 2.0343181133994754
    },
    "planner": "BKPIECE",
    "start": {
        "state": {
            "elbow_joint": 1.971548259319323,
            "shoulder_lift_joint": -1.1394851275133948,
            "shoulder_pan_joint": 0.1228115487234821,
            "wrist_1_joint": -0.7804723859257726,
            "wrist_2_joint": 0.12958671773740124,
            "wrist_3_joint": -3.192489227718131
        }
    },
    "waypoints": [
        {
            "positions": [
                0.1228115487234821,
                -1.1394851275133948,
                1.971548259319323,
                -0.7804723859257726,
                0.12958671773740124,
                -3.192489227718131
            ]
        },
        {
            "positions": [
                0.056876650236824366,
                -1.1733027517734338,
                2.0358933173133957,
                -0.8148591131385959,
                0.28653758890658887,
                -3.1776777637194806
            ]
        },
        {
            "positions": [
                -0.009058248249833367,
                -1.2071203760334728,
                2.1002383753074687,
                -0.8492458403514191,
                0.4434884600757766,
                -3.16286629972083
            ]
        },
        {
            "positions": [
                -0.0749931467364911,
                -1.2409380002935118,
                2.1645834333015412,
                -0.8836325675642425,
                0.6004393312449642,
                -3.1480548357221796
            ]
        },
        {
            "positions": [
                -0.14092804522314883,
                -1.2747556245535505,
                2.228928491295614,
                -0.9180192947770657,
                0.7573902024141519,
                -3.133243371723529
            ]
        },
        {
            "positions": [
                -0.20686294370980662,
                -1.3085732488135895,
                2.293273549289687,
                -0.952406021989889,
                0.9143410735833396,
                -3.1184319077248785
            ]
        },
        {
            "positions": [
                -0.2727978421964643,
                -1.3423908730736285,
                2.3576186072837597,
                -0.9867927492027122,
                1.071291944752527,
                -3.103620443726228
            ]
        },
        {
            "positions": [
                -0.3387327406831221,
                -1.3762084973336675,
                2.4219636652778327,
                -1.0211794764155355,
                1.228242815921715,
                -3.0888089797275775
            ]
        }
    ]
}{
    "goal": {
        "global_pose": {
            "orientation": {
                "w": 0.5084816217422485,
                "x": -0.49083608388900757,
                "y": 0.5182115435600281,
                "z": -0.4816462993621826
            },
            "position": {
                "x": 0.5540239810943604,
                "y": 0.030875300988554955,
                "z": 0.16403168439865112
            }
        },
        "name": "move_to_storage_A"
    },
    "id": "BKPIECE_move_to_storage_A_132",
    "joint_names": [
        "shoulder_pan_joint",
        "shoulder_lift_joint",
        "elbow_joint",
        "wrist_1_joint",
        "wrist_2_joint",
        "wrist_3_joint"
    ],
    "metrics": {
        "cart_traj_len": 0.35357029316145944,
        "distance_elbow_joint": 0.4486449403345092,
        "distance_shoulder_lift_joint": 0.23517219624886243,
        "distance_shoulder_pan_joint": 0.4601356219659579,
        "distance_wrist_1_joint": 0.2343804626159225,
        "distance_wrist_2_joint": 1.1096862950393376,
        "distance_wrist_3_joint": 0.08512190644837503,
        "smoothness": 2.442490655644528e-15,
        "time": 0.114143387,
        "traj_len": 1.604101437769122,
        "weighted_distance": 2.021744789335433
    },
    "planner": "BKPIECE",
    "start": {
        "state": {
            "elbow_joint": 1.97154746011099,
            "shoulder_lift_joint": -1.13948474672311,
            "shoulder_pan_joint": 0.12281154466712228,
            "wrist_1_joint": -0.7804688027058302,
            "wrist_2_joint": 0.12958655903071145,
            "wrist_3_joint": 3.0906928834467795
        }
    },
    "waypoints": [
        {
            "positions": [
                0.12281154466712228,
                -1.13948474672311,
                1.97154746011099,
                -0.7804688027058302,
                0.12958655903071145,
                3.0906928834467795
            ]
        },
        {
            "positions": [
                0.05707788438627115,
                -1.1730807747586618,
                2.035639594444491,
                -0.8139517259366763,
                0.2881131726077597,
                3.1028531557965473
            ]
        },
        {
            "positions": [
                -0.008655775894579984,
                -1.2066768027942134,
                2.0997317287779924,
                -0.8474346491675223,
                0.44663978618480793,
                3.115013428146315
            ]
        },
        {
            "positions": [
                -0.0743894361754311,
                -1.2402728308297652,
                2.1638238631114937,
                -0.8809175723983684,
                0.6051663997618562,
                3.127173700496083
            ]
        },
        {
            "positions": [
                -0.14012309645628224,
                -1.273868858865317,
                2.2279159974449954,
                -0.9144004956292144,
                0.7636930133389044,
                3.139333972845851
            ]
        },
        {
            "positions": [
                -0.20585675673713338,
                -1.307464886900869,
                2.2920081317784966,
                -0.9478834188600606,
                0.9222196269159526,
                3.151494245195619
            ]
        },
        {
            "positions": [
                -0.2715904170179845,
                -1.3410609149364205,
                2.356100266111998,
                -0.9813663420909066,
                1.0807462404930008,
                3.1636545175453867
            ]
        },
        {
            "positions": [
                -0.3373240772988356,
                -1.3746569429719724,
                2.420192400445499,
                -1.0148492653217527,
                1.239272854070049,
                3.1758147898951545
            ]
        }
    ]
}{
    "goal": {
        "global_pose": {
            "orientation": {
                "w": 0.5084816217422485,
                "x": -0.49083608388900757,
                "y": 0.5182115435600281,
                "z": -0.4816462993621826
            },
            "position": {
                "x": 0.5540239810943604,
                "y": 0.030875300988554955,
                "z": 0.16403168439865112
            }
        },
        "name": "move_to_storage_A"
    },
    "id": "BKPIECE_move_to_storage_A_132",
    "joint_names": [
        "shoulder_pan_joint",
        "shoulder_lift_joint",
        "elbow_joint",
        "wrist_1_joint",
        "wrist_2_joint",
        "wrist_3_joint"
    ],
    "metrics": {
        "cart_traj_len": 0.35297251309229327,
        "distance_elbow_joint": 0.4533808135848294,
        "distance_shoulder_lift_joint": 0.23582756848152187,
        "distance_shoulder_pan_joint": 0.4596960334950993,
        "distance_wrist_1_joint": 0.25676056415417015,
        "distance_wrist_2_joint": 1.1075469503965154,
        "distance_wrist_3_joint": 0.10252928510074488,
        "smoothness": 9.992007236661072e-16,
        "time": 0.186893475,
        "traj_len": 1.6173253275741653,
        "weighted_distance": 2.0457534797636434
    },
    "planner": "BKPIECE",
    "start": {
        "state": {
            "elbow_joint": 1.9715472970024885,
            "shoulder_lift_joint": -1.1394870060712896,
            "shoulder_pan_joint": 0.12281152778156021,
            "wrist_1_joint": -0.780463741449964,
            "wrist_2_joint": 0.12958659822042276,
            "wrist_3_joint": 3.090690232415272
        }
    },
    "waypoints": [
        {
            "positions": [
                0.12281152778156021,
                -1.1394870060712896,
                1.9715472970024885,
                -0.780463741449964,
                0.12958659822042276,
                3.090690232415272
            ]
        },
        {
            "positions": [
                0.05714066585368889,
                -1.1731766587115071,
                2.036315984657464,
                -0.8171438220434168,
                0.28780759113421067,
                3.1053372731439497
            ]
        },
        {
            "positions": [
                -0.008530196074182428,
                -1.2068663113517244,
                2.1010846723124397,
                -0.8538239026368697,
                0.4460285840479986,
                3.1199843138726275
            ]
        },
        {
            "positions": [
                -0.07420105800205373,
                -1.240555963991942,
                2.1658533599674152,
                -0.8905039832303226,
                0.6042495769617865,
                3.1346313546013054
            ]
        },
        {
            "positions": [
                -0.13987191992992506,
                -1.2742456166321592,
                2.230622047622391,
                -0.9271840638237755,
                0.7624705698755744,
                3.149278395329983
            ]
        },
        {
            "positions": [
                -0.20554278185779642,
                -1.3079352692723767,
                2.295390735277367,
                -0.9638641444172285,
                0.9206915627893624,
                3.163925436058661
            ]
        },
        {
            "positions": [
                -0.2712136437856677,
                -1.341624921912594,
                2.3601594229323424,
                -1.0005442250106813,
                1.0789125557031503,
                3.178572476787339
            ]
        },
        {
            "positions": [
                -0.33688450571353906,
                -1.3753145745528115,
                2.424928110587318,
                -1.0372243056041341,
                1.2371335486169381,
                3.1932195175160167
            ]
        }
    ]
}