{
    "goal": {
        "global_pose": {
            "orientation": {
                "w": 0.7047431468963623,
                "x": -0.7094548344612122,
                "y": 0.0024358443915843964,
                "z": -0.0022348060738295317
            },
            "position": {
                "x": 0.6094750761985779,
                "y": 0.3671506643295288,
                "z": 0.19426114857196808
            }
        },
        "name": "move_to_magneteinheit_A"
    },
    "id": "BKPIECE_move_to_magneteinheit_A_67",
    "joint_names": [
        "shoulder_pan_joint",
        "shoulder_lift_joint",
        "elbow_joint",
        "wrist_1_joint",
        "wrist_2_joint",
        "wrist_3_joint"
    ],
    "metrics": {
        "cart_traj_len": 3.509413817983398,
        "distance_elbow_joint": 3.8784475777852236,
        "distance_shoulder_lift_joint": 1.1167908450016117,
        "distance_shoulder_pan_joint": 3.966715866083654,
        "distance_wrist_1_joint": 0.8284111628077668,
        "distance_wrist_2_joint": 1.7053767492978005,
        "distance_wrist_3_joint": 3.895565059871904,
        "smoothness": 0.17778342092677388,
        "time": 0.11338041299999999,
        "traj_len": 3.9231756602079346,
        "weighted_distance": 5.071116769775405
    },
    "planner": "BKPIECE",
    "start": {
        "state": {
            "elbow_joint": -1.9196185241190666,
            "shoulder_lift_joint": -1.2443396400964142,
            "shoulder_pan_joint": 2.6996025414629847,
            "wrist_1_joint": -1.5485510000780065,
            "wrist_2_joint": -1.5709468930060704,
            "wrist_3_joint": 0.4420197071253992
        }
    },
    "waypoints": [
        {
            "positions": [
                2.6996025414629847,
                -1.2443396400964142,
                -1.9196185241190666,
                -1.5485510000780065,
                -1.5709468930060704,
                0.4420197071253992
            ]
        },
        {
            "positions": [
                2.5573447908238944,
                -1.2662068011668999,
                -1.7984250933842594,
                -1.5284206054968452,
                -1.5144078809500023,
                0.41366335539537624
            ]
        },
        {
            "positions": [
                2.4150870401848037,
                -1.2880739622373856,
                -1.6772316626494521,
                -1.5082902109156842,
                -1.4578688688939343,
                0.3853070036653533
            ]
        },
        {
            "positions": [
                2.2728292895457134,
                -1.3099411233078713,
                -1.5560382319146449,
                -1.4881598163345229,
                -1.4013298568378663,
                0.3569506519353304
            ]
        },
        {
            "positions": [
                2.1305715389066227,
                -1.3318082843783572,
                -1.4348448011798376,
                -1.4680294217533616,
                -1.3447908447817982,
                0.32859430020530744
            ]
        },
        {
            "positions": [
                1.9883137882675324,
                -1.3536754454488429,
                -1.3136513704450303,
                -1.4478990271722005,
                -1.2882518327257302,
                0.3002379484752845
            ]
        },
        {
            "positions": [
                1.8460560376284418,
                -1.3755426065193286,
                -1.192457939710223,
                -1.4277686325910393,
                -1.2317128206696621,
                0.2718815967452616
            ]
        },
        {
            "positions": [
                1.7037982869893513,
                -1.3974097675898143,
                -1.0712645089754158,
                -1.407638238009878,
                -1.1751738086135939,
                0.24352524501523867
            ]
        },
        {
            "positions": [
                1.5615405363502608,
                -1.4192769286603,
                -0.9500710782406085,
                -1.387507843428717,
                -1.118634796557526,
                0.21516889328521577
            ]
        },
        {
            "positions": [
                1.4192827857111703,
                -1.441144089730786,
                -0.8288776475058013,
                -1.3673774488475556,
                -1.0620957845014578,
                0.18681254155519283
            ]
        },
        {
            "positions": [
                1.2770250350720798,
                -1.4630112508012716,
                -0.707684216770994,
                -1.3472470542663944,
                -1.0055567724453898,
                0.1584561898251699
            ]
        },
        {
            "positions": [
                1.1347672844329892,
                -1.4848784118717573,
                -0.5864907860361868,
                -1.3271166596852333,
                -0.9490177603893218,
                0.13009983809514697
            ]
        },
        {
            "positions": [
                0.992509533793899,
                -1.506745572942243,
                -0.4652973553013795,
                -1.306986265104072,
                -0.8924787483332538,
                0.10174348636512404
            ]
        },
        {
            "positions": [
                0.8502517831548084,
                -1.5286127340127287,
                -0.34410392456657246,
                -1.2868558705229107,
                -0.8359397362771858,
                0.07338713463510116
            ]
        },
        {
            "positions": [
                0.7079940325157177,
                -1.5504798950832144,
                -0.22291049383176498,
                -1.2667254759417497,
                -0.7794007242211176,
                0.04503078290507817
            ]
        },
        {
            "positions": [
                0.5657362818766272,
                -1.5723470561537003,
                -0.10171706309695772,
                -1.2465950813605884,
                -0.7228617121650497,
                0.016674431175055238
            ]
        },
        {
            "positions": [
                0.42347853123753687,
                -1.594214217224186,
                0.019476367637849545,
                -1.226464686779427,
                -0.6663227001089816,
                -0.01168192055496764
            ]
        },
        {
            "positions": [
                0.2812207805984466,
                -1.6160813782946717,
                0.1406697983726568,
                -1.206334292198266,
                -0.6097836880529136,
                -0.04003827228499057
            ]
        },
        {
            "positions": [
                0.13896302995935583,
                -1.6379485393651574,
                0.26186322910746407,
                -1.1862038976171048,
                -0.5532446759968455,
                -0.0683946240150135
            ]
        },
        {
            "positions": [
                -0.003294720679734464,
                -1.659815700435643,
                0.38305665984227133,
                -1.1660735030359435,
                -0.4967056639407774,
                -0.09675097574503644
            ]
        },
        {
            "positions": [
                -0.1455524713188252,
                -1.681682861506129,
                0.5042500905770786,
                -1.1459431084547824,
                -0.4401666518847094,
                -0.12510732747505937
            ]
        },
        {
            "positions": [
                -0.2878102219579155,
                -1.7035500225766147,
                0.6254435213118859,
                -1.1258127138736214,
                -0.38362763982864134,
                -0.1534636792050823
            ]
        },
        {
            "positions": [
                -0.43006797259700624,
                -1.7254171836471004,
                0.7466369520466931,
                -1.1056823192924599,
                -0.3270886277725733,
                -0.18182003093510524
            ]
        },
        {
            "positions": [
                -0.5723257232360963,
                -1.747284344717586,
                0.8678303827815004,
                -1.0855519247112988,
                -0.2705496157165052,
                -0.21017638266512817
            ]
        },
        {
            "positions": [
                -0.5369410695000846,
                -1.710802822893802,
                0.9401116227974505,
                -1.0620433197358283,
                -0.24642153955607904,
                -0.011448931394381079
            ]
        },
        {
            "positions": [
                -0.5015564157640728,
                -1.6743213010700175,
                1.0123928628134007,
                -1.0385347147603579,
                -0.2222934633956529,
                0.187278519876366
            ]
        },
        {
            "positions": [
                -0.4661717620280611,
                -1.6378397792462334,
                1.0846741028293507,
                -1.0150261097848874,
                -0.19816538723522673,
                0.3860059711471131
            ]
        },
        {
            "positions": [
                -0.43078710829204936,
                -1.6013582574224492,
                1.156955342845301,
                -0.9915175048094168,
                -0.17403731107480058,
                0.5847334224178602
            ]
        },
        {
            "positions": [
                -0.39540245455603756,
                -1.5648767355986648,
                1.229236582861251,
                -0.9680088998339462,
                -0.1499092349143744,
                0.7834608736886073
            ]
        },
        {
            "positions": [
                -0.3600178008200259,
                -1.5283952137748806,
                1.301517822877201,
                -0.9445002948584758,
                -0.12578115875394824,
                0.9821883249593544
            ]
        },
        {
            "positions": [
                -0.3246331470840141,
                -1.4919136919510962,
                1.3737990628931513,
                -0.9209916898830053,
                -0.10165308259352207,
                1.1809157762301015
            ]
        },
        {
            "positions": [
                -0.28924849334800234,
                -1.455432170127312,
                1.4460803029091016,
                -0.8974830849075348,
                -0.07752500643309593,
                1.3796432275008486
            ]
        },
        {
            "positions": [
                -0.25386383961199055,
                -1.418950648303528,
                1.5183615429250517,
                -0.8739744799320642,
                -0.05339693027266973,
                1.5783706787715959
            ]
        },
        {
            "positions": [
                -0.2184791858759788,
                -1.3824691264797435,
                1.5906427829410017,
                -0.8504658749565938,
                -0.029268854112243586,
                1.7770981300423427
            ]
        },
        {
            "positions": [
                -0.18309453213996713,
                -1.3459876046559593,
                1.6629240229569517,
                -0.8269572699811233,
                -0.0051407779518174435,
                1.9758255813130896
            ]
        },
        {
            "positions": [
                -0.14770987840395539,
                -1.3095060828321752,
                1.735205262972902,
                -0.8034486650056527,
                0.018987298208608727,
                2.174553032583837
            ]
        },
        {
            "positions": [
                -0.11232522466794359,
                -1.2730245610083908,
                1.8074865029888523,
                -0.7799400600301822,
                0.0431153743690349,
                2.3732804838545842
            ]
        },
        {
            "positions": [
                -0.07694057093193182,
                -1.2365430391846066,
                1.8797677430048023,
                -0.7564314550547118,
                0.06724345052946108,
                2.572007935125331
            ]
        },
        {
            "positions": [
                -0.010473087905128589,
                -1.2021747609021198,
                1.9061215132252536,
                -0.7443342491265544,
                0.0896389191168844,
                2.725736152555637
            ]
        },
        {
            "positions": [
                0.055994395121674645,
                -1.167806482619633,
                1.932475283445705,
                -0.732237043198397,
                0.11203438770430774,
                2.879464369985943
            ]
        },
        {
            "positions": [
                0.12246187814847788,
                -1.1334382043371463,
                1.9588290536661563,
                -0.7201398372702397,
                0.13442985629173107,
                3.0331925874162486
            ]
        }
    ]
}