{
    "goal": {
        "global_pose": {
            "orientation": {
                "w": -0.4816463035849501,
                "x": 0.5182115481033762,
                "y": 0.4908360881923453,
                "z": -0.5084816262002911
            },
            "position": {
                "x": -0.8240239810943604,
                "y": 0.19912469901144506,
                "z": 0.16403168439865112
            }
        },
        "name": "move_to_storage_D"
    },
    "id": "BKPIECE_move_to_storage_D_83",
    "joint_names": [
        "shoulder_pan_joint",
        "shoulder_lift_joint",
        "elbow_joint",
        "wrist_1_joint",
        "wrist_2_joint",
        "wrist_3_joint"
    ],
    "metrics": {
        "cart_traj_len": 3.999056548342726,
        "distance_elbow_joint": 4.252484201293863,
        "distance_shoulder_lift_joint": 1.2635733785939736,
        "distance_shoulder_pan_joint": 2.8135009219159857,
        "distance_wrist_1_joint": 3.0080933474379634,
        "distance_wrist_2_joint": 2.1874176616080185,
        "distance_wrist_3_joint": 3.143678636585687,
        "smoothness": 0.2708806769921335,
        "time": 0.448805753,
        "traj_len": 4.082737824969354,
        "weighted_distance": 5.305809686527857
    },
    "planner": "BKPIECE",
    "start": {
        "state": {
            "elbow_joint": -2.384821988534728,
            "shoulder_lift_joint": -2.2788054721415256,
            "shoulder_pan_joint": -0.1854694642142757,
            "wrist_1_joint": 1.4845938289331202,
            "wrist_2_joint": 0.17898776772866878,
            "wrist_3_joint": 0.037105688729662994
        }
    },
    "waypoints": [
        {
            "positions": [
                -0.1854694642142757,
                -2.2788054721415256,
                -2.384821988534728,
                1.4845938289331202,
                0.17898776772866878,
                0.037105688729662994
            ]
        },
        {
            "positions": [
                -0.157656863789001,
                -2.2583693670682763,
                -2.38920356461454,
                1.4596844219629879,
                0.16355707735873537,
                0.06457957633544248
            ]
        },
        {
            "positions": [
                -0.08265311592682582,
                -2.241178826520739,
                -2.2716001836715694,
                1.3868535998531208,
                0.2062076212965625,
                0.1290283662864849
            ]
        },
        {
            "positions": [
                -0.007649368064650636,
                -2.223988285973202,
                -2.153996802728599,
                1.314022777743254,
                0.24885816523438967,
                0.19347715623752734
            ]
        },
        {
            "positions": [
                0.06735437979752457,
                -2.2067977454256646,
                -2.036393421785628,
                1.241191955633387,
                0.29150870917221683,
                0.2579259461885698
            ]
        },
        {
            "positions": [
                0.14235812765969974,
                -2.1896072048781274,
                -1.9187900408426575,
                1.16836113352352,
                0.33415925311004396,
                0.3223747361396122
            ]
        },
        {
            "positions": [
                0.21736187552187497,
                -2.1724166643305898,
                -1.8011866598996866,
                1.095530311413653,
                0.37680979704787115,
                0.3868235260906546
            ]
        },
        {
            "positions": [
                0.29236562338405014,
                -2.1552261237830526,
                -1.683583278956716,
                1.0226994893037862,
                0.4194603409856983,
                0.45127231604169704
            ]
        },
        {
            "positions": [
                0.3673693712462254,
                -2.1380355832355153,
                -1.5659798980137452,
                0.9498686671939192,
                0.4621108849235254,
                0.5157211059927396
            ]
        },
        {
            "positions": [
                0.4423731191084005,
                -2.120845042687978,
                -1.4483765170707747,
                0.8770378450840522,
                0.5047614288613526,
                0.580169895943782
            ]
        },
        {
            "positions": [
                0.5173768669705757,
                -2.103654502140441,
                -1.330773136127804,
                0.8042070229741852,
                0.5474119727991797,
                0.6446186858948244
            ]
        },
        {
            "positions": [
                0.592380614832751,
                -2.0864639615929037,
                -1.213169755184833,
                0.7313762008643182,
                0.5900625167370069,
                0.7090674758458668
            ]
        },
        {
            "positions": [
                0.6673843626949262,
                -2.0692734210453665,
                -1.0955663742418624,
                0.6585453787544513,
                0.6327130606748341,
                0.7735162657969092
            ]
        },
        {
            "positions": [
                0.7423881105571013,
                -2.052082880497829,
                -0.9779629932988918,
                0.5857145566445844,
                0.6753636046126612,
                0.8379650557479517
            ]
        },
        {
            "positions": [
                0.8173918584192765,
                -2.0348923399502916,
                -0.8603596123559212,
                0.5128837345347174,
                0.7180141485504884,
                0.9024138456989941
            ]
        },
        {
            "positions": [
                0.8923956062814518,
                -2.0177017994027544,
                -0.7427562314129503,
                0.44005291242485045,
                0.7606646924883155,
                0.9668626356500365
            ]
        },
        {
            "positions": [
                0.967399354143627,
                -2.000511258855217,
                -0.6251528504699797,
                0.36722209031498343,
                0.8033152364261427,
                1.031311425601079
            ]
        },
        {
            "positions": [
                1.042403102005802,
                -1.98332071830768,
                -0.5075494695270091,
                0.29439126820511663,
                0.8459657803639697,
                1.0957602155521213
            ]
        },
        {
            "positions": [
                1.1174068498679772,
                -1.9661301777601428,
                -0.38994608858403845,
                0.2215604460952496,
                0.8886163243017969,
                1.1602090055031637
            ]
        },
        {
            "positions": [
                1.1924105977301525,
                -1.9489396372126055,
                -0.2723427076410676,
                0.1487296239853826,
                0.9312668682396241,
                1.2246577954542062
            ]
        },
        {
            "positions": [
                1.2674143455923277,
                -1.931749096665068,
                -0.15473932669809676,
                0.07589880187551556,
                0.9739174121774513,
                1.2891065854052486
            ]
        },
        {
            "positions": [
                1.342418093454503,
                -1.914558556117531,
                -0.03713594575512591,
                0.003067979765648543,
                1.0165679561152785,
                1.353555375356291
            ]
        },
        {
            "positions": [
                1.4174218413166781,
                -1.8973680155699937,
                0.0804674351878445,
                -0.06976284234421848,
                1.0592185000531056,
                1.4180041653073336
            ]
        },
        {
            "positions": [
                1.4924255891788534,
                -1.8801774750224562,
                0.19807081613081534,
                -0.14259366445408528,
                1.1018690439909329,
                1.482452955258376
            ]
        },
        {
            "positions": [
                1.5674293370410284,
                -1.862986934474919,
                0.31567419707378575,
                -0.21542448656395208,
                1.1445195879287597,
                1.5469017452094183
            ]
        },
        {
            "positions": [
                1.6424330849032036,
                -1.8457963939273818,
                0.4332775780167566,
                -0.2882553086738191,
                1.187170131866587,
                1.6113505351604607
            ]
        },
        {
            "positions": [
                1.7174368327653788,
                -1.8286058533798446,
                0.550880958959727,
                -0.3610861307836861,
                1.2298206758044141,
                1.675799325111503
            ]
        },
        {
            "positions": [
                1.792440580627554,
                -1.8114153128323074,
                0.6684843399026978,
                -0.43391695289355314,
                1.2724712197422414,
                1.7402481150625455
            ]
        },
        {
            "positions": [
                1.867444328489729,
                -1.79422477228477,
                0.7860877208456687,
                -0.5067477750034199,
                1.3151217636800685,
                1.8046969050135881
            ]
        },
        {
            "positions": [
                1.9424480763519045,
                -1.7770342317372327,
                0.9036911017886395,
                -0.579578597113287,
                1.3577723076178956,
                1.8691456949646306
            ]
        },
        {
            "positions": [
                2.0174518242140795,
                -1.7598436911896955,
                1.0212944827316104,
                -0.652409419223154,
                1.4004228515557229,
                1.933594484915673
            ]
        },
        {
            "positions": [
                2.092455572076255,
                -1.742653150642158,
                1.1388978636745808,
                -0.725240241333021,
                1.44307339549355,
                1.9980432748667154
            ]
        },
        {
            "positions": [
                2.16745931993843,
                -1.7254626100946209,
                1.2565012446175516,
                -0.798071063442888,
                1.4857239394313773,
                2.062492064817758
            ]
        },
        {
            "positions": [
                2.242463067800605,
                -1.7082720695470837,
                1.374104625560522,
                -0.8709018855527546,
                1.5283744833692041,
                2.1269408547688005
            ]
        },
        {
            "positions": [
                2.3174668156627805,
                -1.6910815289995464,
                1.491708006503493,
                -0.9437327076626216,
                1.5710250273070314,
                2.191389644719843
            ]
        },
        {
            "positions": [
                2.3924705635249555,
                -1.6738909884520092,
                1.6093113874464633,
                -1.0165635297724886,
                1.6136755712448585,
                2.2558384346708853
            ]
        },
        {
            "positions": [
                2.467474311387131,
                -1.656700447904472,
                1.7269147683894346,
                -1.0893943518823557,
                1.6563261151826858,
                2.3202872246219277
            ]
        },
        {
            "positions": [
                2.542478059249306,
                -1.6395099073569346,
                1.8445181493324054,
                -1.1622251739922227,
                1.6989766591205129,
                2.38473601457297
            ]
        },
        {
            "positions": [
                2.554699973313935,
                -1.5503273625270229,
                1.8424637334371048,
                -1.1106145533475626,
                1.6080384606238975,
                2.4984572018218816
            ]
        },
        {
            "positions": [
                2.566921887378564,
                -1.461144817697111,
                1.840409317541804,
                -1.0590039327029026,
                1.5171002621272822,
                2.612178389070793
            ]
        },
        {
            "positions": [
                2.5791438014431933,
                -1.3719622728671992,
                1.8383549016465033,
                -1.0073933120582428,
                1.4261620636306669,
                2.725899576319704
            ]
        },
        {
            "positions": [
                2.5913657155078225,
                -1.2827797280372875,
                1.8363004857512024,
                -0.9557826914135826,
                1.3352238651340516,
                2.8396207635686155
            ]
        },
        {
            "positions": [
                2.6035876295724516,
                -1.1935971832073755,
                1.8342460698559018,
                -0.9041720707689227,
                1.244285666637436,
                2.953341950817527
            ]
        },
        {
            "positions": [
                2.6158095436370807,
                -1.104414638377464,
                1.832191653960601,
                -0.8525614501242627,
                1.153347468140821,
                3.0670631380664384
            ]
        },
        {
            "positions": [
                2.62803145770171,
                -1.015232093547552,
                1.8301372380653003,
                -0.8009508294796026,
                1.0624092696442053,
                3.18078432531535
            ]
        }
    ]
}