{
    "goal": {
        "global_pose": {
            "orientation": {
                "w": 0.7047431493862688,
                "x": -0.7094548369677653,
                "y": 0.0024358444001904,
                "z": -0.0022348060817251984
            },
            "position": {
                "x": -0.39052492380142206,
                "y": 0.3671506643295288,
                "z": 0.19426114857196808
            }
        },
        "name": "move_to_magneteinheit_D"
    },
    "id": "BKPIECE_move_to_magneteinheit_D_75",
    "joint_names": [
        "shoulder_pan_joint",
        "shoulder_lift_joint",
        "elbow_joint",
        "wrist_1_joint",
        "wrist_2_joint",
        "wrist_3_joint"
    ],
    "metrics": {
        "cart_traj_len": 4.279696959442013,
        "distance_elbow_joint": 3.438495184734221,
        "distance_shoulder_lift_joint": 1.6254318195806328,
        "distance_shoulder_pan_joint": 2.935149909557036,
        "distance_wrist_1_joint": 1.522879902003178,
        "distance_wrist_2_joint": 0.3371155606088697,
        "distance_wrist_3_joint": 3.7108232689995186,
        "smoothness": 0.2744080356811943,
        "time": 0.22602638399999997,
        "traj_len": 3.6837339270750076,
        "weighted_distance": 4.780328194391525
    },
    "planner": "BKPIECE",
    "start": {
        "state": {
            "elbow_joint": 0.749534889911806,
            "shoulder_lift_joint": -0.6476975780787326,
            "shoulder_pan_joint": -2.711696901376241,
            "wrist_1_joint": -0.07506478083263063,
            "wrist_2_joint": 0.43296659715538205,
            "wrist_3_joint": -3.14703540197715
        }
    },
    "waypoints": [
        {
            "positions": [
                -2.711696901376241,
                -0.6476975780787326,
                0.749534889911806,
                -0.07506478083263063,
                0.43296659715538205,
                -3.14703540197715
            ]
        },
        {
            "positions": [
                -2.7318160150465123,
                -0.7179665497898212,
                0.8083476129508638,
                -0.03701839186784478,
                0.45051768531498215,
                -2.975441954733075
            ]
        },
        {
            "positions": [
                -2.7519351287167835,
                -0.7882355215009098,
                0.8671603359899215,
                0.001027997096941063,
                0.46806877347458226,
                -2.8038485074889996
            ]
        },
        {
            "positions": [
                -2.7291897110546848,
                -0.8367230471375808,
                0.8817942506262728,
                0.03438788512154621,
                0.47263022192673754,
                -2.6334727141170733
            ]
        },
        {
            "positions": [
                -2.706444293392586,
                -0.8852105727742517,
                0.8964281652626243,
                0.06774777314615137,
                0.4771916703788929,
                -2.4630969207451474
            ]
        },
        {
            "positions": [
                -2.6058985287113687,
                -0.9252654111705841,
                0.8038641278391149,
                0.10181761612331469,
                0.4669859879735979,
                -2.355973290281742
            ]
        },
        {
            "positions": [
                -2.505352764030152,
                -0.9653202495669165,
                0.7113000904156054,
                0.135887459100478,
                0.45678030556830296,
                -2.248849659818336
            ]
        },
        {
            "positions": [
                -2.4048069993489345,
                -1.005375087963249,
                0.618736052992096,
                0.16995730207764131,
                0.446574623163008,
                -2.1417260293549303
            ]
        },
        {
            "positions": [
                -2.3042612346677176,
                -1.0454299263595814,
                0.5261720155685865,
                0.20402714505480463,
                0.43636894075771304,
                -2.0346023988915247
            ]
        },
        {
            "positions": [
                -2.2037154699865003,
                -1.0854847647559138,
                0.4336079781450771,
                0.23809698803196794,
                0.4261632583524181,
                -1.927478768428119
            ]
        },
        {
            "positions": [
                -2.103169705305283,
                -1.1255396031522462,
                0.34104394072156763,
                0.27216683100913125,
                0.4159575759471231,
                -1.8203551379647132
            ]
        },
        {
            "positions": [
                -2.002623940624066,
                -1.1655944415485786,
                0.24847990329805836,
                0.30623667398629456,
                0.40575189354182817,
                -1.7132315075013076
            ]
        },
        {
            "positions": [
                -1.9020781759428487,
                -1.205649279944911,
                0.15591586587454886,
                0.34030651696345793,
                0.3955462111365332,
                -1.606107877037902
            ]
        },
        {
            "positions": [
                -1.8015324112616315,
                -1.2457041183412434,
                0.06335182845103948,
                0.37437635994062124,
                0.38534052873123825,
                -1.4989842465744965
            ]
        },
        {
            "positions": [
                -1.7009866465804142,
                -1.2857589567375758,
                -0.02921220897247001,
                0.40844620291778455,
                0.3751348463259433,
                -1.3918606161110905
            ]
        },
        {
            "positions": [
                -1.6004408818991973,
                -1.3258137951339082,
                -0.1217762463959795,
                0.44251604589494786,
                0.36492916392064834,
                -1.284736985647685
            ]
        },
        {
            "positions": [
                -1.49989511721798,
                -1.3658686335302406,
                -0.214340283819489,
                0.4765858888721112,
                0.3547234815153534,
                -1.1776133551842791
            ]
        },
        {
            "positions": [
                -1.3993493525367628,
                -1.405923471926573,
                -0.30690432124299827,
                0.5106557318492745,
                0.3445177991100584,
                -1.0704897247208736
            ]
        },
        {
            "positions": [
                -1.2988035878555457,
                -1.4459783103229054,
                -0.39946835866650754,
                0.5447255748264378,
                0.33431211670476346,
                -0.963366094257468
            ]
        },
        {
            "positions": [
                -1.1982578231743286,
                -1.4860331487192378,
                -0.49203239609001703,
                0.578795417803601,
                0.3241064342994685,
                -0.8562424637940624
            ]
        },
        {
            "positions": [
                -1.0977120584931113,
                -1.5260879871155701,
                -0.5845964335135265,
                0.6128652607807644,
                0.31390075189417355,
                -0.7491188333306564
            ]
        },
        {
            "positions": [
                -0.9971662938118941,
                -1.5661428255119025,
                -0.677160470937036,
                0.6469351037579277,
                0.3036950694888786,
                -0.6419952028672509
            ]
        },
        {
            "positions": [
                -0.896620529130677,
                -1.606197663908235,
                -0.7697245083605453,
                0.681004946735091,
                0.29348938708358363,
                -0.5348715724038453
            ]
        },
        {
            "positions": [
                -0.7960747644494599,
                -1.6462525023045673,
                -0.8622885457840548,
                0.7150747897122542,
                0.2832837046782887,
                -0.4277479419404395
            ]
        },
        {
            "positions": [
                -0.6955289997682423,
                -1.6863073407008997,
                -0.9548525832075643,
                0.7491446326894177,
                0.2730780222729937,
                -0.3206243114770335
            ]
        },
        {
            "positions": [
                -0.5949832350870254,
                -1.726362179097232,
                -1.0474166206310738,
                0.783214475666581,
                0.26287233986769876,
                -0.21350068101362796
            ]
        },
        {
            "positions": [
                -0.49443747040580854,
                -1.7664170174935645,
                -1.1399806580545833,
                0.8172843186437443,
                0.2526666574624038,
                -0.1063770505502224
            ]
        },
        {
            "positions": [
                -0.3938917057245912,
                -1.806471855889897,
                -1.2325446954780923,
                0.8513541616209076,
                0.24246097505710884,
                0.0007465799131831652
            ]
        },
        {
            "positions": [
                -0.29334594104337386,
                -1.8465266942862293,
                -1.3251087329016022,
                0.8854240045980709,
                0.23225529265181388,
                0.10787021037658917
            ]
        },
        {
            "positions": [
                -0.19280017636215652,
                -1.8865815326825617,
                -1.4176727703251113,
                0.9194938475752342,
                0.22204961024651892,
                0.21499384083999473
            ]
        },
        {
            "positions": [
                -0.09225441168093979,
                -1.926636371078894,
                -1.5102368077486206,
                0.9535636905523975,
                0.211843927841224,
                0.3221174713034003
            ]
        },
        {
            "positions": [
                -0.07452444710956319,
                -1.988668243503129,
                -1.6604523590317177,
                1.0317283872108949,
                0.2065547767343133,
                0.267200862724841
            ]
        },
        {
            "positions": [
                -0.056794482538186586,
                -2.050700115927364,
                -1.810667910314815,
                1.1098930838693923,
                0.20126562562740263,
                0.21228425414628177
            ]
        },
        {
            "positions": [
                -0.039064517966809986,
                -2.112731988351599,
                -1.9608834615979123,
                1.1880577805278898,
                0.19597647452049194,
                0.1573676455677225
            ]
        },
        {
            "positions": [
                -0.021334553395433387,
                -2.174763860775834,
                -2.1110990128810094,
                1.2662224771863873,
                0.19068732341358124,
                0.10245103698916326
            ]
        },
        {
            "positions": [
                -0.10349010684300476,
                -2.2239466292175996,
                -2.253136378500894,
                1.3570187991784675,
                0.18749425320355761,
                0.09144905628679764
            ]
        },
        {
            "positions": [
                -0.18564566029057614,
                -2.2731293976593654,
                -2.3951737441207785,
                1.4478151211705474,
                0.18430118299353399,
                0.08044707558443201
            ]
        }
    ]
}