{
    "goal": {
        "global_pose": {
            "orientation": {
                "w": 0.5084816217422485,
                "x": -0.49083608388900757,
                "y": 0.5182115435600281,
                "z": -0.4816462993621826
            },
            "position": {
                "x": 0.5540239810943604,
                "y": 0.030875300988554955,
                "z": 0.16403168439865112
            }
        },
        "name": "move_to_storage_A"
    },
    "id": "BKPIECE_move_to_storage_A_129",
    "joint_names": [
        "shoulder_pan_joint",
        "shoulder_lift_joint",
        "elbow_joint",
        "wrist_1_joint",
        "wrist_2_joint",
        "wrist_3_joint"
    ],
    "metrics": {
        "cart_traj_len": 0.35292081392761265,
        "distance_elbow_joint": 0.45152050068985994,
        "distance_shoulder_lift_joint": 0.23558454330370937,
        "distance_shoulder_pan_joint": 0.46322179418651477,
        "distance_wrist_1_joint": 0.24771439222638592,
        "distance_wrist_2_joint": 1.091777808920732,
        "distance_wrist_3_joint": 0.09146402149566812,
        "smoothness": 0.0,
        "time": 0.249913371,
        "traj_len": 1.606637190165493,
        "weighted_distance": 2.025759932707063
    },
    "planner": "BKPIECE",
    "start": {
        "state": {
            "elbow_joint": 1.971548259319323,
            "shoulder_lift_joint": -1.1394851275133948,
            "shoulder_pan_joint": 0.1228115487234821,
            "wrist_1_joint": -0.7804723859257726,
            "wrist_2_joint": 0.12958671773740124,
            "wrist_3_joint": -3.192489227718131
        }
    },
    "waypoints": [
        {
            "positions": [
                0.1228115487234821,
                -1.1394851275133948,
                1.971548259319323,
                -0.7804723859257726,
                0.12958671773740124,
                -3.192489227718131
            ]
        },
        {
            "positions": [
                0.05663700669683713,
                -1.1731400622710675,
                2.036051187989303,
                -0.8158601562438278,
                0.28555497615464864,
                -3.1794229389330355
            ]
        },
        {
            "positions": [
                -0.009537535329807834,
                -1.2067949970287404,
                2.100554116659283,
                -0.8512479265618829,
                0.441523234571896,
                -3.1663566501479403
            ]
        },
        {
            "positions": [
                -0.0757120773564528,
                -1.240449931786413,
                2.165057045329263,
                -0.886635696879938,
                0.5974914929891435,
                -3.1532903613628447
            ]
        },
        {
            "positions": [
                -0.14188661938309777,
                -1.274104866544086,
                2.229559973999243,
                -0.9220234671979931,
                0.7534597514063909,
                -3.1402240725777495
            ]
        },
        {
            "positions": [
                -0.20806116140974273,
                -1.3077598013017586,
                2.294062902669223,
                -0.9574112375160483,
                0.9094280098236384,
                -3.127157783792654
            ]
        },
        {
            "positions": [
                -0.2742357034363877,
                -1.3414147360594315,
                2.358565831339203,
                -0.9927990078341034,
                1.0653962682408857,
                -3.1140914950075587
            ]
        },
        {
            "positions": [
                -0.34041024546303267,
                -1.3750696708171042,
                2.423068760009183,
                -1.0281867781521585,
                1.2213645266581332,
                -3.101025206222463
            ]
        }
    ]
}{
    "goal": {
        "global_pose": {
            "orientation": {
                "w": 0.5084816217422485,
                "x": -0.49083608388900757,
                "y": 0.5182115435600281,
                "z": -0.4816462993621826
            },
            "position": {
                "x": 0.5540239810943604,
                "y": 0.030875300988554955,
                "z": 0.16403168439865112
            }
        },
        "name": "move_to_storage_A"
    },
    "id": "BKPIECE_move_to_storage_A_129",
    "joint_names": [
        "shoulder_pan_joint",
        "shoulder_lift_joint",
        "elbow_joint",
        "wrist_1_joint",
        "wrist_2_joint",
        "wrist_3_joint"
    ],
    "metrics": {
        "cart_traj_len": 0.3534146277514034,
        "distance_elbow_joint": 0.4520928985367374,
        "distance_shoulder_lift_joint": 0.23323255345437088,
        "distance_shoulder_pan_joint": 0.4605523947805762,
        "distance_wrist_1_joint": 0.26050184234002893,
        "distance_wrist_2_joint": 1.1052450720042155,
        "distance_wrist_3_joint": 0.09507841555926788,
        "smoothness": 0.0,
        "time": 0.23923033999999999,
        "traj_len": 1.6145287785218314,
        "weighted_distance": 2.0402467797151345
    },
    "planner": "BKPIECE",
    "start": {
        "state": {
            "elbow_joint": 1.97154746011099,
            "shoulder_lift_joint": -1.13948474672311,
            "shoulder_pan_joint": 0.12281154466712228,
            "wrist_1_joint": -0.7804688027058302,
            "wrist_2_joint": 0.12958655903071145,
            "wrist_3_joint": 3.0906928834467795
        }
    },
    "waypoints": [
        {
            "positions": [
                0.12281154466712228,
                -1.13948474672311,
                1.97154746011099,
                -0.7804688027058302,
                0.12958655903071145,
                3.0906928834467795
            ]
        },
        {
            "positions": [
                0.05701834541275426,
                -1.1728036829308772,
                2.0361321599019524,
                -0.8176833516115486,
                0.2874787121741708,
                3.104275514240961
            ]
        },
        {
            "positions": [
                -0.008774853841613764,
                -1.2061226191386445,
                2.100716859692915,
                -0.854897900517267,
                0.44537086531763015,
                3.1178581450351417
            ]
        },
        {
            "positions": [
                -0.07456805309598179,
                -1.2394415553464118,
                2.1653015594838774,
                -0.8921124494229854,
                0.6032630184610895,
                3.131440775829323
            ]
        },
        {
            "positions": [
                -0.1403612523503498,
                -1.272760491554179,
                2.22988625927484,
                -0.9293269983287038,
                0.7611551716045489,
                3.145023406623504
            ]
        },
        {
            "positions": [
                -0.20615445160471785,
                -1.3060794277619463,
                2.2944709590658023,
                -0.9665415472344223,
                0.9190473247480083,
                3.158606037417685
            ]
        },
        {
            "positions": [
                -0.27194765085908584,
                -1.3393983639697136,
                2.359055658856765,
                -1.0037560961401406,
                1.0769394778914676,
                3.172188668211866
            ]
        },
        {
            "positions": [
                -0.3377408501134539,
                -1.3727173001774808,
                2.4236403586477273,
                -1.0409706450458591,
                1.234831631034927,
                3.1857712990060474
            ]
        }
    ]
}{
    "goal": {
        "global_pose": {
            "orientation": {
                "w": 0.5084816217422485,
                "x": -0.49083608388900757,
                "y": 0.5182115435600281,
                "z": -0.4816462993621826
            },
            "position": {
                "x": 0.5540239810943604,
                "y": 0.030875300988554955,
                "z": 0.16403168439865112
            }
        },
        "name": "move_to_storage_A"
    },
    "id": "BKPIECE_move_to_storage_A_129",
    "joint_names": [
        "shoulder_pan_joint",
        "shoulder_lift_joint",
        "elbow_joint",
        "wrist_1_joint",
        "wrist_2_joint",
        "wrist_3_joint"
    ],
    "metrics": {
        "cart_traj_len": 0.35267347267550087,
        "distance_elbow_joint": 0.4515655387358257,
        "distance_shoulder_lift_joint": 0.2326582931620591,
        "distance_shoulder_pan_joint": 0.46105638272964844,
        "distance_wrist_1_joint": 0.2562454330771835,
        "distance_wrist_2_joint": 1.097447611449748,
        "distance_wrist_3_joint": 0.10403551903316277,
        "smoothness": 8.881784197001252e-16,
        "time": 0.106297512,
        "traj_len": 1.6133842624085644,
        "weighted_distance": 2.0407775137875475
    },
    "planner": "BKPIECE",
    "start": {
        "state": {
            "elbow_joint": 1.9715472970024885,
            "shoulder_lift_joint": -1.1394870060712896,
            "shoulder_pan_joint": 0.12281152778156021,
            "wrist_1_joint": -0.780463741449964,
            "wrist_2_joint": 0.12958659822042276,
            "wrist_3_joint": 3.090690232415272
        }
    },
    "waypoints": [
        {
            "positions": [
                0.12281152778156021,
                -1.1394870060712896,
                1.9715472970024885,
                -0.780463741449964,
                0.12958659822042276,
                3.090690232415272
            ]
        },
        {
            "positions": [
                0.0569463302487533,
                -1.172723905094441,
                2.0360566596790353,
                -0.8170702318895616,
                0.28636482842752964,
                3.1055524494200095
            ]
        },
        {
            "positions": [
                -0.008918867284053611,
                -1.2059608041175922,
                2.1005660223555815,
                -0.8536767223291593,
                0.44314305863463643,
                3.1204146664247467
            ]
        },
        {
            "positions": [
                -0.07478406481686053,
                -1.2391977031407435,
                2.1650753850321283,
                -0.8902832127687569,
                0.5999212888417433,
                3.1352768834294844
            ]
        },
        {
            "positions": [
                -0.14064926234966743,
                -1.2724346021638948,
                2.2295847477086745,
                -0.9268897032083545,
                0.7566995190488501,
                3.150139100434222
            ]
        },
        {
            "positions": [
                -0.20651445988247438,
                -1.3056715011870461,
                2.2940941103852213,
                -0.9634961936479522,
                0.913477749255957,
                3.1650013174389597
            ]
        },
        {
            "positions": [
                -0.27237965741528125,
                -1.3389084002101974,
                2.3586034730617675,
                -1.0001026840875498,
                1.070255979463064,
                3.179863534443697
            ]
        },
        {
            "positions": [
                -0.3382448549480882,
                -1.3721452992333487,
                2.4231128357383143,
                -1.0367091745271475,
                1.2270342096701707,
                3.1947257514484346
            ]
        }
    ]
}