{
    "goal": {
        "global_pose": {
            "orientation": {
                "w": 0.005598929693374612,
                "x": 0.007748599140229565,
                "y": 0.7110244013736278,
                "z": -0.7031023480610252
            },
            "position": {
                "x": 0.1141497679147869,
                "y": -0.7141253447532654,
                "z": 0.3711530566215515
            }
        },
        "name": "move_to_auspresseinheit_B"
    },
    "id": "BKPIECE_move_to_auspresseinheit_B_6",
    "joint_names": [
        "shoulder_pan_joint",
        "shoulder_lift_joint",
        "elbow_joint",
        "wrist_1_joint",
        "wrist_2_joint",
        "wrist_3_joint"
    ],
    "metrics": {
        "cart_traj_len": 0.5650056250853129,
        "distance_elbow_joint": 0.06460357136812389,
        "distance_shoulder_lift_joint": 0.2946458968280441,
        "distance_shoulder_pan_joint": 0.5747863960543382,
        "distance_wrist_1_joint": 0.3313087582472072,
        "distance_wrist_2_joint": 1.0058300695941222,
        "distance_wrist_3_joint": 0.008765461295012322,
        "smoothness": 0.0,
        "time": 0.18841555599999998,
        "traj_len": 1.5099470697302102,
        "weighted_distance": 1.906465290483465
    },
    "planner": "BKPIECE",
    "start": {
        "state": {
            "elbow_joint": 2.0193083361928714,
            "shoulder_lift_joint": -1.1220246554650708,
            "shoulder_pan_joint": -1.0952077554168747,
            "wrist_1_joint": -0.8559753972642168,
            "wrist_2_joint": 0.4759566250798843,
            "wrist_3_joint": -3.1240929996934557
        }
    },
    "waypoints": [
        {
            "positions": [
                -1.0952077554168747,
                -1.1220246554650708,
                2.0193083361928714,
                -0.8559753972642168,
                0.4759566250798843,
                -3.1240929996934557
            ]
        },
        {
            "positions": [
                -1.1910054880925978,
                -1.1711323049364115,
                2.008541074298184,
                -0.8007572708896823,
                0.643594970012238,
                -3.1226320894776203
            ]
        },
        {
            "positions": [
                -1.2868032207683207,
                -1.2202399544077522,
                1.9977738124034967,
                -0.7455391445151477,
                0.8112333149445916,
                -3.121171179261785
            ]
        },
        {
            "positions": [
                -1.3826009534440438,
                -1.2693476038790927,
                1.9870065505088095,
                -0.6903210181406132,
                0.9788716598769454,
                -3.1197102690459495
            ]
        },
        {
            "positions": [
                -1.4783986861197667,
                -1.3184552533504335,
                1.9762392886141222,
                -0.6351028917660787,
                1.146510004809299,
                -3.118249358830114
            ]
        },
        {
            "positions": [
                -1.57419641879549,
                -1.3675629028217742,
                1.9654720267194348,
                -0.5798847653915441,
                1.3141483497416528,
                -3.1167884486142787
            ]
        },
        {
            "positions": [
                -1.6699941514712129,
                -1.416670552293115,
                1.9547047648247475,
                -0.5246666390170096,
                1.4817866946740066,
                -3.1153275383984433
            ]
        }
    ]
}