{
    "goal": {
        "global_pose": {
            "orientation": {
                "w": 0.5084816217422485,
                "x": -0.49083608388900757,
                "y": 0.5182115435600281,
                "z": -0.4816462993621826
            },
            "position": {
                "x": 0.5540239810943604,
                "y": 0.030875300988554955,
                "z": 0.16403168439865112
            }
        },
        "name": "move_to_storage_A"
    },
    "id": "BKPIECE_move_to_storage_A_35",
    "joint_names": [
        "shoulder_pan_joint",
        "shoulder_lift_joint",
        "elbow_joint",
        "wrist_1_joint",
        "wrist_2_joint",
        "wrist_3_joint"
    ],
    "metrics": {
        "cart_traj_len": 0.35268477133058623,
        "distance_elbow_joint": 0.452007529586399,
        "distance_shoulder_lift_joint": 0.23339327460967318,
        "distance_shoulder_pan_joint": 0.4602015202608247,
        "distance_wrist_1_joint": 0.2546263051219603,
        "distance_wrist_2_joint": 1.101875589355991,
        "distance_wrist_3_joint": 0.10867655262514786,
        "smoothness": 1.998401446083499e-15,
        "time": 0.382841141,
        "traj_len": 1.615791066802882,
        "weighted_distance": 2.045638230794547
    },
    "planner": "BKPIECE",
    "start": {
        "state": {
            "elbow_joint": 1.971548259319323,
            "shoulder_lift_joint": -1.1394851275133948,
            "shoulder_pan_joint": 0.1228115487234821,
            "wrist_1_joint": -0.7804723859257726,
            "wrist_2_joint": 0.12958671773740124,
            "wrist_3_joint": -3.192489227718131
        }
    },
    "waypoints": [
        {
            "positions": [
                0.1228115487234821,
                -1.1394851275133948,
                1.971548259319323,
                -0.7804723859257726,
                0.12958671773740124,
                -3.192489227718131
            ]
        },
        {
            "positions": [
                0.05706847440050715,
                -1.1728270238862053,
                2.0361207635459513,
                -0.816847572371767,
                0.28699751621682856,
                -3.1769640059145385
            ]
        },
        {
            "positions": [
                -0.008674599922467802,
                -1.2061689202590158,
                2.10069326777258,
                -0.8532227588177612,
                0.44440831469625586,
                -3.161438784110946
            ]
        },
        {
            "positions": [
                -0.07441767424544277,
                -1.2395108166318263,
                2.1652657719992083,
                -0.8895979452637556,
                0.6018191131756832,
                -3.1459135623073533
            ]
        },
        {
            "positions": [
                -0.1401607485684177,
                -1.2728527130046365,
                2.229838276225837,
                -0.9259731317097499,
                0.7592299116551104,
                -3.130388340503761
            ]
        },
        {
            "positions": [
                -0.2059038228913927,
                -1.306194609377447,
                2.2944107804524654,
                -0.9623483181557442,
                0.9166407101345377,
                -3.1148631187001685
            ]
        },
        {
            "positions": [
                -0.27164689721436763,
                -1.3395365057502575,
                2.3589832846790935,
                -0.9987235046017385,
                1.074051508613965,
                -3.099337896896576
            ]
        },
        {
            "positions": [
                -0.3373899715373426,
                -1.372878402123068,
                2.423555788905722,
                -1.0350986910477329,
                1.2314623070933923,
                -3.0838126750929833
            ]
        }
    ]
}{
    "goal": {
        "global_pose": {
            "orientation": {
                "w": 0.5084816217422485,
                "x": -0.49083608388900757,
                "y": 0.5182115435600281,
                "z": -0.4816462993621826
            },
            "position": {
                "x": 0.5540239810943604,
                "y": 0.030875300988554955,
                "z": 0.16403168439865112
            }
        },
        "name": "move_to_storage_A"
    },
    "id": "BKPIECE_move_to_storage_A_35",
    "joint_names": [
        "shoulder_pan_joint",
        "shoulder_lift_joint",
        "elbow_joint",
        "wrist_1_joint",
        "wrist_2_joint",
        "wrist_3_joint"
    ],
    "metrics": {
        "cart_traj_len": 0.35302619500365295,
        "distance_elbow_joint": 0.4484845306703864,
        "distance_shoulder_lift_joint": 0.2361835417180913,
        "distance_shoulder_pan_joint": 0.46230901815800907,
        "distance_wrist_1_joint": 0.23721330974375898,
        "distance_wrist_2_joint": 1.0961789687223342,
        "distance_wrist_3_joint": 0.09878960614083487,
        "smoothness": 1.3322676295501878e-15,
        "time": 0.22975167200000002,
        "traj_len": 1.6059760194826742,
        "weighted_distance": 2.0273456700575703
    },
    "planner": "BKPIECE",
    "start": {
        "state": {
            "elbow_joint": 1.97154746011099,
            "shoulder_lift_joint": -1.13948474672311,
            "shoulder_pan_joint": 0.12281154466712228,
            "wrist_1_joint": -0.7804688027058302,
            "wrist_2_joint": 0.12958655903071145,
            "wrist_3_joint": 3.0906928834467795
        }
    },
    "waypoints": [
        {
            "positions": [
                0.12281154466712228,
                -1.13948474672311,
                1.97154746011099,
                -0.7804688027058302,
                0.12958655903071145,
                3.0906928834467795
            ]
        },
        {
            "positions": [
                0.056767399215978134,
                -1.1732252526828373,
                2.035616678778188,
                -0.81435641838351,
                0.28618355456247346,
                3.1048056843240417
            ]
        },
        {
            "positions": [
                -0.009276746235166014,
                -1.2069657586425646,
                2.099685897445386,
                -0.8482440340611899,
                0.44278055009423545,
                3.118918485201304
            ]
        },
        {
            "positions": [
                -0.07532089168631016,
                -1.240706264602292,
                2.163755116112584,
                -0.8821316497388697,
                0.5993775456259975,
                3.133031286078566
            ]
        },
        {
            "positions": [
                -0.1413650371374543,
                -1.2744467705620193,
                2.227824334779782,
                -0.9160192654165495,
                0.7559745411577595,
                3.147144086955828
            ]
        },
        {
            "positions": [
                -0.20740918258859847,
                -1.3081872765217466,
                2.29189355344698,
                -0.9499068810942295,
                0.9125715366895216,
                3.16125688783309
            ]
        },
        {
            "positions": [
                -0.2734533280397426,
                -1.341927782481474,
                2.3559627721141783,
                -0.9837944967719093,
                1.0691685322212836,
                3.175369688710352
            ]
        },
        {
            "positions": [
                -0.33949747349088677,
                -1.3756682884412013,
                2.4200319907813763,
                -1.0176821124495892,
                1.2257655277530457,
                3.1894824895876144
            ]
        }
    ]
}{
    "goal": {
        "global_pose": {
            "orientation": {
                "w": 0.5084816217422485,
                "x": -0.49083608388900757,
                "y": 0.5182115435600281,
                "z": -0.4816462993621826
            },
            "position": {
                "x": 0.5540239810943604,
                "y": 0.030875300988554955,
                "z": 0.16403168439865112
            }
        },
        "name": "move_to_storage_A"
    },
    "id": "BKPIECE_move_to_storage_A_35",
    "joint_names": [
        "shoulder_pan_joint",
        "shoulder_lift_joint",
        "elbow_joint",
        "wrist_1_joint",
        "wrist_2_joint",
        "wrist_3_joint"
    ],
    "metrics": {
        "cart_traj_len": 0.35227560671304986,
        "distance_elbow_joint": 0.4494623158895874,
        "distance_shoulder_lift_joint": 0.23520005111409237,
        "distance_shoulder_pan_joint": 0.46164400280498213,
        "distance_wrist_1_joint": 0.2409275918080358,
        "distance_wrist_2_joint": 1.0932104242824476,
        "distance_wrist_3_joint": 0.08931332541464965,
        "smoothness": 6.661338165333112e-16,
        "time": 0.209080794,
        "traj_len": 1.6030463846420024,
        "weighted_distance": 2.0205252728519825
    },
    "planner": "BKPIECE",
    "start": {
        "state": {
            "elbow_joint": 1.9715472970024885,
            "shoulder_lift_joint": -1.1394870060712896,
            "shoulder_pan_joint": 0.12281152778156021,
            "wrist_1_joint": -0.780463741449964,
            "wrist_2_joint": 0.12958659822042276,
            "wrist_3_joint": 3.090690232415272
        }
    },
    "waypoints": [
        {
            "positions": [
                0.12281152778156021,
                -1.1394870060712896,
                1.9715472970024885,
                -0.780463741449964,
                0.12958659822042276,
                3.090690232415272
            ]
        },
        {
            "positions": [
                0.056862384523705636,
                -1.173087013373303,
                2.03575619927243,
                -0.814881968851112,
                0.2857595159750581,
                3.1034492789030788
            ]
        },
        {
            "positions": [
                -0.009086758734148936,
                -1.206687020675316,
                2.0999651015423706,
                -0.8493001962522599,
                0.4419324337296935,
                3.116208325390886
            ]
        },
        {
            "positions": [
                -0.07503590199200352,
                -1.2402870279773293,
                2.164174003812312,
                -0.8837184236534079,
                0.5981053514843289,
                3.128967371878693
            ]
        },
        {
            "positions": [
                -0.14098504524985808,
                -1.2738870352793423,
                2.2283829060822526,
                -0.9181366510545559,
                0.7542782692389642,
                3.1417264183665004
            ]
        },
        {
            "positions": [
                -0.2069341885077127,
                -1.3074870425813556,
                2.292591808352194,
                -0.9525548784557039,
                0.9104511869935996,
                3.1544854648543073
            ]
        },
        {
            "positions": [
                -0.2728833317655672,
                -1.3410870498833687,
                2.3568007106221347,
                -0.9869731058568518,
                1.066624104748235,
                3.1672445113421146
            ]
        },
        {
            "positions": [
                -0.3388324750234219,
                -1.374687057185382,
                2.421009612892076,
                -1.0213913332579998,
                1.2227970225028704,
                3.1800035578299215
            ]
        }
    ]
}