{
    "goal": {
        "global_pose": {
            "orientation": {
                "w": 0.7031023480610252,
                "x": -0.7110244013736278,
                "y": 0.0077485991402295624,
                "z": 0.005598929693374583
            },
            "position": {
                "x": -0.8841497679147869,
                "y": 0.44412534475326537,
                "z": 0.3711530566215515
            }
        },
        "name": "move_to_auspresseinheit_D"
    },
    "id": "BKPIECE_move_to_auspresseinheit_D_11",
    "joint_names": [
        "shoulder_pan_joint",
        "shoulder_lift_joint",
        "elbow_joint",
        "wrist_1_joint",
        "wrist_2_joint",
        "wrist_3_joint"
    ],
    "metrics": {
        "cart_traj_len": 0.34376608020425836,
        "distance_elbow_joint": 0.6562234840500629,
        "distance_shoulder_lift_joint": 0.13073584416971595,
        "distance_shoulder_pan_joint": 0.1330387537243203,
        "distance_wrist_1_joint": 0.5899799306639117,
        "distance_wrist_2_joint": 1.4389703220424868,
        "distance_wrist_3_joint": 0.054526286952186975,
        "smoothness": 0.0,
        "time": 0.256042381,
        "traj_len": 1.7330535541646384,
        "weighted_distance": 2.2674826235747556
    },
    "planner": "BKPIECE",
    "start": {
        "state": {
            "elbow_joint": -1.8275523626775212,
            "shoulder_lift_joint": -2.126789852344167,
            "shoulder_pan_joint": -0.03513704404078235,
            "wrist_1_joint": -2.347782403156801,
            "wrist_2_joint": -1.6058999987535132,
            "wrist_3_joint": -3.0880379163319196
        }
    },
    "waypoints": [
        {
            "positions": [
                -0.03513704404078235,
                -2.126789852344167,
                -1.8275523626775212,
                -2.347782403156801,
                -1.6058999987535132,
                -3.0880379163319196
            ]
        },
        {
            "positions": [
                -0.05176688825632239,
                -2.1431318328653814,
                -1.7455244271712633,
                -2.42152989448979,
                -1.4260287084982024,
                -3.0812221304628964
            ]
        },
        {
            "positions": [
                -0.06839673247186243,
                -2.1594738133865956,
                -1.6634964916650055,
                -2.495277385822779,
                -1.2461574182428916,
                -3.0744063445938727
            ]
        },
        {
            "positions": [
                -0.08502657668740246,
                -2.17581579390781,
                -1.5814685561587476,
                -2.5690248771557678,
                -1.0662861279875806,
                -3.0675905587248495
            ]
        },
        {
            "positions": [
                -0.1016564209029425,
                -2.192157774429025,
                -1.4994406206524897,
                -2.6427723684887567,
                -0.8864148377322698,
                -3.060774772855826
            ]
        },
        {
            "positions": [
                -0.11828626511848253,
                -2.2084997549502394,
                -1.4174126851462319,
                -2.7165198598217457,
                -0.706543547476959,
                -3.0539589869868027
            ]
        },
        {
            "positions": [
                -0.1349161093340226,
                -2.224841735471454,
                -1.335384749639974,
                -2.7902673511547347,
                -0.526672257221648,
                -3.0471432011177795
            ]
        },
        {
            "positions": [
                -0.15154595354956263,
                -2.241183715992668,
                -1.2533568141337161,
                -2.8640148424877236,
                -0.3468009669663372,
                -3.040327415248756
            ]
        },
        {
            "positions": [
                -0.16817579776510266,
                -2.257525696513883,
                -1.1713288786274583,
                -2.9377623338207126,
                -0.16692967671102646,
                -3.0335116293797326
            ]
        }
    ]
}