{
    "goal": {
        "global_pose": {
            "orientation": {
                "w": 0.7047431493862688,
                "x": -0.7094548369677653,
                "y": 0.0024358444001904,
                "z": -0.0022348060817251984
            },
            "position": {
                "x": -0.39052492380142206,
                "y": 0.3671506643295288,
                "z": 0.19426114857196808
            }
        },
        "name": "move_to_magneteinheit_D"
    },
    "id": "BKPIECE_move_to_magneteinheit_D_3",
    "joint_names": [
        "shoulder_pan_joint",
        "shoulder_lift_joint",
        "elbow_joint",
        "wrist_1_joint",
        "wrist_2_joint",
        "wrist_3_joint"
    ],
    "metrics": {
        "cart_traj_len": 4.640018294921987,
        "distance_elbow_joint": 5.252627625903049,
        "distance_shoulder_lift_joint": 1.1890134572299125,
        "distance_shoulder_pan_joint": 3.085084565228965,
        "distance_wrist_1_joint": 3.912961058621716,
        "distance_wrist_2_joint": 1.906006792163845,
        "distance_wrist_3_joint": 7.442189775622168,
        "smoothness": 0.3813566254280807,
        "time": 0.38431409400000005,
        "traj_len": 4.773665601481699,
        "weighted_distance": 6.5947881449520045
    },
    "planner": "BKPIECE",
    "start": {
        "state": {
            "elbow_joint": 0.749534889911806,
            "shoulder_lift_joint": -0.6476975780787326,
            "shoulder_pan_joint": -2.711696901376241,
            "wrist_1_joint": -0.07506478083263063,
            "wrist_2_joint": 0.43296659715538205,
            "wrist_3_joint": -3.14703540197715
        }
    },
    "waypoints": [
        {
            "positions": [
                -2.711696901376241,
                -0.6476975780787326,
                0.749534889911806,
                -0.07506478083263063,
                0.43296659715538205,
                -3.14703540197715
            ]
        },
        {
            "positions": [
                -2.714478627234683,
                -0.6891865438791213,
                0.794096546231897,
                -0.03694201867697469,
                0.4601374048647186,
                -2.920191408448533
            ]
        },
        {
            "positions": [
                -2.717260353093125,
                -0.7306755096795099,
                0.8386582025519879,
                0.0011807434786812454,
                0.48730821257405516,
                -2.693347414919917
            ]
        },
        {
            "positions": [
                -2.7200420789515674,
                -0.7721644754798985,
                0.8832198588720789,
                0.03930350563433718,
                0.5144790202833917,
                -2.4665034213913
            ]
        },
        {
            "positions": [
                -2.7228238048100093,
                -0.8136534412802872,
                0.9277815151921698,
                0.07742626778999312,
                0.5416498279927282,
                -2.2396594278626836
            ]
        },
        {
            "positions": [
                -2.7256055306684512,
                -0.8551424070806759,
                0.9723431715122608,
                0.11554902994564906,
                0.5688206357020648,
                -2.0128154343340667
            ]
        },
        {
            "positions": [
                -2.7283872565268936,
                -0.8966313728810644,
                1.0169048278323518,
                0.153671792101305,
                0.5959914434114013,
                -1.7859714408054501
            ]
        },
        {
            "positions": [
                -2.7311689823853356,
                -0.9381203386814532,
                1.0614664841524428,
                0.19179455425696096,
                0.6231622511207379,
                -1.5591274472768333
            ]
        },
        {
            "positions": [
                -2.7339507082437775,
                -0.9796093044818417,
                1.1060281404725336,
                0.22991731641261687,
                0.6503330588300744,
                -1.3322834537482169
            ]
        },
        {
            "positions": [
                -2.7367324341022194,
                -1.0210982702822304,
                1.1505897967926246,
                0.2680400785682728,
                0.677503866539411,
                -1.1054394602196003
            ]
        },
        {
            "positions": [
                -2.7395141599606614,
                -1.062587236082619,
                1.1951514531127156,
                0.30616284072392874,
                0.7046746742487475,
                -0.8785954666909834
            ]
        },
        {
            "positions": [
                -2.7422958858191038,
                -1.1040762018830077,
                1.2397131094328064,
                0.34428560287958465,
                0.731845481958084,
                -0.651751473162367
            ]
        },
        {
            "positions": [
                -2.7450776116775457,
                -1.1455651676833964,
                1.2842747657528975,
                0.3824083650352406,
                0.7590162896674206,
                -0.4249074796337502
            ]
        },
        {
            "positions": [
                -2.7478593375359877,
                -1.187054133483785,
                1.3288364220729885,
                0.4205311271908965,
                0.7861870973767571,
                -0.1980634861051338
            ]
        },
        {
            "positions": [
                -2.75064106339443,
                -1.2285430992841735,
                1.3733980783930795,
                0.45865388934655255,
                0.8133579050860937,
                0.02878050742348348
            ]
        },
        {
            "positions": [
                -2.753422789252872,
                -1.2700320650845622,
                1.4179597347131705,
                0.49677665150220846,
                0.8405287127954302,
                0.2556245009520999
            ]
        },
        {
            "positions": [
                -2.756204515111314,
                -1.311521030884951,
                1.4625213910332615,
                0.5348994136578644,
                0.8676995205047667,
                0.48246849448071627
            ]
        },
        {
            "positions": [
                -2.758986240969756,
                -1.3530099966853397,
                1.5070830473533525,
                0.5730221758135203,
                0.8948703282141033,
                0.7093124880093331
            ]
        },
        {
            "positions": [
                -2.761767966828198,
                -1.3944989624857282,
                1.5516447036734433,
                0.6111449379691762,
                0.9220411359234398,
                0.9361564815379495
            ]
        },
        {
            "positions": [
                -2.76454969268664,
                -1.4359879282861168,
                1.5962063599935343,
                0.6492677001248321,
                0.9492119436327764,
                1.163000475066566
            ]
        },
        {
            "positions": [
                -2.767331418545082,
                -1.4774768940865055,
                1.6407680163136253,
                0.6873904622804881,
                0.976382751342113,
                1.3898444685951832
            ]
        },
        {
            "positions": [
                -2.770113144403524,
                -1.5189658598868943,
                1.6853296726337161,
                0.725513224436144,
                1.0035535590514495,
                1.6166884621237996
            ]
        },
        {
            "positions": [
                -2.7728948702619665,
                -1.5604548256872828,
                1.7298913289538072,
                0.7636359865917999,
                1.030724366760786,
                1.843532455652416
            ]
        },
        {
            "positions": [
                -2.7756765961204084,
                -1.6019437914876713,
                1.7744529852738982,
                0.801758748747456,
                1.0578951744701226,
                2.0703764491810333
            ]
        },
        {
            "positions": [
                -2.7784583219788503,
                -1.64343275728806,
                1.8190146415939892,
                0.8398815109031118,
                1.085065982179459,
                2.2972204427096496
            ]
        },
        {
            "positions": [
                -2.6356958255725704,
                -1.6388033934070878,
                1.7568867011819147,
                0.7870098320578266,
                1.0232489020936864,
                2.241214053260079
            ]
        },
        {
            "positions": [
                -2.4929333291662905,
                -1.6341740295261156,
                1.6947587607698402,
                0.7341381532125414,
                0.9614318220079138,
                2.1852076638105076
            ]
        },
        {
            "positions": [
                -2.3501708327600106,
                -1.6295446656451433,
                1.632630820357766,
                0.6812664743672562,
                0.8996147419221412,
                2.1292012743609368
            ]
        },
        {
            "positions": [
                -2.2074083363537307,
                -1.624915301764171,
                1.5705028799456915,
                0.628394795521971,
                0.8377976618363685,
                2.0731948849113655
            ]
        },
        {
            "positions": [
                -2.064645839947451,
                -1.6202859378831986,
                1.508374939533617,
                0.5755231166766859,
                0.7759805817505959,
                2.0171884954617947
            ]
        },
        {
            "positions": [
                -1.9218833435411713,
                -1.6156565740022264,
                1.4462469991215425,
                0.5226514378314007,
                0.7141635016648233,
                1.9611821060122236
            ]
        },
        {
            "positions": [
                -1.7791208471348914,
                -1.6110272101212542,
                1.384119058709468,
                0.46977975898611546,
                0.6523464215790507,
                1.9051757165626526
            ]
        },
        {
            "positions": [
                -1.6363583507286115,
                -1.606397846240282,
                1.3219911182973938,
                0.4169080801408302,
                0.590529341493278,
                1.8491693271130816
            ]
        },
        {
            "positions": [
                -1.4935958543223318,
                -1.6017684823593097,
                1.259863177885319,
                0.36403640129554504,
                0.5287122614075054,
                1.7931629376635105
            ]
        },
        {
            "positions": [
                -1.3508333579160519,
                -1.5971391184783374,
                1.1977352374732448,
                0.31116472245025983,
                0.4668951813217328,
                1.7371565482139395
            ]
        },
        {
            "positions": [
                -1.28918936609031,
                -1.599231527171863,
                1.0500158542549851,
                0.20761467248653906,
                0.44907638937373456,
                1.7947095538678686
            ]
        },
        {
            "positions": [
                -1.2275453742645681,
                -1.6013239358653886,
                0.9022964710367256,
                0.10406462252281828,
                0.4312575974257363,
                1.8522625595217974
            ]
        },
        {
            "positions": [
                -1.1659013824388262,
                -1.603416344558914,
                0.754577087818466,
                0.000514572559097537,
                0.41343880547773815,
                1.9098155651757265
            ]
        },
        {
            "positions": [
                -1.1042573906130841,
                -1.6055087532524397,
                0.6068577046002063,
                -0.10303547740462327,
                0.3956200135297399,
                1.9673685708296553
            ]
        },
        {
            "positions": [
                -1.0426133987873423,
                -1.6076011619459651,
                0.45913832138194677,
                -0.206585527368344,
                0.3778012215817417,
                2.0249215764835844
            ]
        },
        {
            "positions": [
                -0.9809694069616004,
                -1.6096935706394906,
                0.31141893816368715,
                -0.31013557733206476,
                0.3599824296337435,
                2.0824745821375132
            ]
        },
        {
            "positions": [
                -0.9193254151358585,
                -1.6117859793330163,
                0.16369955494542743,
                -0.4136856272957855,
                0.34216363768574526,
                2.140027587791442
            ]
        },
        {
            "positions": [
                -0.8576814233101167,
                -1.6138783880265417,
                0.015980171727167702,
                -0.5172356772595064,
                0.324344845737747,
                2.1975805934453714
            ]
        },
        {
            "positions": [
                -0.7960374314843747,
                -1.6159707967200674,
                -0.1317392114910918,
                -0.6207857272232271,
                0.30652605378974884,
                2.2551335990993002
            ]
        },
        {
            "positions": [
                -0.7343934396586328,
                -1.6180632054135928,
                -0.2794585947093513,
                -0.7243357771869479,
                0.2887072618417506,
                2.312686604753229
            ]
        },
        {
            "positions": [
                -0.6727494478328909,
                -1.6201556141071185,
                -0.42717797792761103,
                -0.8278858271506686,
                0.27088846989375237,
                2.3702396104071584
            ]
        },
        {
            "positions": [
                -0.611105456007149,
                -1.622248022800644,
                -0.5748973611458705,
                -0.9314358771143894,
                0.2530696779457542,
                2.427792616061087
            ]
        },
        {
            "positions": [
                -0.5494614641814071,
                -1.6243404314941694,
                -0.7226167443641305,
                -1.03498592707811,
                0.23525088599775593,
                2.485345621715016
            ]
        },
        {
            "positions": [
                -0.4878174723556652,
                -1.626432840187695,
                -0.87033612758239,
                -1.1385359770418308,
                0.21743209404975772,
                2.5428986273689453
            ]
        },
        {
            "positions": [
                -0.42617348052992343,
                -1.6285252488812205,
                -1.0180555108006493,
                -1.2420860270055516,
                0.19961330210175948,
                2.600451633022874
            ]
        },
        {
            "positions": [
                -0.36452948870418134,
                -1.6306176575747462,
                -1.1657748940189094,
                -1.3456360769692726,
                0.18179451015376125,
                2.658004638676803
            ]
        },
        {
            "positions": [
                -0.3028854968784396,
                -1.6327100662682716,
                -1.3134942772371687,
                -1.449186126932993,
                0.16397571820576307,
                2.7155576443307323
            ]
        },
        {
            "positions": [
                -0.24124150505269748,
                -1.634802474961797,
                -1.4612136604554284,
                -1.552736176896714,
                0.14615692625776483,
                2.773110649984661
            ]
        },
        {
            "positions": [
                -0.1795975132269556,
                -1.6368948836553228,
                -1.6089330436736882,
                -1.6562862268604348,
                0.1283381343097666,
                2.83066365563859
            ]
        },
        {
            "positions": [
                -0.11795352140121373,
                -1.6389872923488482,
                -1.7566524268919474,
                -1.7598362768241556,
                0.11051934236176841,
                2.8882166612925193
            ]
        },
        {
            "positions": [
                -0.05630952957547186,
                -1.6410797010423739,
                -1.9043718101102076,
                -1.8633863267878765,
                0.09270055041377012,
                2.945769666946448
            ]
        },
        {
            "positions": [
                0.005334462250269928,
                -1.6431721097358993,
                -2.052091193328467,
                -1.966936376751597,
                0.07488175846577197,
                3.003322672600377
            ]
        },
        {
            "positions": [
                0.01651320750044201,
                -1.6508259527432556,
                -2.1727126875056735,
                -2.0576450044182435,
                0.0628619587622027,
                3.0763836772912687
            ]
        },
        {
            "positions": [
                0.02769195275061409,
                -1.6584797957506119,
                -2.29333418168288,
                -2.14835363208489,
                0.05084215905863343,
                3.1494446819821604
            ]
        },
        {
            "positions": [
                -0.07839448219783222,
                -1.701301776719906,
                -2.3287337071548784,
                -2.153243444033877,
                -0.05899963295083803,
                3.1366537306464464
            ]
        },
        {
            "positions": [
                -0.18448091714627854,
                -1.7441237576892,
                -2.3641332326268762,
                -2.158133255982864,
                -0.1688414249603095,
                3.123862779310732
            ]
        }
    ]
}