{
    "goal": {
        "global_pose": {
            "orientation": {
                "w": -0.4816463035849501,
                "x": 0.5182115481033762,
                "y": 0.4908360881923453,
                "z": -0.5084816262002911
            },
            "position": {
                "x": -0.8240239810943604,
                "y": -0.300875300988555,
                "z": 0.16403168439865112
            }
        },
        "name": "move_to_storage_C"
    },
    "id": "BKPIECE_move_to_storage_C_115",
    "joint_names": [
        "shoulder_pan_joint",
        "shoulder_lift_joint",
        "elbow_joint",
        "wrist_1_joint",
        "wrist_2_joint",
        "wrist_3_joint"
    ],
    "metrics": {
        "cart_traj_len": 0.5759759428681971,
        "distance_elbow_joint": 0.25693085800600746,
        "distance_shoulder_lift_joint": 0.18792654101281736,
        "distance_shoulder_pan_joint": 0.49466649038679344,
        "distance_wrist_1_joint": 0.08077156442492883,
        "distance_wrist_2_joint": 1.0676823635282098,
        "distance_wrist_3_joint": 0.07443529524033421,
        "smoothness": 2.5376526478085547e-16,
        "time": 0.12296438,
        "traj_len": 1.4705145740859187,
        "weighted_distance": 1.8600369972215332
    },
    "planner": "BKPIECE",
    "start": {
        "state": {
            "elbow_joint": 2.010868314990456,
            "shoulder_lift_joint": -1.1634956873337592,
            "shoulder_pan_joint": -2.4736205022346125,
            "wrist_1_joint": -0.8367026794202681,
            "wrist_2_joint": 0.6746043897044499,
            "wrist_3_joint": -3.1496632123970403
        }
    },
    "waypoints": [
        {
            "positions": [
                -2.4736205022346125,
                -1.1634956873337592,
                2.010868314990456,
                -0.8367026794202681,
                0.6746043897044499,
                -3.1496632123970403
            ]
        },
        {
            "positions": [
                -2.556064917299078,
                -1.1321745971649564,
                1.9680465053227878,
                -0.8232407520161134,
                0.8525514502924849,
                -3.1372573298569844
            ]
        },
        {
            "positions": [
                -2.638509332363544,
                -1.1008535069961534,
                1.92522469565512,
                -0.8097788246119585,
                1.0304985108805198,
                -3.124851447316929
            ]
        },
        {
            "positions": [
                -2.720953747428009,
                -1.0695324168273506,
                1.8824028859874522,
                -0.7963168972078036,
                1.208445571468555,
                -3.1124455647768734
            ]
        },
        {
            "positions": [
                -2.8033981624924746,
                -1.0382113266585475,
                1.8395810763197842,
                -0.7828549698036489,
                1.3863926320565896,
                -3.1000396822368175
            ]
        },
        {
            "positions": [
                -2.8858425775569403,
                -1.0068902364897447,
                1.7967592666521162,
                -0.7693930423994941,
                1.5643396926446247,
                -3.0876337996967615
            ]
        },
        {
            "positions": [
                -2.968286992621406,
                -0.9755691463209418,
                1.7539374569844484,
                -0.7559311149953393,
                1.7422867532326596,
                -3.075227917156706
            ]
        }
    ]
}