{
    "goal": {
        "global_pose": {
            "orientation": {
                "w": 0.7031023480610252,
                "x": -0.7110244013736278,
                "y": 0.0077485991402295624,
                "z": 0.005598929693374583
            },
            "position": {
                "x": -0.8841497679147869,
                "y": 0.44412534475326537,
                "z": 0.3711530566215515
            }
        },
        "name": "move_to_auspresseinheit_D"
    },
    "id": "BKPIECE_move_to_auspresseinheit_D_123",
    "joint_names": [
        "shoulder_pan_joint",
        "shoulder_lift_joint",
        "elbow_joint",
        "wrist_1_joint",
        "wrist_2_joint",
        "wrist_3_joint"
    ],
    "metrics": {
        "cart_traj_len": 0.34452916344054785,
        "distance_elbow_joint": 0.6538441277779181,
        "distance_shoulder_lift_joint": 0.12950829961102572,
        "distance_shoulder_pan_joint": 0.1341709788592992,
        "distance_wrist_1_joint": 0.5739857386503795,
        "distance_wrist_2_joint": 1.4474491959213804,
        "distance_wrist_3_joint": 0.03461695129622733,
        "smoothness": 1.6776703459139857e-15,
        "time": 0.15074690000000002,
        "traj_len": 1.7244057794255476,
        "weighted_distance": 2.25038755090772
    },
    "planner": "BKPIECE",
    "start": {
        "state": {
            "elbow_joint": -1.8275523626775212,
            "shoulder_lift_joint": -2.126789852344167,
            "shoulder_pan_joint": -0.03513704404078235,
            "wrist_1_joint": -2.347782403156801,
            "wrist_2_joint": -1.6058999987535132,
            "wrist_3_joint": -3.0880379163319196
        }
    },
    "waypoints": [
        {
            "positions": [
                -0.03513704404078235,
                -2.126789852344167,
                -1.8275523626775212,
                -2.347782403156801,
                -1.6058999987535132,
                -3.0880379163319196
            ]
        },
        {
            "positions": [
                -0.051908416398194754,
                -2.142978389795545,
                -1.7458218467052815,
                -2.419530620488098,
                -1.4249688492633406,
                -3.083710797419891
            ]
        },
        {
            "positions": [
                -0.06867978875560715,
                -2.159166927246923,
                -1.6640913307330416,
                -2.4912788378193955,
                -1.2440376997731681,
                -3.0793836785078628
            ]
        },
        {
            "positions": [
                -0.08545116111301956,
                -2.1753554646983013,
                -1.582360814760802,
                -2.5630270551506933,
                -1.0631065502829955,
                -3.0750565595958346
            ]
        },
        {
            "positions": [
                -0.10222253347043195,
                -2.19154400214968,
                -1.500630298788562,
                -2.6347752724819906,
                -0.882175400792823,
                -3.070729440683806
            ]
        },
        {
            "positions": [
                -0.11899390582784436,
                -2.207732539601058,
                -1.4188997828163223,
                -2.706523489813288,
                -0.7012442513026504,
                -3.0664023217717773
            ]
        },
        {
            "positions": [
                -0.13576527818525677,
                -2.2239210770524362,
                -1.3371692668440827,
                -2.7782717071445857,
                -0.5203131018124778,
                -3.062075202859749
            ]
        },
        {
            "positions": [
                -0.15253665054266916,
                -2.2401096145038144,
                -1.2554387508718428,
                -2.850019924475883,
                -0.3393819523223054,
                -3.057748083947721
            ]
        },
        {
            "positions": [
                -0.16930802290008157,
                -2.2562981519551926,
                -1.173708234899603,
                -2.9217681418071804,
                -0.15845080283213284,
                -3.0534209650356923
            ]
        }
    ]
}