{
    "goal": {
        "global_pose": {
            "orientation": {
                "w": 0.7047431468963623,
                "x": -0.7094548344612122,
                "y": 0.0024358443915843964,
                "z": -0.0022348060738295317
            },
            "position": {
                "x": 0.6094750761985779,
                "y": 0.3671506643295288,
                "z": 0.19426114857196808
            }
        },
        "name": "move_to_magneteinheit_A"
    },
    "id": "BKPIECE_move_to_magneteinheit_A_125",
    "joint_names": [
        "shoulder_pan_joint",
        "shoulder_lift_joint",
        "elbow_joint",
        "wrist_1_joint",
        "wrist_2_joint",
        "wrist_3_joint"
    ],
    "metrics": {
        "cart_traj_len": 3.408528922966819,
        "distance_elbow_joint": 3.902498487758746,
        "distance_shoulder_lift_joint": 0.13379028575209229,
        "distance_shoulder_pan_joint": 2.6732598800477723,
        "distance_wrist_1_joint": 1.3449287590114434,
        "distance_wrist_2_joint": 1.7764308310482746,
        "distance_wrist_3_joint": 3.105348330336419,
        "smoothness": 0.170000057779013,
        "time": 0.336887343,
        "traj_len": 3.5967007901623886,
        "weighted_distance": 4.718931322310943
    },
    "planner": "BKPIECE",
    "start": {
        "state": {
            "elbow_joint": -1.9196185241190666,
            "shoulder_lift_joint": -1.2443396400964142,
            "shoulder_pan_joint": 2.6996025414629847,
            "wrist_1_joint": -1.5485510000780065,
            "wrist_2_joint": -1.5709468930060704,
            "wrist_3_joint": 0.4420197071253992
        }
    },
    "waypoints": [
        {
            "positions": [
                2.6996025414629847,
                -1.2443396400964142,
                -1.9196185241190666,
                -1.5485510000780065,
                -1.5709468930060704,
                0.4420197071253992
            ]
        },
        {
            "positions": [
                2.5856017221656575,
                -1.2456954179893924,
                -1.8486255613500162,
                -1.4693726242477627,
                -1.4687201417064435,
                0.42578698631751666
            ]
        },
        {
            "positions": [
                2.4716009028683303,
                -1.247051195882371,
                -1.7776325985809658,
                -1.3901942484175187,
                -1.3664933904068166,
                0.40955426550963414
            ]
        },
        {
            "positions": [
                2.357600083571003,
                -1.2484069737753491,
                -1.7066396358119151,
                -1.311015872587275,
                -1.26426663910719,
                0.3933215447017517
            ]
        },
        {
            "positions": [
                2.243599264273676,
                -1.2497627516683274,
                -1.6356466730428647,
                -1.2318374967570311,
                -1.162039887807563,
                0.37708882389386916
            ]
        },
        {
            "positions": [
                2.1295984449763488,
                -1.2511185295613059,
                -1.5646537102738143,
                -1.1526591209267874,
                -1.0598131365079362,
                0.36085610308598665
            ]
        },
        {
            "positions": [
                2.015597625679021,
                -1.2524743074542841,
                -1.4936607475047639,
                -1.0734807450965436,
                -0.9575863852083093,
                0.34462338227810413
            ]
        },
        {
            "positions": [
                1.9015968063816941,
                -1.2538300853472624,
                -1.4226677847357134,
                -0.9943023692662997,
                -0.8553596339086826,
                0.32839066147022167
            ]
        },
        {
            "positions": [
                1.7875959870843667,
                -1.2551858632402406,
                -1.3516748219666628,
                -0.9151239934360558,
                -0.7531328826090556,
                0.31215794066233915
            ]
        },
        {
            "positions": [
                1.6735951677870398,
                -1.256541641133219,
                -1.2806818591976126,
                -0.835945617605812,
                -0.6509061313094289,
                0.29592521985445663
            ]
        },
        {
            "positions": [
                1.5595943484897123,
                -1.2578974190261973,
                -1.209688896428562,
                -0.7567672417755681,
                -0.548679380009802,
                0.2796924990465741
            ]
        },
        {
            "positions": [
                1.4455935291923852,
                -1.2592531969191756,
                -1.1386959336595117,
                -0.6775888659453243,
                -0.4464526287101753,
                0.2634597782386916
            ]
        },
        {
            "positions": [
                1.331592709895058,
                -1.260608974812154,
                -1.067702970890461,
                -0.5984104901150804,
                -0.3442258774105482,
                0.2472270574308091
            ]
        },
        {
            "positions": [
                1.2175918905977308,
                -1.2619647527051323,
                -0.9967100081214106,
                -0.5192321142848366,
                -0.24199912611092164,
                0.23099433662292662
            ]
        },
        {
            "positions": [
                1.1503242577853947,
                -1.2571847499516895,
                -0.847133867127071,
                -0.532500457808869,
                -0.2187500920128495,
                0.3607702577385069
            ]
        },
        {
            "positions": [
                1.0830566249730587,
                -1.2524047471982467,
                -0.6975577261327314,
                -0.5457688013329015,
                -0.19550105791477737,
                0.49054617885408724
            ]
        },
        {
            "positions": [
                1.0157889921607224,
                -1.2476247444448039,
                -0.5479815851383918,
                -0.5590371448569339,
                -0.17225202381670524,
                0.6203220999696676
            ]
        },
        {
            "positions": [
                0.9485213593483863,
                -1.242844741691361,
                -0.3984054441440521,
                -0.5723054883809663,
                -0.1490029897186331,
                0.7500980210852479
            ]
        },
        {
            "positions": [
                0.8812537265360503,
                -1.238064738937918,
                -0.24882930314971252,
                -0.5855738319049988,
                -0.12575395562056096,
                0.8798739422008282
            ]
        },
        {
            "positions": [
                0.8139860937237142,
                -1.2332847361844752,
                -0.09925316215537283,
                -0.5988421754290312,
                -0.1025049215224888,
                1.0096498633164086
            ]
        },
        {
            "positions": [
                0.7467184609113782,
                -1.2285047334310324,
                0.05032297883896675,
                -0.6121105189530636,
                -0.0792558874244167,
                1.1394257844319888
            ]
        },
        {
            "positions": [
                0.679450828099042,
                -1.2237247306775896,
                0.19989911983330644,
                -0.6253788624770961,
                -0.05600685332634456,
                1.269201705547569
            ]
        },
        {
            "positions": [
                0.612183195286706,
                -1.2189447279241468,
                0.3494752608276459,
                -0.6386472060011285,
                -0.032757819228272395,
                1.3989776266631493
            ]
        },
        {
            "positions": [
                0.5449155624743698,
                -1.214164725170704,
                0.4990514018219856,
                -0.651915549525161,
                -0.009508785130200259,
                1.5287535477787297
            ]
        },
        {
            "positions": [
                0.47764792966203373,
                -1.2093847224172611,
                0.6486275428163253,
                -0.6651838930491933,
                0.013740248967871876,
                1.65852946889431
            ]
        },
        {
            "positions": [
                0.41038029684969757,
                -1.2046047196638183,
                0.798203683810665,
                -0.6784522365732257,
                0.03698928306594404,
                1.7883053900098904
            ]
        },
        {
            "positions": [
                0.3431126640373616,
                -1.1998247169103755,
                0.9477798248050044,
                -0.6917205800972581,
                0.06023831716401615,
                1.9180813111254704
            ]
        },
        {
            "positions": [
                0.27584503122502546,
                -1.1950447141569325,
                1.0973559657993441,
                -0.7049889236212906,
                0.08348735126208826,
                2.047857232241051
            ]
        },
        {
            "positions": [
                0.2085773984126893,
                -1.1902647114034897,
                1.2469321067936836,
                -0.718257267145323,
                0.10673638536016042,
                2.177633153356631
            ]
        },
        {
            "positions": [
                0.14130976560035324,
                -1.1854847086500468,
                1.3965082477880235,
                -0.7315256106693555,
                0.12998541945823253,
                2.3074090744722118
            ]
        },
        {
            "positions": [
                0.07404213278801716,
                -1.180704705896604,
                1.5460843887823628,
                -0.7447939541933879,
                0.1532344535563047,
                2.437184995587792
            ]
        },
        {
            "positions": [
                0.08194216545135424,
                -1.171853136843321,
                1.6703471291001863,
                -0.7739156051424874,
                0.13955300148509708,
                2.619793245445518
            ]
        },
        {
            "positions": [
                0.08984219811469132,
                -1.1630015677900376,
                1.7946098694180097,
                -0.8030372560915867,
                0.12587154941388945,
                2.802401495303244
            ]
        },
        {
            "positions": [
                0.0977422307780284,
                -1.1541499987367545,
                1.9188726097358333,
                -0.8321589070406862,
                0.11219009734268184,
                2.98500974516097
            ]
        },
        {
            "positions": [
                0.12174160416082189,
                -1.1457995795617582,
                1.98287996363968,
                -0.8294758265782616,
                0.12339522561495729,
                3.125317296456873
            ]
        }
    ]
}