{
    "goal": {
        "global_pose": {
            "orientation": {
                "w": 0.005598929693374612,
                "x": 0.007748599140229565,
                "y": 0.7110244013736278,
                "z": -0.7031023480610252
            },
            "position": {
                "x": 0.1141497679147869,
                "y": -0.7141253447532654,
                "z": 0.3711530566215515
            }
        },
        "name": "move_to_auspresseinheit_B"
    },
    "id": "BKPIECE_move_to_auspresseinheit_B_83",
    "joint_names": [
        "shoulder_pan_joint",
        "shoulder_lift_joint",
        "elbow_joint",
        "wrist_1_joint",
        "wrist_2_joint",
        "wrist_3_joint"
    ],
    "metrics": {
        "cart_traj_len": 0.5650475393677787,
        "distance_elbow_joint": 0.06340726875480551,
        "distance_shoulder_lift_joint": 0.2946704999137575,
        "distance_shoulder_pan_joint": 0.5782187717436416,
        "distance_wrist_1_joint": 0.32987717101866965,
        "distance_wrist_2_joint": 0.9897360803333135,
        "distance_wrist_3_joint": 0.006063166858944591,
        "smoothness": 5.075305255429287e-16,
        "time": 0.16242293800000002,
        "traj_len": 1.5039856909635583,
        "weighted_distance": 1.8957089818041706
    },
    "planner": "BKPIECE",
    "start": {
        "state": {
            "elbow_joint": 2.0193083361928714,
            "shoulder_lift_joint": -1.1220246554650708,
            "shoulder_pan_joint": -1.0952077554168747,
            "wrist_1_joint": -0.8559753972642168,
            "wrist_2_joint": 0.4759566250798843,
            "wrist_3_joint": -3.1240929996934557
        }
    },
    "waypoints": [
        {
            "positions": [
                -1.0952077554168747,
                -1.1220246554650708,
                2.0193083361928714,
                -0.8559753972642168,
                0.4759566250798843,
                -3.1240929996934557
            ]
        },
        {
            "positions": [
                -1.1915775507074815,
                -1.171136405450697,
                2.0087404580670705,
                -0.8009958687611052,
                0.6409126384687699,
                -3.1230824718836314
            ]
        },
        {
            "positions": [
                -1.2879473459980886,
                -1.2202481554363234,
                1.9981725799412695,
                -0.7460163402579936,
                0.8058686518576554,
                -3.1220719440738076
            ]
        },
        {
            "positions": [
                -1.3843171412886954,
                -1.2693599054219495,
                1.9876047018154686,
                -0.691036811754882,
                0.9708246652465411,
                -3.1210614162639834
            ]
        },
        {
            "positions": [
                -1.4806869365793023,
                -1.3184716554075757,
                1.9770368236896678,
                -0.6360572832517704,
                1.1357806786354265,
                -3.120050888454159
            ]
        },
        {
            "positions": [
                -1.5770567318699094,
                -1.3675834053932021,
                1.9664689455638669,
                -0.5810777547486587,
                1.3007366920243122,
                -3.1190403606443353
            ]
        },
        {
            "positions": [
                -1.6734265271605162,
                -1.4166951553788283,
                1.955901067438066,
                -0.5260982262455471,
                1.4656927054131978,
                -3.118029832834511
            ]
        }
    ]
}