{
    "goal": {
        "global_pose": {
            "orientation": {
                "w": -0.4816463035849501,
                "x": 0.5182115481033762,
                "y": 0.4908360881923453,
                "z": -0.5084816262002911
            },
            "position": {
                "x": -0.8240239810943604,
                "y": 0.19912469901144506,
                "z": 0.16403168439865112
            }
        },
        "name": "move_to_storage_D"
    },
    "id": "BKPIECE_move_to_storage_D_50",
    "joint_names": [
        "shoulder_pan_joint",
        "shoulder_lift_joint",
        "elbow_joint",
        "wrist_1_joint",
        "wrist_2_joint",
        "wrist_3_joint"
    ],
    "metrics": {
        "cart_traj_len": 4.122769518260726,
        "distance_elbow_joint": 5.203074172110348,
        "distance_shoulder_lift_joint": 1.2646249363874578,
        "distance_shoulder_pan_joint": 2.8129501375231665,
        "distance_wrist_1_joint": 2.2862002836320485,
        "distance_wrist_2_joint": 1.0024275008523467,
        "distance_wrist_3_joint": 3.9691150457011846,
        "smoothness": 0.33566468452378523,
        "time": 0.256196145,
        "traj_len": 4.066742194460641,
        "weighted_distance": 5.269274139015098
    },
    "planner": "BKPIECE",
    "start": {
        "state": {
            "elbow_joint": -2.384821988534728,
            "shoulder_lift_joint": -2.2788054721415256,
            "shoulder_pan_joint": -0.1854694642142757,
            "wrist_1_joint": 1.4845938289331202,
            "wrist_2_joint": 0.17898776772866878,
            "wrist_3_joint": 0.037105688729662994
        }
    },
    "waypoints": [
        {
            "positions": [
                -0.1854694642142757,
                -2.2788054721415256,
                -2.384821988534728,
                1.4845938289331202,
                0.17898776772866878,
                0.037105688729662994
            ]
        },
        {
            "positions": [
                -0.14518965462316843,
                -2.232081056876243,
                -2.4673165771242718,
                1.462214893270051,
                0.2834689848455163,
                0.10779614084468235
            ]
        },
        {
            "positions": [
                -0.10490984503206116,
                -2.18535664161096,
                -2.5498111657138156,
                1.4398359576069815,
                0.38795020196236385,
                0.1784865929597017
            ]
        },
        {
            "positions": [
                -0.06463003544095387,
                -2.138632226345677,
                -2.63230575430336,
                1.4174570219439122,
                0.4924314190792114,
                0.24917704507472108
            ]
        },
        {
            "positions": [
                -0.024350225849846613,
                -2.0919078110803944,
                -2.7148003428929037,
                1.395078086280843,
                0.5969126361960588,
                0.3198674971897404
            ]
        },
        {
            "positions": [
                0.01592958374126069,
                -2.0451833958151115,
                -2.7972949314824476,
                1.3726991506177735,
                0.7013938533129064,
                0.39055794930475984
            ]
        },
        {
            "positions": [
                0.05620939333236796,
                -1.9984589805498287,
                -2.8797895200719914,
                1.3503202149547042,
                0.8058750704297539,
                0.4612484014197792
            ]
        },
        {
            "positions": [
                0.13221333687062678,
                -1.9698878197463126,
                -2.755612023658719,
                1.2856605921271684,
                0.8153886521624365,
                0.3751136040233596
            ]
        },
        {
            "positions": [
                0.2082172804088856,
                -1.9413166589427964,
                -2.631434527245447,
                1.2210009692996326,
                0.8249022338951192,
                0.28897880662694003
            ]
        },
        {
            "positions": [
                0.28422122394714444,
                -1.9127454981392802,
                -2.5072570308321747,
                1.1563413464720966,
                0.8344158156278018,
                0.20284400923052048
            ]
        },
        {
            "positions": [
                0.36022516748540323,
                -1.884174337335764,
                -2.3830795344189024,
                1.0916817236445608,
                0.8439293973604844,
                0.11670921183410088
            ]
        },
        {
            "positions": [
                0.436229111023662,
                -1.8556031765322478,
                -2.25890203800563,
                1.027022100817025,
                0.853442979093167,
                0.03057441443768133
            ]
        },
        {
            "positions": [
                0.5122330545619209,
                -1.8270320157287316,
                -2.134724541592358,
                0.9623624779894893,
                0.8629565608258497,
                -0.05556038295873822
            ]
        },
        {
            "positions": [
                0.5882369981001797,
                -1.7984608549252155,
                -2.0105470451790857,
                0.8977028551619535,
                0.8724701425585323,
                -0.14169518035515782
            ]
        },
        {
            "positions": [
                0.6642409416384385,
                -1.7698896941216993,
                -1.8863695487658134,
                0.8330432323344176,
                0.8819837242912149,
                -0.22782997775157743
            ]
        },
        {
            "positions": [
                0.7402448851766972,
                -1.741318533318183,
                -1.7621920523525412,
                0.7683836095068819,
                0.8914973060238975,
                -0.3139647751479969
            ]
        },
        {
            "positions": [
                0.8162488287149561,
                -1.712747372514667,
                -1.6380145559392687,
                0.703723986679346,
                0.9010108877565801,
                -0.4000995725444165
            ]
        },
        {
            "positions": [
                0.8922527722532149,
                -1.6841762117111507,
                -1.5138370595259967,
                0.6390643638518102,
                0.9105244694892628,
                -0.48623436994083613
            ]
        },
        {
            "positions": [
                0.9682567157914738,
                -1.6556050509076345,
                -1.3896595631127242,
                0.5744047410242743,
                0.9200380512219454,
                -0.5723691673372556
            ]
        },
        {
            "positions": [
                1.0442606593297326,
                -1.6270338901041184,
                -1.2654820666994522,
                0.5097451181967385,
                0.9295516329546281,
                -0.6585039647336753
            ]
        },
        {
            "positions": [
                1.1202646028679915,
                -1.5984627293006022,
                -1.1413045702861797,
                0.4450854953692027,
                0.9390652146873106,
                -0.7446387621300948
            ]
        },
        {
            "positions": [
                1.1962685464062501,
                -1.569891568497086,
                -1.0171270738729075,
                0.38042587254166693,
                0.9485787964199932,
                -0.8307735595265143
            ]
        },
        {
            "positions": [
                1.272272489944509,
                -1.5413204076935698,
                -0.8929495774596352,
                0.3157662497141309,
                0.9580923781526759,
                -0.916908356922934
            ]
        },
        {
            "positions": [
                1.3482764334827677,
                -1.5127492468900536,
                -0.7687720810463632,
                0.25110662688659535,
                0.9676059598853585,
                -1.0030431543193536
            ]
        },
        {
            "positions": [
                1.4242803770210264,
                -1.4841780860865375,
                -0.6445945846330909,
                0.18644700405905956,
                0.9771195416180412,
                -1.0891779517157731
            ]
        },
        {
            "positions": [
                1.5002843205592855,
                -1.4556069252830213,
                -0.5204170882198182,
                0.12178738123152355,
                0.9866331233507237,
                -1.1753127491121926
            ]
        },
        {
            "positions": [
                1.5762882640975442,
                -1.427035764479505,
                -0.396239591806546,
                0.05712775840398776,
                0.9961467050834063,
                -1.2614475465086121
            ]
        },
        {
            "positions": [
                1.652292207635803,
                -1.398464603675989,
                -0.27206209539327375,
                -0.007531864423548029,
                1.0056602868160889,
                -1.347582343905032
            ]
        },
        {
            "positions": [
                1.7282961511740618,
                -1.3698934428724727,
                -0.14788459898000195,
                -0.07219148725108382,
                1.0151738685487717,
                -1.4337171413014516
            ]
        },
        {
            "positions": [
                1.8043000947123207,
                -1.3413222820689565,
                -0.023707102566729255,
                -0.13685111007861983,
                1.0246874502814542,
                -1.519851938697871
            ]
        },
        {
            "positions": [
                1.8803040382505796,
                -1.3127511212654404,
                0.100470393846543,
                -0.20151073290615562,
                1.0342010320141368,
                -1.6059867360942905
            ]
        },
        {
            "positions": [
                1.9563079817888382,
                -1.2841799604619242,
                0.22464789025981524,
                -0.2661703557336914,
                1.0437146137468194,
                -1.6921215334907105
            ]
        },
        {
            "positions": [
                2.0323119253270967,
                -1.255608799658408,
                0.34882538667308705,
                -0.3308299785612272,
                1.0532281954795022,
                -1.77825633088713
            ]
        },
        {
            "positions": [
                2.108315868865356,
                -1.2270376388548918,
                0.47300288308635974,
                -0.3954896013887632,
                1.0627417772121848,
                -1.8643911282835495
            ]
        },
        {
            "positions": [
                2.184319812403615,
                -1.1984664780513756,
                0.597180379499632,
                -0.4601492242162988,
                1.0722553589448673,
                -1.950525925679969
            ]
        },
        {
            "positions": [
                2.2603237559418736,
                -1.1698953172478594,
                0.7213578759129042,
                -0.5248088470438346,
                1.08176894067755,
                -2.0366607230763885
            ]
        },
        {
            "positions": [
                2.3363276994801323,
                -1.1413241564443433,
                0.8455353723261765,
                -0.5894684698713704,
                1.0912825224102325,
                -2.122795520472808
            ]
        },
        {
            "positions": [
                2.4123316430183914,
                -1.112752995640827,
                0.9697128687394487,
                -0.6541280926989064,
                1.1007961041429153,
                -2.208930317869228
            ]
        },
        {
            "positions": [
                2.48833558655665,
                -1.084181834837311,
                1.093890365152721,
                -0.7187877155264424,
                1.1103096858755979,
                -2.2950651152656474
            ]
        },
        {
            "positions": [
                2.564339530094909,
                -1.0556106740337947,
                1.2180678615659934,
                -0.7834473383539777,
                1.1198232676082804,
                -2.381199912662067
            ]
        },
        {
            "positions": [
                2.580124815898404,
                -1.045253139463863,
                1.3706301762997681,
                -0.7879871174402152,
                1.1044252673650967,
                -2.5568309173943726
            ]
        },
        {
            "positions": [
                2.5959101017018993,
                -1.0348956048939313,
                1.523192491033543,
                -0.7925268965264527,
                1.0890272671219128,
                -2.7324619221266784
            ]
        },
        {
            "positions": [
                2.611695387505395,
                -1.0245380703239997,
                1.6757548057673177,
                -0.7970666756126901,
                1.073629266878729,
                -2.908092926858984
            ]
        },
        {
            "positions": [
                2.6274806733088902,
                -1.0141805357540679,
                1.8283171205010924,
                -0.8016064546989276,
                1.0582312666355453,
                -3.08372393159129
            ]
        }
    ]
}