{
    "goal": {
        "global_pose": {
            "orientation": {
                "w": 0.7031023480610252,
                "x": -0.7110244013736278,
                "y": 0.0077485991402295624,
                "z": 0.005598929693374583
            },
            "position": {
                "x": -0.8841497679147869,
                "y": 0.44412534475326537,
                "z": 0.3711530566215515
            }
        },
        "name": "move_to_auspresseinheit_D"
    },
    "id": "BKPIECE_move_to_auspresseinheit_D_86",
    "joint_names": [
        "shoulder_pan_joint",
        "shoulder_lift_joint",
        "elbow_joint",
        "wrist_1_joint",
        "wrist_2_joint",
        "wrist_3_joint"
    ],
    "metrics": {
        "cart_traj_len": 0.3425235532517959,
        "distance_elbow_joint": 0.6368924915357654,
        "distance_shoulder_lift_joint": 0.1215192403739569,
        "distance_shoulder_pan_joint": 0.13381457552375295,
        "distance_wrist_1_joint": 0.5235839921068548,
        "distance_wrist_2_joint": 1.4391091769386475,
        "distance_wrist_3_joint": 0.016824920513924813,
        "smoothness": 7.894919182364742e-16,
        "time": 0.271550394,
        "traj_len": 1.6946221988965275,
        "weighted_distance": 2.2063742672235493
    },
    "planner": "BKPIECE",
    "start": {
        "state": {
            "elbow_joint": -1.8275523626775212,
            "shoulder_lift_joint": -2.126789852344167,
            "shoulder_pan_joint": -0.03513704404078235,
            "wrist_1_joint": -2.347782403156801,
            "wrist_2_joint": -1.6058999987535132,
            "wrist_3_joint": -3.0880379163319196
        }
    },
    "waypoints": [
        {
            "positions": [
                -0.03513704404078235,
                -2.126789852344167,
                -1.8275523626775212,
                -2.347782403156801,
                -1.6058999987535132,
                -3.0880379163319196
            ]
        },
        {
            "positions": [
                -0.051863865981251464,
                -2.1419797573909114,
                -1.7479408012355506,
                -2.4132304021701576,
                -1.4260113516361823,
                -3.0901410313961604
            ]
        },
        {
            "positions": [
                -0.06859068792172059,
                -2.157169662437656,
                -1.6683292397935798,
                -2.4786784011835143,
                -1.2461227045188514,
                -3.0922441464604007
            ]
        },
        {
            "positions": [
                -0.0853175098621897,
                -2.1723595674844005,
                -1.588717678351609,
                -2.5441264001968715,
                -1.0662340574015203,
                -3.0943472615246415
            ]
        },
        {
            "positions": [
                -0.10204433180265882,
                -2.1875494725311455,
                -1.5091061169096385,
                -2.6095743992102283,
                -0.8863454102841894,
                -3.096450376588882
            ]
        },
        {
            "positions": [
                -0.11877115374312794,
                -2.20273937757789,
                -1.429494555467668,
                -2.675022398223585,
                -0.7064567631668586,
                -3.0985534916531225
            ]
        },
        {
            "positions": [
                -0.13549797568359706,
                -2.2179292826246346,
                -1.3498829940256971,
                -2.740470397236942,
                -0.5265681160495275,
                -3.1006566067173633
            ]
        },
        {
            "positions": [
                -0.15222479762406618,
                -2.233119187671379,
                -1.2702714325837263,
                -2.805918396250299,
                -0.3466794689321966,
                -3.1027597217816036
            ]
        },
        {
            "positions": [
                -0.1689516195645353,
                -2.2483090927181237,
                -1.1906598711417558,
                -2.8713663952636557,
                -0.1667908218148658,
                -3.1048628368458444
            ]
        }
    ]
}