{
    "goal": {
        "global_pose": {
            "orientation": {
                "w": -0.4816463035849501,
                "x": 0.5182115481033762,
                "y": 0.4908360881923453,
                "z": -0.5084816262002911
            },
            "position": {
                "x": -0.8240239810943604,
                "y": -0.300875300988555,
                "z": 0.16403168439865112
            }
        },
        "name": "move_to_storage_C"
    },
    "id": "BKPIECE_move_to_storage_C_145",
    "joint_names": [
        "shoulder_pan_joint",
        "shoulder_lift_joint",
        "elbow_joint",
        "wrist_1_joint",
        "wrist_2_joint",
        "wrist_3_joint"
    ],
    "metrics": {
        "cart_traj_len": 0.576678903571679,
        "distance_elbow_joint": 0.25658439388858634,
        "distance_shoulder_lift_joint": 0.18949937295766928,
        "distance_shoulder_pan_joint": 0.49499413799363934,
        "distance_wrist_1_joint": 0.06693464250872405,
        "distance_wrist_2_joint": 1.0610468177774188,
        "distance_wrist_3_joint": 0.07094041280433094,
        "smoothness": 0.0,
        "time": 0.31193998900000003,
        "traj_len": 1.46287380793094,
        "weighted_distance": 1.8465811825709624
    },
    "planner": "BKPIECE",
    "start": {
        "state": {
            "elbow_joint": 2.010868314990456,
            "shoulder_lift_joint": -1.1634956873337592,
            "shoulder_pan_joint": -2.4736205022346125,
            "wrist_1_joint": -0.8367026794202681,
            "wrist_2_joint": 0.6746043897044499,
            "wrist_3_joint": -3.1496632123970403
        }
    },
    "waypoints": [
        {
            "positions": [
                -2.4736205022346125,
                -1.1634956873337592,
                2.010868314990456,
                -0.8367026794202681,
                0.6746043897044499,
                -3.1496632123970403
            ]
        },
        {
            "positions": [
                -2.5561195252335525,
                -1.131912458507481,
                1.9681042493423582,
                -0.8255469056688141,
                0.8514455260006863,
                -3.137839810262985
            ]
        },
        {
            "positions": [
                -2.6386185482324924,
                -1.1003292296812028,
                1.9253401836942603,
                -0.8143911319173601,
                1.028286662296923,
                -3.12601640812893
            ]
        },
        {
            "positions": [
                -2.7211175712314324,
                -1.0687460008549245,
                1.8825761180461626,
                -0.8032353581659061,
                1.2051277985931592,
                -3.114193005994875
            ]
        },
        {
            "positions": [
                -2.803616594230372,
                -1.0371627720286463,
                1.839812052398065,
                -0.792079584414452,
                1.3819689348893958,
                -3.1023696038608195
            ]
        },
        {
            "positions": [
                -2.886115617229312,
                -1.0055795432023682,
                1.7970479867499671,
                -0.7809238106629981,
                1.5588100711856323,
                -3.0905462017267644
            ]
        },
        {
            "positions": [
                -2.968614640228252,
                -0.9739963143760899,
                1.7542839211018695,
                -0.769768036911544,
                1.7356512074818689,
                -3.0787227995927093
            ]
        }
    ]
}