{
    "goal": {
        "global_pose": {
            "orientation": {
                "w": 0.7047431468963623,
                "x": -0.7094548344612122,
                "y": 0.0024358443915843964,
                "z": -0.0022348060738295317
            },
            "position": {
                "x": 0.6094750761985779,
                "y": 0.3671506643295288,
                "z": 0.19426114857196808
            }
        },
        "name": "move_to_magneteinheit_A"
    },
    "id": "BKPIECE_move_to_magneteinheit_A_76",
    "joint_names": [
        "shoulder_pan_joint",
        "shoulder_lift_joint",
        "elbow_joint",
        "wrist_1_joint",
        "wrist_2_joint",
        "wrist_3_joint"
    ],
    "metrics": {
        "cart_traj_len": 3.035489754485487,
        "distance_elbow_joint": 3.939738117020945,
        "distance_shoulder_lift_joint": 0.4560141758984604,
        "distance_shoulder_pan_joint": 2.8878982374289146,
        "distance_wrist_1_joint": 3.559505588370249,
        "distance_wrist_2_joint": 1.4354184757906994,
        "distance_wrist_3_joint": 1.6217468594112843,
        "smoothness": 0.14647132185770995,
        "time": 0.26492872700000003,
        "traj_len": 3.728313486540604,
        "weighted_distance": 4.7051821683016755
    },
    "planner": "BKPIECE",
    "start": {
        "state": {
            "elbow_joint": -1.9196185241190666,
            "shoulder_lift_joint": -1.2443396400964142,
            "shoulder_pan_joint": 2.6996025414629847,
            "wrist_1_joint": -1.5485510000780065,
            "wrist_2_joint": -1.5709468930060704,
            "wrist_3_joint": 0.4420197071253992
        }
    },
    "waypoints": [
        {
            "positions": [
                2.6996025414629847,
                -1.2443396400964142,
                -1.9196185241190666,
                -1.5485510000780065,
                -1.5709468930060704,
                0.4420197071253992
            ]
        },
        {
            "positions": [
                2.5938827548939694,
                -1.2433828793030248,
                -1.8261685429165984,
                -1.4436801470950484,
                -1.525412618532149,
                0.39688314292771426
            ]
        },
        {
            "positions": [
                2.4881629683249544,
                -1.2424261185096357,
                -1.7327185617141299,
                -1.3388092941120904,
                -1.4798783440582277,
                0.3517465787300294
            ]
        },
        {
            "positions": [
                2.382443181755939,
                -1.2414693577162463,
                -1.6392685805116614,
                -1.233938441129132,
                -1.4343440695843064,
                0.3066100145323445
            ]
        },
        {
            "positions": [
                2.2767233951869237,
                -1.2405125969228572,
                -1.545818599309193,
                -1.129067588146174,
                -1.388809795110385,
                0.26147345033465963
            ]
        },
        {
            "positions": [
                2.1710036086179088,
                -1.2395558361294678,
                -1.4523686181067248,
                -1.024196735163216,
                -1.3432755206364637,
                0.2163368861369747
            ]
        },
        {
            "positions": [
                2.0652838220488934,
                -1.2385990753360785,
                -1.3589186369042563,
                -0.9193258821802579,
                -1.2977412461625426,
                0.1712003219392898
            ]
        },
        {
            "positions": [
                1.959564035479878,
                -1.2376423145426894,
                -1.2654686557017878,
                -0.8144550291972997,
                -1.2522069716886213,
                0.1260637577416049
            ]
        },
        {
            "positions": [
                1.853844248910863,
                -1.2366855537493,
                -1.1720186744993195,
                -0.7095841762143418,
                -1.2066726972147,
                0.08092719354392003
            ]
        },
        {
            "positions": [
                1.7481244623418477,
                -1.2357287929559109,
                -1.0785686932968512,
                -0.6047133232313836,
                -1.1611384227407786,
                0.035790629346235114
            ]
        },
        {
            "positions": [
                1.6424046757728323,
                -1.2347720321625215,
                -0.9851187120943827,
                -0.49984247024842543,
                -1.1156041482668573,
                -0.0093459348514498
            ]
        },
        {
            "positions": [
                1.5366848892038174,
                -1.2338152713691324,
                -0.8916687308919145,
                -0.39497161726546737,
                -1.070069873792936,
                -0.05448249904913466
            ]
        },
        {
            "positions": [
                1.430965102634802,
                -1.232858510575743,
                -0.798218749689446,
                -0.2901007642825093,
                -1.0245355993190146,
                -0.09961906324681957
            ]
        },
        {
            "positions": [
                1.3252453160657869,
                -1.2319017497823537,
                -0.7047687684869777,
                -0.18522991129955124,
                -0.9790013248450934,
                -0.14475562744450443
            ]
        },
        {
            "positions": [
                1.2195255294967715,
                -1.2309449889889645,
                -0.6113187872845092,
                -0.08035905831659296,
                -0.933467050371172,
                -0.1898921916421894
            ]
        },
        {
            "positions": [
                1.1138057429277564,
                -1.2299882281955752,
                -0.5178688060820407,
                0.024511794666364883,
                -0.8879327758972506,
                -0.23502875583987426
            ]
        },
        {
            "positions": [
                1.0080859563587412,
                -1.229031467402186,
                -0.4244188248795724,
                0.12938264764932295,
                -0.8423985014233294,
                -0.2801653200375591
            ]
        },
        {
            "positions": [
                0.9023661697897258,
                -1.2280747066087967,
                -0.3309688436771039,
                0.23425350063228123,
                -0.796864226949408,
                -0.3253018842352441
            ]
        },
        {
            "positions": [
                0.7966463832207107,
                -1.2271179458154076,
                -0.2375188624746356,
                0.3391243536152393,
                -0.7513299524754867,
                -0.37043844843292895
            ]
        },
        {
            "positions": [
                0.6909265966516958,
                -1.2261611850220182,
                -0.14406888127216733,
                0.44399520659819736,
                -0.7057956780015655,
                -0.4155750126306138
            ]
        },
        {
            "positions": [
                0.5852068100826799,
                -1.2252044242286289,
                -0.050618900069698824,
                0.5488660595811556,
                -0.6602614035276441,
                -0.4607115768282988
            ]
        },
        {
            "positions": [
                0.479487023513665,
                -1.2242476634352397,
                0.042831081132769455,
                0.6537369125641137,
                -0.6147271290537228,
                -0.5058481410259836
            ]
        },
        {
            "positions": [
                0.3737672369446501,
                -1.2232909026418504,
                0.13628106233523773,
                0.7586077655470718,
                -0.5691928545798015,
                -0.5509847052236685
            ]
        },
        {
            "positions": [
                0.26804745037563427,
                -1.2223341418484612,
                0.22973104353770646,
                0.8634786185300298,
                -0.5236585801058802,
                -0.5961212694213535
            ]
        },
        {
            "positions": [
                0.16232766380661934,
                -1.2213773810550719,
                0.3231810247401749,
                0.9683494715129879,
                -0.47812430563195885,
                -0.6412578336190384
            ]
        },
        {
            "positions": [
                0.14059652849055232,
                -1.1826926089442449,
                0.4714883059021568,
                1.0537477296205102,
                -0.44379633188885104,
                -0.6013336239659536
            ]
        },
        {
            "positions": [
                0.11886539317448533,
                -1.1440078368334181,
                0.6197955870641387,
                1.1391459877280325,
                -0.4094683581457432,
                -0.5614094143128686
            ]
        },
        {
            "positions": [
                0.09713425785841831,
                -1.1053230647225911,
                0.7681028682261206,
                1.2245442458355549,
                -0.3751403844026355,
                -0.5214852046597838
            ]
        },
        {
            "positions": [
                0.0754031225423513,
                -1.0666382926117641,
                0.9164101493881025,
                1.3099425039430772,
                -0.34081241065952766,
                -0.4815609950066989
            ]
        },
        {
            "positions": [
                0.05367198722628429,
                -1.0279535205009374,
                1.0647174305500844,
                1.3953407620505995,
                -0.30648443691641986,
                -0.44163678535361395
            ]
        },
        {
            "positions": [
                0.03194085191021728,
                -0.9892687483901104,
                1.2130247117120663,
                1.4807390201581219,
                -0.2721564631733121,
                -0.4017125757005291
            ]
        },
        {
            "positions": [
                0.010209716594150264,
                -0.9505839762792834,
                1.3613319928740482,
                1.5661372782656442,
                -0.23782848943020427,
                -0.3617883660474442
            ]
        },
        {
            "positions": [
                -0.011521418721916726,
                -0.9118992041684566,
                1.50963927403603,
                1.6515355363731665,
                -0.20350051568709648,
                -0.32186415639435934
            ]
        },
        {
            "positions": [
                -0.033252554037983745,
                -0.8732144320576296,
                1.657946555198012,
                1.7369337944806889,
                -0.16917254194398867,
                -0.2819399467412744
            ]
        },
        {
            "positions": [
                0.002320588459893226,
                -0.8519509621927019,
                1.763625076556674,
                1.8105149854115208,
                -0.1582741845780911,
                -0.2362699186389472
            ]
        },
        {
            "positions": [
                0.0378937309577702,
                -0.8306874923277744,
                1.869303597915336,
                1.8840961763423527,
                -0.1473758272121935,
                -0.19059989053662
            ]
        },
        {
            "positions": [
                0.07346687345564717,
                -0.8094240224628467,
                1.9749821192739982,
                1.9576773672731846,
                -0.1364774698462959,
                -0.14492986243429276
            ]
        },
        {
            "positions": [
                0.1217905878899611,
                -0.7883254641979538,
                2.02011959290188,
                2.0109545882922406,
                -0.13552841721537068,
                -0.10278851495219192
            ]
        }
    ]
}