{
    "goal": {
        "global_pose": {
            "orientation": {
                "w": -0.00223480608172531,
                "x": 0.0024358444001904467,
                "y": 0.7094548369677653,
                "z": -0.704743149386269
            },
            "position": {
                "x": -0.37947507619857795,
                "y": -0.6371506643295288,
                "z": 0.19426114857196808
            }
        },
        "name": "move_to_magneteinheit_C"
    },
    "id": "BKPIECE_move_to_magneteinheit_C_130",
    "joint_names": [
        "shoulder_pan_joint",
        "shoulder_lift_joint",
        "elbow_joint",
        "wrist_1_joint",
        "wrist_2_joint",
        "wrist_3_joint"
    ],
    "metrics": {
        "cart_traj_len": 1.4123721430143157,
        "distance_elbow_joint": 0.9342359152009432,
        "distance_shoulder_lift_joint": 2.8682623621651837,
        "distance_shoulder_pan_joint": 2.1711354756953107,
        "distance_wrist_1_joint": 4.971006166894327,
        "distance_wrist_2_joint": 2.1587782407506624,
        "distance_wrist_3_joint": 0.18226230295471746,
        "smoothness": 0.8452646156784678,
        "time": 0.622020467,
        "traj_len": 3.644952738193068,
        "weighted_distance": 4.558507373824855
    },
    "planner": "BKPIECE",
    "start": {
        "state": {
            "elbow_joint": 1.9565354010623817,
            "shoulder_lift_joint": -1.4165861575791021,
            "shoulder_pan_joint": -1.6717766225146293,
            "wrist_1_joint": -0.5286633292919765,
            "wrist_2_joint": 1.472756589071564,
            "wrist_3_joint": -3.1238370188695823
        }
    },
    "waypoints": [
        {
            "positions": [
                -1.6717766225146293,
                -1.4165861575791021,
                1.9565354010623817,
                -0.5286633292919765,
                1.472756589071564,
                -3.1238370188695823
            ]
        },
        {
            "positions": [
                -1.7500719639809477,
                -1.4853638219539058,
                1.9825259272924292,
                -0.40605963569826387,
                1.3946262925063886,
                -3.129171241546787
            ]
        },
        {
            "positions": [
                -1.8283673054472662,
                -1.5541414863287095,
                2.0085164535224767,
                -0.2834559421045513,
                1.3164959959412135,
                -3.1345054642239916
            ]
        },
        {
            "positions": [
                -1.9066626469135848,
                -1.6229191507035132,
                2.034506979752524,
                -0.16085224851083868,
                1.2383656993760381,
                -3.1398396869011957
            ]
        },
        {
            "positions": [
                -1.9849579883799031,
                -1.6916968150783167,
                2.0604975059825716,
                -0.03824855491712609,
                1.160235402810863,
                -3.1451739095784004
            ]
        },
        {
            "positions": [
                -2.0632533298462215,
                -1.7604744794531206,
                2.086488032212619,
                0.0843551386765865,
                1.0821051062456877,
                -3.150508132255605
            ]
        },
        {
            "positions": [
                -2.14154867131254,
                -1.8292521438279241,
                2.1124785584426666,
                0.2069588322702991,
                1.0039748096805126,
                -3.1558423549328096
            ]
        },
        {
            "positions": [
                -2.2198440127788586,
                -1.8980298082027278,
                2.138469084672714,
                0.3295625258640117,
                0.9258445131153372,
                -3.1611765776100142
            ]
        },
        {
            "positions": [
                -2.298139354245177,
                -1.9668074725775315,
                2.1644596109027616,
                0.4521662194577243,
                0.847714216550162,
                -3.1665108002872184
            ]
        },
        {
            "positions": [
                -2.3764346957114952,
                -2.035585136952335,
                2.190450137132809,
                0.5747699130514368,
                0.7695839199849868,
                -3.171845022964423
            ]
        },
        {
            "positions": [
                -2.454730037177814,
                -2.104362801327139,
                2.2164406633628566,
                0.6973736066451495,
                0.6914536234198115,
                -3.1771792456416277
            ]
        },
        {
            "positions": [
                -2.5330253786441324,
                -2.173140465701943,
                2.242431189592904,
                0.8199773002388622,
                0.6133233268546362,
                -3.1825134683188323
            ]
        },
        {
            "positions": [
                -2.6113207201104505,
                -2.2419181300767463,
                2.2684217158229516,
                0.9425809938325747,
                0.5351930302894611,
                -3.1878476909960365
            ]
        },
        {
            "positions": [
                -2.6896160615767695,
                -2.31069579445155,
                2.294412242052999,
                1.0651846874262874,
                0.45706273372428563,
                -3.193181913673241
            ]
        },
        {
            "positions": [
                -2.7679114030430876,
                -2.3794734588263537,
                2.3204027682830466,
                1.1877883810199998,
                0.3789324371591105,
                -3.1985161363504457
            ]
        },
        {
            "positions": [
                -2.846206744509406,
                -2.4482511232011572,
                2.346393294513094,
                1.3103920746137125,
                0.3008021405939352,
                -3.2038503590276504
            ]
        },
        {
            "positions": [
                -2.9245020859757247,
                -2.5170287875759607,
                2.372383820743141,
                1.432995768207425,
                0.22267184402876006,
                -3.209184581704855
            ]
        },
        {
            "positions": [
                -3.002797427442043,
                -2.5858064519507646,
                2.398374346973189,
                1.555599461801138,
                0.14454154746358472,
                -3.214518804382059
            ]
        },
        {
            "positions": [
                -3.0810927689083614,
                -2.6545841163255686,
                2.4243648732032366,
                1.67820315539485,
                0.0664112508984096,
                -3.219853027059264
            ]
        },
        {
            "positions": [
                -3.15938811037468,
                -2.723361780700372,
                2.450355399433284,
                1.8008068489885631,
                -0.011719045666765737,
                -3.2251872497364684
            ]
        },
        {
            "positions": [
                -3.1166678611349763,
                -2.6257688595101274,
                2.4228294046314063,
                1.6357108497002013,
                0.03042486720900517,
                -3.220130245230979
            ]
        },
        {
            "positions": [
                -3.073947611895272,
                -2.5281759383198827,
                2.3953034098295287,
                1.4706148504118395,
                0.07256878008477607,
                -3.2150732407254896
            ]
        },
        {
            "positions": [
                -3.0312273626555686,
                -2.4305830171296385,
                2.367777415027651,
                1.3055188511234777,
                0.11471269296054698,
                -3.21001623622
            ]
        },
        {
            "positions": [
                -2.988507113415865,
                -2.332990095939394,
                2.3402514202257736,
                1.1404228518351158,
                0.15685660583631789,
                -3.2049592317145104
            ]
        },
        {
            "positions": [
                -2.945786864176161,
                -2.2353971747491492,
                2.312725425423896,
                0.9753268525467541,
                0.1990005187120888,
                -3.199902227209021
            ]
        },
        {
            "positions": [
                -2.9030666149364572,
                -2.1378042535589046,
                2.2851994306220185,
                0.8102308532583924,
                0.2411444315878597,
                -3.1948452227035316
            ]
        },
        {
            "positions": [
                -2.8603463656967536,
                -2.04021133236866,
                2.257673435820141,
                0.6451348539700306,
                0.2832883444636306,
                -3.1897882181980424
            ]
        },
        {
            "positions": [
                -2.81762611645705,
                -1.9426184111784155,
                2.2301474410182633,
                0.48003885468166874,
                0.3254322573394015,
                -3.1847312136925527
            ]
        },
        {
            "positions": [
                -2.774905867217346,
                -1.845025489988171,
                2.202621446216386,
                0.3149428553933069,
                0.3675761702151724,
                -3.179674209187063
            ]
        },
        {
            "positions": [
                -2.7321856179776423,
                -1.7474325687979264,
                2.175095451414508,
                0.14984685610494508,
                0.4097200830909433,
                -3.174617204681574
            ]
        },
        {
            "positions": [
                -2.689465368737938,
                -1.6498396476076818,
                2.1475694566126307,
                -0.015249143183416747,
                0.4518639959667142,
                -3.1695602001760843
            ]
        },
        {
            "positions": [
                -2.6467451194982345,
                -1.552246726417437,
                2.120043461810753,
                -0.18034514247177835,
                0.49400790884248513,
                -3.164503195670595
            ]
        },
        {
            "positions": [
                -2.604024870258531,
                -1.4546538052271927,
                2.0925174670088755,
                -0.3454411417601402,
                0.536151821718256,
                -3.1594461911651055
            ]
        },
        {
            "positions": [
                -2.5613046210188273,
                -1.357060884036948,
                2.064991472206998,
                -0.510537141048502,
                0.5782957345940269,
                -3.154389186659616
            ]
        },
        {
            "positions": [
                -2.518584371779123,
                -1.2594679628467036,
                2.0374654774051204,
                -0.6756331403368638,
                0.6204396474697979,
                -3.1493321821541267
            ]
        },
        {
            "positions": [
                -2.4758641225394196,
                -1.161875041656459,
                2.009939482603243,
                -0.8407291396252257,
                0.6625835603455688,
                -3.144275177648637
            ]
        }
    ]
}