{
    "goal": {
        "global_pose": {
            "orientation": {
                "w": 0.7047431493862688,
                "x": -0.7094548369677653,
                "y": 0.0024358444001904,
                "z": -0.0022348060817251984
            },
            "position": {
                "x": -0.39052492380142206,
                "y": 0.3671506643295288,
                "z": 0.19426114857196808
            }
        },
        "name": "move_to_magneteinheit_D"
    },
    "id": "BKPIECE_move_to_magneteinheit_D_147",
    "joint_names": [
        "shoulder_pan_joint",
        "shoulder_lift_joint",
        "elbow_joint",
        "wrist_1_joint",
        "wrist_2_joint",
        "wrist_3_joint"
    ],
    "metrics": {
        "cart_traj_len": 5.233966067983251,
        "distance_elbow_joint": 3.4908912511193755,
        "distance_shoulder_lift_joint": 1.7033152869596102,
        "distance_shoulder_pan_joint": 3.5732708288865016,
        "distance_wrist_1_joint": 2.101326054849955,
        "distance_wrist_2_joint": 3.15752617921267,
        "distance_wrist_3_joint": 7.118006829891464,
        "smoothness": 0.6416001953009585,
        "time": 0.25459582,
        "traj_len": 4.59829712294884,
        "weighted_distance": 6.3748884166521025
    },
    "planner": "BKPIECE",
    "start": {
        "state": {
            "elbow_joint": 0.749534889911806,
            "shoulder_lift_joint": -0.6476975780787326,
            "shoulder_pan_joint": -2.711696901376241,
            "wrist_1_joint": -0.07506478083263063,
            "wrist_2_joint": 0.43296659715538205,
            "wrist_3_joint": -3.14703540197715
        }
    },
    "waypoints": [
        {
            "positions": [
                -2.711696901376241,
                -0.6476975780787326,
                0.749534889911806,
                -0.07506478083263063,
                0.43296659715538205,
                -3.14703540197715
            ]
        },
        {
            "positions": [
                -2.7227554639638027,
                -0.6978252922564487,
                0.73598981872171,
                -0.10535464082023413,
                0.4435154781924985,
                -2.9390261778882736
            ]
        },
        {
            "positions": [
                -2.7338140265513644,
                -0.7479530064341648,
                0.722444747531614,
                -0.13564450080783763,
                0.4540643592296149,
                -2.731016953799397
            ]
        },
        {
            "positions": [
                -2.7448725891389256,
                -0.7980807206118808,
                0.7088996763415182,
                -0.16593436079544113,
                0.46461324026673134,
                -2.5230077297105207
            ]
        },
        {
            "positions": [
                -2.7559311517264873,
                -0.848208434789597,
                0.6953546051514222,
                -0.19622422078304463,
                0.4751621213038478,
                -2.314998505621644
            ]
        },
        {
            "positions": [
                -2.6409151306455874,
                -0.9085551831716623,
                0.6844778480208932,
                -0.22827609735744847,
                0.4582206853049986,
                -2.1645397984948698
            ]
        },
        {
            "positions": [
                -2.525899109564687,
                -0.9689019315537276,
                0.6736010908903641,
                -0.2603279739318523,
                0.44127924930614937,
                -2.0140810913680958
            ]
        },
        {
            "positions": [
                -2.410883088483787,
                -1.029248679935793,
                0.6627243337598351,
                -0.29237985050625614,
                0.4243378133073002,
                -1.8636223842413213
            ]
        },
        {
            "positions": [
                -2.295867067402887,
                -1.0895954283178582,
                0.6518475766293061,
                -0.3244317270806599,
                0.407396377308451,
                -1.7131636771145469
            ]
        },
        {
            "positions": [
                -2.180851046321987,
                -1.1499421766999236,
                0.6409708194987771,
                -0.3564836036550638,
                0.3904549413096018,
                -1.5627049699877726
            ]
        },
        {
            "positions": [
                -2.065835025241087,
                -1.2102889250819888,
                0.630094062368248,
                -0.3885354802294676,
                0.3735135053107526,
                -1.4122462628609984
            ]
        },
        {
            "positions": [
                -1.950819004160187,
                -1.270635673464054,
                0.619217305237719,
                -0.4205873568038714,
                0.35657206931190344,
                -1.2617875557342242
            ]
        },
        {
            "positions": [
                -1.8358029830792866,
                -1.3309824218461195,
                0.60834054810719,
                -0.4526392333782753,
                0.3396306333130542,
                -1.1113288486074497
            ]
        },
        {
            "positions": [
                -1.7207869619983867,
                -1.3913291702281847,
                0.5974637909766609,
                -0.48469110995267906,
                0.3226891973142051,
                -0.9608701414806755
            ]
        },
        {
            "positions": [
                -1.6057709409174865,
                -1.4516759186102501,
                0.5865870338461319,
                -0.516742986527083,
                0.30574776131535586,
                -0.8104114343539011
            ]
        },
        {
            "positions": [
                -1.4907549198365864,
                -1.5120226669923154,
                0.5757102767156029,
                -0.5487948631014867,
                0.28880632531650663,
                -0.6599527272271268
            ]
        },
        {
            "positions": [
                -1.3757388987556862,
                -1.5723694153743808,
                0.5648335195850739,
                -0.5808467396758906,
                0.27186488931765745,
                -0.5094940201003524
            ]
        },
        {
            "positions": [
                -1.2607228776747863,
                -1.632716163756446,
                0.5539567624545448,
                -0.6128986162502944,
                0.2549234533188083,
                -0.35903531297357827
            ]
        },
        {
            "positions": [
                -1.2071376326349763,
                -1.6465232206870075,
                0.44836672776598596,
                -0.6365449998549433,
                0.20052757892469544,
                -0.22738434880218247
            ]
        },
        {
            "positions": [
                -1.153552387595166,
                -1.6603302776175692,
                0.34277669307742714,
                -0.6601913834595923,
                0.1461317045305826,
                -0.09573338463078668
            ]
        },
        {
            "positions": [
                -1.099967142555356,
                -1.6741373345481307,
                0.23718665838886832,
                -0.6838377670642412,
                0.09173583013646977,
                0.035917579540609146
            ]
        },
        {
            "positions": [
                -1.0463818975155461,
                -1.6879443914786925,
                0.13159662370030945,
                -0.70748415066889,
                0.037339955742356906,
                0.1675685437120049
            ]
        },
        {
            "positions": [
                -0.992796652475736,
                -1.701751448409254,
                0.02600658901175057,
                -0.731130534273539,
                -0.01705591865175593,
                0.2992195078834008
            ]
        },
        {
            "positions": [
                -0.9392114074359259,
                -1.7155585053398155,
                -0.0795834456768082,
                -0.7547769178781879,
                -0.07145179304586874,
                0.43087047205479656
            ]
        },
        {
            "positions": [
                -0.8856261623961159,
                -1.7293655622703772,
                -0.18517348036536718,
                -0.7784233014828368,
                -0.1258476674399816,
                0.5625214362261924
            ]
        },
        {
            "positions": [
                -0.8320409173563059,
                -1.7431726192009387,
                -0.29076351505392595,
                -0.8020696850874858,
                -0.18024354183409447,
                0.6941724003975881
            ]
        },
        {
            "positions": [
                -0.7784556723164958,
                -1.7569796761315004,
                -0.3963535497424848,
                -0.8257160686921347,
                -0.23463941622820733,
                0.825823364568984
            ]
        },
        {
            "positions": [
                -0.7248704272766857,
                -1.770786733062062,
                -0.5019435844310437,
                -0.8493624522967835,
                -0.28903529062232014,
                0.9574743287403799
            ]
        },
        {
            "positions": [
                -0.6712851822368757,
                -1.7845937899926234,
                -0.6075336191196025,
                -0.8730088359014325,
                -0.3434311650164329,
                1.0891252929117754
            ]
        },
        {
            "positions": [
                -0.6176999371970656,
                -1.7984008469231851,
                -0.7131236538081612,
                -0.8966552195060814,
                -0.39782703941054576,
                1.2207762570831715
            ]
        },
        {
            "positions": [
                -0.5641146921572556,
                -1.8122079038537466,
                -0.8187136884967202,
                -0.9203016031107303,
                -0.4522229138046586,
                1.3524272212545672
            ]
        },
        {
            "positions": [
                -0.5105294471174455,
                -1.8260149607843084,
                -0.9243037231852792,
                -0.9439479867153793,
                -0.5066187881987715,
                1.4840781854259633
            ]
        },
        {
            "positions": [
                -0.4569442020776354,
                -1.8398220177148699,
                -1.0298937578738379,
                -0.9675943703200283,
                -0.5610146625928844,
                1.615729149597359
            ]
        },
        {
            "positions": [
                -0.4033589570378254,
                -1.8536290746454316,
                -1.1354837925623968,
                -0.991240753924677,
                -0.6154105369869972,
                1.7473801137687546
            ]
        },
        {
            "positions": [
                -0.34977371199801544,
                -1.867436131575993,
                -1.2410738272509554,
                -1.014887137529326,
                -0.66980641138111,
                1.8790310779401502
            ]
        },
        {
            "positions": [
                -0.29618846695820533,
                -1.8812431885065548,
                -1.3466638619395144,
                -1.038533521133975,
                -0.7242022857752229,
                2.0106820421115463
            ]
        },
        {
            "positions": [
                -0.24260322191839534,
                -1.8950502454371163,
                -1.4522538966280734,
                -1.0621799047386238,
                -0.7785981601693357,
                2.142333006282942
            ]
        },
        {
            "positions": [
                -0.18901797687858513,
                -1.9088573023676778,
                -1.5578439313166323,
                -1.0858262883432728,
                -0.8329940345634486,
                2.273983970454338
            ]
        },
        {
            "positions": [
                -0.13543273183877513,
                -1.9226643592982395,
                -1.6634339660051913,
                -1.1094726719479218,
                -0.8873899089575614,
                2.4056349346257337
            ]
        },
        {
            "positions": [
                -0.08184748679896514,
                -1.936471416228801,
                -1.7690240006937499,
                -1.1331190555525705,
                -0.9417857833516741,
                2.5372858987971294
            ]
        },
        {
            "positions": [
                -0.028262241759154927,
                -1.9502784731593628,
                -1.8746140353823089,
                -1.1567654391572195,
                -0.9961816577457872,
                2.6689368629685255
            ]
        },
        {
            "positions": [
                0.025323003280655065,
                -1.9640855300899243,
                -1.9802040700708674,
                -1.1804118227618683,
                -1.0505775321398998,
                2.800587827139921
            ]
        },
        {
            "positions": [
                0.07890824832046506,
                -1.9778925870204858,
                -2.0857941047594264,
                -1.2040582063665173,
                -1.1049734065340127,
                2.932238791311317
            ]
        },
        {
            "positions": [
                0.13249349336027505,
                -1.9916996439510475,
                -2.1913841394479854,
                -1.2277045899711663,
                -1.1593692809281255,
                3.063889755482713
            ]
        },
        {
            "positions": [
                0.18607873840008504,
                -2.005506700881609,
                -2.296974174136544,
                -1.251350973575815,
                -1.2137651553222384,
                3.1955407196541086
            ]
        },
        {
            "positions": [
                0.23966398343989526,
                -2.0193137578121707,
                -2.4025642088251034,
                -1.2749973571804643,
                -1.2681610297163513,
                3.3271916838255047
            ]
        },
        {
            "positions": [
                0.29324922847970525,
                -2.033120814742732,
                -2.508154243513662,
                -1.298643740785113,
                -1.3225569041104641,
                3.4588426479969003
            ]
        },
        {
            "positions": [
                0.24681871104862413,
                -1.9993647347162389,
                -2.4871185481979063,
                -1.396131305898584,
                -1.1861466948900539,
                3.4124444610428593
            ]
        },
        {
            "positions": [
                0.200388193617543,
                -1.9656086546897455,
                -2.466082852882151,
                -1.493618871012055,
                -1.0497364856696434,
                3.3660462740888177
            ]
        },
        {
            "positions": [
                0.1539576761864619,
                -1.9318525746632524,
                -2.4450471575663957,
                -1.591106436125526,
                -0.9133262764492331,
                3.3196480871347767
            ]
        },
        {
            "positions": [
                0.10752715875538074,
                -1.8980964946367591,
                -2.42401146225064,
                -1.688594001238997,
                -0.7769160672288229,
                3.2732499001807356
            ]
        },
        {
            "positions": [
                0.06109664132429962,
                -1.8643404146102658,
                -2.4029757669348846,
                -1.7860815663524683,
                -0.6405058580084124,
                3.226851713226694
            ]
        },
        {
            "positions": [
                0.01466612389321853,
                -1.8305843345837725,
                -2.381940071619129,
                -1.883569131465939,
                -0.5040956487880022,
                3.180453526272653
            ]
        },
        {
            "positions": [
                -0.031764393537862645,
                -1.7968282545572793,
                -2.360904376303374,
                -1.9810566965794103,
                -0.3676854395675918,
                3.134055339318612
            ]
        },
        {
            "positions": [
                -0.07819491096894376,
                -1.763072174530786,
                -2.3398686809876184,
                -2.078544261692881,
                -0.23127523034718167,
                3.0876571523645704
            ]
        },
        {
            "positions": [
                -0.12462542840002486,
                -1.7293160945042927,
                -2.318832985671863,
                -2.1760318268063523,
                -0.09486502112677118,
                3.0412589654105293
            ]
        },
        {
            "positions": [
                -0.1866069698503576,
                -1.7434034245614638,
                -2.362713845523971,
                -2.175672817930119,
                -0.18478476779297057,
                3.135804062741573
            ]
        }
    ]
}