{
    "goal": {
        "global_pose": {
            "orientation": {
                "w": 0.005598929693374612,
                "x": 0.007748599140229565,
                "y": 0.7110244013736278,
                "z": -0.7031023480610252
            },
            "position": {
                "x": -0.8858502320852131,
                "y": -0.7141253447532654,
                "z": 0.3711530566215515
            }
        },
        "name": "move_to_auspresseinheit_C"
    },
    "id": "BKPIECE_move_to_auspresseinheit_C_44",
    "joint_names": [
        "shoulder_pan_joint",
        "shoulder_lift_joint",
        "elbow_joint",
        "wrist_1_joint",
        "wrist_2_joint",
        "wrist_3_joint"
    ],
    "metrics": {
        "cart_traj_len": 0.49436671864043696,
        "distance_elbow_joint": 1.0092572394903834,
        "distance_shoulder_lift_joint": 0.32939574298940255,
        "distance_shoulder_pan_joint": 0.2566997181946178,
        "distance_wrist_1_joint": 0.6910984633654508,
        "distance_wrist_2_joint": 1.318632022368775,
        "distance_wrist_3_joint": 0.0619401025653179,
        "smoothness": 9.689219124001365e-16,
        "time": 0.437166344,
        "traj_len": 1.914947333211529,
        "weighted_distance": 2.4084505350616627
    },
    "planner": "BKPIECE",
    "start": {
        "state": {
            "elbow_joint": 1.7527959577737207,
            "shoulder_lift_joint": -0.9740617694225068,
            "shoulder_pan_joint": -2.967991417825858,
            "wrist_1_joint": -0.759517768980727,
            "wrist_2_joint": 1.7443932448377408,
            "wrist_3_joint": -3.0840537646736568
        }
    },
    "waypoints": [
        {
            "positions": [
                -2.967991417825858,
                -0.9740617694225068,
                1.7527959577737207,
                -0.759517768980727,
                1.7443932448377408,
                -3.0840537646736568
            ]
        },
        {
            "positions": [
                -2.942321446006396,
                -0.9411221951235665,
                1.6518702338246822,
                -0.6904079226441819,
                1.6125300426008633,
                -3.0902477749301887
            ]
        },
        {
            "positions": [
                -2.9166514741869345,
                -0.9081826208246263,
                1.550944509875644,
                -0.6212980763076368,
                1.4806668403639858,
                -3.0964417851867205
            ]
        },
        {
            "positions": [
                -2.8909815023674725,
                -0.875243046525686,
                1.4500187859266056,
                -0.5521882299710917,
                1.3488036381271082,
                -3.102635795443252
            ]
        },
        {
            "positions": [
                -2.865311530548011,
                -0.8423034722267457,
                1.3490930619775674,
                -0.48307838363454664,
                1.2169404358902307,
                -3.108829805699784
            ]
        },
        {
            "positions": [
                -2.839641558728549,
                -0.8093638979278055,
                1.248167338028529,
                -0.4139685372980016,
                1.0850772336533532,
                -3.1150238159563157
            ]
        },
        {
            "positions": [
                -2.813971586909087,
                -0.7764243236288653,
                1.1472416140794905,
                -0.34485869096145655,
                0.9532140314164758,
                -3.1212178262128476
            ]
        },
        {
            "positions": [
                -2.7883016150896256,
                -0.743484749329925,
                1.0463158901304523,
                -0.27574884462491145,
                0.8213508291795983,
                -3.1274118364693795
            ]
        },
        {
            "positions": [
                -2.7626316432701636,
                -0.7105451750309848,
                0.9453901661814139,
                -0.2066389982883663,
                0.6894876269427208,
                -3.133605846725911
            ]
        },
        {
            "positions": [
                -2.736961671450702,
                -0.6776056007320445,
                0.8444644422323756,
                -0.13752915195182125,
                0.5576244247058433,
                -3.139799856982443
            ]
        },
        {
            "positions": [
                -2.71129169963124,
                -0.6446660264331042,
                0.7435387182833373,
                -0.06841930561527625,
                0.4257612224689658,
                -3.1459938672389747
            ]
        }
    ]
}