{
    "goal": {
        "global_pose": {
            "orientation": {
                "w": 0.7047431493862688,
                "x": -0.7094548369677653,
                "y": 0.0024358444001904,
                "z": -0.0022348060817251984
            },
            "position": {
                "x": -0.39052492380142206,
                "y": 0.3671506643295288,
                "z": 0.19426114857196808
            }
        },
        "name": "move_to_magneteinheit_D"
    },
    "id": "BKPIECE_move_to_magneteinheit_D_5",
    "joint_names": [
        "shoulder_pan_joint",
        "shoulder_lift_joint",
        "elbow_joint",
        "wrist_1_joint",
        "wrist_2_joint",
        "wrist_3_joint"
    ],
    "metrics": {
        "cart_traj_len": 4.575555804398173,
        "distance_elbow_joint": 3.144636586431948,
        "distance_shoulder_lift_joint": 1.6267249124348775,
        "distance_shoulder_pan_joint": 3.253212658223975,
        "distance_wrist_1_joint": 2.2963049306678025,
        "distance_wrist_2_joint": 0.3645261941533154,
        "distance_wrist_3_joint": 3.459362570427824,
        "smoothness": 0.25165989537141836,
        "time": 0.23658666,
        "traj_len": 3.7609530510682716,
        "weighted_distance": 4.8707621701348245
    },
    "planner": "BKPIECE",
    "start": {
        "state": {
            "elbow_joint": 0.749534889911806,
            "shoulder_lift_joint": -0.6476975780787326,
            "shoulder_pan_joint": -2.711696901376241,
            "wrist_1_joint": -0.07506478083263063,
            "wrist_2_joint": 0.43296659715538205,
            "wrist_3_joint": -3.14703540197715
        }
    },
    "waypoints": [
        {
            "positions": [
                -2.711696901376241,
                -0.6476975780787326,
                0.749534889911806,
                -0.07506478083263063,
                0.43296659715538205,
                -3.14703540197715
            ]
        },
        {
            "positions": [
                -2.7288868812695934,
                -0.7033494843285776,
                0.7280757692865083,
                -0.17310762243000505,
                0.3844861766188661,
                -3.033738030066486
            ]
        },
        {
            "positions": [
                -2.7460768611629462,
                -0.7590013905784225,
                0.7066166486612108,
                -0.2711504640273795,
                0.33600575608235017,
                -2.920440658155822
            ]
        },
        {
            "positions": [
                -2.763266841056299,
                -0.8146532968282674,
                0.6851575280359132,
                -0.36919330562475394,
                0.2875253355458342,
                -2.807143286245158
            ]
        },
        {
            "positions": [
                -2.7804568209496514,
                -0.8703052030781123,
                0.6636984074106156,
                -0.46723614722212836,
                0.23904491500931827,
                -2.693845914334494
            ]
        },
        {
            "positions": [
                -2.6600099292071144,
                -0.9067341809930078,
                0.6011426518657592,
                -0.41174722597799823,
                0.2411884888722871,
                -2.576882271102294
            ]
        },
        {
            "positions": [
                -2.5395630374645775,
                -0.9431631589079035,
                0.5385868963209028,
                -0.35625830473386816,
                0.24333206273525596,
                -2.4599186278700937
            ]
        },
        {
            "positions": [
                -2.419116145722041,
                -0.9795921368227991,
                0.4760311407760465,
                -0.30076938348973803,
                0.2454756365982248,
                -2.3429549846378936
            ]
        },
        {
            "positions": [
                -2.298669253979504,
                -1.0160211147376947,
                0.4134753852311902,
                -0.24528046224560793,
                0.24761921046119365,
                -2.2259913414056935
            ]
        },
        {
            "positions": [
                -2.178222362236967,
                -1.0524500926525902,
                0.3509196296863338,
                -0.18979154100147777,
                0.2497627843241625,
                -2.1090276981734934
            ]
        },
        {
            "positions": [
                -2.05777547049443,
                -1.0888790705674858,
                0.28836387414147746,
                -0.1343026197573477,
                0.2519063581871313,
                -1.9920640549412933
            ]
        },
        {
            "positions": [
                -1.937328578751893,
                -1.1253080484823814,
                0.2258081185966211,
                -0.07881369851321757,
                0.2540499320501002,
                -1.8751004117090933
            ]
        },
        {
            "positions": [
                -1.8168816870093565,
                -1.1617370263972768,
                0.16325236305176483,
                -0.023324777269087493,
                0.256193505913069,
                -1.7581367684768932
            ]
        },
        {
            "positions": [
                -1.6964347952668195,
                -1.1981660043121725,
                0.10069660750690845,
                0.032164143975042636,
                0.25833707977603787,
                -1.641173125244693
            ]
        },
        {
            "positions": [
                -1.5759879035242825,
                -1.234594982227068,
                0.03814085196205197,
                0.08765306521917282,
                0.2604806536390067,
                -1.524209482012493
            ]
        },
        {
            "positions": [
                -1.4555410117817458,
                -1.2710239601419637,
                -0.024414903582804293,
                0.14314198646330278,
                0.26262422750197556,
                -1.4072458387802929
            ]
        },
        {
            "positions": [
                -1.3350941200392088,
                -1.3074529380568594,
                -0.08697065912766067,
                0.19863090770743297,
                0.2647678013649444,
                -1.2902821955480928
            ]
        },
        {
            "positions": [
                -1.214647228296672,
                -1.343881915971755,
                -0.14952641467251693,
                0.25411982895156304,
                0.26691137522791325,
                -1.1733185523158927
            ]
        },
        {
            "positions": [
                -1.0942003365541348,
                -1.3803108938866506,
                -0.2120821702173734,
                0.3096087501956932,
                0.26905494909088207,
                -1.0563549090836926
            ]
        },
        {
            "positions": [
                -0.9737534448115981,
                -1.416739871801546,
                -0.2746379257622298,
                0.3650976714398233,
                0.27119852295385094,
                -0.9393912658514925
            ]
        },
        {
            "positions": [
                -0.8533065530690613,
                -1.4531688497164414,
                -0.33719368130708594,
                0.4205865926839534,
                0.27334209681681976,
                -0.8224276226192924
            ]
        },
        {
            "positions": [
                -0.7328596613265241,
                -1.489597827631337,
                -0.39974943685194253,
                0.47607551392808356,
                0.27548567067978863,
                -0.7054639793870923
            ]
        },
        {
            "positions": [
                -0.6124127695839876,
                -1.5260268055462327,
                -0.4623051923967987,
                0.5315644351722136,
                0.27762924454275745,
                -0.5885003361548922
            ]
        },
        {
            "positions": [
                -0.4919658778414506,
                -1.5624557834611283,
                -0.524860947941655,
                0.5870533564163437,
                0.2797728184057263,
                -0.47153669292269207
            ]
        },
        {
            "positions": [
                -0.37151898609891365,
                -1.598884761376024,
                -0.5874167034865116,
                0.642542277660474,
                0.28191639226869514,
                -0.35457304969049197
            ]
        },
        {
            "positions": [
                -0.2510720943563767,
                -1.6353137392909196,
                -0.6499724590313678,
                0.6980311989046039,
                0.28405996613166395,
                -0.23760940645829187
            ]
        },
        {
            "positions": [
                -0.13062520261384014,
                -1.6717427172058152,
                -0.7125282145762242,
                0.7535201201487339,
                0.2862035399946328,
                -0.12064576322609177
            ]
        },
        {
            "positions": [
                -0.010178310871303164,
                -1.7081716951207109,
                -0.7750839701210805,
                0.8090090413928642,
                0.2883471138576017,
                -0.003682119993891675
            ]
        },
        {
            "positions": [
                0.11026858087123395,
                -1.7446006730356063,
                -0.8376397256659368,
                0.8644979626369942,
                0.2904906877205705,
                0.11328152323830831
            ]
        },
        {
            "positions": [
                0.09122259675537582,
                -1.806413119676716,
                -1.0154609474924723,
                0.9380188691994278,
                0.27881027939142883,
                0.12582083642045527
            ]
        },
        {
            "positions": [
                0.07217661263951769,
                -1.8682255663178255,
                -1.1932821693190077,
                1.0115397757618614,
                0.2671298710622871,
                0.1383601496026022
            ]
        },
        {
            "positions": [
                0.053130628523659566,
                -1.930038012958935,
                -1.3711033911455432,
                1.085060682324295,
                0.2554494627331454,
                0.15089946278474917
            ]
        },
        {
            "positions": [
                0.03408464440780144,
                -1.9918504596000446,
                -1.5489246129720786,
                1.1585815888867286,
                0.2437690544040037,
                0.1634387759668961
            ]
        },
        {
            "positions": [
                0.015038660291943312,
                -2.053662906241154,
                -1.726745834798614,
                1.2321024954491622,
                0.232088646074862,
                0.17597808914904306
            ]
        },
        {
            "positions": [
                -0.0040073238239148185,
                -2.115475352882264,
                -1.9045670566251496,
                1.3056234020115958,
                0.22040823774572027,
                0.18851740233119002
            ]
        },
        {
            "positions": [
                -0.02305330793977295,
                -2.1772877995233735,
                -2.082388278451685,
                1.3791443085740294,
                0.20872782941657858,
                0.20105671551333695
            ]
        },
        {
            "positions": [
                -0.10325603194910841,
                -2.2258551450184916,
                -2.238744987485913,
                1.4080208628151034,
                0.19002988892057487,
                0.145421489044668
            ]
        },
        {
            "positions": [
                -0.18345875595844388,
                -2.27442249051361,
                -2.3951016965201415,
                1.4368974170561772,
                0.17133194842457117,
                0.08978626257599909
            ]
        }
    ]
}