{
    "goal": {
        "global_pose": {
            "orientation": {
                "w": 0.005598929693374612,
                "x": 0.007748599140229565,
                "y": 0.7110244013736278,
                "z": -0.7031023480610252
            },
            "position": {
                "x": -0.8858502320852131,
                "y": -0.7141253447532654,
                "z": 0.3711530566215515
            }
        },
        "name": "move_to_auspresseinheit_C"
    },
    "id": "BKPIECE_move_to_auspresseinheit_C_63",
    "joint_names": [
        "shoulder_pan_joint",
        "shoulder_lift_joint",
        "elbow_joint",
        "wrist_1_joint",
        "wrist_2_joint",
        "wrist_3_joint"
    ],
    "metrics": {
        "cart_traj_len": 0.49178970584861503,
        "distance_elbow_joint": 0.987059316043177,
        "distance_shoulder_lift_joint": 0.31859473612390754,
        "distance_shoulder_pan_joint": 0.25632730265727766,
        "distance_wrist_1_joint": 0.659807022987681,
        "distance_wrist_2_joint": 1.303324036870251,
        "distance_wrist_3_joint": 0.048241038814794024,
        "smoothness": 4.844609574787718e-16,
        "time": 0.193961155,
        "traj_len": 1.8903315723695375,
        "weighted_distance": 2.3733871557300987
    },
    "planner": "BKPIECE",
    "start": {
        "state": {
            "elbow_joint": 1.7527959577737207,
            "shoulder_lift_joint": -0.9740617694225068,
            "shoulder_pan_joint": -2.967991417825858,
            "wrist_1_joint": -0.759517768980727,
            "wrist_2_joint": 1.7443932448377408,
            "wrist_3_joint": -3.0840537646736568
        }
    },
    "waypoints": [
        {
            "positions": [
                -2.967991417825858,
                -0.9740617694225068,
                1.7527959577737207,
                -0.759517768980727,
                1.7443932448377408,
                -3.0840537646736568
            ]
        },
        {
            "positions": [
                -2.94235868756013,
                -0.942202295810116,
                1.654090026169403,
                -0.6935370666819589,
                1.6140608411507158,
                -3.0888778685551364
            ]
        },
        {
            "positions": [
                -2.9167259572944024,
                -0.9103428221977252,
                1.5553840945650852,
                -0.6275563643831907,
                1.4837284374636905,
                -3.0937019724366155
            ]
        },
        {
            "positions": [
                -2.8910932270286747,
                -0.8784833485853345,
                1.4566781629607677,
                -0.5615756620844227,
                1.3533960337766655,
                -3.098526076318095
            ]
        },
        {
            "positions": [
                -2.865460496762947,
                -0.8466238749729438,
                1.3579722313564497,
                -0.49559495978565454,
                1.2230636300896403,
                -3.103350180199574
            ]
        },
        {
            "positions": [
                -2.839827766497219,
                -0.8147644013605531,
                1.2592662997521322,
                -0.4296142574868865,
                1.0927312264026154,
                -3.108174284081054
            ]
        },
        {
            "positions": [
                -2.8141950362314914,
                -0.7829049277481622,
                1.1605603681478145,
                -0.3636335551881184,
                0.9623988227155903,
                -3.1129983879625334
            ]
        },
        {
            "positions": [
                -2.7885623059657636,
                -0.7510454541357715,
                1.0618544365434968,
                -0.2976528528893503,
                0.8320664190285652,
                -3.1178224918440125
            ]
        },
        {
            "positions": [
                -2.762929575700036,
                -0.7191859805233807,
                0.963148504939179,
                -0.2316721505905821,
                0.7017340153415399,
                -3.122646595725492
            ]
        },
        {
            "positions": [
                -2.737296845434308,
                -0.68732650691099,
                0.8644425733348614,
                -0.16569144829181404,
                0.5714016116545149,
                -3.127470699606971
            ]
        },
        {
            "positions": [
                -2.7116641151685803,
                -0.6554670332985992,
                0.7657366417305437,
                -0.09971074599304595,
                0.44106920796748983,
                -3.132294803488451
            ]
        }
    ]
}