{
    "goal": {
        "global_pose": {
            "orientation": {
                "w": 0.7047431493862688,
                "x": -0.7094548369677653,
                "y": 0.0024358444001904,
                "z": -0.0022348060817251984
            },
            "position": {
                "x": -0.39052492380142206,
                "y": 0.3671506643295288,
                "z": 0.19426114857196808
            }
        },
        "name": "move_to_magneteinheit_D"
    },
    "id": "BKPIECE_move_to_magneteinheit_D_57",
    "joint_names": [
        "shoulder_pan_joint",
        "shoulder_lift_joint",
        "elbow_joint",
        "wrist_1_joint",
        "wrist_2_joint",
        "wrist_3_joint"
    ],
    "metrics": {
        "cart_traj_len": 4.576568511277507,
        "distance_elbow_joint": 3.3039324452220677,
        "distance_shoulder_lift_joint": 1.8115480208895507,
        "distance_shoulder_pan_joint": 5.216321546200733,
        "distance_wrist_1_joint": 3.8585906100272798,
        "distance_wrist_2_joint": 1.545736189509607,
        "distance_wrist_3_joint": 10.058688047064004,
        "smoothness": 0.44466932019149535,
        "time": 0.390686527,
        "traj_len": 5.0788597990999165,
        "weighted_distance": 7.163554966116903
    },
    "planner": "BKPIECE",
    "start": {
        "state": {
            "elbow_joint": 0.749534889911806,
            "shoulder_lift_joint": -0.6476975780787326,
            "shoulder_pan_joint": -2.711696901376241,
            "wrist_1_joint": -0.07506478083263063,
            "wrist_2_joint": 0.43296659715538205,
            "wrist_3_joint": -3.14703540197715
        }
    },
    "waypoints": [
        {
            "positions": [
                -2.711696901376241,
                -0.6476975780787326,
                0.749534889911806,
                -0.07506478083263063,
                0.43296659715538205,
                -3.14703540197715
            ]
        },
        {
            "positions": [
                -2.748224375277136,
                -0.7428573810717134,
                0.7531592761872679,
                -0.07173330160085001,
                0.3667928771710899,
                -3.135195256229464
            ]
        },
        {
            "positions": [
                -2.7847518491780305,
                -0.8380171840646942,
                0.7567836624627298,
                -0.06840182236906939,
                0.30061915718679777,
                -3.123355110481777
            ]
        },
        {
            "positions": [
                -2.6938980090977793,
                -0.8835229147559838,
                0.6818669907632896,
                -0.13657117847310984,
                0.25828020933427437,
                -3.060049751470384
            ]
        },
        {
            "positions": [
                -2.603044169017528,
                -0.9290286454472734,
                0.6069503190638494,
                -0.20474053457715033,
                0.21594126148175094,
                -2.9967443924589903
            ]
        },
        {
            "positions": [
                -2.512190328937277,
                -0.974534376138563,
                0.5320336473644094,
                -0.2729098906811908,
                0.1736023136292275,
                -2.9334390334475966
            ]
        },
        {
            "positions": [
                -2.4213364888570252,
                -1.0200401068298526,
                0.4571169756649692,
                -0.34107924678523127,
                0.1312633657767041,
                -2.8701336744362034
            ]
        },
        {
            "positions": [
                -2.330482648776774,
                -1.0655458375211422,
                0.38220030396552906,
                -0.4092486028892718,
                0.08892441792418065,
                -2.80682831542481
            ]
        },
        {
            "positions": [
                -2.239628808696523,
                -1.1110515682124316,
                0.30728363226608896,
                -0.47741795899331224,
                0.04658547007165725,
                -2.7435229564134165
            ]
        },
        {
            "positions": [
                -2.1487749686162716,
                -1.1565572989037212,
                0.23236696056664874,
                -0.5455873150973527,
                0.004246522219133797,
                -2.680217597402023
            ]
        },
        {
            "positions": [
                -2.0579211285360204,
                -1.2020630295950108,
                0.1574502888672087,
                -0.6137566712013931,
                -0.03809242563338955,
                -2.6169122383906296
            ]
        },
        {
            "positions": [
                -1.967067288455769,
                -1.2475687602863004,
                0.08253361716776852,
                -0.6819260273054337,
                -0.080431373485913,
                -2.5536068793792364
            ]
        },
        {
            "positions": [
                -1.8762134483755175,
                -1.29307449097759,
                0.007616945468328362,
                -0.7500953834094741,
                -0.12277032133843646,
                -2.4903015203678427
            ]
        },
        {
            "positions": [
                -1.7853596082952663,
                -1.3385802216688796,
                -0.06729972623111169,
                -0.8182647395135145,
                -0.1651092691909598,
                -2.426996161356449
            ]
        },
        {
            "positions": [
                -1.694505768215015,
                -1.3840859523601692,
                -0.14221639793055185,
                -0.886434095617555,
                -0.2074482170434833,
                -2.363690802345056
            ]
        },
        {
            "positions": [
                -1.6076052506214087,
                -1.3730212767298242,
                -0.21416688346384738,
                -0.9549622876875592,
                -0.2210287833316731,
                -2.229984115885954
            ]
        },
        {
            "positions": [
                -1.5207047330278023,
                -1.3619566010994792,
                -0.2861173689971429,
                -1.0234904797575632,
                -0.23460934961986296,
                -2.096277429426852
            ]
        },
        {
            "positions": [
                -1.4338042154341961,
                -1.3508919254691343,
                -0.3580678545304385,
                -1.0920186718275673,
                -0.24818991590805278,
                -1.9625707429677504
            ]
        },
        {
            "positions": [
                -1.3469036978405897,
                -1.3398272498387893,
                -0.430018340063734,
                -1.1605468638975713,
                -0.2617704821962426,
                -1.8288640565086487
            ]
        },
        {
            "positions": [
                -1.2600031802469833,
                -1.3287625742084441,
                -0.5019688255970296,
                -1.2290750559675756,
                -0.2753510484844324,
                -1.6951573700495468
            ]
        },
        {
            "positions": [
                -1.173102662653377,
                -1.3176978985780992,
                -0.5739193111303251,
                -1.2976032480375796,
                -0.28893161477262225,
                -1.561450683590445
            ]
        },
        {
            "positions": [
                -1.0862021450597705,
                -1.3066332229477542,
                -0.6458697966636207,
                -1.3661314401075837,
                -0.3025121810608121,
                -1.4277439971313433
            ]
        },
        {
            "positions": [
                -0.9993016274661642,
                -1.2955685473174092,
                -0.7178202821969162,
                -1.434659632177588,
                -0.31609274734900195,
                -1.2940373106722414
            ]
        },
        {
            "positions": [
                -0.9124011098725578,
                -1.2845038716870643,
                -0.7897707677302117,
                -1.503187824247592,
                -0.32967331363719177,
                -1.1603306242131395
            ]
        },
        {
            "positions": [
                -0.8255005922789516,
                -1.2734391960567193,
                -0.8617212532635072,
                -1.571716016317596,
                -0.3432538799253816,
                -1.0266239377540378
            ]
        },
        {
            "positions": [
                -0.7386000746853452,
                -1.2623745204263743,
                -0.9336717387968028,
                -1.6402442083876,
                -0.3568344462135714,
                -0.8929172512949359
            ]
        },
        {
            "positions": [
                -0.6516995570917388,
                -1.2513098447960291,
                -1.0056222243300983,
                -1.7087724004576041,
                -0.37041501250176123,
                -0.759210564835834
            ]
        },
        {
            "positions": [
                -0.5647990394981324,
                -1.2402451691656842,
                -1.0775727098633938,
                -1.7773005925276082,
                -0.38399557878995105,
                -0.6255038783767324
            ]
        },
        {
            "positions": [
                -0.4778985219045262,
                -1.2291804935353392,
                -1.1495231953966893,
                -1.8458287845976125,
                -0.3975761450781409,
                -0.4917971919176305
            ]
        },
        {
            "positions": [
                -0.3909980043109198,
                -1.2181158179049942,
                -1.2214736809299849,
                -1.9143569766676167,
                -0.4111567113663307,
                -0.3580905054585286
            ]
        },
        {
            "positions": [
                -0.3040974867173134,
                -1.2070511422746493,
                -1.2934241664632804,
                -1.9828851687376208,
                -0.4247372776545205,
                -0.22438381899942694
            ]
        },
        {
            "positions": [
                -0.217196969123707,
                -1.1959864666443043,
                -1.365374651996576,
                -2.051413360807625,
                -0.43831784394271034,
                -0.09067713254032528
            ]
        },
        {
            "positions": [
                -0.1302964515301006,
                -1.1849217910139593,
                -1.4373251375298715,
                -2.119941552877629,
                -0.45189841023090016,
                0.04302955391877683
            ]
        },
        {
            "positions": [
                -0.043395933936494435,
                -1.1738571153836144,
                -1.509275623063167,
                -2.188469744947633,
                -0.46547897651909,
                0.1767362403778785
            ]
        },
        {
            "positions": [
                0.04350458365711196,
                -1.1627924397532694,
                -1.5812261085964625,
                -2.256997937017637,
                -0.4790595428072798,
                0.31044292683698016
            ]
        },
        {
            "positions": [
                0.13040510125071836,
                -1.1517277641229242,
                -1.653176594129758,
                -2.325526129087641,
                -0.49264010909546974,
                0.44414961329608227
            ]
        },
        {
            "positions": [
                0.21730561884432475,
                -1.1406630884925792,
                -1.7251270796630536,
                -2.3940543211576455,
                -0.5062206753836596,
                0.5778562997551839
            ]
        },
        {
            "positions": [
                0.30420613643793115,
                -1.1295984128622343,
                -1.797077565196349,
                -2.4625825132276495,
                -0.5198012416718494,
                0.7115629862142856
            ]
        },
        {
            "positions": [
                0.39110665403153755,
                -1.1185337372318893,
                -1.869028050729645,
                -2.5311107052976536,
                -0.5333818079600392,
                0.8452696726733877
            ]
        },
        {
            "positions": [
                0.4780071716251437,
                -1.1074690616015443,
                -1.9409785362629406,
                -2.5996388973676576,
                -0.546962374248229,
                0.9789763591324894
            ]
        },
        {
            "positions": [
                0.5649076892187503,
                -1.0964043859711994,
                -2.012929021796236,
                -2.6681670894376617,
                -0.5605429405364188,
                1.112683045591591
            ]
        },
        {
            "positions": [
                0.6518082068123565,
                -1.0853397103408544,
                -2.0848795073295316,
                -2.7366952815076657,
                -0.5741235068246087,
                1.2463897320506927
            ]
        },
        {
            "positions": [
                0.7387087244059627,
                -1.0742750347105092,
                -2.156829992862827,
                -2.8052234735776698,
                -0.5877040731127985,
                1.3800964185097948
            ]
        },
        {
            "positions": [
                0.8256092419995693,
                -1.0632103590801645,
                -2.2287804783961227,
                -2.873751665647674,
                -0.6012846394009883,
                1.5138031049688965
            ]
        },
        {
            "positions": [
                0.9125097595931755,
                -1.0521456834498193,
                -2.3007309639294182,
                -2.9422798577176783,
                -0.6148652056891781,
                1.6475097914279986
            ]
        },
        {
            "positions": [
                0.9994102771867821,
                -1.0410810078194743,
                -2.3726814494627138,
                -3.0108080497876824,
                -0.628445771977368,
                1.7812164778870998
            ]
        },
        {
            "positions": [
                1.0863107947803883,
                -1.0300163321891294,
                -2.4446319349960093,
                -3.0793362418576864,
                -0.6420263382655578,
                1.914923164346202
            ]
        },
        {
            "positions": [
                1.0284833423058188,
                -1.0627931515726328,
                -2.4403015679409,
                -3.0411092767633634,
                -0.6206289176251638,
                1.6877990970398085
            ]
        },
        {
            "positions": [
                0.9706558898312496,
                -1.0955699709561362,
                -2.4359712008857906,
                -3.002882311669041,
                -0.59923149698477,
                1.460675029733415
            ]
        },
        {
            "positions": [
                0.9128284373566803,
                -1.1283467903396396,
                -2.431640833830681,
                -2.964655346574718,
                -0.577834076344376,
                1.2335509624270218
            ]
        },
        {
            "positions": [
                0.855000984882111,
                -1.161123609723143,
                -2.427310466775572,
                -2.9264283814803953,
                -0.556436655703982,
                1.0064268951206283
            ]
        },
        {
            "positions": [
                0.7971735324075416,
                -1.1939004291066462,
                -2.4229800997204625,
                -2.8882014163860723,
                -0.5350392350635881,
                0.7793028278142351
            ]
        },
        {
            "positions": [
                0.7393460799329723,
                -1.2266772484901496,
                -2.4186497326653535,
                -2.8499744512917498,
                -0.5136418144231942,
                0.5521787605078416
            ]
        },
        {
            "positions": [
                0.681518627458403,
                -1.259454067873653,
                -2.414319365610244,
                -2.8117474861974268,
                -0.49224439378280027,
                0.3250546932014482
            ]
        },
        {
            "positions": [
                0.6236911749838336,
                -1.2922308872571564,
                -2.409988998555135,
                -2.773520521103104,
                -0.4708469731424063,
                0.09793062589505475
            ]
        },
        {
            "positions": [
                0.5658637225092643,
                -1.3250077066406598,
                -2.4056586315000255,
                -2.735293556008781,
                -0.44944955250201235,
                -0.12919344141133893
            ]
        },
        {
            "positions": [
                0.508036270034695,
                -1.357784526024163,
                -2.401328264444916,
                -2.6970665909144587,
                -0.4280521318616185,
                -0.3563175087177317
            ]
        },
        {
            "positions": [
                0.45020881756012565,
                -1.3905613454076664,
                -2.3969978973898067,
                -2.6588396258201357,
                -0.40665471122122454,
                -0.5834415760241254
            ]
        },
        {
            "positions": [
                0.3923813650855563,
                -1.4233381647911698,
                -2.3926675303346974,
                -2.620612660725813,
                -0.38525729058083064,
                -0.8105656433305186
            ]
        },
        {
            "positions": [
                0.334553912610987,
                -1.4561149841746732,
                -2.388337163279588,
                -2.58238569563149,
                -0.3638598699404367,
                -1.0376897106369123
            ]
        },
        {
            "positions": [
                0.27672646013641766,
                -1.4888918035581766,
                -2.3840067962244786,
                -2.544158730537167,
                -0.34246244930004277,
                -1.2648137779433055
            ]
        },
        {
            "positions": [
                0.21889900766184844,
                -1.52166862294168,
                -2.3796764291693693,
                -2.5059317654428446,
                -0.32106502865964887,
                -1.4919378452496987
            ]
        },
        {
            "positions": [
                0.161071555187279,
                -1.5544454423251834,
                -2.37534606211426,
                -2.4677048003485216,
                -0.2996676080192549,
                -1.7190619125560924
            ]
        },
        {
            "positions": [
                0.10324410271270967,
                -1.5872222617086869,
                -2.371015695059151,
                -2.429477835254199,
                -0.27827018737886094,
                -1.9461859798624856
            ]
        },
        {
            "positions": [
                0.045416650238140344,
                -1.6199990810921903,
                -2.3666853280040416,
                -2.391250870159876,
                -0.256872766738467,
                -2.1733100471688798
            ]
        },
        {
            "positions": [
                -0.012410802236429097,
                -1.6527759004756937,
                -2.3623549609489323,
                -2.3530239050655535,
                -0.23547534609807308,
                -2.400434114475273
            ]
        },
        {
            "positions": [
                -0.07023825471099832,
                -1.6855527198591969,
                -2.358024593893823,
                -2.3147969399712305,
                -0.21407792545767917,
                -2.6275581817816653
            ]
        },
        {
            "positions": [
                -0.12806570718556776,
                -1.7183295392427005,
                -2.3536942268387135,
                -2.2765699748769075,
                -0.19268050481728521,
                -2.8546822490880595
            ]
        },
        {
            "positions": [
                -0.18589315966013703,
                -1.7511063586262037,
                -2.349363859783604,
                -2.238343009782585,
                -0.1712830841768913,
                -3.0818063163944527
            ]
        }
    ]
}