{
    "goal": {
        "global_pose": {
            "orientation": {
                "w": -0.4816463035849501,
                "x": 0.5182115481033762,
                "y": 0.4908360881923453,
                "z": -0.5084816262002911
            },
            "position": {
                "x": -0.8240239810943604,
                "y": -0.300875300988555,
                "z": 0.16403168439865112
            }
        },
        "name": "move_to_storage_C"
    },
    "id": "BKPIECE_move_to_storage_C_82",
    "joint_names": [
        "shoulder_pan_joint",
        "shoulder_lift_joint",
        "elbow_joint",
        "wrist_1_joint",
        "wrist_2_joint",
        "wrist_3_joint"
    ],
    "metrics": {
        "cart_traj_len": 0.5759778189047203,
        "distance_elbow_joint": 0.25908704017360784,
        "distance_shoulder_lift_joint": 0.1881197367555596,
        "distance_shoulder_pan_joint": 0.49520973010747227,
        "distance_wrist_1_joint": 0.0872765392217898,
        "distance_wrist_2_joint": 1.060405500027033,
        "distance_wrist_3_joint": 0.07588371317574483,
        "smoothness": 2.5376526478085547e-16,
        "time": 0.197676086,
        "traj_len": 1.4717276444577667,
        "weighted_distance": 1.86156700794291
    },
    "planner": "BKPIECE",
    "start": {
        "state": {
            "elbow_joint": 2.010868314990456,
            "shoulder_lift_joint": -1.1634956873337592,
            "shoulder_pan_joint": -2.4736205022346125,
            "wrist_1_joint": -0.8367026794202681,
            "wrist_2_joint": 0.6746043897044499,
            "wrist_3_joint": -3.1496632123970403
        }
    },
    "waypoints": [
        {
            "positions": [
                -2.4736205022346125,
                -1.1634956873337592,
                2.010868314990456,
                -0.8367026794202681,
                0.6746043897044499,
                -3.1496632123970403
            ]
        },
        {
            "positions": [
                -2.5561554572525247,
                -1.1321423978744993,
                1.9676871416281878,
                -0.8221565895499698,
                0.8513386397089554,
                -3.1370159268677495
            ]
        },
        {
            "positions": [
                -2.6386904122704364,
                -1.1007891084152392,
                1.9245059682659198,
                -0.8076104996796715,
                1.028072889713461,
                -3.124368641338459
            ]
        },
        {
            "positions": [
                -2.7212253672883486,
                -1.0694358189559794,
                1.881324794903652,
                -0.7930644098093732,
                1.2048071397179663,
                -3.111721355809168
            ]
        },
        {
            "positions": [
                -2.803760322306261,
                -1.0380825294967195,
                1.838143621541384,
                -0.7785183199390749,
                1.381541389722472,
                -3.099074070279877
            ]
        },
        {
            "positions": [
                -2.8862952773241726,
                -1.0067292400374594,
                1.794962448179116,
                -0.7639722300687766,
                1.5582756397269772,
                -3.086426784750586
            ]
        },
        {
            "positions": [
                -2.9688302323420848,
                -0.9753759505781996,
                1.751781274816848,
                -0.7494261401984783,
                1.7350098897314827,
                -3.0737794992212955
            ]
        }
    ]
}