{
    "goal": {
        "global_pose": {
            "orientation": {
                "w": 0.7047431493862688,
                "x": -0.7094548369677653,
                "y": 0.0024358444001904,
                "z": -0.0022348060817251984
            },
            "position": {
                "x": -0.39052492380142206,
                "y": 0.3671506643295288,
                "z": 0.19426114857196808
            }
        },
        "name": "move_to_magneteinheit_D"
    },
    "id": "BKPIECE_move_to_magneteinheit_D_121",
    "joint_names": [
        "shoulder_pan_joint",
        "shoulder_lift_joint",
        "elbow_joint",
        "wrist_1_joint",
        "wrist_2_joint",
        "wrist_3_joint"
    ],
    "metrics": {
        "cart_traj_len": 4.027508897493211,
        "distance_elbow_joint": 3.7369800296718734,
        "distance_shoulder_lift_joint": 1.0967553804047094,
        "distance_shoulder_pan_joint": 3.747096393721934,
        "distance_wrist_1_joint": 4.218706840878511,
        "distance_wrist_2_joint": 1.701557397486984,
        "distance_wrist_3_joint": 6.295359934702727,
        "smoothness": 0.3701003117802493,
        "time": 0.47954242199999997,
        "traj_len": 4.5603131446060505,
        "weighted_distance": 6.269564584932328
    },
    "planner": "BKPIECE",
    "start": {
        "state": {
            "elbow_joint": 0.749534889911806,
            "shoulder_lift_joint": -0.6476975780787326,
            "shoulder_pan_joint": -2.711696901376241,
            "wrist_1_joint": -0.07506478083263063,
            "wrist_2_joint": 0.43296659715538205,
            "wrist_3_joint": -3.14703540197715
        }
    },
    "waypoints": [
        {
            "positions": [
                -2.711696901376241,
                -0.6476975780787326,
                0.749534889911806,
                -0.07506478083263063,
                0.43296659715538205,
                -3.14703540197715
            ]
        },
        {
            "positions": [
                -2.7279366227281816,
                -0.6743930285446826,
                0.7503835284043103,
                0.05757926338562738,
                0.464886048716839,
                -2.9810969351602257
            ]
        },
        {
            "positions": [
                -2.744176344080122,
                -0.7010884790106326,
                0.7512321668968146,
                0.1902233076038854,
                0.4968055002782959,
                -2.815158468343301
            ]
        },
        {
            "positions": [
                -2.7604160654320626,
                -0.7277839294765828,
                0.7520808053893189,
                0.3228673518221434,
                0.5287249518397529,
                -2.6492200015263765
            ]
        },
        {
            "positions": [
                -2.776655786784003,
                -0.7544793799425328,
                0.7529294438818233,
                0.4555113960404014,
                0.5606444034012098,
                -2.4832815347094517
            ]
        },
        {
            "positions": [
                -2.792895508135944,
                -0.7811748304084828,
                0.7537780823743276,
                0.5881554402586595,
                0.5925638549626667,
                -2.3173430678925273
            ]
        },
        {
            "positions": [
                -2.8091352294878846,
                -0.8078702808744329,
                0.7546267208668319,
                0.7207994844769174,
                0.6244833065241236,
                -2.151404601075603
            ]
        },
        {
            "positions": [
                -2.825374950839825,
                -0.8345657313403829,
                0.7554753593593362,
                0.8534435286951754,
                0.6564027580855806,
                -1.9854661342586784
            ]
        },
        {
            "positions": [
                -2.8416146721917657,
                -0.8612611818063329,
                0.7563239978518406,
                0.9860875729134334,
                0.6883222096470375,
                -1.8195276674417538
            ]
        },
        {
            "positions": [
                -2.7493531369715978,
                -0.8630412525887325,
                0.6555688188039827,
                0.8946797412833346,
                0.6543123077896649,
                -1.7459121520840422
            ]
        },
        {
            "positions": [
                -2.65709160175143,
                -0.8648213233711323,
                0.5548136397561247,
                0.8032719096532359,
                0.6203024059322922,
                -1.6722966367263306
            ]
        },
        {
            "positions": [
                -2.564830066531262,
                -0.8666013941535319,
                0.4540584607082668,
                0.7118640780231371,
                0.5862925040749196,
                -1.598681121368619
            ]
        },
        {
            "positions": [
                -2.4725685313110946,
                -0.8683814649359316,
                0.35330328166040886,
                0.6204562463930383,
                0.552282602217547,
                -1.5250656060109073
            ]
        },
        {
            "positions": [
                -2.3803069960909267,
                -0.8701615357183312,
                0.2525481026125509,
                0.5290484147629395,
                0.5182727003601744,
                -1.4514500906531957
            ]
        },
        {
            "positions": [
                -2.2880454608707588,
                -0.8719416065007309,
                0.15179292356469298,
                0.4376405831328407,
                0.4842627985028017,
                -1.3778345752954841
            ]
        },
        {
            "positions": [
                -2.195783925650591,
                -0.8737216772831305,
                0.05103774451683507,
                0.346232751502742,
                0.4502528966454291,
                -1.3042190599377723
            ]
        },
        {
            "positions": [
                -2.103522390430423,
                -0.8755017480655303,
                -0.04971743453102284,
                0.2548249198726432,
                0.41624299478805643,
                -1.230603544580061
            ]
        },
        {
            "positions": [
                -2.011260855210255,
                -0.8772818188479299,
                -0.15047261357888086,
                0.16341708824254442,
                0.3822330929306838,
                -1.1569880292223491
            ]
        },
        {
            "positions": [
                -1.9189993199900874,
                -0.8790618896303296,
                -0.2512277926267388,
                0.07200925661244562,
                0.3482231910733112,
                -1.0833725138646377
            ]
        },
        {
            "positions": [
                -1.8267377847699195,
                -0.8808419604127292,
                -0.3519829716745968,
                -0.019398575017653186,
                0.3142132892159385,
                -1.009756998506926
            ]
        },
        {
            "positions": [
                -1.7344762495497517,
                -0.8826220311951289,
                -0.4527381507224546,
                -0.11080640664775199,
                0.28020338735856587,
                -0.9361414831492143
            ]
        },
        {
            "positions": [
                -1.642214714329584,
                -0.8844021019775286,
                -0.5534933297703124,
                -0.20221423827785057,
                0.2461934855011933,
                -0.8625259677915028
            ]
        },
        {
            "positions": [
                -1.549953179109416,
                -0.8861821727599283,
                -0.6542485088181704,
                -0.29362206990794937,
                0.21218358364382067,
                -0.7889104524337911
            ]
        },
        {
            "positions": [
                -1.4576916438892484,
                -0.8879622435423279,
                -0.7550036878660285,
                -0.38502990153804817,
                0.178173681786448,
                -0.7152949370760795
            ]
        },
        {
            "positions": [
                -1.3654301086690805,
                -0.8897423143247276,
                -0.8557588669138863,
                -0.47643773316814697,
                0.14416377992907536,
                -0.6416794217183679
            ]
        },
        {
            "positions": [
                -1.2731685734489127,
                -0.8915223851071272,
                -0.9565140459617443,
                -0.5678455647982458,
                0.11015387807170274,
                -0.5680639063606563
            ]
        },
        {
            "positions": [
                -1.1809070382287448,
                -0.8933024558895268,
                -1.0572692250096023,
                -0.6592533964283446,
                0.07614397621433011,
                -0.4944483910029447
            ]
        },
        {
            "positions": [
                -1.0886455030085769,
                -0.8950825266719266,
                -1.15802440405746,
                -0.7506612280584434,
                0.042134074356957485,
                -0.4208328756452331
            ]
        },
        {
            "positions": [
                -0.9963839677884092,
                -0.8968625974543262,
                -1.2587795831053181,
                -0.8420690596885422,
                0.008124172499584859,
                -0.3472173602875215
            ]
        },
        {
            "positions": [
                -0.9041224325682413,
                -0.8986426682367259,
                -1.359534762153176,
                -0.933476891318641,
                -0.02588572935778788,
                -0.27360184492980966
            ]
        },
        {
            "positions": [
                -0.8118608973480734,
                -0.9004227390191255,
                -1.4602899412010342,
                -1.0248847229487397,
                -0.059895631215160505,
                -0.19998632957209805
            ]
        },
        {
            "positions": [
                -0.7195993621279055,
                -0.9022028098015252,
                -1.561045120248892,
                -1.1162925545788385,
                -0.09390553307253313,
                -0.12637081421438645
            ]
        },
        {
            "positions": [
                -0.6273378269077377,
                -0.9039828805839248,
                -1.6618002992967498,
                -1.2077003862089373,
                -0.12791543492990576,
                -0.05275529885667485
            ]
        },
        {
            "positions": [
                -0.5350762916875698,
                -0.9057629513663246,
                -1.762555478344608,
                -1.299108217839036,
                -0.16192533678727838,
                0.020860216501036755
            ]
        },
        {
            "positions": [
                -0.4428147564674023,
                -0.9075430221487242,
                -1.8633106573924654,
                -1.3905160494691344,
                -0.1959352386446509,
                0.09447573185874814
            ]
        },
        {
            "positions": [
                -0.3505532212472344,
                -0.9093230929311239,
                -1.9640658364403236,
                -1.4819238810992332,
                -0.22994514050202353,
                0.16809124721645974
            ]
        },
        {
            "positions": [
                -0.25829168602706654,
                -0.9111031637135235,
                -2.0648210154881816,
                -1.573331712729332,
                -0.26395504235939615,
                0.24170676257417156
            ]
        },
        {
            "positions": [
                -0.16603015080689865,
                -0.9128832344959232,
                -2.1655761945360394,
                -1.6647395443594308,
                -0.2979649442167688,
                0.31532227793188294
            ]
        },
        {
            "positions": [
                -0.0737686155867312,
                -0.9146633052783228,
                -2.2663313735838972,
                -1.7561473759895296,
                -0.3319748460741415,
                0.38893779328959477
            ]
        },
        {
            "positions": [
                0.01849291963343669,
                -0.9164433760607226,
                -2.367086552631755,
                -1.8475552076196284,
                -0.36598474793151403,
                0.46255330864730615
            ]
        },
        {
            "positions": [
                0.11075445485360458,
                -0.9182234468431222,
                -2.467841731679613,
                -1.9389630392497272,
                -0.39999464978888677,
                0.536168824005018
            ]
        },
        {
            "positions": [
                0.20301599007377247,
                -0.9200035176255219,
                -2.5685969107274715,
                -2.030370870879826,
                -0.4340045516462593,
                0.6097843393627294
            ]
        },
        {
            "positions": [
                0.29527752529394036,
                -0.9217835884079215,
                -2.6693520897753293,
                -2.121778702509925,
                -0.46801445350363213,
                0.6833998547204412
            ]
        },
        {
            "positions": [
                0.2552536565088819,
                -0.9903393692475482,
                -2.6439758535999403,
                -2.1259193868190156,
                -0.44385902668324373,
                0.8888102445542028
            ]
        },
        {
            "positions": [
                0.21522978772382337,
                -1.0588951500871748,
                -2.618599617424551,
                -2.1300600711281064,
                -0.4197035998628554,
                1.0942206343879644
            ]
        },
        {
            "positions": [
                0.17520591893876486,
                -1.1274509309268017,
                -2.593223381249162,
                -2.134200755437197,
                -0.39554817304246703,
                1.2996310242217257
            ]
        },
        {
            "positions": [
                0.13518205015370638,
                -1.1960067117664284,
                -2.567847145073773,
                -2.1383414397462874,
                -0.37139274622207863,
                1.5050414140554873
            ]
        },
        {
            "positions": [
                0.09515818136864784,
                -1.264562492606055,
                -2.542470908898384,
                -2.142482124055378,
                -0.3472373194016902,
                1.710451803889249
            ]
        },
        {
            "positions": [
                0.05513431258358936,
                -1.333118273445682,
                -2.517094672722995,
                -2.146622808364469,
                -0.3230818925813019,
                1.9158621937230105
            ]
        },
        {
            "positions": [
                0.015110443798530826,
                -1.4016740542853086,
                -2.491718436547606,
                -2.1507634926735597,
                -0.29892646576091353,
                2.121272583556772
            ]
        },
        {
            "positions": [
                -0.0249134249865276,
                -1.4702298351249352,
                -2.466342200372217,
                -2.1549041769826505,
                -0.2747710389405251,
                2.3266829733905334
            ]
        },
        {
            "positions": [
                -0.06493729377158614,
                -1.5387856159645619,
                -2.440965964196828,
                -2.159044861291741,
                -0.2506156121201367,
                2.5320933632242952
            ]
        },
        {
            "positions": [
                -0.10496116255664467,
                -1.6073413968041885,
                -2.415589728021439,
                -2.1631855456008315,
                -0.22646018529974837,
                2.7375037530580566
            ]
        },
        {
            "positions": [
                -0.1449850313417031,
                -1.6758971776438152,
                -2.39021349184605,
                -2.1673262299099223,
                -0.20230475847936003,
                2.942914142891818
            ]
        },
        {
            "positions": [
                -0.18500890012676163,
                -1.744452958483442,
                -2.3648372556706607,
                -2.171466914219013,
                -0.17814933165897165,
                3.1483245327255798
            ]
        }
    ]
}