{
    "goal": {
        "global_pose": {
            "orientation": {
                "w": 0.7031023502349854,
                "x": -0.7110244035720825,
                "y": 0.007748599164187908,
                "z": 0.005598929710686207
            },
            "position": {
                "x": 0.11585023208521307,
                "y": 0.44412534475326537,
                "z": 0.3711530566215515
            }
        },
        "name": "move_to_auspresseinheit_A"
    },
    "id": "BKPIECE_move_to_auspresseinheit_A_79",
    "joint_names": [
        "shoulder_pan_joint",
        "shoulder_lift_joint",
        "elbow_joint",
        "wrist_1_joint",
        "wrist_2_joint",
        "wrist_3_joint"
    ],
    "metrics": {
        "cart_traj_len": 0.8743256518488249,
        "distance_elbow_joint": 0.05677529737269005,
        "distance_shoulder_lift_joint": 1.624044811296749,
        "distance_shoulder_pan_joint": 2.074488859538001,
        "distance_wrist_1_joint": 2.267130033287928,
        "distance_wrist_2_joint": 1.1819495333519612,
        "distance_wrist_3_joint": 0.14363442876041743,
        "smoothness": 1.1837952762291124,
        "time": 0.197375473,
        "traj_len": 2.710723697392958,
        "weighted_distance": 3.329319958755612
    },
    "planner": "BKPIECE",
    "start": {
        "state": {
            "elbow_joint": 2.4225746658250005,
            "shoulder_lift_joint": -1.3736534386056498,
            "shoulder_pan_joint": -0.3378633547517467,
            "wrist_1_joint": -1.0288598680537169,
            "wrist_2_joint": 1.233022673432363,
            "wrist_3_joint": -3.0940220416140027
        }
    },
    "waypoints": [
        {
            "positions": [
                -0.3378633547517467,
                -1.3736534386056498,
                2.4225746658250005,
                -1.0288598680537169,
                1.233022673432363,
                -3.0940220416140027
            ]
        },
        {
            "positions": [
                -0.3893055594218915,
                -1.4817257309195158,
                2.4184105367043554,
                -0.8881825764179058,
                1.1479523922462698,
                -3.087964277976777
            ]
        },
        {
            "positions": [
                -0.4407477640920363,
                -1.589798023233382,
                2.4142464075837102,
                -0.7475052847820947,
                1.0628821110601765,
                -3.081906514339552
            ]
        },
        {
            "positions": [
                -0.492189968762181,
                -1.6978703155472479,
                2.4100822784630656,
                -0.6068279931462837,
                0.9778118298740832,
                -3.0758487507023267
            ]
        },
        {
            "positions": [
                -0.5436321734323258,
                -1.8059426078611138,
                2.4059181493424204,
                -0.46615070151047255,
                0.8927415486879899,
                -3.069790987065101
            ]
        },
        {
            "positions": [
                -0.5950743781024705,
                -1.9140149001749798,
                2.4017540202217753,
                -0.32547340987466156,
                0.8076712675018968,
                -3.0637332234278754
            ]
        },
        {
            "positions": [
                -0.6465165827726154,
                -2.0220871924888457,
                2.39758989110113,
                -0.18479611823885056,
                0.7226009863158035,
                -3.05767545979065
            ]
        },
        {
            "positions": [
                -0.6979587874427602,
                -2.1301594848027117,
                2.393425761980485,
                -0.04411882660303945,
                0.6375307051297103,
                -3.051617696153425
            ]
        },
        {
            "positions": [
                -0.749400992112905,
                -2.238231777116578,
                2.3892616328598404,
                0.09655846503277177,
                0.5524604239436169,
                -3.0455599325161993
            ]
        },
        {
            "positions": [
                -0.8008431967830497,
                -2.346304069430444,
                2.3850975037391953,
                0.23723575666858276,
                0.4673901427575238,
                -3.0395021688789736
            ]
        },
        {
            "positions": [
                -0.8522854014531944,
                -2.45437636174431,
                2.38093337461855,
                0.37791304830439376,
                0.3823198615714305,
                -3.0334444052417484
            ]
        },
        {
            "positions": [
                -0.6789446444713552,
                -2.394007263060078,
                2.3826149308592433,
                0.2823178130899696,
                0.41912505284821144,
                -3.0426729377293222
            ]
        },
        {
            "positions": [
                -0.5056038874895159,
                -2.333638164375846,
                2.384296487099937,
                0.18672257787554544,
                0.4559302441249924,
                -3.0519014702168956
            ]
        },
        {
            "positions": [
                -0.33226313050767675,
                -2.273269065691614,
                2.38597804334063,
                0.09112734266112132,
                0.49273543540177334,
                -3.0611300027044694
            ]
        },
        {
            "positions": [
                -0.1589223735258375,
                -2.2128999670073815,
                2.3876595995813235,
                -0.004467892553302877,
                0.5295406266785543,
                -3.0703585351920433
            ]
        },
        {
            "positions": [
                0.014418383456001771,
                -2.1525308683231494,
                2.3893411558220166,
                -0.10006312776772702,
                0.5663458179553353,
                -3.0795870676796167
            ]
        },
        {
            "positions": [
                0.18775914043784092,
                -2.0921617696389174,
                2.39102271206271,
                -0.1956583629821511,
                0.6031510092321162,
                -3.0888156001671905
            ]
        },
        {
            "positions": [
                0.3610998974196802,
                -2.0317926709546854,
                2.392704268303403,
                -0.29125359819657537,
                0.6399562005088972,
                -3.0980441326547643
            ]
        },
        {
            "positions": [
                0.5344406544015194,
                -1.9714235722704534,
                2.3943858245440968,
                -0.3868488334109995,
                0.6767613917856781,
                -3.1072726651423377
            ]
        },
        {
            "positions": [
                0.7077814113833588,
                -1.9110544735862212,
                2.39606738078479,
                -0.4824440686254237,
                0.7135665830624591,
                -3.1165011976299115
            ]
        }
    ]
}