{
    "goal": {
        "global_pose": {
            "orientation": {
                "w": -0.4816463035849501,
                "x": 0.5182115481033762,
                "y": 0.4908360881923453,
                "z": -0.5084816262002911
            },
            "position": {
                "x": -0.8240239810943604,
                "y": 0.19912469901144506,
                "z": 0.16403168439865112
            }
        },
        "name": "move_to_storage_D"
    },
    "id": "BKPIECE_move_to_storage_D_132",
    "joint_names": [
        "shoulder_pan_joint",
        "shoulder_lift_joint",
        "elbow_joint",
        "wrist_1_joint",
        "wrist_2_joint",
        "wrist_3_joint"
    ],
    "metrics": {
        "cart_traj_len": 0.6356192742417276,
        "distance_elbow_joint": 0.6243593913450038,
        "distance_shoulder_lift_joint": 0.1516917863531999,
        "distance_shoulder_pan_joint": 0.2598293265400796,
        "distance_wrist_1_joint": 3.8559038343019827,
        "distance_wrist_2_joint": 2.099366255569117,
        "distance_wrist_3_joint": 3.5222597285710884,
        "smoothness": 0.6662843953034581,
        "time": 0.312807364,
        "traj_len": 3.2424389466388526,
        "weighted_distance": 4.849041128892778
    },
    "planner": "BKPIECE",
    "start": {
        "state": {
            "elbow_joint": -2.384821988534728,
            "shoulder_lift_joint": -2.2788054721415256,
            "shoulder_pan_joint": -0.1854694642142757,
            "wrist_1_joint": 1.4845938289331202,
            "wrist_2_joint": 0.17898776772866878,
            "wrist_3_joint": 0.037105688729662994
        }
    },
    "waypoints": [
        {
            "positions": [
                -0.1854694642142757,
                -2.2788054721415256,
                -2.384821988534728,
                1.4845938289331202,
                0.17898776772866878,
                0.037105688729662994
            ]
        },
        {
            "positions": [
                -0.12672084602967432,
                -2.232272069285955,
                -2.4017421452507373,
                1.4910291041630623,
                0.1305901414066103,
                -0.011309427143117293
            ]
        },
        {
            "positions": [
                -0.0679722278450729,
                -2.1857386664303835,
                -2.418662301966747,
                1.4974643793930047,
                0.08219251508455183,
                -0.05972454301589758
            ]
        },
        {
            "positions": [
                -0.02373986975614782,
                -2.1612517612902145,
                -2.303918499628231,
                1.4204996153235259,
                0.16291278080534005,
                -0.1037460928576241
            ]
        },
        {
            "positions": [
                0.02049248833277725,
                -2.1367648561500454,
                -2.1891746972897153,
                1.3435348512540468,
                0.24363304652612827,
                -0.1477676426993506
            ]
        },
        {
            "positions": [
                0.018248014416401136,
                -2.1363627240516405,
                -2.174131719238217,
                1.189822194766416,
                0.16691927688098562,
                -0.008709876151764162
            ]
        },
        {
            "positions": [
                0.01600354050002502,
                -2.1359605919532356,
                -2.1590887411867192,
                1.0361095382787853,
                0.09020550723584295,
                0.13034789039582229
            ]
        },
        {
            "positions": [
                0.013759066583648907,
                -2.1355584598548303,
                -2.144045763135221,
                0.8823968817911543,
                0.01349173759070027,
                0.26940565694340873
            ]
        },
        {
            "positions": [
                0.011514592667272793,
                -2.1351563277564254,
                -2.129002785083723,
                0.7286842253035235,
                -0.06322203205444238,
                0.4084634234909952
            ]
        },
        {
            "positions": [
                0.009270118750896679,
                -2.1347541956580205,
                -2.113959807032225,
                0.5749715688158925,
                -0.13993580169958508,
                0.5475211900385817
            ]
        },
        {
            "positions": [
                0.007025644834520565,
                -2.1343520635596156,
                -2.098916828980727,
                0.42125891232826174,
                -0.21664957134472773,
                0.6865789565861681
            ]
        },
        {
            "positions": [
                0.004781170918144451,
                -2.1339499314612107,
                -2.083873850929229,
                0.26754625584063074,
                -0.2933633409898704,
                0.8256367231337546
            ]
        },
        {
            "positions": [
                0.0025366970017683364,
                -2.1335477993628054,
                -2.068830872877731,
                0.11383359935300019,
                -0.37007711063501303,
                0.964694489681341
            ]
        },
        {
            "positions": [
                0.00029222308539222225,
                -2.1331456672644005,
                -2.053787894826233,
                -0.0398790571346308,
                -0.4467908802801557,
                1.1037522562289275
            ]
        },
        {
            "positions": [
                -0.001952250830983892,
                -2.1327435351659956,
                -2.0387449167747347,
                -0.1935917136222618,
                -0.5235046499252984,
                1.242810022776514
            ]
        },
        {
            "positions": [
                -0.004196724747360006,
                -2.1323414030675907,
                -2.023701938723237,
                -0.34730437010989235,
                -0.6002184195704411,
                1.3818677893241003
            ]
        },
        {
            "positions": [
                -0.00644119866373612,
                -2.131939270969186,
                -2.0086589606717387,
                -0.5010170265975233,
                -0.6769321892155837,
                1.5209255558716868
            ]
        },
        {
            "positions": [
                -0.008685672580112231,
                -2.1315371388707804,
                -1.9936159826202406,
                -0.6547296830851541,
                -0.7536459588607264,
                1.659983322419273
            ]
        },
        {
            "positions": [
                -0.010930146496488349,
                -2.1311350067723756,
                -1.9785730045687426,
                -0.8084423395727853,
                -0.830359728505869,
                1.7990410889668598
            ]
        },
        {
            "positions": [
                -0.013174620412864466,
                -2.1307328746739707,
                -1.9635300265172446,
                -0.9621549960604159,
                -0.9070734981510118,
                1.938098855514446
            ]
        },
        {
            "positions": [
                -0.015419094329240577,
                -2.1303307425755658,
                -1.9484870484657466,
                -1.1158676525480464,
                -0.9837872677961543,
                2.0771566220620326
            ]
        },
        {
            "positions": [
                -0.017663568245616695,
                -2.1299286104771604,
                -1.9334440704142486,
                -1.2695803090356779,
                -1.060501037441297,
                2.216214388609619
            ]
        },
        {
            "positions": [
                -0.019908042161992805,
                -2.1295264783787555,
                -1.9184010923627506,
                -1.4232929655233084,
                -1.1372148070864396,
                2.3552721551572056
            ]
        },
        {
            "positions": [
                -0.022152516078368916,
                -2.1291243462803506,
                -1.9033581143112526,
                -1.577005622010939,
                -1.2139285767315824,
                2.4943299217047916
            ]
        },
        {
            "positions": [
                -0.024396989994745034,
                -2.1287222141819457,
                -1.8883151362597546,
                -1.7307182784985704,
                -1.2906423463767251,
                2.6333876882523786
            ]
        },
        {
            "positions": [
                -0.026641463911121144,
                -2.128320082083541,
                -1.8732721582082563,
                -1.884430934986201,
                -1.3673561160218677,
                2.7724454547999646
            ]
        },
        {
            "positions": [
                -0.028885937827497262,
                -2.1279179499851355,
                -1.8582291801567583,
                -2.0381435914738315,
                -1.4440698856670104,
                2.911503221347551
            ]
        },
        {
            "positions": [
                -0.03113041174387338,
                -2.1275158178867306,
                -1.8431862021052603,
                -2.191856247961463,
                -1.5207836553121532,
                3.0505609878951376
            ]
        },
        {
            "positions": [
                -0.033374885660249494,
                -2.1271136857883257,
                -1.8281432240537623,
                -2.3455689044490935,
                -1.5974974249572957,
                3.189618754442724
            ]
        }
    ]
}