{
    "goal": {
        "global_pose": {
            "orientation": {
                "w": 0.7047431468963623,
                "x": -0.7094548344612122,
                "y": 0.0024358443915843964,
                "z": -0.0022348060738295317
            },
            "position": {
                "x": 0.6094750761985779,
                "y": 0.3671506643295288,
                "z": 0.19426114857196808
            }
        },
        "name": "move_to_magneteinheit_A"
    },
    "id": "BKPIECE_move_to_magneteinheit_A_93",
    "joint_names": [
        "shoulder_pan_joint",
        "shoulder_lift_joint",
        "elbow_joint",
        "wrist_1_joint",
        "wrist_2_joint",
        "wrist_3_joint"
    ],
    "metrics": {
        "cart_traj_len": 3.4427292827557063,
        "distance_elbow_joint": 3.8708455538854905,
        "distance_shoulder_lift_joint": 0.18677853058247185,
        "distance_shoulder_pan_joint": 2.7796313299431143,
        "distance_wrist_1_joint": 1.2148885653850423,
        "distance_wrist_2_joint": 1.9542265448330542,
        "distance_wrist_3_joint": 2.583312771548451,
        "smoothness": 0.2739553472847995,
        "time": 0.317723567,
        "traj_len": 3.5481943712510486,
        "weighted_distance": 4.574431543863414
    },
    "planner": "BKPIECE",
    "start": {
        "state": {
            "elbow_joint": -1.9196185241190666,
            "shoulder_lift_joint": -1.2443396400964142,
            "shoulder_pan_joint": 2.6996025414629847,
            "wrist_1_joint": -1.5485510000780065,
            "wrist_2_joint": -1.5709468930060704,
            "wrist_3_joint": 0.4420197071253992
        }
    },
    "waypoints": [
        {
            "positions": [
                2.6996025414629847,
                -1.2443396400964142,
                -1.9196185241190666,
                -1.5485510000780065,
                -1.5709468930060704,
                0.4420197071253992
            ]
        },
        {
            "positions": [
                2.58468355786155,
                -1.2418169019100922,
                -1.803225387097249,
                -1.5016319747740525,
                -1.5107582714651828,
                0.48053706353514036
            ]
        },
        {
            "positions": [
                2.4697645742601155,
                -1.2392941637237704,
                -1.6868322500754311,
                -1.4547129494700985,
                -1.4505696499242953,
                0.5190544199448817
            ]
        },
        {
            "positions": [
                2.3548455906586807,
                -1.2367714255374485,
                -1.5704391130536135,
                -1.4077939241661446,
                -1.3903810283834077,
                0.5575717763546229
            ]
        },
        {
            "positions": [
                2.239926607057246,
                -1.2342486873511265,
                -1.4540459760317959,
                -1.3608748988621906,
                -1.3301924068425202,
                0.596089132764364
            ]
        },
        {
            "positions": [
                2.1250076234558115,
                -1.2317259491648047,
                -1.3376528390099782,
                -1.3139558735582366,
                -1.2700037853016326,
                0.6346064891741052
            ]
        },
        {
            "positions": [
                2.0100886398543767,
                -1.2292032109784827,
                -1.2212597019881604,
                -1.2670368482542826,
                -1.2098151637607448,
                0.6731238455838464
            ]
        },
        {
            "positions": [
                1.895169656252942,
                -1.2266804727921607,
                -1.1048665649663427,
                -1.2201178229503287,
                -1.1496265422198575,
                0.7116412019935876
            ]
        },
        {
            "positions": [
                1.7802506726515075,
                -1.224157734605839,
                -0.988473427944525,
                -1.1731987976463747,
                -1.0894379206789697,
                0.7501585584033289
            ]
        },
        {
            "positions": [
                1.6653316890500727,
                -1.221634996419517,
                -0.8720802909227072,
                -1.1262797723424207,
                -1.0292492991380822,
                0.7886759148130701
            ]
        },
        {
            "positions": [
                1.550412705448638,
                -1.219112258233195,
                -0.7556871539008896,
                -1.079360747038467,
                -0.9690606775971946,
                0.8271932712228113
            ]
        },
        {
            "positions": [
                1.4354937218472035,
                -1.216589520046873,
                -0.639294016879072,
                -1.032441721734513,
                -0.908872056056307,
                0.8657106276325526
            ]
        },
        {
            "positions": [
                1.3205747382457689,
                -1.2140667818605513,
                -0.5229008798572543,
                -0.9855226964305589,
                -0.8486834345154195,
                0.9042279840422938
            ]
        },
        {
            "positions": [
                1.205655754644334,
                -1.2115440436742293,
                -0.40650774283543645,
                -0.9386036711266049,
                -0.7884948129745318,
                0.942745340452035
            ]
        },
        {
            "positions": [
                1.0907367710428995,
                -1.2090213054879073,
                -0.2901146058136188,
                -0.891684645822651,
                -0.7283061914336444,
                0.9812626968617761
            ]
        },
        {
            "positions": [
                0.9758177874414649,
                -1.2064985673015856,
                -0.17372146879180117,
                -0.8447656205186971,
                -0.6681175698927568,
                1.0197800532715173
            ]
        },
        {
            "positions": [
                0.86089880384003,
                -1.2039758291152636,
                -0.05732833176998331,
                -0.797846595214743,
                -0.6079289483518692,
                1.0582974096812587
            ]
        },
        {
            "positions": [
                0.7459798202385957,
                -1.2014530909289416,
                0.05906480525183411,
                -0.7509275699107891,
                -0.5477403268109817,
                1.0968147660909997
            ]
        },
        {
            "positions": [
                0.6310608366371606,
                -1.1989303527426198,
                0.1754579422736522,
                -0.704008544606835,
                -0.48755170527009395,
                1.1353321225007411
            ]
        },
        {
            "positions": [
                0.5161418530357262,
                -1.1964076145562978,
                0.2918510792954696,
                -0.6570895193028812,
                -0.4273630837292064,
                1.173849478910482
            ]
        },
        {
            "positions": [
                0.4012228694342914,
                -1.1938848763699759,
                0.40824421631728747,
                -0.6101704939989272,
                -0.36717446218831884,
                1.2123668353202235
            ]
        },
        {
            "positions": [
                0.2863038858328566,
                -1.191362138183654,
                0.5246373533391053,
                -0.5632514686949732,
                -0.3069858406474313,
                1.2508841917299647
            ]
        },
        {
            "positions": [
                0.17138490223142228,
                -1.1888393999973321,
                0.641030490360923,
                -0.5163324433910192,
                -0.24679721910654373,
                1.2894015481397059
            ]
        },
        {
            "positions": [
                0.1563931641650479,
                -1.1792654897955819,
                0.7666299894072867,
                -0.5268417113561144,
                -0.196763909273015,
                1.4557354100305768
            ]
        },
        {
            "positions": [
                0.14140142609867348,
                -1.1696915795938316,
                0.8922294884536504,
                -0.5373509793212095,
                -0.14673059943948624,
                1.6220692719214476
            ]
        },
        {
            "positions": [
                0.1264096880322991,
                -1.1601176693920816,
                1.017828987500014,
                -0.5478602472863044,
                -0.09669728960595753,
                1.7884031338123183
            ]
        },
        {
            "positions": [
                0.11141794996592469,
                -1.1505437591903314,
                1.1434284865463775,
                -0.5583695152513996,
                -0.046663979772428754,
                1.9547369957031893
            ]
        },
        {
            "positions": [
                0.09642621189955031,
                -1.1409698489885811,
                1.269027985592741,
                -0.5688787832164947,
                0.003369330061099962,
                2.12107085759406
            ]
        },
        {
            "positions": [
                0.08143447383317591,
                -1.1313959387868309,
                1.3946274846391047,
                -0.5793880511815898,
                0.05340263989462868,
                2.2874047194849307
            ]
        },
        {
            "positions": [
                0.06644273576680153,
                -1.1218220285850806,
                1.5202269836854685,
                -0.5898973191466848,
                0.1034359497281574,
                2.4537385813758013
            ]
        },
        {
            "positions": [
                0.05145099770042712,
                -1.1122481183833306,
                1.6458264827318323,
                -0.6004065871117799,
                0.15346925956168622,
                2.6200724432666727
            ]
        },
        {
            "positions": [
                0.03645925963405272,
                -1.1026742081815804,
                1.7714259817781959,
                -0.610915855076875,
                0.20350256939521494,
                2.786406305157543
            ]
        },
        {
            "positions": [
                0.021467521567678338,
                -1.09310029797983,
                1.8970254808245595,
                -0.6214251230419701,
                0.2535358792287437,
                2.952740167048414
            ]
        },
        {
            "positions": [
                0.07221567659158207,
                -1.110869892212774,
                1.924126255295492,
                -0.6602137875655221,
                0.18866399292962371,
                2.989036322861132
            ]
        },
        {
            "positions": [
                0.12296383161548581,
                -1.1286394864457179,
                1.951227029766425,
                -0.6990024520890741,
                0.12379210663050369,
                3.0253324786738505
            ]
        }
    ]
}