{
    "goal": {
        "global_pose": {
            "orientation": {
                "w": 0.5084816262002911,
                "x": -0.4908360881923452,
                "y": 0.5182115481033761,
                "z": -0.48164630358495003
            },
            "position": {
                "x": 0.5540239810943604,
                "y": -0.46912469901144505,
                "z": 0.16403168439865112
            }
        },
        "name": "move_to_storage_B"
    },
    "id": "BKPIECE_move_to_storage_B_146",
    "joint_names": [
        "shoulder_pan_joint",
        "shoulder_lift_joint",
        "elbow_joint",
        "wrist_1_joint",
        "wrist_2_joint",
        "wrist_3_joint"
    ],
    "metrics": {
        "cart_traj_len": 0.7455309815748036,
        "distance_elbow_joint": 0.5340834734304623,
        "distance_shoulder_lift_joint": 0.45967921664769373,
        "distance_shoulder_pan_joint": 0.3973516277035606,
        "distance_wrist_1_joint": 3.017400526265261,
        "distance_wrist_2_joint": 2.7016754628282427,
        "distance_wrist_3_joint": 3.126325533473314,
        "smoothness": 0.15782697114804273,
        "time": 0.170033077,
        "traj_len": 3.199455553738563,
        "weighted_distance": 4.712562243237607
    },
    "planner": "BKPIECE",
    "start": {
        "state": {
            "elbow_joint": 1.664937868594044,
            "shoulder_lift_joint": -0.661644460510453,
            "shoulder_pan_joint": -0.9139846352900073,
            "wrist_1_joint": 2.146753192139373,
            "wrist_2_joint": -2.2341966793290973,
            "wrist_3_joint": 0.005466555786416001
        }
    },
    "waypoints": [
        {
            "positions": [
                -0.9139846352900073,
                -0.661644460510453,
                1.664937868594044,
                2.146753192139373,
                -2.2341966793290973,
                0.005466555786416001
            ]
        },
        {
            "positions": [
                -0.8821194793396404,
                -0.678526630094759,
                1.650295892077684,
                2.1443569361647294,
                -2.2054683624365428,
                0.010940702000629757
            ]
        },
        {
            "positions": [
                -0.8438427720501753,
                -0.7170283212848891,
                1.6129602673411094,
                2.1125086192870315,
                -2.131126499332412,
                -0.00023994053393295786
            ]
        },
        {
            "positions": [
                -0.8055660647607101,
                -0.7555300124750193,
                1.5756246426045348,
                2.080660302409334,
                -2.056784636228281,
                -0.011420583068495674
            ]
        },
        {
            "positions": [
                -0.8171233870476806,
                -0.7701617590623444,
                1.5934154525021729,
                1.962607996947925,
                -1.955814099439184,
                -0.13536018715609469
            ]
        },
        {
            "positions": [
                -0.8286807093346512,
                -0.7847935056496694,
                1.6112062623998111,
                1.8445556914865162,
                -1.854843562650087,
                -0.2592997912436937
            ]
        },
        {
            "positions": [
                -0.8402380316216217,
                -0.7994252522369946,
                1.6289970722974492,
                1.7265033860251073,
                -1.7538730258609898,
                -0.3832393953312927
            ]
        },
        {
            "positions": [
                -0.8517953539085923,
                -0.8140569988243197,
                1.6467878821950874,
                1.6084510805636985,
                -1.6529024890718929,
                -0.5071789994188917
            ]
        },
        {
            "positions": [
                -0.8633526761955628,
                -0.8286887454116447,
                1.6645786920927255,
                1.4903987751022896,
                -1.5519319522827957,
                -0.6311186035064907
            ]
        },
        {
            "positions": [
                -0.8749099984825334,
                -0.8433204919989699,
                1.6823695019903635,
                1.3723464696408807,
                -1.4509614154936985,
                -0.7550582075940897
            ]
        },
        {
            "positions": [
                -0.8864673207695039,
                -0.857952238586295,
                1.7001603118880018,
                1.2542941641794718,
                -1.3499908787046015,
                -0.8789978116816888
            ]
        },
        {
            "positions": [
                -0.8980246430564744,
                -0.8725839851736201,
                1.7179511217856398,
                1.136241858718063,
                -1.2490203419155046,
                -1.0029374157692876
            ]
        },
        {
            "positions": [
                -0.9095819653434449,
                -0.8872157317609451,
                1.735741931683278,
                1.0181895532566543,
                -1.1480498051264074,
                -1.1268770198568867
            ]
        },
        {
            "positions": [
                -0.9211392876304155,
                -0.9018474783482703,
                1.753532741580916,
                0.9001372477952452,
                -1.0470792683373102,
                -1.2508166239444858
            ]
        },
        {
            "positions": [
                -0.932696609917386,
                -0.9164792249355953,
                1.7713235514785541,
                0.7820849423338363,
                -0.9461087315482133,
                -1.3747562280320849
            ]
        },
        {
            "positions": [
                -0.9442539322043566,
                -0.9311109715229204,
                1.7891143613761924,
                0.6640326368724276,
                -0.8451381947591161,
                -1.4986958321196837
            ]
        },
        {
            "positions": [
                -0.9558112544913271,
                -0.9457427181102456,
                1.8069051712738304,
                0.5459803314110185,
                -0.7441676579700192,
                -1.6226354362072828
            ]
        },
        {
            "positions": [
                -0.9673685767782977,
                -0.9603744646975707,
                1.8246959811714687,
                0.42792802594960966,
                -0.643197121180922,
                -1.7465750402948819
            ]
        },
        {
            "positions": [
                -0.9789258990652682,
                -0.9750062112848957,
                1.8424867910691067,
                0.309875720488201,
                -0.542226584391825,
                -1.8705146443824807
            ]
        },
        {
            "positions": [
                -0.9904832213522388,
                -0.9896379578722209,
                1.8602776009667448,
                0.1918234150267919,
                -0.44125604760272785,
                -1.9944542484700798
            ]
        },
        {
            "positions": [
                -1.0020405436392092,
                -1.0042697044595459,
                1.878068410864383,
                0.07377110956538324,
                -0.3402855108136307,
                -2.118393852557679
            ]
        },
        {
            "positions": [
                -1.0135978659261797,
                -1.018901451046871,
                1.895859220762021,
                -0.044281195896025416,
                -0.23931497402453372,
                -2.2423334566452775
            ]
        },
        {
            "positions": [
                -1.0251551882131504,
                -1.0335331976341962,
                1.9136500306596593,
                -0.16233350135743452,
                -0.13834443723543655,
                -2.3662730607328766
            ]
        },
        {
            "positions": [
                -1.036712510500121,
                -1.0481649442215213,
                1.9314408405572974,
                -0.2803858068188436,
                -0.03737390044633937,
                -2.4902126648204757
            ]
        },
        {
            "positions": [
                -1.0482698327870914,
                -1.0627966908088462,
                1.9492316504549354,
                -0.3984381122802523,
                0.06359663634275758,
                -2.6141522689080743
            ]
        },
        {
            "positions": [
                -1.0598271550740619,
                -1.0774284373961716,
                1.9670224603525737,
                -0.5164904177416614,
                0.16456717313185454,
                -2.738091872995674
            ]
        },
        {
            "positions": [
                -1.0713844773610326,
                -1.0920601839834965,
                1.9848132702502117,
                -0.63454272320307,
                0.26553770992095194,
                -2.862031477083273
            ]
        },
        {
            "positions": [
                -1.082941799648003,
                -1.1066919305708216,
                2.00260408014785,
                -0.7525950286644787,
                0.3665082467100489,
                -2.9859710811708715
            ]
        },
        {
            "positions": [
                -1.0944991219349736,
                -1.1213236771581467,
                2.020394890045488,
                -0.8706473341258877,
                0.46747878349914573,
                -3.1099106852584706
            ]
        }
    ]
}