{
    "goal": {
        "global_pose": {
            "orientation": {
                "w": 0.7031023502349854,
                "x": -0.7110244035720825,
                "y": 0.007748599164187908,
                "z": 0.005598929710686207
            },
            "position": {
                "x": 0.11585023208521307,
                "y": 0.44412534475326537,
                "z": 0.3711530566215515
            }
        },
        "name": "move_to_auspresseinheit_A"
    },
    "id": "BKPIECE_move_to_auspresseinheit_A_119",
    "joint_names": [
        "shoulder_pan_joint",
        "shoulder_lift_joint",
        "elbow_joint",
        "wrist_1_joint",
        "wrist_2_joint",
        "wrist_3_joint"
    ],
    "metrics": {
        "cart_traj_len": 4.815535439049827,
        "distance_elbow_joint": 3.969491238488831,
        "distance_shoulder_lift_joint": 1.2761653414688614,
        "distance_shoulder_pan_joint": 10.994105067007625,
        "distance_wrist_1_joint": 7.602188230963364,
        "distance_wrist_2_joint": 5.509868297634493,
        "distance_wrist_3_joint": 5.945313387110895,
        "smoothness": 0.31317971722787835,
        "time": 0.383847464,
        "traj_len": 5.941138911242023,
        "weighted_distance": 7.765295542701109
    },
    "planner": "BKPIECE",
    "start": {
        "state": {
            "elbow_joint": 2.4225746658250005,
            "shoulder_lift_joint": -1.3736534386056498,
            "shoulder_pan_joint": -0.3378633547517467,
            "wrist_1_joint": -1.0288598680537169,
            "wrist_2_joint": 1.233022673432363,
            "wrist_3_joint": -3.0940220416140027
        }
    },
    "waypoints": [
        {
            "positions": [
                -0.3378633547517467,
                -1.3736534386056498,
                2.4225746658250005,
                -1.0288598680537169,
                1.233022673432363,
                -3.0940220416140027
            ]
        },
        {
            "positions": [
                -0.4072727125018548,
                -1.3942817942269812,
                2.37367522578026,
                -0.9213379761465177,
                1.1696127118392183,
                -3.0164721070539997
            ]
        },
        {
            "positions": [
                -0.47668207025196296,
                -1.4149101498483125,
                2.3247757857355187,
                -0.8138160842393185,
                1.1062027502460736,
                -2.9389221724939962
            ]
        },
        {
            "positions": [
                -0.546091428002071,
                -1.435538505469644,
                2.275876345690778,
                -0.7062941923321193,
                1.042792788652929,
                -2.861372237933993
            ]
        },
        {
            "positions": [
                -0.6155007857521793,
                -1.4561668610909753,
                2.2269769056460373,
                -0.5987723004249201,
                0.9793828270597842,
                -2.78382230337399
            ]
        },
        {
            "positions": [
                -0.6849101435022873,
                -1.4767952167123066,
                2.1780774656012962,
                -0.49125040851772095,
                0.9159728654666394,
                -2.7062723688139867
            ]
        },
        {
            "positions": [
                -0.7543195012523953,
                -1.497423572333638,
                2.1291780255565556,
                -0.38372851661052176,
                0.8525629038734946,
                -2.6287224342539837
            ]
        },
        {
            "positions": [
                -0.8237288590025036,
                -1.5180519279549693,
                2.080278585511815,
                -0.2762066247033226,
                0.7891529422803498,
                -2.5511724996939806
            ]
        },
        {
            "positions": [
                -0.8931382167526116,
                -1.5386802835763007,
                2.031379145467074,
                -0.1686847327961234,
                0.7257429806872052,
                -2.473622565133977
            ]
        },
        {
            "positions": [
                -0.9625475745027197,
                -1.559308639197632,
                1.982479705422333,
                -0.06116284088892421,
                0.6623330190940604,
                -2.396072630573974
            ]
        },
        {
            "positions": [
                -1.031956932252828,
                -1.5799369948189634,
                1.9335802653775924,
                0.04635905101827498,
                0.5989230575009157,
                -2.318522696013971
            ]
        },
        {
            "positions": [
                -1.101366290002936,
                -1.6005653504402948,
                1.8846808253328515,
                0.15388094292547438,
                0.5355130959077709,
                -2.2409727614539676
            ]
        },
        {
            "positions": [
                -1.170775647753044,
                -1.6211937060616262,
                1.8357813852881106,
                0.26140283483267335,
                0.47210313431462625,
                -2.1634228268939646
            ]
        },
        {
            "positions": [
                -1.2401850055031522,
                -1.6418220616829575,
                1.78688194524337,
                0.36892472673987275,
                0.4086931727214814,
                -2.0858728923339616
            ]
        },
        {
            "positions": [
                -1.3095943632532603,
                -1.6624504173042887,
                1.7379825051986293,
                0.4764466186470717,
                0.3452832111283367,
                -2.0083229577739585
            ]
        },
        {
            "positions": [
                -1.3790037210033685,
                -1.6830787729256202,
                1.6890830651538882,
                0.5839685105542711,
                0.281873249535192,
                -1.930773023213955
            ]
        },
        {
            "positions": [
                -1.4484130787534766,
                -1.7037071285469514,
                1.6401836251091475,
                0.6914904024614701,
                0.2184632879420474,
                -1.8532230886539518
            ]
        },
        {
            "positions": [
                -1.5178224365035846,
                -1.7243354841682828,
                1.5912841850644066,
                0.7990122943686695,
                0.15505332634890245,
                -1.7756731540939485
            ]
        },
        {
            "positions": [
                -1.5872317942536927,
                -1.7449638397896141,
                1.542384745019666,
                0.9065341862758685,
                0.09164336475575774,
                -1.6981232195339455
            ]
        },
        {
            "positions": [
                -1.656641152003801,
                -1.7655921954109455,
                1.493485304974925,
                1.0140560781830679,
                0.028233403162613024,
                -1.6205732849739423
            ]
        },
        {
            "positions": [
                -1.726050509753909,
                -1.7862205510322768,
                1.4445858649301844,
                1.1215779700902668,
                -0.03517655843053169,
                -1.5430233504139392
            ]
        },
        {
            "positions": [
                -1.7954598675040172,
                -1.8068489066536084,
                1.3956864248854433,
                1.2290998619974667,
                -0.09858652002367663,
                -1.4654734158539358
            ]
        },
        {
            "positions": [
                -1.8648692252541252,
                -1.8274772622749396,
                1.3467869848407026,
                1.3366217539046656,
                -0.16199648161682134,
                -1.3879234812939327
            ]
        },
        {
            "positions": [
                -1.9342785830042333,
                -1.848105617896271,
                1.297887544795962,
                1.4441436458118646,
                -0.22540644320996583,
                -1.3103735467339295
            ]
        },
        {
            "positions": [
                -2.0036879407543413,
                -1.8687339735176023,
                1.248988104751221,
                1.5516655377190636,
                -0.28881640480311055,
                -1.2328236121739264
            ]
        },
        {
            "positions": [
                -2.07309729850445,
                -1.8893623291389336,
                1.2000886647064801,
                1.6591874296262634,
                -0.3522263663962555,
                -1.155273677613923
            ]
        },
        {
            "positions": [
                -2.142506656254558,
                -1.909990684760265,
                1.1511892246617392,
                1.7667093215334624,
                -0.4156363279894002,
                -1.07772374305392
            ]
        },
        {
            "positions": [
                -2.211916014004666,
                -1.9306190403815964,
                1.1022897846169986,
                1.8742312134406613,
                -0.4790462895825449,
                -1.000173808493917
            ]
        },
        {
            "positions": [
                -2.281325371754774,
                -1.9512473960029277,
                1.0533903445722579,
                1.9817531053478603,
                -0.5424562511756896,
                -0.9226238739339139
            ]
        },
        {
            "positions": [
                -2.3507347295048824,
                -1.971875751624259,
                1.0044909045275168,
                2.0892749972550604,
                -0.6058662127688343,
                -0.8450739393739104
            ]
        },
        {
            "positions": [
                -2.4201440872549904,
                -1.9925041072455905,
                0.9555914644827761,
                2.1967968891622593,
                -0.6692761743619791,
                -0.7675240048139074
            ]
        },
        {
            "positions": [
                -2.4895534450050985,
                -2.013132462866922,
                0.9066920244380354,
                2.3043187810694583,
                -0.7326861359551238,
                -0.6899740702539043
            ]
        },
        {
            "positions": [
                -2.5589628027552065,
                -2.033760818488253,
                0.8577925843932945,
                2.4118406729766573,
                -0.7960960975482683,
                -0.6124241356939009
            ]
        },
        {
            "positions": [
                -2.6283721605053145,
                -2.0543891741095845,
                0.8088931443485536,
                2.519362564883857,
                -0.8595060591414134,
                -0.5348742011338974
            ]
        },
        {
            "positions": [
                -2.6977815182554226,
                -2.075017529730916,
                0.7599937043038127,
                2.626884456791056,
                -0.9229160207345581,
                -0.45732426657389436
            ]
        },
        {
            "positions": [
                -2.7671908760055306,
                -2.0956458853522473,
                0.7110942642590721,
                2.734406348698255,
                -0.9863259823277029,
                -0.3797743320138913
            ]
        },
        {
            "positions": [
                -2.8366002337556386,
                -2.1162742409735786,
                0.6621948242143314,
                2.841928240605454,
                -1.0497359439208476,
                -0.3022243974538883
            ]
        },
        {
            "positions": [
                -2.906009591505747,
                -2.13690259659491,
                0.6132953841695903,
                2.949450132512654,
                -1.1131459055139923,
                -0.22467446289388482
            ]
        },
        {
            "positions": [
                -2.975418949255855,
                -2.1575309522162414,
                0.5643959441248496,
                3.0569720244198524,
                -1.1765558671071372,
                -0.1471245283338818
            ]
        },
        {
            "positions": [
                -2.760503387910135,
                -2.1442889340988853,
                0.6347158454639054,
                3.033919092901182,
                -1.1984010554186515,
                -0.18821116295829682
            ]
        },
        {
            "positions": [
                -2.5455878265644154,
                -2.131046915981529,
                0.7050357468029612,
                3.0108661613825114,
                -1.2202462437301658,
                -0.22929779758271185
            ]
        },
        {
            "positions": [
                -2.3306722652186953,
                -2.117804897864173,
                0.775355648142017,
                2.987813229863841,
                -1.24209143204168,
                -0.2703844322071269
            ]
        },
        {
            "positions": [
                -2.115756703872975,
                -2.1045628797468163,
                0.8456755494810728,
                2.9647602983451704,
                -1.2639366203531943,
                -0.3114710668315419
            ]
        },
        {
            "positions": [
                -1.9008411425272553,
                -2.0913208616294603,
                0.9159954508201286,
                2.9417073668265,
                -1.2857818086647086,
                -0.352557701455957
            ]
        },
        {
            "positions": [
                -1.6859255811815355,
                -2.0780788435121043,
                0.9863153521591843,
                2.9186544353078294,
                -1.3076269969762229,
                -0.39364433608037197
            ]
        },
        {
            "positions": [
                -1.4710100198358154,
                -2.0648368253947478,
                1.0566352534982402,
                2.895601503789159,
                -1.3294721852877371,
                -0.43473097070478706
            ]
        },
        {
            "positions": [
                -1.2560944584900955,
                -2.0515948072773917,
                1.126955154837296,
                2.872548572270488,
                -1.3513173735992514,
                -0.4758176053292021
            ]
        },
        {
            "positions": [
                -1.0411788971443752,
                -2.0383527891600357,
                1.1972750561763519,
                2.8494956407518175,
                -1.373162561910766,
                -0.5169042399536172
            ]
        },
        {
            "positions": [
                -0.8262633357986555,
                -2.0251107710426792,
                1.2675949575154075,
                2.826442709233147,
                -1.3950077502222802,
                -0.5579908745780322
            ]
        },
        {
            "positions": [
                -0.6113477744529354,
                -2.011868752925323,
                1.3379148588544634,
                2.8033897777144765,
                -1.4168529385337945,
                -0.5990775092024472
            ]
        },
        {
            "positions": [
                -0.39643221310721577,
                -1.998626734807967,
                1.408234760193519,
                2.780336846195806,
                -1.4386981268453087,
                -0.6401641438268622
            ]
        },
        {
            "positions": [
                -0.18151665176149523,
                -1.9853847166906107,
                1.4785546615325749,
                2.7572839146771355,
                -1.460543315156823,
                -0.6812507784512774
            ]
        },
        {
            "positions": [
                0.03339890958422442,
                -1.9721426985732546,
                1.5488745628716307,
                2.734230983158465,
                -1.4823885034683373,
                -0.7223374130756923
            ]
        },
        {
            "positions": [
                0.24831447092994408,
                -1.9589006804558984,
                1.6191944642106866,
                2.7111780516397945,
                -1.5042336917798516,
                -0.7634240477001073
            ]
        },
        {
            "positions": [
                0.46323003227566417,
                -1.9456586623385421,
                1.6895143655497422,
                2.688125120121124,
                -1.5260788800913658,
                -0.8045106823245224
            ]
        },
        {
            "positions": [
                0.6781455936213838,
                -1.9324166442211859,
                1.759834266888798,
                2.6650721886024535,
                -1.54792406840288,
                -0.8455973169489374
            ]
        },
        {
            "positions": [
                0.8930611549671048,
                -1.9191746261038296,
                1.830154168227854,
                2.642019257083783,
                -1.5697692567143946,
                -0.8866839515733526
            ]
        },
        {
            "positions": [
                1.1079767163128245,
                -1.9059326079864736,
                1.9004740695669098,
                2.6189663255651126,
                -1.5916144450259089,
                -0.9277705861977675
            ]
        },
        {
            "positions": [
                1.3228922776585441,
                -1.8926905898691173,
                1.9707939709059654,
                2.595913394046442,
                -1.6134596333374231,
                -0.9688572208221826
            ]
        },
        {
            "positions": [
                1.5378078390042647,
                -1.879448571751761,
                2.0411138722450213,
                2.572860462527771,
                -1.6353048216489374,
                -1.0099438554465976
            ]
        },
        {
            "positions": [
                1.7527234003499843,
                -1.866206553634405,
                2.111433773584077,
                2.549807531009101,
                -1.6571500099604517,
                -1.0510304900710126
            ]
        },
        {
            "positions": [
                1.967638961695704,
                -1.8529645355170488,
                2.181753674923133,
                2.52675459949043,
                -1.678995198271966,
                -1.0921171246954278
            ]
        },
        {
            "positions": [
                2.1825545230414236,
                -1.8397225173996925,
                2.2520735762621884,
                2.5037016679717596,
                -1.7008403865834802,
                -1.1332037593198425
            ]
        },
        {
            "positions": [
                2.397470084387144,
                -1.8264804992823362,
                2.3223934776012447,
                2.480648736453089,
                -1.7226855748949945,
                -1.1742903939442577
            ]
        },
        {
            "positions": [
                2.6123856457328647,
                -1.81323848116498,
                2.3927133789403,
                2.4575958049344186,
                -1.7445307632065088,
                -1.215377028568673
            ]
        },
        {
            "positions": [
                2.8273012070785843,
                -1.799996463047624,
                2.463033280279356,
                2.434542873415748,
                -1.766375951518023,
                -1.2564636631930879
            ]
        },
        {
            "positions": [
                3.0422167684243036,
                -1.7867544449302677,
                2.533353181618412,
                2.4114899418970777,
                -1.7882211398295373,
                -1.2975502978175029
            ]
        },
        {
            "positions": [
                2.9486602182313693,
                -1.7916148977531596,
                2.5276589704466073,
                2.2966549716583966,
                -1.6886761604546336,
                -1.3714699019913887
            ]
        },
        {
            "positions": [
                2.855103668038435,
                -1.7964753505760513,
                2.5219647592748027,
                2.181820001419715,
                -1.58913118107973,
                -1.4453895061652744
            ]
        },
        {
            "positions": [
                2.7615471178455,
                -1.8013358033989433,
                2.5162705481029977,
                2.066985031181034,
                -1.4895862017048263,
                -1.5193091103391603
            ]
        },
        {
            "positions": [
                2.667990567652566,
                -1.806196256221835,
                2.510576336931193,
                1.952150060942353,
                -1.3900412223299223,
                -1.593228714513046
            ]
        },
        {
            "positions": [
                2.5744340174596316,
                -1.811056709044727,
                2.5048821257593885,
                1.8373150907036717,
                -1.2904962429550186,
                -1.6671483186869318
            ]
        },
        {
            "positions": [
                2.480877467266697,
                -1.8159171618676189,
                2.499187914587584,
                1.7224801204649907,
                -1.190951263580115,
                -1.7410679228608177
            ]
        },
        {
            "positions": [
                2.3873209170737626,
                -1.8207776146905106,
                2.4934937034157794,
                1.6076451502263094,
                -1.091406284205211,
                -1.8149875270347033
            ]
        },
        {
            "positions": [
                2.2937643668808283,
                -1.8256380675134025,
                2.4877994922439743,
                1.4928101799876283,
                -0.9918613048303074,
                -1.8889071312085892
            ]
        },
        {
            "positions": [
                2.200207816687894,
                -1.8304985203362942,
                2.4821052810721698,
                1.377975209748947,
                -0.8923163254554037,
                -1.962826735382475
            ]
        },
        {
            "positions": [
                2.1066512664949597,
                -1.8353589731591862,
                2.476411069900365,
                1.2631402395102658,
                -0.7927713460804999,
                -2.0367463395563608
            ]
        },
        {
            "positions": [
                2.0130947163020254,
                -1.840219425982078,
                2.4707168587285606,
                1.1483052692715847,
                -0.6932263667055962,
                -2.110665943730247
            ]
        },
        {
            "positions": [
                1.9195381661090907,
                -1.8450798788049698,
                2.465022647556756,
                1.0334702990329037,
                -0.5936813873306925,
                -2.1845855479041325
            ]
        },
        {
            "positions": [
                1.8259816159161564,
                -1.8499403316278618,
                2.459328436384951,
                0.9186353287942222,
                -0.49413640795578884,
                -2.258505152078018
            ]
        },
        {
            "positions": [
                1.7324250657232219,
                -1.8548007844507535,
                2.4536342252131464,
                0.8038003585555409,
                -0.3945914285808849,
                -2.3324247562519043
            ]
        },
        {
            "positions": [
                1.6388685155302876,
                -1.8596612372736454,
                2.447940014041342,
                0.68896538831686,
                -0.29504644920598144,
                -2.4063443604257895
            ]
        },
        {
            "positions": [
                1.545311965337353,
                -1.8645216900965373,
                2.4422458028695373,
                0.5741304180781788,
                -0.19550146983107752,
                -2.4802639645996756
            ]
        },
        {
            "positions": [
                1.4517554151444185,
                -1.869382142919429,
                2.4365515916977327,
                0.4592954478394975,
                -0.09595649045617383,
                -2.5541835687735617
            ]
        },
        {
            "positions": [
                1.3581988649514845,
                -1.874242595742321,
                2.4308573805259277,
                0.34446047760081644,
                0.0035884889187298707,
                -2.628103172947447
            ]
        },
        {
            "positions": [
                1.26464231475855,
                -1.8791030485652127,
                2.425163169354123,
                0.22962550736213538,
                0.10313346829363357,
                -2.702022777121333
            ]
        },
        {
            "positions": [
                1.1710857645656154,
                -1.8839635013881046,
                2.4194689581823186,
                0.11479053712345388,
                0.2026784476685375,
                -2.775942381295219
            ]
        },
        {
            "positions": [
                1.0775292143726811,
                -1.8888239542109966,
                2.413774747010514,
                -4.443311522717153e-05,
                0.3022234270434412,
                -2.8498619854691043
            ]
        },
        {
            "positions": [
                0.9839726641797468,
                -1.8936844070338883,
                2.4080805358387094,
                -0.11487940335390823,
                0.4017684064183449,
                -2.9237815896429904
            ]
        },
        {
            "positions": [
                0.8904161139868121,
                -1.8985448598567802,
                2.4023863246669044,
                -0.22971437359258973,
                0.5013133857932486,
                -2.9977011938168765
            ]
        },
        {
            "positions": [
                0.7968595637938778,
                -1.903405312679672,
                2.3966921134951,
                -0.34454934383127034,
                0.6008583651681523,
                -3.0716207979907617
            ]
        },
        {
            "positions": [
                0.7033030136009433,
                -1.9082657655025639,
                2.3909979023232952,
                -0.4593843140699517,
                0.7004033445430559,
                -3.145540402164648
            ]
        }
    ]
}