{
    "goal": {
        "global_pose": {
            "orientation": {
                "w": -0.00223480608172531,
                "x": 0.0024358444001904467,
                "y": 0.7094548369677653,
                "z": -0.704743149386269
            },
            "position": {
                "x": 0.6205249238014221,
                "y": -0.6371506643295288,
                "z": 0.19426114857196808
            }
        },
        "name": "move_to_magneteinheit_B"
    },
    "id": "BKPIECE_move_to_magneteinheit_B_128",
    "joint_names": [
        "shoulder_pan_joint",
        "shoulder_lift_joint",
        "elbow_joint",
        "wrist_1_joint",
        "wrist_2_joint",
        "wrist_3_joint"
    ],
    "metrics": {
        "cart_traj_len": 1.5635148856594105,
        "distance_elbow_joint": 0.9562804144249999,
        "distance_shoulder_lift_joint": 1.1939673806252231,
        "distance_shoulder_pan_joint": 1.6220568802006377,
        "distance_wrist_1_joint": 1.122612959575115,
        "distance_wrist_2_joint": 1.8498261167207393,
        "distance_wrist_3_joint": 0.8115354965340091,
        "smoothness": 0.5049723708969064,
        "time": 0.351080492,
        "traj_len": 2.7488687215072174,
        "weighted_distance": 3.4859416686807307
    },
    "planner": "BKPIECE",
    "start": {
        "state": {
            "elbow_joint": 2.6216224122426386,
            "shoulder_lift_joint": -1.4174107377796124,
            "shoulder_pan_joint": 0.7066234856936794,
            "wrist_1_joint": 1.9546482284002225,
            "wrist_2_joint": -0.7096286983471962,
            "wrist_3_joint": 0.005740856962016249
        }
    },
    "waypoints": [
        {
            "positions": [
                0.7066234856936794,
                -1.4174107377796124,
                2.6216224122426386,
                1.9546482284002225,
                -0.7096286983471962,
                0.005740856962016249
            ]
        },
        {
            "positions": [
                0.6238127235630637,
                -1.449109017425868,
                2.6140008339392784,
                1.8356771466567092,
                -0.6267851251015985,
                0.0021535393447313315
            ]
        },
        {
            "positions": [
                0.5410019614324479,
                -1.4808072970721238,
                2.6063792556359178,
                1.716706064913196,
                -0.5439415518560007,
                -0.0014337782725535857
            ]
        },
        {
            "positions": [
                0.4788558049294876,
                -1.519820166139113,
                2.5453299436243686,
                1.659938519672622,
                -0.5468241738950632,
                -0.09988537007538088
            ]
        },
        {
            "positions": [
                0.41670964842652725,
                -1.5588330352061024,
                2.48428063161282,
                1.603170974432048,
                -0.5497067959341259,
                -0.19833696187820818
            ]
        },
        {
            "positions": [
                0.35456349192356695,
                -1.5978459042730917,
                2.423231319601271,
                1.5464034291914739,
                -0.5525894179731885,
                -0.29678855368103546
            ]
        },
        {
            "positions": [
                0.2924173354206066,
                -1.636858773340081,
                2.362182007589722,
                1.4896358839508999,
                -0.555472040012251,
                -0.39524014548386277
            ]
        },
        {
            "positions": [
                0.21189395342543563,
                -1.5718908170024306,
                2.3157260069382497,
                1.533475924959286,
                -0.6669792721504706,
                -0.36786984587798743
            ]
        },
        {
            "positions": [
                0.13137057143026465,
                -1.5069228606647804,
                2.2692700062867774,
                1.577315965967672,
                -0.7784865042886902,
                -0.3404995462721121
            ]
        },
        {
            "positions": [
                0.05084718943509364,
                -1.44195490432713,
                2.222814005635305,
                1.6211560069760584,
                -0.8899937364269097,
                -0.3131292466662367
            ]
        },
        {
            "positions": [
                -0.029676192560077308,
                -1.3769869479894798,
                2.176358004983833,
                1.6649960479844446,
                -1.0015009685651293,
                -0.28575894706036137
            ]
        },
        {
            "positions": [
                -0.11019957455524826,
                -1.3120189916518294,
                2.1299020043323607,
                1.7088360889928307,
                -1.1130082007033488,
                -0.25838864745448603
            ]
        },
        {
            "positions": [
                -0.19072295655041932,
                -1.247051035314179,
                2.083446003680889,
                1.7526761300012168,
                -1.2245154328415684,
                -0.23101834784861067
            ]
        },
        {
            "positions": [
                -0.27124633854559027,
                -1.1820830789765289,
                2.0369900030294166,
                1.796516171009603,
                -1.336022664979788,
                -0.20364804824273533
            ]
        },
        {
            "positions": [
                -0.3517697205407612,
                -1.1171151226388785,
                1.9905340023779443,
                1.8403562120179893,
                -1.4475298971180075,
                -0.17627774863686
            ]
        },
        {
            "positions": [
                -0.43229310253593217,
                -1.052147166301228,
                1.944078001726472,
                1.8841962530263754,
                -1.559037129256227,
                -0.14890744903098466
            ]
        },
        {
            "positions": [
                -0.5128164845311032,
                -0.9871792099635779,
                1.8976220010749998,
                1.9280362940347615,
                -1.6705443613944466,
                -0.12153714942510929
            ]
        },
        {
            "positions": [
                -0.5933398665262741,
                -0.9222112536259276,
                1.8511660004235275,
                1.9718763350431476,
                -1.7820515935326662,
                -0.09416684981923396
            ]
        },
        {
            "positions": [
                -0.6738632485214453,
                -0.8572432972882772,
                1.8047099997720553,
                2.0157163760515338,
                -1.8935588256708857,
                -0.06679655021335856
            ]
        },
        {
            "positions": [
                -0.7543866305166163,
                -0.7922753409506269,
                1.758253999120583,
                2.05955641705992,
                -2.0050660578091053,
                -0.039426250607483226
            ]
        },
        {
            "positions": [
                -0.8349100125117872,
                -0.7273073846129766,
                1.711797998469111,
                2.103396458068306,
                -2.1165732899473246,
                -0.01205595100160789
            ]
        },
        {
            "positions": [
                -0.9154333945069582,
                -0.6623394282753263,
                1.6653419978176387,
                2.1472364990766923,
                -2.2280805220855444,
                0.01531434860426743
            ]
        }
    ]
}