{
    "goal": {
        "global_pose": {
            "orientation": {
                "w": -0.00223480608172531,
                "x": 0.0024358444001904467,
                "y": 0.7094548369677653,
                "z": -0.704743149386269
            },
            "position": {
                "x": -0.37947507619857795,
                "y": -0.6371506643295288,
                "z": 0.19426114857196808
            }
        },
        "name": "move_to_magneteinheit_C"
    },
    "id": "BKPIECE_move_to_magneteinheit_C_140",
    "joint_names": [
        "shoulder_pan_joint",
        "shoulder_lift_joint",
        "elbow_joint",
        "wrist_1_joint",
        "wrist_2_joint",
        "wrist_3_joint"
    ],
    "metrics": {
        "cart_traj_len": 2.2546834204308195,
        "distance_elbow_joint": 0.6446684962915903,
        "distance_shoulder_lift_joint": 1.1835161658482203,
        "distance_shoulder_pan_joint": 3.0241237088826627,
        "distance_wrist_1_joint": 1.0122866278478435,
        "distance_wrist_2_joint": 3.8481756217004053,
        "distance_wrist_3_joint": 4.622152829375064,
        "smoothness": 1.0011978005555622,
        "time": 0.322053484,
        "traj_len": 3.7861488943180492,
        "weighted_distance": 5.332887712885408
    },
    "planner": "BKPIECE",
    "start": {
        "state": {
            "elbow_joint": 1.9565354010623817,
            "shoulder_lift_joint": -1.4165861575791021,
            "shoulder_pan_joint": -1.6717766225146293,
            "wrist_1_joint": -0.5286633292919765,
            "wrist_2_joint": 1.472756589071564,
            "wrist_3_joint": -3.1238370188695823
        }
    },
    "waypoints": [
        {
            "positions": [
                -1.6717766225146293,
                -1.4165861575791021,
                1.9565354010623817,
                -0.5286633292919765,
                1.472756589071564,
                -3.1238370188695823
            ]
        },
        {
            "positions": [
                -1.5949362765243245,
                -1.4262453173350604,
                1.9279224261414707,
                -0.4893314594189306,
                1.400589796435592,
                -3.0236221794108395
            ]
        },
        {
            "positions": [
                -1.5180959305340196,
                -1.435904477091019,
                1.8993094512205597,
                -0.4499995895458847,
                1.32842300379962,
                -2.923407339952097
            ]
        },
        {
            "positions": [
                -1.4412555845437147,
                -1.4455636368469773,
                1.8706964762996487,
                -0.41066771967283877,
                1.2562562111636482,
                -2.823192500493354
            ]
        },
        {
            "positions": [
                -1.3644152385534098,
                -1.4552227966029359,
                1.8420835013787378,
                -0.3713358497997929,
                1.1840894185276762,
                -2.7229776610346113
            ]
        },
        {
            "positions": [
                -1.287574892563105,
                -1.4648819563588942,
                1.8134705264578268,
                -0.332003979926747,
                1.1119226258917043,
                -2.6227628215758685
            ]
        },
        {
            "positions": [
                -1.3938734896427343,
                -1.487968183746511,
                1.8049187379554472,
                -0.36849801674492166,
                1.002611224744698,
                -2.522887174865635
            ]
        },
        {
            "positions": [
                -1.5001720867223636,
                -1.5110544111341278,
                1.7963669494530679,
                -0.4049920535630963,
                0.8932998235976918,
                -2.423011528155402
            ]
        },
        {
            "positions": [
                -1.6064706838019926,
                -1.5341406385217446,
                1.7878151609506883,
                -0.44148609038127096,
                0.7839884224506855,
                -2.323135881445169
            ]
        },
        {
            "positions": [
                -1.7127692808816222,
                -1.5572268659093613,
                1.7792633724483087,
                -0.4779801271994456,
                0.6746770213036792,
                -2.2232602347349357
            ]
        },
        {
            "positions": [
                -1.8190678779612512,
                -1.5803130932969782,
                1.7707115839459293,
                -0.5144741640176203,
                0.5653656201566729,
                -2.1233845880247024
            ]
        },
        {
            "positions": [
                -1.9253664750408805,
                -1.6033993206845951,
                1.7621597954435497,
                -0.5509682008357948,
                0.4560542190096667,
                -2.0235089413144696
            ]
        },
        {
            "positions": [
                -2.03166507212051,
                -1.6264855480722118,
                1.7536080069411701,
                -0.5874622376539695,
                0.34674281786266037,
                -1.923633294604236
            ]
        },
        {
            "positions": [
                -2.137963669200139,
                -1.6495717754598287,
                1.7450562184387908,
                -0.6239562744721441,
                0.23743141671565415,
                -1.823757647894003
            ]
        },
        {
            "positions": [
                -2.2442622662797684,
                -1.6726580028474456,
                1.7365044299364112,
                -0.6604503112903188,
                0.12812001556864783,
                -1.7238820011837697
            ]
        },
        {
            "positions": [
                -2.350560863359398,
                -1.6957442302350623,
                1.7279526414340316,
                -0.6969443481084934,
                0.0188086144216415,
                -1.6240063544735364
            ]
        },
        {
            "positions": [
                -2.456859460439027,
                -1.7188304576226792,
                1.7194008529316522,
                -0.7334383849266681,
                -0.09050278672536471,
                -1.524130707763303
            ]
        },
        {
            "positions": [
                -2.563158057518656,
                -1.7419166850102958,
                1.7108490644292726,
                -0.7699324217448427,
                -0.19981418787237093,
                -1.4242550610530702
            ]
        },
        {
            "positions": [
                -2.669456654598285,
                -1.7650029123979127,
                1.702297275926893,
                -0.8064264585630173,
                -0.30912558901937737,
                -1.324379414342837
            ]
        },
        {
            "positions": [
                -2.775755251677915,
                -1.7880891397855296,
                1.6937454874245137,
                -0.842920495381192,
                -0.4184369901663836,
                -1.2245037676326036
            ]
        },
        {
            "positions": [
                -2.8820538487575442,
                -1.8111753671731463,
                1.685193698922134,
                -0.8794145321993666,
                -0.5277483913133898,
                -1.1246281209223703
            ]
        },
        {
            "positions": [
                -2.9883524458371733,
                -1.8342615945607632,
                1.6766419104197545,
                -0.9159085690175413,
                -0.637059792460396,
                -1.0247524742121374
            ]
        },
        {
            "positions": [
                -3.0946510429168024,
                -1.8573478219483799,
                1.6680901219173752,
                -0.9524026058357159,
                -0.7463711936074024,
                -0.9248768275019041
            ]
        },
        {
            "positions": [
                -3.200949639996432,
                -1.8804340493359968,
                1.6595383334149956,
                -0.9888966426538905,
                -0.8556825947544087,
                -0.8250011807916708
            ]
        },
        {
            "positions": [
                -3.152513157896578,
                -1.832456164396575,
                1.6827164286579426,
                -0.9783143349368592,
                -0.7543668322294464,
                -0.9798889802114811
            ]
        },
        {
            "positions": [
                -3.1040766757967235,
                -1.7844782794571534,
                1.7058945239008894,
                -0.9677320272198278,
                -0.6530510697044842,
                -1.1347767796312913
            ]
        },
        {
            "positions": [
                -3.0556401936968696,
                -1.7365003945177317,
                1.7290726191438364,
                -0.9571497195027964,
                -0.5517353071795221,
                -1.2896645790511014
            ]
        },
        {
            "positions": [
                -3.0072037115970156,
                -1.68852250957831,
                1.7522507143867834,
                -0.9465674117857651,
                -0.4504195446545599,
                -1.4445523784709118
            ]
        },
        {
            "positions": [
                -2.9587672294971616,
                -1.6405446246388882,
                1.7754288096297304,
                -0.9359851040687337,
                -0.3491037821295977,
                -1.5994401778907217
            ]
        },
        {
            "positions": [
                -2.9103307473973072,
                -1.5925667396994665,
                1.7986069048726772,
                -0.9254027963517023,
                -0.24778801960463548,
                -1.754327977310532
            ]
        },
        {
            "positions": [
                -2.8618942652974533,
                -1.5445888547600448,
                1.8217850001156242,
                -0.9148204886346709,
                -0.14647225707967326,
                -1.9092157767303422
            ]
        },
        {
            "positions": [
                -2.8134577831975993,
                -1.4966109698206231,
                1.8449630953585712,
                -0.9042381809176395,
                -0.04515649455471116,
                -2.0641035761501527
            ]
        },
        {
            "positions": [
                -2.7650213010977454,
                -1.4486330848812015,
                1.8681411906015182,
                -0.8936558732006081,
                0.05615926797025106,
                -2.2189913755699626
            ]
        },
        {
            "positions": [
                -2.716584818997891,
                -1.4006551999417798,
                1.891319285844465,
                -0.8830735654835767,
                0.15747503049521328,
                -2.3738791749897725
            ]
        },
        {
            "positions": [
                -2.668148336898037,
                -1.3526773150023579,
                1.914497381087412,
                -0.8724912577665453,
                0.2587907930201754,
                -2.528766974409583
            ]
        },
        {
            "positions": [
                -2.619711854798183,
                -1.3046994300629362,
                1.937675476330359,
                -0.8619089500495141,
                0.3601065555451377,
                -2.683654773829393
            ]
        },
        {
            "positions": [
                -2.571275372698329,
                -1.2567215451235145,
                1.9608535715733058,
                -0.8513266423324827,
                0.4614223180700998,
                -2.8385425732492036
            ]
        },
        {
            "positions": [
                -2.5228388905984747,
                -1.2087436601840928,
                1.9840316668162528,
                -0.8407443346154513,
                0.5627380805950621,
                -2.9934303726690135
            ]
        },
        {
            "positions": [
                -2.4744024084986207,
                -1.1607657752446712,
                2.0072097620591998,
                -0.8301620268984199,
                0.6640538431200242,
                -3.148318172088824
            ]
        }
    ]
}