{
    "goal": {
        "global_pose": {
            "orientation": {
                "w": 0.5084816217422485,
                "x": -0.49083608388900757,
                "y": 0.5182115435600281,
                "z": -0.4816462993621826
            },
            "position": {
                "x": 0.5540239810943604,
                "y": 0.030875300988554955,
                "z": 0.16403168439865112
            }
        },
        "name": "move_to_storage_A"
    },
    "id": "BKPIECE_move_to_storage_A_136",
    "joint_names": [
        "shoulder_pan_joint",
        "shoulder_lift_joint",
        "elbow_joint",
        "wrist_1_joint",
        "wrist_2_joint",
        "wrist_3_joint"
    ],
    "metrics": {
        "cart_traj_len": 0.35304428410838257,
        "distance_elbow_joint": 0.4533361747767384,
        "distance_shoulder_lift_joint": 0.2345802939970416,
        "distance_shoulder_pan_joint": 0.4627724520140211,
        "distance_wrist_1_joint": 0.2578539717187366,
        "distance_wrist_2_joint": 1.094247102374665,
        "distance_wrist_3_joint": 0.10084052720743086,
        "smoothness": 8.881784197001252e-16,
        "time": 0.20196614200000002,
        "traj_len": 1.613576934047036,
        "weighted_distance": 2.038973430576499
    },
    "planner": "BKPIECE",
    "start": {
        "state": {
            "elbow_joint": 1.971548259319323,
            "shoulder_lift_joint": -1.1394851275133948,
            "shoulder_pan_joint": 0.1228115487234821,
            "wrist_1_joint": -0.7804723859257726,
            "wrist_2_joint": 0.12958671773740124,
            "wrist_3_joint": -3.192489227718131
        }
    },
    "waypoints": [
        {
            "positions": [
                0.1228115487234821,
                -1.1394851275133948,
                1.971548259319323,
                -0.7804723859257726,
                0.12958671773740124,
                -3.192489227718131
            ]
        },
        {
            "positions": [
                0.05670119843576481,
                -1.1729965980844008,
                2.036310570001714,
                -0.8173086675998779,
                0.28590773236235334,
                -3.1780834381170697
            ]
        },
        {
            "positions": [
                -0.009409151851952485,
                -1.2065080686554066,
                2.1010728806841055,
                -0.8541449492739831,
                0.4422287469873055,
                -3.163677648516008
            ]
        },
        {
            "positions": [
                -0.07551950213966979,
                -1.2400195392264126,
                2.1658351913664964,
                -0.8909812309480882,
                0.5985497616122576,
                -3.1492718589149464
            ]
        },
        {
            "positions": [
                -0.14162985242738707,
                -1.2735310097974186,
                2.2305975020488877,
                -0.9278175126221935,
                0.7548707762372098,
                -3.134866069313885
            ]
        },
        {
            "positions": [
                -0.2077402027151044,
                -1.3070424803684246,
                2.295359812731279,
                -0.9646537942962987,
                0.911191790862162,
                -3.1204602797128236
            ]
        },
        {
            "positions": [
                -0.2738505530028217,
                -1.3405539509394304,
                2.36012212341367,
                -1.001490075970404,
                1.067512805487114,
                -3.1060544901117617
            ]
        },
        {
            "positions": [
                -0.339960903290539,
                -1.3740654215104364,
                2.4248844340960614,
                -1.0383263576445092,
                1.2238338201120662,
                -3.0916487005107003
            ]
        }
    ]
}{
    "goal": {
        "global_pose": {
            "orientation": {
                "w": 0.5084816217422485,
                "x": -0.49083608388900757,
                "y": 0.5182115435600281,
                "z": -0.4816462993621826
            },
            "position": {
                "x": 0.5540239810943604,
                "y": 0.030875300988554955,
                "z": 0.16403168439865112
            }
        },
        "name": "move_to_storage_A"
    },
    "id": "BKPIECE_move_to_storage_A_136",
    "joint_names": [
        "shoulder_pan_joint",
        "shoulder_lift_joint",
        "elbow_joint",
        "wrist_1_joint",
        "wrist_2_joint",
        "wrist_3_joint"
    ],
    "metrics": {
        "cart_traj_len": 0.35283846475605063,
        "distance_elbow_joint": 0.4502209515155413,
        "distance_shoulder_lift_joint": 0.2366393470057615,
        "distance_shoulder_pan_joint": 0.46241746293994557,
        "distance_wrist_1_joint": 0.23581529180907101,
        "distance_wrist_2_joint": 1.0955060706717965,
        "distance_wrist_3_joint": 0.09051633876005072,
        "smoothness": 1.3322676311638882e-15,
        "time": 0.154614375,
        "traj_len": 1.6034698197041837,
        "weighted_distance": 2.0207596350637886
    },
    "planner": "BKPIECE",
    "start": {
        "state": {
            "elbow_joint": 1.97154746011099,
            "shoulder_lift_joint": -1.13948474672311,
            "shoulder_pan_joint": 0.12281154466712228,
            "wrist_1_joint": -0.7804688027058302,
            "wrist_2_joint": 0.12958655903071145,
            "wrist_3_joint": 3.0906928834467795
        }
    },
    "waypoints": [
        {
            "positions": [
                0.12281154466712228,
                -1.13948474672311,
                1.97154746011099,
                -0.7804688027058302,
                0.12958655903071145,
                3.0906928834467795
            ]
        },
        {
            "positions": [
                0.056751907104272914,
                -1.173290367723933,
                2.0358647388989244,
                -0.8141567015356975,
                0.28608742626953954,
                3.1036237889839295
            ]
        },
        {
            "positions": [
                -0.009307730458576455,
                -1.207095988724756,
                2.100182017686859,
                -0.8478446003655647,
                0.4425882935083676,
                3.1165546945210796
            ]
        },
        {
            "positions": [
                -0.07536736802142581,
                -1.2409016097255792,
                2.1644992964747933,
                -0.8815324991954321,
                0.5990891607471956,
                3.1294856000582296
            ]
        },
        {
            "positions": [
                -0.14142700558427518,
                -1.2747072307264022,
                2.228816575262728,
                -0.9152203980252993,
                0.7555900279860237,
                3.14241650559538
            ]
        },
        {
            "positions": [
                -0.20748664314712456,
                -1.3085128517272253,
                2.2931338540506623,
                -0.9489082968551666,
                0.9120908952248519,
                3.15534741113253
            ]
        },
        {
            "positions": [
                -0.2735462807099739,
                -1.3423184727280484,
                2.3574511328385968,
                -0.9825961956850339,
                1.0685917624636798,
                3.16827831666968
            ]
        },
        {
            "positions": [
                -0.33960591827282327,
                -1.3761240937288715,
                2.4217684116265312,
                -1.0162840945149012,
                1.225092629702508,
                3.1812092222068302
            ]
        }
    ]
}{
    "goal": {
        "global_pose": {
            "orientation": {
                "w": 0.5084816217422485,
                "x": -0.49083608388900757,
                "y": 0.5182115435600281,
                "z": -0.4816462993621826
            },
            "position": {
                "x": 0.5540239810943604,
                "y": 0.030875300988554955,
                "z": 0.16403168439865112
            }
        },
        "name": "move_to_storage_A"
    },
    "id": "BKPIECE_move_to_storage_A_136",
    "joint_names": [
        "shoulder_pan_joint",
        "shoulder_lift_joint",
        "elbow_joint",
        "wrist_1_joint",
        "wrist_2_joint",
        "wrist_3_joint"
    ],
    "metrics": {
        "cart_traj_len": 0.35360167581982377,
        "distance_elbow_joint": 0.4510074866166005,
        "distance_shoulder_lift_joint": 0.23348814439573107,
        "distance_shoulder_pan_joint": 0.4637632908373004,
        "distance_wrist_1_joint": 0.24684354543351605,
        "distance_wrist_2_joint": 1.0936698583040905,
        "distance_wrist_3_joint": 0.09077131105986513,
        "smoothness": 8.881784232165597e-16,
        "time": 0.227848132,
        "traj_len": 1.6060957744316195,
        "weighted_distance": 2.025240643109959
    },
    "planner": "BKPIECE",
    "start": {
        "state": {
            "elbow_joint": 1.9715472970024885,
            "shoulder_lift_joint": -1.1394870060712896,
            "shoulder_pan_joint": 0.12281152778156021,
            "wrist_1_joint": -0.780463741449964,
            "wrist_2_joint": 0.12958659822042276,
            "wrist_3_joint": 3.090690232415272
        }
    },
    "waypoints": [
        {
            "positions": [
                0.12281152778156021,
                -1.1394870060712896,
                1.9715472970024885,
                -0.780463741449964,
                0.12958659822042276,
                3.090690232415272
            ]
        },
        {
            "positions": [
                0.0565596290905173,
                -1.1728424552706798,
                2.035976937947717,
                -0.8157271050833235,
                0.2858251494067214,
                3.1036575625666813
            ]
        },
        {
            "positions": [
                -0.009692269600525605,
                -1.20619790447007,
                2.100406578892946,
                -0.8509904687166828,
                0.44206370059302,
                3.1166248927180904
            ]
        },
        {
            "positions": [
                -0.07594416829156853,
                -1.23955335366946,
                2.1648362198381745,
                -0.8862538323500423,
                0.5983022517793186,
                3.1295922228695
            ]
        },
        {
            "positions": [
                -0.14219606698261142,
                -1.2729088028688502,
                2.229265860783403,
                -0.9215171959834018,
                0.7545408029656172,
                3.142559553020909
            ]
        },
        {
            "positions": [
                -0.20844796567365434,
                -1.3062642520682404,
                2.2936955017286316,
                -0.9567805596167611,
                0.9107793541519159,
                3.1555268831723184
            ]
        },
        {
            "positions": [
                -0.2746998643646973,
                -1.3396197012676305,
                2.3581251426738605,
                -0.9920439232501206,
                1.0670179053382145,
                3.1684942133237275
            ]
        },
        {
            "positions": [
                -0.34095176305574015,
                -1.3729751504670207,
                2.422554783619089,
                -1.02730728688348,
                1.2232564565245132,
                3.181461543475137
            ]
        }
    ]
}