{
    "goal": {
        "global_pose": {
            "orientation": {
                "w": 0.7031023480610252,
                "x": -0.7110244013736278,
                "y": 0.0077485991402295624,
                "z": 0.005598929693374583
            },
            "position": {
                "x": -0.8841497679147869,
                "y": 0.44412534475326537,
                "z": 0.3711530566215515
            }
        },
        "name": "move_to_auspresseinheit_D"
    },
    "id": "BKPIECE_move_to_auspresseinheit_D_137",
    "joint_names": [
        "shoulder_pan_joint",
        "shoulder_lift_joint",
        "elbow_joint",
        "wrist_1_joint",
        "wrist_2_joint",
        "wrist_3_joint"
    ],
    "metrics": {
        "cart_traj_len": 0.34292814621583245,
        "distance_elbow_joint": 0.6368566514002945,
        "distance_shoulder_lift_joint": 0.12045077187198006,
        "distance_shoulder_pan_joint": 0.1336554995307315,
        "distance_wrist_1_joint": 0.5262999176703427,
        "distance_wrist_2_joint": 1.4329880076464248,
        "distance_wrist_3_joint": 0.011135741177231928,
        "smoothness": 1.9737298371844314e-16,
        "time": 0.35633947899999996,
        "traj_len": 1.6915633565719628,
        "weighted_distance": 2.200669442912369
    },
    "planner": "BKPIECE",
    "start": {
        "state": {
            "elbow_joint": -1.8275523626775212,
            "shoulder_lift_joint": -2.126789852344167,
            "shoulder_pan_joint": -0.03513704404078235,
            "wrist_1_joint": -2.347782403156801,
            "wrist_2_joint": -1.6058999987535132,
            "wrist_3_joint": -3.0880379163319196
        }
    },
    "waypoints": [
        {
            "positions": [
                -0.03513704404078235,
                -2.126789852344167,
                -1.8275523626775212,
                -2.347782403156801,
                -1.6058999987535132,
                -3.0880379163319196
            ]
        },
        {
            "positions": [
                -0.05184398148212378,
                -2.1418461988281643,
                -1.7479452812524845,
                -2.4135698928655938,
                -1.42677649779771,
                -3.0894298839790735
            ]
        },
        {
            "positions": [
                -0.06855091892346522,
                -2.1569025453121617,
                -1.6683381998274476,
                -2.4793573825743866,
                -1.247652996841907,
                -3.0908218516262274
            ]
        },
        {
            "positions": [
                -0.08525785636480665,
                -2.171958891796159,
                -1.5887311184024107,
                -2.5451448722831795,
                -1.068529495886104,
                -3.0922138192733817
            ]
        },
        {
            "positions": [
                -0.10196479380614809,
                -2.187015238280157,
                -1.509124036977374,
                -2.6109323619919724,
                -0.8894059949303008,
                -3.0936057869205356
            ]
        },
        {
            "positions": [
                -0.11867173124748953,
                -2.2020715847641545,
                -1.4295169555523373,
                -2.676719851700765,
                -0.7102824939744977,
                -3.0949977545676894
            ]
        },
        {
            "positions": [
                -0.13537866868883097,
                -2.217127931248152,
                -1.3499098741273003,
                -2.7425073414095578,
                -0.5311589930186946,
                -3.0963897222148438
            ]
        },
        {
            "positions": [
                -0.1520856061301724,
                -2.2321842777321494,
                -1.2703027927022634,
                -2.8082948311183507,
                -0.35203549206289164,
                -3.0977816898619976
            ]
        },
        {
            "positions": [
                -0.16879254357151385,
                -2.247240624216147,
                -1.1906957112772267,
                -2.8740823208271435,
                -0.17291199110708855,
                -3.0991736575091515
            ]
        }
    ]
}