{
    "goal": {
        "global_pose": {
            "orientation": {
                "w": -0.4816463035849501,
                "x": 0.5182115481033762,
                "y": 0.4908360881923453,
                "z": -0.5084816262002911
            },
            "position": {
                "x": -0.8240239810943604,
                "y": 0.19912469901144506,
                "z": 0.16403168439865112
            }
        },
        "name": "move_to_storage_D"
    },
    "id": "BKPIECE_move_to_storage_D_138",
    "joint_names": [
        "shoulder_pan_joint",
        "shoulder_lift_joint",
        "elbow_joint",
        "wrist_1_joint",
        "wrist_2_joint",
        "wrist_3_joint"
    ],
    "metrics": {
        "cart_traj_len": 4.541163033048742,
        "distance_elbow_joint": 4.21081356440242,
        "distance_shoulder_lift_joint": 1.681555837765982,
        "distance_shoulder_pan_joint": 2.8129269981200355,
        "distance_wrist_1_joint": 2.270208038757297,
        "distance_wrist_2_joint": 0.8718315016149011,
        "distance_wrist_3_joint": 3.262706673702089,
        "smoothness": 0.16843835107609167,
        "time": 0.32200940499999997,
        "traj_len": 3.8871638265402098,
        "weighted_distance": 4.977699820412949
    },
    "planner": "BKPIECE",
    "start": {
        "state": {
            "elbow_joint": -2.384821988534728,
            "shoulder_lift_joint": -2.2788054721415256,
            "shoulder_pan_joint": -0.1854694642142757,
            "wrist_1_joint": 1.4845938289331202,
            "wrist_2_joint": 0.17898776772866878,
            "wrist_3_joint": 0.037105688729662994
        }
    },
    "waypoints": [
        {
            "positions": [
                -0.1854694642142757,
                -2.2788054721415256,
                -2.384821988534728,
                1.4845938289331202,
                0.17898776772866878,
                0.037105688729662994
            ]
        },
        {
            "positions": [
                -0.09016541356227109,
                -2.284447513583841,
                -2.375946623353571,
                1.477409929253678,
                0.2572672459570978,
                -0.02570732446903229
            ]
        },
        {
            "positions": [
                -0.01960039181341172,
                -2.3069610541364627,
                -2.246893974377497,
                1.385543122828065,
                0.2874033076145703,
                0.02026509676318023
            ]
        },
        {
            "positions": [
                0.05096462993544765,
                -2.329474594689084,
                -2.117841325401423,
                1.2936763164024523,
                0.3175393692720427,
                0.06623751799539275
            ]
        },
        {
            "positions": [
                0.12152965168430702,
                -2.351988135241706,
                -1.9887886764253493,
                1.2018095099768393,
                0.34767543092951514,
                0.11220993922760528
            ]
        },
        {
            "positions": [
                0.19209467343316639,
                -2.374501675794327,
                -1.8597360274492754,
                1.1099427035512264,
                0.37781149258698754,
                0.1581823604598178
            ]
        },
        {
            "positions": [
                0.26265969518202575,
                -2.397015216346949,
                -1.7306833784732014,
                1.0180758971256134,
                0.40794755424446005,
                0.20415478169203036
            ]
        },
        {
            "positions": [
                0.3332247169308851,
                -2.4195287568995703,
                -1.6016307294971277,
                0.9262090907000007,
                0.43808361590193245,
                0.25012720292424284
            ]
        },
        {
            "positions": [
                0.4037897386797445,
                -2.442042297452192,
                -1.4725780805210538,
                0.8343422842743878,
                0.46821967755940486,
                0.2960996241564554
            ]
        },
        {
            "positions": [
                0.47435476042860386,
                -2.4645558380048134,
                -1.3435254315449798,
                0.742475477848775,
                0.4983557392168773,
                0.34207204538866787
            ]
        },
        {
            "positions": [
                0.5449197821774632,
                -2.487069378557435,
                -1.214472782568906,
                0.650608671423162,
                0.5284918008743498,
                0.38804446662088043
            ]
        },
        {
            "positions": [
                0.6167314287887837,
                -2.436266208510881,
                -1.1096291840021266,
                0.6010837444835986,
                0.5465030928905298,
                0.4841183241868625
            ]
        },
        {
            "positions": [
                0.6885430754001043,
                -2.3854630384643265,
                -1.0047855854353474,
                0.5515588175440352,
                0.5645143849067098,
                0.5801921817528446
            ]
        },
        {
            "positions": [
                0.7603547220114248,
                -2.3346598684177726,
                -0.8999419868685681,
                0.5020338906044718,
                0.5825256769228898,
                0.6762660393188267
            ]
        },
        {
            "positions": [
                0.8321663686227454,
                -2.2838566983712183,
                -0.7950983883017887,
                0.4525089636649084,
                0.6005369689390698,
                0.7723398968848089
            ]
        },
        {
            "positions": [
                0.903978015234066,
                -2.233053528324664,
                -0.6902547897350094,
                0.40298403672534494,
                0.6185482609552497,
                0.868413754450791
            ]
        },
        {
            "positions": [
                0.9757896618453865,
                -2.1822503582781096,
                -0.5854111911682301,
                0.35345910978578154,
                0.6365595529714297,
                0.964487612016773
            ]
        },
        {
            "positions": [
                1.047601308456707,
                -2.1314471882315553,
                -0.48056759260145077,
                0.30393418284621815,
                0.6545708449876098,
                1.0605614695827552
            ]
        },
        {
            "positions": [
                1.1194129550680274,
                -2.0806440181850014,
                -0.3757239940346715,
                0.25440925590665475,
                0.6725821370037898,
                1.1566353271487373
            ]
        },
        {
            "positions": [
                1.1912246016793482,
                -2.029840848138447,
                -0.2708803954678922,
                0.2048843289670913,
                0.6905934290199698,
                1.2527091847147194
            ]
        },
        {
            "positions": [
                1.2630362482906687,
                -1.9790376780918928,
                -0.16603679690111295,
                0.15535940202752785,
                0.7086047210361498,
                1.3487830422807017
            ]
        },
        {
            "positions": [
                1.3348478949019893,
                -1.9282345080453387,
                -0.061193198334333676,
                0.10583447508796451,
                0.7266160130523298,
                1.4448568998466835
            ]
        },
        {
            "positions": [
                1.4066595415133096,
                -1.8774313379987846,
                0.043650400232445596,
                0.056309548148401056,
                0.7446273050685098,
                1.5409307574126656
            ]
        },
        {
            "positions": [
                1.4784711881246304,
                -1.8266281679522303,
                0.14849399879922487,
                0.0067846212088376046,
                0.7626385970846898,
                1.6370046149786477
            ]
        },
        {
            "positions": [
                1.550282834735951,
                -1.775824997905676,
                0.25333759736600436,
                -0.042740305730725736,
                0.7806498891008697,
                1.73307847254463
            ]
        },
        {
            "positions": [
                1.6220944813472715,
                -1.7250218278591216,
                0.35818119593278364,
                -0.09226523267028919,
                0.7986611811170499,
                1.829152330110612
            ]
        },
        {
            "positions": [
                1.6939061279585919,
                -1.6742186578125675,
                0.4630247944995629,
                -0.14179015960985253,
                0.8166724731332298,
                1.9252261876765941
            ]
        },
        {
            "positions": [
                1.7657177745699124,
                -1.6234154877660134,
                0.567868393066342,
                -0.19131508654941587,
                0.8346837651494098,
                2.021300045242576
            ]
        },
        {
            "positions": [
                1.8375294211812332,
                -1.572612317719459,
                0.6727119916331215,
                -0.24084001348897943,
                0.8526950571655898,
                2.1173739028085583
            ]
        },
        {
            "positions": [
                1.9093410677925535,
                -1.5218091476729048,
                0.7775555901999007,
                -0.2903649404285428,
                0.8707063491817698,
                2.2134477603745406
            ]
        },
        {
            "positions": [
                1.9811527144038743,
                -1.4710059776263507,
                0.88239918876668,
                -0.33988986736810634,
                0.8887176411979498,
                2.309521617940523
            ]
        },
        {
            "positions": [
                2.052964361015195,
                -1.4202028075797963,
                0.9872427873334595,
                -0.38941479430766957,
                0.9067289332141298,
                2.4055954755065048
            ]
        },
        {
            "positions": [
                2.124776007626515,
                -1.3693996375332422,
                1.0920863859002385,
                -0.438939721247233,
                0.9247402252303099,
                2.5016693330724866
            ]
        },
        {
            "positions": [
                2.1965876542378355,
                -1.318596467486688,
                1.196929984467018,
                -0.48846464818679647,
                0.9427515172464899,
                2.597743190638469
            ]
        },
        {
            "positions": [
                2.2683993008491563,
                -1.2677932974401338,
                1.301773583033797,
                -0.5379895751263599,
                0.9607628092626699,
                2.693817048204451
            ]
        },
        {
            "positions": [
                2.340210947460477,
                -1.2169901273935797,
                1.4066171816005761,
                -0.5875145020659231,
                0.9787741012788498,
                2.7898909057704326
            ]
        },
        {
            "positions": [
                2.4120225940717974,
                -1.1661869573470254,
                1.5114607801673556,
                -0.6370394290054868,
                0.9967853932950299,
                2.885964763336415
            ]
        },
        {
            "positions": [
                2.4838342406831178,
                -1.115383787300471,
                1.6163043787341351,
                -0.68656435594505,
                1.0147966853112098,
                2.9820386209023972
            ]
        },
        {
            "positions": [
                2.555645887294439,
                -1.0645806172539167,
                1.7211479773009146,
                -0.7360892828846135,
                1.0328079773273897,
                3.0781124784683795
            ]
        },
        {
            "positions": [
                2.6274575339057593,
                -1.0137774472073626,
                1.8259915758676937,
                -0.7856142098241768,
                1.0508192693435698,
                3.1741863360343614
            ]
        }
    ]
}