{
    "goal": {
        "global_pose": {
            "orientation": {
                "w": -0.00223480608172531,
                "x": 0.0024358444001904467,
                "y": 0.7094548369677653,
                "z": -0.704743149386269
            },
            "position": {
                "x": 0.6205249238014221,
                "y": -0.6371506643295288,
                "z": 0.19426114857196808
            }
        },
        "name": "move_to_magneteinheit_B"
    },
    "id": "BKPIECE_move_to_magneteinheit_B_73",
    "joint_names": [
        "shoulder_pan_joint",
        "shoulder_lift_joint",
        "elbow_joint",
        "wrist_1_joint",
        "wrist_2_joint",
        "wrist_3_joint"
    ],
    "metrics": {
        "cart_traj_len": 5.248688211308358,
        "distance_elbow_joint": 4.581055116995851,
        "distance_shoulder_lift_joint": 2.194445121770956,
        "distance_shoulder_pan_joint": 3.7092615715635415,
        "distance_wrist_1_joint": 2.3219588296894798,
        "distance_wrist_2_joint": 4.896984827174516,
        "distance_wrist_3_joint": 4.288617955302038,
        "smoothness": 0.6013281256606718,
        "time": 0.33343411199999995,
        "traj_len": 4.6895973625137986,
        "weighted_distance": 6.147235394058409
    },
    "planner": "BKPIECE",
    "start": {
        "state": {
            "elbow_joint": 2.6216224122426386,
            "shoulder_lift_joint": -1.4174107377796124,
            "shoulder_pan_joint": 0.7066234856936794,
            "wrist_1_joint": 1.9546482284002225,
            "wrist_2_joint": -0.7096286983471962,
            "wrist_3_joint": 0.005740856962016249
        }
    },
    "waypoints": [
        {
            "positions": [
                0.7066234856936794,
                -1.4174107377796124,
                2.6216224122426386,
                1.9546482284002225,
                -0.7096286983471962,
                0.005740856962016249
            ]
        },
        {
            "positions": [
                0.6648301605429284,
                -1.3903979681537237,
                2.555370502009279,
                1.9001499905785748,
                -0.5922199884808498,
                -0.07217570110473684
            ]
        },
        {
            "positions": [
                0.6230368353921776,
                -1.3633851985278351,
                2.4891185917759198,
                1.8456517527569274,
                -0.47481127861450334,
                -0.1500922591714899
            ]
        },
        {
            "positions": [
                0.5812435102414266,
                -1.3363724289019465,
                2.42286668154256,
                1.7911535149352797,
                -0.35740256874815685,
                -0.228008817238243
            ]
        },
        {
            "positions": [
                0.5394501850906758,
                -1.3093596592760577,
                2.356614771309201,
                1.736655277113632,
                -0.2399938588818104,
                -0.3059253753049961
            ]
        },
        {
            "positions": [
                0.4976568599399248,
                -1.282346889650169,
                2.2903628610758413,
                1.6821570392919847,
                -0.12258514901546402,
                -0.3838419333717492
            ]
        },
        {
            "positions": [
                0.4558635347891739,
                -1.2553341200242805,
                2.2241109508424817,
                1.627658801470337,
                -0.005176439149117473,
                -0.4617584914385023
            ]
        },
        {
            "positions": [
                0.414070209638423,
                -1.2283213503983919,
                2.1578590406091225,
                1.5731605636486896,
                0.11223227071722897,
                -0.5396750495052555
            ]
        },
        {
            "positions": [
                0.3722768844876721,
                -1.2013085807725032,
                2.091607130375763,
                1.518662325827042,
                0.2296409805835754,
                -0.6175916075720085
            ]
        },
        {
            "positions": [
                0.3304835593369212,
                -1.1742958111466146,
                2.025355220142403,
                1.4641640880053943,
                0.34704969044992184,
                -0.6955081656387616
            ]
        },
        {
            "positions": [
                0.2886902341861703,
                -1.147283041520726,
                1.959103309909044,
                1.409665850183747,
                0.46445840031626817,
                -0.7734247237055147
            ]
        },
        {
            "positions": [
                0.24689690903541933,
                -1.1202702718948372,
                1.8928513996756844,
                1.355167612362099,
                0.5818671101826149,
                -0.8513412817722679
            ]
        },
        {
            "positions": [
                0.20510358388466843,
                -1.0932575022689486,
                1.8265994894423252,
                1.3006693745404516,
                0.6992758200489613,
                -0.9292578398390209
            ]
        },
        {
            "positions": [
                0.16331025873391747,
                -1.06624473264306,
                1.7603475792089656,
                1.246171136718804,
                0.8166845299153078,
                -1.007174397905774
            ]
        },
        {
            "positions": [
                0.12151693358316662,
                -1.0392319630171714,
                1.6940956689756062,
                1.1916728988971566,
                0.9340932397816541,
                -1.085090955972527
            ]
        },
        {
            "positions": [
                0.07972360843241566,
                -1.0122191933912827,
                1.6278437587422467,
                1.137174661075509,
                1.0515019496480007,
                -1.1630075140392802
            ]
        },
        {
            "positions": [
                0.03793028328166481,
                -0.9852064237653941,
                1.561591848508887,
                1.0826764232538615,
                1.168910659514347,
                -1.240924072106033
            ]
        },
        {
            "positions": [
                -0.003863041869086148,
                -0.9581936541395054,
                1.4953399382755277,
                1.0281781854322136,
                1.2863193693806936,
                -1.3188406301727864
            ]
        },
        {
            "positions": [
                -0.045656367019836996,
                -0.9311808845136168,
                1.4290880280421683,
                0.9736799476105662,
                1.40372807924704,
                -1.3967571882395393
            ]
        },
        {
            "positions": [
                -0.08744969217058796,
                -0.9041681148877282,
                1.3628361178088086,
                0.9191817097889186,
                1.5211367891133862,
                -1.4746737463062924
            ]
        },
        {
            "positions": [
                -0.1292430173213388,
                -0.8771553452618396,
                1.2965842075754495,
                0.8646834719672711,
                1.6385454989797326,
                -1.5525903043730456
            ]
        },
        {
            "positions": [
                -0.17103634247208976,
                -0.8501425756359509,
                1.2303322973420898,
                0.8101852341456235,
                1.7559542088460796,
                -1.6305068624397987
            ]
        },
        {
            "positions": [
                -0.07420749402633951,
                -0.8912385556501057,
                1.124485591411894,
                0.7921159116101748,
                1.689685628278309,
                -1.5700178494112025
            ]
        },
        {
            "positions": [
                0.02262135441941074,
                -0.9323345356642606,
                1.0186388854816981,
                0.7740465890747261,
                1.6234170477105387,
                -1.5095288363826063
            ]
        },
        {
            "positions": [
                0.119450202865161,
                -0.9734305156784154,
                0.9127921795515024,
                0.7559772665392774,
                1.5571484671427682,
                -1.44903982335401
            ]
        },
        {
            "positions": [
                0.21627905131091124,
                -1.0145264956925704,
                0.8069454736213066,
                0.7379079440038288,
                1.490879886574998,
                -1.3885508103254138
            ]
        },
        {
            "positions": [
                0.31310789975666153,
                -1.0556224757067252,
                0.7010987676911107,
                0.7198386214683801,
                1.4246113060072274,
                -1.3280617972968178
            ]
        },
        {
            "positions": [
                0.40993674820241177,
                -1.09671845572088,
                0.5952520617609149,
                0.7017692989329315,
                1.3583427254394569,
                -1.2675727842682216
            ]
        },
        {
            "positions": [
                0.506765596648162,
                -1.1378144357350348,
                0.4894053558307191,
                0.6836999763974828,
                1.2920741448716866,
                -1.2070837712396254
            ]
        },
        {
            "positions": [
                0.6035944450939122,
                -1.1789104157491899,
                0.38355864990052335,
                0.6656306538620341,
                1.225805564303916,
                -1.1465947582110292
            ]
        },
        {
            "positions": [
                0.7004232935396626,
                -1.2200063957633447,
                0.2777119439703274,
                0.6475613313265854,
                1.1595369837361456,
                -1.086105745182433
            ]
        },
        {
            "positions": [
                0.7972521419854128,
                -1.2611023757774995,
                0.17186523804013154,
                0.6294920087911368,
                1.0932684031683753,
                -1.0256167321538368
            ]
        },
        {
            "positions": [
                0.8940809904311631,
                -1.3021983557916543,
                0.0660185321099358,
                0.6114226862556881,
                1.0269998226006047,
                -0.9651277191252405
            ]
        },
        {
            "positions": [
                0.9909098388769133,
                -1.3432943358058091,
                -0.03982817382025994,
                0.5933533637202395,
                0.9607312420328343,
                -0.9046387060966444
            ]
        },
        {
            "positions": [
                1.0877386873226635,
                -1.3843903158199642,
                -0.1456748797504559,
                0.5752840411847907,
                0.8944626614650638,
                -0.8441496930680482
            ]
        },
        {
            "positions": [
                1.1845675357684138,
                -1.425486295834119,
                -0.25152158568065164,
                0.5572147186493421,
                0.8281940808972934,
                -0.783660680039452
            ]
        },
        {
            "positions": [
                1.281396384214164,
                -1.4665822758482738,
                -0.3573682916108474,
                0.5391453961138934,
                0.761925500329523,
                -0.7231716670108558
            ]
        },
        {
            "positions": [
                1.3782252326599143,
                -1.5076782558624289,
                -0.4632149975410431,
                0.5210760735784448,
                0.6956569197617526,
                -0.6626826539822597
            ]
        },
        {
            "positions": [
                1.4750540811056645,
                -1.5487742358765835,
                -0.5690617034712389,
                0.5030067510429961,
                0.6293883391939821,
                -0.6021936409536635
            ]
        },
        {
            "positions": [
                1.571882929551415,
                -1.5898702158907385,
                -0.674908409401435,
                0.48493742850754734,
                0.5631197586262116,
                -0.5417046279250672
            ]
        },
        {
            "positions": [
                1.6687117779971652,
                -1.6309661959048933,
                -0.780755115331631,
                0.4668681059720987,
                0.49685117805844126,
                -0.481215614896471
            ]
        },
        {
            "positions": [
                1.7655406264429154,
                -1.6720621759190482,
                -0.8866018212618267,
                0.44879878343665003,
                0.43058259749067074,
                -0.4207266018678748
            ]
        },
        {
            "positions": [
                1.8623694748886654,
                -1.7131581559332032,
                -0.9924485271920225,
                0.43072946090120134,
                0.3643140169229002,
                -0.3602375888392786
            ]
        },
        {
            "positions": [
                1.959198323334416,
                -1.7542541359473578,
                -1.0982952331222182,
                0.4126601383657527,
                0.2980454363551299,
                -0.29974857581068237
            ]
        },
        {
            "positions": [
                2.056027171780166,
                -1.7953501159615128,
                -1.204141939052414,
                0.39459081583030403,
                0.2317768557873594,
                -0.23925956278208638
            ]
        },
        {
            "positions": [
                2.1528560202259164,
                -1.8364460959756677,
                -1.3099886449826097,
                0.3765214932948554,
                0.1655082752195891,
                -0.17877054975349016
            ]
        },
        {
            "positions": [
                2.249684868671667,
                -1.8775420759898227,
                -1.4158353509128059,
                0.35845217075940666,
                0.09923969465181859,
                -0.11828153672489372
            ]
        },
        {
            "positions": [
                2.346513717117417,
                -1.9186380560039775,
                -1.5216820568430016,
                0.340382848223958,
                0.03297111408404807,
                -0.057792523696297726
            ]
        },
        {
            "positions": [
                2.4433425655631673,
                -1.9597340360181323,
                -1.6275287627731974,
                0.32231352568850935,
                -0.03329746648372223,
                0.0026964893322984906
            ]
        },
        {
            "positions": [
                2.5401714140089173,
                -2.000830016032287,
                -1.733375468703393,
                0.30424420315306067,
                -0.09956604705149272,
                0.06318550236089475
            ]
        },
        {
            "positions": [
                2.5472991900117807,
                -2.1108274096833504,
                -1.7603233046271038,
                0.34082151472902034,
                -0.04830858502731699,
                0.21833256259753753
            ]
        },
        {
            "positions": [
                2.5544269660146437,
                -2.220824803334414,
                -1.7872711405508144,
                0.37739882630498,
                0.0029488769968587375,
                0.37347962283418035
            ]
        },
        {
            "positions": [
                2.561554742017507,
                -2.330822196985477,
                -1.8142189764745251,
                0.4139761378809397,
                0.054206339021034465,
                0.5286266830708232
            ]
        },
        {
            "positions": [
                2.581356873799142,
                -2.360121664641031,
                -1.7851762308187875,
                0.5263407118238276,
                0.13862819462326267,
                0.4299793449929031
            ]
        },
        {
            "positions": [
                2.6011590055807767,
                -2.3894211322965844,
                -1.75613348516305,
                0.6387052857667155,
                0.2230500502254909,
                0.331332006914983
            ]
        },
        {
            "positions": [
                2.6209611373624115,
                -2.418720599952138,
                -1.727090739507312,
                0.7510698597096034,
                0.30747190582771905,
                0.23268466883706296
            ]
        },
        {
            "positions": [
                2.6407632691440464,
                -2.4480200676076915,
                -1.6980479938515745,
                0.8634344336524913,
                0.3918937614299473,
                0.13403733075914281
            ]
        },
        {
            "positions": [
                2.660565400925681,
                -2.4773195352632453,
                -1.6690052481958368,
                0.9757990075953792,
                0.4763156170321755,
                0.035389992681222754
            ]
        }
    ]
}