{
    "goal": {
        "global_pose": {
            "orientation": {
                "w": 0.5084816262002911,
                "x": -0.4908360881923452,
                "y": 0.5182115481033761,
                "z": -0.48164630358495003
            },
            "position": {
                "x": 0.5540239810943604,
                "y": -0.46912469901144505,
                "z": 0.16403168439865112
            }
        },
        "name": "move_to_storage_B"
    },
    "id": "BKPIECE_move_to_storage_B_134",
    "joint_names": [
        "shoulder_pan_joint",
        "shoulder_lift_joint",
        "elbow_joint",
        "wrist_1_joint",
        "wrist_2_joint",
        "wrist_3_joint"
    ],
    "metrics": {
        "cart_traj_len": 0.9244029566693789,
        "distance_elbow_joint": 0.5409936813234184,
        "distance_shoulder_lift_joint": 0.46320433757115187,
        "distance_shoulder_pan_joint": 0.4563144671905627,
        "distance_wrist_1_joint": 3.017050618570588,
        "distance_wrist_2_joint": 3.185207712750765,
        "distance_wrist_3_joint": 3.706790660176023,
        "smoothness": 0.6413178945065489,
        "time": 0.151164389,
        "traj_len": 3.3718780342092014,
        "weighted_distance": 4.998539899736313
    },
    "planner": "BKPIECE",
    "start": {
        "state": {
            "elbow_joint": 1.664937868594044,
            "shoulder_lift_joint": -0.661644460510453,
            "shoulder_pan_joint": -0.9139846352900073,
            "wrist_1_joint": 2.146753192139373,
            "wrist_2_joint": -2.2341966793290973,
            "wrist_3_joint": 0.005466555786416001
        }
    },
    "waypoints": [
        {
            "positions": [
                -0.9139846352900073,
                -0.661644460510453,
                1.664937868594044,
                2.146753192139373,
                -2.2341966793290973,
                0.005466555786416001
            ]
        },
        {
            "positions": [
                -0.8681196200797636,
                -0.762886262086389,
                1.6346920583941484,
                2.1372185640022043,
                -2.3126730133518087,
                0.10275876820782939
            ]
        },
        {
            "positions": [
                -0.8222546048695201,
                -0.864128063662325,
                1.6044462481942532,
                2.1276839358650355,
                -2.39114934737452,
                0.20005098062924279
            ]
        },
        {
            "positions": [
                -0.7763895896592764,
                -0.9653698652382611,
                1.5742004379943577,
                2.1181493077278666,
                -2.4696256813972313,
                0.2973431930506562
            ]
        },
        {
            "positions": [
                -0.7886480289500392,
                -0.9715036703476204,
                1.5915179860991167,
                2.003209048721748,
                -2.356172654063284,
                0.16600034601558764
            ]
        },
        {
            "positions": [
                -0.8009064682408019,
                -0.9776374754569799,
                1.6088355342038756,
                1.8882687897156296,
                -2.2427196267293366,
                0.034657498980519064
            ]
        },
        {
            "positions": [
                -0.8131649075315647,
                -0.9837712805663392,
                1.6261530823086345,
                1.773328530709511,
                -2.129266599395389,
                -0.09668534805454954
            ]
        },
        {
            "positions": [
                -0.8254233468223274,
                -0.9899050856756986,
                1.6434706304133935,
                1.6583882717033926,
                -2.015813572061442,
                -0.22802819508961808
            ]
        },
        {
            "positions": [
                -0.8376817861130902,
                -0.9960388907850579,
                1.6607881785181524,
                1.543448012697274,
                -1.9023605447274945,
                -0.3593710421246867
            ]
        },
        {
            "positions": [
                -0.849940225403853,
                -1.0021726958944173,
                1.6781057266229114,
                1.4285077536911555,
                -1.7889075173935471,
                -0.4907138891597553
            ]
        },
        {
            "positions": [
                -0.8621986646946157,
                -1.0083065010037766,
                1.6954232747276703,
                1.313567494685037,
                -1.6754544900595998,
                -0.6220567361948237
            ]
        },
        {
            "positions": [
                -0.8744571039853785,
                -1.0144403061131362,
                1.7127408228324292,
                1.1986272356789185,
                -1.5620014627256522,
                -0.7533995832298923
            ]
        },
        {
            "positions": [
                -0.8867155432761412,
                -1.0205741112224955,
                1.7300583709371882,
                1.0836869766728001,
                -1.4485484353917049,
                -0.8847424302649607
            ]
        },
        {
            "positions": [
                -0.8989739825669041,
                -1.0267079163318549,
                1.7473759190419471,
                0.9687467176666815,
                -1.3350954080577575,
                -1.0160852773000295
            ]
        },
        {
            "positions": [
                -0.9112324218576668,
                -1.0328417214412142,
                1.764693467146706,
                0.8538064586605629,
                -1.2216423807238102,
                -1.1474281243350979
            ]
        },
        {
            "positions": [
                -0.9234908611484296,
                -1.0389755265505736,
                1.782011015251465,
                0.7388661996544443,
                -1.1081893533898628,
                -1.2787709713701667
            ]
        },
        {
            "positions": [
                -0.9357493004391924,
                -1.045109331659933,
                1.799328563356224,
                0.623925940648326,
                -0.9947363260559154,
                -1.410113818405235
            ]
        },
        {
            "positions": [
                -0.9480077397299551,
                -1.0512431367692923,
                1.8166461114609826,
                0.5089856816422076,
                -0.8812832987219681,
                -1.5414566654403035
            ]
        },
        {
            "positions": [
                -0.9602661790207179,
                -1.0573769418786516,
                1.8339636595657416,
                0.394045422636089,
                -0.767830271388021,
                -1.672799512475372
            ]
        },
        {
            "positions": [
                -0.9725246183114806,
                -1.0635107469880112,
                1.8512812076705005,
                0.2791051636299704,
                -0.6543772440540732,
                -1.8041423595104409
            ]
        },
        {
            "positions": [
                -0.9847830576022434,
                -1.0696445520973705,
                1.8685987557752595,
                0.1641649046238518,
                -0.540924216720126,
                -1.9354852065455093
            ]
        },
        {
            "positions": [
                -0.9970414968930061,
                -1.0757783572067299,
                1.8859163038800184,
                0.04922464561773365,
                -0.42747118938617845,
                -2.066828053580578
            ]
        },
        {
            "positions": [
                -1.009299936183769,
                -1.0819121623160892,
                1.9032338519847773,
                -0.06571561338838494,
                -0.31401816205223154,
                -2.1981709006156467
            ]
        },
        {
            "positions": [
                -1.0215583754745317,
                -1.0880459674254486,
                1.9205514000895363,
                -0.18065587239450354,
                -0.20056513471828374,
                -2.3295137476507155
            ]
        },
        {
            "positions": [
                -1.0338168147652944,
                -1.094179772534808,
                1.9378689481942952,
                -0.29559613140062213,
                -0.08711210738433639,
                -2.460856594685784
            ]
        },
        {
            "positions": [
                -1.0460752540560572,
                -1.1003135776441675,
                1.9551864962990542,
                -0.4105363904067407,
                0.026340919949610964,
                -2.5921994417208523
            ]
        },
        {
            "positions": [
                -1.05833369334682,
                -1.1064473827535268,
                1.972504044403813,
                -0.5254766494128589,
                0.13979394728355832,
                -2.7235422887559206
            ]
        },
        {
            "positions": [
                -1.0705921326375827,
                -1.1125811878628862,
                1.989821592508572,
                -0.6404169084189779,
                0.25324697461750567,
                -2.85488513579099
            ]
        },
        {
            "positions": [
                -1.0828505719283454,
                -1.1187149929722455,
                2.007139140613331,
                -0.7553571674250961,
                0.366700001951453,
                -2.9862279828260583
            ]
        },
        {
            "positions": [
                -1.0951090112191082,
                -1.1248487980816049,
                2.02445668871809,
                -0.8702974264312148,
                0.4801530292854005,
                -3.1175708298611267
            ]
        }
    ]
}