{
    "goal": {
        "global_pose": {
            "orientation": {
                "w": 0.7031023480610252,
                "x": -0.7110244013736278,
                "y": 0.0077485991402295624,
                "z": 0.005598929693374583
            },
            "position": {
                "x": -0.8841497679147869,
                "y": 0.44412534475326537,
                "z": 0.3711530566215515
            }
        },
        "name": "move_to_auspresseinheit_D"
    },
    "id": "BKPIECE_move_to_auspresseinheit_D_54",
    "joint_names": [
        "shoulder_pan_joint",
        "shoulder_lift_joint",
        "elbow_joint",
        "wrist_1_joint",
        "wrist_2_joint",
        "wrist_3_joint"
    ],
    "metrics": {
        "cart_traj_len": 0.34398101703585343,
        "distance_elbow_joint": 0.651483759856671,
        "distance_shoulder_lift_joint": 0.12816648240098516,
        "distance_shoulder_pan_joint": 0.13324720561536382,
        "distance_wrist_1_joint": 0.5624593634526174,
        "distance_wrist_2_joint": 1.4469194729461263,
        "distance_wrist_3_joint": 0.02038363522989073,
        "smoothness": 3.9474596431116675e-16,
        "time": 0.255304828,
        "traj_len": 1.7154182928666857,
        "weighted_distance": 2.234458777055459
    },
    "planner": "BKPIECE",
    "start": {
        "state": {
            "elbow_joint": -1.8275523626775212,
            "shoulder_lift_joint": -2.126789852344167,
            "shoulder_pan_joint": -0.03513704404078235,
            "wrist_1_joint": -2.347782403156801,
            "wrist_2_joint": -1.6058999987535132,
            "wrist_3_joint": -3.0880379163319196
        }
    },
    "waypoints": [
        {
            "positions": [
                -0.03513704404078235,
                -2.126789852344167,
                -1.8275523626775212,
                -2.347782403156801,
                -1.6058999987535132,
                -3.0880379163319196
            ]
        },
        {
            "positions": [
                -0.05179294474270282,
                -2.14281066264429,
                -1.7461168926954374,
                -2.418089823588378,
                -1.4250350646352474,
                -3.0854899619281833
            ]
        },
        {
            "positions": [
                -0.0684488454446233,
                -2.158831472944413,
                -1.6646814227133535,
                -2.4883972440199553,
                -1.2441701305169817,
                -3.082942007524447
            ]
        },
        {
            "positions": [
                -0.08510474614654379,
                -2.1748522832445363,
                -1.5832459527312697,
                -2.5587046644515326,
                -1.0633051963987157,
                -3.0803940531207106
            ]
        },
        {
            "positions": [
                -0.10176064684846425,
                -2.1908730935446594,
                -1.5018104827491858,
                -2.62901208488311,
                -0.88244026228045,
                -3.0778460987169742
            ]
        },
        {
            "positions": [
                -0.11841654755038475,
                -2.2068939038447826,
                -1.420375012767102,
                -2.6993195053146866,
                -0.7015753281621843,
                -3.075298144313238
            ]
        },
        {
            "positions": [
                -0.13507244825230522,
                -2.2229147141449057,
                -1.338939542785018,
                -2.769626925746264,
                -0.5207103940439184,
                -3.0727501899095016
            ]
        },
        {
            "positions": [
                -0.15172834895422568,
                -2.238935524445029,
                -1.257504072802934,
                -2.839934346177841,
                -0.3398454599256526,
                -3.070202235505765
            ]
        },
        {
            "positions": [
                -0.16838424965614618,
                -2.254956334745152,
                -1.1760686028208502,
                -2.9102417666094182,
                -0.15898052580738695,
                -3.067654281102029
            ]
        }
    ]
}