{
    "goal": {
        "global_pose": {
            "orientation": {
                "w": -0.4816463035849501,
                "x": 0.5182115481033762,
                "y": 0.4908360881923453,
                "z": -0.5084816262002911
            },
            "position": {
                "x": -0.8240239810943604,
                "y": -0.300875300988555,
                "z": 0.16403168439865112
            }
        },
        "name": "move_to_storage_C"
    },
    "id": "BKPIECE_move_to_storage_C_119",
    "joint_names": [
        "shoulder_pan_joint",
        "shoulder_lift_joint",
        "elbow_joint",
        "wrist_1_joint",
        "wrist_2_joint",
        "wrist_3_joint"
    ],
    "metrics": {
        "cart_traj_len": 0.5773609598499024,
        "distance_elbow_joint": 0.2574754344002168,
        "distance_shoulder_lift_joint": 0.18910433153160655,
        "distance_shoulder_pan_joint": 0.4966412537326912,
        "distance_wrist_1_joint": 0.07707230096827777,
        "distance_wrist_2_joint": 1.0598527893085703,
        "distance_wrist_3_joint": 0.07522375999878284,
        "smoothness": 2.5376526478085547e-16,
        "time": 0.34467048600000005,
        "traj_len": 1.4681177983868139,
        "weighted_distance": 1.855462874922201
    },
    "planner": "BKPIECE",
    "start": {
        "state": {
            "elbow_joint": 2.010868314990456,
            "shoulder_lift_joint": -1.1634956873337592,
            "shoulder_pan_joint": -2.4736205022346125,
            "wrist_1_joint": -0.8367026794202681,
            "wrist_2_joint": 0.6746043897044499,
            "wrist_3_joint": -3.1496632123970403
        }
    },
    "waypoints": [
        {
            "positions": [
                -2.4736205022346125,
                -1.1634956873337592,
                2.010868314990456,
                -0.8367026794202681,
                0.6746043897044499,
                -3.1496632123970403
            ]
        },
        {
            "positions": [
                -2.5563940445233944,
                -1.131978298745158,
                1.9679557425904197,
                -0.8238572959255551,
                0.8512465212558783,
                -3.1371259190639096
            ]
        },
        {
            "positions": [
                -2.6391675868121762,
                -1.100460910156557,
                1.9250431701903836,
                -0.8110119124308421,
                1.0278886528073068,
                -3.1245886257307793
            ]
        },
        {
            "positions": [
                -2.721941129100958,
                -1.068943521567956,
                1.8821305977903475,
                -0.7981665289361293,
                1.204530784358735,
                -3.112051332397649
            ]
        },
        {
            "positions": [
                -2.80471467138974,
                -1.0374261329793548,
                1.8392180253903112,
                -0.7853211454414163,
                1.3811729159101636,
                -3.0995140390645184
            ]
        },
        {
            "positions": [
                -2.887488213678522,
                -1.0059087443907537,
                1.796305452990275,
                -0.7724757619467033,
                1.5578150474615917,
                -3.0869767457313877
            ]
        },
        {
            "positions": [
                -2.9702617559673037,
                -0.9743913558021526,
                1.753392880590239,
                -0.7596303784519903,
                1.7344571790130203,
                -3.0744394523982574
            ]
        }
    ]
}