{
    "goal": {
        "global_pose": {
            "orientation": {
                "w": 0.005598929693374612,
                "x": 0.007748599140229565,
                "y": 0.7110244013736278,
                "z": -0.7031023480610252
            },
            "position": {
                "x": -0.8858502320852131,
                "y": -0.7141253447532654,
                "z": 0.3711530566215515
            }
        },
        "name": "move_to_auspresseinheit_C"
    },
    "id": "BKPIECE_move_to_auspresseinheit_C_38",
    "joint_names": [
        "shoulder_pan_joint",
        "shoulder_lift_joint",
        "elbow_joint",
        "wrist_1_joint",
        "wrist_2_joint",
        "wrist_3_joint"
    ],
    "metrics": {
        "cart_traj_len": 0.4933355451890014,
        "distance_elbow_joint": 1.0121623224040541,
        "distance_shoulder_lift_joint": 0.33097609374572623,
        "distance_shoulder_pan_joint": 0.25609190757963374,
        "distance_wrist_1_joint": 0.706498197112961,
        "distance_wrist_2_joint": 1.3130750593320868,
        "distance_wrist_3_joint": 0.0774487192867288,
        "smoothness": 0.0,
        "time": 0.222162871,
        "traj_len": 1.922563990992547,
        "weighted_distance": 2.422957489201925
    },
    "planner": "BKPIECE",
    "start": {
        "state": {
            "elbow_joint": 1.7527959577737207,
            "shoulder_lift_joint": -0.9740617694225068,
            "shoulder_pan_joint": -2.967991417825858,
            "wrist_1_joint": -0.759517768980727,
            "wrist_2_joint": 1.7443932448377408,
            "wrist_3_joint": -3.0840537646736568
        }
    },
    "waypoints": [
        {
            "positions": [
                -2.967991417825858,
                -0.9740617694225068,
                1.7527959577737207,
                -0.759517768980727,
                1.7443932448377408,
                -3.0840537646736568
            ]
        },
        {
            "positions": [
                -2.9423822270678945,
                -0.9409641600479342,
                1.6515797255333153,
                -0.6888679492694308,
                1.613085738904532,
                -3.09179863660233
            ]
        },
        {
            "positions": [
                -2.916773036309931,
                -0.9078665506733615,
                1.5503634932929098,
                -0.6182181295581348,
                1.4817782329713234,
                -3.0995435085310024
            ]
        },
        {
            "positions": [
                -2.8911638455519677,
                -0.8747689412987889,
                1.4491472610525045,
                -0.5475683098468387,
                1.3504707270381149,
                -3.1072883804596754
            ]
        },
        {
            "positions": [
                -2.8655546547940043,
                -0.8416713319242163,
                1.347931028812099,
                -0.47691849013554255,
                1.219163221104906,
                -3.1150332523883484
            ]
        },
        {
            "positions": [
                -2.839945464036041,
                -0.8085737225496437,
                1.2467147965716936,
                -0.40626867042424647,
                1.0878557151716974,
                -3.122778124317021
            ]
        },
        {
            "positions": [
                -2.814336273278078,
                -0.775476113175071,
                1.1454985643312883,
                -0.3356188507129504,
                0.9565482092384888,
                -3.130522996245694
            ]
        },
        {
            "positions": [
                -2.7887270825201145,
                -0.7423785038004984,
                1.0442823320908827,
                -0.2649690310016543,
                0.8252407033052801,
                -3.138267868174367
            ]
        },
        {
            "positions": [
                -2.763117891762151,
                -0.7092808944259258,
                0.9430660998504773,
                -0.19431921129035812,
                0.6939331973720713,
                -3.14601274010304
            ]
        },
        {
            "positions": [
                -2.7375087010041876,
                -0.6761832850513532,
                0.841849867610072,
                -0.1236693915790621,
                0.5626256914388628,
                -3.1537576120317126
            ]
        },
        {
            "positions": [
                -2.711899510246224,
                -0.6430856756767805,
                0.7406336353696665,
                -0.05301957186776595,
                0.4313181855056541,
                -3.1615024839603856
            ]
        }
    ]
}