{
    "goal": {
        "global_pose": {
            "orientation": {
                "w": 0.7031023480610252,
                "x": -0.7110244013736278,
                "y": 0.0077485991402295624,
                "z": 0.005598929693374583
            },
            "position": {
                "x": -0.8841497679147869,
                "y": 0.44412534475326537,
                "z": 0.3711530566215515
            }
        },
        "name": "move_to_auspresseinheit_D"
    },
    "id": "BKPIECE_move_to_auspresseinheit_D_92",
    "joint_names": [
        "shoulder_pan_joint",
        "shoulder_lift_joint",
        "elbow_joint",
        "wrist_1_joint",
        "wrist_2_joint",
        "wrist_3_joint"
    ],
    "metrics": {
        "cart_traj_len": 0.3424612773853633,
        "distance_elbow_joint": 0.6365988764847295,
        "distance_shoulder_lift_joint": 0.12122964014485538,
        "distance_shoulder_pan_joint": 0.1336174903952868,
        "distance_wrist_1_joint": 0.5229704187030517,
        "distance_wrist_2_joint": 1.4456483827486746,
        "distance_wrist_3_joint": 0.0025676913767846976,
        "smoothness": 1.973729821555834e-15,
        "time": 0.19537432799999999,
        "traj_len": 1.691931588408167,
        "weighted_distance": 2.199178638505449
    },
    "planner": "BKPIECE",
    "start": {
        "state": {
            "elbow_joint": -1.8275523626775212,
            "shoulder_lift_joint": -2.126789852344167,
            "shoulder_pan_joint": -0.03513704404078235,
            "wrist_1_joint": -2.347782403156801,
            "wrist_2_joint": -1.6058999987535132,
            "wrist_3_joint": -3.0880379163319196
        }
    },
    "waypoints": [
        {
            "positions": [
                -0.03513704404078235,
                -2.126789852344167,
                -1.8275523626775212,
                -2.347782403156801,
                -1.6058999987535132,
                -3.0880379163319196
            ]
        },
        {
            "positions": [
                -0.0518392303401932,
                -2.1419435573622736,
                -1.74797750311693,
                -2.4131537054946826,
                -1.425193950909929,
                -3.088358877754018
            ]
        },
        {
            "positions": [
                -0.06854141663960406,
                -2.157097262380381,
                -1.6684026435563388,
                -2.478525007832564,
                -1.2444879030663445,
                -3.0886798391761157
            ]
        },
        {
            "positions": [
                -0.0852436029390149,
                -2.1722509673984876,
                -1.5888277839957476,
                -2.543896310170445,
                -1.0637818552227603,
                -3.089000800598214
            ]
        },
        {
            "positions": [
                -0.10194578923842576,
                -2.1874046724165943,
                -1.5092529244351565,
                -2.6092676125083267,
                -0.8830758073791759,
                -3.0893217620203117
            ]
        },
        {
            "positions": [
                -0.1186479755378366,
                -2.2025583774347015,
                -1.4296780648745653,
                -2.6746389148462084,
                -0.7023697595355916,
                -3.08964272344241
            ]
        },
        {
            "positions": [
                -0.13535016183724746,
                -2.2177120824528083,
                -1.350103205313974,
                -2.7400102171840897,
                -0.5216637116920073,
                -3.0899636848645082
            ]
        },
        {
            "positions": [
                -0.1520523481366583,
                -2.2328657874709155,
                -1.270528345753383,
                -2.805381519521971,
                -0.34095766384842285,
                -3.090284646286606
            ]
        },
        {
            "positions": [
                -0.16875453443606916,
                -2.248019492489022,
                -1.1909534861927917,
                -2.8707528218598526,
                -0.16025161600483853,
                -3.0906056077087043
            ]
        }
    ]
}