{
    "goal": {
        "global_pose": {
            "orientation": {
                "w": 0.7047431493862688,
                "x": -0.7094548369677653,
                "y": 0.0024358444001904,
                "z": -0.0022348060817251984
            },
            "position": {
                "x": -0.39052492380142206,
                "y": 0.3671506643295288,
                "z": 0.19426114857196808
            }
        },
        "name": "move_to_magneteinheit_D"
    },
    "id": "BKPIECE_move_to_magneteinheit_D_70",
    "joint_names": [
        "shoulder_pan_joint",
        "shoulder_lift_joint",
        "elbow_joint",
        "wrist_1_joint",
        "wrist_2_joint",
        "wrist_3_joint"
    ],
    "metrics": {
        "cart_traj_len": 4.881902092152225,
        "distance_elbow_joint": 3.1464561802476783,
        "distance_shoulder_lift_joint": 1.6265227515443461,
        "distance_shoulder_pan_joint": 4.5041247241685225,
        "distance_wrist_1_joint": 2.2496423695924923,
        "distance_wrist_2_joint": 1.3552710233217453,
        "distance_wrist_3_joint": 5.0215877735645895,
        "smoothness": 0.5160724002270678,
        "time": 0.362215609,
        "traj_len": 4.231265156243388,
        "weighted_distance": 5.6170894387113695
    },
    "planner": "BKPIECE",
    "start": {
        "state": {
            "elbow_joint": 0.749534889911806,
            "shoulder_lift_joint": -0.6476975780787326,
            "shoulder_pan_joint": -2.711696901376241,
            "wrist_1_joint": -0.07506478083263063,
            "wrist_2_joint": 0.43296659715538205,
            "wrist_3_joint": -3.14703540197715
        }
    },
    "waypoints": [
        {
            "positions": [
                -2.711696901376241,
                -0.6476975780787326,
                0.749534889911806,
                -0.07506478083263063,
                0.43296659715538205,
                -3.14703540197715
            ]
        },
        {
            "positions": [
                -2.723050686100848,
                -0.6787638619018821,
                0.6868195790531643,
                -0.06884033268915775,
                0.43887406785832783,
                -3.065733380398325
            ]
        },
        {
            "positions": [
                -2.734404470825455,
                -0.7098301457250317,
                0.6241042681945226,
                -0.06261588454568487,
                0.44478153856127356,
                -2.9844313588195
            ]
        },
        {
            "positions": [
                -2.7386890054828408,
                -0.7444904022148546,
                0.5541309473784408,
                -0.06631290957627235,
                0.4496166129916839,
                -2.888030769134168
            ]
        },
        {
            "positions": [
                -2.742973540140226,
                -0.7791506587046775,
                0.48415762656235894,
                -0.07000993460685984,
                0.45445168742209413,
                -2.791630179448836
            ]
        },
        {
            "positions": [
                -2.642568551010977,
                -0.8156724316769898,
                0.4102461938136637,
                -0.01652245041757313,
                0.46974680551966985,
                -2.6839732322635306
            ]
        },
        {
            "positions": [
                -2.542163561881728,
                -0.8521942046493021,
                0.3363347610649684,
                0.036965033771713576,
                0.4850419236172456,
                -2.5763162850782253
            ]
        },
        {
            "positions": [
                -2.4417585727524793,
                -0.8887159776216144,
                0.2624233283162732,
                0.09045251796100029,
                0.5003370417148213,
                -2.4686593378929205
            ]
        },
        {
            "positions": [
                -2.3413535836232304,
                -0.9252377505939267,
                0.18851189556757791,
                0.143940002150287,
                0.515632159812397,
                -2.361002390707615
            ]
        },
        {
            "positions": [
                -2.240948594493981,
                -0.961759523566239,
                0.1146004628188827,
                0.1974274863395737,
                0.5309272779099727,
                -2.25334544352231
            ]
        },
        {
            "positions": [
                -2.140543605364732,
                -0.9982812965385512,
                0.040689030070187426,
                0.2509149705288604,
                0.5462223960075484,
                -2.1456884963370046
            ]
        },
        {
            "positions": [
                -2.0401386162354833,
                -1.0348030695108634,
                -0.033222402678507845,
                0.30440245471814714,
                0.5615175141051242,
                -2.0380315491516994
            ]
        },
        {
            "positions": [
                -1.9397336271062344,
                -1.0713248424831758,
                -0.10713383542720312,
                0.3578899389074338,
                0.5768126322026998,
                -1.9303746019663945
            ]
        },
        {
            "positions": [
                -1.8393286379769855,
                -1.107846615455488,
                -0.18104526817589828,
                0.4113774230967205,
                0.5921077503002756,
                -1.8227176547810893
            ]
        },
        {
            "positions": [
                -1.7389236488477364,
                -1.1443683884278004,
                -0.25495670092459355,
                0.4648649072860072,
                0.6074028683978513,
                -1.715060707595784
            ]
        },
        {
            "positions": [
                -1.6385186597184875,
                -1.1808901614001126,
                -0.3288681336732888,
                0.5183523914752939,
                0.6226979864954271,
                -1.607403760410479
            ]
        },
        {
            "positions": [
                -1.5381136705892386,
                -1.217411934372425,
                -0.4027795664219841,
                0.5718398756645806,
                0.6379931045930027,
                -1.4997468132251737
            ]
        },
        {
            "positions": [
                -1.4377086814599895,
                -1.2539337073447374,
                -0.47669099917067936,
                0.6253273598538673,
                0.6532882226905785,
                -1.3920898660398684
            ]
        },
        {
            "positions": [
                -1.3373036923307406,
                -1.2904554803170496,
                -0.5506024319193746,
                0.6788148440431541,
                0.6685833407881543,
                -1.2844329188545631
            ]
        },
        {
            "positions": [
                -1.2368987032014918,
                -1.3269772532893618,
                -0.6245138646680698,
                0.7323023282324408,
                0.68387845888573,
                -1.176775971669258
            ]
        },
        {
            "positions": [
                -1.1364937140722429,
                -1.3634990262616742,
                -0.6984252974167652,
                0.7857898124217275,
                0.6991735769833056,
                -1.069119024483953
            ]
        },
        {
            "positions": [
                -1.0360887249429938,
                -1.4000207992339864,
                -0.7723367301654603,
                0.8392772966110142,
                0.7144686950808814,
                -0.9614620772986477
            ]
        },
        {
            "positions": [
                -0.9356837358137451,
                -1.4365425722062986,
                -0.8462481629141555,
                0.8927647808003008,
                0.7297638131784571,
                -0.8538051301133427
            ]
        },
        {
            "positions": [
                -0.835278746684496,
                -1.473064345178611,
                -0.9201595956628509,
                0.9462522649895875,
                0.7450589312760327,
                -0.7461481829280374
            ]
        },
        {
            "positions": [
                -0.7348737575552469,
                -1.5095861181509234,
                -0.994071028411546,
                0.9997397491788742,
                0.7603540493736085,
                -0.6384912357427321
            ]
        },
        {
            "positions": [
                -0.634468768425998,
                -1.5461078911232355,
                -1.0679824611602413,
                1.053227233368161,
                0.7756491674711843,
                -0.5308342885574269
            ]
        },
        {
            "positions": [
                -0.5340637792967491,
                -1.5826296640955477,
                -1.1418938939089367,
                1.1067147175574477,
                0.79094428556876,
                -0.42317734137212204
            ]
        },
        {
            "positions": [
                -0.4336587901675002,
                -1.6191514370678601,
                -1.215805326657632,
                1.1602022017467344,
                0.8062394036663356,
                -0.31552039418681677
            ]
        },
        {
            "positions": [
                -0.3332538010382513,
                -1.6556732100401725,
                -1.289716759406327,
                1.2136896859360211,
                0.8215345217639114,
                -0.2078634470015115
            ]
        },
        {
            "positions": [
                -0.23284881190900197,
                -1.6921949830124847,
                -1.3636281921550224,
                1.2671771701253078,
                0.8368296398614872,
                -0.10020649981620622
            ]
        },
        {
            "positions": [
                -0.13244382277975308,
                -1.7287167559847971,
                -1.4375396249037178,
                1.3206646543145946,
                0.852124757959063,
                0.007450447369099056
            ]
        },
        {
            "positions": [
                -0.032038833650504195,
                -1.7652385289571093,
                -1.5114510576524132,
                1.3741521385038813,
                0.8674198760566386,
                0.11510739455440433
            ]
        },
        {
            "positions": [
                0.0683661554787447,
                -1.8017603019294217,
                -1.585362490401108,
                1.427639622693168,
                0.8827149941542143,
                0.2227643417397096
            ]
        },
        {
            "positions": [
                0.16877114460799403,
                -1.838282074901734,
                -1.6592739231498035,
                1.4811271068824547,
                0.8980101122517901,
                0.3304212889250149
            ]
        },
        {
            "positions": [
                0.2691761337372425,
                -1.874803847874046,
                -1.7331853558984984,
                1.5346145910717413,
                0.9133052303493657,
                0.4380782361103197
            ]
        },
        {
            "positions": [
                0.36958112286649136,
                -1.9113256208463585,
                -1.8070967886471938,
                1.588102075261028,
                0.9286003484469414,
                0.5457351832956245
            ]
        },
        {
            "positions": [
                0.46998611199574025,
                -1.9478473938186707,
                -1.8810082213958892,
                1.6415895594503147,
                0.9438954665445172,
                0.6533921304809298
            ]
        },
        {
            "positions": [
                0.5703911011249896,
                -1.984369166790983,
                -1.9549196541445841,
                1.6950770436396014,
                0.959190584642093,
                0.7610490776662351
            ]
        },
        {
            "positions": [
                0.6707960902542385,
                -2.0208909397632953,
                -2.0288310868932795,
                1.7485645278288882,
                0.9744857027396685,
                0.8687060248515404
            ]
        },
        {
            "positions": [
                0.7712010793834874,
                -2.0574127127356077,
                -2.102742519641975,
                1.8020520120181749,
                0.9897808208372443,
                0.9763629720368454
            ]
        },
        {
            "positions": [
                0.6646818053967289,
                -2.0815024479453266,
                -2.1354290497190744,
                1.7623034035049152,
                0.901063398655035,
                0.876564149864557
            ]
        },
        {
            "positions": [
                0.5581625314099706,
                -2.1055921831550455,
                -2.1681155797961744,
                1.7225547949916555,
                0.8123459764728258,
                0.7767653276922686
            ]
        },
        {
            "positions": [
                0.4516432574232122,
                -2.129681918364765,
                -2.200802109873274,
                1.6828061864783959,
                0.7236285542906165,
                0.67696650551998
            ]
        },
        {
            "positions": [
                0.34512398343645384,
                -2.1537716535744837,
                -2.2334886399503735,
                1.6430575779651362,
                0.6349111321084072,
                0.5771676833476916
            ]
        },
        {
            "positions": [
                0.23860470944969536,
                -2.1778613887842027,
                -2.2661751700274735,
                1.6033089694518765,
                0.5461937099261979,
                0.4773688611754031
            ]
        },
        {
            "positions": [
                0.13208543546293705,
                -2.2019511239939216,
                -2.298861700104573,
                1.5635603609386168,
                0.45747628774398863,
                0.3775700390031147
            ]
        },
        {
            "positions": [
                0.025566161476178628,
                -2.226040859203641,
                -2.3315482301816726,
                1.5238117524253572,
                0.3687588655617794,
                0.2777712168308263
            ]
        },
        {
            "positions": [
                -0.08095311251057968,
                -2.25013059441336,
                -2.3642347602587725,
                1.4840631439120975,
                0.28004144337957015,
                0.17797239465853787
            ]
        },
        {
            "positions": [
                -0.1874723864973381,
                -2.2742203296230787,
                -2.396921290335872,
                1.4443145353988378,
                0.1913240211973608,
                0.07817357248624932
            ]
        }
    ]
}