{
    "goal": {
        "global_pose": {
            "orientation": {
                "w": 0.7047431493862688,
                "x": -0.7094548369677653,
                "y": 0.0024358444001904,
                "z": -0.0022348060817251984
            },
            "position": {
                "x": -0.39052492380142206,
                "y": 0.3671506643295288,
                "z": 0.19426114857196808
            }
        },
        "name": "move_to_magneteinheit_D"
    },
    "id": "BKPIECE_move_to_magneteinheit_D_42",
    "joint_names": [
        "shoulder_pan_joint",
        "shoulder_lift_joint",
        "elbow_joint",
        "wrist_1_joint",
        "wrist_2_joint",
        "wrist_3_joint"
    ],
    "metrics": {
        "cart_traj_len": 8.033107744178047,
        "distance_elbow_joint": 8.09147257833093,
        "distance_shoulder_lift_joint": 2.0535385697932287,
        "distance_shoulder_pan_joint": 3.2943271396411333,
        "distance_wrist_1_joint": 5.48923642495582,
        "distance_wrist_2_joint": 4.2855618620961495,
        "distance_wrist_3_joint": 6.836729275365158,
        "smoothness": 0.6414906684263556,
        "time": 0.4615154,
        "traj_len": 5.481867004058235,
        "weighted_distance": 7.314309447101942
    },
    "planner": "BKPIECE",
    "start": {
        "state": {
            "elbow_joint": 0.749534889911806,
            "shoulder_lift_joint": -0.6476975780787326,
            "shoulder_pan_joint": -2.711696901376241,
            "wrist_1_joint": -0.07506478083263063,
            "wrist_2_joint": 0.43296659715538205,
            "wrist_3_joint": -3.14703540197715
        }
    },
    "waypoints": [
        {
            "positions": [
                -2.711696901376241,
                -0.6476975780787326,
                0.749534889911806,
                -0.07506478083263063,
                0.43296659715538205,
                -3.14703540197715
            ]
        },
        {
            "positions": [
                -2.7264684119989524,
                -0.6826857213482668,
                0.827670517737352,
                -0.08899762208360756,
                0.41595513088845315,
                -2.927017259367237
            ]
        },
        {
            "positions": [
                -2.741239922621664,
                -0.7176738646178009,
                0.9058061455628981,
                -0.1029304633345845,
                0.3989436646215242,
                -2.7069991167573235
            ]
        },
        {
            "positions": [
                -2.7560114332443755,
                -0.7526620078873351,
                0.983941773388444,
                -0.11686330458556143,
                0.3819321983545953,
                -2.4869809741474103
            ]
        },
        {
            "positions": [
                -2.770782943867087,
                -0.7876501511568692,
                1.06207740121399,
                -0.13079614583653837,
                0.3649207320876664,
                -2.266962831537497
            ]
        },
        {
            "positions": [
                -2.7855544544897985,
                -0.8226382944264032,
                1.140213029039536,
                -0.14472898708751528,
                0.3479092658207375,
                -2.0469446889275837
            ]
        },
        {
            "positions": [
                -2.80032596511251,
                -0.8576264376959375,
                1.218348656865082,
                -0.15866182833849224,
                0.33089779955380855,
                -1.8269265463176705
            ]
        },
        {
            "positions": [
                -2.815097475735221,
                -0.8926145809654715,
                1.2964842846906282,
                -0.17259466958946915,
                0.31388633328687965,
                -1.6069084037077572
            ]
        },
        {
            "positions": [
                -2.829868986357933,
                -0.9276027242350058,
                1.3746199125161742,
                -0.18652751084044608,
                0.29687486701995075,
                -1.386890261097844
            ]
        },
        {
            "positions": [
                -2.8446404969806443,
                -0.9625908675045398,
                1.45275554034172,
                -0.20046035209142302,
                0.27986340075302185,
                -1.1668721184879307
            ]
        },
        {
            "positions": [
                -2.8594120076033556,
                -0.997579010774074,
                1.5308911681672663,
                -0.21439319334239992,
                0.2628519344860929,
                -0.9468539758780175
            ]
        },
        {
            "positions": [
                -2.8741835182260673,
                -1.032567154043608,
                1.6090267959928122,
                -0.22832603459337686,
                0.24584046821916403,
                -0.7268358332681042
            ]
        },
        {
            "positions": [
                -2.8889550288487786,
                -1.0675552973131424,
                1.6871624238183585,
                -0.24225887584435382,
                0.22882900195223507,
                -0.5068176906581909
            ]
        },
        {
            "positions": [
                -2.90372653947149,
                -1.1025434405826764,
                1.7652980516439043,
                -0.25619171709533073,
                0.21181753568530617,
                -0.2867995480482777
            ]
        },
        {
            "positions": [
                -2.9184980500942017,
                -1.1375315838522106,
                1.8434336794694504,
                -0.27012455834630766,
                0.19480606941837725,
                -0.06678140543836442
            ]
        },
        {
            "positions": [
                -2.933269560716913,
                -1.1725197271217447,
                1.9215693072949964,
                -0.2840573995972846,
                0.17779460315144835,
                0.15323673717154884
            ]
        },
        {
            "positions": [
                -2.8893225169583423,
                -1.2141294305085153,
                1.8240605061368234,
                -0.3950106463775378,
                0.2652037732212515,
                0.15899695771805133
            ]
        },
        {
            "positions": [
                -2.845375473199772,
                -1.255739133895286,
                1.7265517049786503,
                -0.505963893157791,
                0.35261294329105464,
                0.16475717826455383
            ]
        },
        {
            "positions": [
                -2.8014284294412013,
                -1.2973488372820565,
                1.6290429038204772,
                -0.6169171399380442,
                0.4400221133608578,
                0.1705173988110563
            ]
        },
        {
            "positions": [
                -2.757481385682631,
                -1.3389585406688271,
                1.5315341026623042,
                -0.7278703867182974,
                0.5274312834306609,
                0.17627761935755878
            ]
        },
        {
            "positions": [
                -2.7135343419240603,
                -1.3805682440555977,
                1.434025301504131,
                -0.8388236334985506,
                0.6148404535004641,
                0.18203783990406128
            ]
        },
        {
            "positions": [
                -2.66958729816549,
                -1.4221779474423686,
                1.336516500345958,
                -0.9497768802788038,
                0.7022496235702672,
                0.18779806045056377
            ]
        },
        {
            "positions": [
                -2.6256402544069193,
                -1.463787650829139,
                1.239007699187785,
                -1.060730127059057,
                0.7896587936400704,
                0.19355828099706623
            ]
        },
        {
            "positions": [
                -2.581693210648349,
                -1.5053973542159098,
                1.141498898029612,
                -1.1716833738393102,
                0.8770679637098736,
                0.19931850154356873
            ]
        },
        {
            "positions": [
                -2.5377461668897783,
                -1.5470070576026804,
                1.0439900968714388,
                -1.2826366206195634,
                0.9644771337796767,
                0.20507872209007122
            ]
        },
        {
            "positions": [
                -2.4937991231312076,
                -1.588616760989451,
                0.9464812957132657,
                -1.3935898673998166,
                1.05188630384948,
                0.2108389426365737
            ]
        },
        {
            "positions": [
                -2.4498520793726373,
                -1.6302264643762217,
                0.8489724945550925,
                -1.50454311418007,
                1.139295473919283,
                0.2165991631830762
            ]
        },
        {
            "positions": [
                -2.4059050356140665,
                -1.6718361677629923,
                0.7514636933969194,
                -1.615496360960323,
                1.226704643989086,
                0.2223593837295787
            ]
        },
        {
            "positions": [
                -2.361957991855496,
                -1.713445871149763,
                0.6539548922387464,
                -1.7264496077405764,
                1.3141138140588895,
                0.2281196042760812
            ]
        },
        {
            "positions": [
                -2.3180109480969255,
                -1.7550555745365335,
                0.5564460910805733,
                -1.8374028545208294,
                1.4015229841286925,
                0.23387982482258365
            ]
        },
        {
            "positions": [
                -2.2740639043383553,
                -1.7966652779233043,
                0.4589372899224,
                -1.9483561013010828,
                1.4889321541984957,
                0.23964004536908615
            ]
        },
        {
            "positions": [
                -2.2301168605797845,
                -1.8382749813100747,
                0.3614284887642272,
                -2.059309348081336,
                1.5763413242682989,
                0.24540026591558864
            ]
        },
        {
            "positions": [
                -2.186169816821214,
                -1.8798846846968456,
                0.2639196876060539,
                -2.1702625948615895,
                1.663750494338102,
                0.2511604864620911
            ]
        },
        {
            "positions": [
                -2.1422227730626435,
                -1.921494388083616,
                0.16641088644788105,
                -2.281215841641842,
                1.751159664407905,
                0.2569207070085936
            ]
        },
        {
            "positions": [
                -2.098275729304073,
                -1.9631040914703868,
                0.06890208528970776,
                -2.3921690884220954,
                1.8385688344777082,
                0.2626809275550961
            ]
        },
        {
            "positions": [
                -2.0543286855455025,
                -2.004713794857157,
                -0.028606715868465082,
                -2.503122335202349,
                1.9259780045475114,
                0.2684411481015986
            ]
        },
        {
            "positions": [
                -2.010381641786932,
                -2.046323498243928,
                -0.12611551702663829,
                -2.614075581982602,
                2.0133871746173146,
                0.2742013686481011
            ]
        },
        {
            "positions": [
                -2.0008627155813907,
                -2.0181425040063465,
                -0.04909551707967412,
                -2.51426007731923,
                1.8951013640710002,
                0.23317578330939934
            ]
        },
        {
            "positions": [
                -1.9913437893758494,
                -1.989961509768765,
                0.027924482867290046,
                -2.414444572655858,
                1.7768155535246857,
                0.1921501979706976
            ]
        },
        {
            "positions": [
                -1.9818248631703081,
                -1.9617805155311836,
                0.10494448281425425,
                -2.314629067992486,
                1.658529742978371,
                0.15112461263199586
            ]
        },
        {
            "positions": [
                -1.9723059369647669,
                -1.9335995212936024,
                0.18196448276121838,
                -2.214813563329114,
                1.5402439324320565,
                0.11009902729329413
            ]
        },
        {
            "positions": [
                -1.9627870107592258,
                -1.9054185270560209,
                0.25898448270818264,
                -2.1149980586657415,
                1.421958121885742,
                0.06907344195459239
            ]
        },
        {
            "positions": [
                -1.9532680845536845,
                -1.8772375328184394,
                0.3360044826551468,
                -2.0151825540023696,
                1.3036723113394273,
                0.028047856615890654
            ]
        },
        {
            "positions": [
                -1.9437491583481434,
                -1.849056538580858,
                0.4130244826021109,
                -1.9153670493389978,
                1.185386500793113,
                -0.012977728722811055
            ]
        },
        {
            "positions": [
                -1.9342302321426021,
                -1.8208755443432765,
                0.49004448254907507,
                -1.8155515446756256,
                1.0671006902467983,
                -0.05400331406151282
            ]
        },
        {
            "positions": [
                -1.9247113059370609,
                -1.7926945501056952,
                0.5670644824960394,
                -1.7157360400122537,
                0.9488148797004838,
                -0.09502889940021453
            ]
        },
        {
            "positions": [
                -1.9151923797315198,
                -1.7645135558681138,
                0.6440844824430035,
                -1.6159205353488817,
                0.8305290691541694,
                -0.1360544847389163
            ]
        },
        {
            "positions": [
                -1.9056734535259785,
                -1.7363325616305323,
                0.7211044823899677,
                -1.5161050306855097,
                0.7122432586078549,
                -0.17708007007761806
            ]
        },
        {
            "positions": [
                -1.8961545273204372,
                -1.7081515673929508,
                0.7981244823369319,
                -1.4162895260221378,
                0.5939574480615402,
                -0.21810565541631977
            ]
        },
        {
            "positions": [
                -1.8866356011148961,
                -1.6799705731553694,
                0.875144482283896,
                -1.3164740213587658,
                0.4756716375152259,
                -0.2591312407550215
            ]
        },
        {
            "positions": [
                -1.8771166749093549,
                -1.6517895789177879,
                0.95216448223086,
                -1.2166585166953938,
                0.3573858269689114,
                -0.3001568260937232
            ]
        },
        {
            "positions": [
                -1.8675977487038136,
                -1.6236085846802066,
                1.0291844821778242,
                -1.1168430120320219,
                0.23910001642259693,
                -0.3411824114324249
            ]
        },
        {
            "positions": [
                -1.8580788224982725,
                -1.5954275904426252,
                1.1062044821247883,
                -1.0170275073686497,
                0.12081420587628222,
                -0.3822079967711267
            ]
        },
        {
            "positions": [
                -1.8485598962927312,
                -1.5672465962050437,
                1.1832244820717526,
                -0.9172120027052777,
                0.002528395329967948,
                -0.4232335821098284
            ]
        },
        {
            "positions": [
                -1.765583508801742,
                -1.5703318311323462,
                1.0297966920770787,
                -0.9562042552194543,
                -0.004816404855008778,
                -0.5180619155860906
            ]
        },
        {
            "positions": [
                -1.6826071213107525,
                -1.5734170660596485,
                0.8763689020824046,
                -0.9951965077336308,
                -0.012161205039985504,
                -0.6128902490623528
            ]
        },
        {
            "positions": [
                -1.5996307338197633,
                -1.576502300986951,
                0.7229411120877307,
                -1.0341887602478073,
                -0.019506005224962226,
                -0.707718582538615
            ]
        },
        {
            "positions": [
                -1.5166543463287738,
                -1.5795875359142533,
                0.5695133220930567,
                -1.0731810127619839,
                -0.026850805409938956,
                -0.802546916014877
            ]
        },
        {
            "positions": [
                -1.4336779588377846,
                -1.5826727708415558,
                0.41608553209838284,
                -1.1121732652761604,
                -0.034195605594915676,
                -0.8973752494911393
            ]
        },
        {
            "positions": [
                -1.3507015713467951,
                -1.5857580057688583,
                0.26265774210370885,
                -1.151165517790337,
                -0.0415404057798924,
                -0.9922035829674014
            ]
        },
        {
            "positions": [
                -1.267725183855806,
                -1.5888432406961606,
                0.10922995210903497,
                -1.1901577703045136,
                -0.04888520596486913,
                -1.0870319164436637
            ]
        },
        {
            "positions": [
                -1.1847487963648167,
                -1.591928475623463,
                -0.044197837885639135,
                -1.22915002281869,
                -0.05623000614984586,
                -1.1818602499199258
            ]
        },
        {
            "positions": [
                -1.1017724088738272,
                -1.5950137105507654,
                -0.19762562788031324,
                -1.2681422753328666,
                -0.06357480633482258,
                -1.276688583396188
            ]
        },
        {
            "positions": [
                -1.0187960213828378,
                -1.5980989454780679,
                -0.3510534178749869,
                -1.3071345278470432,
                -0.07091960651979931,
                -1.3715169168724501
            ]
        },
        {
            "positions": [
                -0.9358196338918485,
                -1.6011841804053701,
                -0.504481207869661,
                -1.3461267803612196,
                -0.07826440670477604,
                -1.4663452503487124
            ]
        },
        {
            "positions": [
                -0.8528432464008593,
                -1.6042694153326726,
                -0.6579089978643349,
                -1.3851190328753962,
                -0.08560920688975275,
                -1.5611735838249743
            ]
        },
        {
            "positions": [
                -0.7698668589098698,
                -1.6073546502599751,
                -0.811336787859009,
                -1.4241112853895728,
                -0.09295400707472949,
                -1.6560019173012366
            ]
        },
        {
            "positions": [
                -0.6868904714188806,
                -1.6104398851872774,
                -0.9647645778536826,
                -1.4631035379037494,
                -0.10029880725970622,
                -1.7508302507774989
            ]
        },
        {
            "positions": [
                -0.6039140839278914,
                -1.61352512011458,
                -1.1181923678483565,
                -1.502095790417926,
                -0.10764360744468293,
                -1.8456585842537607
            ]
        },
        {
            "positions": [
                -0.5209376964369019,
                -1.6166103550418822,
                -1.2716201578430308,
                -1.5410880429321026,
                -0.11498840762965967,
                -1.940486917730023
            ]
        },
        {
            "positions": [
                -0.43796130894591245,
                -1.6196955899691847,
                -1.4250479478377047,
                -1.580080295446279,
                -0.12233320781463639,
                -2.0353152512062853
            ]
        },
        {
            "positions": [
                -0.354984921454923,
                -1.6227808248964872,
                -1.578475737832379,
                -1.6190725479604555,
                -0.1296780079996131,
                -2.1301435846825476
            ]
        },
        {
            "positions": [
                -0.27200853396393376,
                -1.6258660598237895,
                -1.731903527827053,
                -1.658064800474632,
                -0.13702280818458984,
                -2.22497191815881
            ]
        },
        {
            "positions": [
                -0.18903214647294453,
                -1.628951294751092,
                -1.8853313178217264,
                -1.6970570529888085,
                -0.14436760836956655,
                -2.3198002516350718
            ]
        },
        {
            "positions": [
                -0.10605575898195507,
                -1.6320365296783943,
                -2.038759107816401,
                -1.736049305502985,
                -0.1517124085545433,
                -2.414628585111334
            ]
        },
        {
            "positions": [
                -0.02307937149096574,
                -1.6351217646056968,
                -2.192186897811075,
                -1.7750415580171617,
                -0.15905720873952,
                -2.5094569185875963
            ]
        },
        {
            "positions": [
                -0.03901384249713665,
                -1.647951834422996,
                -2.2822718345854995,
                -1.8618220900072031,
                -0.16223125658371484,
                -2.6669762240581174
            ]
        },
        {
            "positions": [
                -0.05494831350330756,
                -1.6607819042402954,
                -2.3723567713599243,
                -1.9486026219972445,
                -0.16540530442790968,
                -2.8244955295286385
            ]
        },
        {
            "positions": [
                -0.1202959880343935,
                -1.701932124017244,
                -2.3689407293119062,
                -2.0595883346155235,
                -0.1734077132184711,
                -2.9828933328102227
            ]
        },
        {
            "positions": [
                -0.18564366256547943,
                -1.7430823437941927,
                -2.3655246872638886,
                -2.1705740472338024,
                -0.1814101220090325,
                -3.1412911360918065
            ]
        }
    ]
}