{
    "goal": {
        "global_pose": {
            "orientation": {
                "w": 0.5084816217422485,
                "x": -0.49083608388900757,
                "y": 0.5182115435600281,
                "z": -0.4816462993621826
            },
            "position": {
                "x": 0.5540239810943604,
                "y": 0.030875300988554955,
                "z": 0.16403168439865112
            }
        },
        "name": "move_to_storage_A"
    },
    "id": "BKPIECE_move_to_storage_A_106",
    "joint_names": [
        "shoulder_pan_joint",
        "shoulder_lift_joint",
        "elbow_joint",
        "wrist_1_joint",
        "wrist_2_joint",
        "wrist_3_joint"
    ],
    "metrics": {
        "cart_traj_len": 0.35392266959574137,
        "distance_elbow_joint": 0.44967079721141423,
        "distance_shoulder_lift_joint": 0.2350320151679577,
        "distance_shoulder_pan_joint": 0.4639428050880608,
        "distance_wrist_1_joint": 0.23868073124828093,
        "distance_wrist_2_joint": 1.0959618523630517,
        "distance_wrist_3_joint": 0.09537596547242311,
        "smoothness": 1.1102230263833737e-15,
        "time": 0.208151605,
        "traj_len": 1.6058219597923018,
        "weighted_distance": 2.0258476450876968
    },
    "planner": "BKPIECE",
    "start": {
        "state": {
            "elbow_joint": 1.971548259319323,
            "shoulder_lift_joint": -1.1394851275133948,
            "shoulder_pan_joint": 0.1228115487234821,
            "wrist_1_joint": -0.7804723859257726,
            "wrist_2_joint": 0.12958671773740124,
            "wrist_3_joint": -3.192489227718131
        }
    },
    "waypoints": [
        {
            "positions": [
                0.1228115487234821,
                -1.1394851275133948,
                1.971548259319323,
                -0.7804723859257726,
                0.12958671773740124,
                -3.192489227718131
            ]
        },
        {
            "positions": [
                0.05653400513947342,
                -1.173061129680246,
                2.0357869446352392,
                -0.8145696332469556,
                0.28615269664640863,
                -3.178864089793499
            ]
        },
        {
            "positions": [
                -0.009743538444535266,
                -1.206637131847097,
                2.1000256299511557,
                -0.8486668805681385,
                0.442718675555416,
                -3.1652389518688673
            ]
        },
        {
            "positions": [
                -0.07602108202854393,
                -1.2402131340139482,
                2.1642643152670717,
                -0.8827641278893216,
                0.5992846544644234,
                -3.1516138139442353
            ]
        },
        {
            "positions": [
                -0.14229862561255263,
                -1.2737891361807991,
                2.2285030005829882,
                -0.9168613752105046,
                0.7558506333734307,
                -3.137988676019604
            ]
        },
        {
            "positions": [
                -0.20857616919656136,
                -1.3073651383476503,
                2.2927416858989047,
                -0.9509586225316875,
                0.9124166122824382,
                -3.124363538094972
            ]
        },
        {
            "positions": [
                -0.27485371278056997,
                -1.3409411405145013,
                2.3569803712148207,
                -0.9850558698528705,
                1.0689825911914455,
                -3.11073840017034
            ]
        },
        {
            "positions": [
                -0.3411312563645787,
                -1.3745171426813525,
                2.421219056530737,
                -1.0191531171740535,
                1.225548570100453,
                -3.097113262245708
            ]
        }
    ]
}{
    "goal": {
        "global_pose": {
            "orientation": {
                "w": 0.5084816217422485,
                "x": -0.49083608388900757,
                "y": 0.5182115435600281,
                "z": -0.4816462993621826
            },
            "position": {
                "x": 0.5540239810943604,
                "y": 0.030875300988554955,
                "z": 0.16403168439865112
            }
        },
        "name": "move_to_storage_A"
    },
    "id": "BKPIECE_move_to_storage_A_106",
    "joint_names": [
        "shoulder_pan_joint",
        "shoulder_lift_joint",
        "elbow_joint",
        "wrist_1_joint",
        "wrist_2_joint",
        "wrist_3_joint"
    ],
    "metrics": {
        "cart_traj_len": 0.35361991695673106,
        "distance_elbow_joint": 0.452568415176716,
        "distance_shoulder_lift_joint": 0.2336288423016175,
        "distance_shoulder_pan_joint": 0.4634428159604262,
        "distance_wrist_1_joint": 0.2533600387411561,
        "distance_wrist_2_joint": 1.0954090843269673,
        "distance_wrist_3_joint": 0.09673329499449101,
        "smoothness": 1.2212453338657903e-15,
        "time": 0.34888877,
        "traj_len": 1.610944596037174,
        "weighted_distance": 2.0340546218227473
    },
    "planner": "BKPIECE",
    "start": {
        "state": {
            "elbow_joint": 1.97154746011099,
            "shoulder_lift_joint": -1.13948474672311,
            "shoulder_pan_joint": 0.12281154466712228,
            "wrist_1_joint": -0.7804688027058302,
            "wrist_2_joint": 0.12958655903071145,
            "wrist_3_joint": 3.0906928834467795
        }
    },
    "waypoints": [
        {
            "positions": [
                0.12281154466712228,
                -1.13948474672311,
                1.97154746011099,
                -0.7804688027058302,
                0.12958655903071145,
                3.0906928834467795
            ]
        },
        {
            "positions": [
                0.05660542810134711,
                -1.172860295623341,
                2.036200090850521,
                -0.8166630939545668,
                0.28607357107742104,
                3.1045119255888496
            ]
        },
        {
            "positions": [
                -0.009600688464428062,
                -1.2062358445235721,
                2.1008527215900514,
                -0.8528573852033033,
                0.4425605831241306,
                3.1183309677309197
            ]
        },
        {
            "positions": [
                -0.07580680503020322,
                -1.239611393423803,
                2.1655053523295824,
                -0.88905167645204,
                0.5990475951708403,
                3.1321500098729897
            ]
        },
        {
            "positions": [
                -0.1420129215959784,
                -1.2729869423240343,
                2.2301579830691134,
                -0.9252459677007765,
                0.7555346072175498,
                3.1459690520150603
            ]
        },
        {
            "positions": [
                -0.20821903816175358,
                -1.3063624912242653,
                2.2948106138086444,
                -0.9614402589495131,
                0.9120216192642595,
                3.1597880941571304
            ]
        },
        {
            "positions": [
                -0.2744251547275287,
                -1.3397380401244963,
                2.359463244548175,
                -0.9976345501982496,
                1.068508631310969,
                3.1736071362992004
            ]
        },
        {
            "positions": [
                -0.3406312712933039,
                -1.3731135890247275,
                2.424115875287706,
                -1.0338288414469863,
                1.2249956433576787,
                3.1874261784412705
            ]
        }
    ]
}{
    "goal": {
        "global_pose": {
            "orientation": {
                "w": 0.5084816217422485,
                "x": -0.49083608388900757,
                "y": 0.5182115435600281,
                "z": -0.4816462993621826
            },
            "position": {
                "x": 0.5540239810943604,
                "y": 0.030875300988554955,
                "z": 0.16403168439865112
            }
        },
        "name": "move_to_storage_A"
    },
    "id": "BKPIECE_move_to_storage_A_106",
    "joint_names": [
        "shoulder_pan_joint",
        "shoulder_lift_joint",
        "elbow_joint",
        "wrist_1_joint",
        "wrist_2_joint",
        "wrist_3_joint"
    ],
    "metrics": {
        "cart_traj_len": 0.3539196082030419,
        "distance_elbow_joint": 0.44901880677339845,
        "distance_shoulder_lift_joint": 0.23582981485142596,
        "distance_shoulder_pan_joint": 0.46482200034182436,
        "distance_wrist_1_joint": 0.23452616128500714,
        "distance_wrist_2_joint": 1.0924853243716175,
        "distance_wrist_3_joint": 0.09508845932521304,
        "smoothness": 4.440892098500626e-16,
        "time": 0.04105755,
        "traj_len": 1.603674083767798,
        "weighted_distance": 2.02211744744353
    },
    "planner": "BKPIECE",
    "start": {
        "state": {
            "elbow_joint": 1.9715472970024885,
            "shoulder_lift_joint": -1.1394870060712896,
            "shoulder_pan_joint": 0.12281152778156021,
            "wrist_1_joint": -0.780463741449964,
            "wrist_2_joint": 0.12958659822042276,
            "wrist_3_joint": 3.090690232415272
        }
    },
    "waypoints": [
        {
            "positions": [
                0.12281152778156021,
                -1.1394870060712896,
                1.9715472970024885,
                -0.780463741449964,
                0.12958659822042276,
                3.090690232415272
            ]
        },
        {
            "positions": [
                0.05640838487558532,
                -1.1731769796214933,
                2.03569284082726,
                -0.8139674787763936,
                0.285655930273511,
                3.1042742980331592
            ]
        },
        {
            "positions": [
                -0.009994758030389572,
                -1.2068669531716971,
                2.0998383846520308,
                -0.8474712161028232,
                0.44172526232659914,
                3.117858363651047
            ]
        },
        {
            "positions": [
                -0.07639790093636448,
                -1.2405569267219008,
                2.163983928476802,
                -0.8809749534292528,
                0.5977945943796874,
                3.1314424292689345
            ]
        },
        {
            "positions": [
                -0.14280104384233935,
                -1.2742469002721044,
                2.2281294723015734,
                -0.9144786907556823,
                0.7538639264327756,
                3.1450264948868223
            ]
        },
        {
            "positions": [
                -0.20920418674831429,
                -1.307936873822308,
                2.2922750161263448,
                -0.947982428082112,
                0.9099332584858638,
                3.1586105605047097
            ]
        },
        {
            "positions": [
                -0.27560732965428913,
                -1.341626847372512,
                2.3564205599511157,
                -0.9814861654085415,
                1.066002590538952,
                3.1721946261225975
            ]
        },
        {
            "positions": [
                -0.3420104725602641,
                -1.3753168209227156,
                2.420566103775887,
                -1.0149899027349711,
                1.2220719225920402,
                3.185778691740485
            ]
        }
    ]
}