{
    "goal": {
        "global_pose": {
            "orientation": {
                "w": -0.4816463035849501,
                "x": 0.5182115481033762,
                "y": 0.4908360881923453,
                "z": -0.5084816262002911
            },
            "position": {
                "x": -0.8240239810943604,
                "y": -0.300875300988555,
                "z": 0.16403168439865112
            }
        },
        "name": "move_to_storage_C"
    },
    "id": "BKPIECE_move_to_storage_C_51",
    "joint_names": [
        "shoulder_pan_joint",
        "shoulder_lift_joint",
        "elbow_joint",
        "wrist_1_joint",
        "wrist_2_joint",
        "wrist_3_joint"
    ],
    "metrics": {
        "cart_traj_len": 0.5771508872079407,
        "distance_elbow_joint": 0.25542997556662117,
        "distance_shoulder_lift_joint": 0.19040317629672632,
        "distance_shoulder_pan_joint": 0.49550983288633255,
        "distance_wrist_1_joint": 0.0636801438952328,
        "distance_wrist_2_joint": 1.0629178168726803,
        "distance_wrist_3_joint": 0.0735717797695088,
        "smoothness": 0.0,
        "time": 0.226134858,
        "traj_len": 1.4633908313526847,
        "weighted_distance": 1.848040650417093
    },
    "planner": "BKPIECE",
    "start": {
        "state": {
            "elbow_joint": 2.010868314990456,
            "shoulder_lift_joint": -1.1634956873337592,
            "shoulder_pan_joint": -2.4736205022346125,
            "wrist_1_joint": -0.8367026794202681,
            "wrist_2_joint": 0.6746043897044499,
            "wrist_3_joint": -3.1496632123970403
        }
    },
    "waypoints": [
        {
            "positions": [
                -2.4736205022346125,
                -1.1634956873337592,
                2.010868314990456,
                -0.8367026794202681,
                0.6746043897044499,
                -3.1496632123970403
            ]
        },
        {
            "positions": [
                -2.5562054743823346,
                -1.1317618246176382,
                1.968296652396019,
                -0.826089322104396,
                0.8517573591832299,
                -3.137401249102122
            ]
        },
        {
            "positions": [
                -2.6387904465300567,
                -1.100027961901517,
                1.925724989801582,
                -0.8154759647885238,
                1.02891032866201,
                -3.125139285807204
            ]
        },
        {
            "positions": [
                -2.7213754186777788,
                -1.068294099185396,
                1.8831533272071452,
                -0.8048626074726517,
                1.2060632981407902,
                -3.112877322512286
            ]
        },
        {
            "positions": [
                -2.803960390825501,
                -1.036560236469275,
                1.8405816646127084,
                -0.7942492501567796,
                1.38321626761957,
                -3.1006153592173678
            ]
        },
        {
            "positions": [
                -2.886545362973223,
                -1.004826373753154,
                1.7980100020182714,
                -0.7836358928409074,
                1.5603692370983502,
                -3.0883533959224496
            ]
        },
        {
            "positions": [
                -2.969130335120945,
                -0.9730925110370329,
                1.7554383394238346,
                -0.7730225355250353,
                1.73752220657713,
                -3.0760914326275315
            ]
        }
    ]
}