{
    "goal": {
        "global_pose": {
            "orientation": {
                "w": 0.7047431468963623,
                "x": -0.7094548344612122,
                "y": 0.0024358443915843964,
                "z": -0.0022348060738295317
            },
            "position": {
                "x": 0.6094750761985779,
                "y": 0.3671506643295288,
                "z": 0.19426114857196808
            }
        },
        "name": "move_to_magneteinheit_A"
    },
    "id": "BKPIECE_move_to_magneteinheit_A_143",
    "joint_names": [
        "shoulder_pan_joint",
        "shoulder_lift_joint",
        "elbow_joint",
        "wrist_1_joint",
        "wrist_2_joint",
        "wrist_3_joint"
    ],
    "metrics": {
        "cart_traj_len": 4.4521388738776775,
        "distance_elbow_joint": 3.8846892459698594,
        "distance_shoulder_lift_joint": 0.6957698546630711,
        "distance_shoulder_pan_joint": 3.654201489475441,
        "distance_wrist_1_joint": 0.8046453445255148,
        "distance_wrist_2_joint": 2.0915339763980323,
        "distance_wrist_3_joint": 2.605724734209797,
        "smoothness": 0.3283453366390703,
        "time": 0.146091085,
        "traj_len": 3.7062871779237123,
        "weighted_distance": 4.673777212767513
    },
    "planner": "BKPIECE",
    "start": {
        "state": {
            "elbow_joint": -1.9196185241190666,
            "shoulder_lift_joint": -1.2443396400964142,
            "shoulder_pan_joint": 2.6996025414629847,
            "wrist_1_joint": -1.5485510000780065,
            "wrist_2_joint": -1.5709468930060704,
            "wrist_3_joint": 0.4420197071253992
        }
    },
    "waypoints": [
        {
            "positions": [
                2.6996025414629847,
                -1.2443396400964142,
                -1.9196185241190666,
                -1.5485510000780065,
                -1.5709468930060704,
                0.4420197071253992
            ]
        },
        {
            "positions": [
                2.5921681167288138,
                -1.2304806535708168,
                -1.7959199553776681,
                -1.5300745103513254,
                -1.505523024284619,
                0.5059993841058159
            ]
        },
        {
            "positions": [
                2.484733691994643,
                -1.2166216670452195,
                -1.6722213866362694,
                -1.5115980206246442,
                -1.4400991555631675,
                0.5699790610862325
            ]
        },
        {
            "positions": [
                2.377299267260472,
                -1.2027626805196219,
                -1.5485228178948707,
                -1.4931215308979628,
                -1.3746752868417158,
                0.6339587380666492
            ]
        },
        {
            "positions": [
                2.2698648425263004,
                -1.1889036939940245,
                -1.4248242491534722,
                -1.4746450411712817,
                -1.3092514181202644,
                0.6979384150470659
            ]
        },
        {
            "positions": [
                2.1624304177921294,
                -1.1750447074684272,
                -1.3011256804120737,
                -1.4561685514446006,
                -1.243827549398813,
                0.7619180920274826
            ]
        },
        {
            "positions": [
                2.0549959930579584,
                -1.1611857209428298,
                -1.177427111670675,
                -1.4376920617179194,
                -1.1784036806773615,
                0.8258977690078992
            ]
        },
        {
            "positions": [
                1.9475615683237875,
                -1.1473267344172324,
                -1.0537285429292762,
                -1.4192155719912383,
                -1.1129798119559098,
                0.8898774459883159
            ]
        },
        {
            "positions": [
                1.8401271435896165,
                -1.1334677478916348,
                -0.9300299741878777,
                -1.400739082264557,
                -1.0475559432344586,
                0.9538571229687326
            ]
        },
        {
            "positions": [
                1.7326927188554455,
                -1.1196087613660375,
                -0.8063314054464792,
                -1.3822625925378758,
                -0.9821320745130069,
                1.0178367999491493
            ]
        },
        {
            "positions": [
                1.6252582941212743,
                -1.1057497748404401,
                -0.6826328367050805,
                -1.3637861028111946,
                -0.9167082057915553,
                1.081816476929566
            ]
        },
        {
            "positions": [
                1.5178238693871033,
                -1.0918907883148428,
                -0.558934267963682,
                -1.3453096130845135,
                -0.851284337070104,
                1.1457961539099826
            ]
        },
        {
            "positions": [
                1.4103894446529324,
                -1.0780318017892454,
                -0.4352356992222832,
                -1.326833123357832,
                -0.7858604683486524,
                1.2097758308903992
            ]
        },
        {
            "positions": [
                1.3029550199187612,
                -1.0641728152636478,
                -0.3115371304808847,
                -1.308356633631151,
                -0.7204365996272009,
                1.273755507870816
            ]
        },
        {
            "positions": [
                1.1955205951845902,
                -1.0503138287380505,
                -0.187838561739486,
                -1.2898801439044698,
                -0.6550127309057494,
                1.3377351848512327
            ]
        },
        {
            "positions": [
                1.088086170450419,
                -1.036454842212453,
                -0.06413999299808726,
                -1.2714036541777887,
                -0.5895888621842978,
                1.4017148618316493
            ]
        },
        {
            "positions": [
                0.9806517457162482,
                -1.0225958556868557,
                0.05955857574331125,
                -1.2529271644511075,
                -0.5241649934628465,
                1.4656945388120661
            ]
        },
        {
            "positions": [
                0.8732173209820773,
                -1.0087368691612584,
                0.18325714448470976,
                -1.2344506747244264,
                -0.45874112474139506,
                1.5296742157924825
            ]
        },
        {
            "positions": [
                0.7657828962479061,
                -0.9948778826356608,
                0.30695571322610826,
                -1.215974184997745,
                -0.3933172560199434,
                1.5936538927728994
            ]
        },
        {
            "positions": [
                0.6583484715137353,
                -0.9810188961100634,
                0.43065428196750677,
                -1.1974976952710639,
                -0.32789338729849193,
                1.6576335697533158
            ]
        },
        {
            "positions": [
                0.5509140467795639,
                -0.9671599095844661,
                0.5543528507089057,
                -1.1790212055443827,
                -0.26246951857704026,
                1.7216132467337326
            ]
        },
        {
            "positions": [
                0.44347962204539293,
                -0.9533009230588687,
                0.6780514194503042,
                -1.1605447158177016,
                -0.19704564985558903,
                1.7855929237141495
            ]
        },
        {
            "positions": [
                0.33604519731122195,
                -0.9394419365332712,
                0.8017499881917027,
                -1.1420682260910202,
                -0.13162178113413758,
                1.8495726006945659
            ]
        },
        {
            "positions": [
                0.22861077257705098,
                -0.9255829500076738,
                0.9254485569331017,
                -1.123591736364339,
                -0.06619791241268591,
                1.9135522776749827
            ]
        },
        {
            "positions": [
                0.12117634784288,
                -0.9117239634820764,
                1.0491471256745002,
                -1.105115246637658,
                -0.0007740436912344606,
                1.9775319546553995
            ]
        },
        {
            "positions": [
                0.013741923108709031,
                -0.897864976956479,
                1.1728456944158987,
                -1.0866387569109768,
                0.06464982503021699,
                2.041511631635816
            ]
        },
        {
            "positions": [
                -0.09369250162546239,
                -0.8840059904308816,
                1.2965442631572972,
                -1.0681622671842956,
                0.13007369375166866,
                2.105491308616233
            ]
        },
        {
            "positions": [
                -0.20112692635963336,
                -0.8701470039052842,
                1.4202428318986957,
                -1.0496857774576145,
                0.1954975624731199,
                2.169470985596649
            ]
        },
        {
            "positions": [
                -0.30856135109380434,
                -0.8562880173796867,
                1.5439414006400947,
                -1.0312092877309331,
                0.26092143119457156,
                2.233450662577066
            ]
        },
        {
            "positions": [
                -0.41599577582797514,
                -0.8424290308540894,
                1.6676399693814934,
                -1.012732798004252,
                0.32634529991602296,
                2.297430339557483
            ]
        },
        {
            "positions": [
                -0.32622858046389486,
                -0.8914055717575471,
                1.7172117614597102,
                -0.9679282742622919,
                0.2939716693366999,
                2.4224826898537684
            ]
        },
        {
            "positions": [
                -0.23646138509981457,
                -0.9403821126610048,
                1.766783553537927,
                -0.9231237505203319,
                0.2615980387573768,
                2.547535040150054
            ]
        },
        {
            "positions": [
                -0.14669418973573428,
                -0.9893586535644625,
                1.8163553456161439,
                -0.8783192267783718,
                0.22922440817805373,
                2.6725873904463393
            ]
        },
        {
            "positions": [
                -0.056926994371653994,
                -1.0383351944679202,
                1.8659271376943607,
                -0.8335147030364118,
                0.19685077759873065,
                2.797639740742625
            ]
        },
        {
            "positions": [
                0.032840200992426294,
                -1.087311735371378,
                1.9154989297725775,
                -0.7887101792944518,
                0.16447714701940758,
                2.9226920910389107
            ]
        },
        {
            "positions": [
                0.12260739635650654,
                -1.1362882762748356,
                1.9650707218507943,
                -0.7439056555524917,
                0.1321035164400845,
                3.047744441335196
            ]
        }
    ]
}