{
    "goal": {
        "global_pose": {
            "orientation": {
                "w": 0.7031023502349854,
                "x": -0.7110244035720825,
                "y": 0.007748599164187908,
                "z": 0.005598929710686207
            },
            "position": {
                "x": 0.11585023208521307,
                "y": 0.44412534475326537,
                "z": 0.3711530566215515
            }
        },
        "name": "move_to_auspresseinheit_A"
    },
    "id": "BKPIECE_move_to_auspresseinheit_A_22",
    "joint_names": [
        "shoulder_pan_joint",
        "shoulder_lift_joint",
        "elbow_joint",
        "wrist_1_joint",
        "wrist_2_joint",
        "wrist_3_joint"
    ],
    "metrics": {
        "cart_traj_len": 0.7737306178279583,
        "distance_elbow_joint": 0.447665273391725,
        "distance_shoulder_lift_joint": 0.7129283652662461,
        "distance_shoulder_pan_joint": 1.0488788763859884,
        "distance_wrist_1_joint": 1.9324208181644944,
        "distance_wrist_2_joint": 1.0005687442306144,
        "distance_wrist_3_joint": 1.5244174578901077,
        "smoothness": 1.1283476672513093,
        "time": 0.326919738,
        "traj_len": 2.5820301189818013,
        "weighted_distance": 3.556501653803144
    },
    "planner": "BKPIECE",
    "start": {
        "state": {
            "elbow_joint": 2.4225746658250005,
            "shoulder_lift_joint": -1.3736534386056498,
            "shoulder_pan_joint": -0.3378633547517467,
            "wrist_1_joint": -1.0288598680537169,
            "wrist_2_joint": 1.233022673432363,
            "wrist_3_joint": -3.0940220416140027
        }
    },
    "waypoints": [
        {
            "positions": [
                -0.3378633547517467,
                -1.3736534386056498,
                2.4225746658250005,
                -1.0288598680537169,
                1.233022673432363,
                -3.0940220416140027
            ]
        },
        {
            "positions": [
                -0.2636301820205684,
                -1.4359899844884558,
                2.398699660566786,
                -0.904263061911644,
                1.257423139099173,
                -3.0193585053859007
            ]
        },
        {
            "positions": [
                -0.18939700928939018,
                -1.4983265303712616,
                2.3748246553085712,
                -0.779666255769571,
                1.2818236047659832,
                -2.9446949691577986
            ]
        },
        {
            "positions": [
                -0.11516383655821194,
                -1.5606630762540674,
                2.350949650050357,
                -0.6550694496274982,
                1.3062240704327932,
                -2.8700314329296965
            ]
        },
        {
            "positions": [
                -0.04093066382703364,
                -1.6229996221368734,
                2.3270746447921424,
                -0.5304726434854252,
                1.3306245360996032,
                -2.7953678967015945
            ]
        },
        {
            "positions": [
                0.0333025089041446,
                -1.6853361680196794,
                2.303199639533928,
                -0.4058758373433524,
                1.3550250017664132,
                -2.7207043604734924
            ]
        },
        {
            "positions": [
                0.10753568163532284,
                -1.7476727139024852,
                2.279324634275713,
                -0.2812790312012795,
                1.3794254674332234,
                -2.6460408242453903
            ]
        },
        {
            "positions": [
                0.1817688543665011,
                -1.810009259785291,
                2.2554496290174986,
                -0.1566822250592067,
                1.4038259331000333,
                -2.5713772880172883
            ]
        },
        {
            "positions": [
                0.25600202709767944,
                -1.872345805668097,
                2.2315746237592844,
                -0.03208541891713368,
                1.4282263987668435,
                -2.496713751789186
            ]
        },
        {
            "positions": [
                0.3302351998288577,
                -1.934682351550903,
                2.2076996185010698,
                0.09251138722493923,
                1.4526268644336535,
                -2.422050215561084
            ]
        },
        {
            "positions": [
                0.404468372560036,
                -1.9970188974337089,
                2.183824613242855,
                0.21710819336701204,
                1.4770273301004635,
                -2.347386679332982
            ]
        },
        {
            "positions": [
                0.44278676619431173,
                -1.9858235341289354,
                2.2099390158440526,
                0.1313015987740414,
                1.3824568191551492,
                -2.444609441284118
            ]
        },
        {
            "positions": [
                0.4811051598285875,
                -1.974628170824162,
                2.23605341844525,
                0.045495004181070775,
                1.287886308209835,
                -2.541832203235254
            ]
        },
        {
            "positions": [
                0.5194235534628633,
                -1.9634328075193888,
                2.2621678210464475,
                -0.040311590411899856,
                1.1933157972645208,
                -2.6390549651863897
            ]
        },
        {
            "positions": [
                0.557741947097139,
                -1.9522374442146153,
                2.288282223647645,
                -0.1261181850048705,
                1.0987452863192064,
                -2.7362777271375256
            ]
        },
        {
            "positions": [
                0.5960603407314147,
                -1.9410420809098419,
                2.3143966262488425,
                -0.21192477959784112,
                1.004174775373892,
                -2.8335004890886615
            ]
        },
        {
            "positions": [
                0.6343787343656905,
                -1.9298467176050687,
                2.34051102885004,
                -0.29773137419081175,
                0.909604264428578,
                -2.9307232510397974
            ]
        },
        {
            "positions": [
                0.6726971279999663,
                -1.9186513543002952,
                2.3666254314512374,
                -0.3835379687837823,
                0.8150337534832637,
                -3.0279460129909332
            ]
        },
        {
            "positions": [
                0.711015521634242,
                -1.9074559909955218,
                2.392739834052435,
                -0.469344563376753,
                0.7204632425379495,
                -3.125168774942069
            ]
        }
    ]
}