{
    "goal": {
        "global_pose": {
            "orientation": {
                "w": -0.4816463035849501,
                "x": 0.5182115481033762,
                "y": 0.4908360881923453,
                "z": -0.5084816262002911
            },
            "position": {
                "x": -0.8240239810943604,
                "y": -0.300875300988555,
                "z": 0.16403168439865112
            }
        },
        "name": "move_to_storage_C"
    },
    "id": "BKPIECE_move_to_storage_C_99",
    "joint_names": [
        "shoulder_pan_joint",
        "shoulder_lift_joint",
        "elbow_joint",
        "wrist_1_joint",
        "wrist_2_joint",
        "wrist_3_joint"
    ],
    "metrics": {
        "cart_traj_len": 0.5768265141261257,
        "distance_elbow_joint": 0.25844205137758225,
        "distance_shoulder_lift_joint": 0.1904694299282268,
        "distance_shoulder_pan_joint": 0.4954195355163704,
        "distance_wrist_1_joint": 0.07802287299765165,
        "distance_wrist_2_joint": 1.0612179085398719,
        "distance_wrist_3_joint": 0.07575459873706825,
        "smoothness": 2.5376526478085547e-16,
        "time": 0.18785362,
        "traj_len": 1.4694646634392985,
        "weighted_distance": 1.857438121744149
    },
    "planner": "BKPIECE",
    "start": {
        "state": {
            "elbow_joint": 2.010868314990456,
            "shoulder_lift_joint": -1.1634956873337592,
            "shoulder_pan_joint": -2.4736205022346125,
            "wrist_1_joint": -0.8367026794202681,
            "wrist_2_joint": 0.6746043897044499,
            "wrist_3_joint": -3.1496632123970403
        }
    },
    "waypoints": [
        {
            "positions": [
                -2.4736205022346125,
                -1.1634956873337592,
                2.010868314990456,
                -0.8367026794202681,
                0.6746043897044499,
                -3.1496632123970403
            ]
        },
        {
            "positions": [
                -2.556190424820674,
                -1.1317507823457214,
                1.9677946397608588,
                -0.8236988672539929,
                0.8514740411277619,
                -3.1370374459408623
            ]
        },
        {
            "positions": [
                -2.638760347406736,
                -1.1000058773576835,
                1.9247209645312617,
                -0.8106950550877176,
                1.0283436925510738,
                -3.1244116794846843
            ]
        },
        {
            "positions": [
                -2.721330269992798,
                -1.0682609723696457,
                1.8816472893016647,
                -0.7976912429214422,
                1.205213343974386,
                -3.1117859130285064
            ]
        },
        {
            "positions": [
                -2.8039001925788596,
                -1.036516067381608,
                1.8385736140720677,
                -0.784687430755167,
                1.3820829953976976,
                -3.099160146572328
            ]
        },
        {
            "positions": [
                -2.8864701151649212,
                -1.0047711623935702,
                1.7954999388424706,
                -0.7716836185888918,
                1.5589526468210098,
                -3.08653438011615
            ]
        },
        {
            "positions": [
                -2.969040037750983,
                -0.9730262574055324,
                1.7524262636128736,
                -0.7586798064226165,
                1.7358222982443219,
                -3.073908613659972
            ]
        }
    ]
}