{
    "goal": {
        "global_pose": {
            "orientation": {
                "w": 0.005598929693374612,
                "x": 0.007748599140229565,
                "y": 0.7110244013736278,
                "z": -0.7031023480610252
            },
            "position": {
                "x": 0.1141497679147869,
                "y": -0.7141253447532654,
                "z": 0.3711530566215515
            }
        },
        "name": "move_to_auspresseinheit_B"
    },
    "id": "BKPIECE_move_to_auspresseinheit_B_106",
    "joint_names": [
        "shoulder_pan_joint",
        "shoulder_lift_joint",
        "elbow_joint",
        "wrist_1_joint",
        "wrist_2_joint",
        "wrist_3_joint"
    ],
    "metrics": {
        "cart_traj_len": 0.564361176881797,
        "distance_elbow_joint": 0.06423805164717478,
        "distance_shoulder_lift_joint": 0.2954194001999215,
        "distance_shoulder_pan_joint": 0.5781526945002764,
        "distance_wrist_1_joint": 0.3367291175878172,
        "distance_wrist_2_joint": 0.9861389033334123,
        "distance_wrist_3_joint": 0.0005285463552668901,
        "smoothness": 7.612957903237841e-16,
        "time": 0.334240044,
        "traj_len": 1.5037309312586042,
        "weighted_distance": 1.8934444346892338
    },
    "planner": "BKPIECE",
    "start": {
        "state": {
            "elbow_joint": 2.0193083361928714,
            "shoulder_lift_joint": -1.1220246554650708,
            "shoulder_pan_joint": -1.0952077554168747,
            "wrist_1_joint": -0.8559753972642168,
            "wrist_2_joint": 0.4759566250798843,
            "wrist_3_joint": -3.1240929996934557
        }
    },
    "waypoints": [
        {
            "positions": [
                -1.0952077554168747,
                -1.1220246554650708,
                2.0193083361928714,
                -0.8559753972642168,
                0.4759566250798843,
                -3.1240929996934557
            ]
        },
        {
            "positions": [
                -1.1915665378335873,
                -1.1712612221650578,
                2.0086019942516757,
                -0.7998538776662473,
                0.6403131089687863,
                -3.124181090752667
            ]
        },
        {
            "positions": [
                -1.2879253202503,
                -1.2204977888650446,
                1.9978956523104798,
                -0.7437323580682778,
                0.8046695928576884,
                -3.124269181811878
            ]
        },
        {
            "positions": [
                -1.3842841026670127,
                -1.2697343555650316,
                1.987189310369284,
                -0.6876108384703081,
                0.9690260767465904,
                -3.124357272871089
            ]
        },
        {
            "positions": [
                -1.4806428850837254,
                -1.3189709222650186,
                1.9764829684280882,
                -0.6314893188723387,
                1.1333825606354924,
                -3.1244453639303003
            ]
        },
        {
            "positions": [
                -1.5770016675004384,
                -1.3682074889650053,
                1.9657766264868926,
                -0.5753677992743691,
                1.2977390445243946,
                -3.1245334549895114
            ]
        },
        {
            "positions": [
                -1.673360449917151,
                -1.4174440556649923,
                1.9550702845456966,
                -0.5192462796763996,
                1.4620955284132966,
                -3.1246215460487226
            ]
        }
    ]
}