{
    "goal": {
        "global_pose": {
            "orientation": {
                "w": 0.5084816217422485,
                "x": -0.49083608388900757,
                "y": 0.5182115435600281,
                "z": -0.4816462993621826
            },
            "position": {
                "x": 0.5540239810943604,
                "y": 0.030875300988554955,
                "z": 0.16403168439865112
            }
        },
        "name": "move_to_storage_A"
    },
    "id": "BKPIECE_move_to_storage_A_139",
    "joint_names": [
        "shoulder_pan_joint",
        "shoulder_lift_joint",
        "elbow_joint",
        "wrist_1_joint",
        "wrist_2_joint",
        "wrist_3_joint"
    ],
    "metrics": {
        "cart_traj_len": 0.352588733996867,
        "distance_elbow_joint": 0.4471602079054826,
        "distance_shoulder_lift_joint": 0.23425182188694715,
        "distance_shoulder_pan_joint": 0.4604969212258388,
        "distance_wrist_1_joint": 0.23624483275735864,
        "distance_wrist_2_joint": 1.0994710028847647,
        "distance_wrist_3_joint": 0.0880226127988406,
        "smoothness": 6.661338165333112e-16,
        "time": 0.09844902,
        "traj_len": 1.6017638401022893,
        "weighted_distance": 2.0192593842047724
    },
    "planner": "BKPIECE",
    "start": {
        "state": {
            "elbow_joint": 1.971548259319323,
            "shoulder_lift_joint": -1.1394851275133948,
            "shoulder_pan_joint": 0.1228115487234821,
            "wrist_1_joint": -0.7804723859257726,
            "wrist_2_joint": 0.12958671773740124,
            "wrist_3_joint": -3.192489227718131
        }
    },
    "waypoints": [
        {
            "positions": [
                0.1228115487234821,
                -1.1394851275133948,
                1.971548259319323,
                -0.7804723859257726,
                0.12958671773740124,
                -3.192489227718131
            ]
        },
        {
            "positions": [
                0.05702627426264799,
                -1.1729496734972444,
                2.035428289020106,
                -0.8142216477482525,
                0.2866540038637962,
                -3.1799145687468684
            ]
        },
        {
            "positions": [
                -0.008759000198186123,
                -1.206414219481094,
                2.0993083187208894,
                -0.8479709095707322,
                0.4437212899901911,
                -3.167339909775605
            ]
        },
        {
            "positions": [
                -0.07454427465902022,
                -1.2398787654649437,
                2.1631883484216727,
                -0.881720171393212,
                0.6007885761165861,
                -3.1547652508043424
            ]
        },
        {
            "positions": [
                -0.14032954911985435,
                -1.273343311448793,
                2.227068378122456,
                -0.9154694332156919,
                0.7578558622429811,
                -3.1421905918330792
            ]
        },
        {
            "positions": [
                -0.2061148235806885,
                -1.3068078574326427,
                2.2909484078232394,
                -0.9492186950381716,
                0.914923148369376,
                -3.1296159328618165
            ]
        },
        {
            "positions": [
                -0.27190009804152254,
                -1.3402724034164923,
                2.3548284375240223,
                -0.9829679568606514,
                1.071990434495771,
                -3.1170412738905533
            ]
        },
        {
            "positions": [
                -0.3376853725023567,
                -1.373736949400342,
                2.4187084672248056,
                -1.0167172186831313,
                1.229057720622166,
                -3.1044666149192905
            ]
        }
    ]
}{
    "goal": {
        "global_pose": {
            "orientation": {
                "w": 0.5084816217422485,
                "x": -0.49083608388900757,
                "y": 0.5182115435600281,
                "z": -0.4816462993621826
            },
            "position": {
                "x": 0.5540239810943604,
                "y": 0.030875300988554955,
                "z": 0.16403168439865112
            }
        },
        "name": "move_to_storage_A"
    },
    "id": "BKPIECE_move_to_storage_A_139",
    "joint_names": [
        "shoulder_pan_joint",
        "shoulder_lift_joint",
        "elbow_joint",
        "wrist_1_joint",
        "wrist_2_joint",
        "wrist_3_joint"
    ],
    "metrics": {
        "cart_traj_len": 0.35297899285482615,
        "distance_elbow_joint": 0.45088641524039064,
        "distance_shoulder_lift_joint": 0.23547385816935407,
        "distance_shoulder_pan_joint": 0.46333650707480484,
        "distance_wrist_1_joint": 0.24721020362531632,
        "distance_wrist_2_joint": 1.0913951226251786,
        "distance_wrist_3_joint": 0.08929729816970466,
        "smoothness": 2.2204460668324854e-16,
        "time": 0.321266984,
        "traj_len": 1.6054903938998666,
        "weighted_distance": 2.0235610510915287
    },
    "planner": "BKPIECE",
    "start": {
        "state": {
            "elbow_joint": 1.97154746011099,
            "shoulder_lift_joint": -1.13948474672311,
            "shoulder_pan_joint": 0.12281154466712228,
            "wrist_1_joint": -0.7804688027058302,
            "wrist_2_joint": 0.12958655903071145,
            "wrist_3_joint": 3.0906928834467795
        }
    },
    "waypoints": [
        {
            "positions": [
                0.12281154466712228,
                -1.13948474672311,
                1.97154746011099,
                -0.7804688027058302,
                0.12958655903071145,
                3.0906928834467795
            ]
        },
        {
            "positions": [
                0.056620615085007306,
                -1.173123869318732,
                2.0359598051453314,
                -0.8157845460808754,
                0.2855001479771655,
                3.103449640328166
            ]
        },
        {
            "positions": [
                -0.009570314497107671,
                -1.2067629919143539,
                2.100372150179673,
                -0.8511002894559205,
                0.4414137369236196,
                3.1162063972095524
            ]
        },
        {
            "positions": [
                -0.07576124407922265,
                -1.240402114509976,
                2.1647844952140143,
                -0.8864160328309657,
                0.5973273258700736,
                3.128963154090939
            ]
        },
        {
            "positions": [
                -0.1419521736613376,
                -1.274041237105598,
                2.229196840248356,
                -0.9217317762060109,
                0.7532409148165278,
                3.141719910972325
            ]
        },
        {
            "positions": [
                -0.2081431032434526,
                -1.30768035970122,
                2.2936091852826976,
                -0.9570475195810562,
                0.9091545037629819,
                3.1544766678537113
            ]
        },
        {
            "positions": [
                -0.27433403282556756,
                -1.341319482296842,
                2.358021530317039,
                -0.9923632629561013,
                1.0650680927094358,
                3.1672334247350977
            ]
        },
        {
            "positions": [
                -0.34052496240768254,
                -1.374958604892464,
                2.4224338753513806,
                -1.0276790063311465,
                1.22098168165589,
                3.179990181616484
            ]
        }
    ]
}{
    "goal": {
        "global_pose": {
            "orientation": {
                "w": 0.5084816217422485,
                "x": -0.49083608388900757,
                "y": 0.5182115435600281,
                "z": -0.4816462993621826
            },
            "position": {
                "x": 0.5540239810943604,
                "y": 0.030875300988554955,
                "z": 0.16403168439865112
            }
        },
        "name": "move_to_storage_A"
    },
    "id": "BKPIECE_move_to_storage_A_139",
    "joint_names": [
        "shoulder_pan_joint",
        "shoulder_lift_joint",
        "elbow_joint",
        "wrist_1_joint",
        "wrist_2_joint",
        "wrist_3_joint"
    ],
    "metrics": {
        "cart_traj_len": 0.3523610616803966,
        "distance_elbow_joint": 0.4535143452316883,
        "distance_shoulder_lift_joint": 0.23409325000146608,
        "distance_shoulder_pan_joint": 0.46113062355643486,
        "distance_wrist_1_joint": 0.2577532396039792,
        "distance_wrist_2_joint": 1.0961341346689337,
        "distance_wrist_3_joint": 0.09388760972042842,
        "smoothness": 8.881784232165597e-16,
        "time": 0.20664481099999998,
        "traj_len": 1.6113699770018461,
        "weighted_distance": 2.0342506719912126
    },
    "planner": "BKPIECE",
    "start": {
        "state": {
            "elbow_joint": 1.9715472970024885,
            "shoulder_lift_joint": -1.1394870060712896,
            "shoulder_pan_joint": 0.12281152778156021,
            "wrist_1_joint": -0.780463741449964,
            "wrist_2_joint": 0.12958659822042276,
            "wrist_3_joint": 3.090690232415272
        }
    },
    "waypoints": [
        {
            "positions": [
                0.12281152778156021,
                -1.1394870060712896,
                1.9715472970024885,
                -0.780463741449964,
                0.12958659822042276,
                3.090690232415272
            ]
        },
        {
            "positions": [
                0.056935724416355235,
                -1.172928898928642,
                2.0363350606070156,
                -0.817285632821961,
                0.2861771888874133,
                3.104102748089619
            ]
        },
        {
            "positions": [
                -0.008940078948849739,
                -1.2063707917859943,
                2.1011228242115423,
                -0.8541075241939581,
                0.44276777955440383,
                3.117515263763966
            ]
        },
        {
            "positions": [
                -0.07481588231405473,
                -1.2398126846433466,
                2.1659105878160694,
                -0.8909294155659551,
                0.5993583702213944,
                3.130927779438313
            ]
        },
        {
            "positions": [
                -0.1406916856792597,
                -1.2732545775006987,
                2.230698351420596,
                -0.9277513069379522,
                0.7559489608883848,
                3.1443402951126593
            ]
        },
        {
            "positions": [
                -0.20656748904446467,
                -1.306696470358051,
                2.295486115025123,
                -0.9645731983099491,
                0.9125395515553754,
                3.1577528107870063
            ]
        },
        {
            "positions": [
                -0.2724432924096697,
                -1.3401383632154034,
                2.3602738786296498,
                -1.0013950896819461,
                1.069130142222366,
                3.1711653264613533
            ]
        },
        {
            "positions": [
                -0.3383190957748746,
                -1.3735802560727557,
                2.425061642234177,
                -1.0382169810539432,
                1.2257207328893565,
                3.1845778421357003
            ]
        }
    ]
}