{
    "goal": {
        "global_pose": {
            "orientation": {
                "w": 0.7031023480610252,
                "x": -0.7110244013736278,
                "y": 0.0077485991402295624,
                "z": 0.005598929693374583
            },
            "position": {
                "x": -0.8841497679147869,
                "y": 0.44412534475326537,
                "z": 0.3711530566215515
            }
        },
        "name": "move_to_auspresseinheit_D"
    },
    "id": "BKPIECE_move_to_auspresseinheit_D_32",
    "joint_names": [
        "shoulder_pan_joint",
        "shoulder_lift_joint",
        "elbow_joint",
        "wrist_1_joint",
        "wrist_2_joint",
        "wrist_3_joint"
    ],
    "metrics": {
        "cart_traj_len": 0.3439520392925107,
        "distance_elbow_joint": 0.6685493456039584,
        "distance_shoulder_lift_joint": 0.1387428891270397,
        "distance_shoulder_pan_joint": 0.13325697062846228,
        "distance_wrist_1_joint": 0.6292191613619003,
        "distance_wrist_2_joint": 1.437600390092434,
        "distance_wrist_3_joint": 0.09035893574841447,
        "smoothness": 0.0,
        "time": 0.277868644,
        "traj_len": 1.7600362759222348,
        "weighted_distance": 2.3119829401432384
    },
    "planner": "BKPIECE",
    "start": {
        "state": {
            "elbow_joint": -1.8275523626775212,
            "shoulder_lift_joint": -2.126789852344167,
            "shoulder_pan_joint": -0.03513704404078235,
            "wrist_1_joint": -2.347782403156801,
            "wrist_2_joint": -1.6058999987535132,
            "wrist_3_joint": -3.0880379163319196
        }
    },
    "waypoints": [
        {
            "positions": [
                -0.03513704404078235,
                -2.126789852344167,
                -1.8275523626775212,
                -2.347782403156801,
                -1.6058999987535132,
                -3.0880379163319196
            ]
        },
        {
            "positions": [
                -0.05179416536934013,
                -2.144132713485047,
                -1.7439836944770264,
                -2.4264347983270382,
                -1.4261999499919589,
                -3.0767430493633676
            ]
        },
        {
            "positions": [
                -0.06845128669789792,
                -2.1614755746259267,
                -1.6604150262765316,
                -2.505087193497276,
                -1.2464999012304048,
                -3.065448182394816
            ]
        },
        {
            "positions": [
                -0.0851084080264557,
                -2.178818435766807,
                -1.5768463580760368,
                -2.5837395886675134,
                -1.0667998524688505,
                -3.054153315426264
            ]
        },
        {
            "positions": [
                -0.10176552935501348,
                -2.196161296907687,
                -1.493277689875542,
                -2.662391983837751,
                -0.8870998037072962,
                -3.0428584484577126
            ]
        },
        {
            "positions": [
                -0.11842265068357127,
                -2.2135041580485666,
                -1.4097090216750472,
                -2.7410443790079886,
                -0.707399754945742,
                -3.0315635814891606
            ]
        },
        {
            "positions": [
                -0.13507977201212906,
                -2.2308470191894467,
                -1.3261403534745524,
                -2.819696774178226,
                -0.5276997061841877,
                -3.0202687145206086
            ]
        },
        {
            "positions": [
                -0.15173689334068685,
                -2.2481898803303264,
                -1.2425716852740576,
                -2.8983491693484638,
                -0.3479996574226336,
                -3.008973847552057
            ]
        },
        {
            "positions": [
                -0.16839401466924464,
                -2.2655327414712065,
                -1.1590030170735628,
                -2.977001564518701,
                -0.16829960866107935,
                -2.997678980583505
            ]
        }
    ]
}