{
    "goal": {
        "global_pose": {
            "orientation": {
                "w": 0.005598929693374612,
                "x": 0.007748599140229565,
                "y": 0.7110244013736278,
                "z": -0.7031023480610252
            },
            "position": {
                "x": -0.8858502320852131,
                "y": -0.7141253447532654,
                "z": 0.3711530566215515
            }
        },
        "name": "move_to_auspresseinheit_C"
    },
    "id": "BKPIECE_move_to_auspresseinheit_C_148",
    "joint_names": [
        "shoulder_pan_joint",
        "shoulder_lift_joint",
        "elbow_joint",
        "wrist_1_joint",
        "wrist_2_joint",
        "wrist_3_joint"
    ],
    "metrics": {
        "cart_traj_len": 0.4940307555426901,
        "distance_elbow_joint": 1.0051245417081283,
        "distance_shoulder_lift_joint": 0.3270349595530049,
        "distance_shoulder_pan_joint": 0.2575466554417183,
        "distance_wrist_1_joint": 0.6943468676625102,
        "distance_wrist_2_joint": 1.3027062289214042,
        "distance_wrist_3_joint": 0.06251787160602884,
        "smoothness": 1.2918958843737822e-15,
        "time": 0.414163209,
        "traj_len": 1.9103081230243446,
        "weighted_distance": 2.4023667423373904
    },
    "planner": "BKPIECE",
    "start": {
        "state": {
            "elbow_joint": 1.7527959577737207,
            "shoulder_lift_joint": -0.9740617694225068,
            "shoulder_pan_joint": -2.967991417825858,
            "wrist_1_joint": -0.759517768980727,
            "wrist_2_joint": 1.7443932448377408,
            "wrist_3_joint": -3.0840537646736568
        }
    },
    "waypoints": [
        {
            "positions": [
                -2.967991417825858,
                -0.9740617694225068,
                1.7527959577737207,
                -0.759517768980727,
                1.7443932448377408,
                -3.0840537646736568
            ]
        },
        {
            "positions": [
                -2.942236752281686,
                -0.9413582734672062,
                1.6522835036029078,
                -0.690083082214476,
                1.6141226219456004,
                -3.0903055518342595
            ]
        },
        {
            "positions": [
                -2.9164820867375143,
                -0.9086547775119058,
                1.5517710494320949,
                -0.6206483954482249,
                1.48385199905346,
                -3.0965573389948626
            ]
        },
        {
            "positions": [
                -2.8907274211933425,
                -0.8759512815566053,
                1.4512585952612822,
                -0.551213708681974,
                1.3535813761613196,
                -3.1028091261554653
            ]
        },
        {
            "positions": [
                -2.8649727556491706,
                -0.8432477856013048,
                1.3507461410904693,
                -0.4817790219157229,
                1.2233107532691792,
                -3.1090609133160685
            ]
        },
        {
            "positions": [
                -2.839218090104999,
                -0.8105442896460043,
                1.2502336869196564,
                -0.4123443351494719,
                1.0930401303770387,
                -3.115312700476671
            ]
        },
        {
            "positions": [
                -2.813463424560827,
                -0.7778407936907039,
                1.1497212327488437,
                -0.34290964838322086,
                0.9627695074848983,
                -3.121564487637274
            ]
        },
        {
            "positions": [
                -2.787708759016655,
                -0.7451372977354034,
                1.049208778578031,
                -0.2734749616169699,
                0.832498884592758,
                -3.127816274797877
            ]
        },
        {
            "positions": [
                -2.7619540934724833,
                -0.7124338017801028,
                0.948696324407218,
                -0.20404027485071885,
                0.7022282617006175,
                -3.1340680619584798
            ]
        },
        {
            "positions": [
                -2.7361994279283115,
                -0.6797303058248023,
                0.8481838702364052,
                -0.13460558808446776,
                0.571957638808477,
                -3.140319849119083
            ]
        },
        {
            "positions": [
                -2.7104447623841397,
                -0.6470268098695019,
                0.7476714160655924,
                -0.06517090131821679,
                0.4416870159163365,
                -3.1465716362796856
            ]
        }
    ]
}