{
    "goal": {
        "global_pose": {
            "orientation": {
                "w": 0.7031023480610252,
                "x": -0.7110244013736278,
                "y": 0.0077485991402295624,
                "z": 0.005598929693374583
            },
            "position": {
                "x": -0.8841497679147869,
                "y": 0.44412534475326537,
                "z": 0.3711530566215515
            }
        },
        "name": "move_to_auspresseinheit_D"
    },
    "id": "BKPIECE_move_to_auspresseinheit_D_42",
    "joint_names": [
        "shoulder_pan_joint",
        "shoulder_lift_joint",
        "elbow_joint",
        "wrist_1_joint",
        "wrist_2_joint",
        "wrist_3_joint"
    ],
    "metrics": {
        "cart_traj_len": 0.3437967970104279,
        "distance_elbow_joint": 0.647476254680762,
        "distance_shoulder_lift_joint": 0.12647082261761833,
        "distance_shoulder_pan_joint": 0.13430511157169225,
        "distance_wrist_1_joint": 0.5587117541654236,
        "distance_wrist_2_joint": 1.4364317130199344,
        "distance_wrist_3_joint": 0.02391304114698034,
        "smoothness": 9.868649123407766e-16,
        "time": 0.339552823,
        "traj_len": 1.7109379583147983,
        "weighted_distance": 2.2294120854345727
    },
    "planner": "BKPIECE",
    "start": {
        "state": {
            "elbow_joint": -1.8275523626775212,
            "shoulder_lift_joint": -2.126789852344167,
            "shoulder_pan_joint": -0.03513704404078235,
            "wrist_1_joint": -2.347782403156801,
            "wrist_2_joint": -1.6058999987535132,
            "wrist_3_joint": -3.0880379163319196
        }
    },
    "waypoints": [
        {
            "positions": [
                -0.03513704404078235,
                -2.126789852344167,
                -1.8275523626775212,
                -2.347782403156801,
                -1.6058999987535132,
                -3.0880379163319196
            ]
        },
        {
            "positions": [
                -0.051925182987243884,
                -2.1425987051713693,
                -1.746617830842426,
                -2.4176213724274787,
                -1.4263460346260213,
                -3.085048786188547
            ]
        },
        {
            "positions": [
                -0.06871332193370541,
                -2.1584075579985713,
                -1.6656832990073307,
                -2.487460341698157,
                -1.2467920704985296,
                -3.0820596560451747
            ]
        },
        {
            "positions": [
                -0.08550146088016694,
                -2.1742164108257738,
                -1.5847487671722353,
                -2.5572993109688347,
                -1.0672381063710379,
                -3.079070525901802
            ]
        },
        {
            "positions": [
                -0.10228959982662847,
                -2.1900252636529762,
                -1.5038142353371402,
                -2.627138280239513,
                -0.887684142243546,
                -3.0760813957584294
            ]
        },
        {
            "positions": [
                -0.11907773877309,
                -2.2058341164801782,
                -1.422879703502045,
                -2.6969772495101907,
                -0.7081301781160542,
                -3.073092265615057
            ]
        },
        {
            "positions": [
                -0.13586587771955155,
                -2.2216429693073807,
                -1.3419451716669497,
                -2.7668162187808685,
                -0.5285762139885624,
                -3.070103135471684
            ]
        },
        {
            "positions": [
                -0.15265401666601308,
                -2.2374518221345827,
                -1.2610106398318544,
                -2.8366551880515467,
                -0.34902224986107067,
                -3.0671140053283117
            ]
        },
        {
            "positions": [
                -0.1694421556124746,
                -2.253260674961785,
                -1.1800761079967592,
                -2.9064941573222245,
                -0.1694682857335788,
                -3.0641248751849393
            ]
        }
    ]
}