{
    "goal": {
        "global_pose": {
            "orientation": {
                "w": 0.005598929693374612,
                "x": 0.007748599140229565,
                "y": 0.7110244013736278,
                "z": -0.7031023480610252
            },
            "position": {
                "x": 0.1141497679147869,
                "y": -0.7141253447532654,
                "z": 0.3711530566215515
            }
        },
        "name": "move_to_auspresseinheit_B"
    },
    "id": "BKPIECE_move_to_auspresseinheit_B_86",
    "joint_names": [
        "shoulder_pan_joint",
        "shoulder_lift_joint",
        "elbow_joint",
        "wrist_1_joint",
        "wrist_2_joint",
        "wrist_3_joint"
    ],
    "metrics": {
        "cart_traj_len": 0.5653323724272186,
        "distance_elbow_joint": 0.06643218659400718,
        "distance_shoulder_lift_joint": 0.29428310007434066,
        "distance_shoulder_pan_joint": 0.5777949407068497,
        "distance_wrist_1_joint": 0.3390109198664486,
        "distance_wrist_2_joint": 0.9914759062244514,
        "distance_wrist_3_joint": 0.0020750496325967482,
        "smoothness": 0.0,
        "time": 0.340662026,
        "traj_len": 1.5070076652421827,
        "weighted_distance": 1.898870461209713
    },
    "planner": "BKPIECE",
    "start": {
        "state": {
            "elbow_joint": 2.0193083361928714,
            "shoulder_lift_joint": -1.1220246554650708,
            "shoulder_pan_joint": -1.0952077554168747,
            "wrist_1_joint": -0.8559753972642168,
            "wrist_2_joint": 0.4759566250798843,
            "wrist_3_joint": -3.1240929996934557
        }
    },
    "waypoints": [
        {
            "positions": [
                -1.0952077554168747,
                -1.1220246554650708,
                2.0193083361928714,
                -0.8559753972642168,
                0.4759566250798843,
                -3.1240929996934557
            ]
        },
        {
            "positions": [
                -1.1915069122013495,
                -1.1710718388107941,
                2.0082363050938703,
                -0.7994735772864754,
                0.6412026094506262,
                -3.123747158088023
            ]
        },
        {
            "positions": [
                -1.2878060689858246,
                -1.2201190221565177,
                1.997164273994869,
                -0.7429717573087339,
                0.8064485938213681,
                -3.1234013164825902
            ]
        },
        {
            "positions": [
                -1.3841052257702995,
                -1.2691662055022412,
                1.9860922428958678,
                -0.6864699373309925,
                0.97169457819211,
                -3.123055474877157
            ]
        },
        {
            "positions": [
                -1.4804043825547744,
                -1.3182133888479646,
                1.9750202117968667,
                -0.6299681173532511,
                1.136940562562852,
                -3.1227096332717243
            ]
        },
        {
            "positions": [
                -1.5767035393392494,
                -1.367260572193688,
                1.9639481806978654,
                -0.5734662973755096,
                1.3021865469335938,
                -3.1223637916662916
            ]
        },
        {
            "positions": [
                -1.6730026961237243,
                -1.4163077555394115,
                1.9528761495988642,
                -0.5169644773977682,
                1.4674325313043357,
                -3.122017950060859
            ]
        }
    ]
}