{
    "goal": {
        "global_pose": {
            "orientation": {
                "w": -0.4816463035849501,
                "x": 0.5182115481033762,
                "y": 0.4908360881923453,
                "z": -0.5084816262002911
            },
            "position": {
                "x": -0.8240239810943604,
                "y": 0.19912469901144506,
                "z": 0.16403168439865112
            }
        },
        "name": "move_to_storage_D"
    },
    "id": "BKPIECE_move_to_storage_D_87",
    "joint_names": [
        "shoulder_pan_joint",
        "shoulder_lift_joint",
        "elbow_joint",
        "wrist_1_joint",
        "wrist_2_joint",
        "wrist_3_joint"
    ],
    "metrics": {
        "cart_traj_len": 3.384501158748836,
        "distance_elbow_joint": 4.230648298425809,
        "distance_shoulder_lift_joint": 1.3084342642248588,
        "distance_shoulder_pan_joint": 2.8120703903424724,
        "distance_wrist_1_joint": 2.265393698635294,
        "distance_wrist_2_joint": 2.062404915831677,
        "distance_wrist_3_joint": 3.135967907314467,
        "smoothness": 0.12390563412597325,
        "time": 0.250660666,
        "traj_len": 3.9767976406619656,
        "weighted_distance": 5.139518839723276
    },
    "planner": "BKPIECE",
    "start": {
        "state": {
            "elbow_joint": -2.384821988534728,
            "shoulder_lift_joint": -2.2788054721415256,
            "shoulder_pan_joint": -0.1854694642142757,
            "wrist_1_joint": 1.4845938289331202,
            "wrist_2_joint": 0.17898776772866878,
            "wrist_3_joint": 0.037105688729662994
        }
    },
    "waypoints": [
        {
            "positions": [
                -0.1854694642142757,
                -2.2788054721415256,
                -2.384821988534728,
                1.4845938289331202,
                0.17898776772866878,
                0.037105688729662994
            ]
        },
        {
            "positions": [
                -0.04010412347233777,
                -2.275559470525181,
                -2.389894634224924,
                1.4678393209570277,
                0.24248378569689621,
                0.0297001457578132
            ]
        },
        {
            "positions": [
                0.10526121726960017,
                -2.2723134689088367,
                -2.3949672799151207,
                1.4510848129809353,
                0.3059798036651237,
                0.022294602785963402
            ]
        },
        {
            "positions": [
                0.1924014165263317,
                -2.2211342239923817,
                -2.2777055736301928,
                1.4226735958924142,
                0.28210063937609,
                -0.056270086754218365
            ]
        },
        {
            "positions": [
                0.27954161578306325,
                -2.1699549790759267,
                -2.160443867345265,
                1.394262378803893,
                0.2582214750870563,
                -0.13483477629440013
            ]
        },
        {
            "positions": [
                0.3666818150397948,
                -2.1187757341594717,
                -2.043182161060337,
                1.365851161715372,
                0.23434231079802256,
                -0.2133994658345819
            ]
        },
        {
            "positions": [
                0.45382201429652635,
                -2.0675964892430168,
                -1.9259204547754087,
                1.3374399446268508,
                0.21046314650898884,
                -0.29196415537476367
            ]
        },
        {
            "positions": [
                0.5409622135532579,
                -2.0164172443265613,
                -1.8086587484904808,
                1.3090287275383297,
                0.18658398221995515,
                -0.3705288449149455
            ]
        },
        {
            "positions": [
                0.6281024128099894,
                -1.9652379994101064,
                -1.6913970422055529,
                1.2806175104498085,
                0.16270481793092145,
                -0.4490935344551272
            ]
        },
        {
            "positions": [
                0.715242612066721,
                -1.9140587544936514,
                -1.5741353359206247,
                1.2522062933612874,
                0.13882565364188773,
                -0.527658223995309
            ]
        },
        {
            "positions": [
                0.8023828113234525,
                -1.8628795095771964,
                -1.4568736296356968,
                1.2237950762727663,
                0.11494648935285404,
                -0.6062229135354907
            ]
        },
        {
            "positions": [
                0.889523010580184,
                -1.8117002646607414,
                -1.339611923350769,
                1.1953838591842452,
                0.09106732506382034,
                -0.6847876030756725
            ]
        },
        {
            "positions": [
                0.9766632098369157,
                -1.7605210197442864,
                -1.222350217065841,
                1.166972642095724,
                0.06718816077478662,
                -0.7633522926158544
            ]
        },
        {
            "positions": [
                1.0638034090936472,
                -1.7093417748278315,
                -1.105088510780913,
                1.138561425007203,
                0.043308996485752926,
                -0.841916982156036
            ]
        },
        {
            "positions": [
                1.1509436083503786,
                -1.6581625299113762,
                -0.987826804495985,
                1.1101502079186818,
                0.019429832196719232,
                -0.9204816716962178
            ]
        },
        {
            "positions": [
                1.2380838076071103,
                -1.6069832849949213,
                -0.8705650982110571,
                1.0817389908301607,
                -0.004449332092314462,
                -0.9990463612363996
            ]
        },
        {
            "positions": [
                1.325224006863842,
                -1.555804040078466,
                -0.7533033919261289,
                1.0533277737416396,
                -0.02832849638134821,
                -1.0776110507765815
            ]
        },
        {
            "positions": [
                1.4123642061205732,
                -1.504624795162011,
                -0.6360416856412012,
                1.0249165566531184,
                -0.05220766067038185,
                -1.1561757403167632
            ]
        },
        {
            "positions": [
                1.4995044053773048,
                -1.453445550245556,
                -0.5187799793562731,
                0.9965053395645973,
                -0.0760868249594156,
                -1.2347404298569449
            ]
        },
        {
            "positions": [
                1.5866446046340366,
                -1.4022663053291011,
                -0.40151827307134513,
                0.9680941224760762,
                -0.0999659892484493,
                -1.3133051193971268
            ]
        },
        {
            "positions": [
                1.673784803890768,
                -1.3510870604126461,
                -0.2842565667864174,
                0.9396829053875552,
                -0.12384515353748299,
                -1.3918698089373085
            ]
        },
        {
            "positions": [
                1.7609250031474994,
                -1.2999078154961912,
                -0.16699486050148904,
                0.911271688299034,
                -0.14772431782651668,
                -1.4704344984774902
            ]
        },
        {
            "positions": [
                1.8480652024042312,
                -1.248728570579736,
                -0.049733154216561104,
                0.8828604712105129,
                -0.17160348211555043,
                -1.5489991880176721
            ]
        },
        {
            "positions": [
                1.9352054016609626,
                -1.197549325663281,
                0.06752855206836639,
                0.8544492541219918,
                -0.19548264640458413,
                -1.6275638775578536
            ]
        },
        {
            "positions": [
                2.0223456009176943,
                -1.146370080746826,
                0.18479025835329477,
                0.8260380370334707,
                -0.21936181069361782,
                -1.7061285670980355
            ]
        },
        {
            "positions": [
                2.1094858001744257,
                -1.0951908358303708,
                0.3020519646382227,
                0.7976268199449495,
                -0.24324097498265151,
                -1.7846932566382174
            ]
        },
        {
            "positions": [
                2.196625999431157,
                -1.0440115909139158,
                0.41931367092315064,
                0.7692156028564284,
                -0.2671201392716852,
                -1.863257946178399
            ]
        },
        {
            "positions": [
                2.2837661986878888,
                -0.992832345997461,
                0.5365753772080785,
                0.7408043857679073,
                -0.29099930356071885,
                -1.9418226357185808
            ]
        },
        {
            "positions": [
                2.3066218471839095,
                -0.9943297552028472,
                0.6225060672028927,
                0.6393641020699019,
                -0.20177038538276015,
                -2.018958607909662
            ]
        },
        {
            "positions": [
                2.32947749567993,
                -0.9958271644082335,
                0.7084367571977069,
                0.5379238183718964,
                -0.11254146720480149,
                -2.096094580100744
            ]
        },
        {
            "positions": [
                2.3523331441759505,
                -0.9973245736136197,
                0.7943674471925213,
                0.436483534673891,
                -0.023312549026842766,
                -2.1732305522918254
            ]
        },
        {
            "positions": [
                2.375188792671971,
                -0.998821982819006,
                0.8802981371873355,
                0.33504325097588555,
                0.06591636915111587,
                -2.250366524482907
            ]
        },
        {
            "positions": [
                2.3980444411679915,
                -1.0003193920243922,
                0.9662288271821498,
                0.2336029672778802,
                0.15514528732907457,
                -2.3275024966739886
            ]
        },
        {
            "positions": [
                2.420900089664012,
                -1.0018168012297786,
                1.052159517176964,
                0.1321626835798747,
                0.24437420550703332,
                -2.40463846886507
            ]
        },
        {
            "positions": [
                2.4437557381600326,
                -1.0033142104351647,
                1.1380902071717782,
                0.03072239988186931,
                0.33360312368499195,
                -2.4817744410561517
            ]
        },
        {
            "positions": [
                2.466611386656053,
                -1.004811619640551,
                1.2240208971665925,
                -0.0707178838161362,
                0.4228320418629506,
                -2.5589104132472333
            ]
        },
        {
            "positions": [
                2.4894670351520736,
                -1.0063090288459373,
                1.3099515871614067,
                -0.1721581675141416,
                0.5120609600409092,
                -2.636046385438315
            ]
        },
        {
            "positions": [
                2.512322683648094,
                -1.0078064380513236,
                1.395882277156221,
                -0.2735984512121469,
                0.601289878218868,
                -2.7131823576293965
            ]
        },
        {
            "positions": [
                2.5351783321441146,
                -1.0093038472567097,
                1.4818129671510352,
                -0.3750387349101524,
                0.6905187963968267,
                -2.790318329820478
            ]
        },
        {
            "positions": [
                2.558033980640135,
                -1.010801256462096,
                1.5677436571458494,
                -0.4764790186081579,
                0.7797477145747855,
                -2.8674543020115597
            ]
        },
        {
            "positions": [
                2.5808896291361556,
                -1.0122986656674824,
                1.6536743471406639,
                -0.5779193023061634,
                0.8689766327527442,
                -2.9445902742026413
            ]
        },
        {
            "positions": [
                2.603745277632176,
                -1.0137960748728685,
                1.7396050371354779,
                -0.6793595860041687,
                0.9582055509307028,
                -3.021726246393723
            ]
        },
        {
            "positions": [
                2.6266009261281966,
                -1.0152934840782548,
                1.8255357271302923,
                -0.7807998697021741,
                1.0474344691086614,
                -3.0988622185848045
            ]
        }
    ]
}