{
    "goal": {
        "global_pose": {
            "orientation": {
                "w": 0.7047431493862688,
                "x": -0.7094548369677653,
                "y": 0.0024358444001904,
                "z": -0.0022348060817251984
            },
            "position": {
                "x": -0.39052492380142206,
                "y": 0.3671506643295288,
                "z": 0.19426114857196808
            }
        },
        "name": "move_to_magneteinheit_D"
    },
    "id": "BKPIECE_move_to_magneteinheit_D_12",
    "joint_names": [
        "shoulder_pan_joint",
        "shoulder_lift_joint",
        "elbow_joint",
        "wrist_1_joint",
        "wrist_2_joint",
        "wrist_3_joint"
    ],
    "metrics": {
        "cart_traj_len": 5.215356453989246,
        "distance_elbow_joint": 3.623908865100414,
        "distance_shoulder_lift_joint": 1.8171759220402384,
        "distance_shoulder_pan_joint": 3.3010233876345234,
        "distance_wrist_1_joint": 2.0722017424581876,
        "distance_wrist_2_joint": 0.6570171347516434,
        "distance_wrist_3_joint": 3.8354550350194097,
        "smoothness": 0.5197246214263241,
        "time": 0.23789989499999997,
        "traj_len": 3.912388284284219,
        "weighted_distance": 5.07019832297052
    },
    "planner": "BKPIECE",
    "start": {
        "state": {
            "elbow_joint": 0.749534889911806,
            "shoulder_lift_joint": -0.6476975780787326,
            "shoulder_pan_joint": -2.711696901376241,
            "wrist_1_joint": -0.07506478083263063,
            "wrist_2_joint": 0.43296659715538205,
            "wrist_3_joint": -3.14703540197715
        }
    },
    "waypoints": [
        {
            "positions": [
                -2.711696901376241,
                -0.6476975780787326,
                0.749534889911806,
                -0.07506478083263063,
                0.43296659715538205,
                -3.14703540197715
            ]
        },
        {
            "positions": [
                -2.741850629473611,
                -0.6164025802546669,
                0.7131526210383415,
                -0.1382798185958357,
                0.4590721539232278,
                -3.0056197422665276
            ]
        },
        {
            "positions": [
                -2.772004357570981,
                -0.5851075824306011,
                0.6767703521648772,
                -0.20149485635904082,
                0.4851777106910736,
                -2.864204082555905
            ]
        },
        {
            "positions": [
                -2.802158085668351,
                -0.5538125846065354,
                0.6403880832914128,
                -0.26470989412224594,
                0.5112832674589194,
                -2.7227884228452828
            ]
        },
        {
            "positions": [
                -2.7718339804478838,
                -0.6296344436422688,
                0.5783662932024325,
                -0.28030119213660676,
                0.535383812368556,
                -2.5508082586603473
            ]
        },
        {
            "positions": [
                -2.7415098752274165,
                -0.7054563026780023,
                0.5163445031134523,
                -0.2958924901509675,
                0.5594843572781927,
                -2.378828094475412
            ]
        },
        {
            "positions": [
                -2.711185770006949,
                -0.7812781617137357,
                0.45432271302447197,
                -0.31148378816532835,
                0.5835849021878294,
                -2.2068479302904764
            ]
        },
        {
            "positions": [
                -2.6808616647864816,
                -0.8571000207494692,
                0.3923009229354917,
                -0.32707508617968917,
                0.6076854470974661,
                -2.034867766105541
            ]
        },
        {
            "positions": [
                -2.6505375595660143,
                -0.9329218797852026,
                0.3302791328465114,
                -0.34266638419404993,
                0.6317859920071027,
                -1.8628876019206053
            ]
        },
        {
            "positions": [
                -2.4531830086911595,
                -0.9777335878135596,
                0.31795082327046237,
                -0.3057749924444218,
                0.6161201486976254,
                -1.7780365158302254
            ]
        },
        {
            "positions": [
                -2.255828457816305,
                -1.0225452958419166,
                0.3056225136944134,
                -0.26888360069479367,
                0.6004543053881481,
                -1.6931854297398454
            ]
        },
        {
            "positions": [
                -2.05847390694145,
                -1.0673570038702738,
                0.2932942041183644,
                -0.23199220894516553,
                0.5847884620786709,
                -1.6083343436494655
            ]
        },
        {
            "positions": [
                -1.8611193560665955,
                -1.1121687118986308,
                0.2809658945423154,
                -0.1951008171955374,
                0.5691226187691936,
                -1.5234832575590855
            ]
        },
        {
            "positions": [
                -1.6637648051917409,
                -1.1569804199269877,
                0.2686375849662664,
                -0.15820942544590927,
                0.5534567754597162,
                -1.4386321714687056
            ]
        },
        {
            "positions": [
                -1.4664102543168862,
                -1.2017921279553447,
                0.2563092753902174,
                -0.12131803369628114,
                0.5377909321502389,
                -1.3537810853783259
            ]
        },
        {
            "positions": [
                -1.2690557034420313,
                -1.2466038359837017,
                0.2439809658141684,
                -0.084426641946653,
                0.5221250888407616,
                -1.2689299992879457
            ]
        },
        {
            "positions": [
                -1.0717011525671767,
                -1.2914155440120587,
                0.2316526562381194,
                -0.04753525019702487,
                0.5064592455312843,
                -1.184078913197566
            ]
        },
        {
            "positions": [
                -0.8743466016923218,
                -1.336227252040416,
                0.2193243466620704,
                -0.010643858447396737,
                0.490793402221807,
                -1.0992278271071858
            ]
        },
        {
            "positions": [
                -0.6769920508174672,
                -1.381038960068773,
                0.20699603708602138,
                0.026247533302231396,
                0.4751275589123297,
                -1.014376741016806
            ]
        },
        {
            "positions": [
                -0.4796374999426125,
                -1.42585066809713,
                0.1946677275099724,
                0.06313892505185953,
                0.4594617156028524,
                -0.9295256549264261
            ]
        },
        {
            "positions": [
                -0.2822829490677581,
                -1.4706623761254871,
                0.18233941793392341,
                0.10003031680148766,
                0.44379587229337514,
                -0.8446745688360462
            ]
        },
        {
            "positions": [
                -0.08492839819290277,
                -1.515474084153844,
                0.1700111083578744,
                0.1369217085511158,
                0.4281300289838978,
                -0.7598234827456662
            ]
        },
        {
            "positions": [
                0.11242615268195158,
                -1.560285792182201,
                0.1576827987818254,
                0.17381310030074393,
                0.4124641856744205,
                -0.6749723966552863
            ]
        },
        {
            "positions": [
                0.10231700358276397,
                -1.5921416565778317,
                -0.028368239716787202,
                0.2331351985224245,
                0.39735157357901324,
                -0.6049875019315564
            ]
        },
        {
            "positions": [
                0.09220785448357635,
                -1.6239975209734623,
                -0.2144192782153998,
                0.2924572967441051,
                0.3822389614836059,
                -0.5350026072078266
            ]
        },
        {
            "positions": [
                0.08209870538438872,
                -1.655853385369093,
                -0.4004703167140124,
                0.3517793949657857,
                0.36712634938819866,
                -0.4650177124840966
            ]
        },
        {
            "positions": [
                0.07198955628520111,
                -1.6877092497647237,
                -0.5865213552126249,
                0.41110149318746625,
                0.35201373729279134,
                -0.39503281776036675
            ]
        },
        {
            "positions": [
                0.061880407186013495,
                -1.7195651141603543,
                -0.7725723937112374,
                0.47042359140914686,
                0.3369011251973841,
                -0.3250479230366369
            ]
        },
        {
            "positions": [
                0.051771258086825866,
                -1.7514209785559849,
                -0.9586234322098501,
                0.5297456896308275,
                0.32178851310197676,
                -0.25506302831290695
            ]
        },
        {
            "positions": [
                0.04166210898763825,
                -1.7832768429516155,
                -1.1446744707084626,
                0.5890677878525081,
                0.3066759010065695,
                -0.18507813358917707
            ]
        },
        {
            "positions": [
                0.03155295988845064,
                -1.8151327073472463,
                -1.3307255092070753,
                0.6483898860741886,
                0.29156328891116223,
                -0.1150932388654472
            ]
        },
        {
            "positions": [
                0.021443810789263024,
                -1.846988571742877,
                -1.5167765477056878,
                0.7077119842958692,
                0.27645067681575497,
                -0.04510834414171727
            ]
        },
        {
            "positions": [
                0.01133466169007541,
                -1.8788444361385075,
                -1.7028275862043003,
                0.7670340825175498,
                0.26133806472034765,
                0.024876550582012547
            ]
        },
        {
            "positions": [
                0.001225512590887795,
                -1.910700300534138,
                -1.888878624702913,
                0.8263561807392303,
                0.2462254526249404,
                0.09486144530574248
            ]
        },
        {
            "positions": [
                -0.008883636508299847,
                -1.9425561649297687,
                -2.0749296632015257,
                0.885678278960911,
                0.23111284052953307,
                0.1648463400294724
            ]
        },
        {
            "positions": [
                -0.01899278560748746,
                -1.9744120293253995,
                -2.2609807017001384,
                0.9450003771825917,
                0.21600022843412578,
                0.23483123475320233
            ]
        },
        {
            "positions": [
                -0.029101934706675076,
                -2.00626789372103,
                -2.4470317401987507,
                1.004322475404272,
                0.20088761633871852,
                0.30481612947693215
            ]
        },
        {
            "positions": [
                -0.03921108380586269,
                -2.0381237581166607,
                -2.6330827786973634,
                1.0636445736259528,
                0.18577500424331123,
                0.3748010242006621
            ]
        },
        {
            "positions": [
                -0.07529626593193695,
                -2.0978686968811395,
                -2.572759979574552,
                1.1632168689451443,
                0.18272831620927837,
                0.2963963719902629
            ]
        },
        {
            "positions": [
                -0.11138144805801121,
                -2.1576136356456184,
                -2.512437180451741,
                1.2627891642643356,
                0.17968162817524552,
                0.2179917197798638
            ]
        },
        {
            "positions": [
                -0.14746663018408548,
                -2.2173585744100976,
                -2.4521143813289292,
                1.3623614595835272,
                0.17663494014121264,
                0.13958706756946468
            ]
        },
        {
            "positions": [
                -0.18355181231015974,
                -2.2771035131745765,
                -2.391791582206118,
                1.4619337549027187,
                0.1735882521071798,
                0.06118241535906557
            ]
        }
    ]
}