{
    "goal": {
        "global_pose": {
            "orientation": {
                "w": -0.00223480608172531,
                "x": 0.0024358444001904467,
                "y": 0.7094548369677653,
                "z": -0.704743149386269
            },
            "position": {
                "x": 0.6205249238014221,
                "y": -0.6371506643295288,
                "z": 0.19426114857196808
            }
        },
        "name": "move_to_magneteinheit_B"
    },
    "id": "BKPIECE_move_to_magneteinheit_B_85",
    "joint_names": [
        "shoulder_pan_joint",
        "shoulder_lift_joint",
        "elbow_joint",
        "wrist_1_joint",
        "wrist_2_joint",
        "wrist_3_joint"
    ],
    "metrics": {
        "cart_traj_len": 5.797115674222198,
        "distance_elbow_joint": 4.717981749713943,
        "distance_shoulder_lift_joint": 2.5821872243940445,
        "distance_shoulder_pan_joint": 2.572206642698803,
        "distance_wrist_1_joint": 1.1358921810168314,
        "distance_wrist_2_joint": 1.6865365021451098,
        "distance_wrist_3_joint": 0.8197940447596328,
        "smoothness": 0.913176299947171,
        "time": 0.283685476,
        "traj_len": 3.676220660505619,
        "weighted_distance": 4.239883856594372
    },
    "planner": "BKPIECE",
    "start": {
        "state": {
            "elbow_joint": 2.6216224122426386,
            "shoulder_lift_joint": -1.4174107377796124,
            "shoulder_pan_joint": 0.7066234856936794,
            "wrist_1_joint": 1.9546482284002225,
            "wrist_2_joint": -0.7096286983471962,
            "wrist_3_joint": 0.005740856962016249
        }
    },
    "waypoints": [
        {
            "positions": [
                0.7066234856936794,
                -1.4174107377796124,
                2.6216224122426386,
                1.9546482284002225,
                -0.7096286983471962,
                0.005740856962016249
            ]
        },
        {
            "positions": [
                0.6028437148869,
                -1.4141999943680863,
                2.5620919358660714,
                1.952281401029915,
                -0.6726247883243317,
                0.04186754656166172
            ]
        },
        {
            "positions": [
                0.49906394408012067,
                -1.4109892509565602,
                2.5025614594895043,
                1.9499145736596075,
                -0.6356208783014671,
                0.0779942361613072
            ]
        },
        {
            "positions": [
                0.5255017632092522,
                -1.4616162124246046,
                2.3513842512487995,
                1.986508229928348,
                -0.7248802368661809,
                0.054743528276002665
            ]
        },
        {
            "positions": [
                0.5519395823383838,
                -1.5122431738926487,
                2.2002070430080947,
                2.0231018861970886,
                -0.8141395954308945,
                0.03149282039069813
            ]
        },
        {
            "positions": [
                0.5783774014675154,
                -1.562870135360693,
                2.0490298347673894,
                2.059695542465829,
                -0.9033989539956083,
                0.008242112505393598
            ]
        },
        {
            "positions": [
                0.604815220596647,
                -1.6134970968287374,
                1.8978526265266846,
                2.0962891987345698,
                -0.9926583125603221,
                -0.015008595379910936
            ]
        },
        {
            "positions": [
                0.6312530397257786,
                -1.6641240582967818,
                1.7466754182859796,
                2.1328828550033103,
                -1.0819176711250358,
                -0.03825930326521547
            ]
        },
        {
            "positions": [
                0.6576908588549102,
                -1.714751019764826,
                1.5954982100452748,
                2.169476511272051,
                -1.1711770296897495,
                -0.06151001115052
            ]
        },
        {
            "positions": [
                0.6841286779840418,
                -1.7653779812328703,
                1.4443210018045698,
                2.2060701675407914,
                -1.2604363882544634,
                -0.08476071903582454
            ]
        },
        {
            "positions": [
                0.7105664971131733,
                -1.8160049427009144,
                1.293143793563865,
                2.242663823809532,
                -1.349695746819177,
                -0.10801142692112907
            ]
        },
        {
            "positions": [
                0.737004316242305,
                -1.8666319041689587,
                1.14196658532316,
                2.2792574800782726,
                -1.438955105383891,
                -0.13126213480643362
            ]
        },
        {
            "positions": [
                0.7634421353714366,
                -1.917258865637003,
                0.990789377082455,
                2.3158511363470136,
                -1.5282144639486046,
                -0.15451284269173815
            ]
        },
        {
            "positions": [
                0.7898799545005681,
                -1.9678858271050474,
                0.8396121688417499,
                2.352444792615754,
                -1.6174738225133183,
                -0.17776355057704268
            ]
        },
        {
            "positions": [
                0.8163177736296997,
                -2.0185127885730916,
                0.6884349606010454,
                2.3890384488844947,
                -1.706733181078032,
                -0.20101425846234722
            ]
        },
        {
            "positions": [
                0.8427555927588313,
                -2.0691397500411357,
                0.5372577523603403,
                2.4256321051532352,
                -1.7959925396427456,
                -0.22426496634765175
            ]
        },
        {
            "positions": [
                0.869193411887963,
                -2.1197667115091803,
                0.3860805441196353,
                2.462225761421976,
                -1.8852518982074598,
                -0.24751567423295628
            ]
        },
        {
            "positions": [
                0.8956312310170944,
                -2.1703936729772244,
                0.23490333587893053,
                2.4988194176907164,
                -1.9745112567721734,
                -0.2707663821182608
            ]
        },
        {
            "positions": [
                0.9220690501462261,
                -2.2210206344452685,
                0.08372612763822573,
                2.535413073959457,
                -2.063770615336887,
                -0.29401709000356535
            ]
        },
        {
            "positions": [
                0.9485068692753575,
                -2.271647595913313,
                -0.06745108060247951,
                2.5720067302281975,
                -2.153029973901601,
                -0.3172677978888699
            ]
        },
        {
            "positions": [
                0.9749446884044892,
                -2.3222745573813572,
                -0.21862828884318417,
                2.608600386496938,
                -2.2422893324663145,
                -0.3405185057741744
            ]
        },
        {
            "positions": [
                0.8568967911069345,
                -2.21824453043472,
                -0.10127009830392675,
                2.579070841907008,
                -2.241923068220406,
                -0.3199542605476206
            ]
        },
        {
            "positions": [
                0.7388488938093797,
                -2.114214503488083,
                0.01608809223533067,
                2.5495412973170772,
                -2.2415568039744977,
                -0.29939001532106685
            ]
        },
        {
            "positions": [
                0.6208009965118249,
                -2.0101844765414456,
                0.13344628277458806,
                2.520011752727147,
                -2.2411905397285894,
                -0.27882577009451304
            ]
        },
        {
            "positions": [
                0.5027530992142701,
                -1.9061544495948084,
                0.2508044733138455,
                2.4904822081372164,
                -2.240824275482681,
                -0.2582615248679592
            ]
        },
        {
            "positions": [
                0.3847052019167154,
                -1.8021244226481712,
                0.3681626638531029,
                2.4609526635472863,
                -2.2404580112367727,
                -0.23769727964140544
            ]
        },
        {
            "positions": [
                0.2666573046191606,
                -1.698094395701534,
                0.48552085439236026,
                2.4314231189573556,
                -2.2400917469908643,
                -0.21713303441485166
            ]
        },
        {
            "positions": [
                0.14860940732160577,
                -1.5940643687548968,
                0.6028790449316177,
                2.4018935743674255,
                -2.239725482744956,
                -0.19656878918829784
            ]
        },
        {
            "positions": [
                0.030561510024051053,
                -1.4900343418082596,
                0.7202372354708751,
                2.3723640297774953,
                -2.2393592184990476,
                -0.17600454396174406
            ]
        },
        {
            "positions": [
                -0.08748638727350366,
                -1.3860043148616223,
                0.8375954260101325,
                2.3428344851875647,
                -2.2389929542531397,
                -0.15544029873519027
            ]
        },
        {
            "positions": [
                -0.20553428457105838,
                -1.2819742879149851,
                0.95495361654939,
                2.3133049405976345,
                -2.2386266900072314,
                -0.13487605350863646
            ]
        },
        {
            "positions": [
                -0.3235821818686133,
                -1.177944260968348,
                1.0723118070886475,
                2.283775396007704,
                -2.238260425761323,
                -0.11431180828208268
            ]
        },
        {
            "positions": [
                -0.44163007916616803,
                -1.0739142340217107,
                1.1896699976279048,
                2.2542458514177737,
                -2.2378941615154146,
                -0.09374756305552889
            ]
        },
        {
            "positions": [
                -0.5596779764637227,
                -0.9698842070750735,
                1.3070281881671624,
                2.224716306827843,
                -2.2375278972695063,
                -0.07318331782897508
            ]
        },
        {
            "positions": [
                -0.6777258737612777,
                -0.8658541801284363,
                1.4243863787064197,
                2.195186762237913,
                -2.237161633023598,
                -0.05261907260242127
            ]
        },
        {
            "positions": [
                -0.7957737710588324,
                -0.7618241531817991,
                1.5417445692456773,
                2.1656572176479827,
                -2.2367953687776896,
                -0.03205482737586751
            ]
        },
        {
            "positions": [
                -0.9138216683563871,
                -0.6577941262351619,
                1.6591027597849346,
                2.136127673058052,
                -2.2364291045317812,
                -0.011490582149313725
            ]
        }
    ]
}