{
    "goal": {
        "global_pose": {
            "orientation": {
                "w": 0.005598929693374612,
                "x": 0.007748599140229565,
                "y": 0.7110244013736278,
                "z": -0.7031023480610252
            },
            "position": {
                "x": -0.8858502320852131,
                "y": -0.7141253447532654,
                "z": 0.3711530566215515
            }
        },
        "name": "move_to_auspresseinheit_C"
    },
    "id": "BKPIECE_move_to_auspresseinheit_C_146",
    "joint_names": [
        "shoulder_pan_joint",
        "shoulder_lift_joint",
        "elbow_joint",
        "wrist_1_joint",
        "wrist_2_joint",
        "wrist_3_joint"
    ],
    "metrics": {
        "cart_traj_len": 0.493525743590774,
        "distance_elbow_joint": 1.0041239390585792,
        "distance_shoulder_lift_joint": 0.3267491683624928,
        "distance_shoulder_pan_joint": 0.25638291134814795,
        "distance_wrist_1_joint": 0.6857379633441314,
        "distance_wrist_2_joint": 1.3130329403240268,
        "distance_wrist_3_joint": 0.054466247450062344,
        "smoothness": 3.2297397080004555e-16,
        "time": 0.34560352,
        "traj_len": 1.9080076440851699,
        "weighted_distance": 2.397539690694551
    },
    "planner": "BKPIECE",
    "start": {
        "state": {
            "elbow_joint": 1.7527959577737207,
            "shoulder_lift_joint": -0.9740617694225068,
            "shoulder_pan_joint": -2.967991417825858,
            "wrist_1_joint": -0.759517768980727,
            "wrist_2_joint": 1.7443932448377408,
            "wrist_3_joint": -3.0840537646736568
        }
    },
    "waypoints": [
        {
            "positions": [
                -2.967991417825858,
                -0.9740617694225068,
                1.7527959577737207,
                -0.759517768980727,
                1.7443932448377408,
                -3.0840537646736568
            ]
        },
        {
            "positions": [
                -2.942353126691043,
                -0.9413868525862575,
                1.6523835638678628,
                -0.6909439726463138,
                1.6130899508053382,
                -3.089500389418663
            ]
        },
        {
            "positions": [
                -2.9167148355562285,
                -0.9087119357500082,
                1.551971169962005,
                -0.6223701763119007,
                1.4817866567729354,
                -3.0949470141636692
            ]
        },
        {
            "positions": [
                -2.8910765444214137,
                -0.876037018913759,
                1.4515587760561468,
                -0.5537963799774875,
                1.3504833627405328,
                -3.1003936389086757
            ]
        },
        {
            "positions": [
                -2.865438253286599,
                -0.8433621020775096,
                1.351146382150289,
                -0.4852225836430744,
                1.21918006870813,
                -3.1058402636536817
            ]
        },
        {
            "positions": [
                -2.839799962151784,
                -0.8106871852412604,
                1.250733988244431,
                -0.4166487873086613,
                1.0878767746757274,
                -3.1112868883986877
            ]
        },
        {
            "positions": [
                -2.814161671016969,
                -0.7780122684050111,
                1.1503215943385732,
                -0.34807499097424816,
                0.9565734806433247,
                -3.116733513143694
            ]
        },
        {
            "positions": [
                -2.7885233798821543,
                -0.7453373515687618,
                1.0499092004327153,
                -0.279501194639835,
                0.8252701866109221,
                -3.1221801378887006
            ]
        },
        {
            "positions": [
                -2.7628850887473395,
                -0.7126624347325126,
                0.9494968065268572,
                -0.21092739830542184,
                0.6939668925785194,
                -3.1276267626337066
            ]
        },
        {
            "positions": [
                -2.7372467976125248,
                -0.6799875178962633,
                0.8490844126209993,
                -0.14235360197100866,
                0.5626635985461166,
                -3.1330733873787127
            ]
        },
        {
            "positions": [
                -2.71160850647771,
                -0.647312601060014,
                0.7486720187151416,
                -0.07377980563659556,
                0.4313603045137141,
                -3.138520012123719
            ]
        }
    ]
}