{
    "goal": {
        "global_pose": {
            "orientation": {
                "w": 0.5084816217422485,
                "x": -0.49083608388900757,
                "y": 0.5182115435600281,
                "z": -0.4816462993621826
            },
            "position": {
                "x": 0.5540239810943604,
                "y": 0.030875300988554955,
                "z": 0.16403168439865112
            }
        },
        "name": "move_to_storage_A"
    },
    "id": "BKPIECE_move_to_storage_A_77",
    "joint_names": [
        "shoulder_pan_joint",
        "shoulder_lift_joint",
        "elbow_joint",
        "wrist_1_joint",
        "wrist_2_joint",
        "wrist_3_joint"
    ],
    "metrics": {
        "cart_traj_len": 0.3535026075769334,
        "distance_elbow_joint": 0.45302466248110407,
        "distance_shoulder_lift_joint": 0.23490651167392218,
        "distance_shoulder_pan_joint": 0.46378383865901435,
        "distance_wrist_1_joint": 0.2545321330765641,
        "distance_wrist_2_joint": 1.093610736804763,
        "distance_wrist_3_joint": 0.09420098310366765,
        "smoothness": 0.0,
        "time": 0.244461152,
        "traj_len": 1.6106082285270478,
        "weighted_distance": 2.032388669001994
    },
    "planner": "BKPIECE",
    "start": {
        "state": {
            "elbow_joint": 1.971548259319323,
            "shoulder_lift_joint": -1.1394851275133948,
            "shoulder_pan_joint": 0.1228115487234821,
            "wrist_1_joint": -0.7804723859257726,
            "wrist_2_joint": 0.12958671773740124,
            "wrist_3_joint": -3.192489227718131
        }
    },
    "waypoints": [
        {
            "positions": [
                0.1228115487234821,
                -1.1394851275133948,
                1.971548259319323,
                -0.7804723859257726,
                0.12958671773740124,
                -3.192489227718131
            ]
        },
        {
            "positions": [
                0.0565567146293372,
                -1.1730432006096694,
                2.036266068245195,
                -0.8168341192224247,
                0.2858168229952245,
                -3.1790319444176074
            ]
        },
        {
            "positions": [
                -0.009698119464807697,
                -1.206601273705944,
                2.100983877171067,
                -0.8531958525190766,
                0.4420469282530478,
                -3.165574661117083
            ]
        },
        {
            "positions": [
                -0.0759529535589526,
                -1.2401593468022185,
                2.165701686096939,
                -0.8895575858157286,
                0.598277033510871,
                -3.1521173778165594
            ]
        },
        {
            "positions": [
                -0.1422077876530975,
                -1.2737174198984933,
                2.230419495022811,
                -0.9259193191123807,
                0.7545071387686944,
                -3.1386600945160352
            ]
        },
        {
            "positions": [
                -0.20846262174724245,
                -1.3072754929947679,
                2.295137303948683,
                -0.9622810524090326,
                0.9107372440265177,
                -3.1252028112155115
            ]
        },
        {
            "positions": [
                -0.2747174558413873,
                -1.3408335660910424,
                2.359855112874555,
                -0.9986427857056847,
                1.0669673492843408,
                -3.1117455279149873
            ]
        },
        {
            "positions": [
                -0.34097228993553225,
                -1.374391639187317,
                2.424572921800427,
                -1.0350045190023367,
                1.2231974545421642,
                -3.0982882446144635
            ]
        }
    ]
}{
    "goal": {
        "global_pose": {
            "orientation": {
                "w": 0.5084816217422485,
                "x": -0.49083608388900757,
                "y": 0.5182115435600281,
                "z": -0.4816462993621826
            },
            "position": {
                "x": 0.5540239810943604,
                "y": 0.030875300988554955,
                "z": 0.16403168439865112
            }
        },
        "name": "move_to_storage_A"
    },
    "id": "BKPIECE_move_to_storage_A_77",
    "joint_names": [
        "shoulder_pan_joint",
        "shoulder_lift_joint",
        "elbow_joint",
        "wrist_1_joint",
        "wrist_2_joint",
        "wrist_3_joint"
    ],
    "metrics": {
        "cart_traj_len": 0.352347604694582,
        "distance_elbow_joint": 0.44795200443057626,
        "distance_shoulder_lift_joint": 0.23417139327029313,
        "distance_shoulder_pan_joint": 0.46175597883586045,
        "distance_wrist_1_joint": 0.2353448136252172,
        "distance_wrist_2_joint": 1.0926834620025427,
        "distance_wrist_3_joint": 0.10133749934730885,
        "smoothness": 8.881784232165597e-16,
        "time": 0.143143968,
        "traj_len": 1.60413376983087,
        "weighted_distance": 2.025820432771418
    },
    "planner": "BKPIECE",
    "start": {
        "state": {
            "elbow_joint": 1.97154746011099,
            "shoulder_lift_joint": -1.13948474672311,
            "shoulder_pan_joint": 0.12281154466712228,
            "wrist_1_joint": -0.7804688027058302,
            "wrist_2_joint": 0.12958655903071145,
            "wrist_3_joint": 3.0906928834467795
        }
    },
    "waypoints": [
        {
            "positions": [
                0.12281154466712228,
                -1.13948474672311,
                1.97154746011099,
                -0.7804688027058302,
                0.12958655903071145,
                3.0906928834467795
            ]
        },
        {
            "positions": [
                0.05684640483342794,
                -1.1729378029045805,
                2.0355406036010724,
                -0.8140894903665755,
                0.28568419645964616,
                3.1051696690678234
            ]
        },
        {
            "positions": [
                -0.0091187350002664,
                -1.2063908590860508,
                2.0995337470911544,
                -0.8477101780273208,
                0.44178183388858083,
                3.119646454688868
            ]
        },
        {
            "positions": [
                -0.07508387483396074,
                -1.2398439152675214,
                2.163526890581237,
                -0.8813308656880661,
                0.5978794713175155,
                3.1341232403099117
            ]
        },
        {
            "positions": [
                -0.14104901466765507,
                -1.2732969714489917,
                2.2275200340713193,
                -0.9149515533488114,
                0.7539771087464502,
                3.148600025930956
            ]
        },
        {
            "positions": [
                -0.20701415450134947,
                -1.3067500276304622,
                2.2915131775614017,
                -0.9485722410095567,
                0.9100747461753849,
                3.163076811552
            ]
        },
        {
            "positions": [
                -0.27297929433504375,
                -1.3402030838119325,
                2.3555063210514837,
                -0.9821929286703021,
                1.0661723836043195,
                3.1775535971730444
            ]
        },
        {
            "positions": [
                -0.33894443416873815,
                -1.373656139993403,
                2.419499464541566,
                -1.0158136163310474,
                1.2222700210332542,
                3.1920303827940884
            ]
        }
    ]
}{
    "goal": {
        "global_pose": {
            "orientation": {
                "w": 0.5084816217422485,
                "x": -0.49083608388900757,
                "y": 0.5182115435600281,
                "z": -0.4816462993621826
            },
            "position": {
                "x": 0.5540239810943604,
                "y": 0.030875300988554955,
                "z": 0.16403168439865112
            }
        },
        "name": "move_to_storage_A"
    },
    "id": "BKPIECE_move_to_storage_A_77",
    "joint_names": [
        "shoulder_pan_joint",
        "shoulder_lift_joint",
        "elbow_joint",
        "wrist_1_joint",
        "wrist_2_joint",
        "wrist_3_joint"
    ],
    "metrics": {
        "cart_traj_len": 0.3532800759081537,
        "distance_elbow_joint": 0.4509522582866543,
        "distance_shoulder_lift_joint": 0.23692198487293203,
        "distance_shoulder_pan_joint": 0.4643363477346247,
        "distance_wrist_1_joint": 0.24051536613919122,
        "distance_wrist_2_joint": 1.0905488912439738,
        "distance_wrist_3_joint": 0.08699974505505592,
        "smoothness": 4.440892098500626e-16,
        "time": 0.152070395,
        "traj_len": 1.6032075952079416,
        "weighted_distance": 2.0187467252792533
    },
    "planner": "BKPIECE",
    "start": {
        "state": {
            "elbow_joint": 1.9715472970024885,
            "shoulder_lift_joint": -1.1394870060712896,
            "shoulder_pan_joint": 0.12281152778156021,
            "wrist_1_joint": -0.780463741449964,
            "wrist_2_joint": 0.12958659822042276,
            "wrist_3_joint": 3.090690232415272
        }
    },
    "waypoints": [
        {
            "positions": [
                0.12281152778156021,
                -1.1394870060712896,
                1.9715472970024885,
                -0.780463741449964,
                0.12958659822042276,
                3.090690232415272
            ]
        },
        {
            "positions": [
                0.05647776381947098,
                -1.1733330039102798,
                2.0359690481862964,
                -0.8148230794698484,
                0.2853792969695619,
                3.103118767423137
            ]
        },
        {
            "positions": [
                -0.009856000142618254,
                -1.2071790017492703,
                2.100390799370104,
                -0.8491824174897329,
                0.441171995718701,
                3.1155473024310023
            ]
        },
        {
            "positions": [
                -0.07618976410470749,
                -1.2410249995882605,
                2.1648125505539118,
                -0.8835417555096173,
                0.5969646944678401,
                3.1279758374388673
            ]
        },
        {
            "positions": [
                -0.14252352806679672,
                -1.2748709974272507,
                2.2292343017377196,
                -0.9179010935295018,
                0.7527573932169792,
                3.1404043724467323
            ]
        },
        {
            "positions": [
                -0.20885729202888595,
                -1.308716995266241,
                2.2936560529215275,
                -0.9522604315493863,
                0.9085500919661184,
                3.1528329074545973
            ]
        },
        {
            "positions": [
                -0.27519105599097515,
                -1.3425629931052314,
                2.358077804105335,
                -0.9866197695692708,
                1.0643427907152574,
                3.1652614424624628
            ]
        },
        {
            "positions": [
                -0.34152481995306444,
                -1.3764089909442216,
                2.422499555289143,
                -1.0209791075891552,
                1.2201354894643965,
                3.1776899774703278
            ]
        }
    ]
}