{
    "goal": {
        "global_pose": {
            "orientation": {
                "w": 0.7031023480610252,
                "x": -0.7110244013736278,
                "y": 0.0077485991402295624,
                "z": 0.005598929693374583
            },
            "position": {
                "x": -0.8841497679147869,
                "y": 0.44412534475326537,
                "z": 0.3711530566215515
            }
        },
        "name": "move_to_auspresseinheit_D"
    },
    "id": "BKPIECE_move_to_auspresseinheit_D_48",
    "joint_names": [
        "shoulder_pan_joint",
        "shoulder_lift_joint",
        "elbow_joint",
        "wrist_1_joint",
        "wrist_2_joint",
        "wrist_3_joint"
    ],
    "metrics": {
        "cart_traj_len": 0.34397980821725566,
        "distance_elbow_joint": 0.658985265986245,
        "distance_shoulder_lift_joint": 0.13327921394319153,
        "distance_shoulder_pan_joint": 0.13404075238735558,
        "distance_wrist_1_joint": 0.5980916821452094,
        "distance_wrist_2_joint": 1.4419691824838028,
        "distance_wrist_3_joint": 0.047849241707956125,
        "smoothness": 0.0,
        "time": 0.244322525,
        "traj_len": 1.7361495726618028,
        "weighted_distance": 2.2693555663885476
    },
    "planner": "BKPIECE",
    "start": {
        "state": {
            "elbow_joint": -1.8275523626775212,
            "shoulder_lift_joint": -2.126789852344167,
            "shoulder_pan_joint": -0.03513704404078235,
            "wrist_1_joint": -2.347782403156801,
            "wrist_2_joint": -1.6058999987535132,
            "wrist_3_joint": -3.0880379163319196
        }
    },
    "waypoints": [
        {
            "positions": [
                -0.03513704404078235,
                -2.126789852344167,
                -1.8275523626775212,
                -2.347782403156801,
                -1.6058999987535132,
                -3.0880379163319196
            ]
        },
        {
            "positions": [
                -0.051892138089201796,
                -2.1434497540870656,
                -1.7451792044292405,
                -2.422543863424952,
                -1.4256538509430379,
                -3.082056761118425
            ]
        },
        {
            "positions": [
                -0.06864723213762125,
                -2.160109655829965,
                -1.66280604618096,
                -2.4973053236931033,
                -1.2454077031325625,
                -3.0760756059049306
            ]
        },
        {
            "positions": [
                -0.08540232618604068,
                -2.1767695575728636,
                -1.5804328879326794,
                -2.5720667839612545,
                -1.0651615553220872,
                -3.0700944506914363
            ]
        },
        {
            "positions": [
                -0.10215742023446014,
                -2.1934294593157624,
                -1.4980597296843987,
                -2.6468282442294058,
                -0.8849154075116118,
                -3.0641132954779415
            ]
        },
        {
            "positions": [
                -0.11891251428287958,
                -2.2100893610586616,
                -1.415686571436118,
                -2.7215897044975565,
                -0.7046692597011365,
                -3.058132140264447
            ]
        },
        {
            "positions": [
                -0.13566760833129904,
                -2.2267492628015604,
                -1.3333134131878375,
                -2.7963511647657078,
                -0.524423111890661,
                -3.0521509850509525
            ]
        },
        {
            "positions": [
                -0.15242270237971847,
                -2.2434091645444596,
                -1.250940254939557,
                -2.871112625033859,
                -0.3441769640801857,
                -3.046169829837458
            ]
        },
        {
            "positions": [
                -0.16917779642813793,
                -2.2600690662873584,
                -1.1685670966912762,
                -2.9458740853020102,
                -0.16393081626971048,
                -3.0401886746239635
            ]
        }
    ]
}