{
    "goal": {
        "global_pose": {
            "orientation": {
                "w": 0.5084816217422485,
                "x": -0.49083608388900757,
                "y": 0.5182115435600281,
                "z": -0.4816462993621826
            },
            "position": {
                "x": 0.5540239810943604,
                "y": 0.030875300988554955,
                "z": 0.16403168439865112
            }
        },
        "name": "move_to_storage_A"
    },
    "id": "BKPIECE_move_to_storage_A_98",
    "joint_names": [
        "shoulder_pan_joint",
        "shoulder_lift_joint",
        "elbow_joint",
        "wrist_1_joint",
        "wrist_2_joint",
        "wrist_3_joint"
    ],
    "metrics": {
        "cart_traj_len": 0.3535525450124954,
        "distance_elbow_joint": 0.44858360915703854,
        "distance_shoulder_lift_joint": 0.23445737486534335,
        "distance_shoulder_pan_joint": 0.46233392859804084,
        "distance_wrist_1_joint": 0.23631446929120437,
        "distance_wrist_2_joint": 1.099597142251047,
        "distance_wrist_3_joint": 0.09170726633451087,
        "smoothness": 0.0,
        "time": 0.116293126,
        "traj_len": 1.6040554200205133,
        "weighted_distance": 2.0229483272462643
    },
    "planner": "BKPIECE",
    "start": {
        "state": {
            "elbow_joint": 1.971548259319323,
            "shoulder_lift_joint": -1.1394851275133948,
            "shoulder_pan_joint": 0.1228115487234821,
            "wrist_1_joint": -0.7804723859257726,
            "wrist_2_joint": 0.12958671773740124,
            "wrist_3_joint": -3.192489227718131
        }
    },
    "waypoints": [
        {
            "positions": [
                0.1228115487234821,
                -1.1394851275133948,
                1.971548259319323,
                -0.7804723859257726,
                0.12958671773740124,
                -3.192489227718131
            ]
        },
        {
            "positions": [
                0.05676384463804769,
                -1.172979038208444,
                2.0356316320560426,
                -0.8142315958245161,
                0.2866720237732651,
                -3.1793881896703438
            ]
        },
        {
            "positions": [
                -0.009283859447386716,
                -1.2064729489034929,
                2.0997150047927624,
                -0.8479908057232596,
                0.44375732980912896,
                -3.166287151622557
            ]
        },
        {
            "positions": [
                -0.07533156353282111,
                -1.239966859598542,
                2.1637983775294822,
                -0.8817500156220031,
                0.6008426358449929,
                -3.1531861135747694
            ]
        },
        {
            "positions": [
                -0.14137926761825553,
                -1.273460770293591,
                2.227881750266202,
                -0.9155092255207465,
                0.7579279418808568,
                -3.140085075526982
            ]
        },
        {
            "positions": [
                -0.20742697170368996,
                -1.30695468098864,
                2.291965123002922,
                -0.94926843541949,
                0.9150132479167207,
                -3.1269840374791946
            ]
        },
        {
            "positions": [
                -0.2734746757891243,
                -1.340448591683689,
                2.3560484957396417,
                -0.9830276453182335,
                1.0720985539525845,
                -3.1138829994314077
            ]
        },
        {
            "positions": [
                -0.33952237987455874,
                -1.3739425023787382,
                2.4201318684763615,
                -1.016786855216977,
                1.2291838599884484,
                -3.1007819613836203
            ]
        }
    ]
}{
    "goal": {
        "global_pose": {
            "orientation": {
                "w": 0.5084816217422485,
                "x": -0.49083608388900757,
                "y": 0.5182115435600281,
                "z": -0.4816462993621826
            },
            "position": {
                "x": 0.5540239810943604,
                "y": 0.030875300988554955,
                "z": 0.16403168439865112
            }
        },
        "name": "move_to_storage_A"
    },
    "id": "BKPIECE_move_to_storage_A_98",
    "joint_names": [
        "shoulder_pan_joint",
        "shoulder_lift_joint",
        "elbow_joint",
        "wrist_1_joint",
        "wrist_2_joint",
        "wrist_3_joint"
    ],
    "metrics": {
        "cart_traj_len": 0.353906350471477,
        "distance_elbow_joint": 0.4499675964801617,
        "distance_shoulder_lift_joint": 0.2355384196668444,
        "distance_shoulder_pan_joint": 0.4634372966373847,
        "distance_wrist_1_joint": 0.23633914722879368,
        "distance_wrist_2_joint": 1.0985900049479267,
        "distance_wrist_3_joint": 0.08947246863500169,
        "smoothness": 4.440892133664971e-16,
        "time": 0.16797059,
        "traj_len": 1.6041648710765715,
        "weighted_distance": 2.0216871723990426
    },
    "planner": "BKPIECE",
    "start": {
        "state": {
            "elbow_joint": 1.97154746011099,
            "shoulder_lift_joint": -1.13948474672311,
            "shoulder_pan_joint": 0.12281154466712228,
            "wrist_1_joint": -0.7804688027058302,
            "wrist_2_joint": 0.12958655903071145,
            "wrist_3_joint": 3.0906928834467795
        }
    },
    "waypoints": [
        {
            "positions": [
                0.12281154466712228,
                -1.13948474672311,
                1.97154746011099,
                -0.7804688027058302,
                0.12958655903071145,
                3.0906928834467795
            ]
        },
        {
            "positions": [
                0.056606216576067334,
                -1.173133092389802,
                2.0358285453224414,
                -0.8142315380242293,
                0.2865279883089867,
                3.103474664680351
            ]
        },
        {
            "positions": [
                -0.009599111514987616,
                -1.206781438056494,
                2.1001096305338933,
                -0.8479942733426283,
                0.4434694175872619,
                3.116256445913923
            ]
        },
        {
            "positions": [
                -0.07580443960604256,
                -1.2404297837231861,
                2.164390715745345,
                -0.8817570086610275,
                0.6004108468655371,
                3.1290382271474946
            ]
        },
        {
            "positions": [
                -0.1420097676970975,
                -1.2740781293898782,
                2.2286718009567967,
                -0.9155197439794266,
                0.7573522761438124,
                3.141820008381066
            ]
        },
        {
            "positions": [
                -0.2082150957881525,
                -1.3077264750565702,
                2.292952886168248,
                -0.9492824792978256,
                0.9142937054220877,
                3.1546017896146377
            ]
        },
        {
            "positions": [
                -0.2744204238792074,
                -1.3413748207232623,
                2.3572339713797,
                -0.9830452146162247,
                1.0712351347003628,
                3.1673835708482097
            ]
        },
        {
            "positions": [
                -0.3406257519702624,
                -1.3750231663899544,
                2.4215150565911516,
                -1.0168079499346239,
                1.2281765639786382,
                3.180165352081781
            ]
        }
    ]
}{
    "goal": {
        "global_pose": {
            "orientation": {
                "w": 0.5084816217422485,
                "x": -0.49083608388900757,
                "y": 0.5182115435600281,
                "z": -0.4816462993621826
            },
            "position": {
                "x": 0.5540239810943604,
                "y": 0.030875300988554955,
                "z": 0.16403168439865112
            }
        },
        "name": "move_to_storage_A"
    },
    "id": "BKPIECE_move_to_storage_A_98",
    "joint_names": [
        "shoulder_pan_joint",
        "shoulder_lift_joint",
        "elbow_joint",
        "wrist_1_joint",
        "wrist_2_joint",
        "wrist_3_joint"
    ],
    "metrics": {
        "cart_traj_len": 0.35219607334544517,
        "distance_elbow_joint": 0.4539386016708349,
        "distance_shoulder_lift_joint": 0.23447316418412667,
        "distance_shoulder_pan_joint": 0.4613448850776973,
        "distance_wrist_1_joint": 0.2614290394428218,
        "distance_wrist_2_joint": 1.0939479057022201,
        "distance_wrist_3_joint": 0.09570337281634078,
        "smoothness": 2.2204460668324854e-16,
        "time": 0.07308830399999999,
        "traj_len": 1.6127110618130085,
        "weighted_distance": 2.0365708089020047
    },
    "planner": "BKPIECE",
    "start": {
        "state": {
            "elbow_joint": 1.9715472970024885,
            "shoulder_lift_joint": -1.1394870060712896,
            "shoulder_pan_joint": 0.12281152778156021,
            "wrist_1_joint": -0.780463741449964,
            "wrist_2_joint": 0.12958659822042276,
            "wrist_3_joint": 3.090690232415272
        }
    },
    "waypoints": [
        {
            "positions": [
                0.12281152778156021,
                -1.1394870060712896,
                1.9715472970024885,
                -0.780463741449964,
                0.12958659822042276,
                3.090690232415272
            ]
        },
        {
            "positions": [
                0.05690511562760346,
                -1.1729831723833077,
                2.036395668669751,
                -0.8178107470846528,
                0.28586487046359704,
                3.1043621428176063
            ]
        },
        {
            "positions": [
                -0.009001296526353286,
                -1.2064793386953259,
                2.1012440403370127,
                -0.8551577527193417,
                0.44214314270677135,
                3.1180340532199406
            ]
        },
        {
            "positions": [
                -0.07490770868031002,
                -1.239975505007344,
                2.166092412004275,
                -0.8925047583540304,
                0.5984214149499456,
                3.131705963622275
            ]
        },
        {
            "positions": [
                -0.14081412083426678,
                -1.273471671319362,
                2.230940783671537,
                -0.9298517639887193,
                0.7546996871931199,
                3.1453778740246094
            ]
        },
        {
            "positions": [
                -0.20672053298822354,
                -1.30696783763138,
                2.2957891553387992,
                -0.9671987696234081,
                0.9109779594362942,
                3.159049784426944
            ]
        },
        {
            "positions": [
                -0.2726269451421802,
                -1.3404640039433982,
                2.360637527006061,
                -1.004545775258097,
                1.0672562316794685,
                3.1727216948292782
            ]
        },
        {
            "positions": [
                -0.33853335729613704,
                -1.3739601702554163,
                2.4254858986733234,
                -1.0418927808927858,
                1.2235345039226428,
                3.1863936052316126
            ]
        }
    ]
}