{
    "goal": {
        "global_pose": {
            "orientation": {
                "w": -0.4816463035849501,
                "x": 0.5182115481033762,
                "y": 0.4908360881923453,
                "z": -0.5084816262002911
            },
            "position": {
                "x": -0.8240239810943604,
                "y": 0.19912469901144506,
                "z": 0.16403168439865112
            }
        },
        "name": "move_to_storage_D"
    },
    "id": "BKPIECE_move_to_storage_D_63",
    "joint_names": [
        "shoulder_pan_joint",
        "shoulder_lift_joint",
        "elbow_joint",
        "wrist_1_joint",
        "wrist_2_joint",
        "wrist_3_joint"
    ],
    "metrics": {
        "cart_traj_len": 3.5570635688814036,
        "distance_elbow_joint": 4.211171319748489,
        "distance_shoulder_lift_joint": 1.264901624481455,
        "distance_shoulder_pan_joint": 2.814212473095679,
        "distance_wrist_1_joint": 2.3924195533837818,
        "distance_wrist_2_joint": 1.872626861767591,
        "distance_wrist_3_joint": 3.4204520610585516,
        "smoothness": 0.09626658922864066,
        "time": 0.187966407,
        "traj_len": 3.996971840473178,
        "weighted_distance": 5.204011378811928
    },
    "planner": "BKPIECE",
    "start": {
        "state": {
            "elbow_joint": -2.384821988534728,
            "shoulder_lift_joint": -2.2788054721415256,
            "shoulder_pan_joint": -0.1854694642142757,
            "wrist_1_joint": 1.4845938289331202,
            "wrist_2_joint": 0.17898776772866878,
            "wrist_3_joint": 0.037105688729662994
        }
    },
    "waypoints": [
        {
            "positions": [
                -0.1854694642142757,
                -2.2788054721415256,
                -2.384821988534728,
                1.4845938289331202,
                0.17898776772866878,
                0.037105688729662994
            ]
        },
        {
            "positions": [
                -0.07879288022298239,
                -2.238225147738014,
                -2.2426157154561004,
                1.4214017118769604,
                0.18382852007000441,
                0.023693734752917507
            ]
        },
        {
            "positions": [
                0.027883703768310925,
                -2.1976448233345027,
                -2.100409442377473,
                1.3582095948208008,
                0.18866927241134004,
                0.010281780776172016
            ]
        },
        {
            "positions": [
                0.13456028775960424,
                -2.1570644989309913,
                -1.9582031692988455,
                1.295017477764641,
                0.19351002475267567,
                -0.0031301732005734675
            ]
        },
        {
            "positions": [
                0.24123687175089756,
                -2.11648417452748,
                -1.8159968962202182,
                1.2318253607084815,
                0.19835077709401133,
                -0.016542127177318962
            ]
        },
        {
            "positions": [
                0.3479134557421909,
                -2.075903850123969,
                -1.6737906231415907,
                1.1686332436523217,
                0.20319152943534696,
                -0.02995408115406445
            ]
        },
        {
            "positions": [
                0.4545900397334842,
                -2.0353235257204574,
                -1.5315843500629631,
                1.1054411265961621,
                0.2080322817766826,
                -0.04336603513080993
            ]
        },
        {
            "positions": [
                0.5612666237247775,
                -1.994743201316946,
                -1.3893780769843358,
                1.0422490095400023,
                0.21287303411801822,
                -0.056777989107555424
            ]
        },
        {
            "positions": [
                0.6679432077160709,
                -1.9541628769134345,
                -1.2471718039057083,
                0.9790568924838426,
                0.21771378645935385,
                -0.07018994308430092
            ]
        },
        {
            "positions": [
                0.7746197917073642,
                -1.913582552509923,
                -1.1049655308270807,
                0.915864775427683,
                0.22255453880068948,
                -0.08360189706104641
            ]
        },
        {
            "positions": [
                0.8812963756986574,
                -1.8730022281064116,
                -0.9627592577484534,
                0.8526726583715233,
                0.2273952911420251,
                -0.09701385103779189
            ]
        },
        {
            "positions": [
                0.9489833895603116,
                -1.8513981846329837,
                -0.8359571368409437,
                0.7630931891242453,
                0.2014164241545495,
                -0.03602426675295516
            ]
        },
        {
            "positions": [
                1.0166704034219658,
                -1.8297941411595557,
                -0.7091550159334341,
                0.6735137198769673,
                0.17543755716707388,
                0.024965317531881567
            ]
        },
        {
            "positions": [
                1.08435741728362,
                -1.8081900976861276,
                -0.5823528950259245,
                0.5839342506296893,
                0.14945869017959826,
                0.08595490181671828
            ]
        },
        {
            "positions": [
                1.1520444311452742,
                -1.7865860542126997,
                -0.4555507741184148,
                0.4943547813824113,
                0.12347982319212264,
                0.14694448610155503
            ]
        },
        {
            "positions": [
                1.2197314450069283,
                -1.7649820107392717,
                -0.3287486532109052,
                0.4047753121351333,
                0.09750095620464702,
                0.20793407038639175
            ]
        },
        {
            "positions": [
                1.2874184588685826,
                -1.7433779672658438,
                -0.20194653230339554,
                0.3151958428878553,
                0.0715220892171714,
                0.2689236546712285
            ]
        },
        {
            "positions": [
                1.3551054727302367,
                -1.721773923792416,
                -0.0751444113958859,
                0.2256163736405773,
                0.045543222229695784,
                0.32991323895606517
            ]
        },
        {
            "positions": [
                1.422792486591891,
                -1.7001698803189877,
                0.05165770951162374,
                0.1360369043932993,
                0.019564355242220166,
                0.390902823240902
            ]
        },
        {
            "positions": [
                1.4904795004535452,
                -1.6785658368455598,
                0.17845983041913338,
                0.0464574351460213,
                -0.006414511745255452,
                0.45189240752573867
            ]
        },
        {
            "positions": [
                1.5581665143151993,
                -1.656961793372132,
                0.305261951326643,
                -0.0431220341012567,
                -0.03239337873273107,
                0.5128819918105754
            ]
        },
        {
            "positions": [
                1.6258535281768536,
                -1.635357749898704,
                0.4320640722341529,
                -0.1327015033485347,
                -0.05837224572020672,
                0.5738715760954122
            ]
        },
        {
            "positions": [
                1.693540542038508,
                -1.613753706425276,
                0.5588661931416623,
                -0.2222809725958127,
                -0.08435111270768231,
                0.6348611603802488
            ]
        },
        {
            "positions": [
                1.7612275559001622,
                -1.592149662951848,
                0.6856683140491722,
                -0.3118604418430907,
                -0.11032997969515795,
                0.6958507446650856
            ]
        },
        {
            "positions": [
                1.828914569761816,
                -1.57054561947842,
                0.8124704349566816,
                -0.4014399110903687,
                -0.13630884668263354,
                0.7568403289499223
            ]
        },
        {
            "positions": [
                1.8966015836234704,
                -1.548941576004992,
                0.9392725558641914,
                -0.4910193803376467,
                -0.1622877136701092,
                0.8178299132347591
            ]
        },
        {
            "positions": [
                1.9642885974851245,
                -1.5273375325315641,
                1.0660746767717009,
                -0.5805988495849247,
                -0.18826658065758478,
                0.8788194975195958
            ]
        },
        {
            "positions": [
                2.0319756113467786,
                -1.505733489058136,
                1.1928767976792107,
                -0.6701783188322027,
                -0.21424544764506043,
                0.9398090818044326
            ]
        },
        {
            "positions": [
                2.099662625208433,
                -1.484129445584708,
                1.3196789185867202,
                -0.7597577880794807,
                -0.24022431463253602,
                1.0007986660892694
            ]
        },
        {
            "positions": [
                2.1673496390700873,
                -1.4625254021112801,
                1.4464810394942302,
                -0.8493372573267588,
                -0.26620318162001166,
                1.061788250374106
            ]
        },
        {
            "positions": [
                2.202841436747881,
                -1.4280160517688794,
                1.4757016773188096,
                -0.8448381444710741,
                -0.1638477304206118,
                1.2254444365186599
            ]
        },
        {
            "positions": [
                2.2383332344256743,
                -1.3935067014264786,
                1.504922315143389,
                -0.8403390316153894,
                -0.06149227922121195,
                1.3891006226632137
            ]
        },
        {
            "positions": [
                2.273825032103468,
                -1.3589973510840778,
                1.5341429529679684,
                -0.8358399187597048,
                0.040863171978187895,
                1.5527568088077675
            ]
        },
        {
            "positions": [
                2.3093168297812614,
                -1.3244880007416773,
                1.5633635907925476,
                -0.83134080590402,
                0.14321862317758777,
                1.7164129949523212
            ]
        },
        {
            "positions": [
                2.344808627459055,
                -1.2899786503992765,
                1.592584228617127,
                -0.8268416930483353,
                0.24557407437698764,
                1.880069181096875
            ]
        },
        {
            "positions": [
                2.3803004251368485,
                -1.2554693000568757,
                1.6218048664417064,
                -0.8223425801926506,
                0.34792952557638746,
                2.0437253672414286
            ]
        },
        {
            "positions": [
                2.4157922228146416,
                -1.220959949714475,
                1.6510255042662858,
                -0.817843467336966,
                0.45028497677578727,
                2.207381553385982
            ]
        },
        {
            "positions": [
                2.451284020492435,
                -1.1864505993720742,
                1.6802461420908652,
                -0.8133443544812813,
                0.5526404279751872,
                2.3710377395305366
            ]
        },
        {
            "positions": [
                2.4867758181702286,
                -1.1519412490296737,
                1.7094667799154446,
                -0.8088452416255966,
                0.654995879174587,
                2.53469392567509
            ]
        },
        {
            "positions": [
                2.522267615848022,
                -1.1174318986872729,
                1.738687417740024,
                -0.8043461287699119,
                0.7573513303739869,
                2.698350111819644
            ]
        },
        {
            "positions": [
                2.5577594135258157,
                -1.0829225483448721,
                1.7679080555646032,
                -0.7998470159142272,
                0.8597067815733868,
                2.8620062979641974
            ]
        },
        {
            "positions": [
                2.5932512112036092,
                -1.0484131980024713,
                1.7971286933891826,
                -0.7953479030585425,
                0.9620622327727866,
                3.025662484108752
            ]
        },
        {
            "positions": [
                2.6287430088814028,
                -1.0139038476600706,
                1.826349331213762,
                -0.7908487902028578,
                1.0644176839721864,
                3.189318670253305
            ]
        }
    ]
}