{
    "goal": {
        "global_pose": {
            "orientation": {
                "w": -0.00223480608172531,
                "x": 0.0024358444001904467,
                "y": 0.7094548369677653,
                "z": -0.704743149386269
            },
            "position": {
                "x": 0.6205249238014221,
                "y": -0.6371506643295288,
                "z": 0.19426114857196808
            }
        },
        "name": "move_to_magneteinheit_B"
    },
    "id": "BKPIECE_move_to_magneteinheit_B_103",
    "joint_names": [
        "shoulder_pan_joint",
        "shoulder_lift_joint",
        "elbow_joint",
        "wrist_1_joint",
        "wrist_2_joint",
        "wrist_3_joint"
    ],
    "metrics": {
        "cart_traj_len": 1.459196548101441,
        "distance_elbow_joint": 1.2213007295079075,
        "distance_shoulder_lift_joint": 0.9670294133132844,
        "distance_shoulder_pan_joint": 1.6208604459899765,
        "distance_wrist_1_joint": 0.23781137660887053,
        "distance_wrist_2_joint": 2.2294885022854545,
        "distance_wrist_3_joint": 0.15846514202892312,
        "smoothness": 1.1399661187236685,
        "time": 0.255738217,
        "traj_len": 2.5367214292733085,
        "weighted_distance": 3.036311211435117
    },
    "planner": "BKPIECE",
    "start": {
        "state": {
            "elbow_joint": 2.6216224122426386,
            "shoulder_lift_joint": -1.4174107377796124,
            "shoulder_pan_joint": 0.7066234856936794,
            "wrist_1_joint": 1.9546482284002225,
            "wrist_2_joint": -0.7096286983471962,
            "wrist_3_joint": 0.005740856962016249
        }
    },
    "waypoints": [
        {
            "positions": [
                0.7066234856936794,
                -1.4174107377796124,
                2.6216224122426386,
                1.9546482284002225,
                -0.7096286983471962,
                0.005740856962016249
            ]
        },
        {
            "positions": [
                0.5866693242312164,
                -1.4530922440392235,
                2.666188576377295,
                1.9482569915000636,
                -0.5911626769154659,
                -0.020108054520962863
            ]
        },
        {
            "positions": [
                0.4667151627687535,
                -1.4887737502988345,
                2.710754740511951,
                1.9418657545999047,
                -0.47269665548373546,
                -0.045956966003941974
            ]
        },
        {
            "positions": [
                0.34676100130629056,
                -1.5244552565584457,
                2.755320904646607,
                1.9354745176997459,
                -0.35423063405200506,
                -0.07180587748692109
            ]
        },
        {
            "positions": [
                0.2566897183346772,
                -1.463027764091699,
                2.6776350305677545,
                1.9510914938360597,
                -0.48809423676559527,
                -0.06602599123120782
            ]
        },
        {
            "positions": [
                0.16661843536306378,
                -1.4016002716249527,
                2.5999491564889015,
                1.9667084699723736,
                -0.6219578394791856,
                -0.06024610497549455
            ]
        },
        {
            "positions": [
                0.07654715239145038,
                -1.3401727791582063,
                2.522263282410049,
                1.9823254461086874,
                -0.7558214421927758,
                -0.05446621871978127
            ]
        },
        {
            "positions": [
                -0.013524130580162996,
                -1.2787452866914597,
                2.444577408331196,
                1.9979424222450013,
                -0.889685044906366,
                -0.048686332464068005
            ]
        },
        {
            "positions": [
                -0.10359541355177643,
                -1.217317794224713,
                2.366891534252343,
                2.0135593983813154,
                -1.0235486476199562,
                -0.04290644620835472
            ]
        },
        {
            "positions": [
                -0.1936666965233898,
                -1.1558903017579667,
                2.2892056601734905,
                2.029176374517629,
                -1.1574122503335464,
                -0.037126559952641455
            ]
        },
        {
            "positions": [
                -0.2837379794950032,
                -1.0944628092912203,
                2.211519786094638,
                2.0447933506539426,
                -1.2912758530471367,
                -0.03134667369692818
            ]
        },
        {
            "positions": [
                -0.37380926246661655,
                -1.0330353168244737,
                2.1338339120157848,
                2.0604103267902567,
                -1.425139455760727,
                -0.025566787441214912
            ]
        },
        {
            "positions": [
                -0.46388054543823004,
                -0.9716078243577272,
                2.056148037936932,
                2.076027302926571,
                -1.5590030584743175,
                -0.01978690118550163
            ]
        },
        {
            "positions": [
                -0.5539518284098435,
                -0.9101803318909807,
                1.9784621638580795,
                2.0916442790628844,
                -1.6928666611879075,
                -0.014007014929788363
            ]
        },
        {
            "positions": [
                -0.6440231113814567,
                -0.8487528394242342,
                1.9007762897792266,
                2.107261255199198,
                -1.8267302639014975,
                -0.008227128674075088
            ]
        },
        {
            "positions": [
                -0.7340943943530702,
                -0.7873253469574877,
                1.8230904157003738,
                2.122878231335512,
                -1.960593866615088,
                -0.0024472424183618197
            ]
        },
        {
            "positions": [
                -0.8241656773246837,
                -0.7258978544907412,
                1.745404541621521,
                2.138495207471826,
                -2.0944574693286784,
                0.003332643837351462
            ]
        },
        {
            "positions": [
                -0.9142369602962969,
                -0.6644703620239947,
                1.6677186675426683,
                2.15411218360814,
                -2.2283210720422684,
                0.009112530093064732
            ]
        }
    ]
}