{
    "goal": {
        "global_pose": {
            "orientation": {
                "w": 0.7031023502349854,
                "x": -0.7110244035720825,
                "y": 0.007748599164187908,
                "z": 0.005598929710686207
            },
            "position": {
                "x": 0.11585023208521307,
                "y": 0.44412534475326537,
                "z": 0.3711530566215515
            }
        },
        "name": "move_to_auspresseinheit_A"
    },
    "id": "BKPIECE_move_to_auspresseinheit_A_58",
    "joint_names": [
        "shoulder_pan_joint",
        "shoulder_lift_joint",
        "elbow_joint",
        "wrist_1_joint",
        "wrist_2_joint",
        "wrist_3_joint"
    ],
    "metrics": {
        "cart_traj_len": 0.7868672146273019,
        "distance_elbow_joint": 0.32144956998125673,
        "distance_shoulder_lift_joint": 0.551812721234112,
        "distance_shoulder_pan_joint": 1.0445905890928937,
        "distance_wrist_1_joint": 0.5553122738753469,
        "distance_wrist_2_joint": 1.1170193489195026,
        "distance_wrist_3_joint": 0.48144828041151744,
        "smoothness": 0.9293394249418441,
        "time": 0.241836432,
        "traj_len": 2.0178287299755224,
        "weighted_distance": 2.589760793419445
    },
    "planner": "BKPIECE",
    "start": {
        "state": {
            "elbow_joint": 2.4225746658250005,
            "shoulder_lift_joint": -1.3736534386056498,
            "shoulder_pan_joint": -0.3378633547517467,
            "wrist_1_joint": -1.0288598680537169,
            "wrist_2_joint": 1.233022673432363,
            "wrist_3_joint": -3.0940220416140027
        }
    },
    "waypoints": [
        {
            "positions": [
                -0.3378633547517467,
                -1.3736534386056498,
                2.4225746658250005,
                -1.0288598680537169,
                1.233022673432363,
                -3.0940220416140027
            ]
        },
        {
            "positions": [
                -0.28223568071156513,
                -1.451109585358411,
                2.397537349079016,
                -0.9659714569679009,
                1.115303089131503,
                -3.0621450542396267
            ]
        },
        {
            "positions": [
                -0.2266080066713835,
                -1.5285657321111723,
                2.372500032333032,
                -0.9030830458820849,
                0.9975835048306431,
                -3.030268066865251
            ]
        },
        {
            "positions": [
                -0.1709803326312019,
                -1.6060218788639335,
                2.3474627155870476,
                -0.840194634796269,
                0.879863920529783,
                -2.998391079490875
            ]
        },
        {
            "positions": [
                -0.11535265859102029,
                -1.683478025616695,
                2.3224253988410632,
                -0.7773062237104529,
                0.7621443362289231,
                -2.9665140921164994
            ]
        },
        {
            "positions": [
                -0.05972498455083863,
                -1.7609341723694563,
                2.297388082095079,
                -0.714417812624637,
                0.6444247519280629,
                -2.9346371047421234
            ]
        },
        {
            "positions": [
                -0.004097310510657093,
                -1.8383903191222175,
                2.2723507653490946,
                -0.651529401538821,
                0.526705167627203,
                -2.9027601173677477
            ]
        },
        {
            "positions": [
                0.05153036352952456,
                -1.9158464658749788,
                2.2473134486031103,
                -0.588640990453005,
                0.40898558332634294,
                -2.8708831299933717
            ]
        },
        {
            "positions": [
                0.19256754413479693,
                -1.9140123379201601,
                2.2806961867854847,
                -0.5649810029792758,
                0.4722279688428374,
                -2.9299067397413667
            ]
        },
        {
            "positions": [
                0.3336047247400693,
                -1.9121782099653415,
                2.3140789249678595,
                -0.5413210155055466,
                0.5354703543593319,
                -2.9889303494893618
            ]
        },
        {
            "positions": [
                0.4746419053453417,
                -1.9103440820105229,
                2.3474616631502343,
                -0.5176610280318175,
                0.5987127398758263,
                -3.0479539592373572
            ]
        },
        {
            "positions": [
                0.615679085950614,
                -1.9085099540557042,
                2.3808444013326087,
                -0.49400104055808824,
                0.6619551253923208,
                -3.1069775689853523
            ]
        },
        {
            "positions": [
                0.706727234341147,
                -1.9062267719101957,
                2.393501801362477,
                -0.47354759417836995,
                0.7019678421398251,
                -3.129192498784258
            ]
        }
    ]
}