{
    "goal": {
        "global_pose": {
            "orientation": {
                "w": 0.5084816262002911,
                "x": -0.4908360881923452,
                "y": 0.5182115481033761,
                "z": -0.48164630358495003
            },
            "position": {
                "x": 0.5540239810943604,
                "y": -0.46912469901144505,
                "z": 0.16403168439865112
            }
        },
        "name": "move_to_storage_B"
    },
    "id": "BKPIECE_move_to_storage_B_54",
    "joint_names": [
        "shoulder_pan_joint",
        "shoulder_lift_joint",
        "elbow_joint",
        "wrist_1_joint",
        "wrist_2_joint",
        "wrist_3_joint"
    ],
    "metrics": {
        "cart_traj_len": 0.7723425217712677,
        "distance_elbow_joint": 0.35035370189799897,
        "distance_shoulder_lift_joint": 0.4597245232489058,
        "distance_shoulder_pan_joint": 0.4924385091355029,
        "distance_wrist_1_joint": 3.218805670188856,
        "distance_wrist_2_joint": 2.7698496863359137,
        "distance_wrist_3_joint": 3.139806927951115,
        "smoothness": 0.30626846733351776,
        "time": 0.33248322399999997,
        "traj_len": 3.2297026207931734,
        "weighted_distance": 4.764372805646646
    },
    "planner": "BKPIECE",
    "start": {
        "state": {
            "elbow_joint": 1.664937868594044,
            "shoulder_lift_joint": -0.661644460510453,
            "shoulder_pan_joint": -0.9139846352900073,
            "wrist_1_joint": 2.146753192139373,
            "wrist_2_joint": -2.2341966793290973,
            "wrist_3_joint": 0.005466555786416001
        }
    },
    "waypoints": [
        {
            "positions": [
                -0.9139846352900073,
                -0.661644460510453,
                1.664937868594044,
                2.146753192139373,
                -2.2341966793290973,
                0.005466555786416001
            ]
        },
        {
            "positions": [
                -0.8360195468364211,
                -0.7489730761680269,
                1.7207542353763396,
                2.206842372433543,
                -2.248876766962728,
                -0.006672660500439852
            ]
        },
        {
            "positions": [
                -0.758054458382835,
                -0.8363016918256009,
                1.7765706021586352,
                2.266931552727713,
                -2.2635568545963585,
                -0.018811876787295706
            ]
        },
        {
            "positions": [
                -0.7715147916719682,
                -0.8477043835029512,
                1.7861194408919714,
                2.142986460343692,
                -2.1539372741536122,
                -0.14343301660239183
            ]
        },
        {
            "positions": [
                -0.7849751249611014,
                -0.8591070751803015,
                1.7956682796253078,
                2.0190413679596717,
                -2.0443176937108665,
                -0.268054156417488
            ]
        },
        {
            "positions": [
                -0.7984354582502347,
                -0.8705097668576518,
                1.805217118358644,
                1.895096275575651,
                -1.9346981132681202,
                -0.3926752962325841
            ]
        },
        {
            "positions": [
                -0.811895791539368,
                -0.8819124585350021,
                1.8147659570919803,
                1.7711511831916305,
                -1.825078532825374,
                -0.5172964360476803
            ]
        },
        {
            "positions": [
                -0.8253561248285012,
                -0.8933151502123524,
                1.8243147958253167,
                1.6472060908076096,
                -1.7154589523826278,
                -0.6419175758627764
            ]
        },
        {
            "positions": [
                -0.8388164581176344,
                -0.9047178418897028,
                1.833863634558653,
                1.5232609984235892,
                -1.605839371939882,
                -0.7665387156778725
            ]
        },
        {
            "positions": [
                -0.8522767914067676,
                -0.9161205335670531,
                1.8434124732919894,
                1.3993159060395683,
                -1.4962197914971358,
                -0.8911598554929687
            ]
        },
        {
            "positions": [
                -0.8657371246959008,
                -0.9275232252444034,
                1.8529613120253257,
                1.2753708136555477,
                -1.3866002110543896,
                -1.0157809953080648
            ]
        },
        {
            "positions": [
                -0.879197457985034,
                -0.9389259169217538,
                1.8625101507586619,
                1.151425721271527,
                -1.2769806306116436,
                -1.140402135123161
            ]
        },
        {
            "positions": [
                -0.8926577912741673,
                -0.9503286085991041,
                1.8720589894919983,
                1.0274806288875062,
                -1.1673610501688974,
                -1.2650232749382573
            ]
        },
        {
            "positions": [
                -0.9061181245633005,
                -0.9617313002764544,
                1.8816078282253346,
                0.9035355365034858,
                -1.0577414697261514,
                -1.3896444147533533
            ]
        },
        {
            "positions": [
                -0.9195784578524338,
                -0.9731339919538047,
                1.8911566669586708,
                0.7795904441194652,
                -0.9481218892834054,
                -1.5142655545684494
            ]
        },
        {
            "positions": [
                -0.933038791141567,
                -0.984536683631155,
                1.9007055056920072,
                0.6556453517354444,
                -0.8385023088406591,
                -1.6388866943835456
            ]
        },
        {
            "positions": [
                -0.9464991244307002,
                -0.9959393753085053,
                1.9102543444253435,
                0.5317002593514237,
                -0.7288827283979129,
                -1.7635078341986419
            ]
        },
        {
            "positions": [
                -0.9599594577198334,
                -1.0073420669858557,
                1.9198031831586797,
                0.4077551669674033,
                -0.6192631479551671,
                -1.8881289740137377
            ]
        },
        {
            "positions": [
                -0.9734197910089666,
                -1.018744758663206,
                1.9293520218920162,
                0.2838100745833825,
                -0.5096435675124209,
                -2.012750113828834
            ]
        },
        {
            "positions": [
                -0.9868801242980999,
                -1.0301474503405563,
                1.9389008606253524,
                0.15986498219936163,
                -0.4000239870696747,
                -2.13737125364393
            ]
        },
        {
            "positions": [
                -1.000340457587233,
                -1.0415501420179065,
                1.9484496993586888,
                0.03591988981534122,
                -0.2904044066269287,
                -2.261992393459026
            ]
        },
        {
            "positions": [
                -1.0138007908763664,
                -1.052952833695257,
                1.957998538092025,
                -0.08802520256867963,
                -0.18078482618418246,
                -2.3866135332741223
            ]
        },
        {
            "positions": [
                -1.0272611241654996,
                -1.0643555253726071,
                1.9675473768253613,
                -0.21197029495270048,
                -0.07116524574143623,
                -2.5112346730892185
            ]
        },
        {
            "positions": [
                -1.0407214574546328,
                -1.0757582170499576,
                1.9770962155586975,
                -0.3359153873367209,
                0.038454334701309545,
                -2.6358558129043144
            ]
        },
        {
            "positions": [
                -1.054181790743766,
                -1.087160908727308,
                1.986645054292034,
                -0.4598604797207413,
                0.14807391514405577,
                -2.7604769527194106
            ]
        },
        {
            "positions": [
                -1.0676421240328993,
                -1.0985636004046582,
                1.9961938930253702,
                -0.5838055721047621,
                0.257693495586802,
                -2.885098092534507
            ]
        },
        {
            "positions": [
                -1.0811024573220325,
                -1.1099662920820084,
                2.0057427317587067,
                -0.7077506644887825,
                0.36731307602954777,
                -3.0097192323496027
            ]
        },
        {
            "positions": [
                -1.0945627906111657,
                -1.1213689837593588,
                2.015291570492043,
                -0.8316957568728033,
                0.476932656472294,
                -3.134340372164699
            ]
        }
    ]
}