{
    "goal": {
        "global_pose": {
            "orientation": {
                "w": 0.7047431493862688,
                "x": -0.7094548369677653,
                "y": 0.0024358444001904,
                "z": -0.0022348060817251984
            },
            "position": {
                "x": -0.39052492380142206,
                "y": 0.3671506643295288,
                "z": 0.19426114857196808
            }
        },
        "name": "move_to_magneteinheit_D"
    },
    "id": "BKPIECE_move_to_magneteinheit_D_107",
    "joint_names": [
        "shoulder_pan_joint",
        "shoulder_lift_joint",
        "elbow_joint",
        "wrist_1_joint",
        "wrist_2_joint",
        "wrist_3_joint"
    ],
    "metrics": {
        "cart_traj_len": 7.051527535789546,
        "distance_elbow_joint": 3.0998584771628055,
        "distance_shoulder_lift_joint": 2.1908191469443303,
        "distance_shoulder_pan_joint": 7.43019997564807,
        "distance_wrist_1_joint": 7.665517461223779,
        "distance_wrist_2_joint": 0.6054307417079932,
        "distance_wrist_3_joint": 0.43642602100546046,
        "smoothness": 0.3737999021419276,
        "time": 0.20156621600000002,
        "traj_len": 4.62906597746159,
        "weighted_distance": 5.529199948332048
    },
    "planner": "BKPIECE",
    "start": {
        "state": {
            "elbow_joint": 0.749534889911806,
            "shoulder_lift_joint": -0.6476975780787326,
            "shoulder_pan_joint": -2.711696901376241,
            "wrist_1_joint": -0.07506478083263063,
            "wrist_2_joint": 0.43296659715538205,
            "wrist_3_joint": -3.14703540197715
        }
    },
    "waypoints": [
        {
            "positions": [
                -2.711696901376241,
                -0.6476975780787326,
                0.749534889911806,
                -0.07506478083263063,
                0.43296659715538205,
                -3.14703540197715
            ]
        },
        {
            "positions": [
                -2.7295717130827044,
                -0.7326751006159308,
                0.6953327418447602,
                -0.06835589793827693,
                0.37693874419740936,
                -3.0510375566366683
            ]
        },
        {
            "positions": [
                -2.7474465247891677,
                -0.8176526231531289,
                0.6411305937777145,
                -0.06164701504392323,
                0.32091089123943667,
                -2.955039711296186
            ]
        },
        {
            "positions": [
                -2.555970493076347,
                -0.8744995323953545,
                0.6245900559076007,
                0.043855397135372017,
                0.30580437485215334,
                -2.9529430647536716
            ]
        },
        {
            "positions": [
                -2.3644944613635266,
                -0.9313464416375801,
                0.608049518037487,
                0.14935780931466727,
                0.29069785846487,
                -2.950846418211157
            ]
        },
        {
            "positions": [
                -2.173018429650706,
                -0.9881933508798056,
                0.5915089801673732,
                0.25486022149396254,
                0.2755913420775867,
                -2.948749771668642
            ]
        },
        {
            "positions": [
                -1.981542397937886,
                -1.0450402601220312,
                0.5749684422972594,
                0.36036263367325777,
                0.26048482569030335,
                -2.9466531251261276
            ]
        },
        {
            "positions": [
                -1.7900663662250653,
                -1.101887169364257,
                0.5584279044271456,
                0.46586504585255306,
                0.24537830930302001,
                -2.944556478583613
            ]
        },
        {
            "positions": [
                -1.5985903345122447,
                -1.1587340786064824,
                0.5418873665570318,
                0.5713674580318483,
                0.23027179291573668,
                -2.9424598320410986
            ]
        },
        {
            "positions": [
                -1.4071143027994246,
                -1.215580987848708,
                0.5253468286869181,
                0.6768698702111434,
                0.21516527652845335,
                -2.940363185498584
            ]
        },
        {
            "positions": [
                -1.2156382710866038,
                -1.2724278970909335,
                0.5088062908168043,
                0.7823722823904388,
                0.20005876014117002,
                -2.938266538956069
            ]
        },
        {
            "positions": [
                -1.0241622393737835,
                -1.3292748063331592,
                0.4922657529466905,
                0.8878746945697339,
                0.18495224375388672,
                -2.9361698924135546
            ]
        },
        {
            "positions": [
                -0.8326862076609629,
                -1.3861217155753849,
                0.4757252150765767,
                0.9933771067490293,
                0.16984572736660336,
                -2.93407324587104
            ]
        },
        {
            "positions": [
                -0.6412101759481428,
                -1.4429686248176103,
                0.45918467720646294,
                1.0988795189283245,
                0.15473921097932006,
                -2.9319765993285256
            ]
        },
        {
            "positions": [
                -0.44973414423532176,
                -1.4998155340598358,
                0.44264413933634916,
                1.2043819311076198,
                0.13963269459203673,
                -2.929879952786011
            ]
        },
        {
            "positions": [
                -0.25825811252250164,
                -1.5566624433020615,
                0.4261036014662354,
                1.309884343286915,
                0.1245261782047534,
                -2.927783306243496
            ]
        },
        {
            "positions": [
                -0.06678208080968151,
                -1.6135093525442872,
                0.4095630635961216,
                1.41538675546621,
                0.10941966181747007,
                -2.9256866597009816
            ]
        },
        {
            "positions": [
                0.12469395090313906,
                -1.6703562617865124,
                0.3930225257260078,
                1.5208891676455052,
                0.09431314543018676,
                -2.923590013158467
            ]
        },
        {
            "positions": [
                0.3161699826159601,
                -1.7272031710287383,
                0.37648198785589404,
                1.6263915798248008,
                0.0792066290429034,
                -2.9214933666159526
            ]
        },
        {
            "positions": [
                0.5076460143287802,
                -1.7840500802709638,
                0.35994144998578026,
                1.7318939920040959,
                0.0641001126556201,
                -2.919396720073438
            ]
        },
        {
            "positions": [
                0.6991220460416008,
                -1.8408969895131895,
                0.3434009121156665,
                1.837396404183391,
                0.04899359626833677,
                -2.9173000735309236
            ]
        },
        {
            "positions": [
                0.8905980777544209,
                -1.897743898755415,
                0.3268603742455527,
                1.9428988163626864,
                0.03388707988105344,
                -2.9152034269884086
            ]
        },
        {
            "positions": [
                1.082074109467242,
                -1.9545908079976406,
                0.3103198363754389,
                2.048401228541982,
                0.018780563493770053,
                -2.913106780445894
            ]
        },
        {
            "positions": [
                1.2735501411800625,
                -2.011437717239866,
                0.29377929850532514,
                2.153903640721277,
                0.0036740471064867775,
                -2.9110101339033796
            ]
        },
        {
            "positions": [
                1.4650261728928822,
                -2.0682846264820918,
                0.27723876063521136,
                2.259406052900572,
                -0.011432469280796553,
                -2.908913487360865
            ]
        },
        {
            "positions": [
                1.6565022046057027,
                -2.125131535724317,
                0.2606982227650976,
                2.3649084650798673,
                -0.026538985668079884,
                -2.9068168408183506
            ]
        },
        {
            "positions": [
                1.8479782363185242,
                -2.1819784449665427,
                0.2441576848949838,
                2.470410877259163,
                -0.041645502055363215,
                -2.9047201942758356
            ]
        },
        {
            "positions": [
                2.039454268031344,
                -2.2388253542087684,
                0.22761714702487001,
                2.575913289438458,
                -0.056752018442646546,
                -2.902623547733321
            ]
        },
        {
            "positions": [
                2.2309302997441645,
                -2.295672263450994,
                0.21107660915475623,
                2.681415701617753,
                -0.07185853482992988,
                -2.9005269011908066
            ]
        },
        {
            "positions": [
                2.1446419594691,
                -2.2762849612519918,
                0.11959803071169353,
                2.5060929523758464,
                -0.07545159232002566,
                -2.907309669770061
            ]
        },
        {
            "positions": [
                2.058353619194036,
                -2.256897659052989,
                0.02811945226863083,
                2.3307702031339397,
                -0.07904464981012144,
                -2.9140924383493148
            ]
        },
        {
            "positions": [
                1.9720652789189714,
                -2.2375103568539867,
                -0.0633591261744319,
                2.155447453892033,
                -0.08263770730021723,
                -2.920875206928569
            ]
        },
        {
            "positions": [
                1.8857769386439072,
                -2.2181230546549844,
                -0.15483770461749458,
                1.980124704650126,
                -0.08623076479031301,
                -2.9276579755078234
            ]
        },
        {
            "positions": [
                1.7994885983688427,
                -2.198735752455982,
                -0.24631628306055736,
                1.804801955408219,
                -0.08982382228040879,
                -2.9344407440870777
            ]
        },
        {
            "positions": [
                1.7132002580937784,
                -2.1793484502569793,
                -0.33779486150362004,
                1.6294792061663126,
                -0.09341687977050457,
                -2.9412235126663315
            ]
        },
        {
            "positions": [
                1.6269119178187141,
                -2.159961148057977,
                -0.42927343994668277,
                1.4541564569244056,
                -0.09700993726060037,
                -2.948006281245586
            ]
        },
        {
            "positions": [
                1.5406235775436499,
                -2.1405738458589747,
                -0.5207520183897454,
                1.278833707682499,
                -0.10060299475069615,
                -2.95478904982484
            ]
        },
        {
            "positions": [
                1.4543352372685854,
                -2.121186543659972,
                -0.6122305968328082,
                1.103510958440592,
                -0.10419605224079193,
                -2.961571818404094
            ]
        },
        {
            "positions": [
                1.3680468969935211,
                -2.1017992414609696,
                -0.703709175275871,
                0.9281882091986853,
                -0.1077891097308877,
                -2.9683545869833483
            ]
        },
        {
            "positions": [
                1.2817585567184568,
                -2.0824119392619673,
                -0.7951877537189336,
                0.7528654599567786,
                -0.11138216722098349,
                -2.9751373555626026
            ]
        },
        {
            "positions": [
                1.1954702164433926,
                -2.063024637062965,
                -0.8866663321619963,
                0.5775427107148721,
                -0.11497522471107927,
                -2.981920124141857
            ]
        },
        {
            "positions": [
                1.109181876168328,
                -2.0436373348639623,
                -0.978144910605059,
                0.4022199614729649,
                -0.11856828220117506,
                -2.988702892721111
            ]
        },
        {
            "positions": [
                1.0228935358932638,
                -2.02425003266496,
                -1.0696234890481218,
                0.2268972122310582,
                -0.12216133969127084,
                -2.995485661300365
            ]
        },
        {
            "positions": [
                0.9366051956181995,
                -2.0048627304659576,
                -1.1611020674911845,
                0.05157446298915147,
                -0.1257543971813666,
                -3.0022684298796194
            ]
        },
        {
            "positions": [
                0.8503168553431353,
                -1.9854754282669551,
                -1.252580645934247,
                -0.12374828625275525,
                -0.12934745467146241,
                -3.0090511984588733
            ]
        },
        {
            "positions": [
                0.764028515068071,
                -1.9660881260679526,
                -1.3440592243773097,
                -0.29907103549466196,
                -0.1329405121615582,
                -3.0158339670381276
            ]
        },
        {
            "positions": [
                0.6777401747930063,
                -1.9467008238689503,
                -1.4355378028203727,
                -0.4743937847365691,
                -0.13653356965165397,
                -3.022616735617382
            ]
        },
        {
            "positions": [
                0.591451834517942,
                -1.9273135216699477,
                -1.5270163812634354,
                -0.6497165339784758,
                -0.14012662714174975,
                -3.029399504196636
            ]
        },
        {
            "positions": [
                0.5051634942428778,
                -1.9079262194709452,
                -1.6184949597064981,
                -0.8250392832203826,
                -0.14371968463184553,
                -3.03618227277589
            ]
        },
        {
            "positions": [
                0.4188751539678135,
                -1.888538917271943,
                -1.7099735381495607,
                -1.0003620324622893,
                -0.14731274212194131,
                -3.0429650413551443
            ]
        },
        {
            "positions": [
                0.33258681369274923,
                -1.8691516150729406,
                -1.8014521165926234,
                -1.175684781704196,
                -0.1509057996120371,
                -3.0497478099343986
            ]
        },
        {
            "positions": [
                0.24629847341768496,
                -1.849764312873938,
                -1.8929306950356861,
                -1.3510075309461027,
                -0.1544988571021329,
                -3.0565305785136525
            ]
        },
        {
            "positions": [
                0.1600101331426207,
                -1.8303770106749355,
                -1.9844092734787488,
                -1.526330280188009,
                -0.15809191459222866,
                -3.063313347092907
            ]
        },
        {
            "positions": [
                0.07372179286755598,
                -1.8109897084759332,
                -2.0758878519218116,
                -1.701653029429917,
                -0.16168497208232446,
                -3.070096115672161
            ]
        },
        {
            "positions": [
                -0.012566547407508288,
                -1.7916024062769307,
                -2.1673664303648743,
                -1.8769757786718233,
                -0.16527802957242024,
                -3.0768788842514154
            ]
        },
        {
            "positions": [
                -0.09885488768257256,
                -1.7722151040779281,
                -2.258845008807937,
                -2.0522985279137305,
                -0.16887108706251602,
                -3.0836616528306693
            ]
        },
        {
            "positions": [
                -0.1851432279576368,
                -1.7528278018789258,
                -2.3503235872509998,
                -2.2276212771556367,
                -0.1724641445526118,
                -3.0904444214099236
            ]
        }
    ]
}