{
    "goal": {
        "global_pose": {
            "orientation": {
                "w": -0.4816463035849501,
                "x": 0.5182115481033762,
                "y": 0.4908360881923453,
                "z": -0.5084816262002911
            },
            "position": {
                "x": -0.8240239810943604,
                "y": -0.300875300988555,
                "z": 0.16403168439865112
            }
        },
        "name": "move_to_storage_C"
    },
    "id": "BKPIECE_move_to_storage_C_76",
    "joint_names": [
        "shoulder_pan_joint",
        "shoulder_lift_joint",
        "elbow_joint",
        "wrist_1_joint",
        "wrist_2_joint",
        "wrist_3_joint"
    ],
    "metrics": {
        "cart_traj_len": 0.5774405552913312,
        "distance_elbow_joint": 0.2597124775955917,
        "distance_shoulder_lift_joint": 0.18998675342056304,
        "distance_shoulder_pan_joint": 0.49554874135025795,
        "distance_wrist_1_joint": 0.08394190185165928,
        "distance_wrist_2_joint": 1.0675094571011363,
        "distance_wrist_3_joint": 0.07174080067758659,
        "smoothness": 0.0,
        "time": 0.140955709,
        "traj_len": 1.4725624373848447,
        "weighted_distance": 1.86101399573049
    },
    "planner": "BKPIECE",
    "start": {
        "state": {
            "elbow_joint": 2.010868314990456,
            "shoulder_lift_joint": -1.1634956873337592,
            "shoulder_pan_joint": -2.4736205022346125,
            "wrist_1_joint": -0.8367026794202681,
            "wrist_2_joint": 0.6746043897044499,
            "wrist_3_joint": -3.1496632123970403
        }
    },
    "waypoints": [
        {
            "positions": [
                -2.4736205022346125,
                -1.1634956873337592,
                2.010868314990456,
                -0.8367026794202681,
                0.6746043897044499,
                -3.1496632123970403
            ]
        },
        {
            "positions": [
                -2.556211959126322,
                -1.131831228430332,
                1.9675829020578572,
                -0.8227123624449916,
                0.8525226325546393,
                -3.137706412284109
            ]
        },
        {
            "positions": [
                -2.638803416018032,
                -1.1001667695269048,
                1.9242974891252587,
                -0.808722045469715,
                1.0304408754048286,
                -3.125749612171178
            ]
        },
        {
            "positions": [
                -2.7213948729097415,
                -1.0685023106234777,
                1.8810120761926599,
                -0.7947317284944384,
                1.208359118255018,
                -3.113792812058247
            ]
        },
        {
            "positions": [
                -2.803986329801451,
                -1.0368378517200505,
                1.8377266632600613,
                -0.7807414115191619,
                1.3862773611052073,
                -3.101836011945316
            ]
        },
        {
            "positions": [
                -2.886577786693161,
                -1.0051733928166233,
                1.7944412503274627,
                -0.7667510945438853,
                1.564195603955397,
                -3.089879211832385
            ]
        },
        {
            "positions": [
                -2.9691692435848704,
                -0.9735089339131962,
                1.7511558373948641,
                -0.7527607775686088,
                1.7421138468055863,
                -3.0779224117194537
            ]
        }
    ]
}