{
    "goal": {
        "global_pose": {
            "orientation": {
                "w": 0.005598929693374612,
                "x": 0.007748599140229565,
                "y": 0.7110244013736278,
                "z": -0.7031023480610252
            },
            "position": {
                "x": -0.8858502320852131,
                "y": -0.7141253447532654,
                "z": 0.3711530566215515
            }
        },
        "name": "move_to_auspresseinheit_C"
    },
    "id": "BKPIECE_move_to_auspresseinheit_C_131",
    "joint_names": [
        "shoulder_pan_joint",
        "shoulder_lift_joint",
        "elbow_joint",
        "wrist_1_joint",
        "wrist_2_joint",
        "wrist_3_joint"
    ],
    "metrics": {
        "cart_traj_len": 0.4929668884455403,
        "distance_elbow_joint": 0.9917436868389764,
        "distance_shoulder_lift_joint": 0.320381473908091,
        "distance_shoulder_pan_joint": 0.2562146555189355,
        "distance_wrist_1_joint": 0.6584439151390029,
        "distance_wrist_2_joint": 1.3066336364737623,
        "distance_wrist_3_joint": 0.04113555343688269,
        "smoothness": 6.459479416000911e-16,
        "time": 0.276995039,
        "traj_len": 1.8906488096195049,
        "weighted_distance": 2.3710549508187664
    },
    "planner": "BKPIECE",
    "start": {
        "state": {
            "elbow_joint": 1.7527959577737207,
            "shoulder_lift_joint": -0.9740617694225068,
            "shoulder_pan_joint": -2.967991417825858,
            "wrist_1_joint": -0.759517768980727,
            "wrist_2_joint": 1.7443932448377408,
            "wrist_3_joint": -3.0840537646736568
        }
    },
    "waypoints": [
        {
            "positions": [
                -2.967991417825858,
                -0.9740617694225068,
                1.7527959577737207,
                -0.759517768980727,
                1.7443932448377408,
                -3.0840537646736568
            ]
        },
        {
            "positions": [
                -2.9423699522739644,
                -0.9420236220316976,
                1.653621589089823,
                -0.6936733774668267,
                1.6137298811903646,
                -3.088167320017345
            ]
        },
        {
            "positions": [
                -2.9167484867220708,
                -0.9099854746408885,
                1.5544472204059254,
                -0.6278289859529264,
                1.4830665175429885,
                -3.092280875361033
            ]
        },
        {
            "positions": [
                -2.891127021170177,
                -0.8779473272500795,
                1.4552728517220277,
                -0.5619845944390262,
                1.352403153895612,
                -3.0963944307047218
            ]
        },
        {
            "positions": [
                -2.8655055556182836,
                -0.8459091798592704,
                1.3560984830381302,
                -0.4961402029251258,
                1.2217397902482359,
                -3.10050798604841
            ]
        },
        {
            "positions": [
                -2.8398840900663904,
                -0.8138710324684613,
                1.2569241143542325,
                -0.4302958114112255,
                1.0910764266008597,
                -3.104621541392098
            ]
        },
        {
            "positions": [
                -2.814262624514497,
                -0.7818328850776521,
                1.1577497456703347,
                -0.36445141989732527,
                0.9604130629534835,
                -3.1087350967357863
            ]
        },
        {
            "positions": [
                -2.7886411589626032,
                -0.749794737686843,
                1.0585753769864372,
                -0.29860702838342496,
                0.8297496993061073,
                -3.1128486520794745
            ]
        },
        {
            "positions": [
                -2.7630196934107096,
                -0.7177565902960339,
                0.9594010083025395,
                -0.2327626368695246,
                0.6990863356587309,
                -3.116962207423163
            ]
        },
        {
            "positions": [
                -2.737398227858816,
                -0.6857184429052248,
                0.8602266396186419,
                -0.16691824535562438,
                0.5684229720113547,
                -3.1210757627668513
            ]
        },
        {
            "positions": [
                -2.7117767623069224,
                -0.6536802955144158,
                0.7610522709347443,
                -0.1010738538417241,
                0.43775960836397865,
                -3.1251893181105395
            ]
        }
    ]
}