{
    "goal": {
        "global_pose": {
            "orientation": {
                "w": -0.4816463035849501,
                "x": 0.5182115481033762,
                "y": 0.4908360881923453,
                "z": -0.5084816262002911
            },
            "position": {
                "x": -0.8240239810943604,
                "y": 0.19912469901144506,
                "z": 0.16403168439865112
            }
        },
        "name": "move_to_storage_D"
    },
    "id": "BKPIECE_move_to_storage_D_89",
    "joint_names": [
        "shoulder_pan_joint",
        "shoulder_lift_joint",
        "elbow_joint",
        "wrist_1_joint",
        "wrist_2_joint",
        "wrist_3_joint"
    ],
    "metrics": {
        "cart_traj_len": 0.5547109894880154,
        "distance_elbow_joint": 0.7486999163038024,
        "distance_shoulder_lift_joint": 0.15337954218493444,
        "distance_shoulder_pan_joint": 0.240880038545418,
        "distance_wrist_1_joint": 4.04107171380476,
        "distance_wrist_2_joint": 2.0328422273691507,
        "distance_wrist_3_joint": 3.1542743944853924,
        "smoothness": 0.5143731818390334,
        "time": 0.194279319,
        "traj_len": 3.220426653829188,
        "weighted_distance": 4.77007448189629
    },
    "planner": "BKPIECE",
    "start": {
        "state": {
            "elbow_joint": -2.384821988534728,
            "shoulder_lift_joint": -2.2788054721415256,
            "shoulder_pan_joint": -0.1854694642142757,
            "wrist_1_joint": 1.4845938289331202,
            "wrist_2_joint": 0.17898776772866878,
            "wrist_3_joint": 0.037105688729662994
        }
    },
    "waypoints": [
        {
            "positions": [
                -0.1854694642142757,
                -2.2788054721415256,
                -2.384821988534728,
                1.4845938289331202,
                0.17898776772866878,
                0.037105688729662994
            ]
        },
        {
            "positions": [
                -0.08699599557516387,
                -2.2596582014675595,
                -2.4334880409205626,
                1.538866771482272,
                0.24398045439271088,
                0.07551413318237941
            ]
        },
        {
            "positions": [
                0.011477473063947974,
                -2.2405109307935933,
                -2.482154093306397,
                1.5931397140314236,
                0.308973141056753,
                0.11392257763509583
            ]
        },
        {
            "positions": [
                0.009720149013260196,
                -2.2359075307601133,
                -2.4560993808451115,
                1.4358386808831654,
                0.23285886689511034,
                0.2370208778582942
            ]
        },
        {
            "positions": [
                0.00796282496257242,
                -2.2313041307266333,
                -2.430044668383826,
                1.278537647734907,
                0.1567445927334677,
                0.3601191780814926
            ]
        },
        {
            "positions": [
                0.0062055009118846425,
                -2.226700730693153,
                -2.403989955922541,
                1.1212366145866488,
                0.08063031857182507,
                0.4832174783046909
            ]
        },
        {
            "positions": [
                0.004448176861196865,
                -2.222097330659673,
                -2.3779352434612555,
                0.9639355814383905,
                0.004516044410182385,
                0.6063157785278893
            ]
        },
        {
            "positions": [
                0.0026908528105090875,
                -2.2174939306261927,
                -2.35188053099997,
                0.8066345482901323,
                -0.07159822975146024,
                0.7294140787510877
            ]
        },
        {
            "positions": [
                0.0009335287598213112,
                -2.2128905305927127,
                -2.325825818538685,
                0.649333515141874,
                -0.14771250391310287,
                0.852512378974286
            ]
        },
        {
            "positions": [
                -0.0008237952908664668,
                -2.2082871305592326,
                -2.2997711060773995,
                0.4920324819936157,
                -0.2238267780747456,
                0.9756106791974845
            ]
        },
        {
            "positions": [
                -0.002581119341554243,
                -2.2036837305257526,
                -2.273716393616114,
                0.33473144884535744,
                -0.29994105223638823,
                1.0987089794206828
            ]
        },
        {
            "positions": [
                -0.004338443392242021,
                -2.1990803304922726,
                -2.247661681154829,
                0.17743041569709916,
                -0.37605532639803085,
                1.221807279643881
            ]
        },
        {
            "positions": [
                -0.006095767442929799,
                -2.1944769304587926,
                -2.2216069686935436,
                0.02012938254884089,
                -0.4521696005596735,
                1.3449055798670795
            ]
        },
        {
            "positions": [
                -0.007853091493617573,
                -2.1898735304253125,
                -2.195552256232258,
                -0.13717165059941738,
                -0.5282838747213161,
                1.468003880090278
            ]
        },
        {
            "positions": [
                -0.009610415544305351,
                -2.1852701303918325,
                -2.169497543770973,
                -0.29447268374767566,
                -0.6043981488829587,
                1.5911021803134762
            ]
        },
        {
            "positions": [
                -0.01136773959499313,
                -2.180666730358352,
                -2.143442831309687,
                -0.45177371689593393,
                -0.6805124230446015,
                1.7142004805366746
            ]
        },
        {
            "positions": [
                -0.013125063645680907,
                -2.176063330324872,
                -2.117388118848402,
                -0.6090747500441922,
                -0.7566266972062442,
                1.837298780759873
            ]
        },
        {
            "positions": [
                -0.014882387696368682,
                -2.171459930291392,
                -2.0913334063871165,
                -0.7663757831924505,
                -0.8327409713678867,
                1.9603970809830713
            ]
        },
        {
            "positions": [
                -0.01663971174705646,
                -2.166856530257912,
                -2.065278693925831,
                -0.9236768163407088,
                -0.9088552455295295,
                2.0834953812062698
            ]
        },
        {
            "positions": [
                -0.01839703579774424,
                -2.162253130224432,
                -2.039223981464546,
                -1.080977849488967,
                -0.9849695196911722,
                2.206593681429468
            ]
        },
        {
            "positions": [
                -0.020154359848432016,
                -2.157649730190952,
                -2.0131692690032605,
                -1.2382788826372253,
                -1.0610837938528146,
                2.3296919816526662
            ]
        },
        {
            "positions": [
                -0.021911683899119794,
                -2.153046330157472,
                -1.9871145565419752,
                -1.3955799157854836,
                -1.1371980680144573,
                2.4527902818758647
            ]
        },
        {
            "positions": [
                -0.02366900794980757,
                -2.148442930123992,
                -1.96105984408069,
                -1.5528809489337418,
                -1.2133123421761,
                2.575888582099063
            ]
        },
        {
            "positions": [
                -0.025426332000495343,
                -2.1438395300905118,
                -1.9350051316194046,
                -1.7101819820820001,
                -1.2894266163377424,
                2.6989868823222616
            ]
        },
        {
            "positions": [
                -0.02718365605118312,
                -2.1392361300570313,
                -1.9089504191581192,
                -1.8674830152302584,
                -1.365540890499385,
                2.82208518254546
            ]
        },
        {
            "positions": [
                -0.0289409801018709,
                -2.1346327300235513,
                -1.882895706696834,
                -2.0247840483785167,
                -1.4416551646610278,
                2.9451834827686585
            ]
        },
        {
            "positions": [
                -0.030698304152558677,
                -2.130029329990071,
                -1.8568409942355486,
                -2.182085081526775,
                -1.5177694388226706,
                3.0682817829918565
            ]
        },
        {
            "positions": [
                -0.032455628203246455,
                -2.125425929956591,
                -1.8307862817742633,
                -2.339386114675033,
                -1.5938837129843133,
                3.191380083215055
            ]
        }
    ]
}