{
    "goal": {
        "global_pose": {
            "orientation": {
                "w": 0.5084816217422485,
                "x": -0.49083608388900757,
                "y": 0.5182115435600281,
                "z": -0.4816462993621826
            },
            "position": {
                "x": 0.5540239810943604,
                "y": 0.030875300988554955,
                "z": 0.16403168439865112
            }
        },
        "name": "move_to_storage_A"
    },
    "id": "BKPIECE_move_to_storage_A_96",
    "joint_names": [
        "shoulder_pan_joint",
        "shoulder_lift_joint",
        "elbow_joint",
        "wrist_1_joint",
        "wrist_2_joint",
        "wrist_3_joint"
    ],
    "metrics": {
        "cart_traj_len": 0.353922453401232,
        "distance_elbow_joint": 0.4478418521955876,
        "distance_shoulder_lift_joint": 0.23489528416583116,
        "distance_shoulder_pan_joint": 0.4607581379958029,
        "distance_wrist_1_joint": 0.23367072207003947,
        "distance_wrist_2_joint": 1.1092047307786166,
        "distance_wrist_3_joint": 0.10240946838999943,
        "smoothness": 4.440892133664971e-16,
        "time": 0.174586895,
        "traj_len": 1.6089686745228688,
        "weighted_distance": 2.0338324870117823
    },
    "planner": "BKPIECE",
    "start": {
        "state": {
            "elbow_joint": 1.971548259319323,
            "shoulder_lift_joint": -1.1394851275133948,
            "shoulder_pan_joint": 0.1228115487234821,
            "wrist_1_joint": -0.7804723859257726,
            "wrist_2_joint": 0.12958671773740124,
            "wrist_3_joint": -3.192489227718131
        }
    },
    "waypoints": [
        {
            "positions": [
                0.1228115487234821,
                -1.1394851275133948,
                1.971548259319323,
                -0.7804723859257726,
                0.12958671773740124,
                -3.192489227718131
            ]
        },
        {
            "positions": [
                0.05698895758122455,
                -1.1730415966799421,
                2.0355256667758357,
                -0.813853917650064,
                0.2880445364200608,
                -3.1778593036624168
            ]
        },
        {
            "positions": [
                -0.008833633561033005,
                -1.2065980658464894,
                2.099503074232348,
                -0.8472354493743554,
                0.4465023551027203,
                -3.163229379606703
            ]
        },
        {
            "positions": [
                -0.07465622470329056,
                -1.2401545350130367,
                2.1634804816888606,
                -0.8806169810986466,
                0.6049601737853798,
                -3.1485994555509884
            ]
        },
        {
            "positions": [
                -0.1404788158455481,
                -1.273711004179584,
                2.227457889145373,
                -0.913998512822938,
                0.7634179924680393,
                -3.1339695314952745
            ]
        },
        {
            "positions": [
                -0.2063014069878057,
                -1.3072674733461314,
                2.2914352966018856,
                -0.9473800445472293,
                0.9218758111506988,
                -3.11933960743956
            ]
        },
        {
            "positions": [
                -0.2721239981300632,
                -1.3408239425126787,
                2.355412704058398,
                -0.9807615762715207,
                1.0803336298333583,
                -3.104709683383846
            ]
        },
        {
            "positions": [
                -0.3379465892723208,
                -1.374380411679226,
                2.4193901115149106,
                -1.014143107995812,
                1.2387914485160179,
                -3.0900797593281317
            ]
        }
    ]
}{
    "goal": {
        "global_pose": {
            "orientation": {
                "w": 0.5084816217422485,
                "x": -0.49083608388900757,
                "y": 0.5182115435600281,
                "z": -0.4816462993621826
            },
            "position": {
                "x": 0.5540239810943604,
                "y": 0.030875300988554955,
                "z": 0.16403168439865112
            }
        },
        "name": "move_to_storage_A"
    },
    "id": "BKPIECE_move_to_storage_A_96",
    "joint_names": [
        "shoulder_pan_joint",
        "shoulder_lift_joint",
        "elbow_joint",
        "wrist_1_joint",
        "wrist_2_joint",
        "wrist_3_joint"
    ],
    "metrics": {
        "cart_traj_len": 0.3536468441810694,
        "distance_elbow_joint": 0.450878506066815,
        "distance_shoulder_lift_joint": 0.23351257261915426,
        "distance_shoulder_pan_joint": 0.4605288115526449,
        "distance_wrist_1_joint": 0.2471100848412573,
        "distance_wrist_2_joint": 1.107893846584469,
        "distance_wrist_3_joint": 0.0897974100719745,
        "smoothness": 4.440892133664971e-16,
        "time": 0.191368596,
        "traj_len": 1.6092610825271065,
        "weighted_distance": 2.030842185721478
    },
    "planner": "BKPIECE",
    "start": {
        "state": {
            "elbow_joint": 1.97154746011099,
            "shoulder_lift_joint": -1.13948474672311,
            "shoulder_pan_joint": 0.12281154466712228,
            "wrist_1_joint": -0.7804688027058302,
            "wrist_2_joint": 0.12958655903071145,
            "wrist_3_joint": 3.0906928834467795
        }
    },
    "waypoints": [
        {
            "positions": [
                0.12281154466712228,
                -1.13948474672311,
                1.97154746011099,
                -0.7804688027058302,
                0.12958655903071145,
                3.0906928834467795
            ]
        },
        {
            "positions": [
                0.05702171444531587,
                -1.1728436856687035,
                2.0359586752633922,
                -0.8157702433974384,
                0.28785710854277846,
                3.103521084885633
            ]
        },
        {
            "positions": [
                -0.008768115776490545,
                -1.206202624614297,
                2.100369890415794,
                -0.8510716840890465,
                0.44612765805484544,
                3.1163492863244864
            ]
        },
        {
            "positions": [
                -0.07455794599829695,
                -1.2395615635598904,
                2.1647811055681965,
                -0.8863731247806548,
                0.6043982075669124,
                3.12917748776334
            ]
        },
        {
            "positions": [
                -0.14034777622010336,
                -1.2729205025054837,
                2.2291923207205984,
                -0.9216745654722629,
                0.7626687570789794,
                3.1420056892021937
            ]
        },
        {
            "positions": [
                -0.20613760644190982,
                -1.3062794414510772,
                2.2936035358730007,
                -0.9569760061638711,
                0.9209393065910465,
                3.154833890641047
            ]
        },
        {
            "positions": [
                -0.27192743666371616,
                -1.3396383803966707,
                2.3580147510254026,
                -0.9922774468554793,
                1.0792098561031134,
                3.1676620920799006
            ]
        },
        {
            "positions": [
                -0.3377172668855226,
                -1.3729973193422642,
                2.422425966177805,
                -1.0275788875470875,
                1.2374804056151805,
                3.180490293518754
            ]
        }
    ]
}{
    "goal": {
        "global_pose": {
            "orientation": {
                "w": 0.5084816217422485,
                "x": -0.49083608388900757,
                "y": 0.5182115435600281,
                "z": -0.4816462993621826
            },
            "position": {
                "x": 0.5540239810943604,
                "y": 0.030875300988554955,
                "z": 0.16403168439865112
            }
        },
        "name": "move_to_storage_A"
    },
    "id": "BKPIECE_move_to_storage_A_96",
    "joint_names": [
        "shoulder_pan_joint",
        "shoulder_lift_joint",
        "elbow_joint",
        "wrist_1_joint",
        "wrist_2_joint",
        "wrist_3_joint"
    ],
    "metrics": {
        "cart_traj_len": 0.35295140456799573,
        "distance_elbow_joint": 0.4475447793121745,
        "distance_shoulder_lift_joint": 0.23406657034518674,
        "distance_shoulder_pan_joint": 0.4613937486059379,
        "distance_wrist_1_joint": 0.23468309443486435,
        "distance_wrist_2_joint": 1.0986208524265781,
        "distance_wrist_3_joint": 0.09737282654612756,
        "smoothness": 2.2204460668324854e-16,
        "time": 0.180470213,
        "traj_len": 1.6042698874163501,
        "weighted_distance": 2.025273184443167
    },
    "planner": "BKPIECE",
    "start": {
        "state": {
            "elbow_joint": 1.9715472970024885,
            "shoulder_lift_joint": -1.1394870060712896,
            "shoulder_pan_joint": 0.12281152778156021,
            "wrist_1_joint": -0.780463741449964,
            "wrist_2_joint": 0.12958659822042276,
            "wrist_3_joint": 3.090690232415272
        }
    },
    "waypoints": [
        {
            "positions": [
                0.12281152778156021,
                -1.1394870060712896,
                1.9715472970024885,
                -0.780463741449964,
                0.12958659822042276,
                3.090690232415272
            ]
        },
        {
            "positions": [
                0.05689813512356909,
                -1.1729250875491735,
                2.035482265475656,
                -0.8139898977978017,
                0.2865324342813625,
                3.104600636207576
            ]
        },
        {
            "positions": [
                -0.009015257534422033,
                -1.2063631690270573,
                2.099417233948824,
                -0.8475160541456395,
                0.44347827034230225,
                3.1185110399998797
            ]
        },
        {
            "positions": [
                -0.07492865019241315,
                -1.2398012505049412,
                2.1633522024219918,
                -0.8810422104934773,
                0.600424106403242,
                3.132421443792184
            ]
        },
        {
            "positions": [
                -0.14084204285040428,
                -1.2732393319828248,
                2.22728717089516,
                -0.914568366841315,
                0.7573699424641817,
                3.1463318475844875
            ]
        },
        {
            "positions": [
                -0.2067554355083954,
                -1.3066774134607086,
                2.2912221393683274,
                -0.9480945231891529,
                0.9143157785251215,
                3.1602422513767916
            ]
        },
        {
            "positions": [
                -0.2726688281663865,
                -1.3401154949385925,
                2.355157107841495,
                -0.9816206795369906,
                1.0712616145860612,
                3.1741526551690953
            ]
        },
        {
            "positions": [
                -0.33858222082437767,
                -1.3735535764164764,
                2.419092076314663,
                -1.0151468358848283,
                1.2282074506470009,
                3.1880630589613994
            ]
        }
    ]
}