{
    "goal": {
        "global_pose": {
            "orientation": {
                "w": -0.4816463035849501,
                "x": 0.5182115481033762,
                "y": 0.4908360881923453,
                "z": -0.5084816262002911
            },
            "position": {
                "x": -0.8240239810943604,
                "y": -0.300875300988555,
                "z": 0.16403168439865112
            }
        },
        "name": "move_to_storage_C"
    },
    "id": "BKPIECE_move_to_storage_C_146",
    "joint_names": [
        "shoulder_pan_joint",
        "shoulder_lift_joint",
        "elbow_joint",
        "wrist_1_joint",
        "wrist_2_joint",
        "wrist_3_joint"
    ],
    "metrics": {
        "cart_traj_len": 0.5762899732103253,
        "distance_elbow_joint": 0.25829062735195185,
        "distance_shoulder_lift_joint": 0.18864908591619367,
        "distance_shoulder_pan_joint": 0.4950033183299909,
        "distance_wrist_1_joint": 0.08624731557033039,
        "distance_wrist_2_joint": 1.0675752044599904,
        "distance_wrist_3_joint": 0.07558453193222281,
        "smoothness": 0.0,
        "time": 0.221630903,
        "traj_len": 1.4735501632318733,
        "weighted_distance": 1.8644950167419183
    },
    "planner": "BKPIECE",
    "start": {
        "state": {
            "elbow_joint": 2.010868314990456,
            "shoulder_lift_joint": -1.1634956873337592,
            "shoulder_pan_joint": -2.4736205022346125,
            "wrist_1_joint": -0.8367026794202681,
            "wrist_2_joint": 0.6746043897044499,
            "wrist_3_joint": -3.1496632123970403
        }
    },
    "waypoints": [
        {
            "positions": [
                -2.4736205022346125,
                -1.1634956873337592,
                2.010868314990456,
                -0.8367026794202681,
                0.6746043897044499,
                -3.1496632123970403
            ]
        },
        {
            "positions": [
                -2.556121055289611,
                -1.1320541730143936,
                1.9678198770984638,
                -0.8223281268252131,
                0.8525335904477817,
                -3.1370657904083363
            ]
        },
        {
            "positions": [
                -2.6386216083446095,
                -1.100612658695028,
                1.9247714392064719,
                -0.807953574230158,
                1.0304627911911135,
                -3.124468368419633
            ]
        },
        {
            "positions": [
                -2.7211221613996077,
                -1.0691711443756624,
                1.88172300131448,
                -0.7935790216351029,
                1.208391991934445,
                -3.111870946430929
            ]
        },
        {
            "positions": [
                -2.8036227144546064,
                -1.0377296300562968,
                1.838674563422488,
                -0.7792044690400478,
                1.386321192677777,
                -3.099273524442225
            ]
        },
        {
            "positions": [
                -2.886123267509605,
                -1.0062881157369312,
                1.795626125530496,
                -0.7648299164449928,
                1.5642503934211085,
                -3.0866761024535214
            ]
        },
        {
            "positions": [
                -2.9686238205646034,
                -0.9748466014175655,
                1.752577687638504,
                -0.7504553638499377,
                1.7421795941644402,
                -3.0740786804648175
            ]
        }
    ]
}