{
    "goal": {
        "global_pose": {
            "orientation": {
                "w": -0.00223480608172531,
                "x": 0.0024358444001904467,
                "y": 0.7094548369677653,
                "z": -0.704743149386269
            },
            "position": {
                "x": -0.37947507619857795,
                "y": -0.6371506643295288,
                "z": 0.19426114857196808
            }
        },
        "name": "move_to_magneteinheit_C"
    },
    "id": "BKPIECE_move_to_magneteinheit_C_127",
    "joint_names": [
        "shoulder_pan_joint",
        "shoulder_lift_joint",
        "elbow_joint",
        "wrist_1_joint",
        "wrist_2_joint",
        "wrist_3_joint"
    ],
    "metrics": {
        "cart_traj_len": 0.7037930699064956,
        "distance_elbow_joint": 0.23270316096846333,
        "distance_shoulder_lift_joint": 0.4313213016430981,
        "distance_shoulder_pan_joint": 0.8015604494644231,
        "distance_wrist_1_joint": 0.35500507586184604,
        "distance_wrist_2_joint": 0.8043243318149508,
        "distance_wrist_3_joint": 0.12083244085882816,
        "smoothness": 0.6920577698036462,
        "time": 0.384362421,
        "traj_len": 1.6570294990167223,
        "weighted_distance": 2.036354843833968
    },
    "planner": "BKPIECE",
    "start": {
        "state": {
            "elbow_joint": 1.9565354010623817,
            "shoulder_lift_joint": -1.4165861575791021,
            "shoulder_pan_joint": -1.6717766225146293,
            "wrist_1_joint": -0.5286633292919765,
            "wrist_2_joint": 1.472756589071564,
            "wrist_3_joint": -3.1238370188695823
        }
    },
    "waypoints": [
        {
            "positions": [
                -1.6717766225146293,
                -1.4165861575791021,
                1.9565354010623817,
                -0.5286633292919765,
                1.472756589071564,
                -3.1238370188695823
            ]
        },
        {
            "positions": [
                -1.6872962105440894,
                -1.4386967571456515,
                1.991948355915036,
                -0.5211562360691675,
                1.2750076158958397,
                -3.143038060640427
            ]
        },
        {
            "positions": [
                -1.7028157985735493,
                -1.460807356712201,
                2.0273613107676907,
                -0.5136491428463585,
                1.0772586427201154,
                -3.162239102411272
            ]
        },
        {
            "positions": [
                -1.7183353866030093,
                -1.4829179562787504,
                2.062774265620345,
                -0.5061420496235496,
                0.8795096695443912,
                -3.1814401441821167
            ]
        },
        {
            "positions": [
                -1.7338549746324694,
                -1.5050285558452998,
                2.098187220472999,
                -0.4986349564007407,
                0.681760696368667,
                -3.2006411859529615
            ]
        },
        {
            "positions": [
                -1.9187254989691152,
                -1.4193088300010748,
                2.075424385083538,
                -0.5798791321433933,
                0.6784285865906535,
                -3.189634117509099
            ]
        },
        {
            "positions": [
                -2.103596023305761,
                -1.3335891041568497,
                2.0526615496940765,
                -0.6611233078860458,
                0.6750964768126401,
                -3.178627049065237
            ]
        },
        {
            "positions": [
                -2.2884665476424066,
                -1.2478693783126245,
                2.0298987143046148,
                -0.7423674836286984,
                0.6717643670346266,
                -3.167619980621375
            ]
        },
        {
            "positions": [
                -2.4733370719790524,
                -1.1621496524683994,
                2.0071358789151534,
                -0.823611659371351,
                0.6684322572566131,
                -3.1566129121775126
            ]
        }
    ]
}