{
    "goal": {
        "global_pose": {
            "orientation": {
                "w": 0.7047431493862688,
                "x": -0.7094548369677653,
                "y": 0.0024358444001904,
                "z": -0.0022348060817251984
            },
            "position": {
                "x": -0.39052492380142206,
                "y": 0.3671506643295288,
                "z": 0.19426114857196808
            }
        },
        "name": "move_to_magneteinheit_D"
    },
    "id": "BKPIECE_move_to_magneteinheit_D_91",
    "joint_names": [
        "shoulder_pan_joint",
        "shoulder_lift_joint",
        "elbow_joint",
        "wrist_1_joint",
        "wrist_2_joint",
        "wrist_3_joint"
    ],
    "metrics": {
        "cart_traj_len": 4.989243118648068,
        "distance_elbow_joint": 3.0980001448566585,
        "distance_shoulder_lift_joint": 1.9863979126124878,
        "distance_shoulder_pan_joint": 6.14343764125981,
        "distance_wrist_1_joint": 3.5750782689020477,
        "distance_wrist_2_joint": 5.184710539868783,
        "distance_wrist_3_joint": 7.85220571418561,
        "smoothness": 0.3581777266387309,
        "time": 0.304510989,
        "traj_len": 5.276346294708622,
        "weighted_distance": 7.232152546706095
    },
    "planner": "BKPIECE",
    "start": {
        "state": {
            "elbow_joint": 0.749534889911806,
            "shoulder_lift_joint": -0.6476975780787326,
            "shoulder_pan_joint": -2.711696901376241,
            "wrist_1_joint": -0.07506478083263063,
            "wrist_2_joint": 0.43296659715538205,
            "wrist_3_joint": -3.14703540197715
        }
    },
    "waypoints": [
        {
            "positions": [
                -2.711696901376241,
                -0.6476975780787326,
                0.749534889911806,
                -0.07506478083263063,
                0.43296659715538205,
                -3.14703540197715
            ]
        },
        {
            "positions": [
                -2.705313623671584,
                -0.6710747672567945,
                0.7454803137282118,
                -0.011225315245100703,
                0.3832538702157816,
                -2.932628530314057
            ]
        },
        {
            "positions": [
                -2.6989303459669274,
                -0.6944519564348564,
                0.7414257375446176,
                0.05261415034242922,
                0.33354114327618123,
                -2.7182216586509633
            ]
        },
        {
            "positions": [
                -2.6925470682622703,
                -0.7178291456129182,
                0.7373711613610233,
                0.11645361592995912,
                0.2838284163365808,
                -2.50381478698787
            ]
        },
        {
            "positions": [
                -2.6861637905576132,
                -0.7412063347909801,
                0.7333165851774291,
                0.18029308151748907,
                0.23411568939698035,
                -2.2894079153247766
            ]
        },
        {
            "positions": [
                -2.6797805128529566,
                -0.764583523969042,
                0.729262008993835,
                0.24413254710501897,
                0.18440296245737994,
                -2.0750010436616835
            ]
        },
        {
            "positions": [
                -2.6733972351482995,
                -0.7879607131471038,
                0.7252074328102408,
                0.30797201269254887,
                0.13469023551777953,
                -1.8605941719985903
            ]
        },
        {
            "positions": [
                -2.667013957443643,
                -0.8113379023251657,
                0.7211528566266466,
                0.3718114782800788,
                0.0849775085781791,
                -1.646187300335497
            ]
        },
        {
            "positions": [
                -2.660630679738986,
                -0.8347150915032275,
                0.7170982804430525,
                0.4356509438676088,
                0.03526478163857866,
                -1.4317804286724036
            ]
        },
        {
            "positions": [
                -2.6542474020343287,
                -0.8580922806812894,
                0.7130437042594582,
                0.49949040945513873,
                -0.01444794530102178,
                -1.2173735570093103
            ]
        },
        {
            "positions": [
                -2.647864124329672,
                -0.8814694698593513,
                0.708989128075864,
                0.5633298750426685,
                -0.06416067224062216,
                -1.0029666853462174
            ]
        },
        {
            "positions": [
                -2.641480846625015,
                -0.9048466590374131,
                0.7049345518922698,
                0.6271693406301986,
                -0.11387339918022264,
                -0.7885598136831238
            ]
        },
        {
            "positions": [
                -2.556883372149814,
                -0.9454026836979994,
                0.641430108902462,
                0.5261646830190442,
                -0.1274205870133443,
                -0.7368452537411554
            ]
        },
        {
            "positions": [
                -2.472285897674613,
                -0.9859587083585858,
                0.5779256659126542,
                0.4251600254078899,
                -0.14096777484646597,
                -0.685130693799187
            ]
        },
        {
            "positions": [
                -2.3876884231994127,
                -1.0265147330191722,
                0.5144212229228462,
                0.3241553677967355,
                -0.15451496267958764,
                -0.6334161338572186
            ]
        },
        {
            "positions": [
                -2.3030909487242117,
                -1.0670707576797585,
                0.45091677993303836,
                0.22315071018558114,
                -0.16806215051270929,
                -0.5817015739152502
            ]
        },
        {
            "positions": [
                -2.1764201836520902,
                -1.052857139358966,
                0.3932303369421032,
                0.15206027811497613,
                -0.09428762129058109,
                -0.5367447597260088
            ]
        },
        {
            "positions": [
                -2.0497494185799687,
                -1.0386435210381735,
                0.335543893951168,
                0.08096984604437116,
                -0.020513092068452893,
                -0.4917879455367672
            ]
        },
        {
            "positions": [
                -1.923078653507847,
                -1.024429902717381,
                0.27785745096023284,
                0.009879413973766182,
                0.05326143715367532,
                -0.4468311313475257
            ]
        },
        {
            "positions": [
                -1.7964078884357253,
                -1.0102162843965885,
                0.2201710079692977,
                -0.06121101809683882,
                0.1270359663758035,
                -0.40187431715828414
            ]
        },
        {
            "positions": [
                -1.6697371233636038,
                -0.9960026660757961,
                0.16248456497836256,
                -0.13230145016744382,
                0.20081049559793168,
                -0.3569175029690427
            ]
        },
        {
            "positions": [
                -1.5430663582914823,
                -0.9817890477550036,
                0.10479812198742738,
                -0.20339188223804877,
                0.2745850248200599,
                -0.31196068877980115
            ]
        },
        {
            "positions": [
                -1.4163955932193608,
                -0.9675754294342112,
                0.04711167899649221,
                -0.2744823143086538,
                0.34835955404218805,
                -0.26700387459055963
            ]
        },
        {
            "positions": [
                -1.289724828147239,
                -0.9533618111134187,
                -0.01057476399444296,
                -0.3455727463792588,
                0.4221340832643163,
                -0.2220470604013181
            ]
        },
        {
            "positions": [
                -1.1630540630751174,
                -0.9391481927926262,
                -0.06826120698537819,
                -0.41666317844986384,
                0.4959086124864445,
                -0.17709024621207659
            ]
        },
        {
            "positions": [
                -1.036383298002996,
                -0.9249345744718337,
                -0.12594764997631325,
                -0.4877536105204688,
                0.5696831417085726,
                -0.13213343202283512
            ]
        },
        {
            "positions": [
                -0.9097125329308742,
                -0.9107209561510412,
                -0.18363409296724853,
                -0.5588440425910739,
                0.6434576709307009,
                -0.08717661783359354
            ]
        },
        {
            "positions": [
                -0.7830417678587529,
                -0.8965073378302487,
                -0.2413205359581836,
                -0.6299344746616786,
                0.7172322001528291,
                -0.04221980364435207
            ]
        },
        {
            "positions": [
                -0.6563710027866312,
                -0.8822937195094562,
                -0.29900697894911876,
                -0.7010249067322838,
                0.7910067293749574,
                0.0027370105448895066
            ]
        },
        {
            "positions": [
                -0.5297002377145097,
                -0.8680801011886639,
                -0.35669342194005393,
                -0.7721153388028887,
                0.8647812585970853,
                0.047693824734130974
            ]
        },
        {
            "positions": [
                -0.403029472642388,
                -0.8538664828678713,
                -0.4143798649309891,
                -0.8432057708734937,
                0.9385557878192137,
                0.09265063892337244
            ]
        },
        {
            "positions": [
                -0.2763587075702665,
                -0.8396528645470789,
                -0.4720663079219243,
                -0.9142962029440986,
                1.0123303170413418,
                0.13760745311261402
            ]
        },
        {
            "positions": [
                -0.149687942498145,
                -0.8254392462262864,
                -0.5297527509128593,
                -0.9853866350147036,
                1.08610484626347,
                0.1825642673018555
            ]
        },
        {
            "positions": [
                -0.02301717742602305,
                -0.8112256279054939,
                -0.5874391939037947,
                -1.0564770670853088,
                1.1598793754855983,
                0.22752108149109707
            ]
        },
        {
            "positions": [
                0.10365358764609844,
                -0.7970120095847014,
                -0.6451256368947297,
                -1.1275674991559137,
                1.2336539047077264,
                0.27247789568033853
            ]
        },
        {
            "positions": [
                0.23032435271821994,
                -0.7827983912639089,
                -0.7028120798856649,
                -1.1986579312265186,
                1.3074284339298545,
                0.31743470986958
            ]
        },
        {
            "positions": [
                0.35699511779034143,
                -0.7685847729431164,
                -0.7604985228766,
                -1.2697483632971236,
                1.3812029631519827,
                0.36239152405882147
            ]
        },
        {
            "positions": [
                0.48366588286246337,
                -0.754371154622324,
                -0.8181849658675354,
                -1.3408387953677288,
                1.454977492374111,
                0.40734833824806316
            ]
        },
        {
            "positions": [
                0.6103366479345849,
                -0.7401575363015315,
                -0.8758714088584704,
                -1.4119292274383337,
                1.5287520215962391,
                0.4523051524373045
            ]
        },
        {
            "positions": [
                0.7370074130067059,
                -0.725943917980739,
                -0.9335578518494055,
                -1.4830196595089384,
                1.6025265508183675,
                0.4972619666265461
            ]
        },
        {
            "positions": [
                0.8636781780788274,
                -0.7117302996599466,
                -0.9912442948403407,
                -1.5541100915795434,
                1.6763010800404956,
                0.5422187808157874
            ]
        },
        {
            "positions": [
                0.9903489431509493,
                -0.697516681339154,
                -1.048930737831276,
                -1.6252005236501486,
                1.750075609262624,
                0.5871755950050292
            ]
        },
        {
            "positions": [
                1.1170197082230708,
                -0.6833030630183616,
                -1.106617180822211,
                -1.6962909557207535,
                1.823850138484752,
                0.6321324091942706
            ]
        },
        {
            "positions": [
                1.2436904732951923,
                -0.6690894446975691,
                -1.1643036238131463,
                -1.7673813877913584,
                1.89762466770688,
                0.6770892233835122
            ]
        },
        {
            "positions": [
                1.3703612383673138,
                -0.6548758263767767,
                -1.2219900668040813,
                -1.8384718198619636,
                1.9713991969290081,
                0.7220460375727535
            ]
        },
        {
            "positions": [
                1.4970320034394358,
                -0.6406622080559842,
                -1.2796765097950167,
                -1.9095622519325686,
                2.0451737261511367,
                0.7670028517619951
            ]
        },
        {
            "positions": [
                1.6237027685115573,
                -0.6264485897351917,
                -1.3373629527859519,
                -1.9806526840031737,
                2.118948255373265,
                0.8119596659512367
            ]
        },
        {
            "positions": [
                1.556738399201483,
                -0.6681672032561878,
                -1.3748111861992445,
                -1.990468318181168,
                2.0338863521764234,
                0.6677666790528209
            ]
        },
        {
            "positions": [
                1.4897740298914084,
                -0.7098858167771839,
                -1.4122594196125369,
                -2.0002839523591622,
                1.948824448979582,
                0.5235736921544052
            ]
        },
        {
            "positions": [
                1.422809660581334,
                -0.75160443029818,
                -1.4497076530258295,
                -2.010099586537157,
                1.8637625457827407,
                0.37938070525598944
            ]
        },
        {
            "positions": [
                1.3558452912712595,
                -0.7933230438191761,
                -1.487155886439122,
                -2.019915220715151,
                1.778700642585899,
                0.23518771835757368
            ]
        },
        {
            "positions": [
                1.2888809219611852,
                -0.8350416573401722,
                -1.5246041198524147,
                -2.0297308548931454,
                1.6936387393890577,
                0.09099473145915793
            ]
        },
        {
            "positions": [
                1.2219165526511109,
                -0.8767602708611684,
                -1.5620523532657071,
                -2.0395464890711397,
                1.6085768361922164,
                -0.053198255439257824
            ]
        },
        {
            "positions": [
                1.1549521833410363,
                -0.9184788843821645,
                -1.5995005866789997,
                -2.0493621232491344,
                1.5235149329953748,
                -0.19739124233767358
            ]
        },
        {
            "positions": [
                1.087987814030962,
                -0.9601974979031606,
                -1.6369488200922924,
                -2.0591777574271286,
                1.4384530297985334,
                -0.34158422923608933
            ]
        },
        {
            "positions": [
                1.0210234447208877,
                -1.0019161114241566,
                -1.6743970535055848,
                -2.068993391605123,
                1.353391126601692,
                -0.4857772161345051
            ]
        },
        {
            "positions": [
                0.9540590754108131,
                -1.0436347249451527,
                -1.7118452869188774,
                -2.078809025783117,
                1.2683292234048507,
                -0.6299702030329208
            ]
        },
        {
            "positions": [
                0.8870947061007387,
                -1.085353338466149,
                -1.74929352033217,
                -2.0886246599611114,
                1.1832673202080093,
                -0.7741631899313366
            ]
        },
        {
            "positions": [
                0.8201303367906644,
                -1.127071951987145,
                -1.7867417537454626,
                -2.098440294139106,
                1.098205417011168,
                -0.9183561768297523
            ]
        },
        {
            "positions": [
                0.75316596748059,
                -1.1687905655081412,
                -1.8241899871587552,
                -2.1082559283171003,
                1.0131435138143263,
                -1.062549163728168
            ]
        },
        {
            "positions": [
                0.6862015981705155,
                -1.2105091790291373,
                -1.8616382205720476,
                -2.1180715624950945,
                0.928081610617485,
                -1.2067421506265839
            ]
        },
        {
            "positions": [
                0.6192372288604411,
                -1.2522277925501335,
                -1.8990864539853403,
                -2.127887196673089,
                0.8430197074206434,
                -1.350935137525
            ]
        },
        {
            "positions": [
                0.5522728595503668,
                -1.2939464060711294,
                -1.9365346873986327,
                -2.1377028308510835,
                0.7579578042238022,
                -1.4951281244234154
            ]
        },
        {
            "positions": [
                0.4853084902402922,
                -1.3356650195921256,
                -1.9739829208119253,
                -2.1475184650290777,
                0.6728959010269606,
                -1.6393211113218316
            ]
        },
        {
            "positions": [
                0.4183441209302179,
                -1.3773836331131215,
                -2.011431154225218,
                -2.157334099207072,
                0.5878339978301192,
                -1.7835140982202469
            ]
        },
        {
            "positions": [
                0.35137975162014334,
                -1.4191022466341177,
                -2.0488793876385105,
                -2.1671497333850662,
                0.5027720946332779,
                -1.927707085118663
            ]
        },
        {
            "positions": [
                0.284415382310069,
                -1.4608208601551138,
                -2.086327621051803,
                -2.1769653675630605,
                0.4177101914364365,
                -2.0719000720170784
            ]
        },
        {
            "positions": [
                0.21745101299999448,
                -1.50253947367611,
                -2.1237758544650958,
                -2.186781001741055,
                0.3326482882395949,
                -2.2160930589154946
            ]
        },
        {
            "positions": [
                0.15048664368992015,
                -1.544258087197106,
                -2.161224087878388,
                -2.1965966359190494,
                0.24758638504275376,
                -2.36028604581391
            ]
        },
        {
            "positions": [
                0.08352227437984583,
                -1.5859767007181023,
                -2.1986723212916806,
                -2.2064122700970437,
                0.16252448184591217,
                -2.504479032712326
            ]
        },
        {
            "positions": [
                0.016557905069771506,
                -1.6276953142390982,
                -2.236120554704973,
                -2.216227904275038,
                0.07746257864907102,
                -2.6486720196107414
            ]
        },
        {
            "positions": [
                -0.05040646424030304,
                -1.6694139277600943,
                -2.273568788118266,
                -2.2260435384530326,
                -0.007599324547770792,
                -2.7928650065091576
            ]
        },
        {
            "positions": [
                -0.11737083355037736,
                -1.7111325412810905,
                -2.3110170215315584,
                -2.235859172631027,
                -0.09266122774461216,
                -2.937057993407573
            ]
        },
        {
            "positions": [
                -0.1843352028604519,
                -1.7528511548020866,
                -2.348465254944851,
                -2.245674806809021,
                -0.1777231309414535,
                -3.081250980305989
            ]
        }
    ]
}