{
    "goal": {
        "global_pose": {
            "orientation": {
                "w": 0.7031023480610252,
                "x": -0.7110244013736278,
                "y": 0.0077485991402295624,
                "z": 0.005598929693374583
            },
            "position": {
                "x": -0.8841497679147869,
                "y": 0.44412534475326537,
                "z": 0.3711530566215515
            }
        },
        "name": "move_to_auspresseinheit_D"
    },
    "id": "BKPIECE_move_to_auspresseinheit_D_7",
    "joint_names": [
        "shoulder_pan_joint",
        "shoulder_lift_joint",
        "elbow_joint",
        "wrist_1_joint",
        "wrist_2_joint",
        "wrist_3_joint"
    ],
    "metrics": {
        "cart_traj_len": 0.34397955859633017,
        "distance_elbow_joint": 0.6467433565459566,
        "distance_shoulder_lift_joint": 0.12575710695680975,
        "distance_shoulder_pan_joint": 0.1349064801923808,
        "distance_wrist_1_joint": 0.5658787427347494,
        "distance_wrist_2_joint": 1.4297212487443252,
        "distance_wrist_3_joint": 0.03387436217144568,
        "smoothness": 1.3816108763950246e-15,
        "time": 0.28905860499999997,
        "traj_len": 1.713733146480416,
        "weighted_distance": 2.2361194094161503
    },
    "planner": "BKPIECE",
    "start": {
        "state": {
            "elbow_joint": -1.8275523626775212,
            "shoulder_lift_joint": -2.126789852344167,
            "shoulder_pan_joint": -0.03513704404078235,
            "wrist_1_joint": -2.347782403156801,
            "wrist_2_joint": -1.6058999987535132,
            "wrist_3_joint": -3.0880379163319196
        }
    },
    "waypoints": [
        {
            "positions": [
                -0.03513704404078235,
                -2.126789852344167,
                -1.8275523626775212,
                -2.347782403156801,
                -1.6058999987535132,
                -3.0880379163319196
            ]
        },
        {
            "positions": [
                -0.052000354064829946,
                -2.142509490713768,
                -1.7467094431092767,
                -2.4185172459986446,
                -1.4271848426604725,
                -3.083803621060489
            ]
        },
        {
            "positions": [
                -0.06886366408887755,
                -2.1582291290833693,
                -1.6658665235410322,
                -2.4892520888404883,
                -1.2484696865674318,
                -3.079569325789058
            ]
        },
        {
            "positions": [
                -0.08572697411292515,
                -2.1739487674529707,
                -1.5850236039727874,
                -2.559986931682332,
                -1.0697545304743912,
                -3.0753350305176275
            ]
        },
        {
            "positions": [
                -0.10259028413697274,
                -2.1896684058225717,
                -1.504180684404543,
                -2.6307217745241758,
                -0.8910393743813506,
                -3.0711007352461968
            ]
        },
        {
            "positions": [
                -0.11945359416102036,
                -2.2053880441921727,
                -1.4233377648362984,
                -2.701456617366019,
                -0.7123242182883099,
                -3.066866439974766
            ]
        },
        {
            "positions": [
                -0.13631690418506795,
                -2.221107682561774,
                -1.3424948452680536,
                -2.772191460207863,
                -0.5336090621952694,
                -3.0626321447033353
            ]
        },
        {
            "positions": [
                -0.15318021420911554,
                -2.2368273209313756,
                -1.261651925699809,
                -2.8429263030497065,
                -0.3548939061022287,
                -3.0583978494319046
            ]
        },
        {
            "positions": [
                -0.17004352423316316,
                -2.2525469593009766,
                -1.1808090061315646,
                -2.9136611458915502,
                -0.1761787500091881,
                -3.054163554160474
            ]
        }
    ]
}