{
    "goal": {
        "global_pose": {
            "orientation": {
                "w": 0.7047431468963623,
                "x": -0.7094548344612122,
                "y": 0.0024358443915843964,
                "z": -0.0022348060738295317
            },
            "position": {
                "x": 0.6094750761985779,
                "y": 0.3671506643295288,
                "z": 0.19426114857196808
            }
        },
        "name": "move_to_magneteinheit_A"
    },
    "id": "BKPIECE_move_to_magneteinheit_A_13",
    "joint_names": [
        "shoulder_pan_joint",
        "shoulder_lift_joint",
        "elbow_joint",
        "wrist_1_joint",
        "wrist_2_joint",
        "wrist_3_joint"
    ],
    "metrics": {
        "cart_traj_len": 3.1468746268634673,
        "distance_elbow_joint": 4.5079166729028035,
        "distance_shoulder_lift_joint": 1.3420293271643071,
        "distance_shoulder_pan_joint": 2.7839897277276293,
        "distance_wrist_1_joint": 1.0197243664210471,
        "distance_wrist_2_joint": 2.601618673333651,
        "distance_wrist_3_joint": 2.5887712077199474,
        "smoothness": 0.280251446082273,
        "time": 0.24371588800000002,
        "traj_len": 3.852797681590533,
        "weighted_distance": 4.862400171773604
    },
    "planner": "BKPIECE",
    "start": {
        "state": {
            "elbow_joint": -1.9196185241190666,
            "shoulder_lift_joint": -1.2443396400964142,
            "shoulder_pan_joint": 2.6996025414629847,
            "wrist_1_joint": -1.5485510000780065,
            "wrist_2_joint": -1.5709468930060704,
            "wrist_3_joint": 0.4420197071253992
        }
    },
    "waypoints": [
        {
            "positions": [
                2.6996025414629847,
                -1.2443396400964142,
                -1.9196185241190666,
                -1.5485510000780065,
                -1.5709468930060704,
                0.4420197071253992
            ]
        },
        {
            "positions": [
                2.6065711714368143,
                -1.2662633872925302,
                -1.7699217126046216,
                -1.5152881996158334,
                -1.4941564860471097,
                0.46249482464785996
            ]
        },
        {
            "positions": [
                2.513539801410644,
                -1.2881871344886464,
                -1.6202249010901766,
                -1.4820253991536605,
                -1.417366079088149,
                0.48296994217032074
            ]
        },
        {
            "positions": [
                2.4205084313844734,
                -1.3101108816847624,
                -1.4705280895757313,
                -1.4487625986914874,
                -1.3405756721291886,
                0.5034450596927815
            ]
        },
        {
            "positions": [
                2.327477061358303,
                -1.3320346288808784,
                -1.3208312780612863,
                -1.4154997982293143,
                -1.263785265170228,
                0.5239201772152423
            ]
        },
        {
            "positions": [
                2.2344456913321324,
                -1.3539583760769944,
                -1.171134466546841,
                -1.3822369977671412,
                -1.1869948582112673,
                0.5443952947377031
            ]
        },
        {
            "positions": [
                2.141414321305962,
                -1.3758821232731107,
                -1.021437655032396,
                -1.3489741973049683,
                -1.1102044512523066,
                0.564870412260164
            ]
        },
        {
            "positions": [
                2.0483829512797915,
                -1.3978058704692267,
                -0.871740843517951,
                -1.3157113968427951,
                -1.033414044293346,
                0.5853455297826248
            ]
        },
        {
            "positions": [
                1.955351581253621,
                -1.4197296176653427,
                -0.722044032003506,
                -1.2824485963806223,
                -0.9566236373343854,
                0.6058206473050856
            ]
        },
        {
            "positions": [
                1.8623202112274504,
                -1.441653364861459,
                -0.5723472204890607,
                -1.2491857959184491,
                -0.8798332303754246,
                0.6262957648275463
            ]
        },
        {
            "positions": [
                1.76928884120128,
                -1.463577112057575,
                -0.4226504089746157,
                -1.215922995456276,
                -0.803042823416464,
                0.6467708823500071
            ]
        },
        {
            "positions": [
                1.6762574711751095,
                -1.485500859253691,
                -0.27295359746017067,
                -1.182660194994103,
                -0.7262524164575034,
                0.6672459998724679
            ]
        },
        {
            "positions": [
                1.583226101148939,
                -1.507424606449807,
                -0.12325678594572564,
                -1.14939739453193,
                -0.6494620094985428,
                0.6877211173949287
            ]
        },
        {
            "positions": [
                1.4901947311227686,
                -1.5293483536459231,
                0.026440025568719605,
                -1.116134594069757,
                -0.572671602539582,
                0.7081962349173896
            ]
        },
        {
            "positions": [
                1.3971633610965981,
                -1.5512721008420391,
                0.17613683708316463,
                -1.0828717936075838,
                -0.4958811955806215,
                0.7286713524398503
            ]
        },
        {
            "positions": [
                1.3041319910704277,
                -1.5731958480381552,
                0.32583364859760966,
                -1.049608993145411,
                -0.4190907886216608,
                0.7491464699623112
            ]
        },
        {
            "positions": [
                1.2111006210442572,
                -1.5951195952342712,
                0.4755304601120547,
                -1.0163461926832378,
                -0.3423003816627004,
                0.7696215874847718
            ]
        },
        {
            "positions": [
                1.1180692510180867,
                -1.6170433424303874,
                0.6252272716264997,
                -0.9830833922210648,
                -0.2655099747037397,
                0.7900967050072327
            ]
        },
        {
            "positions": [
                1.025037880991916,
                -1.6389670896265034,
                0.7749240831409452,
                -0.9498205917588917,
                -0.18871956774477883,
                0.8105718225296935
            ]
        },
        {
            "positions": [
                0.9320065109657456,
                -1.6608908368226194,
                0.9246208946553902,
                -0.9165577912967185,
                -0.11192916078581816,
                0.8310469400521543
            ]
        },
        {
            "positions": [
                0.8389751409395751,
                -1.6828145840187356,
                1.0743177061698352,
                -0.8832949908345455,
                -0.035138753826857716,
                0.8515220575746151
            ]
        },
        {
            "positions": [
                0.7459437709134047,
                -1.7047383312148516,
                1.2240145176842803,
                -0.8500321903723725,
                0.04165165313210295,
                0.8719971750970759
            ]
        },
        {
            "positions": [
                0.6529124008872342,
                -1.7266620784109676,
                1.3737113291987253,
                -0.8167693899101994,
                0.11844206009106362,
                0.8924722926195368
            ]
        },
        {
            "positions": [
                0.5598810308610638,
                -1.7485858256070839,
                1.5234081407131703,
                -0.7835065894480264,
                0.19523246705002406,
                0.9129474101419974
            ]
        },
        {
            "positions": [
                0.4668496608348933,
                -1.7705095728031996,
                1.6731049522276153,
                -0.7502437889858534,
                0.2720228740089847,
                0.9334225276644583
            ]
        },
        {
            "positions": [
                0.37381829080872286,
                -1.7924333199993159,
                1.8228017637420608,
                -0.7169809885236803,
                0.3488132809679456,
                0.9538976451869191
            ]
        },
        {
            "positions": [
                0.2807869207825524,
                -1.814357067195432,
                1.9724985752565058,
                -0.6837181880615073,
                0.4256036879269063,
                0.9743727627093799
            ]
        },
        {
            "positions": [
                0.18775555075638195,
                -1.836280814391548,
                2.1221953867709513,
                -0.6504553875993342,
                0.5023940948858667,
                0.9948478802318407
            ]
        },
        {
            "positions": [
                0.09472418073021133,
                -1.8582045615876641,
                2.2718921982853955,
                -0.6171925871371612,
                0.5791845018448272,
                1.0153229977543015
            ]
        },
        {
            "positions": [
                0.0839774190855258,
                -1.7804614092462392,
                2.242941850224222,
                -0.6244113264067347,
                0.5205455420197145,
                1.225180681187608
            ]
        },
        {
            "positions": [
                0.07323065744084029,
                -1.702718256904814,
                2.2139915021630494,
                -0.6316300656763082,
                0.46190658219460184,
                1.4350383646209148
            ]
        },
        {
            "positions": [
                0.062483895796154765,
                -1.6249751045633891,
                2.185041154101876,
                -0.6388488049458817,
                0.40326762236948915,
                1.6448960480542216
            ]
        },
        {
            "positions": [
                0.051737134151469244,
                -1.547231952221964,
                2.1560908060407034,
                -0.6460675442154551,
                0.3446286625443765,
                1.8547537314875282
            ]
        },
        {
            "positions": [
                0.04099037250678372,
                -1.469488799880539,
                2.12714045797953,
                -0.6532862834850286,
                0.28598970271926377,
                2.0646114149208348
            ]
        },
        {
            "positions": [
                0.030243610862098202,
                -1.3917456475391141,
                2.0981901099183573,
                -0.6605050227546021,
                0.22735074289415114,
                2.2744690983541416
            ]
        },
        {
            "positions": [
                0.01949684921741268,
                -1.314002495197689,
                2.069239761857184,
                -0.6677237620241756,
                0.16871178306903847,
                2.4843267817874484
            ]
        },
        {
            "positions": [
                0.05412486104476458,
                -1.2526817154366616,
                2.0313219238338065,
                -0.6803353548885713,
                0.15504026316671676,
                2.666481492806748
            ]
        },
        {
            "positions": [
                0.08875287287211647,
                -1.1913609356756343,
                1.9934040858104292,
                -0.6929469477529672,
                0.14136874326439502,
                2.848636203826047
            ]
        },
        {
            "positions": [
                0.12338088469946838,
                -1.130040155914607,
                1.9554862477870518,
                -0.7055585406173629,
                0.12769722336207331,
                3.0307909148453467
            ]
        }
    ]
}