{
    "goal": {
        "global_pose": {
            "orientation": {
                "w": 0.005598929693374612,
                "x": 0.007748599140229565,
                "y": 0.7110244013736278,
                "z": -0.7031023480610252
            },
            "position": {
                "x": 0.1141497679147869,
                "y": -0.7141253447532654,
                "z": 0.3711530566215515
            }
        },
        "name": "move_to_auspresseinheit_B"
    },
    "id": "BKPIECE_move_to_auspresseinheit_B_79",
    "joint_names": [
        "shoulder_pan_joint",
        "shoulder_lift_joint",
        "elbow_joint",
        "wrist_1_joint",
        "wrist_2_joint",
        "wrist_3_joint"
    ],
    "metrics": {
        "cart_traj_len": 0.5647643745355087,
        "distance_elbow_joint": 0.06322327676611716,
        "distance_shoulder_lift_joint": 0.29397258288892125,
        "distance_shoulder_pan_joint": 0.5775969272042962,
        "distance_wrist_1_joint": 0.32483029160591337,
        "distance_wrist_2_joint": 0.9880742103904625,
        "distance_wrist_3_joint": 0.004198648499206481,
        "smoothness": 0.0,
        "time": 0.240842278,
        "traj_len": 1.5006318460418322,
        "weighted_distance": 1.8902903841340637
    },
    "planner": "BKPIECE",
    "start": {
        "state": {
            "elbow_joint": 2.0193083361928714,
            "shoulder_lift_joint": -1.1220246554650708,
            "shoulder_pan_joint": -1.0952077554168747,
            "wrist_1_joint": -0.8559753972642168,
            "wrist_2_joint": 0.4759566250798843,
            "wrist_3_joint": -3.1240929996934557
        }
    },
    "waypoints": [
        {
            "positions": [
                -1.0952077554168747,
                -1.1220246554650708,
                2.0193083361928714,
                -0.8559753972642168,
                0.4759566250798843,
                -3.1240929996934557
            ]
        },
        {
            "positions": [
                -1.191473909950924,
                -1.1710200859465576,
                2.0087711233985184,
                -0.8018370153298979,
                0.6406356601449614,
                -3.123393224943588
            ]
        },
        {
            "positions": [
                -1.2877400644849735,
                -1.2200155164280446,
                1.9982339106041658,
                -0.747698633395579,
                0.8053146952100385,
                -3.12269345019372
            ]
        },
        {
            "positions": [
                -1.3840062190190228,
                -1.2690109469095314,
                1.9876966978098127,
                -0.6935602514612601,
                0.9699937302751156,
                -3.1219936754438526
            ]
        },
        {
            "positions": [
                -1.480272373553072,
                -1.3180063773910182,
                1.97715948501546,
                -0.6394218695269412,
                1.1346727653401927,
                -3.121293900693985
            ]
        },
        {
            "positions": [
                -1.5765385280871216,
                -1.3670018078725052,
                1.966622272221107,
                -0.5852834875926223,
                1.2993518004052698,
                -3.120594125944117
            ]
        },
        {
            "positions": [
                -1.6728046826211709,
                -1.415997238353992,
                1.9560850594267543,
                -0.5311451056583034,
                1.4640308354703468,
                -3.119894351194249
            ]
        }
    ]
}