{
    "goal": {
        "global_pose": {
            "orientation": {
                "w": -0.00223480608172531,
                "x": 0.0024358444001904467,
                "y": 0.7094548369677653,
                "z": -0.704743149386269
            },
            "position": {
                "x": 0.6205249238014221,
                "y": -0.6371506643295288,
                "z": 0.19426114857196808
            }
        },
        "name": "move_to_magneteinheit_B"
    },
    "id": "BKPIECE_move_to_magneteinheit_B_149",
    "joint_names": [
        "shoulder_pan_joint",
        "shoulder_lift_joint",
        "elbow_joint",
        "wrist_1_joint",
        "wrist_2_joint",
        "wrist_3_joint"
    ],
    "metrics": {
        "cart_traj_len": 3.8547695159831115,
        "distance_elbow_joint": 4.267974354544028,
        "distance_shoulder_lift_joint": 0.770469728400712,
        "distance_shoulder_pan_joint": 2.8746841117611464,
        "distance_wrist_1_joint": 4.6620646661975655,
        "distance_wrist_2_joint": 0.22431353213443844,
        "distance_wrist_3_joint": 3.112350362682449,
        "smoothness": 0.27167276347361297,
        "time": 0.6199990200000001,
        "traj_len": 3.9889668782430796,
        "weighted_distance": 5.1983589409944795
    },
    "planner": "BKPIECE",
    "start": {
        "state": {
            "elbow_joint": 2.6216224122426386,
            "shoulder_lift_joint": -1.4174107377796124,
            "shoulder_pan_joint": 0.7066234856936794,
            "wrist_1_joint": 1.9546482284002225,
            "wrist_2_joint": -0.7096286983471962,
            "wrist_3_joint": 0.005740856962016249
        }
    },
    "waypoints": [
        {
            "positions": [
                0.7066234856936794,
                -1.4174107377796124,
                2.6216224122426386,
                1.9546482284002225,
                -0.7096286983471962,
                0.005740856962016249
            ]
        },
        {
            "positions": [
                0.6797344877611072,
                -1.4638478582632124,
                2.61385046645009,
                1.7696589043314028,
                -0.6957113363505026,
                -0.1062115457043575
            ]
        },
        {
            "positions": [
                0.652845489828535,
                -1.5102849787468124,
                2.6060785206575408,
                1.5846695802625834,
                -0.6817939743538092,
                -0.21816394837073122
            ]
        },
        {
            "positions": [
                0.6259564918959628,
                -1.5567220992304125,
                2.598306574864992,
                1.3996802561937638,
                -0.6678766123571156,
                -0.33011635103710496
            ]
        },
        {
            "positions": [
                0.6949261039818171,
                -1.5703881433353095,
                2.486090901045347,
                1.2855785922018084,
                -0.6628959564845074,
                -0.4033912482444927
            ]
        },
        {
            "positions": [
                0.7638957160676715,
                -1.5840541874402065,
                2.3738752272257027,
                1.1714769282098527,
                -0.6579153006118992,
                -0.4766661454518804
            ]
        },
        {
            "positions": [
                0.8328653281535259,
                -1.5977202315451036,
                2.2616595534060577,
                1.0573752642178973,
                -0.6529346447392911,
                -0.5499410426592681
            ]
        },
        {
            "positions": [
                0.9018349402393802,
                -1.6113862756500006,
                2.1494438795864133,
                0.9432736002259419,
                -0.6479539888666829,
                -0.6232159398666559
            ]
        },
        {
            "positions": [
                0.9708045523252344,
                -1.6250523197548976,
                2.0372282057667683,
                0.8291719362339863,
                -0.6429733329940747,
                -0.6964908370740435
            ]
        },
        {
            "positions": [
                1.0397741644110887,
                -1.6387183638597946,
                1.9250125319471234,
                0.7150702722420308,
                -0.6379926771214665,
                -0.7697657342814312
            ]
        },
        {
            "positions": [
                1.1087437764969432,
                -1.6523844079646917,
                1.8127968581274787,
                0.6009686082500753,
                -0.6330120212488582,
                -0.843040631488819
            ]
        },
        {
            "positions": [
                1.1777133885827975,
                -1.6660504520695887,
                1.700581184307834,
                0.4868669442581198,
                -0.62803136537625,
                -0.9163155286962068
            ]
        },
        {
            "positions": [
                1.2466830006686518,
                -1.6797164961744857,
                1.5883655104881893,
                0.3727652802661643,
                -0.6230507095036419,
                -0.9895904259035944
            ]
        },
        {
            "positions": [
                1.3156526127545063,
                -1.6933825402793827,
                1.4761498366685446,
                0.25866361627420886,
                -0.6180700536310337,
                -1.0628653231109821
            ]
        },
        {
            "positions": [
                1.3846222248403606,
                -1.7070485843842798,
                1.3639341628488997,
                0.14456195228225321,
                -0.6130893977584255,
                -1.13614022031837
            ]
        },
        {
            "positions": [
                1.4535918369262149,
                -1.7207146284891768,
                1.251718489029255,
                0.030460288290297788,
                -0.6081087418858173,
                -1.2094151175257577
            ]
        },
        {
            "positions": [
                1.5225614490120694,
                -1.7343806725940738,
                1.13950281520961,
                -0.08364137570165786,
                -0.6031280860132091,
                -1.2826900147331455
            ]
        },
        {
            "positions": [
                1.5915310610979236,
                -1.7480467166989708,
                1.0272871413899654,
                -0.1977430396936133,
                -0.5981474301406009,
                -1.3559649119405333
            ]
        },
        {
            "positions": [
                1.660500673183778,
                -1.7617127608038678,
                0.9150714675703209,
                -0.3118447036855687,
                -0.5931667742679928,
                -1.4292398091479208
            ]
        },
        {
            "positions": [
                1.7294702852696322,
                -1.7753788049087649,
                0.802855793750676,
                -0.42594636767752414,
                -0.5881861183953846,
                -1.5025147063553086
            ]
        },
        {
            "positions": [
                1.7984398973554865,
                -1.7890448490136621,
                0.6906401199310312,
                -0.5400480316694798,
                -0.5832054625227764,
                -1.5757896035626964
            ]
        },
        {
            "positions": [
                1.8674095094413408,
                -1.802710893118559,
                0.5784244461113865,
                -0.6541496956614352,
                -0.5782248066501682,
                -1.649064500770084
            ]
        },
        {
            "positions": [
                1.936379121527195,
                -1.8163769372234562,
                0.4662087722917416,
                -0.7682513596533906,
                -0.57324415077756,
                -1.7223393979774717
            ]
        },
        {
            "positions": [
                2.0053487336130495,
                -1.830042981328353,
                0.35399309847209715,
                -0.8823530236453461,
                -0.5682634949049519,
                -1.7956142951848593
            ]
        },
        {
            "positions": [
                2.074318345698904,
                -1.8437090254332502,
                0.24177742465245222,
                -0.9964546876373015,
                -0.5632828390323437,
                -1.868889192392247
            ]
        },
        {
            "positions": [
                2.143287957784758,
                -1.857375069538147,
                0.1295617508328073,
                -1.1105563516292574,
                -0.5583021831597355,
                -1.9421640895996348
            ]
        },
        {
            "positions": [
                2.2122575698706126,
                -1.8710411136430443,
                0.01734607701316282,
                -1.2246580156212128,
                -0.5533215272871272,
                -2.0154389868070224
            ]
        },
        {
            "positions": [
                2.281227181956467,
                -1.8847071577479413,
                -0.0948695968064821,
                -1.3387596796131682,
                -0.548340871414519,
                -2.0887138840144104
            ]
        },
        {
            "positions": [
                2.350196794042321,
                -1.8983732018528383,
                -0.20708527062612703,
                -1.4528613436051236,
                -0.5433602155419108,
                -2.161988781221798
            ]
        },
        {
            "positions": [
                2.4191664061281757,
                -1.9120392459577353,
                -0.31930094444577195,
                -1.5669630075970795,
                -0.5383795596693026,
                -2.235263678429186
            ]
        },
        {
            "positions": [
                2.48813601821403,
                -1.9257052900626324,
                -0.43151661826541643,
                -1.681064671589035,
                -0.5333989037966944,
                -2.3085385756365735
            ]
        },
        {
            "positions": [
                2.5571056302998842,
                -1.9393713341675294,
                -0.5437322920850614,
                -1.7951663355809904,
                -0.5284182479240863,
                -2.3818134728439615
            ]
        },
        {
            "positions": [
                2.626075242385739,
                -1.9530373782724264,
                -0.6559479659047063,
                -1.9092679995729458,
                -0.5234375920514781,
                -2.455088370051349
            ]
        },
        {
            "positions": [
                2.6950448544715933,
                -1.9667034223773234,
                -0.7681636397243503,
                -2.0233696635649014,
                -0.5184569361788699,
                -2.5283632672587366
            ]
        },
        {
            "positions": [
                2.7640144665574473,
                -1.9803694664822205,
                -0.8803793135439952,
                -2.137471327556857,
                -0.5134762803062617,
                -2.601638164466124
            ]
        },
        {
            "positions": [
                2.8329840786433014,
                -1.9940355105871175,
                -0.9925949873636402,
                -2.2515729915488123,
                -0.5084956244336536,
                -2.674913061673512
            ]
        },
        {
            "positions": [
                2.9019536907291563,
                -2.0077015546920145,
                -1.104810661183285,
                -2.3656746555407677,
                -0.5035149685610454,
                -2.7481879588808997
            ]
        },
        {
            "positions": [
                2.9709233028150104,
                -2.0213675987969113,
                -1.2170263350029296,
                -2.479776319532723,
                -0.4985343126884372,
                -2.8214628560882877
            ]
        },
        {
            "positions": [
                3.039892914900865,
                -2.0350336429018085,
                -1.3292420088225743,
                -2.5938779835246786,
                -0.49355365681582897,
                -2.8947377532956753
            ]
        },
        {
            "positions": [
                2.913199349914689,
                -2.0859825839946473,
                -1.4349453199821791,
                -2.5560318321004565,
                -0.4908074932814719,
                -2.9653616707705943
            ]
        },
        {
            "positions": [
                2.786505784928513,
                -2.1369315250874856,
                -1.5406486311417842,
                -2.518185680676235,
                -0.48806132974711486,
                -3.035985588245514
            ]
        },
        {
            "positions": [
                2.659812219942337,
                -2.1878804661803244,
                -1.646351942301389,
                -2.4803395292520127,
                -0.4853151662127578,
                -3.106609505720433
            ]
        }
    ]
}