{
    "goal": {
        "global_pose": {
            "orientation": {
                "w": 0.7047431493862688,
                "x": -0.7094548369677653,
                "y": 0.0024358444001904,
                "z": -0.0022348060817251984
            },
            "position": {
                "x": -0.39052492380142206,
                "y": 0.3671506643295288,
                "z": 0.19426114857196808
            }
        },
        "name": "move_to_magneteinheit_D"
    },
    "id": "BKPIECE_move_to_magneteinheit_D_73",
    "joint_names": [
        "shoulder_pan_joint",
        "shoulder_lift_joint",
        "elbow_joint",
        "wrist_1_joint",
        "wrist_2_joint",
        "wrist_3_joint"
    ],
    "metrics": {
        "cart_traj_len": 5.213430401248428,
        "distance_elbow_joint": 3.476257723244361,
        "distance_shoulder_lift_joint": 1.8902164035023428,
        "distance_shoulder_pan_joint": 4.215702821918978,
        "distance_wrist_1_joint": 3.4383552818329925,
        "distance_wrist_2_joint": 3.508804439307208,
        "distance_wrist_3_joint": 6.276297887848206,
        "smoothness": 0.18890372629502178,
        "time": 0.354569568,
        "traj_len": 4.775524532201054,
        "weighted_distance": 6.504259377860843
    },
    "planner": "BKPIECE",
    "start": {
        "state": {
            "elbow_joint": 0.749534889911806,
            "shoulder_lift_joint": -0.6476975780787326,
            "shoulder_pan_joint": -2.711696901376241,
            "wrist_1_joint": -0.07506478083263063,
            "wrist_2_joint": 0.43296659715538205,
            "wrist_3_joint": -3.14703540197715
        }
    },
    "waypoints": [
        {
            "positions": [
                -2.711696901376241,
                -0.6476975780787326,
                0.749534889911806,
                -0.07506478083263063,
                0.43296659715538205,
                -3.14703540197715
            ]
        },
        {
            "positions": [
                -2.7028895802589967,
                -0.676007365429707,
                0.7797643658416693,
                -0.0624406481607469,
                0.2832454346846931,
                -2.9891210206226635
            ]
        },
        {
            "positions": [
                -2.694082259141753,
                -0.7043171527806812,
                0.8099938417715327,
                -0.049816515488863185,
                0.13352427221400415,
                -2.8312066392681765
            ]
        },
        {
            "positions": [
                -2.6852749380245085,
                -0.7326269401316554,
                0.840223317701396,
                -0.03719238281697946,
                -0.01619689025668486,
                -2.67329225791369
            ]
        },
        {
            "positions": [
                -2.676467616907264,
                -0.7609367274826297,
                0.8704527936312594,
                -0.02456825014509574,
                -0.16591805272737375,
                -2.5153778765592034
            ]
        },
        {
            "positions": [
                -2.66766029579002,
                -0.7892465148336041,
                0.9006822695611227,
                -0.011944117473212015,
                -0.3156392151980629,
                -2.3574634952047164
            ]
        },
        {
            "positions": [
                -2.658852974672776,
                -0.8175563021845783,
                0.9309117454909861,
                0.0006800151986717166,
                -0.4653603776687517,
                -2.19954911385023
            ]
        },
        {
            "positions": [
                -2.6198811074933785,
                -0.8482396932187302,
                0.930114451278109,
                0.0021347536163316017,
                -0.5940066364511929,
                -2.041081643008366
            ]
        },
        {
            "positions": [
                -2.580909240313981,
                -0.878923084252882,
                0.9293171570652319,
                0.0035894920339914864,
                -0.722652895233634,
                -1.882614172166502
            ]
        },
        {
            "positions": [
                -2.5419373731345836,
                -0.909606475287034,
                0.9285198628523548,
                0.005044230451651371,
                -0.851299154016075,
                -1.724146701324638
            ]
        },
        {
            "positions": [
                -2.5029655059551863,
                -0.9402898663211858,
                0.9277225686394777,
                0.006498968869311256,
                -0.9799454127985162,
                -1.565679230482774
            ]
        },
        {
            "positions": [
                -2.4639936387757886,
                -0.9709732573553377,
                0.9269252744266006,
                0.00795370728697114,
                -1.1085916715809572,
                -1.40721175964091
            ]
        },
        {
            "positions": [
                -2.4250217715963913,
                -1.0016566483894895,
                0.9261279802137234,
                0.009408445704631025,
                -1.2372379303633982,
                -1.2487442887990463
            ]
        },
        {
            "positions": [
                -2.386049904416994,
                -1.0323400394236415,
                0.9253306860008463,
                0.010863184122290911,
                -1.3658841891458395,
                -1.0902768179571822
            ]
        },
        {
            "positions": [
                -2.3470780372375963,
                -1.0630234304577932,
                0.9245333917879692,
                0.012317922539950796,
                -1.4945304479282808,
                -0.9318093471153184
            ]
        },
        {
            "positions": [
                -2.308106170058199,
                -1.0937068214919452,
                0.9237360975750921,
                0.01377266095761068,
                -1.623176706710722,
                -0.7733418762734543
            ]
        },
        {
            "positions": [
                -2.2057560946062953,
                -1.129834714647594,
                0.8899639217878657,
                -0.08154542330252601,
                -1.6158183045683496,
                -0.6551954690585674
            ]
        },
        {
            "positions": [
                -2.103406019154391,
                -1.165962607803243,
                0.8561917460006392,
                -0.1768635075626627,
                -1.6084599024259774,
                -0.5370490618436805
            ]
        },
        {
            "positions": [
                -2.0010559437024873,
                -1.2020905009588918,
                0.8224195702134128,
                -0.27218159182279933,
                -1.6011015002836053,
                -0.41890265462879356
            ]
        },
        {
            "positions": [
                -1.8987058682505835,
                -1.2382183941145408,
                0.7886473944261864,
                -0.36749967608293604,
                -1.593743098141233,
                -0.30075624741390666
            ]
        },
        {
            "positions": [
                -1.7963557927986795,
                -1.2743462872701896,
                0.7548752186389599,
                -0.46281776034307276,
                -1.5863846959988608,
                -0.1826098401990197
            ]
        },
        {
            "positions": [
                -1.6940057173467755,
                -1.3104741804258386,
                0.7211030428517334,
                -0.5581358446032094,
                -1.5790262938564885,
                -0.06446343298413282
            ]
        },
        {
            "positions": [
                -1.5916556418948717,
                -1.3466020735814874,
                0.687330867064507,
                -0.6534539288633462,
                -1.5716678917141162,
                0.05368297423075419
            ]
        },
        {
            "positions": [
                -1.489305566442968,
                -1.3827299667371364,
                0.6535586912772806,
                -0.7487720131234828,
                -1.5643094895717442,
                0.17182938144564097
            ]
        },
        {
            "positions": [
                -1.386955490991064,
                -1.4188578598927852,
                0.6197865154900541,
                -0.8440900973836195,
                -1.556951087429372,
                0.28997578866052787
            ]
        },
        {
            "positions": [
                -1.28460541553916,
                -1.454985753048434,
                0.5860143397028277,
                -0.9394081816437563,
                -1.5495926852869997,
                0.4081221958754149
            ]
        },
        {
            "positions": [
                -1.1822553400872562,
                -1.491113646204083,
                0.5522421639156012,
                -1.0347262659038927,
                -1.5422342831446274,
                0.5262686030903017
            ]
        },
        {
            "positions": [
                -1.0799052646353522,
                -1.5272415393597318,
                0.5184699881283747,
                -1.1300443501640294,
                -1.5348758810022551,
                0.6444150103051887
            ]
        },
        {
            "positions": [
                -0.9775551891834484,
                -1.5633694325153809,
                0.48469781234114834,
                -1.225362434424166,
                -1.527517478859883,
                0.7625614175200757
            ]
        },
        {
            "positions": [
                -0.8752051137315444,
                -1.5994973256710296,
                0.45092563655392187,
                -1.320680518684303,
                -1.5201590767175108,
                0.8807078247349627
            ]
        },
        {
            "positions": [
                -0.7728550382796404,
                -1.6356252188266787,
                0.41715346076669546,
                -1.4159986029444396,
                -1.5128006745751386,
                0.9988542319498495
            ]
        },
        {
            "positions": [
                -0.6705049628277366,
                -1.6717531119823275,
                0.383381284979469,
                -1.5113166872045762,
                -1.5054422724327663,
                1.1170006391647362
            ]
        },
        {
            "positions": [
                -0.5681548873758329,
                -1.7078810051379762,
                0.34960910919224264,
                -1.6066347714647127,
                -1.4980838702903942,
                1.235147046379623
            ]
        },
        {
            "positions": [
                -0.46580481192392886,
                -1.7440088982936253,
                0.3158369334050162,
                -1.7019528557248496,
                -1.490725468148022,
                1.35329345359451
            ]
        },
        {
            "positions": [
                -0.3634547364720251,
                -1.7801367914492743,
                0.2820647576177897,
                -1.7972709399849862,
                -1.4833670660056497,
                1.471439860809397
            ]
        },
        {
            "positions": [
                -0.26110466102012087,
                -1.816264684604923,
                0.24829258183056324,
                -1.892589024245123,
                -1.4760086638632774,
                1.589586268024284
            ]
        },
        {
            "positions": [
                -0.1587545855682171,
                -1.8523925777605719,
                0.21452040604333678,
                -1.9879071085052598,
                -1.4686502617209052,
                1.707732675239171
            ]
        },
        {
            "positions": [
                -0.05640451011631331,
                -1.8885204709162209,
                0.18074823025611042,
                -2.083225192765396,
                -1.4612918595785331,
                1.8258790824540576
            ]
        },
        {
            "positions": [
                0.04594556533559091,
                -1.92464836407187,
                0.14697605446888384,
                -2.178543277025533,
                -1.4539334574361609,
                1.9440254896689446
            ]
        },
        {
            "positions": [
                0.1482956407874947,
                -1.9607762572275185,
                0.11320387868165749,
                -2.2738613612856695,
                -1.4465750552937886,
                2.0621718968838314
            ]
        },
        {
            "positions": [
                0.25064571623939846,
                -1.9969041503831675,
                0.07943170289443113,
                -2.369179445545806,
                -1.4392166531514163,
                2.1803183040987184
            ]
        },
        {
            "positions": [
                0.35299579169130224,
                -2.0330320435388165,
                0.045659527107204556,
                -2.464497529805943,
                -1.431858251009044,
                2.2984647113136054
            ]
        },
        {
            "positions": [
                0.455345867143206,
                -2.069159936694465,
                0.011887351319978201,
                -2.5598156140660797,
                -1.424499848866672,
                2.4166111185284924
            ]
        },
        {
            "positions": [
                0.5576959425951102,
                -2.1052878298501145,
                -0.021884824467248376,
                -2.6551336983262166,
                -1.4171414467242998,
                2.5347575257433794
            ]
        },
        {
            "positions": [
                0.660046018047014,
                -2.141415723005763,
                -0.05565700025447473,
                -2.750451782586353,
                -1.4097830445819275,
                2.652903932958266
            ]
        },
        {
            "positions": [
                0.6037820245472993,
                -2.1149825057674088,
                -0.2095444750491227,
                -2.7114322228197674,
                -1.3271652130277733,
                2.6846611698191185
            ]
        },
        {
            "positions": [
                0.5475180310475847,
                -2.088549288529055,
                -0.3634319498437707,
                -2.6724126630531813,
                -1.2445473814736194,
                2.7164184066799715
            ]
        },
        {
            "positions": [
                0.4912540375478699,
                -2.0621160712907005,
                -0.5173194246384187,
                -2.6333931032865956,
                -1.1619295499194653,
                2.748175643540824
            ]
        },
        {
            "positions": [
                0.4349900440481552,
                -2.0356828540523466,
                -0.6712068994330667,
                -2.59437354352001,
                -1.0793117183653111,
                2.7799328804016765
            ]
        },
        {
            "positions": [
                0.37872605054844055,
                -2.0092496368139923,
                -0.8250943742277146,
                -2.555353983753424,
                -0.9966938868111572,
                2.811690117262529
            ]
        },
        {
            "positions": [
                0.32246205704872577,
                -1.9828164195756381,
                -0.9789818490223626,
                -2.516334423986838,
                -0.9140760552570031,
                2.843447354123382
            ]
        },
        {
            "positions": [
                0.2661980635490111,
                -1.956383202337284,
                -1.1328693238170104,
                -2.4773148642202525,
                -0.831458223702849,
                2.8752045909842345
            ]
        },
        {
            "positions": [
                0.20993407004929643,
                -1.92994998509893,
                -1.2867567986116586,
                -2.4382953044536664,
                -0.7488403921486949,
                2.906961827845087
            ]
        },
        {
            "positions": [
                0.15367007654958176,
                -1.9035167678605758,
                -1.4406442734063065,
                -2.3992757446870807,
                -0.6662225605945409,
                2.9387190647059396
            ]
        },
        {
            "positions": [
                0.09740608304986709,
                -1.8770835506222217,
                -1.5945317482009544,
                -2.360256184920495,
                -0.5836047290403868,
                2.9704763015667925
            ]
        },
        {
            "positions": [
                0.041142089550152305,
                -1.8506503333838675,
                -1.7484192229956024,
                -2.321236625153909,
                -0.5009868974862328,
                3.002233538427645
            ]
        },
        {
            "positions": [
                -0.015121903949562476,
                -1.8242171161455132,
                -1.9023066977902505,
                -2.2822170653873233,
                -0.4183690659320787,
                3.0339907752884976
            ]
        },
        {
            "positions": [
                -0.07138589744927715,
                -1.797783898907159,
                -2.0561941725848984,
                -2.2431975056207376,
                -0.33575123437792453,
                3.06574801214935
            ]
        },
        {
            "positions": [
                -0.12764989094899182,
                -1.771350681668805,
                -2.210081647379546,
                -2.2041779458541515,
                -0.2531334028237706,
                3.097505249010203
            ]
        },
        {
            "positions": [
                -0.1839138844487065,
                -1.7449174644304508,
                -2.3639691221741943,
                -2.165158386087566,
                -0.1705155712696165,
                3.1292624858710556
            ]
        }
    ]
}