{
    "goal": {
        "global_pose": {
            "orientation": {
                "w": -0.00223480608172531,
                "x": 0.0024358444001904467,
                "y": 0.7094548369677653,
                "z": -0.704743149386269
            },
            "position": {
                "x": 0.6205249238014221,
                "y": -0.6371506643295288,
                "z": 0.19426114857196808
            }
        },
        "name": "move_to_magneteinheit_B"
    },
    "id": "BKPIECE_move_to_magneteinheit_B_121",
    "joint_names": [
        "shoulder_pan_joint",
        "shoulder_lift_joint",
        "elbow_joint",
        "wrist_1_joint",
        "wrist_2_joint",
        "wrist_3_joint"
    ],
    "metrics": {
        "cart_traj_len": 3.6675442397190277,
        "distance_elbow_joint": 4.284596425124217,
        "distance_shoulder_lift_joint": 1.5739353405125733,
        "distance_shoulder_pan_joint": 2.93759524069901,
        "distance_wrist_1_joint": 3.1263780658642166,
        "distance_wrist_2_joint": 1.8191780229484644,
        "distance_wrist_3_joint": 2.5854054834424574,
        "smoothness": 0.2487557391688533,
        "time": 0.323650743,
        "traj_len": 4.0406792224316614,
        "weighted_distance": 5.142320063384673
    },
    "planner": "BKPIECE",
    "start": {
        "state": {
            "elbow_joint": 2.6216224122426386,
            "shoulder_lift_joint": -1.4174107377796124,
            "shoulder_pan_joint": 0.7066234856936794,
            "wrist_1_joint": 1.9546482284002225,
            "wrist_2_joint": -0.7096286983471962,
            "wrist_3_joint": 0.005740856962016249
        }
    },
    "waypoints": [
        {
            "positions": [
                0.7066234856936794,
                -1.4174107377796124,
                2.6216224122426386,
                1.9546482284002225,
                -0.7096286983471962,
                0.005740856962016249
            ]
        },
        {
            "positions": [
                0.6193960917475554,
                -1.4344696560948687,
                2.6055425021453975,
                1.8993356410597046,
                -0.7200317164712366,
                -0.10861099202996466
            ]
        },
        {
            "positions": [
                0.5321686978014314,
                -1.4515285744101252,
                2.5894625920481564,
                1.844023053719187,
                -0.730434734595277,
                -0.22296284102194555
            ]
        },
        {
            "positions": [
                0.51779292005236,
                -1.4724587510421758,
                2.4796583732326782,
                1.7402958845688166,
                -0.671351279095129,
                -0.26765093406939805
            ]
        },
        {
            "positions": [
                0.5034171423032886,
                -1.4933889276742267,
                2.3698541544171996,
                1.6365687154184458,
                -0.612267823594981,
                -0.3123390271168506
            ]
        },
        {
            "positions": [
                0.48904136455421726,
                -1.5143191043062774,
                2.260049935601721,
                1.5328415462680753,
                -0.5531843680948331,
                -0.3570271201643031
            ]
        },
        {
            "positions": [
                0.47466558680514587,
                -1.535249280938328,
                2.1502457167862428,
                1.4291143771177048,
                -0.49410091259468514,
                -0.40171521321175563
            ]
        },
        {
            "positions": [
                0.46260443853555944,
                -1.557283589504381,
                2.0373851791194157,
                1.3224090894044416,
                -0.4345200204640171,
                -0.44607011493648047
            ]
        },
        {
            "positions": [
                0.450543290265973,
                -1.5793178980704339,
                1.9245246414525885,
                1.2157038016911783,
                -0.3749391283333491,
                -0.49042501666120525
            ]
        },
        {
            "positions": [
                0.4384821419963866,
                -1.601352206636487,
                1.8116641037857613,
                1.108998513977915,
                -0.315358236202681,
                -0.5347799183859301
            ]
        },
        {
            "positions": [
                0.5615896900518089,
                -1.658510383667259,
                1.7113894012126616,
                1.0616165132801858,
                -0.3315571576225384,
                -0.5743622375463401
            ]
        },
        {
            "positions": [
                0.6846972381072314,
                -1.715668560698031,
                1.611114698639562,
                1.0142345125824568,
                -0.34775607904239586,
                -0.6139445567067501
            ]
        },
        {
            "positions": [
                0.8078047861626537,
                -1.7728267377288032,
                1.5108399960664622,
                0.9668525118847275,
                -0.36395500046225326,
                -0.65352687586716
            ]
        },
        {
            "positions": [
                0.9309123342180761,
                -1.8299849147595753,
                1.4105652934933626,
                0.9194705111869983,
                -0.3801539218821107,
                -0.69310919502757
            ]
        },
        {
            "positions": [
                1.0540198822734985,
                -1.8871430917903473,
                1.310290590920263,
                0.8720885104892692,
                -0.3963528433019681,
                -0.73269151418798
            ]
        },
        {
            "positions": [
                1.177127430328921,
                -1.9443012688211194,
                1.2100158883471632,
                0.82470650979154,
                -0.41255176472182553,
                -0.77227383334839
            ]
        },
        {
            "positions": [
                1.3002349783843432,
                -2.001459445851891,
                1.1097411857740638,
                0.7773245090938108,
                -0.428750686141683,
                -0.8118561525087999
            ]
        },
        {
            "positions": [
                1.4233425264397654,
                -2.0586176228826636,
                1.0094664832009639,
                0.7299425083960817,
                -0.44494960756154045,
                -0.8514384716692098
            ]
        },
        {
            "positions": [
                1.546450074495188,
                -2.1157757999134352,
                0.9091917806278643,
                0.6825605076983525,
                -0.4611485289813978,
                -0.8910207908296199
            ]
        },
        {
            "positions": [
                1.6695576225506104,
                -2.1729339769442078,
                0.8089170780547645,
                0.6351785070006233,
                -0.47734745040125526,
                -0.9306031099900298
            ]
        },
        {
            "positions": [
                1.7926651706060328,
                -2.2300921539749794,
                0.7086423754816649,
                0.5877965063028942,
                -0.4935463718211127,
                -0.9701854291504399
            ]
        },
        {
            "positions": [
                1.9157727186614553,
                -2.287250331005752,
                0.6083676729085652,
                0.5404145056051649,
                -0.5097452932409701,
                -1.0097677483108498
            ]
        },
        {
            "positions": [
                2.0388802667168773,
                -2.3444085080365236,
                0.5080929703354657,
                0.4930325049074359,
                -0.5259442146608275,
                -1.0493500674712597
            ]
        },
        {
            "positions": [
                2.1619878147722997,
                -2.4015666850672956,
                0.40781826776236607,
                0.44565050420970664,
                -0.542143136080685,
                -1.0889323866316696
            ]
        },
        {
            "positions": [
                2.285095362827722,
                -2.4587248620980677,
                0.3075435651892664,
                0.3982685035119775,
                -0.5583420575005424,
                -1.1285147057920797
            ]
        },
        {
            "positions": [
                2.4082029108831446,
                -2.51588303912884,
                0.20726886261616673,
                0.35088650281424827,
                -0.5745409789203999,
                -1.1680970249524898
            ]
        },
        {
            "positions": [
                2.531310458938567,
                -2.573041216159612,
                0.10699416004306715,
                0.30350450211651914,
                -0.5907399003402573,
                -1.2076793441128997
            ]
        },
        {
            "positions": [
                2.6310909392078665,
                -2.6161025350724056,
                0.0166263498180078,
                0.34197521556476057,
                -0.5996149573576276,
                -1.2360800728855346
            ]
        },
        {
            "positions": [
                2.730871419477166,
                -2.6591638539851994,
                -0.07374146040705155,
                0.380445929013002,
                -0.6084900143749981,
                -1.2644808016581695
            ]
        },
        {
            "positions": [
                2.8306518997464654,
                -2.702225172897993,
                -0.1641092706321109,
                0.4189166424612435,
                -0.6173650713923684,
                -1.2928815304308043
            ]
        },
        {
            "positions": [
                2.839662681518261,
                -2.7079127579675815,
                -0.28145402120804863,
                0.572556024731478,
                -0.561094430777174,
                -1.2825266405361642
            ]
        },
        {
            "positions": [
                2.848673463290057,
                -2.7136003430371693,
                -0.3987987717839863,
                0.7261954070017127,
                -0.5048237901619796,
                -1.272171750641524
            ]
        },
        {
            "positions": [
                2.857684245061853,
                -2.7192879281067577,
                -0.516143522359924,
                0.8798347892719474,
                -0.44855314954678527,
                -1.261816860746884
            ]
        },
        {
            "positions": [
                2.8666950268336486,
                -2.724975513176346,
                -0.6334882729358617,
                1.0334741715421818,
                -0.3922825089315909,
                -1.2514619708522439
            ]
        },
        {
            "positions": [
                2.875705808605445,
                -2.730663098245934,
                -0.7508330235117995,
                1.1871135538124165,
                -0.3360118683163965,
                -1.2411070809576037
            ]
        },
        {
            "positions": [
                2.8847165903772405,
                -2.7363506833155222,
                -0.8681777740877372,
                1.3407529360826511,
                -0.27974122770120213,
                -1.2307521910629635
            ]
        },
        {
            "positions": [
                2.8593443135561145,
                -2.7113363067079543,
                -0.9700614226835982,
                1.352950430798411,
                -0.19262509150090473,
                -1.1131672010070628
            ]
        },
        {
            "positions": [
                2.833972036734988,
                -2.6863219301003864,
                -1.0719450712794591,
                1.3651479255141707,
                -0.10550895530060733,
                -0.9955822109511623
            ]
        },
        {
            "positions": [
                2.8085997599138617,
                -2.6613075534928186,
                -1.1738287198753201,
                1.3773454202299305,
                -0.01839281910030993,
                -0.8779972208952617
            ]
        },
        {
            "positions": [
                2.7832274830927357,
                -2.6362931768852507,
                -1.275712368471181,
                1.3895429149456904,
                0.06872331709998747,
                -0.760412230839361
            ]
        },
        {
            "positions": [
                2.7629390928700093,
                -2.6104701954608522,
                -1.3402559758729145,
                1.3246769271538001,
                0.13459002787094496,
                -0.6346932647629954
            ]
        },
        {
            "positions": [
                2.742650702647283,
                -2.5846472140364534,
                -1.4047995832746476,
                1.25981093936191,
                0.20045673864190244,
                -0.5089742986866297
            ]
        },
        {
            "positions": [
                2.7223623124245564,
                -2.5588242326120545,
                -1.469343190676381,
                1.1949449515700197,
                0.2663234494128599,
                -0.3832553326102639
            ]
        },
        {
            "positions": [
                2.70207392220183,
                -2.533001251187656,
                -1.5338867980781141,
                1.1300789637781294,
                0.3321901601838174,
                -0.2575363665338982
            ]
        },
        {
            "positions": [
                2.6817855319791035,
                -2.5071782697632576,
                -1.5984304054798475,
                1.0652129759862392,
                0.39805687095477493,
                -0.13181740045753243
            ]
        },
        {
            "positions": [
                2.661497141756377,
                -2.4813552883388588,
                -1.6629740128815809,
                1.000346988194349,
                0.4639235817257324,
                -0.006098434381166741
            ]
        }
    ]
}