{
    "goal": {
        "global_pose": {
            "orientation": {
                "w": 0.5084816262002911,
                "x": -0.4908360881923452,
                "y": 0.5182115481033761,
                "z": -0.48164630358495003
            },
            "position": {
                "x": 0.5540239810943604,
                "y": -0.46912469901144505,
                "z": 0.16403168439865112
            }
        },
        "name": "move_to_storage_B"
    },
    "id": "BKPIECE_move_to_storage_B_49",
    "joint_names": [
        "shoulder_pan_joint",
        "shoulder_lift_joint",
        "elbow_joint",
        "wrist_1_joint",
        "wrist_2_joint",
        "wrist_3_joint"
    ],
    "metrics": {
        "cart_traj_len": 1.1349317706435655,
        "distance_elbow_joint": 1.5638745023147589,
        "distance_shoulder_lift_joint": 0.598006262722373,
        "distance_shoulder_pan_joint": 0.7864378743231107,
        "distance_wrist_1_joint": 2.9911585378307324,
        "distance_wrist_2_joint": 2.7128548644675075,
        "distance_wrist_3_joint": 3.574401929356496,
        "smoothness": 0.38779839497725965,
        "time": 0.279639158,
        "traj_len": 3.4966747019153748,
        "weighted_distance": 5.007948804852762
    },
    "planner": "BKPIECE",
    "start": {
        "state": {
            "elbow_joint": 1.664937868594044,
            "shoulder_lift_joint": -0.661644460510453,
            "shoulder_pan_joint": -0.9139846352900073,
            "wrist_1_joint": 2.146753192139373,
            "wrist_2_joint": -2.2341966793290973,
            "wrist_3_joint": 0.005466555786416001
        }
    },
    "waypoints": [
        {
            "positions": [
                -0.9139846352900073,
                -0.661644460510453,
                1.664937868594044,
                2.146753192139373,
                -2.2341966793290973,
                0.005466555786416001
            ]
        },
        {
            "positions": [
                -0.8162160692273266,
                -0.6271123720607467,
                1.586029616362357,
                2.1266619052034703,
                -2.2071037154613995,
                0.021123658992426464
            ]
        },
        {
            "positions": [
                -0.7184475031646458,
                -0.5925802836110403,
                1.5071213641306702,
                2.1065706182675674,
                -2.1800107515937017,
                0.03678076219843693
            ]
        },
        {
            "positions": [
                -0.6970592830258554,
                -0.6148480487184032,
                1.4175823492665178,
                2.0372809105170044,
                -2.083969974598564,
                -0.005579970816000625
            ]
        },
        {
            "positions": [
                -0.675671062887065,
                -0.637115813825766,
                1.3280433344023657,
                1.9679912027664415,
                -1.987929197603426,
                -0.04794070383043818
            ]
        },
        {
            "positions": [
                -0.6542828427482748,
                -0.6593835789331287,
                1.2385043195382133,
                1.8987014950158785,
                -1.891888420608288,
                -0.09030143684487571
            ]
        },
        {
            "positions": [
                -0.6328946226094844,
                -0.6816513440404915,
                1.148965304674061,
                1.8294117872653155,
                -1.79584764361315,
                -0.13266216985931328
            ]
        },
        {
            "positions": [
                -0.611506402470694,
                -0.7039191091478544,
                1.0594262898099087,
                1.7601220795147525,
                -1.6998068666180122,
                -0.17502290287375083
            ]
        },
        {
            "positions": [
                -0.6301202348362247,
                -0.7199807730050138,
                1.0962864022533942,
                1.659947947776056,
                -1.6160197492427653,
                -0.04689659295558593
            ]
        },
        {
            "positions": [
                -0.6487340672017553,
                -0.7360424368621733,
                1.1331465146968798,
                1.5597738160373593,
                -1.5322326318675181,
                0.08122971696257897
            ]
        },
        {
            "positions": [
                -0.667347899567286,
                -0.7521041007193328,
                1.1700066271403653,
                1.4595996842986627,
                -1.4484455144922712,
                0.2093560268807439
            ]
        },
        {
            "positions": [
                -0.6859617319328166,
                -0.7681657645764923,
                1.2068667395838508,
                1.359425552559966,
                -1.364658397117024,
                0.33748233679890877
            ]
        },
        {
            "positions": [
                -0.7045755642983473,
                -0.7842274284336518,
                1.2437268520273363,
                1.2592514208212693,
                -1.2808712797417772,
                0.46560864671707375
            ]
        },
        {
            "positions": [
                -0.723189396663878,
                -0.8002890922908112,
                1.2805869644708219,
                1.159077289082573,
                -1.1970841623665303,
                0.5937349566352386
            ]
        },
        {
            "positions": [
                -0.7418032290294087,
                -0.8163507561479707,
                1.3174470769143074,
                1.058903157343876,
                -1.1132970449912833,
                0.7218612665534034
            ]
        },
        {
            "positions": [
                -0.7604170613949394,
                -0.8324124200051302,
                1.354307189357793,
                0.9587290256051795,
                -1.0295099276160362,
                0.8499875764715683
            ]
        },
        {
            "positions": [
                -0.77903089376047,
                -0.8484740838622896,
                1.3911673018012785,
                0.858554893866483,
                -0.9457228102407892,
                0.9781138863897332
            ]
        },
        {
            "positions": [
                -0.7976447261260007,
                -0.8645357477194491,
                1.428027414244764,
                0.7583807621277863,
                -0.8619356928655422,
                1.1062401963078983
            ]
        },
        {
            "positions": [
                -0.8162585584915314,
                -0.8805974115766085,
                1.4648875266882495,
                0.6582066303890897,
                -0.7781485754902953,
                1.2343665062260631
            ]
        },
        {
            "positions": [
                -0.8348723908570621,
                -0.896659075433768,
                1.501747639131735,
                0.5580324986503931,
                -0.6943614581150481,
                1.362492816144228
            ]
        },
        {
            "positions": [
                -0.8534862232225927,
                -0.9127207392909276,
                1.5386077515752206,
                0.45785836691169646,
                -0.6105743407398012,
                1.4906191260623929
            ]
        },
        {
            "positions": [
                -0.8721000555881233,
                -0.9287824031480869,
                1.575467864018706,
                0.35768423517299985,
                -0.5267872233645543,
                1.6187454359805578
            ]
        },
        {
            "positions": [
                -0.890713887953654,
                -0.9448440670052465,
                1.6123279764621916,
                0.25751010343430325,
                -0.4430001059893074,
                1.7468717458987226
            ]
        },
        {
            "positions": [
                -0.9093277203191847,
                -0.9609057308624059,
                1.6491880889056771,
                0.15733597169560642,
                -0.35921298861406026,
                1.8749980558168875
            ]
        },
        {
            "positions": [
                -0.9279415526847155,
                -0.9769673947195654,
                1.6860482013491627,
                0.05716183995691004,
                -0.2754258712388131,
                2.0031243657350526
            ]
        },
        {
            "positions": [
                -0.9465553850502461,
                -0.9930290585767249,
                1.7229083137926482,
                -0.04301229178178656,
                -0.1916387538635662,
                2.1312506756532175
            ]
        },
        {
            "positions": [
                -0.9651692174157767,
                -1.0090907224338843,
                1.7597684262361337,
                -0.14318642352048316,
                -0.1078516364883193,
                2.2593769855713823
            ]
        },
        {
            "positions": [
                -0.9837830497813074,
                -1.0251523862910439,
                1.7966285386796192,
                -0.24336055525918,
                -0.02406451911307217,
                2.3875032954895477
            ]
        },
        {
            "positions": [
                -1.002396882146838,
                -1.0412140501482032,
                1.8334886511231048,
                -0.34353468699787637,
                0.05972259826217474,
                2.5156296054077125
            ]
        },
        {
            "positions": [
                -1.0210107145123688,
                -1.0572757140053628,
                1.8703487635665903,
                -0.4437088187365732,
                0.14350971563742165,
                2.6437559153258774
            ]
        },
        {
            "positions": [
                -1.0396245468778993,
                -1.0733373778625221,
                1.9072088760100758,
                -0.5438829504752696,
                0.2272968330126688,
                2.7718822252440423
            ]
        },
        {
            "positions": [
                -1.0582383792434302,
                -1.0893990417196817,
                1.9440689884535614,
                -0.6440570822139664,
                0.3110839503879159,
                2.900008535162207
            ]
        },
        {
            "positions": [
                -1.0768522116089607,
                -1.1054607055768413,
                1.9809291008970469,
                -0.7442312139526632,
                0.39487106776316283,
                3.028134845080372
            ]
        },
        {
            "positions": [
                -1.0954660439744914,
                -1.1215223694340006,
                2.0177892133405324,
                -0.8444053456913594,
                0.4786581851384097,
                3.156261154998537
            ]
        }
    ]
}