{
    "goal": {
        "global_pose": {
            "orientation": {
                "w": -0.4816463035849501,
                "x": 0.5182115481033762,
                "y": 0.4908360881923453,
                "z": -0.5084816262002911
            },
            "position": {
                "x": -0.8240239810943604,
                "y": -0.300875300988555,
                "z": 0.16403168439865112
            }
        },
        "name": "move_to_storage_C"
    },
    "id": "BKPIECE_move_to_storage_C_84",
    "joint_names": [
        "shoulder_pan_joint",
        "shoulder_lift_joint",
        "elbow_joint",
        "wrist_1_joint",
        "wrist_2_joint",
        "wrist_3_joint"
    ],
    "metrics": {
        "cart_traj_len": 0.5762204841691174,
        "distance_elbow_joint": 0.2575226560331263,
        "distance_shoulder_lift_joint": 0.189105661839865,
        "distance_shoulder_pan_joint": 0.49499312548586794,
        "distance_wrist_1_joint": 0.07685485231537725,
        "distance_wrist_2_joint": 1.0613016439667597,
        "distance_wrist_3_joint": 0.07121571743320043,
        "smoothness": 0.0,
        "time": 0.29643676,
        "traj_len": 1.4666266249711262,
        "weighted_distance": 1.852452857220052
    },
    "planner": "BKPIECE",
    "start": {
        "state": {
            "elbow_joint": 2.010868314990456,
            "shoulder_lift_joint": -1.1634956873337592,
            "shoulder_pan_joint": -2.4736205022346125,
            "wrist_1_joint": -0.8367026794202681,
            "wrist_2_joint": 0.6746043897044499,
            "wrist_3_joint": -3.1496632123970403
        }
    },
    "waypoints": [
        {
            "positions": [
                -2.4736205022346125,
                -1.1634956873337592,
                2.010868314990456,
                -0.8367026794202681,
                0.6746043897044499,
                -3.1496632123970403
            ]
        },
        {
            "positions": [
                -2.5561193564822573,
                -1.131978077027115,
                1.9679478723182682,
                -0.8238935373677052,
                0.8514879970322432,
                -3.1377939261581735
            ]
        },
        {
            "positions": [
                -2.6386182107299017,
                -1.100460466720471,
                1.9250274296460803,
                -0.8110843953151423,
                1.0283716043600366,
                -3.125924639919307
            ]
        },
        {
            "positions": [
                -2.7211170649775465,
                -1.0689428564138268,
                1.8821069869738927,
                -0.7982752532625794,
                1.2052552116878297,
                -3.11405535368044
            ]
        },
        {
            "positions": [
                -2.8036159192251913,
                -1.0374252461071825,
                1.839186544301705,
                -0.7854661112100166,
                1.3821388190156232,
                -3.1021860674415733
            ]
        },
        {
            "positions": [
                -2.8861147734728356,
                -1.0059076358005383,
                1.7962661016295172,
                -0.7726569691574537,
                1.5590224263434163,
                -3.0903167812027066
            ]
        },
        {
            "positions": [
                -2.9686136277204804,
                -0.9743900254938942,
                1.7533456589573295,
                -0.7598478271048908,
                1.7359060336712095,
                -3.07844749496384
            ]
        }
    ]
}