{
    "goal": {
        "global_pose": {
            "orientation": {
                "w": 0.7047431493862688,
                "x": -0.7094548369677653,
                "y": 0.0024358444001904,
                "z": -0.0022348060817251984
            },
            "position": {
                "x": -0.39052492380142206,
                "y": 0.3671506643295288,
                "z": 0.19426114857196808
            }
        },
        "name": "move_to_magneteinheit_D"
    },
    "id": "BKPIECE_move_to_magneteinheit_D_108",
    "joint_names": [
        "shoulder_pan_joint",
        "shoulder_lift_joint",
        "elbow_joint",
        "wrist_1_joint",
        "wrist_2_joint",
        "wrist_3_joint"
    ],
    "metrics": {
        "cart_traj_len": 9.728087381246128,
        "distance_elbow_joint": 4.202429116887416,
        "distance_shoulder_lift_joint": 3.1844072258041582,
        "distance_shoulder_pan_joint": 7.669406248246613,
        "distance_wrist_1_joint": 2.318637999330411,
        "distance_wrist_2_joint": 2.672775957956778,
        "distance_wrist_3_joint": 3.6363812858786444,
        "smoothness": 0.7672679970210444,
        "time": 0.292842771,
        "traj_len": 4.8666248914523935,
        "weighted_distance": 5.995682977205224
    },
    "planner": "BKPIECE",
    "start": {
        "state": {
            "elbow_joint": 0.749534889911806,
            "shoulder_lift_joint": -0.6476975780787326,
            "shoulder_pan_joint": -2.711696901376241,
            "wrist_1_joint": -0.07506478083263063,
            "wrist_2_joint": 0.43296659715538205,
            "wrist_3_joint": -3.14703540197715
        }
    },
    "waypoints": [
        {
            "positions": [
                -2.711696901376241,
                -0.6476975780787326,
                0.749534889911806,
                -0.07506478083263063,
                0.43296659715538205,
                -3.14703540197715
            ]
        },
        {
            "positions": [
                -2.7013823442092235,
                -0.7748421883485304,
                0.6735505416037614,
                -0.12030625668399271,
                0.51227479848664,
                -3.1776598087813155
            ]
        },
        {
            "positions": [
                -2.6910677870422064,
                -0.9019867986183281,
                0.5975661932957168,
                -0.1655477325353548,
                0.5915829998178981,
                -3.208284215585481
            ]
        },
        {
            "positions": [
                -2.6807532298751893,
                -1.0291314088881256,
                0.5215818449876721,
                -0.2107892083867169,
                0.670891201149156,
                -3.238908622389647
            ]
        },
        {
            "positions": [
                -2.6704386727081717,
                -1.1562760191579233,
                0.44559749667962756,
                -0.25603068423807895,
                0.750199402480414,
                -3.2695330291938123
            ]
        },
        {
            "positions": [
                -2.660124115541154,
                -1.283420629427721,
                0.369613148371583,
                -0.301272160089441,
                0.829507603811672,
                -3.3001574359979777
            ]
        },
        {
            "positions": [
                -2.649809558374137,
                -1.4105652396975188,
                0.29362880006353836,
                -0.34651363594080314,
                0.90881580514293,
                -3.3307818428021436
            ]
        },
        {
            "positions": [
                -2.63949500120712,
                -1.5377098499673165,
                0.21764445175549374,
                -0.3917551117921652,
                0.9881240064741879,
                -3.361406249606309
            ]
        },
        {
            "positions": [
                -2.6291804440401023,
                -1.6648544602371143,
                0.14166010344744914,
                -0.4369965876435273,
                1.067432207805446,
                -3.3920306564104745
            ]
        },
        {
            "positions": [
                -2.6264878962256786,
                -1.5765912903040655,
                0.209086940182723,
                -0.3802819493709185,
                0.99097413679979,
                -3.3340261790194305
            ]
        },
        {
            "positions": [
                -2.623795348411255,
                -1.4883281203710168,
                0.27651377691799683,
                -0.3235673110983097,
                0.914516065794134,
                -3.2760217016283866
            ]
        },
        {
            "positions": [
                -2.621102800596831,
                -1.400064950437968,
                0.3439406136532707,
                -0.2668526728257009,
                0.8380579947884781,
                -3.218017224237343
            ]
        },
        {
            "positions": [
                -2.6184102527824074,
                -1.3118017805049194,
                0.4113674503885446,
                -0.21013803455309216,
                0.7615999237828222,
                -3.160012746846299
            ]
        },
        {
            "positions": [
                -2.6157177049679836,
                -1.2235386105718706,
                0.47879428712381844,
                -0.15342339628048335,
                0.6851418527771662,
                -3.102008269455255
            ]
        },
        {
            "positions": [
                -2.61302515715356,
                -1.135275440638822,
                0.5462211238590923,
                -0.0967087580078746,
                0.6086837817715102,
                -3.0440037920642116
            ]
        },
        {
            "positions": [
                -2.610332609339136,
                -1.047012270705773,
                0.6136479605943662,
                -0.03999411973526584,
                0.5322257107658542,
                -2.9859993146731676
            ]
        },
        {
            "positions": [
                -2.6076400615247124,
                -0.9587491007727243,
                0.68107479732964,
                0.016720518537342972,
                0.4557676397601983,
                -2.9279948372821236
            ]
        },
        {
            "positions": [
                -2.4191277792026398,
                -1.0059277206465929,
                0.6189260125504041,
                0.033509526700842285,
                0.434121272885731,
                -2.881061720088182
            ]
        },
        {
            "positions": [
                -2.230615496880567,
                -1.0531063405204615,
                0.5567772277711681,
                0.0502985348643416,
                0.4124749060112637,
                -2.83412860289424
            ]
        },
        {
            "positions": [
                -2.0421032145584945,
                -1.1002849603943299,
                0.49462844299193215,
                0.06708754302784091,
                0.3908285391367964,
                -2.7871954857002983
            ]
        },
        {
            "positions": [
                -1.853590932236422,
                -1.1474635802681985,
                0.4324796582126962,
                0.08387655119134022,
                0.3691821722623291,
                -2.7402623685063565
            ]
        },
        {
            "positions": [
                -1.6650786499143493,
                -1.194642200142067,
                0.3703308734334602,
                0.10066555935483953,
                0.3475358053878618,
                -2.6933292513124147
            ]
        },
        {
            "positions": [
                -1.4765663675922767,
                -1.2418208200159355,
                0.30818208865422425,
                0.11745456751833885,
                0.32588943851339447,
                -2.646396134118473
            ]
        },
        {
            "positions": [
                -1.288054085270204,
                -1.288999439889804,
                0.24603330387498834,
                0.13424357568183815,
                0.30424307163892716,
                -2.599463016924531
            ]
        },
        {
            "positions": [
                -1.0995418029481314,
                -1.3361780597636725,
                0.18388451909575232,
                0.15103258384533746,
                0.28259670476445986,
                -2.5525298997305894
            ]
        },
        {
            "positions": [
                -0.9110295206260588,
                -1.383356679637541,
                0.12173573431651641,
                0.16782159200883676,
                0.26095033788999256,
                -2.5055967825366476
            ]
        },
        {
            "positions": [
                -0.7225172383039862,
                -1.4305352995114096,
                0.05958694953728039,
                0.18461060017233608,
                0.23930397101552525,
                -2.458663665342706
            ]
        },
        {
            "positions": [
                -0.5340049559819136,
                -1.4777139193852782,
                -0.0025618352419555235,
                0.2013996083358354,
                0.21765760414105795,
                -2.411730548148764
            ]
        },
        {
            "positions": [
                -0.34549267365984093,
                -1.5248925392591466,
                -0.06471062002119154,
                0.21818861649933471,
                0.19601123726659064,
                -2.3647974309548223
            ]
        },
        {
            "positions": [
                -0.1569803913377683,
                -1.572071159133015,
                -0.12685940480042746,
                0.234977624662834,
                0.17436487039212334,
                -2.3178643137608805
            ]
        },
        {
            "positions": [
                0.03153189098430431,
                -1.6192497790068836,
                -0.18900818957966337,
                0.2517666328263333,
                0.15271850351765603,
                -2.2709311965669388
            ]
        },
        {
            "positions": [
                0.2200441733063765,
                -1.6664283988807522,
                -0.2511569743588993,
                0.2685556409898326,
                0.13107213664318879,
                -2.223998079372997
            ]
        },
        {
            "positions": [
                0.40855645562844956,
                -1.7136070187546206,
                -0.3133057591381354,
                0.28534464915333196,
                0.10942576976872143,
                -2.1770649621790548
            ]
        },
        {
            "positions": [
                0.5970687379505222,
                -1.760785638628489,
                -0.3754545439173713,
                0.30213365731683123,
                0.08777940289425412,
                -2.130131844985113
            ]
        },
        {
            "positions": [
                0.7855810202725948,
                -1.8079642585023576,
                -0.43760332869660723,
                0.31892266548033055,
                0.06613303601978682,
                -2.083198727791171
            ]
        },
        {
            "positions": [
                0.9740933025946674,
                -1.8551428783762263,
                -0.49975211347584314,
                0.33571167364382987,
                0.04448666914531951,
                -2.03626561059723
            ]
        },
        {
            "positions": [
                1.16260558491674,
                -1.9023214982500947,
                -0.5619008982550793,
                0.3525006818073292,
                0.02284030227085221,
                -1.9893324934032877
            ]
        },
        {
            "positions": [
                1.3511178672388127,
                -1.9495001181239633,
                -0.6240496830343152,
                0.3692896899708285,
                0.0011939353963849042,
                -1.9423993762093459
            ]
        },
        {
            "positions": [
                1.5396301495608853,
                -1.996678737997832,
                -0.6861984678135511,
                0.3860786981343278,
                -0.0204524314780824,
                -1.895466259015404
            ]
        },
        {
            "positions": [
                1.728142431882958,
                -2.0438573578717003,
                -0.748347252592787,
                0.4028677062978271,
                -0.042098798352549704,
                -1.8485331418214623
            ]
        },
        {
            "positions": [
                1.9166547142050305,
                -2.0910359777455687,
                -0.8104960373720231,
                0.41965671446132646,
                -0.06374516522701701,
                -1.8016000246275206
            ]
        },
        {
            "positions": [
                2.105166996527103,
                -2.1382145976194376,
                -0.872644822151259,
                0.4364457226248257,
                -0.08539153210148431,
                -1.7546669074335788
            ]
        },
        {
            "positions": [
                2.2936792788491758,
                -2.185393217493306,
                -0.9347936069304951,
                0.45323473078832505,
                -0.10703789897595163,
                -1.707733790239637
            ]
        },
        {
            "positions": [
                2.32465292748891,
                -2.1763069834087823,
                -1.037187852921871,
                0.5350002514705771,
                -0.16369067944074564,
                -1.6638569846936964
            ]
        },
        {
            "positions": [
                2.3556265761286443,
                -2.1672207493242586,
                -1.1395820989132468,
                0.616765772152829,
                -0.22034345990553966,
                -1.619980179147756
            ]
        },
        {
            "positions": [
                2.3866002247683786,
                -2.158134515239735,
                -1.2419763449046228,
                0.698531292835081,
                -0.27699624037033366,
                -1.5761033736018153
            ]
        },
        {
            "positions": [
                2.3226245212847636,
                -2.1442655721010073,
                -1.3529233702293466,
                0.7839107846597496,
                -0.3181778821169174,
                -1.5145040432457924
            ]
        },
        {
            "positions": [
                2.258648817801148,
                -2.1303966289622793,
                -1.4638703955540702,
                0.8692902764844181,
                -0.35935952386350106,
                -1.4529047128897694
            ]
        },
        {
            "positions": [
                2.194673114317533,
                -2.1165276858235518,
                -1.574817420878794,
                0.9546697683090868,
                -0.4005411656100848,
                -1.3913053825337465
            ]
        },
        {
            "positions": [
                2.0542213506852898,
                -2.122766310509271,
                -1.6394276051086938,
                1.000409302247196,
                -0.3774489733179637,
                -1.3033208458979795
            ]
        },
        {
            "positions": [
                1.913769587053047,
                -2.12900493519499,
                -1.7040377893385938,
                1.046148836185305,
                -0.35435678102584256,
                -1.2153363092622125
            ]
        },
        {
            "positions": [
                1.752363549792534,
                -2.1407863264580373,
                -1.755578331636489,
                1.0825765876230498,
                -0.31403735107915487,
                -1.121898487393208
            ]
        },
        {
            "positions": [
                1.5909575125320214,
                -2.1525677177210847,
                -1.807118873934384,
                1.1190043390607944,
                -0.2737179211324672,
                -1.0284606655242037
            ]
        },
        {
            "positions": [
                1.4295514752715086,
                -2.164349108984132,
                -1.8586594162322791,
                1.1554320904985393,
                -0.23339849118577946,
                -0.9350228436551993
            ]
        },
        {
            "positions": [
                1.268145438010996,
                -2.176130500247179,
                -1.9101999585301743,
                1.191859841936284,
                -0.19307906123909174,
                -0.8415850217861949
            ]
        },
        {
            "positions": [
                1.1067394007504832,
                -2.1879118915102262,
                -1.9617405008280693,
                1.2282875933740287,
                -0.15275963129240405,
                -0.7481471999171905
            ]
        },
        {
            "positions": [
                0.9453333634899704,
                -2.1996932827732736,
                -2.0132810431259642,
                1.2647153448117736,
                -0.11244020134571636,
                -0.6547093780481862
            ]
        },
        {
            "positions": [
                0.7839273262294577,
                -2.211474674036321,
                -2.0648215854238594,
                1.3011430962495183,
                -0.07212077139902867,
                -0.5612715561791818
            ]
        },
        {
            "positions": [
                0.6225212889689449,
                -2.2232560652993683,
                -2.1163621277217546,
                1.337570847687263,
                -0.031801341452340925,
                -0.4678337343101774
            ]
        },
        {
            "positions": [
                0.46111525170843226,
                -2.2350374565624156,
                -2.1679026700196498,
                1.3739985991250077,
                0.00851808849434671,
                -0.3743959124411731
            ]
        },
        {
            "positions": [
                0.2997092144479194,
                -2.2468188478254625,
                -2.219443212317545,
                1.4104263505627523,
                0.048837518441034455,
                -0.2809580905721686
            ]
        },
        {
            "positions": [
                0.1383031771874068,
                -2.25860023908851,
                -2.2709837546154397,
                1.446854102000497,
                0.08915694838772215,
                -0.1875202687031643
            ]
        },
        {
            "positions": [
                -0.023102860073106024,
                -2.270381630351557,
                -2.322524296913335,
                1.483281853438242,
                0.12947637833440984,
                -0.0940824468341599
            ]
        },
        {
            "positions": [
                -0.18450889733361867,
                -2.2821630216146045,
                -2.37406483921123,
                1.5197096048759866,
                0.16979580828109747,
                -0.0006446249651554149
            ]
        }
    ]
}