{
    "goal": {
        "global_pose": {
            "orientation": {
                "w": 0.7047431493862688,
                "x": -0.7094548369677653,
                "y": 0.0024358444001904,
                "z": -0.0022348060817251984
            },
            "position": {
                "x": -0.39052492380142206,
                "y": 0.3671506643295288,
                "z": 0.19426114857196808
            }
        },
        "name": "move_to_magneteinheit_D"
    },
    "id": "BKPIECE_move_to_magneteinheit_D_26",
    "joint_names": [
        "shoulder_pan_joint",
        "shoulder_lift_joint",
        "elbow_joint",
        "wrist_1_joint",
        "wrist_2_joint",
        "wrist_3_joint"
    ],
    "metrics": {
        "cart_traj_len": 4.481148481989799,
        "distance_elbow_joint": 4.480830873558335,
        "distance_shoulder_lift_joint": 1.1042442675617825,
        "distance_shoulder_pan_joint": 3.6347354085594006,
        "distance_wrist_1_joint": 2.8446333341029355,
        "distance_wrist_2_joint": 0.6023272554731174,
        "distance_wrist_3_joint": 0.9696770562830603,
        "smoothness": 0.7619522903604005,
        "time": 0.19616967400000002,
        "traj_len": 3.692756178728651,
        "weighted_distance": 4.36150924539669
    },
    "planner": "BKPIECE",
    "start": {
        "state": {
            "elbow_joint": 0.749534889911806,
            "shoulder_lift_joint": -0.6476975780787326,
            "shoulder_pan_joint": -2.711696901376241,
            "wrist_1_joint": -0.07506478083263063,
            "wrist_2_joint": 0.43296659715538205,
            "wrist_3_joint": -3.14703540197715
        }
    },
    "waypoints": [
        {
            "positions": [
                -2.711696901376241,
                -0.6476975780787326,
                0.749534889911806,
                -0.07506478083263063,
                0.43296659715538205,
                -3.14703540197715
            ]
        },
        {
            "positions": [
                -2.7352743680848635,
                -0.7691840569321783,
                0.8482566326803866,
                -0.026520812691453767,
                0.4128366563572891,
                -3.0730051538158003
            ]
        },
        {
            "positions": [
                -2.758851834793486,
                -0.8906705357856239,
                0.9469783754489673,
                0.022023155449723095,
                0.3927067155591961,
                -2.9989749056544506
            ]
        },
        {
            "positions": [
                -2.782429301502108,
                -1.0121570146390697,
                1.045700118217548,
                0.07056712359089995,
                0.3725767747611032,
                -2.924944657493101
            ]
        },
        {
            "positions": [
                -2.80600676821073,
                -1.1336434934925153,
                1.144421860986129,
                0.11911109173207682,
                0.3524468339630102,
                -2.8509144093317516
            ]
        },
        {
            "positions": [
                -2.8295842349193525,
                -1.255129972345961,
                1.2431436037547097,
                0.1676550598732537,
                0.33231689316491725,
                -2.776884161170402
            ]
        },
        {
            "positions": [
                -2.853161701627975,
                -1.3766164511994066,
                1.3418653465232904,
                0.21619902801443053,
                0.31218695236682426,
                -2.702853913009052
            ]
        },
        {
            "positions": [
                -2.8767391683365973,
                -1.4981029300528523,
                1.440587089291871,
                0.2647429961556074,
                0.2920570115687313,
                -2.6288236648477024
            ]
        },
        {
            "positions": [
                -2.7535178961985083,
                -1.5038664314855108,
                1.2969192326993744,
                0.17263670759176147,
                0.2757235007697637,
                -2.641214620883518
            ]
        },
        {
            "positions": [
                -2.6302966240604198,
                -1.5096299329181693,
                1.1532513761068777,
                0.08053041902791555,
                0.2593899899707961,
                -2.6536055769193334
            ]
        },
        {
            "positions": [
                -2.5070753519223308,
                -1.5153934343508277,
                1.0095835195143807,
                -0.011575869535930372,
                0.2430564791718285,
                -2.665996532955149
            ]
        },
        {
            "positions": [
                -2.3838540797842422,
                -1.5211569357834864,
                0.865915662921884,
                -0.10368215809977632,
                0.22672296837286088,
                -2.678387488990965
            ]
        },
        {
            "positions": [
                -2.2606328076461533,
                -1.526920437216145,
                0.7222478063293872,
                -0.19578844666362227,
                0.21038945757389327,
                -2.69077844502678
            ]
        },
        {
            "positions": [
                -2.1374115355080647,
                -1.5326839386488034,
                0.5785799497368905,
                -0.28789473522746817,
                0.19405594677492566,
                -2.703169401062596
            ]
        },
        {
            "positions": [
                -2.0141902633699758,
                -1.5384474400814618,
                0.4349120931443937,
                -0.3800010237913141,
                0.17772243597595805,
                -2.7155603570984113
            ]
        },
        {
            "positions": [
                -1.890968991231887,
                -1.5442109415141203,
                0.291244236551897,
                -0.47210731235516007,
                0.16138892517699044,
                -2.727951313134227
            ]
        },
        {
            "positions": [
                -1.7677477190937982,
                -1.5499744429467788,
                0.14757637995940032,
                -0.564213600919006,
                0.14505541437802283,
                -2.7403422691700428
            ]
        },
        {
            "positions": [
                -1.6445264469557093,
                -1.5557379443794375,
                0.003908523366903394,
                -0.6563198894828519,
                0.12872190357905522,
                -2.752733225205858
            ]
        },
        {
            "positions": [
                -1.5213051748176207,
                -1.561501445812096,
                -0.1397593332255933,
                -0.7484261780466979,
                0.11238839278008761,
                -2.765124181241674
            ]
        },
        {
            "positions": [
                -1.398083902679532,
                -1.5672649472447544,
                -0.28342718981809,
                -0.8405324666105438,
                0.09605488198112,
                -2.7775151372774896
            ]
        },
        {
            "positions": [
                -1.274862630541443,
                -1.5730284486774129,
                -0.4270950464105867,
                -0.9326387551743898,
                0.07972137118215239,
                -2.789906093313305
            ]
        },
        {
            "positions": [
                -1.1516413584033542,
                -1.5787919501100713,
                -0.5707629030030836,
                -1.0247450437382357,
                0.06338786038318475,
                -2.8022970493491206
            ]
        },
        {
            "positions": [
                -1.0284200862652657,
                -1.5845554515427298,
                -0.7144307595955803,
                -1.1168513323020817,
                0.04705434958421717,
                -2.8146880053849364
            ]
        },
        {
            "positions": [
                -0.9051988141271767,
                -1.5903189529753885,
                -0.858098616188077,
                -1.2089576208659276,
                0.03072083878524956,
                -2.8270789614207517
            ]
        },
        {
            "positions": [
                -0.7819775419890878,
                -1.596082454408047,
                -1.0017664727805737,
                -1.3010639094297736,
                0.01438732798628195,
                -2.8394699174565674
            ]
        },
        {
            "positions": [
                -0.6587562698509992,
                -1.6018459558407054,
                -1.1454343293730704,
                -1.3931701979936193,
                -0.0019461828126856595,
                -2.8518608734923827
            ]
        },
        {
            "positions": [
                -0.5355349977129102,
                -1.607609457273364,
                -1.2891021859655671,
                -1.4852764865574655,
                -0.01827969361165327,
                -2.8642518295281985
            ]
        },
        {
            "positions": [
                -0.41231372557482127,
                -1.6133729587060224,
                -1.4327700425580643,
                -1.5773827751213114,
                -0.03461320441062088,
                -2.876642785564014
            ]
        },
        {
            "positions": [
                -0.28909245343673273,
                -1.6191364601386808,
                -1.5764378991505605,
                -1.6694890636851571,
                -0.05094671520958849,
                -2.8890337415998295
            ]
        },
        {
            "positions": [
                -0.1658711812986442,
                -1.6248999615713395,
                -1.7201057557430577,
                -1.761595352249003,
                -0.0672802260085561,
                -2.9014246976356453
            ]
        },
        {
            "positions": [
                -0.04264990916055522,
                -1.630663463003998,
                -1.8637736123355544,
                -1.853701640812849,
                -0.08361373680752371,
                -2.913815653671461
            ]
        },
        {
            "positions": [
                0.08057136297753331,
                -1.6364269644366565,
                -2.007441468928051,
                -1.945807929376695,
                -0.09994724760649132,
                -2.9262066097072763
            ]
        },
        {
            "positions": [
                0.20379263511562218,
                -1.642190465869315,
                -2.151109325520548,
                -2.037914217940541,
                -0.11628075840545893,
                -2.938597565743092
            ]
        },
        {
            "positions": [
                0.07407218906668075,
                -1.6787742591263817,
                -2.217136745309165,
                -2.1053036656133908,
                -0.1339740583762177,
                -2.985828038495833
            ]
        },
        {
            "positions": [
                -0.05564825698226067,
                -1.7153580523834484,
                -2.2831641650977827,
                -2.17269311328624,
                -0.15166735834697648,
                -3.033058511248574
            ]
        },
        {
            "positions": [
                -0.1853687030312021,
                -1.7519418456405151,
                -2.3491915848864,
                -2.24008256095909,
                -0.16936065831773528,
                -3.080288984001315
            ]
        }
    ]
}