{
    "goal": {
        "global_pose": {
            "orientation": {
                "w": 0.7047431468963623,
                "x": -0.7094548344612122,
                "y": 0.0024358443915843964,
                "z": -0.0022348060738295317
            },
            "position": {
                "x": 0.6094750761985779,
                "y": 0.3671506643295288,
                "z": 0.19426114857196808
            }
        },
        "name": "move_to_magneteinheit_A"
    },
    "id": "BKPIECE_move_to_magneteinheit_A_137",
    "joint_names": [
        "shoulder_pan_joint",
        "shoulder_lift_joint",
        "elbow_joint",
        "wrist_1_joint",
        "wrist_2_joint",
        "wrist_3_joint"
    ],
    "metrics": {
        "cart_traj_len": 3.0626015185377873,
        "distance_elbow_joint": 3.9148341828171027,
        "distance_shoulder_lift_joint": 0.8264947570266837,
        "distance_shoulder_pan_joint": 3.0318172546068207,
        "distance_wrist_1_joint": 3.4764335032344285,
        "distance_wrist_2_joint": 1.4357935249217184,
        "distance_wrist_3_joint": 0.6401476090013651,
        "smoothness": 0.22543114956217347,
        "time": 0.337700391,
        "traj_len": 3.6504137890940695,
        "weighted_distance": 4.417922937056169
    },
    "planner": "BKPIECE",
    "start": {
        "state": {
            "elbow_joint": -1.9196185241190666,
            "shoulder_lift_joint": -1.2443396400964142,
            "shoulder_pan_joint": 2.6996025414629847,
            "wrist_1_joint": -1.5485510000780065,
            "wrist_2_joint": -1.5709468930060704,
            "wrist_3_joint": 0.4420197071253992
        }
    },
    "waypoints": [
        {
            "positions": [
                2.6996025414629847,
                -1.2443396400964142,
                -1.9196185241190666,
                -1.5485510000780065,
                -1.5709468930060704,
                0.4420197071253992
            ]
        },
        {
            "positions": [
                2.6032101851805303,
                -1.2512591337096683,
                -1.7779723756762897,
                -1.4572012167521968,
                -1.531580952909638,
                0.4276100248364574
            ]
        },
        {
            "positions": [
                2.5068178288980754,
                -1.2581786273229225,
                -1.636326227233513,
                -1.3658514334263872,
                -1.4922150128132057,
                0.4132003425475156
            ]
        },
        {
            "positions": [
                2.4104254726156205,
                -1.2650981209361767,
                -1.4946800787907362,
                -1.2745016501005775,
                -1.4528490727167733,
                0.39879066025857374
            ]
        },
        {
            "positions": [
                2.314033116333166,
                -1.2720176145494309,
                -1.3530339303479595,
                -1.1831518667747676,
                -1.413483132620341,
                0.38438097796963194
            ]
        },
        {
            "positions": [
                2.2176407600507115,
                -1.278937108162685,
                -1.2113877819051826,
                -1.091802083448958,
                -1.3741171925239086,
                0.36997129568069015
            ]
        },
        {
            "positions": [
                2.1212484037682566,
                -1.2858566017759392,
                -1.0697416334624057,
                -1.0004523001231482,
                -1.3347512524274763,
                0.3555616133917483
            ]
        },
        {
            "positions": [
                2.0248560474858017,
                -1.2927760953891931,
                -0.9280954850196291,
                -0.9091025167973387,
                -1.295385312331044,
                0.3411519311028065
            ]
        },
        {
            "positions": [
                1.9284636912033473,
                -1.2996955890024473,
                -0.7864493365768521,
                -0.8177527334715289,
                -1.2560193722346116,
                0.3267422488138647
            ]
        },
        {
            "positions": [
                1.8320713349208926,
                -1.3066150826157015,
                -0.6448031881340754,
                -0.7264029501457193,
                -1.2166534321381792,
                0.3123325665249229
            ]
        },
        {
            "positions": [
                1.735678978638438,
                -1.3135345762289556,
                -0.5031570396912985,
                -0.6350531668199095,
                -1.1772874920417469,
                0.2979228842359811
            ]
        },
        {
            "positions": [
                1.6392866223559832,
                -1.3204540698422098,
                -0.36151089124852187,
                -0.5437033834940999,
                -1.1379215519453145,
                0.28351320194703933
            ]
        },
        {
            "positions": [
                1.5428942660735285,
                -1.327373563455464,
                -0.21986474280574497,
                -0.4523536001682902,
                -1.0985556118488822,
                0.2691035196580975
            ]
        },
        {
            "positions": [
                1.4465019097910738,
                -1.3342930570687181,
                -0.0782185943629683,
                -0.3610038168424805,
                -1.0591896717524498,
                0.2546938373691557
            ]
        },
        {
            "positions": [
                1.3501095535086192,
                -1.3412125506819723,
                0.06342755407980838,
                -0.26965403351667083,
                -1.0198237316560175,
                0.2402841550802139
            ]
        },
        {
            "positions": [
                1.2537171972261647,
                -1.3481320442952265,
                0.20507370252258506,
                -0.17830425019086116,
                -0.9804577915595851,
                0.2258744727912721
            ]
        },
        {
            "positions": [
                1.1573248409437098,
                -1.3550515379084807,
                0.3467198509653624,
                -0.08695446686505126,
                -0.9410918514631528,
                0.21146479050233025
            ]
        },
        {
            "positions": [
                1.0609324846612551,
                -1.3619710315217348,
                0.48836599940813885,
                0.004395316460758192,
                -0.9017259113667204,
                0.19705510821338845
            ]
        },
        {
            "positions": [
                0.9645401283788004,
                -1.368890525134989,
                0.6300121478509157,
                0.09574509978656787,
                -0.8623599712702881,
                0.18264542592444666
            ]
        },
        {
            "positions": [
                0.8681477720963457,
                -1.375810018748243,
                0.7716582962936922,
                0.18709488311237754,
                -0.8229940311738557,
                0.16823574363550486
            ]
        },
        {
            "positions": [
                0.7717554158138911,
                -1.382729512361497,
                0.9133044447364695,
                0.27844466643818744,
                -0.7836280910774234,
                0.15382606134656301
            ]
        },
        {
            "positions": [
                0.6753630595314362,
                -1.3896490059747513,
                1.054950593179246,
                0.3697944497639971,
                -0.744262150980991,
                0.13941637905762122
            ]
        },
        {
            "positions": [
                0.5789707032489817,
                -1.3965684995880054,
                1.196596741622023,
                0.4611442330898068,
                -0.7048962108845587,
                0.12500669676867943
            ]
        },
        {
            "positions": [
                0.48257834696652724,
                -1.4034879932012596,
                1.3382428900647994,
                0.5524940164156165,
                -0.6655302707881263,
                0.11059701447973763
            ]
        },
        {
            "positions": [
                0.38618599068407233,
                -1.4104074868145138,
                1.4798890385075767,
                0.6438437997414261,
                -0.626164330691694,
                0.09618733219079578
            ]
        },
        {
            "positions": [
                0.28979363440161743,
                -1.417326980427768,
                1.6215351869503531,
                0.7351935830672358,
                -0.5867983905952616,
                0.08177764990185399
            ]
        },
        {
            "positions": [
                0.19340127811916316,
                -1.4242464740410221,
                1.76318133539313,
                0.8265433663930455,
                -0.5474324504988292,
                0.06736796761291221
            ]
        },
        {
            "positions": [
                0.11890891748246088,
                -1.3670431107345322,
                1.7654015331174728,
                0.9481431003964067,
                -0.5116882494759905,
                0.09125917213323945
            ]
        },
        {
            "positions": [
                0.0444165568457586,
                -1.3098397474280423,
                1.7676217308418156,
                1.0697428343997681,
                -0.47594404845315164,
                0.1151503766535667
            ]
        },
        {
            "positions": [
                -0.030075803790943684,
                -1.2526363841215524,
                1.7698419285661586,
                1.1913425684031294,
                -0.4401998474303129,
                0.13904158117389392
            ]
        },
        {
            "positions": [
                -0.10456816442764598,
                -1.1954330208150625,
                1.7720621262905014,
                1.3129423024064906,
                -0.4044556464074741,
                0.16293278569422118
            ]
        },
        {
            "positions": [
                -0.07151152813420483,
                -1.134781975751647,
                1.8044730776930864,
                1.4024810289732577,
                -0.36473310671429043,
                0.13884115332415833
            ]
        },
        {
            "positions": [
                -0.03845489184076367,
                -1.0741309306882314,
                1.8368840290956714,
                1.4920197555400248,
                -0.3250105670211068,
                0.11474952095409549
            ]
        },
        {
            "positions": [
                -0.005398255547322511,
                -1.013479885624816,
                1.8692949804982564,
                1.5815584821067918,
                -0.28528802732792313,
                0.09065788858403265
            ]
        },
        {
            "positions": [
                0.037427291064633036,
                -0.9348727740695261,
                1.911268539898183,
                1.6969998224566687,
                -0.23524314091339943,
                0.05810583715157239
            ]
        },
        {
            "positions": [
                0.08025283767658858,
                -0.8562656625142362,
                1.9532420992981094,
                1.8124411628065455,
                -0.18519825449887573,
                0.025553785719112126
            ]
        },
        {
            "positions": [
                0.12307838428854415,
                -0.7776585509589463,
                1.995215658698036,
                1.9278825031564224,
                -0.13515336808435202,
                -0.0069982657133481375
            ]
        }
    ]
}