{
    "goal": {
        "global_pose": {
            "orientation": {
                "w": 0.005598929693374612,
                "x": 0.007748599140229565,
                "y": 0.7110244013736278,
                "z": -0.7031023480610252
            },
            "position": {
                "x": 0.1141497679147869,
                "y": -0.7141253447532654,
                "z": 0.3711530566215515
            }
        },
        "name": "move_to_auspresseinheit_B"
    },
    "id": "BKPIECE_move_to_auspresseinheit_B_23",
    "joint_names": [
        "shoulder_pan_joint",
        "shoulder_lift_joint",
        "elbow_joint",
        "wrist_1_joint",
        "wrist_2_joint",
        "wrist_3_joint"
    ],
    "metrics": {
        "cart_traj_len": 0.5650445878620288,
        "distance_elbow_joint": 0.06530395809650047,
        "distance_shoulder_lift_joint": 0.2939423117136044,
        "distance_shoulder_pan_joint": 0.5761833434642603,
        "distance_wrist_1_joint": 0.3368017880402048,
        "distance_wrist_2_joint": 1.0014075342787572,
        "distance_wrist_3_joint": 0.008178352454501603,
        "smoothness": 3.806478935924272e-16,
        "time": 0.085427378,
        "traj_len": 1.510568531397311,
        "weighted_distance": 1.9069303383385021
    },
    "planner": "BKPIECE",
    "start": {
        "state": {
            "elbow_joint": 2.0193083361928714,
            "shoulder_lift_joint": -1.1220246554650708,
            "shoulder_pan_joint": -1.0952077554168747,
            "wrist_1_joint": -0.8559753972642168,
            "wrist_2_joint": 0.4759566250798843,
            "wrist_3_joint": -3.1240929996934557
        }
    },
    "waypoints": [
        {
            "positions": [
                -1.0952077554168747,
                -1.1220246554650708,
                2.0193083361928714,
                -0.8559753972642168,
                0.4759566250798843,
                -3.1240929996934557
            ]
        },
        {
            "positions": [
                -1.191238312660918,
                -1.1710150407506714,
                2.008424343176788,
                -0.7998417659241827,
                0.6428578807930105,
                -3.1227299409510385
            ]
        },
        {
            "positions": [
                -1.2872688699049615,
                -1.2200054260362723,
                1.9975403501607045,
                -0.7437081345841485,
                0.8097591365061367,
                -3.121366882208622
            ]
        },
        {
            "positions": [
                -1.3832994271490047,
                -1.2689958113218731,
                1.9866563571446212,
                -0.6875745032441144,
                0.9766603922192629,
                -3.120003823466205
            ]
        },
        {
            "positions": [
                -1.479329984393048,
                -1.3179861966074737,
                1.9757723641285379,
                -0.6314408719040803,
                1.1435616479323891,
                -3.118640764723788
            ]
        },
        {
            "positions": [
                -1.5753605416370915,
                -1.3669765818930744,
                1.9648883711124543,
                -0.5753072405640461,
                1.3104629036455153,
                -3.1172777059813708
            ]
        },
        {
            "positions": [
                -1.671391098881135,
                -1.4159669671786752,
                1.954004378096371,
                -0.519173609224012,
                1.4773641593586415,
                -3.115914647238954
            ]
        }
    ]
}