{
    "goal": {
        "global_pose": {
            "orientation": {
                "w": 0.7031023502349854,
                "x": -0.7110244035720825,
                "y": 0.007748599164187908,
                "z": 0.005598929710686207
            },
            "position": {
                "x": 0.11585023208521307,
                "y": 0.44412534475326537,
                "z": 0.3711530566215515
            }
        },
        "name": "move_to_auspresseinheit_A"
    },
    "id": "BKPIECE_move_to_auspresseinheit_A_42",
    "joint_names": [
        "shoulder_pan_joint",
        "shoulder_lift_joint",
        "elbow_joint",
        "wrist_1_joint",
        "wrist_2_joint",
        "wrist_3_joint"
    ],
    "metrics": {
        "cart_traj_len": 0.7658531801154749,
        "distance_elbow_joint": 0.46853027143390946,
        "distance_shoulder_lift_joint": 0.5380586583746205,
        "distance_shoulder_pan_joint": 1.0439662222530282,
        "distance_wrist_1_joint": 1.2727108842609347,
        "distance_wrist_2_joint": 0.5182810804952549,
        "distance_wrist_3_joint": 1.0737648197457754,
        "smoothness": 1.1135405094693944,
        "time": 0.370303695,
        "traj_len": 2.2170502783120463,
        "weighted_distance": 2.975539201692907
    },
    "planner": "BKPIECE",
    "start": {
        "state": {
            "elbow_joint": 2.4225746658250005,
            "shoulder_lift_joint": -1.3736534386056498,
            "shoulder_pan_joint": -0.3378633547517467,
            "wrist_1_joint": -1.0288598680537169,
            "wrist_2_joint": 1.233022673432363,
            "wrist_3_joint": -3.0940220416140027
        }
    },
    "waypoints": [
        {
            "positions": [
                -0.3378633547517467,
                -1.3736534386056498,
                2.4225746658250005,
                -1.0288598680537169,
                1.233022673432363,
                -3.0940220416140027
            ]
        },
        {
            "positions": [
                -0.2769264355837199,
                -1.4316235733397584,
                2.3915819058356824,
                -0.9143878722172367,
                1.1710223212456357,
                -3.0289781517563648
            ]
        },
        {
            "positions": [
                -0.21598951641569306,
                -1.4895937080738668,
                2.360589145846364,
                -0.7999158763807567,
                1.109021969058908,
                -2.9639342618987268
            ]
        },
        {
            "positions": [
                -0.15505259724766624,
                -1.5475638428079754,
                2.3295963858570454,
                -0.6854438805442766,
                1.0470216168721806,
                -2.8988903720410883
            ]
        },
        {
            "positions": [
                -0.09411567807963939,
                -1.605533977542084,
                2.2986036258677274,
                -0.5709718847077965,
                0.9850212646854533,
                -2.8338464821834504
            ]
        },
        {
            "positions": [
                -0.03317875891161254,
                -1.6635041122761924,
                2.2676108658784093,
                -0.4564998888713163,
                0.9230209124987258,
                -2.7688025923258124
            ]
        },
        {
            "positions": [
                0.027758160256414255,
                -1.721474247010301,
                2.236618105889091,
                -0.34202789303483627,
                0.8610205603119983,
                -2.703758702468174
            ]
        },
        {
            "positions": [
                0.0886950794244411,
                -1.7794443817444097,
                2.2056253458997723,
                -0.22755589719835623,
                0.7990202081252709,
                -2.638714812610536
            ]
        },
        {
            "positions": [
                0.14963199859246792,
                -1.837414516478518,
                2.1746325859104543,
                -0.1130839013618761,
                0.7370198559385434,
                -2.573670922752898
            ]
        },
        {
            "positions": [
                0.26092617237423066,
                -1.8522740325788685,
                2.218750224214327,
                -0.18447088487569488,
                0.7325642033382563,
                -2.684353662929832
            ]
        },
        {
            "positions": [
                0.37222034615599336,
                -1.8671335486792189,
                2.2628678625181995,
                -0.25585786838951363,
                0.7281085507379693,
                -2.7950364031067663
            ]
        },
        {
            "positions": [
                0.48351451993775607,
                -1.8819930647795695,
                2.3069855008220723,
                -0.3272448519033324,
                0.7236528981376822,
                -2.9057191432837004
            ]
        },
        {
            "positions": [
                0.5948086937195188,
                -1.89685258087992,
                2.3511031391259447,
                -0.3986318354171512,
                0.7191972455373952,
                -3.0164018834606345
            ]
        },
        {
            "positions": [
                0.7061028675012815,
                -1.9117120969802703,
                2.3952207774298175,
                -0.47001881893097,
                0.7147415929371081,
                -3.1270846236375687
            ]
        }
    ]
}