{
    "goal": {
        "global_pose": {
            "orientation": {
                "w": 0.7031023480610252,
                "x": -0.7110244013736278,
                "y": 0.0077485991402295624,
                "z": 0.005598929693374583
            },
            "position": {
                "x": -0.8841497679147869,
                "y": 0.44412534475326537,
                "z": 0.3711530566215515
            }
        },
        "name": "move_to_auspresseinheit_D"
    },
    "id": "BKPIECE_move_to_auspresseinheit_D_14",
    "joint_names": [
        "shoulder_pan_joint",
        "shoulder_lift_joint",
        "elbow_joint",
        "wrist_1_joint",
        "wrist_2_joint",
        "wrist_3_joint"
    ],
    "metrics": {
        "cart_traj_len": 0.34402012603881216,
        "distance_elbow_joint": 0.6661600472886713,
        "distance_shoulder_lift_joint": 0.13747003082279363,
        "distance_shoulder_pan_joint": 0.13316999835354437,
        "distance_wrist_1_joint": 0.6125499381991393,
        "distance_wrist_2_joint": 1.4460960275234316,
        "distance_wrist_3_joint": 0.07647082313913822,
        "smoothness": 1.9737298371844314e-16,
        "time": 0.48807744999999997,
        "traj_len": 1.752688467847814,
        "weighted_distance": 2.2985874961218173
    },
    "planner": "BKPIECE",
    "start": {
        "state": {
            "elbow_joint": -1.8275523626775212,
            "shoulder_lift_joint": -2.126789852344167,
            "shoulder_pan_joint": -0.03513704404078235,
            "wrist_1_joint": -2.347782403156801,
            "wrist_2_joint": -1.6058999987535132,
            "wrist_3_joint": -3.0880379163319196
        }
    },
    "waypoints": [
        {
            "positions": [
                -0.03513704404078235,
                -2.126789852344167,
                -1.8275523626775212,
                -2.347782403156801,
                -1.6058999987535132,
                -3.0880379163319196
            ]
        },
        {
            "positions": [
                -0.051783293834975395,
                -2.143973606197016,
                -1.7442823567664374,
                -2.424351145431693,
                -1.4251379953130843,
                -3.078479063439527
            ]
        },
        {
            "positions": [
                -0.06842954362916845,
                -2.1611573600498653,
                -1.6610123508553534,
                -2.5009198877065857,
                -1.2443759918726554,
                -3.068920210547135
            ]
        },
        {
            "positions": [
                -0.0850757934233615,
                -2.1783411139027145,
                -1.5777423449442693,
                -2.5774886299814783,
                -1.0636139884322264,
                -3.0593613576547427
            ]
        },
        {
            "positions": [
                -0.10172204321755454,
                -2.1955248677555637,
                -1.4944723390331855,
                -2.6540573722563705,
                -0.8828519849917974,
                -3.0498025047623507
            ]
        },
        {
            "positions": [
                -0.11836829301174759,
                -2.212708621608413,
                -1.4112023331221017,
                -2.7306261145312627,
                -0.7020899815513685,
                -3.0402436518699583
            ]
        },
        {
            "positions": [
                -0.13501454280594063,
                -2.229892375461262,
                -1.3279323272110177,
                -2.8071948568061553,
                -0.5213279781109394,
                -3.030684798977566
            ]
        },
        {
            "positions": [
                -0.15166079260013368,
                -2.2470761293141113,
                -1.2446623212999337,
                -2.883763599081048,
                -0.34056597467051053,
                -3.021125946085174
            ]
        },
        {
            "positions": [
                -0.16830704239432673,
                -2.2642598831669605,
                -1.16139231538885,
                -2.96033234135594,
                -0.15980397123008164,
                -3.0115670931927814
            ]
        }
    ]
}