{
    "goal": {
        "global_pose": {
            "orientation": {
                "w": 0.7031023480610252,
                "x": -0.7110244013736278,
                "y": 0.0077485991402295624,
                "z": 0.005598929693374583
            },
            "position": {
                "x": -0.8841497679147869,
                "y": 0.44412534475326537,
                "z": 0.3711530566215515
            }
        },
        "name": "move_to_auspresseinheit_D"
    },
    "id": "BKPIECE_move_to_auspresseinheit_D_46",
    "joint_names": [
        "shoulder_pan_joint",
        "shoulder_lift_joint",
        "elbow_joint",
        "wrist_1_joint",
        "wrist_2_joint",
        "wrist_3_joint"
    ],
    "metrics": {
        "cart_traj_len": 0.344489272741417,
        "distance_elbow_joint": 0.6614647282274153,
        "distance_shoulder_lift_joint": 0.13370327766964474,
        "distance_shoulder_pan_joint": 0.13309874988590012,
        "distance_wrist_1_joint": 0.5934097972045751,
        "distance_wrist_2_joint": 1.4494621358776416,
        "distance_wrist_3_joint": 0.05196140639643909,
        "smoothness": 1.77635684096311e-15,
        "time": 0.261069241,
        "traj_len": 1.7387064430954455,
        "weighted_distance": 2.2737402756552276
    },
    "planner": "BKPIECE",
    "start": {
        "state": {
            "elbow_joint": -1.8275523626775212,
            "shoulder_lift_joint": -2.126789852344167,
            "shoulder_pan_joint": -0.03513704404078235,
            "wrist_1_joint": -2.347782403156801,
            "wrist_2_joint": -1.6058999987535132,
            "wrist_3_joint": -3.0880379163319196
        }
    },
    "waypoints": [
        {
            "positions": [
                -0.03513704404078235,
                -2.126789852344167,
                -1.8275523626775212,
                -2.347782403156801,
                -1.6058999987535132,
                -3.0880379163319196
            ]
        },
        {
            "positions": [
                -0.05177438777651987,
                -2.1435027620528726,
                -1.7448692716490943,
                -2.421958627807373,
                -1.424717231768808,
                -3.0815427405323645
            ]
        },
        {
            "positions": [
                -0.06841173151225738,
                -2.160215671761578,
                -1.6621861806206675,
                -2.4961348524579448,
                -1.2435344647841027,
                -3.07504756473281
            ]
        },
        {
            "positions": [
                -0.0850490752479949,
                -2.1769285814702837,
                -1.5795030895922404,
                -2.5703110771085167,
                -1.0623516977993976,
                -3.068552388933255
            ]
        },
        {
            "positions": [
                -0.1016864189837324,
                -2.1936414911789894,
                -1.4968199985638135,
                -2.6444873017590886,
                -0.8811689308146924,
                -3.0620572131337003
            ]
        },
        {
            "positions": [
                -0.11832376271946993,
                -2.2103544008876947,
                -1.4141369075353867,
                -2.71866352640966,
                -0.6999861638299871,
                -3.055562037334145
            ]
        },
        {
            "positions": [
                -0.13496110645520745,
                -2.2270673105964005,
                -1.3314538165069596,
                -2.792839751060232,
                -0.5188033968452821,
                -3.04906686153459
            ]
        },
        {
            "positions": [
                -0.15159845019094495,
                -2.243780220305106,
                -1.2487707254785327,
                -2.867015975710804,
                -0.33762062986057684,
                -3.0425716857350356
            ]
        },
        {
            "positions": [
                -0.16823579392668248,
                -2.2604931300138116,
                -1.1660876344501059,
                -2.941192200361376,
                -0.1564378628758717,
                -3.0360765099354805
            ]
        }
    ]
}