{
    "goal": {
        "global_pose": {
            "orientation": {
                "w": -0.4816463035849501,
                "x": 0.5182115481033762,
                "y": 0.4908360881923453,
                "z": -0.5084816262002911
            },
            "position": {
                "x": -0.8240239810943604,
                "y": -0.300875300988555,
                "z": 0.16403168439865112
            }
        },
        "name": "move_to_storage_C"
    },
    "id": "BKPIECE_move_to_storage_C_140",
    "joint_names": [
        "shoulder_pan_joint",
        "shoulder_lift_joint",
        "elbow_joint",
        "wrist_1_joint",
        "wrist_2_joint",
        "wrist_3_joint"
    ],
    "metrics": {
        "cart_traj_len": 0.5765313098872303,
        "distance_elbow_joint": 0.25954816673314274,
        "distance_shoulder_lift_joint": 0.18876891003344498,
        "distance_shoulder_pan_joint": 0.49457008821149184,
        "distance_wrist_1_joint": 0.08818686445532209,
        "distance_wrist_2_joint": 1.0709512822127891,
        "distance_wrist_3_joint": 0.06480791672436803,
        "smoothness": 0.0,
        "time": 0.208784415,
        "traj_len": 1.4720167214982849,
        "weighted_distance": 1.8589209796243107
    },
    "planner": "BKPIECE",
    "start": {
        "state": {
            "elbow_joint": 2.010868314990456,
            "shoulder_lift_joint": -1.1634956873337592,
            "shoulder_pan_joint": -2.4736205022346125,
            "wrist_1_joint": -0.8367026794202681,
            "wrist_2_joint": 0.6746043897044499,
            "wrist_3_joint": -3.1496632123970403
        }
    },
    "waypoints": [
        {
            "positions": [
                -2.4736205022346125,
                -1.1634956873337592,
                2.010868314990456,
                -0.8367026794202681,
                0.6746043897044499,
                -3.1496632123970403
            ]
        },
        {
            "positions": [
                -2.5560488502698613,
                -1.132034202328185,
                1.9676102872015986,
                -0.8220048686777144,
                0.8530962700732481,
                -3.138861892942979
            ]
        },
        {
            "positions": [
                -2.6384771983051096,
                -1.1005727173226107,
                1.9243522594127416,
                -0.8073070579351608,
                1.0315881504420463,
                -3.1280605734889178
            ]
        },
        {
            "positions": [
                -2.7209055463403584,
                -1.0691112323170366,
                1.8810942316238846,
                -0.7926092471926071,
                1.2100800308108446,
                -3.117259254034856
            ]
        },
        {
            "positions": [
                -2.803333894375607,
                -1.0376497473114625,
                1.8378362038350273,
                -0.7779114364500533,
                1.3885719111796426,
                -3.1064579345807948
            ]
        },
        {
            "positions": [
                -2.8857622424108555,
                -1.0061882623058884,
                1.79457817604617,
                -0.7632136257074997,
                1.5670637915484409,
                -3.0956566151267335
            ]
        },
        {
            "positions": [
                -2.9681905904461043,
                -0.9747267773003142,
                1.751320148257313,
                -0.748515814964946,
                1.7455556719172391,
                -3.0848552956726722
            ]
        }
    ]
}