{
    "goal": {
        "global_pose": {
            "orientation": {
                "w": 0.7047431468963623,
                "x": -0.7094548344612122,
                "y": 0.0024358443915843964,
                "z": -0.0022348060738295317
            },
            "position": {
                "x": 0.6094750761985779,
                "y": 0.3671506643295288,
                "z": 0.19426114857196808
            }
        },
        "name": "move_to_magneteinheit_A"
    },
    "id": "BKPIECE_move_to_magneteinheit_A_49",
    "joint_names": [
        "shoulder_pan_joint",
        "shoulder_lift_joint",
        "elbow_joint",
        "wrist_1_joint",
        "wrist_2_joint",
        "wrist_3_joint"
    ],
    "metrics": {
        "cart_traj_len": 3.0686056212432486,
        "distance_elbow_joint": 3.8720133184594525,
        "distance_shoulder_lift_joint": 0.5601507185474066,
        "distance_shoulder_pan_joint": 2.7812655101102215,
        "distance_wrist_1_joint": 3.4338062813455617,
        "distance_wrist_2_joint": 1.9545471553997467,
        "distance_wrist_3_joint": 2.5779806821636293,
        "smoothness": 0.16800095659185987,
        "time": 0.156931451,
        "traj_len": 3.8961216184849805,
        "weighted_distance": 5.071891014907416
    },
    "planner": "BKPIECE",
    "start": {
        "state": {
            "elbow_joint": -1.9196185241190666,
            "shoulder_lift_joint": -1.2443396400964142,
            "shoulder_pan_joint": 2.6996025414629847,
            "wrist_1_joint": -1.5485510000780065,
            "wrist_2_joint": -1.5709468930060704,
            "wrist_3_joint": 0.4420197071253992
        }
    },
    "waypoints": [
        {
            "positions": [
                2.6996025414629847,
                -1.2443396400964142,
                -1.9196185241190666,
                -1.5485510000780065,
                -1.5709468930060704,
                0.4420197071253992
            ]
        },
        {
            "positions": [
                2.6043732843242995,
                -1.2525919636957983,
                -1.810233511383537,
                -1.4691420680521174,
                -1.5076747280750022,
                0.46936047938209463
            ]
        },
        {
            "positions": [
                2.509144027185614,
                -1.2608442872951824,
                -1.7008484986480072,
                -1.3897331360262282,
                -1.444402563143934,
                0.4967012516387901
            ]
        },
        {
            "positions": [
                2.4139147700469286,
                -1.2690966108945665,
                -1.5914634859124777,
                -1.310324204000339,
                -1.3811303982128658,
                0.5240420238954855
            ]
        },
        {
            "positions": [
                2.318685512908243,
                -1.2773489344939506,
                -1.4820784731769479,
                -1.23091527197445,
                -1.3178582332817974,
                0.551382796152181
            ]
        },
        {
            "positions": [
                2.2234562557695576,
                -1.2856012580933347,
                -1.3726934604414183,
                -1.151506339948561,
                -1.2545860683507293,
                0.5787235684088764
            ]
        },
        {
            "positions": [
                2.1282269986308724,
                -1.2938535816927188,
                -1.2633084477058887,
                -1.072097407922672,
                -1.191313903419661,
                0.6060643406655718
            ]
        },
        {
            "positions": [
                2.0329977414921867,
                -1.302105905292103,
                -1.1539234349703589,
                -0.9926884758967828,
                -1.1280417384885928,
                0.6334051129222673
            ]
        },
        {
            "positions": [
                1.9377684843535015,
                -1.310358228891487,
                -1.044538422234829,
                -0.9132795438708936,
                -1.0647695735575247,
                0.6607458851789627
            ]
        },
        {
            "positions": [
                1.842539227214816,
                -1.3186105524908711,
                -0.9351534094992995,
                -0.8338706118450046,
                -1.0014974086264563,
                0.6880866574356581
            ]
        },
        {
            "positions": [
                1.7473099700761305,
                -1.3268628760902552,
                -0.8257683967637699,
                -0.7544616798191154,
                -0.9382252436953881,
                0.7154274296923536
            ]
        },
        {
            "positions": [
                1.652080712937445,
                -1.3351151996896393,
                -0.7163833840282401,
                -0.6750527477932263,
                -0.8749530787643199,
                0.7427682019490491
            ]
        },
        {
            "positions": [
                1.5568514557987598,
                -1.3433675232890234,
                -0.6069983712927105,
                -0.5956438157673372,
                -0.8116809138332517,
                0.7701089742057445
            ]
        },
        {
            "positions": [
                1.4616221986600744,
                -1.3516198468884075,
                -0.4976133585571809,
                -0.5162348837414481,
                -0.7484087489021835,
                0.7974497464624399
            ]
        },
        {
            "positions": [
                1.366392941521389,
                -1.3598721704877916,
                -0.3882283458216511,
                -0.43682595171555905,
                -0.6851365839711152,
                0.8247905187191353
            ]
        },
        {
            "positions": [
                1.2711636843827032,
                -1.368124494087176,
                -0.2788433330861213,
                -0.35741701968966977,
                -0.6218644190400469,
                0.852131290975831
            ]
        },
        {
            "positions": [
                1.175934427244018,
                -1.3763768176865598,
                -0.16945832035059172,
                -0.2780080876637807,
                -0.5585922541089787,
                0.8794720632325264
            ]
        },
        {
            "positions": [
                1.0807051701053325,
                -1.3846291412859442,
                -0.06007330761506191,
                -0.19859915563789143,
                -0.49532008917791037,
                0.9068128354892218
            ]
        },
        {
            "positions": [
                0.9854759129666473,
                -1.3928814648853283,
                0.049311705120467675,
                -0.1191902236120026,
                -0.43204792424684224,
                0.9341536077459172
            ]
        },
        {
            "positions": [
                0.8902466558279616,
                -1.4011337884847124,
                0.15869671785599726,
                -0.03978129158611332,
                -0.3687757593157739,
                0.9614943800026127
            ]
        },
        {
            "positions": [
                0.7950173986892763,
                -1.4093861120840965,
                0.26808173059152685,
                0.039627640439775735,
                -0.30550359438470576,
                0.9888351522593081
            ]
        },
        {
            "positions": [
                0.6997881415505909,
                -1.4176384356834806,
                0.3774667433270569,
                0.11903657246566501,
                -0.24223142945363763,
                1.0161759245160036
            ]
        },
        {
            "positions": [
                0.6045588844119054,
                -1.4258907592828647,
                0.48685175606258646,
                0.19844550449155385,
                -0.1789592645225695,
                1.043516696772699
            ]
        },
        {
            "positions": [
                0.5093296272732202,
                -1.4341430828822488,
                0.596236768798116,
                0.2778544365174431,
                -0.11568709959150114,
                1.0708574690293944
            ]
        },
        {
            "positions": [
                0.41410037013453493,
                -1.442395406481633,
                0.7056217815336456,
                0.3572633685433322,
                -0.05241493466043301,
                1.0981982412860898
            ]
        },
        {
            "positions": [
                0.31887111299584925,
                -1.450647730081017,
                0.8150067942691757,
                0.43667230056922146,
                0.010857230270635343,
                1.1255390135427854
            ]
        },
        {
            "positions": [
                0.223641855857164,
                -1.458900053680401,
                0.9243918070047048,
                0.5160812325951103,
                0.07412939520170347,
                1.1528797857994806
            ]
        },
        {
            "positions": [
                0.1284125987184784,
                -1.4671523772797852,
                1.033776819740235,
                0.5954901646209997,
                0.13740156013277188,
                1.1802205580561762
            ]
        },
        {
            "positions": [
                0.1067786030533864,
                -1.4517489717434129,
                1.108669645382955,
                0.5342383411207956,
                0.16082256520204577,
                1.3097416732411082
            ]
        },
        {
            "positions": [
                0.08514460738829442,
                -1.4363455662070406,
                1.183562471025675,
                0.4729865176205915,
                0.18424357027131966,
                1.4392627884260403
            ]
        },
        {
            "positions": [
                0.06351061172320244,
                -1.4209421606706685,
                1.2584552966683948,
                0.41173469412038743,
                0.20766457534059352,
                1.5687839036109723
            ]
        },
        {
            "positions": [
                0.04187661605811044,
                -1.4055387551342962,
                1.3333481223111148,
                0.35048287062018335,
                0.23108558040986743,
                1.6983050187959043
            ]
        },
        {
            "positions": [
                0.020242620393018454,
                -1.3901353495979238,
                1.4082409479538347,
                0.28923104711997927,
                0.2545065854791413,
                1.8278261339808364
            ]
        },
        {
            "positions": [
                0.02328002804812323,
                -1.3602609641306929,
                1.486714537190591,
                0.16963544565515198,
                0.25178769133859336,
                1.9891143361267505
            ]
        },
        {
            "positions": [
                0.026317435703228,
                -1.3303865786634619,
                1.5651881264273473,
                0.0500398441903247,
                0.24906879719804542,
                2.1504025382726644
            ]
        },
        {
            "positions": [
                0.02935484335833277,
                -1.3005121931962311,
                1.6436617156641034,
                -0.06955575727450258,
                0.24634990305749746,
                2.3116907404185785
            ]
        },
        {
            "positions": [
                0.03239225101343755,
                -1.2706378077290001,
                1.7221353049008596,
                -0.18915135873932987,
                0.24363100891694953,
                2.4729789425644926
            ]
        },
        {
            "positions": [
                0.03542965866854232,
                -1.2407634222617692,
                1.800608894137616,
                -0.30874696020415715,
                0.2409121147764016,
                2.6342671447104067
            ]
        },
        {
            "positions": [
                0.04960166889528075,
                -1.2165957208802838,
                1.8427395347276039,
                -0.39747271917994137,
                0.22237575446578994,
                2.7325917801880273
            ]
        },
        {
            "positions": [
                0.06377367912201917,
                -1.1924280194987984,
                1.8848701753175918,
                -0.4861984781557256,
                0.20383939415517832,
                2.8309164156656474
            ]
        },
        {
            "positions": [
                0.09296094427764603,
                -1.1611212077072741,
                1.91863248482899,
                -0.5902367150906414,
                0.16462615135989242,
                2.925458402477338
            ]
        },
        {
            "positions": [
                0.12214820943327291,
                -1.1298143959157496,
                1.9523947943403879,
                -0.694274952025557,
                0.12541290856460652,
                3.0200003892890286
            ]
        }
    ]
}