{
    "goal": {
        "global_pose": {
            "orientation": {
                "w": 0.5084816262002911,
                "x": -0.4908360881923452,
                "y": 0.5182115481033761,
                "z": -0.48164630358495003
            },
            "position": {
                "x": 0.5540239810943604,
                "y": -0.46912469901144505,
                "z": 0.16403168439865112
            }
        },
        "name": "move_to_storage_B"
    },
    "id": "BKPIECE_move_to_storage_B_9",
    "joint_names": [
        "shoulder_pan_joint",
        "shoulder_lift_joint",
        "elbow_joint",
        "wrist_1_joint",
        "wrist_2_joint",
        "wrist_3_joint"
    ],
    "metrics": {
        "cart_traj_len": 3.142568030963863,
        "distance_elbow_joint": 2.6794002247683437,
        "distance_shoulder_lift_joint": 0.4613123544041908,
        "distance_shoulder_pan_joint": 2.9689110173980193,
        "distance_wrist_1_joint": 2.990347404726048,
        "distance_wrist_2_joint": 2.7098681821341652,
        "distance_wrist_3_joint": 3.1386066728165156,
        "smoothness": 0.31149713358504594,
        "time": 0.184934987,
        "traj_len": 3.866322006280295,
        "weighted_distance": 5.1890148187050436
    },
    "planner": "BKPIECE",
    "start": {
        "state": {
            "elbow_joint": 1.664937868594044,
            "shoulder_lift_joint": -0.661644460510453,
            "shoulder_pan_joint": -0.9139846352900073,
            "wrist_1_joint": 2.146753192139373,
            "wrist_2_joint": -2.2341966793290973,
            "wrist_3_joint": 0.005466555786416001
        }
    },
    "waypoints": [
        {
            "positions": [
                -0.9139846352900073,
                -0.661644460510453,
                1.664937868594044,
                2.146753192139373,
                -2.2341966793290973,
                0.005466555786416001
            ]
        },
        {
            "positions": [
                -0.8365672108298796,
                -0.686077210569941,
                1.6003046339714861,
                2.085845050179803,
                -2.1641598603319934,
                0.08640210826657346
            ]
        },
        {
            "positions": [
                -0.759149786369752,
                -0.7105099606294288,
                1.5356713993489282,
                2.0249369082202326,
                -2.09412304133489,
                0.16733766074673093
            ]
        },
        {
            "positions": [
                -0.6817323619096244,
                -0.7349427106889168,
                1.4710381647263704,
                1.9640287662606621,
                -2.024086222337786,
                0.2482732132268884
            ]
        },
        {
            "positions": [
                -0.6043149374494967,
                -0.7593754607484047,
                1.4064049301038126,
                1.9031206243010916,
                -1.9540494033406823,
                0.3292087657070459
            ]
        },
        {
            "positions": [
                -0.5268975129893692,
                -0.7838082108078926,
                1.3417716954812546,
                1.8422124823415214,
                -1.8840125843435787,
                0.41014431818720337
            ]
        },
        {
            "positions": [
                -0.4494800885292415,
                -0.8082409608673805,
                1.2771384608586969,
                1.781304340381951,
                -1.813975765346475,
                0.4910798706673608
            ]
        },
        {
            "positions": [
                -0.3720626640691138,
                -0.8326737109268685,
                1.212505226236139,
                1.7203961984223806,
                -1.7439389463493713,
                0.5720154231475183
            ]
        },
        {
            "positions": [
                -0.29464523960898625,
                -0.8571064609863563,
                1.1478719916135813,
                1.65948805646281,
                -1.6739021273522674,
                0.6529509756276757
            ]
        },
        {
            "positions": [
                -0.21722781514885858,
                -0.8815392110458443,
                1.0832387569910233,
                1.5985799145032398,
                -1.6038653083551637,
                0.7338865281078332
            ]
        },
        {
            "positions": [
                -0.1398103906887309,
                -0.9059719611053323,
                1.0186055223684654,
                1.5376717725436695,
                -1.53382848935806,
                0.8148220805879907
            ]
        },
        {
            "positions": [
                -0.06239296622860324,
                -0.9304047111648202,
                0.9539722877459076,
                1.476763630584099,
                -1.4637916703609561,
                0.8957576330681482
            ]
        },
        {
            "positions": [
                0.015024458231524318,
                -0.954837461224308,
                0.8893390531233498,
                1.4158554886245287,
                -1.3937548513638527,
                0.9766931855483055
            ]
        },
        {
            "positions": [
                0.09244188269165188,
                -0.979270211283796,
                0.8247058185007919,
                1.3549473466649582,
                -1.3237180323667488,
                1.057628738028463
            ]
        },
        {
            "positions": [
                0.16985930715177966,
                -1.003702961343284,
                0.7600725838782342,
                1.294039204705388,
                -1.253681213369645,
                1.1385642905086206
            ]
        },
        {
            "positions": [
                0.24727673161190722,
                -1.0281357114027718,
                0.6954393492556763,
                1.2331310627458174,
                -1.1836443943725412,
                1.219499842988778
            ]
        },
        {
            "positions": [
                0.3246941560720348,
                -1.0525684614622597,
                0.6308061146331185,
                1.1722229207862471,
                -1.1136075753754378,
                1.3004353954689354
            ]
        },
        {
            "positions": [
                0.40211158053216256,
                -1.0770012115217478,
                0.5661728800105605,
                1.1113147788266768,
                -1.0435707563783339,
                1.3813709479490928
            ]
        },
        {
            "positions": [
                0.47952900499229,
                -1.1014339615812356,
                0.5015396453880028,
                1.0504066368671063,
                -0.9735339373812301,
                1.4623065004292504
            ]
        },
        {
            "positions": [
                0.40451008227249374,
                -1.102458859359017,
                0.5737302168909696,
                0.9602161202264501,
                -0.9045241545152158,
                1.5423906303422827
            ]
        },
        {
            "positions": [
                0.3294911595526974,
                -1.1034837571367984,
                0.6459207883939364,
                0.8700256035857938,
                -0.8355143716492015,
                1.6224747602553153
            ]
        },
        {
            "positions": [
                0.25447223683290116,
                -1.1045086549145797,
                0.7181113598969032,
                0.7798350869451376,
                -0.7665045887831873,
                1.7025588901683477
            ]
        },
        {
            "positions": [
                0.17945331411310483,
                -1.105533552692361,
                0.79030193139987,
                0.6896445703044813,
                -0.697494805917173,
                1.78264302008138
            ]
        },
        {
            "positions": [
                0.10443439139330857,
                -1.1065584504701425,
                0.862492502902837,
                0.5994540536638251,
                -0.6284850230511587,
                1.8627271499944125
            ]
        },
        {
            "positions": [
                0.0294154686735123,
                -1.1075833482479236,
                0.9346830744058037,
                0.5092635370231688,
                -0.5594752401851445,
                1.942811279907445
            ]
        },
        {
            "positions": [
                -0.045603454046283964,
                -1.108608246025705,
                1.0068736459087706,
                0.4190730203825126,
                -0.49046545731913027,
                2.022895409820477
            ]
        },
        {
            "positions": [
                -0.12062237676608034,
                -1.1096331438034863,
                1.0790642174117373,
                0.32888250374185635,
                -0.42145567445311605,
                2.10297953973351
            ]
        },
        {
            "positions": [
                -0.1956412994858766,
                -1.1106580415812677,
                1.1512547889147042,
                0.2386919871012001,
                -0.3524458915871017,
                2.1830636696465424
            ]
        },
        {
            "positions": [
                -0.2706602222056729,
                -1.111682939359049,
                1.2234453604176712,
                0.14850147046054374,
                -0.2834361087210875,
                2.263147799559575
            ]
        },
        {
            "positions": [
                -0.34567914492546925,
                -1.1127078371368304,
                1.2956359319206379,
                0.05831095381988749,
                -0.21442632585507315,
                2.3432319294726076
            ]
        },
        {
            "positions": [
                -0.4206980676452654,
                -1.1137327349146118,
                1.3678265034236046,
                -0.03187956282076865,
                -0.14541654298905893,
                2.4233160593856398
            ]
        },
        {
            "positions": [
                -0.4957169903650618,
                -1.1147576326923931,
                1.4400170749265717,
                -0.12207007946142512,
                -0.07640676012304459,
                2.503400189298672
            ]
        },
        {
            "positions": [
                -0.5707359130848579,
                -1.1157825304701745,
                1.5122076464295384,
                -0.21226059610208114,
                -0.007396977257030479,
                2.5834843192117045
            ]
        },
        {
            "positions": [
                -0.6457548358046543,
                -1.1168074282479559,
                1.5843982179325053,
                -0.3024511127427376,
                0.061612805608983856,
                2.663568449124737
            ]
        },
        {
            "positions": [
                -0.7207737585244507,
                -1.117832326025737,
                1.656588789435472,
                -0.39264162938339364,
                0.13062258847499797,
                2.7436525790377697
            ]
        },
        {
            "positions": [
                -0.7957926812442471,
                -1.1188572238035184,
                1.728779360938439,
                -0.4828321460240501,
                0.1996323713410123,
                2.8237367089508023
            ]
        },
        {
            "positions": [
                -0.8708116039640432,
                -1.1198821215812997,
                1.8009699324414057,
                -0.5730226626647061,
                0.26864215420702664,
                2.9038208388638345
            ]
        },
        {
            "positions": [
                -0.9458305266838396,
                -1.120907019359081,
                1.8731605039443726,
                -0.6632131793053626,
                0.337651937073041,
                2.9839049687768666
            ]
        },
        {
            "positions": [
                -1.0208494494036358,
                -1.1219319171368625,
                1.9453510754473393,
                -0.7534036959460189,
                0.4066617199390551,
                3.063989098689899
            ]
        },
        {
            "positions": [
                -1.0958683721234321,
                -1.1229568149146438,
                2.0175416469503062,
                -0.8435942125866751,
                0.4756715028050695,
                3.144073228602932
            ]
        }
    ]
}