{
    "goal": {
        "global_pose": {
            "orientation": {
                "w": 0.5084816262002911,
                "x": -0.4908360881923452,
                "y": 0.5182115481033761,
                "z": -0.48164630358495003
            },
            "position": {
                "x": 0.5540239810943604,
                "y": -0.46912469901144505,
                "z": 0.16403168439865112
            }
        },
        "name": "move_to_storage_B"
    },
    "id": "BKPIECE_move_to_storage_B_106",
    "joint_names": [
        "shoulder_pan_joint",
        "shoulder_lift_joint",
        "elbow_joint",
        "wrist_1_joint",
        "wrist_2_joint",
        "wrist_3_joint"
    ],
    "metrics": {
        "cart_traj_len": 1.5958926191191243,
        "distance_elbow_joint": 1.3648262315569961,
        "distance_shoulder_lift_joint": 0.4589945733792451,
        "distance_shoulder_pan_joint": 1.4988049932703782,
        "distance_wrist_1_joint": 2.9762977247680222,
        "distance_wrist_2_joint": 2.7088352483409617,
        "distance_wrist_3_joint": 3.531685028958938,
        "smoothness": 0.24573147068604365,
        "time": 0.350971267,
        "traj_len": 3.541107708087194,
        "weighted_distance": 5.028712243835532
    },
    "planner": "BKPIECE",
    "start": {
        "state": {
            "elbow_joint": 1.664937868594044,
            "shoulder_lift_joint": -0.661644460510453,
            "shoulder_pan_joint": -0.9139846352900073,
            "wrist_1_joint": 2.146753192139373,
            "wrist_2_joint": -2.2341966793290973,
            "wrist_3_joint": 0.005466555786416001
        }
    },
    "waypoints": [
        {
            "positions": [
                -0.9139846352900073,
                -0.661644460510453,
                1.664937868594044,
                2.146753192139373,
                -2.2341966793290973,
                0.005466555786416001
            ]
        },
        {
            "positions": [
                -0.8481179795516014,
                -0.6950028451050589,
                1.6140639514289925,
                2.0370338542769373,
                -2.15052938403074,
                -0.0144723817285974
            ]
        },
        {
            "positions": [
                -0.7822513238131955,
                -0.7283612296996649,
                1.563190034263941,
                1.9273145164145018,
                -2.0668620887323828,
                -0.0344113192436108
            ]
        },
        {
            "positions": [
                -0.7163846680747896,
                -0.7617196142942709,
                1.5123161170988897,
                1.8175951785520659,
                -1.9831947934340253,
                -0.0543502567586242
            ]
        },
        {
            "positions": [
                -0.6505180123363837,
                -0.7950779988888769,
                1.4614421999338383,
                1.7078758406896302,
                -1.899527498135668,
                -0.0742891942736376
            ]
        },
        {
            "positions": [
                -0.5846513565979778,
                -0.8284363834834828,
                1.410568282768787,
                1.5981565028271945,
                -1.8158602028373108,
                -0.094228131788651
            ]
        },
        {
            "positions": [
                -0.518784700859572,
                -0.8617947680780887,
                1.3596943656037357,
                1.4884371649647588,
                -1.7321929075389535,
                -0.1141670693036644
            ]
        },
        {
            "positions": [
                -0.4529180451211661,
                -0.8951531526726947,
                1.3088204484386843,
                1.378717827102323,
                -1.6485256122405962,
                -0.1341060068186778
            ]
        },
        {
            "positions": [
                -0.3870513893827602,
                -0.9285115372673007,
                1.2579465312736329,
                1.2689984892398871,
                -1.5648583169422388,
                -0.1540449443336912
            ]
        },
        {
            "positions": [
                -0.3211847336443543,
                -0.9618699218619067,
                1.2070726141085815,
                1.1592791513774514,
                -1.4811910216438815,
                -0.1739838818487046
            ]
        },
        {
            "positions": [
                -0.2553180779059484,
                -0.9952283064565126,
                1.15619869694353,
                1.0495598135150157,
                -1.3975237263455242,
                -0.193922819363718
            ]
        },
        {
            "positions": [
                -0.29184583598796227,
                -1.0006809467796947,
                1.1934198734612032,
                0.9678596245522477,
                -1.3161253656778118,
                -0.04904039963290044
            ]
        },
        {
            "positions": [
                -0.3283735940699761,
                -1.0061335871028765,
                1.2306410499788762,
                0.8861594355894797,
                -1.2347270050100994,
                0.09584202009791712
            ]
        },
        {
            "positions": [
                -0.36490135215199004,
                -1.0115862274260585,
                1.2678622264965496,
                0.8044592466267116,
                -1.1533286443423867,
                0.24072443982873473
            ]
        },
        {
            "positions": [
                -0.4014291102340039,
                -1.0170388677492406,
                1.3050834030142227,
                0.7227590576639437,
                -1.0719302836746742,
                0.3856068595595522
            ]
        },
        {
            "positions": [
                -0.43795686831601777,
                -1.0224915080724224,
                1.3423045795318957,
                0.6410588687011757,
                -0.9905319230069618,
                0.5304892792903698
            ]
        },
        {
            "positions": [
                -0.4744846263980317,
                -1.0279441483956044,
                1.3795257560495688,
                0.5593586797384076,
                -0.9091335623392494,
                0.6753716990211874
            ]
        },
        {
            "positions": [
                -0.5110123844800456,
                -1.0333967887187865,
                1.416746932567242,
                0.4776584907756396,
                -0.8277352016715368,
                0.820254118752005
            ]
        },
        {
            "positions": [
                -0.5475401425620594,
                -1.0388494290419685,
                1.4539681090849153,
                0.3959583018128716,
                -0.7463368410038244,
                0.9651365384828224
            ]
        },
        {
            "positions": [
                -0.5840679006440733,
                -1.0443020693651504,
                1.4911892856025883,
                0.3142581128501035,
                -0.6649384803361119,
                1.1100189582136404
            ]
        },
        {
            "positions": [
                -0.6205956587260872,
                -1.0497547096883324,
                1.5284104621202614,
                0.23255792388733565,
                -0.5835401196683995,
                1.2549013779444578
            ]
        },
        {
            "positions": [
                -0.657123416808101,
                -1.0552073500115144,
                1.5656316386379348,
                0.15085773492456755,
                -0.5021417590006869,
                1.3997837976752754
            ]
        },
        {
            "positions": [
                -0.6936511748901149,
                -1.0606599903346963,
                1.6028528151556078,
                0.06915754596179957,
                -0.42074339833297447,
                1.544666217406093
            ]
        },
        {
            "positions": [
                -0.7301789329721288,
                -1.0661126306578783,
                1.640073991673281,
                -0.012542643000968301,
                -0.33934503766526203,
                1.6895486371369104
            ]
        },
        {
            "positions": [
                -0.7667066910541427,
                -1.0715652709810604,
                1.677295168190954,
                -0.0942428319637365,
                -0.25794667699754936,
                1.8344310568677282
            ]
        },
        {
            "positions": [
                -0.8032344491361566,
                -1.0770179113042422,
                1.7145163447086271,
                -0.1759430209265045,
                -0.17654831632983692,
                1.9793134765985458
            ]
        },
        {
            "positions": [
                -0.8397622072181704,
                -1.0824705516274242,
                1.7517375212263002,
                -0.2576432098892725,
                -0.09514995566212447,
                2.124195896329363
            ]
        },
        {
            "positions": [
                -0.8762899653001843,
                -1.0879231919506063,
                1.7889586977439733,
                -0.33934339885204046,
                -0.01375159499441203,
                2.2690783160601806
            ]
        },
        {
            "positions": [
                -0.9128177233821982,
                -1.0933758322737883,
                1.8261798742616466,
                -0.42104358781480866,
                0.06764676567330041,
                2.4139607357909987
            ]
        },
        {
            "positions": [
                -0.949345481464212,
                -1.0988284725969701,
                1.8634010507793197,
                -0.5027437767775766,
                0.14904512634101286,
                2.558843155521816
            ]
        },
        {
            "positions": [
                -0.985873239546226,
                -1.1042811129201522,
                1.900622227296993,
                -0.5844439657403444,
                0.2304434870087253,
                2.7037255752526335
            ]
        },
        {
            "positions": [
                -1.0224009976282398,
                -1.1097337532433342,
                1.9378434038146661,
                -0.6661441547031124,
                0.31184184767643774,
                2.848607994983451
            ]
        },
        {
            "positions": [
                -1.0589287557102538,
                -1.115186393566516,
                1.9750645803323392,
                -0.7478443436658806,
                0.3932402083441504,
                2.9934904147142687
            ]
        },
        {
            "positions": [
                -1.0954565137922676,
                -1.120639033889698,
                2.0122857568500123,
                -0.8295445326286487,
                0.47463856901186285,
                3.1383728344450863
            ]
        }
    ]
}