{
    "goal": {
        "global_pose": {
            "orientation": {
                "w": -0.4816463035849501,
                "x": 0.5182115481033762,
                "y": 0.4908360881923453,
                "z": -0.5084816262002911
            },
            "position": {
                "x": -0.8240239810943604,
                "y": 0.19912469901144506,
                "z": 0.16403168439865112
            }
        },
        "name": "move_to_storage_D"
    },
    "id": "BKPIECE_move_to_storage_D_28",
    "joint_names": [
        "shoulder_pan_joint",
        "shoulder_lift_joint",
        "elbow_joint",
        "wrist_1_joint",
        "wrist_2_joint",
        "wrist_3_joint"
    ],
    "metrics": {
        "cart_traj_len": 4.020406784640889,
        "distance_elbow_joint": 4.214678858348473,
        "distance_shoulder_lift_joint": 1.2631553214448161,
        "distance_shoulder_pan_joint": 2.813841497707203,
        "distance_wrist_1_joint": 2.6168285327276943,
        "distance_wrist_2_joint": 0.9188168162705327,
        "distance_wrist_3_joint": 3.1303182813644628,
        "smoothness": 0.09522400426886476,
        "time": 0.29449990400000003,
        "traj_len": 3.8675107379118137,
        "weighted_distance": 4.975331267321839
    },
    "planner": "BKPIECE",
    "start": {
        "state": {
            "elbow_joint": -2.384821988534728,
            "shoulder_lift_joint": -2.2788054721415256,
            "shoulder_pan_joint": -0.1854694642142757,
            "wrist_1_joint": 1.4845938289331202,
            "wrist_2_joint": 0.17898776772866878,
            "wrist_3_joint": 0.037105688729662994
        }
    },
    "waypoints": [
        {
            "positions": [
                -0.1854694642142757,
                -2.2788054721415256,
                -2.384821988534728,
                1.4845938289331202,
                0.17898776772866878,
                0.037105688729662994
            ]
        },
        {
            "positions": [
                -0.16006365890039498,
                -2.2647594529948276,
                -2.374967968288847,
                1.4843613639741544,
                0.1898811949792477,
                0.03880473413901289
            ]
        },
        {
            "positions": [
                -0.08605079019103756,
                -2.2314434218356034,
                -2.2704308064366163,
                1.412331459040706,
                0.21601993458750757,
                -0.04034204988021471
            ]
        },
        {
            "positions": [
                -0.012037921481680147,
                -2.198127390676379,
                -2.165893644584386,
                1.3403015541072574,
                0.24215867419576742,
                -0.11948883389944231
            ]
        },
        {
            "positions": [
                0.061974947227677296,
                -2.164811359517155,
                -2.061356482732155,
                1.2682716491738089,
                0.2682974138040273,
                -0.19863561791866996
            ]
        },
        {
            "positions": [
                0.13598781593703468,
                -2.1314953283579308,
                -1.9568193208799245,
                1.1962417442403603,
                0.2944361534122871,
                -0.2777824019378975
            ]
        },
        {
            "positions": [
                0.21000068464639216,
                -2.0981792971987065,
                -1.8522821590276939,
                1.1242118393069118,
                0.320574893020547,
                -0.3569291859571252
            ]
        },
        {
            "positions": [
                0.28401355335574957,
                -2.0648632660394823,
                -1.747744997175463,
                1.0521819343734633,
                0.34671363262880683,
                -0.4360759699763528
            ]
        },
        {
            "positions": [
                0.35802642206510693,
                -2.031547234880258,
                -1.6432078353232324,
                0.9801520294400149,
                0.3728523722370667,
                -0.5152227539955804
            ]
        },
        {
            "positions": [
                0.43203929077446435,
                -1.998231203721034,
                -1.5386706734710018,
                0.9081221245065664,
                0.39899111184532654,
                -0.594369538014808
            ]
        },
        {
            "positions": [
                0.5060521594838219,
                -1.9649151725618097,
                -1.434133511618771,
                0.8360922195731179,
                0.4251298514535864,
                -0.6735163220340357
            ]
        },
        {
            "positions": [
                0.5800650281931793,
                -1.9315991414025855,
                -1.3295963497665404,
                0.7640623146396693,
                0.45126859106184625,
                -0.7526631060532633
            ]
        },
        {
            "positions": [
                0.6540778969025367,
                -1.8982831102433613,
                -1.2250591879143098,
                0.6920324097062208,
                0.4774073306701061,
                -0.8318098900724908
            ]
        },
        {
            "positions": [
                0.7280907656118941,
                -1.864967079084137,
                -1.120522026062079,
                0.6200025047727723,
                0.503546070278366,
                -0.9109566740917185
            ]
        },
        {
            "positions": [
                0.8021036343212514,
                -1.831651047924913,
                -1.0159848642098486,
                0.5479725998393239,
                0.5296848098866258,
                -0.9901034581109459
            ]
        },
        {
            "positions": [
                0.8761165030306088,
                -1.7983350167656889,
                -0.9114477023576177,
                0.4759426949058754,
                0.5558235494948855,
                -1.0692502421301735
            ]
        },
        {
            "positions": [
                0.9501293717399664,
                -1.7650189856064646,
                -0.8069105405053871,
                0.40391278997242686,
                0.5819622891031455,
                -1.1483970261494012
            ]
        },
        {
            "positions": [
                1.0241422404493237,
                -1.7317029544472404,
                -0.7023733786531563,
                0.33188288503897834,
                0.6081010287114053,
                -1.2275438101686287
            ]
        },
        {
            "positions": [
                1.0981551091586812,
                -1.6983869232880162,
                -0.5978362168009257,
                0.2598529801055298,
                0.6342397683196652,
                -1.3066905941878564
            ]
        },
        {
            "positions": [
                1.1721679778680387,
                -1.665070892128792,
                -0.4932990549486951,
                0.1878230751720813,
                0.660378507927925,
                -1.385837378207084
            ]
        },
        {
            "positions": [
                1.246180846577396,
                -1.6317548609695678,
                -0.38876189309646425,
                0.11579317023863278,
                0.6865172475361849,
                -1.4649841622263116
            ]
        },
        {
            "positions": [
                1.3201937152867536,
                -1.5984388298103436,
                -0.28422473124423364,
                0.04376326530518426,
                0.7126559871444448,
                -1.5441309462455393
            ]
        },
        {
            "positions": [
                1.3942065839961109,
                -1.5651227986511194,
                -0.1796875693920028,
                -0.028266639628264256,
                0.7387947267527046,
                -1.623277730264767
            ]
        },
        {
            "positions": [
                1.4682194527054684,
                -1.5318067674918951,
                -0.07515040753977242,
                -0.10029654456171277,
                0.7649334663609645,
                -1.7024245142839944
            ]
        },
        {
            "positions": [
                1.542232321414826,
                -1.498490736332671,
                0.029386754312458407,
                -0.1723264494951613,
                0.7910722059692243,
                -1.7815712983032221
            ]
        },
        {
            "positions": [
                1.6162451901241832,
                -1.4651747051734467,
                0.13392391616468924,
                -0.2443563544286098,
                0.8172109455774842,
                -1.8607180823224498
            ]
        },
        {
            "positions": [
                1.6902580588335407,
                -1.4318586740142225,
                0.23846107801692007,
                -0.31638625936205833,
                0.843349685185744,
                -1.9398648663416773
            ]
        },
        {
            "positions": [
                1.7642709275428978,
                -1.3985426428549985,
                0.34299823986915,
                -0.3884161642955066,
                0.8694884247940038,
                -2.0190116503609046
            ]
        },
        {
            "positions": [
                1.8382837962522554,
                -1.3652266116957743,
                0.44753540172138084,
                -0.46044606922895515,
                0.8956271644022636,
                -2.0981584343801325
            ]
        },
        {
            "positions": [
                1.9122966649616127,
                -1.33191058053655,
                0.5520725635736117,
                -0.5324759741624037,
                0.9217659040105235,
                -2.17730521839936
            ]
        },
        {
            "positions": [
                1.9863095336709702,
                -1.2985945493773259,
                0.6566097254258425,
                -0.604505879095852,
                0.9479046436187833,
                -2.2564520024185875
            ]
        },
        {
            "positions": [
                2.0603224023803275,
                -1.2652785182181017,
                0.7611468872780729,
                -0.6765357840293007,
                0.9740433832270432,
                -2.3355987864378154
            ]
        },
        {
            "positions": [
                2.134335271089685,
                -1.2319624870588775,
                0.8656840491303037,
                -0.748565688962749,
                1.000182122835303,
                -2.414745570457043
            ]
        },
        {
            "positions": [
                2.2083481397990425,
                -1.1986464558996532,
                0.9702212109825346,
                -0.8205955938961977,
                1.026320862443563,
                -2.4938923544762703
            ]
        },
        {
            "positions": [
                2.2823610085084,
                -1.165330424740429,
                1.074758372834765,
                -0.892625498829646,
                1.0524596020518229,
                -2.5730391384954983
            ]
        },
        {
            "positions": [
                2.356373877217757,
                -1.1320143935812048,
                1.1792955346869958,
                -0.9646554037630948,
                1.0785983416600826,
                -2.6521859225147257
            ]
        },
        {
            "positions": [
                2.4107735084727913,
                -1.1087415450043057,
                1.3094078017123458,
                -0.931139543756799,
                1.0747570931922588,
                -2.7397116383750006
            ]
        },
        {
            "positions": [
                2.465173139727825,
                -1.0854686964274067,
                1.439520068737696,
                -0.897623683750503,
                1.0709158447244351,
                -2.8272373542352756
            ]
        },
        {
            "positions": [
                2.519572770982859,
                -1.0621958478505076,
                1.569632335763046,
                -0.8641078237442072,
                1.0670745962566113,
                -2.91476307009555
            ]
        },
        {
            "positions": [
                2.5739724022378927,
                -1.0389229992736086,
                1.699744602788396,
                -0.8305919637379113,
                1.0632333477887876,
                -3.002288785955825
            ]
        },
        {
            "positions": [
                2.628372033492927,
                -1.0156501506967095,
                1.829856869813746,
                -0.7970761037316155,
                1.0593920993209638,
                -3.0898145018161
            ]
        }
    ]
}