{
    "goal": {
        "global_pose": {
            "orientation": {
                "w": 0.5084816262002911,
                "x": -0.4908360881923452,
                "y": 0.5182115481033761,
                "z": -0.48164630358495003
            },
            "position": {
                "x": 0.5540239810943604,
                "y": -0.46912469901144505,
                "z": 0.16403168439865112
            }
        },
        "name": "move_to_storage_B"
    },
    "id": "BKPIECE_move_to_storage_B_64",
    "joint_names": [
        "shoulder_pan_joint",
        "shoulder_lift_joint",
        "elbow_joint",
        "wrist_1_joint",
        "wrist_2_joint",
        "wrist_3_joint"
    ],
    "metrics": {
        "cart_traj_len": 2.9559881477752366,
        "distance_elbow_joint": 1.7481799038681722,
        "distance_shoulder_lift_joint": 0.5642259428337228,
        "distance_shoulder_pan_joint": 2.8436088515622897,
        "distance_wrist_1_joint": 2.978037612654222,
        "distance_wrist_2_joint": 3.253533195201276,
        "distance_wrist_3_joint": 3.129381339216201,
        "smoothness": 0.2487970951503356,
        "time": 0.40421429600000003,
        "traj_len": 3.8101137575321666,
        "weighted_distance": 5.196854849966831
    },
    "planner": "BKPIECE",
    "start": {
        "state": {
            "elbow_joint": 1.664937868594044,
            "shoulder_lift_joint": -0.661644460510453,
            "shoulder_pan_joint": -0.9139846352900073,
            "wrist_1_joint": 2.146753192139373,
            "wrist_2_joint": -2.2341966793290973,
            "wrist_3_joint": 0.005466555786416001
        }
    },
    "waypoints": [
        {
            "positions": [
                -0.9139846352900073,
                -0.661644460510453,
                1.664937868594044,
                2.146753192139373,
                -2.2341966793290973,
                0.005466555786416001
            ]
        },
        {
            "positions": [
                -0.8561023017264205,
                -0.6838646044389595,
                1.6344737717441136,
                2.0379480689110663,
                -2.1046949404975903,
                0.036977366864602616
            ]
        },
        {
            "positions": [
                -0.7982199681628338,
                -0.7060847483674658,
                1.6040096748941834,
                1.9291429456827598,
                -1.975193201666083,
                0.06848817794278923
            ]
        },
        {
            "positions": [
                -0.7403376345992472,
                -0.7283048922959723,
                1.573545578044253,
                1.8203378224544529,
                -1.845691462834576,
                0.09999898902097586
            ]
        },
        {
            "positions": [
                -0.6824553010356604,
                -0.7505250362244786,
                1.5430814811943228,
                1.7115326992261461,
                -1.7161897240030688,
                0.13150980009916247
            ]
        },
        {
            "positions": [
                -0.6245729674720737,
                -0.7727451801529851,
                1.5126173843443924,
                1.6027275759978394,
                -1.5866879851715616,
                0.1630206111773491
            ]
        },
        {
            "positions": [
                -0.566690633908487,
                -0.7949653240814916,
                1.4821532874944623,
                1.4939224527695327,
                -1.4571862463400547,
                0.1945314222555357
            ]
        },
        {
            "positions": [
                -0.5088083003449002,
                -0.8171854680099979,
                1.451689190644532,
                1.385117329541226,
                -1.3276845075085473,
                0.22604223333372234
            ]
        },
        {
            "positions": [
                -0.4509259667813135,
                -0.8394056119385044,
                1.4212250937946016,
                1.276312206312919,
                -1.1981827686770403,
                0.25755304441190896
            ]
        },
        {
            "positions": [
                -0.39304363321772673,
                -0.8616257558670108,
                1.3907609969446713,
                1.1675070830846124,
                -1.0686810298455331,
                0.2890638554900956
            ]
        },
        {
            "positions": [
                -0.3351612996541401,
                -0.8838458997955172,
                1.3602969000947411,
                1.0587019598563057,
                -0.939179291014026,
                0.3205746665682822
            ]
        },
        {
            "positions": [
                -0.27727896609055336,
                -0.9060660437240237,
                1.3298328032448108,
                0.9498968366279987,
                -0.8096775521825188,
                0.3520854776464688
            ]
        },
        {
            "positions": [
                -0.21939663252696662,
                -0.92828618765253,
                1.2993687063948804,
                0.8410917133996922,
                -0.6801758133510118,
                0.38359628872465545
            ]
        },
        {
            "positions": [
                -0.16151429896338,
                -0.9505063315810365,
                1.26890460954495,
                0.7322865901713855,
                -0.5506740745195047,
                0.41510709980284205
            ]
        },
        {
            "positions": [
                -0.10363196539979314,
                -0.9727264755095428,
                1.23844051269502,
                0.6234814669430786,
                -0.4211723356879975,
                0.4466179108810287
            ]
        },
        {
            "positions": [
                -0.045749631836206395,
                -0.9949466194380493,
                1.2079764158450896,
                0.5146763437147719,
                -0.2916705968564903,
                0.4781287219592153
            ]
        },
        {
            "positions": [
                0.012132701727380235,
                -1.0171667633665558,
                1.1775123189951593,
                0.4058712204864652,
                -0.16216885802498338,
                0.5096395330374018
            ]
        },
        {
            "positions": [
                0.07001503529096686,
                -1.0393869072950621,
                1.1470482221452292,
                0.29706609725815847,
                -0.032667119193476424,
                0.5411503441155885
            ]
        },
        {
            "positions": [
                0.12789736885455383,
                -1.0616070512235685,
                1.1165841252952986,
                0.18826097402985154,
                0.09683461963803097,
                0.5726611551937751
            ]
        },
        {
            "positions": [
                0.18577970241814035,
                -1.083827195152075,
                1.0861200284453685,
                0.0794558508015446,
                0.22633635846953792,
                0.6041719662719617
            ]
        },
        {
            "positions": [
                0.2436620359817271,
                -1.1060473390805814,
                1.0556559315954384,
                -0.029349272426761885,
                0.3558380973010453,
                0.6356827773501483
            ]
        },
        {
            "positions": [
                0.30154436954531383,
                -1.1282674830090877,
                1.0251918347455078,
                -0.13815439565506837,
                0.48533983613255227,
                0.6671935884283349
            ]
        },
        {
            "positions": [
                0.35942670310890057,
                -1.1504876269375943,
                0.9947277378955776,
                -0.24695951888337575,
                0.6148415749640597,
                0.6987043995065215
            ]
        },
        {
            "positions": [
                0.41730903667248737,
                -1.1727077708661007,
                0.9642636410456473,
                -0.35576464211168213,
                0.7443433137955666,
                0.7302152105847082
            ]
        },
        {
            "positions": [
                0.3164880246991677,
                -1.1691635953675623,
                1.034097352800299,
                -0.3874659606718933,
                0.7260104336571259,
                0.8905240562125687
            ]
        },
        {
            "positions": [
                0.21566701272584804,
                -1.165619419869024,
                1.1039310645549507,
                -0.4191672792321045,
                0.7076775535186852,
                1.0508329018404292
            ]
        },
        {
            "positions": [
                0.11484600075252838,
                -1.1620752443704856,
                1.1737647763096024,
                -0.4508685977923157,
                0.6893446733802445,
                1.21114174746829
            ]
        },
        {
            "positions": [
                0.014024988779208714,
                -1.1585310688719472,
                1.243598488064254,
                -0.4825699163525269,
                0.6710117932418038,
                1.3714505930961505
            ]
        },
        {
            "positions": [
                -0.0867960231941109,
                -1.1549868933734089,
                1.3134321998189058,
                -0.5142712349127381,
                0.652678913103363,
                1.531759438724011
            ]
        },
        {
            "positions": [
                -0.1876170351674306,
                -1.1514427178748705,
                1.3832659115735577,
                -0.5459725534729494,
                0.6343460329649223,
                1.6920682843518717
            ]
        },
        {
            "positions": [
                -0.2884380471407502,
                -1.1478985423763322,
                1.4530996233282094,
                -0.5776738720331605,
                0.6160131528264816,
                1.852377129979732
            ]
        },
        {
            "positions": [
                -0.38925905911406994,
                -1.144354366877794,
                1.522933335082861,
                -0.6093751905933718,
                0.5976802726880409,
                2.0126859756075928
            ]
        },
        {
            "positions": [
                -0.49008007108738955,
                -1.1408101913792557,
                1.5927670468375128,
                -0.6410765091535828,
                0.5793473925496002,
                2.172994821235453
            ]
        },
        {
            "positions": [
                -0.5909010830607091,
                -1.1372660158807173,
                1.6626007585921645,
                -0.6727778277137941,
                0.5610145124111595,
                2.333303666863314
            ]
        },
        {
            "positions": [
                -0.6917220950340288,
                -1.133721840382179,
                1.7324344703468162,
                -0.7044791462740052,
                0.5426816322727188,
                2.4936125124911745
            ]
        },
        {
            "positions": [
                -0.7925431070073485,
                -1.1301776648836406,
                1.8022681821014679,
                -0.7361804648342165,
                0.5243487521342781,
                2.6539213581190353
            ]
        },
        {
            "positions": [
                -0.8933641189806683,
                -1.1266334893851022,
                1.8721018938561196,
                -0.7678817833944277,
                0.5060158719958374,
                2.8142302037468956
            ]
        },
        {
            "positions": [
                -0.9941851309539878,
                -1.1230893138865639,
                1.9419356056107713,
                -0.7995831019546389,
                0.48768299185739666,
                2.974539049374756
            ]
        },
        {
            "positions": [
                -1.0950061429273075,
                -1.1195451383880255,
                2.011769317365423,
                -0.8312844205148501,
                0.46935011171895596,
                3.1348478950026166
            ]
        }
    ]
}