{
    "goal": {
        "global_pose": {
            "orientation": {
                "w": 0.5084816262002911,
                "x": -0.4908360881923452,
                "y": 0.5182115481033761,
                "z": -0.48164630358495003
            },
            "position": {
                "x": 0.5540239810943604,
                "y": -0.46912469901144505,
                "z": 0.16403168439865112
            }
        },
        "name": "move_to_storage_B"
    },
    "id": "BKPIECE_move_to_storage_B_6",
    "joint_names": [
        "shoulder_pan_joint",
        "shoulder_lift_joint",
        "elbow_joint",
        "wrist_1_joint",
        "wrist_2_joint",
        "wrist_3_joint"
    ],
    "metrics": {
        "cart_traj_len": 3.082839290291615,
        "distance_elbow_joint": 1.4497987704331265,
        "distance_shoulder_lift_joint": 1.0659668859870624,
        "distance_shoulder_pan_joint": 2.9642241174484525,
        "distance_wrist_1_joint": 2.9962182780545317,
        "distance_wrist_2_joint": 2.7054607307604854,
        "distance_wrist_3_joint": 4.660665119745248,
        "smoothness": 0.15439429623856268,
        "time": 0.285566718,
        "traj_len": 3.9802429451515775,
        "weighted_distance": 5.55565866038712
    },
    "planner": "BKPIECE",
    "start": {
        "state": {
            "elbow_joint": 1.664937868594044,
            "shoulder_lift_joint": -0.661644460510453,
            "shoulder_pan_joint": -0.9139846352900073,
            "wrist_1_joint": 2.146753192139373,
            "wrist_2_joint": -2.2341966793290973,
            "wrist_3_joint": 0.005466555786416001
        }
    },
    "waypoints": [
        {
            "positions": [
                -0.9139846352900073,
                -0.661644460510453,
                1.664937868594044,
                2.146753192139373,
                -2.2341966793290973,
                0.005466555786416001
            ]
        },
        {
            "positions": [
                -0.836681974194719,
                -0.6986372162311488,
                1.6349221838164207,
                2.051980686024182,
                -2.1257510038036753,
                -0.03656280240958478
            ]
        },
        {
            "positions": [
                -0.7593793130994306,
                -0.7356299719518447,
                1.6049064990387976,
                1.9572081799089904,
                -2.0173053282782534,
                -0.07859216060558556
            ]
        },
        {
            "positions": [
                -0.6820766520041424,
                -0.7726227276725404,
                1.5748908142611742,
                1.8624356737937988,
                -1.9088596527528314,
                -0.12062151880158634
            ]
        },
        {
            "positions": [
                -0.6047739909088541,
                -0.8096154833932362,
                1.544875129483551,
                1.7676631676786074,
                -1.8004139772274095,
                -0.16265087699758712
            ]
        },
        {
            "positions": [
                -0.5274713298135656,
                -0.846608239113932,
                1.5148594447059278,
                1.6728906615634158,
                -1.6919683017019875,
                -0.2046802351935879
            ]
        },
        {
            "positions": [
                -0.4501686687182774,
                -0.8836009948346277,
                1.4848437599283046,
                1.5781181554482244,
                -1.5835226261765656,
                -0.24670959338958867
            ]
        },
        {
            "positions": [
                -0.37286600762298905,
                -0.9205937505553237,
                1.4548280751506812,
                1.483345649333033,
                -1.4750769506511436,
                -0.28873895158558943
            ]
        },
        {
            "positions": [
                -0.2955633465277008,
                -0.9575865062760194,
                1.424812390373058,
                1.3885731432178416,
                -1.3666312751257217,
                -0.3307683097815902
            ]
        },
        {
            "positions": [
                -0.2182606854324124,
                -0.9945792619967152,
                1.394796705595435,
                1.2938006371026503,
                -1.2581855996002997,
                -0.372797667977591
            ]
        },
        {
            "positions": [
                -0.140958024337124,
                -1.031572017717411,
                1.3647810208178117,
                1.1990281309874586,
                -1.1497399240748776,
                -0.4148270261735918
            ]
        },
        {
            "positions": [
                -0.06365536324183563,
                -1.0685647734381067,
                1.3347653360401885,
                1.1042556248722672,
                -1.0412942485494556,
                -0.4568563843695926
            ]
        },
        {
            "positions": [
                0.013647297853452534,
                -1.1055575291588027,
                1.3047496512625654,
                1.0094831187570759,
                -0.9328485730240339,
                -0.4988857425655933
            ]
        },
        {
            "positions": [
                0.09094995894874092,
                -1.1425502848794984,
                1.274733966484942,
                0.9147106126418842,
                -0.8244028974986117,
                -0.5409151007615942
            ]
        },
        {
            "positions": [
                0.1682526200440292,
                -1.179543040600194,
                1.2447182817073188,
                0.8199381065266929,
                -0.7159572219731898,
                -0.582944458957595
            ]
        },
        {
            "positions": [
                0.24555528113931768,
                -1.21653579632089,
                1.2147025969296954,
                0.7251656004115015,
                -0.6075115464477678,
                -0.6249738171535958
            ]
        },
        {
            "positions": [
                0.32285794223460573,
                -1.2535285520415858,
                1.1846869121520722,
                0.6303930942963101,
                -0.4990658709223461,
                -0.6670031753495965
            ]
        },
        {
            "positions": [
                0.4001606033298942,
                -1.2905213077622815,
                1.154671227374449,
                0.5356205881811185,
                -0.39062019539692394,
                -0.7090325335455973
            ]
        },
        {
            "positions": [
                0.4774632644251824,
                -1.3275140634829774,
                1.1246555425968259,
                0.44084808206592707,
                -0.282174519871502,
                -0.7510618917415981
            ]
        },
        {
            "positions": [
                0.45590804011575053,
                -1.3455675838612482,
                1.1224956117012035,
                0.33881286906303704,
                -0.22058602195944044,
                -0.6572938598355699
            ]
        },
        {
            "positions": [
                0.4343528158063187,
                -1.363621104239519,
                1.120335680805581,
                0.236777656060147,
                -0.1589975240473789,
                -0.5635258279295416
            ]
        },
        {
            "positions": [
                0.4127975914968869,
                -1.3816746246177896,
                1.1181757499099587,
                0.13474244305725697,
                -0.09740902613531738,
                -0.46975779602351353
            ]
        },
        {
            "positions": [
                0.39124236718745503,
                -1.3997281449960604,
                1.1160158190143363,
                0.032707230054366904,
                -0.03582052822325582,
                -0.3759897641174853
            ]
        },
        {
            "positions": [
                0.33151708684340314,
                -1.4022030452031438,
                1.1379286252967464,
                -0.05121012063975569,
                0.01205671968972185,
                -0.21654348351749492
            ]
        },
        {
            "positions": [
                0.27179180649935125,
                -1.4046779454102272,
                1.1598414315791565,
                -0.13512747133387829,
                0.05993396760269952,
                -0.05709720291750453
            ]
        },
        {
            "positions": [
                0.21206652615529936,
                -1.4071528456173104,
                1.1817542378615666,
                -0.21904482202800082,
                0.10781121551567718,
                0.1023490776824858
            ]
        },
        {
            "positions": [
                0.15234124581124747,
                -1.4096277458243938,
                1.2036670441439767,
                -0.30296217272212345,
                0.15568846342865486,
                0.26179535828247624
            ]
        },
        {
            "positions": [
                0.09261596546719558,
                -1.4121026460314772,
                1.2255798504263868,
                -0.386879523416246,
                0.2035657113416325,
                0.4212416388824666
            ]
        },
        {
            "positions": [
                0.03289068512314369,
                -1.4145775462385606,
                1.247492656708797,
                -0.4707968741103685,
                0.2514429592546102,
                0.5806879194824569
            ]
        },
        {
            "positions": [
                -0.026834595220908197,
                -1.417052446445644,
                1.269405462991207,
                -0.5547142248044911,
                0.29932020716758784,
                0.7401342000824472
            ]
        },
        {
            "positions": [
                -0.08655987556496009,
                -1.4195273466527272,
                1.2913182692736171,
                -0.6386315754986138,
                0.34719745508056554,
                0.8995804806824378
            ]
        },
        {
            "positions": [
                -0.14628515590901198,
                -1.4220022468598106,
                1.3132310755560272,
                -0.7225489261927364,
                0.3950747029935432,
                1.059026761282428
            ]
        },
        {
            "positions": [
                -0.20601043625306384,
                -1.424477147066894,
                1.3351438818384374,
                -0.8064662768868589,
                0.44295195090652084,
                1.2184730418824183
            ]
        },
        {
            "positions": [
                -0.2949406879585656,
                -1.3941637271238319,
                1.403318747641369,
                -0.8107661577896889,
                0.4457831609590073,
                1.4119332157417401
            ]
        },
        {
            "positions": [
                -0.3838709396640673,
                -1.3638503071807697,
                1.4714936134443009,
                -0.8150660386925188,
                0.44861437101149376,
                1.605393389601062
            ]
        },
        {
            "positions": [
                -0.472801191369569,
                -1.3335368872377076,
                1.5396684792472328,
                -0.8193659195953488,
                0.4514455810639802,
                1.798853563460384
            ]
        },
        {
            "positions": [
                -0.5617314430750708,
                -1.3032234672946454,
                1.6078433450501646,
                -0.8236658004981787,
                0.4542767911164666,
                1.9923137373197057
            ]
        },
        {
            "positions": [
                -0.6506616947805726,
                -1.2729100473515833,
                1.6760182108530963,
                -0.8279656814010088,
                0.4571080011689531,
                2.1857739111790275
            ]
        },
        {
            "positions": [
                -0.7395919464860742,
                -1.2425966274085212,
                1.744193076656028,
                -0.8322655623038387,
                0.45993921122143955,
                2.379234085038349
            ]
        },
        {
            "positions": [
                -0.8285221981915759,
                -1.212283207465459,
                1.8123679424589598,
                -0.8365654432066687,
                0.462770421273926,
                2.572694258897671
            ]
        },
        {
            "positions": [
                -0.9174524498970777,
                -1.181969787522397,
                1.8805428082618918,
                -0.8408653241094987,
                0.4656016313264124,
                2.766154432756993
            ]
        },
        {
            "positions": [
                -1.0063827016025795,
                -1.1516563675793348,
                1.9487176740648235,
                -0.8451652050123286,
                0.4684328413788989,
                2.9596146066163147
            ]
        },
        {
            "positions": [
                -1.0953129533080812,
                -1.1213429476362726,
                2.0168925398677553,
                -0.8494650859151586,
                0.47126405143138533,
                3.1530747804756367
            ]
        }
    ]
}