{
    "goal": {
        "global_pose": {
            "orientation": {
                "w": 0.005598929693374612,
                "x": 0.007748599140229565,
                "y": 0.7110244013736278,
                "z": -0.7031023480610252
            },
            "position": {
                "x": -0.8858502320852131,
                "y": -0.7141253447532654,
                "z": 0.3711530566215515
            }
        },
        "name": "move_to_auspresseinheit_C"
    },
    "id": "EST_move_to_auspresseinheit_C_119",
    "joint_names": [
        "shoulder_pan_joint",
        "shoulder_lift_joint",
        "elbow_joint",
        "wrist_1_joint",
        "wrist_2_joint",
        "wrist_3_joint"
    ],
    "metrics": {
        "cart_traj_len": 0.49259947996858,
        "distance_elbow_joint": 0.993637425465527,
        "distance_shoulder_lift_joint": 0.3217173757491185,
        "distance_shoulder_pan_joint": 0.2560038611851163,
        "distance_wrist_1_joint": 0.6642723195007613,
        "distance_wrist_2_joint": 1.3068207422034719,
        "distance_wrist_3_joint": 0.051765732028309586,
        "smoothness": 6.45947944157498e-16,
        "time": 0.899467124,
        "traj_len": 1.89584214958216,
        "weighted_distance": 2.3809330065949266
    },
    "planner": "EST",
    "start": {
        "state": {
            "elbow_joint": 1.7527959577737207,
            "shoulder_lift_joint": -0.9740617694225068,
            "shoulder_pan_joint": -2.967991417825858,
            "wrist_1_joint": -0.759517768980727,
            "wrist_2_joint": 1.7443932448377408,
            "wrist_3_joint": -3.0840537646736568
        }
    },
    "waypoints": [
        {
            "positions": [
                -2.967991417825858,
                -0.9740617694225068,
                1.7527959577737207,
                -0.759517768980727,
                1.7443932448377408,
                -3.0840537646736568
            ]
        },
        {
            "positions": [
                -2.9423910317073463,
                -0.9418900318475949,
                1.6534322152271679,
                -0.6930905370306508,
                1.6137111706173937,
                -3.089230337876488
            ]
        },
        {
            "positions": [
                -2.9167906455888346,
                -0.909718294272683,
                1.5540684726806153,
                -0.6266633050805748,
                1.4830290963970465,
                -3.094406911079319
            ]
        },
        {
            "positions": [
                -2.891190259470323,
                -0.8775465566977713,
                1.4547047301340625,
                -0.5602360731304986,
                1.3523470221766993,
                -3.0995834842821495
            ]
        },
        {
            "positions": [
                -2.8655898733518113,
                -0.8453748191228594,
                1.3553409875875098,
                -0.49380884118042245,
                1.2216649479563522,
                -3.1047600574849805
            ]
        },
        {
            "positions": [
                -2.8399894872333,
                -0.8132030815479475,
                1.2559772450409572,
                -0.42738160923034635,
                1.0909828737360048,
                -3.1099366306878116
            ]
        },
        {
            "positions": [
                -2.8143891011147883,
                -0.7810313439730356,
                1.1566135024944044,
                -0.36095437728027024,
                0.9603007995156577,
                -3.1151132038906426
            ]
        },
        {
            "positions": [
                -2.7887887149962767,
                -0.7488596063981239,
                1.0572497599478519,
                -0.29452714533019414,
                0.8296187252953106,
                -3.1202897770934737
            ]
        },
        {
            "positions": [
                -2.763188328877765,
                -0.7166878688232119,
                0.957886017401299,
                -0.22809991338011792,
                0.6989366510749633,
                -3.1254663502963043
            ]
        },
        {
            "positions": [
                -2.7375879427592533,
                -0.6845161312483001,
                0.8585222748547463,
                -0.16167268143004188,
                0.5682545768546161,
                -3.1306429234991353
            ]
        },
        {
            "positions": [
                -2.7119875566407416,
                -0.6523443936733883,
                0.7591585323081936,
                -0.09524544947996576,
                0.43757250263426894,
                -3.1358194967019664
            ]
        }
    ]
}