{
    "goal": {
        "global_pose": {
            "orientation": {
                "w": -0.00223480608172531,
                "x": 0.0024358444001904467,
                "y": 0.7094548369677653,
                "z": -0.704743149386269
            },
            "position": {
                "x": 0.6205249238014221,
                "y": -0.6371506643295288,
                "z": 0.19426114857196808
            }
        },
        "name": "move_to_magneteinheit_B"
    },
    "id": "EST_move_to_magneteinheit_B_65",
    "joint_names": [
        "shoulder_pan_joint",
        "shoulder_lift_joint",
        "elbow_joint",
        "wrist_1_joint",
        "wrist_2_joint",
        "wrist_3_joint"
    ],
    "metrics": {
        "cart_traj_len": 3.3214044581870428,
        "distance_elbow_joint": 4.554131820593765,
        "distance_shoulder_lift_joint": 1.0605976512555664,
        "distance_shoulder_pan_joint": 2.1063865450920707,
        "distance_wrist_1_joint": 2.675410684942313,
        "distance_wrist_2_joint": 1.2158177992044525,
        "distance_wrist_3_joint": 1.7952940108688413,
        "smoothness": 0.5307558826639385,
        "time": 0.7600761970000001,
        "traj_len": 3.6616442361263077,
        "weighted_distance": 4.570498333643877
    },
    "planner": "EST",
    "start": {
        "state": {
            "elbow_joint": 2.6216224122426386,
            "shoulder_lift_joint": -1.4174107377796124,
            "shoulder_pan_joint": 0.7066234856936794,
            "wrist_1_joint": 1.9546482284002225,
            "wrist_2_joint": -0.7096286983471962,
            "wrist_3_joint": 0.005740856962016249
        }
    },
    "waypoints": [
        {
            "positions": [
                0.7066234856936794,
                -1.4174107377796124,
                2.6216224122426386,
                1.9546482284002225,
                -0.7096286983471962,
                0.005740856962016249
            ]
        },
        {
            "positions": [
                0.707875109574318,
                -1.4618932200675723,
                2.5147820022791607,
                1.8287904167006195,
                -0.7144186128745531,
                0.06591341443583787
            ]
        },
        {
            "positions": [
                0.7091267334549565,
                -1.5063757023555324,
                2.4079415923156824,
                1.7029326050010165,
                -0.7192085274019101,
                0.1260859719096595
            ]
        },
        {
            "positions": [
                0.7103783573355951,
                -1.5508581846434923,
                2.3011011823522045,
                1.5770747933014133,
                -0.723998441929267,
                0.18625852938348114
            ]
        },
        {
            "positions": [
                0.7420233411136011,
                -1.5507689091109094,
                2.1245233081576385,
                1.4734325432324873,
                -0.7099599318055886,
                0.12265119058157363
            ]
        },
        {
            "positions": [
                0.7736683248916071,
                -1.5506796335783262,
                1.9479454339630724,
                1.3697902931635613,
                -0.6959214216819102,
                0.05904385177966612
            ]
        },
        {
            "positions": [
                0.8053133086696131,
                -1.5505903580457432,
                1.7713675597685064,
                1.2661480430946352,
                -0.6818829115582318,
                -0.00456348702224138
            ]
        },
        {
            "positions": [
                0.8369582924476192,
                -1.55050108251316,
                1.59478968557394,
                1.162505793025709,
                -0.6678444014345534,
                -0.0681708258241489
            ]
        },
        {
            "positions": [
                0.8686032762256253,
                -1.550411806980577,
                1.4182118113793738,
                1.058863542956783,
                -0.653805891310875,
                -0.13177816462605646
            ]
        },
        {
            "positions": [
                0.9002482600036312,
                -1.5503225314479938,
                1.241633937184808,
                0.9552212928878571,
                -0.6397673811871966,
                -0.1953855034279639
            ]
        },
        {
            "positions": [
                0.9318932437816373,
                -1.5502332559154108,
                1.0650560629902417,
                0.8515790428189309,
                -0.625728871063518,
                -0.25899284222987146
            ]
        },
        {
            "positions": [
                0.9635382275596434,
                -1.5501439803828279,
                0.8884781887956756,
                0.7479367927500049,
                -0.6116903609398396,
                -0.32260018103177895
            ]
        },
        {
            "positions": [
                0.9951832113376493,
                -1.5500547048502447,
                0.7119003146011094,
                0.6442945426810788,
                -0.5976518508161612,
                -0.38620751983368656
            ]
        },
        {
            "positions": [
                1.0268281951156553,
                -1.5499654293176617,
                0.5353224404065433,
                0.5406522926121526,
                -0.5836133406924828,
                -0.44981485863559406
            ]
        },
        {
            "positions": [
                1.0584731788936614,
                -1.5498761537850785,
                0.35874456621197726,
                0.43701004254322684,
                -0.5695748305688044,
                -0.5134221974375015
            ]
        },
        {
            "positions": [
                1.0901181626716674,
                -1.5497868782524955,
                0.18216669201741142,
                0.3333677924743008,
                -0.555536320445126,
                -0.5770295362394089
            ]
        },
        {
            "positions": [
                1.1217631464496736,
                -1.5496976027199123,
                0.005588817822844927,
                0.22972554240537457,
                -0.5414978103214476,
                -0.6406368750413165
            ]
        },
        {
            "positions": [
                1.1534081302276795,
                -1.5496083271873293,
                -0.1709890563717212,
                0.12608329233644855,
                -0.5274593001977692,
                -0.7042442138432241
            ]
        },
        {
            "positions": [
                1.2589478006413715,
                -1.58105049180927,
                -0.27970089187748204,
                0.17613909027561622,
                -0.47381069557386046,
                -0.6693867681652502
            ]
        },
        {
            "positions": [
                1.3644874710550634,
                -1.6124926564312105,
                -0.3884127273832429,
                0.2261948882147839,
                -0.42016209094995166,
                -0.6345293224872763
            ]
        },
        {
            "positions": [
                1.4700271414687553,
                -1.6439348210531513,
                -0.49712456288900375,
                0.27625068615395154,
                -0.36651348632604286,
                -0.5996718768093025
            ]
        },
        {
            "positions": [
                1.5755668118824473,
                -1.6753769856750917,
                -0.6058363983947646,
                0.32630648409311924,
                -0.3128648817021341,
                -0.5648144311313286
            ]
        },
        {
            "positions": [
                1.681106482296139,
                -1.7068191502970325,
                -0.7145482339005255,
                0.37636228203228683,
                -0.25921627707822537,
                -0.5299569854533548
            ]
        },
        {
            "positions": [
                1.7866461527098312,
                -1.7382613149189732,
                -0.8232600694062864,
                0.42641807997145453,
                -0.20556767245431656,
                -0.4950995397753808
            ]
        },
        {
            "positions": [
                1.892185823123523,
                -1.7697034795409137,
                -0.9319719049120472,
                0.4764738779106222,
                -0.15191906783040782,
                -0.46024209409740696
            ]
        },
        {
            "positions": [
                1.9977254935372148,
                -1.8011456441628544,
                -1.040683740417808,
                0.5265296758497899,
                -0.09827046320649907,
                -0.4253846484194331
            ]
        },
        {
            "positions": [
                2.1032651639509066,
                -1.8325878087847949,
                -1.1493955759235688,
                0.5765854737889575,
                -0.044621858582590324,
                -0.3905272027414592
            ]
        },
        {
            "positions": [
                2.2088048343645985,
                -1.8640299734067356,
                -1.2581074114293296,
                0.6266412717281251,
                0.009026746041318479,
                -0.35566975706348536
            ]
        },
        {
            "positions": [
                2.3143445047782905,
                -1.8954721380286763,
                -1.3668192469350904,
                0.6766970696672928,
                0.06267535066522723,
                -0.3208123113855115
            ]
        },
        {
            "positions": [
                2.4198841751919824,
                -1.9269143026506168,
                -1.4755310824408514,
                0.7267528676064605,
                0.11632395528913608,
                -0.28595486570753753
            ]
        },
        {
            "positions": [
                2.5254238456056743,
                -1.9583564672725575,
                -1.5842429179466122,
                0.7768086655456282,
                0.16997255991304483,
                -0.25109742002956364
            ]
        },
        {
            "positions": [
                2.6309635160193663,
                -1.989798631894498,
                -1.692954753452373,
                0.8268644634847958,
                0.22362116453695358,
                -0.21623997435158981
            ]
        },
        {
            "positions": [
                2.7365031864330582,
                -2.0212407965164387,
                -1.8016665889581338,
                0.8769202614239635,
                0.2772697691608623,
                -0.18138252867361598
            ]
        },
        {
            "positions": [
                2.711000904982161,
                -2.1726634223852432,
                -1.7580523158271368,
                0.908923188020972,
                0.3439963840049465,
                -0.11424522532326137
            ]
        },
        {
            "positions": [
                2.6854986235312635,
                -2.324086048254048,
                -1.7144380426961399,
                0.9409261146179806,
                0.4107229988490307,
                -0.04710792197290675
            ]
        },
        {
            "positions": [
                2.6599963420803663,
                -2.4755086741228527,
                -1.670823769565143,
                0.9729290412149891,
                0.4774496136931149,
                0.020029381377447853
            ]
        }
    ]
}