{
    "goal": {
        "global_pose": {
            "orientation": {
                "w": 0.5084816217422485,
                "x": -0.49083608388900757,
                "y": 0.5182115435600281,
                "z": -0.4816462993621826
            },
            "position": {
                "x": 0.5540239810943604,
                "y": 0.030875300988554955,
                "z": 0.16403168439865112
            }
        },
        "name": "move_to_storage_A"
    },
    "id": "EST_move_to_storage_A_42",
    "joint_names": [
        "shoulder_pan_joint",
        "shoulder_lift_joint",
        "elbow_joint",
        "wrist_1_joint",
        "wrist_2_joint",
        "wrist_3_joint"
    ],
    "metrics": {
        "cart_traj_len": 0.35253547117827577,
        "distance_elbow_joint": 0.4486830241281774,
        "distance_shoulder_lift_joint": 0.23544475183025226,
        "distance_shoulder_pan_joint": 0.45706812068145286,
        "distance_wrist_1_joint": 0.2365352489266398,
        "distance_wrist_2_joint": 1.1150361943846037,
        "distance_wrist_3_joint": 0.0986756657799428,
        "smoothness": 6.661338200497456e-16,
        "time": 0.054908668,
        "traj_len": 1.6097959515823952,
        "weighted_distance": 2.034788878631441
    },
    "planner": "EST",
    "start": {
        "state": {
            "elbow_joint": 1.971548259319323,
            "shoulder_lift_joint": -1.1394851275133948,
            "shoulder_pan_joint": 0.1228115487234821,
            "wrist_1_joint": -0.7804723859257726,
            "wrist_2_joint": 0.12958671773740124,
            "wrist_3_joint": -3.192489227718131
        }
    },
    "waypoints": [
        {
            "positions": [
                0.1228115487234821,
                -1.1394851275133948,
                1.971548259319323,
                -0.7804723859257726,
                0.12958671773740124,
                -3.192489227718131
            ]
        },
        {
            "positions": [
                0.05751610291184599,
                -1.1731200920605738,
                2.035645834194777,
                -0.8142631357724355,
                0.2888776026494875,
                -3.178392704035282
            ]
        },
        {
            "positions": [
                -0.007779342899790126,
                -1.2067550566077525,
                2.0997434090702307,
                -0.8480538856190982,
                0.4481684875615737,
                -3.164296180352433
            ]
        },
        {
            "positions": [
                -0.07307478871142625,
                -1.2403900211549315,
                2.163840983945685,
                -0.8818446354657611,
                0.6074593724736599,
                -3.1501996566695842
            ]
        },
        {
            "positions": [
                -0.13837023452306235,
                -1.2740249857021104,
                2.2279385588211387,
                -0.9156353853124239,
                0.7667502573857462,
                -3.1361031329867353
            ]
        },
        {
            "positions": [
                -0.2036656803346985,
                -1.3076599502492894,
                2.2920361336965924,
                -0.9494261351590867,
                0.9260411422978325,
                -3.1220066093038863
            ]
        },
        {
            "positions": [
                -0.2689611261463346,
                -1.3412949147964681,
                2.3561337085720466,
                -0.9832168850057496,
                1.0853320272099185,
                -3.1079100856210373
            ]
        },
        {
            "positions": [
                -0.33425657195797076,
                -1.374929879343647,
                2.4202312834475004,
                -1.0170076348524124,
                1.244622912122005,
                -3.0938135619381884
            ]
        }
    ]
}{
    "goal": {
        "global_pose": {
            "orientation": {
                "w": 0.5084816217422485,
                "x": -0.49083608388900757,
                "y": 0.5182115435600281,
                "z": -0.4816462993621826
            },
            "position": {
                "x": 0.5540239810943604,
                "y": 0.030875300988554955,
                "z": 0.16403168439865112
            }
        },
        "name": "move_to_storage_A"
    },
    "id": "EST_move_to_storage_A_42",
    "joint_names": [
        "shoulder_pan_joint",
        "shoulder_lift_joint",
        "elbow_joint",
        "wrist_1_joint",
        "wrist_2_joint",
        "wrist_3_joint"
    ],
    "metrics": {
        "cart_traj_len": 0.3532776568528822,
        "distance_elbow_joint": 0.4528998638095625,
        "distance_shoulder_lift_joint": 0.23176927081685594,
        "distance_shoulder_pan_joint": 0.4624992197001126,
        "distance_wrist_1_joint": 0.26128809106009654,
        "distance_wrist_2_joint": 1.0956405553220934,
        "distance_wrist_3_joint": 0.09906146669431859,
        "smoothness": 8.881784232165597e-16,
        "time": 0.027370767,
        "traj_len": 1.6134306515630101,
        "weighted_distance": 2.039168959937814
    },
    "planner": "EST",
    "start": {
        "state": {
            "elbow_joint": 1.97154746011099,
            "shoulder_lift_joint": -1.13948474672311,
            "shoulder_pan_joint": 0.12281154466712228,
            "wrist_1_joint": -0.7804688027058302,
            "wrist_2_joint": 0.12958655903071145,
            "wrist_3_joint": 3.0906928834467795
        }
    },
    "waypoints": [
        {
            "positions": [
                0.12281154466712228,
                -1.13948474672311,
                1.97154746011099,
                -0.7804688027058302,
                0.12958655903071145,
                3.0906928834467795
            ]
        },
        {
            "positions": [
                0.0567402275671062,
                -1.1725946425540894,
                2.036247440655213,
                -0.8177956728572725,
                0.2861066383624391,
                3.1048445215459677
            ]
        },
        {
            "positions": [
                -0.009331089532909884,
                -1.2057045383850689,
                2.1009474211994363,
                -0.8551225430087149,
                0.4426267176941667,
                3.1189961596451563
            ]
        },
        {
            "positions": [
                -0.07540240663292595,
                -1.2388144342160483,
                2.1656474017436596,
                -0.8924494131601572,
                0.5991467970258944,
                3.1331477977443445
            ]
        },
        {
            "positions": [
                -0.14147372373294204,
                -1.2719243300470275,
                2.2303473822878828,
                -0.9297762833115997,
                0.755666876357622,
                3.147299435843533
            ]
        },
        {
            "positions": [
                -0.20754504083295816,
                -1.305034225878007,
                2.295047362832106,
                -0.967103153463042,
                0.9121869556893496,
                3.1614510739427213
            ]
        },
        {
            "positions": [
                -0.2736163579329742,
                -1.3381441217089864,
                2.359747343376329,
                -1.0044300236144843,
                1.0687070350210772,
                3.17560271204191
            ]
        },
        {
            "positions": [
                -0.3396876750329903,
                -1.371254017539966,
                2.4244473239205524,
                -1.0417568937659267,
                1.2252271143528048,
                3.189754350141098
            ]
        }
    ]
}{
    "goal": {
        "global_pose": {
            "orientation": {
                "w": 0.5084816217422485,
                "x": -0.49083608388900757,
                "y": 0.5182115435600281,
                "z": -0.4816462993621826
            },
            "position": {
                "x": 0.5540239810943604,
                "y": 0.030875300988554955,
                "z": 0.16403168439865112
            }
        },
        "name": "move_to_storage_A"
    },
    "id": "EST_move_to_storage_A_42",
    "joint_names": [
        "shoulder_pan_joint",
        "shoulder_lift_joint",
        "elbow_joint",
        "wrist_1_joint",
        "wrist_2_joint",
        "wrist_3_joint"
    ],
    "metrics": {
        "cart_traj_len": 0.3531861365418919,
        "distance_elbow_joint": 0.45003801691988876,
        "distance_shoulder_lift_joint": 0.23451324482468894,
        "distance_shoulder_pan_joint": 0.46386782596946724,
        "distance_wrist_1_joint": 0.24097107540573637,
        "distance_wrist_2_joint": 1.0905176450036398,
        "distance_wrist_3_joint": 0.09665864235659871,
        "smoothness": 1.3322676330666223e-15,
        "time": 0.062813935,
        "traj_len": 1.6051686672994896,
        "weighted_distance": 2.0251845485294897
    },
    "planner": "EST",
    "start": {
        "state": {
            "elbow_joint": 1.9715472970024885,
            "shoulder_lift_joint": -1.1394870060712896,
            "shoulder_pan_joint": 0.12281152778156021,
            "wrist_1_joint": -0.780463741449964,
            "wrist_2_joint": 0.12958659822042276,
            "wrist_3_joint": 3.090690232415272
        }
    },
    "waypoints": [
        {
            "positions": [
                0.12281152778156021,
                -1.1394870060712896,
                1.9715472970024885,
                -0.780463741449964,
                0.12958659822042276,
                3.090690232415272
            ]
        },
        {
            "positions": [
                0.056544695500207756,
                -1.1729888981891023,
                2.0358384422767584,
                -0.8148881807936407,
                0.2853748332209427,
                3.1044986098947858
            ]
        },
        {
            "positions": [
                -0.009722136781144697,
                -1.206490790306915,
                2.100129587551028,
                -0.8493126201373172,
                0.4411630682214627,
                3.1183069873743
            ]
        },
        {
            "positions": [
                -0.07598896906249714,
                -1.2399926824247278,
                2.164420732825298,
                -0.8837370594809939,
                0.5969513032219826,
                3.132115364853814
            ]
        },
        {
            "positions": [
                -0.1422558013438496,
                -1.2734945745425403,
                2.228711878099568,
                -0.9181614988246705,
                0.7527395382225026,
                3.1459237423333284
            ]
        },
        {
            "positions": [
                -0.2085226336252021,
                -1.306996466660353,
                2.2930030233738377,
                -0.9525859381683471,
                0.9085277732230226,
                3.1597321198128423
            ]
        },
        {
            "positions": [
                -0.2747894659065545,
                -1.3404983587781658,
                2.3572941686481075,
                -0.9870103775120237,
                1.0643160082235426,
                3.1735404972923567
            ]
        },
        {
            "positions": [
                -0.341056298187907,
                -1.3740002508959785,
                2.4215853139223773,
                -1.0214348168557004,
                1.2201042432240625,
                3.1873488747718706
            ]
        }
    ]
}