{
    "goal": {
        "global_pose": {
            "orientation": {
                "w": -0.4816463035849501,
                "x": 0.5182115481033762,
                "y": 0.4908360881923453,
                "z": -0.5084816262002911
            },
            "position": {
                "x": -0.8240239810943604,
                "y": -0.300875300988555,
                "z": 0.16403168439865112
            }
        },
        "name": "move_to_storage_C"
    },
    "id": "EST_move_to_storage_C_39",
    "joint_names": [
        "shoulder_pan_joint",
        "shoulder_lift_joint",
        "elbow_joint",
        "wrist_1_joint",
        "wrist_2_joint",
        "wrist_3_joint"
    ],
    "metrics": {
        "cart_traj_len": 0.5774343034064635,
        "distance_elbow_joint": 0.2585734960226145,
        "distance_shoulder_lift_joint": 0.19114274795875852,
        "distance_shoulder_pan_joint": 0.49265275832262345,
        "distance_wrist_1_joint": 0.06695493686867993,
        "distance_wrist_2_joint": 1.081884685352362,
        "distance_wrist_3_joint": 0.07000446111165859,
        "smoothness": 2.5376526478085547e-16,
        "time": 0.02290824,
        "traj_len": 1.4701064878561338,
        "weighted_distance": 1.8574341522867117
    },
    "planner": "EST",
    "start": {
        "state": {
            "elbow_joint": 2.010868314990456,
            "shoulder_lift_joint": -1.1634956873337592,
            "shoulder_pan_joint": -2.4736205022346125,
            "wrist_1_joint": -0.8367026794202681,
            "wrist_2_joint": 0.6746043897044499,
            "wrist_3_joint": -3.1496632123970403
        }
    },
    "waypoints": [
        {
            "positions": [
                -2.4736205022346125,
                -1.1634956873337592,
                2.010868314990456,
                -0.8367026794202681,
                0.6746043897044499,
                -3.1496632123970403
            ]
        },
        {
            "positions": [
                -2.555729295288383,
                -1.131638562673966,
                1.96777273232002,
                -0.8255435232754881,
                0.8549185039298436,
                -3.1379958022117638
            ]
        },
        {
            "positions": [
                -2.6378380883421535,
                -1.099781438014173,
                1.9246771496495843,
                -0.8143843671307082,
                1.0352326181552374,
                -3.1263283920264873
            ]
        },
        {
            "positions": [
                -2.7199468813959244,
                -1.0679243133543799,
                1.8815815669791487,
                -0.8032252109859281,
                1.215546732380631,
                -3.1146609818412108
            ]
        },
        {
            "positions": [
                -2.802055674449695,
                -1.036067188694587,
                1.838485984308713,
                -0.7920660548411481,
                1.3958608466060247,
                -3.1029935716559347
            ]
        },
        {
            "positions": [
                -2.8841644675034654,
                -1.0042100640347937,
                1.7953904016382771,
                -0.7809068986963682,
                1.5761749608314184,
                -3.091326161470658
            ]
        },
        {
            "positions": [
                -2.966273260557236,
                -0.9723529393750007,
                1.7522948189678413,
                -0.7697477425515882,
                1.7564890750568118,
                -3.0796587512853817
            ]
        }
    ]
}