{
    "goal": {
        "global_pose": {
            "orientation": {
                "w": 0.005598929693374612,
                "x": 0.007748599140229565,
                "y": 0.7110244013736278,
                "z": -0.7031023480610252
            },
            "position": {
                "x": -0.8858502320852131,
                "y": -0.7141253447532654,
                "z": 0.3711530566215515
            }
        },
        "name": "move_to_auspresseinheit_C"
    },
    "id": "EST_move_to_auspresseinheit_C_136",
    "joint_names": [
        "shoulder_pan_joint",
        "shoulder_lift_joint",
        "elbow_joint",
        "wrist_1_joint",
        "wrist_2_joint",
        "wrist_3_joint"
    ],
    "metrics": {
        "cart_traj_len": 0.49398492784414594,
        "distance_elbow_joint": 1.0028499881677169,
        "distance_shoulder_lift_joint": 0.3260724732808925,
        "distance_shoulder_pan_joint": 0.2559007393368171,
        "distance_wrist_1_joint": 0.6710334491589443,
        "distance_wrist_2_joint": 1.3216078582266422,
        "distance_wrist_3_joint": 0.04119444626049784,
        "smoothness": 0.0,
        "time": 0.355691386,
        "traj_len": 1.9022773074479733,
        "weighted_distance": 2.3861452500504012
    },
    "planner": "EST",
    "start": {
        "state": {
            "elbow_joint": 1.7527959577737207,
            "shoulder_lift_joint": -0.9740617694225068,
            "shoulder_pan_joint": -2.967991417825858,
            "wrist_1_joint": -0.759517768980727,
            "wrist_2_joint": 1.7443932448377408,
            "wrist_3_joint": -3.0840537646736568
        }
    },
    "waypoints": [
        {
            "positions": [
                -2.967991417825858,
                -0.9740617694225068,
                1.7527959577737207,
                -0.759517768980727,
                1.7443932448377408,
                -3.0840537646736568
            ]
        },
        {
            "positions": [
                -2.9424013438921763,
                -0.9414545220944175,
                1.6525109589569489,
                -0.6924144240648326,
                1.6122324590150767,
                -3.0881732092997067
            ]
        },
        {
            "positions": [
                -2.9168112699584947,
                -0.9088472747663283,
                1.5522259601401773,
                -0.6253110791489381,
                1.4800716731924124,
                -3.0922926539257563
            ]
        },
        {
            "positions": [
                -2.8912211960248126,
                -0.876240027438239,
                1.4519409613234056,
                -0.5582077342330437,
                1.347910887369748,
                -3.096412098551806
            ]
        },
        {
            "positions": [
                -2.865631122091131,
                -0.8436327801101497,
                1.351655962506634,
                -0.4911043893171493,
                1.215750101547084,
                -3.1005315431778557
            ]
        },
        {
            "positions": [
                -2.8400410481574494,
                -0.8110255327820606,
                1.2513709636898622,
                -0.42400104440125486,
                1.0835893157244199,
                -3.1046509878039057
            ]
        },
        {
            "positions": [
                -2.8144509742237678,
                -0.7784182854539713,
                1.1510859648730905,
                -0.35689769948536043,
                0.9514285299017555,
                -3.1087704324299557
            ]
        },
        {
            "positions": [
                -2.788860900290086,
                -0.745811038125882,
                1.050800966056319,
                -0.28979435456946606,
                0.8192677440790914,
                -3.112889877056005
            ]
        },
        {
            "positions": [
                -2.763270826356404,
                -0.7132037907977928,
                0.9505159672395471,
                -0.22269100965357158,
                0.6871069582564271,
                -3.117009321682055
            ]
        },
        {
            "positions": [
                -2.7376807524227225,
                -0.6805965434697034,
                0.8502309684227755,
                -0.15558766473767716,
                0.5549461724337628,
                -3.1211287663081047
            ]
        },
        {
            "positions": [
                -2.712090678489041,
                -0.6479892961416143,
                0.7499459696060038,
                -0.08848431982178279,
                0.42278538661109866,
                -3.1252482109341546
            ]
        }
    ]
}