{
    "goal": {
        "global_pose": {
            "orientation": {
                "w": -0.4816463035849501,
                "x": 0.5182115481033762,
                "y": 0.4908360881923453,
                "z": -0.5084816262002911
            },
            "position": {
                "x": -0.8240239810943604,
                "y": 0.19912469901144506,
                "z": 0.16403168439865112
            }
        },
        "name": "move_to_storage_D"
    },
    "id": "EST_move_to_storage_D_51",
    "joint_names": [
        "shoulder_pan_joint",
        "shoulder_lift_joint",
        "elbow_joint",
        "wrist_1_joint",
        "wrist_2_joint",
        "wrist_3_joint"
    ],
    "metrics": {
        "cart_traj_len": 0.8501514314308667,
        "distance_elbow_joint": 0.567795785040434,
        "distance_shoulder_lift_joint": 0.5700970246083896,
        "distance_shoulder_pan_joint": 0.15058216971849803,
        "distance_wrist_1_joint": 3.830247996331715,
        "distance_wrist_2_joint": 1.7828021862001822,
        "distance_wrist_3_joint": 3.154376993017759,
        "smoothness": 0.047035194300543474,
        "time": 0.07277198900000001,
        "traj_len": 3.1711042485098115,
        "weighted_distance": 4.688038643557069
    },
    "planner": "EST",
    "start": {
        "state": {
            "elbow_joint": -2.384821988534728,
            "shoulder_lift_joint": -2.2788054721415256,
            "shoulder_pan_joint": -0.1854694642142757,
            "wrist_1_joint": 1.4845938289331202,
            "wrist_2_joint": 0.17898776772866878,
            "wrist_3_joint": 0.037105688729662994
        }
    },
    "waypoints": [
        {
            "positions": [
                -0.1854694642142757,
                -2.2788054721415256,
                -2.384821988534728,
                1.4845938289331202,
                0.17898776772866878,
                0.037105688729662994
            ]
        },
        {
            "positions": [
                -0.14791791676377364,
                -2.274004691482669,
                -2.3879185513321044,
                1.436055246375731,
                0.13656810456538357,
                0.10367784173954694
            ]
        },
        {
            "positions": [
                -0.11036636931327154,
                -2.269203910823812,
                -2.3910151141294813,
                1.387516663818342,
                0.09414844140209835,
                0.1702499947494309
            ]
        },
        {
            "positions": [
                -0.10376770618974235,
                -2.2188941793682835,
                -2.3501463985977327,
                1.3275480591827107,
                0.018242930478715697,
                0.2807849409131105
            ]
        },
        {
            "positions": [
                -0.09716904306621316,
                -2.168584447912755,
                -2.3092776830659836,
                1.2675794545470793,
                -0.05766258044466696,
                0.3913198870767901
            ]
        },
        {
            "positions": [
                -0.09057037994268395,
                -2.118274716457226,
                -2.268408967534235,
                1.2076108499114482,
                -0.13356809136804962,
                0.5018548332404698
            ]
        },
        {
            "positions": [
                -0.08397171681915476,
                -2.0679649850016975,
                -2.227540252002486,
                1.1476422452758168,
                -0.20947360229143228,
                0.6123897794041494
            ]
        },
        {
            "positions": [
                -0.07737305369562555,
                -2.017655253546169,
                -2.186671536470737,
                1.0876736406401855,
                -0.285379113214815,
                0.722924725567829
            ]
        },
        {
            "positions": [
                -0.07077439057209636,
                -1.9673455220906404,
                -2.145802820938988,
                1.027705036004554,
                -0.3612846241381976,
                0.8334596717315087
            ]
        },
        {
            "positions": [
                -0.06417572744856717,
                -1.9170357906351116,
                -2.1049341054072395,
                0.9677364313689227,
                -0.43719013506158033,
                0.9439946178951883
            ]
        },
        {
            "positions": [
                -0.06263423097736771,
                -1.9280003876404788,
                -2.0904329658954794,
                0.7933474524864218,
                -0.4985914131357873,
                1.0622834633610954
            ]
        },
        {
            "positions": [
                -0.06109273450616827,
                -1.9389649846458459,
                -2.0759318263837194,
                0.6189584736039209,
                -0.5599926912099943,
                1.1805723088270024
            ]
        },
        {
            "positions": [
                -0.05955123803496881,
                -1.949929581651213,
                -2.06143068687196,
                0.4445694947214198,
                -0.6213939692842013,
                1.2988611542929096
            ]
        },
        {
            "positions": [
                -0.05800974156376936,
                -1.9608941786565801,
                -2.0469295473602,
                0.2701805158389189,
                -0.6827952473584082,
                1.4171499997588164
            ]
        },
        {
            "positions": [
                -0.05646824509256991,
                -1.9718587756619472,
                -2.03242840784844,
                0.09579153695641796,
                -0.7441965254326153,
                1.5354388452247236
            ]
        },
        {
            "positions": [
                -0.05492674862137046,
                -1.9828233726673146,
                -2.01792726833668,
                -0.07859744192608309,
                -0.8055978035068223,
                1.6537276906906306
            ]
        },
        {
            "positions": [
                -0.05338525215017101,
                -1.9937879696726817,
                -2.0034261288249198,
                -0.2529864208085839,
                -0.8669990815810293,
                1.7720165361565376
            ]
        },
        {
            "positions": [
                -0.05184375567897155,
                -2.004752566678049,
                -1.98892498931316,
                -0.42737539969108496,
                -0.9284003596552363,
                1.8903053816224447
            ]
        },
        {
            "positions": [
                -0.0503022592077721,
                -2.0157171636834157,
                -1.9744238498014,
                -0.6017643785735858,
                -0.9898016377294433,
                2.0085942270883517
            ]
        },
        {
            "positions": [
                -0.04876076273657265,
                -2.026681760688783,
                -1.9599227102896402,
                -0.7761533574560868,
                -1.0512029158036502,
                2.126883072554259
            ]
        },
        {
            "positions": [
                -0.04721926626537319,
                -2.0376463576941504,
                -1.9454215707778801,
                -0.9505423363385879,
                -1.1126041938778575,
                2.2451719180201657
            ]
        },
        {
            "positions": [
                -0.04567776979417375,
                -2.0486109546995173,
                -1.9309204312661201,
                -1.124931315221089,
                -1.1740054719520643,
                2.363460763486073
            ]
        },
        {
            "positions": [
                -0.04413627332297429,
                -2.0595755517048846,
                -1.9164192917543603,
                -1.2993202941035897,
                -1.2354067500262713,
                2.48174960895198
            ]
        },
        {
            "positions": [
                -0.04259477685177484,
                -2.0705401487102515,
                -1.9019181522426003,
                -1.4737092729860906,
                -1.2968080281004783,
                2.600038454417887
            ]
        },
        {
            "positions": [
                -0.04105328038057539,
                -2.081504745715619,
                -1.8874170127308405,
                -1.6480982518685918,
                -1.3582093061746852,
                2.7183272998837937
            ]
        },
        {
            "positions": [
                -0.03951178390937594,
                -2.0924693427209857,
                -1.8729158732190805,
                -1.8224872307510926,
                -1.4196105842488922,
                2.836616145349701
            ]
        },
        {
            "positions": [
                -0.03797028743817649,
                -2.103433939726353,
                -1.8584147337073205,
                -1.9968762096335935,
                -1.4810118623230992,
                2.954904990815608
            ]
        },
        {
            "positions": [
                -0.03642879096697703,
                -2.11439853673172,
                -1.8439135941955607,
                -2.1712651885160943,
                -1.5424131403973063,
                3.073193836281515
            ]
        },
        {
            "positions": [
                -0.03488729449577758,
                -2.1253631337370873,
                -1.8294124546838006,
                -2.3456541673985956,
                -1.6038144184715133,
                3.1914826817474222
            ]
        }
    ]
}