{
    "goal": {
        "global_pose": {
            "orientation": {
                "w": 0.7047431493862688,
                "x": -0.7094548369677653,
                "y": 0.0024358444001904,
                "z": -0.0022348060817251984
            },
            "position": {
                "x": -0.39052492380142206,
                "y": 0.3671506643295288,
                "z": 0.19426114857196808
            }
        },
        "name": "move_to_magneteinheit_D"
    },
    "id": "EST_move_to_magneteinheit_D_131",
    "joint_names": [
        "shoulder_pan_joint",
        "shoulder_lift_joint",
        "elbow_joint",
        "wrist_1_joint",
        "wrist_2_joint",
        "wrist_3_joint"
    ],
    "metrics": {
        "cart_traj_len": 4.464573820238618,
        "distance_elbow_joint": 3.627224491985309,
        "distance_shoulder_lift_joint": 1.6562163738777251,
        "distance_shoulder_pan_joint": 3.3833788840610044,
        "distance_wrist_1_joint": 3.0045562061985107,
        "distance_wrist_2_joint": 1.0980281397589022,
        "distance_wrist_3_joint": 6.26771077462625,
        "smoothness": 0.6129189066941212,
        "time": 0.263278772,
        "traj_len": 4.363154234095753,
        "weighted_distance": 5.972865373145257
    },
    "planner": "EST",
    "start": {
        "state": {
            "elbow_joint": 0.749534889911806,
            "shoulder_lift_joint": -0.6476975780787326,
            "shoulder_pan_joint": -2.711696901376241,
            "wrist_1_joint": -0.07506478083263063,
            "wrist_2_joint": 0.43296659715538205,
            "wrist_3_joint": -3.14703540197715
        }
    },
    "waypoints": [
        {
            "positions": [
                -2.711696901376241,
                -0.6476975780787326,
                0.749534889911806,
                -0.07506478083263063,
                0.43296659715538205,
                -3.14703540197715
            ]
        },
        {
            "positions": [
                -2.7211012218326616,
                -0.6780096401291132,
                0.7971631659519641,
                0.013809849708691868,
                0.4686595843206302,
                -3.0078115120655657
            ]
        },
        {
            "positions": [
                -2.7305055422890816,
                -0.7083217021794938,
                0.8447914419921222,
                0.10268448025001436,
                0.5043525714858783,
                -2.868587622153982
            ]
        },
        {
            "positions": [
                -2.739909862745502,
                -0.7386337642298744,
                0.8924197180322804,
                0.19155911079133683,
                0.5400455586511265,
                -2.7293637322423976
            ]
        },
        {
            "positions": [
                -2.6668148829841134,
                -0.7617506123083267,
                0.815765245934382,
                0.14323260225055315,
                0.5162491906958377,
                -2.5854082796699127
            ]
        },
        {
            "positions": [
                -2.5937199032227243,
                -0.7848674603867791,
                0.7391107738364837,
                0.09490609370976946,
                0.4924528227405489,
                -2.441452827097428
            ]
        },
        {
            "positions": [
                -2.5206249234613356,
                -0.8079843084652315,
                0.6624563017385855,
                0.046579585168985776,
                0.4686564547852602,
                -2.297497374524943
            ]
        },
        {
            "positions": [
                -2.4475299436999465,
                -0.8311011565436839,
                0.5858018296406872,
                -0.0017469233717979094,
                0.44486008682997136,
                -2.153541921952458
            ]
        },
        {
            "positions": [
                -2.374434963938558,
                -0.8542180046221363,
                0.509147357542789,
                -0.050073431912581595,
                0.42106371887468264,
                -2.009586469379973
            ]
        },
        {
            "positions": [
                -2.3013399841771687,
                -0.8773348527005886,
                0.43249288544489056,
                -0.09839994045336528,
                0.39726735091939386,
                -1.8656310168074883
            ]
        },
        {
            "positions": [
                -2.22824500441578,
                -0.900451700779041,
                0.3558384133469923,
                -0.14672644899414902,
                0.3734709829641051,
                -1.7216755642350032
            ]
        },
        {
            "positions": [
                -2.1551500246543913,
                -0.9235685488574934,
                0.27918394124909396,
                -0.19505295753493265,
                0.3496746150088163,
                -1.5777201116625186
            ]
        },
        {
            "positions": [
                -2.082055044893002,
                -0.9466853969359457,
                0.20252946915119574,
                -0.24337946607571634,
                0.3258782470535275,
                -1.4337646590900337
            ]
        },
        {
            "positions": [
                -2.0089600651316135,
                -0.9698022450143982,
                0.1258749970532974,
                -0.29170597461650005,
                0.3020818790982388,
                -1.2898092065175488
            ]
        },
        {
            "positions": [
                -1.9358650853702244,
                -0.9929190930928504,
                0.04922052495539908,
                -0.34003248315728374,
                0.27828551114295,
                -1.145853753945064
            ]
        },
        {
            "positions": [
                -1.8627701056088357,
                -1.016035941171303,
                -0.02743394714249925,
                -0.3883589916980674,
                0.25448914318766125,
                -1.0018983013725788
            ]
        },
        {
            "positions": [
                -1.7896751258474466,
                -1.0391527892497552,
                -0.10408841924039758,
                -0.4366855002388512,
                0.23069277523237247,
                -0.857942848800094
            ]
        },
        {
            "positions": [
                -1.716580146086058,
                -1.0622696373282077,
                -0.1807428913382958,
                -0.4850120087796349,
                0.2068964072770837,
                -0.7139873962276089
            ]
        },
        {
            "positions": [
                -1.643485166324669,
                -1.08538648540666,
                -0.2573973634361941,
                -0.5333385173204185,
                0.18310003932179492,
                -0.5700319436551244
            ]
        },
        {
            "positions": [
                -1.57039018656328,
                -1.1085033334851124,
                -0.33405183553409246,
                -0.5816650258612022,
                0.15930367136650614,
                -0.42607649108263956
            ]
        },
        {
            "positions": [
                -1.4972952068018912,
                -1.1316201815635647,
                -0.4107063076319908,
                -0.6299915344019859,
                0.13550730341121736,
                -0.2821210385101547
            ]
        },
        {
            "positions": [
                -1.4242002270405025,
                -1.1547370296420172,
                -0.4873607797298889,
                -0.6783180429427695,
                0.11171093545592864,
                -0.1381655859376698
            ]
        },
        {
            "positions": [
                -1.3511052472791136,
                -1.1778538777204695,
                -0.5640152518277872,
                -0.7266445514835532,
                0.08791456750063986,
                0.005789866634815066
            ]
        },
        {
            "positions": [
                -1.2780102675177247,
                -1.2009707257989217,
                -0.6406697239256856,
                -0.7749710600243369,
                0.06411819954535108,
                0.14974531920729994
            ]
        },
        {
            "positions": [
                -1.2049152877563358,
                -1.2240875738773742,
                -0.7173241960235839,
                -0.8232975685651207,
                0.04032183159006231,
                0.2937007717797848
            ]
        },
        {
            "positions": [
                -1.131820307994947,
                -1.2472044219558267,
                -0.7939786681214822,
                -0.8716240771059043,
                0.016525463634773585,
                0.4376562243522697
            ]
        },
        {
            "positions": [
                -1.058725328233558,
                -1.270321270034279,
                -0.8706331402193805,
                -0.9199505856466881,
                -0.007270904320515248,
                0.581611676924755
            ]
        },
        {
            "positions": [
                -0.9856303484721691,
                -1.2934381181127312,
                -0.9472876123172789,
                -0.9682770941874717,
                -0.03106727227580397,
                0.7255671294972399
            ]
        },
        {
            "positions": [
                -0.9125353687107802,
                -1.3165549661911837,
                -1.0239420844151772,
                -1.0166036027282555,
                -0.0548636402310928,
                0.8695225820697248
            ]
        },
        {
            "positions": [
                -0.8394403889493913,
                -1.3396718142696362,
                -1.1005965565130755,
                -1.0649301112690392,
                -0.07866000818638152,
                1.0134780346422096
            ]
        },
        {
            "positions": [
                -0.7663454091880024,
                -1.3627886623480885,
                -1.1772510286109739,
                -1.1132566198098228,
                -0.10245637614167036,
                1.1574334872146945
            ]
        },
        {
            "positions": [
                -0.6932504294266137,
                -1.385905510426541,
                -1.253905500708872,
                -1.1615831283506066,
                -0.12625274409695908,
                1.3013889397871798
            ]
        },
        {
            "positions": [
                -0.6201554496652246,
                -1.4090223585049935,
                -1.3305599728067705,
                -1.2099096368913902,
                -0.1500491120522479,
                1.4453443923596643
            ]
        },
        {
            "positions": [
                -0.5470604699038359,
                -1.4321392065834457,
                -1.4072144449046686,
                -1.2582361454321738,
                -0.17384548000753663,
                1.5892998449321487
            ]
        },
        {
            "positions": [
                -0.47396549014244727,
                -1.455256054661898,
                -1.4838689170025667,
                -1.3065626539729576,
                -0.19764184796282536,
                1.733255297504634
            ]
        },
        {
            "positions": [
                -0.40087051038105814,
                -1.4783729027403503,
                -1.5605233891004653,
                -1.3548891625137411,
                -0.2214382159181142,
                1.8772107500771185
            ]
        },
        {
            "positions": [
                -0.32777553061966946,
                -1.5014897508188028,
                -1.6371778611983634,
                -1.403215671054525,
                -0.2452345838734029,
                2.021166202649604
            ]
        },
        {
            "positions": [
                -0.25468055085828034,
                -1.5246065988972552,
                -1.713832333296262,
                -1.4515421795953085,
                -0.26903095182869174,
                2.165121655222088
            ]
        },
        {
            "positions": [
                -0.18158557109689177,
                -1.5477234469757075,
                -1.79048680539416,
                -1.4998686881360923,
                -0.29282731978398047,
                2.3090771077945735
            ]
        },
        {
            "positions": [
                -0.13212429910657264,
                -1.512652029956831,
                -1.8766885413650582,
                -1.6062965614771685,
                -0.2763699133609528,
                2.369965387186159
            ]
        },
        {
            "positions": [
                -0.0826630271162535,
                -1.4775806129379543,
                -1.9628902773359567,
                -1.7127244348182447,
                -0.2599125069379251,
                2.430853666577744
            ]
        },
        {
            "positions": [
                -0.033201755125934374,
                -1.4425091959190777,
                -2.049092013306855,
                -1.8191523081593206,
                -0.24345510051489747,
                2.491741945969329
            ]
        },
        {
            "positions": [
                0.01625951686438476,
                -1.407437778900201,
                -2.135293749277753,
                -1.9255801815003968,
                -0.2269976940918698,
                2.552630225360914
            ]
        },
        {
            "positions": [
                0.0657207888547039,
                -1.3723663618813242,
                -2.2214954852486515,
                -2.032008054841473,
                -0.2105402876688421,
                2.6135185047524994
            ]
        },
        {
            "positions": [
                0.11518206084502303,
                -1.3372949448624476,
                -2.3076972212195495,
                -2.138435928182549,
                -0.19408288124581446,
                2.674406784144084
            ]
        },
        {
            "positions": [
                0.16464333283534216,
                -1.302223527843571,
                -2.393898957190448,
                -2.244863801523625,
                -0.1776254748227868,
                2.7352950635356694
            ]
        },
        {
            "positions": [
                0.2141046048256613,
                -1.2671521108246944,
                -2.4801006931613463,
                -2.3512916748647013,
                -0.1611680683997591,
                2.7961833429272547
            ]
        },
        {
            "positions": [
                0.11381674104551645,
                -1.3860569030321286,
                -2.452145879993544,
                -2.302521292635075,
                -0.16777233051071655,
                2.877306350357716
            ]
        },
        {
            "positions": [
                0.013528877265371608,
                -1.504961695239563,
                -2.424191066825742,
                -2.253750910405448,
                -0.17437659262167401,
                2.958429357788178
            ]
        },
        {
            "positions": [
                -0.0867589865147732,
                -1.6238664874469972,
                -2.39623625365794,
                -2.2049805281758217,
                -0.18098085473263148,
                3.03955236521864
            ]
        },
        {
            "positions": [
                -0.18704685029491808,
                -1.7427712796544315,
                -2.368281440490138,
                -2.1562101459461953,
                -0.18758511684358892,
                3.120675372649101
            ]
        }
    ]
}