{
    "goal": {
        "global_pose": {
            "orientation": {
                "w": 0.5084816217422485,
                "x": -0.49083608388900757,
                "y": 0.5182115435600281,
                "z": -0.4816462993621826
            },
            "position": {
                "x": 0.5540239810943604,
                "y": 0.030875300988554955,
                "z": 0.16403168439865112
            }
        },
        "name": "move_to_storage_A"
    },
    "id": "EST_move_to_storage_A_70",
    "joint_names": [
        "shoulder_pan_joint",
        "shoulder_lift_joint",
        "elbow_joint",
        "wrist_1_joint",
        "wrist_2_joint",
        "wrist_3_joint"
    ],
    "metrics": {
        "cart_traj_len": 0.3527039199784947,
        "distance_elbow_joint": 0.4502475627641733,
        "distance_shoulder_lift_joint": 0.23634744187230972,
        "distance_shoulder_pan_joint": 0.4594909355942018,
        "distance_wrist_1_joint": 0.24102073252871048,
        "distance_wrist_2_joint": 1.1065255917933832,
        "distance_wrist_3_joint": 0.0981901650522401,
        "smoothness": 1.3322676295501878e-15,
        "time": 0.144912342,
        "traj_len": 1.6099137957061609,
        "weighted_distance": 2.0336541210421184
    },
    "planner": "EST",
    "start": {
        "state": {
            "elbow_joint": 1.971548259319323,
            "shoulder_lift_joint": -1.1394851275133948,
            "shoulder_pan_joint": 0.1228115487234821,
            "wrist_1_joint": -0.7804723859257726,
            "wrist_2_joint": 0.12958671773740124,
            "wrist_3_joint": -3.192489227718131
        }
    },
    "waypoints": [
        {
            "positions": [
                0.1228115487234821,
                -1.1394851275133948,
                1.971548259319323,
                -0.7804723859257726,
                0.12958671773740124,
                -3.192489227718131
            ]
        },
        {
            "positions": [
                0.057169986495739,
                -1.1732490477808677,
                2.0358693397142047,
                -0.8149039191441598,
                0.28766180227931315,
                -3.178462061282097
            ]
        },
        {
            "positions": [
                -0.008471575732004105,
                -1.2070129680483404,
                2.1001904201090866,
                -0.849335452362547,
                0.44573688682122503,
                -3.1644348948460626
            ]
        },
        {
            "positions": [
                -0.07411313795974722,
                -1.2407768883158132,
                2.1645115005039686,
                -0.8837669855809343,
                0.6038119713631369,
                -3.1504077284100283
            ]
        },
        {
            "positions": [
                -0.1397547001874903,
                -1.2745408085832861,
                2.2288325808988505,
                -0.9181985187993215,
                0.7618870559050488,
                -3.136380561973994
            ]
        },
        {
            "positions": [
                -0.20539626241523345,
                -1.308304728850759,
                2.2931536612937324,
                -0.9526300520177087,
                0.9199621404469607,
                -3.1223533955379597
            ]
        },
        {
            "positions": [
                -0.27103782464297654,
                -1.3420686491182316,
                2.3574747416886144,
                -0.9870615852360959,
                1.0780372249888726,
                -3.1083262291019254
            ]
        },
        {
            "positions": [
                -0.3366793868707197,
                -1.3758325693857045,
                2.4217958220834963,
                -1.021493118454483,
                1.2361123095307844,
                -3.094299062665891
            ]
        }
    ]
}{
    "goal": {
        "global_pose": {
            "orientation": {
                "w": 0.5084816217422485,
                "x": -0.49083608388900757,
                "y": 0.5182115435600281,
                "z": -0.4816462993621826
            },
            "position": {
                "x": 0.5540239810943604,
                "y": 0.030875300988554955,
                "z": 0.16403168439865112
            }
        },
        "name": "move_to_storage_A"
    },
    "id": "EST_move_to_storage_A_70",
    "joint_names": [
        "shoulder_pan_joint",
        "shoulder_lift_joint",
        "elbow_joint",
        "wrist_1_joint",
        "wrist_2_joint",
        "wrist_3_joint"
    ],
    "metrics": {
        "cart_traj_len": 0.3531257654822534,
        "distance_elbow_joint": 0.4549878817403954,
        "distance_shoulder_lift_joint": 0.23433129133388886,
        "distance_shoulder_pan_joint": 0.4610786695972172,
        "distance_wrist_1_joint": 0.2605473000885803,
        "distance_wrist_2_joint": 1.1026829545369905,
        "distance_wrist_3_joint": 0.0924088150893243,
        "smoothness": 2.2204460668324854e-16,
        "time": 0.033082638,
        "traj_len": 1.6143224313582454,
        "weighted_distance": 2.0381572062013804
    },
    "planner": "EST",
    "start": {
        "state": {
            "elbow_joint": 1.97154746011099,
            "shoulder_lift_joint": -1.13948474672311,
            "shoulder_pan_joint": 0.12281154466712228,
            "wrist_1_joint": -0.7804688027058302,
            "wrist_2_joint": 0.12958655903071145,
            "wrist_3_joint": 3.0906928834467795
        }
    },
    "waypoints": [
        {
            "positions": [
                0.12281154466712228,
                -1.13948474672311,
                1.97154746011099,
                -0.7804688027058302,
                0.12958655903071145,
                3.0906928834467795
            ]
        },
        {
            "positions": [
                0.056943163296091254,
                -1.172960645485094,
                2.0365457289310465,
                -0.8176898455756274,
                0.28711269539313866,
                3.103894142745254
            ]
        },
        {
            "positions": [
                -0.008925218074939775,
                -1.2064365442470781,
                2.101543997751103,
                -0.8549108884454245,
                0.44463883175556584,
                3.1170954020437294
            ]
        },
        {
            "positions": [
                -0.07479359944597079,
                -1.2399124430090622,
                2.1665422665711596,
                -0.8921319313152217,
                0.602164968117993,
                3.130296661342204
            ]
        },
        {
            "positions": [
                -0.14066198081700182,
                -1.2733883417710463,
                2.2315405353912157,
                -0.9293529741850189,
                0.7596911044804203,
                3.1434979206406792
            ]
        },
        {
            "positions": [
                -0.2065303621880329,
                -1.3068642405330306,
                2.296538804211272,
                -0.966574017054816,
                0.9172172408428476,
                3.156699179939154
            ]
        },
        {
            "positions": [
                -0.27239874355906385,
                -1.3403401392950147,
                2.3615370730313288,
                -1.0037950599246133,
                1.0747433772052746,
                3.169900439237629
            ]
        },
        {
            "positions": [
                -0.3382671249300949,
                -1.3738160380569988,
                2.4265353418513853,
                -1.0410161027944105,
                1.232269513567702,
                3.183101698536104
            ]
        }
    ]
}{
    "goal": {
        "global_pose": {
            "orientation": {
                "w": 0.5084816217422485,
                "x": -0.49083608388900757,
                "y": 0.5182115435600281,
                "z": -0.4816462993621826
            },
            "position": {
                "x": 0.5540239810943604,
                "y": 0.030875300988554955,
                "z": 0.16403168439865112
            }
        },
        "name": "move_to_storage_A"
    },
    "id": "EST_move_to_storage_A_70",
    "joint_names": [
        "shoulder_pan_joint",
        "shoulder_lift_joint",
        "elbow_joint",
        "wrist_1_joint",
        "wrist_2_joint",
        "wrist_3_joint"
    ],
    "metrics": {
        "cart_traj_len": 0.35268751857478964,
        "distance_elbow_joint": 0.44874056415451635,
        "distance_shoulder_lift_joint": 0.23295221320230008,
        "distance_shoulder_pan_joint": 0.45941134127539585,
        "distance_wrist_1_joint": 0.24032662281904416,
        "distance_wrist_2_joint": 1.1048799318181168,
        "distance_wrist_3_joint": 0.08664790963526725,
        "smoothness": 2.2204460668324854e-16,
        "time": 0.06481553000000001,
        "traj_len": 1.604044445426822,
        "weighted_distance": 2.022736007691645
    },
    "planner": "EST",
    "start": {
        "state": {
            "elbow_joint": 1.9715472970024885,
            "shoulder_lift_joint": -1.1394870060712896,
            "shoulder_pan_joint": 0.12281152778156021,
            "wrist_1_joint": -0.780463741449964,
            "wrist_2_joint": 0.12958659822042276,
            "wrist_3_joint": 3.090690232415272
        }
    },
    "waypoints": [
        {
            "positions": [
                0.12281152778156021,
                -1.1394870060712896,
                1.9715472970024885,
                -0.780463741449964,
                0.12958659822042276,
                3.090690232415272
            ]
        },
        {
            "positions": [
                0.05718133617078938,
                -1.172765893671618,
                2.0356530918817053,
                -0.8147961161383989,
                0.28742658848015373,
                3.10306850522031
            ]
        },
        {
            "positions": [
                -0.008448855439981445,
                -1.2060447812719468,
                2.0997588867609216,
                -0.8491284908268337,
                0.44526657873988473,
                3.115446778025348
            ]
        },
        {
            "positions": [
                -0.07407904705075227,
                -1.2393236688722753,
                2.1638646816401383,
                -0.8834608655152686,
                0.6031065689996157,
                3.127825050830386
            ]
        },
        {
            "positions": [
                -0.1397092386615231,
                -1.272602556472604,
                2.227970476519355,
                -0.9177932402037035,
                0.7609465592593466,
                3.1402033236354248
            ]
        },
        {
            "positions": [
                -0.20533943027229398,
                -1.3058814440729325,
                2.292076271398572,
                -0.9521256148921384,
                0.9187865495190777,
                3.152581596440463
            ]
        },
        {
            "positions": [
                -0.2709696218830647,
                -1.339160331673261,
                2.356182066277788,
                -0.9864579895805733,
                1.0766265397788086,
                3.164959869245501
            ]
        },
        {
            "positions": [
                -0.3365998134938356,
                -1.3724392192735897,
                2.420287861157005,
                -1.0207903642690082,
                1.2344665300385396,
                3.177338142050539
            ]
        }
    ]
}