{
    "goal": {
        "global_pose": {
            "orientation": {
                "w": 0.005598929693374612,
                "x": 0.007748599140229565,
                "y": 0.7110244013736278,
                "z": -0.7031023480610252
            },
            "position": {
                "x": 0.1141497679147869,
                "y": -0.7141253447532654,
                "z": 0.3711530566215515
            }
        },
        "name": "move_to_auspresseinheit_B"
    },
    "id": "EST_move_to_auspresseinheit_B_143",
    "joint_names": [
        "shoulder_pan_joint",
        "shoulder_lift_joint",
        "elbow_joint",
        "wrist_1_joint",
        "wrist_2_joint",
        "wrist_3_joint"
    ],
    "metrics": {
        "cart_traj_len": 0.5637139603441078,
        "distance_elbow_joint": 0.05852445128708217,
        "distance_shoulder_lift_joint": 0.2954283136943636,
        "distance_shoulder_pan_joint": 0.5777466706509322,
        "distance_wrist_1_joint": 0.314995693752394,
        "distance_wrist_2_joint": 0.9858850855386008,
        "distance_wrist_3_joint": 0.00042959227769978625,
        "smoothness": 5.075305255429287e-16,
        "time": 0.047062236,
        "traj_len": 1.494325870485107,
        "weighted_distance": 1.8800930219134018
    },
    "planner": "EST",
    "start": {
        "state": {
            "elbow_joint": 2.0193083361928714,
            "shoulder_lift_joint": -1.1220246554650708,
            "shoulder_pan_joint": -1.0952077554168747,
            "wrist_1_joint": -0.8559753972642168,
            "wrist_2_joint": 0.4759566250798843,
            "wrist_3_joint": -3.1240929996934557
        }
    },
    "waypoints": [
        {
            "positions": [
                -1.0952077554168747,
                -1.1220246554650708,
                2.0193083361928714,
                -0.8559753972642168,
                0.4759566250798843,
                -3.1240929996934557
            ]
        },
        {
            "positions": [
                -1.19149886719203,
                -1.1712627077474647,
                2.0095542609783577,
                -0.8034761149721511,
                0.6402708060029845,
                -3.1241645984064057
            ]
        },
        {
            "positions": [
                -1.2877899789671854,
                -1.2205007600298587,
                1.999800185763844,
                -0.7509768326800854,
                0.8045849869260846,
                -3.1242361971193557
            ]
        },
        {
            "positions": [
                -1.3840810907423409,
                -1.2697388123122526,
                1.9900461105493303,
                -0.6984775503880198,
                0.9688991678491847,
                -3.124307795832306
            ]
        },
        {
            "positions": [
                -1.4803722025174961,
                -1.3189768645946465,
                1.9802920353348166,
                -0.6459782680959542,
                1.1332133487722849,
                -3.1243793945452554
            ]
        },
        {
            "positions": [
                -1.5766633142926514,
                -1.3682149168770406,
                1.970537960120303,
                -0.5934789858038885,
                1.297527529695385,
                -3.1244509932582054
            ]
        },
        {
            "positions": [
                -1.6729544260678069,
                -1.4174529691594344,
                1.9607838849057893,
                -0.5409797035118228,
                1.4618417106184851,
                -3.1245225919711554
            ]
        }
    ]
}