{
    "goal": {
        "global_pose": {
            "orientation": {
                "w": 0.5084816262002911,
                "x": -0.4908360881923452,
                "y": 0.5182115481033761,
                "z": -0.48164630358495003
            },
            "position": {
                "x": 0.5540239810943604,
                "y": -0.46912469901144505,
                "z": 0.16403168439865112
            }
        },
        "name": "move_to_storage_B"
    },
    "id": "EST_move_to_storage_B_36",
    "joint_names": [
        "shoulder_pan_joint",
        "shoulder_lift_joint",
        "elbow_joint",
        "wrist_1_joint",
        "wrist_2_joint",
        "wrist_3_joint"
    ],
    "metrics": {
        "cart_traj_len": 0.6527508736000369,
        "distance_elbow_joint": 0.35352200423756175,
        "distance_shoulder_lift_joint": 0.4600539043055367,
        "distance_shoulder_pan_joint": 0.2901051011215855,
        "distance_wrist_1_joint": 3.0099683246507505,
        "distance_wrist_2_joint": 2.6994488297520562,
        "distance_wrist_3_joint": 3.1922549219500875,
        "smoothness": 0.1522045060058707,
        "time": 0.171580757,
        "traj_len": 3.163123944144076,
        "weighted_distance": 4.700987139348561
    },
    "planner": "EST",
    "start": {
        "state": {
            "elbow_joint": 1.664937868594044,
            "shoulder_lift_joint": -0.661644460510453,
            "shoulder_pan_joint": -0.9139846352900073,
            "wrist_1_joint": 2.146753192139373,
            "wrist_2_joint": -2.2341966793290973,
            "wrist_3_joint": 0.005466555786416001
        }
    },
    "waypoints": [
        {
            "positions": [
                -0.9139846352900073,
                -0.661644460510453,
                1.664937868594044,
                2.146753192139373,
                -2.2341966793290973,
                0.005466555786416001
            ]
        },
        {
            "positions": [
                -0.8602329178661223,
                -0.7160071228218752,
                1.6732764139867085,
                2.1174966626437692,
                -2.1003610240622734,
                0.0395628335647335
            ]
        },
        {
            "positions": [
                -0.8696870532140304,
                -0.7322347725016397,
                1.6870837523405045,
                1.9982681908375635,
                -1.9977364970828642,
                -0.0867635122021373
            ]
        },
        {
            "positions": [
                -0.8791411885619383,
                -0.7484624221814044,
                1.7008910906943002,
                1.8790397190313575,
                -1.895111970103455,
                -0.2130898579690081
            ]
        },
        {
            "positions": [
                -0.8885953239098464,
                -0.7646900718611689,
                1.7146984290480962,
                1.7598112472251517,
                -1.7924874431240454,
                -0.3394162037358789
            ]
        },
        {
            "positions": [
                -0.8980494592577544,
                -0.7809177215409335,
                1.728505767401892,
                1.6405827754189457,
                -1.6898629161446361,
                -0.4657425495027497
            ]
        },
        {
            "positions": [
                -0.9075035946056624,
                -0.7971453712206981,
                1.742313105755688,
                1.52135430361274,
                -1.5872383891652269,
                -0.5920688952696205
            ]
        },
        {
            "positions": [
                -0.9169577299535705,
                -0.8133730209004627,
                1.7561204441094838,
                1.4021258318065342,
                -1.4846138621858176,
                -0.7183952410364913
            ]
        },
        {
            "positions": [
                -0.9264118653014785,
                -0.8296006705802272,
                1.7699277824632798,
                1.2828973600003282,
                -1.3819893352064083,
                -0.8447215868033622
            ]
        },
        {
            "positions": [
                -0.9358660006493865,
                -0.8458283202599919,
                1.7837351208170755,
                1.1636688881941222,
                -1.2793648082269988,
                -0.9710479325702328
            ]
        },
        {
            "positions": [
                -0.9453201359972945,
                -0.8620559699397564,
                1.7975424591708715,
                1.0444404163879166,
                -1.1767402812475898,
                -1.0973742783371037
            ]
        },
        {
            "positions": [
                -0.9547742713452025,
                -0.878283619619521,
                1.8113497975246673,
                0.9252119445817106,
                -1.0741157542681803,
                -1.2237006241039745
            ]
        },
        {
            "positions": [
                -0.9642284066931106,
                -0.8945112692992856,
                1.8251571358784633,
                0.8059834727755049,
                -0.971491227288771,
                -1.3500269698708451
            ]
        },
        {
            "positions": [
                -0.9736825420410186,
                -0.9107389189790501,
                1.838964474232259,
                0.6867550009692989,
                -0.8688667003093618,
                -1.476353315637716
            ]
        },
        {
            "positions": [
                -0.9831366773889266,
                -0.9269665686588148,
                1.852771812586055,
                0.5675265291630931,
                -0.7662421733299523,
                -1.6026796614045868
            ]
        },
        {
            "positions": [
                -0.9925908127368346,
                -0.9431942183385793,
                1.8665791509398508,
                0.4482980573568871,
                -0.663617646350543,
                -1.7290060071714577
            ]
        },
        {
            "positions": [
                -1.0020449480847426,
                -0.959421868018344,
                1.8803864892936468,
                0.32906958555068133,
                -0.5609931193711337,
                -1.8553323529383283
            ]
        },
        {
            "positions": [
                -1.0114990834326507,
                -0.9756495176981085,
                1.8941938276474426,
                0.20984111374447534,
                -0.45836859239172445,
                -1.9816586987051992
            ]
        },
        {
            "positions": [
                -1.0209532187805588,
                -0.991877167377873,
                1.9080011660012386,
                0.09061264193826934,
                -0.35574406541231496,
                -2.1079850444720702
            ]
        },
        {
            "positions": [
                -1.0304073541284666,
                -1.0081048170576377,
                1.9218085043550344,
                -0.028615829867935982,
                -0.2531195384329059,
                -2.234311390238941
            ]
        },
        {
            "positions": [
                -1.0398614894763747,
                -1.0243324667374023,
                1.9356158427088304,
                -0.1478443016741422,
                -0.15049501145349642,
                -2.360637736005812
            ]
        },
        {
            "positions": [
                -1.0493156248242828,
                -1.0405601164171667,
                1.9494231810626261,
                -0.26707277348034797,
                -0.04787048447408715,
                -2.486964081772683
            ]
        },
        {
            "positions": [
                -1.0587697601721908,
                -1.0567877660969314,
                1.9632305194164221,
                -0.38630124528655374,
                0.0547540425053219,
                -2.613290427539553
            ]
        },
        {
            "positions": [
                -1.0682238955200989,
                -1.073015415776696,
                1.9770378577702181,
                -0.5055297170927595,
                0.1573785694847314,
                -2.739616773306424
            ]
        },
        {
            "positions": [
                -1.077678030868007,
                -1.0892430654564607,
                1.990845196124014,
                -0.6247581888989657,
                0.2600030964641409,
                -2.8659431190732954
            ]
        },
        {
            "positions": [
                -1.0871321662159148,
                -1.105470715136225,
                2.0046525344778097,
                -0.7439866607051715,
                0.36262762344354993,
                -2.9922694648401658
            ]
        },
        {
            "positions": [
                -1.0965863015638229,
                -1.1216983648159897,
                2.0184598728316057,
                -0.8632151325113773,
                0.4652521504229593,
                -3.1185958106070366
            ]
        }
    ]
}