{
    "goal": {
        "global_pose": {
            "orientation": {
                "w": 0.7047431468963623,
                "x": -0.7094548344612122,
                "y": 0.0024358443915843964,
                "z": -0.0022348060738295317
            },
            "position": {
                "x": 0.6094750761985779,
                "y": 0.3671506643295288,
                "z": 0.19426114857196808
            }
        },
        "name": "move_to_magneteinheit_A"
    },
    "id": "EST_move_to_magneteinheit_A_150",
    "joint_names": [
        "shoulder_pan_joint",
        "shoulder_lift_joint",
        "elbow_joint",
        "wrist_1_joint",
        "wrist_2_joint",
        "wrist_3_joint"
    ],
    "metrics": {
        "cart_traj_len": 4.091273128837549,
        "distance_elbow_joint": 3.8843240669970314,
        "distance_shoulder_lift_joint": 0.16037410119747153,
        "distance_shoulder_pan_joint": 3.7524427081560634,
        "distance_wrist_1_joint": 1.284463707905752,
        "distance_wrist_2_joint": 1.7032898287491065,
        "distance_wrist_3_joint": 2.6180704772319263,
        "smoothness": 0.15329227134486414,
        "time": 0.19862954,
        "traj_len": 3.661005994291371,
        "weighted_distance": 4.650468727059248
    },
    "planner": "EST",
    "start": {
        "state": {
            "elbow_joint": -1.9196185241190666,
            "shoulder_lift_joint": -1.2443396400964142,
            "shoulder_pan_joint": 2.6996025414629847,
            "wrist_1_joint": -1.5485510000780065,
            "wrist_2_joint": -1.5709468930060704,
            "wrist_3_joint": 0.4420197071253992
        }
    },
    "waypoints": [
        {
            "positions": [
                2.6996025414629847,
                -1.2443396400964142,
                -1.9196185241190666,
                -1.5485510000780065,
                -1.5709468930060704,
                0.4420197071253992
            ]
        },
        {
            "positions": [
                2.562032694781747,
                -1.238473948752975,
                -1.797300757620065,
                -1.55908494312438,
                -1.5190796773916708,
                0.5018468719344892
            ]
        },
        {
            "positions": [
                2.424462848100509,
                -1.2326082574095356,
                -1.6749829911210636,
                -1.5696188861707536,
                -1.4672124617772715,
                0.5616740367435792
            ]
        },
        {
            "positions": [
                2.2868930014192714,
                -1.2267425660660964,
                -1.552665224622062,
                -1.5801528292171274,
                -1.415345246162872,
                0.6215012015526692
            ]
        },
        {
            "positions": [
                2.1493231547380334,
                -1.2208768747226573,
                -1.4303474581230604,
                -1.590686772263501,
                -1.3634780305484726,
                0.6813283663617591
            ]
        },
        {
            "positions": [
                2.0117533080567958,
                -1.2150111833792179,
                -1.3080296916240588,
                -1.6012207153098745,
                -1.311610814934073,
                0.7411555311708491
            ]
        },
        {
            "positions": [
                1.8741834613755577,
                -1.2091454920357787,
                -1.1857119251250574,
                -1.611754658356248,
                -1.2597435993196737,
                0.8009826959799391
            ]
        },
        {
            "positions": [
                1.7366136146943199,
                -1.2032798006923395,
                -1.0633941586260558,
                -1.6222886014026217,
                -1.2078763837052742,
                0.8608098607890291
            ]
        },
        {
            "positions": [
                1.599043768013082,
                -1.1974141093489001,
                -0.9410763921270543,
                -1.6328225444489952,
                -1.1560091680908746,
                0.9206370255981191
            ]
        },
        {
            "positions": [
                1.4614739213318442,
                -1.191548418005461,
                -0.8187586256280528,
                -1.643356487495369,
                -1.1041419524764753,
                0.9804641904072091
            ]
        },
        {
            "positions": [
                1.3239040746506066,
                -1.1856827266620218,
                -0.6964408591290512,
                -1.6538904305417426,
                -1.0522747368620757,
                1.0402913552162991
            ]
        },
        {
            "positions": [
                1.1863342279693685,
                -1.1798170353185824,
                -0.5741230926300496,
                -1.6644243735881161,
                -1.0004075212476762,
                1.1001185200253891
            ]
        },
        {
            "positions": [
                1.0487643812881309,
                -1.1739513439751432,
                -0.4518053261310482,
                -1.6749583166344897,
                -0.9485403056332768,
                1.1599456848344791
            ]
        },
        {
            "positions": [
                0.911194534606893,
                -1.1680856526317038,
                -0.3294875596320468,
                -1.6854922596808632,
                -0.8966730900188774,
                1.2197728496435691
            ]
        },
        {
            "positions": [
                0.773624687925655,
                -1.1622199612882647,
                -0.20716979313304495,
                -1.696026202727237,
                -0.8448058744044779,
                1.2796000144526591
            ]
        },
        {
            "positions": [
                0.6360548412444174,
                -1.1563542699448255,
                -0.08485202663404334,
                -1.7065601457736106,
                -0.7929386587900784,
                1.3394271792617491
            ]
        },
        {
            "positions": [
                0.4984849945631793,
                -1.150488578601386,
                0.03746573986495805,
                -1.7170940888199842,
                -0.741071443175679,
                1.399254344070839
            ]
        },
        {
            "positions": [
                0.3609151478819417,
                -1.144622887257947,
                0.15978350636395966,
                -1.7276280318663577,
                -0.6892042275612795,
                1.4590815088799292
            ]
        },
        {
            "positions": [
                0.22334530120070362,
                -1.1387571959145077,
                0.28210127286296105,
                -1.7381619749127313,
                -0.63733701194688,
                1.518908673689019
            ]
        },
        {
            "positions": [
                0.085775454519466,
                -1.1328915045710684,
                0.4044190393619629,
                -1.7486959179591048,
                -0.5854697963324805,
                1.5787358384981092
            ]
        },
        {
            "positions": [
                -0.05179439216177162,
                -1.1270258132276292,
                0.5267368058609643,
                -1.7592298610054784,
                -0.5336025807180811,
                1.638563003307199
            ]
        },
        {
            "positions": [
                -0.18936423884300968,
                -1.12116012188419,
                0.6490545723599657,
                -1.7697638040518522,
                -0.48173536510368176,
                1.6983901681162892
            ]
        },
        {
            "positions": [
                -0.32693408552424774,
                -1.1152944305407506,
                0.7713723388589675,
                -1.7802977470982257,
                -0.429868149489282,
                1.758217332925379
            ]
        },
        {
            "positions": [
                -0.46450393220548536,
                -1.1094287391973114,
                0.893690105357969,
                -1.7908316901445993,
                -0.37800093387488254,
                1.8180444977344692
            ]
        },
        {
            "positions": [
                -0.41163659833034694,
                -1.1115076830788455,
                0.9876967075927037,
                -1.6973042498718036,
                -0.3324345737428397,
                1.9236643906635185
            ]
        },
        {
            "positions": [
                -0.35876926445520857,
                -1.1135866269603796,
                1.0817033098274382,
                -1.6037768095990077,
                -0.28686821361079684,
                2.0292842835925677
            ]
        },
        {
            "positions": [
                -0.3059019305800702,
                -1.1156655708419136,
                1.175709912062173,
                -1.510249369326212,
                -0.24130185347875396,
                2.134904176521617
            ]
        },
        {
            "positions": [
                -0.2530345967049318,
                -1.1177445147234477,
                1.2697165142969076,
                -1.416721929053416,
                -0.1957354933467111,
                2.2405240694506663
            ]
        },
        {
            "positions": [
                -0.20016726282979336,
                -1.1198234586049818,
                1.3637231165316424,
                -1.3231944887806204,
                -0.15016913321466824,
                2.346143962379715
            ]
        },
        {
            "positions": [
                -0.147299928954655,
                -1.121902402486516,
                1.457729718766377,
                -1.2296670485078245,
                -0.10460277308262539,
                2.4517638553087644
            ]
        },
        {
            "positions": [
                -0.09443259507951657,
                -1.1239813463680501,
                1.5517363210011115,
                -1.1361396082350288,
                -0.05903641295058254,
                2.5573837482378137
            ]
        },
        {
            "positions": [
                -0.041565261204378146,
                -1.1260602902495842,
                1.6457429232358463,
                -1.042612167962233,
                -0.013470052818539635,
                2.663003641166863
            ]
        },
        {
            "positions": [
                0.011302072670760277,
                -1.1281392341311183,
                1.739749525470581,
                -0.9490847276894371,
                0.032096307313503214,
                2.768623534095912
            ]
        },
        {
            "positions": [
                0.06416940654589864,
                -1.1302181780126523,
                1.8337561277053156,
                -0.8555572874166414,
                0.07766266744554606,
                2.8742434270249615
            ]
        },
        {
            "positions": [
                0.11703674042103708,
                -1.1322971218941864,
                1.9277627299400502,
                -0.7620298471438455,
                0.12322902757758895,
                2.9798633199540108
            ]
        },
        {
            "positions": [
                0.12383230228210987,
                -1.1348919394956802,
                1.9647055428779652,
                -0.7486486723054402,
                0.13234293574303646,
                3.0600901843573256
            ]
        }
    ]
}