{
    "goal": {
        "global_pose": {
            "orientation": {
                "w": -0.4816463035849501,
                "x": 0.5182115481033762,
                "y": 0.4908360881923453,
                "z": -0.5084816262002911
            },
            "position": {
                "x": -0.8240239810943604,
                "y": -0.300875300988555,
                "z": 0.16403168439865112
            }
        },
        "name": "move_to_storage_C"
    },
    "id": "EST_move_to_storage_C_80",
    "joint_names": [
        "shoulder_pan_joint",
        "shoulder_lift_joint",
        "elbow_joint",
        "wrist_1_joint",
        "wrist_2_joint",
        "wrist_3_joint"
    ],
    "metrics": {
        "cart_traj_len": 0.5764320273014645,
        "distance_elbow_joint": 0.2567008349892499,
        "distance_shoulder_lift_joint": 0.18965698069725867,
        "distance_shoulder_pan_joint": 0.492940122184387,
        "distance_wrist_1_joint": 0.06680545140369487,
        "distance_wrist_2_joint": 1.0757951691417666,
        "distance_wrist_3_joint": 0.07003530929975188,
        "smoothness": 0.0,
        "time": 0.040670496,
        "traj_len": 1.4669471250580604,
        "weighted_distance": 1.8532687627165882
    },
    "planner": "EST",
    "start": {
        "state": {
            "elbow_joint": 2.010868314990456,
            "shoulder_lift_joint": -1.1634956873337592,
            "shoulder_pan_joint": -2.4736205022346125,
            "wrist_1_joint": -0.8367026794202681,
            "wrist_2_joint": 0.6746043897044499,
            "wrist_3_joint": -3.1496632123970403
        }
    },
    "waypoints": [
        {
            "positions": [
                -2.4736205022346125,
                -1.1634956873337592,
                2.010868314990456,
                -0.8367026794202681,
                0.6746043897044499,
                -3.1496632123970403
            ]
        },
        {
            "positions": [
                -2.555777189265344,
                -1.1318861905508828,
                1.9680848424922475,
                -0.8255684375196523,
                0.853903584561411,
                -3.137990660847082
            ]
        },
        {
            "positions": [
                -2.6379338762960747,
                -1.1002766937680062,
                1.9253013699940391,
                -0.8144341956190365,
                1.0332027794183722,
                -3.126318109297123
            ]
        },
        {
            "positions": [
                -2.720090563326806,
                -1.0686671969851298,
                1.882517897495831,
                -0.8032999537184207,
                1.2125019742753333,
                -3.1146455577471643
            ]
        },
        {
            "positions": [
                -2.8022472503575373,
                -1.0370577002022534,
                1.8397344249976226,
                -0.7921657118178048,
                1.3918011691322945,
                -3.102973006197206
            ]
        },
        {
            "positions": [
                -2.884403937388268,
                -1.005448203419377,
                1.7969509524994143,
                -0.7810314699171891,
                1.5711003639892556,
                -3.091300454647247
            ]
        },
        {
            "positions": [
                -2.9665606244189995,
                -0.9738387066365005,
                1.754167480001206,
                -0.7698972280165732,
                1.7503995588462165,
                -3.0796279030972884
            ]
        }
    ]
}