{
    "goal": {
        "global_pose": {
            "orientation": {
                "w": -0.4816463035849501,
                "x": 0.5182115481033762,
                "y": 0.4908360881923453,
                "z": -0.5084816262002911
            },
            "position": {
                "x": -0.8240239810943604,
                "y": -0.300875300988555,
                "z": 0.16403168439865112
            }
        },
        "name": "move_to_storage_C"
    },
    "id": "EST_move_to_storage_C_15",
    "joint_names": [
        "shoulder_pan_joint",
        "shoulder_lift_joint",
        "elbow_joint",
        "wrist_1_joint",
        "wrist_2_joint",
        "wrist_3_joint"
    ],
    "metrics": {
        "cart_traj_len": 0.5774145219904598,
        "distance_elbow_joint": 0.25963108969771365,
        "distance_shoulder_lift_joint": 0.18997243723361867,
        "distance_shoulder_pan_joint": 0.4940375232261558,
        "distance_wrist_1_joint": 0.07924982584872786,
        "distance_wrist_2_joint": 1.0767193812226061,
        "distance_wrist_3_joint": 0.06824090157141027,
        "smoothness": 2.5376526478085547e-16,
        "time": 0.083687344,
        "traj_len": 1.472362441384672,
        "weighted_distance": 1.8601887455348145
    },
    "planner": "EST",
    "start": {
        "state": {
            "elbow_joint": 2.010868314990456,
            "shoulder_lift_joint": -1.1634956873337592,
            "shoulder_pan_joint": -2.4736205022346125,
            "wrist_1_joint": -0.8367026794202681,
            "wrist_2_joint": 0.6746043897044499,
            "wrist_3_joint": -3.1496632123970403
        }
    },
    "waypoints": [
        {
            "positions": [
                -2.4736205022346125,
                -1.1634956873337592,
                2.010868314990456,
                -0.8367026794202681,
                0.6746043897044499,
                -3.1496632123970403
            ]
        },
        {
            "positions": [
                -2.5559600894389716,
                -1.1318336144614893,
                1.9675964667075037,
                -0.8234943751121468,
                0.8540576199082176,
                -3.138289728801805
            ]
        },
        {
            "positions": [
                -2.638299676643331,
                -1.1001715415892197,
                1.9243246184245513,
                -0.8102860708040255,
                1.0335108501119854,
                -3.12691624520657
            ]
        },
        {
            "positions": [
                -2.7206392638476906,
                -1.0685094687169499,
                1.8810527701415989,
                -0.7970777664959041,
                1.212964080315753,
                -3.1155427616113354
            ]
        },
        {
            "positions": [
                -2.8029788510520497,
                -1.03684739584468,
                1.8377809218586467,
                -0.7838694621877829,
                1.3924173105195208,
                -3.1041692780161
            ]
        },
        {
            "positions": [
                -2.8853184382564088,
                -1.0051853229724104,
                1.7945090735756946,
                -0.7706611578796616,
                1.5718705407232885,
                -3.092795794420865
            ]
        },
        {
            "positions": [
                -2.9676580254607683,
                -0.9735232501001405,
                1.7512372252927422,
                -0.7574528535715402,
                1.751323770927056,
                -3.08142231082563
            ]
        }
    ]
}