{
    "goal": {
        "global_pose": {
            "orientation": {
                "w": 0.005598929693374612,
                "x": 0.007748599140229565,
                "y": 0.7110244013736278,
                "z": -0.7031023480610252
            },
            "position": {
                "x": -0.8858502320852131,
                "y": -0.7141253447532654,
                "z": 0.3711530566215515
            }
        },
        "name": "move_to_auspresseinheit_C"
    },
    "id": "EST_move_to_auspresseinheit_C_80",
    "joint_names": [
        "shoulder_pan_joint",
        "shoulder_lift_joint",
        "elbow_joint",
        "wrist_1_joint",
        "wrist_2_joint",
        "wrist_3_joint"
    ],
    "metrics": {
        "cart_traj_len": 0.4926021906184631,
        "distance_elbow_joint": 0.998239369960198,
        "distance_shoulder_lift_joint": 0.3242213397698137,
        "distance_shoulder_pan_joint": 0.256494467623146,
        "distance_wrist_1_joint": 0.6808462289223218,
        "distance_wrist_2_joint": 1.3057845465630527,
        "distance_wrist_3_joint": 0.054511679099181976,
        "smoothness": 3.2297397080004555e-16,
        "time": 1.016218383,
        "traj_len": 1.902655415974662,
        "weighted_distance": 2.3907638456404374
    },
    "planner": "EST",
    "start": {
        "state": {
            "elbow_joint": 1.7527959577737207,
            "shoulder_lift_joint": -0.9740617694225068,
            "shoulder_pan_joint": -2.967991417825858,
            "wrist_1_joint": -0.759517768980727,
            "wrist_2_joint": 1.7443932448377408,
            "wrist_3_joint": -3.0840537646736568
        }
    },
    "waypoints": [
        {
            "positions": [
                -2.967991417825858,
                -0.9740617694225068,
                1.7527959577737207,
                -0.759517768980727,
                1.7443932448377408,
                -3.0840537646736568
            ]
        },
        {
            "positions": [
                -2.9423419710635432,
                -0.9416396354455254,
                1.6529720207777008,
                -0.6914331460884948,
                1.6138147901814355,
                -3.089504932583575
            ]
        },
        {
            "positions": [
                -2.916692524301229,
                -0.9092175014685441,
                1.5531480837816811,
                -0.6233485231962625,
                1.4832363355251303,
                -3.0949561004934933
            ]
        },
        {
            "positions": [
                -2.891043077538914,
                -0.8767953674915626,
                1.4533241467856612,
                -0.5552639003040305,
                1.352657880868825,
                -3.100407268403411
            ]
        },
        {
            "positions": [
                -2.8653936307765995,
                -0.8443732335145813,
                1.3535002097896414,
                -0.48717927741179823,
                1.2220794262125199,
                -3.1058584363133295
            ]
        },
        {
            "positions": [
                -2.839744184014285,
                -0.8119510995375999,
                1.2536762727936217,
                -0.41909465451956607,
                1.0915009715562145,
                -3.1113096042232478
            ]
        },
        {
            "positions": [
                -2.8140947372519705,
                -0.7795289655606186,
                1.1538523357976018,
                -0.3510100316273339,
                0.9609225168999093,
                -3.116760772133166
            ]
        },
        {
            "positions": [
                -2.7884452904896557,
                -0.7471068315836372,
                1.0540283988015822,
                -0.28292540873510175,
                0.830344062243604,
                -3.1222119400430843
            ]
        },
        {
            "positions": [
                -2.762795843727341,
                -0.7146846976066559,
                0.9542044618055622,
                -0.21484078584286947,
                0.6997656075872987,
                -3.127663107953002
            ]
        },
        {
            "positions": [
                -2.7371463969650267,
                -0.6822625636296744,
                0.8543805248095424,
                -0.14675616295063731,
                0.5691871529309933,
                -3.1331142758629205
            ]
        },
        {
            "positions": [
                -2.711496950202712,
                -0.6498404296526931,
                0.7545565878135226,
                -0.07867154005840514,
                0.43860869827468824,
                -3.1385654437728387
            ]
        }
    ]
}