{
    "goal": {
        "global_pose": {
            "orientation": {
                "w": 0.005598929693374612,
                "x": 0.007748599140229565,
                "y": 0.7110244013736278,
                "z": -0.7031023480610252
            },
            "position": {
                "x": -0.8858502320852131,
                "y": -0.7141253447532654,
                "z": 0.3711530566215515
            }
        },
        "name": "move_to_auspresseinheit_C"
    },
    "id": "EST_move_to_auspresseinheit_C_138",
    "joint_names": [
        "shoulder_pan_joint",
        "shoulder_lift_joint",
        "elbow_joint",
        "wrist_1_joint",
        "wrist_2_joint",
        "wrist_3_joint"
    ],
    "metrics": {
        "cart_traj_len": 0.4935169621826836,
        "distance_elbow_joint": 1.0158451427808344,
        "distance_shoulder_lift_joint": 0.3326583702476166,
        "distance_shoulder_pan_joint": 0.255480548621553,
        "distance_wrist_1_joint": 0.7088942708645305,
        "distance_wrist_2_joint": 1.3183661314697601,
        "distance_wrist_3_joint": 0.07147931807820784,
        "smoothness": 9.689219175149503e-16,
        "time": 1.213975567,
        "traj_len": 1.9242462893461696,
        "weighted_distance": 2.4234155278352927
    },
    "planner": "EST",
    "start": {
        "state": {
            "elbow_joint": 1.7527959577737207,
            "shoulder_lift_joint": -0.9740617694225068,
            "shoulder_pan_joint": -2.967991417825858,
            "wrist_1_joint": -0.759517768980727,
            "wrist_2_joint": 1.7443932448377408,
            "wrist_3_joint": -3.0840537646736568
        }
    },
    "waypoints": [
        {
            "positions": [
                -2.967991417825858,
                -0.9740617694225068,
                1.7527959577737207,
                -0.759517768980727,
                1.7443932448377408,
                -3.0840537646736568
            ]
        },
        {
            "positions": [
                -2.9424433629637026,
                -0.9407959323977451,
                1.6512114434956373,
                -0.6886283418942739,
                1.612556631690765,
                -3.0912016964814777
            ]
        },
        {
            "positions": [
                -2.916895308101547,
                -0.9075300953729835,
                1.5496269292175537,
                -0.6177389148078208,
                1.4807200185437888,
                -3.098349628289298
            ]
        },
        {
            "positions": [
                -2.8913472532393922,
                -0.8742642583482219,
                1.4480424149394704,
                -0.5468494877213679,
                1.3488834053968128,
                -3.105497560097119
            ]
        },
        {
            "positions": [
                -2.865799198377237,
                -0.8409984213234601,
                1.3464579006613868,
                -0.47596006063491475,
                1.2170467922498367,
                -3.11264549190494
            ]
        },
        {
            "positions": [
                -2.8402511435150815,
                -0.8077325842986984,
                1.2448733863833035,
                -0.40507063354846173,
                1.0852101791028608,
                -3.1197934237127605
            ]
        },
        {
            "positions": [
                -2.814703088652926,
                -0.7744667472739368,
                1.1432888721052201,
                -0.3341812064620087,
                0.9533735659558847,
                -3.1269413555205814
            ]
        },
        {
            "positions": [
                -2.7891550337907707,
                -0.7412009102491752,
                1.0417043578271366,
                -0.26329177937555565,
                0.8215369528089088,
                -3.1340892873284023
            ]
        },
        {
            "positions": [
                -2.7636069789286157,
                -0.7079350732244135,
                0.9401198435490531,
                -0.19240235228910252,
                0.6897003396619328,
                -3.1412372191362232
            ]
        },
        {
            "positions": [
                -2.7380589240664603,
                -0.6746692361996518,
                0.8385353292709697,
                -0.12151292520264956,
                0.5578637265149566,
                -3.1483851509440437
            ]
        },
        {
            "positions": [
                -2.712510869204305,
                -0.6414033991748902,
                0.7369508149928862,
                -0.050623498116196534,
                0.4260271133679806,
                -3.1555330827518646
            ]
        }
    ]
}