{
    "goal": {
        "global_pose": {
            "orientation": {
                "w": 0.7047431493862688,
                "x": -0.7094548369677653,
                "y": 0.0024358444001904,
                "z": -0.0022348060817251984
            },
            "position": {
                "x": -0.39052492380142206,
                "y": 0.3671506643295288,
                "z": 0.19426114857196808
            }
        },
        "name": "move_to_magneteinheit_D"
    },
    "id": "EST_move_to_magneteinheit_D_144",
    "joint_names": [
        "shoulder_pan_joint",
        "shoulder_lift_joint",
        "elbow_joint",
        "wrist_1_joint",
        "wrist_2_joint",
        "wrist_3_joint"
    ],
    "metrics": {
        "cart_traj_len": 4.277686578306973,
        "distance_elbow_joint": 3.638684289188665,
        "distance_shoulder_lift_joint": 1.098809266786635,
        "distance_shoulder_pan_joint": 3.0111660951501755,
        "distance_wrist_1_joint": 2.110661135237883,
        "distance_wrist_2_joint": 4.171238827851783,
        "distance_wrist_3_joint": 5.606342732072571,
        "smoothness": 0.3075301368709543,
        "time": 0.441271838,
        "traj_len": 4.431354459562868,
        "weighted_distance": 6.09356117336345
    },
    "planner": "EST",
    "start": {
        "state": {
            "elbow_joint": 0.749534889911806,
            "shoulder_lift_joint": -0.6476975780787326,
            "shoulder_pan_joint": -2.711696901376241,
            "wrist_1_joint": -0.07506478083263063,
            "wrist_2_joint": 0.43296659715538205,
            "wrist_3_joint": -3.14703540197715
        }
    },
    "waypoints": [
        {
            "positions": [
                -2.711696901376241,
                -0.6476975780787326,
                0.749534889911806,
                -0.07506478083263063,
                0.43296659715538205,
                -3.14703540197715
            ]
        },
        {
            "positions": [
                -2.706338630697793,
                -0.6748574991656042,
                0.7746410064541701,
                -0.0986433102268371,
                0.3219509108225329,
                -3.0023929550019495
            ]
        },
        {
            "positions": [
                -2.7009803600193445,
                -0.7020174202524759,
                0.7997471229965343,
                -0.12222183962104358,
                0.21093522448968374,
                -2.857750508026749
            ]
        },
        {
            "positions": [
                -2.6956220893408966,
                -0.7291773413393476,
                0.8248532395388984,
                -0.14580036901525006,
                0.09991953815683458,
                -2.7131080610515483
            ]
        },
        {
            "positions": [
                -2.6902638186624483,
                -0.7563372624262192,
                0.8499593560812626,
                -0.16937889840945652,
                -0.011096148176014564,
                -2.5684656140763478
            ]
        },
        {
            "positions": [
                -2.675672419506685,
                -0.7860165165962972,
                0.8649049363836728,
                -0.1959963511529083,
                -0.13119124849019936,
                -2.4043239669289833
            ]
        },
        {
            "positions": [
                -2.661081020350921,
                -0.8156957707663753,
                0.879850516686083,
                -0.22261380389636007,
                -0.25128634880438416,
                -2.2401823197816193
            ]
        },
        {
            "positions": [
                -2.646489621195158,
                -0.8453750249364533,
                0.8947960969884933,
                -0.24923125663981183,
                -0.37138144911856885,
                -2.076040672634255
            ]
        },
        {
            "positions": [
                -2.6318982220393945,
                -0.8750542791065313,
                0.9097416772909035,
                -0.2758487093832636,
                -0.4914765494327537,
                -1.9118990254868904
            ]
        },
        {
            "positions": [
                -2.617306822883631,
                -0.9047335332766093,
                0.9246872575933137,
                -0.3024661621267154,
                -0.6115716497469385,
                -1.7477573783395264
            ]
        },
        {
            "positions": [
                -2.6027154237278673,
                -0.9344127874466874,
                0.9396328378957239,
                -0.32908361487016713,
                -0.7316667500611231,
                -1.583615731192162
            ]
        },
        {
            "positions": [
                -2.588124024572104,
                -0.9640920416167654,
                0.9545784181981343,
                -0.3557010676136189,
                -0.851761850375308,
                -1.4194740840447977
            ]
        },
        {
            "positions": [
                -2.5735326254163406,
                -0.9937712957868434,
                0.9695239985005445,
                -0.3823185203570707,
                -0.9718569506894928,
                -1.2553324368974332
            ]
        },
        {
            "positions": [
                -2.5589412262605773,
                -1.0234505499569215,
                0.9844695788029547,
                -0.4089359731005225,
                -1.0919520510036775,
                -1.0911907897500688
            ]
        },
        {
            "positions": [
                -2.5443498271048135,
                -1.0531298041269994,
                0.9994151591053649,
                -0.4355534258439742,
                -1.2120471513178623,
                -0.9270491426027048
            ]
        },
        {
            "positions": [
                -2.52975842794905,
                -1.0828090582970775,
                1.0143607394077752,
                -0.462170878587426,
                -1.3321422516320471,
                -0.7629074954553403
            ]
        },
        {
            "positions": [
                -2.480253828070672,
                -1.1037686385547703,
                0.968873836120085,
                -0.48479034006936267,
                -1.4114870310135634,
                -0.619698115386059
            ]
        },
        {
            "positions": [
                -2.430749228192294,
                -1.124728218812463,
                0.9233869328323949,
                -0.5074098015512993,
                -1.4908318103950797,
                -0.4764887353167777
            ]
        },
        {
            "positions": [
                -2.3812446283139157,
                -1.1456877990701557,
                0.8779000295447048,
                -0.530029263033236,
                -1.570176589776596,
                -0.33327935524749636
            ]
        },
        {
            "positions": [
                -2.2806347188993685,
                -1.16159532145604,
                0.7776181668824863,
                -0.5897437967047136,
                -1.492514557425083,
                -0.3676673620784366
            ]
        },
        {
            "positions": [
                -2.180024809484822,
                -1.1775028438419242,
                0.6773363042202679,
                -0.6494583303761912,
                -1.4148525250735704,
                -0.4020553689093769
            ]
        },
        {
            "positions": [
                -2.079414900070275,
                -1.1934103662278084,
                0.5770544415580494,
                -0.7091728640476687,
                -1.3371904927220575,
                -0.4364433757403171
            ]
        },
        {
            "positions": [
                -1.978804990655728,
                -1.2093178886136928,
                0.47677257889583097,
                -0.7688873977191462,
                -1.2595284603705446,
                -0.47083138257125734
            ]
        },
        {
            "positions": [
                -1.878195081241181,
                -1.225225410999577,
                0.3764907162336125,
                -0.8286019313906237,
                -1.1818664280190316,
                -0.5052193894021976
            ]
        },
        {
            "positions": [
                -1.777585171826634,
                -1.2411329333854613,
                0.276208853571394,
                -0.8883164650621012,
                -1.104204395667519,
                -0.5396073962331378
            ]
        },
        {
            "positions": [
                -1.676975262412087,
                -1.2570404557713455,
                0.17592699090917552,
                -0.9480309987335788,
                -1.026542363316006,
                -0.5739954030640781
            ]
        },
        {
            "positions": [
                -1.57636535299754,
                -1.2729479781572297,
                0.07564512824695713,
                -1.0077455324050564,
                -0.9488803309644932,
                -0.6083834098950183
            ]
        },
        {
            "positions": [
                -1.4757554435829932,
                -1.288855500543114,
                -0.024636734415261374,
                -1.0674600660765339,
                -0.8712182986129803,
                -0.6427714167259586
            ]
        },
        {
            "positions": [
                -1.3751455341684462,
                -1.3047630229289982,
                -0.12491859707747976,
                -1.1271745997480114,
                -0.7935562662614675,
                -0.6771594235568988
            ]
        },
        {
            "positions": [
                -1.274535624753899,
                -1.3206705453148826,
                -0.22520045973969838,
                -1.186889133419489,
                -0.7158942339099544,
                -0.7115474303878391
            ]
        },
        {
            "positions": [
                -1.1739257153393523,
                -1.3365780677007668,
                -0.32548232240191677,
                -1.2466036670909664,
                -0.6382322015584417,
                -0.7459354372187793
            ]
        },
        {
            "positions": [
                -1.0733158059248051,
                -1.352485590086651,
                -0.4257641850641354,
                -1.306318200762444,
                -0.5605701692069287,
                -0.7803234440497195
            ]
        },
        {
            "positions": [
                -0.9727058965102584,
                -1.3683931124725353,
                -0.5260460477263538,
                -1.3660327344339214,
                -0.482908136855416,
                -0.8147114508806599
            ]
        },
        {
            "positions": [
                -0.8720959870957112,
                -1.3843006348584195,
                -0.6263279103885724,
                -1.425747268105399,
                -0.4052461045039031,
                -0.8490994577116
            ]
        },
        {
            "positions": [
                -0.7714860776811645,
                -1.400208157244304,
                -0.7266097730507906,
                -1.4854618017768766,
                -0.3275840721523904,
                -0.8834874645425403
            ]
        },
        {
            "positions": [
                -0.6708761682666173,
                -1.4161156796301881,
                -0.8268916357130092,
                -1.545176335448354,
                -0.24992203980087724,
                -0.9178754713734807
            ]
        },
        {
            "positions": [
                -0.5702662588520706,
                -1.4320232020160724,
                -0.9271734983752276,
                -1.6048908691198318,
                -0.17226000744936454,
                -0.9522634782044208
            ]
        },
        {
            "positions": [
                -0.4696563494375233,
                -1.4479307244019566,
                -1.0274553610374462,
                -1.664605402791309,
                -0.0945979750978515,
                -0.9866514850353612
            ]
        },
        {
            "positions": [
                -0.4169091727782687,
                -1.4669377027854957,
                -1.13897759620549,
                -1.7086858593785605,
                -0.06374454354064181,
                -1.1129547443570817
            ]
        },
        {
            "positions": [
                -0.3641619961190141,
                -1.4859446811690349,
                -1.2504998313735336,
                -1.752766315965812,
                -0.032891111983432114,
                -1.2392580036788026
            ]
        },
        {
            "positions": [
                -0.31141481945975946,
                -1.504951659552574,
                -1.3620220665415772,
                -1.7968467725530637,
                -0.0020376804262224324,
                -1.3655612630005232
            ]
        },
        {
            "positions": [
                -0.25866764280050486,
                -1.5239586379361132,
                -1.473544301709621,
                -1.8409272291403151,
                0.028815751130987277,
                -1.4918645223222438
            ]
        },
        {
            "positions": [
                -0.20592046614125026,
                -1.5429656163196523,
                -1.5850665368776649,
                -1.8850076857275666,
                0.05966918268819696,
                -1.6181677816439644
            ]
        },
        {
            "positions": [
                -0.15317328948199566,
                -1.5619725947031913,
                -1.6965887720457085,
                -1.929088142314818,
                0.09052261424540664,
                -1.744471040965685
            ]
        },
        {
            "positions": [
                -0.10042611282274105,
                -1.5809795730867304,
                -1.808111007213752,
                -1.9731685989020695,
                0.12137604580261632,
                -1.8707743002874058
            ]
        },
        {
            "positions": [
                -0.047678936163486396,
                -1.5999865514702696,
                -1.919633242381796,
                -2.017249055489321,
                0.15222947735982606,
                -1.9970775596091266
            ]
        },
        {
            "positions": [
                0.005068240495768206,
                -1.6189935298538087,
                -2.0311554775498397,
                -2.0613295120765724,
                0.1830829089170357,
                -2.123380818930847
            ]
        },
        {
            "positions": [
                0.05781541715502278,
                -1.6380005082373479,
                -2.1426777127178833,
                -2.105409968663824,
                0.21393634047424542,
                -2.2496840782525678
            ]
        },
        {
            "positions": [
                0.044330410261641355,
                -1.651599956466462,
                -2.1841891766314365,
                -2.1269906154671734,
                0.18271199967255974,
                -2.351971057498722
            ]
        },
        {
            "positions": [
                0.030845403368259933,
                -1.6651994046955765,
                -2.2257006405449893,
                -2.148571262270523,
                0.15148765887087406,
                -2.4542580367448767
            ]
        },
        {
            "positions": [
                -0.02282553733977744,
                -1.6855262647380242,
                -2.259149905479972,
                -2.157859925720521,
                0.07110415160447509,
                -2.6221600377062617
            ]
        },
        {
            "positions": [
                -0.07649647804781481,
                -1.705853124780472,
                -2.292599170414955,
                -2.1671485891705187,
                -0.009279355661923894,
                -2.7900620386676467
            ]
        },
        {
            "positions": [
                -0.13016741875585217,
                -1.7261799848229198,
                -2.3260484353499375,
                -2.176437252620516,
                -0.08966286292832287,
                -2.957964039629032
            ]
        },
        {
            "positions": [
                -0.18383835946388954,
                -1.7465068448653676,
                -2.3594977002849205,
                -2.185725916070514,
                -0.17004637019472182,
                -3.125866040590417
            ]
        }
    ]
}