{
    "goal": {
        "global_pose": {
            "orientation": {
                "w": 0.7031023480610252,
                "x": -0.7110244013736278,
                "y": 0.0077485991402295624,
                "z": 0.005598929693374583
            },
            "position": {
                "x": -0.8841497679147869,
                "y": 0.44412534475326537,
                "z": 0.3711530566215515
            }
        },
        "name": "move_to_auspresseinheit_D"
    },
    "id": "EST_move_to_auspresseinheit_D_71",
    "joint_names": [
        "shoulder_pan_joint",
        "shoulder_lift_joint",
        "elbow_joint",
        "wrist_1_joint",
        "wrist_2_joint",
        "wrist_3_joint"
    ],
    "metrics": {
        "cart_traj_len": 0.34425327724758237,
        "distance_elbow_joint": 0.6631325319729109,
        "distance_shoulder_lift_joint": 0.13561769261993328,
        "distance_shoulder_pan_joint": 0.13396029891732536,
        "distance_wrist_1_joint": 0.6082301997467958,
        "distance_wrist_2_joint": 1.4441491779956268,
        "distance_wrist_3_joint": 0.07340213463655276,
        "smoothness": 1.7763568427574094e-15,
        "time": 0.13956716,
        "traj_len": 1.7488544924861944,
        "weighted_distance": 2.292962207038021
    },
    "planner": "EST",
    "start": {
        "state": {
            "elbow_joint": -1.8275523626775212,
            "shoulder_lift_joint": -2.126789852344167,
            "shoulder_pan_joint": -0.03513704404078235,
            "wrist_1_joint": -2.347782403156801,
            "wrist_2_joint": -1.6058999987535132,
            "wrist_3_joint": -3.0880379163319196
        }
    },
    "waypoints": [
        {
            "positions": [
                -0.03513704404078235,
                -2.126789852344167,
                -1.8275523626775212,
                -2.347782403156801,
                -1.6058999987535132,
                -3.0880379163319196
            ]
        },
        {
            "positions": [
                -0.05188208140544802,
                -2.1437420639216587,
                -1.7446607961809073,
                -2.4238111781251503,
                -1.4253813515040599,
                -3.0788626495023506
            ]
        },
        {
            "positions": [
                -0.06862711877011368,
                -2.16069427549915,
                -1.6617692296842934,
                -2.4998399530935,
                -1.2448627042546065,
                -3.0696873826727815
            ]
        },
        {
            "positions": [
                -0.08537215613477936,
                -2.177646487076642,
                -1.5788776631876795,
                -2.5758687280618493,
                -1.0643440570051532,
                -3.0605121158432125
            ]
        },
        {
            "positions": [
                -0.10211719349944504,
                -2.1945986986541337,
                -1.4959860966910656,
                -2.6518975030301988,
                -0.8838254097556998,
                -3.0513368490136434
            ]
        },
        {
            "positions": [
                -0.11886223086411071,
                -2.211550910231625,
                -1.413094530194452,
                -2.7279262779985483,
                -0.7033067625062465,
                -3.042161582184074
            ]
        },
        {
            "positions": [
                -0.13560726822877636,
                -2.228503121809117,
                -1.330202963697838,
                -2.8039550529668977,
                -0.522788115256793,
                -3.032986315354505
            ]
        },
        {
            "positions": [
                -0.15235230559344204,
                -2.2454553333866083,
                -1.2473113972012242,
                -2.879983827935247,
                -0.3422694680073397,
                -3.023811048524936
            ]
        },
        {
            "positions": [
                -0.16909734295810772,
                -2.2624075449641,
                -1.1644198307046103,
                -2.9560126029035967,
                -0.16175082075788647,
                -3.014635781695367
            ]
        }
    ]
}