{
    "goal": {
        "global_pose": {
            "orientation": {
                "w": 0.7031023502349854,
                "x": -0.7110244035720825,
                "y": 0.007748599164187908,
                "z": 0.005598929710686207
            },
            "position": {
                "x": 0.11585023208521307,
                "y": 0.44412534475326537,
                "z": 0.3711530566215515
            }
        },
        "name": "move_to_auspresseinheit_A"
    },
    "id": "EST_move_to_auspresseinheit_A_97",
    "joint_names": [
        "shoulder_pan_joint",
        "shoulder_lift_joint",
        "elbow_joint",
        "wrist_1_joint",
        "wrist_2_joint",
        "wrist_3_joint"
    ],
    "metrics": {
        "cart_traj_len": 3.0829472287161073,
        "distance_elbow_joint": 3.624323376249993,
        "distance_shoulder_lift_joint": 0.9833828930487862,
        "distance_shoulder_pan_joint": 3.5700115529601493,
        "distance_wrist_1_joint": 5.345901611872969,
        "distance_wrist_2_joint": 2.5842243495183657,
        "distance_wrist_3_joint": 3.916467499727705,
        "smoothness": 0.6377575457665806,
        "time": 0.47130705900000003,
        "traj_len": 4.474853213612485,
        "weighted_distance": 5.982254779280527
    },
    "planner": "EST",
    "start": {
        "state": {
            "elbow_joint": 2.4225746658250005,
            "shoulder_lift_joint": -1.3736534386056498,
            "shoulder_pan_joint": -0.3378633547517467,
            "wrist_1_joint": -1.0288598680537169,
            "wrist_2_joint": 1.233022673432363,
            "wrist_3_joint": -3.0940220416140027
        }
    },
    "waypoints": [
        {
            "positions": [
                -0.3378633547517467,
                -1.3736534386056498,
                2.4225746658250005,
                -1.0288598680537169,
                1.233022673432363,
                -3.0940220416140027
            ]
        },
        {
            "positions": [
                -0.3444472944786902,
                -1.3870827150369385,
                2.3241029317956574,
                -0.9093784025726296,
                1.1637005749060896,
                -3.025240120688074
            ]
        },
        {
            "positions": [
                -0.35103123420563365,
                -1.4005119914682274,
                2.225631197766315,
                -0.7898969370915423,
                1.0943784763798161,
                -2.956458199762145
            ]
        },
        {
            "positions": [
                -0.35761517393257714,
                -1.413941267899516,
                2.127159463736972,
                -0.6704154716104551,
                1.0250563778535426,
                -2.8876762788362167
            ]
        },
        {
            "positions": [
                -0.36419911365952057,
                -1.427370544330805,
                2.028687729707629,
                -0.5509340061293678,
                0.9557342793272692,
                -2.818894357910288
            ]
        },
        {
            "positions": [
                -0.37078305338646406,
                -1.4407998207620936,
                1.9302159956782863,
                -0.43145254064828054,
                0.8864121808009957,
                -2.750112436984359
            ]
        },
        {
            "positions": [
                -0.3773669931134075,
                -1.4542290971933824,
                1.8317442616489434,
                -0.31197107516719325,
                0.8170900822747222,
                -2.68133051605843
            ]
        },
        {
            "positions": [
                -0.383950932840351,
                -1.467658373624671,
                1.7332725276196006,
                -0.19248960968610607,
                0.7477679837484488,
                -2.612548595132502
            ]
        },
        {
            "positions": [
                -0.3905348725672944,
                -1.48108765005596,
                1.6348007935902578,
                -0.07300814420501878,
                0.6784458852221753,
                -2.543766674206573
            ]
        },
        {
            "positions": [
                -0.3971188122942379,
                -1.4945169264872487,
                1.536329059560915,
                0.046473321276068624,
                0.6091237866959018,
                -2.474984753280644
            ]
        },
        {
            "positions": [
                -0.40370275202118133,
                -1.5079462029185375,
                1.437857325531572,
                0.1659547867571558,
                0.5398016881696284,
                -2.4062028323547153
            ]
        },
        {
            "positions": [
                -0.4102866917481248,
                -1.5213754793498262,
                1.3393855915022292,
                0.2854362522382432,
                0.4704795896433549,
                -2.3374209114287865
            ]
        },
        {
            "positions": [
                -0.4168706314750683,
                -1.534804755781115,
                1.2409138574728864,
                0.4049177177193304,
                0.40115749111708143,
                -2.2686389905028577
            ]
        },
        {
            "positions": [
                -0.42345457120201174,
                -1.5482340322124037,
                1.1424421234435436,
                0.5243991832004176,
                0.3318353925908081,
                -2.1998570695769293
            ]
        },
        {
            "positions": [
                -0.4300385109289552,
                -1.5616633086436926,
                1.0439703894142007,
                0.6438806486815047,
                0.2625132940645345,
                -2.1310751486510005
            ]
        },
        {
            "positions": [
                -0.43662245065589866,
                -1.5750925850749813,
                0.9454986553848579,
                0.7633621141625921,
                0.19319119553826103,
                -2.0622932277250716
            ]
        },
        {
            "positions": [
                -0.44320639038284215,
                -1.58852186150627,
                0.847026921355515,
                0.8828435796436793,
                0.12386909701198756,
                -1.993511306799143
            ]
        },
        {
            "positions": [
                -0.4497903301097856,
                -1.6019511379375588,
                0.7485551873261722,
                1.0023250451247667,
                0.05454699848571402,
                -1.9247293858732142
            ]
        },
        {
            "positions": [
                -0.5320366214364539,
                -1.585890613996358,
                0.8768682325935063,
                1.0685571496217972,
                0.027373774411944225,
                -1.8703357752727625
            ]
        },
        {
            "positions": [
                -0.6142829127631222,
                -1.5698300900551572,
                1.0051812778608404,
                1.1347892541188276,
                0.00020055033817443363,
                -1.8159421646723108
            ]
        },
        {
            "positions": [
                -0.6965292040897906,
                -1.5537695661139563,
                1.1334943231281747,
                1.201021358615858,
                -0.026972673735595358,
                -1.7615485540718594
            ]
        },
        {
            "positions": [
                -0.778775495416459,
                -1.5377090421727555,
                1.2618073683955089,
                1.2672534631128884,
                -0.05414589780936515,
                -1.7071549434714077
            ]
        },
        {
            "positions": [
                -0.8610217867431273,
                -1.5216485182315547,
                1.3901204136628431,
                1.3334855676099189,
                -0.08131912188313495,
                -1.652761332870956
            ]
        },
        {
            "positions": [
                -0.9432680780697955,
                -1.5055879942903538,
                1.518433458930177,
                1.399717672106949,
                -0.10849234595690474,
                -1.5983677222705044
            ]
        },
        {
            "positions": [
                -1.025514369396464,
                -1.4895274703491532,
                1.6467465041975111,
                1.4659497766039795,
                -0.13566557003067453,
                -1.5439741116700527
            ]
        },
        {
            "positions": [
                -1.1077606607231323,
                -1.4734669464079524,
                1.7750595494648453,
                1.53218188110101,
                -0.16283879410444432,
                -1.4895805010696013
            ]
        },
        {
            "positions": [
                -1.1900069520498007,
                -1.4574064224667516,
                1.9033725947321796,
                1.5984139855980404,
                -0.19001201817821414,
                -1.4351868904691496
            ]
        },
        {
            "positions": [
                -1.272253243376469,
                -1.4413458985255507,
                2.031685639999514,
                1.6646460900950708,
                -0.2171852422519839,
                -1.380793279868698
            ]
        },
        {
            "positions": [
                -1.3544995347031372,
                -1.42528537458435,
                2.1599986852668476,
                1.7308781945921012,
                -0.24435846632575367,
                -1.3263996692682465
            ]
        },
        {
            "positions": [
                -1.4367458260298056,
                -1.409224850643149,
                2.288311730534182,
                1.7971102990891317,
                -0.27153169039952346,
                -1.2720060586677948
            ]
        },
        {
            "positions": [
                -1.518992117356474,
                -1.3931643267019482,
                2.416624775801516,
                1.863342403586162,
                -0.2987049144732933,
                -1.2176124480673431
            ]
        },
        {
            "positions": [
                -1.6012384086831424,
                -1.3771038027607474,
                2.5449378210688502,
                1.9295745080831925,
                -0.32587813854706305,
                -1.1632188374668915
            ]
        },
        {
            "positions": [
                -1.4963912950909262,
                -1.4012055236034777,
                2.5379413999775555,
                1.8210532700951898,
                -0.2792725232043839,
                -1.2534763054478275
            ]
        },
        {
            "positions": [
                -1.3915441814987102,
                -1.4253072444462078,
                2.5309449788862604,
                1.712532032107187,
                -0.23266690786170474,
                -1.3437337734287635
            ]
        },
        {
            "positions": [
                -1.286697067906494,
                -1.4494089652889381,
                2.5239485577949656,
                1.6040107941191843,
                -0.1860612925190256,
                -1.4339912414096996
            ]
        },
        {
            "positions": [
                -1.181849954314278,
                -1.4735106861316685,
                2.516952136703671,
                1.4954895561311816,
                -0.13945567717634644,
                -1.5242487093906358
            ]
        },
        {
            "positions": [
                -1.077002840722062,
                -1.4976124069743988,
                2.509955715612376,
                1.386968318143179,
                -0.09285006183366729,
                -1.6145061773715719
            ]
        },
        {
            "positions": [
                -0.9721557271298458,
                -1.521714127817129,
                2.502959294521081,
                1.2784470801551762,
                -0.046244446490988134,
                -1.704763645352508
            ]
        },
        {
            "positions": [
                -0.8673086135376296,
                -1.5458158486598592,
                2.4959628734297863,
                1.1699258421671734,
                0.0003611688516910183,
                -1.795021113333444
            ]
        },
        {
            "positions": [
                -0.7624614999454135,
                -1.5699175695025895,
                2.4889664523384916,
                1.0614046041791705,
                0.04696678419437017,
                -1.8852785813143802
            ]
        },
        {
            "positions": [
                -0.6576143863531974,
                -1.5940192903453199,
                2.481970031247197,
                0.9528833661911678,
                0.09357239953704932,
                -1.9755360492953162
            ]
        },
        {
            "positions": [
                -0.5527672727609814,
                -1.61812101118805,
                2.4749736101559017,
                0.844362128203165,
                0.14017801487972847,
                -2.0657935172762523
            ]
        },
        {
            "positions": [
                -0.44792015916876515,
                -1.6422227320307803,
                2.467977189064607,
                0.7358408902151623,
                0.18678363022240763,
                -2.1560509852571883
            ]
        },
        {
            "positions": [
                -0.34307304557654916,
                -1.6663244528735106,
                2.4609807679733122,
                0.6273196522271596,
                0.23338924556508678,
                -2.2463084532381243
            ]
        },
        {
            "positions": [
                -0.23822593198433295,
                -1.690426173716241,
                2.453984346882017,
                0.5187984142391566,
                0.27999486090776593,
                -2.3365659212190604
            ]
        },
        {
            "positions": [
                -0.13337881839211674,
                -1.714527894558971,
                2.4469879257907223,
                0.4102771762511541,
                0.3266004762504451,
                -2.4268233891999964
            ]
        },
        {
            "positions": [
                -0.028531704799900748,
                -1.7386296154017014,
                2.4399915046994276,
                0.3017559382631514,
                0.37320609159312423,
                -2.5170808571809324
            ]
        },
        {
            "positions": [
                0.07631540879231546,
                -1.7627313362444317,
                2.432995083608133,
                0.19323470027514844,
                0.4198117069358034,
                -2.6073383251618685
            ]
        },
        {
            "positions": [
                0.18116252238453145,
                -1.7868330570871618,
                2.4259986625168377,
                0.08471346228714594,
                0.46641732227848254,
                -2.6975957931428045
            ]
        },
        {
            "positions": [
                0.28600963597674767,
                -1.810934777929892,
                2.419002241425543,
                -0.023807775700857015,
                0.5130229376211617,
                -2.787853261123741
            ]
        },
        {
            "positions": [
                0.39085674956896366,
                -1.8350364987726224,
                2.4120058203342483,
                -0.13232901368885974,
                0.5596285529638408,
                -2.878110729104677
            ]
        },
        {
            "positions": [
                0.49570386316117965,
                -1.8591382196153527,
                2.4050093992429535,
                -0.24085025167686247,
                0.60623416830652,
                -2.9683681970856126
            ]
        },
        {
            "positions": [
                0.6005509767533961,
                -1.883239940458083,
                2.3980129781516584,
                -0.3493714896648652,
                0.6528397836491991,
                -3.058625665066549
            ]
        },
        {
            "positions": [
                0.7053980903456121,
                -1.9073416613008132,
                2.3910165570603636,
                -0.4578927276528681,
                0.6994453989918783,
                -3.148883133047485
            ]
        }
    ]
}