{
    "goal": {
        "global_pose": {
            "orientation": {
                "w": 0.7031023480610252,
                "x": -0.7110244013736278,
                "y": 0.0077485991402295624,
                "z": 0.005598929693374583
            },
            "position": {
                "x": -0.8841497679147869,
                "y": 0.44412534475326537,
                "z": 0.3711530566215515
            }
        },
        "name": "move_to_auspresseinheit_D"
    },
    "id": "EST_move_to_auspresseinheit_D_64",
    "joint_names": [
        "shoulder_pan_joint",
        "shoulder_lift_joint",
        "elbow_joint",
        "wrist_1_joint",
        "wrist_2_joint",
        "wrist_3_joint"
    ],
    "metrics": {
        "cart_traj_len": 0.342730453808775,
        "distance_elbow_joint": 0.6415731030796044,
        "distance_shoulder_lift_joint": 0.12345576486337251,
        "distance_shoulder_pan_joint": 0.1331473007906769,
        "distance_wrist_1_joint": 0.5384125530756885,
        "distance_wrist_2_joint": 1.442044992136585,
        "distance_wrist_3_joint": 0.012342206323754379,
        "smoothness": 3.947459674368863e-16,
        "time": 0.13928788,
        "traj_len": 1.7002870111453778,
        "weighted_distance": 2.212717306419748
    },
    "planner": "EST",
    "start": {
        "state": {
            "elbow_joint": -1.8275523626775212,
            "shoulder_lift_joint": -2.126789852344167,
            "shoulder_pan_joint": -0.03513704404078235,
            "wrist_1_joint": -2.347782403156801,
            "wrist_2_joint": -1.6058999987535132,
            "wrist_3_joint": -3.0880379163319196
        }
    },
    "waypoints": [
        {
            "positions": [
                -0.03513704404078235,
                -2.126789852344167,
                -1.8275523626775212,
                -2.347782403156801,
                -1.6058999987535132,
                -3.0880379163319196
            ]
        },
        {
            "positions": [
                -0.05178045663961696,
                -2.1422218229520884,
                -1.7473557247925706,
                -2.415083972291262,
                -1.42564437473644,
                -3.0864951405414502
            ]
        },
        {
            "positions": [
                -0.06842386923845158,
                -2.15765379356001,
                -1.66715908690762,
                -2.4823855414257228,
                -1.2453887507193668,
                -3.084952364750981
            ]
        },
        {
            "positions": [
                -0.08506728183728618,
                -2.1730857641679315,
                -1.5869624490226695,
                -2.549687110560184,
                -1.0651331267022939,
                -3.0834095889605115
            ]
        },
        {
            "positions": [
                -0.1017106944361208,
                -2.188517734775853,
                -1.506765811137719,
                -2.616988679694645,
                -0.8848775026852207,
                -3.081866813170042
            ]
        },
        {
            "positions": [
                -0.11835410703495541,
                -2.2039497053837747,
                -1.4265691732527683,
                -2.684290248829106,
                -0.7046218786681475,
                -3.0803240373795733
            ]
        },
        {
            "positions": [
                -0.13499751963379003,
                -2.2193816759916962,
                -1.346372535367818,
                -2.7515918179635674,
                -0.5243662546510746,
                -3.078781261589104
            ]
        },
        {
            "positions": [
                -0.15164093223262465,
                -2.234813646599618,
                -1.2661758974828674,
                -2.8188933870980284,
                -0.3441106306340014,
                -3.0772384857986346
            ]
        },
        {
            "positions": [
                -0.16828434483145926,
                -2.2502456172075394,
                -1.1859792595979168,
                -2.8861949562324893,
                -0.16385500661692826,
                -3.075695710008165
            ]
        }
    ]
}