{
    "goal": {
        "global_pose": {
            "orientation": {
                "w": -0.00223480608172531,
                "x": 0.0024358444001904467,
                "y": 0.7094548369677653,
                "z": -0.704743149386269
            },
            "position": {
                "x": 0.6205249238014221,
                "y": -0.6371506643295288,
                "z": 0.19426114857196808
            }
        },
        "name": "move_to_magneteinheit_B"
    },
    "id": "EST_move_to_magneteinheit_B_36",
    "joint_names": [
        "shoulder_pan_joint",
        "shoulder_lift_joint",
        "elbow_joint",
        "wrist_1_joint",
        "wrist_2_joint",
        "wrist_3_joint"
    ],
    "metrics": {
        "cart_traj_len": 3.0519227106646483,
        "distance_elbow_joint": 4.970037749957261,
        "distance_shoulder_lift_joint": 1.2400330375285908,
        "distance_shoulder_pan_joint": 2.464776150033705,
        "distance_wrist_1_joint": 2.41522186558121,
        "distance_wrist_2_joint": 3.092611745848377,
        "distance_wrist_3_joint": 1.1283649654861636,
        "smoothness": 0.852231545885128,
        "time": 0.168572642,
        "traj_len": 3.9129331088628785,
        "weighted_distance": 4.8037078446588755
    },
    "planner": "EST",
    "start": {
        "state": {
            "elbow_joint": 2.6216224122426386,
            "shoulder_lift_joint": -1.4174107377796124,
            "shoulder_pan_joint": 0.7066234856936794,
            "wrist_1_joint": 1.9546482284002225,
            "wrist_2_joint": -0.7096286983471962,
            "wrist_3_joint": 0.005740856962016249
        }
    },
    "waypoints": [
        {
            "positions": [
                0.7066234856936794,
                -1.4174107377796124,
                2.6216224122426386,
                1.9546482284002225,
                -0.7096286983471962,
                0.005740856962016249
            ]
        },
        {
            "positions": [
                0.6930036960552531,
                -1.429364225640882,
                2.7478840509697164,
                1.9682130103033693,
                -0.6598677571863522,
                -0.16312516865717638
            ]
        },
        {
            "positions": [
                0.6793839064168269,
                -1.4413177135021518,
                2.8741456896967947,
                1.981777792206516,
                -0.6101068160255081,
                -0.33199119427636903
            ]
        },
        {
            "positions": [
                0.726310316848841,
                -1.46545923226483,
                2.7415772014021593,
                1.9072628567849048,
                -0.5340900827753079,
                -0.31879348267474295
            ]
        },
        {
            "positions": [
                0.7732367272808549,
                -1.4896007510275082,
                2.609008713107524,
                1.8327479213632938,
                -0.45807334952510775,
                -0.30559577107311686
            ]
        },
        {
            "positions": [
                0.8201631377128689,
                -1.5137422697901866,
                2.4764402248128885,
                1.7582329859416825,
                -0.3820566162749076,
                -0.2923980594714908
            ]
        },
        {
            "positions": [
                0.8670895481448829,
                -1.5378837885528647,
                2.3438717365182535,
                1.6837180505200715,
                -0.3060398830247074,
                -0.2792003478698647
            ]
        },
        {
            "positions": [
                0.914015958576897,
                -1.562025307315543,
                2.2113032482236177,
                1.60920311509846,
                -0.23002314977450722,
                -0.2660026362682386
            ]
        },
        {
            "positions": [
                0.960942369008911,
                -1.5861668260782211,
                2.0787347599289827,
                1.534688179676849,
                -0.15400641652430708,
                -0.2528049246666126
            ]
        },
        {
            "positions": [
                1.007868779440925,
                -1.6103083448408995,
                1.9461662716343473,
                1.460173244255238,
                -0.07798968327410682,
                -0.2396072130649865
            ]
        },
        {
            "positions": [
                1.054795189872939,
                -1.6344498636035776,
                1.8135977833397119,
                1.3856583088336267,
                -0.001972950023906739,
                -0.22640950146336042
            ]
        },
        {
            "positions": [
                1.101721600304953,
                -1.658591382366256,
                1.6810292950450765,
                1.3111433734120155,
                0.07404378322629344,
                -0.21321178986173434
            ]
        },
        {
            "positions": [
                1.0589741043132912,
                -1.5903875775615084,
                1.5199740101147126,
                1.270755018925052,
                0.06312177434160851,
                -0.1726147989844738
            ]
        },
        {
            "positions": [
                1.0162266083216296,
                -1.5221837727567609,
                1.3589187251843489,
                1.2303666644380886,
                0.05219976545692358,
                -0.13201780810721325
            ]
        },
        {
            "positions": [
                0.9734791123299679,
                -1.4539799679520136,
                1.197863440253985,
                1.1899783099511254,
                0.041277756572238644,
                -0.09142081722995272
            ]
        },
        {
            "positions": [
                0.9307316163383061,
                -1.385776163147266,
                1.0368081553236212,
                1.149589955464162,
                0.03035574768755371,
                -0.05082382635269217
            ]
        },
        {
            "positions": [
                0.8879841203466443,
                -1.3175723583425185,
                0.8757528703932573,
                1.1092016009771986,
                0.019433738802868777,
                -0.010226835475431628
            ]
        },
        {
            "positions": [
                0.8452366243549827,
                -1.249368553537771,
                0.7146975854628935,
                1.0688132464902351,
                0.008511729918183844,
                0.030370155401828886
            ]
        },
        {
            "positions": [
                0.8024891283633209,
                -1.1811647487330235,
                0.5536423005325297,
                1.0284248920032717,
                -0.0024102789665010893,
                0.07096714627908945
            ]
        },
        {
            "positions": [
                0.7597416323716591,
                -1.1129609439282762,
                0.3925870156021658,
                0.9880365375163084,
                -0.013332287851186023,
                0.11156413715635
            ]
        },
        {
            "positions": [
                0.7169941363799974,
                -1.0447571391235284,
                0.23153173067180188,
                0.947648183029345,
                -0.024254296735870956,
                0.15216112803361054
            ]
        },
        {
            "positions": [
                0.6742466403883357,
                -0.9765533343187811,
                0.07047644574143819,
                0.9072598285423816,
                -0.03517630562055589,
                0.19275811891087108
            ]
        },
        {
            "positions": [
                0.631499144396674,
                -0.9083495295140336,
                -0.09057883918892584,
                0.8668714740554182,
                -0.04609831450524082,
                0.23335510978813165
            ]
        },
        {
            "positions": [
                0.5501845959250715,
                -0.8952647642461533,
                0.0016732631067259973,
                0.9338812626671981,
                -0.16129816537594355,
                0.22149791977848549
            ]
        },
        {
            "positions": [
                0.468870047453469,
                -0.882179998978273,
                0.09392536540237784,
                1.000891051278978,
                -0.27649801624664627,
                0.20964072976883932
            ]
        },
        {
            "positions": [
                0.3875554989818665,
                -0.8690952337103928,
                0.18617746769802967,
                1.067900839890758,
                -0.39169786711734905,
                0.19778353975919316
            ]
        },
        {
            "positions": [
                0.306240950510264,
                -0.8560104684425126,
                0.2784295699936815,
                1.1349106285025379,
                -0.5068977179880518,
                0.185926349749547
            ]
        },
        {
            "positions": [
                0.2249264020386615,
                -0.8429257031746323,
                0.37068167228933335,
                1.2019204171143176,
                -0.6220975688587546,
                0.17406915973990084
            ]
        },
        {
            "positions": [
                0.14361185356705902,
                -0.8298409379067521,
                0.4629337745849852,
                1.2689302057260976,
                -0.7372974197294573,
                0.16221196973025467
            ]
        },
        {
            "positions": [
                0.0622973050954565,
                -0.8167561726388718,
                0.555185876880637,
                1.3359399943378776,
                -0.85249727060016,
                0.1503547797206085
            ]
        },
        {
            "positions": [
                -0.019017243376145965,
                -0.8036714073709915,
                0.6474379791762889,
                1.4029497829496576,
                -0.9676971214708627,
                0.13849758971096235
            ]
        },
        {
            "positions": [
                -0.10033179184774843,
                -0.7905866421031114,
                0.7396900814719407,
                1.4699595715614373,
                -1.0828969723415653,
                0.1266403997013162
            ]
        },
        {
            "positions": [
                -0.181646340319351,
                -0.7775018768352311,
                0.8319421837675925,
                1.536969360173217,
                -1.1980968232122682,
                0.11478320969167002
            ]
        },
        {
            "positions": [
                -0.2629608887909536,
                -0.7644171115673508,
                0.9241942860632445,
                1.603979148784997,
                -1.313296674082971,
                0.10292601968202386
            ]
        },
        {
            "positions": [
                -0.34427543726255594,
                -0.7513323462994705,
                1.0164463883588963,
                1.670988937396777,
                -1.4284965249536739,
                0.0910688296723777
            ]
        },
        {
            "positions": [
                -0.4255899857341585,
                -0.7382475810315903,
                1.108698490654548,
                1.737998726008557,
                -1.5436963758243767,
                0.07921163966273154
            ]
        },
        {
            "positions": [
                -0.506904534205761,
                -0.72516281576371,
                1.2009505929501998,
                1.805008514620337,
                -1.658896226695079,
                0.06735444965308537
            ]
        },
        {
            "positions": [
                -0.5882190826773634,
                -0.7120780504958297,
                1.293202695245852,
                1.8720183032321167,
                -1.774096077565782,
                0.05549725964343921
            ]
        },
        {
            "positions": [
                -0.6695336311489659,
                -0.6989932852279496,
                1.3854547975415037,
                1.9390280918438967,
                -1.8892959284364848,
                0.04364006963379305
            ]
        },
        {
            "positions": [
                -0.7508481796205686,
                -0.6859085199600693,
                1.4777068998371554,
                2.0060378804556764,
                -2.0044957793071876,
                0.03178287962414689
            ]
        },
        {
            "positions": [
                -0.8321627280921708,
                -0.672823754692189,
                1.5699590021328071,
                2.0730476690674564,
                -2.11969563017789,
                0.019925689614500725
            ]
        },
        {
            "positions": [
                -0.9134772765637736,
                -0.6597389894243088,
                1.662211104428459,
                2.1400574576792364,
                -2.234895481048593,
                0.00806849960485457
            ]
        }
    ]
}