{
    "goal": {
        "global_pose": {
            "orientation": {
                "w": 0.7047431468963623,
                "x": -0.7094548344612122,
                "y": 0.0024358443915843964,
                "z": -0.0022348060738295317
            },
            "position": {
                "x": 0.6094750761985779,
                "y": 0.3671506643295288,
                "z": 0.19426114857196808
            }
        },
        "name": "move_to_magneteinheit_A"
    },
    "id": "EST_move_to_magneteinheit_A_134",
    "joint_names": [
        "shoulder_pan_joint",
        "shoulder_lift_joint",
        "elbow_joint",
        "wrist_1_joint",
        "wrist_2_joint",
        "wrist_3_joint"
    ],
    "metrics": {
        "cart_traj_len": 5.293197057182336,
        "distance_elbow_joint": 3.879063940188659,
        "distance_shoulder_lift_joint": 0.8321086543452039,
        "distance_shoulder_pan_joint": 8.777735926339213,
        "distance_wrist_1_joint": 3.93349725982784,
        "distance_wrist_2_joint": 1.7079174026093211,
        "distance_wrist_3_joint": 6.371520877536509,
        "smoothness": 0.2885979835800958,
        "time": 0.105677778,
        "traj_len": 5.049935055111771,
        "weighted_distance": 6.624673612968183
    },
    "planner": "EST",
    "start": {
        "state": {
            "elbow_joint": -1.9196185241190666,
            "shoulder_lift_joint": -1.2443396400964142,
            "shoulder_pan_joint": 2.6996025414629847,
            "wrist_1_joint": -1.5485510000780065,
            "wrist_2_joint": -1.5709468930060704,
            "wrist_3_joint": 0.4420197071253992
        }
    },
    "waypoints": [
        {
            "positions": [
                2.6996025414629847,
                -1.2443396400964142,
                -1.9196185241190666,
                -1.5485510000780065,
                -1.5709468930060704,
                0.4420197071253992
            ]
        },
        {
            "positions": [
                2.522192674088326,
                -1.2556175583518112,
                -1.892628743431905,
                -1.474178978985416,
                -1.531285186018043,
                0.38313032631635946
            ]
        },
        {
            "positions": [
                2.3447828067136673,
                -1.2668954766072082,
                -1.8656389627447434,
                -1.3998069578928258,
                -1.4916234790300156,
                0.3242409455073198
            ]
        },
        {
            "positions": [
                2.1673729393390087,
                -1.2781733948626055,
                -1.8386491820575817,
                -1.3254349368002356,
                -1.451961772041988,
                0.26535156469828014
            ]
        },
        {
            "positions": [
                1.9899630719643497,
                -1.2894513131180025,
                -1.81165940137042,
                -1.2510629157076452,
                -1.4123000650539606,
                0.20646218388924042
            ]
        },
        {
            "positions": [
                1.812553204589691,
                -1.3007292313733996,
                -1.7846696206832582,
                -1.1766908946150547,
                -1.3726383580659332,
                0.1475728030802007
            ]
        },
        {
            "positions": [
                1.6351433372150321,
                -1.3120071496287966,
                -1.7576798399960967,
                -1.1023188735224645,
                -1.3329766510779057,
                0.08868342227116105
            ]
        },
        {
            "positions": [
                1.4577334698403734,
                -1.3232850678841936,
                -1.730690059308935,
                -1.0279468524298743,
                -1.2933149440898783,
                0.02979404146212139
            ]
        },
        {
            "positions": [
                1.2803236024657147,
                -1.334562986139591,
                -1.7037002786217732,
                -0.9535748313372838,
                -1.2536532371018507,
                -0.029095339346918325
            ]
        },
        {
            "positions": [
                1.102913735091056,
                -1.345840904394988,
                -1.6767104979346117,
                -0.8792028102446935,
                -1.2139915301138233,
                -0.08798472015595804
            ]
        },
        {
            "positions": [
                0.9255038677163974,
                -1.357118822650385,
                -1.64972071724745,
                -0.8048307891521032,
                -1.174329823125796,
                -0.14687410096499776
            ]
        },
        {
            "positions": [
                0.7480940003417385,
                -1.368396740905782,
                -1.6227309365602882,
                -0.7304587680595128,
                -1.1346681161377683,
                -0.20576348177403736
            ]
        },
        {
            "positions": [
                0.5706841329670795,
                -1.379674659161179,
                -1.5957411558731267,
                -0.6560867469669225,
                -1.095006409149741,
                -0.2646528625830771
            ]
        },
        {
            "positions": [
                0.39327426559242085,
                -1.3909525774165763,
                -1.568751375185965,
                -0.5817147258743322,
                -1.0553447021617135,
                -0.3235422433921168
            ]
        },
        {
            "positions": [
                0.21586439821776215,
                -1.4022304956719733,
                -1.5417615944988032,
                -0.5073427047817418,
                -1.015682995173686,
                -0.3824316242011564
            ]
        },
        {
            "positions": [
                0.03845453084310346,
                -1.4135084139273704,
                -1.5147718138116417,
                -0.43297068368915137,
                -0.9760212881856586,
                -0.4413210050101961
            ]
        },
        {
            "positions": [
                -0.13895533653155523,
                -1.4247863321827674,
                -1.48778203312448,
                -0.35859866259656115,
                -0.9363595811976312,
                -0.5002103858192358
            ]
        },
        {
            "positions": [
                -0.3163652039062139,
                -1.4360642504381644,
                -1.4607922524373183,
                -0.2842266415039709,
                -0.8966978742096038,
                -0.5590997666282754
            ]
        },
        {
            "positions": [
                -0.4937750712808726,
                -1.4473421686935615,
                -1.4338024717501567,
                -0.20985462041138048,
                -0.8570361672215763,
                -0.6179891474373153
            ]
        },
        {
            "positions": [
                -0.6711849386555313,
                -1.4586200869489585,
                -1.406812691062995,
                -0.13548259931879003,
                -0.8173744602335489,
                -0.6768785282463549
            ]
        },
        {
            "positions": [
                -0.84859480603019,
                -1.4698980052043558,
                -1.3798229103758333,
                -0.06111057822619981,
                -0.7777127532455214,
                -0.7357679090553947
            ]
        },
        {
            "positions": [
                -1.0260046734048491,
                -1.4811759234597528,
                -1.3528331296886718,
                0.013261442866390416,
                -0.738051046257494,
                -0.7946572898644343
            ]
        },
        {
            "positions": [
                -1.2034145407795078,
                -1.4924538417151498,
                -1.32584334900151,
                0.08763346395898086,
                -0.6983893392694664,
                -0.8535466706734739
            ]
        },
        {
            "positions": [
                -1.3808244081541665,
                -1.5037317599705469,
                -1.2988535683143483,
                0.1620054850515713,
                -0.658727632281439,
                -0.9124360514825137
            ]
        },
        {
            "positions": [
                -1.5582342755288257,
                -1.515009678225944,
                -1.2718637876271868,
                0.23637750614416153,
                -0.6190659252934116,
                -0.9713254322915533
            ]
        },
        {
            "positions": [
                -1.735644142903484,
                -1.5262875964813412,
                -1.244874006940025,
                0.31074952723675175,
                -0.5794042183053841,
                -1.030214813100593
            ]
        },
        {
            "positions": [
                -1.913054010278143,
                -1.5375655147367382,
                -1.2178842262528633,
                0.3851215483293422,
                -0.5397425113173566,
                -1.0891041939096326
            ]
        },
        {
            "positions": [
                -2.0904638776528013,
                -1.5488434329921352,
                -1.1908944455657018,
                0.45949356942193265,
                -0.5000808043293292,
                -1.1479935747186722
            ]
        },
        {
            "positions": [
                -2.2678737450274604,
                -1.5601213512475323,
                -1.16390466487854,
                0.5338655905145229,
                -0.4604190973413018,
                -1.2068829555277119
            ]
        },
        {
            "positions": [
                -2.4452836124021187,
                -1.5713992695029293,
                -1.1369148841913783,
                0.6082376116071131,
                -0.4207573903532744,
                -1.265772336336752
            ]
        },
        {
            "positions": [
                -2.622693479776778,
                -1.5826771877583266,
                -1.1099251035042168,
                0.6826096326997038,
                -0.3810956833652468,
                -1.3246617171457915
            ]
        },
        {
            "positions": [
                -2.800103347151436,
                -1.5939551060137236,
                -1.0829353228170548,
                0.756981653792294,
                -0.3414339763772194,
                -1.383551097954831
            ]
        },
        {
            "positions": [
                -2.9775132145260956,
                -1.6052330242691206,
                -1.0559455421298933,
                0.8313536748848844,
                -0.301772269389192,
                -1.4424404787638707
            ]
        },
        {
            "positions": [
                -2.8835550275457886,
                -1.5909537736578327,
                -0.9645700585480907,
                0.7842751117071588,
                -0.2884770336621482,
                -1.3064689426533485
            ]
        },
        {
            "positions": [
                -2.7895968405654816,
                -1.576674523046545,
                -0.8731945749662882,
                0.7371965485294332,
                -0.2751817979351045,
                -1.170497406542826
            ]
        },
        {
            "positions": [
                -2.6956386535851746,
                -1.5623952724352572,
                -0.7818190913844856,
                0.6901179853517075,
                -0.2618865622080607,
                -1.0345258704323037
            ]
        },
        {
            "positions": [
                -2.601680466604868,
                -1.5481160218239693,
                -0.690443607802683,
                0.6430394221739819,
                -0.24859132648101698,
                -0.8985543343217813
            ]
        },
        {
            "positions": [
                -2.507722279624561,
                -1.5338367712126817,
                -0.5990681242208804,
                0.5959608589962562,
                -0.23529609075397323,
                -0.7625827982112591
            ]
        },
        {
            "positions": [
                -2.413764092644254,
                -1.5195575206013938,
                -0.5076926406390777,
                0.5488822958185307,
                -0.22200085502692948,
                -0.6266112621007367
            ]
        },
        {
            "positions": [
                -2.319805905663947,
                -1.505278269990106,
                -0.4163171570572751,
                0.5018037326408049,
                -0.20870561929988574,
                -0.49063972599021444
            ]
        },
        {
            "positions": [
                -2.22584771868364,
                -1.4909990193788183,
                -0.32494167347547254,
                0.4547251694630793,
                -0.19541038357284196,
                -0.35466818987969195
            ]
        },
        {
            "positions": [
                -2.131889531703333,
                -1.4767197687675304,
                -0.23356618989367006,
                0.4076466062853537,
                -0.18211514784579824,
                -0.2186966537691699
            ]
        },
        {
            "positions": [
                -2.0379313447230265,
                -1.4624405181562425,
                -0.14219070631186737,
                0.360568043107628,
                -0.16881991211875447,
                -0.08272511765864743
            ]
        },
        {
            "positions": [
                -1.9439731577427195,
                -1.4481612675449549,
                -0.05081522273006489,
                0.3134894799299024,
                -0.15552467639171075,
                0.05324641845187483
            ]
        },
        {
            "positions": [
                -1.8500149707624123,
                -1.433882016933667,
                0.04056026085173792,
                0.26641091675217676,
                -0.14222944066466697,
                0.18921795456239732
            ]
        },
        {
            "positions": [
                -1.7560567837821055,
                -1.4196027663223791,
                0.13193574443354028,
                0.21933235357445113,
                -0.12893420493762323,
                0.3251894906729196
            ]
        },
        {
            "positions": [
                -1.6620985968017985,
                -1.4053235157110915,
                0.2233112280153431,
                0.1722537903967255,
                -0.11563896921057948,
                0.46116102678344184
            ]
        },
        {
            "positions": [
                -1.5681404098214917,
                -1.3910442650998036,
                0.31468671159714545,
                0.12517522721899987,
                -0.10234373348353573,
                0.5971325628939641
            ]
        },
        {
            "positions": [
                -1.4741822228411847,
                -1.3767650144885157,
                0.40606219517894826,
                0.07809666404127413,
                -0.08904849775649196,
                0.7331040990044868
            ]
        },
        {
            "positions": [
                -1.3802240358608777,
                -1.362485763877228,
                0.4974376787607506,
                0.031018100863548614,
                -0.07575326202944824,
                0.8690756351150086
            ]
        },
        {
            "positions": [
                -1.286265848880571,
                -1.3482065132659402,
                0.5888131623425532,
                -0.016060462314177015,
                -0.06245802630240449,
                1.0050471712255309
            ]
        },
        {
            "positions": [
                -1.1923076619002637,
                -1.3339272626546523,
                0.680188645924356,
                -0.06313902549190276,
                -0.049162790575360715,
                1.1410187073360536
            ]
        },
        {
            "positions": [
                -1.098349474919957,
                -1.3196480120433647,
                0.7715641295061586,
                -0.11021758866962839,
                -0.03586755484831694,
                1.2769902434465759
            ]
        },
        {
            "positions": [
                -1.0043912879396502,
                -1.3053687614320768,
                0.862939613087961,
                -0.15729615184735402,
                -0.02257231912127322,
                1.4129617795570981
            ]
        },
        {
            "positions": [
                -0.9104331009593434,
                -1.2910895108207892,
                0.9543150966697636,
                -0.20437471502507965,
                -0.009277083394229502,
                1.5489333156676204
            ]
        },
        {
            "positions": [
                -0.8164749139790359,
                -1.2768102602095013,
                1.0456905802515664,
                -0.2514532782028054,
                0.004018152332814329,
                1.684904851778143
            ]
        },
        {
            "positions": [
                -0.7225167269987289,
                -1.2625310095982134,
                1.1370660638333692,
                -0.2985318413805309,
                0.017313388059858048,
                1.8208763878886653
            ]
        },
        {
            "positions": [
                -0.6285585400184224,
                -1.2482517589869255,
                1.2284415474151715,
                -0.34561040455825665,
                0.030608623786901767,
                1.9568479239991876
            ]
        },
        {
            "positions": [
                -0.5346003530381154,
                -1.2339725083756379,
                1.319817030996974,
                -0.39268896773598216,
                0.04390385951394554,
                2.09281946010971
            ]
        },
        {
            "positions": [
                -0.44064216605780837,
                -1.21969325776435,
                1.4111925145787767,
                -0.4397675309137079,
                0.05719909524098932,
                2.2287909962202326
            ]
        },
        {
            "positions": [
                -0.34668397907750137,
                -1.2054140071530621,
                1.5025679981605795,
                -0.4868460940914334,
                0.07049433096803304,
                2.3647625323307544
            ]
        },
        {
            "positions": [
                -0.25272579209719437,
                -1.1911347565417745,
                1.5939434817423819,
                -0.5339246572691592,
                0.08378956669507681,
                2.5007340684412767
            ]
        },
        {
            "positions": [
                -0.1587676051168878,
                -1.1768555059304866,
                1.6853189653241842,
                -0.5810032204468847,
                0.09708480242212053,
                2.636705604551799
            ]
        },
        {
            "positions": [
                -0.06480941813658037,
                -1.1625762553191987,
                1.776694448905987,
                -0.6280817836246104,
                0.1103800381491643,
                2.7726771406623216
            ]
        },
        {
            "positions": [
                0.02914876884372619,
                -1.1482970047079109,
                1.8680699324877899,
                -0.6751603468023362,
                0.12367527387620808,
                2.9086486767728443
            ]
        },
        {
            "positions": [
                0.1231069558240331,
                -1.1340177540966232,
                1.9594454160695922,
                -0.7222389099800617,
                0.1369705096032518,
                3.044620212883366
            ]
        }
    ]
}