{
    "goal": {
        "global_pose": {
            "orientation": {
                "w": -0.00223480608172531,
                "x": 0.0024358444001904467,
                "y": 0.7094548369677653,
                "z": -0.704743149386269
            },
            "position": {
                "x": -0.37947507619857795,
                "y": -0.6371506643295288,
                "z": 0.19426114857196808
            }
        },
        "name": "move_to_magneteinheit_C"
    },
    "id": "EST_move_to_magneteinheit_C_1",
    "joint_names": [
        "shoulder_pan_joint",
        "shoulder_lift_joint",
        "elbow_joint",
        "wrist_1_joint",
        "wrist_2_joint",
        "wrist_3_joint"
    ],
    "metrics": {
        "cart_traj_len": 2.065612450061355,
        "distance_elbow_joint": 1.0539720342402648,
        "distance_shoulder_lift_joint": 0.6272023564812503,
        "distance_shoulder_pan_joint": 2.107974715571885,
        "distance_wrist_1_joint": 1.6896475203352517,
        "distance_wrist_2_joint": 2.0267600884109602,
        "distance_wrist_3_joint": 2.450088973691572,
        "smoothness": 0.7385586091270778,
        "time": 0.186311399,
        "traj_len": 3.155256834036048,
        "weighted_distance": 4.309551165128515
    },
    "planner": "EST",
    "start": {
        "state": {
            "elbow_joint": 1.9565354010623817,
            "shoulder_lift_joint": -1.4165861575791021,
            "shoulder_pan_joint": -1.6717766225146293,
            "wrist_1_joint": -0.5286633292919765,
            "wrist_2_joint": 1.472756589071564,
            "wrist_3_joint": -3.1238370188695823
        }
    },
    "waypoints": [
        {
            "positions": [
                -1.6717766225146293,
                -1.4165861575791021,
                1.9565354010623817,
                -0.5286633292919765,
                1.472756589071564,
                -3.1238370188695823
            ]
        },
        {
            "positions": [
                -1.5917520723826653,
                -1.438304798033045,
                1.9434374276228137,
                -0.5356234947607349,
                1.4081685908894983,
                -2.9590431568471356
            ]
        },
        {
            "positions": [
                -1.5117275222507014,
                -1.4600234384869881,
                1.930339454183246,
                -0.5425836602294933,
                1.3435805927074327,
                -2.794249294824689
            ]
        },
        {
            "positions": [
                -1.4317029721187373,
                -1.481742078940931,
                1.917241480743678,
                -0.5495438256982518,
                1.2789925945253673,
                -2.629455432802242
            ]
        },
        {
            "positions": [
                -1.3516784219867732,
                -1.5034607193948741,
                1.90414350730411,
                -0.5565039911670103,
                1.2144045963433017,
                -2.464661570779796
            ]
        },
        {
            "positions": [
                -1.2716538718548094,
                -1.525179359848817,
                1.891045533864542,
                -0.5634641566357688,
                1.149816598161236,
                -2.299867708757349
            ]
        },
        {
            "positions": [
                -1.1916293217228453,
                -1.5468980003027601,
                1.8779475604249742,
                -0.5704243221045272,
                1.0852285999791704,
                -2.1350738467349024
            ]
        },
        {
            "positions": [
                -1.1116047715908812,
                -1.568616640756703,
                1.8648495869854063,
                -0.5773844875732856,
                1.0206406017971048,
                -1.9702799847124557
            ]
        },
        {
            "positions": [
                -1.111846248989136,
                -1.5745325431691173,
                1.7965911824147158,
                -0.49980001252195344,
                0.8608306812830325,
                -2.0445579335299198
            ]
        },
        {
            "positions": [
                -1.112087726387391,
                -1.5804484455815315,
                1.7283327778440254,
                -0.42221553747062124,
                0.7010207607689602,
                -2.1188358823473834
            ]
        },
        {
            "positions": [
                -1.1123292037856456,
                -1.5863643479939458,
                1.6600743732733352,
                -0.34463106241928904,
                0.5412108402548879,
                -2.1931138311648475
            ]
        },
        {
            "positions": [
                -1.1125706811839005,
                -1.5922802504063598,
                1.5918159687026447,
                -0.26704658736795683,
                0.3814009197408157,
                -2.2673917799823116
            ]
        },
        {
            "positions": [
                -1.1128121585821553,
                -1.598196152818774,
                1.5235575641319543,
                -0.18946211231662463,
                0.2215909992267433,
                -2.341669728799775
            ]
        },
        {
            "positions": [
                -1.1130536359804102,
                -1.6041120552311883,
                1.4552991595612639,
                -0.11187763726529244,
                0.06178107871267098,
                -2.4159476776172393
            ]
        },
        {
            "positions": [
                -1.2859731173993088,
                -1.5958493389231811,
                1.4941370014321411,
                -0.08281607994750408,
                0.10235612022015783,
                -2.512922116444313
            ]
        },
        {
            "positions": [
                -1.4588925988182073,
                -1.587586622615174,
                1.5329748433030181,
                -0.05375452262971571,
                0.1429311617276447,
                -2.6098965552713866
            ]
        },
        {
            "positions": [
                -1.6318120802371059,
                -1.5793239063071667,
                1.5718126851738954,
                -0.024692965311927342,
                0.18350620323513156,
                -2.7068709940984603
            ]
        },
        {
            "positions": [
                -1.8047315616560047,
                -1.5710611899991596,
                1.6106505270447724,
                0.0043685920058610245,
                0.22408124474261842,
                -2.8038454329255345
            ]
        },
        {
            "positions": [
                -1.977651043074903,
                -1.5627984736911524,
                1.6494883689156496,
                0.03343014932364939,
                0.2646562862501053,
                -2.900819871752608
            ]
        },
        {
            "positions": [
                -2.150570524493802,
                -1.554535757383145,
                1.688326210786527,
                0.06249170664143776,
                0.3052313277575921,
                -2.997794310579682
            ]
        },
        {
            "positions": [
                -2.3234900059127,
                -1.546273041075138,
                1.727164052657404,
                0.09155326395922612,
                0.34580636926507896,
                -3.0947687494067555
            ]
        },
        {
            "positions": [
                -2.496409487331599,
                -1.5380103247671308,
                1.7660018945282812,
                0.1206148212770145,
                0.3863814107725658,
                -3.191743188233829
            ]
        },
        {
            "positions": [
                -2.566087327152193,
                -1.5059768800173163,
                1.8075187378588922,
                0.04832360843490259,
                0.4434597644775083,
                -3.2074122627177752
            ]
        },
        {
            "positions": [
                -2.547423265334828,
                -1.437668623294258,
                1.8476219807471959,
                -0.12580355963740353,
                0.49028094293495433,
                -3.1955323304119503
            ]
        },
        {
            "positions": [
                -2.528759203517463,
                -1.3693603665711995,
                1.8877252236354995,
                -0.2999307277097097,
                0.5371021213924003,
                -3.183652398106125
            ]
        },
        {
            "positions": [
                -2.510095141700098,
                -1.301052109848141,
                1.9278284665238035,
                -0.47405789578201574,
                0.5839232998498464,
                -3.1717724658003
            ]
        },
        {
            "positions": [
                -2.491431079882733,
                -1.2327438531250825,
                1.9679317094121072,
                -0.648185063854322,
                0.6307444783072924,
                -3.1598925334944745
            ]
        },
        {
            "positions": [
                -2.472767018065368,
                -1.164435596402024,
                2.008034952300411,
                -0.8223122319266281,
                0.6775656567647385,
                -3.1480126011886496
            ]
        }
    ]
}