{
    "goal": {
        "global_pose": {
            "orientation": {
                "w": 0.005598929693374612,
                "x": 0.007748599140229565,
                "y": 0.7110244013736278,
                "z": -0.7031023480610252
            },
            "position": {
                "x": -0.8858502320852131,
                "y": -0.7141253447532654,
                "z": 0.3711530566215515
            }
        },
        "name": "move_to_auspresseinheit_C"
    },
    "id": "EST_move_to_auspresseinheit_C_70",
    "joint_names": [
        "shoulder_pan_joint",
        "shoulder_lift_joint",
        "elbow_joint",
        "wrist_1_joint",
        "wrist_2_joint",
        "wrist_3_joint"
    ],
    "metrics": {
        "cart_traj_len": 0.49311269851489575,
        "distance_elbow_joint": 1.0059461271789523,
        "distance_shoulder_lift_joint": 0.3276953356536535,
        "distance_shoulder_pan_joint": 0.25550045467804816,
        "distance_wrist_1_joint": 0.6871803757126406,
        "distance_wrist_2_joint": 1.3147978749531442,
        "distance_wrist_3_joint": 0.06367852743713964,
        "smoothness": 9.689219124001365e-16,
        "time": 0.046468644999999996,
        "traj_len": 1.911752780987536,
        "weighted_distance": 2.40502266125574
    },
    "planner": "EST",
    "start": {
        "state": {
            "elbow_joint": 1.7527959577737207,
            "shoulder_lift_joint": -0.9740617694225068,
            "shoulder_pan_joint": -2.967991417825858,
            "wrist_1_joint": -0.759517768980727,
            "wrist_2_joint": 1.7443932448377408,
            "wrist_3_joint": -3.0840537646736568
        }
    },
    "waypoints": [
        {
            "positions": [
                -2.967991417825858,
                -0.9740617694225068,
                1.7527959577737207,
                -0.759517768980727,
                1.7443932448377408,
                -3.0840537646736568
            ]
        },
        {
            "positions": [
                -2.9424413723580534,
                -0.9412922358571414,
                1.6522013450558255,
                -0.6907997314094629,
                1.6129134573424264,
                -3.0904216174173706
            ]
        },
        {
            "positions": [
                -2.9168913268902483,
                -0.9085227022917761,
                1.5516067323379301,
                -0.6220816938381989,
                1.481433669847112,
                -3.0967894701610845
            ]
        },
        {
            "positions": [
                -2.8913412814224433,
                -0.8757531687264107,
                1.451012119620035,
                -0.5533636562669348,
                1.3499538823517976,
                -3.103157322904799
            ]
        },
        {
            "positions": [
                -2.8657912359546387,
                -0.8429836351610454,
                1.3504175069021398,
                -0.48464561869567074,
                1.2184740948564832,
                -3.1095251756485127
            ]
        },
        {
            "positions": [
                -2.840241190486834,
                -0.8102141015956801,
                1.2498228941842444,
                -0.4159275811244067,
                1.0869943073611688,
                -3.1158930283922266
            ]
        },
        {
            "positions": [
                -2.814691145019029,
                -0.7774445680303147,
                1.1492282814663493,
                -0.34720954355314265,
                0.9555145198658543,
                -3.1222608811359405
            ]
        },
        {
            "positions": [
                -2.789141099551224,
                -0.7446750344649493,
                1.048633668748454,
                -0.2784915059818786,
                0.82403473237054,
                -3.1286287338796543
            ]
        },
        {
            "positions": [
                -2.7635910540834194,
                -0.711905500899584,
                0.9480390560305588,
                -0.2097734684106145,
                0.6925549448752255,
                -3.1349965866233687
            ]
        },
        {
            "positions": [
                -2.738041008615615,
                -0.6791359673342185,
                0.8474444433126636,
                -0.14105543083935046,
                0.5610751573799111,
                -3.1413644393670825
            ]
        },
        {
            "positions": [
                -2.71249096314781,
                -0.6463664337688533,
                0.7468498305947684,
                -0.07233739326808641,
                0.42959536988459673,
                -3.1477322921107964
            ]
        }
    ]
}