{
    "goal": {
        "global_pose": {
            "orientation": {
                "w": 0.005598929693374612,
                "x": 0.007748599140229565,
                "y": 0.7110244013736278,
                "z": -0.7031023480610252
            },
            "position": {
                "x": -0.8858502320852131,
                "y": -0.7141253447532654,
                "z": 0.3711530566215515
            }
        },
        "name": "move_to_auspresseinheit_C"
    },
    "id": "EST_move_to_auspresseinheit_C_110",
    "joint_names": [
        "shoulder_pan_joint",
        "shoulder_lift_joint",
        "elbow_joint",
        "wrist_1_joint",
        "wrist_2_joint",
        "wrist_3_joint"
    ],
    "metrics": {
        "cart_traj_len": 0.49347528907759397,
        "distance_elbow_joint": 1.00005562067205,
        "distance_shoulder_lift_joint": 0.3252796390993117,
        "distance_shoulder_pan_joint": 0.25661422663945777,
        "distance_wrist_1_joint": 0.6738274569629793,
        "distance_wrist_2_joint": 1.3069213618829902,
        "distance_wrist_3_joint": 0.05283057737769781,
        "smoothness": 6.459479416000911e-16,
        "time": 0.385148149,
        "traj_len": 1.9014544124523434,
        "weighted_distance": 2.387873291495144
    },
    "planner": "EST",
    "start": {
        "state": {
            "elbow_joint": 1.7527959577737207,
            "shoulder_lift_joint": -0.9740617694225068,
            "shoulder_pan_joint": -2.967991417825858,
            "wrist_1_joint": -0.759517768980727,
            "wrist_2_joint": 1.7443932448377408,
            "wrist_3_joint": -3.0840537646736568
        }
    },
    "waypoints": [
        {
            "positions": [
                -2.967991417825858,
                -0.9740617694225068,
                1.7527959577737207,
                -0.759517768980727,
                1.7443932448377408,
                -3.0840537646736568
            ]
        },
        {
            "positions": [
                -2.942329995161912,
                -0.9415338055125756,
                1.6527903957065158,
                -0.692135023284429,
                1.6137011086494417,
                -3.0893368224114264
            ]
        },
        {
            "positions": [
                -2.9166685724979664,
                -0.9090058416026444,
                1.5527848336393106,
                -0.6247522775881311,
                1.4830089724611428,
                -3.0946198801491964
            ]
        },
        {
            "positions": [
                -2.891007149834021,
                -0.8764778776927132,
                1.4527792715721057,
                -0.5573695318918332,
                1.3523168362728437,
                -3.099902937886966
            ]
        },
        {
            "positions": [
                -2.865345727170075,
                -0.8439499137827821,
                1.3527737095049006,
                -0.48998678619553526,
                1.2216247000845448,
                -3.105185995624736
            ]
        },
        {
            "positions": [
                -2.839684304506129,
                -0.811421949872851,
                1.2527681474376957,
                -0.42260404049923733,
                1.0909325638962457,
                -3.1104690533625057
            ]
        },
        {
            "positions": [
                -2.8140228818421833,
                -0.7788939859629198,
                1.1527625853704908,
                -0.3552212948029394,
                0.9602404277079467,
                -3.1157521111002753
            ]
        },
        {
            "positions": [
                -2.7883614591782377,
                -0.7463660220529886,
                1.0527570233032857,
                -0.28783854910664153,
                0.8295482915196477,
                -3.1210351688380453
            ]
        },
        {
            "positions": [
                -2.7627000365142917,
                -0.7138380581430575,
                0.9527514612360807,
                -0.22045580341034354,
                0.6988561553313486,
                -3.126318226575815
            ]
        },
        {
            "positions": [
                -2.7370386138503457,
                -0.6813100942331263,
                0.8527458991688758,
                -0.15307305771404556,
                0.5681640191430495,
                -3.131601284313585
            ]
        },
        {
            "positions": [
                -2.7113771911864,
                -0.6487821303231951,
                0.7527403371016708,
                -0.0856903120177477,
                0.4374718829547506,
                -3.1368843420513546
            ]
        }
    ]
}