{
    "goal": {
        "global_pose": {
            "orientation": {
                "w": 0.7047431493862688,
                "x": -0.7094548369677653,
                "y": 0.0024358444001904,
                "z": -0.0022348060817251984
            },
            "position": {
                "x": -0.39052492380142206,
                "y": 0.3671506643295288,
                "z": 0.19426114857196808
            }
        },
        "name": "move_to_magneteinheit_D"
    },
    "id": "EST_move_to_magneteinheit_D_107",
    "joint_names": [
        "shoulder_pan_joint",
        "shoulder_lift_joint",
        "elbow_joint",
        "wrist_1_joint",
        "wrist_2_joint",
        "wrist_3_joint"
    ],
    "metrics": {
        "cart_traj_len": 5.31148918870506,
        "distance_elbow_joint": 3.1279460397122656,
        "distance_shoulder_lift_joint": 1.6540667382314889,
        "distance_shoulder_pan_joint": 6.889376431707472,
        "distance_wrist_1_joint": 2.0211449163063038,
        "distance_wrist_2_joint": 2.451189559067903,
        "distance_wrist_3_joint": 4.910876285495476,
        "smoothness": 0.29365936962692507,
        "time": 0.80655623,
        "traj_len": 4.588529172896356,
        "weighted_distance": 5.945476180835817
    },
    "planner": "EST",
    "start": {
        "state": {
            "elbow_joint": 0.749534889911806,
            "shoulder_lift_joint": -0.6476975780787326,
            "shoulder_pan_joint": -2.711696901376241,
            "wrist_1_joint": -0.07506478083263063,
            "wrist_2_joint": 0.43296659715538205,
            "wrist_3_joint": -3.14703540197715
        }
    },
    "waypoints": [
        {
            "positions": [
                -2.711696901376241,
                -0.6476975780787326,
                0.749534889911806,
                -0.07506478083263063,
                0.43296659715538205,
                -3.14703540197715
            ]
        },
        {
            "positions": [
                -2.728487052724599,
                -0.64486280641774,
                0.6997906127405812,
                -0.06295052997935366,
                0.38959337321826415,
                -2.9923432849813665
            ]
        },
        {
            "positions": [
                -2.7452772040729565,
                -0.6420280347567473,
                0.6500463355693564,
                -0.050836279126076675,
                0.3462201492811463,
                -2.837651167985583
            ]
        },
        {
            "positions": [
                -2.762067355421314,
                -0.6391932630957546,
                0.6003020583981317,
                -0.0387220282727997,
                0.30284692534402846,
                -2.6829590509898
            ]
        },
        {
            "positions": [
                -2.778857506769672,
                -0.636358491434762,
                0.5505577812269069,
                -0.026607777419522714,
                0.2594737014069106,
                -2.5282669339940163
            ]
        },
        {
            "positions": [
                -2.7764448242096273,
                -0.6373976255197366,
                0.4822782108039514,
                -0.020568601542331172,
                0.19282131500574723,
                -2.3348778356004654
            ]
        },
        {
            "positions": [
                -2.774032141649583,
                -0.6384367596047111,
                0.41399864038099593,
                -0.014529425665139626,
                0.12616892860458384,
                -2.141488737206914
            ]
        },
        {
            "positions": [
                -2.771619459089538,
                -0.6394758936896857,
                0.34571906995804047,
                -0.00849024978794808,
                0.05951654220342045,
                -1.9480996388133631
            ]
        },
        {
            "positions": [
                -2.7692067765294937,
                -0.6405150277746603,
                0.27743949953508495,
                -0.0024510739107565394,
                -0.007135844197742963,
                -1.7547105404198122
            ]
        },
        {
            "positions": [
                -2.703657384365385,
                -0.6538035738627082,
                0.2100334802863377,
                -0.02269943013459229,
                -0.09050195965698353,
                -1.6109018012075749
            ]
        },
        {
            "positions": [
                -2.6381079922012765,
                -0.667092119950756,
                0.14262746103759044,
                -0.04294778635842803,
                -0.1738680751162241,
                -1.4670930619953375
            ]
        },
        {
            "positions": [
                -2.572558600037168,
                -0.6803806660388039,
                0.07522144178884321,
                -0.06319614258226378,
                -0.2572341905754646,
                -1.3232843227831004
            ]
        },
        {
            "positions": [
                -2.5070092078730593,
                -0.6936692121268518,
                0.007815422540095929,
                -0.08344449880609953,
                -0.34060030603470526,
                -1.179475583570863
            ]
        },
        {
            "positions": [
                -2.4414598157089507,
                -0.7069577582148997,
                -0.0595905967086513,
                -0.10369285502993526,
                -0.4239664214939458,
                -1.0356668443586257
            ]
        },
        {
            "positions": [
                -2.375910423544842,
                -0.7202463043029476,
                -0.12699661595739853,
                -0.123941211253771,
                -0.5073325369531863,
                -0.8918581051463885
            ]
        },
        {
            "positions": [
                -2.310361031380733,
                -0.7335348503909954,
                -0.19440263520614576,
                -0.14418956747760678,
                -0.5906986524124269,
                -0.7480493659341512
            ]
        },
        {
            "positions": [
                -2.2448116392166244,
                -0.7468233964790434,
                -0.2618086544548931,
                -0.16443792370144253,
                -0.6740647678716675,
                -0.6042406267219138
            ]
        },
        {
            "positions": [
                -2.179262247052516,
                -0.7601119425670912,
                -0.3292146737036403,
                -0.18468627992527828,
                -0.757430883330908,
                -0.46043188750967645
            ]
        },
        {
            "positions": [
                -2.113712854888407,
                -0.7734004886551391,
                -0.39662069295238755,
                -0.204934636149114,
                -0.8407969987901486,
                -0.3166231482974393
            ]
        },
        {
            "positions": [
                -2.0481634627242986,
                -0.786689034743187,
                -0.4640267122011348,
                -0.22518299237294975,
                -0.9241631142493891,
                -0.172814409085202
            ]
        },
        {
            "positions": [
                -1.8142114928712694,
                -0.8055796320948085,
                -0.47644877942420416,
                -0.16505656931148802,
                -0.918950101654002,
                -0.11056009357155606
            ]
        },
        {
            "positions": [
                -1.5802595230182404,
                -0.8244702294464302,
                -0.4888708466472735,
                -0.10493014625002628,
                -0.9137370890586151,
                -0.04830577805791014
            ]
        },
        {
            "positions": [
                -1.3463075531652111,
                -0.8433608267980518,
                -0.5012929138703428,
                -0.044803723188564515,
                -0.908524076463228,
                0.013948537455735793
            ]
        },
        {
            "positions": [
                -1.112355583312182,
                -0.8622514241496734,
                -0.5137149810934122,
                0.015322699872897194,
                -0.9033110638678409,
                0.0762028529693817
            ]
        },
        {
            "positions": [
                -0.8784036134591529,
                -0.8811420215012951,
                -0.5261370483164816,
                0.07544912293435896,
                -0.8980980512724539,
                0.1384571684830276
            ]
        },
        {
            "positions": [
                -0.6444516436061236,
                -0.9000326188529166,
                -0.5385591155395509,
                0.13557554599582072,
                -0.8928850386770668,
                0.20071148399667357
            ]
        },
        {
            "positions": [
                -0.4104996737530948,
                -0.9189232162045382,
                -0.5509811827626203,
                0.19570196905728238,
                -0.8876720260816797,
                0.2629657995103194
            ]
        },
        {
            "positions": [
                -0.17654770390006558,
                -0.9378138135561599,
                -0.5634032499856897,
                0.25582839211874414,
                -0.8824590134862927,
                0.3252201150239654
            ]
        },
        {
            "positions": [
                0.05740426595296366,
                -0.9567044109077815,
                -0.575825317208759,
                0.3159548151802059,
                -0.8772460008909057,
                0.3874744305376113
            ]
        },
        {
            "positions": [
                0.2913562358059929,
                -0.9755950082594032,
                -0.5882473844318283,
                0.37608123824166767,
                -0.8720329882955187,
                0.44972874605125723
            ]
        },
        {
            "positions": [
                0.5253082056590221,
                -0.9944856056110247,
                -0.6006694516548977,
                0.43620766130312943,
                -0.8668199757001316,
                0.5119830615649033
            ]
        },
        {
            "positions": [
                0.7592601755120514,
                -1.0133762029626463,
                -0.6130915188779671,
                0.4963340843645912,
                -0.8616069631047445,
                0.5742373770785492
            ]
        },
        {
            "positions": [
                0.9932121453650797,
                -1.0322668003142679,
                -0.6255135861010364,
                0.5564605074260527,
                -0.8563939505093575,
                0.636491692592195
            ]
        },
        {
            "positions": [
                1.227164115218109,
                -1.0511573976658894,
                -0.6379356533241058,
                0.6165869304875145,
                -0.8511809379139704,
                0.6987460081058409
            ]
        },
        {
            "positions": [
                1.4611160850711382,
                -1.0700479950175112,
                -0.6503577205471751,
                0.6767133535489762,
                -0.8459679253185833,
                0.7610003236194869
            ]
        },
        {
            "positions": [
                1.6950680549241675,
                -1.0889385923691328,
                -0.6627797877702445,
                0.736839776610438,
                -0.8407549127231964,
                0.8232546391331328
            ]
        },
        {
            "positions": [
                1.9290200247771967,
                -1.1078291897207544,
                -0.6752018549933139,
                0.7969661996718997,
                -0.8355419001278093,
                0.8855089546467787
            ]
        },
        {
            "positions": [
                1.8196915866852168,
                -1.168118610708694,
                -0.7632879275306932,
                0.8294848719264983,
                -0.7870202649947491,
                0.8394109765591113
            ]
        },
        {
            "positions": [
                1.7103631485932371,
                -1.228408031696634,
                -0.8513740000680725,
                0.8620035441810969,
                -0.7384986298616888,
                0.793312998471444
            ]
        },
        {
            "positions": [
                1.6010347105012572,
                -1.2886974526845738,
                -0.9394600726054518,
                0.8945222164356955,
                -0.6899769947286286,
                0.7472150203837766
            ]
        },
        {
            "positions": [
                1.4917062724092776,
                -1.3489868736725135,
                -1.0275461451428312,
                0.9270408886902941,
                -0.6414553595955684,
                0.7011170422961094
            ]
        },
        {
            "positions": [
                1.3823778343172977,
                -1.4092762946604531,
                -1.1156322176802105,
                0.9595595609448928,
                -0.5929337244625081,
                0.655019064208442
            ]
        },
        {
            "positions": [
                1.2730493962253178,
                -1.469565715648393,
                -1.2037182902175898,
                0.9920782331994914,
                -0.544412089329448,
                0.6089210861207747
            ]
        },
        {
            "positions": [
                1.163720958133338,
                -1.5298551366363329,
                -1.2918043627549691,
                1.02459690545409,
                -0.4958904541963878,
                0.5628231080331074
            ]
        },
        {
            "positions": [
                1.0543925200413582,
                -1.5901445576242725,
                -1.3798904352923484,
                1.0571155777086885,
                -0.44736881906332754,
                0.5167251299454401
            ]
        },
        {
            "positions": [
                0.9450640819493784,
                -1.6504339786122122,
                -1.4679765078297278,
                1.0896342499632872,
                -0.39884718393026736,
                0.47062715185777265
            ]
        },
        {
            "positions": [
                0.8357356438573986,
                -1.710723399600152,
                -1.5560625803671073,
                1.1221529222178859,
                -0.3503255487972071,
                0.42452917377010535
            ]
        },
        {
            "positions": [
                0.7264072057654187,
                -1.771012820588092,
                -1.6441486529044869,
                1.1546715944724846,
                -0.30180391366414683,
                0.378431195682438
            ]
        },
        {
            "positions": [
                0.617078767673439,
                -1.8313022415760316,
                -1.732234725441866,
                1.187190266727083,
                -0.25328227853108676,
                0.33233321759477064
            ]
        },
        {
            "positions": [
                0.5077503295814592,
                -1.8915916625639715,
                -1.8203207979792455,
                1.2197089389816815,
                -0.20476064339802647,
                0.2862352395071033
            ]
        },
        {
            "positions": [
                0.3984218914894795,
                -1.9518810835519111,
                -1.9084068705166246,
                1.2522276112362802,
                -0.15623900826496628,
                0.24013726141943603
            ]
        },
        {
            "positions": [
                0.28909345339749937,
                -2.012170504539851,
                -1.9964929430540042,
                1.284746283490879,
                -0.10771737313190599,
                0.19403928333176856
            ]
        },
        {
            "positions": [
                0.1797650153055197,
                -2.0724599255277907,
                -2.084579015591383,
                1.3172649557454774,
                -0.05919573799884581,
                0.14794130524410132
            ]
        },
        {
            "positions": [
                0.0704365772135398,
                -2.1327493465157303,
                -2.172665088128763,
                1.3497836280000761,
                -0.010674102865785629,
                0.10184332715643396
            ]
        },
        {
            "positions": [
                -0.03889186087843988,
                -2.19303876750367,
                -2.2607511606661417,
                1.3823023002546746,
                0.03784753226727455,
                0.0557453490687666
            ]
        },
        {
            "positions": [
                -0.1482202989704196,
                -2.25332818849161,
                -2.3488372332035214,
                1.4148209725092733,
                0.08636916740033485,
                0.009647370981099287
            ]
        },
        {
            "positions": [
                -0.18531826998996964,
                -2.27908614302228,
                -2.3784111498004616,
                1.5006162985492864,
                0.1698967334137425,
                0.007177025775231539
            ]
        }
    ]
}