{
    "goal": {
        "global_pose": {
            "orientation": {
                "w": 0.005598929693374612,
                "x": 0.007748599140229565,
                "y": 0.7110244013736278,
                "z": -0.7031023480610252
            },
            "position": {
                "x": -0.8858502320852131,
                "y": -0.7141253447532654,
                "z": 0.3711530566215515
            }
        },
        "name": "move_to_auspresseinheit_C"
    },
    "id": "EST_move_to_auspresseinheit_C_81",
    "joint_names": [
        "shoulder_pan_joint",
        "shoulder_lift_joint",
        "elbow_joint",
        "wrist_1_joint",
        "wrist_2_joint",
        "wrist_3_joint"
    ],
    "metrics": {
        "cart_traj_len": 0.4925711149747689,
        "distance_elbow_joint": 0.9936770646947546,
        "distance_shoulder_lift_joint": 0.3222173621745573,
        "distance_shoulder_pan_joint": 0.2565068896174765,
        "distance_wrist_1_joint": 0.6671724806443194,
        "distance_wrist_2_joint": 1.307178743779367,
        "distance_wrist_3_joint": 0.044531500405619706,
        "smoothness": 0.0,
        "time": 0.018802562999999998,
        "traj_len": 1.8950683473996641,
        "weighted_distance": 2.3779609472300045
    },
    "planner": "EST",
    "start": {
        "state": {
            "elbow_joint": 1.7527959577737207,
            "shoulder_lift_joint": -0.9740617694225068,
            "shoulder_pan_joint": -2.967991417825858,
            "wrist_1_joint": -0.759517768980727,
            "wrist_2_joint": 1.7443932448377408,
            "wrist_3_joint": -3.0840537646736568
        }
    },
    "waypoints": [
        {
            "positions": [
                -2.967991417825858,
                -0.9740617694225068,
                1.7527959577737207,
                -0.759517768980727,
                1.7443932448377408,
                -3.0840537646736568
            ]
        },
        {
            "positions": [
                -2.94234072886411,
                -0.941840033205051,
                1.6534282513042453,
                -0.6928005209162951,
                1.6136753704598041,
                -3.088506914714219
            ]
        },
        {
            "positions": [
                -2.9166900399023628,
                -0.9096182969875953,
                1.5540605448347697,
                -0.626083272851863,
                1.4829574960818674,
                -3.092960064754781
            ]
        },
        {
            "positions": [
                -2.891039350940615,
                -0.8773965607701396,
                1.4546928383652942,
                -0.5593660247874311,
                1.3522396217039307,
                -3.097413214795343
            ]
        },
        {
            "positions": [
                -2.8653886619788675,
                -0.8451748245526838,
                1.3553251318958188,
                -0.49264877672299917,
                1.221521747325994,
                -3.101866364835905
            ]
        },
        {
            "positions": [
                -2.8397379730171197,
                -0.8129530883352281,
                1.2559574254263435,
                -0.42593152865856726,
                1.0908038729480574,
                -3.106319514876467
            ]
        },
        {
            "positions": [
                -2.814087284055372,
                -0.7807313521177723,
                1.156589718956868,
                -0.35921428059413535,
                0.9600859985701207,
                -3.1107726649170284
            ]
        },
        {
            "positions": [
                -2.7884365950936245,
                -0.7485096159003166,
                1.0572220124873923,
                -0.2924970325297034,
                0.8293681241921841,
                -3.1152258149575904
            ]
        },
        {
            "positions": [
                -2.7627859061318767,
                -0.7162878796828609,
                0.957854306017917,
                -0.22577978446527136,
                0.6986502498142473,
                -3.1196789649981524
            ]
        },
        {
            "positions": [
                -2.7371352171701293,
                -0.6840661434654052,
                0.8584865995484415,
                -0.15906253640083945,
                0.5679323754363106,
                -3.1241321150387145
            ]
        },
        {
            "positions": [
                -2.7114845282083815,
                -0.6518444072479495,
                0.7591188930789661,
                -0.0923452883364075,
                0.437214501058374,
                -3.1285852650792765
            ]
        }
    ]
}