{
    "goal": {
        "global_pose": {
            "orientation": {
                "w": -0.00223480608172531,
                "x": 0.0024358444001904467,
                "y": 0.7094548369677653,
                "z": -0.704743149386269
            },
            "position": {
                "x": -0.37947507619857795,
                "y": -0.6371506643295288,
                "z": 0.19426114857196808
            }
        },
        "name": "move_to_magneteinheit_C"
    },
    "id": "EST_move_to_magneteinheit_C_44",
    "joint_names": [
        "shoulder_pan_joint",
        "shoulder_lift_joint",
        "elbow_joint",
        "wrist_1_joint",
        "wrist_2_joint",
        "wrist_3_joint"
    ],
    "metrics": {
        "cart_traj_len": 1.2647500035385102,
        "distance_elbow_joint": 0.9335285115400889,
        "distance_shoulder_lift_joint": 0.2687157148722197,
        "distance_shoulder_pan_joint": 1.340509405444253,
        "distance_wrist_1_joint": 0.29901932238928497,
        "distance_wrist_2_joint": 1.6314623166050015,
        "distance_wrist_3_joint": 1.0656987404440663,
        "smoothness": 1.6871331623387753,
        "time": 3.081542431,
        "traj_len": 2.353494000692357,
        "weighted_distance": 3.0985178926669654
    },
    "planner": "EST",
    "start": {
        "state": {
            "elbow_joint": 1.9565354010623817,
            "shoulder_lift_joint": -1.4165861575791021,
            "shoulder_pan_joint": -1.6717766225146293,
            "wrist_1_joint": -0.5286633292919765,
            "wrist_2_joint": 1.472756589071564,
            "wrist_3_joint": -3.1238370188695823
        }
    },
    "waypoints": [
        {
            "positions": [
                -1.6717766225146293,
                -1.4165861575791021,
                1.9565354010623817,
                -0.5286633292919765,
                1.472756589071564,
                -3.1238370188695823
            ]
        },
        {
            "positions": [
                -1.5373144968836434,
                -1.4203404567329097,
                1.8613237753724776,
                -0.5306922741761274,
                1.3749442390126634,
                -3.0889241514561987
            ]
        },
        {
            "positions": [
                -1.4028523712526573,
                -1.4240947558867174,
                1.7661121496825736,
                -0.5327212190602784,
                1.2771318889537628,
                -3.054011284042815
            ]
        },
        {
            "positions": [
                -1.441490373782718,
                -1.4182569551040354,
                1.8364185642567572,
                -0.5660531343841629,
                1.1308360381164846,
                -2.9895016636451426
            ]
        },
        {
            "positions": [
                -1.4801283763127788,
                -1.4124191543213536,
                1.9067249788309406,
                -0.5993850497080475,
                0.9845401872792063,
                -2.9249920432474696
            ]
        },
        {
            "positions": [
                -1.5187663788428396,
                -1.4065813535386715,
                1.9770313934051242,
                -0.6327169650319321,
                0.8382443364419282,
                -2.860482422849797
            ]
        },
        {
            "positions": [
                -1.5574043813729004,
                -1.4007435527559895,
                2.0473378079793076,
                -0.6660488803558167,
                0.6919484856046499,
                -2.7959728024521247
            ]
        },
        {
            "positions": [
                -1.5960423839029612,
                -1.3949057519733075,
                2.1176442225534915,
                -0.6993807956797014,
                0.5456526347673717,
                -2.731463182054452
            ]
        },
        {
            "positions": [
                -1.634680386433022,
                -1.3890679511906256,
                2.187950637127675,
                -0.7327127110035859,
                0.39935678393009355,
                -2.666953561656779
            ]
        },
        {
            "positions": [
                -1.6733183889630827,
                -1.3832301504079436,
                2.2582570517018583,
                -0.7660446263274705,
                0.25306093309281535,
                -2.6024439412591067
            ]
        },
        {
            "positions": [
                -1.8068382450417253,
                -1.3465063985603052,
                2.2164303253450255,
                -0.7763176305531023,
                0.3216887098638575,
                -2.6931615517313716
            ]
        },
        {
            "positions": [
                -1.9403581011203679,
                -1.3097826467126668,
                2.174603598988193,
                -0.7865906347787341,
                0.39031648663489965,
                -2.783879162203637
            ]
        },
        {
            "positions": [
                -2.0738779571990102,
                -1.2730588948650283,
                2.1327768726313603,
                -0.796863639004366,
                0.45894426340594185,
                -2.8745967726759023
            ]
        },
        {
            "positions": [
                -2.207397813277653,
                -1.23633514301739,
                2.0909501462745275,
                -0.8071366432299978,
                0.5275720401769839,
                -2.965314383148167
            ]
        },
        {
            "positions": [
                -2.340917669356296,
                -1.1996113911697515,
                2.049123419917695,
                -0.8174096474556296,
                0.5961998169480262,
                -3.056031993620432
            ]
        },
        {
            "positions": [
                -2.4744375254349382,
                -1.162887639322113,
                2.0072966935608623,
                -0.8276826516812614,
                0.6648275937190683,
                -3.1467496040926974
            ]
        }
    ]
}