{
    "goal": {
        "global_pose": {
            "orientation": {
                "w": 0.5084816262002911,
                "x": -0.4908360881923452,
                "y": 0.5182115481033761,
                "z": -0.48164630358495003
            },
            "position": {
                "x": 0.5540239810943604,
                "y": -0.46912469901144505,
                "z": 0.16403168439865112
            }
        },
        "name": "move_to_storage_B"
    },
    "id": "EST_move_to_storage_B_77",
    "joint_names": [
        "shoulder_pan_joint",
        "shoulder_lift_joint",
        "elbow_joint",
        "wrist_1_joint",
        "wrist_2_joint",
        "wrist_3_joint"
    ],
    "metrics": {
        "cart_traj_len": 0.7120840699552553,
        "distance_elbow_joint": 0.43031846497144643,
        "distance_shoulder_lift_joint": 0.46016615429460117,
        "distance_shoulder_pan_joint": 0.4234240802228676,
        "distance_wrist_1_joint": 3.0305978510250355,
        "distance_wrist_2_joint": 2.718591026095066,
        "distance_wrist_3_joint": 3.1333164143977603,
        "smoothness": 0.16698726666252933,
        "time": 0.16988029100000002,
        "traj_len": 3.193182423696895,
        "weighted_distance": 4.712985857916657
    },
    "planner": "EST",
    "start": {
        "state": {
            "elbow_joint": 1.664937868594044,
            "shoulder_lift_joint": -0.661644460510453,
            "shoulder_pan_joint": -0.9139846352900073,
            "wrist_1_joint": 2.146753192139373,
            "wrist_2_joint": -2.2341966793290973,
            "wrist_3_joint": 0.005466555786416001
        }
    },
    "waypoints": [
        {
            "positions": [
                -0.9139846352900073,
                -0.661644460510453,
                1.664937868594044,
                2.146753192139373,
                -2.2341966793290973,
                0.005466555786416001
            ]
        },
        {
            "positions": [
                -0.7924654709534862,
                -0.713295558301525,
                1.628477545253554,
                2.1543504551700092,
                -2.1966422806477857,
                0.015598387915302658
            ]
        },
        {
            "positions": [
                -0.8040771984875764,
                -0.7290076758593531,
                1.6436259353162832,
                2.038081201785609,
                -2.093525487285718,
                -0.10452409601811558
            ]
        },
        {
            "positions": [
                -0.8156889260216666,
                -0.7447197934171811,
                1.6587743253790121,
                1.9218119484012093,
                -1.9904086939236507,
                -0.2246465799515338
            ]
        },
        {
            "positions": [
                -0.827300653555757,
                -0.7604319109750092,
                1.6739227154417413,
                1.8055426950168092,
                -1.8872919005615831,
                -0.34476906388495204
            ]
        },
        {
            "positions": [
                -0.8389123810898472,
                -0.7761440285328371,
                1.6890711055044705,
                1.6892734416324093,
                -1.7841751071995158,
                -0.4648915478183703
            ]
        },
        {
            "positions": [
                -0.8505241086239375,
                -0.7918561460906652,
                1.7042194955671994,
                1.5730041882480092,
                -1.6810583138374482,
                -0.5850140317517885
            ]
        },
        {
            "positions": [
                -0.8621358361580277,
                -0.8075682636484933,
                1.7193678856299286,
                1.4567349348636092,
                -1.5779415204753806,
                -0.7051365156852067
            ]
        },
        {
            "positions": [
                -0.8737475636921179,
                -0.8232803812063213,
                1.7345162756926578,
                1.3404656814792095,
                -1.4748247271133135,
                -0.8252589996186248
            ]
        },
        {
            "positions": [
                -0.8853592912262082,
                -0.8389924987641494,
                1.749664665755387,
                1.2241964280948094,
                -1.371707933751246,
                -0.9453814835520432
            ]
        },
        {
            "positions": [
                -0.8969710187602984,
                -0.8547046163219774,
                1.7648130558181159,
                1.1079271747104094,
                -1.2685911403891783,
                -1.0655039674854612
            ]
        },
        {
            "positions": [
                -0.9085827462943887,
                -0.8704167338798054,
                1.779961445880845,
                0.9916579213260093,
                -1.1654743470271107,
                -1.1856264514188797
            ]
        },
        {
            "positions": [
                -0.920194473828479,
                -0.8861288514376335,
                1.7951098359435742,
                0.8753886679416094,
                -1.0623575536650434,
                -1.3057489353522977
            ]
        },
        {
            "positions": [
                -0.9318062013625692,
                -0.9018409689954616,
                1.8102582260063032,
                0.7591194145572093,
                -0.9592407603029758,
                -1.4258714192857163
            ]
        },
        {
            "positions": [
                -0.9434179288966594,
                -0.9175530865532896,
                1.8254066160690323,
                0.6428501611728095,
                -0.8561239669409084,
                -1.5459939032191343
            ]
        },
        {
            "positions": [
                -0.9550296564307497,
                -0.9332652041111176,
                1.8405550061317615,
                0.5265809077884096,
                -0.7530071735788411,
                -1.6661163871525524
            ]
        },
        {
            "positions": [
                -0.9666413839648399,
                -0.9489773216689457,
                1.8557033961944904,
                0.41031165440400974,
                -0.6498903802167737,
                -1.7862388710859705
            ]
        },
        {
            "positions": [
                -0.9782531114989301,
                -0.9646894392267737,
                1.8708517862572196,
                0.29404240101960943,
                -0.5467735868547059,
                -1.906361355019389
            ]
        },
        {
            "positions": [
                -0.9898648390330205,
                -0.9804015567846018,
                1.8860001763199488,
                0.17777314763520957,
                -0.44365679349263853,
                -2.026483838952807
            ]
        },
        {
            "positions": [
                -1.0014765665671106,
                -0.9961136743424298,
                1.9011485663826777,
                0.06150389425080949,
                -0.3405400001305712,
                -2.146606322886225
            ]
        },
        {
            "positions": [
                -1.013088294101201,
                -1.0118257919002578,
                1.9162969564454069,
                -0.05476535913359015,
                -0.2374232067685036,
                -2.266728806819643
            ]
        },
        {
            "positions": [
                -1.0247000216352913,
                -1.0275379094580859,
                1.931445346508136,
                -0.17103461251799068,
                -0.1343064134064358,
                -2.3868512907530617
            ]
        },
        {
            "positions": [
                -1.0363117491693814,
                -1.043250027015914,
                1.9465937365708652,
                -0.2873038659023903,
                -0.03118962004436865,
                -2.5069737746864798
            ]
        },
        {
            "positions": [
                -1.0479234767034717,
                -1.058962144573742,
                1.9617421266335942,
                -0.4035731192867904,
                0.07192717331769893,
                -2.6270962586198983
            ]
        },
        {
            "positions": [
                -1.0595352042375619,
                -1.0746742621315701,
                1.9768905166963233,
                -0.51984237267119,
                0.17504396667976607,
                -2.7472187425533163
            ]
        },
        {
            "positions": [
                -1.0711469317716522,
                -1.0903863796893982,
                1.9920389067590525,
                -0.6361116260555906,
                0.2781607600418341,
                -2.867341226486735
            ]
        },
        {
            "positions": [
                -1.0827586593057426,
                -1.106098497247226,
                2.0071872968217814,
                -0.7523808794399902,
                0.38127755340390124,
                -2.987463710420153
            ]
        },
        {
            "positions": [
                -1.0943703868398327,
                -1.1218106148050542,
                2.0223356868845106,
                -0.8686501328243903,
                0.48439434676596893,
                -3.107586194353571
            ]
        }
    ]
}