{
    "goal": {
        "global_pose": {
            "orientation": {
                "w": -0.4816463035849501,
                "x": 0.5182115481033762,
                "y": 0.4908360881923453,
                "z": -0.5084816262002911
            },
            "position": {
                "x": -0.8240239810943604,
                "y": 0.19912469901144506,
                "z": 0.16403168439865112
            }
        },
        "name": "move_to_storage_D"
    },
    "id": "EST_move_to_storage_D_119",
    "joint_names": [
        "shoulder_pan_joint",
        "shoulder_lift_joint",
        "elbow_joint",
        "wrist_1_joint",
        "wrist_2_joint",
        "wrist_3_joint"
    ],
    "metrics": {
        "cart_traj_len": 0.6366403694512608,
        "distance_elbow_joint": 0.5545447201302183,
        "distance_shoulder_lift_joint": 0.15281769462759875,
        "distance_shoulder_pan_joint": 0.4017707572390853,
        "distance_wrist_1_joint": 3.969143519398541,
        "distance_wrist_2_joint": 1.892011285363632,
        "distance_wrist_3_joint": 3.1177030540473223,
        "smoothness": 0.1907517992198662,
        "time": 0.1354272,
        "traj_len": 3.1761597930215024,
        "weighted_distance": 4.710047976789962
    },
    "planner": "EST",
    "start": {
        "state": {
            "elbow_joint": -2.384821988534728,
            "shoulder_lift_joint": -2.2788054721415256,
            "shoulder_pan_joint": -0.1854694642142757,
            "wrist_1_joint": 1.4845938289331202,
            "wrist_2_joint": 0.17898776772866878,
            "wrist_3_joint": 0.037105688729662994
        }
    },
    "waypoints": [
        {
            "positions": [
                -0.1854694642142757,
                -2.2788054721415256,
                -2.384821988534728,
                1.4845938289331202,
                0.17898776772866878,
                0.037105688729662994
            ]
        },
        {
            "positions": [
                -0.14335868269051658,
                -2.2632101744339552,
                -2.354796782290556,
                1.4959339905514581,
                0.18843972591837316,
                0.027185957755194064
            ]
        },
        {
            "positions": [
                -0.025900531225370463,
                -2.214105425997741,
                -2.2580598095224733,
                1.526004469118985,
                0.21250264344941094,
                -0.0022897050964948915
            ]
        },
        {
            "positions": [
                0.09155762023977565,
                -2.1650006775615265,
                -2.1613228367543904,
                1.5560749476865117,
                0.23656556098044873,
                -0.03176536794818385
            ]
        },
        {
            "positions": [
                0.0863599672070659,
                -2.1633751400595433,
                -2.1475292714064786,
                1.3936723476596304,
                0.1601308321424549,
                -0.15880003450524532
            ]
        },
        {
            "positions": [
                0.08116231417435615,
                -2.1617496025575598,
                -2.133735706058567,
                1.2312697476327492,
                0.08369610330446109,
                -0.2858347010623068
            ]
        },
        {
            "positions": [
                0.0759646611416464,
                -2.1601240650555766,
                -2.119942140710655,
                1.068867147605868,
                0.007261374466467241,
                -0.41286936761936827
            ]
        },
        {
            "positions": [
                0.07076700810893666,
                -2.158498527553593,
                -2.106148575362744,
                0.9064645475789868,
                -0.06917335437152655,
                -0.5399040341764297
            ]
        },
        {
            "positions": [
                0.0655693550762269,
                -2.15687299005161,
                -2.092355010014832,
                0.7440619475521054,
                -0.14560808320952046,
                -0.6669387007334913
            ]
        },
        {
            "positions": [
                0.06037170204351715,
                -2.1552474525496264,
                -2.0785614446669203,
                0.5816593475252242,
                -0.22204281204751425,
                -0.7939733672905527
            ]
        },
        {
            "positions": [
                0.05517404901080739,
                -2.153621915047643,
                -2.0647678793190085,
                0.41925674749834285,
                -0.2984775408855081,
                -0.9210080338476142
            ]
        },
        {
            "positions": [
                0.04997639597809765,
                -2.15199637754566,
                -2.0509743139710968,
                0.25685414747146185,
                -0.37491226972350183,
                -1.0480427004046755
            ]
        },
        {
            "positions": [
                0.044778742945387896,
                -2.1503708400436765,
                -2.037180748623185,
                0.0944515474445804,
                -0.4513469985614957,
                -1.175077366961737
            ]
        },
        {
            "positions": [
                0.03958108991267814,
                -2.1487453025416934,
                -2.0233871832752732,
                -0.06795105258230083,
                -0.5277817273994896,
                -1.3021120335187986
            ]
        },
        {
            "positions": [
                0.0343834368799684,
                -2.14711976503971,
                -2.009593617927362,
                -0.23035365260918206,
                -0.6042164562374834,
                -1.4291467000758598
            ]
        },
        {
            "positions": [
                0.029185783847258645,
                -2.1454942275377267,
                -1.9958000525794501,
                -0.3927562526360633,
                -0.6806511850754773,
                -1.5561813666329214
            ]
        },
        {
            "positions": [
                0.023988130814548897,
                -2.1438686900357435,
                -1.9820064872315384,
                -0.5551588526629443,
                -0.7570859139134709,
                -1.6832160331899828
            ]
        },
        {
            "positions": [
                0.018790477781839135,
                -2.14224315253376,
                -1.9682129218836266,
                -0.717561452689826,
                -0.833520642751465,
                -1.8102506997470444
            ]
        },
        {
            "positions": [
                0.0135928247491294,
                -2.140617615031777,
                -1.9544193565357149,
                -0.8799640527167072,
                -0.9099553715894588,
                -1.9372853663041059
            ]
        },
        {
            "positions": [
                0.008395171716419653,
                -2.1389920775297933,
                -1.9406257911878033,
                -1.042366652743588,
                -0.9863901004274525,
                -2.0643200328611675
            ]
        },
        {
            "positions": [
                0.0031975186837098907,
                -2.13736654002781,
                -1.9268322258398916,
                -1.2047692527704696,
                -1.0628248292654465,
                -2.191354699418229
            ]
        },
        {
            "positions": [
                -0.0020001343489998574,
                -2.135741002525827,
                -1.9130386604919798,
                -1.3671718527973509,
                -1.1392595581034402,
                -2.3183893659752903
            ]
        },
        {
            "positions": [
                -0.0071977873817096055,
                -2.1341154650238434,
                -1.8992450951440683,
                -1.5295744528242317,
                -1.215694286941434,
                -2.445424032532352
            ]
        },
        {
            "positions": [
                -0.012395440414419368,
                -2.1324899275218603,
                -1.8854515297961565,
                -1.6919770528511133,
                -1.292129015779428,
                -2.5724586990894136
            ]
        },
        {
            "positions": [
                -0.017593093447129116,
                -2.1308643900198767,
                -1.8716579644482447,
                -1.8543796528779946,
                -1.3685637446174217,
                -2.699493365646475
            ]
        },
        {
            "positions": [
                -0.02279074647983885,
                -2.1292388525178936,
                -1.857864399100333,
                -2.016782252904876,
                -1.4449984734554155,
                -2.826528032203536
            ]
        },
        {
            "positions": [
                -0.027988399512548612,
                -2.12761331501591,
                -1.8440708337524214,
                -2.179184852931757,
                -1.5214332022934094,
                -2.953562698760598
            ]
        },
        {
            "positions": [
                -0.03318605254525835,
                -2.125987777513927,
                -1.8302772684045097,
                -2.3415874529586382,
                -1.5978679311314032,
                -3.0805973653176593
            ]
        }
    ]
}