{
    "goal": {
        "global_pose": {
            "orientation": {
                "w": 0.5084816217422485,
                "x": -0.49083608388900757,
                "y": 0.5182115435600281,
                "z": -0.4816462993621826
            },
            "position": {
                "x": 0.5540239810943604,
                "y": 0.030875300988554955,
                "z": 0.16403168439865112
            }
        },
        "name": "move_to_storage_A"
    },
    "id": "EST_move_to_storage_A_101",
    "joint_names": [
        "shoulder_pan_joint",
        "shoulder_lift_joint",
        "elbow_joint",
        "wrist_1_joint",
        "wrist_2_joint",
        "wrist_3_joint"
    ],
    "metrics": {
        "cart_traj_len": 0.35217980603890464,
        "distance_elbow_joint": 0.4488241099069461,
        "distance_shoulder_lift_joint": 0.2346434504504007,
        "distance_shoulder_pan_joint": 0.4578682961056669,
        "distance_wrist_1_joint": 0.2414269975469624,
        "distance_wrist_2_joint": 1.1082417073890383,
        "distance_wrist_3_joint": 0.10190235223064192,
        "smoothness": 8.881784197001252e-16,
        "time": 0.04156464,
        "traj_len": 1.61025057479563,
        "weighted_distance": 2.0362662701687473
    },
    "planner": "EST",
    "start": {
        "state": {
            "elbow_joint": 1.971548259319323,
            "shoulder_lift_joint": -1.1394851275133948,
            "shoulder_pan_joint": 0.1228115487234821,
            "wrist_1_joint": -0.7804723859257726,
            "wrist_2_joint": 0.12958671773740124,
            "wrist_3_joint": -3.192489227718131
        }
    },
    "waypoints": [
        {
            "positions": [
                0.1228115487234821,
                -1.1394851275133948,
                1.971548259319323,
                -0.7804723859257726,
                0.12958671773740124,
                -3.192489227718131
            ]
        },
        {
            "positions": [
                0.05740179213695826,
                -1.1730056204348807,
                2.0356659893060294,
                -0.81496195700391,
                0.287906961650121,
                -3.1779317488280396
            ]
        },
        {
            "positions": [
                -0.008007964449565586,
                -1.2065261133563665,
                2.099783719292736,
                -0.8494515280820476,
                0.4462272055628407,
                -3.1633742699379477
            ]
        },
        {
            "positions": [
                -0.07341772103608943,
                -1.2400466062778523,
                2.1639014492794426,
                -0.883941099160185,
                0.6045474494755605,
                -3.148816791047856
            ]
        },
        {
            "positions": [
                -0.13882747762261327,
                -1.273567099199338,
                2.2280191792661492,
                -0.9184306702383226,
                0.7628676933882802,
                -3.134259312157764
            ]
        },
        {
            "positions": [
                -0.20423723420913714,
                -1.3070875921208238,
                2.292136909252856,
                -0.95292024131646,
                0.921187937301,
                -3.1197018332676727
            ]
        },
        {
            "positions": [
                -0.26964699079566096,
                -1.3406080850423097,
                2.3562546392395625,
                -0.9874098123945976,
                1.0795081812137197,
                -3.1051443543775807
            ]
        },
        {
            "positions": [
                -0.3350567473821848,
                -1.3741285779637955,
                2.420372369226269,
                -1.021899383472735,
                1.2378284251264395,
                -3.0905868754874892
            ]
        }
    ]
}{
    "goal": {
        "global_pose": {
            "orientation": {
                "w": 0.5084816217422485,
                "x": -0.49083608388900757,
                "y": 0.5182115435600281,
                "z": -0.4816462993621826
            },
            "position": {
                "x": 0.5540239810943604,
                "y": 0.030875300988554955,
                "z": 0.16403168439865112
            }
        },
        "name": "move_to_storage_A"
    },
    "id": "EST_move_to_storage_A_101",
    "joint_names": [
        "shoulder_pan_joint",
        "shoulder_lift_joint",
        "elbow_joint",
        "wrist_1_joint",
        "wrist_2_joint",
        "wrist_3_joint"
    ],
    "metrics": {
        "cart_traj_len": 0.3533873495195232,
        "distance_elbow_joint": 0.4537481145364106,
        "distance_shoulder_lift_joint": 0.23578251102669556,
        "distance_shoulder_pan_joint": 0.46074531064966057,
        "distance_wrist_1_joint": 0.2590134038181906,
        "distance_wrist_2_joint": 1.1060896899435748,
        "distance_wrist_3_joint": 0.09330618120586376,
        "smoothness": 1.3322676295501878e-15,
        "time": 0.070419062,
        "traj_len": 1.6151424739571416,
        "weighted_distance": 2.039706024738342
    },
    "planner": "EST",
    "start": {
        "state": {
            "elbow_joint": 1.97154746011099,
            "shoulder_lift_joint": -1.13948474672311,
            "shoulder_pan_joint": 0.12281154466712228,
            "wrist_1_joint": -0.7804688027058302,
            "wrist_2_joint": 0.12958655903071145,
            "wrist_3_joint": 3.0906928834467795
        }
    },
    "waypoints": [
        {
            "positions": [
                0.12281154466712228,
                -1.13948474672311,
                1.97154746011099,
                -0.7804688027058302,
                0.12958655903071145,
                3.0906928834467795
            ]
        },
        {
            "positions": [
                0.05699078600288507,
                -1.1731679625840665,
                2.036368619330477,
                -0.8174707175370003,
                0.28759937187979356,
                3.1040223379047602
            ]
        },
        {
            "positions": [
                -0.008829972661352145,
                -1.2068511784450229,
                2.1011897785499642,
                -0.8544726323681704,
                0.44561218472887565,
                3.1173517923627405
            ]
        },
        {
            "positions": [
                -0.07465073132558937,
                -1.2405343943059794,
                2.1660109377694514,
                -0.8914745471993404,
                0.6036249975779577,
                3.1306812468207212
            ]
        },
        {
            "positions": [
                -0.14047148998982656,
                -1.274217610166936,
                2.230832096988939,
                -0.9284764620305105,
                0.7616378104270399,
                3.1440107012787015
            ]
        },
        {
            "positions": [
                -0.20629224865406381,
                -1.3079008260278926,
                2.295653256208426,
                -0.9654783768616806,
                0.9196506232761221,
                3.1573401557366823
            ]
        },
        {
            "positions": [
                -0.272113007318301,
                -1.341584041888849,
                2.3604744154279134,
                -1.0024802916928506,
                1.077663436125204,
                3.1706696101946625
            ]
        },
        {
            "positions": [
                -0.33793376598253827,
                -1.3752672577498055,
                2.4252955746474005,
                -1.0394822065240208,
                1.2356762489742863,
                3.1839990646526433
            ]
        }
    ]
}{
    "goal": {
        "global_pose": {
            "orientation": {
                "w": 0.5084816217422485,
                "x": -0.49083608388900757,
                "y": 0.5182115435600281,
                "z": -0.4816462993621826
            },
            "position": {
                "x": 0.5540239810943604,
                "y": 0.030875300988554955,
                "z": 0.16403168439865112
            }
        },
        "name": "move_to_storage_A"
    },
    "id": "EST_move_to_storage_A_101",
    "joint_names": [
        "shoulder_pan_joint",
        "shoulder_lift_joint",
        "elbow_joint",
        "wrist_1_joint",
        "wrist_2_joint",
        "wrist_3_joint"
    ],
    "metrics": {
        "cart_traj_len": 0.3531950580507273,
        "distance_elbow_joint": 0.4493243126761568,
        "distance_shoulder_lift_joint": 0.2367388293678132,
        "distance_shoulder_pan_joint": 0.4599495649028637,
        "distance_wrist_1_joint": 0.23870036287818874,
        "distance_wrist_2_joint": 1.1081215029054419,
        "distance_wrist_3_joint": 0.10523799877576234,
        "smoothness": 8.881784232165597e-16,
        "time": 0.053092365,
        "traj_len": 1.6118537686484549,
        "weighted_distance": 2.0384725739733125
    },
    "planner": "EST",
    "start": {
        "state": {
            "elbow_joint": 1.9715472970024885,
            "shoulder_lift_joint": -1.1394870060712896,
            "shoulder_pan_joint": 0.12281152778156021,
            "wrist_1_joint": -0.780463741449964,
            "wrist_2_joint": 0.12958659822042276,
            "wrist_3_joint": 3.090690232415272
        }
    },
    "waypoints": [
        {
            "positions": [
                0.12281152778156021,
                -1.1394870060712896,
                1.9715472970024885,
                -0.780463741449964,
                0.12958659822042276,
                3.090690232415272
            ]
        },
        {
            "positions": [
                0.057104447081151116,
                -1.17330683883812,
                2.035736484527654,
                -0.8145637932897053,
                0.2878896700640573,
                3.1057242322403806
            ]
        },
        {
            "positions": [
                -0.008602633619257977,
                -1.2071266716049505,
                2.099925672052819,
                -0.8486638451294465,
                0.44619274190769187,
                3.12075823206549
            ]
        },
        {
            "positions": [
                -0.07430971431966707,
                -1.240946504371781,
                2.1641148595779844,
                -0.8827638969691878,
                0.6044958137513264,
                3.1357922318905986
            ]
        },
        {
            "positions": [
                -0.14001679502007616,
                -1.2747663371386113,
                2.2283040471031494,
                -0.916863948808929,
                0.7627988855949609,
                3.1508262317157074
            ]
        },
        {
            "positions": [
                -0.20572387572048526,
                -1.308586169905442,
                2.292493234628315,
                -0.9509640006486703,
                0.9211019574385955,
                3.165860231540816
            ]
        },
        {
            "positions": [
                -0.2714309564208943,
                -1.3424060026722724,
                2.35668242215348,
                -0.9850640524884114,
                1.0794050292822301,
                3.1808942313659254
            ]
        },
        {
            "positions": [
                -0.33713803712130347,
                -1.3762258354391028,
                2.4208716096786453,
                -1.0191641043281527,
                1.2377081011258646,
                3.195928231191034
            ]
        }
    ]
}