{
    "goal": {
        "global_pose": {
            "orientation": {
                "w": 0.7031023502349854,
                "x": -0.7110244035720825,
                "y": 0.007748599164187908,
                "z": 0.005598929710686207
            },
            "position": {
                "x": 0.11585023208521307,
                "y": 0.44412534475326537,
                "z": 0.3711530566215515
            }
        },
        "name": "move_to_auspresseinheit_A"
    },
    "id": "EST_move_to_auspresseinheit_A_107",
    "joint_names": [
        "shoulder_pan_joint",
        "shoulder_lift_joint",
        "elbow_joint",
        "wrist_1_joint",
        "wrist_2_joint",
        "wrist_3_joint"
    ],
    "metrics": {
        "cart_traj_len": 0.7635534519906585,
        "distance_elbow_joint": 0.09351245734562941,
        "distance_shoulder_lift_joint": 0.5639162966866693,
        "distance_shoulder_pan_joint": 1.1585317173119554,
        "distance_wrist_1_joint": 0.8639450077292612,
        "distance_wrist_2_joint": 0.7456829674633624,
        "distance_wrist_3_joint": 0.7095027691519453,
        "smoothness": 1.4750915014046377,
        "time": 0.731938941,
        "traj_len": 2.033492369223161,
        "weighted_distance": 2.6765135398845525
    },
    "planner": "EST",
    "start": {
        "state": {
            "elbow_joint": 2.4225746658250005,
            "shoulder_lift_joint": -1.3736534386056498,
            "shoulder_pan_joint": -0.3378633547517467,
            "wrist_1_joint": -1.0288598680537169,
            "wrist_2_joint": 1.233022673432363,
            "wrist_3_joint": -3.0940220416140027
        }
    },
    "waypoints": [
        {
            "positions": [
                -0.3378633547517467,
                -1.3736534386056498,
                2.4225746658250005,
                -1.0288598680537169,
                1.233022673432363,
                -3.0940220416140027
            ]
        },
        {
            "positions": [
                -0.32492100147943503,
                -1.3944941033830551,
                2.428148524318299,
                -0.884849330622123,
                1.113782512687669,
                -3.010786334513602
            ]
        },
        {
            "positions": [
                -0.3119786482071234,
                -1.4153347681604607,
                2.433722382811598,
                -0.7408387931905291,
                0.994542351942975,
                -2.927550627413201
            ]
        },
        {
            "positions": [
                -0.29903629493481176,
                -1.436175432937866,
                2.439296241304897,
                -0.5968282557589354,
                0.875302191198281,
                -2.8443149203128
            ]
        },
        {
            "positions": [
                -0.2860939416625001,
                -1.4570160977152713,
                2.444870099798196,
                -0.4528177183273415,
                0.756062030453587,
                -2.7610792132123994
            ]
        },
        {
            "positions": [
                -0.11125012937577028,
                -1.5346063069196338,
                2.434555993490951,
                -0.4291192292527408,
                0.7293107010968984,
                -2.8183410233466355
            ]
        },
        {
            "positions": [
                0.06359368291095951,
                -1.6121965161239966,
                2.424241887183706,
                -0.4054207401781401,
                0.7025593717402099,
                -2.875602833480872
            ]
        },
        {
            "positions": [
                0.23843749519768936,
                -1.6897867253283592,
                2.4139277808764605,
                -0.3817222511035394,
                0.6758080423835213,
                -2.9328646436151082
            ]
        },
        {
            "positions": [
                0.4132813074844191,
                -1.7673769345327217,
                2.4036136745692156,
                -0.3580237620289387,
                0.6490567130268329,
                -2.9901264537493444
            ]
        },
        {
            "positions": [
                0.588125119771149,
                -1.8449671437370845,
                2.3932995682619707,
                -0.334325272954338,
                0.6223053836701443,
                -3.047388263883581
            ]
        },
        {
            "positions": [
                0.7629689320578787,
                -1.922557352941447,
                2.3829854619547257,
                -0.3106267838797373,
                0.5955540543134558,
                -3.104650074017817
            ]
        },
        {
            "positions": [
                0.7052695015555488,
                -1.907544970590575,
                2.3923178474836897,
                -0.45633870743501886,
                0.7037684026579109,
                -3.1376391539627413
            ]
        }
    ]
}