{
    "goal": {
        "global_pose": {
            "orientation": {
                "w": -0.00223480608172531,
                "x": 0.0024358444001904467,
                "y": 0.7094548369677653,
                "z": -0.704743149386269
            },
            "position": {
                "x": -0.37947507619857795,
                "y": -0.6371506643295288,
                "z": 0.19426114857196808
            }
        },
        "name": "move_to_magneteinheit_C"
    },
    "id": "EST_move_to_magneteinheit_C_134",
    "joint_names": [
        "shoulder_pan_joint",
        "shoulder_lift_joint",
        "elbow_joint",
        "wrist_1_joint",
        "wrist_2_joint",
        "wrist_3_joint"
    ],
    "metrics": {
        "cart_traj_len": 2.533576811385825,
        "distance_elbow_joint": 0.6251623311029406,
        "distance_shoulder_lift_joint": 0.7526558513301373,
        "distance_shoulder_pan_joint": 3.2804822284781925,
        "distance_wrist_1_joint": 2.1685639992311687,
        "distance_wrist_2_joint": 2.163173439274082,
        "distance_wrist_3_joint": 3.1185228158607075,
        "smoothness": 1.0787677768143058,
        "time": 0.24879388000000002,
        "traj_len": 3.479735717734498,
        "weighted_distance": 4.762073470191729
    },
    "planner": "EST",
    "start": {
        "state": {
            "elbow_joint": 1.9565354010623817,
            "shoulder_lift_joint": -1.4165861575791021,
            "shoulder_pan_joint": -1.6717766225146293,
            "wrist_1_joint": -0.5286633292919765,
            "wrist_2_joint": 1.472756589071564,
            "wrist_3_joint": -3.1238370188695823
        }
    },
    "waypoints": [
        {
            "positions": [
                -1.6717766225146293,
                -1.4165861575791021,
                1.9565354010623817,
                -0.5286633292919765,
                1.472756589071564,
                -3.1238370188695823
            ]
        },
        {
            "positions": [
                -1.5954577184814294,
                -1.423750831858213,
                1.9696907965830652,
                -0.44584011292491244,
                1.3740154904630744,
                -3.029765925071609
            ]
        },
        {
            "positions": [
                -1.5497760831458347,
                -1.430299158996369,
                1.9759230951635358,
                -0.35675386658193053,
                1.300477244755435,
                -2.867446226056255
            ]
        },
        {
            "positions": [
                -1.5040944478102403,
                -1.4368474861345246,
                1.9821553937440064,
                -0.26766762023894863,
                1.2269389990477955,
                -2.705126527040902
            ]
        },
        {
            "positions": [
                -1.4584128124746456,
                -1.4433958132726805,
                1.988387692324477,
                -0.1785813738959668,
                1.153400753340156,
                -2.5428068280255482
            ]
        },
        {
            "positions": [
                -1.4127311771390512,
                -1.4499441404108362,
                1.9946199909049476,
                -0.08949512755298489,
                1.0798625076325166,
                -2.380487129010195
            ]
        },
        {
            "positions": [
                -1.3670495418034565,
                -1.456492467548992,
                2.000852289485418,
                -0.00040888121000298705,
                1.0063242619248771,
                -2.2181674299948413
            ]
        },
        {
            "positions": [
                -1.321367906467862,
                -1.4630407946871478,
                2.0070845880658887,
                0.08867736513297886,
                0.9327860162172378,
                -2.055847730979488
            ]
        },
        {
            "positions": [
                -1.2756862711322674,
                -1.4695891218253037,
                2.013316886646359,
                0.17776361147596076,
                0.8592477705095983,
                -1.8935280319641343
            ]
        },
        {
            "positions": [
                -1.230004635796673,
                -1.4761374489634593,
                2.01954918522683,
                0.26684985781894266,
                0.7857095248019589,
                -1.7312083329487808
            ]
        },
        {
            "positions": [
                -1.1843230004610783,
                -1.4826857761016152,
                2.0257814838073003,
                0.35593610416192456,
                0.7121712790943194,
                -1.5688886339334274
            ]
        },
        {
            "positions": [
                -1.330115832452031,
                -1.4957878863560043,
                2.005506559703342,
                0.26700617068747456,
                0.6608936379073256,
                -1.627924822661605
            ]
        },
        {
            "positions": [
                -1.4759086644429837,
                -1.5088899966103935,
                1.9852316355993838,
                0.17807623721302457,
                0.6096159967203316,
                -1.6869610113897826
            ]
        },
        {
            "positions": [
                -1.6217014964339367,
                -1.5219921068647824,
                1.9649567114954254,
                0.08914630373857457,
                0.5583383555333377,
                -1.74599720011796
            ]
        },
        {
            "positions": [
                -1.7674943284248894,
                -1.5350942171191715,
                1.9446817873914672,
                0.00021637026412457683,
                0.5070607143463438,
                -1.8050333888461376
            ]
        },
        {
            "positions": [
                -1.9132871604158423,
                -1.5481963273735606,
                1.9244068632875089,
                -0.08871356321032542,
                0.4557830731593499,
                -1.8640695775743152
            ]
        },
        {
            "positions": [
                -2.059079992406795,
                -1.5612984376279497,
                1.9041319391835507,
                -0.17764349668477541,
                0.404505431972356,
                -1.9231057663024929
            ]
        },
        {
            "positions": [
                -2.204872824397748,
                -1.5744005478823389,
                1.8838570150795924,
                -0.2665734301592254,
                0.3532277907853621,
                -1.9821419550306705
            ]
        },
        {
            "positions": [
                -2.3506656563887005,
                -1.5875026581367278,
                1.8635820909756342,
                -0.3555033636336754,
                0.3019501495983682,
                -2.041178143758848
            ]
        },
        {
            "positions": [
                -2.4964584883796537,
                -1.6006047683911169,
                1.8433071668716758,
                -0.4444332971081255,
                0.25067250841137423,
                -2.1002143324870257
            ]
        },
        {
            "positions": [
                -2.6422513203706064,
                -1.613706878645506,
                1.8230322427677175,
                -0.5333632305825754,
                0.19939486722438038,
                -2.159250521215203
            ]
        },
        {
            "positions": [
                -2.788044152361559,
                -1.6268089888998951,
                1.8027573186637593,
                -0.6222931640570254,
                0.14811722603738653,
                -2.218286709943381
            ]
        },
        {
            "positions": [
                -2.933836984352512,
                -1.639911099154284,
                1.782482394559801,
                -0.7112230975314754,
                0.09683958485039257,
                -2.2773228986715583
            ]
        },
        {
            "positions": [
                -3.0796298163434646,
                -1.6530132094086731,
                1.7622074704558428,
                -0.8001530310059254,
                0.04556194366339861,
                -2.336359087399736
            ]
        },
        {
            "positions": [
                -3.2254226483344173,
                -1.6661153196630623,
                1.7419325463518844,
                -0.8890829644803753,
                -0.00571569752359527,
                -2.3953952761279136
            ]
        },
        {
            "positions": [
                -3.1314315285155043,
                -1.6032244835072902,
                1.7759409602147103,
                -0.8842147773385044,
                0.07987194656126995,
                -2.487528749719172
            ]
        },
        {
            "positions": [
                -3.037440408696592,
                -1.540333647351518,
                1.809949374077536,
                -0.8793465901966335,
                0.16545959064613516,
                -2.57966222331043
            ]
        },
        {
            "positions": [
                -2.943449288877679,
                -1.4774428111957458,
                1.8439577879403617,
                -0.8744784030547625,
                0.25104723473100043,
                -2.6717956969016883
            ]
        },
        {
            "positions": [
                -2.8494581690587664,
                -1.4145519750399735,
                1.8779662018031875,
                -0.8696102159128917,
                0.3366348788158656,
                -2.763929170492947
            ]
        },
        {
            "positions": [
                -2.7554670492398534,
                -1.3516611388842015,
                1.9119746156660133,
                -0.8647420287710208,
                0.4222225229007308,
                -2.856062644084205
            ]
        },
        {
            "positions": [
                -2.6614759294209405,
                -1.2887703027284294,
                1.945983029528839,
                -0.8598738416291498,
                0.5078101669855961,
                -2.9481961176754634
            ]
        },
        {
            "positions": [
                -2.5674848096020275,
                -1.2258794665726573,
                1.9799914433916648,
                -0.8550056544872789,
                0.5933978110704613,
                -3.0403295912667216
            ]
        },
        {
            "positions": [
                -2.473493689783115,
                -1.162988630416885,
                2.0139998572544906,
                -0.8501374673454081,
                0.6789854551553265,
                -3.13246306485798
            ]
        }
    ]
}