{
    "goal": {
        "global_pose": {
            "orientation": {
                "w": 0.7047431468963623,
                "x": -0.7094548344612122,
                "y": 0.0024358443915843964,
                "z": -0.0022348060738295317
            },
            "position": {
                "x": 0.6094750761985779,
                "y": 0.3671506643295288,
                "z": 0.19426114857196808
            }
        },
        "name": "move_to_magneteinheit_A"
    },
    "id": "EST_move_to_magneteinheit_A_88",
    "joint_names": [
        "shoulder_pan_joint",
        "shoulder_lift_joint",
        "elbow_joint",
        "wrist_1_joint",
        "wrist_2_joint",
        "wrist_3_joint"
    ],
    "metrics": {
        "cart_traj_len": 3.3867969833461427,
        "distance_elbow_joint": 3.8738729670646226,
        "distance_shoulder_lift_joint": 0.11390534797150798,
        "distance_shoulder_pan_joint": 3.2965785572060087,
        "distance_wrist_1_joint": 2.454847012822334,
        "distance_wrist_2_joint": 1.695415756229704,
        "distance_wrist_3_joint": 2.594685894096907,
        "smoothness": 0.22987630237120515,
        "time": 0.181746882,
        "traj_len": 3.745571456452418,
        "weighted_distance": 4.834143160130545
    },
    "planner": "EST",
    "start": {
        "state": {
            "elbow_joint": -1.9196185241190666,
            "shoulder_lift_joint": -1.2443396400964142,
            "shoulder_pan_joint": 2.6996025414629847,
            "wrist_1_joint": -1.5485510000780065,
            "wrist_2_joint": -1.5709468930060704,
            "wrist_3_joint": 0.4420197071253992
        }
    },
    "waypoints": [
        {
            "positions": [
                2.6996025414629847,
                -1.2443396400964142,
                -1.9196185241190666,
                -1.5485510000780065,
                -1.5709468930060704,
                0.4420197071253992
            ]
        },
        {
            "positions": [
                2.5821418479123106,
                -1.2427022091009634,
                -1.7921964001314168,
                -1.482654614385053,
                -1.52877163378145,
                0.47978378940720073
            ]
        },
        {
            "positions": [
                2.4646811543616365,
                -1.2410647781055124,
                -1.664774276143767,
                -1.4167582286920994,
                -1.48659637455683,
                0.5175478716890023
            ]
        },
        {
            "positions": [
                2.347220460810963,
                -1.2394273471100616,
                -1.5373521521561173,
                -1.350861842999146,
                -1.4444211153322097,
                0.5553119539708039
            ]
        },
        {
            "positions": [
                2.2297597672602887,
                -1.2377899161146109,
                -1.4099300281684672,
                -1.2849654573061922,
                -1.4022458561075897,
                0.5930760362526055
            ]
        },
        {
            "positions": [
                2.1122990737096146,
                -1.23615248511916,
                -1.2825079041808176,
                -1.2190690716132386,
                -1.3600705968829694,
                0.630840118534407
            ]
        },
        {
            "positions": [
                1.9948383801589404,
                -1.234515054123709,
                -1.1550857801931678,
                -1.153172685920285,
                -1.3178953376583493,
                0.6686042008162085
            ]
        },
        {
            "positions": [
                1.8773776866082663,
                -1.2328776231282583,
                -1.027663656205518,
                -1.0872763002273316,
                -1.275720078433729,
                0.7063682830980103
            ]
        },
        {
            "positions": [
                1.7599169930575924,
                -1.2312401921328076,
                -0.9002415322178681,
                -1.021379914534378,
                -1.2335448192091087,
                0.7441323653798118
            ]
        },
        {
            "positions": [
                1.6424562995069185,
                -1.2296027611373566,
                -0.7728194082302182,
                -0.9554835288414245,
                -1.1913695599844887,
                0.7818964476616133
            ]
        },
        {
            "positions": [
                1.5249956059562444,
                -1.2279653301419058,
                -0.6453972842425684,
                -0.8895871431484709,
                -1.1491943007598684,
                0.8196605299434149
            ]
        },
        {
            "positions": [
                1.4075349124055703,
                -1.226327899146455,
                -0.5179751602549185,
                -0.8236907574555173,
                -1.1070190415352483,
                0.8574246122252165
            ]
        },
        {
            "positions": [
                1.2900742188548964,
                -1.2246904681510042,
                -0.3905530362672689,
                -0.7577943717625638,
                -1.064843782310628,
                0.895188694507018
            ]
        },
        {
            "positions": [
                1.1726135253042222,
                -1.2230530371555532,
                -0.2631309122796188,
                -0.6918979860696103,
                -1.0226685230860078,
                0.9329527767888196
            ]
        },
        {
            "positions": [
                1.0551528317535481,
                -1.2214156061601025,
                -0.13570878829196897,
                -0.6260016003766566,
                -0.9804932638613877,
                0.9707168590706212
            ]
        },
        {
            "positions": [
                0.9376921382028742,
                -1.2197781751646517,
                -0.008286664304319347,
                -0.5601052146837032,
                -0.9383180046367675,
                1.0084809413524227
            ]
        },
        {
            "positions": [
                0.8202314446522001,
                -1.218140744169201,
                0.1191354596833305,
                -0.4942088289907496,
                -0.8961427454121473,
                1.0462450236342242
            ]
        },
        {
            "positions": [
                0.702770751101526,
                -1.21650331317375,
                0.24655758367098057,
                -0.42831244329779605,
                -0.853967486187527,
                1.084009105916026
            ]
        },
        {
            "positions": [
                0.5853100575508523,
                -1.2148658821782992,
                0.3739797076586302,
                -0.3624160576048425,
                -0.811792226962907,
                1.1217731881978275
            ]
        },
        {
            "positions": [
                0.4678493640001782,
                -1.2132284511828484,
                0.5014018316462798,
                -0.296519671911889,
                -0.7696169677382868,
                1.159537270479629
            ]
        },
        {
            "positions": [
                0.35038867044950406,
                -1.2115910201873974,
                0.6288239556339299,
                -0.23062328621893524,
                -0.7274417085136665,
                1.1973013527614307
            ]
        },
        {
            "positions": [
                0.23292797689882994,
                -1.2099535891919466,
                0.7562460796215795,
                -0.16472690052598193,
                -0.6852664492890465,
                1.2350654350432322
            ]
        },
        {
            "positions": [
                0.11546728334815581,
                -1.2083161581964958,
                0.8836682036092296,
                -0.09883051483302818,
                -0.6430911900644262,
                1.2728295173250337
            ]
        },
        {
            "positions": [
                -0.0019934102025183087,
                -1.206678727201045,
                1.0110903275968792,
                -0.03293412914007465,
                -0.600915930839806,
                1.3105935996068352
            ]
        },
        {
            "positions": [
                -0.11945410375319199,
                -1.205041296205594,
                1.1385124515845289,
                0.03296225655287888,
                -0.5587406716151859,
                1.3483576818886367
            ]
        },
        {
            "positions": [
                -0.23691479730386628,
                -1.2034038652101433,
                1.265934575572179,
                0.09885864224583243,
                -0.5165654123905656,
                1.3861217641704384
            ]
        },
        {
            "positions": [
                -0.2041819592639429,
                -1.1967702676569398,
                1.3285091089697587,
                0.025455244927787515,
                -0.4582895691529111,
                1.5361748402660629
            ]
        },
        {
            "positions": [
                -0.17144912122401948,
                -1.1901366701037366,
                1.3910836423673385,
                -0.047948152390257404,
                -0.4000137259152566,
                1.6862279163616871
            ]
        },
        {
            "positions": [
                -0.13871628318409607,
                -1.183503072550533,
                1.453658175764918,
                -0.12135154970830231,
                -0.3417378826776021,
                1.8362809924573114
            ]
        },
        {
            "positions": [
                -0.10598344514417268,
                -1.1768694749973299,
                1.5162327091624979,
                -0.19475494702634724,
                -0.2834620394399475,
                1.9863340685529358
            ]
        },
        {
            "positions": [
                -0.07325060710424927,
                -1.1702358774441264,
                1.5788072425600777,
                -0.2681583443443921,
                -0.22518619620229297,
                2.13638714464856
            ]
        },
        {
            "positions": [
                -0.04051776906432589,
                -1.1636022798909231,
                1.6413817759576572,
                -0.341561741662437,
                -0.16691035296463846,
                2.2864402207441845
            ]
        },
        {
            "positions": [
                -0.007784931024402475,
                -1.1569686823377197,
                1.703956309355237,
                -0.41496513898048204,
                -0.10863450972698391,
                2.4364932968398088
            ]
        },
        {
            "positions": [
                0.02494790701552091,
                -1.1503350847845164,
                1.7665308427528168,
                -0.48836853629852695,
                -0.05035866648932935,
                2.586546372935433
            ]
        },
        {
            "positions": [
                0.05768074505544435,
                -1.143701487231313,
                1.8291053761503964,
                -0.5617719336165719,
                0.00791717674832526,
                2.7365994490310577
            ]
        },
        {
            "positions": [
                0.09041358309536773,
                -1.1370678896781097,
                1.8916799095479762,
                -0.6351753309346168,
                0.0661930199859797,
                2.8866525251266815
            ]
        },
        {
            "positions": [
                0.1231464211352911,
                -1.1304342921249062,
                1.954254442945556,
                -0.7085787282526617,
                0.12446886322363425,
                3.036705601222306
            ]
        }
    ]
}