{
    "goal": {
        "global_pose": {
            "orientation": {
                "w": -0.00223480608172531,
                "x": 0.0024358444001904467,
                "y": 0.7094548369677653,
                "z": -0.704743149386269
            },
            "position": {
                "x": 0.6205249238014221,
                "y": -0.6371506643295288,
                "z": 0.19426114857196808
            }
        },
        "name": "move_to_magneteinheit_B"
    },
    "id": "EST_move_to_magneteinheit_B_128",
    "joint_names": [
        "shoulder_pan_joint",
        "shoulder_lift_joint",
        "elbow_joint",
        "wrist_1_joint",
        "wrist_2_joint",
        "wrist_3_joint"
    ],
    "metrics": {
        "cart_traj_len": 1.5295770045850405,
        "distance_elbow_joint": 0.9808398711834554,
        "distance_shoulder_lift_joint": 0.839664662908185,
        "distance_shoulder_pan_joint": 1.6211547268671684,
        "distance_wrist_1_joint": 0.31784566022626626,
        "distance_wrist_2_joint": 1.9637656204203588,
        "distance_wrist_3_joint": 0.18652565690867312,
        "smoothness": 0.6944167253534773,
        "time": 0.244955388,
        "traj_len": 2.4310072395026117,
        "weighted_distance": 2.9265096604962846
    },
    "planner": "EST",
    "start": {
        "state": {
            "elbow_joint": 2.6216224122426386,
            "shoulder_lift_joint": -1.4174107377796124,
            "shoulder_pan_joint": 0.7066234856936794,
            "wrist_1_joint": 1.9546482284002225,
            "wrist_2_joint": -0.7096286983471962,
            "wrist_3_joint": 0.005740856962016249
        }
    },
    "waypoints": [
        {
            "positions": [
                0.7066234856936794,
                -1.4174107377796124,
                2.6216224122426386,
                1.9546482284002225,
                -0.7096286983471962,
                0.005740856962016249
            ]
        },
        {
            "positions": [
                0.6510722633528943,
                -1.438004046919695,
                2.595560597741881,
                1.9208529503596588,
                -0.5999447954234802,
                0.02745035430200571
            ]
        },
        {
            "positions": [
                0.595521041012109,
                -1.4585973560597778,
                2.569498783241124,
                1.887057672319095,
                -0.49026089249976423,
                0.04915985164199517
            ]
        },
        {
            "positions": [
                0.48863557967669424,
                -1.3518289448091767,
                2.5749788287634345,
                1.9574375344043038,
                -0.5250978288646733,
                0.07316471463302207
            ]
        },
        {
            "positions": [
                0.3817501183412794,
                -1.2450605335585756,
                2.5804588742857457,
                2.0278173964895125,
                -0.5599347652295822,
                0.09716957762404896
            ]
        },
        {
            "positions": [
                0.2737266717150487,
                -1.1963154317146742,
                2.5039791950243027,
                2.036942011487406,
                -0.6994950937165079,
                0.08924483293682893
            ]
        },
        {
            "positions": [
                0.165703225088818,
                -1.1475703298707727,
                2.427499515762859,
                2.0460666264852994,
                -0.8390554222034337,
                0.0813200882496089
            ]
        },
        {
            "positions": [
                0.05767977846258726,
                -1.0988252280268713,
                2.351019836501416,
                2.0551912414831928,
                -0.9786157506903594,
                0.07339534356238886
            ]
        },
        {
            "positions": [
                -0.05034366816364344,
                -1.0500801261829698,
                2.274540157239973,
                2.064315856481086,
                -1.1181760791772852,
                0.06547059887516883
            ]
        },
        {
            "positions": [
                -0.15836711478987425,
                -1.0013350243390684,
                2.1980604779785295,
                2.0734404714789796,
                -1.257736407664211,
                0.05754585418794879
            ]
        },
        {
            "positions": [
                -0.2663905614161049,
                -0.9525899224951669,
                2.1215807987170865,
                2.0825650864768734,
                -1.3972967361511368,
                0.04962110950072876
            ]
        },
        {
            "positions": [
                -0.37441400804233566,
                -0.9038448206512655,
                2.045101119455643,
                2.091689701474767,
                -1.5368570646380624,
                0.041696364813508725
            ]
        },
        {
            "positions": [
                -0.4824374546685663,
                -0.8550997188073641,
                1.9686214401942,
                2.1008143164726603,
                -1.676417393124988,
                0.033771620126288704
            ]
        },
        {
            "positions": [
                -0.590460901294797,
                -0.8063546169634626,
                1.8921417609327567,
                2.1099389314705537,
                -1.815977721611914,
                0.02584687543906866
            ]
        },
        {
            "positions": [
                -0.6984843479210279,
                -0.7576095151195612,
                1.8156620816713134,
                2.119063546468447,
                -1.95553805009884,
                0.01792213075184862
            ]
        },
        {
            "positions": [
                -0.8065077945472583,
                -0.7088644132756597,
                1.7391824024098703,
                2.1281881614663405,
                -2.0950983785857655,
                0.009997386064628605
            ]
        },
        {
            "positions": [
                -0.9145312411734893,
                -0.6601193114317583,
                1.662702723148427,
                2.137312776464234,
                -2.234658707072691,
                0.00207264137740856
            ]
        }
    ]
}