{
    "goal": {
        "global_pose": {
            "orientation": {
                "w": -0.00223480608172531,
                "x": 0.0024358444001904467,
                "y": 0.7094548369677653,
                "z": -0.704743149386269
            },
            "position": {
                "x": -0.37947507619857795,
                "y": -0.6371506643295288,
                "z": 0.19426114857196808
            }
        },
        "name": "move_to_magneteinheit_C"
    },
    "id": "EST_move_to_magneteinheit_C_90",
    "joint_names": [
        "shoulder_pan_joint",
        "shoulder_lift_joint",
        "elbow_joint",
        "wrist_1_joint",
        "wrist_2_joint",
        "wrist_3_joint"
    ],
    "metrics": {
        "cart_traj_len": 2.4502623053046757,
        "distance_elbow_joint": 3.1215140273743818,
        "distance_shoulder_lift_joint": 1.0034451041754766,
        "distance_shoulder_pan_joint": 1.4887675442770318,
        "distance_wrist_1_joint": 1.5483372900062324,
        "distance_wrist_2_joint": 0.7892061361626735,
        "distance_wrist_3_joint": 4.4076206745947815,
        "smoothness": 0.6724223665646523,
        "time": 2.9435421209999997,
        "traj_len": 3.5155214089222353,
        "weighted_distance": 4.8488839491112845
    },
    "planner": "EST",
    "start": {
        "state": {
            "elbow_joint": 1.9565354010623817,
            "shoulder_lift_joint": -1.4165861575791021,
            "shoulder_pan_joint": -1.6717766225146293,
            "wrist_1_joint": -0.5286633292919765,
            "wrist_2_joint": 1.472756589071564,
            "wrist_3_joint": -3.1238370188695823
        }
    },
    "waypoints": [
        {
            "positions": [
                -1.6717766225146293,
                -1.4165861575791021,
                1.9565354010623817,
                -0.5286633292919765,
                1.472756589071564,
                -3.1238370188695823
            ]
        },
        {
            "positions": [
                -1.5700850310047665,
                -1.4260328040882628,
                1.901347204001255,
                -0.4599796121816831,
                1.459729851769269,
                -3.0267233078162334
            ]
        },
        {
            "positions": [
                -1.5134311929863724,
                -1.4180054276775373,
                1.7982095892092058,
                -0.41452043216295065,
                1.4364664852053737,
                -2.941389642512645
            ]
        },
        {
            "positions": [
                -1.4567773549679781,
                -1.4099780512668116,
                1.695071974417157,
                -0.36906125214421814,
                1.4132031186414784,
                -2.8560559772090564
            ]
        },
        {
            "positions": [
                -1.4659028641142238,
                -1.4114177147656883,
                1.5826074389876745,
                -0.32778712798498905,
                1.3680568874344154,
                -2.704790234381454
            ]
        },
        {
            "positions": [
                -1.4750283732604694,
                -1.4128573782645653,
                1.4701429035581919,
                -0.28651300382575995,
                1.3229106562273527,
                -2.5535244915538513
            ]
        },
        {
            "positions": [
                -1.484153882406715,
                -1.414297041763442,
                1.3576783681287095,
                -0.24523887966653085,
                1.2777644250202898,
                -2.402258748726249
            ]
        },
        {
            "positions": [
                -1.4932793915529607,
                -1.4157367052623189,
                1.245213832699227,
                -0.20396475550730173,
                1.232618193813227,
                -2.250993005898646
            ]
        },
        {
            "positions": [
                -1.5024049006992064,
                -1.4171763687611956,
                1.1327492972697444,
                -0.16269063134807263,
                1.187471962606164,
                -2.0997272630710433
            ]
        },
        {
            "positions": [
                -1.5115304098454523,
                -1.4186160322600725,
                1.0202847618402622,
                -0.12141650718884356,
                1.1423257313991013,
                -1.9484615202434408
            ]
        },
        {
            "positions": [
                -1.520655918991698,
                -1.4200556957589492,
                0.9078202264107795,
                -0.0801423830296144,
                1.0971795001920384,
                -1.7971957774158382
            ]
        },
        {
            "positions": [
                -1.5297814281379436,
                -1.421495359257826,
                0.795355690981297,
                -0.03886825887038531,
                1.0520332689849754,
                -1.6459300345882355
            ]
        },
        {
            "positions": [
                -1.5389069372841893,
                -1.4229350227567028,
                0.6828911555518145,
                0.0024058652888437893,
                1.0068870377779127,
                -1.4946642917606328
            ]
        },
        {
            "positions": [
                -1.548032446430435,
                -1.4243746862555797,
                0.570426620122332,
                0.04367998944807289,
                0.9617408065708498,
                -1.3433985489330305
            ]
        },
        {
            "positions": [
                -1.5571579555766806,
                -1.4258143497544564,
                0.4579620846928495,
                0.08495411360730201,
                0.916594575363787,
                -1.1921328061054277
            ]
        },
        {
            "positions": [
                -1.6738458328762462,
                -1.469618925009971,
                0.5936772566831052,
                0.05520531619705436,
                0.9005473906356916,
                -1.1597099147740357
            ]
        },
        {
            "positions": [
                -1.7905337101758119,
                -1.5134235002654854,
                0.7293924286733608,
                0.02545651878680672,
                0.8845002059075961,
                -1.1272870234426435
            ]
        },
        {
            "positions": [
                -1.9072215874753777,
                -1.5572280755210002,
                0.8651076006636165,
                -0.0042922786234409205,
                0.8684530211795007,
                -1.0948641321112516
            ]
        },
        {
            "positions": [
                -2.0239094647749436,
                -1.6010326507765147,
                1.0008227726538723,
                -0.03404107603368857,
                0.8524058364514053,
                -1.0624412407798594
            ]
        },
        {
            "positions": [
                -2.140597342074509,
                -1.6448372260320292,
                1.136537944644128,
                -0.06378987344393622,
                0.83635865172331,
                -1.0300183494484674
            ]
        },
        {
            "positions": [
                -2.257285219374075,
                -1.688641801287544,
                1.2722531166343836,
                -0.09353867085418385,
                0.8203114669952146,
                -0.9975954581170754
            ]
        },
        {
            "positions": [
                -2.3739730966736405,
                -1.7324463765430584,
                1.4079682886246392,
                -0.12328746826443152,
                0.8042642822671192,
                -0.9651725667856833
            ]
        },
        {
            "positions": [
                -2.490660973973206,
                -1.776250951798573,
                1.543683460614895,
                -0.15303626567467915,
                0.7882170975390238,
                -0.9327496754542912
            ]
        },
        {
            "positions": [
                -2.5045019834106617,
                -1.7361089455713148,
                1.6067486924294965,
                -0.21190968552027056,
                0.7768559504203565,
                -1.1035626488027956
            ]
        },
        {
            "positions": [
                -2.518342992848117,
                -1.6959669393440564,
                1.6698139242440977,
                -0.270783105365862,
                0.7654948033016893,
                -1.2743756221513
            ]
        },
        {
            "positions": [
                -2.5321840022855726,
                -1.6558249331167982,
                1.7328791560586991,
                -0.3296565252114534,
                0.7541336561830221,
                -1.4451885954998045
            ]
        },
        {
            "positions": [
                -2.546025011723028,
                -1.6156829268895398,
                1.7959443878733006,
                -0.38852994505704486,
                0.7427725090643548,
                -1.6160015688483091
            ]
        },
        {
            "positions": [
                -2.559866021160484,
                -1.5755409206622817,
                1.8590096196879018,
                -0.44740336490263627,
                0.7314113619456875,
                -1.7868145421968133
            ]
        },
        {
            "positions": [
                -2.5737070305979395,
                -1.5353989144350235,
                1.9220748515025032,
                -0.5062767847482277,
                0.7200502148270203,
                -1.957627515545318
            ]
        },
        {
            "positions": [
                -2.587548040035395,
                -1.4952569082077654,
                1.9851400833171047,
                -0.565150204593819,
                0.708689067708353,
                -2.1284404888938226
            ]
        },
        {
            "positions": [
                -2.6013890494728504,
                -1.455114901980507,
                2.048205315131706,
                -0.6240236244394105,
                0.6973279205896857,
                -2.299253462242327
            ]
        },
        {
            "positions": [
                -2.5690999039164732,
                -1.3824812133567477,
                2.040030944990207,
                -0.6804591517044711,
                0.693883553669487,
                -2.5117608483401903
            ]
        },
        {
            "positions": [
                -2.5368107583600965,
                -1.3098475247329882,
                2.0318565748487085,
                -0.7368946789695318,
                0.6904391867492881,
                -2.7242682344380538
            ]
        },
        {
            "positions": [
                -2.5045216128037193,
                -1.2372138361092289,
                2.0236822047072103,
                -0.7933302062345924,
                0.6869948198290892,
                -2.9367756205359172
            ]
        },
        {
            "positions": [
                -2.472232467247342,
                -1.1645801474854696,
                2.0155078345657116,
                -0.849765733499653,
                0.6835504529088904,
                -3.1492830066337807
            ]
        }
    ]
}