{
    "goal": {
        "global_pose": {
            "orientation": {
                "w": 0.005598929693374612,
                "x": 0.007748599140229565,
                "y": 0.7110244013736278,
                "z": -0.7031023480610252
            },
            "position": {
                "x": -0.8858502320852131,
                "y": -0.7141253447532654,
                "z": 0.3711530566215515
            }
        },
        "name": "move_to_auspresseinheit_C"
    },
    "id": "EST_move_to_auspresseinheit_C_13",
    "joint_names": [
        "shoulder_pan_joint",
        "shoulder_lift_joint",
        "elbow_joint",
        "wrist_1_joint",
        "wrist_2_joint",
        "wrist_3_joint"
    ],
    "metrics": {
        "cart_traj_len": 0.4920302869960669,
        "distance_elbow_joint": 0.9871746244398517,
        "distance_shoulder_lift_joint": 0.3185430683810102,
        "distance_shoulder_pan_joint": 0.25640283113393947,
        "distance_wrist_1_joint": 0.6582528104291041,
        "distance_wrist_2_joint": 1.304657303633471,
        "distance_wrist_3_joint": 0.054400460476747625,
        "smoothness": 6.459479416000911e-16,
        "time": 0.572111887,
        "traj_len": 1.8919384499750842,
        "weighted_distance": 2.377213102250237
    },
    "planner": "EST",
    "start": {
        "state": {
            "elbow_joint": 1.7527959577737207,
            "shoulder_lift_joint": -0.9740617694225068,
            "shoulder_pan_joint": -2.967991417825858,
            "wrist_1_joint": -0.759517768980727,
            "wrist_2_joint": 1.7443932448377408,
            "wrist_3_joint": -3.0840537646736568
        }
    },
    "waypoints": [
        {
            "positions": [
                -2.967991417825858,
                -0.9740617694225068,
                1.7527959577737207,
                -0.759517768980727,
                1.7443932448377408,
                -3.0840537646736568
            ]
        },
        {
            "positions": [
                -2.942351134712464,
                -0.9422074625844058,
                1.6540784953297354,
                -0.6936924879378166,
                1.6139275144743936,
                -3.0894938107213314
            ]
        },
        {
            "positions": [
                -2.91671085159907,
                -0.9103531557463047,
                1.5553610328857503,
                -0.6278672068949062,
                1.4834617841110467,
                -3.094933856769006
            ]
        },
        {
            "positions": [
                -2.8910705684856763,
                -0.8784988489082037,
                1.456643570441765,
                -0.5620419258519957,
                1.3529960537476995,
                -3.1003739028166812
            ]
        },
        {
            "positions": [
                -2.865430285372282,
                -0.8466445420701026,
                1.35792610799778,
                -0.49621664480908534,
                1.2225303233843525,
                -3.105813948864356
            ]
        },
        {
            "positions": [
                -2.839790002258888,
                -0.8147902352320017,
                1.2592086455537947,
                -0.43039136376617493,
                1.0920645930210053,
                -3.1112539949120306
            ]
        },
        {
            "positions": [
                -2.8141497191454943,
                -0.7829359283939007,
                1.1604911831098097,
                -0.3645660827232645,
                0.9615988626576583,
                -3.1166940409597053
            ]
        },
        {
            "positions": [
                -2.7885094360321006,
                -0.7510816215557996,
                1.0617737206658244,
                -0.29874080168035416,
                0.8311331322943112,
                -3.12213408700738
            ]
        },
        {
            "positions": [
                -2.7628691529187064,
                -0.7192273147176986,
                0.9630562582218393,
                -0.2329155206374437,
                0.700667401930964,
                -3.127574133055055
            ]
        },
        {
            "positions": [
                -2.737228869805312,
                -0.6873730078795977,
                0.8643387957778541,
                -0.16709023959453329,
                0.5702016715676168,
                -3.1330141791027297
            ]
        },
        {
            "positions": [
                -2.7115885866919185,
                -0.6555187010414966,
                0.765621333333869,
                -0.10126495855162292,
                0.43973594120426973,
                -3.1384542251504044
            ]
        }
    ]
}