{
    "goal": {
        "global_pose": {
            "orientation": {
                "w": -0.00223480608172531,
                "x": 0.0024358444001904467,
                "y": 0.7094548369677653,
                "z": -0.704743149386269
            },
            "position": {
                "x": 0.6205249238014221,
                "y": -0.6371506643295288,
                "z": 0.19426114857196808
            }
        },
        "name": "move_to_magneteinheit_B"
    },
    "id": "EST_move_to_magneteinheit_B_20",
    "joint_names": [
        "shoulder_pan_joint",
        "shoulder_lift_joint",
        "elbow_joint",
        "wrist_1_joint",
        "wrist_2_joint",
        "wrist_3_joint"
    ],
    "metrics": {
        "cart_traj_len": 1.7215991062700975,
        "distance_elbow_joint": 0.9588746294351429,
        "distance_shoulder_lift_joint": 0.7584742583434207,
        "distance_shoulder_pan_joint": 2.4426388865503665,
        "distance_wrist_1_joint": 0.6334667880913707,
        "distance_wrist_2_joint": 1.8140247143994077,
        "distance_wrist_3_joint": 0.36395036301924044,
        "smoothness": 0.6722305787223734,
        "time": 0.464501596,
        "traj_len": 2.6403464999577135,
        "weighted_distance": 3.1854076455562494
    },
    "planner": "EST",
    "start": {
        "state": {
            "elbow_joint": 2.6216224122426386,
            "shoulder_lift_joint": -1.4174107377796124,
            "shoulder_pan_joint": 0.7066234856936794,
            "wrist_1_joint": 1.9546482284002225,
            "wrist_2_joint": -0.7096286983471962,
            "wrist_3_joint": 0.005740856962016249
        }
    },
    "waypoints": [
        {
            "positions": [
                0.7066234856936794,
                -1.4174107377796124,
                2.6216224122426386,
                1.9546482284002225,
                -0.7096286983471962,
                0.005740856962016249
            ]
        },
        {
            "positions": [
                0.537277959374466,
                -1.3892632833851946,
                2.6116878805018025,
                1.988589162265355,
                -0.8482947620461281,
                -0.009744246680176323
            ]
        },
        {
            "positions": [
                0.3679324330552526,
                -1.3611158289907768,
                2.6017533487609663,
                2.0225300961304877,
                -0.98696082574506,
                -0.025229350322368893
            ]
        },
        {
            "positions": [
                0.19858690673603918,
                -1.332968374596359,
                2.59181881702013,
                2.0564710299956204,
                -1.125626889443992,
                -0.04071445396456147
            ]
        },
        {
            "positions": [
                0.02924138041682578,
                -1.3048209202019412,
                2.581884285279294,
                2.090411963860753,
                -1.264292953142924,
                -0.05619955760675404
            ]
        },
        {
            "positions": [
                -0.14010414590238762,
                -1.2766734658075234,
                2.571949753538458,
                2.1243528977258856,
                -1.402959016841856,
                -0.07168466124894662
            ]
        },
        {
            "positions": [
                -0.309449672221601,
                -1.2485260114131056,
                2.5620152217976218,
                2.158293831591018,
                -1.5416250805407876,
                -0.08716976489113919
            ]
        },
        {
            "positions": [
                -0.4787951985408144,
                -1.2203785570186878,
                2.5520806900567856,
                2.1922347654561505,
                -1.6802911442397197,
                -0.10265486853333176
            ]
        },
        {
            "positions": [
                -0.6481407248600278,
                -1.19223110262427,
                2.5421461583159495,
                2.226175699321283,
                -1.8189572079386516,
                -0.11813997217552433
            ]
        },
        {
            "positions": [
                -0.8174862511792412,
                -1.1640836482298522,
                2.5322116265751133,
                2.2601166331864158,
                -1.9576232716375834,
                -0.13362507581771688
            ]
        },
        {
            "positions": [
                -0.9868317774984546,
                -1.1359361938354344,
                2.522277094834277,
                2.2940575670515484,
                -2.0962893353365155,
                -0.14911017945990948
            ]
        },
        {
            "positions": [
                -1.156177303817668,
                -1.1077887394410166,
                2.512342563093441,
                2.327998500916681,
                -2.234955399035447,
                -0.16459528310210203
            ]
        },
        {
            "positions": [
                -1.3255228301368815,
                -1.0796412850465988,
                2.502408031352605,
                2.3619394347818137,
                -2.3736214627343792,
                -0.1800803867442946
            ]
        },
        {
            "positions": [
                -1.2571074016835806,
                -1.0095238174448644,
                2.362464656595087,
                2.3242435044968506,
                -2.348616137732342,
                -0.1503922001921397
            ]
        },
        {
            "positions": [
                -1.1886919732302799,
                -0.9394063498431298,
                2.2225212818375684,
                2.286547574211887,
                -2.3236108127303043,
                -0.12070401363998479
            ]
        },
        {
            "positions": [
                -1.120276544776979,
                -0.8692888822413952,
                2.0825779070800503,
                2.248851643926924,
                -2.298605487728267,
                -0.09101582708782986
            ]
        },
        {
            "positions": [
                -1.051861116323678,
                -0.7991714146396607,
                1.9426345323225322,
                2.211155713641961,
                -2.2736001627262294,
                -0.06132764053567495
            ]
        },
        {
            "positions": [
                -0.983445687870377,
                -0.7290539470379261,
                1.8026911575650137,
                2.1734597833569973,
                -2.248594837724192,
                -0.03163945398352003
            ]
        },
        {
            "positions": [
                -0.9150302594170762,
                -0.6589364794361916,
                1.6627477828074957,
                2.135763853072034,
                -2.2235895127221545,
                -0.0019512674313651094
            ]
        }
    ]
}