{
    "goal": {
        "global_pose": {
            "orientation": {
                "w": -0.4816463035849501,
                "x": 0.5182115481033762,
                "y": 0.4908360881923453,
                "z": -0.5084816262002911
            },
            "position": {
                "x": -0.8240239810943604,
                "y": -0.300875300988555,
                "z": 0.16403168439865112
            }
        },
        "name": "move_to_storage_C"
    },
    "id": "EST_move_to_storage_C_28",
    "joint_names": [
        "shoulder_pan_joint",
        "shoulder_lift_joint",
        "elbow_joint",
        "wrist_1_joint",
        "wrist_2_joint",
        "wrist_3_joint"
    ],
    "metrics": {
        "cart_traj_len": 0.5766927821830936,
        "distance_elbow_joint": 0.2568270865228863,
        "distance_shoulder_lift_joint": 0.18994360546009537,
        "distance_shoulder_pan_joint": 0.4951213572581481,
        "distance_wrist_1_joint": 0.0713644544794354,
        "distance_wrist_2_joint": 1.0628643476354287,
        "distance_wrist_3_joint": 0.07426550948146371,
        "smoothness": 0.0,
        "time": 0.13193211999999999,
        "traj_len": 1.466419571895253,
        "weighted_distance": 1.852875112336298
    },
    "planner": "EST",
    "start": {
        "state": {
            "elbow_joint": 2.010868314990456,
            "shoulder_lift_joint": -1.1634956873337592,
            "shoulder_pan_joint": -2.4736205022346125,
            "wrist_1_joint": -0.8367026794202681,
            "wrist_2_joint": 0.6746043897044499,
            "wrist_3_joint": -3.1496632123970403
        }
    },
    "waypoints": [
        {
            "positions": [
                -2.4736205022346125,
                -1.1634956873337592,
                2.010868314990456,
                -0.8367026794202681,
                0.6746043897044499,
                -3.1496632123970403
            ]
        },
        {
            "positions": [
                -2.556140728444304,
                -1.1318384197570766,
                1.9680638005699747,
                -0.8248086036736956,
                0.8517484476436881,
                -3.137285627483463
            ]
        },
        {
            "positions": [
                -2.638660954653995,
                -1.1001811521803941,
                1.9252592861494937,
                -0.8129145279271229,
                1.028892505582926,
                -3.124908042569886
            ]
        },
        {
            "positions": [
                -2.7211811808636863,
                -1.0685238846037115,
                1.8824547717290128,
                -0.8010204521805504,
                1.2060365635221642,
                -3.1125304576563084
            ]
        },
        {
            "positions": [
                -2.803701407073378,
                -1.0368666170270289,
                1.8396502573085316,
                -0.7891263764339779,
                1.3831806214614022,
                -3.100152872742731
            ]
        },
        {
            "positions": [
                -2.8862216332830695,
                -1.0052093494503465,
                1.7968457428880504,
                -0.7772323006874052,
                1.5603246794006407,
                -3.087775287829154
            ]
        },
        {
            "positions": [
                -2.9687418594927606,
                -0.9735520818736638,
                1.7540412284675695,
                -0.7653382249408327,
                1.7374687373398785,
                -3.0753977029155766
            ]
        }
    ]
}