{
    "goal": {
        "global_pose": {
            "orientation": {
                "w": -0.4816463035849501,
                "x": 0.5182115481033762,
                "y": 0.4908360881923453,
                "z": -0.5084816262002911
            },
            "position": {
                "x": -0.8240239810943604,
                "y": 0.19912469901144506,
                "z": 0.16403168439865112
            }
        },
        "name": "move_to_storage_D"
    },
    "id": "EST_move_to_storage_D_95",
    "joint_names": [
        "shoulder_pan_joint",
        "shoulder_lift_joint",
        "elbow_joint",
        "wrist_1_joint",
        "wrist_2_joint",
        "wrist_3_joint"
    ],
    "metrics": {
        "cart_traj_len": 3.8588074843445996,
        "distance_elbow_joint": 4.2173264853008305,
        "distance_shoulder_lift_joint": 1.26391790422222,
        "distance_shoulder_pan_joint": 2.813110978115481,
        "distance_wrist_1_joint": 2.361715312596562,
        "distance_wrist_2_joint": 0.9121750516322694,
        "distance_wrist_3_joint": 3.144536426476004,
        "smoothness": 0.15727051888954666,
        "time": 0.160183252,
        "traj_len": 3.835724463298083,
        "weighted_distance": 4.92704225428646
    },
    "planner": "EST",
    "start": {
        "state": {
            "elbow_joint": -2.384821988534728,
            "shoulder_lift_joint": -2.2788054721415256,
            "shoulder_pan_joint": -0.1854694642142757,
            "wrist_1_joint": 1.4845938289331202,
            "wrist_2_joint": 0.17898776772866878,
            "wrist_3_joint": 0.037105688729662994
        }
    },
    "waypoints": [
        {
            "positions": [
                -0.1854694642142757,
                -2.2788054721415256,
                -2.384821988534728,
                1.4845938289331202,
                0.17898776772866878,
                0.037105688729662994
            ]
        },
        {
            "positions": [
                -0.17085563707912751,
                -2.270590593952283,
                -2.388293274560505,
                1.4682906304727061,
                0.16418219332950268,
                0.0454600061508514
            ]
        },
        {
            "positions": [
                -0.08411757618126692,
                -2.231874759942061,
                -2.266416419238624,
                1.3964913900314455,
                0.18032689141771122,
                0.0973095979739416
            ]
        },
        {
            "positions": [
                0.0026204847165936795,
                -2.1931589259318396,
                -2.1445395639167426,
                1.3246921495901849,
                0.19647158950591975,
                0.1491591897970318
            ]
        },
        {
            "positions": [
                0.08935854561445425,
                -2.154443091921618,
                -2.0226627085948614,
                1.2528929091489245,
                0.21261628759412832,
                0.20100878162012203
            ]
        },
        {
            "positions": [
                0.17609660651231487,
                -2.1157272579113964,
                -1.9007858532729804,
                1.1810936687076639,
                0.22876098568233685,
                0.2528583734432122
            ]
        },
        {
            "positions": [
                0.26283466741017547,
                -2.077011423901175,
                -1.7789089979510992,
                1.1092944282664032,
                0.2449056837705454,
                0.30470796526630245
            ]
        },
        {
            "positions": [
                0.349572728308036,
                -2.0382955898909536,
                -1.6570321426292183,
                1.0374951878251428,
                0.26105038185875395,
                0.35655755708939263
            ]
        },
        {
            "positions": [
                0.4363107892058966,
                -1.9995797558807318,
                -1.535155287307337,
                0.9656959473838822,
                0.27719507994696246,
                0.4084071489124828
            ]
        },
        {
            "positions": [
                0.5230488501037572,
                -1.9608639218705104,
                -1.4132784319854559,
                0.8938967069426216,
                0.29333977803517103,
                0.46025674073557304
            ]
        },
        {
            "positions": [
                0.6097869110016179,
                -1.9221480878602888,
                -1.2914015766635747,
                0.822097466501361,
                0.3094844761233796,
                0.5121063325586633
            ]
        },
        {
            "positions": [
                0.6965249718994785,
                -1.8834322538500672,
                -1.1695247213416935,
                0.7502982260601004,
                0.3256291742115881,
                0.5639559243817536
            ]
        },
        {
            "positions": [
                0.783263032797339,
                -1.8447164198398456,
                -1.0476478660198125,
                0.6784989856188399,
                0.34177387229979667,
                0.6158055162048437
            ]
        },
        {
            "positions": [
                0.8700010936951995,
                -1.806000585829624,
                -0.9257710106979313,
                0.6066997451775793,
                0.35791857038800523,
                0.6676551080279339
            ]
        },
        {
            "positions": [
                0.9567391545930602,
                -1.7672847518194024,
                -0.8038941553760501,
                0.5349005047363187,
                0.37406326847621374,
                0.7195046998510242
            ]
        },
        {
            "positions": [
                1.0434772154909209,
                -1.7285689178091808,
                -0.6820173000541692,
                0.46310126429505827,
                0.3902079665644223,
                0.7713542916741143
            ]
        },
        {
            "positions": [
                1.1302152763887816,
                -1.6898530837989594,
                -0.560140444732288,
                0.39130202385379764,
                0.40635266465263087,
                0.8232038834972045
            ]
        },
        {
            "positions": [
                1.2169533372866421,
                -1.6511372497887378,
                -0.4382635894104068,
                0.319502783412537,
                0.4224973627408394,
                0.8750534753202948
            ]
        },
        {
            "positions": [
                1.3036913981845026,
                -1.6124214157785162,
                -0.3163867340885256,
                0.2477035429712764,
                0.43864206082904794,
                0.926903067143385
            ]
        },
        {
            "positions": [
                1.3904294590823634,
                -1.5737055817682948,
                -0.19450987876664438,
                0.17590430253001577,
                0.45478675891725645,
                0.9787526589664752
            ]
        },
        {
            "positions": [
                1.4771675199802239,
                -1.5349897477580732,
                -0.07263302344476319,
                0.10410506208875536,
                0.470931457005465,
                1.0306022507895654
            ]
        },
        {
            "positions": [
                1.5639055808780846,
                -1.4962739137478516,
                0.049243831877118005,
                0.03230582164749474,
                0.4870761550936735,
                1.0824518426126557
            ]
        },
        {
            "positions": [
                1.6506436417759451,
                -1.45755807973763,
                0.17112068719899876,
                -0.03949341879376589,
                0.503220853181882,
                1.1343014344357458
            ]
        },
        {
            "positions": [
                1.7373817026738057,
                -1.4188422457274084,
                0.29299754252087995,
                -0.11129265923502629,
                0.5193655512700907,
                1.186151026258836
            ]
        },
        {
            "positions": [
                1.8241197635716664,
                -1.3801264117171868,
                0.41487439784276114,
                -0.18309189967628692,
                0.5355102493582992,
                1.2380006180819263
            ]
        },
        {
            "positions": [
                1.9108578244695267,
                -1.3414105777069651,
                0.5367512531646423,
                -0.25489114011754754,
                0.5516549474465078,
                1.2898502099050164
            ]
        },
        {
            "positions": [
                1.9975958853673876,
                -1.3026947436967435,
                0.6586281084865235,
                -0.32669038055880817,
                0.5677996455347163,
                1.3416998017281065
            ]
        },
        {
            "positions": [
                2.084333946265248,
                -1.2639789096865222,
                0.7805049638084047,
                -0.3984896210000688,
                0.5839443436229248,
                1.393549393551197
            ]
        },
        {
            "positions": [
                2.1710720071631084,
                -1.2252630756763006,
                0.9023818191302859,
                -0.4702888614413292,
                0.6000890417111333,
                1.445398985374287
            ]
        },
        {
            "positions": [
                2.257810068060969,
                -1.186547241666079,
                1.0242586744521667,
                -0.5420881018825896,
                0.6162337397993419,
                1.4972485771973771
            ]
        },
        {
            "positions": [
                2.3445481289588295,
                -1.1478314076558573,
                1.1461355297740479,
                -0.6138873423238502,
                0.6323784378875504,
                1.5490981690204675
            ]
        },
        {
            "positions": [
                2.4312861898566904,
                -1.109115573645636,
                1.268012385095929,
                -0.6856865827651109,
                0.6485231359757591,
                1.6009477608435576
            ]
        },
        {
            "positions": [
                2.518024250754551,
                -1.0703997396354143,
                1.3898892404178103,
                -0.7574858232063715,
                0.6646678340639676,
                1.652797352666648
            ]
        },
        {
            "positions": [
                2.6047623116524115,
                -1.0316839056251927,
                1.5117660957396915,
                -0.8292850636476321,
                0.6808125321521761,
                1.704646944489738
            ]
        },
        {
            "positions": [
                2.6085755120272105,
                -1.0288845160075448,
                1.5640654005688341,
                -0.8213123269783306,
                0.7442690552205811,
                1.9508128062757262
            ]
        },
        {
            "positions": [
                2.6123887124020095,
                -1.0260851263898971,
                1.6163647053979768,
                -0.813339590309029,
                0.8077255782889861,
                2.1969786680617145
            ]
        },
        {
            "positions": [
                2.616201912776808,
                -1.0232857367722492,
                1.6686640102271195,
                -0.8053668536397274,
                0.871182101357391,
                2.4431445298477024
            ]
        },
        {
            "positions": [
                2.620015113151607,
                -1.0204863471546013,
                1.7209633150562622,
                -0.7973941169704258,
                0.934638624425796,
                2.6893103916336907
            ]
        },
        {
            "positions": [
                2.623828313526406,
                -1.0176869575369536,
                1.773262619885405,
                -0.7894213803011243,
                0.998095147494201,
                2.9354762534196785
            ]
        },
        {
            "positions": [
                2.6276415139012053,
                -1.0148875679193057,
                1.8255619247145476,
                -0.7814486436318228,
                1.061551670562606,
                3.181642115205667
            ]
        }
    ]
}