{
    "goal": {
        "global_pose": {
            "orientation": {
                "w": 0.5084816217422485,
                "x": -0.49083608388900757,
                "y": 0.5182115435600281,
                "z": -0.4816462993621826
            },
            "position": {
                "x": 0.5540239810943604,
                "y": 0.030875300988554955,
                "z": 0.16403168439865112
            }
        },
        "name": "move_to_storage_A"
    },
    "id": "EST_move_to_storage_A_133",
    "joint_names": [
        "shoulder_pan_joint",
        "shoulder_lift_joint",
        "elbow_joint",
        "wrist_1_joint",
        "wrist_2_joint",
        "wrist_3_joint"
    ],
    "metrics": {
        "cart_traj_len": 0.35330686962099456,
        "distance_elbow_joint": 0.4485768258025613,
        "distance_shoulder_lift_joint": 0.2338438604152635,
        "distance_shoulder_pan_joint": 0.4601626446416481,
        "distance_wrist_1_joint": 0.23616510695280934,
        "distance_wrist_2_joint": 1.1069248867918362,
        "distance_wrist_3_joint": 0.10445829204253432,
        "smoothness": 0.0,
        "time": 0.115965404,
        "traj_len": 1.6093885847260918,
        "weighted_distance": 2.0352243597393302
    },
    "planner": "EST",
    "start": {
        "state": {
            "elbow_joint": 1.971548259319323,
            "shoulder_lift_joint": -1.1394851275133948,
            "shoulder_pan_joint": 0.1228115487234821,
            "wrist_1_joint": -0.7804723859257726,
            "wrist_2_joint": 0.12958671773740124,
            "wrist_3_joint": -3.192489227718131
        }
    },
    "waypoints": [
        {
            "positions": [
                0.1228115487234821,
                -1.1394851275133948,
                1.971548259319323,
                -0.7804723859257726,
                0.12958671773740124,
                -3.192489227718131
            ]
        },
        {
            "positions": [
                0.057074028060389526,
                -1.172891393287004,
                2.0356306630054033,
                -0.8142102583476025,
                0.2877188444219493,
                -3.177566614569198
            ]
        },
        {
            "positions": [
                -0.008663492602703049,
                -1.206297659060613,
                2.0997130666914834,
                -0.8479481307694324,
                0.4458509711064973,
                -3.162644001420264
            ]
        },
        {
            "positions": [
                -0.07440101326579562,
                -1.239703924834222,
                2.1637954703775635,
                -0.8816860031912623,
                0.6039830977910453,
                -3.147721388271331
            ]
        },
        {
            "positions": [
                -0.1401385339288882,
                -1.273110190607831,
                2.2278778740636436,
                -0.9154238756130922,
                0.7621152244755933,
                -3.132798775122397
            ]
        },
        {
            "positions": [
                -0.20587605459198083,
                -1.3065164563814402,
                2.291960277749724,
                -0.9491617480349221,
                0.9202473511601414,
                -3.117876161973464
            ]
        },
        {
            "positions": [
                -0.27161357525507335,
                -1.3399227221550492,
                2.356042681435804,
                -0.982899620456752,
                1.0783794778446893,
                -3.10295354882453
            ]
        },
        {
            "positions": [
                -0.337351095918166,
                -1.3733289879286583,
                2.4201250851218843,
                -1.016637492878582,
                1.2365116045292375,
                -3.088030935675597
            ]
        }
    ]
}{
    "goal": {
        "global_pose": {
            "orientation": {
                "w": 0.5084816217422485,
                "x": -0.49083608388900757,
                "y": 0.5182115435600281,
                "z": -0.4816462993621826
            },
            "position": {
                "x": 0.5540239810943604,
                "y": 0.030875300988554955,
                "z": 0.16403168439865112
            }
        },
        "name": "move_to_storage_A"
    },
    "id": "EST_move_to_storage_A_133",
    "joint_names": [
        "shoulder_pan_joint",
        "shoulder_lift_joint",
        "elbow_joint",
        "wrist_1_joint",
        "wrist_2_joint",
        "wrist_3_joint"
    ],
    "metrics": {
        "cart_traj_len": 0.3527157013503447,
        "distance_elbow_joint": 0.44805360125712523,
        "distance_shoulder_lift_joint": 0.23584143576918604,
        "distance_shoulder_pan_joint": 0.46230536728523774,
        "distance_wrist_1_joint": 0.23698622695790594,
        "distance_wrist_2_joint": 1.0935317375204436,
        "distance_wrist_3_joint": 0.0901708710944602,
        "smoothness": 2.2204460668324854e-16,
        "time": 0.153673076,
        "traj_len": 1.6021514409956255,
        "weighted_distance": 2.0193436920325447
    },
    "planner": "EST",
    "start": {
        "state": {
            "elbow_joint": 1.97154746011099,
            "shoulder_lift_joint": -1.13948474672311,
            "shoulder_pan_joint": 0.12281154466712228,
            "wrist_1_joint": -0.7804688027058302,
            "wrist_2_joint": 0.12958655903071145,
            "wrist_3_joint": 3.0906928834467795
        }
    },
    "waypoints": [
        {
            "positions": [
                0.12281154466712228,
                -1.13948474672311,
                1.97154746011099,
                -0.7804688027058302,
                0.12958655903071145,
                3.0906928834467795
            ]
        },
        {
            "positions": [
                0.05676792076923118,
                -1.1731763804044222,
                2.0355551174334363,
                -0.814323977985531,
                0.28580537867648914,
                3.1035744364602738
            ]
        },
        {
            "positions": [
                -0.009275703128659926,
                -1.2068680140857346,
                2.0995627747558827,
                -0.8481791532652319,
                0.4420241983222668,
                3.116455989473768
            ]
        },
        {
            "positions": [
                -0.07531932702655102,
                -1.2405596477670469,
                2.163570432078329,
                -0.8820343285449327,
                0.5982430179680445,
                3.1293375424872623
            ]
        },
        {
            "positions": [
                -0.14136295092444212,
                -1.274251281448359,
                2.227578089400776,
                -0.9158895038246335,
                0.7544618376138221,
                3.142219095500757
            ]
        },
        {
            "positions": [
                -0.20740657482233327,
                -1.3079429151296713,
                2.2915857467232223,
                -0.9497446791043345,
                0.9106806572595998,
                3.155100648514251
            ]
        },
        {
            "positions": [
                -0.2734501987202243,
                -1.3416345488109838,
                2.3555934040456687,
                -0.9835998543840353,
                1.0668994769053775,
                3.1679822015277455
            ]
        },
        {
            "positions": [
                -0.33949382261811545,
                -1.375326182492296,
                2.419601061368115,
                -1.0174550296637361,
                1.2231182965511551,
                3.1808637545412397
            ]
        }
    ]
}{
    "goal": {
        "global_pose": {
            "orientation": {
                "w": 0.5084816217422485,
                "x": -0.49083608388900757,
                "y": 0.5182115435600281,
                "z": -0.4816462993621826
            },
            "position": {
                "x": 0.5540239810943604,
                "y": 0.030875300988554955,
                "z": 0.16403168439865112
            }
        },
        "name": "move_to_storage_A"
    },
    "id": "EST_move_to_storage_A_133",
    "joint_names": [
        "shoulder_pan_joint",
        "shoulder_lift_joint",
        "elbow_joint",
        "wrist_1_joint",
        "wrist_2_joint",
        "wrist_3_joint"
    ],
    "metrics": {
        "cart_traj_len": 0.35316938467756837,
        "distance_elbow_joint": 0.45022909524883614,
        "distance_shoulder_lift_joint": 0.2338172343542142,
        "distance_shoulder_pan_joint": 0.45812249198931065,
        "distance_wrist_1_joint": 0.2444313496206787,
        "distance_wrist_2_joint": 1.1147137700761875,
        "distance_wrist_3_joint": 0.09924817902293936,
        "smoothness": 7.771561204992932e-16,
        "time": 0.011730304,
        "traj_len": 1.6126258463487948,
        "weighted_distance": 2.039167378626608
    },
    "planner": "EST",
    "start": {
        "state": {
            "elbow_joint": 1.9715472970024885,
            "shoulder_lift_joint": -1.1394870060712896,
            "shoulder_pan_joint": 0.12281152778156021,
            "wrist_1_joint": -0.780463741449964,
            "wrist_2_joint": 0.12958659822042276,
            "wrist_3_joint": 3.090690232415272
        }
    },
    "waypoints": [
        {
            "positions": [
                0.12281152778156021,
                -1.1394870060712896,
                1.9715472970024885,
                -0.780463741449964,
                0.12958659822042276,
                3.090690232415272
            ]
        },
        {
            "positions": [
                0.05736545749737297,
                -1.1728894681218915,
                2.0358657391808936,
                -0.8153825056814895,
                0.288831422517021,
                3.104868543704263
            ]
        },
        {
            "positions": [
                -0.008080612786814267,
                -1.2062919301724937,
                2.1001841813592987,
                -0.850301269913015,
                0.44807624681361924,
                3.1190468549932544
            ]
        },
        {
            "positions": [
                -0.07352668307100149,
                -1.2396943922230956,
                2.164502623537704,
                -0.8852200341445405,
                0.6073210711102174,
                3.1332251662822457
            ]
        },
        {
            "positions": [
                -0.13897275335518874,
                -1.2730968542736978,
                2.228821065716109,
                -0.920138798376066,
                0.7665658954068156,
                3.1474034775712374
            ]
        },
        {
            "positions": [
                -0.204418823639376,
                -1.3064993163242997,
                2.2931395078945145,
                -0.9550575626075917,
                0.9258107197034139,
                3.1615817888602287
            ]
        },
        {
            "positions": [
                -0.26986489392356316,
                -1.3399017783749017,
                2.3574579500729196,
                -0.9899763268391172,
                1.085055544000012,
                3.17576010014922
            ]
        },
        {
            "positions": [
                -0.3353109642077504,
                -1.3733042404255038,
                2.4217763922513247,
                -1.0248950910706427,
                1.2443003682966103,
                3.189938411438211
            ]
        }
    ]
}