{
    "goal": {
        "global_pose": {
            "orientation": {
                "w": 0.7047431493862688,
                "x": -0.7094548369677653,
                "y": 0.0024358444001904,
                "z": -0.0022348060817251984
            },
            "position": {
                "x": -0.39052492380142206,
                "y": 0.3671506643295288,
                "z": 0.19426114857196808
            }
        },
        "name": "move_to_magneteinheit_D"
    },
    "id": "EST_move_to_magneteinheit_D_45",
    "joint_names": [
        "shoulder_pan_joint",
        "shoulder_lift_joint",
        "elbow_joint",
        "wrist_1_joint",
        "wrist_2_joint",
        "wrist_3_joint"
    ],
    "metrics": {
        "cart_traj_len": 4.375915365732438,
        "distance_elbow_joint": 3.911126516979653,
        "distance_shoulder_lift_joint": 1.1372877725526649,
        "distance_shoulder_pan_joint": 2.85166520142427,
        "distance_wrist_1_joint": 3.497098555872477,
        "distance_wrist_2_joint": 1.2615495781086175,
        "distance_wrist_3_joint": 3.8794111485310383,
        "smoothness": 0.4253026671508911,
        "time": 0.20108510899999998,
        "traj_len": 4.0667110511405555,
        "weighted_distance": 5.390325519345923
    },
    "planner": "EST",
    "start": {
        "state": {
            "elbow_joint": 0.749534889911806,
            "shoulder_lift_joint": -0.6476975780787326,
            "shoulder_pan_joint": -2.711696901376241,
            "wrist_1_joint": -0.07506478083263063,
            "wrist_2_joint": 0.43296659715538205,
            "wrist_3_joint": -3.14703540197715
        }
    },
    "waypoints": [
        {
            "positions": [
                -2.711696901376241,
                -0.6476975780787326,
                0.749534889911806,
                -0.07506478083263063,
                0.43296659715538205,
                -3.14703540197715
            ]
        },
        {
            "positions": [
                -2.7057380160763778,
                -0.6905707344341364,
                0.78962591689591,
                -0.006341062983572787,
                0.3531005324692548,
                -3.018151567155144
            ]
        },
        {
            "positions": [
                -2.6997791307765144,
                -0.7334438907895401,
                0.8297169438800142,
                0.062382654865485054,
                0.27323446778312765,
                -2.8892677323331384
            ]
        },
        {
            "positions": [
                -2.6938202454766516,
                -0.7763170471449439,
                0.8698079708641182,
                0.1311063727145429,
                0.19336840309700046,
                -2.7603838975111326
            ]
        },
        {
            "positions": [
                -2.6878613601767882,
                -0.8191902035003475,
                0.9098989978482224,
                0.19983009056360074,
                0.1135023384108732,
                -2.6315000626891267
            ]
        },
        {
            "positions": [
                -2.681902474876925,
                -0.8620633598557513,
                0.9499900248323264,
                0.2685538084126586,
                0.033636273724746035,
                -2.502616227867121
            ]
        },
        {
            "positions": [
                -2.6759435895770616,
                -0.9049365162111551,
                0.9900810518164305,
                0.3372775262617164,
                -0.046229790961381134,
                -2.373732393045115
            ]
        },
        {
            "positions": [
                -2.6699847042771983,
                -0.9478096725665588,
                1.0301720788005346,
                0.4060012441107742,
                -0.1260958556475083,
                -2.2448485582231092
            ]
        },
        {
            "positions": [
                -2.6640258189773354,
                -0.9906828289219626,
                1.0702631057846388,
                0.4747249619598321,
                -0.20596192033363564,
                -2.1159647234011034
            ]
        },
        {
            "positions": [
                -2.658066933677472,
                -1.0335559852773664,
                1.1103541327687427,
                0.54344867980889,
                -0.28582798501976275,
                -1.9870808885790976
            ]
        },
        {
            "positions": [
                -2.6521080483776087,
                -1.07642914163277,
                1.150445159752847,
                0.6121723976579478,
                -0.36569404970589003,
                -1.8581970537570918
            ]
        },
        {
            "positions": [
                -2.496329869291574,
                -1.162044999959638,
                1.1486275793424032,
                0.5776288323070498,
                -0.33164775240236893,
                -1.7748260202587023
            ]
        },
        {
            "positions": [
                -2.3405516902055394,
                -1.247660858286506,
                1.1468099989319596,
                0.5430852669561517,
                -0.29760145509884783,
                -1.6914549867603128
            ]
        },
        {
            "positions": [
                -2.184773511119505,
                -1.3332767166133739,
                1.144992418521516,
                0.5085417016052536,
                -0.2635551577953267,
                -1.6080839532619235
            ]
        },
        {
            "positions": [
                -2.02899533203347,
                -1.418892574940242,
                1.1431748381110722,
                0.4739981362543556,
                -0.2295088604918056,
                -1.524712919763534
            ]
        },
        {
            "positions": [
                -1.8732171529474355,
                -1.50450843326711,
                1.1413572577006286,
                0.4394545709034575,
                -0.1954625631882845,
                -1.4413418862651446
            ]
        },
        {
            "positions": [
                -1.7174389738614009,
                -1.5901242915939777,
                1.139539677290185,
                0.40491100555255943,
                -0.16141626588476338,
                -1.3579708527667553
            ]
        },
        {
            "positions": [
                -1.5616607947753662,
                -1.6757401499208457,
                1.1377220968797412,
                0.37036744020166135,
                -0.12736996858124228,
                -1.2745998192683659
            ]
        },
        {
            "positions": [
                -1.4058826156893316,
                -1.7613560082477138,
                1.1359045164692976,
                0.3358238748507633,
                -0.09332367127772118,
                -1.1912287857699764
            ]
        },
        {
            "positions": [
                -1.3457687352536984,
                -1.7615194901312754,
                0.9937968486459012,
                0.23181122069719073,
                -0.09951977356097973,
                -1.2671531008184063
            ]
        },
        {
            "positions": [
                -1.2856548548180653,
                -1.7616829720148373,
                0.851689180822505,
                0.12779856654361813,
                -0.10571587584423828,
                -1.343077415866836
            ]
        },
        {
            "positions": [
                -1.2255409743824321,
                -1.761846453898399,
                0.7095815129991088,
                0.023785912390045516,
                -0.11191197812749683,
                -1.4190017309152658
            ]
        },
        {
            "positions": [
                -1.165427093946799,
                -1.7620099357819607,
                0.5674738451757124,
                -0.08022674176352707,
                -0.11810808041075538,
                -1.4949260459636955
            ]
        },
        {
            "positions": [
                -1.1053132135111658,
                -1.7621734176655224,
                0.4253661773523162,
                -0.18423939591709965,
                -0.12430418269401393,
                -1.5708503610121254
            ]
        },
        {
            "positions": [
                -1.0451993330755325,
                -1.762336899549084,
                0.28325850952891984,
                -0.2882520500706723,
                -0.13050028497727248,
                -1.6467746760605553
            ]
        },
        {
            "positions": [
                -0.9850854526398993,
                -1.7625003814326459,
                0.1411508417055235,
                -0.3922647042242449,
                -0.13669638726053104,
                -1.722698991108985
            ]
        },
        {
            "positions": [
                -0.9249715722042662,
                -1.7626638633162075,
                -0.0009568261178727333,
                -0.49627735837781745,
                -0.14289248954378958,
                -1.7986233061574148
            ]
        },
        {
            "positions": [
                -0.8648576917686329,
                -1.7628273451997694,
                -0.14306449394126908,
                -0.6002900125313901,
                -0.14908859182704814,
                -1.8745476212058447
            ]
        },
        {
            "positions": [
                -0.8047438113329999,
                -1.762990827083331,
                -0.2851721617646652,
                -0.7043026666849626,
                -0.15528469411030668,
                -1.9504719362542744
            ]
        },
        {
            "positions": [
                -0.7446299308973666,
                -1.7631543089668926,
                -0.42727982958806154,
                -0.8083153208385352,
                -0.16148079639356525,
                -2.026396251302704
            ]
        },
        {
            "positions": [
                -0.6845160504617335,
                -1.7633177908504545,
                -0.5693874974114579,
                -0.9123279749921078,
                -0.16767689867682378,
                -2.1023205663511337
            ]
        },
        {
            "positions": [
                -0.6244021700261003,
                -1.7634812727340161,
                -0.711495165234854,
                -1.0163406291456802,
                -0.17387300096008235,
                -2.178244881399564
            ]
        },
        {
            "positions": [
                -0.5642882895904671,
                -1.7636447546175777,
                -0.8536028330582506,
                -1.120353283299253,
                -0.1800691032433409,
                -2.254169196447994
            ]
        },
        {
            "positions": [
                -0.5041744091548339,
                -1.7638082365011396,
                -0.9957105008816467,
                -1.2243659374528255,
                -0.18626520552659945,
                -2.3300935114964236
            ]
        },
        {
            "positions": [
                -0.44406052871920076,
                -1.7639717183847012,
                -1.137818168705043,
                -1.3283785916063982,
                -0.19246130780985798,
                -2.4060178265448533
            ]
        },
        {
            "positions": [
                -0.3839466482835676,
                -1.764135200268263,
                -1.279925836528439,
                -1.4323912457599708,
                -0.19865741009311655,
                -2.481942141593283
            ]
        },
        {
            "positions": [
                -0.32383276784793424,
                -1.7642986821518247,
                -1.4220335043518357,
                -1.5364038999135434,
                -0.2048535123763751,
                -2.5578664566417126
            ]
        },
        {
            "positions": [
                -0.2637188874123011,
                -1.7644621640353864,
                -1.564141172175232,
                -1.640416554067116,
                -0.21104961465963365,
                -2.6337907716901428
            ]
        },
        {
            "positions": [
                -0.20360500697666817,
                -1.7646256459189482,
                -1.706248839998628,
                -1.7444292082206885,
                -0.2172457169428922,
                -2.7097150867385724
            ]
        },
        {
            "positions": [
                -0.14349112654103502,
                -1.7647891278025098,
                -1.8483565078220243,
                -1.8484418623742611,
                -0.22344181922615075,
                -2.785639401787002
            ]
        },
        {
            "positions": [
                -0.08337724610540165,
                -1.7649526096860717,
                -1.9904641756454207,
                -1.9524545165278337,
                -0.22963792150940932,
                -2.861563716835432
            ]
        },
        {
            "positions": [
                -0.02326336566976854,
                -1.7651160915696333,
                -2.132571843468817,
                -2.0564671706814064,
                -0.23583402379266785,
                -2.937488031883862
            ]
        },
        {
            "positions": [
                -0.10487919852866691,
                -1.7551814620387511,
                -2.246171465427291,
                -2.1270780752026788,
                -0.2118299236405537,
                -3.026160674988852
            ]
        },
        {
            "positions": [
                -0.1864950313875653,
                -1.7452468325078692,
                -2.359771087385765,
                -2.1976889797239516,
                -0.18782582348843951,
                -3.114833318093842
            ]
        }
    ]
}