{
    "goal": {
        "global_pose": {
            "orientation": {
                "w": -0.00223480608172531,
                "x": 0.0024358444001904467,
                "y": 0.7094548369677653,
                "z": -0.704743149386269
            },
            "position": {
                "x": 0.6205249238014221,
                "y": -0.6371506643295288,
                "z": 0.19426114857196808
            }
        },
        "name": "move_to_magneteinheit_B"
    },
    "id": "EST_move_to_magneteinheit_B_60",
    "joint_names": [
        "shoulder_pan_joint",
        "shoulder_lift_joint",
        "elbow_joint",
        "wrist_1_joint",
        "wrist_2_joint",
        "wrist_3_joint"
    ],
    "metrics": {
        "cart_traj_len": 3.6687635756080157,
        "distance_elbow_joint": 6.271093540038101,
        "distance_shoulder_lift_joint": 1.0580885461482121,
        "distance_shoulder_pan_joint": 2.280326155600746,
        "distance_wrist_1_joint": 1.8523465662667702,
        "distance_wrist_2_joint": 2.694317819981877,
        "distance_wrist_3_joint": 6.091189510356352,
        "smoothness": 0.7199082646956474,
        "time": 1.481435039,
        "traj_len": 4.499706894720149,
        "weighted_distance": 6.080822768783302
    },
    "planner": "EST",
    "start": {
        "state": {
            "elbow_joint": 2.6216224122426386,
            "shoulder_lift_joint": -1.4174107377796124,
            "shoulder_pan_joint": 0.7066234856936794,
            "wrist_1_joint": 1.9546482284002225,
            "wrist_2_joint": -0.7096286983471962,
            "wrist_3_joint": 0.005740856962016249
        }
    },
    "waypoints": [
        {
            "positions": [
                0.7066234856936794,
                -1.4174107377796124,
                2.6216224122426386,
                1.9546482284002225,
                -0.7096286983471962,
                0.005740856962016249
            ]
        },
        {
            "positions": [
                0.5983932538379348,
                -1.4635597180836972,
                2.6008828329865743,
                1.926550696111633,
                -0.7313511292858597,
                -0.1299596050985919
            ]
        },
        {
            "positions": [
                0.5706638591095867,
                -1.48244697430203,
                2.4627330716398292,
                1.9725328732245,
                -0.801213095400455,
                -0.10550465007513324
            ]
        },
        {
            "positions": [
                0.5429344643812387,
                -1.501334230520363,
                2.3245833102930846,
                2.018515050337367,
                -0.8710750615150505,
                -0.08104969505167459
            ]
        },
        {
            "positions": [
                0.5858825938900775,
                -1.5084248027298117,
                2.173482585701157,
                1.976467462719051,
                -0.812200208026948,
                -0.16900689013005218
            ]
        },
        {
            "positions": [
                0.6288307233989162,
                -1.5155153749392607,
                2.022381861109229,
                1.934419875100735,
                -0.7533253545388454,
                -0.2569640852084298
            ]
        },
        {
            "positions": [
                0.6717788529077551,
                -1.5226059471487094,
                1.8712811365173012,
                1.8923722874824191,
                -0.6944505010507429,
                -0.3449212802868074
            ]
        },
        {
            "positions": [
                0.7147269824165938,
                -1.5296965193581582,
                1.7201804119253732,
                1.8503246998641032,
                -0.6355756475626404,
                -0.432878475365185
            ]
        },
        {
            "positions": [
                0.7576751119254326,
                -1.5367870915676072,
                1.5690796873334454,
                1.8082771122457875,
                -0.5767007940745379,
                -0.5208356704435626
            ]
        },
        {
            "positions": [
                0.8006232414342713,
                -1.543877663777056,
                1.4179789627415176,
                1.7662295246274715,
                -0.5178259405864353,
                -0.6087928655219402
            ]
        },
        {
            "positions": [
                0.8435713709431101,
                -1.550968235986505,
                1.2668782381495898,
                1.7241819370091556,
                -0.45895108709833277,
                -0.6967500606003179
            ]
        },
        {
            "positions": [
                0.8865195004519488,
                -1.5580588081959537,
                1.1157775135576617,
                1.6821343493908396,
                -0.4000762336102302,
                -0.7847072556786954
            ]
        },
        {
            "positions": [
                0.9294676299607876,
                -1.5651493804054024,
                0.9646767889657342,
                1.6400867617725237,
                -0.34120138012212775,
                -0.872664450757073
            ]
        },
        {
            "positions": [
                0.9724157594696263,
                -1.5722399526148514,
                0.8135760643738061,
                1.5980391741542077,
                -0.28232652663402513,
                -0.9606216458354506
            ]
        },
        {
            "positions": [
                1.015363888978465,
                -1.5793305248243001,
                0.6624753397818783,
                1.555991586535892,
                -0.22345167314592262,
                -1.0485788409138281
            ]
        },
        {
            "positions": [
                1.058312018487304,
                -1.586421097033749,
                0.5113746151899505,
                1.513943998917576,
                -0.16457681965782,
                -1.1365360359922059
            ]
        },
        {
            "positions": [
                1.1012601479961426,
                -1.5935116692431979,
                0.36027389059802273,
                1.47189641129926,
                -0.1057019661697175,
                -1.2244932310705834
            ]
        },
        {
            "positions": [
                1.1442082775049816,
                -1.6006022414526466,
                0.20917316600609492,
                1.4298488236809441,
                -0.04682711268161499,
                -1.3124504261489611
            ]
        },
        {
            "positions": [
                1.1871564070138203,
                -1.6076928136620954,
                0.05807244141416712,
                1.3878012360626282,
                0.012047740806487517,
                -1.4004076212273386
            ]
        },
        {
            "positions": [
                1.230104536522659,
                -1.6147833858715444,
                -0.09302828317776113,
                1.3457536484443122,
                0.07092259429459014,
                -1.4883648163057162
            ]
        },
        {
            "positions": [
                1.2730526660314978,
                -1.621873958080993,
                -0.2441290077696885,
                1.3037060608259963,
                0.12979744778269253,
                -1.576322011384094
            ]
        },
        {
            "positions": [
                1.3160007955403366,
                -1.628964530290442,
                -0.3952297323616163,
                1.2616584732076803,
                0.18867230127079504,
                -1.6642792064624714
            ]
        },
        {
            "positions": [
                1.3589489250491753,
                -1.6360551024998908,
                -0.5463304569535445,
                1.2196108855893644,
                0.24754715475889777,
                -1.7522364015408491
            ]
        },
        {
            "positions": [
                1.401897054558014,
                -1.6431456747093396,
                -0.6974311815454723,
                1.1775632979710484,
                0.3064220082470003,
                -1.8401935966192267
            ]
        },
        {
            "positions": [
                1.4448451840668528,
                -1.6502362469187886,
                -0.8485319061374001,
                1.1355157103527325,
                0.3652968617351028,
                -1.9281507916976042
            ]
        },
        {
            "positions": [
                1.4877933135756916,
                -1.6573268191282373,
                -0.999632630729328,
                1.0934681227344167,
                0.4241717152232053,
                -2.0161079867759817
            ]
        },
        {
            "positions": [
                1.5307414430845303,
                -1.664417391337686,
                -1.1507333553212562,
                1.0514205351161006,
                0.483046568711308,
                -2.1040651818543594
            ]
        },
        {
            "positions": [
                1.573689572593369,
                -1.671507963547135,
                -1.3018340799131836,
                1.0093729474977848,
                0.5419214221994105,
                -2.192022376932737
            ]
        },
        {
            "positions": [
                1.6166377021022078,
                -1.6785985357565838,
                -1.4529348045051114,
                0.9673253598794689,
                0.600796275687513,
                -2.2799795720111145
            ]
        },
        {
            "positions": [
                1.6595858316110466,
                -1.6856891079660326,
                -1.6040355290970392,
                0.9252777722611529,
                0.6596711291756155,
                -2.367936767089492
            ]
        },
        {
            "positions": [
                1.7025339611198853,
                -1.6927796801754815,
                -1.7551362536889674,
                0.883230184642837,
                0.7185459826637183,
                -2.45589396216787
            ]
        },
        {
            "positions": [
                1.745482090628724,
                -1.6998702523849303,
                -1.9062369782808948,
                0.841182597024521,
                0.7774208361518206,
                -2.5438511572462477
            ]
        },
        {
            "positions": [
                1.7884302201375628,
                -1.706960824594379,
                -2.057337702872823,
                0.7991350094062053,
                0.8362956896399231,
                -2.631808352324625
            ]
        },
        {
            "positions": [
                1.8313783496464016,
                -1.714051396803828,
                -2.2084384274647504,
                0.7570874217878893,
                0.8951705431280256,
                -2.7197655474030027
            ]
        },
        {
            "positions": [
                1.8743264791552403,
                -1.7211419690132768,
                -2.3595391520566786,
                0.7150398341695732,
                0.9540453966161283,
                -2.8077227424813804
            ]
        },
        {
            "positions": [
                1.917274608664079,
                -1.7282325412227257,
                -2.510639876648607,
                0.6729922465512574,
                1.012920250104231,
                -2.8956799375597577
            ]
        },
        {
            "positions": [
                1.9602227381729178,
                -1.7353231134321745,
                -2.6617406012405347,
                0.6309446589329416,
                1.0717951035923332,
                -2.9836371326381355
            ]
        },
        {
            "positions": [
                2.008210983199533,
                -1.7769680468159603,
                -2.614391012993993,
                0.6592329640564819,
                1.0371231833073167,
                -2.827136427981088
            ]
        },
        {
            "positions": [
                2.056199228226148,
                -1.8186129801997464,
                -2.5670414247474507,
                0.6875212691800222,
                1.0024512630223004,
                -2.6706357233240414
            ]
        },
        {
            "positions": [
                2.1041874732527637,
                -1.8602579135835322,
                -2.519691836500909,
                0.7158095743035626,
                0.9677793427372839,
                -2.5141350186669946
            ]
        },
        {
            "positions": [
                2.152175718279379,
                -1.901902846967318,
                -2.472342248254367,
                0.7440978794271029,
                0.9331074224522675,
                -2.3576343140099474
            ]
        },
        {
            "positions": [
                2.200163963305994,
                -1.943547780351104,
                -2.424992660007825,
                0.7723861845506432,
                0.8984355021672511,
                -2.2011336093529
            ]
        },
        {
            "positions": [
                2.248152208332609,
                -1.98519271373489,
                -2.377643071761283,
                0.8006744896741835,
                0.8637635818822347,
                -2.0446329046958533
            ]
        },
        {
            "positions": [
                2.285553971090512,
                -2.029766038297884,
                -2.3136764356634942,
                0.8165821676384363,
                0.8290390573370946,
                -1.8569067708122096
            ]
        },
        {
            "positions": [
                2.3229557338484157,
                -2.074339362860878,
                -2.2497097995657054,
                0.832489845602689,
                0.7943145327919545,
                -1.6691806369285656
            ]
        },
        {
            "positions": [
                2.3603574966063188,
                -2.118912687423872,
                -2.185743163467916,
                0.8483975235669418,
                0.7595900082468144,
                -1.4814545030449218
            ]
        },
        {
            "positions": [
                2.397759259364222,
                -2.163486011986866,
                -2.1217765273701272,
                0.8643052015311945,
                0.7248654837016744,
                -1.2937283691612778
            ]
        },
        {
            "positions": [
                2.435161022122125,
                -2.20805933654986,
                -2.0578098912723384,
                0.8802128794954471,
                0.6901409591565342,
                -1.106002235277634
            ]
        },
        {
            "positions": [
                2.4725627848800285,
                -2.2526326611128544,
                -1.9938432551745495,
                0.8961205574596999,
                0.6554164346113942,
                -0.9182761013939902
            ]
        },
        {
            "positions": [
                2.5099645476379315,
                -2.2972059856758484,
                -1.9298766190767604,
                0.9120282354239526,
                0.620691910066254,
                -0.7305499675103464
            ]
        },
        {
            "positions": [
                2.5473663103958346,
                -2.3417793102388424,
                -1.8659099829789714,
                0.9279359133882054,
                0.5859673855211139,
                -0.5428238336267024
            ]
        },
        {
            "positions": [
                2.5847680731537377,
                -2.3863526348018365,
                -1.8019433468811825,
                0.9438435913524581,
                0.5512428609759739,
                -0.3550976997430584
            ]
        },
        {
            "positions": [
                2.622169835911641,
                -2.4309259593648305,
                -1.7379767107833937,
                0.9597512693167108,
                0.5165183364308338,
                -0.16737156585941482
            ]
        },
        {
            "positions": [
                2.6595715986695443,
                -2.4754992839278245,
                -1.6740100746856046,
                0.9756589472809636,
                0.4817938118856937,
                0.020354568024229164
            ]
        }
    ]
}