{
    "goal": {
        "global_pose": {
            "orientation": {
                "w": 0.5084816217422485,
                "x": -0.49083608388900757,
                "y": 0.5182115435600281,
                "z": -0.4816462993621826
            },
            "position": {
                "x": 0.5540239810943604,
                "y": 0.030875300988554955,
                "z": 0.16403168439865112
            }
        },
        "name": "move_to_storage_A"
    },
    "id": "EST_move_to_storage_A_45",
    "joint_names": [
        "shoulder_pan_joint",
        "shoulder_lift_joint",
        "elbow_joint",
        "wrist_1_joint",
        "wrist_2_joint",
        "wrist_3_joint"
    ],
    "metrics": {
        "cart_traj_len": 0.35276403096522335,
        "distance_elbow_joint": 0.451248781949517,
        "distance_shoulder_lift_joint": 0.2347980916294825,
        "distance_shoulder_pan_joint": 0.45878074165411586,
        "distance_wrist_1_joint": 0.24445917156032826,
        "distance_wrist_2_joint": 1.1096855325412451,
        "distance_wrist_3_joint": 0.08747109118227847,
        "smoothness": 1.1102230263833737e-15,
        "time": 0.088977704,
        "traj_len": 1.6082423357557054,
        "weighted_distance": 2.0286769819227253
    },
    "planner": "EST",
    "start": {
        "state": {
            "elbow_joint": 1.971548259319323,
            "shoulder_lift_joint": -1.1394851275133948,
            "shoulder_pan_joint": 0.1228115487234821,
            "wrist_1_joint": -0.7804723859257726,
            "wrist_2_joint": 0.12958671773740124,
            "wrist_3_joint": -3.192489227718131
        }
    },
    "waypoints": [
        {
            "positions": [
                0.1228115487234821,
                -1.1394851275133948,
                1.971548259319323,
                -0.7804723859257726,
                0.12958671773740124,
                -3.192489227718131
            ]
        },
        {
            "positions": [
                0.05727144277289413,
                -1.1730277120318924,
                2.0360123710263967,
                -0.8153951247201052,
                0.28811322238615056,
                -3.1799933575492343
            ]
        },
        {
            "positions": [
                -0.008268663177693841,
                -1.2065702965503897,
                2.1004764827334705,
                -0.8503178635144378,
                0.44663972703489985,
                -3.1674974873803374
            ]
        },
        {
            "positions": [
                -0.07380876912828183,
                -1.2401128810688873,
                2.1649405944405444,
                -0.8852406023087704,
                0.6051662316836491,
                -3.1550016172114406
            ]
        },
        {
            "positions": [
                -0.13934887507886978,
                -1.2736554655873848,
                2.2294047061476183,
                -0.920163341103103,
                0.7636927363323984,
                -3.1425057470425433
            ]
        },
        {
            "positions": [
                -0.2048889810294578,
                -1.3071980501058824,
                2.293868817854692,
                -0.9550860798974357,
                0.9222192409811478,
                -3.1300098768736464
            ]
        },
        {
            "positions": [
                -0.27042908698004575,
                -1.3407406346243798,
                2.358332929561766,
                -0.9900088186917683,
                1.080745745629897,
                -3.1175140067047495
            ]
        },
        {
            "positions": [
                -0.33596919293063376,
                -1.3742832191428773,
                2.42279704126884,
                -1.0249315574861009,
                1.2392722502786464,
                -3.1050181365358527
            ]
        }
    ]
}{
    "goal": {
        "global_pose": {
            "orientation": {
                "w": 0.5084816217422485,
                "x": -0.49083608388900757,
                "y": 0.5182115435600281,
                "z": -0.4816462993621826
            },
            "position": {
                "x": 0.5540239810943604,
                "y": 0.030875300988554955,
                "z": 0.16403168439865112
            }
        },
        "name": "move_to_storage_A"
    },
    "id": "EST_move_to_storage_A_45",
    "joint_names": [
        "shoulder_pan_joint",
        "shoulder_lift_joint",
        "elbow_joint",
        "wrist_1_joint",
        "wrist_2_joint",
        "wrist_3_joint"
    ],
    "metrics": {
        "cart_traj_len": 0.35403398402247704,
        "distance_elbow_joint": 0.44922186497586125,
        "distance_shoulder_lift_joint": 0.2347266212032546,
        "distance_shoulder_pan_joint": 0.46196538053406966,
        "distance_wrist_1_joint": 0.23790108561439327,
        "distance_wrist_2_joint": 1.1050766585645804,
        "distance_wrist_3_joint": 0.09951680495540138,
        "smoothness": 0.0,
        "time": 0.065456447,
        "traj_len": 1.6088531368175158,
        "weighted_distance": 2.0323434183073825
    },
    "planner": "EST",
    "start": {
        "state": {
            "elbow_joint": 1.97154746011099,
            "shoulder_lift_joint": -1.13948474672311,
            "shoulder_pan_joint": 0.12281154466712228,
            "wrist_1_joint": -0.7804688027058302,
            "wrist_2_joint": 0.12958655903071145,
            "wrist_3_joint": 3.0906928834467795
        }
    },
    "waypoints": [
        {
            "positions": [
                0.12281154466712228,
                -1.13948474672311,
                1.97154746011099,
                -0.7804688027058302,
                0.12958655903071145,
                3.0906928834467795
            ]
        },
        {
            "positions": [
                0.056816490305112335,
                -1.1730171211807177,
                2.0357220122503987,
                -0.814454672079315,
                0.28745465311136575,
                3.1049095698689797
            ]
        },
        {
            "positions": [
                -0.009178564056897612,
                -1.2065494956383256,
                2.0998965643898075,
                -0.8484405414527997,
                0.44532274719202014,
                3.11912625629118
            ]
        },
        {
            "positions": [
                -0.07517361841890756,
                -1.2400818700959333,
                2.1640711165292164,
                -0.8824264108262845,
                0.6031908412726744,
                3.13334294271338
            ]
        },
        {
            "positions": [
                -0.1411686727809175,
                -1.2736142445535412,
                2.2282456686686247,
                -0.9164122801997692,
                0.7610589353533288,
                3.1475596291355803
            ]
        },
        {
            "positions": [
                -0.20716372714292747,
                -1.307146619011149,
                2.2924202208080335,
                -0.950398149573254,
                0.9189270294339832,
                3.1617763155577805
            ]
        },
        {
            "positions": [
                -0.2731587815049374,
                -1.3406789934687566,
                2.3565947729474424,
                -0.9843840189467387,
                1.0767951235146374,
                3.1759930019799807
            ]
        },
        {
            "positions": [
                -0.33915383586694736,
                -1.3742113679263646,
                2.420769325086851,
                -1.0183698883202235,
                1.2346632175952919,
                3.190209688402181
            ]
        }
    ]
}{
    "goal": {
        "global_pose": {
            "orientation": {
                "w": 0.5084816217422485,
                "x": -0.49083608388900757,
                "y": 0.5182115435600281,
                "z": -0.4816462993621826
            },
            "position": {
                "x": 0.5540239810943604,
                "y": 0.030875300988554955,
                "z": 0.16403168439865112
            }
        },
        "name": "move_to_storage_A"
    },
    "id": "EST_move_to_storage_A_45",
    "joint_names": [
        "shoulder_pan_joint",
        "shoulder_lift_joint",
        "elbow_joint",
        "wrist_1_joint",
        "wrist_2_joint",
        "wrist_3_joint"
    ],
    "metrics": {
        "cart_traj_len": 0.352650534658556,
        "distance_elbow_joint": 0.4476109191292865,
        "distance_shoulder_lift_joint": 0.23523382246512692,
        "distance_shoulder_pan_joint": 0.4582742249813993,
        "distance_wrist_1_joint": 0.23353528397601497,
        "distance_wrist_2_joint": 1.1103800461400457,
        "distance_wrist_3_joint": 0.10329547612881251,
        "smoothness": 2.2204460668324854e-16,
        "time": 0.08048356300000001,
        "traj_len": 1.6088286959215659,
        "weighted_distance": 2.03441295099947
    },
    "planner": "EST",
    "start": {
        "state": {
            "elbow_joint": 1.9715472970024885,
            "shoulder_lift_joint": -1.1394870060712896,
            "shoulder_pan_joint": 0.12281152778156021,
            "wrist_1_joint": -0.780463741449964,
            "wrist_2_joint": 0.12958659822042276,
            "wrist_3_joint": 3.090690232415272
        }
    },
    "waypoints": [
        {
            "positions": [
                0.12281152778156021,
                -1.1394870060712896,
                1.9715472970024885,
                -0.780463741449964,
                0.12958659822042276,
                3.090690232415272
            ]
        },
        {
            "positions": [
                0.05734378135564604,
                -1.173091837852022,
                2.035491714020958,
                -0.813825924875109,
                0.28821231909757217,
                3.105446729005102
            ]
        },
        {
            "positions": [
                -0.008123965070268135,
                -1.2066966696327543,
                2.0994361310394276,
                -0.8471881083002539,
                0.4468380399747215,
                3.1202032255949326
            ]
        },
        {
            "positions": [
                -0.07359171149618232,
                -1.2403015014134868,
                2.163380548057897,
                -0.880550291725399,
                0.6054637608518709,
                3.134959722184763
            ]
        },
        {
            "positions": [
                -0.13905945792209648,
                -1.2739063331942193,
                2.2273249650763667,
                -0.913912475150544,
                0.7640894817290202,
                3.1497162187745933
            ]
        },
        {
            "positions": [
                -0.20452720434801067,
                -1.3075111649749518,
                2.291269382094836,
                -0.947274658575689,
                0.9227152026061697,
                3.1644727153644236
            ]
        },
        {
            "positions": [
                -0.2699949507739249,
                -1.341115996755684,
                2.3552137991133053,
                -0.980636842000834,
                1.0813409234833191,
                3.179229211954254
            ]
        },
        {
            "positions": [
                -0.33546269719983907,
                -1.3747208285364165,
                2.419158216131775,
                -1.013999025425979,
                1.2399666443604684,
                3.1939857085440844
            ]
        }
    ]
}