{
    "goal": {
        "global_pose": {
            "orientation": {
                "w": 0.7047431468963623,
                "x": -0.7094548344612122,
                "y": 0.0024358443915843964,
                "z": -0.0022348060738295317
            },
            "position": {
                "x": 0.6094750761985779,
                "y": 0.3671506643295288,
                "z": 0.19426114857196808
            }
        },
        "name": "move_to_magneteinheit_A"
    },
    "id": "EST_move_to_magneteinheit_A_83",
    "joint_names": [
        "shoulder_pan_joint",
        "shoulder_lift_joint",
        "elbow_joint",
        "wrist_1_joint",
        "wrist_2_joint",
        "wrist_3_joint"
    ],
    "metrics": {
        "cart_traj_len": 3.533155148303209,
        "distance_elbow_joint": 3.8758480110501266,
        "distance_shoulder_lift_joint": 0.36501226353764515,
        "distance_shoulder_pan_joint": 2.636249489826504,
        "distance_wrist_1_joint": 0.873908971449249,
        "distance_wrist_2_joint": 2.6511474232771626,
        "distance_wrist_3_joint": 2.5986914662507403,
        "smoothness": 0.45598141860634395,
        "time": 0.154399571,
        "traj_len": 3.605670204745774,
        "weighted_distance": 4.660825780118725
    },
    "planner": "EST",
    "start": {
        "state": {
            "elbow_joint": -1.9196185241190666,
            "shoulder_lift_joint": -1.2443396400964142,
            "shoulder_pan_joint": 2.6996025414629847,
            "wrist_1_joint": -1.5485510000780065,
            "wrist_2_joint": -1.5709468930060704,
            "wrist_3_joint": 0.4420197071253992
        }
    },
    "waypoints": [
        {
            "positions": [
                2.6996025414629847,
                -1.2443396400964142,
                -1.9196185241190666,
                -1.5485510000780065,
                -1.5709468930060704,
                0.4420197071253992
            ]
        },
        {
            "positions": [
                2.609038387307346,
                -1.246013093558556,
                -1.8015034845438025,
                -1.521670372746655,
                -1.4942363512743828,
                0.5188688497547548
            ]
        },
        {
            "positions": [
                2.5184742331517076,
                -1.2476865470206977,
                -1.6833884449685383,
                -1.4947897454153034,
                -1.4175258095426955,
                0.5957179923841104
            ]
        },
        {
            "positions": [
                2.427910078996069,
                -1.2493600004828396,
                -1.5652734053932744,
                -1.467909118083952,
                -1.340815267811008,
                0.6725671350134659
            ]
        },
        {
            "positions": [
                2.33734592484043,
                -1.2510334539449814,
                -1.4471583658180103,
                -1.4410284907526005,
                -1.2641047260793203,
                0.7494162776428215
            ]
        },
        {
            "positions": [
                2.2467817706847915,
                -1.2527069074071233,
                -1.3290433262427461,
                -1.414147863421249,
                -1.187394184347633,
                0.8262654202721771
            ]
        },
        {
            "positions": [
                2.156217616529153,
                -1.254380360869265,
                -1.210928286667482,
                -1.3872672360898974,
                -1.1106836426159454,
                0.9031145629015327
            ]
        },
        {
            "positions": [
                2.0656534623735143,
                -1.2560538143314068,
                -1.0928132470922178,
                -1.360386608758546,
                -1.0339731008842579,
                0.9799637055308883
            ]
        },
        {
            "positions": [
                1.9750893082178758,
                -1.2577272677935487,
                -0.9746982075169538,
                -1.3335059814271943,
                -0.9572625591525704,
                1.056812848160244
            ]
        },
        {
            "positions": [
                1.884525154062237,
                -1.2594007212556904,
                -0.8565831679416895,
                -1.3066253540958428,
                -0.8805520174208828,
                1.1336619907895995
            ]
        },
        {
            "positions": [
                1.7939609999065984,
                -1.2610741747178322,
                -0.7384681283664254,
                -1.2797447267644912,
                -0.8038414756891954,
                1.210511133418955
            ]
        },
        {
            "positions": [
                1.7033968457509598,
                -1.262747628179974,
                -0.6203530887911615,
                -1.25286409943314,
                -0.7271309339575078,
                1.2873602760483105
            ]
        },
        {
            "positions": [
                1.6128326915953213,
                -1.264421081642116,
                -0.5022380492158973,
                -1.2259834721017884,
                -0.6504203922258204,
                1.364209418677666
            ]
        },
        {
            "positions": [
                1.5222685374396825,
                -1.2660945351042576,
                -0.3841230096406332,
                -1.1991028447704368,
                -0.5737098504941328,
                1.4410585613070217
            ]
        },
        {
            "positions": [
                1.431704383284044,
                -1.2677679885663995,
                -0.266007970065369,
                -1.1722222174390853,
                -0.49699930876244536,
                1.5179077039363773
            ]
        },
        {
            "positions": [
                1.3411402291284054,
                -1.2694414420285414,
                -0.14789293049010488,
                -1.145341590107734,
                -0.4202887670307578,
                1.594756846565733
            ]
        },
        {
            "positions": [
                1.2505760749727668,
                -1.271114895490683,
                -0.029777890914840954,
                -1.1184609627763824,
                -0.34357822529907045,
                1.6716059891950885
            ]
        },
        {
            "positions": [
                1.1600119208171282,
                -1.2727883489528249,
                0.08833714866042319,
                -1.0915803354450309,
                -0.2668676835673829,
                1.7484551318244441
            ]
        },
        {
            "positions": [
                1.0694477666614892,
                -1.2744618024149668,
                0.20645218823568756,
                -1.0646997081136793,
                -0.19015714183569532,
                1.8253042744537997
            ]
        },
        {
            "positions": [
                0.9788836125058507,
                -1.2761352558771086,
                0.3245672278109515,
                -1.0378190807823278,
                -0.11344660010400776,
                1.9021534170831553
            ]
        },
        {
            "positions": [
                0.8883194583502121,
                -1.2778087093392503,
                0.44268226738621586,
                -1.0109384534509762,
                -0.03673605837232041,
                1.979002559712511
            ]
        },
        {
            "positions": [
                0.7977553041945735,
                -1.2794821628013922,
                0.5607973069614798,
                -0.9840578261196248,
                0.03997448335936715,
                2.0558517023418665
            ]
        },
        {
            "positions": [
                0.707191150038935,
                -1.281155616263534,
                0.6789123465367437,
                -0.9571771987882732,
                0.11668502509105472,
                2.132700844971222
            ]
        },
        {
            "positions": [
                0.6166269958832964,
                -1.2828290697256757,
                0.7970273861120081,
                -0.9302965714569218,
                0.19339556682274206,
                2.2095499876005777
            ]
        },
        {
            "positions": [
                0.5260628417276578,
                -1.2845025231878175,
                0.915142425687272,
                -0.9034159441255702,
                0.2701061085544296,
                2.2863991302299334
            ]
        },
        {
            "positions": [
                0.4354986875720188,
                -1.2861759766499594,
                1.0332574652625364,
                -0.8765353167942187,
                0.3468166502861172,
                2.363248272859289
            ]
        },
        {
            "positions": [
                0.34493453341638025,
                -1.2878494301121013,
                1.1513725048378003,
                -0.8496546894628672,
                0.42352719201780475,
                2.4400974154886446
            ]
        },
        {
            "positions": [
                0.2543703792607417,
                -1.289522883574243,
                1.2694875444130647,
                -0.8227740621315157,
                0.5002377337494923,
                2.516946558118
            ]
        },
        {
            "positions": [
                0.16380622510510295,
                -1.2911963370363848,
                1.3876025839883286,
                -0.7958934348001642,
                0.5769482754811798,
                2.5937957007473558
            ]
        },
        {
            "positions": [
                0.1462661092814705,
                -1.2315005604034155,
                1.4728019590010009,
                -0.7999170135514939,
                0.4590757474074725,
                2.703151759737456
            ]
        },
        {
            "positions": [
                0.12872599345783806,
                -1.1718047837704462,
                1.5580013340136734,
                -0.8039405923028236,
                0.3412032193337652,
                2.812507818727557
            ]
        },
        {
            "positions": [
                0.11118587763420561,
                -1.1121090071374766,
                1.6432007090263459,
                -0.8079641710541533,
                0.2233306912600579,
                2.9218638777176578
            ]
        },
        {
            "positions": [
                0.09364576181057316,
                -1.0524132305045073,
                1.7284000840390181,
                -0.811987749805483,
                0.10545816318635062,
                3.031219936707758
            ]
        },
        {
            "positions": [
                0.10879211689761951,
                -1.0920994605374057,
                1.842314785485039,
                -0.7594092042224392,
                0.1213392344338924,
                3.0264743183735674
            ]
        },
        {
            "positions": [
                0.12393847198466587,
                -1.1317856905703043,
                1.95622948693106,
                -0.7068306586393953,
                0.13722030568143417,
                3.0217287000393767
            ]
        }
    ]
}