{
    "goal": {
        "global_pose": {
            "orientation": {
                "w": 0.7031023502349854,
                "x": -0.7110244035720825,
                "y": 0.007748599164187908,
                "z": 0.005598929710686207
            },
            "position": {
                "x": 0.11585023208521307,
                "y": 0.44412534475326537,
                "z": 0.3711530566215515
            }
        },
        "name": "move_to_auspresseinheit_A"
    },
    "id": "EST_move_to_auspresseinheit_A_2",
    "joint_names": [
        "shoulder_pan_joint",
        "shoulder_lift_joint",
        "elbow_joint",
        "wrist_1_joint",
        "wrist_2_joint",
        "wrist_3_joint"
    ],
    "metrics": {
        "cart_traj_len": 0.750571525043653,
        "distance_elbow_joint": 0.29444511746082336,
        "distance_shoulder_lift_joint": 0.6763981060943256,
        "distance_shoulder_pan_joint": 1.0443639927580601,
        "distance_wrist_1_joint": 1.2249739116599268,
        "distance_wrist_2_joint": 0.5215155598309574,
        "distance_wrist_3_joint": 2.075716140091686,
        "smoothness": 1.0495408261904624,
        "time": 0.28684925099999997,
        "traj_len": 2.4160738457041786,
        "weighted_distance": 3.4256874608711807
    },
    "planner": "EST",
    "start": {
        "state": {
            "elbow_joint": 2.4225746658250005,
            "shoulder_lift_joint": -1.3736534386056498,
            "shoulder_pan_joint": -0.3378633547517467,
            "wrist_1_joint": -1.0288598680537169,
            "wrist_2_joint": 1.233022673432363,
            "wrist_3_joint": -3.0940220416140027
        }
    },
    "waypoints": [
        {
            "positions": [
                -0.3378633547517467,
                -1.3736534386056498,
                2.4225746658250005,
                -1.0288598680537169,
                1.233022673432363,
                -3.0940220416140027
            ]
        },
        {
            "positions": [
                -0.29801834576914177,
                -1.4342235531458922,
                2.406403239912349,
                -0.9397773641296402,
                1.1813527028261748,
                -2.9916859619076304
            ]
        },
        {
            "positions": [
                -0.25817333678653676,
                -1.4947936676861349,
                2.3902318139996974,
                -0.8506948602055635,
                1.1296827322199865,
                -2.889349882201258
            ]
        },
        {
            "positions": [
                -0.21832832780393177,
                -1.5553637822263773,
                2.374060388087046,
                -0.7616123562814868,
                1.0780127616137982,
                -2.787013802494885
            ]
        },
        {
            "positions": [
                -0.1784833188213268,
                -1.6159338967666197,
                2.357888962174395,
                -0.6725298523574101,
                1.02634279100761,
                -2.684677722788513
            ]
        },
        {
            "positions": [
                -0.1386383098387218,
                -1.676504011306862,
                2.3417175362617435,
                -0.5834473484333333,
                0.9746728204014218,
                -2.5823416430821404
            ]
        },
        {
            "positions": [
                -0.09879330085611682,
                -1.7370741258471047,
                2.3255461103490918,
                -0.4943648445092568,
                0.9230028497952336,
                -2.480005563375768
            ]
        },
        {
            "positions": [
                -0.05894829187351186,
                -1.7976442403873472,
                2.3093746844364405,
                -0.4052823405851801,
                0.8713328791890453,
                -2.3776694836693957
            ]
        },
        {
            "positions": [
                -0.019103282890906848,
                -1.8582143549275898,
                2.293203258523789,
                -0.3161998366611033,
                0.8196629085828571,
                -2.275333403963023
            ]
        },
        {
            "positions": [
                0.020741726091698165,
                -1.9187844694678322,
                2.2770318326111374,
                -0.2271173327370266,
                0.7679929379766688,
                -2.1729973242566505
            ]
        },
        {
            "positions": [
                0.06058673507430312,
                -1.9793545840080746,
                2.260860406698486,
                -0.13803482881294993,
                0.7163229673704805,
                -2.070661244550278
            ]
        },
        {
            "positions": [
                0.16823905222963817,
                -1.9675717572260911,
                2.282982216420871,
                -0.1937263075494766,
                0.7155203250756347,
                -2.246053801721605
            ]
        },
        {
            "positions": [
                0.2758913693849732,
                -1.9557889304441076,
                2.3051040261432556,
                -0.24941778628600325,
                0.7147176827807888,
                -2.421446358892932
            ]
        },
        {
            "positions": [
                0.3835436865403083,
                -1.9440061036621241,
                2.3272258358656406,
                -0.3051092650225299,
                0.7139150404859431,
                -2.596838916064259
            ]
        },
        {
            "positions": [
                0.4911960036956433,
                -1.9322232768801408,
                2.3493476455880256,
                -0.3608007437590566,
                0.7131123981910973,
                -2.7722314732355855
            ]
        },
        {
            "positions": [
                0.5988483208509784,
                -1.9204404500981573,
                2.37146945531041,
                -0.41649222249558326,
                0.7123097558962515,
                -2.947624030406913
            ]
        },
        {
            "positions": [
                0.7065006380063135,
                -1.9086576233161738,
                2.393591265032795,
                -0.4721837012321099,
                0.7115071136014056,
                -3.1230165875782396
            ]
        }
    ]
}