{
    "goal": {
        "global_pose": {
            "orientation": {
                "w": 0.7047431493862688,
                "x": -0.7094548369677653,
                "y": 0.0024358444001904,
                "z": -0.0022348060817251984
            },
            "position": {
                "x": -0.39052492380142206,
                "y": 0.3671506643295288,
                "z": 0.19426114857196808
            }
        },
        "name": "move_to_magneteinheit_D"
    },
    "id": "EST_move_to_magneteinheit_D_2",
    "joint_names": [
        "shoulder_pan_joint",
        "shoulder_lift_joint",
        "elbow_joint",
        "wrist_1_joint",
        "wrist_2_joint",
        "wrist_3_joint"
    ],
    "metrics": {
        "cart_traj_len": 5.695744149518425,
        "distance_elbow_joint": 6.013117887412327,
        "distance_shoulder_lift_joint": 3.6696144096338292,
        "distance_shoulder_pan_joint": 4.748579928133177,
        "distance_wrist_1_joint": 2.391597738207156,
        "distance_wrist_2_joint": 2.1238516779353143,
        "distance_wrist_3_joint": 2.5473855859588905,
        "smoothness": 0.836947049151557,
        "time": 0.552889219,
        "traj_len": 4.636178084077519,
        "weighted_distance": 5.577128993966425
    },
    "planner": "EST",
    "start": {
        "state": {
            "elbow_joint": 0.749534889911806,
            "shoulder_lift_joint": -0.6476975780787326,
            "shoulder_pan_joint": -2.711696901376241,
            "wrist_1_joint": -0.07506478083263063,
            "wrist_2_joint": 0.43296659715538205,
            "wrist_3_joint": -3.14703540197715
        }
    },
    "waypoints": [
        {
            "positions": [
                -2.711696901376241,
                -0.6476975780787326,
                0.749534889911806,
                -0.07506478083263063,
                0.43296659715538205,
                -3.14703540197715
            ]
        },
        {
            "positions": [
                -2.7771085102646977,
                -0.635270683806927,
                0.6420449272121495,
                -0.03887025740734309,
                0.3414142879341092,
                -3.082880887284628
            ]
        },
        {
            "positions": [
                -2.842520119153155,
                -0.6228437895351214,
                0.5345549645124931,
                -0.0026757339820555476,
                0.24986197871283633,
                -3.0187263725921056
            ]
        },
        {
            "positions": [
                -2.9079317280416115,
                -0.6104168952633158,
                0.4270650018128366,
                0.033518789443232,
                0.15830966949156344,
                -2.9545718578995834
            ]
        },
        {
            "positions": [
                -2.854600149101451,
                -0.6698924258540588,
                0.4312248215770339,
                -0.04652166805053097,
                0.20086884645209985,
                -2.9836955990420657
            ]
        },
        {
            "positions": [
                -2.8012685701612914,
                -0.7293679564448019,
                0.4353846413412313,
                -0.12656212554429394,
                0.24342802341263625,
                -3.0128193401845484
            ]
        },
        {
            "positions": [
                -2.747936991221131,
                -0.788843487035545,
                0.4395444611054286,
                -0.20660258303805693,
                0.28598720037317266,
                -3.0419430813270307
            ]
        },
        {
            "positions": [
                -2.6280290448552552,
                -0.865060898346485,
                0.4894059069104974,
                -0.2759110857767494,
                0.24839158857461724,
                -3.0032502344310785
            ]
        },
        {
            "positions": [
                -2.508121098489379,
                -0.9412783096574251,
                0.5392673527155663,
                -0.3452195885154419,
                0.21079597677606182,
                -2.9645573875351268
            ]
        },
        {
            "positions": [
                -2.388213152123503,
                -1.0174957209683653,
                0.589128798520635,
                -0.41452809125413437,
                0.1732003649775064,
                -2.9258645406391746
            ]
        },
        {
            "positions": [
                -2.2683052057576267,
                -1.0937131322793054,
                0.6389902443257038,
                -0.48383659399282686,
                0.135604753178951,
                -2.887171693743223
            ]
        },
        {
            "positions": [
                -2.148397259391751,
                -1.1699305435902456,
                0.6888516901307726,
                -0.5531450967315193,
                0.09800914138039557,
                -2.8484788468472706
            ]
        },
        {
            "positions": [
                -2.028489313025875,
                -1.2461479549011856,
                0.7387131359358414,
                -0.6224535994702118,
                0.06041352958184015,
                -2.8097859999513184
            ]
        },
        {
            "positions": [
                -1.9085813666599987,
                -1.3223653662121255,
                0.7885745817409102,
                -0.6917621022089043,
                0.022817917783284736,
                -2.7710931530553666
            ]
        },
        {
            "positions": [
                -1.7886734202941228,
                -1.3985827775230657,
                0.838436027545979,
                -0.7610706049475968,
                -0.014777694015270681,
                -2.7324003061594144
            ]
        },
        {
            "positions": [
                -1.6687654739282465,
                -1.4748001888340059,
                0.8882974733510478,
                -0.8303791076862893,
                -0.0523733058138261,
                -2.6937074592634627
            ]
        },
        {
            "positions": [
                -1.5488575275623704,
                -1.551017600144946,
                0.9381589191561166,
                -0.8996876104249818,
                -0.08996891761238152,
                -2.6550146123675105
            ]
        },
        {
            "positions": [
                -1.4289495811964945,
                -1.627235011455886,
                0.9880203649611854,
                -0.9689961131636742,
                -0.12756452941093693,
                -2.6163217654715583
            ]
        },
        {
            "positions": [
                -1.3090416348306184,
                -1.7034524227668262,
                1.0378818107662542,
                -1.0383046159023668,
                -0.16516014120949235,
                -2.5776289185756065
            ]
        },
        {
            "positions": [
                -1.1891336884647423,
                -1.7796698340777661,
                1.087743256571323,
                -1.1076131186410594,
                -0.20275575300804777,
                -2.5389360716796543
            ]
        },
        {
            "positions": [
                -1.0692257420988662,
                -1.8558872453887063,
                1.1376047023763918,
                -1.1769216213797518,
                -0.24035136480660318,
                -2.500243224783702
            ]
        },
        {
            "positions": [
                -0.9493177957329901,
                -1.9321046566996465,
                1.1874661481814606,
                -1.2462301241184444,
                -0.2779469766051586,
                -2.4615503778877503
            ]
        },
        {
            "positions": [
                -0.8294098493671143,
                -2.008322068010586,
                1.2373275939865294,
                -1.3155386268571367,
                -0.315542588403714,
                -2.422857530991798
            ]
        },
        {
            "positions": [
                -0.7095019030012382,
                -2.084539479321527,
                1.287189039791598,
                -1.3848471295958291,
                -0.35313820020226944,
                -2.3841646840958464
            ]
        },
        {
            "positions": [
                -0.5895939566353618,
                -2.1607568906324666,
                1.337050485596667,
                -1.4541556323345217,
                -0.39073381200082485,
                -2.345471837199894
            ]
        },
        {
            "positions": [
                -0.469686010269486,
                -2.2369743019434067,
                1.3869119314017357,
                -1.523464135073214,
                -0.42832942379938027,
                -2.3067789903039424
            ]
        },
        {
            "positions": [
                -0.34977806390360966,
                -2.313191713254347,
                1.4367733772068045,
                -1.5927726378119067,
                -0.4659250355979357,
                -2.26808614340799
            ]
        },
        {
            "positions": [
                -0.2298701175377338,
                -2.389409124565287,
                1.4866348230118733,
                -1.662081140550599,
                -0.503520647396491,
                -2.229393296512038
            ]
        },
        {
            "positions": [
                -0.10996217117185791,
                -2.4656265358762273,
                1.5364962688169421,
                -1.7313896432892915,
                -0.5411162591950465,
                -2.1907004496160862
            ]
        },
        {
            "positions": [
                0.009945775194018402,
                -2.541843947187167,
                1.586357714622011,
                -1.800698146027984,
                -0.5787118709936019,
                -2.152007602720134
            ]
        },
        {
            "positions": [
                0.12985372155989428,
                -2.6180613584981076,
                1.6362191604270797,
                -1.8700066487666764,
                -0.6163074827921573,
                -2.113314755824182
            ]
        },
        {
            "positions": [
                0.24976166792577015,
                -2.6942787698090473,
                1.6860806062321485,
                -1.939315151505369,
                -0.6539030945907127,
                -2.07462190892823
            ]
        },
        {
            "positions": [
                0.36966961429164646,
                -2.7704961811199875,
                1.7359420520372173,
                -2.0086236542440616,
                -0.6914987063892681,
                -2.0359290620322783
            ]
        },
        {
            "positions": [
                0.48957756065752234,
                -2.8467135924309277,
                1.785803497842286,
                -2.077932156982754,
                -0.7290943181878236,
                -1.997236215136326
            ]
        },
        {
            "positions": [
                0.6094855070233987,
                -2.9229310037418674,
                1.8356649436473549,
                -2.147240659721447,
                -0.766689929986379,
                -1.958543368240374
            ]
        },
        {
            "positions": [
                0.7293934533892745,
                -2.999148415052808,
                1.8855263894524237,
                -2.2165491624601392,
                -0.8042855417849344,
                -1.919850521344422
            ]
        },
        {
            "positions": [
                0.685821076244659,
                -2.939929262337145,
                1.6839936936584345,
                -2.2181180298900403,
                -0.7742262809643734,
                -1.9743961527001965
            ]
        },
        {
            "positions": [
                0.6422486991000436,
                -2.880710109621482,
                1.4824609978644454,
                -2.2196868973199413,
                -0.7441670201438125,
                -2.0289417840559714
            ]
        },
        {
            "positions": [
                0.5986763219554281,
                -2.8214909569058193,
                1.2809283020704565,
                -2.2212557647498423,
                -0.7141077593232515,
                -2.0834874154117458
            ]
        },
        {
            "positions": [
                0.5551039448108126,
                -2.762271804190157,
                1.0793956062764671,
                -2.2228246321797434,
                -0.6840484985026907,
                -2.1380330467675206
            ]
        },
        {
            "positions": [
                0.5115315676661971,
                -2.703052651474494,
                0.877862910482478,
                -2.2243934996096444,
                -0.6539892376821297,
                -2.1925786781232954
            ]
        },
        {
            "positions": [
                0.4679591905215817,
                -2.643833498758831,
                0.6763302146884891,
                -2.2259623670395454,
                -0.6239299768615687,
                -2.24712430947907
            ]
        },
        {
            "positions": [
                0.4243868133769662,
                -2.584614346043168,
                0.47479751889449995,
                -2.2275312344694465,
                -0.5938707160410078,
                -2.3016699408348447
            ]
        },
        {
            "positions": [
                0.38081443623235073,
                -2.525395193327505,
                0.2732648231005108,
                -2.2291001018993475,
                -0.5638114552204468,
                -2.356215572190619
            ]
        },
        {
            "positions": [
                0.33724205908773525,
                -2.4661760406118423,
                0.07173212730652168,
                -2.2306689693292485,
                -0.533752194399886,
                -2.410761203546394
            ]
        },
        {
            "positions": [
                0.29366968194311976,
                -2.40695688789618,
                -0.12980056848746768,
                -2.2322378367591496,
                -0.503692933579325,
                -2.4653068349021687
            ]
        },
        {
            "positions": [
                0.2500973047985043,
                -2.347737735180517,
                -0.3313332642814566,
                -2.2338067041890506,
                -0.473633672758764,
                -2.519852466257943
            ]
        },
        {
            "positions": [
                0.20652492765388886,
                -2.288518582464854,
                -0.5328659600754455,
                -2.2353755716189516,
                -0.44357441193820313,
                -2.5743980976137175
            ]
        },
        {
            "positions": [
                0.16295255050927326,
                -2.229299429749191,
                -0.7343986558694349,
                -2.2369444390488527,
                -0.41351515111764214,
                -2.6289437289694924
            ]
        },
        {
            "positions": [
                0.1193801733646579,
                -2.170080277033528,
                -0.9359313516634238,
                -2.2385133064787537,
                -0.3834558902970812,
                -2.683489360325267
            ]
        },
        {
            "positions": [
                0.07580779622004241,
                -2.110861124317865,
                -1.1374640474574131,
                -2.2400821739086547,
                -0.35339662947652023,
                -2.738034991681042
            ]
        },
        {
            "positions": [
                0.03223541907542693,
                -2.0516419716022023,
                -1.338996743251402,
                -2.2416510413385557,
                -0.32333736865595936,
                -2.7925806230368164
            ]
        },
        {
            "positions": [
                -0.011336958069188552,
                -1.9924228188865396,
                -1.5405294390453914,
                -2.243219908768457,
                -0.2932781078353983,
                -2.8471262543925913
            ]
        },
        {
            "positions": [
                -0.054909335213804034,
                -1.9332036661708767,
                -1.7420621348393803,
                -2.244788776198358,
                -0.26321884701483744,
                -2.9016718857483657
            ]
        },
        {
            "positions": [
                -0.09848171235841952,
                -1.8739845134552138,
                -1.9435948306333697,
                -2.246357643628259,
                -0.23315958619427646,
                -2.9562175171041405
            ]
        },
        {
            "positions": [
                -0.142054089503035,
                -1.814765360739551,
                -2.145127526427359,
                -2.24792651105816,
                -0.20310032537371558,
                -3.0107631484599153
            ]
        },
        {
            "positions": [
                -0.1856264666476505,
                -1.7555462080238882,
                -2.346660222221348,
                -2.249495378488061,
                -0.1730410645531546,
                -3.0653087798156897
            ]
        }
    ]
}