{
    "goal": {
        "global_pose": {
            "orientation": {
                "w": 0.5084816262002911,
                "x": -0.4908360881923452,
                "y": 0.5182115481033761,
                "z": -0.48164630358495003
            },
            "position": {
                "x": 0.5540239810943604,
                "y": -0.46912469901144505,
                "z": 0.16403168439865112
            }
        },
        "name": "move_to_storage_B"
    },
    "id": "EST_move_to_storage_B_60",
    "joint_names": [
        "shoulder_pan_joint",
        "shoulder_lift_joint",
        "elbow_joint",
        "wrist_1_joint",
        "wrist_2_joint",
        "wrist_3_joint"
    ],
    "metrics": {
        "cart_traj_len": 0.9495906515556908,
        "distance_elbow_joint": 0.47126185752465277,
        "distance_shoulder_lift_joint": 0.4582759466523558,
        "distance_shoulder_pan_joint": 0.7626383290427704,
        "distance_wrist_1_joint": 3.426965706424207,
        "distance_wrist_2_joint": 2.7013481640363097,
        "distance_wrist_3_joint": 3.150489284876165,
        "smoothness": 0.3322895814765898,
        "time": 0.10287454100000001,
        "traj_len": 3.312246864072251,
        "weighted_distance": 4.837382735402411
    },
    "planner": "EST",
    "start": {
        "state": {
            "elbow_joint": 1.664937868594044,
            "shoulder_lift_joint": -0.661644460510453,
            "shoulder_pan_joint": -0.9139846352900073,
            "wrist_1_joint": 2.146753192139373,
            "wrist_2_joint": -2.2341966793290973,
            "wrist_3_joint": 0.005466555786416001
        }
    },
    "waypoints": [
        {
            "positions": [
                -0.9139846352900073,
                -0.661644460510453,
                1.664937868594044,
                2.146753192139373,
                -2.2341966793290973,
                0.005466555786416001
            ]
        },
        {
            "positions": [
                -0.8170764958704174,
                -0.7003778835296929,
                1.6450311161606748,
                2.218689260988557,
                -2.139595388773399,
                0.020292365257266947
            ]
        },
        {
            "positions": [
                -0.7201683564508277,
                -0.7391113065489328,
                1.6251243637273058,
                2.2906253298377406,
                -2.044994098217701,
                0.035118174728117894
            ]
        },
        {
            "positions": [
                -0.6232602170312378,
                -0.7778447295681726,
                1.6052176112939367,
                2.3625613986869243,
                -1.9503928076620027,
                0.04994398419896884
            ]
        },
        {
            "positions": [
                -0.6414107520613916,
                -0.7910014863987356,
                1.6210461343794962,
                2.2390553409993608,
                -1.8574103348785713,
                0.16940597867833854
            ]
        },
        {
            "positions": [
                -0.6595612870915456,
                -0.8041582432292985,
                1.6368746574650557,
                2.115549283311797,
                -1.76442786209514,
                0.28886797315770824
            ]
        },
        {
            "positions": [
                -0.6777118221216994,
                -0.8173150000598615,
                1.652703180550615,
                1.9920432256242333,
                -1.6714453893117085,
                0.40832996763707796
            ]
        },
        {
            "positions": [
                -0.6958623571518533,
                -0.8304717568904244,
                1.6685317036361744,
                1.8685371679366696,
                -1.5784629165282773,
                0.5277919621164476
            ]
        },
        {
            "positions": [
                -0.7140128921820073,
                -0.8436285137209873,
                1.684360226721734,
                1.7450311102491058,
                -1.485480443744846,
                0.6472539565958173
            ]
        },
        {
            "positions": [
                -0.7321634272121611,
                -0.8567852705515502,
                1.7001887498072934,
                1.6215250525615421,
                -1.3924979709614145,
                0.7667159510751871
            ]
        },
        {
            "positions": [
                -0.750313962242315,
                -0.8699420273821131,
                1.7160172728928529,
                1.4980189948739786,
                -1.2995154981779833,
                0.8861779455545566
            ]
        },
        {
            "positions": [
                -0.7684644972724688,
                -0.8830987842126761,
                1.7318457959784124,
                1.3745129371864149,
                -1.2065330253945517,
                1.0056399400339264
            ]
        },
        {
            "positions": [
                -0.7866150323026228,
                -0.896255541043239,
                1.7476743190639716,
                1.2510068794988511,
                -1.1135505526111205,
                1.125101934513296
            ]
        },
        {
            "positions": [
                -0.8047655673327766,
                -0.909412297873802,
                1.7635028421495311,
                1.1275008218112874,
                -1.020568079827689,
                1.2445639289926658
            ]
        },
        {
            "positions": [
                -0.8229161023629304,
                -0.9225690547043649,
                1.7793313652350906,
                1.003994764123724,
                -0.9275856070442579,
                1.3640259234720356
            ]
        },
        {
            "positions": [
                -0.8410666373930844,
                -0.9357258115349278,
                1.79515988832065,
                0.88048870643616,
                -0.8346031342608262,
                1.4834879179514053
            ]
        },
        {
            "positions": [
                -0.8592171724232383,
                -0.9488825683654907,
                1.8109884114062096,
                0.7569826487485964,
                -0.741620661477395,
                1.602949912430775
            ]
        },
        {
            "positions": [
                -0.8773677074533921,
                -0.9620393251960536,
                1.8268169344917689,
                0.6334765910610329,
                -0.6486381886939638,
                1.7224119069101445
            ]
        },
        {
            "positions": [
                -0.895518242483546,
                -0.9751960820266166,
                1.8426454575773283,
                0.5099705333734692,
                -0.5556557159105324,
                1.8418739013895142
            ]
        },
        {
            "positions": [
                -0.9136687775136999,
                -0.9883528388571795,
                1.8584739806628878,
                0.38646447568590525,
                -0.4626732431271008,
                1.961335895868884
            ]
        },
        {
            "positions": [
                -0.9318193125438539,
                -1.0015095956877424,
                1.8743025037484473,
                0.2629584179983415,
                -0.3696907703436696,
                2.080797890348254
            ]
        },
        {
            "positions": [
                -0.9499698475740077,
                -1.0146663525183053,
                1.8901310268340068,
                0.139452360310778,
                -0.2767082975602382,
                2.200259884827623
            ]
        },
        {
            "positions": [
                -0.9681203826041616,
                -1.0278231093488683,
                1.905959549919566,
                0.015946302623214503,
                -0.183725824776807,
                2.319721879306993
            ]
        },
        {
            "positions": [
                -0.9862709176343154,
                -1.0409798661794314,
                1.9217880730051256,
                -0.10755975506434945,
                -0.09074335199337535,
                2.4391838737863627
            ]
        },
        {
            "positions": [
                -1.0044214526644692,
                -1.0541366230099942,
                1.937616596090685,
                -0.23106581275191296,
                0.0022391207900558374,
                2.5586458682657325
            ]
        },
        {
            "positions": [
                -1.022571987694623,
                -1.067293379840557,
                1.9534451191762445,
                -0.35457187043947647,
                0.09522159357348703,
                2.6781078627451023
            ]
        },
        {
            "positions": [
                -1.040722522724777,
                -1.08045013667112,
                1.969273642261804,
                -0.4780779281270404,
                0.18820406635691866,
                2.7975698572244716
            ]
        },
        {
            "positions": [
                -1.058873057754931,
                -1.093606893501683,
                1.9851021653473633,
                -0.6015839858146044,
                0.2811865391403503,
                2.917031851703842
            ]
        },
        {
            "positions": [
                -1.0770235927850849,
                -1.1067636503322458,
                2.000930688432923,
                -0.7250900435021679,
                0.3741690119237815,
                3.036493846183211
            ]
        },
        {
            "positions": [
                -1.0951741278152387,
                -1.1199204071628088,
                2.0167592115184823,
                -0.8485961011897312,
                0.46715148470721257,
                3.155955840662581
            ]
        }
    ]
}