{
    "goal": {
        "global_pose": {
            "orientation": {
                "w": -0.4816463035849501,
                "x": 0.5182115481033762,
                "y": 0.4908360881923453,
                "z": -0.5084816262002911
            },
            "position": {
                "x": -0.8240239810943604,
                "y": -0.300875300988555,
                "z": 0.16403168439865112
            }
        },
        "name": "move_to_storage_C"
    },
    "id": "EST_move_to_storage_C_118",
    "joint_names": [
        "shoulder_pan_joint",
        "shoulder_lift_joint",
        "elbow_joint",
        "wrist_1_joint",
        "wrist_2_joint",
        "wrist_3_joint"
    ],
    "metrics": {
        "cart_traj_len": 0.5757845126605992,
        "distance_elbow_joint": 0.2557356771956709,
        "distance_shoulder_lift_joint": 0.18811562066465548,
        "distance_shoulder_pan_joint": 0.494771122343336,
        "distance_wrist_1_joint": 0.07547236718753292,
        "distance_wrist_2_joint": 1.0644295833862327,
        "distance_wrist_3_joint": 0.07539339748698737,
        "smoothness": 5.075305295617109e-16,
        "time": 0.045549782000000004,
        "traj_len": 1.4676231697082243,
        "weighted_distance": 1.855965116539682
    },
    "planner": "EST",
    "start": {
        "state": {
            "elbow_joint": 2.010868314990456,
            "shoulder_lift_joint": -1.1634956873337592,
            "shoulder_pan_joint": -2.4736205022346125,
            "wrist_1_joint": -0.8367026794202681,
            "wrist_2_joint": 0.6746043897044499,
            "wrist_3_joint": -3.1496632123970403
        }
    },
    "waypoints": [
        {
            "positions": [
                -2.4736205022346125,
                -1.1634956873337592,
                2.010868314990456,
                -0.8367026794202681,
                0.6746043897044499,
                -3.1496632123970403
            ]
        },
        {
            "positions": [
                -2.5560823559585018,
                -1.13214308388965,
                1.9682457021245106,
                -0.8241239515556793,
                0.852009320268822,
                -3.137097646149209
            ]
        },
        {
            "positions": [
                -2.638544209682391,
                -1.1007904804455406,
                1.9256230892585655,
                -0.8115452236910905,
                1.0294142508331943,
                -3.124532079901378
            ]
        },
        {
            "positions": [
                -2.7210060634062803,
                -1.0694378770014314,
                1.8830004763926205,
                -0.7989664958265017,
                1.2068191813975662,
                -3.1119665136535466
            ]
        },
        {
            "positions": [
                -2.80346791713017,
                -1.0380852735573223,
                1.8403778635266752,
                -0.7863877679619128,
                1.3842241119619385,
                -3.0994009474057154
            ]
        },
        {
            "positions": [
                -2.885929770854059,
                -1.0067326701132129,
                1.79775525066073,
                -0.773809040097324,
                1.5616290425263104,
                -3.086835381157884
            ]
        },
        {
            "positions": [
                -2.9683916245779485,
                -0.9753800666691037,
                1.755132637794785,
                -0.7612303122327352,
                1.7390339730906825,
                -3.074269814910053
            ]
        }
    ]
}