{
    "goal": {
        "global_pose": {
            "orientation": {
                "w": -0.00223480608172531,
                "x": 0.0024358444001904467,
                "y": 0.7094548369677653,
                "z": -0.704743149386269
            },
            "position": {
                "x": -0.37947507619857795,
                "y": -0.6371506643295288,
                "z": 0.19426114857196808
            }
        },
        "name": "move_to_magneteinheit_C"
    },
    "id": "EST_move_to_magneteinheit_C_126",
    "joint_names": [
        "shoulder_pan_joint",
        "shoulder_lift_joint",
        "elbow_joint",
        "wrist_1_joint",
        "wrist_2_joint",
        "wrist_3_joint"
    ],
    "metrics": {
        "cart_traj_len": 3.8453059043673616,
        "distance_elbow_joint": 0.85512469052196,
        "distance_shoulder_lift_joint": 1.5243098567253819,
        "distance_shoulder_pan_joint": 6.768483997337068,
        "distance_wrist_1_joint": 2.9433523631771497,
        "distance_wrist_2_joint": 7.420123749893928,
        "distance_wrist_3_joint": 1.7058570456927624,
        "smoothness": 0.6247261542518953,
        "time": 0.409129458,
        "traj_len": 4.606218807584832,
        "weighted_distance": 5.91544097323309
    },
    "planner": "EST",
    "start": {
        "state": {
            "elbow_joint": 1.9565354010623817,
            "shoulder_lift_joint": -1.4165861575791021,
            "shoulder_pan_joint": -1.6717766225146293,
            "wrist_1_joint": -0.5286633292919765,
            "wrist_2_joint": 1.472756589071564,
            "wrist_3_joint": -3.1238370188695823
        }
    },
    "waypoints": [
        {
            "positions": [
                -1.6717766225146293,
                -1.4165861575791021,
                1.9565354010623817,
                -0.5286633292919765,
                1.472756589071564,
                -3.1238370188695823
            ]
        },
        {
            "positions": [
                -1.5612561951789385,
                -1.4401454879011353,
                1.9734775263010471,
                -0.5891398073464252,
                1.3207714509714144,
                -3.092471246830832
            ]
        },
        {
            "positions": [
                -1.4507357678432475,
                -1.4637048182231682,
                1.9904196515397128,
                -0.649616285400874,
                1.1687863128712646,
                -3.0611054747920816
            ]
        },
        {
            "positions": [
                -1.3402153405075568,
                -1.4872641485452014,
                2.0073617767783785,
                -0.7100927634553229,
                1.016801174771115,
                -3.0297397027533313
            ]
        },
        {
            "positions": [
                -1.229694913171866,
                -1.5108234788672343,
                2.024303902017044,
                -0.7705692415097716,
                0.8648160366709653,
                -2.998373930714581
            ]
        },
        {
            "positions": [
                -1.119174485836175,
                -1.5343828091892675,
                2.0412460272557094,
                -0.8310457195642205,
                0.7128308985708156,
                -2.9670081586758306
            ]
        },
        {
            "positions": [
                -1.0086540585004842,
                -1.5579421395113005,
                2.058188152494375,
                -0.8915221976186692,
                0.560845760470666,
                -2.93564238663708
            ]
        },
        {
            "positions": [
                -0.8981336311647934,
                -1.5815014698333336,
                2.0751302777330407,
                -0.951998675673118,
                0.40886062237051624,
                -2.90427661459833
            ]
        },
        {
            "positions": [
                -0.7876132038291025,
                -1.6050608001553666,
                2.092072402971706,
                -1.012475153727567,
                0.25687548427036666,
                -2.8729108425595795
            ]
        },
        {
            "positions": [
                -0.6770927764934116,
                -1.6286201304773997,
                2.1090145282103716,
                -1.0729516317820156,
                0.10489034617021709,
                -2.841545070520829
            ]
        },
        {
            "positions": [
                -0.5665723491577208,
                -1.6521794607994327,
                2.125956653449037,
                -1.1334281098364645,
                -0.04709479192993271,
                -2.810179298482079
            ]
        },
        {
            "positions": [
                -0.45605192182203,
                -1.6757387911214658,
                2.1428987786877025,
                -1.1939045878909131,
                -0.19907993003008229,
                -2.7788135264433285
            ]
        },
        {
            "positions": [
                -0.345531494486339,
                -1.699298121443499,
                2.1598409039263684,
                -1.254381065945362,
                -0.35106506813023186,
                -2.747447754404578
            ]
        },
        {
            "positions": [
                -0.23501106715064823,
                -1.722857451765532,
                2.176783029165034,
                -1.314857543999811,
                -0.5030502062303817,
                -2.7160819823658278
            ]
        },
        {
            "positions": [
                -0.12449063981495745,
                -1.7464167820875651,
                2.1937251544036993,
                -1.3753340220542596,
                -0.6550353443305315,
                -2.6847162103270774
            ]
        },
        {
            "positions": [
                -0.013970212479266442,
                -1.7699761124095983,
                2.2106672796423648,
                -1.4358105001087085,
                -0.8070204824306813,
                -2.653350438288327
            ]
        },
        {
            "positions": [
                0.09655021485642434,
                -1.7935354427316312,
                2.22760940488103,
                -1.4962869781631571,
                -0.9590056205308306,
                -2.6219846662495767
            ]
        },
        {
            "positions": [
                0.20707064219211535,
                -1.8170947730536642,
                2.244551530119696,
                -1.556763456217606,
                -1.1109907586309804,
                -2.5906188942108264
            ]
        },
        {
            "positions": [
                0.31759106952780614,
                -1.8406541033756973,
                2.2614936553583616,
                -1.6172399342720547,
                -1.2629758967311298,
                -2.559253122172076
            ]
        },
        {
            "positions": [
                0.42811149686349714,
                -1.8642134336977305,
                2.278435780597027,
                -1.6777164123265036,
                -1.41496103483128,
                -2.5278873501333257
            ]
        },
        {
            "positions": [
                0.5386319241991877,
                -1.8877727640197635,
                2.2953779058356925,
                -1.7381928903809525,
                -1.5669461729314293,
                -2.4965215780945753
            ]
        },
        {
            "positions": [
                0.6491523515348787,
                -1.9113320943417966,
                2.3123200310743584,
                -1.7986693684354014,
                -1.7189313110315791,
                -2.465155806055825
            ]
        },
        {
            "positions": [
                0.7596727788705693,
                -1.9348914246638296,
                2.329262156313024,
                -1.85914584648985,
                -1.8709164491317285,
                -2.4337900340170746
            ]
        },
        {
            "positions": [
                0.8701932062062603,
                -1.9584507549858627,
                2.3462042815516893,
                -1.919622324544299,
                -2.0229015872318783,
                -2.4024242619783243
            ]
        },
        {
            "positions": [
                0.9807136335419513,
                -1.9820100853078957,
                2.3631464067903547,
                -1.9800988025987476,
                -2.1748867253320276,
                -2.371058489939574
            ]
        },
        {
            "positions": [
                1.0912340608776423,
                -2.005569415629929,
                2.3800885320290206,
                -2.0405752806531963,
                -2.326871863432178,
                -2.3396927179008236
            ]
        },
        {
            "positions": [
                1.2017544882133329,
                -2.029128745951962,
                2.397030657267686,
                -2.101051758707645,
                -2.4788570015323272,
                -2.308326945862073
            ]
        },
        {
            "positions": [
                1.3122749155490236,
                -2.052688076273995,
                2.4139727825063515,
                -2.161528236762094,
                -2.6308421396324766,
                -2.276961173823323
            ]
        },
        {
            "positions": [
                1.172110750390749,
                -2.0197914859765693,
                2.3992436229108702,
                -2.1129916643285003,
                -2.5080078795884067,
                -2.308775292365786
            ]
        },
        {
            "positions": [
                1.0319465852324747,
                -1.986894895679144,
                2.3845144633153894,
                -2.0644550918949065,
                -2.3851736195443367,
                -2.340589410908249
            ]
        },
        {
            "positions": [
                0.8917824200742002,
                -1.9539983053817185,
                2.369785303719908,
                -2.0159185194613127,
                -2.262339359500267,
                -2.372403529450712
            ]
        },
        {
            "positions": [
                0.7516182549159257,
                -1.9211017150842928,
                2.355056144124427,
                -1.967381947027719,
                -2.1395050994561973,
                -2.404217647993175
            ]
        },
        {
            "positions": [
                0.6114540897576511,
                -1.8882051247868674,
                2.340326984528946,
                -1.9188453745941252,
                -2.0166708394121273,
                -2.4360317665356384
            ]
        },
        {
            "positions": [
                0.4712899245993767,
                -1.8553085344894418,
                2.325597824933465,
                -1.8703088021605314,
                -1.8938365793680574,
                -2.467845885078101
            ]
        },
        {
            "positions": [
                0.33112575944110223,
                -1.8224119441920164,
                2.3108686653379835,
                -1.8217722297269376,
                -1.7710023193239877,
                -2.4996600036205643
            ]
        },
        {
            "positions": [
                0.19096159428282777,
                -1.7895153538945907,
                2.2961395057425027,
                -1.7732356572933439,
                -1.6481680592799177,
                -2.5314741221630275
            ]
        },
        {
            "positions": [
                0.050797429124553206,
                -1.7566187635971653,
                2.2814103461470214,
                -1.72469908485975,
                -1.525333799235848,
                -2.5632882407054907
            ]
        },
        {
            "positions": [
                -0.08936673603372136,
                -1.7237221732997399,
                2.26668118655154,
                -1.6761625124261563,
                -1.402499539191778,
                -2.5951023592479534
            ]
        },
        {
            "positions": [
                -0.2295309011919957,
                -1.6908255830023142,
                2.2519520269560593,
                -1.6276259399925626,
                -1.2796652791477081,
                -2.6269164777904166
            ]
        },
        {
            "positions": [
                -0.3696950663502703,
                -1.6579289927048888,
                2.237222867360578,
                -1.5790893675589688,
                -1.1568310191036384,
                -2.65873059633288
            ]
        },
        {
            "positions": [
                -0.5098592315085448,
                -1.6250324024074632,
                2.222493707765097,
                -1.5305527951253748,
                -1.0339967590595684,
                -2.690544714875343
            ]
        },
        {
            "positions": [
                -0.6500233966668192,
                -1.5921358121100377,
                2.207764548169616,
                -1.482016222691781,
                -0.9111624990154987,
                -2.7223588334178057
            ]
        },
        {
            "positions": [
                -0.790187561825094,
                -1.559239221812612,
                2.1930353885741347,
                -1.433479650258187,
                -0.7883282389714286,
                -2.754172951960269
            ]
        },
        {
            "positions": [
                -0.9303517269833681,
                -1.5263426315151867,
                2.1783062289786534,
                -1.3849430778245935,
                -0.6654939789273588,
                -2.785987070502732
            ]
        },
        {
            "positions": [
                -1.070515892141643,
                -1.4934460412177613,
                2.1635770693831726,
                -1.3364065053909995,
                -0.5426597188832889,
                -2.8178011890451953
            ]
        },
        {
            "positions": [
                -1.2106800572999172,
                -1.4605494509203356,
                2.1488479097876914,
                -1.287869932957406,
                -0.4198254588392194,
                -2.849615307587658
            ]
        },
        {
            "positions": [
                -1.3508442224581918,
                -1.42765286062291,
                2.13411875019221,
                -1.239333360523812,
                -0.296991198795149,
                -2.881429426130121
            ]
        },
        {
            "positions": [
                -1.4910083876164664,
                -1.3947562703254848,
                2.1193895905967293,
                -1.1907967880902184,
                -0.17415693875107952,
                -2.9132435446725844
            ]
        },
        {
            "positions": [
                -1.631172552774741,
                -1.3618596800280591,
                2.104660431001248,
                -1.1422602156566244,
                -0.05132267870700957,
                -2.9450576632150476
            ]
        },
        {
            "positions": [
                -1.771336717933015,
                -1.3289630897306335,
                2.0899312714057667,
                -1.0937236432230308,
                0.07151158133706037,
                -2.9768717817575103
            ]
        },
        {
            "positions": [
                -1.91150088309129,
                -1.2960664994332078,
                2.075202111810286,
                -1.0451870707894368,
                0.1943458413811303,
                -3.0086859002999735
            ]
        },
        {
            "positions": [
                -2.051665048249564,
                -1.2631699091357826,
                2.0604729522148046,
                -0.9966504983558433,
                0.3171801014251998,
                -3.0405000188424367
            ]
        },
        {
            "positions": [
                -2.1918292134078388,
                -1.230273318838357,
                2.0457437926193234,
                -0.9481139259222493,
                0.44001436146926975,
                -3.0723141373848994
            ]
        },
        {
            "positions": [
                -2.3319933785661133,
                -1.1973767285409314,
                2.0310146330238426,
                -0.8995773534886555,
                0.5628486215133397,
                -3.1041282559273626
            ]
        },
        {
            "positions": [
                -2.472157543724388,
                -1.164480138243506,
                2.0162854734283613,
                -0.8510407810550616,
                0.6856828815574098,
                -3.135942374469826
            ]
        }
    ]
}