{
    "goal": {
        "global_pose": {
            "orientation": {
                "w": -0.00223480608172531,
                "x": 0.0024358444001904467,
                "y": 0.7094548369677653,
                "z": -0.704743149386269
            },
            "position": {
                "x": 0.6205249238014221,
                "y": -0.6371506643295288,
                "z": 0.19426114857196808
            }
        },
        "name": "move_to_magneteinheit_B"
    },
    "id": "EST_move_to_magneteinheit_B_33",
    "joint_names": [
        "shoulder_pan_joint",
        "shoulder_lift_joint",
        "elbow_joint",
        "wrist_1_joint",
        "wrist_2_joint",
        "wrist_3_joint"
    ],
    "metrics": {
        "cart_traj_len": 3.9436535640084323,
        "distance_elbow_joint": 4.299958478713037,
        "distance_shoulder_lift_joint": 0.7678697400776788,
        "distance_shoulder_pan_joint": 3.4425837238359778,
        "distance_wrist_1_joint": 4.729962900866338,
        "distance_wrist_2_joint": 2.5845277701670932,
        "distance_wrist_3_joint": 3.1398811088420975,
        "smoothness": 0.4230026994315833,
        "time": 1.090152325,
        "traj_len": 4.354857485900339,
        "weighted_distance": 5.7060526295522225
    },
    "planner": "EST",
    "start": {
        "state": {
            "elbow_joint": 2.6216224122426386,
            "shoulder_lift_joint": -1.4174107377796124,
            "shoulder_pan_joint": 0.7066234856936794,
            "wrist_1_joint": 1.9546482284002225,
            "wrist_2_joint": -0.7096286983471962,
            "wrist_3_joint": 0.005740856962016249
        }
    },
    "waypoints": [
        {
            "positions": [
                0.7066234856936794,
                -1.4174107377796124,
                2.6216224122426386,
                1.9546482284002225,
                -0.7096286983471962,
                0.005740856962016249
            ]
        },
        {
            "positions": [
                0.5796560246738619,
                -1.4203653300535832,
                2.5970842629766495,
                1.9877459714561398,
                -0.8006327659667819,
                0.056954782877636924
            ]
        },
        {
            "positions": [
                0.4526885636540445,
                -1.423319922327554,
                2.572546113710661,
                2.0208437145120572,
                -0.8916368335863676,
                0.1081687087932576
            ]
        },
        {
            "positions": [
                0.3257211026342271,
                -1.4262745146015248,
                2.548007964444672,
                2.0539414575679746,
                -0.9826409012059534,
                0.15938263470887828
            ]
        },
        {
            "positions": [
                0.19875364161440956,
                -1.4292291068754956,
                2.523469815178683,
                2.087039200623892,
                -1.0736449688255392,
                0.21059656062449897
            ]
        },
        {
            "positions": [
                0.07178618059459219,
                -1.4321836991494665,
                2.498931665912694,
                2.1201369436798094,
                -1.1646490364451247,
                0.2618104865401196
            ]
        },
        {
            "positions": [
                0.1648281827984357,
                -1.4482991877648583,
                2.3574510721199684,
                2.0379480733472803,
                -1.1159555412853497,
                0.269597820836042
            ]
        },
        {
            "positions": [
                0.2578701850022792,
                -1.4644146763802501,
                2.2159704783272423,
                1.9557592030147508,
                -1.0672620461255746,
                0.2773851551319643
            ]
        },
        {
            "positions": [
                0.35091218720612266,
                -1.480530164995642,
                2.0744898845345165,
                1.8735703326822215,
                -1.0185685509657993,
                0.2851724894278867
            ]
        },
        {
            "positions": [
                0.44395418940996617,
                -1.496645653611034,
                1.9330092907417908,
                1.7913814623496922,
                -0.9698750558060243,
                0.2929598237238091
            ]
        },
        {
            "positions": [
                0.5369961916138097,
                -1.5127611422264258,
                1.7915286969490647,
                1.7091925920171631,
                -0.9211815606462492,
                0.3007471580197314
            ]
        },
        {
            "positions": [
                0.6300381938176531,
                -1.5288766308418176,
                1.650048103156339,
                1.6270037216846338,
                -0.8724880654864742,
                0.3085344923156538
            ]
        },
        {
            "positions": [
                0.7230801960214966,
                -1.5449921194572094,
                1.508567509363613,
                1.5448148513521045,
                -0.823794570326699,
                0.31632182661157615
            ]
        },
        {
            "positions": [
                0.8161221982253402,
                -1.5611076080726012,
                1.3670869155708874,
                1.4626259810195752,
                -0.7751010751669238,
                0.3241091609074985
            ]
        },
        {
            "positions": [
                0.9091642004291837,
                -1.577223096687993,
                1.2256063217781614,
                1.3804371106870459,
                -0.7264075800071488,
                0.33189649520342085
            ]
        },
        {
            "positions": [
                1.0022062026330272,
                -1.5933385853033848,
                1.0841257279854355,
                1.2982482403545166,
                -0.6777140848473737,
                0.3396838294993432
            ]
        },
        {
            "positions": [
                1.0952482048368704,
                -1.6094540739187768,
                0.9426451341927098,
                1.2160593700219873,
                -0.6290205896875987,
                0.34747116379526555
            ]
        },
        {
            "positions": [
                1.1882902070407142,
                -1.6255695625341686,
                0.8011645403999839,
                1.1338704996894582,
                -0.5803270945278235,
                0.3552584980911879
            ]
        },
        {
            "positions": [
                1.2813322092445576,
                -1.6416850511495604,
                0.6596839466072579,
                1.0516816293569287,
                -0.5316335993680484,
                0.3630458323871103
            ]
        },
        {
            "positions": [
                1.374374211448401,
                -1.6578005397649522,
                0.518203352814532,
                0.9694927590243994,
                -0.48294010420827327,
                0.3708331666830326
            ]
        },
        {
            "positions": [
                1.4674162136522448,
                -1.673916028380344,
                0.3767227590218063,
                0.88730388869187,
                -0.4342466090484981,
                0.378620500978955
            ]
        },
        {
            "positions": [
                1.5604582158560882,
                -1.6900315169957358,
                0.2352421652290806,
                0.805115018359341,
                -0.38555311388872304,
                0.3864078352748773
            ]
        },
        {
            "positions": [
                1.6535002180599312,
                -1.7061470056111276,
                0.09376157143635488,
                0.7229261480268117,
                -0.3368596187289481,
                0.3941951695707997
            ]
        },
        {
            "positions": [
                1.746542220263775,
                -1.7222624942265194,
                -0.047719022356371266,
                0.6407372776942823,
                -0.2881661235691728,
                0.4019825038667221
            ]
        },
        {
            "positions": [
                1.8395842224676184,
                -1.7383779828419113,
                -0.18919961614909697,
                0.558548407361753,
                -0.23947262840939776,
                0.40976983816264445
            ]
        },
        {
            "positions": [
                1.9326262246714623,
                -1.7544934714573033,
                -0.3306802099418231,
                0.47635953702922373,
                -0.1907791332496226,
                0.4175571724585668
            ]
        },
        {
            "positions": [
                2.0256682268753057,
                -1.770608960072695,
                -0.47216080373454883,
                0.3941706666966944,
                -0.14208563808984764,
                0.42534450675448915
            ]
        },
        {
            "positions": [
                2.1187102290791486,
                -1.7867244486880869,
                -0.6136413975272745,
                0.31198179636416534,
                -0.09339214293007259,
                0.43313184105041147
            ]
        },
        {
            "positions": [
                2.2117522312829925,
                -1.8028399373034787,
                -0.7551219913200007,
                0.2297929260316358,
                -0.044698647770297306,
                0.44091917534633385
            ]
        },
        {
            "positions": [
                2.304794233486836,
                -1.8189554259188705,
                -0.8966025851127264,
                0.14760405569910673,
                0.003994847389477751,
                0.4487065096422562
            ]
        },
        {
            "positions": [
                2.3978362356906793,
                -1.8350709145342623,
                -1.038083178905452,
                0.06541518536657742,
                0.05268834254925281,
                0.45649384393817855
            ]
        },
        {
            "positions": [
                2.4908782378945227,
                -1.8511864031496543,
                -1.1795637726981782,
                -0.016773684965952107,
                0.10138183770902787,
                0.4642811782341009
            ]
        },
        {
            "positions": [
                2.583920240098366,
                -1.8673018917650461,
                -1.321044366490904,
                -0.09896255529848119,
                0.15007533286880292,
                0.47206851253002324
            ]
        },
        {
            "positions": [
                2.67696224230221,
                -1.883417380380438,
                -1.46252496028363,
                -0.18115142563101072,
                0.1987688280285782,
                0.4798558468259456
            ]
        },
        {
            "positions": [
                2.7700042445060533,
                -1.8995328689958297,
                -1.6040055540763556,
                -0.26334029596353975,
                0.24746232318835323,
                0.487643181121868
            ]
        },
        {
            "positions": [
                2.7663817294542787,
                -1.9182949182357671,
                -1.6096370279613819,
                -0.40501850559133445,
                0.2019216795006072,
                0.6575745058804932
            ]
        },
        {
            "positions": [
                2.762759214402504,
                -1.9370569674757048,
                -1.615268501846408,
                -0.5466967152191291,
                0.15638103581286117,
                0.8275058306391184
            ]
        },
        {
            "positions": [
                2.7591366993507296,
                -1.9558190167156422,
                -1.6208999757314342,
                -0.6883749248469239,
                0.11084039212511515,
                0.9974371553977436
            ]
        },
        {
            "positions": [
                2.755514184298955,
                -1.9745810659555796,
                -1.6265314496164605,
                -0.8300531344747186,
                0.0652997484373691,
                1.1673684801563688
            ]
        },
        {
            "positions": [
                2.7518916692471804,
                -1.993343115195517,
                -1.6321629235014865,
                -0.9717313441025133,
                0.019759104749623085,
                1.337299804914994
            ]
        },
        {
            "positions": [
                2.7482691541954063,
                -2.0121051644354546,
                -1.6377943973865128,
                -1.113409553730308,
                -0.025781538938122933,
                1.5072311296736192
            ]
        },
        {
            "positions": [
                2.7446466391436317,
                -2.030867213675392,
                -1.6434258712715388,
                -1.2550877633581028,
                -0.07132218262586895,
                1.6771624544322445
            ]
        },
        {
            "positions": [
                2.741024124091857,
                -2.0496292629153294,
                -1.649057345156565,
                -1.3967659729858974,
                -0.11686282631361503,
                1.8470937791908697
            ]
        },
        {
            "positions": [
                2.7374016090400826,
                -2.068391312155267,
                -1.6546888190415914,
                -1.5384441826136923,
                -0.16240347000136104,
                2.017025103949495
            ]
        },
        {
            "positions": [
                2.733779093988308,
                -2.0871533613952042,
                -1.6603202929266174,
                -1.680122392241487,
                -0.20794411368910706,
                2.18695642870812
            ]
        },
        {
            "positions": [
                2.7301565789365334,
                -2.105915410635142,
                -1.6659517668116437,
                -1.8218006018692816,
                -0.2534847573768531,
                2.3568877534667454
            ]
        },
        {
            "positions": [
                2.7162204410853517,
                -2.121788424079572,
                -1.6634749068798937,
                -1.9463079298768136,
                -0.296774555750949,
                2.514634595934219
            ]
        },
        {
            "positions": [
                2.7022843032341695,
                -2.1376614375240015,
                -1.6609980469481438,
                -2.0708152578843455,
                -0.340064354125045,
                2.6723814384016924
            ]
        },
        {
            "positions": [
                2.6883481653829877,
                -2.1535344509684315,
                -1.6585211870163936,
                -2.1953225858918772,
                -0.3833541524991409,
                2.8301282808691663
            ]
        },
        {
            "positions": [
                2.6744120275318055,
                -2.169407464412861,
                -1.6560443270846437,
                -2.3198299138994094,
                -0.42664395087323687,
                2.98787512333664
            ]
        },
        {
            "positions": [
                2.6604758896806238,
                -2.185280477857291,
                -1.6535674671528937,
                -2.444337241906941,
                -0.4699337492473328,
                3.1456219658041134
            ]
        }
    ]
}