{
    "goal": {
        "global_pose": {
            "orientation": {
                "w": -0.00223480608172531,
                "x": 0.0024358444001904467,
                "y": 0.7094548369677653,
                "z": -0.704743149386269
            },
            "position": {
                "x": 0.6205249238014221,
                "y": -0.6371506643295288,
                "z": 0.19426114857196808
            }
        },
        "name": "move_to_magneteinheit_B"
    },
    "id": "EST_move_to_magneteinheit_B_52",
    "joint_names": [
        "shoulder_pan_joint",
        "shoulder_lift_joint",
        "elbow_joint",
        "wrist_1_joint",
        "wrist_2_joint",
        "wrist_3_joint"
    ],
    "metrics": {
        "cart_traj_len": 3.9141465253664633,
        "distance_elbow_joint": 4.272083636089861,
        "distance_shoulder_lift_joint": 0.7695872951592251,
        "distance_shoulder_pan_joint": 2.7110502489740007,
        "distance_wrist_1_joint": 4.3971590169628225,
        "distance_wrist_2_joint": 3.3316727357907663,
        "distance_wrist_3_joint": 3.855565691201119,
        "smoothness": 0.26427288179726405,
        "time": 1.031009574,
        "traj_len": 4.3973990749280185,
        "weighted_distance": 5.897209658756725
    },
    "planner": "EST",
    "start": {
        "state": {
            "elbow_joint": 2.6216224122426386,
            "shoulder_lift_joint": -1.4174107377796124,
            "shoulder_pan_joint": 0.7066234856936794,
            "wrist_1_joint": 1.9546482284002225,
            "wrist_2_joint": -0.7096286983471962,
            "wrist_3_joint": 0.005740856962016249
        }
    },
    "waypoints": [
        {
            "positions": [
                0.7066234856936794,
                -1.4174107377796124,
                2.6216224122426386,
                1.9546482284002225,
                -0.7096286983471962,
                0.005740856962016249
            ]
        },
        {
            "positions": [
                0.5820227227316254,
                -1.4330440872547432,
                2.550118081737603,
                1.9523927825482377,
                -0.7694854426495469,
                -0.06846843062252593
            ]
        },
        {
            "positions": [
                0.5592193718750662,
                -1.4528252507107204,
                2.4018072283718768,
                1.8874019526040318,
                -0.7360937053738997,
                -0.11639104815097875
            ]
        },
        {
            "positions": [
                0.5364160210185072,
                -1.4726064141666977,
                2.2534963750061503,
                1.8224111226598259,
                -0.7027019680982526,
                -0.16431366567943156
            ]
        },
        {
            "positions": [
                0.5136126701619481,
                -1.492387577622675,
                2.1051855216404243,
                1.75742029271562,
                -0.6693102308226054,
                -0.2122362832078844
            ]
        },
        {
            "positions": [
                0.49080931930538896,
                -1.512168741078652,
                1.9568746682746982,
                1.6924294627714138,
                -0.6359184935469583,
                -0.2601589007363372
            ]
        },
        {
            "positions": [
                0.46800596844882986,
                -1.5319499045346292,
                1.8085638149089718,
                1.627438632827208,
                -0.6025267562713111,
                -0.30808151826479
            ]
        },
        {
            "positions": [
                0.44520261759227076,
                -1.5517310679906064,
                1.6602529615432458,
                1.562447802883002,
                -0.569135018995664,
                -0.35600413579324286
            ]
        },
        {
            "positions": [
                0.5206537646716101,
                -1.5677908135828662,
                1.5697445104092884,
                1.4295282916229595,
                -0.5124077844479163,
                -0.33181301676430813
            ]
        },
        {
            "positions": [
                0.5961049117509495,
                -1.583850559175126,
                1.4792360592753309,
                1.2966087803629167,
                -0.4556805499001687,
                -0.30762189773537335
            ]
        },
        {
            "positions": [
                0.6715560588302889,
                -1.5999103047673857,
                1.3887276081413735,
                1.163689269102874,
                -0.39895331535242107,
                -0.2834307787064386
            ]
        },
        {
            "positions": [
                0.7470072059096282,
                -1.6159700503596455,
                1.2982191570074162,
                1.0307697578428314,
                -0.34222608080467337,
                -0.25923965967750384
            ]
        },
        {
            "positions": [
                0.8224583529889676,
                -1.6320297959519052,
                1.2077107058734586,
                0.8978502465827888,
                -0.2854988462569257,
                -0.23504854064856912
            ]
        },
        {
            "positions": [
                0.8979095000683069,
                -1.648089541544165,
                1.1172022547395013,
                0.7649307353227461,
                -0.2287716117091781,
                -0.21085742161963436
            ]
        },
        {
            "positions": [
                0.9733606471476464,
                -1.6641492871364247,
                1.0266938036055437,
                0.6320112240627035,
                -0.1720443771614304,
                -0.1866663025906996
            ]
        },
        {
            "positions": [
                1.0488117942269857,
                -1.6802090327286845,
                0.9361853524715865,
                0.49909171280266085,
                -0.11531714261368275,
                -0.16247518356176488
            ]
        },
        {
            "positions": [
                1.1242629413063252,
                -1.6962687783209442,
                0.845676901337629,
                0.3661722015426181,
                -0.058589908065935004,
                -0.1382840645328301
            ]
        },
        {
            "positions": [
                1.1997140883856645,
                -1.712328523913204,
                0.7551684502036716,
                0.23325269028257556,
                -0.0018626735181873633,
                -0.11409294550389534
            ]
        },
        {
            "positions": [
                1.2751652354650038,
                -1.7283882695054638,
                0.6646599990697142,
                0.10033317902253303,
                0.054864561029560166,
                -0.08990182647496059
            ]
        },
        {
            "positions": [
                1.3506163825443431,
                -1.7444480150977233,
                0.5741515479357568,
                -0.03258633223750973,
                0.1115917955773078,
                -0.06571070744602586
            ]
        },
        {
            "positions": [
                1.4260675296236827,
                -1.7605077606899833,
                0.4836430968017993,
                -0.16550584349755249,
                0.16831903012505556,
                -0.04151958841709108
            ]
        },
        {
            "positions": [
                1.501518676703022,
                -1.7765675062822428,
                0.39313464566784195,
                -0.298425354757595,
                0.2250462646728032,
                -0.017328469388156353
            ]
        },
        {
            "positions": [
                1.5769698237823613,
                -1.7926272518745026,
                0.3026261945338846,
                -0.43134486601763755,
                0.28177349922055084,
                0.006862649640778373
            ]
        },
        {
            "positions": [
                1.6524209708617006,
                -1.8086869974667623,
                0.21211774339992728,
                -0.5642643772776803,
                0.3385007337682985,
                0.0310537686697131
            ]
        },
        {
            "positions": [
                1.72787211794104,
                -1.824746743059022,
                0.12160929226596973,
                -0.6971838885377228,
                0.3952279683160461,
                0.05524488769864788
            ]
        },
        {
            "positions": [
                1.8033232650203797,
                -1.8408064886512818,
                0.03110084113201217,
                -0.8301033997977658,
                0.451955202863794,
                0.07943600672758266
            ]
        },
        {
            "positions": [
                1.878774412099719,
                -1.8568662342435416,
                -0.059407610001945166,
                -0.9630229110578084,
                0.5086824374115416,
                0.10362712575651745
            ]
        },
        {
            "positions": [
                1.9542255591790583,
                -1.8729259798358013,
                -0.1499160611359025,
                -1.0959424223178509,
                0.5654096719592893,
                0.12781824478545217
            ]
        },
        {
            "positions": [
                2.029676706258398,
                -1.888985725428061,
                -0.24042451226985984,
                -1.2288619335778934,
                0.6221369065070367,
                0.1520093638143869
            ]
        },
        {
            "positions": [
                2.105127853337737,
                -1.9050454710203208,
                -0.3309329634038174,
                -1.361781444837936,
                0.6788641410547843,
                0.17620048284332168
            ]
        },
        {
            "positions": [
                2.180579000417076,
                -1.9211052166125806,
                -0.4214414145377745,
                -1.4947009560979785,
                0.735591375602532,
                0.20039160187225635
            ]
        },
        {
            "positions": [
                2.2560301474964155,
                -1.9371649622048404,
                -0.5119498656717321,
                -1.6276204673580215,
                0.7923186101502796,
                0.22458272090119114
            ]
        },
        {
            "positions": [
                2.331481294575755,
                -1.9532247077971001,
                -0.6024583168056896,
                -1.7605399786180644,
                0.8490458446980275,
                0.24877383993012592
            ]
        },
        {
            "positions": [
                2.4069324416550946,
                -1.9692844533893599,
                -0.6929667679396472,
                -1.893459489878107,
                0.9057730792457751,
                0.2729649589590607
            ]
        },
        {
            "positions": [
                2.4823835887344337,
                -1.9853441989816196,
                -0.7834752190736043,
                -2.0263790011381495,
                0.9625003137935227,
                0.29715607798799537
            ]
        },
        {
            "positions": [
                2.557834735813773,
                -2.0014039445738794,
                -0.873983670207562,
                -2.159298512398192,
                1.0192275483412703,
                0.3213471970169302
            ]
        },
        {
            "positions": [
                2.582315356752174,
                -2.0156596481456526,
                -0.9300906733702504,
                -2.1888354041645615,
                0.9377182259078343,
                0.4830813335478387
            ]
        },
        {
            "positions": [
                2.6067959776905743,
                -2.029915351717426,
                -0.9861976765329388,
                -2.2183722959309313,
                0.8562089034743983,
                0.6448154700787472
            ]
        },
        {
            "positions": [
                2.631276598628975,
                -2.0441710552891994,
                -1.0423046796956272,
                -2.2479091876973007,
                0.7746995810409624,
                0.8065496066096558
            ]
        },
        {
            "positions": [
                2.6557572195673758,
                -2.0584267588609726,
                -1.0984116828583157,
                -2.2774460794636706,
                0.6931902586075264,
                0.9682837431405642
            ]
        },
        {
            "positions": [
                2.680237840505776,
                -2.0726824624327462,
                -1.1545186860210042,
                -2.30698297123004,
                0.6116809361740904,
                1.1300178796714728
            ]
        },
        {
            "positions": [
                2.704718461444177,
                -2.0869381660045194,
                -1.2106256891836926,
                -2.33651986299641,
                0.5301716137406545,
                1.2917520162023812
            ]
        },
        {
            "positions": [
                2.7291990823825776,
                -2.1011938695762926,
                -1.2667326923463809,
                -2.3660567547627793,
                0.44866229130721835,
                1.4534861527332898
            ]
        },
        {
            "positions": [
                2.753679703320978,
                -2.1154495731480663,
                -1.3228396955090693,
                -2.395593646529149,
                0.36715296887378246,
                1.6152202892641983
            ]
        },
        {
            "positions": [
                2.7781603242593786,
                -2.1297052767198394,
                -1.3789466986717578,
                -2.4251305382955186,
                0.28564364644034645,
                1.7769544257951069
            ]
        },
        {
            "positions": [
                2.761492942230024,
                -2.1378899561796962,
                -1.4177344879825382,
                -2.4276134311908164,
                0.1785694894979643,
                1.971363302489037
            ]
        },
        {
            "positions": [
                2.7448255602006686,
                -2.146074635639553,
                -1.4565222772933186,
                -2.4300963240861138,
                0.07149533255558216,
                2.1657721791829667
            ]
        },
        {
            "positions": [
                2.728158178171314,
                -2.15425931509941,
                -1.495310066604099,
                -2.4325792169814116,
                -0.03557882438679999,
                2.3601810558768967
            ]
        },
        {
            "positions": [
                2.711490796141959,
                -2.162443994559267,
                -1.5340978559148792,
                -2.435062109876709,
                -0.14265298132918214,
                2.554589932570827
            ]
        },
        {
            "positions": [
                2.694823414112604,
                -2.170628674019124,
                -1.5728856452256597,
                -2.4375450027720067,
                -0.24972713827156434,
                2.748998809264757
            ]
        },
        {
            "positions": [
                2.678156032083249,
                -2.1788133534789806,
                -1.61167343453644,
                -2.440027895667304,
                -0.35680129521394643,
                2.943407685958687
            ]
        },
        {
            "positions": [
                2.661488650053894,
                -2.1869980329388374,
                -1.6504612238472205,
                -2.442510788562602,
                -0.46387545215632864,
                3.137816562652617
            ]
        }
    ]
}