{
    "goal": {
        "global_pose": {
            "orientation": {
                "w": -0.00223480608172531,
                "x": 0.0024358444001904467,
                "y": 0.7094548369677653,
                "z": -0.704743149386269
            },
            "position": {
                "x": -0.37947507619857795,
                "y": -0.6371506643295288,
                "z": 0.19426114857196808
            }
        },
        "name": "move_to_magneteinheit_C"
    },
    "id": "EST_move_to_magneteinheit_C_8",
    "joint_names": [
        "shoulder_pan_joint",
        "shoulder_lift_joint",
        "elbow_joint",
        "wrist_1_joint",
        "wrist_2_joint",
        "wrist_3_joint"
    ],
    "metrics": {
        "cart_traj_len": 2.038842034461247,
        "distance_elbow_joint": 0.6637169884874341,
        "distance_shoulder_lift_joint": 1.2500130285349278,
        "distance_shoulder_pan_joint": 3.171447247610272,
        "distance_wrist_1_joint": 1.3422146258094036,
        "distance_wrist_2_joint": 2.1371234525487264,
        "distance_wrist_3_joint": 2.1316256923803465,
        "smoothness": 1.2693921052606372,
        "time": 2.164655663,
        "traj_len": 3.2704955336112462,
        "weighted_distance": 4.294034291722637
    },
    "planner": "EST",
    "start": {
        "state": {
            "elbow_joint": 1.9565354010623817,
            "shoulder_lift_joint": -1.4165861575791021,
            "shoulder_pan_joint": -1.6717766225146293,
            "wrist_1_joint": -0.5286633292919765,
            "wrist_2_joint": 1.472756589071564,
            "wrist_3_joint": -3.1238370188695823
        }
    },
    "waypoints": [
        {
            "positions": [
                -1.6717766225146293,
                -1.4165861575791021,
                1.9565354010623817,
                -0.5286633292919765,
                1.472756589071564,
                -3.1238370188695823
            ]
        },
        {
            "positions": [
                -1.5357811419600103,
                -1.4788124166448726,
                1.9947228912619661,
                -0.4630144552403216,
                1.5184672197099023,
                -3.1341372139035477
            ]
        },
        {
            "positions": [
                -1.3997856614053914,
                -1.5410386757106433,
                2.0329103814615506,
                -0.39736558118866666,
                1.5641778503482406,
                -3.144437408937513
            ]
        },
        {
            "positions": [
                -1.2637901808507723,
                -1.6032649347764139,
                2.0710978716611352,
                -0.33171670713701173,
                1.609888480986579,
                -3.1547376039714785
            ]
        },
        {
            "positions": [
                -1.1277947002961533,
                -1.6654911938421844,
                2.10928536186072,
                -0.26606783308535686,
                1.6555991116249174,
                -3.165037799005444
            ]
        },
        {
            "positions": [
                -0.9917992197415344,
                -1.7277174529079549,
                2.147472852060304,
                -0.200418959033702,
                1.7013097422632557,
                -3.1753379940394098
            ]
        },
        {
            "positions": [
                -0.8558037391869153,
                -1.7899437119737254,
                2.185660342259889,
                -0.13477008498204707,
                1.747020372901594,
                -3.185638189073375
            ]
        },
        {
            "positions": [
                -0.7198082586322964,
                -1.852169971039496,
                2.223847832459473,
                -0.06912121093039214,
                1.7927310035399324,
                -3.1959383841073405
            ]
        },
        {
            "positions": [
                -0.5838127780776774,
                -1.9143962301052666,
                2.2620353226590577,
                -0.00347233687873727,
                1.8384416341782708,
                -3.206238579141306
            ]
        },
        {
            "positions": [
                -0.7257601310849731,
                -1.8866277806566132,
                2.240076193962008,
                -0.01663101405990263,
                1.7332235070549966,
                -3.1316635300648126
            ]
        },
        {
            "positions": [
                -0.8677074840922687,
                -1.8588593312079598,
                2.218117065264958,
                -0.029789691241067996,
                1.6280053799317222,
                -3.057088480988319
            ]
        },
        {
            "positions": [
                -1.0096548370995644,
                -1.8310908817593063,
                2.196157936567909,
                -0.04294836842223336,
                1.522787252808448,
                -2.982513431911826
            ]
        },
        {
            "positions": [
                -1.15160219010686,
                -1.803322432310653,
                2.174198807870859,
                -0.05610704560339872,
                1.4175691256851737,
                -2.9079383828353325
            ]
        },
        {
            "positions": [
                -1.293549543114156,
                -1.7755539828619995,
                2.1522396791738094,
                -0.0692657227845641,
                1.3123509985618995,
                -2.833363333758839
            ]
        },
        {
            "positions": [
                -1.4354968961214514,
                -1.747785533413346,
                2.1302805504767597,
                -0.08242439996572945,
                1.2071328714386254,
                -2.758788284682346
            ]
        },
        {
            "positions": [
                -1.5774442491287473,
                -1.7200170839646924,
                2.10832142177971,
                -0.09558307714689482,
                1.101914744315351,
                -2.684213235605853
            ]
        },
        {
            "positions": [
                -1.719391602136043,
                -1.692248634516039,
                2.0863622930826606,
                -0.10874175432806017,
                0.9966966171920768,
                -2.6096381865293594
            ]
        },
        {
            "positions": [
                -1.8613389551433388,
                -1.6644801850673856,
                2.064403164385611,
                -0.12190043150922555,
                0.8914784900688024,
                -2.535063137452866
            ]
        },
        {
            "positions": [
                -2.0032863081506345,
                -1.6367117356187322,
                2.042444035688561,
                -0.13505910869039092,
                0.7862603629455283,
                -2.4604880883763727
            ]
        },
        {
            "positions": [
                -2.14523366115793,
                -1.6089432861700788,
                2.0204849069915114,
                -0.14821778587155626,
                0.6810422358222539,
                -2.3859130392998793
            ]
        },
        {
            "positions": [
                -2.287181014165226,
                -1.5811748367214253,
                1.9985257782944619,
                -0.16137646305272163,
                0.5758241086989797,
                -2.311337990223386
            ]
        },
        {
            "positions": [
                -2.4291283671725212,
                -1.553406387272772,
                1.9765666495974124,
                -0.174535140233887,
                0.4706059815757053,
                -2.2367629411468926
            ]
        },
        {
            "positions": [
                -2.571075720179817,
                -1.5256379378241185,
                1.9546075209003626,
                -0.18769381741505237,
                0.36538785445243116,
                -2.162187892070399
            ]
        },
        {
            "positions": [
                -2.5573299400267913,
                -1.4737172715773164,
                1.961863130204943,
                -0.2780941249664594,
                0.4080142298404568,
                -2.3057840985043585
            ]
        },
        {
            "positions": [
                -2.5435841598737654,
                -1.4217966053305142,
                1.9691187395095235,
                -0.36849443251786645,
                0.4506406052284825,
                -2.449380304938318
            ]
        },
        {
            "positions": [
                -2.5298383797207395,
                -1.369875939083712,
                1.976374348814104,
                -0.4588947400692735,
                0.4932669806165082,
                -2.5929765113722776
            ]
        },
        {
            "positions": [
                -2.516092599567714,
                -1.31795527283691,
                1.9836299581186843,
                -0.5492950476206806,
                0.5358933560045338,
                -2.736572717806237
            ]
        },
        {
            "positions": [
                -2.5023468194146883,
                -1.2660346065901076,
                1.9908855674232646,
                -0.6396953551720876,
                0.5785197313925595,
                -2.8801689242401967
            ]
        },
        {
            "positions": [
                -2.4886010392616624,
                -1.2141139403433054,
                1.9981411767278452,
                -0.7300956627234947,
                0.6211461067805852,
                -3.023765130674156
            ]
        },
        {
            "positions": [
                -2.4748552591086366,
                -1.1621932740965033,
                2.0053967860324255,
                -0.8204959702749016,
                0.6637724821686108,
                -3.1673613371081153
            ]
        }
    ]
}