{
    "goal": {
        "global_pose": {
            "orientation": {
                "w": 0.7047431468963623,
                "x": -0.7094548344612122,
                "y": 0.0024358443915843964,
                "z": -0.0022348060738295317
            },
            "position": {
                "x": 0.6094750761985779,
                "y": 0.3671506643295288,
                "z": 0.19426114857196808
            }
        },
        "name": "move_to_magneteinheit_A"
    },
    "id": "EST_move_to_magneteinheit_A_66",
    "joint_names": [
        "shoulder_pan_joint",
        "shoulder_lift_joint",
        "elbow_joint",
        "wrist_1_joint",
        "wrist_2_joint",
        "wrist_3_joint"
    ],
    "metrics": {
        "cart_traj_len": 3.4526146049538395,
        "distance_elbow_joint": 3.89928239005984,
        "distance_shoulder_lift_joint": 0.3272673489211866,
        "distance_shoulder_pan_joint": 2.63031617694046,
        "distance_wrist_1_joint": 0.7471393367473724,
        "distance_wrist_2_joint": 2.3861164344946015,
        "distance_wrist_3_joint": 2.662146987563708,
        "smoothness": 0.12221427113029815,
        "time": 0.31847110300000003,
        "traj_len": 3.5570027656338934,
        "weighted_distance": 4.594542242824257
    },
    "planner": "EST",
    "start": {
        "state": {
            "elbow_joint": -1.9196185241190666,
            "shoulder_lift_joint": -1.2443396400964142,
            "shoulder_pan_joint": 2.6996025414629847,
            "wrist_1_joint": -1.5485510000780065,
            "wrist_2_joint": -1.5709468930060704,
            "wrist_3_joint": 0.4420197071253992
        }
    },
    "waypoints": [
        {
            "positions": [
                2.6996025414629847,
                -1.2443396400964142,
                -1.9196185241190666,
                -1.5485510000780065,
                -1.5709468930060704,
                0.4420197071253992
            ]
        },
        {
            "positions": [
                2.5962038575847664,
                -1.249070489797149,
                -1.7831254800296037,
                -1.5329799758269735,
                -1.4855958159239968,
                0.4777483300701523
            ]
        },
        {
            "positions": [
                2.4928051737065484,
                -1.2538013394978837,
                -1.6466324359401407,
                -1.5174089515759404,
                -1.4002447388419232,
                0.5134769530149055
            ]
        },
        {
            "positions": [
                2.38940648982833,
                -1.2585321891986183,
                -1.5101393918506776,
                -1.5018379273249074,
                -1.3148936617598497,
                0.5492055759596587
            ]
        },
        {
            "positions": [
                2.286007805950112,
                -1.263263038899353,
                -1.3736463477612146,
                -1.4862669030738742,
                -1.229542584677776,
                0.5849341989044119
            ]
        },
        {
            "positions": [
                2.1826091220718937,
                -1.2679938886000879,
                -1.2371533036717515,
                -1.4706958788228413,
                -1.1441915075957025,
                0.620662821849165
            ]
        },
        {
            "positions": [
                2.079210438193676,
                -1.2727247383008227,
                -1.1006602595822885,
                -1.455124854571808,
                -1.0588404305136287,
                0.6563914447939182
            ]
        },
        {
            "positions": [
                1.9758117543154574,
                -1.2774555880015575,
                -0.9641672154928256,
                -1.439553830320775,
                -0.9734893534315552,
                0.6921200677386714
            ]
        },
        {
            "positions": [
                1.8724130704372393,
                -1.2821864377022922,
                -0.8276741714033626,
                -1.423982806069742,
                -0.8881382763494817,
                0.7278486906834245
            ]
        },
        {
            "positions": [
                1.769014386559021,
                -1.286917287403027,
                -0.6911811273138997,
                -1.408411781818709,
                -0.802787199267408,
                0.7635773136281778
            ]
        },
        {
            "positions": [
                1.6656157026808027,
                -1.2916481371037616,
                -0.5546880832244365,
                -1.3928407575676758,
                -0.7174361221853345,
                0.7993059365729309
            ]
        },
        {
            "positions": [
                1.5622170188025846,
                -1.2963789868044964,
                -0.4181950391349738,
                -1.3772697333166428,
                -0.632085045103261,
                0.835034559517684
            ]
        },
        {
            "positions": [
                1.4588183349243664,
                -1.3011098365052312,
                -0.28170199504551063,
                -1.3616987090656099,
                -0.5467339680211873,
                0.8707631824624373
            ]
        },
        {
            "positions": [
                1.3554196510461483,
                -1.305840686205966,
                -0.1452089509560477,
                -1.3461276848145767,
                -0.4613828909391138,
                0.9064918054071904
            ]
        },
        {
            "positions": [
                1.2520209671679299,
                -1.3105715359067007,
                -0.008715906866584522,
                -1.3305566605635435,
                -0.37603181385704,
                0.9422204283519436
            ]
        },
        {
            "positions": [
                1.1486222832897117,
                -1.3153023856074353,
                0.12777713722287842,
                -1.3149856363125105,
                -0.29068073677496664,
                0.9779490512966968
            ]
        },
        {
            "positions": [
                1.0452235994114938,
                -1.32003323530817,
                0.26427018131234137,
                -1.2994146120614776,
                -0.20532965969289307,
                1.01367767424145
            ]
        },
        {
            "positions": [
                0.9418249155332754,
                -1.3247640850089049,
                0.4007632254018043,
                -1.2838435878104444,
                -0.11997858261081928,
                1.049406297186203
            ]
        },
        {
            "positions": [
                0.8384262316550573,
                -1.3294949347096396,
                0.5372562694912673,
                -1.2682725635594114,
                -0.03462750552874572,
                1.0851349201309564
            ]
        },
        {
            "positions": [
                0.7350275477768391,
                -1.3342257844103744,
                0.6737493135807302,
                -1.2527015393083782,
                0.05072357155332763,
                1.1208635430757095
            ]
        },
        {
            "positions": [
                0.6316288638986207,
                -1.3389566341111092,
                0.8102423576701936,
                -1.2371305150573453,
                0.13607464863540142,
                1.1565921660204626
            ]
        },
        {
            "positions": [
                0.5282301800204028,
                -1.343687483811844,
                0.9467354017596565,
                -1.221559490806312,
                0.22142572571747499,
                1.1923207889652159
            ]
        },
        {
            "positions": [
                0.4248314961421844,
                -1.3484183335125786,
                1.083228445849119,
                -1.2059884665552791,
                0.30677680279954833,
                1.228049411909969
            ]
        },
        {
            "positions": [
                0.32143281226396603,
                -1.3531491832133133,
                1.2197214899385824,
                -1.1904174423042462,
                0.3921278798816221,
                1.2637780348547223
            ]
        },
        {
            "positions": [
                0.2180341283857482,
                -1.3578800329140481,
                1.3562145340280454,
                -1.174846418053213,
                0.47747895696369563,
                1.2995066577994754
            ]
        },
        {
            "positions": [
                0.2006343501598272,
                -1.3325479982852224,
                1.4291057078266853,
                -1.131323813067404,
                0.4461940552961047,
                1.4973793245551201
            ]
        },
        {
            "positions": [
                0.18323457193390616,
                -1.3072159636563967,
                1.5019968816253253,
                -1.0878012080815949,
                0.41490915362851377,
                1.6952519913107646
            ]
        },
        {
            "positions": [
                0.16583479370798515,
                -1.281883929027571,
                1.5748880554239653,
                -1.044278603095786,
                0.3836242519609228,
                1.8931246580664094
            ]
        },
        {
            "positions": [
                0.14843501548206411,
                -1.2565518943987455,
                1.6477792292226052,
                -1.000755998109977,
                0.35233935029333185,
                2.090997324822054
            ]
        },
        {
            "positions": [
                0.1310352372561431,
                -1.2312198597699198,
                1.7206704030212454,
                -0.9572333931241679,
                0.32105444862574095,
                2.2888699915776987
            ]
        },
        {
            "positions": [
                0.1136354590302221,
                -1.205887825141094,
                1.7935615768198854,
                -0.9137107881383588,
                0.28976954695815,
                2.4867426583333434
            ]
        },
        {
            "positions": [
                0.09623568080430107,
                -1.1805557905122683,
                1.8664527506185253,
                -0.8701881831525498,
                0.25848464529055903,
                2.684615325088988
            ]
        },
        {
            "positions": [
                0.10971033894518858,
                -1.162354433661382,
                1.9230583082796495,
                -0.8357999232415919,
                0.19913650886470977,
                2.8943910098890475
            ]
        },
        {
            "positions": [
                0.12318499708607608,
                -1.1441530768104955,
                1.979663865940774,
                -0.8014116633306341,
                0.1397883724388605,
                3.1041666946891073
            ]
        }
    ]
}