{
    "goal": {
        "global_pose": {
            "orientation": {
                "w": -0.4816463035849501,
                "x": 0.5182115481033762,
                "y": 0.4908360881923453,
                "z": -0.5084816262002911
            },
            "position": {
                "x": -0.8240239810943604,
                "y": 0.19912469901144506,
                "z": 0.16403168439865112
            }
        },
        "name": "move_to_storage_D"
    },
    "id": "EST_move_to_storage_D_15",
    "joint_names": [
        "shoulder_pan_joint",
        "shoulder_lift_joint",
        "elbow_joint",
        "wrist_1_joint",
        "wrist_2_joint",
        "wrist_3_joint"
    ],
    "metrics": {
        "cart_traj_len": 3.7484907116469097,
        "distance_elbow_joint": 4.211914024076124,
        "distance_shoulder_lift_joint": 1.2639205831362912,
        "distance_shoulder_pan_joint": 3.0249927185521455,
        "distance_wrist_1_joint": 2.2792829141300333,
        "distance_wrist_2_joint": 0.8710912561451157,
        "distance_wrist_3_joint": 3.153224221101042,
        "smoothness": 0.024872023712452663,
        "time": 0.155837469,
        "traj_len": 3.847651974534697,
        "weighted_distance": 4.925570863323152
    },
    "planner": "EST",
    "start": {
        "state": {
            "elbow_joint": -2.384821988534728,
            "shoulder_lift_joint": -2.2788054721415256,
            "shoulder_pan_joint": -0.1854694642142757,
            "wrist_1_joint": 1.4845938289331202,
            "wrist_2_joint": 0.17898776772866878,
            "wrist_3_joint": 0.037105688729662994
        }
    },
    "waypoints": [
        {
            "positions": [
                -0.1854694642142757,
                -2.2788054721415256,
                -2.384821988534728,
                1.4845938289331202,
                0.17898776772866878,
                0.037105688729662994
            ]
        },
        {
            "positions": [
                -0.08480736045840447,
                -2.241172238033591,
                -2.271152030411182,
                1.4370678111328061,
                0.203647188424127,
                0.10240712124766425
            ]
        },
        {
            "positions": [
                0.015854743297466778,
                -2.203539003925656,
                -2.1574820722876358,
                1.3895417933324923,
                0.22830660911958522,
                0.1677085537656655
            ]
        },
        {
            "positions": [
                0.11651684705333801,
                -2.165905769817721,
                -2.0438121141640897,
                1.3420157755321782,
                0.25296602981504346,
                0.2330099862836668
            ]
        },
        {
            "positions": [
                0.21717895080920926,
                -2.1282725357097863,
                -1.9301421560405436,
                1.2944897577318641,
                0.27762545051050164,
                0.298311418801668
            ]
        },
        {
            "positions": [
                0.3178410545650806,
                -2.0906393016018514,
                -1.8164721979169975,
                1.2469637399315503,
                0.30228487120595987,
                0.36361285131966936
            ]
        },
        {
            "positions": [
                0.41850315832095175,
                -2.0530060674939166,
                -1.7028022397934515,
                1.1994377221312362,
                0.32694429190141805,
                0.4289142838376706
            ]
        },
        {
            "positions": [
                0.519165262076823,
                -2.0153728333859817,
                -1.5891322816699054,
                1.1519117043309222,
                0.3516037125968763,
                0.49421571635567185
            ]
        },
        {
            "positions": [
                0.6198273658326943,
                -1.9777395992780469,
                -1.4754623235463593,
                1.1043856865306083,
                0.3762631332923345,
                0.5595171488736731
            ]
        },
        {
            "positions": [
                0.7204894695885655,
                -1.9401063651701118,
                -1.3617923654228132,
                1.0568596687302942,
                0.40092255398779275,
                0.6248185813916743
            ]
        },
        {
            "positions": [
                0.8211515733444369,
                -1.902473131062177,
                -1.2481224072992672,
                1.0093336509299802,
                0.425581974683251,
                0.6901200139096757
            ]
        },
        {
            "positions": [
                0.9218136771003079,
                -1.8648398969542421,
                -1.1344524491757213,
                0.9618076331296663,
                0.4502413953787091,
                0.7554214464276768
            ]
        },
        {
            "positions": [
                1.022475780856179,
                -1.8272066628463073,
                -1.0207824910521752,
                0.9142816153293523,
                0.47490081607416734,
                0.8207228789456782
            ]
        },
        {
            "positions": [
                1.1231378846120503,
                -1.7895734287383724,
                -0.9071125329286291,
                0.8667555975290383,
                0.4995602367696256,
                0.8860243114636794
            ]
        },
        {
            "positions": [
                1.2237999883679216,
                -1.7519401946304376,
                -0.7934425748050831,
                0.8192295797287242,
                0.5242196574650838,
                0.9513257439816807
            ]
        },
        {
            "positions": [
                1.3244620921237928,
                -1.7143069605225028,
                -0.679772616681537,
                0.7717035619284103,
                0.548879078160542,
                1.016627176499682
            ]
        },
        {
            "positions": [
                1.425124195879664,
                -1.676673726414568,
                -0.5661026585579909,
                0.7241775441280963,
                0.5735384988560002,
                1.0819286090176832
            ]
        },
        {
            "positions": [
                1.5257862996355351,
                -1.639040492306633,
                -0.45243270043444506,
                0.6766515263277824,
                0.5981979195514584,
                1.1472300415356844
            ]
        },
        {
            "positions": [
                1.6264484033914066,
                -1.601407258198698,
                -0.33876274231089853,
                0.6291255085274683,
                0.6228573402469166,
                1.2125314740536857
            ]
        },
        {
            "positions": [
                1.7271105071472777,
                -1.5637740240907634,
                -0.2250927841873529,
                0.5815994907271543,
                0.6475167609423749,
                1.277832906571687
            ]
        },
        {
            "positions": [
                1.8277726109031494,
                -1.5261407899828283,
                -0.11142282606380638,
                0.5340734729268403,
                0.6721761816378331,
                1.3431343390896884
            ]
        },
        {
            "positions": [
                1.9284347146590202,
                -1.4885075558748935,
                0.002247132059739254,
                0.4865474551265263,
                0.6968356023332912,
                1.4084357716076894
            ]
        },
        {
            "positions": [
                2.0290968184148914,
                -1.4508743217669586,
                0.11591709018328533,
                0.43902143732621246,
                0.7214950230287495,
                1.4737372041256906
            ]
        },
        {
            "positions": [
                2.1297589221707627,
                -1.4132410876590238,
                0.2295870483068314,
                0.3914954195258984,
                0.7461544437242077,
                1.5390386366436921
            ]
        },
        {
            "positions": [
                2.230421025926634,
                -1.375607853551089,
                0.3432570064303775,
                0.3439694017255843,
                0.7708138644196659,
                1.6043400691616934
            ]
        },
        {
            "positions": [
                2.331083129682505,
                -1.337974619443154,
                0.45692696455392356,
                0.2964433839252705,
                0.795473285115124,
                1.6696415016796944
            ]
        },
        {
            "positions": [
                2.4317452334383765,
                -1.3003413853352193,
                0.5705969226774696,
                0.2489173661249564,
                0.8201327058105824,
                1.7349429341976959
            ]
        },
        {
            "positions": [
                2.5324073371942477,
                -1.2627081512272844,
                0.6842668808010157,
                0.20139134832464234,
                0.8447921265060405,
                1.800244366715697
            ]
        },
        {
            "positions": [
                2.633069440950119,
                -1.2250749171193496,
                0.7979368389245618,
                0.15386533052432827,
                0.8694515472014988,
                1.8655457992336983
            ]
        },
        {
            "positions": [
                2.7337315447059902,
                -1.1874416830114147,
                0.911606797048108,
                0.10633931272401431,
                0.894110967896957,
                1.9308472317516996
            ]
        },
        {
            "positions": [
                2.7219769103024483,
                -1.1682687058996168,
                1.0133273791029176,
                0.0062250462883556845,
                0.9114407518943822,
                2.0707897515382556
            ]
        },
        {
            "positions": [
                2.710222275898906,
                -1.1490957287878192,
                1.1150479611577273,
                -0.09388922014730294,
                0.9287705358918076,
                2.210732271324812
            ]
        },
        {
            "positions": [
                2.698467641495364,
                -1.1299227516760213,
                1.216768543212537,
                -0.19400348658296157,
                0.9461003198892328,
                2.350674791111368
            ]
        },
        {
            "positions": [
                2.6867130070918215,
                -1.1107497745642234,
                1.3184891252673467,
                -0.2941177530186202,
                0.9634301038866581,
                2.490617310897924
            ]
        },
        {
            "positions": [
                2.6749583726882795,
                -1.0915767974524258,
                1.4202097073221565,
                -0.3942320194542789,
                0.9807598878840834,
                2.6305598306844806
            ]
        },
        {
            "positions": [
                2.663203738284737,
                -1.0724038203406279,
                1.5219302893769662,
                -0.49434628588993745,
                0.9980896718815087,
                2.7705023504710367
            ]
        },
        {
            "positions": [
                2.651449103881195,
                -1.05323084322883,
                1.6236508714317757,
                -0.5944605523255961,
                1.015419455878934,
                2.9104448702575927
            ]
        },
        {
            "positions": [
                2.6396944694776527,
                -1.0340578661170323,
                1.7253714534865854,
                -0.6945748187612547,
                1.0327492398763591,
                3.0503873900441487
            ]
        },
        {
            "positions": [
                2.6279398350741108,
                -1.0148848890052344,
                1.827092035541395,
                -0.7946890851969134,
                1.0500790238737845,
                3.190329909830705
            ]
        }
    ]
}