{
    "goal": {
        "global_pose": {
            "orientation": {
                "w": -0.00223480608172531,
                "x": 0.0024358444001904467,
                "y": 0.7094548369677653,
                "z": -0.704743149386269
            },
            "position": {
                "x": -0.37947507619857795,
                "y": -0.6371506643295288,
                "z": 0.19426114857196808
            }
        },
        "name": "move_to_magneteinheit_C"
    },
    "id": "EST_move_to_magneteinheit_C_37",
    "joint_names": [
        "shoulder_pan_joint",
        "shoulder_lift_joint",
        "elbow_joint",
        "wrist_1_joint",
        "wrist_2_joint",
        "wrist_3_joint"
    ],
    "metrics": {
        "cart_traj_len": 2.3423539517756957,
        "distance_elbow_joint": 2.297056769077741,
        "distance_shoulder_lift_joint": 0.8442331825678775,
        "distance_shoulder_pan_joint": 2.09845379418714,
        "distance_wrist_1_joint": 7.116942820994176,
        "distance_wrist_2_joint": 8.516120428057993,
        "distance_wrist_3_joint": 7.3810176025075975,
        "smoothness": 0.42077581264112557,
        "time": 1.8394434130000001,
        "traj_len": 5.315432682048802,
        "weighted_distance": 7.658258486853255
    },
    "planner": "EST",
    "start": {
        "state": {
            "elbow_joint": 1.9565354010623817,
            "shoulder_lift_joint": -1.4165861575791021,
            "shoulder_pan_joint": -1.6717766225146293,
            "wrist_1_joint": -0.5286633292919765,
            "wrist_2_joint": 1.472756589071564,
            "wrist_3_joint": -3.1238370188695823
        }
    },
    "waypoints": [
        {
            "positions": [
                -1.6717766225146293,
                -1.4165861575791021,
                1.9565354010623817,
                -0.5286633292919765,
                1.472756589071564,
                -3.1238370188695823
            ]
        },
        {
            "positions": [
                -1.6883296411649216,
                -1.435405723589207,
                1.9516642321413764,
                -0.43821880089083015,
                1.4000322702144052,
                -2.965073257084029
            ]
        },
        {
            "positions": [
                -1.7132553041522063,
                -1.4463458081661291,
                1.92689402105784,
                -0.3600243493326333,
                1.3215947012015603,
                -2.798340810248814
            ]
        },
        {
            "positions": [
                -1.7381809671394908,
                -1.4572858927430514,
                1.9021238099743034,
                -0.2818298977744364,
                1.2431571321887154,
                -2.6316083634135987
            ]
        },
        {
            "positions": [
                -1.7631066301267755,
                -1.4682259773199735,
                1.877353598890767,
                -0.20363544621623952,
                1.1647195631758702,
                -2.4648759165783836
            ]
        },
        {
            "positions": [
                -1.78803229311406,
                -1.4791660618968958,
                1.8525833878072304,
                -0.12544099465804265,
                1.0862819941630253,
                -2.2981434697431684
            ]
        },
        {
            "positions": [
                -1.8129579561013447,
                -1.490106146473818,
                1.827813176723694,
                -0.04724654309984583,
                1.0078444251501804,
                -2.1314110229079533
            ]
        },
        {
            "positions": [
                -1.8378836190886294,
                -1.50104623105074,
                1.8030429656401574,
                0.030947908458351103,
                0.9294068561373354,
                -1.964678576072738
            ]
        },
        {
            "positions": [
                -1.862809282075914,
                -1.5119863156276623,
                1.778272754556621,
                0.10914236001654792,
                0.8509692871244904,
                -1.797946129237523
            ]
        },
        {
            "positions": [
                -1.8877349450631986,
                -1.5229264002045844,
                1.7535025434730844,
                0.18733681157474485,
                0.7725317181116454,
                -1.6312136824023078
            ]
        },
        {
            "positions": [
                -1.912660608050483,
                -1.5338664847815067,
                1.728732332389548,
                0.2655312631329417,
                0.6940941490988005,
                -1.4644812355670926
            ]
        },
        {
            "positions": [
                -1.9375862710377678,
                -1.5448065693584287,
                1.7039621213060114,
                0.3437257146911385,
                0.6156565800859555,
                -1.2977487887318775
            ]
        },
        {
            "positions": [
                -1.9625119340250525,
                -1.5557466539353508,
                1.679191910222475,
                0.4219201662493354,
                0.5372190110731105,
                -1.1310163418966626
            ]
        },
        {
            "positions": [
                -1.987437597012337,
                -1.5666867385122731,
                1.6544216991389384,
                0.5001146178075324,
                0.4587814420602655,
                -0.9642838950614472
            ]
        },
        {
            "positions": [
                -2.0123632599996215,
                -1.5776268230891952,
                1.629651488055402,
                0.5783090693657293,
                0.38034387304742046,
                -0.797551448226232
            ]
        },
        {
            "positions": [
                -2.0372889229869062,
                -1.5885669076661175,
                1.6048812769718657,
                0.656503520923926,
                0.3019063040345755,
                -0.6308190013910169
            ]
        },
        {
            "positions": [
                -2.062214585974191,
                -1.5995069922430396,
                1.580111065888329,
                0.734697972482123,
                0.22346873502173065,
                -0.4640865545558018
            ]
        },
        {
            "positions": [
                -2.1063936842862603,
                -1.5766001420696372,
                1.6290019473181778,
                0.8242210175660837,
                0.08134880466044936,
                -0.42172240696724844
            ]
        },
        {
            "positions": [
                -2.1505727825983296,
                -1.5536932918962347,
                1.6778928287480264,
                0.9137440626500444,
                -0.06077112570083193,
                -0.3793582593786951
            ]
        },
        {
            "positions": [
                -2.194751880910399,
                -1.5307864417228325,
                1.7267837101778751,
                1.0032671077340052,
                -0.20289105606211327,
                -0.33699411179014177
            ]
        },
        {
            "positions": [
                -2.2389309792224683,
                -1.50787959154943,
                1.775674591607724,
                1.0927901528179658,
                -0.3450109864233945,
                -0.29462996420158843
            ]
        },
        {
            "positions": [
                -2.2831100775345377,
                -1.4849727413760276,
                1.8245654730375724,
                1.1823131979019266,
                -0.48713091678467596,
                -0.2522658166130351
            ]
        },
        {
            "positions": [
                -2.327289175846607,
                -1.4620658912026252,
                1.8734563544674212,
                1.2718362429858874,
                -0.6292508471459572,
                -0.20990166902448176
            ]
        },
        {
            "positions": [
                -2.3714682741586763,
                -1.4391590410292228,
                1.92234723589727,
                1.3613592880698482,
                -0.7713707775072385,
                -0.16753752143592843
            ]
        },
        {
            "positions": [
                -2.4156473724707457,
                -1.4162521908558203,
                1.9712381173271185,
                1.4508823331538085,
                -0.9134907078685197,
                -0.1251733738473751
            ]
        },
        {
            "positions": [
                -2.459826470782815,
                -1.3933453406824179,
                2.0201289987569675,
                1.5404053782377694,
                -1.0556106382298012,
                -0.08280922625882176
            ]
        },
        {
            "positions": [
                -2.5040055690948844,
                -1.3704384905090157,
                2.069019880186816,
                1.6299284233217302,
                -1.1977305685910826,
                -0.04044507867026842
            ]
        },
        {
            "positions": [
                -2.5481846674069537,
                -1.3475316403356132,
                2.1179107616166646,
                1.7194514684056907,
                -1.3398504989523636,
                0.0019190689182849163
            ]
        },
        {
            "positions": [
                -2.592363765719023,
                -1.3246247901622108,
                2.1668016430465133,
                1.8089745134896515,
                -1.481970429313645,
                0.04428321650683825
            ]
        },
        {
            "positions": [
                -2.636542864031092,
                -1.3017179399888084,
                2.215692524476362,
                1.8984975585736121,
                -1.6240903596749263,
                0.08664736409539159
            ]
        },
        {
            "positions": [
                -2.6807219623431617,
                -1.278811089815406,
                2.264583405906211,
                1.9880206036575732,
                -1.7662102900362078,
                0.12901151168394492
            ]
        },
        {
            "positions": [
                -2.724901060655231,
                -1.2559042396420037,
                2.313474287336059,
                2.0775436487415337,
                -1.908330220397489,
                0.17137565927249826
            ]
        },
        {
            "positions": [
                -2.7690801589673,
                -1.2329973894686013,
                2.362365168765908,
                2.167066693825494,
                -2.05045015075877,
                0.2137398068610516
            ]
        },
        {
            "positions": [
                -2.8132592572793698,
                -1.2100905392951988,
                2.4112560501957567,
                2.2565897389094554,
                -2.192570081120052,
                0.25610395444960493
            ]
        },
        {
            "positions": [
                -2.8574383555914387,
                -1.1871836891217964,
                2.4601469316256055,
                2.3461127839934157,
                -2.334690011481333,
                0.29846810203815827
            ]
        },
        {
            "positions": [
                -2.901617453903508,
                -1.164276838948394,
                2.5090378130554543,
                2.4356358290773765,
                -2.476809941842614,
                0.3408322496267116
            ]
        },
        {
            "positions": [
                -2.9457965522155773,
                -1.1413699887749915,
                2.557928694485303,
                2.5251588741613373,
                -2.618929872203896,
                0.38319639721526494
            ]
        },
        {
            "positions": [
                -2.9899756505276467,
                -1.118463138601589,
                2.606819575915152,
                2.6146819192452977,
                -2.761049802565177,
                0.4255605448038183
            ]
        },
        {
            "positions": [
                -3.034154748839716,
                -1.0955562884281869,
                2.655710457345,
                2.7042049643292585,
                -2.903169732926458,
                0.4679246923923716
            ]
        },
        {
            "positions": [
                -3.0783338471517854,
                -1.0726494382547842,
                2.7046013387748493,
                2.7937280094132193,
                -3.0452896632877398,
                0.5102888399809249
            ]
        },
        {
            "positions": [
                -3.1225129454638547,
                -1.049742588081382,
                2.7534922202046976,
                2.88325105449718,
                -3.1874095936490208,
                0.5526529875694783
            ]
        },
        {
            "positions": [
                -3.10288514330513,
                -1.0531228288008452,
                2.730848242035385,
                2.770977465490968,
                -3.0705624953054627,
                0.4403945755674015
            ]
        },
        {
            "positions": [
                -3.0832573411464055,
                -1.0565030695203081,
                2.7082042638660724,
                2.658703876484755,
                -2.953715396961905,
                0.3281361635653247
            ]
        },
        {
            "positions": [
                -3.0636295389876804,
                -1.0598833102397713,
                2.6855602856967593,
                2.5464302874785427,
                -2.836868298618347,
                0.21587775156324784
            ]
        },
        {
            "positions": [
                -3.044001736828956,
                -1.0632635509592343,
                2.6629163075274467,
                2.4341566984723304,
                -2.7200212002747888,
                0.10361933956117103
            ]
        },
        {
            "positions": [
                -3.024373934670231,
                -1.0666437916786975,
                2.640272329358134,
                2.321883109466118,
                -2.603174101931231,
                -0.008639072440905782
            ]
        },
        {
            "positions": [
                -3.0047461325115066,
                -1.0700240323981607,
                2.6176283511888214,
                2.2096095204599058,
                -2.486327003587673,
                -0.12089748444298265
            ]
        },
        {
            "positions": [
                -2.985118330352782,
                -1.0734042731176237,
                2.594984373019509,
                2.097335931453693,
                -2.3694799052441153,
                -0.2331558964450594
            ]
        },
        {
            "positions": [
                -2.9654905281940573,
                -1.0767845138370868,
                2.5723403948501957,
                1.9850623424474807,
                -2.2526328069005572,
                -0.3454143084471363
            ]
        },
        {
            "positions": [
                -2.9458627260353323,
                -1.0801647545565498,
                2.549696416680883,
                1.8727887534412684,
                -2.135785708556999,
                -0.45767272044921303
            ]
        },
        {
            "positions": [
                -2.9262349238766077,
                -1.083544995276013,
                2.5270524385115705,
                1.7605151644350558,
                -2.0189386102134415,
                -0.5699311324512899
            ]
        },
        {
            "positions": [
                -2.906607121717883,
                -1.0869252359954762,
                2.504408460342258,
                1.6482415754288435,
                -1.9020915118698836,
                -0.6821895444533665
            ]
        },
        {
            "positions": [
                -2.8869793195591584,
                -1.0903054767149392,
                2.481764482172945,
                1.535967986422631,
                -1.7852444135263255,
                -0.7944479564554436
            ]
        },
        {
            "positions": [
                -2.867351517400434,
                -1.0936857174344023,
                2.459120504003632,
                1.4236943974164187,
                -1.6683973151827678,
                -0.9067063684575203
            ]
        },
        {
            "positions": [
                -2.8477237152417088,
                -1.0970659581538653,
                2.4364765258343195,
                1.3114208084102061,
                -1.5515502168392097,
                -1.0189647804595972
            ]
        },
        {
            "positions": [
                -2.828095913082984,
                -1.1004461988733285,
                2.413832547665007,
                1.1991472194039938,
                -1.4347031184956518,
                -1.131223192461674
            ]
        },
        {
            "positions": [
                -2.8084681109242595,
                -1.1038264395927917,
                2.3911885694956942,
                1.0868736303977813,
                -1.3178560201520937,
                -1.243481604463751
            ]
        },
        {
            "positions": [
                -2.788840308765535,
                -1.1072066803122547,
                2.368544591326381,
                0.974600041391569,
                -1.201008921808536,
                -1.3557400164658275
            ]
        },
        {
            "positions": [
                -2.7692125066068103,
                -1.1105869210317179,
                2.3459006131570685,
                0.8623264523853567,
                -1.084161823464978,
                -1.4679984284679044
            ]
        },
        {
            "positions": [
                -2.7495847044480852,
                -1.113967161751181,
                2.323256634987756,
                0.7500528633791439,
                -0.9673147251214198,
                -1.5802568404699815
            ]
        },
        {
            "positions": [
                -2.7299569022893606,
                -1.117347402470644,
                2.3006126568184433,
                0.6377792743729316,
                -0.8504676267778621,
                -1.6925152524720581
            ]
        },
        {
            "positions": [
                -2.710329100130636,
                -1.1207276431901072,
                2.27796867864913,
                0.5255056853667193,
                -0.733620528434304,
                -1.8047736644741348
            ]
        },
        {
            "positions": [
                -2.6907012979719114,
                -1.1241078839095702,
                2.2553247004798176,
                0.41323209636050695,
                -0.6167734300907464,
                -1.9170320764762114
            ]
        },
        {
            "positions": [
                -2.6710734958131868,
                -1.1274881246290334,
                2.232680722310505,
                0.3009585073542942,
                -0.49992633174718826,
                -2.0292904884782885
            ]
        },
        {
            "positions": [
                -2.651445693654462,
                -1.1308683653484966,
                2.2100367441411923,
                0.18868491834808188,
                -0.38307923340363015,
                -2.1415489004803656
            ]
        },
        {
            "positions": [
                -2.6318178914957375,
                -1.1342486060679595,
                2.1873927659718797,
                0.07641132934186956,
                -0.2662321350600725,
                -2.2538073124824423
            ]
        },
        {
            "positions": [
                -2.6121900893370125,
                -1.1376288467874227,
                2.1647487878025666,
                -0.035862259664342755,
                -0.14938503671651482,
                -2.366065724484519
            ]
        },
        {
            "positions": [
                -2.592562287178288,
                -1.1410090875068857,
                2.142104809633254,
                -0.14813584867055551,
                -0.032537938372956265,
                -2.478324136486596
            ]
        },
        {
            "positions": [
                -2.5729344850195632,
                -1.1443893282263489,
                2.1194608314639414,
                -0.26040943767676783,
                0.0843091599706014,
                -2.5905825484886726
            ]
        },
        {
            "positions": [
                -2.5533066828608386,
                -1.147769568945812,
                2.0968168532946287,
                -0.37268302668298015,
                0.2011562583141595,
                -2.7028409604907493
            ]
        },
        {
            "positions": [
                -2.533678880702114,
                -1.151149809665275,
                2.074172875125316,
                -0.48495661568919246,
                0.3180033566577172,
                -2.8150993724928264
            ]
        },
        {
            "positions": [
                -2.514051078543389,
                -1.1545300503847382,
                2.051528896956003,
                -0.5972302046954052,
                0.4348504550012753,
                -2.9273577844949035
            ]
        },
        {
            "positions": [
                -2.4944232763846643,
                -1.1579102911042012,
                2.0288849187866904,
                -0.7095037937016175,
                0.5516975533448334,
                -3.03961619649698
            ]
        },
        {
            "positions": [
                -2.4747954742259397,
                -1.1612905318236644,
                2.006240940617378,
                -0.8217773827078299,
                0.668544651688391,
                -3.1518746084990568
            ]
        }
    ]
}