{
    "goal": {
        "global_pose": {
            "orientation": {
                "w": 0.7031023502349854,
                "x": -0.7110244035720825,
                "y": 0.007748599164187908,
                "z": 0.005598929710686207
            },
            "position": {
                "x": 0.11585023208521307,
                "y": 0.44412534475326537,
                "z": 0.3711530566215515
            }
        },
        "name": "move_to_auspresseinheit_A"
    },
    "id": "EST_move_to_auspresseinheit_A_149",
    "joint_names": [
        "shoulder_pan_joint",
        "shoulder_lift_joint",
        "elbow_joint",
        "wrist_1_joint",
        "wrist_2_joint",
        "wrist_3_joint"
    ],
    "metrics": {
        "cart_traj_len": 1.2082280626384885,
        "distance_elbow_joint": 1.3610639295630547,
        "distance_shoulder_lift_joint": 0.5801753349517909,
        "distance_shoulder_pan_joint": 1.0428144751363417,
        "distance_wrist_1_joint": 2.3811695460571425,
        "distance_wrist_2_joint": 0.6581303656793811,
        "distance_wrist_3_joint": 4.357340134104106,
        "smoothness": 0.918258704685962,
        "time": 0.298674451,
        "traj_len": 3.2219084073716022,
        "weighted_distance": 4.704750149097882
    },
    "planner": "EST",
    "start": {
        "state": {
            "elbow_joint": 2.4225746658250005,
            "shoulder_lift_joint": -1.3736534386056498,
            "shoulder_pan_joint": -0.3378633547517467,
            "wrist_1_joint": -1.0288598680537169,
            "wrist_2_joint": 1.233022673432363,
            "wrist_3_joint": -3.0940220416140027
        }
    },
    "waypoints": [
        {
            "positions": [
                -0.3378633547517467,
                -1.3736534386056498,
                2.4225746658250005,
                -1.0288598680537169,
                1.233022673432363,
                -3.0940220416140027
            ]
        },
        {
            "positions": [
                -0.3010263888890764,
                -1.4065451557481985,
                2.376214251334522,
                -0.9306043944964676,
                1.1990627030405856,
                -2.9501374260505764
            ]
        },
        {
            "positions": [
                -0.264189423026406,
                -1.4394368728907472,
                2.3298538368440433,
                -0.8323489209392183,
                1.165102732648808,
                -2.8062528104871496
            ]
        },
        {
            "positions": [
                -0.22735245716373567,
                -1.4723285900332959,
                2.283493422353565,
                -0.7340934473819689,
                1.1311427622570305,
                -2.6623681949237232
            ]
        },
        {
            "positions": [
                -0.19051549130106532,
                -1.5052203071758448,
                2.237133007863086,
                -0.6358379738247196,
                1.097182791865253,
                -2.518483579360297
            ]
        },
        {
            "positions": [
                -0.153678525438395,
                -1.5381120243183934,
                2.190772593372608,
                -0.5375825002674703,
                1.0632228214734754,
                -2.3745989637968705
            ]
        },
        {
            "positions": [
                -0.11684155957572462,
                -1.5710037414609421,
                2.144412178882129,
                -0.43932702671022106,
                1.029262851081698,
                -2.2307143482334437
            ]
        },
        {
            "positions": [
                -0.0800045937130543,
                -1.6038954586034908,
                2.0980517643916508,
                -0.3410715531529718,
                0.9953028806899203,
                -2.086829732670017
            ]
        },
        {
            "positions": [
                -0.043167627850383916,
                -1.6367871757460395,
                2.051691349901172,
                -0.24281607959572238,
                0.9613429102981428,
                -1.9429451171065908
            ]
        },
        {
            "positions": [
                -0.006330661987713593,
                -1.6696788928885882,
                2.0053309354106936,
                -0.1445606060384731,
                0.9273829399063653,
                -1.7990605015431642
            ]
        },
        {
            "positions": [
                0.03050630387495673,
                -1.7025706100311369,
                1.958970520920215,
                -0.04630513248122381,
                0.8934229695145879,
                -1.6551758859797379
            ]
        },
        {
            "positions": [
                0.06734326973762711,
                -1.7354623271736855,
                1.9126101064297365,
                0.051950341076025364,
                0.8594629991228103,
                -1.5112912704163113
            ]
        },
        {
            "positions": [
                0.10418023560029749,
                -1.7683540443162344,
                1.8662496919392577,
                0.15020581463327476,
                0.8255030287310328,
                -1.3674066548528847
            ]
        },
        {
            "positions": [
                0.1410172014629678,
                -1.8012457614587831,
                1.8198892774487794,
                0.24846128819052415,
                0.7915430583392552,
                -1.2235220392894581
            ]
        },
        {
            "positions": [
                0.17785416732563814,
                -1.8341374786013318,
                1.7735288629583008,
                0.3467167617477733,
                0.7575830879474776,
                -1.0796374237260316
            ]
        },
        {
            "positions": [
                0.21469113318830854,
                -1.8670291957438805,
                1.7271684484678222,
                0.4449722353050226,
                0.7236231175557002,
                -0.9357528081626053
            ]
        },
        {
            "positions": [
                0.22720431175412473,
                -1.8637068183854535,
                1.799022031081638,
                0.37572401662464755,
                0.7114073800683686,
                -1.159671045936049
            ]
        },
        {
            "positions": [
                0.23971749031994094,
                -1.8603844410270267,
                1.8708756136954539,
                0.3064757979442725,
                0.699191642581037,
                -1.383589283709493
            ]
        },
        {
            "positions": [
                0.2522306688857571,
                -1.8570620636685997,
                1.9427291963092699,
                0.23722757926389748,
                0.6869759050937054,
                -1.6075075214829369
            ]
        },
        {
            "positions": [
                0.2647438474515733,
                -1.853739686310173,
                2.014582778923086,
                0.16797936058352242,
                0.6747601676063738,
                -1.8314257592563807
            ]
        },
        {
            "positions": [
                0.27725702601738955,
                -1.850417308951746,
                2.0864363615369017,
                0.09873114190314736,
                0.6625444301190422,
                -2.0553439970298246
            ]
        },
        {
            "positions": [
                0.28977020458320574,
                -1.8470949315933192,
                2.1582899441507175,
                0.02948292322277235,
                0.6503286926317107,
                -2.2792622348032685
            ]
        },
        {
            "positions": [
                0.3022833831490219,
                -1.8437725542348922,
                2.2301435267645333,
                -0.039765295457602705,
                0.638112955144379,
                -2.5031804725767124
            ]
        },
        {
            "positions": [
                0.38281693059613653,
                -1.8564811414958065,
                2.2626800535463665,
                -0.12428527784475821,
                0.6507570846226585,
                -2.6295091198244327
            ]
        },
        {
            "positions": [
                0.46335047804325113,
                -1.869189728756721,
                2.2952165803281996,
                -0.2088052602319137,
                0.6634012141009379,
                -2.755837767072153
            ]
        },
        {
            "positions": [
                0.5438840254903657,
                -1.8818983160176352,
                2.3277531071100324,
                -0.29332524261906917,
                0.6760453435792173,
                -2.8821664143198733
            ]
        },
        {
            "positions": [
                0.6244175729374803,
                -1.8946069032785497,
                2.3602896338918655,
                -0.3778452250062247,
                0.6886894730574967,
                -3.0084950615675936
            ]
        },
        {
            "positions": [
                0.704951120384595,
                -1.907315490539464,
                2.3928261606736987,
                -0.46236520739338016,
                0.7013336025357761,
                -3.134823708815314
            ]
        }
    ]
}