{
    "goal": {
        "global_pose": {
            "orientation": {
                "w": 0.7047431493862688,
                "x": -0.7094548369677653,
                "y": 0.0024358444001904,
                "z": -0.0022348060817251984
            },
            "position": {
                "x": -0.39052492380142206,
                "y": 0.3671506643295288,
                "z": 0.19426114857196808
            }
        },
        "name": "move_to_magneteinheit_D"
    },
    "id": "EST_move_to_magneteinheit_D_112",
    "joint_names": [
        "shoulder_pan_joint",
        "shoulder_lift_joint",
        "elbow_joint",
        "wrist_1_joint",
        "wrist_2_joint",
        "wrist_3_joint"
    ],
    "metrics": {
        "cart_traj_len": 3.799834646079212,
        "distance_elbow_joint": 3.133243133750426,
        "distance_shoulder_lift_joint": 1.6327094769695873,
        "distance_shoulder_pan_joint": 2.774066379083708,
        "distance_wrist_1_joint": 1.7968916413600136,
        "distance_wrist_2_joint": 2.634261544742838,
        "distance_wrist_3_joint": 3.7127887819360366,
        "smoothness": 0.21512549372431888,
        "time": 0.178746769,
        "traj_len": 3.96029808951834,
        "weighted_distance": 5.247922608786979
    },
    "planner": "EST",
    "start": {
        "state": {
            "elbow_joint": 0.749534889911806,
            "shoulder_lift_joint": -0.6476975780787326,
            "shoulder_pan_joint": -2.711696901376241,
            "wrist_1_joint": -0.07506478083263063,
            "wrist_2_joint": 0.43296659715538205,
            "wrist_3_joint": -3.14703540197715
        }
    },
    "waypoints": [
        {
            "positions": [
                -2.711696901376241,
                -0.6476975780787326,
                0.749534889911806,
                -0.07506478083263063,
                0.43296659715538205,
                -3.14703540197715
            ]
        },
        {
            "positions": [
                -2.706327500586412,
                -0.6691409026461739,
                0.743536722444289,
                -0.009859576340481194,
                0.35192766507444107,
                -2.99156878021716
            ]
        },
        {
            "positions": [
                -2.7009580997965825,
                -0.6905842272136151,
                0.737538554976772,
                0.05534562815166825,
                0.2708887329935,
                -2.8361021584571704
            ]
        },
        {
            "positions": [
                -2.6439373533848274,
                -0.7534682385165234,
                0.692278085322801,
                0.0909720504013129,
                0.24440290725052358,
                -2.6810471186468154
            ]
        },
        {
            "positions": [
                -2.5869166069730722,
                -0.8163522498194318,
                0.64701761566883,
                0.12659847265095753,
                0.21791708150754713,
                -2.5259920788364605
            ]
        },
        {
            "positions": [
                -2.529895860561317,
                -0.8792362611223401,
                0.601757146014859,
                0.16222489490060218,
                0.19143125576457068,
                -2.3709370390261055
            ]
        },
        {
            "positions": [
                -2.472875114149562,
                -0.9421202724252484,
                0.5564966763608878,
                0.1978513171502468,
                0.16494543002159423,
                -2.2158819992157506
            ]
        },
        {
            "positions": [
                -2.415854367737807,
                -1.005004283728157,
                0.5112362067069168,
                0.23347773939989147,
                0.13845960427861778,
                -2.0608269594053956
            ]
        },
        {
            "positions": [
                -2.3588336213260517,
                -1.0678882950310653,
                0.4659757370529458,
                0.2691041616495361,
                0.11197377853564133,
                -1.9057719195950404
            ]
        },
        {
            "positions": [
                -2.3018128749142965,
                -1.1307723063339736,
                0.4207152673989748,
                0.30473058389918073,
                0.08548795279266491,
                -1.7507168797846855
            ]
        },
        {
            "positions": [
                -2.2447921285025414,
                -1.193656317636882,
                0.37545479774500373,
                0.3403570061488254,
                0.059002127049688435,
                -1.5956618399743303
            ]
        },
        {
            "positions": [
                -2.1877713820907863,
                -1.2565403289397903,
                0.3301943280910327,
                0.37598342839847004,
                0.032516301306712014,
                -1.4406068001639756
            ]
        },
        {
            "positions": [
                -2.130750635679031,
                -1.3194243402426986,
                0.28493385843706165,
                0.41160985064811473,
                0.006030475563735538,
                -1.2855517603536204
            ]
        },
        {
            "positions": [
                -2.073729889267276,
                -1.382308351545607,
                0.2396733887830907,
                0.4472362728977593,
                -0.020455350179240883,
                -1.1304967205432654
            ]
        },
        {
            "positions": [
                -2.016709142855521,
                -1.4451923628485153,
                0.19441291912911962,
                0.482862695147404,
                -0.04694117592221736,
                -0.9754416807329105
            ]
        },
        {
            "positions": [
                -1.9596883964437657,
                -1.5080763741514236,
                0.1491524494751486,
                0.5184891173970486,
                -0.07342700166519377,
                -0.8203866409225556
            ]
        },
        {
            "positions": [
                -1.8537402411923274,
                -1.5202112684225417,
                0.07221914997427005,
                0.581143046625627,
                -0.13222872796583712,
                -0.7504518633686762
            ]
        },
        {
            "positions": [
                -1.747792085940889,
                -1.5323461626936599,
                -0.004714149526608508,
                0.6437969758542055,
                -0.19103045426648047,
                -0.6805170858147969
            ]
        },
        {
            "positions": [
                -1.6418439306894508,
                -1.5444810569647778,
                -0.08164744902748705,
                0.7064509050827839,
                -0.2498321805671238,
                -0.6105823082609174
            ]
        },
        {
            "positions": [
                -1.5358957754380125,
                -1.556615951235896,
                -0.15858074852836562,
                0.7691048343113622,
                -0.30863390686776715,
                -0.540647530707038
            ]
        },
        {
            "positions": [
                -1.429947620186574,
                -1.568750845507014,
                -0.2355140480292442,
                0.8317587635399406,
                -0.36743563316841055,
                -0.4707127531531585
            ]
        },
        {
            "positions": [
                -1.3239994649351359,
                -1.580885739778132,
                -0.3124473475301227,
                0.894412692768519,
                -0.4262373594690539,
                -0.40077797559927913
            ]
        },
        {
            "positions": [
                -1.2180513096836973,
                -1.59302063404925,
                -0.3893806470310013,
                0.9570666219970975,
                -0.48503908576969723,
                -0.33084319804539974
            ]
        },
        {
            "positions": [
                -1.1121031544322593,
                -1.6051555283203682,
                -0.46631394653187985,
                1.0197205512256757,
                -0.5438408120703405,
                -0.2609084204915203
            ]
        },
        {
            "positions": [
                -1.0061549991808207,
                -1.6172904225914864,
                -0.5432472460327584,
                1.0823744804542543,
                -0.6026425383709839,
                -0.19097364293764085
            ]
        },
        {
            "positions": [
                -0.9002068439293824,
                -1.6294253168626045,
                -0.620180545533637,
                1.1450284096828325,
                -0.6614442646716273,
                -0.12103886538376141
            ]
        },
        {
            "positions": [
                -0.7942586886779441,
                -1.6415602111337224,
                -0.6971138450345156,
                1.207682338911411,
                -0.7202459909722706,
                -0.05110408782988207
            ]
        },
        {
            "positions": [
                -0.6883105334265058,
                -1.6536951054048405,
                -0.774047144535394,
                1.2703362681399895,
                -0.779047717272914,
                0.018830689723997374
            ]
        },
        {
            "positions": [
                -0.5823623781750675,
                -1.6658299996759587,
                -0.8509804440362727,
                1.3329901973685678,
                -0.8378494435735573,
                0.08876546727787682
            ]
        },
        {
            "positions": [
                -0.4764142229236292,
                -1.6779648939470766,
                -0.9279137435371512,
                1.3956441265971464,
                -0.8966511698742007,
                0.15870024483175615
            ]
        },
        {
            "positions": [
                -0.3704660676721909,
                -1.6900997882181947,
                -1.0048470430380299,
                1.4582980558257246,
                -0.955452896174844,
                0.2286350223856356
            ]
        },
        {
            "positions": [
                -0.26451791242075257,
                -1.7022346824893129,
                -1.0817803425389083,
                1.5209519850543032,
                -1.0142546224754874,
                0.29856979993951505
            ]
        },
        {
            "positions": [
                -0.2137311840821003,
                -1.7435077305475362,
                -1.206823833144077,
                1.5420276508551238,
                -0.9528874077961911,
                0.29937789392389647
            ]
        },
        {
            "positions": [
                -0.162944455743448,
                -1.7847807786057595,
                -1.3318673237492455,
                1.5631033166559445,
                -0.8915201931168948,
                0.3001859879082779
            ]
        },
        {
            "positions": [
                -0.11215772740479574,
                -1.8260538266639827,
                -1.4569108143544143,
                1.5841789824567651,
                -0.8301529784375986,
                0.3009940818926593
            ]
        },
        {
            "positions": [
                -0.06137099906614345,
                -1.867326874722206,
                -1.581954304959583,
                1.6052546482575858,
                -0.7687857637583023,
                0.3018021758770407
            ]
        },
        {
            "positions": [
                -0.07590442156533528,
                -1.9280778891293486,
                -1.7051064053341767,
                1.5841863128194786,
                -0.6306194884156752,
                0.2704728781804753
            ]
        },
        {
            "positions": [
                -0.09043784406452712,
                -1.9888289035364912,
                -1.8282585057087704,
                1.5631179773813715,
                -0.492453213073048,
                0.23914358048390985
            ]
        },
        {
            "positions": [
                -0.10497126656371895,
                -2.0495799179436336,
                -1.951410606083364,
                1.5420496419432645,
                -0.35428693773042086,
                0.20781428278734443
            ]
        },
        {
            "positions": [
                -0.11950468906291078,
                -2.1103309323507764,
                -2.0745627064579577,
                1.5209813065051574,
                -0.21612066238779365,
                0.17648498509077898
            ]
        },
        {
            "positions": [
                -0.1413736179885255,
                -2.1670229732499577,
                -2.1776112189181784,
                1.5102150163327013,
                -0.08648520737970192,
                0.1302736473255847
            ]
        },
        {
            "positions": [
                -0.16324254691414017,
                -2.2237150141491386,
                -2.2806597313783987,
                1.499448726160245,
                0.043150247628389815,
                0.0840623095603904
            ]
        },
        {
            "positions": [
                -0.18511147583975487,
                -2.28040705504832,
                -2.3837082438386195,
                1.4886824359877888,
                0.1727857026364816,
                0.03785097179519612
            ]
        }
    ]
}