{
    "goal": {
        "global_pose": {
            "orientation": {
                "w": 0.005598929693374612,
                "x": 0.007748599140229565,
                "y": 0.7110244013736278,
                "z": -0.7031023480610252
            },
            "position": {
                "x": 0.1141497679147869,
                "y": -0.7141253447532654,
                "z": 0.3711530566215515
            }
        },
        "name": "move_to_auspresseinheit_B"
    },
    "id": "EST_move_to_auspresseinheit_B_84",
    "joint_names": [
        "shoulder_pan_joint",
        "shoulder_lift_joint",
        "elbow_joint",
        "wrist_1_joint",
        "wrist_2_joint",
        "wrist_3_joint"
    ],
    "metrics": {
        "cart_traj_len": 0.564582396737326,
        "distance_elbow_joint": 0.06300277625079032,
        "distance_shoulder_lift_joint": 0.292873399819253,
        "distance_shoulder_pan_joint": 0.5754549342717192,
        "distance_wrist_1_joint": 0.3244187881827896,
        "distance_wrist_2_joint": 1.0011618094840498,
        "distance_wrist_3_joint": 0.010348285518266831,
        "smoothness": 0.0,
        "time": 0.058004943,
        "traj_len": 1.5057423396872616,
        "weighted_distance": 1.900930604264722
    },
    "planner": "EST",
    "start": {
        "state": {
            "elbow_joint": 2.0193083361928714,
            "shoulder_lift_joint": -1.1220246554650708,
            "shoulder_pan_joint": -1.0952077554168747,
            "wrist_1_joint": -0.8559753972642168,
            "wrist_2_joint": 0.4759566250798843,
            "wrist_3_joint": -3.1240929996934557
        }
    },
    "waypoints": [
        {
            "positions": [
                -1.0952077554168747,
                -1.1220246554650708,
                2.0193083361928714,
                -0.8559753972642168,
                0.4759566250798843,
                -3.1240929996934557
            ]
        },
        {
            "positions": [
                -1.1911169111288278,
                -1.1708368887682796,
                2.0088078734844066,
                -0.8019055992337518,
                0.6428169266605592,
                -3.122368285440411
            ]
        },
        {
            "positions": [
                -1.2870260668407811,
                -1.2196491220714885,
                1.9983074107759413,
                -0.747835801203287,
                0.8096772282412341,
                -3.1206435711873666
            ]
        },
        {
            "positions": [
                -1.3829352225527343,
                -1.2684613553746973,
                1.9878069480674763,
                -0.693766003172822,
                0.9765375298219092,
                -3.1189188569343225
            ]
        },
        {
            "positions": [
                -1.4788443782646874,
                -1.3172735886779061,
                1.9773064853590112,
                -0.6396962051423571,
                1.143397831402584,
                -3.117194142681278
            ]
        },
        {
            "positions": [
                -1.5747535339766408,
                -1.366085821981115,
                1.9668060226505462,
                -0.5856264071118922,
                1.3102581329832592,
                -3.1154694284282334
            ]
        },
        {
            "positions": [
                -1.6706626896885939,
                -1.4148980552843238,
                1.956305559942081,
                -0.5315566090814272,
                1.477118434563934,
                -3.113744714175189
            ]
        }
    ]
}