{
    "goal": {
        "global_pose": {
            "orientation": {
                "w": -0.00223480608172531,
                "x": 0.0024358444001904467,
                "y": 0.7094548369677653,
                "z": -0.704743149386269
            },
            "position": {
                "x": 0.6205249238014221,
                "y": -0.6371506643295288,
                "z": 0.19426114857196808
            }
        },
        "name": "move_to_magneteinheit_B"
    },
    "id": "EST_move_to_magneteinheit_B_5",
    "joint_names": [
        "shoulder_pan_joint",
        "shoulder_lift_joint",
        "elbow_joint",
        "wrist_1_joint",
        "wrist_2_joint",
        "wrist_3_joint"
    ],
    "metrics": {
        "cart_traj_len": 1.50139258226435,
        "distance_elbow_joint": 0.9585538780592244,
        "distance_shoulder_lift_joint": 1.060708800273436,
        "distance_shoulder_pan_joint": 1.6217437362188938,
        "distance_wrist_1_joint": 3.3131141972989844,
        "distance_wrist_2_joint": 3.7043275472433987,
        "distance_wrist_3_joint": 1.7438904919094573,
        "smoothness": 0.6407292063503469,
        "time": 0.209093186,
        "traj_len": 3.5216954228046746,
        "weighted_distance": 4.78618442805589
    },
    "planner": "EST",
    "start": {
        "state": {
            "elbow_joint": 2.6216224122426386,
            "shoulder_lift_joint": -1.4174107377796124,
            "shoulder_pan_joint": 0.7066234856936794,
            "wrist_1_joint": 1.9546482284002225,
            "wrist_2_joint": -0.7096286983471962,
            "wrist_3_joint": 0.005740856962016249
        }
    },
    "waypoints": [
        {
            "positions": [
                0.7066234856936794,
                -1.4174107377796124,
                2.6216224122426386,
                1.9546482284002225,
                -0.7096286983471962,
                0.005740856962016249
            ]
        },
        {
            "positions": [
                0.6592174381752609,
                -1.4290360150799466,
                2.5834290130780655,
                1.8341190541509202,
                -0.6253741755873279,
                0.07215508458090537
            ]
        },
        {
            "positions": [
                0.6118113906568423,
                -1.4406612923802808,
                2.545235613913493,
                1.7135898799016183,
                -0.5411196528274596,
                0.13856931219979451
            ]
        },
        {
            "positions": [
                0.5644053431384238,
                -1.4522865696806149,
                2.5070422147489198,
                1.593060705652316,
                -0.45686513006759133,
                0.20498353981868364
            ]
        },
        {
            "positions": [
                0.5169992956200054,
                -1.4639118469809491,
                2.468848815584347,
                1.472531531403014,
                -0.372610607307723,
                0.27139776743757277
            ]
        },
        {
            "positions": [
                0.46959324810158687,
                -1.4755371242812834,
                2.430655416419774,
                1.3520023571537119,
                -0.2883560845478547,
                0.33781199505646187
            ]
        },
        {
            "positions": [
                0.42218720058316833,
                -1.4871624015816176,
                2.3924620172552014,
                1.2314731829044097,
                -0.20410156178798644,
                0.404226222675351
            ]
        },
        {
            "positions": [
                0.37478115306474985,
                -1.4987876788819516,
                2.3542686180906283,
                1.1109440086551077,
                -0.11984703902811811,
                0.47064045029424006
            ]
        },
        {
            "positions": [
                0.3273751055463313,
                -1.5104129561822859,
                2.3160752189260556,
                0.9904148344058055,
                -0.035592516268249774,
                0.5370546779131292
            ]
        },
        {
            "positions": [
                0.27996905802791283,
                -1.5220382334826201,
                2.2778818197614825,
                0.8698856601565035,
                0.04866200649161845,
                0.6034689055320183
            ]
        },
        {
            "positions": [
                0.2325630105094943,
                -1.5336635107829544,
                2.23968842059691,
                0.7493564859072013,
                0.13291652925148678,
                0.6698831331509074
            ]
        },
        {
            "positions": [
                0.18515696299107587,
                -1.5452887880832886,
                2.2014950214323368,
                0.6288273116578991,
                0.21717105201135511,
                0.7362973607697966
            ]
        },
        {
            "positions": [
                0.13775091547265728,
                -1.5569140653836226,
                2.163301622267764,
                0.5082981374085969,
                0.30142557477122334,
                0.8027115883886857
            ]
        },
        {
            "positions": [
                0.09034486795423874,
                -1.568539342683957,
                2.125108223103191,
                0.38776896315929477,
                0.3856800975310918,
                0.8691258160075748
            ]
        },
        {
            "positions": [
                0.0400716120302661,
                -1.5230603329155024,
                2.1020062386572023,
                0.47508070976219763,
                0.25522915996283624,
                0.8251005393643799
            ]
        },
        {
            "positions": [
                -0.010201643893706536,
                -1.4775813231470478,
                2.0789042542112135,
                0.5623924563651005,
                0.12477822239458075,
                0.781075262721185
            ]
        },
        {
            "positions": [
                -0.06047489981767917,
                -1.4321023133785933,
                2.0558022697652243,
                0.6497042029680034,
                -0.005672715173674792,
                0.73704998607799
            ]
        },
        {
            "positions": [
                -0.11074815574165181,
                -1.3866233036101385,
                2.0327002853192355,
                0.7370159495709062,
                -0.13612365274193028,
                0.6930247094347951
            ]
        },
        {
            "positions": [
                -0.16102141166562445,
                -1.3411442938416842,
                2.0095983008732468,
                0.8243276961738091,
                -0.2665745903101858,
                0.6489994327916002
            ]
        },
        {
            "positions": [
                -0.21129466758959708,
                -1.2956652840732295,
                1.986496316427258,
                0.9116394427767119,
                -0.39702552787844136,
                0.6049741561484052
            ]
        },
        {
            "positions": [
                -0.2615679235135697,
                -1.2501862743047751,
                1.9633943319812692,
                0.9989511893796148,
                -0.5274764654466968,
                0.5609488795052104
            ]
        },
        {
            "positions": [
                -0.31184117943754236,
                -1.2047072645363204,
                1.9402923475352802,
                1.0862629359825178,
                -0.6579274030149523,
                0.5169236028620154
            ]
        },
        {
            "positions": [
                -0.362114435361515,
                -1.1592282547678658,
                1.9171903630892915,
                1.1735746825854205,
                -0.788378340583208,
                0.4728983262188205
            ]
        },
        {
            "positions": [
                -0.41238769128548763,
                -1.1137492449994113,
                1.8940883786433025,
                1.2608864291883233,
                -0.9188292781514634,
                0.4288730495756256
            ]
        },
        {
            "positions": [
                -0.4626609472094603,
                -1.0682702352309565,
                1.8709863941973137,
                1.3481981757912265,
                -1.049280215719719,
                0.38484777293243067
            ]
        },
        {
            "positions": [
                -0.512934203133433,
                -1.0227912254625022,
                1.847884409751325,
                1.4355099223941292,
                -1.1797311532879746,
                0.3408224962892358
            ]
        },
        {
            "positions": [
                -0.5632074590574057,
                -0.9773122156940476,
                1.8247824253053362,
                1.522821668997032,
                -1.3101820908562298,
                0.2967972196460409
            ]
        },
        {
            "positions": [
                -0.6134807149813781,
                -0.9318332059255932,
                1.8016804408593472,
                1.6101334155999347,
                -1.4406330284244855,
                0.252771943002846
            ]
        },
        {
            "positions": [
                -0.6637539709053508,
                -0.8863541961571385,
                1.7785784564133584,
                1.697445162202838,
                -1.5710839659927411,
                0.208746666359651
            ]
        },
        {
            "positions": [
                -0.7140272268293235,
                -0.8408751863886839,
                1.7554764719673694,
                1.7847569088057407,
                -1.7015349035609963,
                0.1647213897164561
            ]
        },
        {
            "positions": [
                -0.764300482753296,
                -0.7953961766202294,
                1.7323744875213807,
                1.8720686554086434,
                -1.831985841129252,
                0.12069611307326122
            ]
        },
        {
            "positions": [
                -0.8145737386772687,
                -0.7499171668517748,
                1.709272503075392,
                1.9593804020115462,
                -1.9624367786975077,
                0.07667083643006622
            ]
        },
        {
            "positions": [
                -0.8648469946012414,
                -0.7044381570833204,
                1.6861705186294031,
                2.046692148614449,
                -2.092887716265763,
                0.03264555978687145
            ]
        },
        {
            "positions": [
                -0.915120250525214,
                -0.6589591473148657,
                1.6630685341834142,
                2.134003895217352,
                -2.2233386538340185,
                -0.011379716856323557
            ]
        }
    ]
}