{
    "goal": {
        "global_pose": {
            "orientation": {
                "w": 0.005598929693374612,
                "x": 0.007748599140229565,
                "y": 0.7110244013736278,
                "z": -0.7031023480610252
            },
            "position": {
                "x": -0.8858502320852131,
                "y": -0.7141253447532654,
                "z": 0.3711530566215515
            }
        },
        "name": "move_to_auspresseinheit_C"
    },
    "id": "EST_move_to_auspresseinheit_C_68",
    "joint_names": [
        "shoulder_pan_joint",
        "shoulder_lift_joint",
        "elbow_joint",
        "wrist_1_joint",
        "wrist_2_joint",
        "wrist_3_joint"
    ],
    "metrics": {
        "cart_traj_len": 0.4929853826423507,
        "distance_elbow_joint": 1.0050174038318127,
        "distance_shoulder_lift_joint": 0.3272422051778767,
        "distance_shoulder_pan_joint": 0.2557317734573239,
        "distance_wrist_1_joint": 0.688958090015287,
        "distance_wrist_2_joint": 1.3166684511571392,
        "distance_wrist_3_joint": 0.0682503672899939,
        "smoothness": 1.1304088990788627e-15,
        "time": 0.94169616,
        "traj_len": 1.9136008703304441,
        "weighted_distance": 2.409148307323949
    },
    "planner": "EST",
    "start": {
        "state": {
            "elbow_joint": 1.7527959577737207,
            "shoulder_lift_joint": -0.9740617694225068,
            "shoulder_pan_joint": -2.967991417825858,
            "wrist_1_joint": -0.759517768980727,
            "wrist_2_joint": 1.7443932448377408,
            "wrist_3_joint": -3.0840537646736568
        }
    },
    "waypoints": [
        {
            "positions": [
                -2.967991417825858,
                -0.9740617694225068,
                1.7527959577737207,
                -0.759517768980727,
                1.7443932448377408,
                -3.0840537646736568
            ]
        },
        {
            "positions": [
                -2.9424182404801256,
                -0.9413375489047191,
                1.6522942173905393,
                -0.6906219599791983,
                1.612726399722027,
                -3.0908788014026563
            ]
        },
        {
            "positions": [
                -2.916845063134393,
                -0.9086133283869314,
                1.5517924770073581,
                -0.6217261509776696,
                1.481059554606313,
                -3.0977038381316557
            ]
        },
        {
            "positions": [
                -2.891271885788661,
                -0.8758891078691438,
                1.451290736624177,
                -0.5528303419761409,
                1.349392709490599,
                -3.1045288748606548
            ]
        },
        {
            "positions": [
                -2.8656987084429284,
                -0.8431648873513561,
                1.3507889962409956,
                -0.4839345329746122,
                1.2177258643748852,
                -3.1113539115896542
            ]
        },
        {
            "positions": [
                -2.840125531097196,
                -0.8104406668335684,
                1.2502872558578142,
                -0.4150387239730835,
                1.0860590192591713,
                -3.1181789483186537
            ]
        },
        {
            "positions": [
                -2.8145523537514636,
                -0.7777164463157807,
                1.149785515474633,
                -0.3461429149715548,
                0.9543921741434573,
                -3.125003985047653
            ]
        },
        {
            "positions": [
                -2.7889791764057312,
                -0.7449922257979931,
                1.0492837750914519,
                -0.27724710597002616,
                0.8227253290277435,
                -3.1318290217766527
            ]
        },
        {
            "positions": [
                -2.763405999059999,
                -0.7122680052802054,
                0.9487820347082705,
                -0.2083512969684974,
                0.6910584839120295,
                -3.1386540585056517
            ]
        },
        {
            "positions": [
                -2.7378328217142665,
                -0.6795437847624177,
                0.8482802943250892,
                -0.13945548796696872,
                0.5593916387963156,
                -3.145479095234651
            ]
        },
        {
            "positions": [
                -2.712259644368534,
                -0.64681956424463,
                0.747778553941908,
                -0.07055967896544008,
                0.42772479368060157,
                -3.1523041319636507
            ]
        }
    ]
}