{
    "goal": {
        "global_pose": {
            "orientation": {
                "w": 0.7047431468963623,
                "x": -0.7094548344612122,
                "y": 0.0024358443915843964,
                "z": -0.0022348060738295317
            },
            "position": {
                "x": 0.6094750761985779,
                "y": 0.3671506643295288,
                "z": 0.19426114857196808
            }
        },
        "name": "move_to_magneteinheit_A"
    },
    "id": "EST_move_to_magneteinheit_A_146",
    "joint_names": [
        "shoulder_pan_joint",
        "shoulder_lift_joint",
        "elbow_joint",
        "wrist_1_joint",
        "wrist_2_joint",
        "wrist_3_joint"
    ],
    "metrics": {
        "cart_traj_len": 3.4891690150982204,
        "distance_elbow_joint": 3.879540104480493,
        "distance_shoulder_lift_joint": 0.13492039979046044,
        "distance_shoulder_pan_joint": 2.9820471987808244,
        "distance_wrist_1_joint": 1.2879643252635713,
        "distance_wrist_2_joint": 1.6976314221628723,
        "distance_wrist_3_joint": 2.597002793830727,
        "smoothness": 0.13045285221485925,
        "time": 0.302874574,
        "traj_len": 3.5467035743502646,
        "weighted_distance": 4.5561724703304245
    },
    "planner": "EST",
    "start": {
        "state": {
            "elbow_joint": -1.9196185241190666,
            "shoulder_lift_joint": -1.2443396400964142,
            "shoulder_pan_joint": 2.6996025414629847,
            "wrist_1_joint": -1.5485510000780065,
            "wrist_2_joint": -1.5709468930060704,
            "wrist_3_joint": 0.4420197071253992
        }
    },
    "waypoints": [
        {
            "positions": [
                2.6996025414629847,
                -1.2443396400964142,
                -1.9196185241190666,
                -1.5485510000780065,
                -1.5709468930060704,
                0.4420197071253992
            ]
        },
        {
            "positions": [
                2.600338361739527,
                -1.2447622345711113,
                -1.8080989289634835,
                -1.5107980667304788,
                -1.517627766601673,
                0.5285989602832927
            ]
        },
        {
            "positions": [
                2.501074182016069,
                -1.2451848290458087,
                -1.6965793338079003,
                -1.4730451333829513,
                -1.464308640197276,
                0.6151782134411863
            ]
        },
        {
            "positions": [
                2.401810002292611,
                -1.245607423520506,
                -1.585059738652317,
                -1.4352922000354236,
                -1.4109895137928787,
                0.7017574665990798
            ]
        },
        {
            "positions": [
                2.302545822569153,
                -1.2460300179952033,
                -1.473540143496734,
                -1.3975392666878959,
                -1.3576703873884814,
                0.7883367197569733
            ]
        },
        {
            "positions": [
                2.2032816428456954,
                -1.2464526124699005,
                -1.3620205483411505,
                -1.3597863333403681,
                -1.3043512609840844,
                0.8749159729148669
            ]
        },
        {
            "positions": [
                2.1040174631222373,
                -1.2468752069445976,
                -1.2505009531855675,
                -1.3220333999928406,
                -1.251032134579687,
                0.9614952260727604
            ]
        },
        {
            "positions": [
                2.0047532833987796,
                -1.247297801419295,
                -1.1389813580299841,
                -1.284280466645313,
                -1.19771300817529,
                1.048074479230654
            ]
        },
        {
            "positions": [
                1.9054891036753219,
                -1.2477203958939922,
                -1.027461762874401,
                -1.2465275332977852,
                -1.1443938817708927,
                1.1346537323885475
            ]
        },
        {
            "positions": [
                1.8062249239518637,
                -1.2481429903686896,
                -0.9159421677188175,
                -1.2087745999502575,
                -1.0910747553664955,
                1.221232985546441
            ]
        },
        {
            "positions": [
                1.706960744228406,
                -1.2485655848433868,
                -0.8044225725632344,
                -1.17102166660273,
                -1.0377556289620982,
                1.3078122387043347
            ]
        },
        {
            "positions": [
                1.6076965645049481,
                -1.248988179318084,
                -0.6929029774076514,
                -1.1332687332552023,
                -0.9844365025577011,
                1.3943914918622282
            ]
        },
        {
            "positions": [
                1.5084323847814902,
                -1.2494107737927813,
                -0.5813833822520682,
                -1.0955157999076746,
                -0.9311173761533039,
                1.4809707450201217
            ]
        },
        {
            "positions": [
                1.4091682050580323,
                -1.2498333682674785,
                -0.4698637870964848,
                -1.057762866560147,
                -0.8777982497489066,
                1.5675499981780154
            ]
        },
        {
            "positions": [
                1.3099040253345744,
                -1.2502559627421759,
                -0.3583441919409016,
                -1.0200099332126193,
                -0.8244791233445095,
                1.6541292513359087
            ]
        },
        {
            "positions": [
                1.2106398456111165,
                -1.250678557216873,
                -0.24682459678531843,
                -0.9822569998650917,
                -0.7711599969401123,
                1.7407085044938024
            ]
        },
        {
            "positions": [
                1.1113756658876588,
                -1.2511011516915702,
                -0.13530500162973524,
                -0.944504066517564,
                -0.7178408705357151,
                1.8272877576516957
            ]
        },
        {
            "positions": [
                1.0121114861642009,
                -1.2515237461662676,
                -0.02378540647415206,
                -0.9067511331700364,
                -0.6645217441313179,
                1.9138670108095894
            ]
        },
        {
            "positions": [
                0.9128473064407427,
                -1.2519463406409648,
                0.08773418868143157,
                -0.8689981998225087,
                -0.6112026177269205,
                2.000446263967483
            ]
        },
        {
            "positions": [
                0.8135831267172848,
                -1.252368935115662,
                0.19925378383701453,
                -0.8312452664749811,
                -0.5578834913225235,
                2.0870255171253764
            ]
        },
        {
            "positions": [
                0.7143189469938271,
                -1.2527915295903593,
                0.31077337899259794,
                -0.7934923331274534,
                -0.5045643649181262,
                2.17360477028327
            ]
        },
        {
            "positions": [
                0.6150547672703692,
                -1.2532141240650565,
                0.4222929741481809,
                -0.7557393997799258,
                -0.4512452385137291,
                2.260184023441164
            ]
        },
        {
            "positions": [
                0.5157905875469115,
                -1.253636718539754,
                0.5338125693037639,
                -0.7179864664323982,
                -0.3979261121093318,
                2.346763276599057
            ]
        },
        {
            "positions": [
                0.4165264078234534,
                -1.254059313014451,
                0.6453321644593473,
                -0.6802335330848704,
                -0.34460698570493453,
                2.433342529756951
            ]
        },
        {
            "positions": [
                0.3172622280999957,
                -1.2544819074891482,
                0.7568517596149302,
                -0.6424805997373428,
                -0.29128785930053747,
                2.519921782914844
            ]
        },
        {
            "positions": [
                0.21799804837653758,
                -1.2549045019638456,
                0.8683713547705141,
                -0.6047276663898151,
                -0.23796873289614018,
                2.606501036072738
            ]
        },
        {
            "positions": [
                0.11873386865307989,
                -1.2553270964385428,
                0.979890949926097,
                -0.5669747330422875,
                -0.1846496064917429,
                2.6930802892306316
            ]
        },
        {
            "positions": [
                0.019469688929621753,
                -1.2557496909132402,
                1.0914105450816804,
                -0.5292217996947599,
                -0.13133048008734582,
                2.779659542388525
            ]
        },
        {
            "positions": [
                -0.07979449079383583,
                -1.2561722853879373,
                1.2029301402372632,
                -0.4914688663472322,
                -0.07801135368294854,
                2.8662387955464186
            ]
        },
        {
            "positions": [
                -0.06908799360701344,
                -1.2334712637665586,
                1.3785722536738017,
                -0.556301804051728,
                -0.024398928778166983,
                2.8757395129851693
            ]
        },
        {
            "positions": [
                -0.058381496420191054,
                -1.2107702421451796,
                1.5542143671103403,
                -0.6211347417562239,
                0.02921349612661457,
                2.88524023042392
            ]
        },
        {
            "positions": [
                -0.04767499923336867,
                -1.1880692205238008,
                1.7298564805468788,
                -0.6859676794607197,
                0.08282592103139615,
                2.8947409478626707
            ]
        },
        {
            "positions": [
                0.03759033824839979,
                -1.1605768757064006,
                1.8448890304541523,
                -0.7041593686703744,
                0.10475522509409899,
                2.9668817244093986
            ]
        },
        {
            "positions": [
                0.12285567573016826,
                -1.133084530889,
                1.9599215803614258,
                -0.7223510578800292,
                0.12668452915680184,
                3.0390225009561265
            ]
        }
    ]
}