{
    "goal": {
        "global_pose": {
            "orientation": {
                "w": 0.7047431493862688,
                "x": -0.7094548369677653,
                "y": 0.0024358444001904,
                "z": -0.0022348060817251984
            },
            "position": {
                "x": -0.39052492380142206,
                "y": 0.3671506643295288,
                "z": 0.19426114857196808
            }
        },
        "name": "move_to_magneteinheit_D"
    },
    "id": "EST_move_to_magneteinheit_D_23",
    "joint_names": [
        "shoulder_pan_joint",
        "shoulder_lift_joint",
        "elbow_joint",
        "wrist_1_joint",
        "wrist_2_joint",
        "wrist_3_joint"
    ],
    "metrics": {
        "cart_traj_len": 5.0708558299053355,
        "distance_elbow_joint": 3.235864243391864,
        "distance_shoulder_lift_joint": 1.7803809857606987,
        "distance_shoulder_pan_joint": 3.401956115197141,
        "distance_wrist_1_joint": 2.404803930427633,
        "distance_wrist_2_joint": 1.9062806323716686,
        "distance_wrist_3_joint": 6.507715328846611,
        "smoothness": 0.5812152719242261,
        "time": 0.138146411,
        "traj_len": 4.3860005968986835,
        "weighted_distance": 6.046777361246908
    },
    "planner": "EST",
    "start": {
        "state": {
            "elbow_joint": 0.749534889911806,
            "shoulder_lift_joint": -0.6476975780787326,
            "shoulder_pan_joint": -2.711696901376241,
            "wrist_1_joint": -0.07506478083263063,
            "wrist_2_joint": 0.43296659715538205,
            "wrist_3_joint": -3.14703540197715
        }
    },
    "waypoints": [
        {
            "positions": [
                -2.711696901376241,
                -0.6476975780787326,
                0.749534889911806,
                -0.07506478083263063,
                0.43296659715538205,
                -3.14703540197715
            ]
        },
        {
            "positions": [
                -2.717769572493177,
                -0.6359180985439553,
                0.7596918448160637,
                -0.17894033785707547,
                0.4655150182714222,
                -2.9468753445247136
            ]
        },
        {
            "positions": [
                -2.7238422436101133,
                -0.624138619009178,
                0.7698487997203215,
                -0.2828158948815203,
                0.49806343938746234,
                -2.7467152870722775
            ]
        },
        {
            "positions": [
                -2.729914914727049,
                -0.6123591394744006,
                0.7800057546245793,
                -0.38669145190596516,
                0.5306118605035025,
                -2.546555229619841
            ]
        },
        {
            "positions": [
                -2.735987585843985,
                -0.6005796599396233,
                0.790162709528837,
                -0.49056700893041,
                0.5631602816195427,
                -2.346395172167405
            ]
        },
        {
            "positions": [
                -2.7420602569609214,
                -0.5888001804048459,
                0.8003196644330948,
                -0.5944425659548549,
                0.5957087027355829,
                -2.1462351147149685
            ]
        },
        {
            "positions": [
                -2.7481329280778573,
                -0.5770207008700686,
                0.8104766193373526,
                -0.6983181229792996,
                0.628257123851623,
                -1.9460750572625323
            ]
        },
        {
            "positions": [
                -2.750422763865528,
                -0.5872229065020642,
                0.7996051899633689,
                -0.8125354923035809,
                0.6360664482213394,
                -1.712731789993955
            ]
        },
        {
            "positions": [
                -2.7527125996531985,
                -0.5974251121340598,
                0.7887337605893854,
                -0.9267528616278622,
                0.6438757725910558,
                -1.4793885227253776
            ]
        },
        {
            "positions": [
                -2.7550024354408693,
                -0.6076273177660554,
                0.7778623312154017,
                -1.0409702309521434,
                0.651685096960772,
                -1.2460452554568002
            ]
        },
        {
            "positions": [
                -2.7572922712285397,
                -0.617829523398051,
                0.766990901841418,
                -1.1551876002764248,
                0.6594944213304884,
                -1.0127019881882229
            ]
        },
        {
            "positions": [
                -2.7595821070162105,
                -0.6280317290300467,
                0.7561194724674345,
                -1.2694049696007061,
                0.6673037457002048,
                -0.7793587209196453
            ]
        },
        {
            "positions": [
                -2.761871942803881,
                -0.6382339346620423,
                0.7452480430934508,
                -1.3836223389249873,
                0.6751130700699212,
                -0.5460154536510682
            ]
        },
        {
            "positions": [
                -2.7641617785915518,
                -0.6484361402940378,
                0.7343766137194672,
                -1.4978397082492687,
                0.6829223944396374,
                -0.3126721863824906
            ]
        },
        {
            "positions": [
                -2.766451614379222,
                -0.6586383459260334,
                0.7235051843454836,
                -1.6120570775735499,
                0.6907317188093538,
                -0.07932891911391349
            ]
        },
        {
            "positions": [
                -2.768741450166893,
                -0.668840551558029,
                0.7126337549714999,
                -1.7262744468978313,
                0.6985410431790702,
                0.1540143481546642
            ]
        },
        {
            "positions": [
                -2.6502122310032696,
                -0.7222560732111657,
                0.633699227354785,
                -1.730486380668855,
                0.6579924472796066,
                0.24849098016153104
            ]
        },
        {
            "positions": [
                -2.5316830118396463,
                -0.7756715948643024,
                0.5547646997380701,
                -1.734698314439879,
                0.617443851380143,
                0.3429676121683979
            ]
        },
        {
            "positions": [
                -2.413153792676023,
                -0.829087116517439,
                0.47583017212135514,
                -1.738910248210903,
                0.5768952554806793,
                0.43744424417526473
            ]
        },
        {
            "positions": [
                -2.294624573512399,
                -0.8825026381705757,
                0.3968956445046402,
                -1.743122181981927,
                0.5363466595812157,
                0.5319208761821316
            ]
        },
        {
            "positions": [
                -2.1760953543487758,
                -0.9359181598237123,
                0.3179611168879253,
                -1.7473341157529507,
                0.49579806368175217,
                0.6263975081889984
            ]
        },
        {
            "positions": [
                -2.0575661351851524,
                -0.989333681476849,
                0.23902658927121034,
                -1.7515460495239745,
                0.45524946778228853,
                0.7208741401958653
            ]
        },
        {
            "positions": [
                -1.939036916021529,
                -1.0427492031299856,
                0.1600920616544954,
                -1.7557579832949985,
                0.4147008718828249,
                0.8153507722027321
            ]
        },
        {
            "positions": [
                -1.8205076968579057,
                -1.0961647247831223,
                0.08115753403778048,
                -1.7599699170660223,
                0.3741522759833613,
                0.909827404209599
            ]
        },
        {
            "positions": [
                -1.7019784776942821,
                -1.149580246436259,
                0.002223006421065543,
                -1.7641818508370462,
                0.33360368008389774,
                1.0043040362164657
            ]
        },
        {
            "positions": [
                -1.5834492585306588,
                -1.2029957680893957,
                -0.07671152119564939,
                -1.7683937846080702,
                0.2930550841844341,
                1.0987806682233328
            ]
        },
        {
            "positions": [
                -1.4649200393670354,
                -1.2564112897425324,
                -0.15564604881236432,
                -1.772605718379094,
                0.25250648828497047,
                1.1932573002301994
            ]
        },
        {
            "positions": [
                -1.3463908202034118,
                -1.309826811395669,
                -0.23458057642907926,
                -1.7768176521501178,
                0.21195789238550689,
                1.2877339322370664
            ]
        },
        {
            "positions": [
                -1.2278616010397885,
                -1.3632423330488057,
                -0.3135151040457943,
                -1.7810295859211418,
                0.1714092964860433,
                1.382210564243933
            ]
        },
        {
            "positions": [
                -1.1093323818761651,
                -1.4166578547019424,
                -0.3924496316625091,
                -1.7852415196921656,
                0.13086070058657961,
                1.4766871962508001
            ]
        },
        {
            "positions": [
                -0.9908031627125415,
                -1.470073376355079,
                -0.47138415927922395,
                -1.7894534534631896,
                0.09031210468711603,
                1.5711638282576668
            ]
        },
        {
            "positions": [
                -0.8722739435489182,
                -1.5234888980082157,
                -0.5503186868959389,
                -1.7936653872342134,
                0.04976350878765245,
                1.6656404602645338
            ]
        },
        {
            "positions": [
                -0.7922912145767359,
                -1.5453422418334775,
                -0.6822207933963725,
                -1.8176142752498432,
                0.03337614863696373,
                1.7807552911208187
            ]
        },
        {
            "positions": [
                -0.7123084856045536,
                -1.5671955856587392,
                -0.8141228998968062,
                -1.841563163265473,
                0.016988788486275018,
                1.8958701219771035
            ]
        },
        {
            "positions": [
                -0.6323257566323712,
                -1.589048929484001,
                -0.94602500639724,
                -1.8655120512811028,
                0.0006014283355863029,
                2.0109849528333883
            ]
        },
        {
            "positions": [
                -0.552343027660189,
                -1.6109022733092628,
                -1.0779271128976737,
                -1.8894609392967325,
                -0.015785931815102412,
                2.126099783689673
            ]
        },
        {
            "positions": [
                -0.47236029868800666,
                -1.6327556171345246,
                -1.2098292193981073,
                -1.9134098273123623,
                -0.03217329196579113,
                2.2412146145459575
            ]
        },
        {
            "positions": [
                -0.3923775697158243,
                -1.6546089609597863,
                -1.3417313258985408,
                -1.937358715327992,
                -0.04856065211647984,
                2.3563294454022423
            ]
        },
        {
            "positions": [
                -0.312394840743642,
                -1.676462304785048,
                -1.4736334323989748,
                -1.9613076033436219,
                -0.06494801226716856,
                2.471444276258527
            ]
        },
        {
            "positions": [
                -0.2324121117714597,
                -1.69831564861031,
                -1.6055355388994084,
                -1.9852564913592516,
                -0.08133537241785727,
                2.586559107114812
            ]
        },
        {
            "positions": [
                -0.1524293827992773,
                -1.7201689924355716,
                -1.7374376453998421,
                -2.0092053793748814,
                -0.097722732568546,
                2.701673937971097
            ]
        },
        {
            "positions": [
                -0.07244665382709514,
                -1.7420223362608334,
                -1.8693397519002757,
                -2.033154267390511,
                -0.1141100927192347,
                2.8167887688273816
            ]
        },
        {
            "positions": [
                0.007536075145087223,
                -1.763875680086095,
                -2.0012418584007095,
                -2.057103155406141,
                -0.13049745286992342,
                2.9319035996836664
            ]
        },
        {
            "positions": [
                0.054452669982960035,
                -1.8268097962371157,
                -2.042614796502782,
                -2.1240075694226164,
                -0.03509425441988839,
                3.0100925246769443
            ]
        },
        {
            "positions": [
                0.10136926482083285,
                -1.8897439123881365,
                -2.0839877346048543,
                -2.1909119834390918,
                0.06030894403014664,
                3.0882814496702222
            ]
        },
        {
            "positions": [
                0.14828585965870567,
                -1.9526780285391574,
                -2.1253606727069267,
                -2.2578163974555676,
                0.15571214248018167,
                3.1664703746635
            ]
        },
        {
            "positions": [
                0.19520245449657847,
                -2.015612144690178,
                -2.166733610808999,
                -2.324720811472043,
                0.2511153409302167,
                3.244659299656778
            ]
        },
        {
            "positions": [
                0.09996053906082421,
                -1.9478339785071968,
                -2.2161616817639906,
                -2.285933836524988,
                0.1436016168055051,
                3.2156541428536074
            ]
        },
        {
            "positions": [
                0.004718623625069945,
                -1.8800558123242155,
                -2.2655897527189817,
                -2.2471468615779324,
                0.03608789268079349,
                3.186648986050437
            ]
        },
        {
            "positions": [
                -0.0905232918106843,
                -1.812277646141234,
                -2.315017823673973,
                -2.2083598866308773,
                -0.07142583144391812,
                3.157643829247266
            ]
        },
        {
            "positions": [
                -0.18576520724643858,
                -1.7444994799582527,
                -2.3644458946289646,
                -2.1695729116838223,
                -0.17893955556862975,
                3.1286386724440955
            ]
        }
    ]
}