{
    "goal": {
        "global_pose": {
            "orientation": {
                "w": 0.7047431468963623,
                "x": -0.7094548344612122,
                "y": 0.0024358443915843964,
                "z": -0.0022348060738295317
            },
            "position": {
                "x": 0.6094750761985779,
                "y": 0.3671506643295288,
                "z": 0.19426114857196808
            }
        },
        "name": "move_to_magneteinheit_A"
    },
    "id": "EST_move_to_magneteinheit_A_87",
    "joint_names": [
        "shoulder_pan_joint",
        "shoulder_lift_joint",
        "elbow_joint",
        "wrist_1_joint",
        "wrist_2_joint",
        "wrist_3_joint"
    ],
    "metrics": {
        "cart_traj_len": 3.208774494930511,
        "distance_elbow_joint": 3.8834682399626246,
        "distance_shoulder_lift_joint": 0.9127990013943588,
        "distance_shoulder_pan_joint": 2.7921284915061055,
        "distance_wrist_1_joint": 0.8043858211879421,
        "distance_wrist_2_joint": 1.7046186234214022,
        "distance_wrist_3_joint": 2.605084894701239,
        "smoothness": 0.05295266311874879,
        "time": 0.07897915,
        "traj_len": 3.5640545832203068,
        "weighted_distance": 4.519033005653478
    },
    "planner": "EST",
    "start": {
        "state": {
            "elbow_joint": -1.9196185241190666,
            "shoulder_lift_joint": -1.2443396400964142,
            "shoulder_pan_joint": 2.6996025414629847,
            "wrist_1_joint": -1.5485510000780065,
            "wrist_2_joint": -1.5709468930060704,
            "wrist_3_joint": 0.4420197071253992
        }
    },
    "waypoints": [
        {
            "positions": [
                2.6996025414629847,
                -1.2443396400964142,
                -1.9196185241190666,
                -1.5485510000780065,
                -1.5709468930060704,
                0.4420197071253992
            ]
        },
        {
            "positions": [
                2.5985453800270957,
                -1.2603876390068618,
                -1.7955666974183517,
                -1.519817561067833,
                -1.508370920559343,
                0.495875808576445
            ]
        },
        {
            "positions": [
                2.497488218591206,
                -1.2764356379173094,
                -1.6715148707176368,
                -1.4910841220576598,
                -1.4457949481126156,
                0.5497319100274908
            ]
        },
        {
            "positions": [
                2.396431057155317,
                -1.2924836368277572,
                -1.547463044016922,
                -1.4623506830474864,
                -1.3832189756658881,
                0.6035880114785366
            ]
        },
        {
            "positions": [
                2.2953738957194276,
                -1.3085316357382049,
                -1.423411217316207,
                -1.433617244037313,
                -1.320643003219161,
                0.6574441129295824
            ]
        },
        {
            "positions": [
                2.1943167342835386,
                -1.3245796346486525,
                -1.299359390615492,
                -1.4048838050271397,
                -1.2580670307724335,
                0.7113002143806282
            ]
        },
        {
            "positions": [
                2.093259572847649,
                -1.3406276335591,
                -1.1753075639147772,
                -1.3761503660169663,
                -1.1954910583257061,
                0.765156315831674
            ]
        },
        {
            "positions": [
                1.99220241141176,
                -1.3566756324695477,
                -1.0512557372140623,
                -1.347416927006793,
                -1.1329150858789787,
                0.8190124172827198
            ]
        },
        {
            "positions": [
                1.8911452499758707,
                -1.3727236313799955,
                -0.9272039105133474,
                -1.3186834879966196,
                -1.0703391134322513,
                0.8728685187337657
            ]
        },
        {
            "positions": [
                1.7900880885399815,
                -1.3887716302904431,
                -0.8031520838126327,
                -1.2899500489864462,
                -1.0077631409855239,
                0.9267246201848114
            ]
        },
        {
            "positions": [
                1.6890309271040922,
                -1.4048196292008908,
                -0.6791002571119176,
                -1.261216609976273,
                -0.9451871685387965,
                0.9805807216358573
            ]
        },
        {
            "positions": [
                1.587973765668203,
                -1.4208676281113384,
                -0.5550484304112027,
                -1.2324831709660995,
                -0.8826111960920692,
                1.034436823086903
            ]
        },
        {
            "positions": [
                1.4869166042323139,
                -1.436915627021786,
                -0.430996603710488,
                -1.2037497319559263,
                -0.8200352236453418,
                1.088292924537949
            ]
        },
        {
            "positions": [
                1.3858594427964244,
                -1.4529636259322338,
                -0.30694477700977285,
                -1.1750162929457528,
                -0.7574592511986143,
                1.1421490259889948
            ]
        },
        {
            "positions": [
                1.284802281360535,
                -1.4690116248426814,
                -0.18289295030905794,
                -1.1462828539355794,
                -0.6948832787518869,
                1.1960051274400405
            ]
        },
        {
            "positions": [
                1.183745119924646,
                -1.485059623753129,
                -0.05884112360834326,
                -1.1175494149254062,
                -0.6323073063051596,
                1.2498612288910862
            ]
        },
        {
            "positions": [
                1.0826879584887568,
                -1.5011076226635767,
                0.06521070309237187,
                -1.0888159759152327,
                -0.5697313338584322,
                1.303717330342132
            ]
        },
        {
            "positions": [
                0.9816307970528673,
                -1.5171556215740245,
                0.189262529793087,
                -1.0600825369050593,
                -0.5071553614117048,
                1.357573431793178
            ]
        },
        {
            "positions": [
                0.8805736356169782,
                -1.5332036204844721,
                0.31331435649380124,
                -1.031349097894886,
                -0.4445793889649774,
                1.4114295332442235
            ]
        },
        {
            "positions": [
                0.7795164741810889,
                -1.5492516193949197,
                0.43736618319451637,
                -1.0026156588847126,
                -0.38200341651825,
                1.4652856346952694
            ]
        },
        {
            "positions": [
                0.6784593127451997,
                -1.5652996183053673,
                0.5614180098952315,
                -0.9738822198745393,
                -0.31942744407152257,
                1.5191417361463153
            ]
        },
        {
            "positions": [
                0.5774021513093106,
                -1.581347617215815,
                0.6854698365959462,
                -0.9451487808643659,
                -0.2568514716247954,
                1.5729978375973612
            ]
        },
        {
            "positions": [
                0.4763449898734211,
                -1.5973956161262626,
                0.8095216632966613,
                -0.9164153418541926,
                -0.19427549917806797,
                1.6268539390484067
            ]
        },
        {
            "positions": [
                0.37528782843753206,
                -1.6134436150367104,
                0.933573489997376,
                -0.8876819028440192,
                -0.13169952673134033,
                1.6807100404994526
            ]
        },
        {
            "positions": [
                0.274230667001643,
                -1.629491613947158,
                1.0576253166980907,
                -0.8589484638338458,
                -0.06912355428461314,
                1.7345661419504985
            ]
        },
        {
            "positions": [
                0.1731735055657536,
                -1.6455396128576056,
                1.181677143398806,
                -0.8302150248236725,
                -0.006547581837885716,
                1.7884222434015444
            ]
        },
        {
            "positions": [
                0.14154563784941987,
                -1.5918613901575718,
                1.2928518569304828,
                -0.8213979417228197,
                0.01215935544266834,
                1.9337664053093166
            ]
        },
        {
            "positions": [
                0.10991777013308618,
                -1.5381831674575377,
                1.4040265704621595,
                -0.8125808586219669,
                0.030866292723222395,
                2.079110567217089
            ]
        },
        {
            "positions": [
                0.07828990241675249,
                -1.4845049447575038,
                1.5152012839938362,
                -0.8037637755211141,
                0.049573230003776454,
                2.2244547291248615
            ]
        },
        {
            "positions": [
                0.04666203470041877,
                -1.4308267220574697,
                1.626375997525513,
                -0.7949466924202614,
                0.0682801672843305,
                2.3697988910326337
            ]
        },
        {
            "positions": [
                0.015034166984085086,
                -1.3771484993574359,
                1.7375507110571897,
                -0.7861296093194086,
                0.08698710456488457,
                2.515143052940406
            ]
        },
        {
            "positions": [
                0.020363553568464948,
                -1.309736555320814,
                1.825246929230246,
                -0.7751007367229201,
                0.09508004398276637,
                2.6744172338294225
            ]
        },
        {
            "positions": [
                0.05444046371607346,
                -1.2511378982886887,
                1.8714478581013505,
                -0.7647888841119682,
                0.10794393946028844,
                2.798646356495161
            ]
        },
        {
            "positions": [
                0.08851737386368197,
                -1.1925392412565636,
                1.9176487869724548,
                -0.7544770315010163,
                0.1208078349378105,
                2.9228754791608997
            ]
        },
        {
            "positions": [
                0.1225942840112905,
                -1.1339405842244383,
                1.9638497158435593,
                -0.7441651788900644,
                0.13367173041533256,
                3.0471046018266383
            ]
        }
    ]
}