{
    "goal": {
        "global_pose": {
            "orientation": {
                "w": -0.00223480608172531,
                "x": 0.0024358444001904467,
                "y": 0.7094548369677653,
                "z": -0.704743149386269
            },
            "position": {
                "x": 0.6205249238014221,
                "y": -0.6371506643295288,
                "z": 0.19426114857196808
            }
        },
        "name": "move_to_magneteinheit_B"
    },
    "id": "EST_move_to_magneteinheit_B_132",
    "joint_names": [
        "shoulder_pan_joint",
        "shoulder_lift_joint",
        "elbow_joint",
        "wrist_1_joint",
        "wrist_2_joint",
        "wrist_3_joint"
    ],
    "metrics": {
        "cart_traj_len": 1.517194906986543,
        "distance_elbow_joint": 0.9565566818342499,
        "distance_shoulder_lift_joint": 0.819387879339189,
        "distance_shoulder_pan_joint": 1.6215133682616774,
        "distance_wrist_1_joint": 0.21108871813029184,
        "distance_wrist_2_joint": 1.519784624321925,
        "distance_wrist_3_joint": 0.01032824963698958,
        "smoothness": 0.441404769012932,
        "time": 0.081628431,
        "traj_len": 2.2668611606193094,
        "weighted_distance": 2.624917020259977
    },
    "planner": "EST",
    "start": {
        "state": {
            "elbow_joint": 2.6216224122426386,
            "shoulder_lift_joint": -1.4174107377796124,
            "shoulder_pan_joint": 0.7066234856936794,
            "wrist_1_joint": 1.9546482284002225,
            "wrist_2_joint": -0.7096286983471962,
            "wrist_3_joint": 0.005740856962016249
        }
    },
    "waypoints": [
        {
            "positions": [
                0.7066234856936794,
                -1.4174107377796124,
                2.6216224122426386,
                1.9546482284002225,
                -0.7096286983471962,
                0.005740856962016249
            ]
        },
        {
            "positions": [
                0.6384544550104743,
                -1.4493004846640705,
                2.5973564319221945,
                1.9423779508355292,
                -0.7314680079566346,
                0.004380521703613186
            ]
        },
        {
            "positions": [
                0.5189664290428995,
                -1.3887237052444759,
                2.5256417625749785,
                1.957671677032883,
                -0.8466945706268258,
                0.0036906821360296075
            ]
        },
        {
            "positions": [
                0.3994784030753247,
                -1.328146925824881,
                2.4539270932277626,
                1.9729654032302366,
                -0.9619211332970172,
                0.0030008425684460295
            ]
        },
        {
            "positions": [
                0.2799903771077499,
                -1.2675701464052864,
                2.382212423880547,
                1.9882591294275904,
                -1.0771476959672084,
                0.0023110030008624514
            ]
        },
        {
            "positions": [
                0.16050235114017508,
                -1.2069933669856918,
                2.310497754533331,
                2.0035528556249442,
                -1.1923742586373998,
                0.001621163433278873
            ]
        },
        {
            "positions": [
                0.041014325172600286,
                -1.146416587566097,
                2.2387830851861152,
                2.018846581822298,
                -1.3076008213075911,
                0.0009313238656952949
            ]
        },
        {
            "positions": [
                -0.07847370079497451,
                -1.0858398081465024,
                2.1670684158388993,
                2.034140308019652,
                -1.4228273839777823,
                0.00024148429811171688
            ]
        },
        {
            "positions": [
                -0.1979617267625493,
                -1.0252630287269078,
                2.095353746491684,
                2.0494340342170054,
                -1.5380539466479735,
                -0.0004483552694718616
            ]
        },
        {
            "positions": [
                -0.3174497527301241,
                -0.964686249307313,
                2.023639077144468,
                2.064727760414359,
                -1.653280509318165,
                -0.00113819483705544
            ]
        },
        {
            "positions": [
                -0.4369377786976989,
                -0.9041094698877183,
                1.951924407797252,
                2.080021486611713,
                -1.7685070719883562,
                -0.0018280344046390177
            ]
        },
        {
            "positions": [
                -0.5564258046652737,
                -0.8435326904681236,
                1.880209738450036,
                2.0953152128090666,
                -1.8837336346585474,
                -0.002517873972222596
            ]
        },
        {
            "positions": [
                -0.6759138306328485,
                -0.7829559110485289,
                1.8084950691028203,
                2.11060893900642,
                -1.998960197328739,
                -0.0032077135398061746
            ]
        },
        {
            "positions": [
                -0.7954018566004233,
                -0.7223791316289342,
                1.7367803997556046,
                2.1259026652037742,
                -2.11418675999893,
                -0.0038975531073897523
            ]
        },
        {
            "positions": [
                -0.9148898825679981,
                -0.6618023522093396,
                1.6650657304083887,
                2.141196391401128,
                -2.2294133226691213,
                -0.004587392674973331
            ]
        }
    ]
}