{
    "goal": {
        "global_pose": {
            "orientation": {
                "w": -0.00223480608172531,
                "x": 0.0024358444001904467,
                "y": 0.7094548369677653,
                "z": -0.704743149386269
            },
            "position": {
                "x": -0.37947507619857795,
                "y": -0.6371506643295288,
                "z": 0.19426114857196808
            }
        },
        "name": "move_to_magneteinheit_C"
    },
    "id": "EST_move_to_magneteinheit_C_76",
    "joint_names": [
        "shoulder_pan_joint",
        "shoulder_lift_joint",
        "elbow_joint",
        "wrist_1_joint",
        "wrist_2_joint",
        "wrist_3_joint"
    ],
    "metrics": {
        "cart_traj_len": 2.3266212626599674,
        "distance_elbow_joint": 1.423649276917668,
        "distance_shoulder_lift_joint": 1.0927995759987064,
        "distance_shoulder_pan_joint": 2.565077901303464,
        "distance_wrist_1_joint": 1.1869504187807738,
        "distance_wrist_2_joint": 1.1125726081190646,
        "distance_wrist_3_joint": 2.697918262772566,
        "smoothness": 1.6748577971333798,
        "time": 3.097893167,
        "traj_len": 3.1747390513067755,
        "weighted_distance": 4.21596105251664
    },
    "planner": "EST",
    "start": {
        "state": {
            "elbow_joint": 1.9565354010623817,
            "shoulder_lift_joint": -1.4165861575791021,
            "shoulder_pan_joint": -1.6717766225146293,
            "wrist_1_joint": -0.5286633292919765,
            "wrist_2_joint": 1.472756589071564,
            "wrist_3_joint": -3.1238370188695823
        }
    },
    "waypoints": [
        {
            "positions": [
                -1.6717766225146293,
                -1.4165861575791021,
                1.9565354010623817,
                -0.5286633292919765,
                1.472756589071564,
                -3.1238370188695823
            ]
        },
        {
            "positions": [
                -1.6187378760871707,
                -1.4400296967895352,
                1.9556671958642045,
                -0.5208542844774308,
                1.4693908297310654,
                -3.04618437508345
            ]
        },
        {
            "positions": [
                -1.539137309720959,
                -1.4796499825892864,
                1.904588231609377,
                -0.4779727613410243,
                1.436074167800463,
                -2.928318161005846
            ]
        },
        {
            "positions": [
                -1.4595367433547473,
                -1.5192702683890376,
                1.8535092673545495,
                -0.43509123820461787,
                1.4027575058698605,
                -2.810451946928242
            ]
        },
        {
            "positions": [
                -1.3799361769885357,
                -1.5588905541887887,
                1.802430303099722,
                -0.39220971506821145,
                1.369440843939258,
                -2.692585732850638
            ]
        },
        {
            "positions": [
                -1.300335610622324,
                -1.5985108399885402,
                1.7513513388448945,
                -0.349328191931805,
                1.3361241820086556,
                -2.5747195187730343
            ]
        },
        {
            "positions": [
                -1.2207350442561125,
                -1.6381311257882913,
                1.700272374590067,
                -0.30644666879539856,
                1.3028075200780531,
                -2.4568533046954304
            ]
        },
        {
            "positions": [
                -1.1411344778899006,
                -1.6777514115880425,
                1.6491934103352395,
                -0.26356514565899214,
                1.2694908581474509,
                -2.3389870906178265
            ]
        },
        {
            "positions": [
                -1.061533911523689,
                -1.7173716973877937,
                1.598114446080412,
                -0.22068362252258572,
                1.2361741962168484,
                -2.2211208765402226
            ]
        },
        {
            "positions": [
                -0.9819333451574773,
                -1.756991983187545,
                1.5470354818255845,
                -0.1778020993861792,
                1.202857534286246,
                -2.1032546624626187
            ]
        },
        {
            "positions": [
                -0.9023327787912656,
                -1.796612268987296,
                1.495956517570757,
                -0.13492057624977277,
                1.1695408723556435,
                -1.985388448385015
            ]
        },
        {
            "positions": [
                -0.822732212425054,
                -1.8362325547870473,
                1.4448775533159295,
                -0.09203905311336634,
                1.136224210425041,
                -1.8675222343074112
            ]
        },
        {
            "positions": [
                -0.9348640515910094,
                -1.8093563130666632,
                1.4976868386315583,
                -0.13461630602816857,
                1.0917518401450026,
                -1.9607409105230968
            ]
        },
        {
            "positions": [
                -1.0469958907569648,
                -1.7824800713462794,
                1.5504961239471868,
                -0.1771935589429708,
                1.0472794698649641,
                -2.0539595867387828
            ]
        },
        {
            "positions": [
                -1.1591277299229201,
                -1.7556038296258953,
                1.6033054092628156,
                -0.21977081185777303,
                1.0028070995849256,
                -2.1471782629544682
            ]
        },
        {
            "positions": [
                -1.2712595690888753,
                -1.7287275879055113,
                1.6561146945784442,
                -0.2623480647725753,
                0.9583347293048872,
                -2.240396939170154
            ]
        },
        {
            "positions": [
                -1.3833914082548309,
                -1.7018513461851275,
                1.708923979894073,
                -0.3049253176873775,
                0.9138623590248486,
                -2.33361561538584
            ]
        },
        {
            "positions": [
                -1.495523247420786,
                -1.6749751044647434,
                1.7617332652097015,
                -0.34750257060217976,
                0.8693899887448102,
                -2.4268342916015255
            ]
        },
        {
            "positions": [
                -1.6076550865867416,
                -1.6480988627443596,
                1.8145425505253303,
                -0.390079823516982,
                0.8249176184647716,
                -2.5200529678172114
            ]
        },
        {
            "positions": [
                -1.7197869257526968,
                -1.6212226210239755,
                1.8673518358409589,
                -0.43265707643178425,
                0.7804452481847332,
                -2.613271644032897
            ]
        },
        {
            "positions": [
                -1.8319187649186524,
                -1.5943463793035915,
                1.9201611211565877,
                -0.4752343293465865,
                0.7359728779046946,
                -2.706490320248583
            ]
        },
        {
            "positions": [
                -1.9440506040846075,
                -1.5674701375832076,
                1.9729704064722164,
                -0.5178115822613887,
                0.6915005076246561,
                -2.7997089964642683
            ]
        },
        {
            "positions": [
                -2.056182443250563,
                -1.5405938958628236,
                2.025779691787845,
                -0.5603888351761909,
                0.6470281373446176,
                -2.892927672679954
            ]
        },
        {
            "positions": [
                -2.1683142824165182,
                -1.5137176541424395,
                2.0785889771034736,
                -0.6029660880909932,
                0.6025557670645793,
                -2.98614634889564
            ]
        },
        {
            "positions": [
                -2.2804461215824734,
                -1.4868414124220557,
                2.1313982624191024,
                -0.6455433410057955,
                0.5580833967845407,
                -3.0793650251113256
            ]
        },
        {
            "positions": [
                -2.392577960748429,
                -1.4599651707016716,
                2.184207547734731,
                -0.6881205939205977,
                0.5136110265045022,
                -3.1725837013270115
            ]
        },
        {
            "positions": [
                -2.4495102890027676,
                -1.3592719881846285,
                2.1017867764921454,
                -0.746984119025156,
                0.544831025041822,
                -3.130820393442903
            ]
        },
        {
            "positions": [
                -2.5064426172571066,
                -1.2585788056675853,
                2.0193660052495597,
                -0.8058476441297144,
                0.576051023579142,
                -3.089057085558795
            ]
        },
        {
            "positions": [
                -2.4741195308752704,
                -1.163079375996286,
                2.011546112982317,
                -0.8423651957155298,
                0.6670380720565052,
                -3.142072480981373
            ]
        }
    ]
}