{
    "goal": {
        "global_pose": {
            "orientation": {
                "w": 0.7031023502349854,
                "x": -0.7110244035720825,
                "y": 0.007748599164187908,
                "z": 0.005598929710686207
            },
            "position": {
                "x": 0.11585023208521307,
                "y": 0.44412534475326537,
                "z": 0.3711530566215515
            }
        },
        "name": "move_to_auspresseinheit_A"
    },
    "id": "EST_move_to_auspresseinheit_A_130",
    "joint_names": [
        "shoulder_pan_joint",
        "shoulder_lift_joint",
        "elbow_joint",
        "wrist_1_joint",
        "wrist_2_joint",
        "wrist_3_joint"
    ],
    "metrics": {
        "cart_traj_len": 0.7003453779468611,
        "distance_elbow_joint": 0.13433668631225038,
        "distance_shoulder_lift_joint": 0.6693821877427801,
        "distance_shoulder_pan_joint": 1.0455569418914261,
        "distance_wrist_1_joint": 1.1483950348414829,
        "distance_wrist_2_joint": 0.6662656231912267,
        "distance_wrist_3_joint": 0.9521144958041079,
        "smoothness": 1.2024601796228584,
        "time": 0.393121899,
        "traj_len": 2.1484997020672996,
        "weighted_distance": 2.887029722643014
    },
    "planner": "EST",
    "start": {
        "state": {
            "elbow_joint": 2.4225746658250005,
            "shoulder_lift_joint": -1.3736534386056498,
            "shoulder_pan_joint": -0.3378633547517467,
            "wrist_1_joint": -1.0288598680537169,
            "wrist_2_joint": 1.233022673432363,
            "wrist_3_joint": -3.0940220416140027
        }
    },
    "waypoints": [
        {
            "positions": [
                -0.3378633547517467,
                -1.3736534386056498,
                2.4225746658250005,
                -1.0288598680537169,
                1.233022673432363,
                -3.0940220416140027
            ]
        },
        {
            "positions": [
                -0.25604711138144126,
                -1.44047314733959,
                2.413314496434909,
                -0.9331351698698094,
                1.1669891499506742,
                -3.04437288852033
            ]
        },
        {
            "positions": [
                -0.17423086801113577,
                -1.50729285607353,
                2.4040543270448174,
                -0.8374104716859019,
                1.1009556264689853,
                -2.994723735426657
            ]
        },
        {
            "positions": [
                -0.0924146246408303,
                -1.57411256480747,
                2.3947941576547254,
                -0.7416857735019945,
                1.0349221029872964,
                -2.9450745823329845
            ]
        },
        {
            "positions": [
                -0.010598381270524815,
                -1.6409322735414102,
                2.385533988264634,
                -0.645961075318087,
                0.9688885795056076,
                -2.8954254292393116
            ]
        },
        {
            "positions": [
                0.07121786209978065,
                -1.7077519822753504,
                2.3762738188745423,
                -0.5502363771341795,
                0.9028550560239187,
                -2.8457762761456387
            ]
        },
        {
            "positions": [
                0.1530341054700861,
                -1.7745716910092906,
                2.3670136494844507,
                -0.4545116789502721,
                0.8368215325422299,
                -2.7961271230519658
            ]
        },
        {
            "positions": [
                0.23485034884039163,
                -1.8413913997432307,
                2.3577534800943587,
                -0.3587869807663645,
                0.770788009060541,
                -2.746477969958293
            ]
        },
        {
            "positions": [
                0.3166665922106971,
                -1.9082111084771707,
                2.348493310704267,
                -0.2630622825824571,
                0.7047544855788521,
                -2.6968288168646204
            ]
        },
        {
            "positions": [
                0.3984828355810025,
                -1.9750308172111108,
                2.3392331413141756,
                -0.16733758439854957,
                0.6387209620971632,
                -2.6471796637709475
            ]
        },
        {
            "positions": [
                0.47578552347067177,
                -1.958029614926781,
                2.351981931764532,
                -0.2390557721951284,
                0.65671194006117,
                -2.7734976932612105
            ]
        },
        {
            "positions": [
                0.553088211360341,
                -1.9410284126424513,
                2.3647307222148886,
                -0.31077395999170726,
                0.6747029180251767,
                -2.899815722751474
            ]
        },
        {
            "positions": [
                0.6303908992500102,
                -1.9240272103581215,
                2.3774795126652446,
                -0.3824921477882861,
                0.6926938959891834,
                -3.026133752241737
            ]
        },
        {
            "positions": [
                0.7076935871396796,
                -1.9070260080737917,
                2.390228303115601,
                -0.45421033558486495,
                0.7106848739531901,
                -3.152451781732
            ]
        }
    ]
}