{
    "goal": {
        "global_pose": {
            "orientation": {
                "w": 0.7047431493862688,
                "x": -0.7094548369677653,
                "y": 0.0024358444001904,
                "z": -0.0022348060817251984
            },
            "position": {
                "x": -0.39052492380142206,
                "y": 0.3671506643295288,
                "z": 0.19426114857196808
            }
        },
        "name": "move_to_magneteinheit_D"
    },
    "id": "EST_move_to_magneteinheit_D_77",
    "joint_names": [
        "shoulder_pan_joint",
        "shoulder_lift_joint",
        "elbow_joint",
        "wrist_1_joint",
        "wrist_2_joint",
        "wrist_3_joint"
    ],
    "metrics": {
        "cart_traj_len": 3.238677093936528,
        "distance_elbow_joint": 3.1526930372111046,
        "distance_shoulder_lift_joint": 1.9593196338598695,
        "distance_shoulder_pan_joint": 2.87325049225964,
        "distance_wrist_1_joint": 2.729128435179752,
        "distance_wrist_2_joint": 2.4820286045255013,
        "distance_wrist_3_joint": 3.38512335107929,
        "smoothness": 0.18630181227956058,
        "time": 0.14143715099999998,
        "traj_len": 4.0720441493327595,
        "weighted_distance": 5.344431428690894
    },
    "planner": "EST",
    "start": {
        "state": {
            "elbow_joint": 0.749534889911806,
            "shoulder_lift_joint": -0.6476975780787326,
            "shoulder_pan_joint": -2.711696901376241,
            "wrist_1_joint": -0.07506478083263063,
            "wrist_2_joint": 0.43296659715538205,
            "wrist_3_joint": -3.14703540197715
        }
    },
    "waypoints": [
        {
            "positions": [
                -2.711696901376241,
                -0.6476975780787326,
                0.749534889911806,
                -0.07506478083263063,
                0.43296659715538205,
                -3.14703540197715
            ]
        },
        {
            "positions": [
                -2.709903057009351,
                -0.635429950030748,
                0.6960476937462117,
                0.011187593165054036,
                0.3522443486753908,
                -3.018498281141808
            ]
        },
        {
            "positions": [
                -2.7081092126424613,
                -0.6231623219827632,
                0.6425604975806173,
                0.0974399671627387,
                0.2715221001953995,
                -2.8899611603064663
            ]
        },
        {
            "positions": [
                -2.7063153682755714,
                -0.6108946939347786,
                0.589073301415023,
                0.18369234116042332,
                0.1907998517154083,
                -2.761424039471124
            ]
        },
        {
            "positions": [
                -2.7045215239086815,
                -0.5986270658867939,
                0.5355861052494286,
                0.26994471515810803,
                0.11007760323541699,
                -2.632886918635782
            ]
        },
        {
            "positions": [
                -2.7027276795417916,
                -0.5863594378388093,
                0.48209890908383435,
                0.3561970891557927,
                0.029355354755425778,
                -2.5043497978004403
            ]
        },
        {
            "positions": [
                -2.7009338351749017,
                -0.5740918097908245,
                0.42861171291824,
                0.4424494631534773,
                -0.05136689372456543,
                -2.3758126769650985
            ]
        },
        {
            "positions": [
                -2.699139990808012,
                -0.5618241817428399,
                0.37512451675264574,
                0.528701837151162,
                -0.13208914220455664,
                -2.2472755561297566
            ]
        },
        {
            "positions": [
                -2.697346146441122,
                -0.5495565536948552,
                0.32163732058705136,
                0.6149542111488466,
                -0.21281139068454807,
                -2.1187384352944143
            ]
        },
        {
            "positions": [
                -2.695552302074232,
                -0.5372889256468705,
                0.2681501244214571,
                0.7012065851465314,
                -0.2935336391645393,
                -1.9902013144590724
            ]
        },
        {
            "positions": [
                -2.693758457707342,
                -0.5250212975988858,
                0.2146629282558628,
                0.787458959144216,
                -0.37425588764453055,
                -1.8616641936237306
            ]
        },
        {
            "positions": [
                -2.6816455757886937,
                -0.5177898683228569,
                0.1577865571781615,
                0.8257662216897778,
                -0.42738504287063517,
                -1.7675750544178785
            ]
        },
        {
            "positions": [
                -2.63415857809109,
                -0.5132982426082338,
                0.030834116144453916,
                0.8042440926727593,
                -0.4804312424420182,
                -1.642910428531123
            ]
        },
        {
            "positions": [
                -2.586671580393486,
                -0.5088066168936106,
                -0.09611832488925368,
                0.7827219636557409,
                -0.5334774420134012,
                -1.5182458026443673
            ]
        },
        {
            "positions": [
                -2.5391845826958828,
                -0.5043149911789875,
                -0.22307076592296124,
                0.7611998346387224,
                -0.5865236415847841,
                -1.3935811767576114
            ]
        },
        {
            "positions": [
                -2.491697584998279,
                -0.4998233654643644,
                -0.3500232069566689,
                0.7396777056217039,
                -0.6395698411561671,
                -1.2689165508708558
            ]
        },
        {
            "positions": [
                -2.444210587300675,
                -0.49533173974974126,
                -0.4769756479903765,
                0.7181555766046854,
                -0.6926160407275501,
                -1.1442519249841
            ]
        },
        {
            "positions": [
                -2.396723589603072,
                -0.4908401140351182,
                -0.603928089024084,
                0.696633447587667,
                -0.745662240298933,
                -1.0195872990973442
            ]
        },
        {
            "positions": [
                -2.349236591905468,
                -0.48634848832049504,
                -0.7308805300577916,
                0.6751113185706485,
                -0.798708439870316,
                -0.8949226732105886
            ]
        },
        {
            "positions": [
                -2.3017495942078643,
                -0.4818568626058719,
                -0.8578329710914991,
                0.6535891895536301,
                -0.851754639441699,
                -0.770258047323833
            ]
        },
        {
            "positions": [
                -2.1918790601059372,
                -0.5258592688393345,
                -0.9409630990807341,
                0.599660082658797,
                -0.8622681064510005,
                -0.7158307917716558
            ]
        },
        {
            "positions": [
                -2.0820085260040098,
                -0.5698616750727972,
                -1.024093227069969,
                0.5457309757639638,
                -0.8727815734603019,
                -0.6614035362194786
            ]
        },
        {
            "positions": [
                -1.9721379919020827,
                -0.6138640813062597,
                -1.1072233550592039,
                0.4918018688691307,
                -0.8832950404696034,
                -0.6069762806673015
            ]
        },
        {
            "positions": [
                -1.8622674578001557,
                -0.6578664875397223,
                -1.1903534830484386,
                0.43787276197429753,
                -0.8938085074789048,
                -0.5525490251151243
            ]
        },
        {
            "positions": [
                -1.7523969236982284,
                -0.701868893773185,
                -1.2734836110376735,
                0.3839436550794644,
                -0.9043219744882064,
                -0.49812176956294707
            ]
        },
        {
            "positions": [
                -1.6425263895963012,
                -0.7458713000066475,
                -1.3566137390269084,
                0.3300145481846313,
                -0.9148354414975078,
                -0.4436945140107699
            ]
        },
        {
            "positions": [
                -1.532655855494374,
                -0.7898737062401101,
                -1.4397438670161433,
                0.2760854412897981,
                -0.9253489085068093,
                -0.3892672584585928
            ]
        },
        {
            "positions": [
                -1.4227853213924468,
                -0.8338761124735727,
                -1.5228739950053782,
                0.22215633439496493,
                -0.9358623755161107,
                -0.3348400029064156
            ]
        },
        {
            "positions": [
                -1.3000219392174692,
                -0.9186121126757133,
                -1.599459249204773,
                0.2310680618466737,
                -0.9030128088940611,
                -0.29107186836094107
            ]
        },
        {
            "positions": [
                -1.1772585570424914,
                -1.0033481128778539,
                -1.676044503404168,
                0.23997978929838243,
                -0.8701632422720115,
                -0.24730373381546658
            ]
        },
        {
            "positions": [
                -1.0544951748675138,
                -1.0880841130799945,
                -1.7526297576035628,
                0.2488915167500912,
                -0.8373136756499618,
                -0.2035355992699921
            ]
        },
        {
            "positions": [
                -0.9317317926925361,
                -1.172820113282135,
                -1.8292150118029578,
                0.25780324420179995,
                -0.8044641090279122,
                -0.15976746472451758
            ]
        },
        {
            "positions": [
                -0.8089684105175584,
                -1.2575561134842757,
                -1.9058002660023525,
                0.2667149716535087,
                -0.7716145424058627,
                -0.1159993301790431
            ]
        },
        {
            "positions": [
                -0.6862050283425808,
                -1.342292113686416,
                -1.9823855202017473,
                0.2756266991052175,
                -0.7387649757838131,
                -0.07223119563356861
            ]
        },
        {
            "positions": [
                -0.5634416461676031,
                -1.4270281138885568,
                -2.0589707744011423,
                0.2845384265569262,
                -0.7059154091617634,
                -0.0284630610880941
            ]
        },
        {
            "positions": [
                -0.44067826399262533,
                -1.5117641140906972,
                -2.1355560286005373,
                0.29345015400863494,
                -0.6730658425397138,
                0.015305073457380414
            ]
        },
        {
            "positions": [
                -0.3179148818176476,
                -1.596500114292838,
                -2.2121412827999323,
                0.3023618814603437,
                -0.6402162759176642,
                0.05907320800285493
            ]
        },
        {
            "positions": [
                -0.19515149964266998,
                -1.6812361144949786,
                -2.288726536999327,
                0.31127360891205247,
                -0.6073667092956145,
                0.10284134254832938
            ]
        },
        {
            "positions": [
                -0.0723881174676923,
                -1.765972114697119,
                -2.365311791198722,
                0.32018533636376123,
                -0.5745171426735649,
                0.1466094770938039
            ]
        },
        {
            "positions": [
                -0.04249911867607537,
                -1.8158213325923511,
                -2.3819588678858747,
                0.38212385204195787,
                -0.5302278826012332,
                0.15292318437855607
            ]
        },
        {
            "positions": [
                -0.01261011988445844,
                -1.8656705504875832,
                -2.3986059445730277,
                0.4440623677201545,
                -0.48593862252890163,
                0.15923689166330823
            ]
        },
        {
            "positions": [
                -0.0416374050124345,
                -1.9339480889051328,
                -2.3978472441186494,
                0.611192619726378,
                -0.37539264271776834,
                0.1460950487568359
            ]
        },
        {
            "positions": [
                -0.07066469014041056,
                -2.0022256273226824,
                -2.3970885436642706,
                0.7783228717326015,
                -0.26484666290663506,
                0.13295320585036358
            ]
        },
        {
            "positions": [
                -0.09969197526838662,
                -2.0705031657402317,
                -2.3963298432098923,
                0.9454531237388251,
                -0.15430068309550177,
                0.11981136294389125
            ]
        },
        {
            "positions": [
                -0.12871926039636267,
                -2.1387807041577815,
                -2.395571142755514,
                1.1125833757450485,
                -0.04375470328436848,
                0.10666952003741892
            ]
        },
        {
            "positions": [
                -0.15774654552433875,
                -2.2070582425753313,
                -2.394812442301135,
                1.2797136277512722,
                0.06679127652676486,
                0.09352767713094659
            ]
        },
        {
            "positions": [
                -0.1867738306523148,
                -2.2753357809928807,
                -2.394053741846757,
                1.4468438797574956,
                0.1773372563378981,
                0.08038583422447426
            ]
        }
    ]
}