{
    "goal": {
        "global_pose": {
            "orientation": {
                "w": 0.7031023502349854,
                "x": -0.7110244035720825,
                "y": 0.007748599164187908,
                "z": 0.005598929710686207
            },
            "position": {
                "x": 0.11585023208521307,
                "y": 0.44412534475326537,
                "z": 0.3711530566215515
            }
        },
        "name": "move_to_auspresseinheit_A"
    },
    "id": "EST_move_to_auspresseinheit_A_27",
    "joint_names": [
        "shoulder_pan_joint",
        "shoulder_lift_joint",
        "elbow_joint",
        "wrist_1_joint",
        "wrist_2_joint",
        "wrist_3_joint"
    ],
    "metrics": {
        "cart_traj_len": 0.699025268031272,
        "distance_elbow_joint": 0.06794968888565966,
        "distance_shoulder_lift_joint": 0.6037910700062219,
        "distance_shoulder_pan_joint": 1.044856129462942,
        "distance_wrist_1_joint": 0.5531961635158407,
        "distance_wrist_2_joint": 0.5264278932453579,
        "distance_wrist_3_joint": 1.1021054953058043,
        "smoothness": 0.6870637156201961,
        "time": 0.60871191,
        "traj_len": 1.9744180004299563,
        "weighted_distance": 2.679955501084791
    },
    "planner": "EST",
    "start": {
        "state": {
            "elbow_joint": 2.4225746658250005,
            "shoulder_lift_joint": -1.3736534386056498,
            "shoulder_pan_joint": -0.3378633547517467,
            "wrist_1_joint": -1.0288598680537169,
            "wrist_2_joint": 1.233022673432363,
            "wrist_3_joint": -3.0940220416140027
        }
    },
    "waypoints": [
        {
            "positions": [
                -0.3378633547517467,
                -1.3736534386056498,
                2.4225746658250005,
                -1.0288598680537169,
                1.233022673432363,
                -3.0940220416140027
            ]
        },
        {
            "positions": [
                -0.2449501950384139,
                -1.4549471624200179,
                2.425505455383417,
                -1.000726280154116,
                1.1706687158795896,
                -3.0173989050640637
            ]
        },
        {
            "positions": [
                -0.15203703532508106,
                -1.5362408862343861,
                2.4284362449418335,
                -0.9725926922545148,
                1.1083147583268163,
                -2.9407757685141243
            ]
        },
        {
            "positions": [
                -0.059123875611748256,
                -1.6175346100487542,
                2.43136703450025,
                -0.9444591043549139,
                1.0459608007740429,
                -2.8641526319641852
            ]
        },
        {
            "positions": [
                0.033789284101584605,
                -1.6988283338631225,
                2.434297824058666,
                -0.9163255164553129,
                0.9836068432212695,
                -2.787529495414246
            ]
        },
        {
            "positions": [
                0.12670244381491746,
                -1.7801220576774905,
                2.4372286136170827,
                -0.8881919285557118,
                0.921252885668496,
                -2.7109063588643068
            ]
        },
        {
            "positions": [
                0.21961560352825021,
                -1.8614157814918588,
                2.440159403175499,
                -0.8600583406561109,
                0.8588989281157227,
                -2.6342832223143677
            ]
        },
        {
            "positions": [
                0.3125287632415832,
                -1.9427095053062269,
                2.4430901927339157,
                -0.8319247527565099,
                0.7965449705629492,
                -2.5576600857644287
            ]
        },
        {
            "positions": [
                0.41114476610898626,
                -1.9340257544798156,
                2.4312316522397297,
                -0.7428594907018514,
                0.7740574229689632,
                -2.6990959706284863
            ]
        },
        {
            "positions": [
                0.5097607689763893,
                -1.9253420036534044,
                2.4193731117455437,
                -0.653794228647193,
                0.7515698753749771,
                -2.840531855492544
            ]
        },
        {
            "positions": [
                0.6083767718437925,
                -1.9166582528269933,
                2.4075145712513573,
                -0.5647289665925346,
                0.7290823277809911,
                -2.9819677403566014
            ]
        },
        {
            "positions": [
                0.7069927747111955,
                -1.907974502000582,
                2.3956560307571713,
                -0.47566370453787615,
                0.7065947801870052,
                -3.123403625220659
            ]
        }
    ]
}