{
    "goal": {
        "global_pose": {
            "orientation": {
                "w": -0.00223480608172531,
                "x": 0.0024358444001904467,
                "y": 0.7094548369677653,
                "z": -0.704743149386269
            },
            "position": {
                "x": 0.6205249238014221,
                "y": -0.6371506643295288,
                "z": 0.19426114857196808
            }
        },
        "name": "move_to_magneteinheit_B"
    },
    "id": "EST_move_to_magneteinheit_B_121",
    "joint_names": [
        "shoulder_pan_joint",
        "shoulder_lift_joint",
        "elbow_joint",
        "wrist_1_joint",
        "wrist_2_joint",
        "wrist_3_joint"
    ],
    "metrics": {
        "cart_traj_len": 1.5824401426371184,
        "distance_elbow_joint": 0.956969655376601,
        "distance_shoulder_lift_joint": 1.3037180445695697,
        "distance_shoulder_pan_joint": 1.6205493106635949,
        "distance_wrist_1_joint": 1.671771317135876,
        "distance_wrist_2_joint": 1.8912246565350652,
        "distance_wrist_3_joint": 1.2023046814399185,
        "smoothness": 0.6537819187672056,
        "time": 0.08297576000000001,
        "traj_len": 2.940499560571405,
        "weighted_distance": 3.822844883365189
    },
    "planner": "EST",
    "start": {
        "state": {
            "elbow_joint": 2.6216224122426386,
            "shoulder_lift_joint": -1.4174107377796124,
            "shoulder_pan_joint": 0.7066234856936794,
            "wrist_1_joint": 1.9546482284002225,
            "wrist_2_joint": -0.7096286983471962,
            "wrist_3_joint": 0.005740856962016249
        }
    },
    "waypoints": [
        {
            "positions": [
                0.7066234856936794,
                -1.4174107377796124,
                2.6216224122426386,
                1.9546482284002225,
                -0.7096286983471962,
                0.005740856962016249
            ]
        },
        {
            "positions": [
                0.6610475745122094,
                -1.4630014402736355,
                2.615785635547945,
                1.8305922120867746,
                -0.6788963155966166,
                -0.09526819455640913
            ]
        },
        {
            "positions": [
                0.6154716633307394,
                -1.508592142767659,
                2.609948858853252,
                1.7065361957733265,
                -0.6481639328460368,
                -0.1962772460748345
            ]
        },
        {
            "positions": [
                0.5698957521492696,
                -1.5541828452616824,
                2.604112082158558,
                1.5824801794598784,
                -0.617431550095457,
                -0.29728629759325986
            ]
        },
        {
            "positions": [
                0.5243198409677996,
                -1.5997735477557056,
                2.5982753054638645,
                1.4584241631464305,
                -0.5866991673448774,
                -0.39829534911168524
            ]
        },
        {
            "positions": [
                0.4787439297863296,
                -1.6453642502497288,
                2.592438528769171,
                1.3343681468329827,
                -0.5559667845942977,
                -0.49930440063011067
            ]
        },
        {
            "positions": [
                0.43316801860485965,
                -1.6909549527437522,
                2.5866017520744777,
                1.2103121305195346,
                -0.525234401843718,
                -0.600313452148536
            ]
        },
        {
            "positions": [
                0.3539272042769317,
                -1.6303564921787268,
                2.532369458238687,
                1.2648671434168985,
                -0.625636187727929,
                -0.5652399008350439
            ]
        },
        {
            "positions": [
                0.27468638994900374,
                -1.5697580316137016,
                2.4781371644028964,
                1.3194221563142625,
                -0.72603797361214,
                -0.5301663495215517
            ]
        },
        {
            "positions": [
                0.19544557562107576,
                -1.5091595710486763,
                2.423904870567106,
                1.3739771692116265,
                -0.826439759496351,
                -0.49509279820805957
            ]
        },
        {
            "positions": [
                0.11620476129314783,
                -1.448561110483651,
                2.3696725767313156,
                1.4285321821089907,
                -0.9268415453805618,
                -0.4600192468945674
            ]
        },
        {
            "positions": [
                0.036963946965219874,
                -1.3879626499186257,
                2.315440282895525,
                1.4830871950063547,
                -1.0272433312647729,
                -0.42494569558107526
            ]
        },
        {
            "positions": [
                -0.04227686736270814,
                -1.3273641893536006,
                2.2612079890597343,
                1.5376422079037186,
                -1.127645117148984,
                -0.3898721442675831
            ]
        },
        {
            "positions": [
                -0.12151768169063604,
                -1.2667657287885752,
                2.2069756952239437,
                1.5921972208010826,
                -1.2280469030331949,
                -0.354798592954091
            ]
        },
        {
            "positions": [
                -0.200758496018564,
                -1.20616726822355,
                2.152743401388153,
                1.6467522336984466,
                -1.3284486889174059,
                -0.31972504164059884
            ]
        },
        {
            "positions": [
                -0.27999931034649195,
                -1.1455688076585246,
                2.0985111075523624,
                1.7013072465958106,
                -1.4288504748016169,
                -0.2846514903271066
            ]
        },
        {
            "positions": [
                -0.3592401246744199,
                -1.0849703470934995,
                2.0442788137165717,
                1.7558622594931745,
                -1.529252260685828,
                -0.24957793901361447
            ]
        },
        {
            "positions": [
                -0.43848093900234786,
                -1.024371886528474,
                1.990046519880781,
                1.8104172723905387,
                -1.6296540465700389,
                -0.2145043877001223
            ]
        },
        {
            "positions": [
                -0.5177217533302759,
                -0.9637734259634488,
                1.9358142260449904,
                1.8649722852879025,
                -1.73005583245425,
                -0.17943083638663015
            ]
        },
        {
            "positions": [
                -0.5969625676582038,
                -0.9031749653984237,
                1.8815819322092002,
                1.9195272981852667,
                -1.8304576183384609,
                -0.14435728507313805
            ]
        },
        {
            "positions": [
                -0.6762033819861317,
                -0.8425765048333984,
                1.8273496383734096,
                1.9740823110826304,
                -1.9308594042226717,
                -0.1092837337596459
            ]
        },
        {
            "positions": [
                -0.7554441963140597,
                -0.781978044268373,
                1.773117344537619,
                2.0286373239799946,
                -2.031261190106883,
                -0.07421018244615374
            ]
        },
        {
            "positions": [
                -0.8346850106419876,
                -0.7213795837033478,
                1.7188850507018283,
                2.0831923368773584,
                -2.1316629759910937,
                -0.03913663113266164
            ]
        },
        {
            "positions": [
                -0.9139258249699156,
                -0.6607811231383224,
                1.6646527568660376,
                2.1377473497747226,
                -2.232064761875305,
                -0.004063079819169428
            ]
        }
    ]
}