{
    "goal": {
        "global_pose": {
            "orientation": {
                "w": 0.5084816217422485,
                "x": -0.49083608388900757,
                "y": 0.5182115435600281,
                "z": -0.4816462993621826
            },
            "position": {
                "x": 0.5540239810943604,
                "y": 0.030875300988554955,
                "z": 0.16403168439865112
            }
        },
        "name": "move_to_storage_A"
    },
    "id": "EST_move_to_storage_A_7",
    "joint_names": [
        "shoulder_pan_joint",
        "shoulder_lift_joint",
        "elbow_joint",
        "wrist_1_joint",
        "wrist_2_joint",
        "wrist_3_joint"
    ],
    "metrics": {
        "cart_traj_len": 0.3535843983815919,
        "distance_elbow_joint": 0.4481320667040134,
        "distance_shoulder_lift_joint": 0.23339785228077603,
        "distance_shoulder_pan_joint": 0.4632152268905682,
        "distance_wrist_1_joint": 0.23592926397447023,
        "distance_wrist_2_joint": 1.0954591971537428,
        "distance_wrist_3_joint": 0.10343225978948478,
        "smoothness": 1.3322676295501878e-15,
        "time": 0.111709455,
        "traj_len": 1.6061026949709833,
        "weighted_distance": 2.029240953534163
    },
    "planner": "EST",
    "start": {
        "state": {
            "elbow_joint": 1.971548259319323,
            "shoulder_lift_joint": -1.1394851275133948,
            "shoulder_pan_joint": 0.1228115487234821,
            "wrist_1_joint": -0.7804723859257726,
            "wrist_2_joint": 0.12958671773740124,
            "wrist_3_joint": -3.192489227718131
        }
    },
    "waypoints": [
        {
            "positions": [
                0.1228115487234821,
                -1.1394851275133948,
                1.971548259319323,
                -0.7804723859257726,
                0.12958671773740124,
                -3.192489227718131
            ]
        },
        {
            "positions": [
                0.056637944881972366,
                -1.17282767783922,
                2.035567125991325,
                -0.8141765664935541,
                0.2860808887593645,
                -3.1777131906053477
            ]
        },
        {
            "positions": [
                -0.009535658959537369,
                -1.206170228165045,
                2.099585992663327,
                -0.8478807470613355,
                0.4425750597813277,
                -3.162937153492564
            ]
        },
        {
            "positions": [
                -0.07570926280104712,
                -1.2395127784908702,
                2.1636048593353285,
                -0.881584927629117,
                0.599069230803291,
                -3.1481611163797805
            ]
        },
        {
            "positions": [
                -0.14188286664255684,
                -1.2728553288166955,
                2.2276237260073306,
                -0.9152891081968985,
                0.7555634018252543,
                -3.133385079266997
            ]
        },
        {
            "positions": [
                -0.2080564704840666,
                -1.3061978791425206,
                2.2916425926793327,
                -0.9489932887646799,
                0.9120575728472176,
                -3.1186090421542136
            ]
        },
        {
            "positions": [
                -0.27423007432557633,
                -1.3395404294683457,
                2.3556614593513343,
                -0.9826974693324614,
                1.0685517438691807,
                -3.10383300504143
            ]
        },
        {
            "positions": [
                -0.3404036781670861,
                -1.3728829797941708,
                2.4196803260233364,
                -1.0164016499002428,
                1.2250459148911441,
                -3.0890569679286464
            ]
        }
    ]
}{
    "goal": {
        "global_pose": {
            "orientation": {
                "w": 0.5084816217422485,
                "x": -0.49083608388900757,
                "y": 0.5182115435600281,
                "z": -0.4816462993621826
            },
            "position": {
                "x": 0.5540239810943604,
                "y": 0.030875300988554955,
                "z": 0.16403168439865112
            }
        },
        "name": "move_to_storage_A"
    },
    "id": "EST_move_to_storage_A_7",
    "joint_names": [
        "shoulder_pan_joint",
        "shoulder_lift_joint",
        "elbow_joint",
        "wrist_1_joint",
        "wrist_2_joint",
        "wrist_3_joint"
    ],
    "metrics": {
        "cart_traj_len": 0.3533254262646199,
        "distance_elbow_joint": 0.44851583116071936,
        "distance_shoulder_lift_joint": 0.2323025464047468,
        "distance_shoulder_pan_joint": 0.4578966911383934,
        "distance_wrist_1_joint": 0.24402820669055103,
        "distance_wrist_2_joint": 1.1154952815459844,
        "distance_wrist_3_joint": 0.10039970997264458,
        "smoothness": 0.0,
        "time": 0.022420455,
        "traj_len": 1.612029238851777,
        "weighted_distance": 2.0393531266298304
    },
    "planner": "EST",
    "start": {
        "state": {
            "elbow_joint": 1.97154746011099,
            "shoulder_lift_joint": -1.13948474672311,
            "shoulder_pan_joint": 0.12281154466712228,
            "wrist_1_joint": -0.7804688027058302,
            "wrist_2_joint": 0.12958655903071145,
            "wrist_3_joint": 3.0906928834467795
        }
    },
    "waypoints": [
        {
            "positions": [
                0.12281154466712228,
                -1.13948474672311,
                1.97154746011099,
                -0.7804688027058302,
                0.12958655903071145,
                3.0906928834467795
            ]
        },
        {
            "positions": [
                0.057397731647351805,
                -1.172670824780931,
                2.035621150276807,
                -0.8153299750901947,
                0.28894302782299497,
                3.1050356991571575
            ]
        },
        {
            "positions": [
                -0.008016081372418674,
                -1.2058569028387518,
                2.099694840442624,
                -0.850191147474559,
                0.44829949661527846,
                3.119378514867535
            ]
        },
        {
            "positions": [
                -0.07342989439218915,
                -1.2390429808965728,
                2.163768530608441,
                -0.8850523198589235,
                0.607655965407562,
                3.133721330577913
            ]
        },
        {
            "positions": [
                -0.13884370741195962,
                -1.2722290589543939,
                2.2278422207742583,
                -0.9199134922432879,
                0.7670124341998454,
                3.1480641462882906
            ]
        },
        {
            "positions": [
                -0.20425752043173012,
                -1.305415137012215,
                2.2919159109400753,
                -0.9547746646276524,
                0.9263689029921289,
                3.1624069619986686
            ]
        },
        {
            "positions": [
                -0.26967133345150057,
                -1.3386012150700357,
                2.3559896011058923,
                -0.9896358370120167,
                1.0857253717844124,
                3.176749777709046
            ]
        },
        {
            "positions": [
                -0.3350851464712711,
                -1.3717872931278567,
                2.4200632912717093,
                -1.0244970093963812,
                1.245081840576696,
                3.191092593419424
            ]
        }
    ]
}{
    "goal": {
        "global_pose": {
            "orientation": {
                "w": 0.5084816217422485,
                "x": -0.49083608388900757,
                "y": 0.5182115435600281,
                "z": -0.4816462993621826
            },
            "position": {
                "x": 0.5540239810943604,
                "y": 0.030875300988554955,
                "z": 0.16403168439865112
            }
        },
        "name": "move_to_storage_A"
    },
    "id": "EST_move_to_storage_A_7",
    "joint_names": [
        "shoulder_pan_joint",
        "shoulder_lift_joint",
        "elbow_joint",
        "wrist_1_joint",
        "wrist_2_joint",
        "wrist_3_joint"
    ],
    "metrics": {
        "cart_traj_len": 0.35218686412285843,
        "distance_elbow_joint": 0.44936372350155684,
        "distance_shoulder_lift_joint": 0.2336203412864446,
        "distance_shoulder_pan_joint": 0.46048590374843756,
        "distance_wrist_1_joint": 0.24003840956671985,
        "distance_wrist_2_joint": 1.0970473584732714,
        "distance_wrist_3_joint": 0.08721007378600287,
        "smoothness": 8.881784232165597e-16,
        "time": 0.041585931,
        "traj_len": 1.602424978076176,
        "weighted_distance": 2.0197207049427477
    },
    "planner": "EST",
    "start": {
        "state": {
            "elbow_joint": 1.9715472970024885,
            "shoulder_lift_joint": -1.1394870060712896,
            "shoulder_pan_joint": 0.12281152778156021,
            "wrist_1_joint": -0.780463741449964,
            "wrist_2_joint": 0.12958659822042276,
            "wrist_3_joint": 3.090690232415272
        }
    },
    "waypoints": [
        {
            "positions": [
                0.12281152778156021,
                -1.1394870060712896,
                1.9715472970024885,
                -0.780463741449964,
                0.12958659822042276,
                3.090690232415272
            ]
        },
        {
            "positions": [
                0.05702782724606913,
                -1.1728613405407817,
                2.035742114645568,
                -0.8147549428166383,
                0.2863076494308901,
                3.103148814384701
            ]
        },
        {
            "positions": [
                -0.008755873289421956,
                -1.2062356750102738,
                2.0999369322886476,
                -0.8490461441833125,
                0.44302870064135746,
                3.1156073963541298
            ]
        },
        {
            "positions": [
                -0.07453957382491302,
                -1.239610009479766,
                2.164131749931727,
                -0.8833373455499868,
                0.5997497518518248,
                3.128065978323559
            ]
        },
        {
            "positions": [
                -0.14032327436040412,
                -1.2729843439492579,
                2.2283265675748067,
                -0.9176285469166611,
                0.7564708030622921,
                3.1405245602929877
            ]
        },
        {
            "positions": [
                -0.20610697489589522,
                -1.30635867841875,
                2.2925213852178863,
                -0.9519197482833353,
                0.9131918542727595,
                3.152983142262417
            ]
        },
        {
            "positions": [
                -0.27189067543138623,
                -1.339733012888242,
                2.356716202860966,
                -0.9862109496500095,
                1.0699129054832268,
                3.1654417242318456
            ]
        },
        {
            "positions": [
                -0.3376743759668773,
                -1.3731073473577342,
                2.4209110205040454,
                -1.0205021510166838,
                1.2266339566936941,
                3.1779003062012747
            ]
        }
    ]
}