{
    "goal": {
        "global_pose": {
            "orientation": {
                "w": 0.005598929693374612,
                "x": 0.007748599140229565,
                "y": 0.7110244013736278,
                "z": -0.7031023480610252
            },
            "position": {
                "x": -0.8858502320852131,
                "y": -0.7141253447532654,
                "z": 0.3711530566215515
            }
        },
        "name": "move_to_auspresseinheit_C"
    },
    "id": "EST_move_to_auspresseinheit_C_42",
    "joint_names": [
        "shoulder_pan_joint",
        "shoulder_lift_joint",
        "elbow_joint",
        "wrist_1_joint",
        "wrist_2_joint",
        "wrist_3_joint"
    ],
    "metrics": {
        "cart_traj_len": 0.49285226420326217,
        "distance_elbow_joint": 0.9922400921175698,
        "distance_shoulder_lift_joint": 0.320758324817616,
        "distance_shoulder_pan_joint": 0.2571645939032807,
        "distance_wrist_1_joint": 0.6705111565496269,
        "distance_wrist_2_joint": 1.3037847061332923,
        "distance_wrist_3_joint": 0.04906642120367444,
        "smoothness": 3.2297397080004555e-16,
        "time": 1.496578679,
        "traj_len": 1.8956595935781984,
        "weighted_distance": 2.380326448161119
    },
    "planner": "EST",
    "start": {
        "state": {
            "elbow_joint": 1.7527959577737207,
            "shoulder_lift_joint": -0.9740617694225068,
            "shoulder_pan_joint": -2.967991417825858,
            "wrist_1_joint": -0.759517768980727,
            "wrist_2_joint": 1.7443932448377408,
            "wrist_3_joint": -3.0840537646736568
        }
    },
    "waypoints": [
        {
            "positions": [
                -2.967991417825858,
                -0.9740617694225068,
                1.7527959577737207,
                -0.759517768980727,
                1.7443932448377408,
                -3.0840537646736568
            ]
        },
        {
            "positions": [
                -2.94227495843553,
                -0.9419859369407452,
                1.6535719485619638,
                -0.6924666533257643,
                1.6140147742244115,
                -3.0889604067940244
            ]
        },
        {
            "positions": [
                -2.916558499045202,
                -0.9099101044589836,
                1.5543479393502067,
                -0.6254155376708016,
                1.4836363036110822,
                -3.0938670489143916
            ]
        },
        {
            "positions": [
                -2.8908420396548737,
                -0.877834271977222,
                1.4551239301384498,
                -0.5583644220158389,
                1.3532578329977532,
                -3.098773691034759
            ]
        },
        {
            "positions": [
                -2.8651255802645457,
                -0.8457584394954604,
                1.3558999209266926,
                -0.4913133063608762,
                1.2228793623844239,
                -3.1036803331551264
            ]
        },
        {
            "positions": [
                -2.8394091208742176,
                -0.8136826070136988,
                1.2566759117149358,
                -0.42426219070591353,
                1.0925008917710946,
                -3.108586975275494
            ]
        },
        {
            "positions": [
                -2.8136926614838895,
                -0.7816067745319372,
                1.1574519025031789,
                -0.35721107505095084,
                0.9621224211577655,
                -3.1134936173958616
            ]
        },
        {
            "positions": [
                -2.7879762020935615,
                -0.7495309420501756,
                1.0582278932914218,
                -0.2901599593959882,
                0.8317439505444363,
                -3.118400259516229
            ]
        },
        {
            "positions": [
                -2.7622597427032334,
                -0.717455109568414,
                0.9590038840796647,
                -0.22310884374102546,
                0.7013654799311069,
                -3.1233069016365964
            ]
        },
        {
            "positions": [
                -2.7365432833129053,
                -0.6853792770866524,
                0.8597798748679079,
                -0.15605772808606277,
                0.5709870093177778,
                -3.1282135437569636
            ]
        },
        {
            "positions": [
                -2.7108268239225772,
                -0.6533034446048908,
                0.7605558656561509,
                -0.08900661243110004,
                0.44060853870444844,
                -3.133120185877331
            ]
        }
    ]
}