{
    "goal": {
        "global_pose": {
            "orientation": {
                "w": -0.00223480608172531,
                "x": 0.0024358444001904467,
                "y": 0.7094548369677653,
                "z": -0.704743149386269
            },
            "position": {
                "x": 0.6205249238014221,
                "y": -0.6371506643295288,
                "z": 0.19426114857196808
            }
        },
        "name": "move_to_magneteinheit_B"
    },
    "id": "EST_move_to_magneteinheit_B_32",
    "joint_names": [
        "shoulder_pan_joint",
        "shoulder_lift_joint",
        "elbow_joint",
        "wrist_1_joint",
        "wrist_2_joint",
        "wrist_3_joint"
    ],
    "metrics": {
        "cart_traj_len": 1.4163436784756986,
        "distance_elbow_joint": 1.514373477623164,
        "distance_shoulder_lift_joint": 0.7560876980424106,
        "distance_shoulder_pan_joint": 1.620456708880652,
        "distance_wrist_1_joint": 0.21690184256491918,
        "distance_wrist_2_joint": 2.4474179838207073,
        "distance_wrist_3_joint": 0.9567424051158031,
        "smoothness": 0.9715642541890666,
        "time": 0.340239745,
        "traj_len": 2.74079917470209,
        "weighted_distance": 3.4770367775830167
    },
    "planner": "EST",
    "start": {
        "state": {
            "elbow_joint": 2.6216224122426386,
            "shoulder_lift_joint": -1.4174107377796124,
            "shoulder_pan_joint": 0.7066234856936794,
            "wrist_1_joint": 1.9546482284002225,
            "wrist_2_joint": -0.7096286983471962,
            "wrist_3_joint": 0.005740856962016249
        }
    },
    "waypoints": [
        {
            "positions": [
                0.7066234856936794,
                -1.4174107377796124,
                2.6216224122426386,
                1.9546482284002225,
                -0.7096286983471962,
                0.005740856962016249
            ]
        },
        {
            "positions": [
                0.6290771881418198,
                -1.4165935000319858,
                2.578255323555158,
                1.9600972459104995,
                -0.7152046768856541,
                -0.07178578669473128
            ]
        },
        {
            "positions": [
                0.5515308905899603,
                -1.4157762622843593,
                2.534888234867678,
                1.9655462634207765,
                -0.7207806554241121,
                -0.1493124303514788
            ]
        },
        {
            "positions": [
                0.43686936707974067,
                -1.3857079654775901,
                2.581280425840019,
                1.9974754868911468,
                -0.6437266890859543,
                -0.2036180829668004
            ]
        },
        {
            "positions": [
                0.322207843569521,
                -1.3556396686708212,
                2.6276726168123603,
                2.029404710361517,
                -0.5666727227477967,
                -0.257923735582122
            ]
        },
        {
            "positions": [
                0.2075463200593013,
                -1.325571371864052,
                2.674064807784702,
                2.0613339338318877,
                -0.4896187564096389,
                -0.3122293881974436
            ]
        },
        {
            "positions": [
                0.09288479654908166,
                -1.295503075057283,
                2.720456998757043,
                2.093263157302258,
                -0.4125647900714812,
                -0.3665350408127652
            ]
        },
        {
            "positions": [
                -0.021776726961138082,
                -1.265434778250514,
                2.766849189729384,
                2.1251923807726283,
                -0.33551082373332347,
                -0.42084069342808683
            ]
        },
        {
            "positions": [
                -0.13643825047135774,
                -1.2353664814437448,
                2.8132413807017254,
                2.157121604242999,
                -0.2584568573951658,
                -0.47514634604340844
            ]
        },
        {
            "positions": [
                -0.1962378637571743,
                -1.1912092936201646,
                2.724834753439098,
                2.1560117221874493,
                -0.41029856729630776,
                -0.43854209972722547
            ]
        },
        {
            "positions": [
                -0.25603747704299085,
                -1.1470521057965843,
                2.6364281261764706,
                2.1549018401319,
                -0.5621402771974497,
                -0.4019378534110425
            ]
        },
        {
            "positions": [
                -0.31583709032880747,
                -1.102894917973004,
                2.5480214989138434,
                2.1537919580763503,
                -0.7139819870985917,
                -0.3653336070948595
            ]
        },
        {
            "positions": [
                -0.375636703614624,
                -1.0587377301494239,
                2.459614871651216,
                2.152682076020801,
                -0.8658236969997336,
                -0.3287293607786766
            ]
        },
        {
            "positions": [
                -0.4354363169004406,
                -1.0145805423258436,
                2.3712082443885887,
                2.1515721939652517,
                -1.0176654069008757,
                -0.2921251144624936
            ]
        },
        {
            "positions": [
                -0.4952359301862571,
                -0.9704233545022634,
                2.282801617125961,
                2.150462311909702,
                -1.1695071168020177,
                -0.25552086814631064
            ]
        },
        {
            "positions": [
                -0.5550355434720736,
                -0.9262661666786831,
                2.194394989863334,
                2.1493524298541526,
                -1.3213488267031595,
                -0.21891662183012772
            ]
        },
        {
            "positions": [
                -0.6148351567578902,
                -0.8821089788551029,
                2.1059883626007063,
                2.148242547798603,
                -1.4731905366043014,
                -0.18231237551394475
            ]
        },
        {
            "positions": [
                -0.6746347700437068,
                -0.8379517910315227,
                2.017581735338079,
                2.1471326657430536,
                -1.6250322465054432,
                -0.14570812919776177
            ]
        },
        {
            "positions": [
                -0.7344343833295234,
                -0.7937946032079424,
                1.9291751080754516,
                2.1460227836875045,
                -1.7768739564065854,
                -0.1091038828815788
            ]
        },
        {
            "positions": [
                -0.7942339966153399,
                -0.7496374153843622,
                1.8407684808128244,
                2.144912901631955,
                -1.9287156663077272,
                -0.07249963656539588
            ]
        },
        {
            "positions": [
                -0.8540336099011565,
                -0.705480227560782,
                1.752361853550197,
                2.1438030195764055,
                -2.080557376208869,
                -0.035895390249212844
            ]
        },
        {
            "positions": [
                -0.913833223186973,
                -0.6613230397372017,
                1.6639552262875696,
                2.142693137520856,
                -2.232399086110011,
                0.00070885606697007
            ]
        }
    ]
}