{
    "goal": {
        "global_pose": {
            "orientation": {
                "w": 0.5084816262002911,
                "x": -0.4908360881923452,
                "y": 0.5182115481033761,
                "z": -0.48164630358495003
            },
            "position": {
                "x": 0.5540239810943604,
                "y": -0.46912469901144505,
                "z": 0.16403168439865112
            }
        },
        "name": "move_to_storage_B"
    },
    "id": "EST_move_to_storage_B_104",
    "joint_names": [
        "shoulder_pan_joint",
        "shoulder_lift_joint",
        "elbow_joint",
        "wrist_1_joint",
        "wrist_2_joint",
        "wrist_3_joint"
    ],
    "metrics": {
        "cart_traj_len": 3.358318155273104,
        "distance_elbow_joint": 2.094128334857716,
        "distance_shoulder_lift_joint": 1.4127507103376584,
        "distance_shoulder_pan_joint": 2.6760471707937654,
        "distance_wrist_1_joint": 2.9964782691127922,
        "distance_wrist_2_joint": 2.7165472240229764,
        "distance_wrist_3_joint": 5.768000282988128,
        "smoothness": 0.3654825105002796,
        "time": 0.11139854399999999,
        "traj_len": 4.20285046035581,
        "weighted_distance": 5.908720508809421
    },
    "planner": "EST",
    "start": {
        "state": {
            "elbow_joint": 1.664937868594044,
            "shoulder_lift_joint": -0.661644460510453,
            "shoulder_pan_joint": -0.9139846352900073,
            "wrist_1_joint": 2.146753192139373,
            "wrist_2_joint": -2.2341966793290973,
            "wrist_3_joint": 0.005466555786416001
        }
    },
    "waypoints": [
        {
            "positions": [
                -0.9139846352900073,
                -0.661644460510453,
                1.664937868594044,
                2.146753192139373,
                -2.2341966793290973,
                0.005466555786416001
            ]
        },
        {
            "positions": [
                -0.8307772550598109,
                -0.7240995938518846,
                1.6069416463958683,
                2.114127913754452,
                -2.1729992295934086,
                0.0930302116063146
            ]
        },
        {
            "positions": [
                -0.7475698748296146,
                -0.7865547271933162,
                1.5489454241976925,
                2.0815026353695307,
                -2.11180177985772,
                0.1805938674262132
            ]
        },
        {
            "positions": [
                -0.6643624945994182,
                -0.8490098605347478,
                1.490949201999517,
                2.048877356984609,
                -2.050604330122031,
                0.2681575232461118
            ]
        },
        {
            "positions": [
                -0.5811551143692218,
                -0.9114649938761794,
                1.4329529798013412,
                2.016252078599688,
                -1.9894068803863423,
                0.3557211790660104
            ]
        },
        {
            "positions": [
                -0.4979477341390255,
                -0.9739201272176109,
                1.3749567576031656,
                1.9836268002147666,
                -1.9282094306506536,
                0.443284834885909
            ]
        },
        {
            "positions": [
                -0.4147403539088291,
                -1.0363752605590426,
                1.3169605354049898,
                1.9510015218298453,
                -1.867011980914965,
                0.5308484907058075
            ]
        },
        {
            "positions": [
                -0.33153297367863266,
                -1.098830393900474,
                1.2589643132068142,
                1.9183762434449239,
                -1.8058145311792762,
                0.6184121465257061
            ]
        },
        {
            "positions": [
                -0.2483255934484364,
                -1.1612855272419056,
                1.2009680910086384,
                1.8857509650600026,
                -1.7446170814435875,
                0.7059758023456048
            ]
        },
        {
            "positions": [
                -0.16511821321824005,
                -1.2237406605833372,
                1.1429718688104629,
                1.8531256866750812,
                -1.6834196317078987,
                0.7935394581655033
            ]
        },
        {
            "positions": [
                -0.08191083298804369,
                -1.2861957939247688,
                1.0849756466122873,
                1.82050040829016,
                -1.62222218197221,
                0.8811031139854019
            ]
        },
        {
            "positions": [
                0.001296547242152668,
                -1.3486509272662004,
                1.0269794244141117,
                1.7878751299052387,
                -1.5610247322365214,
                0.9686667698053004
            ]
        },
        {
            "positions": [
                0.08450392747234914,
                -1.411106060607632,
                0.9689832022159358,
                1.7552498515203172,
                -1.4998272825008325,
                1.056230425625199
            ]
        },
        {
            "positions": [
                0.1677113077025455,
                -1.4735611939490636,
                0.9109869800177602,
                1.722624573135396,
                -1.4386298327651437,
                1.1437940814450978
            ]
        },
        {
            "positions": [
                0.25091868793274197,
                -1.5360163272904952,
                0.8529907578195846,
                1.6899992947504745,
                -1.377432383029455,
                1.2313577372649962
            ]
        },
        {
            "positions": [
                0.3341260681629382,
                -1.5984714606319268,
                0.7949945356214089,
                1.6573740163655533,
                -1.3162349332937664,
                1.3189213930848949
            ]
        },
        {
            "positions": [
                0.28806360147452464,
                -1.5831190828830177,
                0.8344843743918954,
                1.576499852064296,
                -1.258216046907068,
                1.1752263787078094
            ]
        },
        {
            "positions": [
                0.24200113478611107,
                -1.5677667051341084,
                0.8739742131623819,
                1.495625687763039,
                -1.2001971605203698,
                1.031531364330724
            ]
        },
        {
            "positions": [
                0.19593866809769747,
                -1.5524143273851994,
                0.9134640519328684,
                1.4147515234617818,
                -1.1421782741336717,
                0.8878363499536384
            ]
        },
        {
            "positions": [
                0.1498762014092839,
                -1.53706194963629,
                0.9529538907033548,
                1.3338773591605246,
                -1.0841593877469733,
                0.7441413355765529
            ]
        },
        {
            "positions": [
                0.10381373472087033,
                -1.521709571887381,
                0.9924437294738413,
                1.2530031948592675,
                -1.026140501360275,
                0.6004463211994675
            ]
        },
        {
            "positions": [
                0.057751268032456726,
                -1.5063571941384717,
                1.0319335682443278,
                1.1721290305580103,
                -0.9681216149735767,
                0.45675130682238196
            ]
        },
        {
            "positions": [
                0.011688801344043154,
                -1.4910048163895626,
                1.0714234070148143,
                1.0912548662567532,
                -0.9101027285868785,
                0.3130562924452964
            ]
        },
        {
            "positions": [
                -0.03437366534437042,
                -1.4756524386406533,
                1.1109132457853008,
                1.010380701955496,
                -0.8520838422001802,
                0.169361278068211
            ]
        },
        {
            "positions": [
                -0.08043613203278405,
                -1.4603000608917442,
                1.1504030845557873,
                0.9295065376542386,
                -0.7940649558134818,
                0.025666263691125346
            ]
        },
        {
            "positions": [
                -0.12649859872119756,
                -1.444947683142835,
                1.1898929233262738,
                0.8486323733529816,
                -0.7360460694267836,
                -0.11802875068595986
            ]
        },
        {
            "positions": [
                -0.17256106540961125,
                -1.4295953053939259,
                1.2293827620967603,
                0.7677582090517243,
                -0.6780271830400852,
                -0.2617237650630455
            ]
        },
        {
            "positions": [
                -0.21862353209802476,
                -1.4142429276450166,
                1.2688726008672468,
                0.6868840447504673,
                -0.6200082966533871,
                -0.40541877944013094
            ]
        },
        {
            "positions": [
                -0.2646859987864384,
                -1.3988905498961075,
                1.3083624396377334,
                0.60600988044921,
                -0.5619894102666887,
                -0.5491137938172166
            ]
        },
        {
            "positions": [
                -0.3107484654748519,
                -1.3835381721471982,
                1.3478522784082196,
                0.5251357161479528,
                -0.5039705238799905,
                -0.692808808194302
            ]
        },
        {
            "positions": [
                -0.35681093216326554,
                -1.3681857943982891,
                1.3873421171787061,
                0.4442615518466957,
                -0.44595163749329214,
                -0.8365038225713874
            ]
        },
        {
            "positions": [
                -0.40287339885167905,
                -1.3528334166493798,
                1.4268319559491927,
                0.36338738754543853,
                -0.387932751106594,
                -0.9801988369484729
            ]
        },
        {
            "positions": [
                -0.44893586554009257,
                -1.3374810389004708,
                1.4663217947196792,
                0.2825132232441814,
                -0.3299138647198957,
                -1.1238938513255583
            ]
        },
        {
            "positions": [
                -0.4949983322285063,
                -1.3221286611515615,
                1.5058116334901657,
                0.201639058942924,
                -0.2718949783331972,
                -1.2675888657026442
            ]
        },
        {
            "positions": [
                -0.5410607989169198,
                -1.3067762834026524,
                1.5453014722606522,
                0.12076489464166706,
                -0.21387609194649904,
                -1.4112838800797296
            ]
        },
        {
            "positions": [
                -0.5871232656053333,
                -1.291423905653743,
                1.5847913110311387,
                0.03989073034040991,
                -0.15585720555980087,
                -1.5549788944568146
            ]
        },
        {
            "positions": [
                -0.633185732293747,
                -1.276071527904834,
                1.6242811498016252,
                -0.04098343396084725,
                -0.0978383191731027,
                -1.6986739088339
            ]
        },
        {
            "positions": [
                -0.6792481989821607,
                -1.2607191501559247,
                1.6637709885721117,
                -0.12185759826210463,
                -0.039819432786404096,
                -1.8423689232109859
            ]
        },
        {
            "positions": [
                -0.7253106656705742,
                -1.2453667724070157,
                1.7032608273425982,
                -0.20273176256336178,
                0.01819945360029407,
                -1.9860639375880713
            ]
        },
        {
            "positions": [
                -0.7713731323589877,
                -1.2300143946581064,
                1.7427506661130847,
                -0.2836059268646187,
                0.07621833998699223,
                -2.1297589519651567
            ]
        },
        {
            "positions": [
                -0.8174355990474013,
                -1.2146620169091973,
                1.7822405048835712,
                -0.3644800911658761,
                0.1342372263736904,
                -2.273453966342242
            ]
        },
        {
            "positions": [
                -0.863498065735815,
                -1.199309639160288,
                1.8217303436540577,
                -0.44535425546713325,
                0.192256112760389,
                -2.417148980719328
            ]
        },
        {
            "positions": [
                -0.9095605324242285,
                -1.183957261411379,
                1.8612201824245442,
                -0.5262284197683904,
                0.2502749991470872,
                -2.5608439950964135
            ]
        },
        {
            "positions": [
                -0.955622999112642,
                -1.1686048836624696,
                1.9007100211950307,
                -0.6071025840696476,
                0.30829388553378534,
                -2.704539009473499
            ]
        },
        {
            "positions": [
                -1.0016854658010557,
                -1.1532525059135605,
                1.9401998599655172,
                -0.6879767483709047,
                0.3663127719204837,
                -2.8482340238505843
            ]
        },
        {
            "positions": [
                -1.0477479324894694,
                -1.1379001281646515,
                1.9796896987360038,
                -0.7688509126721619,
                0.4243316583071821,
                -2.9919290382276698
            ]
        },
        {
            "positions": [
                -1.093810399177883,
                -1.1225477504157422,
                2.0191795375064903,
                -0.8497250769734193,
                0.4823505446938802,
                -3.1356240526047547
            ]
        }
    ]
}