{
    "goal": {
        "global_pose": {
            "orientation": {
                "w": 0.7031023480610252,
                "x": -0.7110244013736278,
                "y": 0.0077485991402295624,
                "z": 0.005598929693374583
            },
            "position": {
                "x": -0.8841497679147869,
                "y": 0.44412534475326537,
                "z": 0.3711530566215515
            }
        },
        "name": "move_to_auspresseinheit_D"
    },
    "id": "EST_move_to_auspresseinheit_D_134",
    "joint_names": [
        "shoulder_pan_joint",
        "shoulder_lift_joint",
        "elbow_joint",
        "wrist_1_joint",
        "wrist_2_joint",
        "wrist_3_joint"
    ],
    "metrics": {
        "cart_traj_len": 0.34506724038518427,
        "distance_elbow_joint": 0.6644194067712681,
        "distance_shoulder_lift_joint": 0.13500365479735388,
        "distance_shoulder_pan_joint": 0.13465951876954207,
        "distance_wrist_1_joint": 0.6245761502717677,
        "distance_wrist_2_joint": 1.4299722872738774,
        "distance_wrist_3_joint": 0.08108313457677108,
        "smoothness": 0.0,
        "time": 0.098546206,
        "traj_len": 1.7520599739907823,
        "weighted_distance": 2.299223533969624
    },
    "planner": "EST",
    "start": {
        "state": {
            "elbow_joint": -1.8275523626775212,
            "shoulder_lift_joint": -2.126789852344167,
            "shoulder_pan_joint": -0.03513704404078235,
            "wrist_1_joint": -2.347782403156801,
            "wrist_2_joint": -1.6058999987535132,
            "wrist_3_joint": -3.0880379163319196
        }
    },
    "waypoints": [
        {
            "positions": [
                -0.03513704404078235,
                -2.126789852344167,
                -1.8275523626775212,
                -2.347782403156801,
                -1.6058999987535132,
                -3.0880379163319196
            ]
        },
        {
            "positions": [
                -0.05196948388697511,
                -2.1436653091938362,
                -1.7444999368311127,
                -2.425854421940772,
                -1.4271534628442786,
                -3.077902524509823
            ]
        },
        {
            "positions": [
                -0.06880192373316787,
                -2.160540766043505,
                -1.6614475109847042,
                -2.503926440724743,
                -1.248406926935044,
                -3.067767132687727
            ]
        },
        {
            "positions": [
                -0.08563436357936063,
                -2.1774162228931746,
                -1.5783950851382957,
                -2.5819984595087138,
                -1.0696603910258091,
                -3.0576317408656304
            ]
        },
        {
            "positions": [
                -0.1024668034255534,
                -2.194291679742844,
                -1.4953426592918873,
                -2.6600704782926847,
                -0.8909138551165745,
                -3.0474963490435343
            ]
        },
        {
            "positions": [
                -0.11929924327174615,
                -2.211167136592513,
                -1.4122902334454785,
                -2.7381424970766557,
                -0.7121673192073399,
                -3.0373609572214377
            ]
        },
        {
            "positions": [
                -0.1361316831179389,
                -2.2280425934421824,
                -1.32923780759907,
                -2.8162145158606267,
                -0.533420783298105,
                -3.027225565399341
            ]
        },
        {
            "positions": [
                -0.15296412296413167,
                -2.2449180502918513,
                -1.2461853817526616,
                -2.8942865346445976,
                -0.35467424738887043,
                -3.017090173577245
            ]
        },
        {
            "positions": [
                -0.16979656281032443,
                -2.2617935071415207,
                -1.163132955906253,
                -2.9723585534285686,
                -0.1759277114796358,
                -3.0069547817551485
            ]
        }
    ]
}