{
    "goal": {
        "global_pose": {
            "orientation": {
                "w": -0.4816463035849501,
                "x": 0.5182115481033762,
                "y": 0.4908360881923453,
                "z": -0.5084816262002911
            },
            "position": {
                "x": -0.8240239810943604,
                "y": -0.300875300988555,
                "z": 0.16403168439865112
            }
        },
        "name": "move_to_storage_C"
    },
    "id": "EST_move_to_storage_C_69",
    "joint_names": [
        "shoulder_pan_joint",
        "shoulder_lift_joint",
        "elbow_joint",
        "wrist_1_joint",
        "wrist_2_joint",
        "wrist_3_joint"
    ],
    "metrics": {
        "cart_traj_len": 0.5766898213449966,
        "distance_elbow_joint": 0.25474221917231166,
        "distance_shoulder_lift_joint": 0.18883445261407694,
        "distance_shoulder_pan_joint": 0.4949625237270676,
        "distance_wrist_1_joint": 0.06618632457063656,
        "distance_wrist_2_joint": 1.0681100480802694,
        "distance_wrist_3_joint": 0.06719865508622025,
        "smoothness": 5.075305295617109e-16,
        "time": 0.019909421,
        "traj_len": 1.4628855810522512,
        "weighted_distance": 1.846274060391341
    },
    "planner": "EST",
    "start": {
        "state": {
            "elbow_joint": 2.010868314990456,
            "shoulder_lift_joint": -1.1634956873337592,
            "shoulder_pan_joint": -2.4736205022346125,
            "wrist_1_joint": -0.8367026794202681,
            "wrist_2_joint": 0.6746043897044499,
            "wrist_3_joint": -3.1496632123970403
        }
    },
    "waypoints": [
        {
            "positions": [
                -2.4736205022346125,
                -1.1634956873337592,
                2.010868314990456,
                -0.8367026794202681,
                0.6746043897044499,
                -3.1496632123970403
            ]
        },
        {
            "positions": [
                -2.5561142561891237,
                -1.1320232785647464,
                1.9684112784617371,
                -0.825671625325162,
                0.8526227310511615,
                -3.138463436549337
            ]
        },
        {
            "positions": [
                -2.638608010143635,
                -1.1005508697957336,
                1.9259542419330187,
                -0.814640571230056,
                1.0306410723978732,
                -3.1272636607016335
            ]
        },
        {
            "positions": [
                -2.7211017640981465,
                -1.0690784610267208,
                1.8834972054043,
                -0.8036095171349498,
                1.2086594137445847,
                -3.11606388485393
            ]
        },
        {
            "positions": [
                -2.8035955180526577,
                -1.037606052257708,
                1.8410401688755813,
                -0.7925784630398437,
                1.3866777550912963,
                -3.104864109006227
            ]
        },
        {
            "positions": [
                -2.886089272007169,
                -1.006133643488695,
                1.7985831323468628,
                -0.7815474089447376,
                1.5646960964380079,
                -3.0936643331585234
            ]
        },
        {
            "positions": [
                -2.96858302596168,
                -0.9746612347196822,
                1.7561260958181442,
                -0.7705163548496315,
                1.7427144377847195,
                -3.08246455731082
            ]
        }
    ]
}