{
    "goal": {
        "global_pose": {
            "orientation": {
                "w": 0.7031023480610252,
                "x": -0.7110244013736278,
                "y": 0.0077485991402295624,
                "z": 0.005598929693374583
            },
            "position": {
                "x": -0.8841497679147869,
                "y": 0.44412534475326537,
                "z": 0.3711530566215515
            }
        },
        "name": "move_to_auspresseinheit_D"
    },
    "id": "EST_move_to_auspresseinheit_D_135",
    "joint_names": [
        "shoulder_pan_joint",
        "shoulder_lift_joint",
        "elbow_joint",
        "wrist_1_joint",
        "wrist_2_joint",
        "wrist_3_joint"
    ],
    "metrics": {
        "cart_traj_len": 0.34518155203352374,
        "distance_elbow_joint": 0.6670662623683208,
        "distance_shoulder_lift_joint": 0.13696851116693498,
        "distance_shoulder_pan_joint": 0.13392246644492997,
        "distance_wrist_1_joint": 0.6120135523093668,
        "distance_wrist_2_joint": 1.4460507320914109,
        "distance_wrist_3_joint": 0.06401172763510132,
        "smoothness": 3.947459674368863e-16,
        "time": 0.069021362,
        "traj_len": 1.7492950728839503,
        "weighted_distance": 2.2904412220546164
    },
    "planner": "EST",
    "start": {
        "state": {
            "elbow_joint": -1.8275523626775212,
            "shoulder_lift_joint": -2.126789852344167,
            "shoulder_pan_joint": -0.03513704404078235,
            "wrist_1_joint": -2.347782403156801,
            "wrist_2_joint": -1.6058999987535132,
            "wrist_3_joint": -3.0880379163319196
        }
    },
    "waypoints": [
        {
            "positions": [
                -0.03513704404078235,
                -2.126789852344167,
                -1.8275523626775212,
                -2.347782403156801,
                -1.6058999987535132,
                -3.0880379163319196
            ]
        },
        {
            "positions": [
                -0.05187735234639859,
                -2.1439109162400336,
                -1.744169079881481,
                -2.4242840971954718,
                -1.4251436572420868,
                -3.080036450377532
            ]
        },
        {
            "positions": [
                -0.06861766065201484,
                -2.161031980135901,
                -1.660785797085441,
                -2.5007857912341427,
                -1.2443873157306604,
                -3.0720349844231443
            ]
        },
        {
            "positions": [
                -0.08535796895763109,
                -2.1781530440317676,
                -1.577402514289401,
                -2.5772874852728136,
                -1.063630974219234,
                -3.0640335184687566
            ]
        },
        {
            "positions": [
                -0.10209827726324733,
                -2.1952741079276343,
                -1.4940192314933607,
                -2.6537891793114845,
                -0.8828746327078077,
                -3.056032052514369
            ]
        },
        {
            "positions": [
                -0.11883858556886359,
                -2.212395171823501,
                -1.4106359486973208,
                -2.730290873350155,
                -0.7021182911963814,
                -3.0480305865599813
            ]
        },
        {
            "positions": [
                -0.13557889387447983,
                -2.229516235719368,
                -1.3272526659012807,
                -2.806792567388826,
                -0.5213619496849551,
                -3.0400291206055936
            ]
        },
        {
            "positions": [
                -0.15231920218009606,
                -2.246637299615235,
                -1.2438693831052405,
                -2.883294261427497,
                -0.3406056081735287,
                -3.032027654651206
            ]
        },
        {
            "positions": [
                -0.16905951048571233,
                -2.263758363511102,
                -1.1604861003092004,
                -2.9597959554661677,
                -0.1598492666621023,
                -3.0240261886968183
            ]
        }
    ]
}