{
    "goal": {
        "global_pose": {
            "orientation": {
                "w": 0.005598929693374612,
                "x": 0.007748599140229565,
                "y": 0.7110244013736278,
                "z": -0.7031023480610252
            },
            "position": {
                "x": 0.1141497679147869,
                "y": -0.7141253447532654,
                "z": 0.3711530566215515
            }
        },
        "name": "move_to_auspresseinheit_B"
    },
    "id": "EST_move_to_auspresseinheit_B_47",
    "joint_names": [
        "shoulder_pan_joint",
        "shoulder_lift_joint",
        "elbow_joint",
        "wrist_1_joint",
        "wrist_2_joint",
        "wrist_3_joint"
    ],
    "metrics": {
        "cart_traj_len": 0.565371817496279,
        "distance_elbow_joint": 0.06473922534461396,
        "distance_shoulder_lift_joint": 0.29533188429200075,
        "distance_shoulder_pan_joint": 0.577794969191533,
        "distance_wrist_1_joint": 0.3366057634748254,
        "distance_wrist_2_joint": 0.9947888153532027,
        "distance_wrist_3_joint": 0.006596698730883865,
        "smoothness": 0.0,
        "time": 0.43498007299999997,
        "traj_len": 1.5085944970027763,
        "weighted_distance": 1.9027467862742156
    },
    "planner": "EST",
    "start": {
        "state": {
            "elbow_joint": 2.0193083361928714,
            "shoulder_lift_joint": -1.1220246554650708,
            "shoulder_pan_joint": -1.0952077554168747,
            "wrist_1_joint": -0.8559753972642168,
            "wrist_2_joint": 0.4759566250798843,
            "wrist_3_joint": -3.1240929996934557
        }
    },
    "waypoints": [
        {
            "positions": [
                -1.0952077554168747,
                -1.1220246554650708,
                2.0193083361928714,
                -0.8559753972642168,
                0.4759566250798843,
                -3.1240929996934557
            ]
        },
        {
            "positions": [
                -1.1915069169487968,
                -1.1712466361804044,
                2.008518465302102,
                -0.7998744366850792,
                0.6417547609720847,
                -3.122993549904975
            ]
        },
        {
            "positions": [
                -1.287806078480719,
                -1.2204686168957377,
                1.9977285944113334,
                -0.7437734761059417,
                0.8075528968642851,
                -3.1218941001164944
            ]
        },
        {
            "positions": [
                -1.3841052400126412,
                -1.269690597611071,
                1.9869387235205644,
                -0.6876725155268041,
                0.9733510327564856,
                -3.1207946503280137
            ]
        },
        {
            "positions": [
                -1.4804044015445632,
                -1.3189125783264046,
                1.9761488526297954,
                -0.6315715549476666,
                1.139149168648686,
                -3.119695200539533
            ]
        },
        {
            "positions": [
                -1.5767035630764854,
                -1.3681345590417382,
                1.9653589817390265,
                -0.575470594368529,
                1.3049473045408866,
                -3.1185957507510524
            ]
        },
        {
            "positions": [
                -1.6730027246084076,
                -1.4173565397570715,
                1.9545691108482575,
                -0.5193696337893914,
                1.470745440433087,
                -3.117496300962572
            ]
        }
    ]
}