{
    "goal": {
        "global_pose": {
            "orientation": {
                "w": 0.7031023480610252,
                "x": -0.7110244013736278,
                "y": 0.0077485991402295624,
                "z": 0.005598929693374583
            },
            "position": {
                "x": -0.8841497679147869,
                "y": 0.44412534475326537,
                "z": 0.3711530566215515
            }
        },
        "name": "move_to_auspresseinheit_D"
    },
    "id": "EST_move_to_auspresseinheit_D_146",
    "joint_names": [
        "shoulder_pan_joint",
        "shoulder_lift_joint",
        "elbow_joint",
        "wrist_1_joint",
        "wrist_2_joint",
        "wrist_3_joint"
    ],
    "metrics": {
        "cart_traj_len": 0.3457704579135372,
        "distance_elbow_joint": 0.6792299035560239,
        "distance_shoulder_lift_joint": 0.14449466476360318,
        "distance_shoulder_pan_joint": 0.13434664292005105,
        "distance_wrist_1_joint": 0.651363193370115,
        "distance_wrist_2_joint": 1.4469069420429643,
        "distance_wrist_3_joint": 0.09786629264042368,
        "smoothness": 0.0,
        "time": 0.083962094,
        "traj_len": 1.7760089074363283,
        "weighted_distance": 2.334140175736476
    },
    "planner": "EST",
    "start": {
        "state": {
            "elbow_joint": -1.8275523626775212,
            "shoulder_lift_joint": -2.126789852344167,
            "shoulder_pan_joint": -0.03513704404078235,
            "wrist_1_joint": -2.347782403156801,
            "wrist_2_joint": -1.6058999987535132,
            "wrist_3_joint": -3.0880379163319196
        }
    },
    "waypoints": [
        {
            "positions": [
                -0.03513704404078235,
                -2.126789852344167,
                -1.8275523626775212,
                -2.347782403156801,
                -1.6058999987535132,
                -3.0880379163319196
            ]
        },
        {
            "positions": [
                -0.05193037440578873,
                -2.144851685439617,
                -1.7426486247330182,
                -2.4292028023280654,
                -1.4250366309981426,
                -3.0758046297518664
            ]
        },
        {
            "positions": [
                -0.06872370477079512,
                -2.162913518535068,
                -1.6577448867885152,
                -2.5106232014993295,
                -1.244173263242772,
                -3.0635713431718137
            ]
        },
        {
            "positions": [
                -0.0855170351358015,
                -2.180975351630518,
                -1.5728411488440122,
                -2.592043600670594,
                -1.0633098954874016,
                -3.051338056591761
            ]
        },
        {
            "positions": [
                -0.10231036550080788,
                -2.1990371847259684,
                -1.4879374108995091,
                -2.673463999841858,
                -0.882446527732031,
                -3.0391047700117078
            ]
        },
        {
            "positions": [
                -0.11910369586581426,
                -2.2170990178214187,
                -1.4030336729550061,
                -2.7548843990131227,
                -0.7015831599766604,
                -3.0268714834316546
            ]
        },
        {
            "positions": [
                -0.13589702623082064,
                -2.235160850916869,
                -1.3181299350105034,
                -2.836304798184387,
                -0.5207197922212901,
                -3.014638196851602
            ]
        },
        {
            "positions": [
                -0.15269035659582703,
                -2.2532226840123197,
                -1.2332261970660003,
                -2.9177251973556517,
                -0.33985642446591946,
                -3.002404910271549
            ]
        },
        {
            "positions": [
                -0.1694836869608334,
                -2.27128451710777,
                -1.1483224591214973,
                -2.999145596526916,
                -0.1589930567105488,
                -2.990171623691496
            ]
        }
    ]
}