{
    "goal": {
        "global_pose": {
            "orientation": {
                "w": 0.5084816217422485,
                "x": -0.49083608388900757,
                "y": 0.5182115435600281,
                "z": -0.4816462993621826
            },
            "position": {
                "x": 0.5540239810943604,
                "y": 0.030875300988554955,
                "z": 0.16403168439865112
            }
        },
        "name": "move_to_storage_A"
    },
    "id": "EST_move_to_storage_A_60",
    "joint_names": [
        "shoulder_pan_joint",
        "shoulder_lift_joint",
        "elbow_joint",
        "wrist_1_joint",
        "wrist_2_joint",
        "wrist_3_joint"
    ],
    "metrics": {
        "cart_traj_len": 0.35274900056437847,
        "distance_elbow_joint": 0.4489322298839318,
        "distance_shoulder_lift_joint": 0.2360363082263488,
        "distance_shoulder_pan_joint": 0.4622119852084011,
        "distance_wrist_1_joint": 0.23931750768744176,
        "distance_wrist_2_joint": 1.0944839739673484,
        "distance_wrist_3_joint": 0.09459626288090961,
        "smoothness": 4.440892098500626e-16,
        "time": 0.102134585,
        "traj_len": 1.6048608250731218,
        "weighted_distance": 2.0244930909417773
    },
    "planner": "EST",
    "start": {
        "state": {
            "elbow_joint": 1.971548259319323,
            "shoulder_lift_joint": -1.1394851275133948,
            "shoulder_pan_joint": 0.1228115487234821,
            "wrist_1_joint": -0.7804723859257726,
            "wrist_2_joint": 0.12958671773740124,
            "wrist_3_joint": -3.192489227718131
        }
    },
    "waypoints": [
        {
            "positions": [
                0.1228115487234821,
                -1.1394851275133948,
                1.971548259319323,
                -0.7804723859257726,
                0.12958671773740124,
                -3.192489227718131
            ]
        },
        {
            "positions": [
                0.056781265122281946,
                -1.173204600117159,
                2.0356814350170276,
                -0.8146606013096929,
                0.28594157116130814,
                -3.1789754758780013
            ]
        },
        {
            "positions": [
                -0.009249018478918208,
                -1.206924072720923,
                2.099814610714732,
                -0.8488488166936131,
                0.442296424585215,
                -3.165461724037871
            ]
        },
        {
            "positions": [
                -0.07527930208011838,
                -1.2406435453246871,
                2.163947786412437,
                -0.8830370320775334,
                0.598651278009122,
                -3.1519479721977413
            ]
        },
        {
            "positions": [
                -0.14130958568131852,
                -1.2743630179284513,
                2.228080962110141,
                -0.9172252474614536,
                0.7550061314330289,
                -3.1384342203576114
            ]
        },
        {
            "positions": [
                -0.20733986928251869,
                -1.3080824905322155,
                2.2922141378078456,
                -0.9514134628453739,
                0.9113609848569358,
                -3.1249204685174816
            ]
        },
        {
            "positions": [
                -0.27337015288371885,
                -1.3418019631359794,
                2.3563473135055504,
                -0.9856016782292941,
                1.0677158382808427,
                -3.1114067166773514
            ]
        },
        {
            "positions": [
                -0.339400436484919,
                -1.3755214357397436,
                2.4204804892032548,
                -1.0197898936132144,
                1.2240706917047497,
                -3.0978929648372215
            ]
        }
    ]
}{
    "goal": {
        "global_pose": {
            "orientation": {
                "w": 0.5084816217422485,
                "x": -0.49083608388900757,
                "y": 0.5182115435600281,
                "z": -0.4816462993621826
            },
            "position": {
                "x": 0.5540239810943604,
                "y": 0.030875300988554955,
                "z": 0.16403168439865112
            }
        },
        "name": "move_to_storage_A"
    },
    "id": "EST_move_to_storage_A_60",
    "joint_names": [
        "shoulder_pan_joint",
        "shoulder_lift_joint",
        "elbow_joint",
        "wrist_1_joint",
        "wrist_2_joint",
        "wrist_3_joint"
    ],
    "metrics": {
        "cart_traj_len": 0.3525740600453904,
        "distance_elbow_joint": 0.4489239555015576,
        "distance_shoulder_lift_joint": 0.23425266367937625,
        "distance_shoulder_pan_joint": 0.4597839970846664,
        "distance_wrist_1_joint": 0.24122821252544036,
        "distance_wrist_2_joint": 1.1028700857308662,
        "distance_wrist_3_joint": 0.09797678462279391,
        "smoothness": 1.1102230298998083e-15,
        "time": 0.074953878,
        "traj_len": 1.60780462094892,
        "weighted_distance": 2.0310311584627634
    },
    "planner": "EST",
    "start": {
        "state": {
            "elbow_joint": 1.97154746011099,
            "shoulder_lift_joint": -1.13948474672311,
            "shoulder_pan_joint": 0.12281154466712228,
            "wrist_1_joint": -0.7804688027058302,
            "wrist_2_joint": 0.12958655903071145,
            "wrist_3_joint": 3.0906928834467795
        }
    },
    "waypoints": [
        {
            "positions": [
                0.12281154466712228,
                -1.13948474672311,
                1.97154746011099,
                -0.7804688027058302,
                0.12958655903071145,
                3.0906928834467795
            ]
        },
        {
            "positions": [
                0.05712811651216995,
                -1.172949412963021,
                2.0356794537540694,
                -0.8149299759237503,
                0.2871394284208352,
                3.1046895669643213
            ]
        },
        {
            "positions": [
                -0.008555311642782379,
                -1.2064140792029316,
                2.0998114473971494,
                -0.8493911491416702,
                0.44469229781095887,
                3.1186862504818635
            ]
        },
        {
            "positions": [
                -0.07423873979773472,
                -1.2398787454428426,
                2.163943441040229,
                -0.8838523223595903,
                0.6022451672010827,
                3.1326829339994053
            ]
        },
        {
            "positions": [
                -0.13992216795268703,
                -1.2733434116827536,
                2.2280754346833085,
                -0.9183134955775104,
                0.7597980365912064,
                3.1466796175169476
            ]
        },
        {
            "positions": [
                -0.2056055961076394,
                -1.3068080779226645,
                2.292207428326388,
                -0.9527746687954304,
                0.9173509059813302,
                3.1606763010344894
            ]
        },
        {
            "positions": [
                -0.2712890242625917,
                -1.3402727441625752,
                2.356339421969468,
                -0.9872358420133505,
                1.0749037753714539,
                3.1746729845520316
            ]
        },
        {
            "positions": [
                -0.3369724524175441,
                -1.3737374104024862,
                2.4204714156125475,
                -1.0216970152312705,
                1.2324566447615777,
                3.1886696680695734
            ]
        }
    ]
}{
    "goal": {
        "global_pose": {
            "orientation": {
                "w": 0.5084816217422485,
                "x": -0.49083608388900757,
                "y": 0.5182115435600281,
                "z": -0.4816462993621826
            },
            "position": {
                "x": 0.5540239810943604,
                "y": 0.030875300988554955,
                "z": 0.16403168439865112
            }
        },
        "name": "move_to_storage_A"
    },
    "id": "EST_move_to_storage_A_60",
    "joint_names": [
        "shoulder_pan_joint",
        "shoulder_lift_joint",
        "elbow_joint",
        "wrist_1_joint",
        "wrist_2_joint",
        "wrist_3_joint"
    ],
    "metrics": {
        "cart_traj_len": 0.3531790548801791,
        "distance_elbow_joint": 0.4519489406678434,
        "distance_shoulder_lift_joint": 0.2351051402742581,
        "distance_shoulder_pan_joint": 0.463370626613031,
        "distance_wrist_1_joint": 0.2517899247718334,
        "distance_wrist_2_joint": 1.0927328141205734,
        "distance_wrist_3_joint": 0.0897629772772075,
        "smoothness": 4.440892133664971e-16,
        "time": 0.130311529,
        "traj_len": 1.607703462621371,
        "weighted_distance": 2.0270074289877598
    },
    "planner": "EST",
    "start": {
        "state": {
            "elbow_joint": 1.9715472970024885,
            "shoulder_lift_joint": -1.1394870060712896,
            "shoulder_pan_joint": 0.12281152778156021,
            "wrist_1_joint": -0.780463741449964,
            "wrist_2_joint": 0.12958659822042276,
            "wrist_3_joint": 3.090690232415272
        }
    },
    "waypoints": [
        {
            "positions": [
                0.12281152778156021,
                -1.1394870060712896,
                1.9715472970024885,
                -0.780463741449964,
                0.12958659822042276,
                3.090690232415272
            ]
        },
        {
            "positions": [
                0.05661572397969865,
                -1.173073454681898,
                2.036111431383609,
                -0.816433730703083,
                0.28569128595193327,
                3.1035135148834443
            ]
        },
        {
            "positions": [
                -0.009580079822162912,
                -1.2066599032925063,
                2.1006755657647296,
                -0.8524037199562021,
                0.4417959736834437,
                3.1163367973516167
            ]
        },
        {
            "positions": [
                -0.07577588362402449,
                -1.2402463519031146,
                2.16523970014585,
                -0.8883737092093211,
                0.5979006614149542,
                3.129160079819789
            ]
        },
        {
            "positions": [
                -0.14197168742588603,
                -1.2738328005137227,
                2.2298038345269706,
                -0.9243436984624402,
                0.7540053491464647,
                3.141983362287962
            ]
        },
        {
            "positions": [
                -0.2081674912277476,
                -1.307419249124331,
                2.294367968908091,
                -0.9603136877155592,
                0.9101100368779752,
                3.1548066447561345
            ]
        },
        {
            "positions": [
                -0.2743632950296092,
                -1.3410056977349394,
                2.358932103289211,
                -0.9962836769686783,
                1.0662147246094857,
                3.167629927224307
            ]
        },
        {
            "positions": [
                -0.3405590988314708,
                -1.3745921463455477,
                2.423496237670332,
                -1.0322536662217974,
                1.2223194123409962,
                3.1804532096924794
            ]
        }
    ]
}