{
    "goal": {
        "global_pose": {
            "orientation": {
                "w": 0.7047431468963623,
                "x": -0.7094548344612122,
                "y": 0.0024358443915843964,
                "z": -0.0022348060738295317
            },
            "position": {
                "x": 0.6094750761985779,
                "y": 0.3671506643295288,
                "z": 0.19426114857196808
            }
        },
        "name": "move_to_magneteinheit_A"
    },
    "id": "EST_move_to_magneteinheit_A_127",
    "joint_names": [
        "shoulder_pan_joint",
        "shoulder_lift_joint",
        "elbow_joint",
        "wrist_1_joint",
        "wrist_2_joint",
        "wrist_3_joint"
    ],
    "metrics": {
        "cart_traj_len": 3.783060301496466,
        "distance_elbow_joint": 3.884176772894917,
        "distance_shoulder_lift_joint": 0.2727378793022883,
        "distance_shoulder_pan_joint": 3.8161073015887315,
        "distance_wrist_1_joint": 2.393986587265319,
        "distance_wrist_2_joint": 2.3840601195651745,
        "distance_wrist_3_joint": 6.88551143584656,
        "smoothness": 0.2755125824513144,
        "time": 0.07762186600000001,
        "traj_len": 4.4313180992186725,
        "weighted_distance": 6.179453833065397
    },
    "planner": "EST",
    "start": {
        "state": {
            "elbow_joint": -1.9196185241190666,
            "shoulder_lift_joint": -1.2443396400964142,
            "shoulder_pan_joint": 2.6996025414629847,
            "wrist_1_joint": -1.5485510000780065,
            "wrist_2_joint": -1.5709468930060704,
            "wrist_3_joint": 0.4420197071253992
        }
    },
    "waypoints": [
        {
            "positions": [
                2.6996025414629847,
                -1.2443396400964142,
                -1.9196185241190666,
                -1.5485510000780065,
                -1.5709468930060704,
                0.4420197071253992
            ]
        },
        {
            "positions": [
                2.5964791840938592,
                -1.2469715984541283,
                -1.8228483552959422,
                -1.497039812700371,
                -1.5052115670874284,
                0.37331176396836585
            ]
        },
        {
            "positions": [
                2.4933558267247338,
                -1.2496035568118424,
                -1.7260781864728179,
                -1.4455286253227355,
                -1.4394762411687865,
                0.30460382081133247
            ]
        },
        {
            "positions": [
                2.390232469355608,
                -1.2522355151695566,
                -1.6293080176496932,
                -1.3940174379451,
                -1.3737409152501445,
                0.23589587765429912
            ]
        },
        {
            "positions": [
                2.2871091119864824,
                -1.254867473527271,
                -1.5325378488265688,
                -1.3425062505674645,
                -1.3080055893315023,
                0.16718793449726577
            ]
        },
        {
            "positions": [
                2.183985754617357,
                -1.257499431884985,
                -1.4357676800034445,
                -1.290995063189829,
                -1.2422702634128604,
                0.09847999134023239
            ]
        },
        {
            "positions": [
                2.0808623972482314,
                -1.2601313902426992,
                -1.3389975111803198,
                -1.2394838758121938,
                -1.1765349374942184,
                0.029772048183199062
            ]
        },
        {
            "positions": [
                1.977739039879106,
                -1.2627633486004133,
                -1.2422273423571955,
                -1.187972688434558,
                -1.1107996115755765,
                -0.03893589497383432
            ]
        },
        {
            "positions": [
                1.8746156825099802,
                -1.2653953069581274,
                -1.145457173534071,
                -1.1364615010569228,
                -1.0450642856569345,
                -0.10764383813086764
            ]
        },
        {
            "positions": [
                1.7714923251408545,
                -1.2680272653158415,
                -1.0486870047109464,
                -1.084950313679287,
                -0.9793289597382925,
                -0.17635178128790108
            ]
        },
        {
            "positions": [
                1.668368967771729,
                -1.2706592236735557,
                -0.951916835887822,
                -1.0334391263016518,
                -0.9135936338196506,
                -0.2450597244449344
            ]
        },
        {
            "positions": [
                1.5652456104026033,
                -1.2732911820312698,
                -0.8551466670646977,
                -0.9819279389240162,
                -0.8478583079010086,
                -0.31376766760196784
            ]
        },
        {
            "positions": [
                1.462122253033478,
                -1.2759231403889841,
                -0.7583764982415733,
                -0.9304167515463808,
                -0.7821229819823666,
                -0.38247561075900105
            ]
        },
        {
            "positions": [
                1.3589988956643524,
                -1.2785550987466983,
                -0.6616063294184487,
                -0.8789055641687452,
                -0.7163876560637246,
                -0.4511835539160345
            ]
        },
        {
            "positions": [
                1.255875538295227,
                -1.2811870571044124,
                -0.5648361605953243,
                -0.8273943767911098,
                -0.6506523301450827,
                -0.5198914970730678
            ]
        },
        {
            "positions": [
                1.1527521809261012,
                -1.2838190154621265,
                -0.46806599177219965,
                -0.7758831894134743,
                -0.5849170042264407,
                -0.5885994402301012
            ]
        },
        {
            "positions": [
                1.0496288235569757,
                -1.2864509738198406,
                -0.3712958229490755,
                -0.7243720020358388,
                -0.5191816783077987,
                -0.6573073833871345
            ]
        },
        {
            "positions": [
                0.9465054661878503,
                -1.2890829321775548,
                -0.2745256541259511,
                -0.6728608146582035,
                -0.45344635238915676,
                -0.7260153265441679
            ]
        },
        {
            "positions": [
                0.8433821088187243,
                -1.291714890535269,
                -0.17775548530282625,
                -0.6213496272805679,
                -0.3877110264705146,
                -0.7947232697012013
            ]
        },
        {
            "positions": [
                0.7402587514495989,
                -1.294346848892983,
                -0.08098531647970186,
                -0.5698384399029324,
                -0.32197570055187263,
                -0.8634312128582345
            ]
        },
        {
            "positions": [
                0.6371353940804734,
                -1.2969788072506974,
                0.01578485234342253,
                -0.5183272525252969,
                -0.2562403746332309,
                -0.932139156015268
            ]
        },
        {
            "positions": [
                0.5340120367113479,
                -1.2996107656084115,
                0.1125550211665467,
                -0.4668160651476616,
                -0.19050504871458895,
                -1.0008470991723013
            ]
        },
        {
            "positions": [
                0.43088867934222197,
                -1.3022427239661256,
                0.2093251899896713,
                -0.4153048777700259,
                -0.12476972279594678,
                -1.069555042329335
            ]
        },
        {
            "positions": [
                0.3277653219730965,
                -1.3048746823238397,
                0.3060953588127959,
                -0.3637936903923904,
                -0.05903439687730483,
                -1.1382629854863682
            ]
        },
        {
            "positions": [
                0.22464196460397146,
                -1.3075066406815539,
                0.4028655276359201,
                -0.31228250301475513,
                0.0067009290413371225,
                -1.2069709286434014
            ]
        },
        {
            "positions": [
                0.12151860723484598,
                -1.310138599039268,
                0.4996356964590447,
                -0.26077131563711964,
                0.07243625495997907,
                -1.2756788718004346
            ]
        },
        {
            "positions": [
                0.018395249865720054,
                -1.3127705573969821,
                0.5964058652821693,
                -0.20926012825948392,
                0.13817158087862125,
                -1.3443868149574683
            ]
        },
        {
            "positions": [
                -0.08472810750340543,
                -1.3154025157546965,
                0.6931760341052935,
                -0.15774894088184865,
                0.2039069067972632,
                -1.4130947581145015
            ]
        },
        {
            "positions": [
                -0.1878514648725309,
                -1.3180344741124106,
                0.7899462029284181,
                -0.10623775350421316,
                0.26964223271590493,
                -1.4818027012715347
            ]
        },
        {
            "positions": [
                -0.2909748222416564,
                -1.3206664324701247,
                0.8867163717515423,
                -0.05472656612657767,
                0.3353775586345469,
                -1.550510644428568
            ]
        },
        {
            "positions": [
                -0.3940981796107823,
                -1.3232983908278388,
                0.9834865405746673,
                -0.003215378748942177,
                0.40111288455318905,
                -1.6192185875856016
            ]
        },
        {
            "positions": [
                -0.4972215369799078,
                -1.325930349185553,
                1.0802567093977915,
                0.048295808628693336,
                0.46684821047183106,
                -1.6879265307426348
            ]
        },
        {
            "positions": [
                -0.4662573758226157,
                -1.3163729906748955,
                1.1244717863666944,
                0.008438819700762448,
                0.44953495966746726,
                -1.4501482708437083
            ]
        },
        {
            "positions": [
                -0.4352932146653237,
                -1.3068156321642381,
                1.1686868633355973,
                -0.03141816922716844,
                0.4322217088631034,
                -1.212370010944782
            ]
        },
        {
            "positions": [
                -0.4043290535080317,
                -1.2972582736535805,
                1.2129019403045005,
                -0.07127515815509933,
                0.4149084580587396,
                -0.9745917510458555
            ]
        },
        {
            "positions": [
                -0.37336489235073966,
                -1.287700915142923,
                1.2571170172734034,
                -0.11113214708303021,
                0.39759520725437575,
                -0.7368134911469291
            ]
        },
        {
            "positions": [
                -0.3424007311934476,
                -1.2781435566322656,
                1.3013320942423063,
                -0.1509891360109611,
                0.38028195645001195,
                -0.49903523124800264
            ]
        },
        {
            "positions": [
                -0.3114365700361556,
                -1.268586198121608,
                1.3455471712112093,
                -0.19084612493889197,
                0.3629687056456481,
                -0.2612569713490762
            ]
        },
        {
            "positions": [
                -0.2804724088788636,
                -1.2590288396109506,
                1.3897622481801122,
                -0.23070311386682282,
                0.3456554548412843,
                -0.023478711450149792
            ]
        },
        {
            "positions": [
                -0.24950824772157154,
                -1.2494714811002932,
                1.4339773251490153,
                -0.2705601027947538,
                0.3283422040369205,
                0.21429954844877663
            ]
        },
        {
            "positions": [
                -0.21854408656427948,
                -1.2399141225896357,
                1.4781924021179182,
                -0.31041709172268467,
                0.31102895323255664,
                0.45207780834770306
            ]
        },
        {
            "positions": [
                -0.18757992540698748,
                -1.2303567640789783,
                1.5224074790868212,
                -0.35027408065061555,
                0.2937157024281928,
                0.6898560682466295
            ]
        },
        {
            "positions": [
                -0.15661576424969542,
                -1.2207994055683207,
                1.5666225560557243,
                -0.3901310695785465,
                0.276402451623829,
                0.9276343281455559
            ]
        },
        {
            "positions": [
                -0.12565160309240342,
                -1.2112420470576633,
                1.610837633024627,
                -0.4299880585064773,
                0.2590892008194652,
                1.1654125880444823
            ]
        },
        {
            "positions": [
                -0.09468744193511136,
                -1.2016846885470058,
                1.6550527099935302,
                -0.46984504743440825,
                0.24177595001510133,
                1.4031908479434088
            ]
        },
        {
            "positions": [
                -0.06372328077781936,
                -1.1921273300363482,
                1.6992677869624329,
                -0.509702036362339,
                0.22446269921073753,
                1.6409691078423352
            ]
        },
        {
            "positions": [
                -0.032759119620527355,
                -1.1825699715256908,
                1.743482863931336,
                -0.54955902529027,
                0.20714944840637367,
                1.8787473677412616
            ]
        },
        {
            "positions": [
                -0.0017949584632352966,
                -1.1730126130150333,
                1.7876979409002391,
                -0.5894160142182009,
                0.18983619760200987,
                2.116525627640188
            ]
        },
        {
            "positions": [
                0.02916920269405676,
                -1.163455254504376,
                1.8319130178691418,
                -0.6292730031461318,
                0.17252294679764602,
                2.354303887539114
            ]
        },
        {
            "positions": [
                0.06013336385134882,
                -1.1538978959937185,
                1.876128094838045,
                -0.6691299920740627,
                0.15520969599328222,
                2.592082147438041
            ]
        },
        {
            "positions": [
                0.09109752500864077,
                -1.1443405374830609,
                1.9203431718069477,
                -0.7089869810019935,
                0.13789644518891842,
                2.829860407336967
            ]
        },
        {
            "positions": [
                0.1220616861659328,
                -1.1347831789724034,
                1.9645582487758508,
                -0.7488439699299244,
                0.12058319438455456,
                3.067638667235894
            ]
        }
    ]
}