{
    "goal": {
        "global_pose": {
            "orientation": {
                "w": 0.5084816262002911,
                "x": -0.4908360881923452,
                "y": 0.5182115481033761,
                "z": -0.48164630358495003
            },
            "position": {
                "x": 0.5540239810943604,
                "y": -0.46912469901144505,
                "z": 0.16403168439865112
            }
        },
        "name": "move_to_storage_B"
    },
    "id": "EST_move_to_storage_B_82",
    "joint_names": [
        "shoulder_pan_joint",
        "shoulder_lift_joint",
        "elbow_joint",
        "wrist_1_joint",
        "wrist_2_joint",
        "wrist_3_joint"
    ],
    "metrics": {
        "cart_traj_len": 1.0469853937653861,
        "distance_elbow_joint": 0.42364116777453775,
        "distance_shoulder_lift_joint": 0.4626134789010323,
        "distance_shoulder_pan_joint": 0.873050626209917,
        "distance_wrist_1_joint": 3.0120159416912236,
        "distance_wrist_2_joint": 2.7171974705244084,
        "distance_wrist_3_joint": 3.166471974293464,
        "smoothness": 0.09300285700646188,
        "time": 0.091779149,
        "traj_len": 3.2641983180245933,
        "weighted_distance": 4.7662509397006305
    },
    "planner": "EST",
    "start": {
        "state": {
            "elbow_joint": 1.664937868594044,
            "shoulder_lift_joint": -0.661644460510453,
            "shoulder_pan_joint": -0.9139846352900073,
            "wrist_1_joint": 2.146753192139373,
            "wrist_2_joint": -2.2341966793290973,
            "wrist_3_joint": 0.005466555786416001
        }
    },
    "waypoints": [
        {
            "positions": [
                -0.9139846352900073,
                -0.661644460510453,
                1.664937868594044,
                2.146753192139373,
                -2.2341966793290973,
                0.005466555786416001
            ]
        },
        {
            "positions": [
                -0.8755840810069417,
                -0.6957490238915837,
                1.661300541547619,
                2.0135800331277385,
                -2.0809268824373346,
                0.013574130324829993
            ]
        },
        {
            "positions": [
                -0.8371835267238762,
                -0.7298535872727142,
                1.657663214501194,
                1.8804068741161042,
                -1.927657085545572,
                0.021681704863243983
            ]
        },
        {
            "positions": [
                -0.7987829724408105,
                -0.7639581506538449,
                1.654025887454769,
                1.7472337151044695,
                -1.7743872886538092,
                0.029789279401657976
            ]
        },
        {
            "positions": [
                -0.760382418157745,
                -0.7980627140349754,
                1.6503885604083441,
                1.614060556092835,
                -1.6211174917620466,
                0.037896853940071966
            ]
        },
        {
            "positions": [
                -0.7219818638746794,
                -0.8321672774161061,
                1.646751233361919,
                1.4808873970812002,
                -1.4678476948702839,
                0.046004428478485966
            ]
        },
        {
            "positions": [
                -0.6835813095916139,
                -0.8662718407972366,
                1.643113906315494,
                1.3477142380695657,
                -1.3145778979785212,
                0.05411200301689995
            ]
        },
        {
            "positions": [
                -0.6451807553085482,
                -0.9003764041783673,
                1.639476579269069,
                1.214541079057931,
                -1.1613081010867585,
                0.062219577555313946
            ]
        },
        {
            "positions": [
                -0.6067802010254828,
                -0.9344809675594978,
                1.6358392522226441,
                1.0813679200462967,
                -1.0080383041949958,
                0.07032715209372793
            ]
        },
        {
            "positions": [
                -0.5683796467424171,
                -0.9685855309406285,
                1.6322019251762192,
                0.948194761034662,
                -0.8547685073032333,
                0.07843472663214193
            ]
        },
        {
            "positions": [
                -0.596139943461487,
                -0.9767788155969894,
                1.6527758843528884,
                0.8527496288985298,
                -0.7843595968559415,
                0.241250716287286
            ]
        },
        {
            "positions": [
                -0.6239002401805568,
                -0.9849721002533502,
                1.6733498435295575,
                0.7573044967623974,
                -0.7139506864086497,
                0.4040667059424301
            ]
        },
        {
            "positions": [
                -0.6516605368996267,
                -0.9931653849097112,
                1.6939238027062264,
                0.6618593646262652,
                -0.643541775961358,
                0.5668826955975742
            ]
        },
        {
            "positions": [
                -0.6794208336186964,
                -1.0013586695660721,
                1.7144977618828956,
                0.5664142324901329,
                -0.5731328655140662,
                0.7296986852527182
            ]
        },
        {
            "positions": [
                -0.7071811303377663,
                -1.009551954222433,
                1.7350717210595648,
                0.4709691003540006,
                -0.5027239550667744,
                0.8925146749078623
            ]
        },
        {
            "positions": [
                -0.7349414270568362,
                -1.0177452388787938,
                1.755645680236234,
                0.37552396821786826,
                -0.43231504461948256,
                1.0553306645630065
            ]
        },
        {
            "positions": [
                -0.762701723775906,
                -1.0259385235351548,
                1.7762196394129028,
                0.280078836081736,
                -0.36190613417219075,
                1.2181466542181505
            ]
        },
        {
            "positions": [
                -0.7904620204949758,
                -1.0341318081915156,
                1.796793598589572,
                0.18463370394560374,
                -0.29149722372489895,
                1.3809626438732945
            ]
        },
        {
            "positions": [
                -0.8182223172140457,
                -1.0423250928478764,
                1.8173675577662411,
                0.08918857180947148,
                -0.22108831327760714,
                1.5437786335284387
            ]
        },
        {
            "positions": [
                -0.8459826139331155,
                -1.0505183775042373,
                1.8379415169429103,
                -0.006256560326660887,
                -0.15067940283031533,
                1.7065946231835827
            ]
        },
        {
            "positions": [
                -0.8737429106521853,
                -1.0587116621605983,
                1.8585154761195795,
                -0.10170169246279326,
                -0.08027049238302353,
                1.8694106128387271
            ]
        },
        {
            "positions": [
                -0.9015032073712552,
                -1.0669049468169591,
                1.8790894352962484,
                -0.19714682459892552,
                -0.009861581935731834,
                2.032226602493871
            ]
        },
        {
            "positions": [
                -0.929263504090325,
                -1.07509823147332,
                1.8996633944729175,
                -0.2925919567350578,
                0.06054732851156008,
                2.1950425921490155
            ]
        },
        {
            "positions": [
                -0.9570238008093948,
                -1.0832915161296808,
                1.9202373536495867,
                -0.38803708887119004,
                0.13095623895885178,
                2.3578585818041593
            ]
        },
        {
            "positions": [
                -0.9847840975284647,
                -1.0914848007860418,
                1.9408113128262559,
                -0.4834822210073223,
                0.20136514940614358,
                2.5206745714593035
            ]
        },
        {
            "positions": [
                -1.0125443942475345,
                -1.0996780854424026,
                1.961385272002925,
                -0.5789273531434546,
                0.2717740598534354,
                2.6834905611144473
            ]
        },
        {
            "positions": [
                -1.0403046909666043,
                -1.1078713700987635,
                1.981959231179594,
                -0.674372485279587,
                0.3421829703007272,
                2.846306550769592
            ]
        },
        {
            "positions": [
                -1.0680649876856743,
                -1.1160646547551245,
                2.002533190356263,
                -0.7698176174157191,
                0.412591880748019,
                3.0091225404247357
            ]
        },
        {
            "positions": [
                -1.095825284404744,
                -1.1242579394114853,
                2.0231071495329322,
                -0.8652627495518517,
                0.48300079119531086,
                3.17193853007988
            ]
        }
    ]
}