{
    "goal": {
        "global_pose": {
            "orientation": {
                "w": 0.005598929693374612,
                "x": 0.007748599140229565,
                "y": 0.7110244013736278,
                "z": -0.7031023480610252
            },
            "position": {
                "x": 0.1141497679147869,
                "y": -0.7141253447532654,
                "z": 0.3711530566215515
            }
        },
        "name": "move_to_auspresseinheit_B"
    },
    "id": "EST_move_to_auspresseinheit_B_94",
    "joint_names": [
        "shoulder_pan_joint",
        "shoulder_lift_joint",
        "elbow_joint",
        "wrist_1_joint",
        "wrist_2_joint",
        "wrist_3_joint"
    ],
    "metrics": {
        "cart_traj_len": 0.5650165933579261,
        "distance_elbow_joint": 0.06089903123400253,
        "distance_shoulder_lift_joint": 0.2952474423367073,
        "distance_shoulder_pan_joint": 0.5787353672766089,
        "distance_wrist_1_joint": 0.32018930481697905,
        "distance_wrist_2_joint": 0.9867301293391706,
        "distance_wrist_3_joint": 0.002098452821776675,
        "smoothness": 0.0,
        "time": 0.425371132,
        "traj_len": 1.4979651957990363,
        "weighted_distance": 1.8854750243970213
    },
    "planner": "EST",
    "start": {
        "state": {
            "elbow_joint": 2.0193083361928714,
            "shoulder_lift_joint": -1.1220246554650708,
            "shoulder_pan_joint": -1.0952077554168747,
            "wrist_1_joint": -0.8559753972642168,
            "wrist_2_joint": 0.4759566250798843,
            "wrist_3_joint": -3.1240929996934557
        }
    },
    "waypoints": [
        {
            "positions": [
                -1.0952077554168747,
                -1.1220246554650708,
                2.0193083361928714,
                -0.8559753972642168,
                0.4759566250798843,
                -3.1240929996934557
            ]
        },
        {
            "positions": [
                -1.191663649962976,
                -1.1712325625211886,
                2.0091584976538712,
                -0.8026105131280536,
                0.6404116466364127,
                -3.1237432575564927
            ]
        },
        {
            "positions": [
                -1.2881195445090776,
                -1.2204404695773066,
                1.9990086591148706,
                -0.7492456289918904,
                0.8048666681929411,
                -3.1233935154195303
            ]
        },
        {
            "positions": [
                -1.3845754390551792,
                -1.2696483766334246,
                1.9888588205758702,
                -0.6958807448557273,
                0.9693216897494696,
                -3.1230437732825673
            ]
        },
        {
            "positions": [
                -1.4810313336012806,
                -1.3188562836895423,
                1.9787089820368697,
                -0.6425158607195641,
                1.133776711305998,
                -3.1226940311456044
            ]
        },
        {
            "positions": [
                -1.577487228147382,
                -1.36806419074566,
                1.9685591434978693,
                -0.5891509765834009,
                1.2982317328625266,
                -3.122344289008642
            ]
        },
        {
            "positions": [
                -1.6739431226934836,
                -1.417272097801778,
                1.958409304958869,
                -0.5357860924472377,
                1.462686754419055,
                -3.121994546871679
            ]
        }
    ]
}