{
    "goal": {
        "global_pose": {
            "orientation": {
                "w": 0.005598929693374612,
                "x": 0.007748599140229565,
                "y": 0.7110244013736278,
                "z": -0.7031023480610252
            },
            "position": {
                "x": 0.1141497679147869,
                "y": -0.7141253447532654,
                "z": 0.3711530566215515
            }
        },
        "name": "move_to_auspresseinheit_B"
    },
    "id": "EST_move_to_auspresseinheit_B_142",
    "joint_names": [
        "shoulder_pan_joint",
        "shoulder_lift_joint",
        "elbow_joint",
        "wrist_1_joint",
        "wrist_2_joint",
        "wrist_3_joint"
    ],
    "metrics": {
        "cart_traj_len": 0.5647369580296779,
        "distance_elbow_joint": 0.06258763990955818,
        "distance_shoulder_lift_joint": 0.29487849606814365,
        "distance_shoulder_pan_joint": 0.5784391634107469,
        "distance_wrist_1_joint": 0.3259597339964142,
        "distance_wrist_2_joint": 0.9851793351604483,
        "distance_wrist_3_joint": 0.00048578802100340823,
        "smoothness": 0.0,
        "time": 0.127918124,
        "traj_len": 1.4991764928007358,
        "weighted_distance": 1.886701036668286
    },
    "planner": "EST",
    "start": {
        "state": {
            "elbow_joint": 2.0193083361928714,
            "shoulder_lift_joint": -1.1220246554650708,
            "shoulder_pan_joint": -1.0952077554168747,
            "wrist_1_joint": -0.8559753972642168,
            "wrist_2_joint": 0.4759566250798843,
            "wrist_3_joint": -3.1240929996934557
        }
    },
    "waypoints": [
        {
            "positions": [
                -1.0952077554168747,
                -1.1220246554650708,
                2.0193083361928714,
                -0.8559753972642168,
                0.4759566250798843,
                -3.1240929996934557
            ]
        },
        {
            "positions": [
                -1.191614282651999,
                -1.171171071476428,
                2.0088770628746118,
                -0.8016487749314811,
                0.640153180939959,
                -3.1240120350232883
            ]
        },
        {
            "positions": [
                -1.2880208098871235,
                -1.2203174874877853,
                1.998445789556352,
                -0.7473221525987453,
                0.8043497368000336,
                -3.1239310703531213
            ]
        },
        {
            "positions": [
                -1.384427337122248,
                -1.2694639034991426,
                1.9880145162380924,
                -0.6929955302660097,
                0.9685462926601085,
                -3.123850105682954
            ]
        },
        {
            "positions": [
                -1.4808338643573724,
                -1.3186103195105,
                1.9775832429198326,
                -0.638668907933274,
                1.1327428485201831,
                -3.1237691410127866
            ]
        },
        {
            "positions": [
                -1.577240391592497,
                -1.3677567355218572,
                1.967151969601573,
                -0.5843422856005382,
                1.296939404380258,
                -3.1236881763426196
            ]
        },
        {
            "positions": [
                -1.6736469188276215,
                -1.4169031515332144,
                1.9567206962833132,
                -0.5300156632678026,
                1.4611359602403327,
                -3.1236072116724523
            ]
        }
    ]
}