{
    "goal": {
        "global_pose": {
            "orientation": {
                "w": 0.7031023502349854,
                "x": -0.7110244035720825,
                "y": 0.007748599164187908,
                "z": 0.005598929710686207
            },
            "position": {
                "x": 0.11585023208521307,
                "y": 0.44412534475326537,
                "z": 0.3711530566215515
            }
        },
        "name": "move_to_auspresseinheit_A"
    },
    "id": "EST_move_to_auspresseinheit_A_8",
    "joint_names": [
        "shoulder_pan_joint",
        "shoulder_lift_joint",
        "elbow_joint",
        "wrist_1_joint",
        "wrist_2_joint",
        "wrist_3_joint"
    ],
    "metrics": {
        "cart_traj_len": 1.1516839787337194,
        "distance_elbow_joint": 0.9476543456631012,
        "distance_shoulder_lift_joint": 0.7425341336705196,
        "distance_shoulder_pan_joint": 1.164793748181039,
        "distance_wrist_1_joint": 0.6973022327976273,
        "distance_wrist_2_joint": 0.7333316019569821,
        "distance_wrist_3_joint": 0.7730677260664969,
        "smoothness": 2.500678635394798,
        "time": 0.570355641,
        "traj_len": 2.249151793084621,
        "weighted_distance": 2.8346874739948618
    },
    "planner": "EST",
    "start": {
        "state": {
            "elbow_joint": 2.4225746658250005,
            "shoulder_lift_joint": -1.3736534386056498,
            "shoulder_pan_joint": -0.3378633547517467,
            "wrist_1_joint": -1.0288598680537169,
            "wrist_2_joint": 1.233022673432363,
            "wrist_3_joint": -3.0940220416140027
        }
    },
    "waypoints": [
        {
            "positions": [
                -0.3378633547517467,
                -1.3736534386056498,
                2.4225746658250005,
                -1.0288598680537169,
                1.233022673432363,
                -3.0940220416140027
            ]
        },
        {
            "positions": [
                -0.2641142899349727,
                -1.4347473405585456,
                2.3617357675837987,
                -0.9625797975319633,
                1.1680642653982962,
                -3.061409608650765
            ]
        },
        {
            "positions": [
                -0.1903652251181987,
                -1.4958412425114416,
                2.300896869342597,
                -0.8962997270102098,
                1.1031058573642294,
                -3.0287971756875276
            ]
        },
        {
            "positions": [
                -0.11661616030142469,
                -1.5569351444643373,
                2.2400579711013955,
                -0.8300196564884562,
                1.0381474493301626,
                -2.99618474272429
            ]
        },
        {
            "positions": [
                -0.042867095484650675,
                -1.618029046417233,
                2.1792190728601937,
                -0.7637395859667027,
                0.9731890412960957,
                -2.9635723097610525
            ]
        },
        {
            "positions": [
                0.030881969332123338,
                -1.679122948370129,
                2.118380174618992,
                -0.6974595154449491,
                0.9082306332620289,
                -2.930959876797815
            ]
        },
        {
            "positions": [
                0.10463103414889735,
                -1.7402168503230249,
                2.0575412763777905,
                -0.6311794449231956,
                0.8432722252279621,
                -2.8983474438345773
            ]
        },
        {
            "positions": [
                0.17838009896567136,
                -1.8013107522759206,
                1.9967023781365887,
                -0.564899374401442,
                0.7783138171938953,
                -2.8657350108713397
            ]
        },
        {
            "positions": [
                0.2521291637824454,
                -1.8624046542288166,
                1.9358634798953869,
                -0.4986193038796884,
                0.7133554091598284,
                -2.833122577908102
            ]
        },
        {
            "positions": [
                0.34473985217268904,
                -1.8784684907101112,
                2.0150451455690743,
                -0.5017439710800095,
                0.7171367587497346,
                -2.9148899554400862
            ]
        },
        {
            "positions": [
                0.43735054056293277,
                -1.8945323271914059,
                2.0942268112427618,
                -0.5048686382803306,
                0.7209181083396407,
                -2.99665733297207
            ]
        },
        {
            "positions": [
                0.5299612289531764,
                -1.9105961636727005,
                2.1734084769164492,
                -0.5079933054806517,
                0.7246994579295468,
                -3.078424710504054
            ]
        },
        {
            "positions": [
                0.5006182060559461,
                -1.8595118926543202,
                2.246220632290452,
                -0.4619219728223345,
                0.6726411425988412,
                -3.156288388662737
            ]
        },
        {
            "positions": [
                0.4712751831587157,
                -1.80842762163594,
                2.319032787664455,
                -0.4158506401640173,
                0.6205828272681357,
                -3.2341520668214203
            ]
        },
        {
            "positions": [
                0.5904167424995433,
                -1.8601390549192942,
                2.3579197136466647,
                -0.44862314101701783,
                0.6696846563947947,
                -3.178582680097781
            ]
        },
        {
            "positions": [
                0.7095583018403709,
                -1.9118504882026486,
                2.3968066396288745,
                -0.4813956418700184,
                0.7187864855214537,
                -3.123013293374142
            ]
        }
    ]
}