{
    "goal": {
        "global_pose": {
            "orientation": {
                "w": 0.7047431468963623,
                "x": -0.7094548344612122,
                "y": 0.0024358443915843964,
                "z": -0.0022348060738295317
            },
            "position": {
                "x": 0.6094750761985779,
                "y": 0.3671506643295288,
                "z": 0.19426114857196808
            }
        },
        "name": "move_to_magneteinheit_A"
    },
    "id": "EST_move_to_magneteinheit_A_143",
    "joint_names": [
        "shoulder_pan_joint",
        "shoulder_lift_joint",
        "elbow_joint",
        "wrist_1_joint",
        "wrist_2_joint",
        "wrist_3_joint"
    ],
    "metrics": {
        "cart_traj_len": 3.1848421495127655,
        "distance_elbow_joint": 3.9049679274132796,
        "distance_shoulder_lift_joint": 0.4791924961719719,
        "distance_shoulder_pan_joint": 2.997616399095273,
        "distance_wrist_1_joint": 3.452064713379896,
        "distance_wrist_2_joint": 1.449266762969241,
        "distance_wrist_3_joint": 1.3489017951461706,
        "smoothness": 0.17773906516959043,
        "time": 0.104030561,
        "traj_len": 3.6921552099249344,
        "weighted_distance": 4.6077266803508765
    },
    "planner": "EST",
    "start": {
        "state": {
            "elbow_joint": -1.9196185241190666,
            "shoulder_lift_joint": -1.2443396400964142,
            "shoulder_pan_joint": 2.6996025414629847,
            "wrist_1_joint": -1.5485510000780065,
            "wrist_2_joint": -1.5709468930060704,
            "wrist_3_joint": 0.4420197071253992
        }
    },
    "waypoints": [
        {
            "positions": [
                2.6996025414629847,
                -1.2443396400964142,
                -1.9196185241190666,
                -1.5485510000780065,
                -1.5709468930060704,
                0.4420197071253992
            ]
        },
        {
            "positions": [
                2.534454973972985,
                -1.2159586796142248,
                -1.911901164637007,
                -1.4855904293077973,
                -1.539571356238563,
                0.35377346800289644
            ]
        },
        {
            "positions": [
                2.369307406482985,
                -1.1875777191320354,
                -1.9041838051549473,
                -1.422629858537588,
                -1.5081958194710556,
                0.26552722888039376
            ]
        },
        {
            "positions": [
                2.2041598389929855,
                -1.159196758649846,
                -1.8964664456728877,
                -1.3596692877673788,
                -1.4768202827035481,
                0.17728098975789108
            ]
        },
        {
            "positions": [
                2.039012271502986,
                -1.1308157981676565,
                -1.888749086190828,
                -1.2967087169971696,
                -1.4454447459360407,
                0.08903475063538835
            ]
        },
        {
            "positions": [
                1.873864704012986,
                -1.1024348376854671,
                -1.8810317267087684,
                -1.2337481462269604,
                -1.4140692091685332,
                0.0007885115128856701
            ]
        },
        {
            "positions": [
                1.7087171365229863,
                -1.0740538772032777,
                -1.8733143672267085,
                -1.1707875754567512,
                -1.382693672401026,
                -0.08745772760961701
            ]
        },
        {
            "positions": [
                1.5435695690329867,
                -1.0456729167210883,
                -1.8655970077446489,
                -1.107827004686542,
                -1.3513181356335184,
                -0.17570396673211974
            ]
        },
        {
            "positions": [
                1.3784220015429869,
                -1.017291956238899,
                -1.8578796482625892,
                -1.0448664339163327,
                -1.319942598866011,
                -0.2639502058546225
            ]
        },
        {
            "positions": [
                1.213274434052987,
                -0.9889109957567095,
                -1.8501622887805296,
                -0.9819058631461235,
                -1.2885670620985037,
                -0.3521964449771251
            ]
        },
        {
            "positions": [
                1.0481268665629875,
                -0.9605300352745201,
                -1.84244492929847,
                -0.9189452923759143,
                -1.2571915253309962,
                -0.44044268409962783
            ]
        },
        {
            "positions": [
                0.9987594916002056,
                -0.9522123076076098,
                -1.6984938841303991,
                -0.8012518511313124,
                -1.2110164015137894,
                -0.42017295586963366
            ]
        },
        {
            "positions": [
                0.9493921166374237,
                -0.9438945799406995,
                -1.5545428389623281,
                -0.6835584098867105,
                -1.1648412776965824,
                -0.3999032276396394
            ]
        },
        {
            "positions": [
                0.9000247416746419,
                -0.9355768522737892,
                -1.4105917937942574,
                -0.5658649686421086,
                -1.1186661538793756,
                -0.37963349940964525
            ]
        },
        {
            "positions": [
                0.85065736671186,
                -0.9272591246068789,
                -1.2666407486261866,
                -0.44817152739750665,
                -1.0724910300621686,
                -0.359363771179651
            ]
        },
        {
            "positions": [
                0.8012899917490781,
                -0.9189413969399685,
                -1.1226897034581156,
                -0.33047808615290475,
                -1.0263159062449618,
                -0.33909404294965684
            ]
        },
        {
            "positions": [
                0.7519226167862962,
                -0.9106236692730582,
                -0.9787386582900448,
                -0.21278464490830284,
                -0.9801407824277549,
                -0.31882431471966266
            ]
        },
        {
            "positions": [
                0.7025552418235144,
                -0.9023059416061479,
                -0.8347876131219738,
                -0.09509120366370083,
                -0.933965658610548,
                -0.2985545864896684
            ]
        },
        {
            "positions": [
                0.6531878668607326,
                -0.8939882139392376,
                -0.690836567953903,
                0.022602237580900963,
                -0.8877905347933411,
                -0.27828485825967425
            ]
        },
        {
            "positions": [
                0.6038204918979506,
                -0.8856704862723273,
                -0.546885522785832,
                0.14029567882550298,
                -0.8416154109761342,
                -0.25801513002968
            ]
        },
        {
            "positions": [
                0.5544531169351689,
                -0.877352758605417,
                -0.40293447761776124,
                0.25798912007010477,
                -0.7954402871589275,
                -0.23774540179968584
            ]
        },
        {
            "positions": [
                0.505085741972387,
                -0.8690350309385066,
                -0.25898343244969024,
                0.3756825613147068,
                -0.7492651633417204,
                -0.21747567356969164
            ]
        },
        {
            "positions": [
                0.4557183670096051,
                -0.8607173032715962,
                -0.11503238728161969,
                0.4933760025593086,
                -0.7030900395245137,
                -0.19720594533969746
            ]
        },
        {
            "positions": [
                0.40635099204682334,
                -0.8523995756046859,
                0.028918657886451093,
                0.6110694438039104,
                -0.6569149157073068,
                -0.17693621710970325
            ]
        },
        {
            "positions": [
                0.35698361708404136,
                -0.8440818479377756,
                0.17286970305452232,
                0.7287628850485126,
                -0.6107397918900997,
                -0.15666648887970902
            ]
        },
        {
            "positions": [
                0.3076162421212595,
                -0.8357641202708653,
                0.3168207482225933,
                0.8464563262931144,
                -0.564564668072893,
                -0.13639676064971484
            ]
        },
        {
            "positions": [
                0.2582488671584777,
                -0.827446392603955,
                0.4607717933906639,
                0.9641497675377162,
                -0.5183895442556861,
                -0.11612703241972067
            ]
        },
        {
            "positions": [
                0.20888149219569585,
                -0.8191286649370447,
                0.6047228385587344,
                1.081843208782318,
                -0.4722144204384793,
                -0.09585730418972649
            ]
        },
        {
            "positions": [
                0.15951411723291387,
                -0.8108109372701344,
                0.7486738837268059,
                1.1995366500269202,
                -0.42603929662127227,
                -0.07558757595973226
            ]
        },
        {
            "positions": [
                0.1101467422701321,
                -0.802493209603224,
                0.8926249288948764,
                1.317230091271522,
                -0.37986417280406537,
                -0.05531784772973808
            ]
        },
        {
            "positions": [
                0.06077936730735023,
                -0.7941754819363138,
                1.0365759740629474,
                1.4349235325161238,
                -0.3336890489868586,
                -0.035048119499743846
            ]
        },
        {
            "positions": [
                0.011411992344568356,
                -0.7858577542694034,
                1.180527019231018,
                1.5526169737607256,
                -0.2875139251696517,
                -0.014778391269749669
            ]
        },
        {
            "positions": [
                -0.03795538261821352,
                -0.7775400266024931,
                1.3244780643990894,
                1.6703104150053278,
                -0.24133880135244468,
                0.005491336960244564
            ]
        },
        {
            "positions": [
                -0.08732275758099542,
                -0.7692222989355828,
                1.4684291095671598,
                1.7880038562499299,
                -0.19516367753523794,
                0.025761065190238748
            ]
        },
        {
            "positions": [
                -0.017092390897231302,
                -0.7705806839392964,
                1.6407358741428444,
                1.8265071419339165,
                -0.17066916170243498,
                0.02583961673399787
            ]
        },
        {
            "positions": [
                0.053137975786532815,
                -0.7719390689430098,
                1.8130426387185288,
                1.8650104276179034,
                -0.14617464586963202,
                0.02591816827775699
            ]
        },
        {
            "positions": [
                0.12336834247029693,
                -0.7732974539467233,
                1.9853494032942134,
                1.90351371330189,
                -0.12168013003682908,
                0.02599671982151611
            ]
        }
    ]
}