{
    "goal": {
        "global_pose": {
            "orientation": {
                "w": 0.7047431493862688,
                "x": -0.7094548369677653,
                "y": 0.0024358444001904,
                "z": -0.0022348060817251984
            },
            "position": {
                "x": -0.39052492380142206,
                "y": 0.3671506643295288,
                "z": 0.19426114857196808
            }
        },
        "name": "move_to_magneteinheit_D"
    },
    "id": "EST_move_to_magneteinheit_D_34",
    "joint_names": [
        "shoulder_pan_joint",
        "shoulder_lift_joint",
        "elbow_joint",
        "wrist_1_joint",
        "wrist_2_joint",
        "wrist_3_joint"
    ],
    "metrics": {
        "cart_traj_len": 4.044225557976847,
        "distance_elbow_joint": 3.716013882837894,
        "distance_shoulder_lift_joint": 1.706352854627213,
        "distance_shoulder_pan_joint": 3.2503087705084828,
        "distance_wrist_1_joint": 1.6134904835399348,
        "distance_wrist_2_joint": 1.2273776718311544,
        "distance_wrist_3_joint": 3.4492768482002867,
        "smoothness": 0.4842315753774487,
        "time": 1.052117813,
        "traj_len": 3.8681805169284647,
        "weighted_distance": 4.970135044776614
    },
    "planner": "EST",
    "start": {
        "state": {
            "elbow_joint": 0.749534889911806,
            "shoulder_lift_joint": -0.6476975780787326,
            "shoulder_pan_joint": -2.711696901376241,
            "wrist_1_joint": -0.07506478083263063,
            "wrist_2_joint": 0.43296659715538205,
            "wrist_3_joint": -3.14703540197715
        }
    },
    "waypoints": [
        {
            "positions": [
                -2.711696901376241,
                -0.6476975780787326,
                0.749534889911806,
                -0.07506478083263063,
                0.43296659715538205,
                -3.14703540197715
            ]
        },
        {
            "positions": [
                -2.72832379732746,
                -0.731021779546688,
                0.7483181955749001,
                -0.012455138846694205,
                0.43348648195106093,
                -3.038955819537483
            ]
        },
        {
            "positions": [
                -2.744950693278679,
                -0.8143459810146433,
                0.7471015012379943,
                0.05015450313924222,
                0.4340063667467398,
                -2.9308762370978156
            ]
        },
        {
            "positions": [
                -2.7143887160943865,
                -0.9329471797523615,
                0.7827384160273834,
                0.11275342142365186,
                0.37872167731580464,
                -2.885395218726288
            ]
        },
        {
            "positions": [
                -2.683826738910094,
                -1.0515483784900799,
                0.8183753308167724,
                0.1753523397080615,
                0.3234369878848695,
                -2.8399142003547606
            ]
        },
        {
            "positions": [
                -2.6532647617258016,
                -1.170149577227798,
                0.8540122456061614,
                0.23795125799247113,
                0.26815229845393435,
                -2.794433181983233
            ]
        },
        {
            "positions": [
                -2.622702784541509,
                -1.2887507759655163,
                0.8896491603955503,
                0.30055017627688074,
                0.2128676090229992,
                -2.7489521636117056
            ]
        },
        {
            "positions": [
                -2.5921408073572163,
                -1.4073519747032348,
                0.9252860751849394,
                0.3631490945612904,
                0.15758291959206405,
                -2.703471145240178
            ]
        },
        {
            "positions": [
                -2.561578830172924,
                -1.525953173440953,
                0.9609229899743283,
                0.4257480128457001,
                0.10229823016112888,
                -2.6579901268686505
            ]
        },
        {
            "positions": [
                -2.5310168529886314,
                -1.6445543721786713,
                0.9965599047637174,
                0.48834693113010963,
                0.04701354073019376,
                -2.612509108497123
            ]
        },
        {
            "positions": [
                -2.500454875804339,
                -1.7631555709163895,
                1.0321968195531064,
                0.5509458494145193,
                -0.008271148700741415,
                -2.5670280901255955
            ]
        },
        {
            "positions": [
                -2.3741272957836808,
                -1.7622669780927942,
                0.9164648345159927,
                0.5477219088741019,
                -0.028230026258069977,
                -2.4431748467101473
            ]
        },
        {
            "positions": [
                -2.2477997157630223,
                -1.761378385269199,
                0.8007328494788789,
                0.5444979683336845,
                -0.04818890381539854,
                -2.319321603294699
            ]
        },
        {
            "positions": [
                -2.1214721357423643,
                -1.7604897924456038,
                0.6850008644417651,
                0.5412740277932669,
                -0.0681477813727271,
                -2.195468359879251
            ]
        },
        {
            "positions": [
                -1.9951445557217062,
                -1.7596011996220087,
                0.5692688794046514,
                0.5380500872528495,
                -0.08810665893005566,
                -2.071615116463803
            ]
        },
        {
            "positions": [
                -1.868816975701048,
                -1.7587126067984133,
                0.45353689436753775,
                0.5348261467124321,
                -0.10806553648738422,
                -1.9477618730483548
            ]
        },
        {
            "positions": [
                -1.7424893956803897,
                -1.757824013974818,
                0.33780490933042384,
                0.5316022061720147,
                -0.1280244140447128,
                -1.8239086296329066
            ]
        },
        {
            "positions": [
                -1.6161618156597317,
                -1.756935421151223,
                0.22207292429331016,
                0.5283782656315973,
                -0.14798329160204135,
                -1.7000553862174583
            ]
        },
        {
            "positions": [
                -1.4898342356390735,
                -1.7560468283276276,
                0.10634093925619648,
                0.5251543250911798,
                -0.1679421691593699,
                -1.57620214280201
            ]
        },
        {
            "positions": [
                -1.3635066556184154,
                -1.7551582355040325,
                -0.009391045780917207,
                0.5219303845507623,
                -0.18790104671669847,
                -1.452348899386562
            ]
        },
        {
            "positions": [
                -1.2371790755977572,
                -1.7542696426804372,
                -0.1251230308180309,
                0.5187064440103449,
                -0.20785992427402702,
                -1.328495655971114
            ]
        },
        {
            "positions": [
                -1.1108514955770992,
                -1.7533810498568418,
                -0.2408550158551448,
                0.5154825034699275,
                -0.22781880183135558,
                -1.2046424125556658
            ]
        },
        {
            "positions": [
                -0.9845239155564407,
                -1.7524924570332467,
                -0.3565870008922587,
                0.5122585629295101,
                -0.24777767938868417,
                -1.0807891691402176
            ]
        },
        {
            "positions": [
                -0.8581963355357827,
                -1.7516038642096514,
                -0.4723189859293724,
                0.5090346223890926,
                -0.2677365569460127,
                -0.9569359257247694
            ]
        },
        {
            "positions": [
                -0.7318687555151244,
                -1.7507152713860563,
                -0.5880509709664861,
                0.5058106818486752,
                -0.2876954345033413,
                -0.8330826823093214
            ]
        },
        {
            "positions": [
                -0.6055411754944664,
                -1.749826678562461,
                -0.7037829560035997,
                0.5025867413082578,
                -0.30765431206066984,
                -0.7092294388938731
            ]
        },
        {
            "positions": [
                -0.5345513520260132,
                -1.7807704932433586,
                -0.8260112991582605,
                0.5384787491468845,
                -0.29770134989738795,
                -0.6126705499858256
            ]
        },
        {
            "positions": [
                -0.46356152855756005,
                -1.8117143079242561,
                -0.9482396423129213,
                0.5743707569855114,
                -0.28774838773410605,
                -0.5161116610777781
            ]
        },
        {
            "positions": [
                -0.3925717050891068,
                -1.8426581226051537,
                -1.0704679854675823,
                0.6102627648241383,
                -0.27779542557082415,
                -0.4195527721697305
            ]
        },
        {
            "positions": [
                -0.32158188162065365,
                -1.8736019372860513,
                -1.192696328622243,
                0.6461547726627651,
                -0.26784246340754225,
                -0.322993883261683
            ]
        },
        {
            "positions": [
                -0.2505920581522004,
                -1.9045457519669489,
                -1.3149246717769039,
                0.6820467805013919,
                -0.25788950124426036,
                -0.22643499435363545
            ]
        },
        {
            "positions": [
                -0.17960223468374725,
                -1.9354895666478464,
                -1.4371530149315648,
                0.7179387883400188,
                -0.24793653908097849,
                -0.12987610544558795
            ]
        },
        {
            "positions": [
                -0.14193130712234361,
                -1.9566985595780686,
                -1.535079375124274,
                0.754887720325105,
                -0.22976140393250136,
                -0.06971029528353445
            ]
        },
        {
            "positions": [
                -0.10426037956093998,
                -1.9779075525082908,
                -1.6330057353169833,
                0.7918366523101912,
                -0.21158626878402426,
                -0.009544485121480956
            ]
        },
        {
            "positions": [
                -0.06658945199953632,
                -1.999116545438513,
                -1.7309320955096925,
                0.8287855842952774,
                -0.19341113363554713,
                0.05062132504057254
            ]
        },
        {
            "positions": [
                -0.0245115020384747,
                -2.05682736741071,
                -1.8589729049838477,
                0.9184305087132519,
                -0.16433210046553554,
                0.03245219913666206
            ]
        },
        {
            "positions": [
                0.017566447922586922,
                -2.1145381893829076,
                -1.987013714458003,
                1.0080754331312265,
                -0.13525306729552394,
                0.014283073232751575
            ]
        },
        {
            "positions": [
                0.059644397883648545,
                -2.1722490113551047,
                -2.115054523932158,
                1.0977203575492012,
                -0.10617403412551234,
                -0.003886052671158907
            ]
        },
        {
            "positions": [
                0.10172234784471017,
                -2.2299598333273023,
                -2.243095333406313,
                1.1873652819671756,
                -0.07709500095550073,
                -0.02205517857506939
            ]
        },
        {
            "positions": [
                0.1438002978057718,
                -2.2876706552994994,
                -2.3711361428804683,
                1.2770102063851503,
                -0.04801596778548914,
                -0.04022430447897987
            ]
        },
        {
            "positions": [
                0.043679042885824734,
                -2.279084188354449,
                -2.378868599677071,
                1.3251445373357433,
                0.018128347796879024,
                0.0077523060854419595
            ]
        },
        {
            "positions": [
                -0.056442212034122335,
                -2.270497721409399,
                -2.386601056473673,
                1.3732788682863364,
                0.08427266337924719,
                0.05572891664986379
            ]
        },
        {
            "positions": [
                -0.15656346695406942,
                -2.2619112544643487,
                -2.3943335132702757,
                1.4214131992369294,
                0.15041697896161538,
                0.10370552721428564
            ]
        },
        {
            "positions": [
                -0.18450368971582082,
                -2.275873846327787,
                -2.3962883562958637,
                1.4417074864947812,
                0.1770229113717173,
                0.0868608672445391
            ]
        }
    ]
}