{
    "goal": {
        "global_pose": {
            "orientation": {
                "w": -0.4816463035849501,
                "x": 0.5182115481033762,
                "y": 0.4908360881923453,
                "z": -0.5084816262002911
            },
            "position": {
                "x": -0.8240239810943604,
                "y": -0.300875300988555,
                "z": 0.16403168439865112
            }
        },
        "name": "move_to_storage_C"
    },
    "id": "EST_move_to_storage_C_5",
    "joint_names": [
        "shoulder_pan_joint",
        "shoulder_lift_joint",
        "elbow_joint",
        "wrist_1_joint",
        "wrist_2_joint",
        "wrist_3_joint"
    ],
    "metrics": {
        "cart_traj_len": 0.576415737506229,
        "distance_elbow_joint": 0.260243591343021,
        "distance_shoulder_lift_joint": 0.18915248645127858,
        "distance_shoulder_pan_joint": 0.4925866555984415,
        "distance_wrist_1_joint": 0.0831218596873523,
        "distance_wrist_2_joint": 1.079863549027428,
        "distance_wrist_3_joint": 0.056417549810259704,
        "smoothness": 0.0,
        "time": 0.016658058,
        "traj_len": 1.4701651920508052,
        "weighted_distance": 1.8539703881812892
    },
    "planner": "EST",
    "start": {
        "state": {
            "elbow_joint": 2.010868314990456,
            "shoulder_lift_joint": -1.1634956873337592,
            "shoulder_pan_joint": -2.4736205022346125,
            "wrist_1_joint": -0.8367026794202681,
            "wrist_2_joint": 0.6746043897044499,
            "wrist_3_joint": -3.1496632123970403
        }
    },
    "waypoints": [
        {
            "positions": [
                -2.4736205022346125,
                -1.1634956873337592,
                2.010868314990456,
                -0.8367026794202681,
                0.6746043897044499,
                -3.1496632123970403
            ]
        },
        {
            "positions": [
                -2.555718278167686,
                -1.1319702729252128,
                1.9674943830999523,
                -0.8228490361390427,
                0.8545816478756879,
                -3.1402602874286636
            ]
        },
        {
            "positions": [
                -2.63781605410076,
                -1.1004448585166664,
                1.9241204512094487,
                -0.8089953928578173,
                1.034558906046926,
                -3.130857362460287
            ]
        },
        {
            "positions": [
                -2.7199138300338332,
                -1.0689194441081198,
                1.8807465193189454,
                -0.795141749576592,
                1.2145361642181638,
                -3.12145443749191
            ]
        },
        {
            "positions": [
                -2.8020116059669067,
                -1.0373940296995734,
                1.837372587428442,
                -0.7812881062953666,
                1.394513422389402,
                -3.112051512523534
            ]
        },
        {
            "positions": [
                -2.8841093818999806,
                -1.005868615291027,
                1.7939986555379384,
                -0.7674344630141412,
                1.5744906805606398,
                -3.1026485875551573
            ]
        },
        {
            "positions": [
                -2.966207157833054,
                -0.9743432008824806,
                1.7506247236474348,
                -0.7535808197329158,
                1.7544679387318778,
                -3.0932456625867806
            ]
        }
    ]
}