{
    "goal": {
        "global_pose": {
            "orientation": {
                "w": 0.7047431493862688,
                "x": -0.7094548369677653,
                "y": 0.0024358444001904,
                "z": -0.0022348060817251984
            },
            "position": {
                "x": -0.39052492380142206,
                "y": 0.3671506643295288,
                "z": 0.19426114857196808
            }
        },
        "name": "move_to_magneteinheit_D"
    },
    "id": "EST_move_to_magneteinheit_D_75",
    "joint_names": [
        "shoulder_pan_joint",
        "shoulder_lift_joint",
        "elbow_joint",
        "wrist_1_joint",
        "wrist_2_joint",
        "wrist_3_joint"
    ],
    "metrics": {
        "cart_traj_len": 5.241820368203804,
        "distance_elbow_joint": 4.098311526193164,
        "distance_shoulder_lift_joint": 1.166297545798295,
        "distance_shoulder_pan_joint": 4.09364382131649,
        "distance_wrist_1_joint": 4.291172301864704,
        "distance_wrist_2_joint": 0.6191546417054214,
        "distance_wrist_3_joint": 6.30714543020029,
        "smoothness": 0.5032714557817588,
        "time": 0.542088527,
        "traj_len": 4.536047317552846,
        "weighted_distance": 6.172547534936371
    },
    "planner": "EST",
    "start": {
        "state": {
            "elbow_joint": 0.749534889911806,
            "shoulder_lift_joint": -0.6476975780787326,
            "shoulder_pan_joint": -2.711696901376241,
            "wrist_1_joint": -0.07506478083263063,
            "wrist_2_joint": 0.43296659715538205,
            "wrist_3_joint": -3.14703540197715
        }
    },
    "waypoints": [
        {
            "positions": [
                -2.711696901376241,
                -0.6476975780787326,
                0.749534889911806,
                -0.07506478083263063,
                0.43296659715538205,
                -3.14703540197715
            ]
        },
        {
            "positions": [
                -2.7786796084909486,
                -0.663555186284378,
                0.8203714352263964,
                0.07913568842273211,
                0.4167640277719736,
                -3.128171492592386
            ]
        },
        {
            "positions": [
                -2.8456623156056557,
                -0.6794127944900235,
                0.8912079805409869,
                0.23333615767809485,
                0.40056145838856505,
                -3.1093075832076216
            ]
        },
        {
            "positions": [
                -2.9126450227203633,
                -0.6952704026956689,
                0.9620445258555774,
                0.3875366269334576,
                0.3843588890051566,
                -3.0904436738228576
            ]
        },
        {
            "positions": [
                -2.9796277298350704,
                -0.7111280109013142,
                1.032881071170168,
                0.5417370961888204,
                0.36815631962174805,
                -3.0715797644380936
            ]
        },
        {
            "positions": [
                -3.046610436949778,
                -0.7269856191069596,
                1.1037176164847584,
                0.6959375654441831,
                0.3519537502383396,
                -3.0527158550533295
            ]
        },
        {
            "positions": [
                -3.113593144064485,
                -0.742843227312605,
                1.174554161799349,
                0.8501380346995457,
                0.33575118085493105,
                -3.033851945668565
            ]
        },
        {
            "positions": [
                -3.1805758511791926,
                -0.7587008355182504,
                1.2453907071139394,
                1.0043385039549086,
                0.3195486114715226,
                -3.014988036283801
            ]
        },
        {
            "positions": [
                -3.1017690688735144,
                -0.7830257440686131,
                1.169676179721486,
                0.938126167759693,
                0.307827230537321,
                -2.8759654874199243
            ]
        },
        {
            "positions": [
                -3.0229622865678363,
                -0.807350652618976,
                1.093961652329033,
                0.8719138315644774,
                0.2961058496031194,
                -2.736942938556047
            ]
        },
        {
            "positions": [
                -2.944155504262158,
                -0.8316755611693387,
                1.0182471249365797,
                0.8057014953692618,
                0.2843844686689178,
                -2.5979203896921703
            ]
        },
        {
            "positions": [
                -2.86534872195648,
                -0.8560004697197015,
                0.9425325975441263,
                0.7394891591740462,
                0.27266308773471626,
                -2.458897840828293
            ]
        },
        {
            "positions": [
                -2.7865419396508018,
                -0.8803253782700642,
                0.8668180701516731,
                0.6732768229788306,
                0.26094170680051465,
                -2.3198752919644163
            ]
        },
        {
            "positions": [
                -2.7077351573451236,
                -0.904650286820427,
                0.7911035427592199,
                0.607064486783615,
                0.24922032586631304,
                -2.180852743100539
            ]
        },
        {
            "positions": [
                -2.6289283750394454,
                -0.9289751953707898,
                0.7153890153667666,
                0.5408521505883994,
                0.23749894493211146,
                -2.0418301942366623
            ]
        },
        {
            "positions": [
                -2.5501215927337673,
                -0.9533001039211525,
                0.6396744879743134,
                0.4746398143931838,
                0.22577756399790988,
                -1.9028076453727854
            ]
        },
        {
            "positions": [
                -2.471314810428089,
                -0.9776250124715153,
                0.56395996058186,
                0.4084274781979681,
                0.21405618306370827,
                -1.7637850965089084
            ]
        },
        {
            "positions": [
                -2.392508028122411,
                -1.001949921021878,
                0.48824543318940683,
                0.3422151420027525,
                0.20233480212950672,
                -1.6247625476450314
            ]
        },
        {
            "positions": [
                -2.3137012458167328,
                -1.0262748295722408,
                0.4125309057969535,
                0.2760028058075369,
                0.1906134211953051,
                -1.4857399987811541
            ]
        },
        {
            "positions": [
                -2.234894463511055,
                -1.0505997381226035,
                0.3368163784045003,
                0.20979046961232128,
                0.17889204026110353,
                -1.3467174499172774
            ]
        },
        {
            "positions": [
                -2.1560876812053764,
                -1.0749246466729665,
                0.26110185101204697,
                0.14357813341710557,
                0.16717065932690192,
                -1.2076949010534002
            ]
        },
        {
            "positions": [
                -2.0772808988996987,
                -1.099249555223329,
                0.18538732361959376,
                0.07736579722189008,
                0.15544927839270034,
                -1.0686723521895234
            ]
        },
        {
            "positions": [
                -1.9984741165940203,
                -1.123574463773692,
                0.10967279622714043,
                0.01115346102667436,
                0.14372789745849876,
                -0.9296498033256464
            ]
        },
        {
            "positions": [
                -1.9196673342883421,
                -1.1478993723240547,
                0.03395826883468733,
                -0.05505887516854102,
                0.13200651652429718,
                -0.7906272544617696
            ]
        },
        {
            "positions": [
                -1.840860551982664,
                -1.1722242808744174,
                -0.04175625855776599,
                -0.12127121136375685,
                0.12028513559009557,
                -0.6516047055978924
            ]
        },
        {
            "positions": [
                -1.7620537696769858,
                -1.1965491894247802,
                -0.11747078595021931,
                -0.18748354755897245,
                0.10856375465589399,
                -0.5125821567340156
            ]
        },
        {
            "positions": [
                -1.6832469873713076,
                -1.220874097975143,
                -0.19318531334267264,
                -0.25369588375418806,
                0.09684237372169241,
                -0.3735596078701384
            ]
        },
        {
            "positions": [
                -1.6044402050656295,
                -1.2451990065255056,
                -0.26889984073512574,
                -0.31990821994940366,
                0.08512099278749083,
                -0.23453705900626165
            ]
        },
        {
            "positions": [
                -1.5256334227599513,
                -1.2695239150758684,
                -0.34461436812757906,
                -0.38612055614461926,
                0.07339961185328922,
                -0.09551451014238443
            ]
        },
        {
            "positions": [
                -1.4468266404542731,
                -1.2938488236262313,
                -0.4203288955200324,
                -0.45233289233983487,
                0.06167823091908764,
                0.04350803872149278
            ]
        },
        {
            "positions": [
                -1.3680198581485947,
                -1.318173732176594,
                -0.4960434229124857,
                -0.5185452285350507,
                0.04995684998488603,
                0.18253058758537
            ]
        },
        {
            "positions": [
                -1.289213075842917,
                -1.3424986407269568,
                -0.5717579503049388,
                -0.5847575647302661,
                0.03823546905068448,
                0.3215531364492463
            ]
        },
        {
            "positions": [
                -1.2104062935372386,
                -1.3668235492773195,
                -0.6474724776973921,
                -0.6509699009254817,
                0.02651408811648287,
                0.46057568531312354
            ]
        },
        {
            "positions": [
                -1.1315995112315602,
                -1.3911484578276823,
                -0.7231870050898455,
                -0.7171822371206975,
                0.014792707182281262,
                0.5995982341770008
            ]
        },
        {
            "positions": [
                -1.052792728925882,
                -1.4154733663780452,
                -0.7989015324822986,
                -0.7833945733159131,
                0.0030713262480796533,
                0.7386207830408775
            ]
        },
        {
            "positions": [
                -0.9739859466202043,
                -1.4397982749284077,
                -0.8746160598747519,
                -0.8496069095111285,
                -0.0086500546861219,
                0.8776433319047543
            ]
        },
        {
            "positions": [
                -0.8951791643145262,
                -1.4641231834787707,
                -0.9503305872672052,
                -0.9158192457063441,
                -0.020371435620323508,
                1.0166658807686315
            ]
        },
        {
            "positions": [
                -0.816372382008848,
                -1.4884480920291334,
                -1.0260451146596585,
                -0.9820315819015599,
                -0.03209281655452506,
                1.1556884296325083
            ]
        },
        {
            "positions": [
                -0.7375655997031694,
                -1.5127730005794962,
                -1.1017596420521119,
                -1.0482439180967758,
                -0.04381419748872667,
                1.294710978496386
            ]
        },
        {
            "positions": [
                -0.6587588173974916,
                -1.5370979091298589,
                -1.1774741694445647,
                -1.1144562542919907,
                -0.05553557842292822,
                1.4337335273602618
            ]
        },
        {
            "positions": [
                -0.5799520350918135,
                -1.5614228176802216,
                -1.253188696837018,
                -1.1806685904872065,
                -0.06725695935712983,
                1.5727560762241395
            ]
        },
        {
            "positions": [
                -0.5011452527861353,
                -1.5857477262305846,
                -1.3289032242294714,
                -1.2468809266824223,
                -0.07897834029133144,
                1.7117786250880163
            ]
        },
        {
            "positions": [
                -0.42233847048045714,
                -1.610072634780947,
                -1.4046177516219247,
                -1.3130932628776382,
                -0.09069972122553305,
                1.850801173951894
            ]
        },
        {
            "positions": [
                -0.34353168817477897,
                -1.63439754333131,
                -1.480332279014378,
                -1.3793055990728535,
                -0.1024211021597346,
                1.9898237228157698
            ]
        },
        {
            "positions": [
                -0.2647249058691008,
                -1.6587224518816726,
                -1.5560468064068314,
                -1.445517935268069,
                -0.11414248309393621,
                2.1288462716796475
            ]
        },
        {
            "positions": [
                -0.18591812356342263,
                -1.6830473604320355,
                -1.6317613337992847,
                -1.5117302714632848,
                -0.12586386402813776,
                2.2678688205435242
            ]
        },
        {
            "positions": [
                -0.10711134125774446,
                -1.7073722689823982,
                -1.707475861191738,
                -1.5779426076585006,
                -0.13758524496233937,
                2.406891369407401
            ]
        },
        {
            "positions": [
                -0.028304558952066294,
                -1.731697177532761,
                -1.7831903885841909,
                -1.644154943853716,
                -0.14930662589654092,
                2.5459139182712778
            ]
        },
        {
            "positions": [
                0.050502223353611875,
                -1.7560220860831237,
                -1.8589049159766442,
                -1.7103672800489313,
                -0.16102800683074253,
                2.6849364671351554
            ]
        },
        {
            "positions": [
                0.12930900565928988,
                -1.7803469946334864,
                -1.9346194433690975,
                -1.7765796162441474,
                -0.17274938776494414,
                2.8239590159990318
            ]
        },
        {
            "positions": [
                0.05058900199052599,
                -1.771934962322601,
                -2.040230832996096,
                -1.8842923404636747,
                -0.17610905196121787,
                2.9079967690550586
            ]
        },
        {
            "positions": [
                -0.0281310016782379,
                -1.763522930011716,
                -2.145842222623094,
                -1.9920050646832022,
                -0.1794687161574916,
                2.9920345221110853
            ]
        },
        {
            "positions": [
                -0.10685100534700179,
                -1.7551108977008307,
                -2.251453612250093,
                -2.0997177889027294,
                -0.18282838035376534,
                3.0760722751671117
            ]
        },
        {
            "positions": [
                -0.1855710090157657,
                -1.7466988653899453,
                -2.3570650018770913,
                -2.2074305131222567,
                -0.18618804455003907,
                3.1601100282231385
            ]
        }
    ]
}