{
    "goal": {
        "global_pose": {
            "orientation": {
                "w": 0.7047431493862688,
                "x": -0.7094548369677653,
                "y": 0.0024358444001904,
                "z": -0.0022348060817251984
            },
            "position": {
                "x": -0.39052492380142206,
                "y": 0.3671506643295288,
                "z": 0.19426114857196808
            }
        },
        "name": "move_to_magneteinheit_D"
    },
    "id": "EST_move_to_magneteinheit_D_132",
    "joint_names": [
        "shoulder_pan_joint",
        "shoulder_lift_joint",
        "elbow_joint",
        "wrist_1_joint",
        "wrist_2_joint",
        "wrist_3_joint"
    ],
    "metrics": {
        "cart_traj_len": 4.486266578766599,
        "distance_elbow_joint": 3.5491325990476454,
        "distance_shoulder_lift_joint": 1.094247650516902,
        "distance_shoulder_pan_joint": 3.35553991584746,
        "distance_wrist_1_joint": 2.1475500430569006,
        "distance_wrist_2_joint": 0.8641912475393092,
        "distance_wrist_3_joint": 6.4243180549149566,
        "smoothness": 0.3160877375894909,
        "time": 0.61068739,
        "traj_len": 4.175521465748101,
        "weighted_distance": 5.770212900001984
    },
    "planner": "EST",
    "start": {
        "state": {
            "elbow_joint": 0.749534889911806,
            "shoulder_lift_joint": -0.6476975780787326,
            "shoulder_pan_joint": -2.711696901376241,
            "wrist_1_joint": -0.07506478083263063,
            "wrist_2_joint": 0.43296659715538205,
            "wrist_3_joint": -3.14703540197715
        }
    },
    "waypoints": [
        {
            "positions": [
                -2.711696901376241,
                -0.6476975780787326,
                0.749534889911806,
                -0.07506478083263063,
                0.43296659715538205,
                -3.14703540197715
            ]
        },
        {
            "positions": [
                -2.7531909465309656,
                -0.6699246988658584,
                0.7345558026250202,
                -0.07881401585555678,
                0.2633314665477218,
                -3.1718893842323372
            ]
        },
        {
            "positions": [
                -2.7946849916856897,
                -0.692151819652984,
                0.7195767153382343,
                -0.08256325087848292,
                0.0936963359400616,
                -3.196743366487524
            ]
        },
        {
            "positions": [
                -2.8361790368404143,
                -0.7143789404401097,
                0.7045976280514485,
                -0.08631248590140907,
                -0.07593879466759862,
                -3.221597348742711
            ]
        },
        {
            "positions": [
                -2.7524050217620015,
                -0.7368815191562873,
                0.6279234586974226,
                -0.1340990472255884,
                -0.07224033535610512,
                -3.070315506000475
            ]
        },
        {
            "positions": [
                -2.6686310066835883,
                -0.759384097872465,
                0.5512492893433968,
                -0.1818856085497677,
                -0.06854187604461161,
                -2.9190336632582388
            ]
        },
        {
            "positions": [
                -2.5848569916051756,
                -0.7818866765886425,
                0.47457511998937085,
                -0.22967216987394706,
                -0.06484341673311811,
                -2.7677518205160028
            ]
        },
        {
            "positions": [
                -2.501082976526763,
                -0.8043892553048202,
                0.397900950635345,
                -0.27745873119812636,
                -0.0611449574216246,
                -2.6164699777737663
            ]
        },
        {
            "positions": [
                -2.4173089614483496,
                -0.8268918340209978,
                0.3212267812813191,
                -0.3252452925223057,
                -0.0574464981101311,
                -2.4651881350315303
            ]
        },
        {
            "positions": [
                -2.333534946369937,
                -0.8493944127371753,
                0.24455261192729316,
                -0.3730318538464851,
                -0.0537480387986376,
                -2.3139062922892943
            ]
        },
        {
            "positions": [
                -2.249760931291524,
                -0.871896991453353,
                0.16787844257326734,
                -0.4208184151706643,
                -0.05004957948714409,
                -2.1626244495470583
            ]
        },
        {
            "positions": [
                -2.1659869162131113,
                -0.8943995701695305,
                0.0912042732192414,
                -0.4686049764948437,
                -0.04635112017565059,
                -2.011342606804822
            ]
        },
        {
            "positions": [
                -2.082212901134698,
                -0.9169021488857082,
                0.014530103865215582,
                -0.516391537819023,
                -0.04265266086415709,
                -1.860060764062586
            ]
        },
        {
            "positions": [
                -1.9984388860562854,
                -0.9394047276018858,
                -0.06214406548881035,
                -0.5641780991432024,
                -0.03895420155266358,
                -1.7087789213203497
            ]
        },
        {
            "positions": [
                -1.9146648709778726,
                -0.9619073063180634,
                -0.13881823484283629,
                -0.6119646604673817,
                -0.03525574224117008,
                -1.5574970785781135
            ]
        },
        {
            "positions": [
                -1.8308908558994597,
                -0.984409885034241,
                -0.21549240419686222,
                -0.6597512217915611,
                -0.03155728292967657,
                -1.4062152358358773
            ]
        },
        {
            "positions": [
                -1.747116840821047,
                -1.0069124637504185,
                -0.29216657355088793,
                -0.7075377831157403,
                -0.027858823618183072,
                -1.2549333930936413
            ]
        },
        {
            "positions": [
                -1.663342825742634,
                -1.0294150424665962,
                -0.36884074290491387,
                -0.7553243444399196,
                -0.024160364306689566,
                -1.103651550351405
            ]
        },
        {
            "positions": [
                -1.579568810664221,
                -1.0519176211827737,
                -0.4455149122589397,
                -0.8031109057640989,
                -0.020461904995196067,
                -0.9523697076091691
            ]
        },
        {
            "positions": [
                -1.4957947955858082,
                -1.0744201998989513,
                -0.5221890816129657,
                -0.8508974670882783,
                -0.01676344568370256,
                -0.8010878648669326
            ]
        },
        {
            "positions": [
                -1.4120207805073952,
                -1.096922778615129,
                -0.5988632509669916,
                -0.8986840284124576,
                -0.013064986372209056,
                -0.6498060221246966
            ]
        },
        {
            "positions": [
                -1.3282467654289822,
                -1.1194253573313067,
                -0.6755374203210174,
                -0.946470589736637,
                -0.009366527060715557,
                -0.49852417938246063
            ]
        },
        {
            "positions": [
                -1.2444727503505695,
                -1.1419279360474843,
                -0.7522115896750434,
                -0.9942571510608164,
                -0.005668067749222044,
                -0.3472423366402242
            ]
        },
        {
            "positions": [
                -1.1606987352721565,
                -1.1644305147636618,
                -0.8288857590290692,
                -1.0420437123849957,
                -0.0019696084377285455,
                -0.1959604938979882
            ]
        },
        {
            "positions": [
                -1.0769247201937435,
                -1.1869330934798394,
                -0.9055599283830951,
                -1.089830273709175,
                0.0017288508737649672,
                -0.04467865115575176
            ]
        },
        {
            "positions": [
                -0.9931507051153308,
                -1.209435672196017,
                -0.9822340977371211,
                -1.1376168350333544,
                0.005427310185258466,
                0.10660319158648424
            ]
        },
        {
            "positions": [
                -0.9093766900369178,
                -1.2319382509121946,
                -1.058908267091147,
                -1.1854033963575337,
                0.009125769496751965,
                0.2578850343287207
            ]
        },
        {
            "positions": [
                -0.825602674958505,
                -1.2544408296283722,
                -1.135582436445173,
                -1.2331899576817131,
                0.012824228808245478,
                0.40916687707095667
            ]
        },
        {
            "positions": [
                -0.7418286598800918,
                -1.27694340834455,
                -1.2122566057991988,
                -1.2809765190058924,
                0.016522688119738976,
                0.5604487198131927
            ]
        },
        {
            "positions": [
                -0.6580546448016795,
                -1.2994459870607273,
                -1.2889307751532244,
                -1.3287630803300716,
                0.020221147431232475,
                0.7117305625554287
            ]
        },
        {
            "positions": [
                -0.5742806297232663,
                -1.321948565776905,
                -1.3656049445072502,
                -1.3765496416542509,
                0.023919606742725974,
                0.8630124052976642
            ]
        },
        {
            "positions": [
                -0.49050661464485357,
                -1.3444511444930827,
                -1.4422791138612763,
                -1.42433620297843,
                0.027618066054219487,
                1.014294248039901
            ]
        },
        {
            "positions": [
                -0.4067325995664408,
                -1.3669537232092601,
                -1.5189532832153023,
                -1.4721227643026096,
                0.031316525365712986,
                1.165576090782137
            ]
        },
        {
            "positions": [
                -0.3229585844880276,
                -1.3894563019254378,
                -1.595627452569328,
                -1.5199093256267888,
                0.035014984677206484,
                1.316857933524373
            ]
        },
        {
            "positions": [
                -0.23918456940961486,
                -1.4119588806416155,
                -1.672301621923354,
                -1.5676958869509683,
                0.0387134439887,
                1.468139776266609
            ]
        },
        {
            "positions": [
                -0.1554105543312021,
                -1.434461459357793,
                -1.74897579127738,
                -1.6154824482751475,
                0.042411903300193496,
                1.619421619008846
            ]
        },
        {
            "positions": [
                -0.0716365392527889,
                -1.4569640380739708,
                -1.8256499606314056,
                -1.663269009599327,
                0.04611036261168701,
                1.770703461751082
            ]
        },
        {
            "positions": [
                0.012137475825623707,
                -1.4794666167901482,
                -1.9023241299854314,
                -1.7110555709235062,
                0.049808821923180514,
                1.9219853044933184
            ]
        },
        {
            "positions": [
                0.027490262443327904,
                -1.4919815689206346,
                -2.0156924779527157,
                -1.7058219226955313,
                0.02593487674400812,
                2.1043043108434603
            ]
        },
        {
            "positions": [
                0.042843049061032104,
                -1.504496521051121,
                -2.1290608259199995,
                -1.7005882744675564,
                0.0020609315648357288,
                2.286623317193602
            ]
        },
        {
            "positions": [
                0.058195835678736305,
                -1.5170114731816073,
                -2.2424291738872837,
                -1.6953546262395816,
                -0.021813013614336664,
                2.468942323543744
            ]
        },
        {
            "positions": [
                0.07354862229644049,
                -1.5295264253120937,
                -2.355797521854568,
                -1.6901209780116064,
                -0.04568695879350906,
                2.6512613298938854
            ]
        },
        {
            "positions": [
                0.08890140891414469,
                -1.54204137744258,
                -2.469165869821852,
                -1.6848873297836315,
                -0.06956090397268144,
                2.8335803362440273
            ]
        },
        {
            "positions": [
                0.10425419553184889,
                -1.5545563295730664,
                -2.582534217789136,
                -1.6796536815556566,
                -0.09343484915185385,
                3.015899342594169
            ]
        },
        {
            "positions": [
                0.03159805852909314,
                -1.6014035543287086,
                -2.52826834495246,
                -1.7996930224552006,
                -0.11500849116448278,
                3.0439641967972983
            ]
        },
        {
            "positions": [
                -0.04105807847366261,
                -1.6482507790843506,
                -2.474002472115784,
                -1.9197323633547443,
                -0.1365821331771117,
                3.072029051000428
            ]
        },
        {
            "positions": [
                -0.11371421547641836,
                -1.6950980038399925,
                -2.4197365992791076,
                -2.039771704254288,
                -0.1581557751897406,
                3.1000939052035577
            ]
        },
        {
            "positions": [
                -0.18637035247917413,
                -1.7419452285956347,
                -2.3654707264424317,
                -2.159811045153832,
                -0.17972941720236954,
                3.128158759406687
            ]
        }
    ]
}