{
    "goal": {
        "global_pose": {
            "orientation": {
                "w": 0.005598929693374612,
                "x": 0.007748599140229565,
                "y": 0.7110244013736278,
                "z": -0.7031023480610252
            },
            "position": {
                "x": 0.1141497679147869,
                "y": -0.7141253447532654,
                "z": 0.3711530566215515
            }
        },
        "name": "move_to_auspresseinheit_B"
    },
    "id": "EST_move_to_auspresseinheit_B_83",
    "joint_names": [
        "shoulder_pan_joint",
        "shoulder_lift_joint",
        "elbow_joint",
        "wrist_1_joint",
        "wrist_2_joint",
        "wrist_3_joint"
    ],
    "metrics": {
        "cart_traj_len": 0.5641466233478266,
        "distance_elbow_joint": 0.06416204237238543,
        "distance_shoulder_lift_joint": 0.29371937765706857,
        "distance_shoulder_pan_joint": 0.5776677344899108,
        "distance_wrist_1_joint": 0.33727228962815103,
        "distance_wrist_2_joint": 0.9905491684181806,
        "distance_wrist_3_joint": 0.009309123960493437,
        "smoothness": 3.806478935924272e-16,
        "time": 0.157342349,
        "traj_len": 1.5075409568320821,
        "weighted_distance": 1.9023983395949198
    },
    "planner": "EST",
    "start": {
        "state": {
            "elbow_joint": 2.0193083361928714,
            "shoulder_lift_joint": -1.1220246554650708,
            "shoulder_pan_joint": -1.0952077554168747,
            "wrist_1_joint": -0.8559753972642168,
            "wrist_2_joint": 0.4759566250798843,
            "wrist_3_joint": -3.1240929996934557
        }
    },
    "waypoints": [
        {
            "positions": [
                -1.0952077554168747,
                -1.1220246554650708,
                2.0193083361928714,
                -0.8559753972642168,
                0.4759566250798843,
                -3.1240929996934557
            ]
        },
        {
            "positions": [
                -1.191485711165193,
                -1.1709778850745822,
                2.0086146624641406,
                -0.7997633489928583,
                0.6410481531495811,
                -3.1225414790333734
            ]
        },
        {
            "positions": [
                -1.2877636669135115,
                -1.2199311146840937,
                1.9979209887354097,
                -0.7435513007214998,
                0.8061396812192778,
                -3.120989958373291
            ]
        },
        {
            "positions": [
                -1.38404162266183,
                -1.268884344293605,
                1.9872273150066788,
                -0.6873392524501413,
                0.9712312092889746,
                -3.119438437713209
            ]
        },
        {
            "positions": [
                -1.4803195784101484,
                -1.3178375739031165,
                1.9765336412779477,
                -0.6311272041787828,
                1.1363227373586713,
                -3.1178869170531267
            ]
        },
        {
            "positions": [
                -1.576597534158467,
                -1.366790803512628,
                1.9658399675492169,
                -0.5749151559074243,
                1.3014142654283682,
                -3.1163353963930445
            ]
        },
        {
            "positions": [
                -1.6728754899067855,
                -1.4157440331221394,
                1.955146293820486,
                -0.5187031076360658,
                1.466505793498065,
                -3.1147838757329622
            ]
        }
    ]
}