{
    "goal": {
        "global_pose": {
            "orientation": {
                "w": 0.5084816217422485,
                "x": -0.49083608388900757,
                "y": 0.5182115435600281,
                "z": -0.4816462993621826
            },
            "position": {
                "x": 0.5540239810943604,
                "y": 0.030875300988554955,
                "z": 0.16403168439865112
            }
        },
        "name": "move_to_storage_A"
    },
    "id": "EST_move_to_storage_A_115",
    "joint_names": [
        "shoulder_pan_joint",
        "shoulder_lift_joint",
        "elbow_joint",
        "wrist_1_joint",
        "wrist_2_joint",
        "wrist_3_joint"
    ],
    "metrics": {
        "cart_traj_len": 0.35348581087595005,
        "distance_elbow_joint": 0.452111935712322,
        "distance_shoulder_lift_joint": 0.2345079383706623,
        "distance_shoulder_pan_joint": 0.45851265522591284,
        "distance_wrist_1_joint": 0.2543446851559187,
        "distance_wrist_2_joint": 1.1156345876026128,
        "distance_wrist_3_joint": 0.10623796360947724,
        "smoothness": 1.1102230298998083e-15,
        "time": 0.160770316,
        "traj_len": 1.6190582959476492,
        "weighted_distance": 2.050318259601273
    },
    "planner": "EST",
    "start": {
        "state": {
            "elbow_joint": 1.971548259319323,
            "shoulder_lift_joint": -1.1394851275133948,
            "shoulder_pan_joint": 0.1228115487234821,
            "wrist_1_joint": -0.7804723859257726,
            "wrist_2_joint": 0.12958671773740124,
            "wrist_3_joint": -3.192489227718131
        }
    },
    "waypoints": [
        {
            "positions": [
                0.1228115487234821,
                -1.1394851275133948,
                1.971548259319323,
                -0.7804723859257726,
                0.12958671773740124,
                -3.192489227718131
            ]
        },
        {
            "positions": [
                0.05730974083406598,
                -1.1729862615663467,
                2.0361356787067977,
                -0.8168073409480467,
                0.2889630873949174,
                -3.17731237577392
            ]
        },
        {
            "positions": [
                -0.008192067055350138,
                -1.2064873956192983,
                2.100723098094272,
                -0.8531422959703208,
                0.4483394570524335,
                -3.162135523829709
            ]
        },
        {
            "positions": [
                -0.07369387494476626,
                -1.2399885296722502,
                2.1653105174817466,
                -0.8894772509925949,
                0.6077158267099496,
                -3.146958671885498
            ]
        },
        {
            "positions": [
                -0.13919568283418238,
                -1.2734896637252018,
                2.229897936869221,
                -0.925812206014869,
                0.7670921963674657,
                -3.131781819941287
            ]
        },
        {
            "positions": [
                -0.2046974907235985,
                -1.3069907977781536,
                2.294485356256696,
                -0.962147161037143,
                0.9264685660249818,
                -3.116604967997076
            ]
        },
        {
            "positions": [
                -0.2701992986130146,
                -1.3404919318311053,
                2.3590727756441705,
                -0.9984821160594172,
                1.085844935682498,
                -3.101428116052865
            ]
        },
        {
            "positions": [
                -0.33570110650243074,
                -1.3739930658840571,
                2.423660195031645,
                -1.0348170710816913,
                1.245221305340014,
                -3.086251264108654
            ]
        }
    ]
}{
    "goal": {
        "global_pose": {
            "orientation": {
                "w": 0.5084816217422485,
                "x": -0.49083608388900757,
                "y": 0.5182115435600281,
                "z": -0.4816462993621826
            },
            "position": {
                "x": 0.5540239810943604,
                "y": 0.030875300988554955,
                "z": 0.16403168439865112
            }
        },
        "name": "move_to_storage_A"
    },
    "id": "EST_move_to_storage_A_115",
    "joint_names": [
        "shoulder_pan_joint",
        "shoulder_lift_joint",
        "elbow_joint",
        "wrist_1_joint",
        "wrist_2_joint",
        "wrist_3_joint"
    ],
    "metrics": {
        "cart_traj_len": 0.35218412745992594,
        "distance_elbow_joint": 0.45007632564534994,
        "distance_shoulder_lift_joint": 0.23373447767146227,
        "distance_shoulder_pan_joint": 0.4610133064539352,
        "distance_wrist_1_joint": 0.2431634128019875,
        "distance_wrist_2_joint": 1.094843360684762,
        "distance_wrist_3_joint": 0.08870278107891849,
        "smoothness": 4.440892098500626e-16,
        "time": 0.045423765,
        "traj_len": 1.6036002196109902,
        "weighted_distance": 2.021619647703544
    },
    "planner": "EST",
    "start": {
        "state": {
            "elbow_joint": 1.97154746011099,
            "shoulder_lift_joint": -1.13948474672311,
            "shoulder_pan_joint": 0.12281154466712228,
            "wrist_1_joint": -0.7804688027058302,
            "wrist_2_joint": 0.12958655903071145,
            "wrist_3_joint": 3.0906928834467795
        }
    },
    "waypoints": [
        {
            "positions": [
                0.12281154466712228,
                -1.13948474672311,
                1.97154746011099,
                -0.7804688027058302,
                0.12958655903071145,
                3.0906928834467795
            ]
        },
        {
            "positions": [
                0.056952500887988686,
                -1.1728753863904617,
                2.0358440780603257,
                -0.8152064331061141,
                0.2859927534142489,
                3.1033647093151964
            ]
        },
        {
            "positions": [
                -0.008906542891144911,
                -1.2062660260578135,
                2.100140696009661,
                -0.8499440635063981,
                0.4423989477977863,
                3.1160365351836132
            ]
        },
        {
            "positions": [
                -0.07476558667027851,
                -1.2396566657251653,
                2.164437313958997,
                -0.8846816939066819,
                0.5988051421813237,
                3.12870836105203
            ]
        },
        {
            "positions": [
                -0.1406246304494121,
                -1.2730473053925169,
                2.228733931908333,
                -0.9194193243069659,
                0.7552113365648612,
                3.1413801869204474
            ]
        },
        {
            "positions": [
                -0.2064836742285457,
                -1.3064379450598687,
                2.2930305498576686,
                -0.9541569547072498,
                0.9116175309483987,
                3.1540520127888643
            ]
        },
        {
            "positions": [
                -0.2723427180076793,
                -1.3398285847272204,
                2.357327167807004,
                -0.9888945851075337,
                1.068023725331936,
                3.166723838657281
            ]
        },
        {
            "positions": [
                -0.3382017617868129,
                -1.3732192243945722,
                2.42162378575634,
                -1.0236322155078177,
                1.2244299197154735,
                3.179395664525698
            ]
        }
    ]
}{
    "goal": {
        "global_pose": {
            "orientation": {
                "w": 0.5084816217422485,
                "x": -0.49083608388900757,
                "y": 0.5182115435600281,
                "z": -0.4816462993621826
            },
            "position": {
                "x": 0.5540239810943604,
                "y": 0.030875300988554955,
                "z": 0.16403168439865112
            }
        },
        "name": "move_to_storage_A"
    },
    "id": "EST_move_to_storage_A_115",
    "joint_names": [
        "shoulder_pan_joint",
        "shoulder_lift_joint",
        "elbow_joint",
        "wrist_1_joint",
        "wrist_2_joint",
        "wrist_3_joint"
    ],
    "metrics": {
        "cart_traj_len": 0.3526412723216748,
        "distance_elbow_joint": 0.4508554334526189,
        "distance_shoulder_lift_joint": 0.23436851242116719,
        "distance_shoulder_pan_joint": 0.4589265922799906,
        "distance_wrist_1_joint": 0.243301641213294,
        "distance_wrist_2_joint": 1.107901157644308,
        "distance_wrist_3_joint": 0.08766343791685483,
        "smoothness": 8.881784197001252e-16,
        "time": 0.026302438,
        "traj_len": 1.6071766470827757,
        "weighted_distance": 2.027201630233052
    },
    "planner": "EST",
    "start": {
        "state": {
            "elbow_joint": 1.9715472970024885,
            "shoulder_lift_joint": -1.1394870060712896,
            "shoulder_pan_joint": 0.12281152778156021,
            "wrist_1_joint": -0.780463741449964,
            "wrist_2_joint": 0.12958659822042276,
            "wrist_3_joint": 3.090690232415272
        }
    },
    "waypoints": [
        {
            "positions": [
                0.12281152778156021,
                -1.1394870060712896,
                1.9715472970024885,
                -0.780463741449964,
                0.12958659822042276,
                3.090690232415272
            ]
        },
        {
            "positions": [
                0.057250586027275854,
                -1.1729682221314564,
                2.0359552160671486,
                -0.8152211187661489,
                0.2878581921696096,
                3.103213580689108
            ]
        },
        {
            "positions": [
                -0.0083103557270085,
                -1.206449438191623,
                2.100363135131808,
                -0.8499784960823337,
                0.4461297861187965,
                3.115736928962945
            ]
        },
        {
            "positions": [
                -0.07387129748129287,
                -1.2399306542517898,
                2.164771054196468,
                -0.8847358733985186,
                0.6044013800679834,
                3.128260277236781
            ]
        },
        {
            "positions": [
                -0.1394322392355772,
                -1.2734118703119566,
                2.229178973261128,
                -0.9194932507147034,
                0.7626729740171702,
                3.1407836255106174
            ]
        },
        {
            "positions": [
                -0.2049931809898616,
                -1.3068930863721233,
                2.293586892325788,
                -0.9542506280308882,
                0.920944567966357,
                3.1533069737844537
            ]
        },
        {
            "positions": [
                -0.2705541227441459,
                -1.34037430243229,
                2.3579948113904474,
                -0.9890080053470731,
                1.079216161915544,
                3.1658303220582904
            ]
        },
        {
            "positions": [
                -0.33611506449843037,
                -1.3738555184924568,
                2.4224027304551075,
                -1.023765382663258,
                1.2374877558647308,
                3.1783536703321267
            ]
        }
    ]
}