{
    "goal": {
        "global_pose": {
            "orientation": {
                "w": -0.4816463035849501,
                "x": 0.5182115481033762,
                "y": 0.4908360881923453,
                "z": -0.5084816262002911
            },
            "position": {
                "x": -0.8240239810943604,
                "y": 0.19912469901144506,
                "z": 0.16403168439865112
            }
        },
        "name": "move_to_storage_D"
    },
    "id": "EST_move_to_storage_D_149",
    "joint_names": [
        "shoulder_pan_joint",
        "shoulder_lift_joint",
        "elbow_joint",
        "wrist_1_joint",
        "wrist_2_joint",
        "wrist_3_joint"
    ],
    "metrics": {
        "cart_traj_len": 3.592254683636557,
        "distance_elbow_joint": 4.2096095763141435,
        "distance_shoulder_lift_joint": 1.2641262190289289,
        "distance_shoulder_pan_joint": 2.814831820101304,
        "distance_wrist_1_joint": 2.2919570915995005,
        "distance_wrist_2_joint": 2.798449347164763,
        "distance_wrist_3_joint": 3.1359992095186566,
        "smoothness": 0.15237011624767519,
        "time": 0.15788159699999998,
        "traj_len": 4.063861865729111,
        "weighted_distance": 5.279903230318608
    },
    "planner": "EST",
    "start": {
        "state": {
            "elbow_joint": -2.384821988534728,
            "shoulder_lift_joint": -2.2788054721415256,
            "shoulder_pan_joint": -0.1854694642142757,
            "wrist_1_joint": 1.4845938289331202,
            "wrist_2_joint": 0.17898776772866878,
            "wrist_3_joint": 0.037105688729662994
        }
    },
    "waypoints": [
        {
            "positions": [
                -0.1854694642142757,
                -2.2788054721415256,
                -2.384821988534728,
                1.4845938289331202,
                0.17898776772866878,
                0.037105688729662994
            ]
        },
        {
            "positions": [
                -0.14745244950052852,
                -2.2624025784622788,
                -2.3705214198805242,
                1.4979817445188568,
                0.13763267517910707,
                -0.005065875050613761
            ]
        },
        {
            "positions": [
                -0.042582840947157335,
                -2.2209350013085283,
                -2.2954281807738073,
                1.476312299338331,
                0.045909788356612635,
                -0.0619796289730711
            ]
        },
        {
            "positions": [
                0.06228676760621385,
                -2.1794674241547773,
                -2.2203349416670903,
                1.4546428541578051,
                -0.0458130984658818,
                -0.11889338289552843
            ]
        },
        {
            "positions": [
                0.16715637615958498,
                -2.1379998470010264,
                -2.145241702560373,
                1.4329734089772794,
                -0.1375359852883762,
                -0.17580713681798577
            ]
        },
        {
            "positions": [
                0.27202598471295625,
                -2.096532269847276,
                -2.070148463453656,
                1.4113039637967537,
                -0.22925887211087068,
                -0.2327208907404431
            ]
        },
        {
            "positions": [
                0.3768955932663274,
                -2.0550646926935254,
                -1.995055224346939,
                1.3896345186162278,
                -0.3209817589333651,
                -0.28963464466290045
            ]
        },
        {
            "positions": [
                0.4817652018196985,
                -2.0135971155397745,
                -1.9199619852402219,
                1.367965073435702,
                -0.4127046457558595,
                -0.3465483985853578
            ]
        },
        {
            "positions": [
                0.5866348103730696,
                -1.9721295383860238,
                -1.8448687461335047,
                1.3462956282551763,
                -0.5044275325783539,
                -0.40346215250781503
            ]
        },
        {
            "positions": [
                0.691504418926441,
                -1.930661961232273,
                -1.7697755070267878,
                1.3246261830746504,
                -0.5961504194008485,
                -0.4603759064302725
            ]
        },
        {
            "positions": [
                0.7963740274798121,
                -1.8891943840785224,
                -1.6946822679200708,
                1.3029567378941247,
                -0.6878733062233429,
                -0.5172896603527297
            ]
        },
        {
            "positions": [
                0.9012436360331832,
                -1.8477268069247716,
                -1.6195890288133536,
                1.281287292713599,
                -0.7795961930458373,
                -0.5742034142751871
            ]
        },
        {
            "positions": [
                0.9552473460286159,
                -1.8216940708681413,
                -1.5119522595448296,
                1.216853707582083,
                -0.7221003997211418,
                -0.6530999801037435
            ]
        },
        {
            "positions": [
                1.0092510560240486,
                -1.7956613348115107,
                -1.4043154902763055,
                1.1524201224505675,
                -0.6646046063964464,
                -0.7319965459322999
            ]
        },
        {
            "positions": [
                1.063254766019481,
                -1.7696285987548803,
                -1.2966787210077815,
                1.0879865373190516,
                -0.6071088130717508,
                -0.8108931117608564
            ]
        },
        {
            "positions": [
                1.1172584760149138,
                -1.7435958626982497,
                -1.1890419517392574,
                1.023552952187536,
                -0.5496130197470553,
                -0.8897896775894129
            ]
        },
        {
            "positions": [
                1.1712621860103465,
                -1.7175631266416194,
                -1.0814051824707334,
                0.9591193670560201,
                -0.4921172264223599,
                -0.9686862434179693
            ]
        },
        {
            "positions": [
                1.2252658960057792,
                -1.6915303905849888,
                -0.9737684132022093,
                0.8946857819245042,
                -0.43462143309766443,
                -1.0475828092465258
            ]
        },
        {
            "positions": [
                1.2792696060012116,
                -1.6654976545283584,
                -0.8661316439336852,
                0.8302521967929885,
                -0.3771256397729689,
                -1.1264793750750823
            ]
        },
        {
            "positions": [
                1.3332733159966443,
                -1.6394649184717278,
                -0.7584948746651612,
                0.7658186116614727,
                -0.31962984644827347,
                -1.2053759409036386
            ]
        },
        {
            "positions": [
                1.387277025992077,
                -1.6134321824150974,
                -0.6508581053966371,
                0.7013850265299569,
                -0.26213405312357796,
                -1.284272506732195
            ]
        },
        {
            "positions": [
                1.4412807359875097,
                -1.587399446358467,
                -0.5432213361281131,
                0.6369514413984412,
                -0.2046382597988825,
                -1.3631690725607515
            ]
        },
        {
            "positions": [
                1.4952844459829424,
                -1.5613667103018365,
                -0.435584566859589,
                0.5725178562669253,
                -0.14714246647418705,
                -1.442065638389308
            ]
        },
        {
            "positions": [
                1.5492881559783749,
                -1.5353339742452061,
                -0.32794779759106496,
                0.5080842711354095,
                -0.0896466731494916,
                -1.5209622042178643
            ]
        },
        {
            "positions": [
                1.6032918659738076,
                -1.5093012381885755,
                -0.2203110283225409,
                0.4436506860038938,
                -0.03215087982479614,
                -1.5998587700464209
            ]
        },
        {
            "positions": [
                1.6572955759692403,
                -1.4832685021319452,
                -0.11267425905401685,
                0.3792171008723779,
                0.025344913499899424,
                -1.6787553358749774
            ]
        },
        {
            "positions": [
                1.7112992859646727,
                -1.4572357660753146,
                -0.005037489785492788,
                0.31478351574086216,
                0.08284070682459488,
                -1.7576519017035337
            ]
        },
        {
            "positions": [
                1.7653029959601056,
                -1.4312030300186842,
                0.10259927948303127,
                0.2503499306093464,
                0.14033650014929033,
                -1.8365484675320902
            ]
        },
        {
            "positions": [
                1.8193067059555381,
                -1.4051702939620538,
                0.21023604875155533,
                0.18591634547783054,
                0.1978322934739858,
                -1.9154450333606468
            ]
        },
        {
            "positions": [
                1.8733104159509708,
                -1.3791375579054233,
                0.3178728180200794,
                0.12148276034631489,
                0.25532808679868135,
                -1.994341599189203
            ]
        },
        {
            "positions": [
                1.9273141259464035,
                -1.3531048218487929,
                0.42550958728860366,
                0.05704917521479902,
                0.3128238801233767,
                -2.0732381650177594
            ]
        },
        {
            "positions": [
                1.9813178359418362,
                -1.3270720857921623,
                0.5331463565571275,
                -0.007384409916716628,
                0.37031967344807226,
                -2.152134730846316
            ]
        },
        {
            "positions": [
                2.0353215459372684,
                -1.301039349735532,
                0.6407831258256513,
                -0.0718179950482325,
                0.4278154667727676,
                -2.2310312966748724
            ]
        },
        {
            "positions": [
                2.0893252559327014,
                -1.2750066136789013,
                0.7484198950941756,
                -0.13625158017974837,
                0.48531126009746317,
                -2.3099278625034287
            ]
        },
        {
            "positions": [
                2.1433289659281343,
                -1.248973877622271,
                0.8560566643626999,
                -0.200685165311264,
                0.5428070534221587,
                -2.3888244283319855
            ]
        },
        {
            "positions": [
                2.1973326759235667,
                -1.2229411415656406,
                0.9636934336312237,
                -0.2651187504427799,
                0.6003028467468541,
                -2.467720994160542
            ]
        },
        {
            "positions": [
                2.251336385918999,
                -1.19690840550901,
                1.0713302028997476,
                -0.32955233557429575,
                0.6577986400715496,
                -2.546617559989098
            ]
        },
        {
            "positions": [
                2.305340095914432,
                -1.1708756694523794,
                1.1789669721682718,
                -0.3939859207058114,
                0.715294433396245,
                -2.625514125817655
            ]
        },
        {
            "positions": [
                2.3593438059098646,
                -1.144842933395749,
                1.2866037414367961,
                -0.45841950583732727,
                0.7727902267209406,
                -2.7044106916462107
            ]
        },
        {
            "positions": [
                2.413347515905297,
                -1.1188101973391187,
                1.39424051070532,
                -0.5228530909688431,
                0.8302860200456361,
                -2.7833072574747675
            ]
        },
        {
            "positions": [
                2.46735122590073,
                -1.092777461282488,
                1.5018772799738438,
                -0.5872866761003588,
                0.8877818133703315,
                -2.8622038233033242
            ]
        },
        {
            "positions": [
                2.5213549358961624,
                -1.0667447252258577,
                1.609514049242368,
                -0.6517202612318747,
                0.945277606695027,
                -2.94110038913188
            ]
        },
        {
            "positions": [
                2.575358645891595,
                -1.0407119891692274,
                1.7171508185108924,
                -0.7161538463633903,
                1.0027734000197224,
                -3.019996954960437
            ]
        },
        {
            "positions": [
                2.629362355887028,
                -1.0146792531125968,
                1.8247875877794162,
                -0.7805874314949064,
                1.060269193344418,
                -3.0988935207889936
            ]
        }
    ]
}