{
    "goal": {
        "global_pose": {
            "orientation": {
                "w": 0.7031023502349854,
                "x": -0.7110244035720825,
                "y": 0.007748599164187908,
                "z": 0.005598929710686207
            },
            "position": {
                "x": 0.11585023208521307,
                "y": 0.44412534475326537,
                "z": 0.3711530566215515
            }
        },
        "name": "move_to_auspresseinheit_A"
    },
    "id": "EST_move_to_auspresseinheit_A_36",
    "joint_names": [
        "shoulder_pan_joint",
        "shoulder_lift_joint",
        "elbow_joint",
        "wrist_1_joint",
        "wrist_2_joint",
        "wrist_3_joint"
    ],
    "metrics": {
        "cart_traj_len": 0.7020638343899699,
        "distance_elbow_joint": 0.13082330770028694,
        "distance_shoulder_lift_joint": 0.6006430654089854,
        "distance_shoulder_pan_joint": 1.0447519406949959,
        "distance_wrist_1_joint": 1.4720888957240974,
        "distance_wrist_2_joint": 0.8883435289766032,
        "distance_wrist_3_joint": 0.05383819882338692,
        "smoothness": 1.5754689113468747,
        "time": 0.520604043,
        "traj_len": 2.0470683763197446,
        "weighted_distance": 2.5804258872666406
    },
    "planner": "EST",
    "start": {
        "state": {
            "elbow_joint": 2.4225746658250005,
            "shoulder_lift_joint": -1.3736534386056498,
            "shoulder_pan_joint": -0.3378633547517467,
            "wrist_1_joint": -1.0288598680537169,
            "wrist_2_joint": 1.233022673432363,
            "wrist_3_joint": -3.0940220416140027
        }
    },
    "waypoints": [
        {
            "positions": [
                -0.3378633547517467,
                -1.3736534386056498,
                2.4225746658250005,
                -1.0288598680537169,
                1.233022673432363,
                -3.0940220416140027
            ]
        },
        {
            "positions": [
                -0.2447571769703411,
                -1.4367046687212706,
                2.4135854275574538,
                -0.9152404100932379,
                1.1544686629901149,
                -3.0933808226981654
            ]
        },
        {
            "positions": [
                -0.15165099918893551,
                -1.499755898836891,
                2.404596189289907,
                -0.8016209521327587,
                1.0759146525478664,
                -3.092739603782328
            ]
        },
        {
            "positions": [
                -0.05854482140752992,
                -1.5628071289525118,
                2.3956069510223603,
                -0.6880014941722797,
                0.9973606421056183,
                -3.092098384866491
            ]
        },
        {
            "positions": [
                0.034561356373875696,
                -1.6258583590681326,
                2.3866177127548136,
                -0.5743820362118006,
                0.9188066316633701,
                -3.091457165950654
            ]
        },
        {
            "positions": [
                0.12766753415528131,
                -1.6889095891837533,
                2.377628474487267,
                -0.4607625782513216,
                0.8402526212211218,
                -3.0908159470348164
            ]
        },
        {
            "positions": [
                0.22077371193668688,
                -1.751960819299374,
                2.36863923621972,
                -0.3471431202908426,
                0.7616986107788736,
                -3.090174728118979
            ]
        },
        {
            "positions": [
                0.3138798897180925,
                -1.8150120494149946,
                2.3596499979521735,
                -0.23352366233036348,
                0.6831446003366253,
                -3.089533509203142
            ]
        },
        {
            "positions": [
                0.4069860674994981,
                -1.8780632795306154,
                2.3506607596846267,
                -0.11990420436988447,
                0.6045905898943771,
                -3.088892290287305
            ]
        },
        {
            "positions": [
                0.5000922452809038,
                -1.941114509646236,
                2.34167152141708,
                -0.006284746409405295,
                0.5260365794521288,
                -3.0882510713714675
            ]
        },
        {
            "positions": [
                0.5690243588350189,
                -1.9300538448567697,
                2.358311575847869,
                -0.1561226711026672,
                0.5864890577842518,
                -3.104273480898418
            ]
        },
        {
            "positions": [
                0.637956472389134,
                -1.9189931800673035,
                2.3749516302786575,
                -0.3059605957959291,
                0.6469415361163747,
                -3.1202958904253686
            ]
        },
        {
            "positions": [
                0.7068885859432491,
                -1.907932515277837,
                2.3915916847094465,
                -0.455798520489191,
                0.7073940144484977,
                -3.136318299952319
            ]
        }
    ]
}