{
    "goal": {
        "global_pose": {
            "orientation": {
                "w": 0.005598929693374612,
                "x": 0.007748599140229565,
                "y": 0.7110244013736278,
                "z": -0.7031023480610252
            },
            "position": {
                "x": -0.8858502320852131,
                "y": -0.7141253447532654,
                "z": 0.3711530566215515
            }
        },
        "name": "move_to_auspresseinheit_C"
    },
    "id": "EST_move_to_auspresseinheit_C_83",
    "joint_names": [
        "shoulder_pan_joint",
        "shoulder_lift_joint",
        "elbow_joint",
        "wrist_1_joint",
        "wrist_2_joint",
        "wrist_3_joint"
    ],
    "metrics": {
        "cart_traj_len": 0.4932202856659794,
        "distance_elbow_joint": 0.997492262764051,
        "distance_shoulder_lift_joint": 0.3232654953011228,
        "distance_shoulder_pan_joint": 0.25621309400702996,
        "distance_wrist_1_joint": 0.6709350415074337,
        "distance_wrist_2_joint": 1.3131320494933418,
        "distance_wrist_3_joint": 0.044187731509754524,
        "smoothness": 4.844609574787718e-16,
        "time": 0.7817561470000001,
        "traj_len": 1.8987431828930246,
        "weighted_distance": 2.382785812573807
    },
    "planner": "EST",
    "start": {
        "state": {
            "elbow_joint": 1.7527959577737207,
            "shoulder_lift_joint": -0.9740617694225068,
            "shoulder_pan_joint": -2.967991417825858,
            "wrist_1_joint": -0.759517768980727,
            "wrist_2_joint": 1.7443932448377408,
            "wrist_3_joint": -3.0840537646736568
        }
    },
    "waypoints": [
        {
            "positions": [
                -2.967991417825858,
                -0.9740617694225068,
                1.7527959577737207,
                -0.759517768980727,
                1.7443932448377408,
                -3.0840537646736568
            ]
        },
        {
            "positions": [
                -2.942370108425155,
                -0.9417352198923945,
                1.6530467314973156,
                -0.6924242648299836,
                1.6130800398884066,
                -3.0884725378246323
            ]
        },
        {
            "positions": [
                -2.916748799024452,
                -0.9094086703622822,
                1.5532975052209104,
                -0.6253307606792402,
                1.4817668349390725,
                -3.0928913109756078
            ]
        },
        {
            "positions": [
                -2.891127489623749,
                -0.87708212083217,
                1.4535482789445053,
                -0.5582372565284969,
                1.3504536299897383,
                -3.0973100841265833
            ]
        },
        {
            "positions": [
                -2.865506180223046,
                -0.8447555713020576,
                1.3537990526681003,
                -0.4911437523777535,
                1.219140425040404,
                -3.1017288572775588
            ]
        },
        {
            "positions": [
                -2.8398848708223428,
                -0.8124290217719454,
                1.2540498263916953,
                -0.42405024822701015,
                1.08782722009107,
                -3.1061476304285343
            ]
        },
        {
            "positions": [
                -2.81426356142164,
                -0.780102472241833,
                1.15430060011529,
                -0.3569567440762668,
                0.9565140151417357,
                -3.1105664035795093
            ]
        },
        {
            "positions": [
                -2.788642252020937,
                -0.7477759227117209,
                1.054551373838885,
                -0.28986323992552343,
                0.8252008101924017,
                -3.114985176730485
            ]
        },
        {
            "positions": [
                -2.763020942620234,
                -0.7154493731816085,
                0.9548021475624798,
                -0.22276973577478,
                0.6938876052430674,
                -3.1194039498814603
            ]
        },
        {
            "positions": [
                -2.737399633219531,
                -0.6831228236514962,
                0.8550529212860747,
                -0.15567623162403665,
                0.5625744002937332,
                -3.123822723032436
            ]
        },
        {
            "positions": [
                -2.711778323818828,
                -0.650796274121384,
                0.7553036950096697,
                -0.08858272747329331,
                0.431261195344399,
                -3.1282414961834113
            ]
        }
    ]
}