{
    "goal": {
        "global_pose": {
            "orientation": {
                "w": -0.4816463035849501,
                "x": 0.5182115481033762,
                "y": 0.4908360881923453,
                "z": -0.5084816262002911
            },
            "position": {
                "x": -0.8240239810943604,
                "y": 0.19912469901144506,
                "z": 0.16403168439865112
            }
        },
        "name": "move_to_storage_D"
    },
    "id": "EST_move_to_storage_D_132",
    "joint_names": [
        "shoulder_pan_joint",
        "shoulder_lift_joint",
        "elbow_joint",
        "wrist_1_joint",
        "wrist_2_joint",
        "wrist_3_joint"
    ],
    "metrics": {
        "cart_traj_len": 4.0061980458557755,
        "distance_elbow_joint": 4.2102522481570865,
        "distance_shoulder_lift_joint": 1.264855743411338,
        "distance_shoulder_pan_joint": 2.8139254658768578,
        "distance_wrist_1_joint": 2.2720460853091775,
        "distance_wrist_2_joint": 0.8787840519308144,
        "distance_wrist_3_joint": 3.3445332856043577,
        "smoothness": 0.011396684126410733,
        "time": 0.070132936,
        "traj_len": 3.845048358641232,
        "weighted_distance": 4.962287132838882
    },
    "planner": "EST",
    "start": {
        "state": {
            "elbow_joint": -2.384821988534728,
            "shoulder_lift_joint": -2.2788054721415256,
            "shoulder_pan_joint": -0.1854694642142757,
            "wrist_1_joint": 1.4845938289331202,
            "wrist_2_joint": 0.17898776772866878,
            "wrist_3_joint": 0.037105688729662994
        }
    },
    "waypoints": [
        {
            "positions": [
                -0.1854694642142757,
                -2.2788054721415256,
                -2.384821988534728,
                1.4845938289331202,
                0.17898776772866878,
                0.037105688729662994
            ]
        },
        {
            "positions": [
                -0.07273056192311318,
                -2.234124912991667,
                -2.2786376060336715,
                1.3955180102056635,
                0.1973066258810099,
                0.03171930115974894
            ]
        },
        {
            "positions": [
                0.040008340368049344,
                -2.1894443538418087,
                -2.1724532235326146,
                1.306442191478207,
                0.215625484033351,
                0.026332913589834892
            ]
        },
        {
            "positions": [
                0.15274724265921183,
                -2.14476379469195,
                -2.066268841031558,
                1.2173663727507502,
                0.2339443421856921,
                0.020946526019920843
            ]
        },
        {
            "positions": [
                0.26548614495037437,
                -2.1000832355420918,
                -1.9600844585305017,
                1.1282905540232937,
                0.2522632003380332,
                0.01556013845000679
            ]
        },
        {
            "positions": [
                0.37822504724153694,
                -2.055402676392233,
                -1.8539000760294453,
                1.039214735295837,
                0.2705820584903743,
                0.01017375088009274
            ]
        },
        {
            "positions": [
                0.4909639495326994,
                -2.0107221172423744,
                -1.7477156935283886,
                0.9501389165683803,
                0.2889009166427154,
                0.004787363310178691
            ]
        },
        {
            "positions": [
                0.603702851823862,
                -1.966041558092516,
                -1.641531311027332,
                0.8610630978409236,
                0.30721977479505647,
                -0.0005990242597353618
            ]
        },
        {
            "positions": [
                0.7164417541150245,
                -1.9213609989426574,
                -1.5353469285262755,
                0.771987279113467,
                0.3255386329473976,
                -0.005985411829649415
            ]
        },
        {
            "positions": [
                0.8291806564061871,
                -1.876680439792799,
                -1.429162546025219,
                0.6829114603860104,
                0.34385749109973873,
                -0.011371799399563468
            ]
        },
        {
            "positions": [
                0.9419195586973496,
                -1.8319998806429405,
                -1.3229781635241624,
                0.5938356416585537,
                0.3621763492520798,
                -0.016758186969477513
            ]
        },
        {
            "positions": [
                1.0546584609885121,
                -1.787319321493082,
                -1.2167937810231058,
                0.504759822931097,
                0.38049520740442094,
                -0.022144574539391573
            ]
        },
        {
            "positions": [
                1.1673973632796744,
                -1.7426387623432236,
                -1.1106093985220493,
                0.4156840042036405,
                0.398814065556762,
                -0.027530962109305612
            ]
        },
        {
            "positions": [
                1.280136265570837,
                -1.6979582031933649,
                -1.0044250160209927,
                0.32660818547618375,
                0.41713292370910315,
                -0.03291734967921968
            ]
        },
        {
            "positions": [
                1.3928751678619995,
                -1.6532776440435064,
                -0.8982406335199362,
                0.23753236674872702,
                0.4354517818614442,
                -0.03830373724913372
            ]
        },
        {
            "positions": [
                1.5056140701531622,
                -1.608597084893648,
                -0.7920562510188796,
                0.14845654802127028,
                0.4537706400137853,
                -0.043690124819047785
            ]
        },
        {
            "positions": [
                1.6183529724443246,
                -1.5639165257437895,
                -0.6858718685178231,
                0.05938072929381377,
                0.47208949816612644,
                -0.049076512388961824
            ]
        },
        {
            "positions": [
                1.731091874735487,
                -1.5192359665939308,
                -0.5796874860167665,
                -0.029695089433642963,
                0.4904083563184676,
                -0.05446289995887588
            ]
        },
        {
            "positions": [
                1.8438307770266498,
                -1.4745554074440723,
                -0.47350310351571,
                -0.11877090816109948,
                0.5087272144708086,
                -0.05984928752878993
            ]
        },
        {
            "positions": [
                1.9565696793178122,
                -1.4298748482942139,
                -0.36731872101465335,
                -0.20784672688855618,
                0.5270460726231497,
                -0.06523567509870398
            ]
        },
        {
            "positions": [
                1.9901639954350507,
                -1.4090785923160125,
                -0.2576812719828027,
                -0.23682700336293122,
                0.5535823599749664,
                0.09687392099009559
            ]
        },
        {
            "positions": [
                2.0237583115522892,
                -1.3882823363378112,
                -0.14804382295095206,
                -0.26580727983730623,
                0.5801186473267831,
                0.25898351707889516
            ]
        },
        {
            "positions": [
                2.0573526276695278,
                -1.3674860803596098,
                -0.038406373919101455,
                -0.29478755631168124,
                0.6066549346785998,
                0.42109311316769465
            ]
        },
        {
            "positions": [
                2.0909469437867663,
                -1.3466898243814085,
                0.07123107511274923,
                -0.32376783278605625,
                0.6331912220304164,
                0.5832027092564943
            ]
        },
        {
            "positions": [
                2.1245412599040048,
                -1.3258935684032074,
                0.18086852414459986,
                -0.3527481092604313,
                0.6597275093822331,
                0.7453123053452938
            ]
        },
        {
            "positions": [
                2.1581355760212433,
                -1.305097312425006,
                0.29050597317645044,
                -0.3817283857348063,
                0.6862637967340498,
                0.9074219014340933
            ]
        },
        {
            "positions": [
                2.191729892138482,
                -1.2843010564468047,
                0.4001434222083011,
                -0.41070866220918134,
                0.7128000840858664,
                1.069531497522893
            ]
        },
        {
            "positions": [
                2.2253242082557203,
                -1.2635048004686034,
                0.5097808712401518,
                -0.4396889386835564,
                0.7393363714376832,
                1.2316410936116926
            ]
        },
        {
            "positions": [
                2.258918524372959,
                -1.242708544490402,
                0.6194183202720025,
                -0.46866921515793136,
                0.7658726587894997,
                1.393750689700492
            ]
        },
        {
            "positions": [
                2.292512840490197,
                -1.2219122885122007,
                0.7290557693038531,
                -0.49764949163230643,
                0.7924089461413164,
                1.5558602857892916
            ]
        },
        {
            "positions": [
                2.326107156607436,
                -1.2011160325339993,
                0.8386932183357039,
                -0.5266297681066815,
                0.8189452334931331,
                1.7179698818780913
            ]
        },
        {
            "positions": [
                2.359701472724674,
                -1.180319776555798,
                0.9483306673675542,
                -0.5556100445810565,
                0.8454815208449498,
                1.8800794779668906
            ]
        },
        {
            "positions": [
                2.3932957888419124,
                -1.1595235205775967,
                1.057968116399405,
                -0.5845903210554315,
                0.8720178081967664,
                2.0421890740556905
            ]
        },
        {
            "positions": [
                2.426890104959151,
                -1.1387272645993955,
                1.1676055654312556,
                -0.6135705975298065,
                0.8985540955485831,
                2.2042986701444898
            ]
        },
        {
            "positions": [
                2.4604844210763894,
                -1.117931008621194,
                1.2772430144631062,
                -0.6425508740041815,
                0.9250903829003998,
                2.3664082662332895
            ]
        },
        {
            "positions": [
                2.494078737193628,
                -1.0971347526429929,
                1.386880463494957,
                -0.6715311504785566,
                0.9516266702522165,
                2.528517862322089
            ]
        },
        {
            "positions": [
                2.5276730533108664,
                -1.0763384966647915,
                1.4965179125268075,
                -0.7005114269529316,
                0.9781629576040332,
                2.6906274584108885
            ]
        },
        {
            "positions": [
                2.561267369428105,
                -1.0555422406865902,
                1.6061553615586583,
                -0.7294917034273066,
                1.0046992449558498,
                2.852737054499688
            ]
        },
        {
            "positions": [
                2.5948616855453435,
                -1.0347459847083889,
                1.715792810590509,
                -0.7584719799016816,
                1.0312355323076665,
                3.0148466505884874
            ]
        },
        {
            "positions": [
                2.628456001662582,
                -1.0139497287301875,
                1.8254302596223595,
                -0.7874522563760566,
                1.0577718196594832,
                3.176956246677287
            ]
        }
    ]
}