{
    "goal": {
        "global_pose": {
            "orientation": {
                "w": -0.4816463035849501,
                "x": 0.5182115481033762,
                "y": 0.4908360881923453,
                "z": -0.5084816262002911
            },
            "position": {
                "x": -0.8240239810943604,
                "y": -0.300875300988555,
                "z": 0.16403168439865112
            }
        },
        "name": "move_to_storage_C"
    },
    "id": "EST_move_to_storage_C_111",
    "joint_names": [
        "shoulder_pan_joint",
        "shoulder_lift_joint",
        "elbow_joint",
        "wrist_1_joint",
        "wrist_2_joint",
        "wrist_3_joint"
    ],
    "metrics": {
        "cart_traj_len": 0.5767429948193405,
        "distance_elbow_joint": 0.25710999970158777,
        "distance_shoulder_lift_joint": 0.18864001478958226,
        "distance_shoulder_pan_joint": 0.49511958643934184,
        "distance_wrist_1_joint": 0.07703523341758478,
        "distance_wrist_2_joint": 1.067922651097243,
        "distance_wrist_3_joint": 0.07338709702005541,
        "smoothness": 0.0,
        "time": 0.013087615,
        "traj_len": 1.4694266169038164,
        "weighted_distance": 1.8576723772022703
    },
    "planner": "EST",
    "start": {
        "state": {
            "elbow_joint": 2.010868314990456,
            "shoulder_lift_joint": -1.1634956873337592,
            "shoulder_pan_joint": -2.4736205022346125,
            "wrist_1_joint": -0.8367026794202681,
            "wrist_2_joint": 0.6746043897044499,
            "wrist_3_joint": -3.1496632123970403
        }
    },
    "waypoints": [
        {
            "positions": [
                -2.4736205022346125,
                -1.1634956873337592,
                2.010868314990456,
                -0.8367026794202681,
                0.6746043897044499,
                -3.1496632123970403
            ]
        },
        {
            "positions": [
                -2.556140433307836,
                -1.1320556848688288,
                1.9680166483735246,
                -0.8238634738506706,
                0.852591498220657,
                -3.1374320295603644
            ]
        },
        {
            "positions": [
                -2.6386603643810598,
                -1.1006156824038984,
                1.9251649817565932,
                -0.8110242682810732,
                1.0305786067368643,
                -3.1252008467236885
            ]
        },
        {
            "positions": [
                -2.7211802954542836,
                -1.069175679938968,
                1.8823133151396618,
                -0.7981850627114757,
                1.2085657152530715,
                -3.1129696638870126
            ]
        },
        {
            "positions": [
                -2.803700226527507,
                -1.0377356774740376,
                1.8394616485227306,
                -0.7853458571418782,
                1.3865528237692786,
                -3.1007384810503367
            ]
        },
        {
            "positions": [
                -2.8862201576007305,
                -1.0062956750091072,
                1.7966099819057995,
                -0.7725066515722808,
                1.5645399322854858,
                -3.0885072982136608
            ]
        },
        {
            "positions": [
                -2.9687400886739543,
                -0.9748556725441769,
                1.753758315288868,
                -0.7596674460026833,
                1.742527040801693,
                -3.076276115376985
            ]
        }
    ]
}