{
    "goal": {
        "global_pose": {
            "orientation": {
                "w": 0.5084816217422485,
                "x": -0.49083608388900757,
                "y": 0.5182115435600281,
                "z": -0.4816462993621826
            },
            "position": {
                "x": 0.5540239810943604,
                "y": 0.030875300988554955,
                "z": 0.16403168439865112
            }
        },
        "name": "move_to_storage_A"
    },
    "id": "EST_move_to_storage_A_118",
    "joint_names": [
        "shoulder_pan_joint",
        "shoulder_lift_joint",
        "elbow_joint",
        "wrist_1_joint",
        "wrist_2_joint",
        "wrist_3_joint"
    ],
    "metrics": {
        "cart_traj_len": 0.3530588875034944,
        "distance_elbow_joint": 0.45339444810910146,
        "distance_shoulder_lift_joint": 0.23279844427838148,
        "distance_shoulder_pan_joint": 0.4595209886959599,
        "distance_wrist_1_joint": 0.26094915407883945,
        "distance_wrist_2_joint": 1.1075138763975931,
        "distance_wrist_3_joint": 0.09842775370228285,
        "smoothness": 1.665334528953551e-15,
        "time": 0.052579888,
        "traj_len": 1.616355364782806,
        "weighted_distance": 2.043996869651017
    },
    "planner": "EST",
    "start": {
        "state": {
            "elbow_joint": 1.971548259319323,
            "shoulder_lift_joint": -1.1394851275133948,
            "shoulder_pan_joint": 0.1228115487234821,
            "wrist_1_joint": -0.7804723859257726,
            "wrist_2_joint": 0.12958671773740124,
            "wrist_3_joint": -3.192489227718131
        }
    },
    "waypoints": [
        {
            "positions": [
                0.1228115487234821,
                -1.1394851275133948,
                1.971548259319323,
                -0.7804723859257726,
                0.12958671773740124,
                -3.192489227718131
            ]
        },
        {
            "positions": [
                0.057165693195487824,
                -1.1727420481245923,
                2.0363188947634803,
                -0.8177508365084639,
                0.28780298579420027,
                -3.1784281200463766
            ]
        },
        {
            "positions": [
                -0.008480162332506452,
                -1.2059989687357895,
                2.101089530207638,
                -0.8550292870911553,
                0.4460192538509993,
                -3.1643670123746217
            ]
        },
        {
            "positions": [
                -0.07412601786050071,
                -1.239255889346987,
                2.165860165651795,
                -0.8923077376738466,
                0.6042355219077983,
                -3.150305904702867
            ]
        },
        {
            "positions": [
                -0.139771873388495,
                -1.2725128099581842,
                2.2306308010959524,
                -0.929586188256538,
                0.7624517899645973,
                -3.1362447970311123
            ]
        },
        {
            "positions": [
                -0.2054177289164893,
                -1.3057697305693816,
                2.29540143654011,
                -0.9668646388392294,
                0.9206680580213964,
                -3.1221836893593577
            ]
        },
        {
            "positions": [
                -0.27106358444448353,
                -1.3390266511805788,
                2.360172071984267,
                -1.0041430894219208,
                1.0788843260781953,
                -3.108122581687603
            ]
        },
        {
            "positions": [
                -0.3367094399724778,
                -1.3722835717917763,
                2.4249427074284244,
                -1.041421540004612,
                1.2371005941349944,
                -3.0940614740158483
            ]
        }
    ]
}{
    "goal": {
        "global_pose": {
            "orientation": {
                "w": 0.5084816217422485,
                "x": -0.49083608388900757,
                "y": 0.5182115435600281,
                "z": -0.4816462993621826
            },
            "position": {
                "x": 0.5540239810943604,
                "y": 0.030875300988554955,
                "z": 0.16403168439865112
            }
        },
        "name": "move_to_storage_A"
    },
    "id": "EST_move_to_storage_A_118",
    "joint_names": [
        "shoulder_pan_joint",
        "shoulder_lift_joint",
        "elbow_joint",
        "wrist_1_joint",
        "wrist_2_joint",
        "wrist_3_joint"
    ],
    "metrics": {
        "cart_traj_len": 0.35361375956087326,
        "distance_elbow_joint": 0.44894324354749804,
        "distance_shoulder_lift_joint": 0.2331545613774868,
        "distance_shoulder_pan_joint": 0.4627716435447356,
        "distance_wrist_1_joint": 0.23785883406655883,
        "distance_wrist_2_joint": 1.0977485343387738,
        "distance_wrist_3_joint": 0.10496099556077221,
        "smoothness": 4.440892098500626e-16,
        "time": 0.058765503999999996,
        "traj_len": 1.6079296665077814,
        "weighted_distance": 2.03247808646556
    },
    "planner": "EST",
    "start": {
        "state": {
            "elbow_joint": 1.97154746011099,
            "shoulder_lift_joint": -1.13948474672311,
            "shoulder_pan_joint": 0.12281154466712228,
            "wrist_1_joint": -0.7804688027058302,
            "wrist_2_joint": 0.12958655903071145,
            "wrist_3_joint": 3.0906928834467795
        }
    },
    "waypoints": [
        {
            "positions": [
                0.12281154466712228,
                -1.13948474672311,
                1.97154746011099,
                -0.7804688027058302,
                0.12958655903071145,
                3.0906928834467795
            ]
        },
        {
            "positions": [
                0.0567013098750172,
                -1.1727925412056082,
                2.0356822091892037,
                -0.81444863614391,
                0.28640777822196484,
                3.105687311384033
            ]
        },
        {
            "positions": [
                -0.009408924917087877,
                -1.2061003356881062,
                2.099816958267418,
                -0.8484284695819898,
                0.4432289974132182,
                3.120681739321286
            ]
        },
        {
            "positions": [
                -0.07551915970919297,
                -1.2394081301706044,
                2.163951707345632,
                -0.8824083030200697,
                0.6000502166044717,
                3.135676167258539
            ]
        },
        {
            "positions": [
                -0.14162939450129802,
                -1.2727159246531023,
                2.228086456423846,
                -0.9163881364581495,
                0.756871435795725,
                3.150670595195792
            ]
        },
        {
            "positions": [
                -0.20773962929340312,
                -1.3060237191356006,
                2.29222120550206,
                -0.9503679698962293,
                0.9136926549869785,
                3.1656650231330454
            ]
        },
        {
            "positions": [
                -0.2738498640855082,
                -1.3393315136180985,
                2.356355954580274,
                -0.9843478033343092,
                1.0705138741782319,
                3.1806594510702983
            ]
        },
        {
            "positions": [
                -0.3399600988776133,
                -1.3726393081005968,
                2.420490703658488,
                -1.018327636772389,
                1.2273350933694853,
                3.1956538790075517
            ]
        }
    ]
}{
    "goal": {
        "global_pose": {
            "orientation": {
                "w": 0.5084816217422485,
                "x": -0.49083608388900757,
                "y": 0.5182115435600281,
                "z": -0.4816462993621826
            },
            "position": {
                "x": 0.5540239810943604,
                "y": 0.030875300988554955,
                "z": 0.16403168439865112
            }
        },
        "name": "move_to_storage_A"
    },
    "id": "EST_move_to_storage_A_118",
    "joint_names": [
        "shoulder_pan_joint",
        "shoulder_lift_joint",
        "elbow_joint",
        "wrist_1_joint",
        "wrist_2_joint",
        "wrist_3_joint"
    ],
    "metrics": {
        "cart_traj_len": 0.3531548963405922,
        "distance_elbow_joint": 0.45018159535302393,
        "distance_shoulder_lift_joint": 0.23328145205980433,
        "distance_shoulder_pan_joint": 0.46310673047109313,
        "distance_wrist_1_joint": 0.2514440714011017,
        "distance_wrist_2_joint": 1.0921554789160435,
        "distance_wrist_3_joint": 0.09000114724846542,
        "smoothness": 2.2204460668324854e-16,
        "time": 0.035131938,
        "traj_len": 1.6062909062338404,
        "weighted_distance": 2.025776967058222
    },
    "planner": "EST",
    "start": {
        "state": {
            "elbow_joint": 1.9715472970024885,
            "shoulder_lift_joint": -1.1394870060712896,
            "shoulder_pan_joint": 0.12281152778156021,
            "wrist_1_joint": -0.780463741449964,
            "wrist_2_joint": 0.12958659822042276,
            "wrist_3_joint": 3.090690232415272
        }
    },
    "waypoints": [
        {
            "positions": [
                0.12281152778156021,
                -1.1394870060712896,
                1.9715472970024885,
                -0.780463741449964,
                0.12958659822042276,
                3.090690232415272
            ]
        },
        {
            "positions": [
                0.056653423428546915,
                -1.1728129277941188,
                2.035858953481492,
                -0.8163843230786928,
                0.28560880949414325,
                3.1035475391650524
            ]
        },
        {
            "positions": [
                -0.00950468092446638,
                -1.206138849516948,
                2.1001706099604953,
                -0.8523049047074216,
                0.44163102076786376,
                3.1164048459148335
            ]
        },
        {
            "positions": [
                -0.07566278527747966,
                -1.2394647712397773,
                2.164482266439499,
                -0.8882254863361504,
                0.5976532320415843,
                3.129262152664614
            ]
        },
        {
            "positions": [
                -0.14182088963049297,
                -1.2727906929626063,
                2.228793922918502,
                -0.9241460679648792,
                0.7536754433153047,
                3.142119459414395
            ]
        },
        {
            "positions": [
                -0.2079789939835063,
                -1.3061166146854355,
                2.2931055793975057,
                -0.9600666495936081,
                0.9096976545890252,
                3.1549767661641757
            ]
        },
        {
            "positions": [
                -0.27413709833651956,
                -1.3394425364082647,
                2.357417235876509,
                -0.9959872312223369,
                1.0657198658627458,
                3.1678340729139567
            ]
        },
        {
            "positions": [
                -0.3402952026895329,
                -1.372768458131094,
                2.4217288923555125,
                -1.0319078128510657,
                1.2217420771364662,
                3.1806913796637373
            ]
        }
    ]
}