{
    "goal": {
        "global_pose": {
            "orientation": {
                "w": 0.005598929693374612,
                "x": 0.007748599140229565,
                "y": 0.7110244013736278,
                "z": -0.7031023480610252
            },
            "position": {
                "x": 0.1141497679147869,
                "y": -0.7141253447532654,
                "z": 0.3711530566215515
            }
        },
        "name": "move_to_auspresseinheit_B"
    },
    "id": "EST_move_to_auspresseinheit_B_21",
    "joint_names": [
        "shoulder_pan_joint",
        "shoulder_lift_joint",
        "elbow_joint",
        "wrist_1_joint",
        "wrist_2_joint",
        "wrist_3_joint"
    ],
    "metrics": {
        "cart_traj_len": 0.5645732154173742,
        "distance_elbow_joint": 0.06452138045630473,
        "distance_shoulder_lift_joint": 0.29291514041264044,
        "distance_shoulder_pan_joint": 0.5783307618598335,
        "distance_wrist_1_joint": 0.3328667853104432,
        "distance_wrist_2_joint": 0.986040844558765,
        "distance_wrist_3_joint": 0.008326342340585047,
        "smoothness": 2.5376526478085547e-16,
        "time": 0.45943658,
        "traj_len": 1.504327509200896,
        "weighted_distance": 1.896987498506237
    },
    "planner": "EST",
    "start": {
        "state": {
            "elbow_joint": 2.0193083361928714,
            "shoulder_lift_joint": -1.1220246554650708,
            "shoulder_pan_joint": -1.0952077554168747,
            "wrist_1_joint": -0.8559753972642168,
            "wrist_2_joint": 0.4759566250798843,
            "wrist_3_joint": -3.1240929996934557
        }
    },
    "waypoints": [
        {
            "positions": [
                -1.0952077554168747,
                -1.1220246554650708,
                2.0193083361928714,
                -0.8559753972642168,
                0.4759566250798843,
                -3.1240929996934557
            ]
        },
        {
            "positions": [
                -1.191596215726847,
                -1.1708438455338441,
                2.008554772783487,
                -0.8004975997124762,
                0.6402967658396784,
                -3.122705275970025
            ]
        },
        {
            "positions": [
                -1.2879846760368192,
                -1.2196630356026177,
                1.997801209374103,
                -0.7450198021607357,
                0.8046369065994725,
                -3.121317552246594
            ]
        },
        {
            "positions": [
                -1.3843731363467913,
                -1.268482225671391,
                1.987047645964719,
                -0.6895420046089952,
                0.9689770473592667,
                -3.119929828523163
            ]
        },
        {
            "positions": [
                -1.4807615966567635,
                -1.3173014157401643,
                1.976294082555335,
                -0.6340642070572546,
                1.133317188119061,
                -3.118542104799732
            ]
        },
        {
            "positions": [
                -1.5771500569667358,
                -1.366120605808938,
                1.9655405191459507,
                -0.5785864095055141,
                1.297657328878855,
                -3.1171543810763014
            ]
        },
        {
            "positions": [
                -1.673538517276708,
                -1.4149397958777112,
                1.9547869557365667,
                -0.5231086119537736,
                1.4619974696386493,
                -3.1157666573528706
            ]
        }
    ]
}