{
    "goal": {
        "global_pose": {
            "orientation": {
                "w": -0.4816463035849501,
                "x": 0.5182115481033762,
                "y": 0.4908360881923453,
                "z": -0.5084816262002911
            },
            "position": {
                "x": -0.8240239810943604,
                "y": 0.19912469901144506,
                "z": 0.16403168439865112
            }
        },
        "name": "move_to_storage_D"
    },
    "id": "EST_move_to_storage_D_133",
    "joint_names": [
        "shoulder_pan_joint",
        "shoulder_lift_joint",
        "elbow_joint",
        "wrist_1_joint",
        "wrist_2_joint",
        "wrist_3_joint"
    ],
    "metrics": {
        "cart_traj_len": 3.1343110584873424,
        "distance_elbow_joint": 4.215774740462215,
        "distance_shoulder_lift_joint": 1.6119607561707048,
        "distance_shoulder_pan_joint": 2.8131556681294656,
        "distance_wrist_1_joint": 3.6150590716847395,
        "distance_wrist_2_joint": 1.4871275691484358,
        "distance_wrist_3_joint": 3.1357187687861736,
        "smoothness": 0.1893608934558033,
        "time": 0.113546588,
        "traj_len": 4.108381259618165,
        "weighted_distance": 5.315300626755486
    },
    "planner": "EST",
    "start": {
        "state": {
            "elbow_joint": -2.384821988534728,
            "shoulder_lift_joint": -2.2788054721415256,
            "shoulder_pan_joint": -0.1854694642142757,
            "wrist_1_joint": 1.4845938289331202,
            "wrist_2_joint": 0.17898776772866878,
            "wrist_3_joint": 0.037105688729662994
        }
    },
    "waypoints": [
        {
            "positions": [
                -0.1854694642142757,
                -2.2788054721415256,
                -2.384821988534728,
                1.4845938289331202,
                0.17898776772866878,
                0.037105688729662994
            ]
        },
        {
            "positions": [
                -0.05120422575539893,
                -2.1768913755991672,
                -2.369345516457979,
                1.53424588164989,
                0.21482582350091872,
                -0.010947004276541612
            ]
        },
        {
            "positions": [
                0.08306101270347785,
                -2.0749772790568093,
                -2.3538690443812307,
                1.58389793436666,
                0.2506638792731687,
                -0.05899969728274622
            ]
        },
        {
            "positions": [
                0.21732625116235468,
                -1.973063182514451,
                -2.338392572304482,
                1.63354998708343,
                0.2865019350454186,
                -0.10705239028895083
            ]
        },
        {
            "positions": [
                0.35159148962123143,
                -1.8711490859720927,
                -2.322916100227733,
                1.6832020398002,
                0.3223399908176685,
                -0.15510508329515543
            ]
        },
        {
            "positions": [
                0.4858567280801084,
                -1.7692349894297343,
                -2.3074396281509846,
                1.7328540925169698,
                0.3581780465899185,
                -0.20315777630136006
            ]
        },
        {
            "positions": [
                0.6201219665389851,
                -1.6673208928873762,
                -2.2919631560742357,
                1.7825061452337396,
                0.39401610236216844,
                -0.25121046930756463
            ]
        },
        {
            "positions": [
                0.7543872049978619,
                -1.5654067963450178,
                -2.276486683997487,
                1.8321581979505095,
                0.4298541581344184,
                -0.29926316231376926
            ]
        },
        {
            "positions": [
                0.8886524434567385,
                -1.4634926998026598,
                -2.2610102119207385,
                1.8818102506672794,
                0.46569221390666826,
                -0.3473158553199739
            ]
        },
        {
            "positions": [
                1.0229176819156154,
                -1.3615786032603014,
                -2.2455337398439896,
                1.9314623033840492,
                0.5015302696789182,
                -0.3953685483261785
            ]
        },
        {
            "positions": [
                1.1571829203744923,
                -1.259664506717943,
                -2.230057267767241,
                1.9811143561008193,
                0.5373683254511682,
                -0.44342124133238314
            ]
        },
        {
            "positions": [
                1.2914481588333688,
                -1.157750410175585,
                -2.2145807956904924,
                2.030766408817589,
                0.573206381223418,
                -0.49147393433858766
            ]
        },
        {
            "positions": [
                1.4257133972922458,
                -1.0558363136332267,
                -2.1991043236137435,
                2.080418461534359,
                0.609044436995668,
                -0.5395266273447923
            ]
        },
        {
            "positions": [
                1.4684526976646015,
                -1.0637763711989574,
                -2.059863119402066,
                1.94623486341494,
                0.5952179252586132,
                -0.5931523617872383
            ]
        },
        {
            "positions": [
                1.5111919980369573,
                -1.071716428764688,
                -1.920621915190388,
                1.812051265295521,
                0.5813914135215583,
                -0.6467780962296843
            ]
        },
        {
            "positions": [
                1.5539312984093128,
                -1.0796564863304188,
                -1.7813807109787105,
                1.677867667176102,
                0.5675649017845034,
                -0.7004038306721302
            ]
        },
        {
            "positions": [
                1.5966705987816685,
                -1.0875965438961495,
                -1.6421395067670326,
                1.5436840690566827,
                0.5537383900474485,
                -0.7540295651145762
            ]
        },
        {
            "positions": [
                1.6394098991540242,
                -1.0955366014618801,
                -1.502898302555355,
                1.4095004709372636,
                0.5399118783103937,
                -0.8076552995570222
            ]
        },
        {
            "positions": [
                1.68214919952638,
                -1.1034766590276108,
                -1.3636570983436773,
                1.2753168728178446,
                0.5260853665733387,
                -0.8612810339994681
            ]
        },
        {
            "positions": [
                1.7248884998987357,
                -1.1114167165933415,
                -1.2244158941319996,
                1.1411332746984255,
                0.5122588548362839,
                -0.9149067684419141
            ]
        },
        {
            "positions": [
                1.7676278002710912,
                -1.1193567741590722,
                -1.0851746899203218,
                1.0069496765790062,
                0.498432343099229,
                -0.9685325028843601
            ]
        },
        {
            "positions": [
                1.8103671006434472,
                -1.1272968317248029,
                -0.9459334857086439,
                0.8727660784595872,
                0.4846058313621741,
                -1.022158237326806
            ]
        },
        {
            "positions": [
                1.8531064010158027,
                -1.1352368892905336,
                -0.8066922814969664,
                0.7385824803401682,
                0.47077931962511926,
                -1.0757839717692521
            ]
        },
        {
            "positions": [
                1.8958457013881584,
                -1.1431769468562643,
                -0.6674510772852886,
                0.6043988822207491,
                0.45695280788806436,
                -1.1294097062116981
            ]
        },
        {
            "positions": [
                1.9385850017605142,
                -1.151117004421995,
                -0.5282098730736111,
                0.47021528410133007,
                0.4431262961510095,
                -1.1830354406541441
            ]
        },
        {
            "positions": [
                1.98132430213287,
                -1.1590570619877256,
                -0.38896866886193315,
                0.3360316859819108,
                0.42929978441395467,
                -1.2366611750965901
            ]
        },
        {
            "positions": [
                2.0240636025052257,
                -1.1669971195534563,
                -0.24972746465025542,
                0.20184808786249198,
                0.41547327267689976,
                -1.2902869095390361
            ]
        },
        {
            "positions": [
                2.066802902877581,
                -1.174937177119187,
                -0.11048626043857812,
                0.06766448974307293,
                0.4016467609398449,
                -1.343912643981482
            ]
        },
        {
            "positions": [
                2.109542203249937,
                -1.1828772346849177,
                0.02875494377309984,
                -0.06651910837634656,
                0.38782024920279,
                -1.3975383784239281
            ]
        },
        {
            "positions": [
                2.1522815036222926,
                -1.1908172922506484,
                0.1679961479847778,
                -0.20070270649576516,
                0.37399373746573517,
                -1.451164112866374
            ]
        },
        {
            "positions": [
                2.195020803994648,
                -1.198757349816379,
                0.30723735219645576,
                -0.33488630461518465,
                0.3601672257286802,
                -1.5047898473088201
            ]
        },
        {
            "positions": [
                2.237760104367004,
                -1.2066974073821097,
                0.4464785564081333,
                -0.4690699027346037,
                0.34634071399162536,
                -1.558415581751266
            ]
        },
        {
            "positions": [
                2.2804994047393596,
                -1.2146374649478404,
                0.5857197606198108,
                -0.6032535008540227,
                0.3325142022545705,
                -1.612041316193712
            ]
        },
        {
            "positions": [
                2.3232387051117156,
                -1.222577522513571,
                0.7249609648314888,
                -0.7374370989734418,
                0.3186876905175156,
                -1.665667050636158
            ]
        },
        {
            "positions": [
                2.365978005484071,
                -1.2305175800793018,
                0.864202169043166,
                -0.871620697092861,
                0.30486117878046076,
                -1.719292785078604
            ]
        },
        {
            "positions": [
                2.392148825327183,
                -1.2090865469576686,
                0.9608772273315984,
                -0.8649011690472328,
                0.3801499429470837,
                -1.8572248145763945
            ]
        },
        {
            "positions": [
                2.418319645170295,
                -1.1876555138360356,
                1.0575522856200308,
                -0.8581816410016045,
                0.4554387071137067,
                -1.9951568440741851
            ]
        },
        {
            "positions": [
                2.444490465013407,
                -1.1662244807144027,
                1.1542273439084632,
                -0.8514621129559764,
                0.5307274712803296,
                -2.133088873571976
            ]
        },
        {
            "positions": [
                2.470661284856519,
                -1.1447934475927695,
                1.2509024021968955,
                -0.8447425849103481,
                0.6060162354469526,
                -2.2710209030697666
            ]
        },
        {
            "positions": [
                2.4968321046996307,
                -1.1233624144711363,
                1.347577460485328,
                -0.8380230568647199,
                0.6813049996135756,
                -2.408952932567557
            ]
        },
        {
            "positions": [
                2.5230029245427428,
                -1.1019313813495033,
                1.44425251877376,
                -0.8313035288190916,
                0.7565937637801985,
                -2.5468849620653478
            ]
        },
        {
            "positions": [
                2.549173744385855,
                -1.0805003482278703,
                1.5409275770621924,
                -0.8245840007734634,
                0.8318825279468214,
                -2.6848169915631384
            ]
        },
        {
            "positions": [
                2.575344564228967,
                -1.0590693151062371,
                1.6376026353506248,
                -0.8178644727278352,
                0.9071712921134445,
                -2.822749021060929
            ]
        },
        {
            "positions": [
                2.6015153840720786,
                -1.037638281984604,
                1.7342776936390571,
                -0.811144944682207,
                0.9824600562800674,
                -2.9606810505587196
            ]
        },
        {
            "positions": [
                2.6276862039151907,
                -1.016207248862971,
                1.8309527519274895,
                -0.8044254166365787,
                1.0577488204466903,
                -3.09861308005651
            ]
        }
    ]
}