{
    "goal": {
        "global_pose": {
            "orientation": {
                "w": -0.00223480608172531,
                "x": 0.0024358444001904467,
                "y": 0.7094548369677653,
                "z": -0.704743149386269
            },
            "position": {
                "x": -0.37947507619857795,
                "y": -0.6371506643295288,
                "z": 0.19426114857196808
            }
        },
        "name": "move_to_magneteinheit_C"
    },
    "id": "EST_move_to_magneteinheit_C_5",
    "joint_names": [
        "shoulder_pan_joint",
        "shoulder_lift_joint",
        "elbow_joint",
        "wrist_1_joint",
        "wrist_2_joint",
        "wrist_3_joint"
    ],
    "metrics": {
        "cart_traj_len": 1.0348295995033887,
        "distance_elbow_joint": 0.5417039130319599,
        "distance_shoulder_lift_joint": 0.30056904155090236,
        "distance_shoulder_pan_joint": 1.143287948757904,
        "distance_wrist_1_joint": 1.099351928516738,
        "distance_wrist_2_joint": 1.945468950012582,
        "distance_wrist_3_joint": 3.7494257575712204,
        "smoothness": 0.47119101604946123,
        "time": 0.883368863,
        "traj_len": 2.963074001681582,
        "weighted_distance": 4.395848033441677
    },
    "planner": "EST",
    "start": {
        "state": {
            "elbow_joint": 1.9565354010623817,
            "shoulder_lift_joint": -1.4165861575791021,
            "shoulder_pan_joint": -1.6717766225146293,
            "wrist_1_joint": -0.5286633292919765,
            "wrist_2_joint": 1.472756589071564,
            "wrist_3_joint": -3.1238370188695823
        }
    },
    "waypoints": [
        {
            "positions": [
                -1.6717766225146293,
                -1.4165861575791021,
                1.9565354010623817,
                -0.5286633292919765,
                1.472756589071564,
                -3.1238370188695823
            ]
        },
        {
            "positions": [
                -1.5680010245358749,
                -1.42357625781117,
                1.930464848411795,
                -0.4427914046655431,
                1.3694601495100047,
                -3.1306927336596506
            ]
        },
        {
            "positions": [
                -1.572001460969368,
                -1.4251782765484209,
                1.9106532929681432,
                -0.4112513693102727,
                1.2424772457734214,
                -2.944963715803814
            ]
        },
        {
            "positions": [
                -1.5760018974028613,
                -1.4267802952856716,
                1.8908417375244915,
                -0.37971133395500223,
                1.1154943420368382,
                -2.7592346979479774
            ]
        },
        {
            "positions": [
                -1.5800023338363545,
                -1.4283823140229226,
                1.8710301820808397,
                -0.3481712985997318,
                0.9885114383002549,
                -2.5735056800921408
            ]
        },
        {
            "positions": [
                -1.5840027702698478,
                -1.4299843327601733,
                1.851218626637188,
                -0.31663126324446134,
                0.8615285345636715,
                -2.387776662236304
            ]
        },
        {
            "positions": [
                -1.588003206703341,
                -1.4315863514974243,
                1.8314070711935364,
                -0.28509122788919095,
                0.7345456308270882,
                -2.2020476443804675
            ]
        },
        {
            "positions": [
                -1.592003643136834,
                -1.4331883702346753,
                1.8115955157498846,
                -0.25355119253392044,
                0.607562727090505,
                -2.016318626524631
            ]
        },
        {
            "positions": [
                -1.5960040795703274,
                -1.434790388971926,
                1.7917839603062329,
                -0.22201115717865005,
                0.4805798233539217,
                -1.8305896086687943
            ]
        },
        {
            "positions": [
                -1.6000045160038205,
                -1.436392407709177,
                1.7719724048625811,
                -0.1904711218233796,
                0.3535969196173383,
                -1.6448605908129574
            ]
        },
        {
            "positions": [
                -1.604004952437314,
                -1.4379944264464277,
                1.7521608494189294,
                -0.15893108646810916,
                0.22661401588075503,
                -1.4591315729571208
            ]
        },
        {
            "positions": [
                -1.608005388870807,
                -1.4395964451836787,
                1.7323492939752776,
                -0.12739105111283872,
                0.09963111214417184,
                -1.2734025551012842
            ]
        },
        {
            "positions": [
                -1.7630655750206776,
                -1.419870855009905,
                1.781636818405247,
                -0.1986252445875883,
                0.12357834358550467,
                -1.3158986237166548
            ]
        },
        {
            "positions": [
                -1.918125761170548,
                -1.4001452648361317,
                1.830924342835216,
                -0.2698594380623378,
                0.1475255750268375,
                -1.3583946923320256
            ]
        },
        {
            "positions": [
                -2.0731859473204186,
                -1.3804196746623583,
                1.8802118672651853,
                -0.3410936315370874,
                0.17147280646817034,
                -1.4008907609473962
            ]
        },
        {
            "positions": [
                -2.228246133470289,
                -1.3606940844885846,
                1.9294993916951546,
                -0.41232782501183696,
                0.19542003790950319,
                -1.4433868295627668
            ]
        },
        {
            "positions": [
                -2.38330631962016,
                -1.340968494314811,
                1.9787869161251237,
                -0.48356201848658653,
                0.219367269350836,
                -1.4858828981781376
            ]
        },
        {
            "positions": [
                -2.53836650577003,
                -1.3212429041410376,
                2.028074440555093,
                -0.5547962119613361,
                0.24331450079216885,
                -1.5283789667935082
            ]
        },
        {
            "positions": [
                -2.539546150657394,
                -1.3044154333050284,
                2.0285599198329622,
                -0.585196334444779,
                0.2871684140640392,
                -1.6930885793747876
            ]
        },
        {
            "positions": [
                -2.540725795544758,
                -1.287587962469019,
                2.0290453991108315,
                -0.6155964569282221,
                0.3310223273359095,
                -1.857798191956067
            ]
        },
        {
            "positions": [
                -2.529594532249714,
                -1.2666629172637414,
                2.0255751156426145,
                -0.6505754976819248,
                0.38784770365148474,
                -2.074612229850734
            ]
        },
        {
            "positions": [
                -2.5184632689546693,
                -1.2457378720584635,
                2.0221048321743975,
                -0.6855545384356276,
                0.44467307996705996,
                -2.2914262677454014
            ]
        },
        {
            "positions": [
                -2.507332005659625,
                -1.224812826853186,
                2.0186345487061805,
                -0.7205335791893304,
                0.5014984562826352,
                -2.508240305640068
            ]
        },
        {
            "positions": [
                -2.496200742364581,
                -1.2038877816479083,
                2.0151642652379635,
                -0.7555126199430331,
                0.5583238325982105,
                -2.7250543435347354
            ]
        },
        {
            "positions": [
                -2.4850694790695362,
                -1.1829627364426305,
                2.0116939817697466,
                -0.7904916606967359,
                0.6151492089137858,
                -2.941868381429402
            ]
        },
        {
            "positions": [
                -2.473938215774492,
                -1.162037691237353,
                2.0082236983015296,
                -0.8254707014504387,
                0.6719745852293609,
                -3.1586824193240695
            ]
        }
    ]
}