{
    "goal": {
        "global_pose": {
            "orientation": {
                "w": -0.00223480608172531,
                "x": 0.0024358444001904467,
                "y": 0.7094548369677653,
                "z": -0.704743149386269
            },
            "position": {
                "x": 0.6205249238014221,
                "y": -0.6371506643295288,
                "z": 0.19426114857196808
            }
        },
        "name": "move_to_magneteinheit_B"
    },
    "id": "EST_move_to_magneteinheit_B_149",
    "joint_names": [
        "shoulder_pan_joint",
        "shoulder_lift_joint",
        "elbow_joint",
        "wrist_1_joint",
        "wrist_2_joint",
        "wrist_3_joint"
    ],
    "metrics": {
        "cart_traj_len": 1.4878941733653257,
        "distance_elbow_joint": 0.9585083331460635,
        "distance_shoulder_lift_joint": 0.7572326489468544,
        "distance_shoulder_pan_joint": 1.6216634004253767,
        "distance_wrist_1_joint": 1.3567340508452195,
        "distance_wrist_2_joint": 2.556583933457578,
        "distance_wrist_3_joint": 1.2134767925559493,
        "smoothness": 0.6726774122060463,
        "time": 0.39963693499999997,
        "traj_len": 2.9093296752649125,
        "weighted_distance": 3.8476578237665233
    },
    "planner": "EST",
    "start": {
        "state": {
            "elbow_joint": 2.6216224122426386,
            "shoulder_lift_joint": -1.4174107377796124,
            "shoulder_pan_joint": 0.7066234856936794,
            "wrist_1_joint": 1.9546482284002225,
            "wrist_2_joint": -0.7096286983471962,
            "wrist_3_joint": 0.005740856962016249
        }
    },
    "waypoints": [
        {
            "positions": [
                0.7066234856936794,
                -1.4174107377796124,
                2.6216224122426386,
                1.9546482284002225,
                -0.7096286983471962,
                0.005740856962016249
            ]
        },
        {
            "positions": [
                0.6404736842325097,
                -1.4129858432880276,
                2.5840104690638412,
                1.8568958504461057,
                -0.6231288322674063,
                -0.09516099142510961
            ]
        },
        {
            "positions": [
                0.5743238827713399,
                -1.4085609487964428,
                2.5463985258850435,
                1.7591434724919892,
                -0.5366289661876165,
                -0.19606283981223546
            ]
        },
        {
            "positions": [
                0.5081740813101703,
                -1.404136054304858,
                2.5087865827062457,
                1.6613910945378725,
                -0.4501291001078265,
                -0.29696468819936134
            ]
        },
        {
            "positions": [
                0.44202427984900056,
                -1.3997111598132732,
                2.4711746395274483,
                1.563638716583756,
                -0.3636292340280366,
                -0.3978665365864872
            ]
        },
        {
            "positions": [
                0.37587447838783083,
                -1.3952862653216884,
                2.433562696348651,
                1.4658863386296392,
                -0.2771293679482466,
                -0.49876838497361314
            ]
        },
        {
            "positions": [
                0.3097246769266611,
                -1.3908613708301036,
                2.395950753169853,
                1.3681339606755225,
                -0.19062950186845673,
                -0.599670233360739
            ]
        },
        {
            "positions": [
                0.23317688994801372,
                -1.3451936657052694,
                2.3501484610402734,
                1.416272697120555,
                -0.31797854792963415,
                -0.5616661269711644
            ]
        },
        {
            "positions": [
                0.1566291029693663,
                -1.2995259605804355,
                2.304346168910693,
                1.4644114335655876,
                -0.44532759399081157,
                -0.5236620205815897
            ]
        },
        {
            "positions": [
                0.08008131599071888,
                -1.2538582554556013,
                2.2585438767811135,
                1.5125501700106199,
                -0.5726766400519889,
                -0.48565791419201504
            ]
        },
        {
            "positions": [
                0.00353352901207149,
                -1.2081905503307673,
                2.2127415846515337,
                1.5606889064556524,
                -0.7000256861131664,
                -0.44765380780244035
            ]
        },
        {
            "positions": [
                -0.0730142579665759,
                -1.162522845205933,
                2.166939292521954,
                1.608827642900685,
                -0.8273747321743439,
                -0.4096497014128657
            ]
        },
        {
            "positions": [
                -0.14956204494522335,
                -1.1168551400810989,
                2.1211370003923737,
                1.6569663793457172,
                -0.9547237782355212,
                -0.3716455950232911
            ]
        },
        {
            "positions": [
                -0.22610983192387074,
                -1.071187434956265,
                2.075334708262794,
                1.7051051157907497,
                -1.0820728242966986,
                -0.3336414886337164
            ]
        },
        {
            "positions": [
                -0.30265761890251813,
                -1.025519729831431,
                2.0295324161332142,
                1.7532438522357823,
                -1.209421870357876,
                -0.29563738224414177
            ]
        },
        {
            "positions": [
                -0.3792054058811655,
                -0.9798520247065967,
                1.9837301240036342,
                1.8013825886808148,
                -1.3367709164190535,
                -0.25763327585456713
            ]
        },
        {
            "positions": [
                -0.4557531928598129,
                -0.9341843195817626,
                1.9379278318740543,
                1.8495213251258473,
                -1.464119962480231,
                -0.21962916946499245
            ]
        },
        {
            "positions": [
                -0.5323009798384604,
                -0.8885166144569285,
                1.8921255397444745,
                1.8976600615708796,
                -1.5914690085414083,
                -0.18162506307541781
            ]
        },
        {
            "positions": [
                -0.6088487668171079,
                -0.8428489093320943,
                1.8463232476148945,
                1.9457987980159122,
                -1.7188180546025857,
                -0.14362095668584318
            ]
        },
        {
            "positions": [
                -0.6853965537957551,
                -0.7971812042072602,
                1.8005209554853145,
                1.9939375344609447,
                -1.8461671006637632,
                -0.1056168502962685
            ]
        },
        {
            "positions": [
                -0.7619443407744027,
                -0.7515134990824262,
                1.7547186633557348,
                2.042076270905977,
                -1.9735161467249405,
                -0.0676127439066938
            ]
        },
        {
            "positions": [
                -0.8384921277530499,
                -0.7058457939575921,
                1.708916371226155,
                2.0902150073510093,
                -2.100865192786118,
                -0.029608637517119174
            ]
        },
        {
            "positions": [
                -0.9150399147316973,
                -0.660178088832758,
                1.663114079096575,
                2.138353743796042,
                -2.228214238847295,
                0.00839546887245541
            ]
        }
    ]
}