{
    "goal": {
        "global_pose": {
            "orientation": {
                "w": 0.5084816262002911,
                "x": -0.4908360881923452,
                "y": 0.5182115481033761,
                "z": -0.48164630358495003
            },
            "position": {
                "x": 0.5540239810943604,
                "y": -0.46912469901144505,
                "z": 0.16403168439865112
            }
        },
        "name": "move_to_storage_B"
    },
    "id": "EST_move_to_storage_B_91",
    "joint_names": [
        "shoulder_pan_joint",
        "shoulder_lift_joint",
        "elbow_joint",
        "wrist_1_joint",
        "wrist_2_joint",
        "wrist_3_joint"
    ],
    "metrics": {
        "cart_traj_len": 1.4402712539038394,
        "distance_elbow_joint": 0.35158627197712544,
        "distance_shoulder_lift_joint": 0.4604022143547821,
        "distance_shoulder_pan_joint": 1.6858009620849508,
        "distance_wrist_1_joint": 2.989196167732155,
        "distance_wrist_2_joint": 2.701620316208847,
        "distance_wrist_3_joint": 3.1325803840900264,
        "smoothness": 0.11683724225218355,
        "time": 0.191970615,
        "traj_len": 3.3646970616160803,
        "weighted_distance": 4.824641289108334
    },
    "planner": "EST",
    "start": {
        "state": {
            "elbow_joint": 1.664937868594044,
            "shoulder_lift_joint": -0.661644460510453,
            "shoulder_pan_joint": -0.9139846352900073,
            "wrist_1_joint": 2.146753192139373,
            "wrist_2_joint": -2.2341966793290973,
            "wrist_3_joint": 0.005466555786416001
        }
    },
    "waypoints": [
        {
            "positions": [
                -0.9139846352900073,
                -0.661644460510453,
                1.664937868594044,
                2.146753192139373,
                -2.2341966793290973,
                0.005466555786416001
            ]
        },
        {
            "positions": [
                -0.8066096826862014,
                -0.7147453829827589,
                1.6757852036509173,
                2.0537976191937726,
                -2.187867414105201,
                -0.03097381481926026
            ]
        },
        {
            "positions": [
                -0.6992347300823955,
                -0.7678463054550649,
                1.6866325387077907,
                1.9608420462481722,
                -2.1415381488813043,
                -0.06741418542493652
            ]
        },
        {
            "positions": [
                -0.5918597774785894,
                -0.8209472279273708,
                1.6974798737646641,
                1.8678864733025715,
                -2.095208883657408,
                -0.10385455603061278
            ]
        },
        {
            "positions": [
                -0.48448482487478356,
                -0.8740481503996769,
                1.7083272088215378,
                1.7749309003569709,
                -2.048879618433512,
                -0.14029492663628904
            ]
        },
        {
            "positions": [
                -0.3771098722709776,
                -0.9271490728719828,
                1.7191745438784112,
                1.6819753274113705,
                -2.0025503532096156,
                -0.17673529724196532
            ]
        },
        {
            "positions": [
                -0.26973491966717167,
                -0.9802499953442887,
                1.7300218789352846,
                1.5890197544657698,
                -1.9562210879857191,
                -0.21317566784764155
            ]
        },
        {
            "positions": [
                -0.16235996706336575,
                -1.0333509178165947,
                1.740869213992158,
                1.4960641815201692,
                -1.9098918227618227,
                -0.2496160384533178
            ]
        },
        {
            "positions": [
                -0.20297632766590093,
                -1.037207255079579,
                1.7528542107999412,
                1.394389957297867,
                -1.806530281038276,
                -0.37472463801202616
            ]
        },
        {
            "positions": [
                -0.2435926882684361,
                -1.0410635923425635,
                1.7648392076077242,
                1.2927157330755648,
                -1.7031687393147295,
                -0.4998332375707345
            ]
        },
        {
            "positions": [
                -0.2842090488709713,
                -1.0449199296055478,
                1.7768242044155074,
                1.1910415088532624,
                -1.5998071975911827,
                -0.6249418371294428
            ]
        },
        {
            "positions": [
                -0.32482540947350647,
                -1.048776266868532,
                1.7888092012232903,
                1.0893672846309603,
                -1.496445655867636,
                -0.7500504366881512
            ]
        },
        {
            "positions": [
                -0.3654417700760416,
                -1.0526326041315166,
                1.8007941980310735,
                0.9876930604086581,
                -1.3930841141440893,
                -0.8751590362468595
            ]
        },
        {
            "positions": [
                -0.4060581306785768,
                -1.056488941394501,
                1.8127791948388565,
                0.8860188361863559,
                -1.2897225724205428,
                -1.000267635805568
            ]
        },
        {
            "positions": [
                -0.44667449128111203,
                -1.0603452786574852,
                1.8247641916466397,
                0.7843446119640536,
                -1.186361030696996,
                -1.1253762353642762
            ]
        },
        {
            "positions": [
                -0.4872908518836472,
                -1.0642016159204697,
                1.836749188454423,
                0.6826703877417515,
                -1.0829994889734493,
                -1.2504848349229847
            ]
        },
        {
            "positions": [
                -0.5279072124861823,
                -1.068057953183454,
                1.848734185262206,
                0.5809961635194492,
                -0.9796379472499027,
                -1.3755934344816931
            ]
        },
        {
            "positions": [
                -0.5685235730887175,
                -1.0719142904464383,
                1.860719182069989,
                0.47932193929714706,
                -0.8762764055263561,
                -1.5007020340404011
            ]
        },
        {
            "positions": [
                -0.6091399336912527,
                -1.0757706277094228,
                1.872704178877772,
                0.37764771507484474,
                -0.7729148638028094,
                -1.6258106335991096
            ]
        },
        {
            "positions": [
                -0.6497562942937879,
                -1.079626964972407,
                1.8846891756855553,
                0.27597349085254264,
                -0.6695533220792629,
                -1.750919233157818
            ]
        },
        {
            "positions": [
                -0.690372654896323,
                -1.0834833022353916,
                1.8966741724933383,
                0.17429926663024053,
                -0.5661917803557162,
                -1.8760278327165265
            ]
        },
        {
            "positions": [
                -0.7309890154988583,
                -1.0873396394983759,
                1.9086591693011214,
                0.07262504240793799,
                -0.46283023863216943,
                -2.001136432275235
            ]
        },
        {
            "positions": [
                -0.7716053761013935,
                -1.0911959767613602,
                1.9206441661089046,
                -0.02904918181436411,
                -0.3594686969086227,
                -2.1262450318339434
            ]
        },
        {
            "positions": [
                -0.8122217367039286,
                -1.0950523140243447,
                1.9326291629166876,
                -0.1307234060366662,
                -0.2561071551850762,
                -2.2513536313926514
            ]
        },
        {
            "positions": [
                -0.8528380973064638,
                -1.098908651287329,
                1.9446141597244706,
                -0.2323976302589683,
                -0.1527456134615297,
                -2.37646223095136
            ]
        },
        {
            "positions": [
                -0.893454457908999,
                -1.1027649885503132,
                1.9565991565322538,
                -0.33407185448127086,
                -0.04938407173798276,
                -2.5015708305100683
            ]
        },
        {
            "positions": [
                -0.9340708185115342,
                -1.1066213258132978,
                1.968584153340037,
                -0.43574607870357296,
                0.05397746998556374,
                -2.626679430068777
            ]
        },
        {
            "positions": [
                -0.9746871791140693,
                -1.110477663076282,
                1.98056915014782,
                -0.5374203029258751,
                0.15733901170911047,
                -2.751788029627485
            ]
        },
        {
            "positions": [
                -1.0153035397166046,
                -1.1143340003392663,
                1.9925541469556032,
                -0.6390945271481772,
                0.26070055343265697,
                -2.8768966291861933
            ]
        },
        {
            "positions": [
                -1.0559199003191397,
                -1.1181903376022508,
                2.0045391437633864,
                -0.7407687513704797,
                0.3640620951562039,
                -3.0020052287449017
            ]
        },
        {
            "positions": [
                -1.0965362609216749,
                -1.1220466748652351,
                2.0165241405711694,
                -0.8424429755927817,
                0.4674236368797502,
                -3.12711382830361
            ]
        }
    ]
}