{
    "goal": {
        "global_pose": {
            "orientation": {
                "w": -0.4816463035849501,
                "x": 0.5182115481033762,
                "y": 0.4908360881923453,
                "z": -0.5084816262002911
            },
            "position": {
                "x": -0.8240239810943604,
                "y": 0.19912469901144506,
                "z": 0.16403168439865112
            }
        },
        "name": "move_to_storage_D"
    },
    "id": "EST_move_to_storage_D_137",
    "joint_names": [
        "shoulder_pan_joint",
        "shoulder_lift_joint",
        "elbow_joint",
        "wrist_1_joint",
        "wrist_2_joint",
        "wrist_3_joint"
    ],
    "metrics": {
        "cart_traj_len": 3.509042111314975,
        "distance_elbow_joint": 4.211124870971629,
        "distance_shoulder_lift_joint": 1.26451062669244,
        "distance_shoulder_pan_joint": 2.8135588750587037,
        "distance_wrist_1_joint": 2.271490955507708,
        "distance_wrist_2_joint": 0.8767893425584653,
        "distance_wrist_3_joint": 3.138102098209499,
        "smoothness": 0.0001651123781309507,
        "time": 0.096278373,
        "traj_len": 3.8177973713907933,
        "weighted_distance": 4.89898573824048
    },
    "planner": "EST",
    "start": {
        "state": {
            "elbow_joint": -2.384821988534728,
            "shoulder_lift_joint": -2.2788054721415256,
            "shoulder_pan_joint": -0.1854694642142757,
            "wrist_1_joint": 1.4845938289331202,
            "wrist_2_joint": 0.17898776772866878,
            "wrist_3_joint": 0.037105688729662994
        }
    },
    "waypoints": [
        {
            "positions": [
                -0.1854694642142757,
                -2.2788054721415256,
                -2.384821988534728,
                1.4845938289331202,
                0.17898776772866878,
                0.037105688729662994
            ]
        },
        {
            "positions": [
                -0.10099440504603781,
                -2.259437890314686,
                -2.232226227328961,
                1.425560783782913,
                0.17891586102349208,
                0.11357599996185679
            ]
        },
        {
            "positions": [
                -0.016519345877799907,
                -2.2400703084878466,
                -2.079630466123194,
                1.3665277386327055,
                0.1788439543183154,
                0.19004631119405058
            ]
        },
        {
            "positions": [
                0.06795571329043801,
                -2.2207027266610075,
                -1.927034704917427,
                1.3074946934824982,
                0.1787720476131387,
                0.2665166224262444
            ]
        },
        {
            "positions": [
                0.1524307724586759,
                -2.201335144834168,
                -1.7744389437116599,
                1.2484616483322908,
                0.17870014090796202,
                0.34298693365843813
            ]
        },
        {
            "positions": [
                0.23690583162691378,
                -2.1819675630073285,
                -1.621843182505893,
                1.1894286031820835,
                0.1786282342027853,
                0.41945724489063196
            ]
        },
        {
            "positions": [
                0.32138089079515175,
                -2.162599981180489,
                -1.469247421300126,
                1.1303955580318763,
                0.17855632749760864,
                0.4959275561228258
            ]
        },
        {
            "positions": [
                0.4058559499633897,
                -2.14323239935365,
                -1.316651660094359,
                1.0713625128816688,
                0.17848442079243193,
                0.5723978673550196
            ]
        },
        {
            "positions": [
                0.4903310091316275,
                -2.1238648175268104,
                -1.164055898888592,
                1.0123294677314616,
                0.17841251408725523,
                0.6488681785872134
            ]
        },
        {
            "positions": [
                0.5748060682998655,
                -2.104497235699971,
                -1.011460137682825,
                0.9532964225812542,
                0.17834060738207855,
                0.7253384898194072
            ]
        },
        {
            "positions": [
                0.6592811274681033,
                -2.0851296538731314,
                -0.858864376477058,
                0.8942633774310469,
                0.17826870067690184,
                0.8018088010516009
            ]
        },
        {
            "positions": [
                0.7437561866363412,
                -2.0657620720462924,
                -0.7062686152712909,
                0.8352303322808395,
                0.17819679397172516,
                0.8782791122837947
            ]
        },
        {
            "positions": [
                0.8282312458045792,
                -2.046394490219453,
                -0.5536728540655242,
                0.7761972871306323,
                0.17812488726654846,
                0.9547494235159886
            ]
        },
        {
            "positions": [
                0.9127063049728169,
                -2.0270269083926133,
                -0.40107709285975734,
                0.7171642419804249,
                0.17805298056137178,
                1.0312197347481822
            ]
        },
        {
            "positions": [
                0.9971813641410551,
                -2.007659326565774,
                -0.24848133165399,
                0.6581311968302176,
                0.17798107385619508,
                1.1076900459803762
            ]
        },
        {
            "positions": [
                1.0816564233092927,
                -1.9882917447389346,
                -0.09588557044822288,
                0.5990981516800102,
                0.1779091671510184,
                1.1841603572125698
            ]
        },
        {
            "positions": [
                1.1661314824775306,
                -1.9689241629120953,
                0.0567101907575438,
                0.540065106529803,
                0.1778372604458417,
                1.2606306684447637
            ]
        },
        {
            "positions": [
                1.2506065416457686,
                -1.9495565810852558,
                0.20930595196331048,
                0.48103206137959575,
                0.177765353740665,
                1.3371009796769575
            ]
        },
        {
            "positions": [
                1.3350816008140065,
                -1.9301889992584162,
                0.36190171316907804,
                0.4219990162293883,
                0.1776934470354883,
                1.4135712909091513
            ]
        },
        {
            "positions": [
                1.4195566599822445,
                -1.910821417431577,
                0.5144974743748447,
                0.36296597107918105,
                0.1776215403303116,
                1.4900416021413452
            ]
        },
        {
            "positions": [
                1.5040317191504822,
                -1.8914538356047377,
                0.6670932355806118,
                0.3039329259289736,
                0.17754963362513493,
                1.5665119133735388
            ]
        },
        {
            "positions": [
                1.5885067783187201,
                -1.8720862537778982,
                0.8196889967863785,
                0.24489988077876634,
                0.17747772691995822,
                1.6429822246057326
            ]
        },
        {
            "positions": [
                1.672981837486958,
                -1.8527186719510587,
                0.9722847579921461,
                0.18586683562855888,
                0.17740582021478155,
                1.7194525358379265
            ]
        },
        {
            "positions": [
                1.757456896655196,
                -1.8333510901242194,
                1.1248805191979128,
                0.12683379047835153,
                0.17733391350960484,
                1.7959228470701203
            ]
        },
        {
            "positions": [
                1.810280112676954,
                -1.788011969319236,
                1.158395548216682,
                0.06429455504294346,
                0.22467303926453353,
                1.8826804614762294
            ]
        },
        {
            "positions": [
                1.8631033286987124,
                -1.7426728485142526,
                1.1919105772354508,
                0.0017553196075353883,
                0.27201216501946224,
                1.9694380758823384
            ]
        },
        {
            "positions": [
                1.9159265447204705,
                -1.697333727709269,
                1.22542560625422,
                -0.06078391582787268,
                0.3193512907743909,
                2.0561956902884475
            ]
        },
        {
            "positions": [
                1.9687497607422288,
                -1.6519946069042857,
                1.2589406352729888,
                -0.12332315126328075,
                0.36669041652931955,
                2.1429533046945566
            ]
        },
        {
            "positions": [
                2.021572976763987,
                -1.6066554860993023,
                1.292455664291758,
                -0.18586238669868882,
                0.41402954228424826,
                2.2297109191006657
            ]
        },
        {
            "positions": [
                2.082224620172031,
                -1.5474194220342807,
                1.3458403861062724,
                -0.24596586068627868,
                0.47787352824072404,
                2.324260605884515
            ]
        },
        {
            "positions": [
                2.142876263580075,
                -1.488183357969259,
                1.399225107920787,
                -0.30606933467386854,
                0.5417175141971998,
                2.418810292668365
            ]
        },
        {
            "positions": [
                2.203527906988119,
                -1.4289472939042374,
                1.4526098297353014,
                -0.3661728086614584,
                0.6055615001536756,
                2.513359979452215
            ]
        },
        {
            "positions": [
                2.2641795503961633,
                -1.3697112298392156,
                1.5059945515498159,
                -0.4262762826490483,
                0.6694054861101515,
                2.6079096662360643
            ]
        },
        {
            "positions": [
                2.324831193804207,
                -1.310475165774194,
                1.5593792733643301,
                -0.4863797566366382,
                0.7332494720666272,
                2.702459353019914
            ]
        },
        {
            "positions": [
                2.385482837212251,
                -1.2512391017091724,
                1.6127639951788446,
                -0.546483230624228,
                0.797093458023103,
                2.7970090398037635
            ]
        },
        {
            "positions": [
                2.4461344806202954,
                -1.1920030376441506,
                1.666148716993359,
                -0.6065867046118179,
                0.8609374439795787,
                2.891558726587613
            ]
        },
        {
            "positions": [
                2.5067861240283396,
                -1.132766973579129,
                1.7195334388078736,
                -0.6666901785994078,
                0.9247814299360546,
                2.986108413371463
            ]
        },
        {
            "positions": [
                2.5674377674363833,
                -1.0735309095141075,
                1.772918160622388,
                -0.7267936525869977,
                0.9886254158925304,
                3.0806581001553126
            ]
        },
        {
            "positions": [
                2.6280894108444275,
                -1.0142948454490857,
                1.8263028824369025,
                -0.7868971265745875,
                1.0524694018490062,
                3.175207786939162
            ]
        }
    ]
}