{
    "goal": {
        "global_pose": {
            "orientation": {
                "w": 0.7031023480610252,
                "x": -0.7110244013736278,
                "y": 0.0077485991402295624,
                "z": 0.005598929693374583
            },
            "position": {
                "x": -0.8841497679147869,
                "y": 0.44412534475326537,
                "z": 0.3711530566215515
            }
        },
        "name": "move_to_auspresseinheit_D"
    },
    "id": "EST_move_to_auspresseinheit_D_67",
    "joint_names": [
        "shoulder_pan_joint",
        "shoulder_lift_joint",
        "elbow_joint",
        "wrist_1_joint",
        "wrist_2_joint",
        "wrist_3_joint"
    ],
    "metrics": {
        "cart_traj_len": 0.3435403154251426,
        "distance_elbow_joint": 0.657599250912942,
        "distance_shoulder_lift_joint": 0.1324398524823378,
        "distance_shoulder_pan_joint": 0.13279049547867738,
        "distance_wrist_1_joint": 0.5823785265617061,
        "distance_wrist_2_joint": 1.4489976241722966,
        "distance_wrist_3_joint": 0.03857195193955576,
        "smoothness": 2.368475774345725e-15,
        "time": 0.082299886,
        "traj_len": 1.7299646532653539,
        "weighted_distance": 2.2586052678944655
    },
    "planner": "EST",
    "start": {
        "state": {
            "elbow_joint": -1.8275523626775212,
            "shoulder_lift_joint": -2.126789852344167,
            "shoulder_pan_joint": -0.03513704404078235,
            "wrist_1_joint": -2.347782403156801,
            "wrist_2_joint": -1.6058999987535132,
            "wrist_3_joint": -3.0880379163319196
        }
    },
    "waypoints": [
        {
            "positions": [
                -0.03513704404078235,
                -2.126789852344167,
                -1.8275523626775212,
                -2.347782403156801,
                -1.6058999987535132,
                -3.0880379163319196
            ]
        },
        {
            "positions": [
                -0.05173585597561702,
                -2.143344833904459,
                -1.7453524563134035,
                -2.420579718977014,
                -1.4247752957319761,
                -3.083216422339475
            ]
        },
        {
            "positions": [
                -0.0683346679104517,
                -2.159899815464751,
                -1.6631525499492856,
                -2.4933770347972275,
                -1.243650592710439,
                -3.0783949283470307
            ]
        },
        {
            "positions": [
                -0.08493347984528637,
                -2.1764547970250434,
                -1.580952643585168,
                -2.5661743506174406,
                -1.062525889688902,
                -3.073573434354586
            ]
        },
        {
            "positions": [
                -0.10153229178012105,
                -2.1930097785853357,
                -1.49875273722105,
                -2.638971666437654,
                -0.8814011866673649,
                -3.0687519403621417
            ]
        },
        {
            "positions": [
                -0.11813110371495572,
                -2.209564760145628,
                -1.4165528308569324,
                -2.7117689822578672,
                -0.7002764836458278,
                -3.0639304463696972
            ]
        },
        {
            "positions": [
                -0.1347299156497904,
                -2.2261197417059204,
                -1.3343529244928147,
                -2.7845662980780803,
                -0.5191517806242907,
                -3.0591089523772528
            ]
        },
        {
            "positions": [
                -0.15132872758462507,
                -2.2426747232662123,
                -1.252153018128697,
                -2.8573636138982934,
                -0.33802707760275363,
                -3.0542874583848083
            ]
        },
        {
            "positions": [
                -0.16792753951945974,
                -2.2592297048265046,
                -1.1699531117645792,
                -2.930160929718507,
                -0.15690237458121653,
                -3.049465964392364
            ]
        }
    ]
}