{
    "goal": {
        "global_pose": {
            "orientation": {
                "w": 0.7047431493862688,
                "x": -0.7094548369677653,
                "y": 0.0024358444001904,
                "z": -0.0022348060817251984
            },
            "position": {
                "x": -0.39052492380142206,
                "y": 0.3671506643295288,
                "z": 0.19426114857196808
            }
        },
        "name": "move_to_magneteinheit_D"
    },
    "id": "EST_move_to_magneteinheit_D_93",
    "joint_names": [
        "shoulder_pan_joint",
        "shoulder_lift_joint",
        "elbow_joint",
        "wrist_1_joint",
        "wrist_2_joint",
        "wrist_3_joint"
    ],
    "metrics": {
        "cart_traj_len": 4.795211883587722,
        "distance_elbow_joint": 3.0957398224666886,
        "distance_shoulder_lift_joint": 1.440356956175679,
        "distance_shoulder_pan_joint": 3.289264327974145,
        "distance_wrist_1_joint": 2.1926911816243564,
        "distance_wrist_2_joint": 0.9418695750871099,
        "distance_wrist_3_joint": 0.8036943208529364,
        "smoothness": 0.5108470565457472,
        "time": 0.6087020169999999,
        "traj_len": 3.4298128497311504,
        "weighted_distance": 4.062704220417511
    },
    "planner": "EST",
    "start": {
        "state": {
            "elbow_joint": 0.749534889911806,
            "shoulder_lift_joint": -0.6476975780787326,
            "shoulder_pan_joint": -2.711696901376241,
            "wrist_1_joint": -0.07506478083263063,
            "wrist_2_joint": 0.43296659715538205,
            "wrist_3_joint": -3.14703540197715
        }
    },
    "waypoints": [
        {
            "positions": [
                -2.711696901376241,
                -0.6476975780787326,
                0.749534889911806,
                -0.07506478083263063,
                0.43296659715538205,
                -3.14703540197715
            ]
        },
        {
            "positions": [
                -2.7091936222793147,
                -0.7365302393266127,
                0.6919289250026254,
                -0.11893608601342093,
                0.496440660920344,
                -3.018460839941238
            ]
        },
        {
            "positions": [
                -2.7066903431823883,
                -0.8253629005744926,
                0.6343229600934448,
                -0.16280739119421123,
                0.559914724685306,
                -2.889886277905326
            ]
        },
        {
            "positions": [
                -2.5805042715927202,
                -0.8711990292672767,
                0.5249761002302207,
                -0.2338015692112652,
                0.5393280762084024,
                -2.8815229086961494
            ]
        },
        {
            "positions": [
                -2.454318200003052,
                -0.9170351579600607,
                0.41562924036699656,
                -0.30479574722831915,
                0.5187414277314989,
                -2.873159539486973
            ]
        },
        {
            "positions": [
                -2.3281321284133845,
                -0.9628712866528448,
                0.3062823805037724,
                -0.37578992524537314,
                0.4981547792545953,
                -2.8647961702777964
            ]
        },
        {
            "positions": [
                -2.2019460568237164,
                -1.0087074153456288,
                0.19693552064054826,
                -0.44678410326242707,
                0.47756813077769167,
                -2.85643280106862
            ]
        },
        {
            "positions": [
                -2.0757599852340483,
                -1.054543544038413,
                0.08758866077732408,
                -0.517778281279481,
                0.4569814823007881,
                -2.8480694318594435
            ]
        },
        {
            "positions": [
                -1.9495739136443802,
                -1.100379672731197,
                -0.021758199085900043,
                -0.588772459296535,
                0.4363948338238845,
                -2.8397060626502673
            ]
        },
        {
            "positions": [
                -1.8233878420547123,
                -1.1462158014239812,
                -0.13110505894912428,
                -0.659766637313589,
                0.41580818534698094,
                -2.8313426934410906
            ]
        },
        {
            "positions": [
                -1.6972017704650444,
                -1.1920519301167651,
                -0.2404519188123483,
                -0.7307608153306429,
                0.39522153687007733,
                -2.822979324231914
            ]
        },
        {
            "positions": [
                -1.5710156988753763,
                -1.237888058809549,
                -0.3497987786755725,
                -0.8017549933476968,
                0.3746348883931737,
                -2.8146159550227376
            ]
        },
        {
            "positions": [
                -1.4448296272857084,
                -1.2837241875023333,
                -0.45914563853879664,
                -0.8727491713647508,
                0.3540482399162702,
                -2.806252585813561
            ]
        },
        {
            "positions": [
                -1.3186435556960403,
                -1.3295603161951175,
                -0.5684924984020208,
                -0.9437433493818048,
                0.3334615914393666,
                -2.7978892166043847
            ]
        },
        {
            "positions": [
                -1.1924574841063722,
                -1.3753964448879015,
                -0.6778393582652449,
                -1.0147375273988588,
                0.312874942962463,
                -2.789525847395208
            ]
        },
        {
            "positions": [
                -1.0662714125167043,
                -1.4212325735806854,
                -0.787186218128469,
                -1.0857317054159126,
                0.29228829448555943,
                -2.781162478186032
            ]
        },
        {
            "positions": [
                -0.9400853409270362,
                -1.4670687022734696,
                -0.8965330779916934,
                -1.1567258834329668,
                0.2717016460086558,
                -2.772799108976855
            ]
        },
        {
            "positions": [
                -0.8138992693373681,
                -1.5129048309662536,
                -1.0058799378549172,
                -1.2277200614500205,
                0.25111499753175226,
                -2.764435739767679
            ]
        },
        {
            "positions": [
                -0.6877131977477005,
                -1.5587409596590378,
                -1.1152267977181414,
                -1.2987142394670745,
                0.2305283490548487,
                -2.756072370558502
            ]
        },
        {
            "positions": [
                -0.5615271261580324,
                -1.6045770883518218,
                -1.2245736575813655,
                -1.3697084174841283,
                0.2099417005779451,
                -2.7477090013493255
            ]
        },
        {
            "positions": [
                -0.43534105456836425,
                -1.6504132170446058,
                -1.3339205174445898,
                -1.4407025955011825,
                0.18935505210104148,
                -2.7393456321401493
            ]
        },
        {
            "positions": [
                -0.30915498297869615,
                -1.69624934573739,
                -1.443267377307814,
                -1.5116967735182365,
                0.16876840362413792,
                -2.7309822629309726
            ]
        },
        {
            "positions": [
                -0.1829689113890285,
                -1.742085474430174,
                -1.552614237171038,
                -1.5826909515352903,
                0.14818175514723436,
                -2.7226188937217963
            ]
        },
        {
            "positions": [
                -0.056782839799360385,
                -1.7879216031229581,
                -1.6619610970342622,
                -1.6536851295523443,
                0.12759510667033075,
                -2.7142555245126196
            ]
        },
        {
            "positions": [
                0.06940323179030772,
                -1.833757731815742,
                -1.7713079568974863,
                -1.7246793075693982,
                0.10700845819342714,
                -2.7058921553034434
            ]
        },
        {
            "positions": [
                0.1955893033799757,
                -1.8795938605085263,
                -1.8806548167607104,
                -1.7956734855864522,
                0.08642180971652358,
                -2.6975287860942667
            ]
        },
        {
            "positions": [
                0.1405477121479939,
                -1.8459602485681081,
                -1.9627492001084819,
                -1.8699029898188704,
                0.024780249271338817,
                -2.7621384848437702
            ]
        },
        {
            "positions": [
                0.08550612091601208,
                -1.8123266366276898,
                -2.0448435834562533,
                -1.9441324940512885,
                -0.036861311173845945,
                -2.8267481835932737
            ]
        },
        {
            "positions": [
                0.030464529684030267,
                -1.7786930246872716,
                -2.126937966804025,
                -2.0183619982837064,
                -0.09850287161903071,
                -2.8913578823427777
            ]
        },
        {
            "positions": [
                -0.024577061547951556,
                -1.7450594127468533,
                -2.2090323501517966,
                -2.092591502516125,
                -0.16014443206421547,
                -2.955967581092281
            ]
        },
        {
            "positions": [
                -0.07961865277993337,
                -1.7114258008064351,
                -2.291126733499568,
                -2.1668210067485427,
                -0.22178599250940023,
                -3.0205772798417847
            ]
        },
        {
            "positions": [
                -0.18638881983795286,
                -1.7517184148502294,
                -2.346204932554883,
                -2.2677559624569867,
                -0.1885652621469205,
                -3.0517164910643197
            ]
        }
    ]
}