{
    "goal": {
        "global_pose": {
            "orientation": {
                "w": 0.5084816262002911,
                "x": -0.4908360881923452,
                "y": 0.5182115481033761,
                "z": -0.48164630358495003
            },
            "position": {
                "x": 0.5540239810943604,
                "y": -0.46912469901144505,
                "z": 0.16403168439865112
            }
        },
        "name": "move_to_storage_B"
    },
    "id": "EST_move_to_storage_B_149",
    "joint_names": [
        "shoulder_pan_joint",
        "shoulder_lift_joint",
        "elbow_joint",
        "wrist_1_joint",
        "wrist_2_joint",
        "wrist_3_joint"
    ],
    "metrics": {
        "cart_traj_len": 0.749737640758163,
        "distance_elbow_joint": 0.34757006680113633,
        "distance_shoulder_lift_joint": 0.4572465481363397,
        "distance_shoulder_pan_joint": 0.25141649967437407,
        "distance_wrist_1_joint": 3.17604150519983,
        "distance_wrist_2_joint": 3.1400909437568205,
        "distance_wrist_3_joint": 3.516990592588487,
        "smoothness": 0.5797426188738188,
        "time": 0.08138593799999999,
        "traj_len": 3.2999024464606506,
        "weighted_distance": 4.9233596039991445
    },
    "planner": "EST",
    "start": {
        "state": {
            "elbow_joint": 1.664937868594044,
            "shoulder_lift_joint": -0.661644460510453,
            "shoulder_pan_joint": -0.9139846352900073,
            "wrist_1_joint": 2.146753192139373,
            "wrist_2_joint": -2.2341966793290973,
            "wrist_3_joint": 0.005466555786416001
        }
    },
    "waypoints": [
        {
            "positions": [
                -0.9139846352900073,
                -0.661644460510453,
                1.664937868594044,
                2.146753192139373,
                -2.2341966793290973,
                0.005466555786416001
            ]
        },
        {
            "positions": [
                -0.9023626379806606,
                -0.7431724072642014,
                1.744562593998835,
                2.179665444755063,
                -2.3062791318930924,
                0.06684841353997929
            ]
        },
        {
            "positions": [
                -0.890740640671314,
                -0.8247003540179498,
                1.8241873194036262,
                2.2125776973707527,
                -2.3783615844570876,
                0.12823027129354259
            ]
        },
        {
            "positions": [
                -0.8791186433619673,
                -0.9062283007716982,
                1.9038120448084173,
                2.2454899499864425,
                -2.4504440370210827,
                0.1896121290471059
            ]
        },
        {
            "positions": [
                -0.8877806636718207,
                -0.914734809086702,
                1.9081598804318878,
                2.122397760092332,
                -2.3334902935784894,
                0.056298328273994
            ]
        },
        {
            "positions": [
                -0.896442683981674,
                -0.9232413174017058,
                1.9125077160553583,
                1.9993055701982216,
                -2.216536550135896,
                -0.07701547249911789
            ]
        },
        {
            "positions": [
                -0.9051047042915275,
                -0.9317478257167096,
                1.9168555516788288,
                1.8762133803041112,
                -2.099582806693302,
                -0.21032927327222972
            ]
        },
        {
            "positions": [
                -0.9137667246013808,
                -0.9402543340317133,
                1.9212033873022993,
                1.7531211904100008,
                -1.982629063250709,
                -0.34364307404534167
            ]
        },
        {
            "positions": [
                -0.9224287449112342,
                -0.9487608423467171,
                1.9255512229257699,
                1.6300290005158904,
                -1.8656753198081155,
                -0.4769568748184535
            ]
        },
        {
            "positions": [
                -0.9310907652210875,
                -0.9572673506617209,
                1.9298990585492404,
                1.50693681062178,
                -1.7487215763655222,
                -0.6102706755915653
            ]
        },
        {
            "positions": [
                -0.9397527855309409,
                -0.9657738589767247,
                1.934246894172711,
                1.3838446207276693,
                -1.6317678329229288,
                -0.7435844763646774
            ]
        },
        {
            "positions": [
                -0.9484148058407942,
                -0.9742803672917285,
                1.9385947297961814,
                1.2607524308335591,
                -1.5148140894803355,
                -0.8768982771377892
            ]
        },
        {
            "positions": [
                -0.9570768261506476,
                -0.9827868756067323,
                1.942942565419652,
                1.1376602409394485,
                -1.397860346037742,
                -1.010212077910901
            ]
        },
        {
            "positions": [
                -0.965738846460501,
                -0.991293383921736,
                1.9472904010431225,
                1.014568051045338,
                -1.2809066025951485,
                -1.143525878684013
            ]
        },
        {
            "positions": [
                -0.9744008667703543,
                -0.9997998922367398,
                1.951638236666593,
                0.8914758611512277,
                -1.163952859152555,
                -1.2768396794571246
            ]
        },
        {
            "positions": [
                -0.9830628870802077,
                -1.0083064005517435,
                1.9559860722900635,
                0.7683836712571173,
                -1.0469991157099616,
                -1.4101534802302367
            ]
        },
        {
            "positions": [
                -0.991724907390061,
                -1.0168129088667475,
                1.960333907913534,
                0.6452914813630068,
                -0.9300453722673683,
                -1.5434672810033487
            ]
        },
        {
            "positions": [
                -1.0003869276999144,
                -1.0253194171817512,
                1.9646817435370045,
                0.5221992914688962,
                -0.8130916288247747,
                -1.6767810817764608
            ]
        },
        {
            "positions": [
                -1.0090489480097677,
                -1.033825925496755,
                1.969029579160475,
                0.399107101574786,
                -0.6961378853821814,
                -1.8100948825495724
            ]
        },
        {
            "positions": [
                -1.017710968319621,
                -1.0423324338117588,
                1.9733774147839456,
                0.2760149116806756,
                -0.579184141939588,
                -1.9434086833226845
            ]
        },
        {
            "positions": [
                -1.0263729886294746,
                -1.0508389421267625,
                1.977725250407416,
                0.15292272178656496,
                -0.46223039849699443,
                -2.0767224840957965
            ]
        },
        {
            "positions": [
                -1.0350350089393279,
                -1.0593454504417663,
                1.9820730860308866,
                0.029830531892454548,
                -0.3452766550544011,
                -2.210036284868908
            ]
        },
        {
            "positions": [
                -1.0436970292491812,
                -1.06785195875677,
                1.9864209216543571,
                -0.09326165800165587,
                -0.22832291161180773,
                -2.3433500856420197
            ]
        },
        {
            "positions": [
                -1.0523590495590347,
                -1.0763584670717739,
                1.9907687572778276,
                -0.21635384789576628,
                -0.11136916816921438,
                -2.476663886415132
            ]
        },
        {
            "positions": [
                -1.061021069868888,
                -1.0848649753867776,
                1.9951165929012982,
                -0.3394460377898767,
                0.005584575273378967,
                -2.6099776871882434
            ]
        },
        {
            "positions": [
                -1.0696830901787413,
                -1.0933714837017814,
                1.9994644285247687,
                -0.4625382276839871,
                0.12253831871597276,
                -2.7432914879613555
            ]
        },
        {
            "positions": [
                -1.0783451104885948,
                -1.1018779920167852,
                2.003812264148239,
                -0.5856304175780975,
                0.2394920621585661,
                -2.8766052887344675
            ]
        },
        {
            "positions": [
                -1.0870071307984481,
                -1.110384500331789,
                2.0081600997717097,
                -0.7087226074722079,
                0.35644580560115946,
                -3.009919089507579
            ]
        },
        {
            "positions": [
                -1.0956691511083014,
                -1.1188910086467927,
                2.0125079353951802,
                -0.8318147973663186,
                0.4733995490437527,
                -3.143232890280691
            ]
        }
    ]
}