{
    "goal": {
        "global_pose": {
            "orientation": {
                "w": 0.005598929693374612,
                "x": 0.007748599140229565,
                "y": 0.7110244013736278,
                "z": -0.7031023480610252
            },
            "position": {
                "x": -0.8858502320852131,
                "y": -0.7141253447532654,
                "z": 0.3711530566215515
            }
        },
        "name": "move_to_auspresseinheit_C"
    },
    "id": "EST_move_to_auspresseinheit_C_78",
    "joint_names": [
        "shoulder_pan_joint",
        "shoulder_lift_joint",
        "elbow_joint",
        "wrist_1_joint",
        "wrist_2_joint",
        "wrist_3_joint"
    ],
    "metrics": {
        "cart_traj_len": 0.4921038734117826,
        "distance_elbow_joint": 0.9896347172659341,
        "distance_shoulder_lift_joint": 0.3206668622966634,
        "distance_shoulder_pan_joint": 0.25583352036678164,
        "distance_wrist_1_joint": 0.6528824980961263,
        "distance_wrist_2_joint": 1.3128154013633022,
        "distance_wrist_3_joint": 0.04306974284451348,
        "smoothness": 6.45947944157498e-16,
        "time": 2.993437329,
        "traj_len": 1.8907413208139607,
        "weighted_distance": 2.372075067821796
    },
    "planner": "EST",
    "start": {
        "state": {
            "elbow_joint": 1.7527959577737207,
            "shoulder_lift_joint": -0.9740617694225068,
            "shoulder_pan_joint": -2.967991417825858,
            "wrist_1_joint": -0.759517768980727,
            "wrist_2_joint": 1.7443932448377408,
            "wrist_3_joint": -3.0840537646736568
        }
    },
    "waypoints": [
        {
            "positions": [
                -2.967991417825858,
                -0.9740617694225068,
                1.7527959577737207,
                -0.759517768980727,
                1.7443932448377408,
                -3.0840537646736568
            ]
        },
        {
            "positions": [
                -2.94240806578918,
                -0.9419950831928404,
                1.6538324860471272,
                -0.6942295191711143,
                1.6131117047014105,
                -3.0883607389581083
            ]
        },
        {
            "positions": [
                -2.9168247137525016,
                -0.9099283969631741,
                1.5548690143205337,
                -0.6289412693615017,
                1.4818301645650804,
                -3.0926677132425593
            ]
        },
        {
            "positions": [
                -2.8912413617158235,
                -0.8778617107335077,
                1.4559055425939404,
                -0.5636530195518891,
                1.3505486244287501,
                -3.0969746875270108
            ]
        },
        {
            "positions": [
                -2.8656580096791453,
                -0.8457950245038414,
                1.356942070867347,
                -0.49836476974227645,
                1.21926708429242,
                -3.1012816618114623
            ]
        },
        {
            "positions": [
                -2.840074657642467,
                -0.8137283382741751,
                1.2579785991407535,
                -0.43307651993266383,
                1.0879855441560897,
                -3.1055886360959137
            ]
        },
        {
            "positions": [
                -2.814491305605789,
                -0.7816616520445088,
                1.1590151274141602,
                -0.3677882701230512,
                0.9567040040197595,
                -3.1098956103803648
            ]
        },
        {
            "positions": [
                -2.788907953569111,
                -0.7495949658148424,
                1.060051655687567,
                -0.3025000203134386,
                0.8254224638834293,
                -3.1142025846648163
            ]
        },
        {
            "positions": [
                -2.7633246015324326,
                -0.7175282795851761,
                0.9610881839609733,
                -0.23721177050382591,
                0.694140923747099,
                -3.1185095589492677
            ]
        },
        {
            "positions": [
                -2.7377412494957545,
                -0.6854615933555097,
                0.8621247122343799,
                -0.17192352069421324,
                0.5628593836107687,
                -3.1228165332337188
            ]
        },
        {
            "positions": [
                -2.7121578974590763,
                -0.6533949071258434,
                0.7631612405077866,
                -0.10663527088460072,
                0.4315778434744385,
                -3.1271235075181703
            ]
        }
    ]
}