{
    "goal": {
        "global_pose": {
            "orientation": {
                "w": -0.4816463035849501,
                "x": 0.5182115481033762,
                "y": 0.4908360881923453,
                "z": -0.5084816262002911
            },
            "position": {
                "x": -0.8240239810943604,
                "y": -0.300875300988555,
                "z": 0.16403168439865112
            }
        },
        "name": "move_to_storage_C"
    },
    "id": "EST_move_to_storage_C_78",
    "joint_names": [
        "shoulder_pan_joint",
        "shoulder_lift_joint",
        "elbow_joint",
        "wrist_1_joint",
        "wrist_2_joint",
        "wrist_3_joint"
    ],
    "metrics": {
        "cart_traj_len": 0.577011994131434,
        "distance_elbow_joint": 0.2585310482976033,
        "distance_shoulder_lift_joint": 0.19107152983063258,
        "distance_shoulder_pan_joint": 0.4929797174941286,
        "distance_wrist_1_joint": 0.0711742120002794,
        "distance_wrist_2_joint": 1.0781674467890179,
        "distance_wrist_3_joint": 0.05664786832725399,
        "smoothness": 0.0,
        "time": 0.138607927,
        "traj_len": 1.4658007445553152,
        "weighted_distance": 1.8469459164205977
    },
    "planner": "EST",
    "start": {
        "state": {
            "elbow_joint": 2.010868314990456,
            "shoulder_lift_joint": -1.1634956873337592,
            "shoulder_pan_joint": -2.4736205022346125,
            "wrist_1_joint": -0.8367026794202681,
            "wrist_2_joint": 0.6746043897044499,
            "wrist_3_joint": -3.1496632123970403
        }
    },
    "waypoints": [
        {
            "positions": [
                -2.4736205022346125,
                -1.1634956873337592,
                2.010868314990456,
                -0.8367026794202681,
                0.6746043897044499,
                -3.1496632123970403
            ]
        },
        {
            "positions": [
                -2.555783788483634,
                -1.1316504323619871,
                1.9677798069408552,
                -0.8248403107535549,
                0.8542989641692862,
                -3.1402219010091645
            ]
        },
        {
            "positions": [
                -2.637947074732655,
                -1.0998051773902149,
                1.9246912988912548,
                -0.8129779420868416,
                1.0339935386341226,
                -3.130780589621289
            ]
        },
        {
            "positions": [
                -2.7201103609816766,
                -1.0679599224184428,
                1.8816027908416542,
                -0.8011155734201284,
                1.213688113098959,
                -3.121339278233413
            ]
        },
        {
            "positions": [
                -2.8022736472306984,
                -1.0361146674466708,
                1.8385142827920535,
                -0.7892532047534152,
                1.3933826875637951,
                -3.1118979668455378
            ]
        },
        {
            "positions": [
                -2.8844369334797197,
                -1.0042694124748988,
                1.7954257747424531,
                -0.7773908360867019,
                1.5730772620286315,
                -3.102456655457662
            ]
        },
        {
            "positions": [
                -2.966600219728741,
                -0.9724241575031266,
                1.7523372666928525,
                -0.7655284674199887,
                1.752771836493468,
                -3.0930153440697863
            ]
        }
    ]
}