{
    "goal": {
        "global_pose": {
            "orientation": {
                "w": 0.7031023480610252,
                "x": -0.7110244013736278,
                "y": 0.0077485991402295624,
                "z": 0.005598929693374583
            },
            "position": {
                "x": -0.8841497679147869,
                "y": 0.44412534475326537,
                "z": 0.3711530566215515
            }
        },
        "name": "move_to_auspresseinheit_D"
    },
    "id": "EST_move_to_auspresseinheit_D_11",
    "joint_names": [
        "shoulder_pan_joint",
        "shoulder_lift_joint",
        "elbow_joint",
        "wrist_1_joint",
        "wrist_2_joint",
        "wrist_3_joint"
    ],
    "metrics": {
        "cart_traj_len": 0.8147659529042941,
        "distance_elbow_joint": 0.6617027770904129,
        "distance_shoulder_lift_joint": 0.28419583976701057,
        "distance_shoulder_pan_joint": 0.13343074893763535,
        "distance_wrist_1_joint": 2.8949286766153,
        "distance_wrist_2_joint": 1.7638267145756534,
        "distance_wrist_3_joint": 3.183605343414645,
        "smoothness": 0.10230709722019098,
        "time": 0.246242232,
        "traj_len": 2.9869198349471415,
        "weighted_distance": 4.466279903725347
    },
    "planner": "EST",
    "start": {
        "state": {
            "elbow_joint": -1.8275523626775212,
            "shoulder_lift_joint": -2.126789852344167,
            "shoulder_pan_joint": -0.03513704404078235,
            "wrist_1_joint": -2.347782403156801,
            "wrist_2_joint": -1.6058999987535132,
            "wrist_3_joint": -3.0880379163319196
        }
    },
    "waypoints": [
        {
            "positions": [
                -0.03513704404078235,
                -2.126789852344167,
                -1.8275523626775212,
                -2.347782403156801,
                -1.6058999987535132,
                -3.0880379163319196
            ]
        },
        {
            "positions": [
                -0.038076012920827816,
                -2.1294729981930045,
                -1.8006665773138353,
                -2.2180202571426957,
                -1.532169556715152,
                -2.9430508693986233
            ]
        },
        {
            "positions": [
                -0.04101498180087328,
                -2.132156144041842,
                -1.7737807919501496,
                -2.0882581111285905,
                -1.4584391146767912,
                -2.798063822465327
            ]
        },
        {
            "positions": [
                -0.04395395068091875,
                -2.13483928989068,
                -1.7468950065864637,
                -1.9584959651144853,
                -1.3847086726384301,
                -2.65307677553203
            ]
        },
        {
            "positions": [
                -0.04689291956096422,
                -2.1375224357395175,
                -1.7200092212227778,
                -1.8287338191003801,
                -1.3109782306000692,
                -2.508089728598734
            ]
        },
        {
            "positions": [
                -0.049831888441009685,
                -2.140205581588355,
                -1.693123435859092,
                -1.698971673086275,
                -1.2372477885617081,
                -2.3631026816654375
            ]
        },
        {
            "positions": [
                -0.05277085732105515,
                -2.142888727437193,
                -1.6662376504954062,
                -1.5692095270721698,
                -1.163517346523347,
                -2.218115634732141
            ]
        },
        {
            "positions": [
                -0.05570982620110062,
                -2.1455718732860305,
                -1.6393518651317203,
                -1.4394473810580646,
                -1.0897869044849862,
                -2.073128587798845
            ]
        },
        {
            "positions": [
                -0.058648795081146086,
                -2.148255019134868,
                -1.6124660797680346,
                -1.3096852350439594,
                -1.016056462446625,
                -1.9281415408655482
            ]
        },
        {
            "positions": [
                -0.061587763961191554,
                -2.150938164983706,
                -1.5855802944043487,
                -1.1799230890298542,
                -0.942326020408264,
                -1.783154493932252
            ]
        },
        {
            "positions": [
                -0.06452673284123703,
                -2.1536213108325435,
                -1.558694509040663,
                -1.050160943015749,
                -0.868595578369903,
                -1.6381674469989556
            ]
        },
        {
            "positions": [
                -0.0674657017212825,
                -2.1563044566813816,
                -1.5318087236769768,
                -0.9203987970016438,
                -0.7948651363315419,
                -1.4931804000656588
            ]
        },
        {
            "positions": [
                -0.07040467060132796,
                -2.1589876025302193,
                -1.5049229383132912,
                -0.7906366509875387,
                -0.7211346942931809,
                -1.3481933531323627
            ]
        },
        {
            "positions": [
                -0.07334363948137343,
                -2.161670748379057,
                -1.4780371529496052,
                -0.6608745049734335,
                -0.6474042522548198,
                -1.203206306199066
            ]
        },
        {
            "positions": [
                -0.0762826083614189,
                -2.1643538942278946,
                -1.4511513675859196,
                -0.5311123589593283,
                -0.5736738102164589,
                -1.05821925926577
            ]
        },
        {
            "positions": [
                -0.07922157724146436,
                -2.1670370400767323,
                -1.4242655822222337,
                -0.4013502129452231,
                -0.4999433681780978,
                -0.9132322123324732
            ]
        },
        {
            "positions": [
                -0.08216054612150983,
                -2.16972018592557,
                -1.397379796858548,
                -0.2715880669311179,
                -0.42621292613973694,
                -0.7682451653991769
            ]
        },
        {
            "positions": [
                -0.0850995150015553,
                -2.1724033317744076,
                -1.370494011494862,
                -0.14182592091701274,
                -0.35248248410137584,
                -0.6232581184658805
            ]
        },
        {
            "positions": [
                -0.08803848388160077,
                -2.1750864776232453,
                -1.3436082261311761,
                -0.012063774902907554,
                -0.27875204206301474,
                -0.4782710715325842
            ]
        },
        {
            "positions": [
                -0.09097745276164623,
                -2.177769623472083,
                -1.3167224407674905,
                0.11769837111119763,
                -0.20502160002465364,
                -0.3332840245992874
            ]
        },
        {
            "positions": [
                -0.0939164216416917,
                -2.1804527693209206,
                -1.2898366554038045,
                0.24746051712530281,
                -0.13129115798629276,
                -0.18829697766599152
            ]
        },
        {
            "positions": [
                -0.09685539052173717,
                -2.1831359151697582,
                -1.2629508700401186,
                0.3772226631394082,
                -0.057560715947931745,
                -0.04330993073269475
            ]
        },
        {
            "positions": [
                -0.11868549310703584,
                -2.2576456595291687,
                -1.295012329255027,
                0.4353717551751362,
                0.015888667178646884,
                0.005389119876784754
            ]
        },
        {
            "positions": [
                -0.14051559569233452,
                -2.3321554038885792,
                -1.3270737884699357,
                0.4935208472108642,
                0.08933805030522551,
                0.054088170486264256
            ]
        },
        {
            "positions": [
                -0.1685677929784177,
                -2.4109856921111774,
                -1.360052154493129,
                0.5471462734584992,
                0.1579267158221403,
                0.09556742708272611
            ]
        }
    ]
}