{
    "goal": {
        "global_pose": {
            "orientation": {
                "w": 0.005598929693374612,
                "x": 0.007748599140229565,
                "y": 0.7110244013736278,
                "z": -0.7031023480610252
            },
            "position": {
                "x": -0.8858502320852131,
                "y": -0.7141253447532654,
                "z": 0.3711530566215515
            }
        },
        "name": "move_to_auspresseinheit_C"
    },
    "id": "EST_move_to_auspresseinheit_C_143",
    "joint_names": [
        "shoulder_pan_joint",
        "shoulder_lift_joint",
        "elbow_joint",
        "wrist_1_joint",
        "wrist_2_joint",
        "wrist_3_joint"
    ],
    "metrics": {
        "cart_traj_len": 0.49294476553383315,
        "distance_elbow_joint": 0.9907491113708963,
        "distance_shoulder_lift_joint": 0.32090579786009654,
        "distance_shoulder_pan_joint": 0.2571049426660794,
        "distance_wrist_1_joint": 0.6592709764680408,
        "distance_wrist_2_joint": 1.3093382036199364,
        "distance_wrist_3_joint": 0.05004269360557689,
        "smoothness": 4.844609574787718e-16,
        "time": 1.604131072,
        "traj_len": 1.8940463895033368,
        "weighted_distance": 2.378256986301051
    },
    "planner": "EST",
    "start": {
        "state": {
            "elbow_joint": 1.7527959577737207,
            "shoulder_lift_joint": -0.9740617694225068,
            "shoulder_pan_joint": -2.967991417825858,
            "wrist_1_joint": -0.759517768980727,
            "wrist_2_joint": 1.7443932448377408,
            "wrist_3_joint": -3.0840537646736568
        }
    },
    "waypoints": [
        {
            "positions": [
                -2.967991417825858,
                -0.9740617694225068,
                1.7527959577737207,
                -0.759517768980727,
                1.7443932448377408,
                -3.0840537646736568
            ]
        },
        {
            "positions": [
                -2.94228092355925,
                -0.9419711896364971,
                1.653721046636631,
                -0.6935906713339229,
                1.6134594244757472,
                -3.0890580340342146
            ]
        },
        {
            "positions": [
                -2.916570429292642,
                -0.9098806098504875,
                1.5546461354995413,
                -0.6276635736871188,
                1.4825256041137536,
                -3.094062303394772
            ]
        },
        {
            "positions": [
                -2.8908599350260342,
                -0.8777900300644779,
                1.4555712243624517,
                -0.5617364760403147,
                1.35159178375176,
                -3.09906657275533
            ]
        },
        {
            "positions": [
                -2.865149440759426,
                -0.8456994502784682,
                1.356496313225362,
                -0.49580937839351064,
                1.2206579633897663,
                -3.1040708421158874
            ]
        },
        {
            "positions": [
                -2.8394389464928182,
                -0.8136088704924584,
                1.2574214020882726,
                -0.4298822807467066,
                1.0897241430277727,
                -3.109075111476445
            ]
        },
        {
            "positions": [
                -2.8137284522262105,
                -0.7815182907064488,
                1.158346490951183,
                -0.36395518309990255,
                0.958790322665779,
                -3.114079380837003
            ]
        },
        {
            "positions": [
                -2.7880179579596023,
                -0.7494277109204392,
                1.0592715798140933,
                -0.29802808545309845,
                0.8278565023037855,
                -3.1190836501975605
            ]
        },
        {
            "positions": [
                -2.7623074636929945,
                -0.7173371311344295,
                0.9601966686770036,
                -0.2321009878062943,
                0.6969226819417917,
                -3.1240879195581184
            ]
        },
        {
            "positions": [
                -2.7365969694263863,
                -0.6852465513484198,
                0.861121757539914,
                -0.16617389015949025,
                0.5659888615797981,
                -3.129092188918676
            ]
        },
        {
            "positions": [
                -2.7108864751597785,
                -0.6531559715624102,
                0.7620468464028244,
                -0.10024679251268616,
                0.43505504121780453,
                -3.1340964582792337
            ]
        }
    ]
}