{
    "goal": {
        "global_pose": {
            "orientation": {
                "w": 0.005598929693374612,
                "x": 0.007748599140229565,
                "y": 0.7110244013736278,
                "z": -0.7031023480610252
            },
            "position": {
                "x": -0.8858502320852131,
                "y": -0.7141253447532654,
                "z": 0.3711530566215515
            }
        },
        "name": "move_to_auspresseinheit_C"
    },
    "id": "EST_move_to_auspresseinheit_C_46",
    "joint_names": [
        "shoulder_pan_joint",
        "shoulder_lift_joint",
        "elbow_joint",
        "wrist_1_joint",
        "wrist_2_joint",
        "wrist_3_joint"
    ],
    "metrics": {
        "cart_traj_len": 0.49289087537480075,
        "distance_elbow_joint": 0.9933672001586356,
        "distance_shoulder_lift_joint": 0.321046924123651,
        "distance_shoulder_pan_joint": 0.2562169843172688,
        "distance_wrist_1_joint": 0.6649798161265843,
        "distance_wrist_2_joint": 1.3080295305739154,
        "distance_wrist_3_joint": 0.046261508415228025,
        "smoothness": 4.844609600361787e-16,
        "time": 0.023265516,
        "traj_len": 1.8947036611869634,
        "weighted_distance": 2.3781157093897343
    },
    "planner": "EST",
    "start": {
        "state": {
            "elbow_joint": 1.7527959577737207,
            "shoulder_lift_joint": -0.9740617694225068,
            "shoulder_pan_joint": -2.967991417825858,
            "wrist_1_joint": -0.759517768980727,
            "wrist_2_joint": 1.7443932448377408,
            "wrist_3_joint": -3.0840537646736568
        }
    },
    "waypoints": [
        {
            "positions": [
                -2.967991417825858,
                -0.9740617694225068,
                1.7527959577737207,
                -0.759517768980727,
                1.7443932448377408,
                -3.0840537646736568
            ]
        },
        {
            "positions": [
                -2.942369719394131,
                -0.9419570770101416,
                1.6534592377578572,
                -0.6930197873680686,
                1.6135902917803493,
                -3.0886799155151796
            ]
        },
        {
            "positions": [
                -2.9167480209624044,
                -0.9098523845977766,
                1.5541225177419935,
                -0.62652180575541,
                1.4827873387229578,
                -3.0933060663567025
            ]
        },
        {
            "positions": [
                -2.891126322530677,
                -0.8777476921854115,
                1.45478579772613,
                -0.5600238241427518,
                1.3519843856655662,
                -3.0979322171982253
            ]
        },
        {
            "positions": [
                -2.8655046240989503,
                -0.8456429997730464,
                1.3554490777102663,
                -0.49352584253009324,
                1.2211814326081747,
                -3.102558368039748
            ]
        },
        {
            "positions": [
                -2.8398829256672236,
                -0.8135383073606812,
                1.2561123576944029,
                -0.42702786091743483,
                1.0903784795507832,
                -3.1071845188812706
            ]
        },
        {
            "positions": [
                -2.8142612272354968,
                -0.7814336149483162,
                1.1567756376785394,
                -0.3605298793047764,
                0.9595755264933916,
                -3.1118106697227934
            ]
        },
        {
            "positions": [
                -2.78863952880377,
                -0.7493289225359511,
                1.057438917662676,
                -0.294031897692118,
                0.8287725734360002,
                -3.1164368205643163
            ]
        },
        {
            "positions": [
                -2.7630178303720427,
                -0.717224230123586,
                0.9581021976468121,
                -0.2275339160794595,
                0.6979696203786085,
                -3.121062971405839
            ]
        },
        {
            "positions": [
                -2.737396131940316,
                -0.6851195377112209,
                0.8587654776309487,
                -0.1610359344668011,
                0.567166667321217,
                -3.125689122247362
            ]
        },
        {
            "positions": [
                -2.711774433508589,
                -0.6530148452988558,
                0.7594287576150851,
                -0.09453795285414265,
                0.4363637142638254,
                -3.130315273088885
            ]
        }
    ]
}