{
    "goal": {
        "global_pose": {
            "orientation": {
                "w": 0.5084816262002911,
                "x": -0.4908360881923452,
                "y": 0.5182115481033761,
                "z": -0.48164630358495003
            },
            "position": {
                "x": 0.5540239810943604,
                "y": -0.46912469901144505,
                "z": 0.16403168439865112
            }
        },
        "name": "move_to_storage_B"
    },
    "id": "EST_move_to_storage_B_71",
    "joint_names": [
        "shoulder_pan_joint",
        "shoulder_lift_joint",
        "elbow_joint",
        "wrist_1_joint",
        "wrist_2_joint",
        "wrist_3_joint"
    ],
    "metrics": {
        "cart_traj_len": 2.209231181713511,
        "distance_elbow_joint": 1.7195230122844714,
        "distance_shoulder_lift_joint": 1.3951930463203055,
        "distance_shoulder_pan_joint": 1.105902330280429,
        "distance_wrist_1_joint": 3.0019923480316897,
        "distance_wrist_2_joint": 2.706685656881443,
        "distance_wrist_3_joint": 3.207636074184243,
        "smoothness": 0.33442694229856135,
        "time": 0.070580012,
        "traj_len": 3.6244906494544282,
        "weighted_distance": 5.026020555197143
    },
    "planner": "EST",
    "start": {
        "state": {
            "elbow_joint": 1.664937868594044,
            "shoulder_lift_joint": -0.661644460510453,
            "shoulder_pan_joint": -0.9139846352900073,
            "wrist_1_joint": 2.146753192139373,
            "wrist_2_joint": -2.2341966793290973,
            "wrist_3_joint": 0.005466555786416001
        }
    },
    "waypoints": [
        {
            "positions": [
                -0.9139846352900073,
                -0.661644460510453,
                1.664937868594044,
                2.146753192139373,
                -2.2341966793290973,
                0.005466555786416001
            ]
        },
        {
            "positions": [
                -0.874691502163292,
                -0.6785877500135015,
                1.6475544697805238,
                2.1499809691749765,
                -2.227217092753544,
                -0.02576587319688495
            ]
        },
        {
            "positions": [
                -0.8218033442315787,
                -0.746805447532871,
                1.6004864737967113,
                2.079948827027726,
                -2.142244394252842,
                0.017424248526303376
            ]
        },
        {
            "positions": [
                -0.7689151862998657,
                -0.8150231450522406,
                1.5534184778128988,
                2.0099166848804764,
                -2.0572716957521404,
                0.060614370249491706
            ]
        },
        {
            "positions": [
                -0.7160270283681525,
                -0.8832408425716103,
                1.5063504818290863,
                1.939884542733226,
                -1.9722989972514384,
                0.10380449197268005
            ]
        },
        {
            "positions": [
                -0.6631388704364394,
                -0.9514585400909799,
                1.4592824858452738,
                1.8698524005859758,
                -1.8873262987507364,
                0.14699461369586836
            ]
        },
        {
            "positions": [
                -0.6102507125047262,
                -1.0196762376103494,
                1.4122144898614613,
                1.7998202584387255,
                -1.8023536002500347,
                0.19018473541905667
            ]
        },
        {
            "positions": [
                -0.557362554573013,
                -1.087893935129719,
                1.3651464938776487,
                1.7297881162914754,
                -1.7173809017493329,
                0.23337485714224504
            ]
        },
        {
            "positions": [
                -0.5044743966412999,
                -1.1561116326490886,
                1.3180784978938362,
                1.6597559741442254,
                -1.6324082032486311,
                0.27656497886543335
            ]
        },
        {
            "positions": [
                -0.4515862387095867,
                -1.2243293301684581,
                1.2710105019100237,
                1.589723831996975,
                -1.5474355047479291,
                0.31975510058862167
            ]
        },
        {
            "positions": [
                -0.45961628924051207,
                -1.2574144818406923,
                1.2446283928022082,
                1.4842557497687439,
                -1.4493849548859092,
                0.4091859522329195
            ]
        },
        {
            "positions": [
                -0.4676463397714374,
                -1.2904996335129262,
                1.2182462836943928,
                1.3787876675405124,
                -1.3513344050238896,
                0.4986168038772173
            ]
        },
        {
            "positions": [
                -0.47567639030236275,
                -1.3235847851851603,
                1.1918641745865772,
                1.2733195853122812,
                -1.25328385516187,
                0.5880476555215151
            ]
        },
        {
            "positions": [
                -0.4837064408332881,
                -1.3566699368573942,
                1.1654820654787619,
                1.16785150308405,
                -1.15523330529985,
                0.6774785071658129
            ]
        },
        {
            "positions": [
                -0.4917364913642135,
                -1.3897550885296284,
                1.1390999563709463,
                1.0623834208558187,
                -1.0571827554378301,
                0.7669093588101108
            ]
        },
        {
            "positions": [
                -0.4997665418951388,
                -1.4228402402018623,
                1.112717847263131,
                0.9569153386275874,
                -0.9591322055758105,
                0.8563402104544086
            ]
        },
        {
            "positions": [
                -0.5077965924260642,
                -1.4559253918740964,
                1.0863357381553154,
                0.851447256399356,
                -0.8610816557137906,
                0.9457710620987064
            ]
        },
        {
            "positions": [
                -0.5158266429569895,
                -1.4890105435463306,
                1.0599536290475,
                0.7459791741711247,
                -0.7630311058517708,
                1.0352019137430042
            ]
        },
        {
            "positions": [
                -0.5238566934879149,
                -1.5220956952185645,
                1.0335715199396844,
                0.6405110919428935,
                -0.664980555989751,
                1.124632765387302
            ]
        },
        {
            "positions": [
                -0.5318867440188403,
                -1.5551808468907984,
                1.0071894108318689,
                0.5350430097146621,
                -0.5669300061277313,
                1.2140636170316
            ]
        },
        {
            "positions": [
                -0.5399167945497656,
                -1.5882659985630325,
                0.9808073017240535,
                0.429574927486431,
                -0.4688794562657114,
                1.3034944686758978
            ]
        },
        {
            "positions": [
                -0.574615130666005,
                -1.5589802792962997,
                1.0455193295624585,
                0.3496775194047096,
                -0.4100439291520828,
                1.4189409251339078
            ]
        },
        {
            "positions": [
                -0.6093134667822443,
                -1.5296945600295668,
                1.1102313574008635,
                0.2697801113229882,
                -0.35120840203845416,
                1.5343873815919178
            ]
        },
        {
            "positions": [
                -0.6440118028984836,
                -1.500408840762834,
                1.1749433852392688,
                0.18988270324126677,
                -0.29237287492482555,
                1.6498338380499278
            ]
        },
        {
            "positions": [
                -0.678710139014723,
                -1.4711231214961011,
                1.2396554130776738,
                0.10998529515954536,
                -0.23353734781119695,
                1.7652802945079378
            ]
        },
        {
            "positions": [
                -0.7134084751309624,
                -1.441837402229368,
                1.3043674409160788,
                0.03008788707782395,
                -0.17470182069756834,
                1.8807267509659478
            ]
        },
        {
            "positions": [
                -0.7481068112472017,
                -1.4125516829626352,
                1.3690794687544838,
                -0.04980952100389746,
                -0.11586629358393968,
                1.9961732074239575
            ]
        },
        {
            "positions": [
                -0.782805147363441,
                -1.3832659636959024,
                1.4337914965928888,
                -0.12970692908561887,
                -0.05703076647031108,
                2.1116196638819673
            ]
        },
        {
            "positions": [
                -0.8175034834796804,
                -1.3539802444291695,
                1.4985035244312939,
                -0.20960433716734028,
                0.0018047606433175267,
                2.2270661203399778
            ]
        },
        {
            "positions": [
                -0.8522018195959198,
                -1.3246945251624367,
                1.5632155522696989,
                -0.2895017452490617,
                0.06064028775694613,
                2.3425125767979873
            ]
        },
        {
            "positions": [
                -0.8869001557121591,
                -1.2954088058957038,
                1.6279275801081041,
                -0.3693991533307831,
                0.11947581487057474,
                2.4579590332559977
            ]
        },
        {
            "positions": [
                -0.9215984918283984,
                -1.266123086628971,
                1.6926396079465091,
                -0.4492965614125045,
                0.17831134198420334,
                2.5734054897140073
            ]
        },
        {
            "positions": [
                -0.9562968279446378,
                -1.236837367362238,
                1.7573516357849142,
                -0.5291939694942259,
                0.23714686909783206,
                2.6888519461720173
            ]
        },
        {
            "positions": [
                -0.9909951640608772,
                -1.2075516480955053,
                1.8220636636233194,
                -0.6090913775759473,
                0.29598239621146066,
                2.8042984026300273
            ]
        },
        {
            "positions": [
                -1.0256935001771166,
                -1.1782659288287722,
                1.8867756914617244,
                -0.6889887856576687,
                0.35481792332508927,
                2.9197448590880373
            ]
        },
        {
            "positions": [
                -1.0603918362933558,
                -1.1489802095620394,
                1.9514877193001294,
                -0.7688861937393902,
                0.4136534504387179,
                3.0351913155460473
            ]
        },
        {
            "positions": [
                -1.0950901724095952,
                -1.1196944902953065,
                2.0161997471385344,
                -0.8487836018211117,
                0.47248897755234653,
                3.1506377720040573
            ]
        }
    ]
}