{
    "goal": {
        "global_pose": {
            "orientation": {
                "w": 0.5084816262002911,
                "x": -0.4908360881923452,
                "y": 0.5182115481033761,
                "z": -0.48164630358495003
            },
            "position": {
                "x": 0.5540239810943604,
                "y": -0.46912469901144505,
                "z": 0.16403168439865112
            }
        },
        "name": "move_to_storage_B"
    },
    "id": "EST_move_to_storage_B_120",
    "joint_names": [
        "shoulder_pan_joint",
        "shoulder_lift_joint",
        "elbow_joint",
        "wrist_1_joint",
        "wrist_2_joint",
        "wrist_3_joint"
    ],
    "metrics": {
        "cart_traj_len": 3.5533416775297924,
        "distance_elbow_joint": 2.0236917574507576,
        "distance_shoulder_lift_joint": 1.2073318265583342,
        "distance_shoulder_pan_joint": 3.4245747871762866,
        "distance_wrist_1_joint": 2.986763081457064,
        "distance_wrist_2_joint": 2.7176526641934515,
        "distance_wrist_3_joint": 3.141898887982451,
        "smoothness": 0.26729769692198196,
        "time": 0.170483544,
        "traj_len": 3.9372468813649895,
        "weighted_distance": 5.243102757569583
    },
    "planner": "EST",
    "start": {
        "state": {
            "elbow_joint": 1.664937868594044,
            "shoulder_lift_joint": -0.661644460510453,
            "shoulder_pan_joint": -0.9139846352900073,
            "wrist_1_joint": 2.146753192139373,
            "wrist_2_joint": -2.2341966793290973,
            "wrist_3_joint": 0.005466555786416001
        }
    },
    "waypoints": [
        {
            "positions": [
                -0.9139846352900073,
                -0.661644460510453,
                1.664937868594044,
                2.146753192139373,
                -2.2341966793290973,
                0.005466555786416001
            ]
        },
        {
            "positions": [
                -0.846397279438688,
                -0.6964175426207482,
                1.630133396548018,
                2.06602409520454,
                -2.1264384587581335,
                -0.05133666838380409
            ]
        },
        {
            "positions": [
                -0.7788099235873689,
                -0.7311906247310433,
                1.595328924501992,
                1.9852949982697063,
                -2.0186802381871694,
                -0.10813989255402418
            ]
        },
        {
            "positions": [
                -0.7112225677360497,
                -0.7659637068413385,
                1.560524452455966,
                1.9045659013348728,
                -1.9109220176162056,
                -0.16494311672424428
            ]
        },
        {
            "positions": [
                -0.6436352118847305,
                -0.8007367889516337,
                1.5257199804099402,
                1.8238368044000395,
                -1.8031637970452419,
                -0.22174634089446435
            ]
        },
        {
            "positions": [
                -0.5760478560334112,
                -0.8355098710619289,
                1.490915508363914,
                1.7431077074652057,
                -1.6954055764742777,
                -0.2785495650646844
            ]
        },
        {
            "positions": [
                -0.5084605001820921,
                -0.870282953172224,
                1.4561110363178882,
                1.6623786105303724,
                -1.587647355903314,
                -0.3353527892349045
            ]
        },
        {
            "positions": [
                -0.44087314433077285,
                -0.9050560352825192,
                1.421306564271862,
                1.5816495135955388,
                -1.47988913533235,
                -0.3921560134051246
            ]
        },
        {
            "positions": [
                -0.3732857884794537,
                -0.9398291173928143,
                1.3865020922258362,
                1.5009204166607055,
                -1.3721309147613863,
                -0.44895923757534467
            ]
        },
        {
            "positions": [
                -0.30569843262813456,
                -0.9746021995031094,
                1.3516976201798103,
                1.420191319725872,
                -1.2643726941904223,
                -0.5057624617455648
            ]
        },
        {
            "positions": [
                -0.2381110767768153,
                -1.0093752816134047,
                1.3168931481337842,
                1.3394622227910384,
                -1.1566144736194583,
                -0.5625656859157849
            ]
        },
        {
            "positions": [
                -0.17052372092549617,
                -1.0441483637237,
                1.2820886760877583,
                1.2587331258562051,
                -1.0488562530484946,
                -0.619368910086005
            ]
        },
        {
            "positions": [
                -0.10293636507417692,
                -1.0789214458339949,
                1.2472842040417325,
                1.1780040289213716,
                -0.9410980324775307,
                -0.6761721342562251
            ]
        },
        {
            "positions": [
                -0.035349009222857775,
                -1.11369452794429,
                1.2124797319957064,
                1.0972749319865382,
                -0.8333398119065669,
                -0.7329753584264451
            ]
        },
        {
            "positions": [
                0.03223834662846159,
                -1.1484676100545852,
                1.1776752599496805,
                1.0165458350517045,
                -0.7255815913356027,
                -0.7897785825966653
            ]
        },
        {
            "positions": [
                0.09982570247978073,
                -1.1832406921648806,
                1.1428707879036546,
                0.9358167381168712,
                -0.617823370764639,
                -0.8465818067668854
            ]
        },
        {
            "positions": [
                0.16741305833109987,
                -1.2180137742751755,
                1.1080663158576285,
                0.8550876411820378,
                -0.5100651501936753,
                -0.9033850309371054
            ]
        },
        {
            "positions": [
                0.23500041418241924,
                -1.252786856385471,
                1.0732618438116026,
                0.7743585442472041,
                -0.4023069296227111,
                -0.9601882551073256
            ]
        },
        {
            "positions": [
                0.30258777003373816,
                -1.2875599384957659,
                1.0384573717655767,
                0.6936294473123708,
                -0.29454870905174735,
                -1.0169914792775456
            ]
        },
        {
            "positions": [
                0.3701751258850573,
                -1.322333020606061,
                1.0036528997195506,
                0.6129003503775374,
                -0.1867904884807836,
                -1.0737947034477657
            ]
        },
        {
            "positions": [
                0.43776248173637666,
                -1.3571061027163562,
                0.9688484276735247,
                0.5321712534427037,
                -0.07903226790981943,
                -1.1305979276179858
            ]
        },
        {
            "positions": [
                0.5053498375876958,
                -1.3918791848266514,
                0.9340439556274988,
                0.45144215650787034,
                0.028725952661144305,
                -1.187401151788206
            ]
        },
        {
            "positions": [
                0.572937193439015,
                -1.4266522669369466,
                0.8992394835814729,
                0.370713059573037,
                0.13648417323210804,
                -1.244204375958426
            ]
        },
        {
            "positions": [
                0.6405245492903343,
                -1.4614253490472418,
                0.8644350115354468,
                0.28998396263820325,
                0.24424239380307222,
                -1.3010076001286461
            ]
        },
        {
            "positions": [
                0.7081119051416533,
                -1.496198431157537,
                0.8296305394894209,
                0.20925486570336985,
                0.352000614374036,
                -1.3578108242988662
            ]
        },
        {
            "positions": [
                0.5954570147201144,
                -1.4728998151630839,
                0.9039045662610543,
                0.14367581851455358,
                0.3602165750296809,
                -1.4689746685424392
            ]
        },
        {
            "positions": [
                0.4828021242985754,
                -1.4496011991686306,
                0.9781785930326877,
                0.07809677132573734,
                0.36843253568532586,
                -1.5801385127860124
            ]
        },
        {
            "positions": [
                0.3701472338770364,
                -1.4263025831741776,
                1.0524526198043211,
                0.012517724136921066,
                0.37664849634097075,
                -1.6913023570295853
            ]
        },
        {
            "positions": [
                0.25749234345549743,
                -1.4030039671797243,
                1.1267266465759547,
                -0.053061323051895176,
                0.38486445699661564,
                -1.8024662012731585
            ]
        },
        {
            "positions": [
                0.14483745303395845,
                -1.3797053511852713,
                1.201000673347588,
                -0.11864037024071142,
                0.39308041765226054,
                -1.9136300455167314
            ]
        },
        {
            "positions": [
                0.032182562612419474,
                -1.356406735190818,
                1.2752747001192213,
                -0.18421941742952772,
                0.40129637830790543,
                -2.0247938897603044
            ]
        },
        {
            "positions": [
                -0.0804723278091195,
                -1.333108119196365,
                1.3495487268908548,
                -0.24979846461834396,
                0.4095123389635504,
                -2.1359577340038776
            ]
        },
        {
            "positions": [
                -0.19312721823065848,
                -1.3098095032019117,
                1.4238227536624883,
                -0.3153775118071602,
                0.4177282996191953,
                -2.2471215782474507
            ]
        },
        {
            "positions": [
                -0.30578210865219746,
                -1.2865108872074587,
                1.4980967804341216,
                -0.38095655899597647,
                0.42594426027484017,
                -2.3582854224910235
            ]
        },
        {
            "positions": [
                -0.41843699907373644,
                -1.2632122712130056,
                1.572370807205755,
                -0.4465356061847927,
                0.4341602209304851,
                -2.4694492667345966
            ]
        },
        {
            "positions": [
                -0.5310918894952754,
                -1.2399136552185523,
                1.6466448339773885,
                -0.512114653373609,
                0.44237618158613,
                -2.5806131109781694
            ]
        },
        {
            "positions": [
                -0.6437467799168144,
                -1.2166150392240993,
                1.720918860749022,
                -0.5776937005624253,
                0.4505921422417749,
                -2.6917769552217425
            ]
        },
        {
            "positions": [
                -0.7564016703383534,
                -1.193316423229646,
                1.7951928875206553,
                -0.6432727477512415,
                0.4588081028974198,
                -2.8029407994653157
            ]
        },
        {
            "positions": [
                -0.8690565607598923,
                -1.170017807235193,
                1.8694669142922886,
                -0.7088517949400578,
                0.4670240635530647,
                -2.914104643708889
            ]
        },
        {
            "positions": [
                -0.9817114511814313,
                -1.1467191912407397,
                1.9437409410639224,
                -0.774430842128874,
                0.47524002420870964,
                -3.025268487952462
            ]
        },
        {
            "positions": [
                -1.0943663416029703,
                -1.1234205752462867,
                2.0180149678355557,
                -0.8400098893176902,
                0.48345598486435454,
                -3.136432332196035
            ]
        }
    ]
}