{
    "goal": {
        "global_pose": {
            "orientation": {
                "w": -0.00223480608172531,
                "x": 0.0024358444001904467,
                "y": 0.7094548369677653,
                "z": -0.704743149386269
            },
            "position": {
                "x": -0.37947507619857795,
                "y": -0.6371506643295288,
                "z": 0.19426114857196808
            }
        },
        "name": "move_to_magneteinheit_C"
    },
    "id": "EST_move_to_magneteinheit_C_39",
    "joint_names": [
        "shoulder_pan_joint",
        "shoulder_lift_joint",
        "elbow_joint",
        "wrist_1_joint",
        "wrist_2_joint",
        "wrist_3_joint"
    ],
    "metrics": {
        "cart_traj_len": 2.7837914174389957,
        "distance_elbow_joint": 4.1675852096791886,
        "distance_shoulder_lift_joint": 0.922606185183191,
        "distance_shoulder_pan_joint": 2.467149369283517,
        "distance_wrist_1_joint": 1.3898034340208778,
        "distance_wrist_2_joint": 3.006142713704972,
        "distance_wrist_3_joint": 3.479080256174068,
        "smoothness": 0.7385275858866172,
        "time": 1.7624662340000001,
        "traj_len": 3.928405168518876,
        "weighted_distance": 5.1755650733151635
    },
    "planner": "EST",
    "start": {
        "state": {
            "elbow_joint": 1.9565354010623817,
            "shoulder_lift_joint": -1.4165861575791021,
            "shoulder_pan_joint": -1.6717766225146293,
            "wrist_1_joint": -0.5286633292919765,
            "wrist_2_joint": 1.472756589071564,
            "wrist_3_joint": -3.1238370188695823
        }
    },
    "waypoints": [
        {
            "positions": [
                -1.6717766225146293,
                -1.4165861575791021,
                1.9565354010623817,
                -0.5286633292919765,
                1.472756589071564,
                -3.1238370188695823
            ]
        },
        {
            "positions": [
                -1.576471289538921,
                -1.4379842225083663,
                1.9305992086854955,
                -0.5055578614167745,
                1.4912043407295428,
                -3.0416813206818425
            ]
        },
        {
            "positions": [
                -1.4780202959299997,
                -1.447179568967333,
                1.8448623644121023,
                -0.5184468888062709,
                1.48373356179899,
                -2.9208635145593296
            ]
        },
        {
            "positions": [
                -1.3795693023210784,
                -1.4563749154262995,
                1.7591255201387093,
                -0.5313359161957673,
                1.4762627828684374,
                -2.800045708436817
            ]
        },
        {
            "positions": [
                -1.2811183087121571,
                -1.465570261885266,
                1.673388675865316,
                -0.5442249435852636,
                1.4687920039378848,
                -2.679227902314304
            ]
        },
        {
            "positions": [
                -1.1826673151032359,
                -1.4747656083442326,
                1.587651831591923,
                -0.55711397097476,
                1.461321225007332,
                -2.5584100961917913
            ]
        },
        {
            "positions": [
                -1.0842163214943146,
                -1.4839609548031993,
                1.5019149873185298,
                -0.5700029983642564,
                1.4538504460767792,
                -2.4375922900692784
            ]
        },
        {
            "positions": [
                -0.9857653278853933,
                -1.4931563012621658,
                1.4161781430451366,
                -0.5828920257537528,
                1.4463796671462266,
                -2.316774483946766
            ]
        },
        {
            "positions": [
                -1.0263087757233538,
                -1.4669944577300804,
                1.3106465174336879,
                -0.5944231203866803,
                1.3137728109110303,
                -2.250795023991718
            ]
        },
        {
            "positions": [
                -1.0668522235613143,
                -1.440832614197995,
                1.2051148918222392,
                -0.6059542150196078,
                1.1811659546758342,
                -2.1848155640366698
            ]
        },
        {
            "positions": [
                -1.1073956713992745,
                -1.4146707706659094,
                1.0995832662107905,
                -0.6174853096525352,
                1.0485590984406379,
                -2.118836104081622
            ]
        },
        {
            "positions": [
                -1.147939119237235,
                -1.388508927133824,
                0.9940516405993418,
                -0.6290164042854628,
                0.9159522422054417,
                -2.052856644126574
            ]
        },
        {
            "positions": [
                -1.1884825670751955,
                -1.3623470836017386,
                0.8885200149878931,
                -0.6405474989183904,
                0.7833453859702454,
                -1.986877184171526
            ]
        },
        {
            "positions": [
                -1.229026014913156,
                -1.3361852400696532,
                0.7829883893764444,
                -0.6520785935513178,
                0.6507385297350493,
                -1.920897724216478
            ]
        },
        {
            "positions": [
                -1.2695694627511163,
                -1.3100233965375678,
                0.6774567637649958,
                -0.6636096881842453,
                0.518131673499853,
                -1.8549182642614301
            ]
        },
        {
            "positions": [
                -1.3101129105890768,
                -1.2838615530054822,
                0.5719251381535471,
                -0.6751407828171728,
                0.3855248172646568,
                -1.788938804306382
            ]
        },
        {
            "positions": [
                -1.3506563584270372,
                -1.2576997094733968,
                0.46639351254209827,
                -0.6866718774501004,
                0.2529179610294605,
                -1.722959344351334
            ]
        },
        {
            "positions": [
                -1.3911998062649977,
                -1.2315378659413114,
                0.3608618869306497,
                -0.6982029720830278,
                0.12031110479426421,
                -1.6569798843962862
            ]
        },
        {
            "positions": [
                -1.4317432541029582,
                -1.205376022409226,
                0.255330261319201,
                -0.7097340667159553,
                -0.012295751440931868,
                -1.5910004244412381
            ]
        },
        {
            "positions": [
                -1.4722867019409185,
                -1.1792141788771406,
                0.14979863570775231,
                -0.7212651613488829,
                -0.14490260767612795,
                -1.52502096448619
            ]
        },
        {
            "positions": [
                -1.5128301497788792,
                -1.153052335345055,
                0.04426701009630363,
                -0.7327962559818104,
                -0.27750946391132447,
                -1.4590415045311422
            ]
        },
        {
            "positions": [
                -1.5533735976168395,
                -1.1268904918129696,
                -0.061264615515145115,
                -0.7443273506147379,
                -0.4101163201465205,
                -1.3930620445760942
            ]
        },
        {
            "positions": [
                -1.6283387472511113,
                -1.148436676980565,
                0.08184770301032174,
                -0.6976986140749836,
                -0.3989653217093818,
                -1.4733584898816592
            ]
        },
        {
            "positions": [
                -1.703303896885383,
                -1.16998286214816,
                0.2249600215357886,
                -0.6510698775352292,
                -0.3878143232722431,
                -1.553654935187224
            ]
        },
        {
            "positions": [
                -1.778269046519655,
                -1.1915290473157554,
                0.3680723400612554,
                -0.6044411409954749,
                -0.3766633248351044,
                -1.633951380492789
            ]
        },
        {
            "positions": [
                -1.853234196153927,
                -1.2130752324833507,
                0.5111846585867224,
                -0.5578124044557206,
                -0.36551232639796566,
                -1.7142478257983538
            ]
        },
        {
            "positions": [
                -1.9281993457881987,
                -1.234621417650946,
                0.6542969771121891,
                -0.5111836679159663,
                -0.354361327960827,
                -1.7945442711039188
            ]
        },
        {
            "positions": [
                -2.0031644954224705,
                -1.2561676028185411,
                0.797409295637656,
                -0.4645549313762119,
                -0.34321032952368824,
                -1.8748407164094836
            ]
        },
        {
            "positions": [
                -2.0781296450567424,
                -1.2777137879861364,
                0.9405216141631227,
                -0.41792619483645754,
                -0.33205933108654956,
                -1.9551371617150486
            ]
        },
        {
            "positions": [
                -2.153094794691014,
                -1.2992599731537318,
                1.0836339326885898,
                -0.3712974582967032,
                -0.3209083326494108,
                -2.0354336070206136
            ]
        },
        {
            "positions": [
                -2.228059944325286,
                -1.320806158321327,
                1.2267462512140566,
                -0.3246687217569489,
                -0.30975733421227214,
                -2.115730052326178
            ]
        },
        {
            "positions": [
                -2.303025093959558,
                -1.3423523434889222,
                1.3698585697395234,
                -0.2780399852171946,
                -0.2986063357751334,
                -2.196026497631743
            ]
        },
        {
            "positions": [
                -2.3779902435938296,
                -1.3638985286565175,
                1.5129708882649902,
                -0.23141124867744017,
                -0.2874553373379947,
                -2.276322942937308
            ]
        },
        {
            "positions": [
                -2.4386155288047338,
                -1.369405260942944,
                1.6393700810573657,
                -0.25092805091949394,
                -0.21893339654114483,
                -2.3645070715092884
            ]
        },
        {
            "positions": [
                -2.4992408140156375,
                -1.3749119932293703,
                1.765769273849741,
                -0.27044485316154765,
                -0.15041145574429493,
                -2.4526912000812686
            ]
        },
        {
            "positions": [
                -2.5598660992265416,
                -1.3804187255157967,
                1.8921684666421164,
                -0.2899616554036014,
                -0.08188951494744504,
                -2.540875328653249
            ]
        },
        {
            "positions": [
                -2.620491384437446,
                -1.385925457802223,
                2.018567659434492,
                -0.3094784576456552,
                -0.01336757415059514,
                -2.629059457225229
            ]
        },
        {
            "positions": [
                -2.601867913244204,
                -1.349602975505609,
                2.029372273063436,
                -0.39842321188651014,
                0.10842820852627019,
                -2.7236706166129205
            ]
        },
        {
            "positions": [
                -2.583244442050962,
                -1.3132804932089945,
                2.04017688669238,
                -0.4873679661273651,
                0.23022399120313553,
                -2.8182817760006125
            ]
        },
        {
            "positions": [
                -2.5646209708577206,
                -1.2769580109123804,
                2.050981500321324,
                -0.5763127203682201,
                0.3520197738800009,
                -2.912892935388304
            ]
        },
        {
            "positions": [
                -2.534440436016886,
                -1.2397020711884355,
                2.03846847456626,
                -0.6663496881414316,
                0.4600991762614706,
                -2.989051065744427
            ]
        },
        {
            "positions": [
                -2.5042599011760514,
                -1.2024461314644903,
                2.025955448811196,
                -0.756386655914643,
                0.5681785786429404,
                -3.0652091961005503
            ]
        },
        {
            "positions": [
                -2.474079366335217,
                -1.1651901917405454,
                2.013442423056132,
                -0.8464236236878546,
                0.6762579810244101,
                -3.1413673264566735
            ]
        }
    ]
}