{
    "goal": {
        "global_pose": {
            "orientation": {
                "w": -0.00223480608172531,
                "x": 0.0024358444001904467,
                "y": 0.7094548369677653,
                "z": -0.704743149386269
            },
            "position": {
                "x": 0.6205249238014221,
                "y": -0.6371506643295288,
                "z": 0.19426114857196808
            }
        },
        "name": "move_to_magneteinheit_B"
    },
    "id": "EST_move_to_magneteinheit_B_99",
    "joint_names": [
        "shoulder_pan_joint",
        "shoulder_lift_joint",
        "elbow_joint",
        "wrist_1_joint",
        "wrist_2_joint",
        "wrist_3_joint"
    ],
    "metrics": {
        "cart_traj_len": 3.80029892180939,
        "distance_elbow_joint": 4.388295209896446,
        "distance_shoulder_lift_joint": 1.0585264374301997,
        "distance_shoulder_pan_joint": 4.023283656171805,
        "distance_wrist_1_joint": 2.217992999914603,
        "distance_wrist_2_joint": 3.006383107618165,
        "distance_wrist_3_joint": 0.7258961944192713,
        "smoothness": 0.5416045881940857,
        "time": 4.824241462,
        "traj_len": 3.926878863098592,
        "weighted_distance": 4.7006963422265216
    },
    "planner": "EST",
    "start": {
        "state": {
            "elbow_joint": 2.6216224122426386,
            "shoulder_lift_joint": -1.4174107377796124,
            "shoulder_pan_joint": 0.7066234856936794,
            "wrist_1_joint": 1.9546482284002225,
            "wrist_2_joint": -0.7096286983471962,
            "wrist_3_joint": 0.005740856962016249
        }
    },
    "waypoints": [
        {
            "positions": [
                0.7066234856936794,
                -1.4174107377796124,
                2.6216224122426386,
                1.9546482284002225,
                -0.7096286983471962,
                0.005740856962016249
            ]
        },
        {
            "positions": [
                0.5621730720078384,
                -1.4384070593757492,
                2.5711150320426843,
                1.934671475001968,
                -0.6115532225071671,
                -0.031988823837381324
            ]
        },
        {
            "positions": [
                0.4177226583219975,
                -1.459403380971886,
                2.52060765184273,
                1.9146947216037136,
                -0.5134777466671382,
                -0.0697185046367789
            ]
        },
        {
            "positions": [
                0.27327224463615657,
                -1.480399702568023,
                2.470100271642776,
                1.8947179682054591,
                -0.4154022708271091,
                -0.10744818543617647
            ]
        },
        {
            "positions": [
                0.12882183095031563,
                -1.5013960241641595,
                2.419592891442822,
                1.8747412148072045,
                -0.3173267949870801,
                -0.14517786623557402
            ]
        },
        {
            "positions": [
                -0.015628582735525365,
                -1.5223923457602964,
                2.3690855112428677,
                1.85476446140895,
                -0.21925131914705104,
                -0.1829075470349716
            ]
        },
        {
            "positions": [
                -0.16007899642136625,
                -1.5433886673564332,
                2.3185781310429134,
                1.8347877080106956,
                -0.12117584330702202,
                -0.22063722783436918
            ]
        },
        {
            "positions": [
                -0.3045294101072073,
                -1.56438498895257,
                2.268070750842959,
                1.8148109546124411,
                -0.0231003674669929,
                -0.25836690863376677
            ]
        },
        {
            "positions": [
                -0.18956532862277548,
                -1.5905378091699036,
                2.114699532145031,
                1.7587360475042466,
                -0.05818252509717604,
                -0.26189221400800483
            ]
        },
        {
            "positions": [
                -0.07460124713834365,
                -1.6166906293872372,
                1.9613283134471027,
                1.702661140396052,
                -0.09326468272735917,
                -0.2654175193822429
            ]
        },
        {
            "positions": [
                0.04036283434608817,
                -1.6428434496045705,
                1.8079570947491745,
                1.6465862332878576,
                -0.1283468403575423,
                -0.2689428247564809
            ]
        },
        {
            "positions": [
                0.15532691583052,
                -1.668996269821904,
                1.6545858760512462,
                1.5905113261796628,
                -0.16342899798772545,
                -0.27246813013071897
            ]
        },
        {
            "positions": [
                0.2702909973149518,
                -1.6951490900392376,
                1.501214657353318,
                1.5344364190714683,
                -0.19851115561790858,
                -0.27599343550495703
            ]
        },
        {
            "positions": [
                0.38525507879938364,
                -1.7213019102565712,
                1.34784343865539,
                1.4783615119632738,
                -0.2335933132480917,
                -0.2795187408791951
            ]
        },
        {
            "positions": [
                0.5002191602838153,
                -1.7474547304739045,
                1.1944722199574618,
                1.4222866048550793,
                -0.2686754708782748,
                -0.2830440462534331
            ]
        },
        {
            "positions": [
                0.6151832417682472,
                -1.773607550691238,
                1.0411010012595334,
                1.3662116977468848,
                -0.303757628508458,
                -0.28656935162767116
            ]
        },
        {
            "positions": [
                0.730147323252679,
                -1.7997603709085717,
                0.8877297825616053,
                1.31013679063869,
                -0.33883978613864113,
                -0.29009465700190923
            ]
        },
        {
            "positions": [
                0.8451114047371109,
                -1.8259131911259052,
                0.7343585638636769,
                1.2540618835304955,
                -0.37392194376882426,
                -0.2936199623761473
            ]
        },
        {
            "positions": [
                0.9600754862215426,
                -1.8520660113432386,
                0.5809873451657488,
                1.197986976422301,
                -0.4090041013990074,
                -0.2971452677503853
            ]
        },
        {
            "positions": [
                1.0750395677059745,
                -1.8782188315605721,
                0.42761612646782043,
                1.1419120693141065,
                -0.4440862590291905,
                -0.30067057312462336
            ]
        },
        {
            "positions": [
                1.1900036491904062,
                -1.9043716517779057,
                0.2742449077698923,
                1.085837162205912,
                -0.47916841665937365,
                -0.3041958784988614
            ]
        },
        {
            "positions": [
                1.304967730674838,
                -1.9305244719952392,
                0.12087368907196439,
                1.0297622550977175,
                -0.5142505742895568,
                -0.3077211838730995
            ]
        },
        {
            "positions": [
                1.4199318121592697,
                -1.9566772922125728,
                -0.03249752962596375,
                0.9736873479895229,
                -0.5493327319197399,
                -0.31124648924733755
            ]
        },
        {
            "positions": [
                1.5348958936437018,
                -1.9828301124299061,
                -0.18586874832389233,
                0.9176124408813283,
                -0.584414889549923,
                -0.31477179462157556
            ]
        },
        {
            "positions": [
                1.6498599751281335,
                -2.00898293264724,
                -0.33923996702182047,
                0.8615375337731338,
                -0.6194970471801062,
                -0.3182970999958136
            ]
        },
        {
            "positions": [
                1.7648240566125653,
                -2.0351357528645733,
                -0.4926111857197486,
                0.8054626266649392,
                -0.6545792048102894,
                -0.3218224053700517
            ]
        },
        {
            "positions": [
                1.879788138096997,
                -2.0612885730819066,
                -0.6459824044176767,
                0.7493877195567447,
                -0.6896613624404724,
                -0.3253477107442897
            ]
        },
        {
            "positions": [
                1.9947522195814291,
                -2.0874413932992404,
                -0.7993536231156053,
                0.6933128124485501,
                -0.7247435200706556,
                -0.3288730161185278
            ]
        },
        {
            "positions": [
                2.109716301065861,
                -2.1135942135165737,
                -0.9527248418135335,
                0.6372379053403556,
                -0.7598256777008388,
                -0.3323983214927658
            ]
        },
        {
            "positions": [
                2.2246803825502925,
                -2.139747033733907,
                -1.1060960605114616,
                0.5811629982321611,
                -0.7949078353310219,
                -0.3359236268670039
            ]
        },
        {
            "positions": [
                2.3396444640347243,
                -2.165899853951241,
                -1.2594672792093897,
                0.5250880911239666,
                -0.8299899929612049,
                -0.33944893224124195
            ]
        },
        {
            "positions": [
                2.4546085455191564,
                -2.192052674168574,
                -1.4128384979073183,
                0.46901318401577186,
                -0.8650721505913881,
                -0.34297423761547996
            ]
        },
        {
            "positions": [
                2.569572627003588,
                -2.218205494385908,
                -1.5662097166052464,
                0.41293827690757734,
                -0.9001543082215713,
                -0.346499542989718
            ]
        },
        {
            "positions": [
                2.68453670848802,
                -2.2443583146032413,
                -1.7195809353031746,
                0.35686336979938293,
                -0.9352364658517545,
                -0.3500248483639561
            ]
        },
        {
            "positions": [
                2.6818387053926345,
                -2.276147833169553,
                -1.7135327265095506,
                0.44172631207116453,
                -0.7433896250412315,
                -0.29970697625879816
            ]
        },
        {
            "positions": [
                2.6791407022972495,
                -2.307937351735864,
                -1.7074845177159268,
                0.5265892543429462,
                -0.5515427842307086,
                -0.24938910415364018
            ]
        },
        {
            "positions": [
                2.676442699201864,
                -2.3397268703021754,
                -1.7014363089223028,
                0.6114521966147277,
                -0.3596959434201856,
                -0.19907123204848226
            ]
        },
        {
            "positions": [
                2.673744696106479,
                -2.371516388868487,
                -1.695388100128679,
                0.6963151388865094,
                -0.16784910260966268,
                -0.1487533599433243
            ]
        },
        {
            "positions": [
                2.6710466930110934,
                -2.4033059074347984,
                -1.689339891335055,
                0.7811780811582911,
                0.023997738200860264,
                -0.09843548783816636
            ]
        },
        {
            "positions": [
                2.6683486899157085,
                -2.4350954260011095,
                -1.6832916825414312,
                0.8660410234300726,
                0.2158445790113832,
                -0.048117615733008434
            ]
        },
        {
            "positions": [
                2.665650686820323,
                -2.466884944567421,
                -1.6772434737478072,
                0.9509039657018543,
                0.40769141982190604,
                0.0022002563721495484
            ]
        },
        {
            "positions": [
                2.6614720667123293,
                -2.475937175209812,
                -1.672489072952542,
                0.977071511113146,
                0.4724822125014452,
                0.020105640729343163
            ]
        }
    ]
}