{
    "goal": {
        "global_pose": {
            "orientation": {
                "w": 0.5084816217422485,
                "x": -0.49083608388900757,
                "y": 0.5182115435600281,
                "z": -0.4816462993621826
            },
            "position": {
                "x": 0.5540239810943604,
                "y": 0.030875300988554955,
                "z": 0.16403168439865112
            }
        },
        "name": "move_to_storage_A"
    },
    "id": "EST_move_to_storage_A_123",
    "joint_names": [
        "shoulder_pan_joint",
        "shoulder_lift_joint",
        "elbow_joint",
        "wrist_1_joint",
        "wrist_2_joint",
        "wrist_3_joint"
    ],
    "metrics": {
        "cart_traj_len": 0.35340368911906433,
        "distance_elbow_joint": 0.45214484092525553,
        "distance_shoulder_lift_joint": 0.23245349656208258,
        "distance_shoulder_pan_joint": 0.46356161405967294,
        "distance_wrist_1_joint": 0.25211741604347304,
        "distance_wrist_2_joint": 1.0927562650323337,
        "distance_wrist_3_joint": 0.09741211249216786,
        "smoothness": 2.2204460668324854e-16,
        "time": 0.026325954999999998,
        "traj_len": 1.6094861742540647,
        "weighted_distance": 2.032275486043939
    },
    "planner": "EST",
    "start": {
        "state": {
            "elbow_joint": 1.971548259319323,
            "shoulder_lift_joint": -1.1394851275133948,
            "shoulder_pan_joint": 0.1228115487234821,
            "wrist_1_joint": -0.7804723859257726,
            "wrist_2_joint": 0.12958671773740124,
            "wrist_3_joint": -3.192489227718131
        }
    },
    "waypoints": [
        {
            "positions": [
                0.1228115487234821,
                -1.1394851275133948,
                1.971548259319323,
                -0.7804723859257726,
                0.12958671773740124,
                -3.192489227718131
            ]
        },
        {
            "positions": [
                0.05658846100067168,
                -1.1726927698794065,
                2.0361403794515023,
                -0.8164891596462688,
                0.2856947555991632,
                -3.1785732116478216
            ]
        },
        {
            "positions": [
                -0.009634626722138745,
                -1.2059004122454184,
                2.100732499583682,
                -0.852505933366765,
                0.4418027934609251,
                -3.1646571955775116
            ]
        },
        {
            "positions": [
                -0.07585771444494915,
                -1.2391080546114301,
                2.165324619715861,
                -0.888522707087261,
                0.5979108313226871,
                -3.150741179507202
            ]
        },
        {
            "positions": [
                -0.1420808021677596,
                -1.272315696977442,
                2.2299167398480404,
                -0.9245394808077572,
                0.754018869184449,
                -3.1368251634368924
            ]
        },
        {
            "positions": [
                -0.20830388989057003,
                -1.3055233393434538,
                2.29450885998022,
                -0.9605562545282533,
                0.910126907046211,
                -3.122909147366583
            ]
        },
        {
            "positions": [
                -0.2745269776133804,
                -1.3387309817094657,
                2.359100980112399,
                -0.9965730282487495,
                1.0662349449079729,
                -3.108993131296273
            ]
        },
        {
            "positions": [
                -0.34075006533619084,
                -1.3719386240754774,
                2.4236931002445785,
                -1.0325898019692457,
                1.222342982769735,
                -3.0950771152259633
            ]
        }
    ]
}{
    "goal": {
        "global_pose": {
            "orientation": {
                "w": 0.5084816217422485,
                "x": -0.49083608388900757,
                "y": 0.5182115435600281,
                "z": -0.4816462993621826
            },
            "position": {
                "x": 0.5540239810943604,
                "y": 0.030875300988554955,
                "z": 0.16403168439865112
            }
        },
        "name": "move_to_storage_A"
    },
    "id": "EST_move_to_storage_A_123",
    "joint_names": [
        "shoulder_pan_joint",
        "shoulder_lift_joint",
        "elbow_joint",
        "wrist_1_joint",
        "wrist_2_joint",
        "wrist_3_joint"
    ],
    "metrics": {
        "cart_traj_len": 0.3533163997366575,
        "distance_elbow_joint": 0.4490604029413974,
        "distance_shoulder_lift_joint": 0.23388771452811952,
        "distance_shoulder_pan_joint": 0.46386993894819994,
        "distance_wrist_1_joint": 0.23892622984343626,
        "distance_wrist_2_joint": 1.0909621439523223,
        "distance_wrist_3_joint": 0.08959959695615227,
        "smoothness": 1.3322676295501878e-15,
        "time": 0.044767424,
        "traj_len": 1.6019694214215288,
        "weighted_distance": 2.01876041046918
    },
    "planner": "EST",
    "start": {
        "state": {
            "elbow_joint": 1.97154746011099,
            "shoulder_lift_joint": -1.13948474672311,
            "shoulder_pan_joint": 0.12281154466712228,
            "wrist_1_joint": -0.7804688027058302,
            "wrist_2_joint": 0.12958655903071145,
            "wrist_3_joint": 3.0906928834467795
        }
    },
    "waypoints": [
        {
            "positions": [
                0.12281154466712228,
                -1.13948474672311,
                1.97154746011099,
                -0.7804688027058302,
                0.12958655903071145,
                3.0906928834467795
            ]
        },
        {
            "positions": [
                0.056544410531665146,
                -1.1728972773699842,
                2.0356989462454753,
                -0.8146011212548925,
                0.2854382938810432,
                3.103492825869087
            ]
        },
        {
            "positions": [
                -0.009722723603791991,
                -1.2063098080168584,
                2.0998504323799607,
                -0.8487334398039548,
                0.4412900287313749,
                3.1162927682913946
            ]
        },
        {
            "positions": [
                -0.07598985773924911,
                -1.2397223386637326,
                2.164001918514446,
                -0.8828657583530172,
                0.5971417635817067,
                3.129092710713702
            ]
        },
        {
            "positions": [
                -0.14225699187470625,
                -1.2731348693106068,
                2.228153404648931,
                -0.9169980769020795,
                0.7529934984320384,
                3.141892653136009
            ]
        },
        {
            "positions": [
                -0.2085241260101634,
                -1.306547399957481,
                2.2923048907834165,
                -0.9511303954511419,
                0.9088452332823702,
                3.1546925955583167
            ]
        },
        {
            "positions": [
                -0.2747912601456205,
                -1.3399599306043553,
                2.356456376917902,
                -0.9852627140002042,
                1.0646969681327019,
                3.1674925379806242
            ]
        },
        {
            "positions": [
                -0.34105839428107765,
                -1.3733724612512295,
                2.4206078630523873,
                -1.0193950325492664,
                1.2205487029830338,
                3.1802924804029318
            ]
        }
    ]
}{
    "goal": {
        "global_pose": {
            "orientation": {
                "w": 0.5084816217422485,
                "x": -0.49083608388900757,
                "y": 0.5182115435600281,
                "z": -0.4816462993621826
            },
            "position": {
                "x": 0.5540239810943604,
                "y": 0.030875300988554955,
                "z": 0.16403168439865112
            }
        },
        "name": "move_to_storage_A"
    },
    "id": "EST_move_to_storage_A_123",
    "joint_names": [
        "shoulder_pan_joint",
        "shoulder_lift_joint",
        "elbow_joint",
        "wrist_1_joint",
        "wrist_2_joint",
        "wrist_3_joint"
    ],
    "metrics": {
        "cart_traj_len": 0.3527635002805035,
        "distance_elbow_joint": 0.44701681339372934,
        "distance_shoulder_lift_joint": 0.23566808685003915,
        "distance_shoulder_pan_joint": 0.4615759566999124,
        "distance_wrist_1_joint": 0.23293061137488102,
        "distance_wrist_2_joint": 1.0968571546080332,
        "distance_wrist_3_joint": 0.0873545166621934,
        "smoothness": 6.661338165333112e-16,
        "time": 0.025754405,
        "traj_len": 1.6004384210549272,
        "weighted_distance": 2.016407681719173
    },
    "planner": "EST",
    "start": {
        "state": {
            "elbow_joint": 1.9715472970024885,
            "shoulder_lift_joint": -1.1394870060712896,
            "shoulder_pan_joint": 0.12281152778156021,
            "wrist_1_joint": -0.780463741449964,
            "wrist_2_joint": 0.12958659822042276,
            "wrist_3_joint": 3.090690232415272
        }
    },
    "waypoints": [
        {
            "positions": [
                0.12281152778156021,
                -1.1394870060712896,
                1.9715472970024885,
                -0.780463741449964,
                0.12958659822042276,
                3.090690232415272
            ]
        },
        {
            "positions": [
                0.05687210539585845,
                -1.1731538756212951,
                2.035406841773021,
                -0.813739543074947,
                0.2862804774501418,
                3.1031694490812995
            ]
        },
        {
            "positions": [
                -0.00906731698984331,
                -1.206820745171301,
                2.099266386543554,
                -0.84701534469993,
                0.44297435667986085,
                3.1156486657473272
            ]
        },
        {
            "positions": [
                -0.07500673937554508,
                -1.2404876147213064,
                2.1631259313140867,
                -0.880291146324913,
                0.5996682359095798,
                3.128127882413355
            ]
        },
        {
            "positions": [
                -0.14094616176124683,
                -1.274154484271312,
                2.2269854760846197,
                -0.913566947949896,
                0.7563621151392989,
                3.140607099079382
            ]
        },
        {
            "positions": [
                -0.2068855841469486,
                -1.3078213538213177,
                2.2908450208551523,
                -0.946842749574879,
                0.913055994369018,
                3.15308631574541
            ]
        },
        {
            "positions": [
                -0.2728250065326504,
                -1.3414882233713232,
                2.354704565625685,
                -0.980118551199862,
                1.069749873598737,
                3.1655655324114376
            ]
        },
        {
            "positions": [
                -0.3387644289183522,
                -1.3751550929213288,
                2.418564110396218,
                -1.013394352824845,
                1.226443752828456,
                3.1780447490774653
            ]
        }
    ]
}