{
    "goal": {
        "global_pose": {
            "orientation": {
                "w": 0.5084816217422485,
                "x": -0.49083608388900757,
                "y": 0.5182115435600281,
                "z": -0.4816462993621826
            },
            "position": {
                "x": 0.5540239810943604,
                "y": 0.030875300988554955,
                "z": 0.16403168439865112
            }
        },
        "name": "move_to_storage_A"
    },
    "id": "EST_move_to_storage_A_99",
    "joint_names": [
        "shoulder_pan_joint",
        "shoulder_lift_joint",
        "elbow_joint",
        "wrist_1_joint",
        "wrist_2_joint",
        "wrist_3_joint"
    ],
    "metrics": {
        "cart_traj_len": 0.35390924390744644,
        "distance_elbow_joint": 0.45434396050908243,
        "distance_shoulder_lift_joint": 0.23454830364182633,
        "distance_shoulder_pan_joint": 0.46479550582111495,
        "distance_wrist_1_joint": 0.2581177253331538,
        "distance_wrist_2_joint": 1.0925171973664356,
        "distance_wrist_3_joint": 0.09433197732746423,
        "smoothness": 1.1102230263833737e-15,
        "time": 0.016966692000000002,
        "traj_len": 1.6120343265573092,
        "weighted_distance": 2.034196044473982
    },
    "planner": "EST",
    "start": {
        "state": {
            "elbow_joint": 1.971548259319323,
            "shoulder_lift_joint": -1.1394851275133948,
            "shoulder_pan_joint": 0.1228115487234821,
            "wrist_1_joint": -0.7804723859257726,
            "wrist_2_joint": 0.12958671773740124,
            "wrist_3_joint": -3.192489227718131
        }
    },
    "waypoints": [
        {
            "positions": [
                0.1228115487234821,
                -1.1394851275133948,
                1.971548259319323,
                -0.7804723859257726,
                0.12958671773740124,
                -3.192489227718131
            ]
        },
        {
            "positions": [
                0.05641219074903711,
                -1.1729920280336557,
                2.0364545393920492,
                -0.8173463466876517,
                0.2856606030754635,
                -3.179013230957065
            ]
        },
        {
            "positions": [
                -0.009987167225407878,
                -1.2064989285539167,
                2.1013608194647753,
                -0.8542203074495308,
                0.4417344884135257,
                -3.1655372341959986
            ]
        },
        {
            "positions": [
                -0.07638652519985287,
                -1.2400058290741776,
                2.1662670995375013,
                -0.8910942682114099,
                0.5978083737515879,
                -3.1520612374349324
            ]
        },
        {
            "positions": [
                -0.14278588317429786,
                -1.2735127295944384,
                2.2311733796102273,
                -0.9279682289732891,
                0.7538822590896501,
                -3.1385852406738657
            ]
        },
        {
            "positions": [
                -0.20918524114874287,
                -1.3070196301146995,
                2.2960796596829534,
                -0.9648421897351682,
                0.9099561444277124,
                -3.1251092439127994
            ]
        },
        {
            "positions": [
                -0.27558459912318783,
                -1.3405265306349603,
                2.3609859397556794,
                -1.0017161504970473,
                1.0660300297657745,
                -3.111633247151733
            ]
        },
        {
            "positions": [
                -0.34198395709763285,
                -1.3740334311552211,
                2.4258922198284054,
                -1.0385901112589264,
                1.2221039151038369,
                -3.098157250390667
            ]
        }
    ]
}{
    "goal": {
        "global_pose": {
            "orientation": {
                "w": 0.5084816217422485,
                "x": -0.49083608388900757,
                "y": 0.5182115435600281,
                "z": -0.4816462993621826
            },
            "position": {
                "x": 0.5540239810943604,
                "y": 0.030875300988554955,
                "z": 0.16403168439865112
            }
        },
        "name": "move_to_storage_A"
    },
    "id": "EST_move_to_storage_A_99",
    "joint_names": [
        "shoulder_pan_joint",
        "shoulder_lift_joint",
        "elbow_joint",
        "wrist_1_joint",
        "wrist_2_joint",
        "wrist_3_joint"
    ],
    "metrics": {
        "cart_traj_len": 0.3531555327466437,
        "distance_elbow_joint": 0.4508641858667275,
        "distance_shoulder_lift_joint": 0.23429406788962792,
        "distance_shoulder_pan_joint": 0.4634211041335738,
        "distance_wrist_1_joint": 0.24499209240170527,
        "distance_wrist_2_joint": 1.0921745630905044,
        "distance_wrist_3_joint": 0.09878495873953419,
        "smoothness": 6.661338200497456e-16,
        "time": 0.066256871,
        "traj_len": 1.6076476517327025,
        "weighted_distance": 2.029597877682412
    },
    "planner": "EST",
    "start": {
        "state": {
            "elbow_joint": 1.97154746011099,
            "shoulder_lift_joint": -1.13948474672311,
            "shoulder_pan_joint": 0.12281154466712228,
            "wrist_1_joint": -0.7804688027058302,
            "wrist_2_joint": 0.12958655903071145,
            "wrist_3_joint": 3.0906928834467795
        }
    },
    "waypoints": [
        {
            "positions": [
                0.12281154466712228,
                -1.13948474672311,
                1.97154746011099,
                -0.7804688027058302,
                0.12958655903071145,
                3.0906928834467795
            ]
        },
        {
            "positions": [
                0.05660852979089746,
                -1.1729553278501996,
                2.0359566295205225,
                -0.815467673048931,
                0.28561149661506924,
                3.1048050204095703
            ]
        },
        {
            "positions": [
                -0.009594485085327356,
                -1.2064259089772893,
                2.100365798930055,
                -0.8504665433920316,
                0.441636434199427,
                3.1189171573723606
            ]
        },
        {
            "positions": [
                -0.07579749996155218,
                -1.239896490104379,
                2.1647749683395876,
                -0.8854654137351324,
                0.5976613717837848,
                3.1330292943351514
            ]
        },
        {
            "positions": [
                -0.14200051483777698,
                -1.2733670712314686,
                2.2291841377491197,
                -0.9204642840782332,
                0.7536863093681425,
                3.1471414312979418
            ]
        },
        {
            "positions": [
                -0.20820352971400186,
                -1.3068376523585585,
                2.2935933071586523,
                -0.9554631544213339,
                0.9097112469525004,
                3.1612535682607326
            ]
        },
        {
            "positions": [
                -0.2744065445902266,
                -1.3403082334856482,
                2.358002476568185,
                -0.9904620247644347,
                1.065736184536858,
                3.175365705223523
            ]
        },
        {
            "positions": [
                -0.3406095594664515,
                -1.3737788146127379,
                2.4224116459777174,
                -1.0254608951075355,
                1.221761122121216,
                3.1894778421863137
            ]
        }
    ]
}{
    "goal": {
        "global_pose": {
            "orientation": {
                "w": 0.5084816217422485,
                "x": -0.49083608388900757,
                "y": 0.5182115435600281,
                "z": -0.4816462993621826
            },
            "position": {
                "x": 0.5540239810943604,
                "y": 0.030875300988554955,
                "z": 0.16403168439865112
            }
        },
        "name": "move_to_storage_A"
    },
    "id": "EST_move_to_storage_A_99",
    "joint_names": [
        "shoulder_pan_joint",
        "shoulder_lift_joint",
        "elbow_joint",
        "wrist_1_joint",
        "wrist_2_joint",
        "wrist_3_joint"
    ],
    "metrics": {
        "cart_traj_len": 0.3530226717962309,
        "distance_elbow_joint": 0.4476168237929694,
        "distance_shoulder_lift_joint": 0.23556284822012552,
        "distance_shoulder_pan_joint": 0.46119059952354824,
        "distance_wrist_1_joint": 0.2353474168733498,
        "distance_wrist_2_joint": 1.1005133221608352,
        "distance_wrist_3_joint": 0.09706480226512326,
        "smoothness": 4.440892098500626e-16,
        "time": 0.052585011,
        "traj_len": 1.6053958430355897,
        "weighted_distance": 2.0266440625823723
    },
    "planner": "EST",
    "start": {
        "state": {
            "elbow_joint": 1.9715472970024885,
            "shoulder_lift_joint": -1.1394870060712896,
            "shoulder_pan_joint": 0.12281152778156021,
            "wrist_1_joint": -0.780463741449964,
            "wrist_2_joint": 0.12958659822042276,
            "wrist_3_joint": 3.090690232415272
        }
    },
    "waypoints": [
        {
            "positions": [
                0.12281152778156021,
                -1.1394870060712896,
                1.9715472970024885,
                -0.780463741449964,
                0.12958659822042276,
                3.090690232415272
            ]
        },
        {
            "positions": [
                0.056927156421053324,
                -1.1731388415313075,
                2.0354925575443414,
                -0.8140848010032997,
                0.2868027871005421,
                3.104556632738861
            ]
        },
        {
            "positions": [
                -0.008957214939453562,
                -1.2067906769913255,
                2.099437818086194,
                -0.8477058605566353,
                0.4440189759806614,
                3.11842303306245
            ]
        },
        {
            "positions": [
                -0.07484158629996046,
                -1.2404425124513434,
                2.163383078628047,
                -0.881326920109971,
                0.6012351648607807,
                3.132289433386039
            ]
        },
        {
            "positions": [
                -0.14072595766046733,
                -1.2740943479113613,
                2.2273283391698997,
                -0.9149479796633068,
                0.7584513537409,
                3.146155833709628
            ]
        },
        {
            "positions": [
                -0.20661032902097423,
                -1.3077461833713793,
                2.2912735997117526,
                -0.9485690392166424,
                0.9156675426210193,
                3.160022234033217
            ]
        },
        {
            "positions": [
                -0.27249470038148116,
                -1.3413980188313972,
                2.355218860253605,
                -0.9821900987699781,
                1.0728837315011386,
                3.173888634356806
            ]
        },
        {
            "positions": [
                -0.338379071741988,
                -1.3750498542914151,
                2.419164120795458,
                -1.0158111583233138,
                1.230099920381258,
                3.187755034680395
            ]
        }
    ]
}