{
    "goal": {
        "global_pose": {
            "orientation": {
                "w": 0.5084816262002911,
                "x": -0.4908360881923452,
                "y": 0.5182115481033761,
                "z": -0.48164630358495003
            },
            "position": {
                "x": 0.5540239810943604,
                "y": -0.46912469901144505,
                "z": 0.16403168439865112
            }
        },
        "name": "move_to_storage_B"
    },
    "id": "EST_move_to_storage_B_134",
    "joint_names": [
        "shoulder_pan_joint",
        "shoulder_lift_joint",
        "elbow_joint",
        "wrist_1_joint",
        "wrist_2_joint",
        "wrist_3_joint"
    ],
    "metrics": {
        "cart_traj_len": 3.2324252852120914,
        "distance_elbow_joint": 1.3081405747278083,
        "distance_shoulder_lift_joint": 2.066573732931895,
        "distance_shoulder_pan_joint": 2.821803422192488,
        "distance_wrist_1_joint": 2.9776304745615656,
        "distance_wrist_2_joint": 2.712864409927377,
        "distance_wrist_3_joint": 3.500875071022141,
        "smoothness": 0.36479980528895684,
        "time": 0.112317796,
        "traj_len": 3.922739818718962,
        "weighted_distance": 5.2990690420012925
    },
    "planner": "EST",
    "start": {
        "state": {
            "elbow_joint": 1.664937868594044,
            "shoulder_lift_joint": -0.661644460510453,
            "shoulder_pan_joint": -0.9139846352900073,
            "wrist_1_joint": 2.146753192139373,
            "wrist_2_joint": -2.2341966793290973,
            "wrist_3_joint": 0.005466555786416001
        }
    },
    "waypoints": [
        {
            "positions": [
                -0.9139846352900073,
                -0.661644460510453,
                1.664937868594044,
                2.146753192139373,
                -2.2341966793290973,
                0.005466555786416001
            ]
        },
        {
            "positions": [
                -0.8456712007861453,
                -0.7179588617456252,
                1.6734195956895395,
                2.027795284747455,
                -2.143331068811516,
                -0.03998818130001713
            ]
        },
        {
            "positions": [
                -0.7773577662822833,
                -0.7742732629807973,
                1.6819013227850352,
                1.9088373773555372,
                -2.052465458293934,
                -0.08544291838645025
            ]
        },
        {
            "positions": [
                -0.7090443317784213,
                -0.8305876642159694,
                1.690383049880531,
                1.7898794699636191,
                -1.9615998477763528,
                -0.13089765547288337
            ]
        },
        {
            "positions": [
                -0.6407308972745593,
                -0.8869020654511416,
                1.6988647769760266,
                1.670921562571701,
                -1.8707342372587714,
                -0.1763523925593165
            ]
        },
        {
            "positions": [
                -0.585593142371796,
                -0.9415071961723724,
                1.673636040542065,
                1.5476135196135061,
                -1.7748804223108665,
                -0.141103265676178
            ]
        },
        {
            "positions": [
                -0.5304553874690328,
                -0.9961123268936034,
                1.648407304108103,
                1.4243054766553112,
                -1.6790266073629618,
                -0.1058541387930395
            ]
        },
        {
            "positions": [
                -0.4753176325662694,
                -1.0507174576148344,
                1.6231785676741415,
                1.3009974336971162,
                -1.583172792415057,
                -0.07060501190990098
            ]
        },
        {
            "positions": [
                -0.4201798776635061,
                -1.1053225883360651,
                1.5979498312401796,
                1.177689390738921,
                -1.4873189774671522,
                -0.035355885026762485
            ]
        },
        {
            "positions": [
                -0.3650421227607428,
                -1.159927719057296,
                1.572721094806218,
                1.054381347780726,
                -1.3914651625192473,
                -0.00010675814362398617
            ]
        },
        {
            "positions": [
                -0.3099043678579795,
                -1.214532849778527,
                1.5474923583722564,
                0.931073304822531,
                -1.2956113475713424,
                0.03514236873951454
            ]
        },
        {
            "positions": [
                -0.2547666129552162,
                -1.269137980499758,
                1.5222636219382946,
                0.807765261864336,
                -1.1997575326234378,
                0.07039149562265304
            ]
        },
        {
            "positions": [
                -0.1996288580524529,
                -1.3237431112209888,
                1.497034885504333,
                0.684457218906141,
                -1.103903717675533,
                0.10564062250579154
            ]
        },
        {
            "positions": [
                -0.1444911031496896,
                -1.3783482419422197,
                1.471806149070371,
                0.5611491759479459,
                -1.0080499027276282,
                0.14088974938893006
            ]
        },
        {
            "positions": [
                -0.08935334824692631,
                -1.4329533726634507,
                1.4465774126364095,
                0.4378411329897509,
                -0.9121960877797234,
                0.17613887627206853
            ]
        },
        {
            "positions": [
                -0.03421559334416291,
                -1.4875585033846814,
                1.4213486762024476,
                0.3145330900315557,
                -0.8163422728318184,
                0.21138800315520712
            ]
        },
        {
            "positions": [
                0.020922161558600383,
                -1.5421636341059124,
                1.396119939768486,
                0.19122504707336097,
                -0.7204884578839137,
                0.2466371300383456
            ]
        },
        {
            "positions": [
                0.07605991646136367,
                -1.5967687648271434,
                1.3708912033345242,
                0.06791700411516577,
                -0.6246346429360088,
                0.2818862569214841
            ]
        },
        {
            "positions": [
                0.13119767136412697,
                -1.651373895548374,
                1.3456624669005626,
                -0.055391038843029206,
                -0.5287808279881041,
                0.3171353838046226
            ]
        },
        {
            "positions": [
                0.18633542626689026,
                -1.7059790262696053,
                1.320433730466601,
                -0.17869908180122418,
                -0.4329270130401992,
                0.35238451068776117
            ]
        },
        {
            "positions": [
                0.24147318116965355,
                -1.760584156990836,
                1.2952049940326391,
                -0.30200712475941915,
                -0.3370731980922945,
                0.3876336375708996
            ]
        },
        {
            "positions": [
                0.29661093607241695,
                -1.815189287712067,
                1.2699762575986775,
                -0.42531516771761435,
                -0.24121938314438962,
                0.4228827644540381
            ]
        },
        {
            "positions": [
                0.35174869097518013,
                -1.869794418433298,
                1.2447475211647157,
                -0.5486232106758093,
                -0.14536556819648494,
                0.45813189133717663
            ]
        },
        {
            "positions": [
                0.40688644587794354,
                -1.924399549154529,
                1.219518784730754,
                -0.6719312536340041,
                -0.04951175324858008,
                0.49338101822031516
            ]
        },
        {
            "positions": [
                0.3185963081706178,
                -1.8771160994905396,
                1.266275706736669,
                -0.6812810200333094,
                -0.018442371845823716,
                0.6492235306848314
            ]
        },
        {
            "positions": [
                0.23030617046329205,
                -1.8298326498265503,
                1.3130326287425838,
                -0.6906307864326147,
                0.012627009556932647,
                0.8050660431493476
            ]
        },
        {
            "positions": [
                0.1420160327559663,
                -1.7825492001625607,
                1.3597895507484987,
                -0.69998055283192,
                0.043696390959689024,
                0.9609085556138639
            ]
        },
        {
            "positions": [
                0.05372589504864056,
                -1.7352657504985713,
                1.4065464727544137,
                -0.7093303192312252,
                0.07476577236244537,
                1.11675106807838
            ]
        },
        {
            "positions": [
                -0.034564242658685185,
                -1.687982300834582,
                1.4533033947603284,
                -0.7186800856305305,
                0.10583515376520174,
                1.2725935805428963
            ]
        },
        {
            "positions": [
                -0.12285438036601093,
                -1.6406988511705927,
                1.5000603167662434,
                -0.7280298520298358,
                0.13690453516795814,
                1.4284360930074127
            ]
        },
        {
            "positions": [
                -0.21114451807333667,
                -1.5934154015066033,
                1.5468172387721584,
                -0.737379618429141,
                0.16797391657071448,
                1.5842786054719287
            ]
        },
        {
            "positions": [
                -0.2994346557806624,
                -1.546131951842614,
                1.5935741607780731,
                -0.7467293848284464,
                0.1990432979734708,
                1.7401211179364449
            ]
        },
        {
            "positions": [
                -0.38772479348798816,
                -1.4988485021786246,
                1.640331082783988,
                -0.7560791512277516,
                0.2301126793762272,
                1.8959636304009613
            ]
        },
        {
            "positions": [
                -0.4760149311953139,
                -1.451565052514635,
                1.6870880047899028,
                -0.765428917627057,
                0.26118206077898354,
                2.0518061428654777
            ]
        },
        {
            "positions": [
                -0.5643050689026397,
                -1.4042816028506457,
                1.7338449267958178,
                -0.7747786840263622,
                0.29225144218173993,
                2.2076486553299937
            ]
        },
        {
            "positions": [
                -0.6525952066099654,
                -1.3569981531866562,
                1.7806018488017328,
                -0.7841284504256675,
                0.3233208235844963,
                2.36349116779451
            ]
        },
        {
            "positions": [
                -0.7408853443172911,
                -1.309714703522667,
                1.8273587708076475,
                -0.7934782168249728,
                0.3543902049872526,
                2.519333680259026
            ]
        },
        {
            "positions": [
                -0.8291754820246169,
                -1.2624312538586775,
                1.8741156928135625,
                -0.8028279832242781,
                0.385459586390009,
                2.6751761927235425
            ]
        },
        {
            "positions": [
                -0.9174656197319426,
                -1.2151478041946882,
                1.9208726148194772,
                -0.8121777496235834,
                0.4165289677927654,
                2.831018705188059
            ]
        },
        {
            "positions": [
                -1.0057557574392684,
                -1.1678643545306988,
                1.9676295368253922,
                -0.8215275160228886,
                0.4475983491955217,
                2.986861217652575
            ]
        },
        {
            "positions": [
                -1.0940458951465941,
                -1.1205809048667095,
                2.014386458831307,
                -0.8308772824221939,
                0.47866773059827816,
                3.1427037301170913
            ]
        }
    ]
}