{
    "goal": {
        "global_pose": {
            "orientation": {
                "w": 0.7031023502349854,
                "x": -0.7110244035720825,
                "y": 0.007748599164187908,
                "z": 0.005598929710686207
            },
            "position": {
                "x": 0.11585023208521307,
                "y": 0.44412534475326537,
                "z": 0.3711530566215515
            }
        },
        "name": "move_to_auspresseinheit_A"
    },
    "id": "EST_move_to_auspresseinheit_A_35",
    "joint_names": [
        "shoulder_pan_joint",
        "shoulder_lift_joint",
        "elbow_joint",
        "wrist_1_joint",
        "wrist_2_joint",
        "wrist_3_joint"
    ],
    "metrics": {
        "cart_traj_len": 0.7687959937229545,
        "distance_elbow_joint": 0.5563294835176986,
        "distance_shoulder_lift_joint": 1.5703632231352165,
        "distance_shoulder_pan_joint": 1.0405275800169664,
        "distance_wrist_1_joint": 1.3881902823359775,
        "distance_wrist_2_joint": 2.7240041848317595,
        "distance_wrist_3_joint": 1.5457123446827992,
        "smoothness": 1.0502481264919121,
        "time": 0.272476914,
        "traj_len": 2.970711547511878,
        "weighted_distance": 4.003591669370611
    },
    "planner": "EST",
    "start": {
        "state": {
            "elbow_joint": 2.4225746658250005,
            "shoulder_lift_joint": -1.3736534386056498,
            "shoulder_pan_joint": -0.3378633547517467,
            "wrist_1_joint": -1.0288598680537169,
            "wrist_2_joint": 1.233022673432363,
            "wrist_3_joint": -3.0940220416140027
        }
    },
    "waypoints": [
        {
            "positions": [
                -0.3378633547517467,
                -1.3736534386056498,
                2.4225746658250005,
                -1.0288598680537169,
                1.233022673432363,
                -3.0940220416140027
            ]
        },
        {
            "positions": [
                -0.32938172989366915,
                -1.4546848522244702,
                2.4429276037666603,
                -0.9542068786322302,
                1.1077087425762122,
                -3.0362323473676573
            ]
        },
        {
            "positions": [
                -0.3209001050355916,
                -1.5357162658432904,
                2.46328054170832,
                -0.8795538892107435,
                0.9823948117200615,
                -2.9784426531213115
            ]
        },
        {
            "positions": [
                -0.312418480177514,
                -1.6167476794621107,
                2.48363347964998,
                -0.8049008997892568,
                0.8570808808639108,
                -2.920652958874966
            ]
        },
        {
            "positions": [
                -0.3039368553194364,
                -1.6977790930809311,
                2.5039864175916398,
                -0.7302479103677701,
                0.7317669500077599,
                -2.8628632646286207
            ]
        },
        {
            "positions": [
                -0.29545523046135885,
                -1.7788105066997513,
                2.5243393555332996,
                -0.6555949209462835,
                0.6064530191516092,
                -2.805073570382275
            ]
        },
        {
            "positions": [
                -0.2869736056032813,
                -1.8598419203185717,
                2.5446922934749594,
                -0.5809419315247968,
                0.4811390882954584,
                -2.7472838761359295
            ]
        },
        {
            "positions": [
                -0.27849198074520376,
                -1.9408733339373918,
                2.5650452314166197,
                -0.5062889421033101,
                0.35582515743930776,
                -2.689494181889584
            ]
        },
        {
            "positions": [
                -0.2700103558871262,
                -2.021904747556212,
                2.5853981693582795,
                -0.4316359526818234,
                0.23051122658315681,
                -2.6317044876432387
            ]
        },
        {
            "positions": [
                -0.2615287310290486,
                -2.1029361611750326,
                2.6057511072999393,
                -0.35698296326033674,
                0.1051972957270062,
                -2.573914793396893
            ]
        },
        {
            "positions": [
                -0.25304710617097104,
                -2.183967574793853,
                2.626104045241599,
                -0.28232997383885006,
                -0.020116635129144633,
                -2.5161250991505475
            ]
        },
        {
            "positions": [
                -0.24456548131289346,
                -2.264998988412673,
                2.646456983183259,
                -0.20767698441736338,
                -0.14543056598529547,
                -2.458335404904202
            ]
        },
        {
            "positions": [
                -0.2360838564548159,
                -2.3460304020314933,
                2.6668099211249188,
                -0.1330239949958767,
                -0.2707444968414463,
                -2.4005457106578563
            ]
        },
        {
            "positions": [
                -0.2276022315967383,
                -2.4270618156503136,
                2.6871628590665786,
                -0.05837100557439001,
                -0.3960584276975969,
                -2.342756016411511
            ]
        },
        {
            "positions": [
                -0.14303255370019669,
                -2.3800659205511723,
                2.6606409235869313,
                -0.09634386192499467,
                -0.29651996554288795,
                -2.414978409091539
            ]
        },
        {
            "positions": [
                -0.05846287580365503,
                -2.3330700254520313,
                2.634118988107284,
                -0.13431671827559932,
                -0.19698150338817894,
                -2.4872008017715665
            ]
        },
        {
            "positions": [
                0.026106802092886572,
                -2.2860741303528904,
                2.6075970526276366,
                -0.17228957462620395,
                -0.09744304123346997,
                -2.5594231944515946
            ]
        },
        {
            "positions": [
                0.11067647998942826,
                -2.239078235253749,
                2.5810751171479893,
                -0.2102624309768086,
                0.002095420921239044,
                -2.6316455871316227
            ]
        },
        {
            "positions": [
                0.19524615788596988,
                -2.1920823401546077,
                2.554553181668342,
                -0.24823528732741326,
                0.101633883075948,
                -2.7038679798116507
            ]
        },
        {
            "positions": [
                0.27981583578251146,
                -2.1450864450554668,
                2.5280312461886947,
                -0.2862081436780179,
                0.20117234523065697,
                -2.7760903724916783
            ]
        },
        {
            "positions": [
                0.36438551367905314,
                -2.098090549956326,
                2.5015093107090474,
                -0.32418100002862255,
                0.30071080738536604,
                -2.8483127651717064
            ]
        },
        {
            "positions": [
                0.4489551915755948,
                -2.0510946548571845,
                2.4749873752294,
                -0.3621538563792272,
                0.400249269540075,
                -2.9205351578517345
            ]
        },
        {
            "positions": [
                0.5335248694721365,
                -2.004098759758043,
                2.4484654397497527,
                -0.4001267127298319,
                0.4997877316947841,
                -2.9927575505317625
            ]
        },
        {
            "positions": [
                0.6180945473686781,
                -1.9571028646589022,
                2.4219435042701054,
                -0.4380995690804365,
                0.5993261938494929,
                -3.06497994321179
            ]
        },
        {
            "positions": [
                0.7026642252652198,
                -1.910106969559761,
                2.395421568790458,
                -0.47607242543104117,
                0.6988646560042021,
                -3.137202335891818
            ]
        }
    ]
}