{
    "goal": {
        "global_pose": {
            "orientation": {
                "w": -0.00223480608172531,
                "x": 0.0024358444001904467,
                "y": 0.7094548369677653,
                "z": -0.704743149386269
            },
            "position": {
                "x": -0.37947507619857795,
                "y": -0.6371506643295288,
                "z": 0.19426114857196808
            }
        },
        "name": "move_to_magneteinheit_C"
    },
    "id": "EST_move_to_magneteinheit_C_122",
    "joint_names": [
        "shoulder_pan_joint",
        "shoulder_lift_joint",
        "elbow_joint",
        "wrist_1_joint",
        "wrist_2_joint",
        "wrist_3_joint"
    ],
    "metrics": {
        "cart_traj_len": 1.0215413083323501,
        "distance_elbow_joint": 0.7952899226726076,
        "distance_shoulder_lift_joint": 0.5821249992047433,
        "distance_shoulder_pan_joint": 1.7142635132506452,
        "distance_wrist_1_joint": 0.5665400658913339,
        "distance_wrist_2_joint": 1.7435422679449408,
        "distance_wrist_3_joint": 0.9442614916119147,
        "smoothness": 1.433060064023432,
        "time": 2.317681865,
        "traj_len": 2.5191312511610398,
        "weighted_distance": 3.2472492324483335
    },
    "planner": "EST",
    "start": {
        "state": {
            "elbow_joint": 1.9565354010623817,
            "shoulder_lift_joint": -1.4165861575791021,
            "shoulder_pan_joint": -1.6717766225146293,
            "wrist_1_joint": -0.5286633292919765,
            "wrist_2_joint": 1.472756589071564,
            "wrist_3_joint": -3.1238370188695823
        }
    },
    "waypoints": [
        {
            "positions": [
                -1.6717766225146293,
                -1.4165861575791021,
                1.9565354010623817,
                -0.5286633292919765,
                1.472756589071564,
                -3.1238370188695823
            ]
        },
        {
            "positions": [
                -1.6248584874220375,
                -1.4987690456800267,
                2.0178419618838097,
                -0.5012441883891118,
                1.3196006644359937,
                -3.109637829955376
            ]
        },
        {
            "positions": [
                -1.5779403523294455,
                -1.5809519337809514,
                2.0791485227052373,
                -0.4738250474862471,
                1.1664447398004234,
                -3.09543864104117
            ]
        },
        {
            "positions": [
                -1.735336478381921,
                -1.5746322971559226,
                2.1167875749990523,
                -0.46416267658801813,
                1.045148772371444,
                -3.0414279029155455
            ]
        },
        {
            "positions": [
                -1.8927326044343964,
                -1.5683126605308937,
                2.1544266272928674,
                -0.45450030568978916,
                0.9238528049424648,
                -2.9874171647899206
            ]
        },
        {
            "positions": [
                -2.050128730486872,
                -1.5619930239058648,
                2.192065679586682,
                -0.44483793479156025,
                0.8025568375134854,
                -2.933406426664296
            ]
        },
        {
            "positions": [
                -2.2075248565393473,
                -1.555673387280836,
                2.229704731880497,
                -0.4351755638933313,
                0.6812608700845061,
                -2.879395688538671
            ]
        },
        {
            "positions": [
                -2.3649209825918227,
                -1.5493537506558068,
                2.267343784174312,
                -0.4255131929951023,
                0.5599649026555268,
                -2.8253849504130466
            ]
        },
        {
            "positions": [
                -2.522317108644298,
                -1.543034114030778,
                2.3049828364681266,
                -0.4158508220968734,
                0.4386689352265474,
                -2.771374212287422
            ]
        },
        {
            "positions": [
                -2.6797132346967736,
                -1.536714477405749,
                2.3426218887619417,
                -0.40618845119864444,
                0.3173729677975681,
                -2.717363474161797
            ]
        },
        {
            "positions": [
                -2.837109360749249,
                -1.5303948407807202,
                2.3802609410557567,
                -0.3965260803004155,
                0.19607700036858877,
                -2.6633527360361726
            ]
        },
        {
            "positions": [
                -2.7855010415141552,
                -1.4779373936374827,
                2.3271803149587234,
                -0.4585836255718116,
                0.2627716688317267,
                -2.7324637658616733
            ]
        },
        {
            "positions": [
                -2.733892722279061,
                -1.4254799464942451,
                2.2740996888616904,
                -0.5206411708432077,
                0.32946633729486463,
                -2.801574795687174
            ]
        },
        {
            "positions": [
                -2.682284403043967,
                -1.3730224993510076,
                2.221019062764657,
                -0.5826987161146038,
                0.39616100575800256,
                -2.8706858255126746
            ]
        },
        {
            "positions": [
                -2.630676083808873,
                -1.32056505220777,
                2.1679384366676238,
                -0.644756261386,
                0.4628556742211405,
                -2.9397968553381757
            ]
        },
        {
            "positions": [
                -2.579067764573779,
                -1.2681076050645326,
                2.1148578105705904,
                -0.7068138066573961,
                0.5295503426842785,
                -3.0089078851636764
            ]
        },
        {
            "positions": [
                -2.5274594453386854,
                -1.215650157921295,
                2.0617771844735575,
                -0.7688713519287922,
                0.5962450111474163,
                -3.078018914989177
            ]
        },
        {
            "positions": [
                -2.475851126103591,
                -1.1631927107780575,
                2.008696558376524,
                -0.8309288972001884,
                0.6629396796105543,
                -3.1471299448146777
            ]
        }
    ]
}