{
    "goal": {
        "global_pose": {
            "orientation": {
                "w": 0.005598929693374612,
                "x": 0.007748599140229565,
                "y": 0.7110244013736278,
                "z": -0.7031023480610252
            },
            "position": {
                "x": -0.8858502320852131,
                "y": -0.7141253447532654,
                "z": 0.3711530566215515
            }
        },
        "name": "move_to_auspresseinheit_C"
    },
    "id": "EST_move_to_auspresseinheit_C_88",
    "joint_names": [
        "shoulder_pan_joint",
        "shoulder_lift_joint",
        "elbow_joint",
        "wrist_1_joint",
        "wrist_2_joint",
        "wrist_3_joint"
    ],
    "metrics": {
        "cart_traj_len": 0.49201358773621784,
        "distance_elbow_joint": 0.9903963956227414,
        "distance_shoulder_lift_joint": 0.32048474126537907,
        "distance_shoulder_pan_joint": 0.25617445930960603,
        "distance_wrist_1_joint": 0.6629435390202282,
        "distance_wrist_2_joint": 1.3044773503892937,
        "distance_wrist_3_joint": 0.03980306770691877,
        "smoothness": 0.0,
        "time": 0.374176033,
        "traj_len": 1.8905765134778776,
        "weighted_distance": 2.3709294755722965
    },
    "planner": "EST",
    "start": {
        "state": {
            "elbow_joint": 1.7527959577737207,
            "shoulder_lift_joint": -0.9740617694225068,
            "shoulder_pan_joint": -2.967991417825858,
            "wrist_1_joint": -0.759517768980727,
            "wrist_2_joint": 1.7443932448377408,
            "wrist_3_joint": -3.0840537646736568
        }
    },
    "waypoints": [
        {
            "positions": [
                -2.967991417825858,
                -0.9740617694225068,
                1.7527959577737207,
                -0.759517768980727,
                1.7443932448377408,
                -3.0840537646736568
            ]
        },
        {
            "positions": [
                -2.9423739718948974,
                -0.9420132952959689,
                1.6537563182114465,
                -0.6932234150787042,
                1.6139455097988114,
                -3.0880340714443486
            ]
        },
        {
            "positions": [
                -2.9167565259639368,
                -0.909964821169431,
                1.5547166786491724,
                -0.6269290611766813,
                1.483497774759882,
                -3.0920143782150404
            ]
        },
        {
            "positions": [
                -2.891139080032976,
                -0.877916347042893,
                1.4556770390868983,
                -0.5606347072746585,
                1.3530500397209528,
                -3.0959946849857323
            ]
        },
        {
            "positions": [
                -2.8655216341020155,
                -0.8458678729163551,
                1.3566373995246241,
                -0.4943403533726357,
                1.2226023046820234,
                -3.099974991756424
            ]
        },
        {
            "positions": [
                -2.839904188171055,
                -0.8138193987898172,
                1.25759775996235,
                -0.4280459994706129,
                1.0921545696430939,
                -3.103955298527116
            ]
        },
        {
            "positions": [
                -2.8142867422400943,
                -0.7817709246632794,
                1.1585581204000759,
                -0.3617516455685901,
                0.9617068346041646,
                -3.107935605297808
            ]
        },
        {
            "positions": [
                -2.7886692963091337,
                -0.7497224505367415,
                1.0595184808378018,
                -0.2954572916665673,
                0.8312590995652354,
                -3.1119159120685
            ]
        },
        {
            "positions": [
                -2.763051850378173,
                -0.7176739764102036,
                0.9604788412755275,
                -0.22916293776454444,
                0.7008113645263059,
                -3.115896218839192
            ]
        },
        {
            "positions": [
                -2.7374344044472125,
                -0.6856255022836656,
                0.8614392017132534,
                -0.16286858386252157,
                0.5703636294873764,
                -3.1198765256098837
            ]
        },
        {
            "positions": [
                -2.711816958516252,
                -0.6535770281571277,
                0.7623995621509793,
                -0.09657422996049882,
                0.4399158944484472,
                -3.1238568323805755
            ]
        }
    ]
}