{
    "goal": {
        "global_pose": {
            "orientation": {
                "w": -0.00223480608172531,
                "x": 0.0024358444001904467,
                "y": 0.7094548369677653,
                "z": -0.704743149386269
            },
            "position": {
                "x": 0.6205249238014221,
                "y": -0.6371506643295288,
                "z": 0.19426114857196808
            }
        },
        "name": "move_to_magneteinheit_B"
    },
    "id": "EST_move_to_magneteinheit_B_141",
    "joint_names": [
        "shoulder_pan_joint",
        "shoulder_lift_joint",
        "elbow_joint",
        "wrist_1_joint",
        "wrist_2_joint",
        "wrist_3_joint"
    ],
    "metrics": {
        "cart_traj_len": 3.2077272499911156,
        "distance_elbow_joint": 5.05885070714352,
        "distance_shoulder_lift_joint": 1.4536680858702327,
        "distance_shoulder_pan_joint": 2.165947637917775,
        "distance_wrist_1_joint": 4.406033601513553,
        "distance_wrist_2_joint": 0.8429084636496588,
        "distance_wrist_3_joint": 4.280402111716621,
        "smoothness": 0.5057759639472947,
        "time": 2.3793752849999996,
        "traj_len": 4.267061120702557,
        "weighted_distance": 5.658405861760697
    },
    "planner": "EST",
    "start": {
        "state": {
            "elbow_joint": 2.6216224122426386,
            "shoulder_lift_joint": -1.4174107377796124,
            "shoulder_pan_joint": 0.7066234856936794,
            "wrist_1_joint": 1.9546482284002225,
            "wrist_2_joint": -0.7096286983471962,
            "wrist_3_joint": 0.005740856962016249
        }
    },
    "waypoints": [
        {
            "positions": [
                0.7066234856936794,
                -1.4174107377796124,
                2.6216224122426386,
                1.9546482284002225,
                -0.7096286983471962,
                0.005740856962016249
            ]
        },
        {
            "positions": [
                0.6725369742156417,
                -1.464533834818961,
                2.6913491812449104,
                1.924569476354552,
                -0.7597289025423897,
                -0.12727211912055494
            ]
        },
        {
            "positions": [
                0.6384504627376041,
                -1.5116569318583097,
                2.7610759502471818,
                1.8944907243088815,
                -0.809829106737583,
                -0.26028509520312615
            ]
        },
        {
            "positions": [
                0.69867605425739,
                -1.6434610662992908,
                2.769339702560985,
                1.8541888836038531,
                -0.7773480826271288,
                -0.14553277450797253
            ]
        },
        {
            "positions": [
                0.7589016457771758,
                -1.7752652007402716,
                2.7776034548747885,
                1.8138870428988247,
                -0.7448670585166746,
                -0.03078045381281891
            ]
        },
        {
            "positions": [
                0.8191272372969617,
                -1.9070693351812527,
                2.7858672071885917,
                1.7735852021937966,
                -0.7123860344062204,
                0.08397186688233471
            ]
        },
        {
            "positions": [
                0.8793528288167476,
                -2.0388734696222337,
                2.7941309595023953,
                1.7332833614887682,
                -0.6799050102957661,
                0.19872418757748833
            ]
        },
        {
            "positions": [
                0.9395784203365334,
                -2.1706776040632145,
                2.8023947118161985,
                1.6929815207837398,
                -0.6474239861853119,
                0.31347650827264195
            ]
        },
        {
            "positions": [
                1.0007989202799517,
                -2.1584284235869755,
                2.6394667856273424,
                1.5715325958138144,
                -0.6538007169483632,
                0.29262861634833565
            ]
        },
        {
            "positions": [
                1.0620194202233701,
                -2.1461792431107365,
                2.4765388594384863,
                1.4500836708438891,
                -0.6601774477114145,
                0.2717807244240294
            ]
        },
        {
            "positions": [
                1.1232399201667884,
                -2.133930062634497,
                2.31361093324963,
                1.3286347458739638,
                -0.6665541784744657,
                0.2509328324997231
            ]
        },
        {
            "positions": [
                1.184460420110207,
                -2.121680882158258,
                2.150683007060774,
                1.2071858209040385,
                -0.672930909237517,
                0.2300849405754168
            ]
        },
        {
            "positions": [
                1.2456809200536252,
                -2.109431701682019,
                1.9877550808719175,
                1.0857368959341132,
                -0.6793076400005683,
                0.20923704865111054
            ]
        },
        {
            "positions": [
                1.3069014199970437,
                -2.09718252120578,
                1.8248271546830614,
                0.9642879709641878,
                -0.6856843707636195,
                0.18838915672680426
            ]
        },
        {
            "positions": [
                1.368121919940462,
                -2.084933340729541,
                1.6618992284942053,
                0.8428390459942625,
                -0.6920611015266709,
                0.16754126480249795
            ]
        },
        {
            "positions": [
                1.4293424198838802,
                -2.0726841602533015,
                1.4989713023053493,
                0.7213901210243372,
                -0.6984378322897221,
                0.14669337287819167
            ]
        },
        {
            "positions": [
                1.490562919827299,
                -2.0604349797770625,
                1.336043376116493,
                0.5999411960544119,
                -0.7048145630527733,
                0.12584548095388537
            ]
        },
        {
            "positions": [
                1.5517834197707172,
                -2.0481857993008235,
                1.1731154499276368,
                0.47849227108448655,
                -0.7111912938158247,
                0.10499758902957909
            ]
        },
        {
            "positions": [
                1.6130039197141355,
                -2.0359366188245844,
                1.0101875237387807,
                0.35704334611456123,
                -0.7175680245788759,
                0.08414969710527281
            ]
        },
        {
            "positions": [
                1.6742244196575538,
                -2.0236874383483454,
                0.8472595975499246,
                0.2355944211446359,
                -0.7239447553419271,
                0.06330180518096656
            ]
        },
        {
            "positions": [
                1.7354449196009722,
                -2.011438257872106,
                0.6843316713610683,
                0.11414549617471059,
                -0.7303214861049785,
                0.0424539132566602
            ]
        },
        {
            "positions": [
                1.7966654195443907,
                -1.999189077395867,
                0.5214037451722122,
                -0.007303428795214728,
                -0.7366982168680297,
                0.021606021332353953
            ]
        },
        {
            "positions": [
                1.857885919487809,
                -1.986939896919628,
                0.3584758189833561,
                -0.12875235376514005,
                -0.743074947631081,
                0.000758129408047703
            ]
        },
        {
            "positions": [
                1.9191064194312273,
                -1.974690716443389,
                0.19554789279450002,
                -0.25020127873506537,
                -0.7494516783941323,
                -0.020089762516258602
            ]
        },
        {
            "positions": [
                1.9803269193746458,
                -1.9624415359671497,
                0.032619966605643924,
                -0.37165020370499047,
                -0.7558284091571835,
                -0.04093765444056485
            ]
        },
        {
            "positions": [
                2.0415474193180643,
                -1.9501923554909106,
                -0.13030795958321262,
                -0.493099128674916,
                -0.7622051399202348,
                -0.06178554636487121
            ]
        },
        {
            "positions": [
                2.1027679192614825,
                -1.9379431750146714,
                -0.2932358857720687,
                -0.6145480536448416,
                -0.7685818706832861,
                -0.08263343828917752
            ]
        },
        {
            "positions": [
                2.163988419204901,
                -1.9256939945384324,
                -0.4561638119609248,
                -0.7359969786147667,
                -0.7749586014463373,
                -0.10348133021348377
            ]
        },
        {
            "positions": [
                2.2252089191483195,
                -1.9134448140621934,
                -0.6190917381497809,
                -0.8574459035846922,
                -0.7813353322093886,
                -0.12432922213779007
            ]
        },
        {
            "positions": [
                2.2864294190917374,
                -1.9011956335859543,
                -0.782019664338637,
                -0.9788948285546173,
                -0.7877120629724399,
                -0.14517711406209632
            ]
        },
        {
            "positions": [
                2.347649919035156,
                -1.888946453109715,
                -0.9449475905274931,
                -1.1003437535245424,
                -0.7940887937354911,
                -0.16602500598640257
            ]
        },
        {
            "positions": [
                2.4088704189785743,
                -1.876697272633476,
                -1.1078755167163492,
                -1.221792678494468,
                -0.8004655244985424,
                -0.18687289791070882
            ]
        },
        {
            "positions": [
                2.4700909189219926,
                -1.8644480921572368,
                -1.2708034429052057,
                -1.3432416034643935,
                -0.8068422552615937,
                -0.20772078983501518
            ]
        },
        {
            "positions": [
                2.5313114188654113,
                -1.8521989116809978,
                -1.4337313690940618,
                -1.4646905284343186,
                -0.8132189860246449,
                -0.22856868175932155
            ]
        },
        {
            "positions": [
                2.5925319188088296,
                -1.8399497312047586,
                -1.596659295282918,
                -1.5861394534042441,
                -0.8195957167876963,
                -0.2494165736836278
            ]
        },
        {
            "positions": [
                2.653752418752248,
                -1.8277005507285196,
                -1.7595872214717745,
                -1.7075883783741694,
                -0.8259724475507475,
                -0.27026446560793405
            ]
        },
        {
            "positions": [
                2.662662311443195,
                -1.8574833201731622,
                -1.780395936681484,
                -1.771755786172206,
                -0.8315026250636,
                -0.491545823767281
            ]
        },
        {
            "positions": [
                2.671572204134142,
                -1.8872660896178048,
                -1.8012046518911937,
                -1.8359231939702425,
                -0.8370328025764523,
                -0.712827181926628
            ]
        },
        {
            "positions": [
                2.680482096825089,
                -1.9170488590624477,
                -1.8220133671009031,
                -1.9000906017682793,
                -0.8425629800893047,
                -0.9341085400859749
            ]
        },
        {
            "positions": [
                2.689391989516036,
                -1.9468316285070904,
                -1.8428220823106127,
                -1.9642580095663158,
                -0.8480931576021571,
                -1.155389898245322
            ]
        },
        {
            "positions": [
                2.698301882206983,
                -1.976614397951733,
                -1.8636307975203223,
                -2.0284254173643523,
                -0.8536233351150095,
                -1.3766712564046688
            ]
        },
        {
            "positions": [
                2.6935614827704426,
                -2.0026781878303233,
                -1.8371241852411424,
                -2.0812954118329747,
                -0.8068603868928467,
                -1.5954796053294689
            ]
        },
        {
            "positions": [
                2.6888210833339024,
                -2.0287419777089135,
                -1.8106175729619625,
                -2.1341654063015967,
                -0.7600974386706837,
                -1.814287954254269
            ]
        },
        {
            "positions": [
                2.6840806838973625,
                -2.0548057675875038,
                -1.7841109606827825,
                -2.1870354007702186,
                -0.7133344904485208,
                -2.033096303179069
            ]
        },
        {
            "positions": [
                2.6793402844608223,
                -2.080869557466094,
                -1.7576043484036026,
                -2.239905395238841,
                -0.6665715422263578,
                -2.2519046521038693
            ]
        },
        {
            "positions": [
                2.674599885024282,
                -2.1069333473446843,
                -1.7310977361244226,
                -2.2927753897074634,
                -0.619808594004195,
                -2.4707130010286695
            ]
        },
        {
            "positions": [
                2.669859485587742,
                -2.1329971372232746,
                -1.7045911238452427,
                -2.3456453841760854,
                -0.5730456457820321,
                -2.6895213499534694
            ]
        },
        {
            "positions": [
                2.665119086151202,
                -2.159060927101865,
                -1.6780845115660628,
                -2.3985153786447073,
                -0.5262826975598691,
                -2.908329698878269
            ]
        },
        {
            "positions": [
                2.6603786867146617,
                -2.185124716980455,
                -1.6515778992868828,
                -2.4513853731133297,
                -0.47951974933770625,
                -3.1271380478030695
            ]
        }
    ]
}