{
    "goal": {
        "global_pose": {
            "orientation": {
                "w": 0.7047431468963623,
                "x": -0.7094548344612122,
                "y": 0.0024358443915843964,
                "z": -0.0022348060738295317
            },
            "position": {
                "x": 0.6094750761985779,
                "y": 0.3671506643295288,
                "z": 0.19426114857196808
            }
        },
        "name": "move_to_magneteinheit_A"
    },
    "id": "EST_move_to_magneteinheit_A_35",
    "joint_names": [
        "shoulder_pan_joint",
        "shoulder_lift_joint",
        "elbow_joint",
        "wrist_1_joint",
        "wrist_2_joint",
        "wrist_3_joint"
    ],
    "metrics": {
        "cart_traj_len": 3.6930611547597505,
        "distance_elbow_joint": 3.876481941627323,
        "distance_shoulder_lift_joint": 0.37470687648351664,
        "distance_shoulder_pan_joint": 3.8434191653666563,
        "distance_wrist_1_joint": 0.9416646573217077,
        "distance_wrist_2_joint": 1.700994765476334,
        "distance_wrist_3_joint": 2.5897917197566946,
        "smoothness": 0.19894746860982343,
        "time": 0.077579128,
        "traj_len": 3.650624484390612,
        "weighted_distance": 4.598837025634161
    },
    "planner": "EST",
    "start": {
        "state": {
            "elbow_joint": -1.9196185241190666,
            "shoulder_lift_joint": -1.2443396400964142,
            "shoulder_pan_joint": 2.6996025414629847,
            "wrist_1_joint": -1.5485510000780065,
            "wrist_2_joint": -1.5709468930060704,
            "wrist_3_joint": 0.4420197071253992
        }
    },
    "waypoints": [
        {
            "positions": [
                2.6996025414629847,
                -1.2443396400964142,
                -1.9196185241190666,
                -1.5485510000780065,
                -1.5709468930060704,
                0.4420197071253992
            ]
        },
        {
            "positions": [
                2.5761594908032053,
                -1.2493869233703174,
                -1.7988071487832271,
                -1.5144012682806767,
                -1.525249980719213,
                0.49665796428401776
            ]
        },
        {
            "positions": [
                2.452716440143426,
                -1.2544342066442207,
                -1.6779957734473876,
                -1.480251536483347,
                -1.4795530684323557,
                0.5512962214426363
            ]
        },
        {
            "positions": [
                2.3292733894836464,
                -1.259481489918124,
                -1.5571843981115483,
                -1.4461018046860172,
                -1.4338561561454983,
                0.6059344786012548
            ]
        },
        {
            "positions": [
                2.205830338823867,
                -1.2645287731920274,
                -1.4363730227757088,
                -1.4119520728886876,
                -1.3881592438586408,
                0.6605727357598734
            ]
        },
        {
            "positions": [
                2.082387288164087,
                -1.2695760564659306,
                -1.3155616474398695,
                -1.3778023410913578,
                -1.3424623315717834,
                0.715210992918492
            ]
        },
        {
            "positions": [
                1.9589442375043078,
                -1.2746233397398339,
                -1.19475027210403,
                -1.3436526092940282,
                -1.296765419284926,
                0.7698492500771106
            ]
        },
        {
            "positions": [
                1.8355011868445283,
                -1.2796706230137371,
                -1.0739388967681904,
                -1.3095028774966984,
                -1.2510685069980687,
                0.8244875072357292
            ]
        },
        {
            "positions": [
                1.7120581361847487,
                -1.2847179062876404,
                -0.9531275214323509,
                -1.2753531456993688,
                -1.2053715947112114,
                0.8791257643943478
            ]
        },
        {
            "positions": [
                1.5886150855249694,
                -1.2897651895615436,
                -0.8323161460965116,
                -1.241203413902039,
                -1.159674682424354,
                0.9337640215529663
            ]
        },
        {
            "positions": [
                1.4651720348651898,
                -1.294812472835447,
                -0.7115047707606721,
                -1.2070536821047093,
                -1.1139777701374964,
                0.9884022787115849
            ]
        },
        {
            "positions": [
                1.3417289842054103,
                -1.2998597561093503,
                -0.5906933954248326,
                -1.1729039503073795,
                -1.068280857850639,
                1.0430405358702033
            ]
        },
        {
            "positions": [
                1.2182859335456309,
                -1.3049070393832536,
                -0.46988202008899305,
                -1.1387542185100499,
                -1.0225839455637817,
                1.0976787930288219
            ]
        },
        {
            "positions": [
                1.0948428828858514,
                -1.3099543226571568,
                -0.34907064475315375,
                -1.10460448671272,
                -0.9768870332769244,
                1.1523170501874405
            ]
        },
        {
            "positions": [
                0.971399832226072,
                -1.31500160593106,
                -0.22825926941731445,
                -1.0704547549153904,
                -0.931190120990067,
                1.206955307346059
            ]
        },
        {
            "positions": [
                0.8479567815662925,
                -1.3200488892049633,
                -0.10744789408147493,
                -1.0363050231180608,
                -0.8854932087032097,
                1.2615935645046776
            ]
        },
        {
            "positions": [
                0.7245137309065128,
                -1.3250961724788666,
                0.013363481254364817,
                -1.0021552913207308,
                -0.8397962964163522,
                1.3162318216632962
            ]
        },
        {
            "positions": [
                0.6010706802467336,
                -1.33014345575277,
                0.1341748565902039,
                -0.9680055595234012,
                -0.7940993841294949,
                1.3708700788219148
            ]
        },
        {
            "positions": [
                0.47762762958695415,
                -1.3351907390266733,
                0.2549862319260434,
                -0.9338558277260715,
                -0.7484024718426375,
                1.4255083359805334
            ]
        },
        {
            "positions": [
                0.3541845789271747,
                -1.3402380223005765,
                0.37579760726188294,
                -0.8997060959287418,
                -0.7027055595557802,
                1.480146593139152
            ]
        },
        {
            "positions": [
                0.2307415282673948,
                -1.3452853055744798,
                0.49660898259772246,
                -0.865556364131412,
                -0.6570086472689226,
                1.5347848502977706
            ]
        },
        {
            "positions": [
                0.10729847760761535,
                -1.350332588848383,
                0.617420357933562,
                -0.8314066323340823,
                -0.6113117349820653,
                1.5894231074563892
            ]
        },
        {
            "positions": [
                -0.016144573052164102,
                -1.3553798721222863,
                0.7382317332694015,
                -0.7972569005367526,
                -0.565614822695208,
                1.6440613646150077
            ]
        },
        {
            "positions": [
                -0.13958762371194355,
                -1.3604271553961897,
                0.8590431086052406,
                -0.7631071687394229,
                -0.5199179104083507,
                1.6986996217736263
            ]
        },
        {
            "positions": [
                -0.263030674371723,
                -1.365474438670093,
                0.9798544839410805,
                -0.7289574369420931,
                -0.4742209981214931,
                1.753337878932245
            ]
        },
        {
            "positions": [
                -0.38647372503150246,
                -1.3705217219439962,
                1.1006658592769196,
                -0.6948077051447634,
                -0.42852408583463575,
                1.8079761360908635
            ]
        },
        {
            "positions": [
                -0.509916775691282,
                -1.3755690052178995,
                1.2214772346127591,
                -0.6606579733474337,
                -0.3828271735477785,
                1.862614393249482
            ]
        },
        {
            "positions": [
                -0.43948345922323884,
                -1.348515948399896,
                1.3031868104900364,
                -0.6666325989686709,
                -0.3258410573235517,
                1.9925251747642168
            ]
        },
        {
            "positions": [
                -0.36905014275519565,
                -1.3214628915818925,
                1.3848963863673136,
                -0.6726072245899081,
                -0.26885494109932484,
                2.1224359562789514
            ]
        },
        {
            "positions": [
                -0.29861682628715247,
                -1.294409834763889,
                1.4666059622445908,
                -0.6785818502111454,
                -0.211868824875098,
                2.252346737793686
            ]
        },
        {
            "positions": [
                -0.2281835098191093,
                -1.2673567779458856,
                1.548315538121868,
                -0.6845564758323825,
                -0.15488270865087117,
                2.382257519308421
            ]
        },
        {
            "positions": [
                -0.1577501933510661,
                -1.240303721127882,
                1.6300251139991453,
                -0.6905311014536197,
                -0.09789659242664428,
                2.5121683008231552
            ]
        },
        {
            "positions": [
                -0.08731687688302292,
                -1.2132506643098786,
                1.7117346898764225,
                -0.6965057270748569,
                -0.0409104762024175,
                2.64207908233789
            ]
        },
        {
            "positions": [
                -0.016883560414979737,
                -1.1861976074918752,
                1.7934442657536998,
                -0.7024803526960942,
                0.01607564002180939,
                2.7719898638526246
            ]
        },
        {
            "positions": [
                0.053549756053063446,
                -1.1591445506738716,
                1.875153841630977,
                -0.7084549783173314,
                0.07306175624603617,
                2.901900645367359
            ]
        },
        {
            "positions": [
                0.12398307252110662,
                -1.1320914938558682,
                1.9568634175082542,
                -0.7144296039385686,
                0.13004787247026312,
                3.031811426882094
            ]
        }
    ]
}