{
    "goal": {
        "global_pose": {
            "orientation": {
                "w": 0.7047431493862688,
                "x": -0.7094548369677653,
                "y": 0.0024358444001904,
                "z": -0.0022348060817251984
            },
            "position": {
                "x": -0.39052492380142206,
                "y": 0.3671506643295288,
                "z": 0.19426114857196808
            }
        },
        "name": "move_to_magneteinheit_D"
    },
    "id": "EST_move_to_magneteinheit_D_47",
    "joint_names": [
        "shoulder_pan_joint",
        "shoulder_lift_joint",
        "elbow_joint",
        "wrist_1_joint",
        "wrist_2_joint",
        "wrist_3_joint"
    ],
    "metrics": {
        "cart_traj_len": 4.260684258401705,
        "distance_elbow_joint": 4.67604262311286,
        "distance_shoulder_lift_joint": 2.5098312990067146,
        "distance_shoulder_pan_joint": 4.276533818014987,
        "distance_wrist_1_joint": 2.9628018136183782,
        "distance_wrist_2_joint": 0.9329259482016574,
        "distance_wrist_3_joint": 3.2462870005793425,
        "smoothness": 0.8967386640836084,
        "time": 0.410617707,
        "traj_len": 4.313284421706263,
        "weighted_distance": 5.3844892297703275
    },
    "planner": "EST",
    "start": {
        "state": {
            "elbow_joint": 0.749534889911806,
            "shoulder_lift_joint": -0.6476975780787326,
            "shoulder_pan_joint": -2.711696901376241,
            "wrist_1_joint": -0.07506478083263063,
            "wrist_2_joint": 0.43296659715538205,
            "wrist_3_joint": -3.14703540197715
        }
    },
    "waypoints": [
        {
            "positions": [
                -2.711696901376241,
                -0.6476975780787326,
                0.749534889911806,
                -0.07506478083263063,
                0.43296659715538205,
                -3.14703540197715
            ]
        },
        {
            "positions": [
                -2.735410850913244,
                -0.5594299407606236,
                0.6042203622821164,
                -0.10349049671546016,
                0.47991052371271054,
                -3.129217632063155
            ]
        },
        {
            "positions": [
                -2.7591248004502478,
                -0.47116230344251464,
                0.4589058346524269,
                -0.1319162125982897,
                0.5268544502700391,
                -3.1113998621491596
            ]
        },
        {
            "positions": [
                -2.782838749987251,
                -0.38289466612440565,
                0.31359130702273735,
                -0.16034192848111922,
                0.5737983768273676,
                -3.093582092235165
            ]
        },
        {
            "positions": [
                -2.8065526995242545,
                -0.2946270288062966,
                0.16827677939304786,
                -0.18876764436394877,
                0.620742303384696,
                -3.0757643223211697
            ]
        },
        {
            "positions": [
                -2.8302666490612576,
                -0.2063593914881876,
                0.022962251763358296,
                -0.21719336024677832,
                0.6676862299420245,
                -3.0579465524071745
            ]
        },
        {
            "positions": [
                -2.8067635182916373,
                -0.3505353677869658,
                0.1125677700695997,
                -0.17278810950715917,
                0.6606416138440533,
                -2.9945099657271372
            ]
        },
        {
            "positions": [
                -2.7832603875220165,
                -0.49471134408574396,
                0.2021732883758411,
                -0.12838285876754005,
                0.653596997746082,
                -2.9310733790471
            ]
        },
        {
            "positions": [
                -2.7597572567523962,
                -0.6388873203845222,
                0.2917788066820825,
                -0.08397760802792092,
                0.6465523816481109,
                -2.8676367923670623
            ]
        },
        {
            "positions": [
                -2.7362541259827755,
                -0.7830632966833003,
                0.3813843249883239,
                -0.039572357288301774,
                0.6395077655501397,
                -2.804200205687025
            ]
        },
        {
            "positions": [
                -2.712750995213155,
                -0.9272392729820785,
                0.4709898432945653,
                0.004832893451317349,
                0.6324631494521684,
                -2.7407636190069877
            ]
        },
        {
            "positions": [
                -2.5911201138919098,
                -0.9483978712117519,
                0.35305462995822645,
                0.07944004973362657,
                0.6117259640166373,
                -2.7106035512125852
            ]
        },
        {
            "positions": [
                -2.469489232570664,
                -0.9695564694414253,
                0.23511941662188762,
                0.1540472060159358,
                0.5909887785811061,
                -2.6804434834181827
            ]
        },
        {
            "positions": [
                -2.3478583512494184,
                -0.9907150676710987,
                0.1171842032855488,
                0.22865436229824504,
                0.570251593145575,
                -2.6502834156237802
            ]
        },
        {
            "positions": [
                -2.2262274699281726,
                -1.011873665900772,
                -0.0007510100507900352,
                0.3032615185805543,
                0.5495144077100439,
                -2.6201233478293777
            ]
        },
        {
            "positions": [
                -2.104596588606927,
                -1.0330322641304455,
                -0.11868622338712886,
                0.37786867486286346,
                0.5287772222745127,
                -2.5899632800349757
            ]
        },
        {
            "positions": [
                -1.9829657072856814,
                -1.0541908623601188,
                -0.2366214367234677,
                0.45247583114517276,
                0.5080400368389816,
                -2.559803212240573
            ]
        },
        {
            "positions": [
                -1.8613348259644358,
                -1.0753494605897922,
                -0.3545566500598065,
                0.5270829874274819,
                0.48730285140345053,
                -2.5296431444461707
            ]
        },
        {
            "positions": [
                -1.7397039446431901,
                -1.0965080588194656,
                -0.47249186339614535,
                0.6016901437097911,
                0.4665656659679194,
                -2.499483076651768
            ]
        },
        {
            "positions": [
                -1.6180730633219444,
                -1.117666657049139,
                -0.5904270767324843,
                0.6762972999921004,
                0.4458284805323882,
                -2.4693230088573657
            ]
        },
        {
            "positions": [
                -1.4964421820006988,
                -1.1388252552788123,
                -0.708362290068823,
                0.7509044562744096,
                0.42509129509685706,
                -2.439162941062963
            ]
        },
        {
            "positions": [
                -1.3748113006794533,
                -1.1599838535084857,
                -0.826297503405162,
                0.8255116125567188,
                0.40435410966132596,
                -2.4090028732685607
            ]
        },
        {
            "positions": [
                -1.2531804193582077,
                -1.1811424517381592,
                -0.9442327167415007,
                0.9001187688390281,
                0.38361692422579485,
                -2.378842805474158
            ]
        },
        {
            "positions": [
                -1.131549538036962,
                -1.2023010499678326,
                -1.0621679300778397,
                0.9747259251213373,
                0.3628797387902637,
                -2.3486827376797557
            ]
        },
        {
            "positions": [
                -1.0099186567157163,
                -1.223459648197506,
                -1.1801031434141782,
                1.0493330814036466,
                0.3421425533547326,
                -2.318522669885353
            ]
        },
        {
            "positions": [
                -0.8882877753944705,
                -1.2446182464271793,
                -1.2980383567505176,
                1.123940237685956,
                0.3214053679192014,
                -2.2883626020909507
            ]
        },
        {
            "positions": [
                -0.766656894073225,
                -1.2657768446568527,
                -1.415973570086856,
                1.198547393968265,
                0.3006681824836703,
                -2.258202534296548
            ]
        },
        {
            "positions": [
                -0.6450260127519791,
                -1.286935442886526,
                -1.533908783423195,
                1.2731545502505743,
                0.2799309970481391,
                -2.2280424665021457
            ]
        },
        {
            "positions": [
                -0.5233951314307337,
                -1.3080940411161994,
                -1.651843996759534,
                1.3477617065328835,
                0.259193811612608,
                -2.1978823987077436
            ]
        },
        {
            "positions": [
                -0.4017642501094878,
                -1.3292526393458728,
                -1.769779210095873,
                1.4223688628151927,
                0.23845662617707686,
                -2.167722330913341
            ]
        },
        {
            "positions": [
                -0.28013336878824235,
                -1.3504112375755462,
                -1.8877144234322114,
                1.4969760190975019,
                0.21771944074154576,
                -2.1375622631189386
            ]
        },
        {
            "positions": [
                -0.1585024874669969,
                -1.3715698358052197,
                -2.0056496367685503,
                1.5715831753798113,
                0.1969822553060146,
                -2.107402195324536
            ]
        },
        {
            "positions": [
                -0.03687160614575147,
                -1.3927284340348929,
                -2.1235848501048893,
                1.6461903316621203,
                0.1762450698704835,
                -2.0772421275301336
            ]
        },
        {
            "positions": [
                0.08475927517549442,
                -1.4138870322645665,
                -2.2415200634412282,
                1.7207974879444297,
                0.15550788443495234,
                -2.047082059735731
            ]
        },
        {
            "positions": [
                0.20639015649673986,
                -1.4350456304942396,
                -2.3594552767775667,
                1.7954046442267388,
                0.13477069899942123,
                -2.0169219919413286
            ]
        },
        {
            "positions": [
                0.32802103781798575,
                -1.4562042287239132,
                -2.4773904901139057,
                1.8700118005090482,
                0.11403351356389013,
                -1.986761924146926
            ]
        },
        {
            "positions": [
                0.4496519191392312,
                -1.4773628269535866,
                -2.5953257034502446,
                1.9446189567913572,
                0.09329632812835897,
                -1.9566018563525238
            ]
        },
        {
            "positions": [
                0.5712828004604771,
                -1.49852142518326,
                -2.7132609167865835,
                2.0192261130736666,
                0.07255914269282782,
                -1.9264417885581213
            ]
        },
        {
            "positions": [
                0.5082482487264575,
                -1.5632156817433513,
                -2.6868282806739123,
                1.9705382996666843,
                0.08114907837331267,
                -1.7576340062947617
            ]
        },
        {
            "positions": [
                0.44521369699243785,
                -1.6279099383034428,
                -2.660395644561241,
                1.9218504862597021,
                0.08973901405379753,
                -1.5888262240314024
            ]
        },
        {
            "positions": [
                0.3821791452584182,
                -1.6926041948635344,
                -2.6339630084485703,
                1.87316267285272,
                0.09832894973428238,
                -1.4200184417680428
            ]
        },
        {
            "positions": [
                0.31914459352439856,
                -1.7572984514236256,
                -2.607530372335899,
                1.8244748594457376,
                0.10691888541476723,
                -1.2512106595046832
            ]
        },
        {
            "positions": [
                0.2561100417903789,
                -1.8219927079837173,
                -2.581097736223228,
                1.7757870460387553,
                0.1155088210952521,
                -1.0824028772413237
            ]
        },
        {
            "positions": [
                0.19307549005635927,
                -1.8866869645438087,
                -2.5546651001105567,
                1.7270992326317731,
                0.12409875677573694,
                -0.9135950949779641
            ]
        },
        {
            "positions": [
                0.1300409383223396,
                -1.9513812211039,
                -2.5282324639978855,
                1.678411419224791,
                0.13268869245622178,
                -0.7447873127146045
            ]
        },
        {
            "positions": [
                0.06700638658832003,
                -2.0160754776639918,
                -2.5017998278852143,
                1.6297236058178086,
                0.14127862813670664,
                -0.5759795304512452
            ]
        },
        {
            "positions": [
                0.003971834854300305,
                -2.080769734224083,
                -2.475367191772543,
                1.5810357924108263,
                0.1498685638171915,
                -0.4071717481878856
            ]
        },
        {
            "positions": [
                -0.05906271687971931,
                -2.1454639907841746,
                -2.4489345556598723,
                1.5323479790038441,
                0.15845849949767637,
                -0.2383639659245258
            ]
        },
        {
            "positions": [
                -0.12209726861373893,
                -2.210158247344266,
                -2.422501919547201,
                1.483660165596862,
                0.1670484351781612,
                -0.06955618366116645
            ]
        },
        {
            "positions": [
                -0.1851318203477586,
                -2.2748525039043574,
                -2.39606928343453,
                1.4349723521898796,
                0.17563837085864606,
                0.09925159860219292
            ]
        }
    ]
}