{
    "goal": {
        "global_pose": {
            "orientation": {
                "w": 0.7031023480610252,
                "x": -0.7110244013736278,
                "y": 0.0077485991402295624,
                "z": 0.005598929693374583
            },
            "position": {
                "x": -0.8841497679147869,
                "y": 0.44412534475326537,
                "z": 0.3711530566215515
            }
        },
        "name": "move_to_auspresseinheit_D"
    },
    "id": "EST_move_to_auspresseinheit_D_82",
    "joint_names": [
        "shoulder_pan_joint",
        "shoulder_lift_joint",
        "elbow_joint",
        "wrist_1_joint",
        "wrist_2_joint",
        "wrist_3_joint"
    ],
    "metrics": {
        "cart_traj_len": 0.3436938869485148,
        "distance_elbow_joint": 0.6435316605593246,
        "distance_shoulder_lift_joint": 0.12416320862749686,
        "distance_shoulder_pan_joint": 0.1341918326831399,
        "distance_wrist_1_joint": 0.5441196799978267,
        "distance_wrist_2_joint": 1.447184266042842,
        "distance_wrist_3_joint": 0.011306179229485736,
        "smoothness": 1.9737298371844314e-16,
        "time": 0.025948076,
        "traj_len": 1.704258439069649,
        "weighted_distance": 2.2177495646803216
    },
    "planner": "EST",
    "start": {
        "state": {
            "elbow_joint": -1.8275523626775212,
            "shoulder_lift_joint": -2.126789852344167,
            "shoulder_pan_joint": -0.03513704404078235,
            "wrist_1_joint": -2.347782403156801,
            "wrist_2_joint": -1.6058999987535132,
            "wrist_3_joint": -3.0880379163319196
        }
    },
    "waypoints": [
        {
            "positions": [
                -0.03513704404078235,
                -2.126789852344167,
                -1.8275523626775212,
                -2.347782403156801,
                -1.6058999987535132,
                -3.0880379163319196
            ]
        },
        {
            "positions": [
                -0.051911023126174835,
                -2.142310253422604,
                -1.7471109051076057,
                -2.4157973631565293,
                -1.4250019654981578,
                -3.086624643928234
            ]
        },
        {
            "positions": [
                -0.06868500221156731,
                -2.157830654501041,
                -1.66666944753769,
                -2.4838123231562577,
                -1.2441039322428027,
                -3.085211371524548
            ]
        },
        {
            "positions": [
                -0.08545898129695981,
                -2.173351055579478,
                -1.5862279899677745,
                -2.551827283155986,
                -1.0632058989874476,
                -3.0837980991208624
            ]
        },
        {
            "positions": [
                -0.1022329603823523,
                -2.1888714566579153,
                -1.5057865323978588,
                -2.6198422431557145,
                -0.8823078657320922,
                -3.0823848267171767
            ]
        },
        {
            "positions": [
                -0.1190069394677448,
                -2.2043918577363524,
                -1.4253450748279433,
                -2.6878572031554424,
                -0.7014098324767369,
                -3.080971554313491
            ]
        },
        {
            "positions": [
                -0.13578091855313726,
                -2.2199122588147895,
                -1.3449036172580278,
                -2.755872163155171,
                -0.5205117992213817,
                -3.0795582819098053
            ]
        },
        {
            "positions": [
                -0.15255489763852975,
                -2.2354326598932266,
                -1.264462159688112,
                -2.823887123154899,
                -0.33961376596602655,
                -3.0781450095061196
            ]
        },
        {
            "positions": [
                -0.16932887672392224,
                -2.2509530609716637,
                -1.1840207021181965,
                -2.8919020831546276,
                -0.15871573271067113,
                -3.076731737102434
            ]
        }
    ]
}