{
    "goal": {
        "global_pose": {
            "orientation": {
                "w": 0.7031023480610252,
                "x": -0.7110244013736278,
                "y": 0.0077485991402295624,
                "z": 0.005598929693374583
            },
            "position": {
                "x": -0.8841497679147869,
                "y": 0.44412534475326537,
                "z": 0.3711530566215515
            }
        },
        "name": "move_to_auspresseinheit_D"
    },
    "id": "EST_move_to_auspresseinheit_D_87",
    "joint_names": [
        "shoulder_pan_joint",
        "shoulder_lift_joint",
        "elbow_joint",
        "wrist_1_joint",
        "wrist_2_joint",
        "wrist_3_joint"
    ],
    "metrics": {
        "cart_traj_len": 0.3439740244054483,
        "distance_elbow_joint": 0.6577380411120366,
        "distance_shoulder_lift_joint": 0.13242144454267502,
        "distance_shoulder_pan_joint": 0.13402047317237206,
        "distance_wrist_1_joint": 0.5928448506478063,
        "distance_wrist_2_joint": 1.4346396936211898,
        "distance_wrist_3_joint": 0.041197915748444114,
        "smoothness": 0.0,
        "time": 0.066388284,
        "traj_len": 1.7299891383602743,
        "weighted_distance": 2.2589251414357245
    },
    "planner": "EST",
    "start": {
        "state": {
            "elbow_joint": -1.8275523626775212,
            "shoulder_lift_joint": -2.126789852344167,
            "shoulder_pan_joint": -0.03513704404078235,
            "wrist_1_joint": -2.347782403156801,
            "wrist_2_joint": -1.6058999987535132,
            "wrist_3_joint": -3.0880379163319196
        }
    },
    "waypoints": [
        {
            "positions": [
                -0.03513704404078235,
                -2.126789852344167,
                -1.8275523626775212,
                -2.347782403156801,
                -1.6058999987535132,
                -3.0880379163319196
            ]
        },
        {
            "positions": [
                -0.05188960318732885,
                -2.1433425329120013,
                -1.7453351075385166,
                -2.421888009487777,
                -1.4265700370508645,
                -3.082888176863364
            ]
        },
        {
            "positions": [
                -0.06864216233387536,
                -2.1598952134798357,
                -1.663117852399512,
                -2.4959936158187523,
                -1.2472400753482158,
                -3.0777384373948085
            ]
        },
        {
            "positions": [
                -0.08539472148042188,
                -2.17644789404767,
                -1.5809005972605075,
                -2.5700992221497283,
                -1.067910113645567,
                -3.072588697926253
            ]
        },
        {
            "positions": [
                -0.10214728062696837,
                -2.193000574615504,
                -1.498683342121503,
                -2.644204828480704,
                -0.8885801519429183,
                -3.0674389584576973
            ]
        },
        {
            "positions": [
                -0.1188998397735149,
                -2.2095532551833386,
                -1.4164660869824983,
                -2.7183104348116798,
                -0.7092501902402696,
                -3.062289218989142
            ]
        },
        {
            "positions": [
                -0.1356523989200614,
                -2.226105935751173,
                -1.3342488318434937,
                -2.7924160411426557,
                -0.5299202285376208,
                -3.0571394795205866
            ]
        },
        {
            "positions": [
                -0.1524049580666079,
                -2.2426586163190074,
                -1.2520315767044892,
                -2.8665216474736317,
                -0.3505902668349721,
                -3.051989740052031
            ]
        },
        {
            "positions": [
                -0.16915751721315442,
                -2.259211296886842,
                -1.1698143215654846,
                -2.940627253804607,
                -0.1712603051323233,
                -3.0468400005834755
            ]
        }
    ]
}