{
    "goal": {
        "global_pose": {
            "orientation": {
                "w": 0.005598929693374612,
                "x": 0.007748599140229565,
                "y": 0.7110244013736278,
                "z": -0.7031023480610252
            },
            "position": {
                "x": 0.1141497679147869,
                "y": -0.7141253447532654,
                "z": 0.3711530566215515
            }
        },
        "name": "move_to_auspresseinheit_B"
    },
    "id": "EST_move_to_auspresseinheit_B_44",
    "joint_names": [
        "shoulder_pan_joint",
        "shoulder_lift_joint",
        "elbow_joint",
        "wrist_1_joint",
        "wrist_2_joint",
        "wrist_3_joint"
    ],
    "metrics": {
        "cart_traj_len": 0.5652415726771254,
        "distance_elbow_joint": 0.06517764033059303,
        "distance_shoulder_lift_joint": 0.2938509385638062,
        "distance_shoulder_pan_joint": 0.5794526259946613,
        "distance_wrist_1_joint": 0.33713264602043047,
        "distance_wrist_2_joint": 0.9850852276339768,
        "distance_wrist_3_joint": 0.008549169355117847,
        "smoothness": 0.0,
        "time": 0.21215140300000002,
        "traj_len": 1.5064024189766112,
        "weighted_distance": 1.8996221888215636
    },
    "planner": "EST",
    "start": {
        "state": {
            "elbow_joint": 2.0193083361928714,
            "shoulder_lift_joint": -1.1220246554650708,
            "shoulder_pan_joint": -1.0952077554168747,
            "wrist_1_joint": -0.8559753972642168,
            "wrist_2_joint": 0.4759566250798843,
            "wrist_3_joint": -3.1240929996934557
        }
    },
    "waypoints": [
        {
            "positions": [
                -1.0952077554168747,
                -1.1220246554650708,
                2.0193083361928714,
                -0.8559753972642168,
                0.4759566250798843,
                -3.1240929996934557
            ]
        },
        {
            "positions": [
                -1.1917831930826515,
                -1.170999811892372,
                2.0084453961377724,
                -0.7997866229274784,
                0.6401374963522137,
                -3.1226681381342694
            ]
        },
        {
            "positions": [
                -1.2883586307484285,
                -1.2199749683196728,
                1.9975824560826738,
                -0.74359784859074,
                0.8043183676245431,
                -3.121243276575083
            ]
        },
        {
            "positions": [
                -1.3849340684142053,
                -1.2689501247469739,
                1.9867195160275748,
                -0.6874090742540016,
                0.9684992388968727,
                -3.1198184150158967
            ]
        },
        {
            "positions": [
                -1.481509506079982,
                -1.317925281174275,
                1.975856575972476,
                -0.6312202999172631,
                1.1326801101692021,
                -3.1183935534567104
            ]
        },
        {
            "positions": [
                -1.5780849437457591,
                -1.3669004376015759,
                1.9649936359173772,
                -0.5750315255805247,
                1.2968609814415317,
                -3.116968691897524
            ]
        },
        {
            "positions": [
                -1.674660381411536,
                -1.415875594028877,
                1.9541306958622784,
                -0.5188427512437863,
                1.4610418527138611,
                -3.115543830338338
            ]
        }
    ]
}