{
    "goal": {
        "global_pose": {
            "orientation": {
                "w": 0.7031023502349854,
                "x": -0.7110244035720825,
                "y": 0.007748599164187908,
                "z": 0.005598929710686207
            },
            "position": {
                "x": 0.11585023208521307,
                "y": 0.44412534475326537,
                "z": 0.3711530566215515
            }
        },
        "name": "move_to_auspresseinheit_A"
    },
    "id": "EST_move_to_auspresseinheit_A_103",
    "joint_names": [
        "shoulder_pan_joint",
        "shoulder_lift_joint",
        "elbow_joint",
        "wrist_1_joint",
        "wrist_2_joint",
        "wrist_3_joint"
    ],
    "metrics": {
        "cart_traj_len": 0.9269325433321973,
        "distance_elbow_joint": 0.5024120120883842,
        "distance_shoulder_lift_joint": 2.1721085648415803,
        "distance_shoulder_pan_joint": 1.0456527307326564,
        "distance_wrist_1_joint": 1.91896688874666,
        "distance_wrist_2_joint": 1.4424134037301806,
        "distance_wrist_3_joint": 1.3785858759484504,
        "smoothness": 1.1972337043008874,
        "time": 0.40504069,
        "traj_len": 2.90863189078438,
        "weighted_distance": 3.818205274793598
    },
    "planner": "EST",
    "start": {
        "state": {
            "elbow_joint": 2.4225746658250005,
            "shoulder_lift_joint": -1.3736534386056498,
            "shoulder_pan_joint": -0.3378633547517467,
            "wrist_1_joint": -1.0288598680537169,
            "wrist_2_joint": 1.233022673432363,
            "wrist_3_joint": -3.0940220416140027
        }
    },
    "waypoints": [
        {
            "positions": [
                -0.3378633547517467,
                -1.3736534386056498,
                2.4225746658250005,
                -1.0288598680537169,
                1.233022673432363,
                -3.0940220416140027
            ]
        },
        {
            "positions": [
                -0.30303093578891055,
                -1.4777466100210443,
                2.440701442558151,
                -0.9330912987638891,
                1.1576190973706373,
                -3.0426378217122947
            ]
        },
        {
            "positions": [
                -0.2681985168260743,
                -1.581839781436439,
                2.4588282192913007,
                -0.8373227294740612,
                1.0822155213089113,
                -2.9912536018105866
            ]
        },
        {
            "positions": [
                -0.23336609786323814,
                -1.6859329528518336,
                2.476954996024451,
                -0.7415541601842334,
                1.0068119452471855,
                -2.9398693819088786
            ]
        },
        {
            "positions": [
                -0.19853367890040197,
                -1.7900261242672282,
                2.495081772757601,
                -0.6457855908944055,
                0.9314083691854597,
                -2.88848516200717
            ]
        },
        {
            "positions": [
                -0.16370125993756576,
                -1.8941192956826227,
                2.5132085494907512,
                -0.5500170216045777,
                0.8560047931237338,
                -2.837100942105462
            ]
        },
        {
            "positions": [
                -0.1288688409747296,
                -1.9982124670980173,
                2.531335326223901,
                -0.45424845231474986,
                0.7806012170620079,
                -2.785716722203754
            ]
        },
        {
            "positions": [
                -0.09403642201189341,
                -2.102305638513412,
                2.5494621029570514,
                -0.35847988302492206,
                0.7051976410002821,
                -2.734332502302046
            ]
        },
        {
            "positions": [
                -0.05920400304905721,
                -2.2063988099288068,
                2.5675888796902013,
                -0.26271131373509415,
                0.6297940649385563,
                -2.682948282400338
            ]
        },
        {
            "positions": [
                -0.024371584086221032,
                -2.3104919813442013,
                2.5857156564233517,
                -0.16694274444526636,
                0.5543904888768304,
                -2.63156406249863
            ]
        },
        {
            "positions": [
                0.0104608348766152,
                -2.414585152759596,
                2.6038424331565015,
                -0.07117417515543845,
                0.4789869128151045,
                -2.5801798425969213
            ]
        },
        {
            "positions": [
                0.04529325383945132,
                -2.5186783241749904,
                2.621969209889652,
                0.024594394134389352,
                0.40358333675337876,
                -2.5287956226952133
            ]
        },
        {
            "positions": [
                0.08012567280228755,
                -2.622771495590385,
                2.6400959866228018,
                0.12036296342421715,
                0.3281797606916528,
                -2.4774114027935052
            ]
        },
        {
            "positions": [
                0.11495809176512373,
                -2.7268646670057795,
                2.658222763355952,
                0.21613153271404495,
                0.252776184629927,
                -2.426027182891797
            ]
        },
        {
            "positions": [
                0.1808282344557666,
                -2.6358760740678404,
                2.6285823284051264,
                0.14124536738305632,
                0.3041280640663432,
                -2.50498174036138
            ]
        },
        {
            "positions": [
                0.24669837714640946,
                -2.5448874811299014,
                2.5989418934543003,
                0.06635920205206769,
                0.35547994350275935,
                -2.5839362978309626
            ]
        },
        {
            "positions": [
                0.31256851983705236,
                -2.4538988881919623,
                2.5693014585034746,
                -0.00852696327892094,
                0.40683182293917547,
                -2.6628908553005455
            ]
        },
        {
            "positions": [
                0.3784386625276952,
                -2.3629102952540237,
                2.539661023552649,
                -0.08341312860990957,
                0.45818370237559164,
                -2.7418454127701284
            ]
        },
        {
            "positions": [
                0.44430880521833815,
                -2.2719217023160847,
                2.5100205886018228,
                -0.15829929394089826,
                0.5095355818120078,
                -2.820799970239711
            ]
        },
        {
            "positions": [
                0.510178947908981,
                -2.1809331093781457,
                2.480380153650997,
                -0.23318545927188683,
                0.5608874612484239,
                -2.8997545277092938
            ]
        },
        {
            "positions": [
                0.5760490905996238,
                -2.0899445164402066,
                2.4507397187001714,
                -0.3080716246028755,
                0.6122393406848401,
                -2.9787090851788767
            ]
        },
        {
            "positions": [
                0.6419192332902667,
                -1.9989559235022678,
                2.4210992837493452,
                -0.3829577899338641,
                0.6635912201212563,
                -3.057663642648459
            ]
        },
        {
            "positions": [
                0.7077893759809096,
                -1.9079673305643288,
                2.3914588487985196,
                -0.45784395526485283,
                0.7149430995576724,
                -3.136618200118042
            ]
        }
    ]
}