{
    "goal": {
        "global_pose": {
            "orientation": {
                "w": 0.7031023480610252,
                "x": -0.7110244013736278,
                "y": 0.0077485991402295624,
                "z": 0.005598929693374583
            },
            "position": {
                "x": -0.8841497679147869,
                "y": 0.44412534475326537,
                "z": 0.3711530566215515
            }
        },
        "name": "move_to_auspresseinheit_D"
    },
    "id": "EST_move_to_auspresseinheit_D_125",
    "joint_names": [
        "shoulder_pan_joint",
        "shoulder_lift_joint",
        "elbow_joint",
        "wrist_1_joint",
        "wrist_2_joint",
        "wrist_3_joint"
    ],
    "metrics": {
        "cart_traj_len": 0.34392784693792433,
        "distance_elbow_joint": 0.6388977573677597,
        "distance_shoulder_lift_joint": 0.12172170905141266,
        "distance_shoulder_pan_joint": 0.13470589300883223,
        "distance_wrist_1_joint": 0.5218967840582978,
        "distance_wrist_2_joint": 1.447309883192309,
        "distance_wrist_3_joint": 0.006442765557385766,
        "smoothness": 2.368475775224222e-15,
        "time": 0.279352728,
        "traj_len": 1.694395111016317,
        "weighted_distance": 2.20296776885214
    },
    "planner": "EST",
    "start": {
        "state": {
            "elbow_joint": -1.8275523626775212,
            "shoulder_lift_joint": -2.126789852344167,
            "shoulder_pan_joint": -0.03513704404078235,
            "wrist_1_joint": -2.347782403156801,
            "wrist_2_joint": -1.6058999987535132,
            "wrist_3_joint": -3.0880379163319196
        }
    },
    "waypoints": [
        {
            "positions": [
                -0.03513704404078235,
                -2.126789852344167,
                -1.8275523626775212,
                -2.347782403156801,
                -1.6058999987535132,
                -3.0880379163319196
            ]
        },
        {
            "positions": [
                -0.05197528066688638,
                -2.1420050659755936,
                -1.7476901430065512,
                -2.4130195011640883,
                -1.4249862633544745,
                -3.0888432620265927
            ]
        },
        {
            "positions": [
                -0.0688135172929904,
                -2.15722027960702,
                -1.6678279233355813,
                -2.478256599171375,
                -1.2440725279554359,
                -3.089648607721266
            ]
        },
        {
            "positions": [
                -0.08565175391909444,
                -2.1724354932384466,
                -1.5879657036646113,
                -2.5434936971786626,
                -1.0631587925563974,
                -3.090453953415939
            ]
        },
        {
            "positions": [
                -0.10248999054519847,
                -2.1876507068698734,
                -1.5081034839936414,
                -2.6087307951859495,
                -0.8822450571573587,
                -3.0912592991106127
            ]
        },
        {
            "positions": [
                -0.11932822717130251,
                -2.2028659205012997,
                -1.4282412643226714,
                -2.673967893193237,
                -0.70133132175832,
                -3.0920646448052858
            ]
        },
        {
            "positions": [
                -0.13616646379740652,
                -2.2180811341327265,
                -1.3483790446517014,
                -2.7392049912005243,
                -0.5204175863592815,
                -3.092869990499959
            ]
        },
        {
            "positions": [
                -0.15300470042351055,
                -2.2332963477641528,
                -1.2685168249807315,
                -2.8044420892078112,
                -0.3395038509602428,
                -3.0936753361946323
            ]
        },
        {
            "positions": [
                -0.1698429370496146,
                -2.2485115613955795,
                -1.1886546053097615,
                -2.8696791872150986,
                -0.1585901155612041,
                -3.0944806818893054
            ]
        }
    ]
}