{
    "goal": {
        "global_pose": {
            "orientation": {
                "w": -0.4816463035849501,
                "x": 0.5182115481033762,
                "y": 0.4908360881923453,
                "z": -0.5084816262002911
            },
            "position": {
                "x": -0.8240239810943604,
                "y": 0.19912469901144506,
                "z": 0.16403168439865112
            }
        },
        "name": "move_to_storage_D"
    },
    "id": "EST_move_to_storage_D_94",
    "joint_names": [
        "shoulder_pan_joint",
        "shoulder_lift_joint",
        "elbow_joint",
        "wrist_1_joint",
        "wrist_2_joint",
        "wrist_3_joint"
    ],
    "metrics": {
        "cart_traj_len": 3.5904470814765794,
        "distance_elbow_joint": 4.275446819676851,
        "distance_shoulder_lift_joint": 1.26396819144492,
        "distance_shoulder_pan_joint": 2.811458836576042,
        "distance_wrist_1_joint": 2.265893585386645,
        "distance_wrist_2_joint": 1.2177833440306858,
        "distance_wrist_3_joint": 3.1441848959044263,
        "smoothness": 0.056095396654141136,
        "time": 0.35589745400000006,
        "traj_len": 3.8702371597900274,
        "weighted_distance": 4.975015818492014
    },
    "planner": "EST",
    "start": {
        "state": {
            "elbow_joint": -2.384821988534728,
            "shoulder_lift_joint": -2.2788054721415256,
            "shoulder_pan_joint": -0.1854694642142757,
            "wrist_1_joint": 1.4845938289331202,
            "wrist_2_joint": 0.17898776772866878,
            "wrist_3_joint": 0.037105688729662994
        }
    },
    "waypoints": [
        {
            "positions": [
                -0.1854694642142757,
                -2.2788054721415256,
                -2.384821988534728,
                1.4845938289331202,
                0.17898776772866878,
                0.037105688729662994
            ]
        },
        {
            "positions": [
                -0.1439803477426299,
                -2.2279755503569207,
                -2.4010532287567163,
                1.3980593364975125,
                0.09107687402047625,
                0.040128066754776884
            ]
        },
        {
            "positions": [
                -0.10249123127098408,
                -2.1771456285723163,
                -2.4172844689787047,
                1.3115248440619047,
                0.0031659803122837116,
                0.043150444779890766
            ]
        },
        {
            "positions": [
                -0.021854558117652523,
                -2.151654159674744,
                -2.2793459175820394,
                1.237479079996916,
                0.006903853921966206,
                -0.030797284912649818
            ]
        },
        {
            "positions": [
                0.05878211503567904,
                -2.1261626907771713,
                -2.1414073661853736,
                1.1634333159319272,
                0.010641727531648701,
                -0.1047450146051904
            ]
        },
        {
            "positions": [
                0.1394187881890106,
                -2.1006712218795993,
                -2.0034688147887083,
                1.0893875518669383,
                0.014379601141331194,
                -0.178692744297731
            ]
        },
        {
            "positions": [
                0.22005546134234216,
                -2.075179752982027,
                -1.8655302633920425,
                1.0153417878019495,
                0.01811747475101369,
                -0.25264047399027156
            ]
        },
        {
            "positions": [
                0.3006921344956737,
                -2.0496882840844544,
                -1.7275917119953772,
                0.9412960237369608,
                0.02185534836069618,
                -0.32658820368281216
            ]
        },
        {
            "positions": [
                0.3813288076490053,
                -2.024196815186882,
                -1.5896531605987116,
                0.867250259671972,
                0.025593221970378676,
                -0.40053593337535276
            ]
        },
        {
            "positions": [
                0.46196548080233685,
                -1.9987053462893096,
                -1.451714609202046,
                0.7932044956069833,
                0.02933109558006117,
                -0.4744836630678933
            ]
        },
        {
            "positions": [
                0.5426021539556685,
                -1.9732138773917374,
                -1.3137760578053805,
                0.7191587315419944,
                0.03306896918974367,
                -0.548431392760434
            ]
        },
        {
            "positions": [
                0.6232388271089999,
                -1.947722408494165,
                -1.175837506408715,
                0.6451129674770056,
                0.03680684279942616,
                -0.6223791224529746
            ]
        },
        {
            "positions": [
                0.7038755002623316,
                -1.9222309395965926,
                -1.0378989550120494,
                0.5710672034120169,
                0.04054471640910865,
                -0.6963268521455152
            ]
        },
        {
            "positions": [
                0.784512173415663,
                -1.8967394706990202,
                -0.8999604036153841,
                0.497021439347028,
                0.044282590018791146,
                -0.7702745818380557
            ]
        },
        {
            "positions": [
                0.8651488465689947,
                -1.871248001801448,
                -0.7620218522187185,
                0.4229756752820393,
                0.04802046362847364,
                -0.8442223115305963
            ]
        },
        {
            "positions": [
                0.9457855197223262,
                -1.8457565329038754,
                -0.624083300822053,
                0.3489299112170505,
                0.051758337238156135,
                -0.918170041223137
            ]
        },
        {
            "positions": [
                1.0264221928756578,
                -1.8202650640063032,
                -0.48614474942538743,
                0.2748841471520618,
                0.05549621084783863,
                -0.9921177709156774
            ]
        },
        {
            "positions": [
                1.1070588660289895,
                -1.7947735951087307,
                -0.34820619802872166,
                0.2008383830870728,
                0.05923408445752113,
                -1.0660655006082183
            ]
        },
        {
            "positions": [
                1.187695539182321,
                -1.7692821262111584,
                -0.21026764663205633,
                0.12679261902208405,
                0.06297195806720363,
                -1.1400132303007586
            ]
        },
        {
            "positions": [
                1.2683322123356526,
                -1.743790657313586,
                -0.07232909523539055,
                0.0527468549570953,
                0.06670983167688611,
                -1.2139609599932994
            ]
        },
        {
            "positions": [
                1.348968885488984,
                -1.7182991884160137,
                0.06560945616127478,
                -0.02129890910789345,
                0.0704477052865686,
                -1.2879086896858398
            ]
        },
        {
            "positions": [
                1.4296055586423158,
                -1.6928077195184412,
                0.20354800755794056,
                -0.09534467317288242,
                0.0741855788962511,
                -1.3618564193783804
            ]
        },
        {
            "positions": [
                1.5102422317956472,
                -1.667316250620869,
                0.3414865589546059,
                -0.16939043723787095,
                0.07792345250593359,
                -1.435804149070921
            ]
        },
        {
            "positions": [
                1.5908789049489789,
                -1.6418247817232965,
                0.4794251103512712,
                -0.24343620130285992,
                0.08166132611561609,
                -1.5097518787634616
            ]
        },
        {
            "positions": [
                1.6715155781023103,
                -1.616333312825724,
                0.6173636617479366,
                -0.3174819653678487,
                0.08539919972529858,
                -1.5836996084560022
            ]
        },
        {
            "positions": [
                1.752152251255642,
                -1.5908418439281518,
                0.7553022131446023,
                -0.3915277294328374,
                0.08913707333498108,
                -1.6576473381485428
            ]
        },
        {
            "positions": [
                1.8327889244089735,
                -1.5653503750305795,
                0.8932407645412677,
                -0.4655734934978262,
                0.09287494694466357,
                -1.7315950678410834
            ]
        },
        {
            "positions": [
                1.9134255975623053,
                -1.539858906133007,
                1.0311793159379334,
                -0.5396192575628151,
                0.09661282055434607,
                -1.805542797533624
            ]
        },
        {
            "positions": [
                1.9940622707156364,
                -1.5143674372354345,
                1.1691178673345988,
                -0.6136650216278037,
                0.10035069416402856,
                -1.8794905272261646
            ]
        },
        {
            "positions": [
                2.074698943868968,
                -1.4888759683378623,
                1.3070564187312645,
                -0.6877107856927926,
                0.10408856777371106,
                -1.9534382569187052
            ]
        },
        {
            "positions": [
                2.1309347304936983,
                -1.4452111267302368,
                1.3629104135244363,
                -0.697199824818086,
                0.195772154391527,
                -2.0742703963323783
            ]
        },
        {
            "positions": [
                2.187170517118429,
                -1.4015462851226113,
                1.418764408317608,
                -0.7066888639433792,
                0.28745574100934296,
                -2.1951025357460514
            ]
        },
        {
            "positions": [
                2.2434063037431593,
                -1.3578814435149857,
                1.4746184031107799,
                -0.7161779030686724,
                0.3791393276271589,
                -2.3159346751597245
            ]
        },
        {
            "positions": [
                2.2996420903678896,
                -1.31421660190736,
                1.5304723979039516,
                -0.7256669421939657,
                0.47082291424497485,
                -2.4367668145733976
            ]
        },
        {
            "positions": [
                2.3558778769926203,
                -1.2705517602997345,
                1.5863263926971234,
                -0.735155981319259,
                0.5625065008627907,
                -2.5575989539870707
            ]
        },
        {
            "positions": [
                2.4121136636173506,
                -1.226886918692109,
                1.6421803874902952,
                -0.7446450204445522,
                0.6541900874806068,
                -2.678431093400744
            ]
        },
        {
            "positions": [
                2.4683494502420813,
                -1.1832220770844835,
                1.698034382283467,
                -0.7541340595698454,
                0.7458736740984226,
                -2.799263232814417
            ]
        },
        {
            "positions": [
                2.5245852368668116,
                -1.139557235476858,
                1.7538883770766387,
                -0.7636230986951387,
                0.8375572607162387,
                -2.92009537222809
            ]
        },
        {
            "positions": [
                2.575287304614289,
                -1.077197258086732,
                1.7897941236654054,
                -0.7724614275743319,
                0.9413423988214116,
                -3.0075425336511987
            ]
        },
        {
            "positions": [
                2.625989372361766,
                -1.0148372806966057,
                1.825699870254172,
                -0.7812997564535251,
                1.0451275369265844,
                -3.094989695074308
            ]
        }
    ]
}