{
    "goal": {
        "global_pose": {
            "orientation": {
                "w": 0.7031023480610252,
                "x": -0.7110244013736278,
                "y": 0.0077485991402295624,
                "z": 0.005598929693374583
            },
            "position": {
                "x": -0.8841497679147869,
                "y": 0.44412534475326537,
                "z": 0.3711530566215515
            }
        },
        "name": "move_to_auspresseinheit_D"
    },
    "id": "EST_move_to_auspresseinheit_D_32",
    "joint_names": [
        "shoulder_pan_joint",
        "shoulder_lift_joint",
        "elbow_joint",
        "wrist_1_joint",
        "wrist_2_joint",
        "wrist_3_joint"
    ],
    "metrics": {
        "cart_traj_len": 0.3437096584059658,
        "distance_elbow_joint": 0.6555554649709061,
        "distance_shoulder_lift_joint": 0.13133097586408482,
        "distance_shoulder_pan_joint": 0.13385613693290735,
        "distance_wrist_1_joint": 0.5874913233281944,
        "distance_wrist_2_joint": 1.445179126530563,
        "distance_wrist_3_joint": 0.05162141778626017,
        "smoothness": 3.9474596431116675e-16,
        "time": 0.200434671,
        "traj_len": 1.7335035175657754,
        "weighted_distance": 2.2673658131947287
    },
    "planner": "EST",
    "start": {
        "state": {
            "elbow_joint": -1.8275523626775212,
            "shoulder_lift_joint": -2.126789852344167,
            "shoulder_pan_joint": -0.03513704404078235,
            "wrist_1_joint": -2.347782403156801,
            "wrist_2_joint": -1.6058999987535132,
            "wrist_3_joint": -3.0880379163319196
        }
    },
    "waypoints": [
        {
            "positions": [
                -0.03513704404078235,
                -2.126789852344167,
                -1.8275523626775212,
                -2.347782403156801,
                -1.6058999987535132,
                -3.0880379163319196
            ]
        },
        {
            "positions": [
                -0.05186906115739577,
                -2.1432062243271774,
                -1.745607929556158,
                -2.421218818572825,
                -1.4252526079371928,
                -3.081585239108637
            ]
        },
        {
            "positions": [
                -0.06860107827400919,
                -2.159622596310188,
                -1.6636634964347947,
                -2.4946552339888495,
                -1.2446052171208724,
                -3.0751325618853547
            ]
        },
        {
            "positions": [
                -0.08533309539062262,
                -2.1760389682931986,
                -1.5817190633134315,
                -2.5680916494048738,
                -1.0639578263045522,
                -3.068679884662072
            ]
        },
        {
            "positions": [
                -0.10206511250723602,
                -2.1924553402762093,
                -1.4997746301920682,
                -2.641528064820898,
                -0.8833104354882317,
                -3.0622272074387897
            ]
        },
        {
            "positions": [
                -0.11879712962384945,
                -2.20887171225922,
                -1.417830197070705,
                -2.7149644802369224,
                -0.7026630446719113,
                -3.055774530215507
            ]
        },
        {
            "positions": [
                -0.13552914674046287,
                -2.2252880842422305,
                -1.3358857639493416,
                -2.7884008956529467,
                -0.5220156538555911,
                -3.0493218529922244
            ]
        },
        {
            "positions": [
                -0.15226116385707628,
                -2.241704456225241,
                -1.2539413308279783,
                -2.861837311068971,
                -0.3413682630392707,
                -3.042869175768942
            ]
        },
        {
            "positions": [
                -0.1689931809736897,
                -2.2581208282082517,
                -1.171996897706615,
                -2.9352737264849953,
                -0.16072087222295023,
                -3.0364164985456594
            ]
        }
    ]
}