{
    "goal": {
        "global_pose": {
            "orientation": {
                "w": 0.7047431493862688,
                "x": -0.7094548369677653,
                "y": 0.0024358444001904,
                "z": -0.0022348060817251984
            },
            "position": {
                "x": -0.39052492380142206,
                "y": 0.3671506643295288,
                "z": 0.19426114857196808
            }
        },
        "name": "move_to_magneteinheit_D"
    },
    "id": "EST_move_to_magneteinheit_D_33",
    "joint_names": [
        "shoulder_pan_joint",
        "shoulder_lift_joint",
        "elbow_joint",
        "wrist_1_joint",
        "wrist_2_joint",
        "wrist_3_joint"
    ],
    "metrics": {
        "cart_traj_len": 6.829469952035698,
        "distance_elbow_joint": 4.224412156040527,
        "distance_shoulder_lift_joint": 3.450095876759775,
        "distance_shoulder_pan_joint": 6.535189199307858,
        "distance_wrist_1_joint": 3.9105019840384534,
        "distance_wrist_2_joint": 5.156154500867442,
        "distance_wrist_3_joint": 6.263688406313224,
        "smoothness": 0.29621969555251076,
        "time": 0.6850359650000001,
        "traj_len": 5.435075171819363,
        "weighted_distance": 7.150809424174279
    },
    "planner": "EST",
    "start": {
        "state": {
            "elbow_joint": 0.749534889911806,
            "shoulder_lift_joint": -0.6476975780787326,
            "shoulder_pan_joint": -2.711696901376241,
            "wrist_1_joint": -0.07506478083263063,
            "wrist_2_joint": 0.43296659715538205,
            "wrist_3_joint": -3.14703540197715
        }
    },
    "waypoints": [
        {
            "positions": [
                -2.711696901376241,
                -0.6476975780787326,
                0.749534889911806,
                -0.07506478083263063,
                0.43296659715538205,
                -3.14703540197715
            ]
        },
        {
            "positions": [
                -2.7053227106227906,
                -0.6978982144502129,
                0.8175200339057461,
                0.0033051573406253504,
                0.33740945399014244,
                -3.0566336352118504
            ]
        },
        {
            "positions": [
                -2.69894851986934,
                -0.7480988508216931,
                0.8855051778996864,
                0.08167509551388133,
                0.24185231082490277,
                -2.9662318684465507
            ]
        },
        {
            "positions": [
                -2.6925743291158897,
                -0.7982994871931735,
                0.9534903218936266,
                0.1600450336871373,
                0.1462951676596631,
                -2.875830101681251
            ]
        },
        {
            "positions": [
                -2.6862001383624388,
                -0.8485001235646538,
                1.0214754658875669,
                0.2384149718603933,
                0.050738024494423495,
                -2.7854283349159514
            ]
        },
        {
            "positions": [
                -2.6798259476089883,
                -0.8987007599361341,
                1.089460609881507,
                0.3167849100336493,
                -0.04481911867081623,
                -2.695026568150652
            ]
        },
        {
            "positions": [
                -2.673451756855538,
                -0.9489013963076143,
                1.1574457538754472,
                0.3951548482069052,
                -0.14037626183605584,
                -2.604624801385352
            ]
        },
        {
            "positions": [
                -2.6670775661020873,
                -0.9991020326790946,
                1.2254308978693875,
                0.47352478638016127,
                -0.2359334050012955,
                -2.5142230346200525
            ]
        },
        {
            "positions": [
                -2.6495817354681477,
                -1.0342907839989919,
                1.2640968431174469,
                0.5248862977811699,
                -0.2938731026873698,
                -2.446678703184923
            ]
        },
        {
            "positions": [
                -2.632085904834208,
                -1.069479535318889,
                1.3027627883655062,
                0.5762478091821785,
                -0.35181280037344415,
                -2.379134371749794
            ]
        },
        {
            "positions": [
                -2.5175355790741163,
                -1.1164489334858378,
                1.2917627849372568,
                0.6192348530615696,
                -0.37110099438907534,
                -2.2556414890083625
            ]
        },
        {
            "positions": [
                -2.4029852533140246,
                -1.1634183316527866,
                1.2807627815090072,
                0.6622218969409606,
                -0.39038918840470654,
                -2.132148606266931
            ]
        },
        {
            "positions": [
                -2.2510113784174948,
                -1.1969491753009673,
                1.2259340970854211,
                0.6710661213808662,
                -0.37978576120286844,
                -2.002456741894801
            ]
        },
        {
            "positions": [
                -2.0990375035209654,
                -1.2304800189491483,
                1.1711054126618348,
                0.6799103458207717,
                -0.36918233400103034,
                -1.872764877522672
            ]
        },
        {
            "positions": [
                -1.9470636286244356,
                -1.264010862597329,
                1.1162767282382484,
                0.6887545702606773,
                -0.3585789067991923,
                -1.7430730131505425
            ]
        },
        {
            "positions": [
                -1.795089753727906,
                -1.2975417062455097,
                1.0614480438146623,
                0.697598794700583,
                -0.3479754795973542,
                -1.613381148778413
            ]
        },
        {
            "positions": [
                -1.6431158788313764,
                -1.3310725498936904,
                1.0066193593910762,
                0.7064430191404885,
                -0.3373720523955161,
                -1.4836892844062837
            ]
        },
        {
            "positions": [
                -1.4911420039348469,
                -1.3646033935418713,
                0.9517906749674898,
                0.7152872435803941,
                -0.326768625193678,
                -1.3539974200341542
            ]
        },
        {
            "positions": [
                -1.3391681290383173,
                -1.398134237190052,
                0.8969619905439036,
                0.7241314680202997,
                -0.31616519799183995,
                -1.224305555662025
            ]
        },
        {
            "positions": [
                -1.1871942541417875,
                -1.4316650808382327,
                0.8421333061203173,
                0.7329756924602053,
                -0.3055617707900018,
                -1.0946136912898954
            ]
        },
        {
            "positions": [
                -1.035220379245258,
                -1.4651959244864137,
                0.7873046216967311,
                0.7418199169001108,
                -0.29495834358816375,
                -0.964921826917766
            ]
        },
        {
            "positions": [
                -0.8832465043487283,
                -1.4987267681345944,
                0.7324759372731449,
                0.7506641413400165,
                -0.28435491638632565,
                -0.8352299625456365
            ]
        },
        {
            "positions": [
                -0.7312726294521985,
                -1.532257611782775,
                0.6776472528495586,
                0.7595083657799221,
                -0.27375148918448755,
                -0.7055380981735069
            ]
        },
        {
            "positions": [
                -0.5792987545556691,
                -1.565788455430956,
                0.6228185684259724,
                0.7683525902198276,
                -0.2631480619826495,
                -0.5758462338013777
            ]
        },
        {
            "positions": [
                -0.42732487965913935,
                -1.5993192990791367,
                0.5679898840023861,
                0.7771968146597332,
                -0.25254463478081135,
                -0.44615436942924824
            ]
        },
        {
            "positions": [
                -0.27535100476261,
                -1.6328501427273174,
                0.5131611995787999,
                0.7860410390996388,
                -0.2419412075789733,
                -0.31646250505711904
            ]
        },
        {
            "positions": [
                -0.12337712986608018,
                -1.6663809863754984,
                0.45833251515521367,
                0.7948852635395445,
                -0.2313377803771352,
                -0.1867706406849894
            ]
        },
        {
            "positions": [
                0.028596745030449622,
                -1.699911830023679,
                0.40350383073162743,
                0.80372948797945,
                -0.2207343531752971,
                -0.05707877631285996
            ]
        },
        {
            "positions": [
                0.18057061992697898,
                -1.7334426736718598,
                0.3486751463080412,
                0.8125737124193556,
                -0.21013092597345903,
                0.07261308805926925
            ]
        },
        {
            "positions": [
                0.3325444948235088,
                -1.7669735173200407,
                0.29384646188445496,
                0.8214179368592612,
                -0.19952749877162093,
                0.2023049524313989
            ]
        },
        {
            "positions": [
                0.48451836972003814,
                -1.8005043609682212,
                0.23901777746086883,
                0.8302621612991667,
                -0.18892407156978286,
                0.3319968168035281
            ]
        },
        {
            "positions": [
                0.6364922446165677,
                -1.8340352046164021,
                0.1841890930372826,
                0.8391063857390724,
                -0.17832064436794476,
                0.46168868117565776
            ]
        },
        {
            "positions": [
                0.6955888643973065,
                -1.7751213557203267,
                0.1663589328041645,
                0.7061496427067222,
                -0.28154521337369565,
                0.48365842430011174
            ]
        },
        {
            "positions": [
                0.7546854841780452,
                -1.716207506824251,
                0.1485287725710464,
                0.573192899674372,
                -0.3847697823794466,
                0.5056281674245657
            ]
        },
        {
            "positions": [
                0.8137821039587838,
                -1.6572936579281756,
                0.13069861233792832,
                0.44023615664202187,
                -0.4879943513851974,
                0.5275979105490197
            ]
        },
        {
            "positions": [
                0.8728787237395226,
                -1.5983798090321002,
                0.11286845210481022,
                0.3072794136096717,
                -0.5912189203909484,
                0.5495676536734737
            ]
        },
        {
            "positions": [
                0.9319753435202613,
                -1.5394659601360248,
                0.09503829187169213,
                0.17432267057732154,
                -0.6944434893966993,
                0.5715373967979277
            ]
        },
        {
            "positions": [
                0.991071963301,
                -1.4805521112399491,
                0.07720813163857404,
                0.04136592754497137,
                -0.79766805840245,
                0.5935071399223817
            ]
        },
        {
            "positions": [
                1.0501685830817387,
                -1.4216382623438737,
                0.05937797140545596,
                -0.09159081548737869,
                -0.900892627408201,
                0.6154768830468357
            ]
        },
        {
            "positions": [
                1.1092652028624774,
                -1.3627244134477983,
                0.041547811172337856,
                -0.22454755851972896,
                -1.004117196413952,
                0.6374466261712897
            ]
        },
        {
            "positions": [
                1.1683618226432162,
                -1.3038105645517226,
                0.023717650939219764,
                -0.35750430155207913,
                -1.1073417654197029,
                0.6594163692957437
            ]
        },
        {
            "positions": [
                1.2274584424239547,
                -1.2448967156556472,
                0.005887490706101672,
                -0.4904610445844293,
                -1.2105663344254538,
                0.6813861124201976
            ]
        },
        {
            "positions": [
                1.2865550622046937,
                -1.1859828667595718,
                -0.011942669527016447,
                -0.6234177876167797,
                -1.3137909034312047,
                0.7033558555446516
            ]
        },
        {
            "positions": [
                1.3456516819854323,
                -1.1270690178634961,
                -0.02977282976013451,
                -0.7563745306491296,
                -1.4170154724369555,
                0.7253255986691056
            ]
        },
        {
            "positions": [
                1.404748301766171,
                -1.0681551689674207,
                -0.047602989993252603,
                -0.8893312736814798,
                -1.5202400414427066,
                0.7472953417935596
            ]
        },
        {
            "positions": [
                1.4638449215469098,
                -1.0092413200713453,
                -0.06543315022637067,
                -1.0222880167138297,
                -1.6234646104484574,
                0.7692650849180136
            ]
        },
        {
            "positions": [
                1.5229415413276484,
                -0.9503274711752697,
                -0.08326331045948876,
                -1.1552447597461801,
                -1.7266891794542083,
                0.7912348280424676
            ]
        },
        {
            "positions": [
                1.5820381611083871,
                -0.8914136222791942,
                -0.10109347069260688,
                -1.2882015027785303,
                -1.8299137484599592,
                0.8132045711669216
            ]
        },
        {
            "positions": [
                1.641134780889126,
                -0.8324997733831188,
                -0.11892363092572494,
                -1.4211582458108802,
                -1.93313831746571,
                0.8351743142913756
            ]
        },
        {
            "positions": [
                1.7002314006698647,
                -0.7735859244870431,
                -0.13675379115884306,
                -1.5541149888432306,
                -2.036362886471461,
                0.8571440574158296
            ]
        },
        {
            "positions": [
                1.7593280204506032,
                -0.7146720755909679,
                -0.15458395139196113,
                -1.6870717318755806,
                -2.1395874554772116,
                0.8791138005402835
            ]
        },
        {
            "positions": [
                1.818424640231342,
                -0.6557582266948923,
                -0.17241411162507925,
                -1.8200284749079307,
                -2.2428120244829626,
                0.9010835436647375
            ]
        },
        {
            "positions": [
                1.7382219339233314,
                -0.6991774775869162,
                -0.26025440592892884,
                -1.8335163131807206,
                -2.1605624728367396,
                0.989706322091591
            ]
        },
        {
            "positions": [
                1.6580192276153207,
                -0.7425967284789401,
                -0.34809470023277844,
                -1.8470041514535105,
                -2.0783129211905162,
                1.0783291005184445
            ]
        },
        {
            "positions": [
                1.5778165213073099,
                -0.786015979370964,
                -0.43593499453662804,
                -1.8604919897263004,
                -1.9960633695442933,
                1.166951878945298
            ]
        },
        {
            "positions": [
                1.4976138149992992,
                -0.8294352302629879,
                -0.5237752888404776,
                -1.8739798279990902,
                -1.9138138178980704,
                1.2555746573721516
            ]
        },
        {
            "positions": [
                1.4174111086912886,
                -0.8728544811550119,
                -0.6116155831443273,
                -1.8874676662718801,
                -1.8315642662518472,
                1.3441974357990052
            ]
        },
        {
            "positions": [
                1.337208402383278,
                -0.9162737320470358,
                -0.6994558774481768,
                -1.90095550454467,
                -1.7493147146056243,
                1.4328202142258586
            ]
        },
        {
            "positions": [
                1.2570056960752671,
                -0.9596929829390598,
                -0.7872961717520265,
                -1.9144433428174599,
                -1.667065162959401,
                1.5214429926527122
            ]
        },
        {
            "positions": [
                1.1768029897672565,
                -1.0031122338310836,
                -0.875136466055876,
                -1.9279311810902497,
                -1.5848156113131782,
                1.6100657710795656
            ]
        },
        {
            "positions": [
                1.0966002834592459,
                -1.0465314847231075,
                -0.9629767603597256,
                -1.9414190193630396,
                -1.502566059666955,
                1.6986885495064192
            ]
        },
        {
            "positions": [
                1.0163975771512352,
                -1.0899507356151314,
                -1.0508170546635753,
                -1.9549068576358295,
                -1.4203165080207318,
                1.7873113279332729
            ]
        },
        {
            "positions": [
                0.9361948708432245,
                -1.1333699865071556,
                -1.138657348967425,
                -1.9683946959086196,
                -1.338066956374509,
                1.875934106360126
            ]
        },
        {
            "positions": [
                0.8559921645352139,
                -1.1767892373991793,
                -1.2264976432712744,
                -1.9818825341814095,
                -1.255817404728286,
                1.9645568847869797
            ]
        },
        {
            "positions": [
                0.7757894582272031,
                -1.2202084882912034,
                -1.314337937575124,
                -1.9953703724541993,
                -1.1735678530820628,
                2.0531796632138333
            ]
        },
        {
            "positions": [
                0.6955867519191923,
                -1.2636277391832273,
                -1.4021782318789737,
                -2.0088582107269892,
                -1.0913183014358396,
                2.141802441640687
            ]
        },
        {
            "positions": [
                0.6153840456111819,
                -1.3070469900752513,
                -1.4900185261828232,
                -2.022346048999779,
                -1.0090687497896167,
                2.2304252200675405
            ]
        },
        {
            "positions": [
                0.535181339303171,
                -1.350466240967275,
                -1.5778588204866728,
                -2.035833887272569,
                -0.9268191981433935,
                2.3190479984943937
            ]
        },
        {
            "positions": [
                0.45497863299516017,
                -1.393885491859299,
                -1.6656991147905225,
                -2.049321725545359,
                -0.8445696464971704,
                2.4076707769212473
            ]
        },
        {
            "positions": [
                0.37477592668714976,
                -1.4373047427513228,
                -1.753539409094372,
                -2.0628095638181487,
                -0.7623200948509474,
                2.4962935553481005
            ]
        },
        {
            "positions": [
                0.2945732203791389,
                -1.480723993643347,
                -1.8413797033982218,
                -2.0762974020909386,
                -0.6800705432047243,
                2.584916333774954
            ]
        },
        {
            "positions": [
                0.21437051407112828,
                -1.5241432445353709,
                -1.9292199977020714,
                -2.0897852403637285,
                -0.5978209915585011,
                2.6735391122018077
            ]
        },
        {
            "positions": [
                0.13416780776311765,
                -1.5675624954273948,
                -2.0170602920059206,
                -2.1032730786365184,
                -0.5155714399122784,
                2.7621618906286614
            ]
        },
        {
            "positions": [
                0.05396510145510702,
                -1.6109817463194187,
                -2.1049005863097703,
                -2.1167609169093082,
                -0.4333218882660552,
                2.850784669055515
            ]
        },
        {
            "positions": [
                -0.02623760485290383,
                -1.6544009972114426,
                -2.19274088061362,
                -2.130248755182098,
                -0.35107233661983206,
                2.9394074474823686
            ]
        },
        {
            "positions": [
                -0.10644031116091424,
                -1.6978202481034665,
                -2.2805811749174696,
                -2.143736593454888,
                -0.2688227849736091,
                3.0280302259092218
            ]
        },
        {
            "positions": [
                -0.18664301746892487,
                -1.7412394989954905,
                -2.3684214692213192,
                -2.157224431727678,
                -0.18657323332738612,
                3.1166530043360754
            ]
        }
    ]
}