{
    "goal": {
        "global_pose": {
            "orientation": {
                "w": 0.7031023480610252,
                "x": -0.7110244013736278,
                "y": 0.0077485991402295624,
                "z": 0.005598929693374583
            },
            "position": {
                "x": -0.8841497679147869,
                "y": 0.44412534475326537,
                "z": 0.3711530566215515
            }
        },
        "name": "move_to_auspresseinheit_D"
    },
    "id": "EST_move_to_auspresseinheit_D_49",
    "joint_names": [
        "shoulder_pan_joint",
        "shoulder_lift_joint",
        "elbow_joint",
        "wrist_1_joint",
        "wrist_2_joint",
        "wrist_3_joint"
    ],
    "metrics": {
        "cart_traj_len": 0.3432349191940689,
        "distance_elbow_joint": 0.6360014762323427,
        "distance_shoulder_lift_joint": 0.11998332661870892,
        "distance_shoulder_pan_joint": 0.13402296961661703,
        "distance_wrist_1_joint": 0.519885779579166,
        "distance_wrist_2_joint": 1.444198430134021,
        "distance_wrist_3_joint": 0.012631565484197083,
        "smoothness": 1.9737298371844314e-16,
        "time": 0.032969018,
        "traj_len": 1.6931401441301461,
        "weighted_distance": 2.203649447699573
    },
    "planner": "EST",
    "start": {
        "state": {
            "elbow_joint": -1.8275523626775212,
            "shoulder_lift_joint": -2.126789852344167,
            "shoulder_pan_joint": -0.03513704404078235,
            "wrist_1_joint": -2.347782403156801,
            "wrist_2_joint": -1.6058999987535132,
            "wrist_3_joint": -3.0880379163319196
        }
    },
    "waypoints": [
        {
            "positions": [
                -0.03513704404078235,
                -2.126789852344167,
                -1.8275523626775212,
                -2.347782403156801,
                -1.6058999987535132,
                -3.0880379163319196
            ]
        },
        {
            "positions": [
                -0.05188991524285948,
                -2.1417877681715054,
                -1.7480521781484784,
                -2.4127681256041966,
                -1.4253751949867606,
                -3.0896168620174445
            ]
        },
        {
            "positions": [
                -0.0686427864449366,
                -2.156785683998844,
                -1.6685519936194355,
                -2.4777538480515924,
                -1.244850391220008,
                -3.091195807702969
            ]
        },
        {
            "positions": [
                -0.08539565764701373,
                -2.1717835998261825,
                -1.5890518090903927,
                -2.542739570498988,
                -1.0643255874532553,
                -3.0927747533884933
            ]
        },
        {
            "positions": [
                -0.10214852884909087,
                -2.1867815156535215,
                -1.5095516245613498,
                -2.607725292946384,
                -0.8838007836865027,
                -3.094353699074018
            ]
        },
        {
            "positions": [
                -0.118901400051168,
                -2.20177943148086,
                -1.430051440032307,
                -2.6727110153937796,
                -0.7032759799197501,
                -3.095932644759543
            ]
        },
        {
            "positions": [
                -0.1356542712532451,
                -2.2167773473081986,
                -1.3505512555032642,
                -2.7376967378411754,
                -0.5227511761529975,
                -3.0975115904450674
            ]
        },
        {
            "positions": [
                -0.15240714245532225,
                -2.231775263135537,
                -1.2710510709742213,
                -2.802682460288571,
                -0.34222637238624487,
                -3.099090536130592
            ]
        },
        {
            "positions": [
                -0.16916001365739938,
                -2.2467731789628758,
                -1.1915508864451785,
                -2.867668182735967,
                -0.16170156861949236,
                -3.1006694818161167
            ]
        }
    ]
}