{
    "goal": {
        "global_pose": {
            "orientation": {
                "w": 0.7047431468963623,
                "x": -0.7094548344612122,
                "y": 0.0024358443915843964,
                "z": -0.0022348060738295317
            },
            "position": {
                "x": 0.6094750761985779,
                "y": 0.3671506643295288,
                "z": 0.19426114857196808
            }
        },
        "name": "move_to_magneteinheit_A"
    },
    "id": "EST_move_to_magneteinheit_A_38",
    "joint_names": [
        "shoulder_pan_joint",
        "shoulder_lift_joint",
        "elbow_joint",
        "wrist_1_joint",
        "wrist_2_joint",
        "wrist_3_joint"
    ],
    "metrics": {
        "cart_traj_len": 2.905340932835379,
        "distance_elbow_joint": 3.9195434559590403,
        "distance_shoulder_lift_joint": 0.8496691409588993,
        "distance_shoulder_pan_joint": 2.8591120143550386,
        "distance_wrist_1_joint": 3.496482488027909,
        "distance_wrist_2_joint": 1.6284348162243152,
        "distance_wrist_3_joint": 2.639763837305248,
        "smoothness": 0.22856553918359476,
        "time": 0.152684842,
        "traj_len": 3.923392123256411,
        "weighted_distance": 5.079119090127063
    },
    "planner": "EST",
    "start": {
        "state": {
            "elbow_joint": -1.9196185241190666,
            "shoulder_lift_joint": -1.2443396400964142,
            "shoulder_pan_joint": 2.6996025414629847,
            "wrist_1_joint": -1.5485510000780065,
            "wrist_2_joint": -1.5709468930060704,
            "wrist_3_joint": 0.4420197071253992
        }
    },
    "waypoints": [
        {
            "positions": [
                2.6996025414629847,
                -1.2443396400964142,
                -1.9196185241190666,
                -1.5485510000780065,
                -1.5709468930060704,
                0.4420197071253992
            ]
        },
        {
            "positions": [
                2.6198171671508117,
                -1.250167273758682,
                -1.8089357531195889,
                -1.4470347361626719,
                -1.5243469919241543,
                0.3948976687268934
            ]
        },
        {
            "positions": [
                2.5400317928386387,
                -1.2559949074209498,
                -1.698252982120111,
                -1.3455184722473372,
                -1.4777470908422383,
                0.34777563032838765
            ]
        },
        {
            "positions": [
                2.4602464185264656,
                -1.2618225410832176,
                -1.5875702111206331,
                -1.2440022083320028,
                -1.4311471897603223,
                0.30065359192988184
            ]
        },
        {
            "positions": [
                2.380461044214293,
                -1.2676501747454851,
                -1.4768874401211554,
                -1.1424859444166682,
                -1.3845472886784063,
                0.25353155353137613
            ]
        },
        {
            "positions": [
                2.30067566990212,
                -1.273477808407753,
                -1.3662046691216774,
                -1.0409696805013335,
                -1.3379473875964902,
                0.2064095151328703
            ]
        },
        {
            "positions": [
                2.220890295589947,
                -1.2793054420700207,
                -1.2555218981221996,
                -0.9394534165859989,
                -1.2913474865145742,
                0.15928747673436455
            ]
        },
        {
            "positions": [
                2.141104921277774,
                -1.2851330757322885,
                -1.1448391271227218,
                -0.8379371526706643,
                -1.2447475854326582,
                0.11216543833585879
            ]
        },
        {
            "positions": [
                2.061319546965601,
                -1.2909607093945563,
                -1.034156356123244,
                -0.7364208887553297,
                -1.1981476843507421,
                0.06504339993735303
            ]
        },
        {
            "positions": [
                1.9815341726534283,
                -1.2967883430568241,
                -0.9234735851237663,
                -0.6349046248399952,
                -1.1515477832688261,
                0.01792136153884727
            ]
        },
        {
            "positions": [
                1.9017487983412553,
                -1.3026159767190917,
                -0.8127908141242883,
                -0.5333883609246606,
                -1.10494788218691,
                -0.029200676859658548
            ]
        },
        {
            "positions": [
                1.8219634240290823,
                -1.3084436103813595,
                -0.7021080431248108,
                -0.43187209700932594,
                -1.058347981104994,
                -0.07632271525816425
            ]
        },
        {
            "positions": [
                1.7421780497169093,
                -1.3142712440436273,
                -0.5914252721253328,
                -0.3303558330939913,
                -1.0117480800230783,
                -0.12344475365667007
            ]
        },
        {
            "positions": [
                1.6623926754047365,
                -1.320098877705895,
                -0.48074250112585504,
                -0.2288395691786569,
                -0.9651481789411621,
                -0.17056679205517578
            ]
        },
        {
            "positions": [
                1.5826073010925634,
                -1.3259265113681629,
                -0.37005973012637705,
                -0.12732330526332203,
                -0.9185482778592461,
                -0.2176888304536816
            ]
        },
        {
            "positions": [
                1.5028219267803906,
                -1.3317541450304307,
                -0.2593769591268995,
                -0.025807041347987614,
                -0.8719483767773301,
                -0.2648108688521873
            ]
        },
        {
            "positions": [
                1.4230365524682176,
                -1.3375817786926985,
                -0.14869418812742152,
                0.07570922256734702,
                -0.825348475695414,
                -0.3119329072506931
            ]
        },
        {
            "positions": [
                1.3432511781560446,
                -1.343409412354966,
                -0.03801141712794376,
                0.17722548648268166,
                -0.778748574613498,
                -0.35905494564919893
            ]
        },
        {
            "positions": [
                1.2634658038438717,
                -1.3492370460172338,
                0.072671353871534,
                0.2787417503980161,
                -0.7321486735315821,
                -0.40617698404770464
            ]
        },
        {
            "positions": [
                1.1836804295316985,
                -1.3550646796795016,
                0.18335412487101221,
                0.38025801431335093,
                -0.6855487724496659,
                -0.45329902244621056
            ]
        },
        {
            "positions": [
                1.1038950552195257,
                -1.3608923133417694,
                0.29403689587049,
                0.48177427822868535,
                -0.6389488713677499,
                -0.5004210608447163
            ]
        },
        {
            "positions": [
                1.0241096809073529,
                -1.3667199470040372,
                0.4047196668699673,
                0.58329054214402,
                -0.5923489702858339,
                -0.547543099243222
            ]
        },
        {
            "positions": [
                0.9443243065951799,
                -1.372547580666305,
                0.5154024378694451,
                0.6848068060593546,
                -0.545749069203918,
                -0.5946651376417277
            ]
        },
        {
            "positions": [
                0.8645389322830068,
                -1.3783752143285728,
                0.6260852088689233,
                0.7863230699746893,
                -0.4991491681220017,
                -0.6417871760402335
            ]
        },
        {
            "positions": [
                0.7847535579708338,
                -1.3842028479908404,
                0.736767979868401,
                0.8878393338900239,
                -0.4525492670400859,
                -0.6889092144387393
            ]
        },
        {
            "positions": [
                0.704968183658661,
                -1.3900304816531082,
                0.8474507508678788,
                0.9893555978053585,
                -0.4059493659581699,
                -0.7360312528372451
            ]
        },
        {
            "positions": [
                0.6251828093464882,
                -1.395858115315376,
                0.9581335218673566,
                1.0908718617206927,
                -0.35934946487625385,
                -0.7831532912357507
            ]
        },
        {
            "positions": [
                0.5453974350343151,
                -1.4016857489776438,
                1.0688162928668348,
                1.1923881256360278,
                -0.3127495637943376,
                -0.8302753296342568
            ]
        },
        {
            "positions": [
                0.4656120607221421,
                -1.4075133826399115,
                1.1794990638663125,
                1.2939043895513624,
                -0.2661496627124218,
                -0.8773973680327624
            ]
        },
        {
            "positions": [
                0.3858266864099691,
                -1.4133410163021793,
                1.2901818348657899,
                1.3954206534666966,
                -0.21954976163050577,
                -0.9245194064312682
            ]
        },
        {
            "positions": [
                0.3060413120977965,
                -1.419168649964447,
                1.4008646058652676,
                1.4969369173820313,
                -0.17294986054858974,
                -0.9716414448297738
            ]
        },
        {
            "positions": [
                0.22625593778562303,
                -1.4249962836267147,
                1.5115473768647458,
                1.5984531812973664,
                -0.1263499594666737,
                -1.01876348322828
            ]
        },
        {
            "positions": [
                0.14647056347345044,
                -1.4308239172889825,
                1.6222301478642236,
                1.6999694452127005,
                -0.07975005838475768,
                -1.0658855216267855
            ]
        },
        {
            "positions": [
                0.06668518916127762,
                -1.4366515509512503,
                1.7329129188637014,
                1.8014857091280354,
                -0.03315015730284158,
                -1.113007560025291
            ]
        },
        {
            "positions": [
                0.03819873703552536,
                -1.384623199958495,
                1.7715737462737495,
                1.8273833568881275,
                -0.04805366297560487,
                -0.991780257706483
            ]
        },
        {
            "positions": [
                0.009712284909773085,
                -1.3325948489657398,
                1.8102345736837975,
                1.8532810046482198,
                -0.06295716864836817,
                -0.870552955387675
            ]
        },
        {
            "positions": [
                -0.018774167215979187,
                -1.2805664979729845,
                1.8488954010938456,
                1.8791786524083118,
                -0.07786067432113147,
                -0.7493256530688668
            ]
        },
        {
            "positions": [
                0.008249553731366065,
                -1.1640656018720403,
                1.8866443745760992,
                1.8965155803102496,
                -0.09018930363171454,
                -0.5742342254347083
            ]
        },
        {
            "positions": [
                0.03527327467871132,
                -1.047564705771096,
                1.924393348058353,
                1.9138525082121873,
                -0.10251793294229761,
                -0.3991427978005497
            ]
        },
        {
            "positions": [
                0.062296995626056575,
                -0.9310638096701518,
                1.9621423215406066,
                1.931189436114125,
                -0.11484656225288067,
                -0.2240513701663911
            ]
        },
        {
            "positions": [
                0.09212906704307597,
                -0.8551790652586695,
                1.9810336266902904,
                1.939560462032014,
                -0.11931740003840426,
                -0.12616118001856197
            ]
        },
        {
            "positions": [
                0.12196113846009535,
                -0.7792943208471871,
                1.9999249318399743,
                1.9479314879499028,
                -0.12378823782392784,
                -0.028270989870732816
            ]
        }
    ]
}