{
    "goal": {
        "global_pose": {
            "orientation": {
                "w": -0.4816463035849501,
                "x": 0.5182115481033762,
                "y": 0.4908360881923453,
                "z": -0.5084816262002911
            },
            "position": {
                "x": -0.8240239810943604,
                "y": -0.300875300988555,
                "z": 0.16403168439865112
            }
        },
        "name": "move_to_storage_C"
    },
    "id": "EST_move_to_storage_C_140",
    "joint_names": [
        "shoulder_pan_joint",
        "shoulder_lift_joint",
        "elbow_joint",
        "wrist_1_joint",
        "wrist_2_joint",
        "wrist_3_joint"
    ],
    "metrics": {
        "cart_traj_len": 0.5772130829557963,
        "distance_elbow_joint": 0.2608347576467367,
        "distance_shoulder_lift_joint": 0.19075096852619622,
        "distance_shoulder_pan_joint": 0.49430394532648547,
        "distance_wrist_1_joint": 0.08212888444383792,
        "distance_wrist_2_joint": 1.069717998448473,
        "distance_wrist_3_joint": 0.061261875518933806,
        "smoothness": 0.0,
        "time": 0.03331203,
        "traj_len": 1.469353065097243,
        "weighted_distance": 1.852935256246381
    },
    "planner": "EST",
    "start": {
        "state": {
            "elbow_joint": 2.010868314990456,
            "shoulder_lift_joint": -1.1634956873337592,
            "shoulder_pan_joint": -2.4736205022346125,
            "wrist_1_joint": -0.8367026794202681,
            "wrist_2_joint": 0.6746043897044499,
            "wrist_3_joint": -3.1496632123970403
        }
    },
    "waypoints": [
        {
            "positions": [
                -2.4736205022346125,
                -1.1634956873337592,
                2.010868314990456,
                -0.8367026794202681,
                0.6746043897044499,
                -3.1496632123970403
            ]
        },
        {
            "positions": [
                -2.55600449312236,
                -1.1317038592460598,
                1.9673958553826663,
                -0.8230145320129618,
                0.8528907227791954,
                -3.1394528998105513
            ]
        },
        {
            "positions": [
                -2.6383884840101075,
                -1.0999120311583606,
                1.923923395774877,
                -0.8093263846056554,
                1.031177055853941,
                -3.1292425872240623
            ]
        },
        {
            "positions": [
                -2.7207724748978555,
                -1.0681202030706611,
                1.8804509361670876,
                -0.7956382371983491,
                1.2094633889286865,
                -3.1190322746375734
            ]
        },
        {
            "positions": [
                -2.803156465785603,
                -1.0363283749829617,
                1.836978476559298,
                -0.7819500897910429,
                1.387749722003432,
                -3.1088219620510844
            ]
        },
        {
            "positions": [
                -2.8855404566733505,
                -1.0045365468952623,
                1.7935060169515085,
                -0.7682619423837365,
                1.5660360550781776,
                -3.0986116494645954
            ]
        },
        {
            "positions": [
                -2.967924447561098,
                -0.972744718807563,
                1.7500335573437191,
                -0.7545737949764302,
                1.7443223881529228,
                -3.0884013368781065
            ]
        }
    ]
}