{
    "goal": {
        "global_pose": {
            "orientation": {
                "w": 0.005598929693374612,
                "x": 0.007748599140229565,
                "y": 0.7110244013736278,
                "z": -0.7031023480610252
            },
            "position": {
                "x": 0.1141497679147869,
                "y": -0.7141253447532654,
                "z": 0.3711530566215515
            }
        },
        "name": "move_to_auspresseinheit_B"
    },
    "id": "EST_move_to_auspresseinheit_B_107",
    "joint_names": [
        "shoulder_pan_joint",
        "shoulder_lift_joint",
        "elbow_joint",
        "wrist_1_joint",
        "wrist_2_joint",
        "wrist_3_joint"
    ],
    "metrics": {
        "cart_traj_len": 0.5646759575565516,
        "distance_elbow_joint": 0.06287974211600811,
        "distance_shoulder_lift_joint": 0.2949741488181554,
        "distance_shoulder_pan_joint": 0.577922194551231,
        "distance_wrist_1_joint": 0.3285630940529821,
        "distance_wrist_2_joint": 0.9887411985802288,
        "distance_wrist_3_joint": 0.008940956800432609,
        "smoothness": 5.075305295617109e-16,
        "time": 0.6052451209999999,
        "traj_len": 1.5040017735757623,
        "weighted_distance": 1.896630575824695
    },
    "planner": "EST",
    "start": {
        "state": {
            "elbow_joint": 2.0193083361928714,
            "shoulder_lift_joint": -1.1220246554650708,
            "shoulder_pan_joint": -1.0952077554168747,
            "wrist_1_joint": -0.8559753972642168,
            "wrist_2_joint": 0.4759566250798843,
            "wrist_3_joint": -3.1240929996934557
        }
    },
    "waypoints": [
        {
            "positions": [
                -1.0952077554168747,
                -1.1220246554650708,
                2.0193083361928714,
                -0.8559753972642168,
                0.4759566250798843,
                -3.1240929996934557
            ]
        },
        {
            "positions": [
                -1.1915281211754132,
                -1.17118701360143,
                2.008828379173537,
                -0.8012148815887198,
                0.6407468248432557,
                -3.1226028402267167
            ]
        },
        {
            "positions": [
                -1.2878484869339517,
                -1.2203493717377893,
                1.998348422154202,
                -0.7464543659132228,
                0.8055370246066271,
                -3.1211126807599783
            ]
        },
        {
            "positions": [
                -1.3841688526924902,
                -1.2695117298741485,
                1.9878684651348673,
                -0.6916938502377257,
                0.9703272243699987,
                -3.1196225212932394
            ]
        },
        {
            "positions": [
                -1.4804892184510285,
                -1.3186740880105077,
                1.9773885081155327,
                -0.6369333345622288,
                1.1351174241333701,
                -3.1181323618265004
            ]
        },
        {
            "positions": [
                -1.576809584209567,
                -1.367836446146867,
                1.966908551096198,
                -0.5821728188867317,
                1.2999076238967417,
                -3.116642202359762
            ]
        },
        {
            "positions": [
                -1.6731299499681056,
                -1.4169988042832262,
                1.9564285940768633,
                -0.5274123032112347,
                1.4646978236601131,
                -3.115152042893023
            ]
        }
    ]
}