{
    "goal": {
        "global_pose": {
            "orientation": {
                "w": 0.5084816217422485,
                "x": -0.49083608388900757,
                "y": 0.5182115435600281,
                "z": -0.4816462993621826
            },
            "position": {
                "x": 0.5540239810943604,
                "y": 0.030875300988554955,
                "z": 0.16403168439865112
            }
        },
        "name": "move_to_storage_A"
    },
    "id": "EST_move_to_storage_A_16",
    "joint_names": [
        "shoulder_pan_joint",
        "shoulder_lift_joint",
        "elbow_joint",
        "wrist_1_joint",
        "wrist_2_joint",
        "wrist_3_joint"
    ],
    "metrics": {
        "cart_traj_len": 0.3531388651134123,
        "distance_elbow_joint": 0.4512367631416827,
        "distance_shoulder_lift_joint": 0.23246597009024605,
        "distance_shoulder_pan_joint": 0.4608271185503742,
        "distance_wrist_1_joint": 0.2547538692514363,
        "distance_wrist_2_joint": 1.1018520417146234,
        "distance_wrist_3_joint": 0.09009174656609309,
        "smoothness": 2.2204460668324854e-16,
        "time": 0.07252879300000001,
        "traj_len": 1.6097290173549261,
        "weighted_distance": 2.031752178148876
    },
    "planner": "EST",
    "start": {
        "state": {
            "elbow_joint": 1.971548259319323,
            "shoulder_lift_joint": -1.1394851275133948,
            "shoulder_pan_joint": 0.1228115487234821,
            "wrist_1_joint": -0.7804723859257726,
            "wrist_2_joint": 0.12958671773740124,
            "wrist_3_joint": -3.192489227718131
        }
    },
    "waypoints": [
        {
            "positions": [
                0.1228115487234821,
                -1.1394851275133948,
                1.971548259319323,
                -0.7804723859257726,
                0.12958671773740124,
                -3.192489227718131
            ]
        },
        {
            "positions": [
                0.056979103216285784,
                -1.1726945518120013,
                2.036010654053849,
                -0.8168657958188349,
                0.2869941522680617,
                -3.179618978208689
            ]
        },
        {
            "positions": [
                -0.008853342290910532,
                -1.205903976110608,
                2.100473048788375,
                -0.8532592057118973,
                0.4444015867987222,
                -3.1667487286992473
            ]
        },
        {
            "positions": [
                -0.07468578779810683,
                -1.2391134004092146,
                2.1649354435229013,
                -0.8896526156049596,
                0.6018090213293826,
                -3.1538784791898054
            ]
        },
        {
            "positions": [
                -0.14051823330530316,
                -1.272322824707821,
                2.2293978382574275,
                -0.926046025498022,
                0.7592164558600432,
                -3.141008229680364
            ]
        },
        {
            "positions": [
                -0.20635067881249952,
                -1.3055322490064278,
                2.2938602329919533,
                -0.9624394353910842,
                0.9166238903907037,
                -3.128137980170922
            ]
        },
        {
            "positions": [
                -0.27218312431969577,
                -1.3387416733050344,
                2.3583226277264795,
                -0.9988328452841466,
                1.074031324921364,
                -3.11526773066148
            ]
        },
        {
            "positions": [
                -0.3380155698268921,
                -1.3719510976036409,
                2.4227850224610057,
                -1.035226255177209,
                1.2314387594520246,
                -3.102397481152038
            ]
        }
    ]
}{
    "goal": {
        "global_pose": {
            "orientation": {
                "w": 0.5084816217422485,
                "x": -0.49083608388900757,
                "y": 0.5182115435600281,
                "z": -0.4816462993621826
            },
            "position": {
                "x": 0.5540239810943604,
                "y": 0.030875300988554955,
                "z": 0.16403168439865112
            }
        },
        "name": "move_to_storage_A"
    },
    "id": "EST_move_to_storage_A_16",
    "joint_names": [
        "shoulder_pan_joint",
        "shoulder_lift_joint",
        "elbow_joint",
        "wrist_1_joint",
        "wrist_2_joint",
        "wrist_3_joint"
    ],
    "metrics": {
        "cart_traj_len": 0.3527203427031168,
        "distance_elbow_joint": 0.4536618137090347,
        "distance_shoulder_lift_joint": 0.2354530576480518,
        "distance_shoulder_pan_joint": 0.46036035339405795,
        "distance_wrist_1_joint": 0.2564268010125794,
        "distance_wrist_2_joint": 1.1028368822466372,
        "distance_wrist_3_joint": 0.09119853430779079,
        "smoothness": 8.881784197001252e-16,
        "time": 0.078985794,
        "traj_len": 1.6124321512293631,
        "weighted_distance": 2.0350916918392032
    },
    "planner": "EST",
    "start": {
        "state": {
            "elbow_joint": 1.97154746011099,
            "shoulder_lift_joint": -1.13948474672311,
            "shoulder_pan_joint": 0.12281154466712228,
            "wrist_1_joint": -0.7804688027058302,
            "wrist_2_joint": 0.12958655903071145,
            "wrist_3_joint": 3.0906928834467795
        }
    },
    "waypoints": [
        {
            "positions": [
                0.12281154466712228,
                -1.13948474672311,
                1.97154746011099,
                -0.7804688027058302,
                0.12958655903071145,
                3.0906928834467795
            ]
        },
        {
            "positions": [
                0.05704577989654258,
                -1.1731208978156888,
                2.036356290640852,
                -0.8171012028504844,
                0.2871346850659453,
                3.1037212454907497
            ]
        },
        {
            "positions": [
                -0.00871998487403712,
                -1.2067570489082675,
                2.1011651211707143,
                -0.8537336029951386,
                0.44468281110117924,
                3.11674960753472
            ]
        },
        {
            "positions": [
                -0.07448574964461684,
                -1.2403932000008464,
                2.1659739517005763,
                -0.8903660031397927,
                0.6022309371364131,
                3.12977796957869
            ]
        },
        {
            "positions": [
                -0.1402515144151965,
                -1.2740293510934253,
                2.2307827822304382,
                -0.9269984032844469,
                0.759779063171647,
                3.1428063316226598
            ]
        },
        {
            "positions": [
                -0.20601727918577623,
                -1.3076655021860042,
                2.2955916127603,
                -0.9636308034291012,
                0.9173271892068809,
                3.15583469366663
            ]
        },
        {
            "positions": [
                -0.27178304395635594,
                -1.3413016532785829,
                2.3604004432901626,
                -1.0002632035737553,
                1.0748753152421147,
                3.1688630557106
            ]
        },
        {
            "positions": [
                -0.33754880872693566,
                -1.3749378043711618,
                2.4252092738200246,
                -1.0368956037184096,
                1.2324234412773487,
                3.1818914177545703
            ]
        }
    ]
}{
    "goal": {
        "global_pose": {
            "orientation": {
                "w": 0.5084816217422485,
                "x": -0.49083608388900757,
                "y": 0.5182115435600281,
                "z": -0.4816462993621826
            },
            "position": {
                "x": 0.5540239810943604,
                "y": 0.030875300988554955,
                "z": 0.16403168439865112
            }
        },
        "name": "move_to_storage_A"
    },
    "id": "EST_move_to_storage_A_16",
    "joint_names": [
        "shoulder_pan_joint",
        "shoulder_lift_joint",
        "elbow_joint",
        "wrist_1_joint",
        "wrist_2_joint",
        "wrist_3_joint"
    ],
    "metrics": {
        "cart_traj_len": 0.35377990991464986,
        "distance_elbow_joint": 0.45460215707849594,
        "distance_shoulder_lift_joint": 0.23288626515267286,
        "distance_shoulder_pan_joint": 0.46350547226361544,
        "distance_wrist_1_joint": 0.2631637754670275,
        "distance_wrist_2_joint": 1.0961742671723207,
        "distance_wrist_3_joint": 0.09319730451143204,
        "smoothness": 0.0,
        "time": 0.041768623,
        "traj_len": 1.6135455499134708,
        "weighted_distance": 2.036973709527881
    },
    "planner": "EST",
    "start": {
        "state": {
            "elbow_joint": 1.9715472970024885,
            "shoulder_lift_joint": -1.1394870060712896,
            "shoulder_pan_joint": 0.12281152778156021,
            "wrist_1_joint": -0.780463741449964,
            "wrist_2_joint": 0.12958659822042276,
            "wrist_3_joint": 3.090690232415272
        }
    },
    "waypoints": [
        {
            "positions": [
                0.12281152778156021,
                -1.1394870060712896,
                1.9715472970024885,
                -0.780463741449964,
                0.12958659822042276,
                3.090690232415272
            ]
        },
        {
            "positions": [
                0.056596460315329444,
                -1.1727564725216715,
                2.0364904622994167,
                -0.8180585665166822,
                0.2861829221021829,
                3.104004133059762
            ]
        },
        {
            "positions": [
                -0.00961860715090132,
                -1.2060259389720533,
                2.1014336275963443,
                -0.8556533915834004,
                0.4427792459839429,
                3.1173180337042523
            ]
        },
        {
            "positions": [
                -0.07583367461713209,
                -1.2392954054224352,
                2.1663767928932725,
                -0.8932482166501187,
                0.5993755698657031,
                3.1306319343487425
            ]
        },
        {
            "positions": [
                -0.14204874208336285,
                -1.2725648718728169,
                2.2313199581902006,
                -0.9308430417168368,
                0.7559718937474631,
                3.143945834993233
            ]
        },
        {
            "positions": [
                -0.20826380954959364,
                -1.3058343383231987,
                2.2962631234871287,
                -0.9684378667835551,
                0.9125682176292232,
                3.1572597356377234
            ]
        },
        {
            "positions": [
                -0.2744788770158244,
                -1.3391038047735806,
                2.3612062887840564,
                -1.0060326918502733,
                1.0691645415109834,
                3.1705736362822137
            ]
        },
        {
            "positions": [
                -0.3406939444820552,
                -1.3723732712239625,
                2.4261494540809845,
                -1.0436275169169915,
                1.2257608653927434,
                3.183887536926704
            ]
        }
    ]
}