{
    "goal": {
        "global_pose": {
            "orientation": {
                "w": 0.5084816217422485,
                "x": -0.49083608388900757,
                "y": 0.5182115435600281,
                "z": -0.4816462993621826
            },
            "position": {
                "x": 0.5540239810943604,
                "y": 0.030875300988554955,
                "z": 0.16403168439865112
            }
        },
        "name": "move_to_storage_A"
    },
    "id": "EST_move_to_storage_A_52",
    "joint_names": [
        "shoulder_pan_joint",
        "shoulder_lift_joint",
        "elbow_joint",
        "wrist_1_joint",
        "wrist_2_joint",
        "wrist_3_joint"
    ],
    "metrics": {
        "cart_traj_len": 0.3535480355603184,
        "distance_elbow_joint": 0.44771323448847133,
        "distance_shoulder_lift_joint": 0.23378548825022505,
        "distance_shoulder_pan_joint": 0.4635933548493579,
        "distance_wrist_1_joint": 0.2366932450174405,
        "distance_wrist_2_joint": 1.093377167595861,
        "distance_wrist_3_joint": 0.10217904422054724,
        "smoothness": 4.440892098500626e-16,
        "time": 0.051957618000000004,
        "traj_len": 1.6054100829451343,
        "weighted_distance": 2.0277499933365304
    },
    "planner": "EST",
    "start": {
        "state": {
            "elbow_joint": 1.971548259319323,
            "shoulder_lift_joint": -1.1394851275133948,
            "shoulder_pan_joint": 0.1228115487234821,
            "wrist_1_joint": -0.7804723859257726,
            "wrist_2_joint": 0.12958671773740124,
            "wrist_3_joint": -3.192489227718131
        }
    },
    "waypoints": [
        {
            "positions": [
                0.1228115487234821,
                -1.1394851275133948,
                1.971548259319323,
                -0.7804723859257726,
                0.12958671773740124,
                -3.192489227718131
            ]
        },
        {
            "positions": [
                0.05658392660214527,
                -1.172883054406284,
                2.035507292817676,
                -0.8142857066425498,
                0.28578345596538135,
                -3.17789222140091
            ]
        },
        {
            "positions": [
                -0.009643695519191559,
                -1.2062809812991735,
                2.099466326316029,
                -0.8480990273593271,
                0.44198019419336154,
                -3.1632952150836893
            ]
        },
        {
            "positions": [
                -0.0758713176405284,
                -1.2396789081920627,
                2.163425359814382,
                -0.8819123480761042,
                0.5981769324213416,
                -3.148698208766468
            ]
        },
        {
            "positions": [
                -0.14209893976186522,
                -1.273076835084952,
                2.227384393312735,
                -0.9157256687928814,
                0.7543736706493218,
                -3.134101202449247
            ]
        },
        {
            "positions": [
                -0.2083265618832021,
                -1.3064747619778414,
                2.291343426811088,
                -0.9495389895096586,
                0.910570408877302,
                -3.119504196132026
            ]
        },
        {
            "positions": [
                -0.2745541840045389,
                -1.3398726888707306,
                2.3553024603094412,
                -0.9833523102264359,
                1.066767147105282,
                -3.104907189814805
            ]
        },
        {
            "positions": [
                -0.3407818061258758,
                -1.3732706157636199,
                2.4192614938077943,
                -1.017165630943213,
                1.2229638853332623,
                -3.090310183497584
            ]
        }
    ]
}{
    "goal": {
        "global_pose": {
            "orientation": {
                "w": 0.5084816217422485,
                "x": -0.49083608388900757,
                "y": 0.5182115435600281,
                "z": -0.4816462993621826
            },
            "position": {
                "x": 0.5540239810943604,
                "y": 0.030875300988554955,
                "z": 0.16403168439865112
            }
        },
        "name": "move_to_storage_A"
    },
    "id": "EST_move_to_storage_A_52",
    "joint_names": [
        "shoulder_pan_joint",
        "shoulder_lift_joint",
        "elbow_joint",
        "wrist_1_joint",
        "wrist_2_joint",
        "wrist_3_joint"
    ],
    "metrics": {
        "cart_traj_len": 0.3539828804977955,
        "distance_elbow_joint": 0.4486035225877729,
        "distance_shoulder_lift_joint": 0.23363900145713057,
        "distance_shoulder_pan_joint": 0.460314323507886,
        "distance_wrist_1_joint": 0.24074268447268765,
        "distance_wrist_2_joint": 1.110831936143622,
        "distance_wrist_3_joint": 0.09210882101307494,
        "smoothness": 8.881784197001252e-16,
        "time": 0.03501437,
        "traj_len": 1.6081791844139055,
        "weighted_distance": 2.0302789344877303
    },
    "planner": "EST",
    "start": {
        "state": {
            "elbow_joint": 1.97154746011099,
            "shoulder_lift_joint": -1.13948474672311,
            "shoulder_pan_joint": 0.12281154466712228,
            "wrist_1_joint": -0.7804688027058302,
            "wrist_2_joint": 0.12958655903071145,
            "wrist_3_joint": 3.0906928834467795
        }
    },
    "waypoints": [
        {
            "positions": [
                0.12281154466712228,
                -1.13948474672311,
                1.97154746011099,
                -0.7804688027058302,
                0.12958655903071145,
                3.0906928834467795
            ]
        },
        {
            "positions": [
                0.057052355594567145,
                -1.1728617469312714,
                2.035633677623529,
                -0.814860614773357,
                0.2882768356226575,
                3.103851286448647
            ]
        },
        {
            "positions": [
                -0.008706833477987994,
                -1.206238747139433,
                2.099719895136068,
                -0.8492524268408838,
                0.4469671122146035,
                3.1170096894505153
            ]
        },
        {
            "positions": [
                -0.07446602255054312,
                -1.2396157473475944,
                2.163806112648607,
                -0.8836442389084106,
                0.6056573888065495,
                3.130168092452383
            ]
        },
        {
            "positions": [
                -0.14022521162309826,
                -1.2729927475557559,
                2.2278923301611457,
                -0.9180360509759374,
                0.7643476653984955,
                3.143326495454251
            ]
        },
        {
            "positions": [
                -0.20598440069565344,
                -1.3063697477639176,
                2.291978547673685,
                -0.9524278630434642,
                0.9230379419904415,
                3.1564848984561187
            ]
        },
        {
            "positions": [
                -0.2717435897682085,
                -1.339746747972079,
                2.3560647651862237,
                -0.986819675110991,
                1.0817282185823875,
                3.169643301457987
            ]
        },
        {
            "positions": [
                -0.3375027788407637,
                -1.3731237481802405,
                2.420150982698763,
                -1.0212114871785178,
                1.2404184951743336,
                3.1828017044598544
            ]
        }
    ]
}{
    "goal": {
        "global_pose": {
            "orientation": {
                "w": 0.5084816217422485,
                "x": -0.49083608388900757,
                "y": 0.5182115435600281,
                "z": -0.4816462993621826
            },
            "position": {
                "x": 0.5540239810943604,
                "y": 0.030875300988554955,
                "z": 0.16403168439865112
            }
        },
        "name": "move_to_storage_A"
    },
    "id": "EST_move_to_storage_A_52",
    "joint_names": [
        "shoulder_pan_joint",
        "shoulder_lift_joint",
        "elbow_joint",
        "wrist_1_joint",
        "wrist_2_joint",
        "wrist_3_joint"
    ],
    "metrics": {
        "cart_traj_len": 0.3532623569747363,
        "distance_elbow_joint": 0.45134971028136217,
        "distance_shoulder_lift_joint": 0.23523017359272536,
        "distance_shoulder_pan_joint": 0.4625487514536887,
        "distance_wrist_1_joint": 0.24432177167585145,
        "distance_wrist_2_joint": 1.0973972515576365,
        "distance_wrist_3_joint": 0.08801186464148936,
        "smoothness": 0.0,
        "time": 0.057698735,
        "traj_len": 1.6058827862589329,
        "weighted_distance": 2.0240064910269484
    },
    "planner": "EST",
    "start": {
        "state": {
            "elbow_joint": 1.9715472970024885,
            "shoulder_lift_joint": -1.1394870060712896,
            "shoulder_pan_joint": 0.12281152778156021,
            "wrist_1_joint": -0.780463741449964,
            "wrist_2_joint": 0.12958659822042276,
            "wrist_3_joint": 3.090690232415272
        }
    },
    "waypoints": [
        {
            "positions": [
                0.12281152778156021,
                -1.1394870060712896,
                1.9715472970024885,
                -0.780463741449964,
                0.12958659822042276,
                3.090690232415272
            ]
        },
        {
            "positions": [
                0.05673313471674754,
                -1.173091316584536,
                2.036025827042683,
                -0.8153668516893714,
                0.2863576341572279,
                3.1032633559354847
            ]
        },
        {
            "positions": [
                -0.009345258348065127,
                -1.2066956270977827,
                2.100504357082878,
                -0.8502699619287787,
                0.4431286700940331,
                3.115836479455697
            ]
        },
        {
            "positions": [
                -0.0754236514128778,
                -1.240299937611029,
                2.1649828871230725,
                -0.8851730721681861,
                0.5998997060308383,
                3.12840960297591
            ]
        },
        {
            "positions": [
                -0.14150204447769046,
                -1.2739042481242755,
                2.2294614171632667,
                -0.9200761824075934,
                0.7566707419676435,
                3.140982726496123
            ]
        },
        {
            "positions": [
                -0.20758043754250313,
                -1.307508558637522,
                2.2939399472034614,
                -0.9549792926470008,
                0.9134417779044488,
                3.153555850016336
            ]
        },
        {
            "positions": [
                -0.2736588306073158,
                -1.3411128691507685,
                2.358418477243656,
                -0.989882402886408,
                1.0702128138412539,
                3.1661289735365483
            ]
        },
        {
            "positions": [
                -0.33973722367212844,
                -1.374717179664015,
                2.4228970072838507,
                -1.0247855131258155,
                1.2269838497780592,
                3.178702097056761
            ]
        }
    ]
}