{
    "goal": {
        "global_pose": {
            "orientation": {
                "w": -0.00223480608172531,
                "x": 0.0024358444001904467,
                "y": 0.7094548369677653,
                "z": -0.704743149386269
            },
            "position": {
                "x": 0.6205249238014221,
                "y": -0.6371506643295288,
                "z": 0.19426114857196808
            }
        },
        "name": "move_to_magneteinheit_B"
    },
    "id": "EST_move_to_magneteinheit_B_2",
    "joint_names": [
        "shoulder_pan_joint",
        "shoulder_lift_joint",
        "elbow_joint",
        "wrist_1_joint",
        "wrist_2_joint",
        "wrist_3_joint"
    ],
    "metrics": {
        "cart_traj_len": 1.5113872959456573,
        "distance_elbow_joint": 0.9534727926592665,
        "distance_shoulder_lift_joint": 0.8066416629844939,
        "distance_shoulder_pan_joint": 1.621200874814103,
        "distance_wrist_1_joint": 1.5180037404202427,
        "distance_wrist_2_joint": 1.954546674122091,
        "distance_wrist_3_joint": 0.44002851857114467,
        "smoothness": 0.6286905019606096,
        "time": 0.120602117,
        "traj_len": 2.700721063636773,
        "weighted_distance": 3.4126971320725143
    },
    "planner": "EST",
    "start": {
        "state": {
            "elbow_joint": 2.6216224122426386,
            "shoulder_lift_joint": -1.4174107377796124,
            "shoulder_pan_joint": 0.7066234856936794,
            "wrist_1_joint": 1.9546482284002225,
            "wrist_2_joint": -0.7096286983471962,
            "wrist_3_joint": 0.005740856962016249
        }
    },
    "waypoints": [
        {
            "positions": [
                0.7066234856936794,
                -1.4174107377796124,
                2.6216224122426386,
                1.9546482284002225,
                -0.7096286983471962,
                0.005740856962016249
            ]
        },
        {
            "positions": [
                0.6557123006825305,
                -1.4305984992055798,
                2.5730465989194213,
                1.8677917868561278,
                -0.6000096547879457,
                0.03853552050919132
            ]
        },
        {
            "positions": [
                0.6048011156713815,
                -1.4437862606315475,
                2.5244707855962045,
                1.7809353453120331,
                -0.49039061122869515,
                0.07133018405636639
            ]
        },
        {
            "positions": [
                0.45667766824743616,
                -1.4206050332944598,
                2.4432470571805216,
                1.7113755374432056,
                -0.529141784043324,
                0.09359024058275144
            ]
        },
        {
            "positions": [
                0.3085542208234908,
                -1.397423805957372,
                2.3620233287648387,
                1.641815729574378,
                -0.5678929568579529,
                0.1158502971091365
            ]
        },
        {
            "positions": [
                0.16043077339954548,
                -1.3742425786202843,
                2.2807996003491557,
                1.5722559217055507,
                -0.6066441296725819,
                0.13811035363552154
            ]
        },
        {
            "positions": [
                0.012307325975600136,
                -1.3510613512831968,
                2.199575871933473,
                1.5026961138367232,
                -0.6453953024872108,
                0.1603704101619066
            ]
        },
        {
            "positions": [
                -0.13581612144834532,
                -1.327880123946109,
                2.11835214351779,
                1.4331363059678957,
                -0.6841464753018396,
                0.18263046668829164
            ]
        },
        {
            "positions": [
                -0.28393956887229055,
                -1.3046988966090214,
                2.037128415102107,
                1.3635764980990681,
                -0.7228976481164685,
                0.2048905232146767
            ]
        },
        {
            "positions": [
                -0.43206301629623595,
                -1.2815176692719337,
                1.955904686686424,
                1.2940166902302406,
                -0.7616488209310974,
                0.22715057974106173
            ]
        },
        {
            "positions": [
                -0.48031445357865477,
                -1.2197179143946393,
                1.9271291799761188,
                1.3797539104552667,
                -0.9080538586612161,
                0.20528870016185183
            ]
        },
        {
            "positions": [
                -0.5285658908610735,
                -1.1579181595173447,
                1.8983536732658137,
                1.4654911306802927,
                -1.0544588963913348,
                0.18342682058264193
            ]
        },
        {
            "positions": [
                -0.5768173281434923,
                -1.09611840464005,
                1.8695781665555085,
                1.5512283509053189,
                -1.2008639341214535,
                0.16156494100343202
            ]
        },
        {
            "positions": [
                -0.625068765425911,
                -1.0343186497627557,
                1.8408026598452032,
                1.6369655711303448,
                -1.3472689718515725,
                0.13970306142422212
            ]
        },
        {
            "positions": [
                -0.6733202027083299,
                -0.9725188948854612,
                1.8120271531348981,
                1.722702791355371,
                -1.4936740095816912,
                0.11784118184501222
            ]
        },
        {
            "positions": [
                -0.7215716399907487,
                -0.9107191400081667,
                1.7832516464245929,
                1.8084400115803971,
                -1.6400790473118099,
                0.09597930226580231
            ]
        },
        {
            "positions": [
                -0.7698230772731675,
                -0.8489193851308722,
                1.7544761397142876,
                1.894177231805423,
                -1.7864840850419286,
                0.07411742268659241
            ]
        },
        {
            "positions": [
                -0.8180745145555863,
                -0.7871196302535777,
                1.7257006330039824,
                1.9799144520304492,
                -1.9328891227720475,
                0.05225554310738251
            ]
        },
        {
            "positions": [
                -0.8663259518380051,
                -0.7253198753762832,
                1.6969251262936773,
                2.065651672255475,
                -2.079294160502166,
                0.030393663528172604
            ]
        },
        {
            "positions": [
                -0.9145773891204239,
                -0.6635201204989887,
                1.668149619583372,
                2.1513888924805014,
                -2.225699198232285,
                0.008531783948962701
            ]
        }
    ]
}