{
    "goal": {
        "global_pose": {
            "orientation": {
                "w": 0.5084816217422485,
                "x": -0.49083608388900757,
                "y": 0.5182115435600281,
                "z": -0.4816462993621826
            },
            "position": {
                "x": 0.5540239810943604,
                "y": 0.030875300988554955,
                "z": 0.16403168439865112
            }
        },
        "name": "move_to_storage_A"
    },
    "id": "EST_move_to_storage_A_132",
    "joint_names": [
        "shoulder_pan_joint",
        "shoulder_lift_joint",
        "elbow_joint",
        "wrist_1_joint",
        "wrist_2_joint",
        "wrist_3_joint"
    ],
    "metrics": {
        "cart_traj_len": 0.3525029986000494,
        "distance_elbow_joint": 0.4514270353637404,
        "distance_shoulder_lift_joint": 0.23552297551996926,
        "distance_shoulder_pan_joint": 0.4621352028934193,
        "distance_wrist_1_joint": 0.24397063097712757,
        "distance_wrist_2_joint": 1.0936319589243333,
        "distance_wrist_3_joint": 0.09764449029571365,
        "smoothness": 2.2204460668324854e-16,
        "time": 0.063753484,
        "traj_len": 1.6075858589743515,
        "weighted_distance": 2.0290943458763055
    },
    "planner": "EST",
    "start": {
        "state": {
            "elbow_joint": 1.971548259319323,
            "shoulder_lift_joint": -1.1394851275133948,
            "shoulder_pan_joint": 0.1228115487234821,
            "wrist_1_joint": -0.7804723859257726,
            "wrist_2_joint": 0.12958671773740124,
            "wrist_3_joint": -3.192489227718131
        }
    },
    "waypoints": [
        {
            "positions": [
                0.1228115487234821,
                -1.1394851275133948,
                1.971548259319323,
                -0.7804723859257726,
                0.12958671773740124,
                -3.192489227718131
            ]
        },
        {
            "positions": [
                0.0567922340244222,
                -1.1731312668733904,
                2.036037835799857,
                -0.8153253332082194,
                0.2858198547265917,
                -3.1785400148187435
            ]
        },
        {
            "positions": [
                -0.009227080674637705,
                -1.206777406233386,
                2.1005274122803916,
                -0.8501782804906662,
                0.44205299171578216,
                -3.164590801919356
            ]
        },
        {
            "positions": [
                -0.0752463953736976,
                -1.2404235455933816,
                2.165016988760926,
                -0.8850312277731129,
                0.5982861287049727,
                -3.150641589019968
            ]
        },
        {
            "positions": [
                -0.1412657100727575,
                -1.2740696849533772,
                2.2295065652414605,
                -0.9198841750555597,
                0.7545192656941632,
                -3.1366923761205805
            ]
        },
        {
            "positions": [
                -0.20728502477181743,
                -1.3077158243133729,
                2.293996141721995,
                -0.9547371223380066,
                0.9107524026833537,
                -3.122743163221193
            ]
        },
        {
            "positions": [
                -0.2733043394708773,
                -1.3413619636733685,
                2.358485718202529,
                -0.9895900696204534,
                1.066985539672544,
                -3.108793950321805
            ]
        },
        {
            "positions": [
                -0.3393236541699372,
                -1.375008103033364,
                2.4229752946830634,
                -1.0244430169029002,
                1.2232186766617346,
                -3.0948447374224175
            ]
        }
    ]
}{
    "goal": {
        "global_pose": {
            "orientation": {
                "w": 0.5084816217422485,
                "x": -0.49083608388900757,
                "y": 0.5182115435600281,
                "z": -0.4816462993621826
            },
            "position": {
                "x": 0.5540239810943604,
                "y": 0.030875300988554955,
                "z": 0.16403168439865112
            }
        },
        "name": "move_to_storage_A"
    },
    "id": "EST_move_to_storage_A_132",
    "joint_names": [
        "shoulder_pan_joint",
        "shoulder_lift_joint",
        "elbow_joint",
        "wrist_1_joint",
        "wrist_2_joint",
        "wrist_3_joint"
    ],
    "metrics": {
        "cart_traj_len": 0.35266877613388603,
        "distance_elbow_joint": 0.45109132038830957,
        "distance_shoulder_lift_joint": 0.23467966006550767,
        "distance_shoulder_pan_joint": 0.46196979048900266,
        "distance_wrist_1_joint": 0.24735503993502816,
        "distance_wrist_2_joint": 1.094797535690226,
        "distance_wrist_3_joint": 0.09495397452961818,
        "smoothness": 0.0,
        "time": 0.116926129,
        "traj_len": 1.6077460375002304,
        "weighted_distance": 2.0290164725260813
    },
    "planner": "EST",
    "start": {
        "state": {
            "elbow_joint": 1.97154746011099,
            "shoulder_lift_joint": -1.13948474672311,
            "shoulder_pan_joint": 0.12281154466712228,
            "wrist_1_joint": -0.7804688027058302,
            "wrist_2_joint": 0.12958655903071145,
            "wrist_3_joint": 3.0906928834467795
        }
    },
    "waypoints": [
        {
            "positions": [
                0.12281154466712228,
                -1.13948474672311,
                1.97154746011099,
                -0.7804688027058302,
                0.12958655903071145,
                3.0906928834467795
            ]
        },
        {
            "positions": [
                0.056815860311550476,
                -1.173010412446754,
                2.0359890773093197,
                -0.8158052369822628,
                0.28598620698645805,
                3.1042577369510105
            ]
        },
        {
            "positions": [
                -0.009179824044021331,
                -1.2065360781703978,
                2.10043069450765,
                -0.8511416712586953,
                0.4423858549422046,
                3.117822590455242
            ]
        },
        {
            "positions": [
                -0.07517550839959312,
                -1.2400617438940418,
                2.1648723117059796,
                -0.886478105535128,
                0.5987855028979512,
                3.131387443959473
            ]
        },
        {
            "positions": [
                -0.14117119275516493,
                -1.2735874096176858,
                2.22931392890431,
                -0.9218145398115606,
                0.7551851508536978,
                3.1449522974637043
            ]
        },
        {
            "positions": [
                -0.20716687711073678,
                -1.3071130753413298,
                2.2937555461026395,
                -0.9571509740879931,
                0.9115847988094443,
                3.1585171509679353
            ]
        },
        {
            "positions": [
                -0.2731625614663085,
                -1.3406387410649736,
                2.3581971633009697,
                -0.9924874083644257,
                1.0679844467651909,
                3.1720820044721667
            ]
        },
        {
            "positions": [
                -0.33915824582188037,
                -1.3741644067886176,
                2.4226387804992995,
                -1.0278238426408584,
                1.2243840947209375,
                3.1856468579763977
            ]
        }
    ]
}{
    "goal": {
        "global_pose": {
            "orientation": {
                "w": 0.5084816217422485,
                "x": -0.49083608388900757,
                "y": 0.5182115435600281,
                "z": -0.4816462993621826
            },
            "position": {
                "x": 0.5540239810943604,
                "y": 0.030875300988554955,
                "z": 0.16403168439865112
            }
        },
        "name": "move_to_storage_A"
    },
    "id": "EST_move_to_storage_A_132",
    "joint_names": [
        "shoulder_pan_joint",
        "shoulder_lift_joint",
        "elbow_joint",
        "wrist_1_joint",
        "wrist_2_joint",
        "wrist_3_joint"
    ],
    "metrics": {
        "cart_traj_len": 0.3528126675985594,
        "distance_elbow_joint": 0.4554024721709715,
        "distance_shoulder_lift_joint": 0.23295424560668043,
        "distance_shoulder_pan_joint": 0.4618784844048074,
        "distance_wrist_1_joint": 0.26490703220664225,
        "distance_wrist_2_joint": 1.0961825821581381,
        "distance_wrist_3_joint": 0.09572756769459856,
        "smoothness": 1.1102230298998083e-15,
        "time": 0.13995449299999999,
        "traj_len": 1.6146369202523019,
        "weighted_distance": 2.039509042391285
    },
    "planner": "EST",
    "start": {
        "state": {
            "elbow_joint": 1.9715472970024885,
            "shoulder_lift_joint": -1.1394870060712896,
            "shoulder_pan_joint": 0.12281152778156021,
            "wrist_1_joint": -0.780463741449964,
            "wrist_2_joint": 0.12958659822042276,
            "wrist_3_joint": 3.090690232415272
        }
    },
    "waypoints": [
        {
            "positions": [
                0.12281152778156021,
                -1.1394870060712896,
                1.9715472970024885,
                -0.780463741449964,
                0.12958659822042276,
                3.090690232415272
            ]
        },
        {
            "positions": [
                0.05682888715230201,
                -1.1727661840151011,
                2.036604793026913,
                -0.81830760319377,
                0.2861841099572996,
                3.1043655992287857
            ]
        },
        {
            "positions": [
                -0.009153753476956183,
                -1.2060453619589127,
                2.1016622890513377,
                -0.8561514649375761,
                0.44278162169417645,
                3.1180409660423
            ]
        },
        {
            "positions": [
                -0.07513639410621437,
                -1.2393245399027242,
                2.1667197850757622,
                -0.893995326681382,
                0.5993791334310533,
                3.131716332855814
            ]
        },
        {
            "positions": [
                -0.14111903473547258,
                -1.2726037178465355,
                2.2317772811001864,
                -0.9318391884251881,
                0.7559766451679302,
                3.1453916996693283
            ]
        },
        {
            "positions": [
                -0.20710167536473081,
                -1.305882895790347,
                2.296834777124611,
                -0.9696830501689941,
                0.9125741569048071,
                3.159067066482842
            ]
        },
        {
            "positions": [
                -0.27308431599398897,
                -1.3391620737341585,
                2.3618922731490355,
                -1.0075269119128003,
                1.069171668641684,
                3.1727424332963565
            ]
        },
        {
            "positions": [
                -0.33906695662324715,
                -1.37244125167797,
                2.42694976917346,
                -1.0453707736566062,
                1.2257691803785609,
                3.1864178001098704
            ]
        }
    ]
}