{
    "goal": {
        "global_pose": {
            "orientation": {
                "w": 0.7047431493862688,
                "x": -0.7094548369677653,
                "y": 0.0024358444001904,
                "z": -0.0022348060817251984
            },
            "position": {
                "x": -0.39052492380142206,
                "y": 0.3671506643295288,
                "z": 0.19426114857196808
            }
        },
        "name": "move_to_magneteinheit_D"
    },
    "id": "EST_move_to_magneteinheit_D_83",
    "joint_names": [
        "shoulder_pan_joint",
        "shoulder_lift_joint",
        "elbow_joint",
        "wrist_1_joint",
        "wrist_2_joint",
        "wrist_3_joint"
    ],
    "metrics": {
        "cart_traj_len": 4.093816007622312,
        "distance_elbow_joint": 4.796426818501088,
        "distance_shoulder_lift_joint": 1.6263598000116246,
        "distance_shoulder_pan_joint": 3.2666596026370716,
        "distance_wrist_1_joint": 4.074807768676632,
        "distance_wrist_2_joint": 3.051420237245183,
        "distance_wrist_3_joint": 4.91053512916495,
        "smoothness": 0.49845858653520453,
        "time": 0.452513328,
        "traj_len": 4.661138203940809,
        "weighted_distance": 6.218802748157258
    },
    "planner": "EST",
    "start": {
        "state": {
            "elbow_joint": 0.749534889911806,
            "shoulder_lift_joint": -0.6476975780787326,
            "shoulder_pan_joint": -2.711696901376241,
            "wrist_1_joint": -0.07506478083263063,
            "wrist_2_joint": 0.43296659715538205,
            "wrist_3_joint": -3.14703540197715
        }
    },
    "waypoints": [
        {
            "positions": [
                -2.711696901376241,
                -0.6476975780787326,
                0.749534889911806,
                -0.07506478083263063,
                0.43296659715538205,
                -3.14703540197715
            ]
        },
        {
            "positions": [
                -2.7098566376573734,
                -0.6860483750173944,
                0.7919913120811064,
                -0.12200821021065611,
                0.3484108635825185,
                -2.985738579960523
            ]
        },
        {
            "positions": [
                -2.7080163739385053,
                -0.7243991719560562,
                0.8344477342504067,
                -0.1689516395886816,
                0.2638551300096549,
                -2.8244417579438963
            ]
        },
        {
            "positions": [
                -2.7061761102196376,
                -0.7627499688947179,
                0.8769041564197072,
                -0.21589506896670707,
                0.17929939643679133,
                -2.663144935927269
            ]
        },
        {
            "positions": [
                -2.70433584650077,
                -0.8011007658333796,
                0.9193605785890075,
                -0.2628384983447326,
                0.09474366286392777,
                -2.501848113910642
            ]
        },
        {
            "positions": [
                -2.7024955827819017,
                -0.8394515627720415,
                0.961817000758308,
                -0.30978192772275803,
                0.010187929291064157,
                -2.3405512918940152
            ]
        },
        {
            "positions": [
                -2.700655319063034,
                -0.8778023597107032,
                1.0042734229276085,
                -0.3567253571007835,
                -0.0743678042817994,
                -2.1792544698773884
            ]
        },
        {
            "positions": [
                -2.6988150553441663,
                -0.916153156649365,
                1.046729845096909,
                -0.40366878647880905,
                -0.158923537854663,
                -2.0179576478607615
            ]
        },
        {
            "positions": [
                -2.696974791625298,
                -0.9545039535880266,
                1.0891862672662094,
                -0.45061221585683453,
                -0.2434792714275265,
                -1.8566608258441344
            ]
        },
        {
            "positions": [
                -2.6951345279064305,
                -0.9928547505266885,
                1.1316426894355098,
                -0.49755564523486,
                -0.3280350050003901,
                -1.6953640038275073
            ]
        },
        {
            "positions": [
                -2.693294264187563,
                -1.0312055474653503,
                1.1740991116048103,
                -0.5444990746128855,
                -0.41259073857325373,
                -1.5340671818108802
            ]
        },
        {
            "positions": [
                -2.6914540004686947,
                -1.069556344404012,
                1.2165555337741105,
                -0.591442503990911,
                -0.49714647214611735,
                -1.372770359794253
            ]
        },
        {
            "positions": [
                -2.689613736749827,
                -1.1079071413426738,
                1.259011955943411,
                -0.6383859333689363,
                -0.5817022057189809,
                -1.2114735377776265
            ]
        },
        {
            "positions": [
                -2.6877734730309593,
                -1.1462579382813356,
                1.3014683781127114,
                -0.6853293627469619,
                -0.6662579392918444,
                -1.0501767157609994
            ]
        },
        {
            "positions": [
                -2.685933209312091,
                -1.1846087352199972,
                1.3439248002820117,
                -0.7322727921249874,
                -0.7508136728647081,
                -0.8888798937443725
            ]
        },
        {
            "positions": [
                -2.6840929455932234,
                -1.222959532158659,
                1.3863812224513121,
                -0.779216221503013,
                -0.8353694064375716,
                -0.7275830717277452
            ]
        },
        {
            "positions": [
                -2.6822526818743557,
                -1.2613103290973209,
                1.4288376446206126,
                -0.8261596508810385,
                -0.9199251400104351,
                -0.5662862497111187
            ]
        },
        {
            "positions": [
                -2.6804124181554876,
                -1.2996611260359825,
                1.471294066789913,
                -0.8731030802590638,
                -1.0044808735832986,
                -0.4049894276944914
            ]
        },
        {
            "positions": [
                -2.67857215443662,
                -1.3380119229746443,
                1.5137504889592135,
                -0.9200465096370893,
                -1.0890366071561624,
                -0.24369260567786455
            ]
        },
        {
            "positions": [
                -2.5891686633879973,
                -1.3522434295550474,
                1.4080121045148621,
                -0.8372624393871422,
                -1.0373478729301593,
                -0.20034714979901816
            ]
        },
        {
            "positions": [
                -2.499765172339375,
                -1.3664749361354505,
                1.3022737200705108,
                -0.7544783691371949,
                -0.9856591387041562,
                -0.15700169392017177
            ]
        },
        {
            "positions": [
                -2.4103616812907522,
                -1.3807064427158533,
                1.1965353356261592,
                -0.6716942988872476,
                -0.933970404478153,
                -0.11365623804132541
            ]
        },
        {
            "positions": [
                -2.3209581902421297,
                -1.3949379492962564,
                1.0907969511818079,
                -0.5889102286373005,
                -0.88228167025215,
                -0.07031078216247902
            ]
        },
        {
            "positions": [
                -2.231554699193507,
                -1.4091694558766594,
                0.9850585667374565,
                -0.5061261583873533,
                -0.8305929360261468,
                -0.02696532628363263
            ]
        },
        {
            "positions": [
                -2.1421512081448846,
                -1.4234009624570625,
                0.8793201822931052,
                -0.42334208813740604,
                -0.7789042018001437,
                0.016380129595213733
            ]
        },
        {
            "positions": [
                -2.052747717096262,
                -1.4376324690374656,
                0.7735817978487538,
                -0.3405580178874589,
                -0.7272154675741407,
                0.05972558547406015
            ]
        },
        {
            "positions": [
                -1.9633442260476395,
                -1.4518639756178686,
                0.6678434134044023,
                -0.2577739476375116,
                -0.6755267333481376,
                0.10307104135290651
            ]
        },
        {
            "positions": [
                -1.873940734999017,
                -1.4660954821982715,
                0.562105028960051,
                -0.17498987738756444,
                -0.6238379991221346,
                0.14641649723175287
            ]
        },
        {
            "positions": [
                -1.7845372439503944,
                -1.4803269887786745,
                0.4563666445156995,
                -0.09220580713761717,
                -0.5721492648961314,
                0.1897619531105993
            ]
        },
        {
            "positions": [
                -1.6951337529017718,
                -1.4945584953590776,
                0.3506282600713482,
                -0.009421736887670007,
                -0.5204605306701283,
                0.23310740898944565
            ]
        },
        {
            "positions": [
                -1.605730261853149,
                -1.5087900019394807,
                0.24488987562699682,
                0.07336233336227727,
                -0.46877179644412525,
                0.276452864868292
            ]
        },
        {
            "positions": [
                -1.5163267708045265,
                -1.5230215085198835,
                0.13915149118264547,
                0.15614640361222443,
                -0.4170830622181221,
                0.31979832074713843
            ]
        },
        {
            "positions": [
                -1.426923279755904,
                -1.5372530151002866,
                0.03341310673829412,
                0.2389304738621716,
                -0.365394327992119,
                0.36314377662598485
            ]
        },
        {
            "positions": [
                -1.3375197887072814,
                -1.5514845216806896,
                -0.07232527770605746,
                0.32171454411211897,
                -0.31370559376611584,
                0.40648923250483127
            ]
        },
        {
            "positions": [
                -1.2481162976586588,
                -1.5657160282610927,
                -0.1780636621504088,
                0.40449861436206613,
                -0.2620168595401129,
                0.44983468838367757
            ]
        },
        {
            "positions": [
                -1.1587128066100363,
                -1.5799475348414957,
                -0.28380204659476016,
                0.4872826846120135,
                -0.21032812531410972,
                0.493180144262524
            ]
        },
        {
            "positions": [
                -1.0693093155614137,
                -1.5941790414218988,
                -0.3895404310391115,
                0.5700667548619605,
                -0.15863939108810665,
                0.5365256001413703
            ]
        },
        {
            "positions": [
                -0.979905824512791,
                -1.6084105480023019,
                -0.49527881548346286,
                0.6528508251119078,
                -0.10695065686210348,
                0.5798710560202168
            ]
        },
        {
            "positions": [
                -0.8905023334641686,
                -1.6226420545827047,
                -0.6010171999278144,
                0.735634895361855,
                -0.05526192263610041,
                0.6232165118990631
            ]
        },
        {
            "positions": [
                -0.8010988424155459,
                -1.6368735611631078,
                -0.706755584372166,
                0.8184189656118024,
                -0.00357318841009735,
                0.6665619677779095
            ]
        },
        {
            "positions": [
                -0.7116953513669235,
                -1.6511050677435108,
                -0.8124939688165171,
                0.9012030358617493,
                0.048115545815905714,
                0.7099074236567559
            ]
        },
        {
            "positions": [
                -0.6222918603183007,
                -1.665336574323914,
                -0.9182323532608687,
                0.9839871061116967,
                0.09980428004190878,
                0.7532528795356023
            ]
        },
        {
            "positions": [
                -0.5328883692696782,
                -1.6795680809043168,
                -1.0239707377052198,
                1.0667711763616439,
                0.15149301426791184,
                0.7965983354144486
            ]
        },
        {
            "positions": [
                -0.44348487822105565,
                -1.6937995874847198,
                -1.1297091221495714,
                1.1495552466115913,
                0.20318174849391513,
                0.839943791293295
            ]
        },
        {
            "positions": [
                -0.3540813871724331,
                -1.7080310940651229,
                -1.2354475065939226,
                1.2323393168615382,
                0.2548704827199182,
                0.8832892471721414
            ]
        },
        {
            "positions": [
                -0.2646778961238106,
                -1.722262600645526,
                -1.3411858910382741,
                1.3151233871114858,
                0.30655921694592136,
                0.9266347030509878
            ]
        },
        {
            "positions": [
                -0.208492106757573,
                -1.783165322746508,
                -1.4805225778452684,
                1.3853279327982078,
                0.3026282075462868,
                0.890442242616423
            ]
        },
        {
            "positions": [
                -0.15230631739133538,
                -1.8440680448474902,
                -1.6198592646522627,
                1.45553247848493,
                0.29869719814665213,
                0.8542497821818582
            ]
        },
        {
            "positions": [
                -0.09612052802509774,
                -1.9049707669484726,
                -1.7591959514592568,
                1.5257370241716521,
                0.29476618874701754,
                0.8180573217472934
            ]
        },
        {
            "positions": [
                -0.03993473865886013,
                -1.9658734890494547,
                -1.898532638266251,
                1.595941569858374,
                0.2908351793473829,
                0.7818648613127286
            ]
        },
        {
            "positions": [
                0.01625105070737748,
                -2.026776211150437,
                -2.0378693250732454,
                1.666146115545096,
                0.2869041699477483,
                0.7456724008781637
            ]
        },
        {
            "positions": [
                0.07243684007361512,
                -2.087678933251419,
                -2.1772060118802394,
                1.7363506612318182,
                0.2829731605481137,
                0.7094799404435989
            ]
        },
        {
            "positions": [
                0.1286226294398527,
                -2.1485816553524013,
                -2.3165426986872335,
                1.8065552069185404,
                0.2790421511484791,
                0.673287480009034
            ]
        },
        {
            "positions": [
                0.18480841880609034,
                -2.2094843774533834,
                -2.455879385494228,
                1.8767597526052624,
                0.2751111417488445,
                0.6370950195744692
            ]
        },
        {
            "positions": [
                0.09226984819240491,
                -2.225627627612627,
                -2.4402340492441685,
                1.7685048081978065,
                0.2495178583402248,
                0.5002636844093948
            ]
        },
        {
            "positions": [
                -0.0002687224212805095,
                -2.24177087777187,
                -2.424588712994109,
                1.6602498637903507,
                0.2239245749316051,
                0.3634323492443204
            ]
        },
        {
            "positions": [
                -0.09280729303496593,
                -2.2579141279311137,
                -2.408943376744049,
                1.5519949193828946,
                0.1983312915229854,
                0.22660101407924593
            ]
        },
        {
            "positions": [
                -0.18534586364865133,
                -2.2740573780903572,
                -2.3932980404939896,
                1.4437399749754387,
                0.1727380081143657,
                0.08976967891417158
            ]
        }
    ]
}