{
    "goal": {
        "global_pose": {
            "orientation": {
                "w": 0.5084816262002911,
                "x": -0.4908360881923452,
                "y": 0.5182115481033761,
                "z": -0.48164630358495003
            },
            "position": {
                "x": 0.5540239810943604,
                "y": -0.46912469901144505,
                "z": 0.16403168439865112
            }
        },
        "name": "move_to_storage_B"
    },
    "id": "EST_move_to_storage_B_138",
    "joint_names": [
        "shoulder_pan_joint",
        "shoulder_lift_joint",
        "elbow_joint",
        "wrist_1_joint",
        "wrist_2_joint",
        "wrist_3_joint"
    ],
    "metrics": {
        "cart_traj_len": 1.6572163118296839,
        "distance_elbow_joint": 0.7374793876441887,
        "distance_shoulder_lift_joint": 1.2819775997789702,
        "distance_shoulder_pan_joint": 1.0826389902023716,
        "distance_wrist_1_joint": 4.560219048172595,
        "distance_wrist_2_joint": 2.7251512406122185,
        "distance_wrist_3_joint": 4.910420296161707,
        "smoothness": 0.9115040119100695,
        "time": 0.088393823,
        "traj_len": 3.9112512783726956,
        "weighted_distance": 5.692459700663702
    },
    "planner": "EST",
    "start": {
        "state": {
            "elbow_joint": 1.664937868594044,
            "shoulder_lift_joint": -0.661644460510453,
            "shoulder_pan_joint": -0.9139846352900073,
            "wrist_1_joint": 2.146753192139373,
            "wrist_2_joint": -2.2341966793290973,
            "wrist_3_joint": 0.005466555786416001
        }
    },
    "waypoints": [
        {
            "positions": [
                -0.9139846352900073,
                -0.661644460510453,
                1.664937868594044,
                2.146753192139373,
                -2.2341966793290973,
                0.005466555786416001
            ]
        },
        {
            "positions": [
                -0.8038619502761188,
                -0.6276143659280349,
                1.5705963411320991,
                2.1256413658459,
                -2.2365547906916428,
                0.09663120587273666
            ]
        },
        {
            "positions": [
                -0.6937392652622303,
                -0.5935842713456169,
                1.4762548136701545,
                2.1045295395524275,
                -2.2389129020541887,
                0.18779585595905732
            ]
        },
        {
            "positions": [
                -0.6681407664120266,
                -0.6904915906719783,
                1.5069290079167013,
                2.189982733092881,
                -2.181812843346056,
                0.09066211189729088
            ]
        },
        {
            "positions": [
                -0.6425422675618228,
                -0.7873989099983398,
                1.537603202163248,
                2.275435926633335,
                -2.1247127846379232,
                -0.006471632164475549
            ]
        },
        {
            "positions": [
                -0.616943768711619,
                -0.8843062293247013,
                1.5682773964097945,
                2.3608891201737885,
                -2.06761272592979,
                -0.10360537622624197
            ]
        },
        {
            "positions": [
                -0.5913452698614153,
                -0.9812135486510627,
                1.5989515906563412,
                2.4463423137142417,
                -2.0105126672216573,
                -0.20073912028800842
            ]
        },
        {
            "positions": [
                -0.5657467710112115,
                -1.0781208679774243,
                1.629625784902888,
                2.531795507254696,
                -1.9534126085135246,
                -0.2978728643497749
            ]
        },
        {
            "positions": [
                -0.5401482721610078,
                -1.1750281873037856,
                1.6602999791494346,
                2.617248700795149,
                -1.8963125498053919,
                -0.3950066084115412
            ]
        },
        {
            "positions": [
                -0.5145497733108041,
                -1.2719355066301472,
                1.6909741733959813,
                2.7027018943356027,
                -1.839212491097259,
                -0.4921403524733077
            ]
        },
        {
            "positions": [
                -0.4889512744606003,
                -1.3688428259565084,
                1.7216483676425278,
                2.7881550878760564,
                -1.782112432389126,
                -0.5892740965350741
            ]
        },
        {
            "positions": [
                -0.46335277561039656,
                -1.46575014528287,
                1.7523225618890745,
                2.87360828141651,
                -1.7250123736809932,
                -0.6864078405968406
            ]
        },
        {
            "positions": [
                -0.48592445884335234,
                -1.4535447332586957,
                1.7620628684784094,
                2.739718400926454,
                -1.646207570484067,
                -0.5487690084742275
            ]
        },
        {
            "positions": [
                -0.5084961420763081,
                -1.4413393212345214,
                1.7718031750677445,
                2.6058285204363982,
                -1.567402767287141,
                -0.41113017635161436
            ]
        },
        {
            "positions": [
                -0.5310678253092638,
                -1.4291339092103472,
                1.7815434816570794,
                2.4719386399463423,
                -1.4885979640902147,
                -0.2734913442290013
            ]
        },
        {
            "positions": [
                -0.5536395085422195,
                -1.4169284971861729,
                1.7912837882464145,
                2.338048759456286,
                -1.4097931608932888,
                -0.13585251210638816
            ]
        },
        {
            "positions": [
                -0.5762111917751753,
                -1.4047230851619985,
                1.8010240948357494,
                2.20415887896623,
                -1.3309883576963626,
                0.0017863200162250292
            ]
        },
        {
            "positions": [
                -0.5987828750081311,
                -1.3925176731378242,
                1.8107644014250843,
                2.070268998476174,
                -1.2521835544994364,
                0.139425152138838
            ]
        },
        {
            "positions": [
                -0.6213545582410869,
                -1.3803122611136498,
                1.8205047080144194,
                1.9363791179861183,
                -1.1733787513025102,
                0.2770639842614512
            ]
        },
        {
            "positions": [
                -0.6439262414740425,
                -1.3681068490894754,
                1.8302450146037543,
                1.8024892374960624,
                -1.0945739481055843,
                0.41470281638406425
            ]
        },
        {
            "positions": [
                -0.6664979247069983,
                -1.3559014370653013,
                1.8399853211930894,
                1.6685993570060063,
                -1.0157691449086579,
                0.5523416485066774
            ]
        },
        {
            "positions": [
                -0.6890696079399541,
                -1.343696025041127,
                1.8497256277824243,
                1.5347094765159504,
                -0.9369643417117318,
                0.6899804806292906
            ]
        },
        {
            "positions": [
                -0.7116412911729098,
                -1.3314906130169526,
                1.8594659343717592,
                1.4008195960258945,
                -0.8581595385148056,
                0.8276193127519036
            ]
        },
        {
            "positions": [
                -0.7342129744058656,
                -1.3192852009927782,
                1.8692062409610943,
                1.2669297155358386,
                -0.7793547353178796,
                0.9652581448745166
            ]
        },
        {
            "positions": [
                -0.7567846576388213,
                -1.3070797889686039,
                1.8789465475504292,
                1.1330398350457824,
                -0.7005499321209534,
                1.10289697699713
            ]
        },
        {
            "positions": [
                -0.7793563408717771,
                -1.2948743769444295,
                1.8886868541397641,
                0.9991499545557265,
                -0.6217451289240272,
                1.240535809119743
            ]
        },
        {
            "positions": [
                -0.8019280241047329,
                -1.2826689649202554,
                1.8984271607290992,
                0.8652600740656706,
                -0.542940325727101,
                1.3781746412423561
            ]
        },
        {
            "positions": [
                -0.8244997073376885,
                -1.270463552896081,
                1.9081674673184341,
                0.7313701935756147,
                -0.4641355225301751,
                1.515813473364969
            ]
        },
        {
            "positions": [
                -0.8470713905706443,
                -1.2582581408719067,
                1.9179077739077692,
                0.5974803130855588,
                -0.3853307193332489,
                1.653452305487582
            ]
        },
        {
            "positions": [
                -0.8696430738036001,
                -1.2460527288477323,
                1.9276480804971041,
                0.4635904325955025,
                -0.3065259161363225,
                1.7910911376101954
            ]
        },
        {
            "positions": [
                -0.8922147570365558,
                -1.233847316823558,
                1.9373883870864392,
                0.3297005521054466,
                -0.22772111293939634,
                1.9287299697328084
            ]
        },
        {
            "positions": [
                -0.9147864402695116,
                -1.2216419047993838,
                1.9471286936757741,
                0.19581067161539067,
                -0.1489163097424704,
                2.066368801855422
            ]
        },
        {
            "positions": [
                -0.9373581235024673,
                -1.2094364927752095,
                1.956869000265109,
                0.06192079112533477,
                -0.07011150654554421,
                2.204007633978035
            ]
        },
        {
            "positions": [
                -0.959929806735423,
                -1.1972310807510351,
                1.9666093068544441,
                -0.07196908936472113,
                0.008693296651381965,
                2.3416464661006477
            ]
        },
        {
            "positions": [
                -0.9825014899683788,
                -1.1850256687268608,
                1.976349613443779,
                -0.20585896985477703,
                0.08749809984830792,
                2.4792852982232607
            ]
        },
        {
            "positions": [
                -1.0050731732013345,
                -1.1728202567026864,
                1.986089920033114,
                -0.33974885034483293,
                0.1663029030452341,
                2.6169241303458737
            ]
        },
        {
            "positions": [
                -1.0276448564342904,
                -1.1606148446785123,
                1.995830226622449,
                -0.4736387308348893,
                0.2451077062421605,
                2.754562962468487
            ]
        },
        {
            "positions": [
                -1.0502165396672463,
                -1.1484094326543377,
                2.005570533211784,
                -0.6075286113249452,
                0.32391250943908645,
                2.8922017945911005
            ]
        },
        {
            "positions": [
                -1.072788222900202,
                -1.1362040206301636,
                2.015310839801119,
                -0.7414184918150011,
                0.4027173126360126,
                3.0298406267137135
            ]
        },
        {
            "positions": [
                -1.0953599061331576,
                -1.1239986086059892,
                2.025051146390454,
                -0.8753083723050571,
                0.4815221158329388,
                3.1674794588363264
            ]
        }
    ]
}