{
    "goal": {
        "global_pose": {
            "orientation": {
                "w": -0.4816463035849501,
                "x": 0.5182115481033762,
                "y": 0.4908360881923453,
                "z": -0.5084816262002911
            },
            "position": {
                "x": -0.8240239810943604,
                "y": 0.19912469901144506,
                "z": 0.16403168439865112
            }
        },
        "name": "move_to_storage_D"
    },
    "id": "EST_move_to_storage_D_46",
    "joint_names": [
        "shoulder_pan_joint",
        "shoulder_lift_joint",
        "elbow_joint",
        "wrist_1_joint",
        "wrist_2_joint",
        "wrist_3_joint"
    ],
    "metrics": {
        "cart_traj_len": 0.5602820080088382,
        "distance_elbow_joint": 0.5809008347323474,
        "distance_shoulder_lift_joint": 0.15189211989090534,
        "distance_shoulder_pan_joint": 0.2500026678253145,
        "distance_wrist_1_joint": 3.841142588694514,
        "distance_wrist_2_joint": 1.826708490037145,
        "distance_wrist_3_joint": 3.3185412336305142,
        "smoothness": 0.27687291251532276,
        "time": 0.10153139,
        "traj_len": 3.1574020863378713,
        "weighted_distance": 4.719546745271566
    },
    "planner": "EST",
    "start": {
        "state": {
            "elbow_joint": -2.384821988534728,
            "shoulder_lift_joint": -2.2788054721415256,
            "shoulder_pan_joint": -0.1854694642142757,
            "wrist_1_joint": 1.4845938289331202,
            "wrist_2_joint": 0.17898776772866878,
            "wrist_3_joint": 0.037105688729662994
        }
    },
    "waypoints": [
        {
            "positions": [
                -0.1854694642142757,
                -2.2788054721415256,
                -2.384821988534728,
                1.4845938289331202,
                0.17898776772866878,
                0.037105688729662994
            ]
        },
        {
            "positions": [
                -0.05128695961634874,
                -2.2292636573502613,
                -2.395183484122496,
                1.4599580596812236,
                0.19708324281272044,
                0.016067971303503938
            ]
        },
        {
            "positions": [
                0.014597152308500894,
                -2.1880042581428967,
                -2.328584901760543,
                1.3598762312758856,
                0.18931396721083193,
                -0.042254148186069436
            ]
        },
        {
            "positions": [
                0.012516483504228475,
                -2.1854588037307185,
                -2.3075873702279335,
                1.2050251899826656,
                0.11427881140453174,
                0.09271174334371313
            ]
        },
        {
            "positions": [
                0.010435814699956057,
                -2.1829133493185404,
                -2.286589838695324,
                1.0501741486894458,
                0.039243655598231536,
                0.22767763487349568
            ]
        },
        {
            "positions": [
                0.00835514589568364,
                -2.1803678949063623,
                -2.2655923071627146,
                0.8953231073962258,
                -0.03579150020806868,
                0.3626435264032783
            ]
        },
        {
            "positions": [
                0.006274477091411221,
                -2.177822440494184,
                -2.2445947756301052,
                0.7404720661030059,
                -0.11082665601436886,
                0.4976094179330608
            ]
        },
        {
            "positions": [
                0.004193808287138803,
                -2.1752769860820056,
                -2.223597244097496,
                0.5856210248097858,
                -0.18586181182066908,
                0.6325753094628435
            ]
        },
        {
            "positions": [
                0.002113139482866384,
                -2.1727315316698275,
                -2.2025997125648864,
                0.4307699835165659,
                -0.2608969676269693,
                0.767541200992626
            ]
        },
        {
            "positions": [
                3.247067859396546e-05,
                -2.1701860772576493,
                -2.181602181032277,
                0.2759189422233459,
                -0.3359321234332695,
                0.9025070925224087
            ]
        },
        {
            "positions": [
                -0.0020481981256784514,
                -2.167640622845471,
                -2.1606046494996676,
                0.1210679009301261,
                -0.41096727923956966,
                1.037472984052191
            ]
        },
        {
            "positions": [
                -0.004128866929950872,
                -2.165095168433293,
                -2.139607117967058,
                -0.03378314036309393,
                -0.48600243504586993,
                1.1724388755819737
            ]
        },
        {
            "positions": [
                -0.0062095357342232885,
                -2.162549714021115,
                -2.1186095864344487,
                -0.18863418165631396,
                -0.5610375908521701,
                1.3074047671117563
            ]
        },
        {
            "positions": [
                -0.008290204538495705,
                -2.160004259608937,
                -2.0976120549018393,
                -0.34348522294953376,
                -0.6360727466584702,
                1.4423706586415388
            ]
        },
        {
            "positions": [
                -0.010370873342768126,
                -2.1574588051967583,
                -2.07661452336923,
                -0.4983362642427538,
                -0.7111079024647705,
                1.5773365501713215
            ]
        },
        {
            "positions": [
                -0.012451542147040542,
                -2.15491335078458,
                -2.0556169918366205,
                -0.6531873055359736,
                -0.7861430582710707,
                1.712302441701104
            ]
        },
        {
            "positions": [
                -0.014532210951312963,
                -2.152367896372402,
                -2.034619460304011,
                -0.8080383468291938,
                -0.8611782140773709,
                1.8472683332308868
            ]
        },
        {
            "positions": [
                -0.01661287975558538,
                -2.149822441960224,
                -2.0136219287714017,
                -0.9628893881224136,
                -0.9362133698836712,
                1.9822342247606692
            ]
        },
        {
            "positions": [
                -0.018693548559857796,
                -2.1472769875480457,
                -1.9926243972387923,
                -1.1177404294156335,
                -1.0112485256899713,
                2.1172001162904515
            ]
        },
        {
            "positions": [
                -0.020774217364130217,
                -2.1447315331358676,
                -1.9716268657061828,
                -1.2725914707088537,
                -1.0862836814962715,
                2.2521660078202346
            ]
        },
        {
            "positions": [
                -0.022854886168402637,
                -2.1421860787236895,
                -1.9506293341735734,
                -1.4274425120020735,
                -1.1613188373025718,
                2.387131899350017
            ]
        },
        {
            "positions": [
                -0.02493555497267505,
                -2.1396406243115114,
                -1.929631802640964,
                -1.5822935532952933,
                -1.2363539931088718,
                2.5220977908797995
            ]
        },
        {
            "positions": [
                -0.02701622377694747,
                -2.1370951698993332,
                -1.9086342711083546,
                -1.7371445945885136,
                -1.311389148915172,
                2.657063682409582
            ]
        },
        {
            "positions": [
                -0.02909689258121989,
                -2.1345497154871547,
                -1.8876367395757452,
                -1.8919956358817334,
                -1.3864243047214724,
                2.792029573939365
            ]
        },
        {
            "positions": [
                -0.031177561385492304,
                -2.1320042610749765,
                -1.8666392080431358,
                -2.046846677174953,
                -1.4614594605277724,
                2.926995465469147
            ]
        },
        {
            "positions": [
                -0.03325823018976473,
                -2.1294588066627984,
                -1.8456416765105264,
                -2.201697718468173,
                -1.536494616334073,
                3.0619613569989297
            ]
        },
        {
            "positions": [
                -0.035338898994037145,
                -2.1269133522506203,
                -1.824644144977917,
                -2.3565487597613934,
                -1.611529772140373,
                3.1969272485287124
            ]
        }
    ]
}