{
    "goal": {
        "global_pose": {
            "orientation": {
                "w": 0.7047431493862688,
                "x": -0.7094548369677653,
                "y": 0.0024358444001904,
                "z": -0.0022348060817251984
            },
            "position": {
                "x": -0.39052492380142206,
                "y": 0.3671506643295288,
                "z": 0.19426114857196808
            }
        },
        "name": "move_to_magneteinheit_D"
    },
    "id": "EST_move_to_magneteinheit_D_125",
    "joint_names": [
        "shoulder_pan_joint",
        "shoulder_lift_joint",
        "elbow_joint",
        "wrist_1_joint",
        "wrist_2_joint",
        "wrist_3_joint"
    ],
    "metrics": {
        "cart_traj_len": 5.946485712998369,
        "distance_elbow_joint": 3.534320825266426,
        "distance_shoulder_lift_joint": 1.1048163633889496,
        "distance_shoulder_pan_joint": 3.4548816337917936,
        "distance_wrist_1_joint": 3.301682378790169,
        "distance_wrist_2_joint": 2.7140361475791597,
        "distance_wrist_3_joint": 2.9919151133952404,
        "smoothness": 0.6896065529178464,
        "time": 0.808116775,
        "traj_len": 4.135414424481752,
        "weighted_distance": 5.394552920805538
    },
    "planner": "EST",
    "start": {
        "state": {
            "elbow_joint": 0.749534889911806,
            "shoulder_lift_joint": -0.6476975780787326,
            "shoulder_pan_joint": -2.711696901376241,
            "wrist_1_joint": -0.07506478083263063,
            "wrist_2_joint": 0.43296659715538205,
            "wrist_3_joint": -3.14703540197715
        }
    },
    "waypoints": [
        {
            "positions": [
                -2.711696901376241,
                -0.6476975780787326,
                0.749534889911806,
                -0.07506478083263063,
                0.43296659715538205,
                -3.14703540197715
            ]
        },
        {
            "positions": [
                -2.7734855185059324,
                -0.8574746541607474,
                0.7376792977520379,
                -0.04328404271469574,
                0.4457455958320129,
                -3.148057740890625
            ]
        },
        {
            "positions": [
                -2.8352741356356232,
                -1.0672517302427622,
                0.7258237055922697,
                -0.011503304596760855,
                0.4585245945086437,
                -3.1490800798041003
            ]
        },
        {
            "positions": [
                -2.6669914092132565,
                -1.0784582724731602,
                0.7231527260348529,
                -0.07053875878467133,
                0.502252979177398,
                -3.059081419959051
            ]
        },
        {
            "positions": [
                -2.4987086827908893,
                -1.089664814703558,
                0.7204817464774362,
                -0.12957421297258181,
                0.5459813638461524,
                -2.9690827601140017
            ]
        },
        {
            "positions": [
                -2.330425956368522,
                -1.1008713569339559,
                0.7178107669200194,
                -0.18860966716049232,
                0.5897097485149068,
                -2.8790841002689525
            ]
        },
        {
            "positions": [
                -2.1621432299461554,
                -1.1120778991643536,
                0.7151397873626026,
                -0.2476451213484028,
                0.633438133183661,
                -2.789085440423903
            ]
        },
        {
            "positions": [
                -1.9938605035237882,
                -1.1232844413947516,
                0.7124688078051858,
                -0.3066805755363133,
                0.6771665178524153,
                -2.6990867805788534
            ]
        },
        {
            "positions": [
                -1.8255777771014212,
                -1.1344909836251493,
                0.7097978282477692,
                -0.3657160297242238,
                0.7208949025211697,
                -2.609088120733804
            ]
        },
        {
            "positions": [
                -1.6572950506790545,
                -1.1456975258555473,
                0.7071268486903524,
                -0.42475148391213424,
                0.764623287189924,
                -2.519089460888755
            ]
        },
        {
            "positions": [
                -1.4890123242566875,
                -1.156904068085945,
                0.7044558691329356,
                -0.48378693810004475,
                0.8083516718586783,
                -2.4290908010437056
            ]
        },
        {
            "positions": [
                -1.3207295978343203,
                -1.168110610316343,
                0.7017848895755189,
                -0.5428223922879553,
                0.8520800565274327,
                -2.3390921411986563
            ]
        },
        {
            "positions": [
                -1.1524468714119533,
                -1.1793171525467407,
                0.6991139100181021,
                -0.6018578464758657,
                0.8958084411961871,
                -2.249093481353607
            ]
        },
        {
            "positions": [
                -0.9841641449895864,
                -1.1905236947771387,
                0.6964429304606853,
                -0.6608933006637763,
                0.9395368258649415,
                -2.1590948215085577
            ]
        },
        {
            "positions": [
                -0.8158814185672192,
                -1.2017302370075365,
                0.6937719509032685,
                -0.7199287548516867,
                0.9832652105336958,
                -2.0690961616635084
            ]
        },
        {
            "positions": [
                -0.6475986921448524,
                -1.2129367792379344,
                0.6911009713458518,
                -0.7789642090395971,
                1.02699359520245,
                -1.9790975018184591
            ]
        },
        {
            "positions": [
                -0.4793159657224857,
                -1.2241433214683322,
                0.688429991788435,
                -0.8379996632275076,
                1.0707219798712044,
                -1.8890988419734098
            ]
        },
        {
            "positions": [
                -0.3110332393001185,
                -1.2353498636987301,
                0.6857590122310182,
                -0.8970351174154181,
                1.1144503645399588,
                -1.7991001821283605
            ]
        },
        {
            "positions": [
                -0.14275051287775176,
                -1.246556405929128,
                0.6830880326736015,
                -0.9560705716033286,
                1.158178749208713,
                -1.709101522283311
            ]
        },
        {
            "positions": [
                0.025532213544615268,
                -1.2577629481595258,
                0.6804170531161847,
                -1.015106025791239,
                1.2019071338774674,
                -1.6191028624382617
            ]
        },
        {
            "positions": [
                0.032025462997322264,
                -1.2777347217718524,
                0.5181155799264784,
                -1.1019942923713837,
                1.1189704517902992,
                -1.6536993257062915
            ]
        },
        {
            "positions": [
                0.03851871245002926,
                -1.2977064953841788,
                0.355814106736772,
                -1.1888825589515282,
                1.0360337697031308,
                -1.6882957889743213
            ]
        },
        {
            "positions": [
                0.045011961902736264,
                -1.3176782689965054,
                0.19351263354706566,
                -1.2757708255316729,
                0.9530970876159626,
                -1.722892252242351
            ]
        },
        {
            "positions": [
                0.05150521135544326,
                -1.337650042608832,
                0.03121116035735927,
                -1.3626590921118176,
                0.8701604055287943,
                -1.7574887155103809
            ]
        },
        {
            "positions": [
                0.05799846080815026,
                -1.3576218162211586,
                -0.13109031283234707,
                -1.4495473586919623,
                0.7872237234416259,
                -1.7920851787784107
            ]
        },
        {
            "positions": [
                0.06449171026085726,
                -1.3775935898334852,
                -0.2933917860220534,
                -1.536435625272107,
                0.7042870413544577,
                -1.8266816420464405
            ]
        },
        {
            "positions": [
                0.07098495971356425,
                -1.3975653634458116,
                -0.4556932592117596,
                -1.6233238918522515,
                0.6213503592672894,
                -1.8612781053144702
            ]
        },
        {
            "positions": [
                0.07747820916627125,
                -1.4175371370581382,
                -0.6179947324014662,
                -1.7102121584323962,
                0.5384136771801211,
                -1.8958745685825003
            ]
        },
        {
            "positions": [
                0.08397145861897826,
                -1.4375089106704648,
                -0.7802962055911725,
                -1.7971004250125409,
                0.4554769950929529,
                -1.93047103185053
            ]
        },
        {
            "positions": [
                0.09046470807168525,
                -1.4574806842827912,
                -0.9425976787808789,
                -1.8839886915926853,
                0.3725403130057846,
                -1.9650674951185598
            ]
        },
        {
            "positions": [
                0.09695795752439225,
                -1.4774524578951178,
                -1.1048991519705855,
                -1.97087695817283,
                0.2896036309186163,
                -1.9996639583865896
            ]
        },
        {
            "positions": [
                0.10345120697709924,
                -1.4974242315074444,
                -1.2672006251602914,
                -2.0577652247529747,
                0.2066669488314481,
                -2.0342604216546194
            ]
        },
        {
            "positions": [
                0.10994445642980624,
                -1.517396005119771,
                -1.4295020983499982,
                -2.1446534913331194,
                0.12373026674427967,
                -2.068856884922649
            ]
        },
        {
            "positions": [
                0.11643770588251323,
                -1.5373677787320976,
                -1.591803571539704,
                -2.2315417579132637,
                0.04079358465711147,
                -2.103453348190679
            ]
        },
        {
            "positions": [
                0.12293095533522023,
                -1.557339552344424,
                -1.7541050447294109,
                -2.3184300244934084,
                -0.04214309743005673,
                -2.1380498114587088
            ]
        },
        {
            "positions": [
                0.12942420478792724,
                -1.5773113259567506,
                -1.9164065179191172,
                -2.405318291073553,
                -0.12507977951722515,
                -2.1726462747267385
            ]
        },
        {
            "positions": [
                0.13591745424063423,
                -1.5972830995690772,
                -2.0787079911088235,
                -2.492206557653698,
                -0.20801646160439335,
                -2.2072427379947683
            ]
        },
        {
            "positions": [
                0.14241070369334125,
                -1.6172548731814036,
                -2.24100946429853,
                -2.5790948242338425,
                -0.29095314369156156,
                -2.241839201262798
            ]
        },
        {
            "positions": [
                0.1489039531460482,
                -1.6372266467937302,
                -2.403310937488236,
                -2.665983090813987,
                -0.37388982577872976,
                -2.276435664530828
            ]
        },
        {
            "positions": [
                0.15539720259875522,
                -1.6571984204060568,
                -2.5656124106779425,
                -2.752871357394132,
                -0.4568265078658982,
                -2.3110321277988577
            ]
        },
        {
            "positions": [
                0.0986250257157493,
                -1.6730843405829945,
                -2.5290834898984964,
                -2.670079215767977,
                -0.4090995130136131,
                -2.439026119939167
            ]
        },
        {
            "positions": [
                0.04185284883274337,
                -1.688970260759932,
                -2.49255456911905,
                -2.5872870741418224,
                -0.361372518161328,
                -2.5670201120794762
            ]
        },
        {
            "positions": [
                -0.014919328050262554,
                -1.7048561809368694,
                -2.4560256483396037,
                -2.5044949325156676,
                -0.3136455233090429,
                -2.6950141042197853
            ]
        },
        {
            "positions": [
                -0.07169150493326848,
                -1.720742101113807,
                -2.4194967275601575,
                -2.4217027908895132,
                -0.2659185284567578,
                -2.8230080963600948
            ]
        },
        {
            "positions": [
                -0.12846368181627443,
                -1.7366280212907448,
                -2.382967806780711,
                -2.3389106492633585,
                -0.2181915336044727,
                -2.9510020885004042
            ]
        },
        {
            "positions": [
                -0.18523585869928033,
                -1.7525139414676822,
                -2.346438886001265,
                -2.2561185076372037,
                -0.17046453875218762,
                -3.0789960806407133
            ]
        }
    ]
}