{
    "goal": {
        "global_pose": {
            "orientation": {
                "w": 0.5084816262002911,
                "x": -0.4908360881923452,
                "y": 0.5182115481033761,
                "z": -0.48164630358495003
            },
            "position": {
                "x": 0.5540239810943604,
                "y": -0.46912469901144505,
                "z": 0.16403168439865112
            }
        },
        "name": "move_to_storage_B"
    },
    "id": "EST_move_to_storage_B_65",
    "joint_names": [
        "shoulder_pan_joint",
        "shoulder_lift_joint",
        "elbow_joint",
        "wrist_1_joint",
        "wrist_2_joint",
        "wrist_3_joint"
    ],
    "metrics": {
        "cart_traj_len": 0.6175539002985784,
        "distance_elbow_joint": 0.3577516487835841,
        "distance_shoulder_lift_joint": 0.46177820626132826,
        "distance_shoulder_pan_joint": 0.22945976453584105,
        "distance_wrist_1_joint": 3.0109647051000565,
        "distance_wrist_2_joint": 2.7198736413748152,
        "distance_wrist_3_joint": 3.1150130388813992,
        "smoothness": 0.03612426177418099,
        "time": 0.093623064,
        "traj_len": 3.14560661954686,
        "weighted_distance": 4.675008602042856
    },
    "planner": "EST",
    "start": {
        "state": {
            "elbow_joint": 1.664937868594044,
            "shoulder_lift_joint": -0.661644460510453,
            "shoulder_pan_joint": -0.9139846352900073,
            "wrist_1_joint": 2.146753192139373,
            "wrist_2_joint": -2.2341966793290973,
            "wrist_3_joint": 0.005466555786416001
        }
    },
    "waypoints": [
        {
            "positions": [
                -0.9139846352900073,
                -0.661644460510453,
                1.664937868594044,
                2.146753192139373,
                -2.2341966793290973,
                0.005466555786416001
            ]
        },
        {
            "positions": [
                -0.8896531225751938,
                -0.6989938211647617,
                1.6768203481771373,
                2.077367178235175,
                -2.190495915979864,
                -0.01619623345981538
            ]
        },
        {
            "positions": [
                -0.8978582526480349,
                -0.7159709749890425,
                1.690655114945157,
                1.9597040305873406,
                -2.0834490008588404,
                -0.13993024344522212
            ]
        },
        {
            "positions": [
                -0.906063382720876,
                -0.7329481288133233,
                1.7044898817131766,
                1.842040882939506,
                -1.9764020857378173,
                -0.2636642534306288
            ]
        },
        {
            "positions": [
                -0.9142685127937171,
                -0.749925282637604,
                1.7183246484811963,
                1.7243777352916718,
                -1.8693551706167941,
                -0.3873982634160355
            ]
        },
        {
            "positions": [
                -0.9224736428665582,
                -0.7669024364618848,
                1.732159415249216,
                1.6067145876438376,
                -1.7623082554957707,
                -0.5111322734014423
            ]
        },
        {
            "positions": [
                -0.9306787729393993,
                -0.7838795902861656,
                1.7459941820172356,
                1.489051439996003,
                -1.6552613403747474,
                -0.634866283386849
            ]
        },
        {
            "positions": [
                -0.9388839030122405,
                -0.8008567441104464,
                1.759828948785255,
                1.3713882923481688,
                -1.5482144252537242,
                -0.7586002933722557
            ]
        },
        {
            "positions": [
                -0.9470890330850815,
                -0.8178338979347272,
                1.7736637155532748,
                1.2537251447003346,
                -1.4411675101327008,
                -0.8823343033576625
            ]
        },
        {
            "positions": [
                -0.9552941631579226,
                -0.8348110517590079,
                1.7874984823212943,
                1.1360619970525003,
                -1.3341205950116777,
                -1.0060683133430692
            ]
        },
        {
            "positions": [
                -0.9634992932307638,
                -0.8517882055832887,
                1.801333249089314,
                1.0183988494046659,
                -1.2270736798906543,
                -1.1298023233284757
            ]
        },
        {
            "positions": [
                -0.9717044233036048,
                -0.8687653594075695,
                1.8151680158573336,
                0.9007357017568316,
                -1.1200267647696311,
                -1.2535363333138827
            ]
        },
        {
            "positions": [
                -0.9799095533764459,
                -0.8857425132318504,
                1.8290027826253532,
                0.7830725541089971,
                -1.0129798496486078,
                -1.3772703432992894
            ]
        },
        {
            "positions": [
                -0.988114683449287,
                -0.902719667056131,
                1.8428375493933729,
                0.6654094064611629,
                -0.9059329345275846,
                -1.501004353284696
            ]
        },
        {
            "positions": [
                -0.9963198135221282,
                -0.9196968208804119,
                1.8566723161613925,
                0.5477462588133286,
                -0.7988860194065612,
                -1.624738363270103
            ]
        },
        {
            "positions": [
                -1.0045249435949692,
                -0.9366739747046927,
                1.8705070829294121,
                0.43008311116549414,
                -0.6918391042855379,
                -1.7484723732555096
            ]
        },
        {
            "positions": [
                -1.0127300736678104,
                -0.9536511285289735,
                1.8843418496974318,
                0.3124199635176599,
                -0.5847921891645147,
                -1.8722063832409161
            ]
        },
        {
            "positions": [
                -1.0209352037406514,
                -0.9706282823532542,
                1.8981766164654514,
                0.19475681586982563,
                -0.47774527404349154,
                -1.995940393226323
            ]
        },
        {
            "positions": [
                -1.0291403338134926,
                -0.987605436177535,
                1.912011383233471,
                0.07709366822199115,
                -0.37069835892246816,
                -2.11967440321173
            ]
        },
        {
            "positions": [
                -1.0373454638863335,
                -1.0045825900018157,
                1.9258461500014907,
                -0.0405694794258431,
                -0.263651443801445,
                -2.243408413197136
            ]
        },
        {
            "positions": [
                -1.0455505939591747,
                -1.0215597438260966,
                1.9396809167695102,
                -0.15823262707367736,
                -0.15660452868042185,
                -2.367142423182543
            ]
        },
        {
            "positions": [
                -1.053755724032016,
                -1.0385368976503773,
                1.95351568353753,
                -0.2758957747215116,
                -0.04955761355939847,
                -2.49087643316795
            ]
        },
        {
            "positions": [
                -1.0619608541048569,
                -1.0555140514746582,
                1.9673504503055494,
                -0.39355892236934586,
                0.057489301561624906,
                -2.6146104431533566
            ]
        },
        {
            "positions": [
                -1.070165984177698,
                -1.072491205298939,
                1.981185217073569,
                -0.5112220700171806,
                0.16453621668264828,
                -2.7383444531387635
            ]
        },
        {
            "positions": [
                -1.0783711142505392,
                -1.0894683591232197,
                1.9950199838415887,
                -0.6288852176650148,
                0.27158313180367166,
                -2.86207846312417
            ]
        },
        {
            "positions": [
                -1.0865762443233802,
                -1.1064455129475004,
                2.0088547506096086,
                -0.7465483653128491,
                0.3786300469246946,
                -2.9858124731095765
            ]
        },
        {
            "positions": [
                -1.0947813743962214,
                -1.1234226667717813,
                2.022689517377628,
                -0.8642115129606832,
                0.48567696204571803,
                -3.1095464830949835
            ]
        }
    ]
}