{
    "goal": {
        "global_pose": {
            "orientation": {
                "w": -0.4816463035849501,
                "x": 0.5182115481033762,
                "y": 0.4908360881923453,
                "z": -0.5084816262002911
            },
            "position": {
                "x": -0.8240239810943604,
                "y": 0.19912469901144506,
                "z": 0.16403168439865112
            }
        },
        "name": "move_to_storage_D"
    },
    "id": "EST_move_to_storage_D_82",
    "joint_names": [
        "shoulder_pan_joint",
        "shoulder_lift_joint",
        "elbow_joint",
        "wrist_1_joint",
        "wrist_2_joint",
        "wrist_3_joint"
    ],
    "metrics": {
        "cart_traj_len": 4.279822465548917,
        "distance_elbow_joint": 4.2140481091992354,
        "distance_shoulder_lift_joint": 1.350850792485367,
        "distance_shoulder_pan_joint": 2.8136337383798584,
        "distance_wrist_1_joint": 2.2798747541798727,
        "distance_wrist_2_joint": 0.8783117254357625,
        "distance_wrist_3_joint": 3.1502894417353753,
        "smoothness": 0.005802083088202549,
        "time": 0.057505837000000004,
        "traj_len": 3.832363312815667,
        "weighted_distance": 4.913834950881221
    },
    "planner": "EST",
    "start": {
        "state": {
            "elbow_joint": -2.384821988534728,
            "shoulder_lift_joint": -2.2788054721415256,
            "shoulder_pan_joint": -0.1854694642142757,
            "wrist_1_joint": 1.4845938289331202,
            "wrist_2_joint": 0.17898776772866878,
            "wrist_3_joint": 0.037105688729662994
        }
    },
    "waypoints": [
        {
            "positions": [
                -0.1854694642142757,
                -2.2788054721415256,
                -2.384821988534728,
                1.4845938289331202,
                0.17898776772866878,
                0.037105688729662994
            ]
        },
        {
            "positions": [
                -0.09883359457915553,
                -2.281537936582939,
                -2.227728634067678,
                1.375521501393723,
                0.18890070919092078,
                0.061003681062678485
            ]
        },
        {
            "positions": [
                -0.012197724944035343,
                -2.2842704010243526,
                -2.0706352796006273,
                1.2664491738543255,
                0.19881365065317275,
                0.08490167339569397
            ]
        },
        {
            "positions": [
                0.07443814469108487,
                -2.287002865465766,
                -1.9135419251335772,
                1.1573768463149283,
                0.20872659211542474,
                0.10879966572870947
            ]
        },
        {
            "positions": [
                0.16107401432620502,
                -2.2897353299071797,
                -1.7564485706665272,
                1.0483045187755309,
                0.2186395335776767,
                0.13269765806172495
            ]
        },
        {
            "positions": [
                0.24770988396132518,
                -2.292467794348593,
                -1.5993552161994768,
                0.9392321912361337,
                0.2285524750399287,
                0.15659565039474044
            ]
        },
        {
            "positions": [
                0.33434575359644547,
                -2.2952002587900067,
                -1.4422618617324265,
                0.8301598636967364,
                0.23846541650218067,
                0.18049364272775595
            ]
        },
        {
            "positions": [
                0.4209816232315656,
                -2.29793272323142,
                -1.2851685072653765,
                0.7210875361573391,
                0.24837835796443267,
                0.20439163506077143
            ]
        },
        {
            "positions": [
                0.5076174928666858,
                -2.3006651876728332,
                -1.1280751527983262,
                0.6120152086179418,
                0.25829129942668466,
                0.22828962739378691
            ]
        },
        {
            "positions": [
                0.5942533625018059,
                -2.303397652114247,
                -0.9709817983312758,
                0.5029428810785445,
                0.26820424088893663,
                0.25218761972680237
            ]
        },
        {
            "positions": [
                0.6808892321369261,
                -2.3061301165556602,
                -0.8138884438642258,
                0.39387055353914713,
                0.2781171823511886,
                0.27608561205981785
            ]
        },
        {
            "positions": [
                0.7675251017720464,
                -2.308862580997074,
                -0.6567950893971755,
                0.2847982259997499,
                0.2880301238134406,
                0.29998360439283334
            ]
        },
        {
            "positions": [
                0.8541609714071666,
                -2.3115950454384873,
                -0.49970173493012515,
                0.1757258984603527,
                0.2979430652756926,
                0.32388159672584893
            ]
        },
        {
            "positions": [
                0.9407968410422868,
                -2.314327509879901,
                -0.34260838046307507,
                0.06665357092095525,
                0.30785600673794455,
                0.3477795890588644
            ]
        },
        {
            "positions": [
                1.0274327106774068,
                -2.3170599743213143,
                -0.18551502599602498,
                -0.042418756618441966,
                0.3177689482001965,
                0.3716775813918799
            ]
        },
        {
            "positions": [
                1.114068580312527,
                -2.319792438762728,
                -0.028421671528974457,
                -0.1514910841578394,
                0.3276818896624485,
                0.3955755737248954
            ]
        },
        {
            "positions": [
                1.2007044499476471,
                -2.3225249032041413,
                0.12867168293807574,
                -0.2605634116972365,
                0.3375948311247005,
                0.41947356605791086
            ]
        },
        {
            "positions": [
                1.2655889874120987,
                -2.263109841321289,
                0.20596961192564084,
                -0.2848687532222144,
                0.37030867939923373,
                0.5452881826218712
            ]
        },
        {
            "positions": [
                1.3304735248765502,
                -2.2036947794384365,
                0.28326754091320594,
                -0.3091740947471923,
                0.40302252767376695,
                0.6711027991858316
            ]
        },
        {
            "positions": [
                1.395358062341002,
                -2.1442797175555843,
                0.360565469900771,
                -0.3334794362721702,
                0.43573637594830017,
                0.7969174157497918
            ]
        },
        {
            "positions": [
                1.4602425998054536,
                -2.0848646556727317,
                0.4378633988883361,
                -0.3577847777971481,
                0.46845022422283333,
                0.9227320323137522
            ]
        },
        {
            "positions": [
                1.5251271372699051,
                -2.0254495937898795,
                0.5151613278759011,
                -0.382090119322126,
                0.5011640724973666,
                1.0485466488777124
            ]
        },
        {
            "positions": [
                1.590011674734357,
                -1.9660345319070274,
                0.5924592568634662,
                -0.4063954608471039,
                0.5338779207718998,
                1.1743612654416729
            ]
        },
        {
            "positions": [
                1.6548962121988084,
                -1.906619470024175,
                0.6697571858510313,
                -0.4307008023720818,
                0.566591769046433,
                1.3001758820056333
            ]
        },
        {
            "positions": [
                1.71978074966326,
                -1.8472044081413226,
                0.7470551148385964,
                -0.45500614389705973,
                0.5993056173209662,
                1.4259904985695937
            ]
        },
        {
            "positions": [
                1.7846652871277118,
                -1.7877893462584704,
                0.8243530438261616,
                -0.4793114854220376,
                0.6320194655954995,
                1.5518051151335541
            ]
        },
        {
            "positions": [
                1.849549824592163,
                -1.728374284375618,
                0.9016509728137265,
                -0.5036168269470155,
                0.6647333138700326,
                1.677619731697514
            ]
        },
        {
            "positions": [
                1.9144343620566149,
                -1.6689592224927656,
                0.9789489018012917,
                -0.5279221684719935,
                0.6974471621445659,
                1.8034343482614745
            ]
        },
        {
            "positions": [
                1.9793188995210664,
                -1.6095441606099135,
                1.0562468307888566,
                -0.5522275099969713,
                0.730161010419099,
                1.929248964825435
            ]
        },
        {
            "positions": [
                2.044203436985518,
                -1.5501290987270608,
                1.1335447597764219,
                -0.5765328515219492,
                0.7628748586936323,
                2.0550635813893954
            ]
        },
        {
            "positions": [
                2.1090879744499698,
                -1.4907140368442087,
                1.2108426887639867,
                -0.6008381930469271,
                0.7955887069681655,
                2.180878197953356
            ]
        },
        {
            "positions": [
                2.173972511914421,
                -1.4312989749613565,
                1.288140617751552,
                -0.625143534571905,
                0.8283025552426987,
                2.306692814517316
            ]
        },
        {
            "positions": [
                2.238857049378873,
                -1.3718839130785039,
                1.3654385467391172,
                -0.6494488760968828,
                0.8610164035172319,
                2.432507431081276
            ]
        },
        {
            "positions": [
                2.3037415868433246,
                -1.3124688511956517,
                1.442736475726682,
                -0.6737542176218608,
                0.8937302517917651,
                2.5583220476452366
            ]
        },
        {
            "positions": [
                2.3686261243077764,
                -1.2530537893127993,
                1.5200344047142473,
                -0.6980595591468388,
                0.9264441000662984,
                2.684136664209197
            ]
        },
        {
            "positions": [
                2.4335106617722277,
                -1.193638727429947,
                1.5973323337018126,
                -0.7223649006718167,
                0.9591579483408317,
                2.8099512807731575
            ]
        },
        {
            "positions": [
                2.498395199236679,
                -1.1342236655470948,
                1.6746302626893774,
                -0.7466702421967946,
                0.9918717966153647,
                2.9357658973371175
            ]
        },
        {
            "positions": [
                2.563279736701131,
                -1.0748086036642421,
                1.7519281916769427,
                -0.7709755837217724,
                1.024585644889898,
                3.061580513901078
            ]
        },
        {
            "positions": [
                2.6281642741655826,
                -1.01539354178139,
                1.8292261206645077,
                -0.7952809252467503,
                1.0572994931644313,
                3.1873951304650383
            ]
        }
    ]
}