{
    "goal": {
        "global_pose": {
            "orientation": {
                "w": 0.005598929693374612,
                "x": 0.007748599140229565,
                "y": 0.7110244013736278,
                "z": -0.7031023480610252
            },
            "position": {
                "x": 0.1141497679147869,
                "y": -0.7141253447532654,
                "z": 0.3711530566215515
            }
        },
        "name": "move_to_auspresseinheit_B"
    },
    "id": "EST_move_to_auspresseinheit_B_108",
    "joint_names": [
        "shoulder_pan_joint",
        "shoulder_lift_joint",
        "elbow_joint",
        "wrist_1_joint",
        "wrist_2_joint",
        "wrist_3_joint"
    ],
    "metrics": {
        "cart_traj_len": 0.5656883649541696,
        "distance_elbow_joint": 0.06627872612881847,
        "distance_shoulder_lift_joint": 0.29409090557499806,
        "distance_shoulder_pan_joint": 0.5775877213339327,
        "distance_wrist_1_joint": 0.3401477430612869,
        "distance_wrist_2_joint": 0.9976723093241626,
        "distance_wrist_3_joint": 0.00431054780386253,
        "smoothness": 2.5376526478085547e-16,
        "time": 0.1505917,
        "traj_len": 1.5099960109970691,
        "weighted_distance": 1.9043447957815403
    },
    "planner": "EST",
    "start": {
        "state": {
            "elbow_joint": 2.0193083361928714,
            "shoulder_lift_joint": -1.1220246554650708,
            "shoulder_pan_joint": -1.0952077554168747,
            "wrist_1_joint": -0.8559753972642168,
            "wrist_2_joint": 0.4759566250798843,
            "wrist_3_joint": -3.1240929996934557
        }
    },
    "waypoints": [
        {
            "positions": [
                -1.0952077554168747,
                -1.1220246554650708,
                2.0193083361928714,
                -0.8559753972642168,
                0.4759566250798843,
                -3.1240929996934557
            ]
        },
        {
            "positions": [
                -1.1914723756391967,
                -1.171039806394237,
                2.0082618818380684,
                -0.7992841067540023,
                0.6422353433005781,
                -3.124811424327433
            ]
        },
        {
            "positions": [
                -1.2877369958615188,
                -1.2200549573234034,
                1.9972154274832652,
                -0.7425928162437878,
                0.8085140615212718,
                -3.12552984896141
            ]
        },
        {
            "positions": [
                -1.3840016160838409,
                -1.2690701082525697,
                1.9861689731284622,
                -0.6859015257335733,
                0.9747927797419655,
                -3.1262482735953867
            ]
        },
        {
            "positions": [
                -1.480266236306163,
                -1.3180852591817362,
                1.9751225187736592,
                -0.6292102352233588,
                1.1410714979626593,
                -3.126966698229364
            ]
        },
        {
            "positions": [
                -1.5765308565284852,
                -1.3671004101109026,
                1.964076064418856,
                -0.5725189447131444,
                1.3073502161833532,
                -3.1276851228633413
            ]
        },
        {
            "positions": [
                -1.6727954767508073,
                -1.4161155610400689,
                1.953029610064053,
                -0.5158276542029299,
                1.473628934404047,
                -3.128403547497318
            ]
        }
    ]
}