{
    "goal": {
        "global_pose": {
            "orientation": {
                "w": 0.7047431468963623,
                "x": -0.7094548344612122,
                "y": 0.0024358443915843964,
                "z": -0.0022348060738295317
            },
            "position": {
                "x": 0.6094750761985779,
                "y": 0.3671506643295288,
                "z": 0.19426114857196808
            }
        },
        "name": "move_to_magneteinheit_A"
    },
    "id": "EST_move_to_magneteinheit_A_126",
    "joint_names": [
        "shoulder_pan_joint",
        "shoulder_lift_joint",
        "elbow_joint",
        "wrist_1_joint",
        "wrist_2_joint",
        "wrist_3_joint"
    ],
    "metrics": {
        "cart_traj_len": 3.4801442436919467,
        "distance_elbow_joint": 3.893654122142193,
        "distance_shoulder_lift_joint": 0.3291765420664463,
        "distance_shoulder_pan_joint": 3.0860369536240913,
        "distance_wrist_1_joint": 0.7495625466700264,
        "distance_wrist_2_joint": 1.6941634462819275,
        "distance_wrist_3_joint": 6.183420317129329,
        "smoothness": 0.21085587171969877,
        "time": 0.090295448,
        "traj_len": 3.991993728441218,
        "weighted_distance": 5.544959923671642
    },
    "planner": "EST",
    "start": {
        "state": {
            "elbow_joint": -1.9196185241190666,
            "shoulder_lift_joint": -1.2443396400964142,
            "shoulder_pan_joint": 2.6996025414629847,
            "wrist_1_joint": -1.5485510000780065,
            "wrist_2_joint": -1.5709468930060704,
            "wrist_3_joint": 0.4420197071253992
        }
    },
    "waypoints": [
        {
            "positions": [
                2.6996025414629847,
                -1.2443396400964142,
                -1.9196185241190666,
                -1.5485510000780065,
                -1.5709468930060704,
                0.4420197071253992
            ]
        },
        {
            "positions": [
                2.5756893271030092,
                -1.2497332364698586,
                -1.823794198428497,
                -1.5279323465513017,
                -1.5152313979370355,
                0.3580706388009306
            ]
        },
        {
            "positions": [
                2.4517761127430338,
                -1.2551268328433027,
                -1.7279698727379273,
                -1.5073136930245967,
                -1.4595159028680007,
                0.274121570476462
            ]
        },
        {
            "positions": [
                2.3278628983830583,
                -1.2605204292167471,
                -1.6321455470473578,
                -1.486695039497892,
                -1.4038004077989659,
                0.1901725021519935
            ]
        },
        {
            "positions": [
                2.2039496840230828,
                -1.2659140255901913,
                -1.536321221356788,
                -1.4660763859711872,
                -1.348084912729931,
                0.10622343382752492
            ]
        },
        {
            "positions": [
                2.0800364696631073,
                -1.2713076219636357,
                -1.4404968956662185,
                -1.4454577324444824,
                -1.2923694176608964,
                0.022274365503056337
            ]
        },
        {
            "positions": [
                1.9561232553031318,
                -1.2767012183370798,
                -1.344672569975649,
                -1.4248390789177774,
                -1.2366539225918616,
                -0.061674702821412186
            ]
        },
        {
            "positions": [
                1.8322100409431563,
                -1.2820948147105242,
                -1.2488482442850795,
                -1.4042204253910726,
                -1.1809384275228267,
                -0.14562377114588076
            ]
        },
        {
            "positions": [
                1.7082968265831808,
                -1.2874884110839686,
                -1.1530239185945097,
                -1.3836017718643678,
                -1.125222932453792,
                -0.22957283947034934
            ]
        },
        {
            "positions": [
                1.5843836122232053,
                -1.2928820074574128,
                -1.0571995929039402,
                -1.362983118337663,
                -1.069507437384757,
                -0.3135219077948179
            ]
        },
        {
            "positions": [
                1.4604703978632299,
                -1.2982756038308572,
                -0.9613752672133705,
                -1.342364464810958,
                -1.0137919423157222,
                -0.3974709761192865
            ]
        },
        {
            "positions": [
                1.3365571835032544,
                -1.3036692002043013,
                -0.8655509415228009,
                -1.3217458112842533,
                -0.9580764472466874,
                -0.4814200444437551
            ]
        },
        {
            "positions": [
                1.2126439691432789,
                -1.3090627965777457,
                -0.7697266158322313,
                -1.3011271577575485,
                -0.9023609521776527,
                -0.5653691127682235
            ]
        },
        {
            "positions": [
                1.0887307547833034,
                -1.3144563929511899,
                -0.6739022901416616,
                -1.2805085042308435,
                -0.8466454571086177,
                -0.6493181810926923
            ]
        },
        {
            "positions": [
                0.9648175404233279,
                -1.3198499893246343,
                -0.578077964451092,
                -1.2598898507041387,
                -0.790929962039583,
                -0.7332672494171607
            ]
        },
        {
            "positions": [
                0.8409043260633524,
                -1.3252435856980787,
                -0.4822536387605223,
                -1.239271197177434,
                -0.7352144669705482,
                -0.8172163177416293
            ]
        },
        {
            "positions": [
                0.7169911117033769,
                -1.3306371820715228,
                -0.38642931306995276,
                -1.218652543650729,
                -0.6794989719015133,
                -0.9011653860660979
            ]
        },
        {
            "positions": [
                0.5930778973434014,
                -1.3360307784449672,
                -0.290604987379383,
                -1.1980338901240242,
                -0.6237834768324785,
                -0.9851144543905664
            ]
        },
        {
            "positions": [
                0.46916468298342595,
                -1.3414243748184114,
                -0.1947806616888137,
                -1.1774152365973194,
                -0.5680679817634438,
                -1.0690635227150351
            ]
        },
        {
            "positions": [
                0.34525146862345046,
                -1.3468179711918558,
                -0.09895633599824394,
                -1.1567965830706144,
                -0.5123524866944089,
                -1.1530125910395035
            ]
        },
        {
            "positions": [
                0.22133825426347498,
                -1.3522115675653,
                -0.0031320103076744044,
                -1.1361779295439098,
                -0.4566369916253741,
                -1.2369616593639723
            ]
        },
        {
            "positions": [
                0.09742503990349963,
                -1.3576051639387443,
                0.09269231538289516,
                -1.1155592760172048,
                -0.4009214965563393,
                -1.3209107276884406
            ]
        },
        {
            "positions": [
                0.08308873393712245,
                -1.3488294785214412,
                0.19054341757360183,
                -1.0963577970802374,
                -0.3683117972071211,
                -1.1171191562721687
            ]
        },
        {
            "positions": [
                0.06875242797074527,
                -1.3400537931041379,
                0.2883945197643085,
                -1.0771563181432702,
                -0.33570209785790295,
                -0.9133275848558967
            ]
        },
        {
            "positions": [
                0.05441612200436808,
                -1.3312781076868347,
                0.3862456219550152,
                -1.0579548392063027,
                -0.30309239850868475,
                -0.7095360134396247
            ]
        },
        {
            "positions": [
                0.0400798160379909,
                -1.3225024222695314,
                0.4840967241457219,
                -1.0387533602693355,
                -0.27048269915946654,
                -0.5057444420233528
            ]
        },
        {
            "positions": [
                0.025743510071613712,
                -1.3137267368522283,
                0.5819478263364286,
                -1.019551881332368,
                -0.2378729998102484,
                -0.30195287060708087
            ]
        },
        {
            "positions": [
                0.011407204105236532,
                -1.3049510514349252,
                0.6797989285271352,
                -1.0003504023954006,
                -0.2052633004610302,
                -0.09816129919080874
            ]
        },
        {
            "positions": [
                -0.0029291018611406483,
                -1.2961753660176218,
                0.7776500307178419,
                -0.9811489234584333,
                -0.17265360111181202,
                0.10563027222546317
            ]
        },
        {
            "positions": [
                -0.01726540782751783,
                -1.2873996806003187,
                0.8755011329085486,
                -0.961947444521466,
                -0.14004390176259385,
                0.3094218436417351
            ]
        },
        {
            "positions": [
                -0.03160171379389501,
                -1.2786239951830156,
                0.9733522350992553,
                -0.9427459655844986,
                -0.10743420241337565,
                0.513213415058007
            ]
        },
        {
            "positions": [
                -0.0459380197602722,
                -1.2698483097657123,
                1.071203337289962,
                -0.9235444866475313,
                -0.0748245030641575,
                0.7170049864742789
            ]
        },
        {
            "positions": [
                -0.06027432572664937,
                -1.2610726243484092,
                1.1690544394806686,
                -0.9043430077105639,
                -0.0422148037149393,
                0.9207965578905508
            ]
        },
        {
            "positions": [
                -0.07461063169302656,
                -1.252296938931106,
                1.2669055416713753,
                -0.8851415287735965,
                -0.009605104365721095,
                1.1245881293068232
            ]
        },
        {
            "positions": [
                -0.08894693765940373,
                -1.2435212535138027,
                1.364756643862082,
                -0.8659400498366292,
                0.02300459498349705,
                1.328379700723095
            ]
        },
        {
            "positions": [
                -0.10328324362578092,
                -1.2347455680964996,
                1.4626077460527886,
                -0.8467385708996618,
                0.05561429433271525,
                1.532171272139367
            ]
        },
        {
            "positions": [
                -0.11761954959215809,
                -1.2259698826791963,
                1.5604588482434953,
                -0.8275370919626944,
                0.0882239936819334,
                1.735962843555639
            ]
        },
        {
            "positions": [
                -0.13195585555853528,
                -1.2171941972618932,
                1.658309950434202,
                -0.8083356130257271,
                0.12083369303115157,
                1.939754414971911
            ]
        },
        {
            "positions": [
                -0.08106014423802133,
                -1.2020941869524402,
                1.7214550799519868,
                -0.8064661811021777,
                0.12131026508009266,
                2.1717193629029388
            ]
        },
        {
            "positions": [
                -0.030164432917507367,
                -1.1869941766429872,
                1.7846002094697713,
                -0.8045967491786283,
                0.12178683712903375,
                2.4036843108339667
            ]
        },
        {
            "positions": [
                0.020731278403006592,
                -1.171894166333534,
                1.847745338987556,
                -0.8027273172550788,
                0.12226340917797483,
                2.6356492587649942
            ]
        },
        {
            "positions": [
                0.07162698972352055,
                -1.156794156024081,
                1.9108904685053405,
                -0.8008578853315295,
                0.12273998122691593,
                2.8676142066960217
            ]
        },
        {
            "positions": [
                0.1225227010440345,
                -1.1416941457146281,
                1.9740355980231252,
                -0.7989884534079801,
                0.12321655327585701,
                3.0995791546270497
            ]
        }
    ]
}