{
    "goal": {
        "global_pose": {
            "orientation": {
                "w": -0.4816463035849501,
                "x": 0.5182115481033762,
                "y": 0.4908360881923453,
                "z": -0.5084816262002911
            },
            "position": {
                "x": -0.8240239810943604,
                "y": -0.300875300988555,
                "z": 0.16403168439865112
            }
        },
        "name": "move_to_storage_C"
    },
    "id": "EST_move_to_storage_C_91",
    "joint_names": [
        "shoulder_pan_joint",
        "shoulder_lift_joint",
        "elbow_joint",
        "wrist_1_joint",
        "wrist_2_joint",
        "wrist_3_joint"
    ],
    "metrics": {
        "cart_traj_len": 0.5770470500889112,
        "distance_elbow_joint": 0.2617069899127389,
        "distance_shoulder_lift_joint": 0.18887553131657542,
        "distance_shoulder_pan_joint": 0.4936219994098501,
        "distance_wrist_1_joint": 0.09103888006881644,
        "distance_wrist_2_joint": 1.0793410277536943,
        "distance_wrist_3_joint": 0.06736944644976273,
        "smoothness": 5.075305295617109e-16,
        "time": 0.018607194,
        "traj_len": 1.4771438233670537,
        "weighted_distance": 1.867370524463068
    },
    "planner": "EST",
    "start": {
        "state": {
            "elbow_joint": 2.010868314990456,
            "shoulder_lift_joint": -1.1634956873337592,
            "shoulder_pan_joint": -2.4736205022346125,
            "wrist_1_joint": -0.8367026794202681,
            "wrist_2_joint": 0.6746043897044499,
            "wrist_3_joint": -3.1496632123970403
        }
    },
    "waypoints": [
        {
            "positions": [
                -2.4736205022346125,
                -1.1634956873337592,
                2.010868314990456,
                -0.8367026794202681,
                0.6746043897044499,
                -3.1496632123970403
            ]
        },
        {
            "positions": [
                -2.5558908354695875,
                -1.13201643211433,
                1.9672504833383326,
                -0.821529532742132,
                0.8544945609967323,
                -3.13843497132208
            ]
        },
        {
            "positions": [
                -2.6381611687045625,
                -1.1005371768949006,
                1.9236326516862094,
                -0.806356386063996,
                1.0343847322890147,
                -3.1272067302471194
            ]
        },
        {
            "positions": [
                -2.7204315019395375,
                -1.0690579216754714,
                1.8800148200340865,
                -0.7911832393858599,
                1.214274903581297,
                -3.115978489172159
            ]
        },
        {
            "positions": [
                -2.8027018351745125,
                -1.0375786664560422,
                1.8363969883819633,
                -0.7760100927077238,
                1.3941650748735794,
                -3.1047502480971985
            ]
        },
        {
            "positions": [
                -2.8849721684094876,
                -1.006099411236613,
                1.7927791567298401,
                -0.7608369460295877,
                1.574055246165862,
                -3.093522007022238
            ]
        },
        {
            "positions": [
                -2.9672425016444626,
                -0.9746201560171838,
                1.749161325077717,
                -0.7456637993514517,
                1.7539454174581444,
                -3.0822937659472776
            ]
        }
    ]
}