{
    "goal": {
        "global_pose": {
            "orientation": {
                "w": 0.5084816217422485,
                "x": -0.49083608388900757,
                "y": 0.5182115435600281,
                "z": -0.4816462993621826
            },
            "position": {
                "x": 0.5540239810943604,
                "y": 0.030875300988554955,
                "z": 0.16403168439865112
            }
        },
        "name": "move_to_storage_A"
    },
    "id": "EST_move_to_storage_A_122",
    "joint_names": [
        "shoulder_pan_joint",
        "shoulder_lift_joint",
        "elbow_joint",
        "wrist_1_joint",
        "wrist_2_joint",
        "wrist_3_joint"
    ],
    "metrics": {
        "cart_traj_len": 0.3525999292642255,
        "distance_elbow_joint": 0.4502381967588305,
        "distance_shoulder_lift_joint": 0.23558396109284763,
        "distance_shoulder_pan_joint": 0.4611410170605218,
        "distance_wrist_1_joint": 0.2453365373121973,
        "distance_wrist_2_joint": 1.0979243364525457,
        "distance_wrist_3_joint": 0.10784168021609952,
        "smoothness": 4.440892098500626e-16,
        "time": 0.05063401100000001,
        "traj_len": 1.6118516460558776,
        "weighted_distance": 2.038874680575043
    },
    "planner": "EST",
    "start": {
        "state": {
            "elbow_joint": 1.971548259319323,
            "shoulder_lift_joint": -1.1394851275133948,
            "shoulder_pan_joint": 0.1228115487234821,
            "wrist_1_joint": -0.7804723859257726,
            "wrist_2_joint": 0.12958671773740124,
            "wrist_3_joint": -3.192489227718131
        }
    },
    "waypoints": [
        {
            "positions": [
                0.1228115487234821,
                -1.1394851275133948,
                1.971548259319323,
                -0.7804723859257726,
                0.12958671773740124,
                -3.192489227718131
            ]
        },
        {
            "positions": [
                0.05693426057197899,
                -1.1731399790980874,
                2.0358680017134416,
                -0.8155204626846579,
                0.28643305151633636,
                -3.1770832734015455
            ]
        },
        {
            "positions": [
                -0.008943027579524115,
                -1.2067948306827798,
                2.1001877441075605,
                -0.8505685394435433,
                0.44327938529527144,
                -3.16167731908496
            ]
        },
        {
            "positions": [
                -0.07482031573102724,
                -1.2404496822674724,
                2.164507486501679,
                -0.8856166162024286,
                0.6001257190742065,
                -3.146271364768374
            ]
        },
        {
            "positions": [
                -0.14069760388253033,
                -1.2741045338521648,
                2.2288272288957973,
                -0.9206646929613139,
                0.7569720528531416,
                -3.1308654104517886
            ]
        },
        {
            "positions": [
                -0.20657489203403345,
                -1.3077593854368574,
                2.293146971289916,
                -0.9557127697201993,
                0.9138183866320768,
                -3.115459456135203
            ]
        },
        {
            "positions": [
                -0.2724521801855366,
                -1.3414142370215498,
                2.357466713684035,
                -0.9907608464790846,
                1.0706647204110118,
                -3.1000535018186173
            ]
        },
        {
            "positions": [
                -0.3383294683370397,
                -1.3750690886062424,
                2.4217864560781535,
                -1.02580892323797,
                1.227511054189947,
                -3.0846475475020316
            ]
        }
    ]
}{
    "goal": {
        "global_pose": {
            "orientation": {
                "w": 0.5084816217422485,
                "x": -0.49083608388900757,
                "y": 0.5182115435600281,
                "z": -0.4816462993621826
            },
            "position": {
                "x": 0.5540239810943604,
                "y": 0.030875300988554955,
                "z": 0.16403168439865112
            }
        },
        "name": "move_to_storage_A"
    },
    "id": "EST_move_to_storage_A_122",
    "joint_names": [
        "shoulder_pan_joint",
        "shoulder_lift_joint",
        "elbow_joint",
        "wrist_1_joint",
        "wrist_2_joint",
        "wrist_3_joint"
    ],
    "metrics": {
        "cart_traj_len": 0.3528779647749026,
        "distance_elbow_joint": 0.4502637481105256,
        "distance_shoulder_lift_joint": 0.23438559893624822,
        "distance_shoulder_pan_joint": 0.45931577331649115,
        "distance_wrist_1_joint": 0.2423411276213825,
        "distance_wrist_2_joint": 1.1078011122884268,
        "distance_wrist_3_joint": 0.0932400490271097,
        "smoothness": 0.0,
        "time": 0.061812645,
        "traj_len": 1.6085233629948257,
        "weighted_distance": 2.030755954629756
    },
    "planner": "EST",
    "start": {
        "state": {
            "elbow_joint": 1.97154746011099,
            "shoulder_lift_joint": -1.13948474672311,
            "shoulder_pan_joint": 0.12281154466712228,
            "wrist_1_joint": -0.7804688027058302,
            "wrist_2_joint": 0.12958655903071145,
            "wrist_3_joint": 3.0906928834467795
        }
    },
    "waypoints": [
        {
            "positions": [
                0.12281154466712228,
                -1.13948474672311,
                1.97154746011099,
                -0.7804688027058302,
                0.12958655903071145,
                3.0906928834467795
            ]
        },
        {
            "positions": [
                0.05719500562190927,
                -1.1729684037140025,
                2.0358708526982077,
                -0.8150889637945992,
                0.287843860786201,
                3.1040128904506523
            ]
        },
        {
            "positions": [
                -0.008421533423303748,
                -1.2064520607048952,
                2.100194245285426,
                -0.849709124883368,
                0.4461011625416905,
                3.117332897454525
            ]
        },
        {
            "positions": [
                -0.07403807246851678,
                -1.2399357176957877,
                2.1645176378726436,
                -0.884329285972137,
                0.6043584642971801,
                3.130652904458398
            ]
        },
        {
            "positions": [
                -0.13965461151372977,
                -1.2734193746866804,
                2.228841030459862,
                -0.9189494470609059,
                0.7626157660526697,
                3.1439729114622708
            ]
        },
        {
            "positions": [
                -0.2052711505589428,
                -1.306903031677573,
                2.2931644230470796,
                -0.9535696081496748,
                0.9208730678081593,
                3.1572929184661436
            ]
        },
        {
            "positions": [
                -0.2708876896041558,
                -1.3403866886684654,
                2.3574878156342978,
                -0.9881897692384437,
                1.0791303695636487,
                3.1706129254700164
            ]
        },
        {
            "positions": [
                -0.33650422864936885,
                -1.3738703456593582,
                2.4218112082215155,
                -1.0228099303272127,
                1.2373876713191383,
                3.183932932473889
            ]
        }
    ]
}{
    "goal": {
        "global_pose": {
            "orientation": {
                "w": 0.5084816217422485,
                "x": -0.49083608388900757,
                "y": 0.5182115435600281,
                "z": -0.4816462993621826
            },
            "position": {
                "x": 0.5540239810943604,
                "y": 0.030875300988554955,
                "z": 0.16403168439865112
            }
        },
        "name": "move_to_storage_A"
    },
    "id": "EST_move_to_storage_A_122",
    "joint_names": [
        "shoulder_pan_joint",
        "shoulder_lift_joint",
        "elbow_joint",
        "wrist_1_joint",
        "wrist_2_joint",
        "wrist_3_joint"
    ],
    "metrics": {
        "cart_traj_len": 0.35288953866915707,
        "distance_elbow_joint": 0.44984659224725654,
        "distance_shoulder_lift_joint": 0.23547685349538994,
        "distance_shoulder_pan_joint": 0.4621481141047926,
        "distance_wrist_1_joint": 0.24060076213638748,
        "distance_wrist_2_joint": 1.095988559555793,
        "distance_wrist_3_joint": 0.09605886293003563,
        "smoothness": 0.0,
        "time": 0.04814393,
        "traj_len": 1.6062751148136658,
        "weighted_distance": 2.027024122210169
    },
    "planner": "EST",
    "start": {
        "state": {
            "elbow_joint": 1.9715472970024885,
            "shoulder_lift_joint": -1.1394870060712896,
            "shoulder_pan_joint": 0.12281152778156021,
            "wrist_1_joint": -0.780463741449964,
            "wrist_2_joint": 0.12958659822042276,
            "wrist_3_joint": 3.090690232415272
        }
    },
    "waypoints": [
        {
            "positions": [
                0.12281152778156021,
                -1.1394870060712896,
                1.9715472970024885,
                -0.780463741449964,
                0.12958659822042276,
                3.090690232415272
            ]
        },
        {
            "positions": [
                0.0567903686237327,
                -1.173126556570631,
                2.0358110958949536,
                -0.8148352788980193,
                0.2861563924426789,
                3.104412927119563
            ]
        },
        {
            "positions": [
                -0.009230790534094813,
                -1.2067661070699724,
                2.100074894787419,
                -0.8492068163460746,
                0.442726186664935,
                3.1181356218238534
            ]
        },
        {
            "positions": [
                -0.07525194969192234,
                -1.2404056575693139,
                2.164338693679884,
                -0.8835783537941301,
                0.5992959808871912,
                3.1318583165281444
            ]
        },
        {
            "positions": [
                -0.14127310884974983,
                -1.2740452080686553,
                2.2286024925723495,
                -0.9179498912421854,
                0.7558657751094473,
                3.145581011232435
            ]
        },
        {
            "positions": [
                -0.20729426800757736,
                -1.3076847585679967,
                2.2928662914648146,
                -0.9523214286902408,
                0.9124355693317034,
                3.159303705936726
            ]
        },
        {
            "positions": [
                -0.2733154271654049,
                -1.3413243090673381,
                2.3571300903572796,
                -0.9866929661382962,
                1.0690053635539596,
                3.1730264006410165
            ]
        },
        {
            "positions": [
                -0.3393365863232324,
                -1.3749638595666795,
                2.421393889249745,
                -1.0210645035863515,
                1.2255751577762157,
                3.1867490953453075
            ]
        }
    ]
}