{
    "goal": {
        "global_pose": {
            "orientation": {
                "w": 0.7047431468963623,
                "x": -0.7094548344612122,
                "y": 0.0024358443915843964,
                "z": -0.0022348060738295317
            },
            "position": {
                "x": 0.6094750761985779,
                "y": 0.3671506643295288,
                "z": 0.19426114857196808
            }
        },
        "name": "move_to_magneteinheit_A"
    },
    "id": "EST_move_to_magneteinheit_A_117",
    "joint_names": [
        "shoulder_pan_joint",
        "shoulder_lift_joint",
        "elbow_joint",
        "wrist_1_joint",
        "wrist_2_joint",
        "wrist_3_joint"
    ],
    "metrics": {
        "cart_traj_len": 3.822884909786976,
        "distance_elbow_joint": 3.89535362208686,
        "distance_shoulder_lift_joint": 0.11282243019237681,
        "distance_shoulder_pan_joint": 3.2895795810598263,
        "distance_wrist_1_joint": 0.7490452245710523,
        "distance_wrist_2_joint": 1.705313753605441,
        "distance_wrist_3_joint": 2.6669227713280934,
        "smoothness": 0.25151527126981615,
        "time": 0.057983611,
        "traj_len": 3.5240654623380157,
        "weighted_distance": 4.4952465898631555
    },
    "planner": "EST",
    "start": {
        "state": {
            "elbow_joint": -1.9196185241190666,
            "shoulder_lift_joint": -1.2443396400964142,
            "shoulder_pan_joint": 2.6996025414629847,
            "wrist_1_joint": -1.5485510000780065,
            "wrist_2_joint": -1.5709468930060704,
            "wrist_3_joint": 0.4420197071253992
        }
    },
    "waypoints": [
        {
            "positions": [
                2.6996025414629847,
                -1.2443396400964142,
                -1.9196185241190666,
                -1.5485510000780065,
                -1.5709468930060704,
                0.4420197071253992
            ]
        },
        {
            "positions": [
                2.5984527009585445,
                -1.2406311934981538,
                -1.8064502549672325,
                -1.5269130673109703,
                -1.515288314675582,
                0.5295280388918289
            ]
        },
        {
            "positions": [
                2.4973028604541048,
                -1.2369227468998931,
                -1.6932819858153987,
                -1.5052751345439341,
                -1.4596297363450939,
                0.6170363706582586
            ]
        },
        {
            "positions": [
                2.396153019949665,
                -1.2332143003016327,
                -1.5801137166635648,
                -1.483637201776898,
                -1.4039711580146055,
                0.7045447024246883
            ]
        },
        {
            "positions": [
                2.295003179445225,
                -1.229505853703372,
                -1.4669454475117307,
                -1.4619992690098618,
                -1.348312579684117,
                0.7920530341911178
            ]
        },
        {
            "positions": [
                2.1938533389407846,
                -1.2257974071051116,
                -1.3537771783598966,
                -1.4403613362428254,
                -1.2926540013536287,
                0.8795613659575476
            ]
        },
        {
            "positions": [
                2.092703498436345,
                -1.222088960506851,
                -1.2406089092080628,
                -1.4187234034757892,
                -1.2369954230231404,
                0.9670696977239772
            ]
        },
        {
            "positions": [
                1.9915536579319046,
                -1.2183805139085906,
                -1.1274406400562287,
                -1.397085470708753,
                -1.1813368446926522,
                1.0545780294904068
            ]
        },
        {
            "positions": [
                1.8904038174274649,
                -1.21467206731033,
                -1.0142723709043948,
                -1.3754475379417168,
                -1.1256782663621638,
                1.1420863612568366
            ]
        },
        {
            "positions": [
                1.7892539769230247,
                -1.2109636207120695,
                -0.9011041017525607,
                -1.3538096051746806,
                -1.0700196880316755,
                1.2295946930232664
            ]
        },
        {
            "positions": [
                1.6881041364185847,
                -1.2072551741138091,
                -0.7879358326007266,
                -1.3321716724076444,
                -1.014361109701187,
                1.317103024789696
            ]
        },
        {
            "positions": [
                1.586954295914145,
                -1.2035467275155485,
                -0.674767563448893,
                -1.3105337396406083,
                -0.9587025313706989,
                1.4046113565561256
            ]
        },
        {
            "positions": [
                1.485804455409705,
                -1.199838280917288,
                -0.5615992942970589,
                -1.288895806873572,
                -0.9030439530402106,
                1.4921196883225551
            ]
        },
        {
            "positions": [
                1.3846546149052648,
                -1.1961298343190274,
                -0.4484310251452248,
                -1.267257874106536,
                -0.8473853747097222,
                1.5796280200889847
            ]
        },
        {
            "positions": [
                1.2835047744008248,
                -1.192421387720767,
                -0.3352627559933907,
                -1.2456199413394997,
                -0.7917267963792338,
                1.6671363518554148
            ]
        },
        {
            "positions": [
                1.1823549338963848,
                -1.1887129411225064,
                -0.22209448684155686,
                -1.2239820085724633,
                -0.7360682180487456,
                1.7546446836218443
            ]
        },
        {
            "positions": [
                1.081205093391945,
                -1.185004494524246,
                -0.10892621768972299,
                -1.2023440758054271,
                -0.6804096397182573,
                1.842153015388274
            ]
        },
        {
            "positions": [
                0.9800552528875051,
                -1.1812960479259853,
                0.004242051462110874,
                -1.1807061430383912,
                -0.624751061387769,
                1.9296613471547035
            ]
        },
        {
            "positions": [
                0.8789054123830649,
                -1.1775876013277249,
                0.11741032061394518,
                -1.1590682102713548,
                -0.5690924830572806,
                2.0171696789211335
            ]
        },
        {
            "positions": [
                0.7777555718786251,
                -1.1738791547294642,
                0.23057858976577883,
                -1.1374302775043186,
                -0.5134339047267924,
                2.104678010687563
            ]
        },
        {
            "positions": [
                0.6766057313741847,
                -1.1701707081312038,
                0.34374685891761336,
                -1.1157923447372824,
                -0.4577753263963038,
                2.1921863424539927
            ]
        },
        {
            "positions": [
                0.5754558908697449,
                -1.1664622615329434,
                0.456915128069447,
                -1.0941544119702462,
                -0.40211674806581565,
                2.2796946742204223
            ]
        },
        {
            "positions": [
                0.47430605036530515,
                -1.1627538149346828,
                0.5700833972212807,
                -1.07251647920321,
                -0.3464581697353275,
                2.367203005986852
            ]
        },
        {
            "positions": [
                0.37315620986086495,
                -1.1590453683364224,
                0.6832516663731152,
                -1.0508785464361736,
                -0.2907995914048389,
                2.454711337753282
            ]
        },
        {
            "positions": [
                0.2720063693564252,
                -1.1553369217381617,
                0.7964199355249488,
                -1.0292406136691374,
                -0.23514101307435076,
                2.5422196695197115
            ]
        },
        {
            "positions": [
                0.170856528851985,
                -1.1516284751399013,
                0.9095882046767829,
                -1.0076026809021013,
                -0.17948243474386238,
                2.629728001286141
            ]
        },
        {
            "positions": [
                0.06970668834754479,
                -1.1479200285416407,
                1.022756473828617,
                -0.9859647481350652,
                -0.12382385641337401,
                2.7172363330525706
            ]
        },
        {
            "positions": [
                -0.03144315215689497,
                -1.1442115819433802,
                1.1359247429804507,
                -0.964326815368029,
                -0.06816527808288586,
                2.804744664819
            ]
        },
        {
            "positions": [
                -0.13259299266133517,
                -1.1405031353451196,
                1.2490930121322852,
                -0.9426888826009927,
                -0.012506699752397266,
                2.8922529965854302
            ]
        },
        {
            "positions": [
                -0.23374283316577482,
                -1.1367946887468592,
                1.3622612812841188,
                -0.9210509498339565,
                0.0431518785780908,
                2.97976132835186
            ]
        },
        {
            "positions": [
                -0.144684281558008,
                -1.1381140584575646,
                1.5156297354550374,
                -0.8906646562522059,
                0.06595562408341074,
                3.012056615877268
            ]
        },
        {
            "positions": [
                -0.05562572995024115,
                -1.13943342816827,
                1.668998189625956,
                -0.8602783626704553,
                0.0887593695887307,
                3.044351903402676
            ]
        },
        {
            "positions": [
                0.0334328216575257,
                -1.1407527978789755,
                1.8223666437968746,
                -0.8298920690887048,
                0.11156311509405065,
                3.0766471909280844
            ]
        },
        {
            "positions": [
                0.12249137326529254,
                -1.142072167589681,
                1.9757350979677932,
                -0.7995057755069542,
                0.13436686059937059,
                3.1089424784534927
            ]
        }
    ]
}