{
    "goal": {
        "global_pose": {
            "orientation": {
                "w": 0.005598929693374612,
                "x": 0.007748599140229565,
                "y": 0.7110244013736278,
                "z": -0.7031023480610252
            },
            "position": {
                "x": 0.1141497679147869,
                "y": -0.7141253447532654,
                "z": 0.3711530566215515
            }
        },
        "name": "move_to_auspresseinheit_B"
    },
    "id": "EST_move_to_auspresseinheit_B_48",
    "joint_names": [
        "shoulder_pan_joint",
        "shoulder_lift_joint",
        "elbow_joint",
        "wrist_1_joint",
        "wrist_2_joint",
        "wrist_3_joint"
    ],
    "metrics": {
        "cart_traj_len": 0.5645311618651042,
        "distance_elbow_joint": 0.06060267106284534,
        "distance_shoulder_lift_joint": 0.29595973831592226,
        "distance_shoulder_pan_joint": 0.5784351131593242,
        "distance_wrist_1_joint": 0.32595354366250395,
        "distance_wrist_2_joint": 0.9897824563995226,
        "distance_wrist_3_joint": 0.008320523145708858,
        "smoothness": 7.612957943425664e-16,
        "time": 0.135076116,
        "traj_len": 1.5030149852033503,
        "weighted_distance": 1.8951071452821002
    },
    "planner": "EST",
    "start": {
        "state": {
            "elbow_joint": 2.0193083361928714,
            "shoulder_lift_joint": -1.1220246554650708,
            "shoulder_pan_joint": -1.0952077554168747,
            "wrist_1_joint": -0.8559753972642168,
            "wrist_2_joint": 0.4759566250798843,
            "wrist_3_joint": -3.1240929996934557
        }
    },
    "waypoints": [
        {
            "positions": [
                -1.0952077554168747,
                -1.1220246554650708,
                2.0193083361928714,
                -0.8559753972642168,
                0.4759566250798843,
                -3.1240929996934557
            ]
        },
        {
            "positions": [
                -1.1916136076100954,
                -1.1713512785177245,
                2.0092078910157305,
                -0.8016498066537995,
                0.6409203678131381,
                -3.1227062458358374
            ]
        },
        {
            "positions": [
                -1.2880194598033161,
                -1.2206779015703781,
                1.9991074458385896,
                -0.7473242160433822,
                0.8058841105463919,
                -3.1213194919782192
            ]
        },
        {
            "positions": [
                -1.3844253119965368,
                -1.2700045246230318,
                1.9890070006614486,
                -0.6929986254329648,
                0.9708478532796456,
                -3.1199327381206015
            ]
        },
        {
            "positions": [
                -1.4808311641897574,
                -1.3193311476756857,
                1.978906555484308,
                -0.6386730348225476,
                1.1358115960128994,
                -3.1185459842629832
            ]
        },
        {
            "positions": [
                -1.577237016382978,
                -1.3686577707283394,
                1.968806110307167,
                -0.5843474442121301,
                1.3007753387461531,
                -3.117159230405365
            ]
        },
        {
            "positions": [
                -1.6736428685761988,
                -1.417984393780993,
                1.958705665130026,
                -0.5300218536017128,
                1.465739081479407,
                -3.115772476547747
            ]
        }
    ]
}