{
    "goal": {
        "global_pose": {
            "orientation": {
                "w": 0.005598929693374612,
                "x": 0.007748599140229565,
                "y": 0.7110244013736278,
                "z": -0.7031023480610252
            },
            "position": {
                "x": -0.8858502320852131,
                "y": -0.7141253447532654,
                "z": 0.3711530566215515
            }
        },
        "name": "move_to_auspresseinheit_C"
    },
    "id": "EST_move_to_auspresseinheit_C_97",
    "joint_names": [
        "shoulder_pan_joint",
        "shoulder_lift_joint",
        "elbow_joint",
        "wrist_1_joint",
        "wrist_2_joint",
        "wrist_3_joint"
    ],
    "metrics": {
        "cart_traj_len": 0.4945349019789025,
        "distance_elbow_joint": 1.015319876119996,
        "distance_shoulder_lift_joint": 0.3319382824040795,
        "distance_shoulder_pan_joint": 0.25616991180954374,
        "distance_wrist_1_joint": 0.7029468512618828,
        "distance_wrist_2_joint": 1.318802505587881,
        "distance_wrist_3_joint": 0.07316308873914013,
        "smoothness": 9.689219124001365e-16,
        "time": 0.508985421,
        "traj_len": 1.9231069954431874,
        "weighted_distance": 2.4220685478017683
    },
    "planner": "EST",
    "start": {
        "state": {
            "elbow_joint": 1.7527959577737207,
            "shoulder_lift_joint": -0.9740617694225068,
            "shoulder_pan_joint": -2.967991417825858,
            "wrist_1_joint": -0.759517768980727,
            "wrist_2_joint": 1.7443932448377408,
            "wrist_3_joint": -3.0840537646736568
        }
    },
    "waypoints": [
        {
            "positions": [
                -2.967991417825858,
                -0.9740617694225068,
                1.7527959577737207,
                -0.759517768980727,
                1.7443932448377408,
                -3.0840537646736568
            ]
        },
        {
            "positions": [
                -2.9423744266449035,
                -0.9408679411820988,
                1.651263970161721,
                -0.6892230838545387,
                1.6125129942789527,
                -3.0913700735475707
            ]
        },
        {
            "positions": [
                -2.9167574354639494,
                -0.9076741129416909,
                1.5497319825497216,
                -0.6189283987283504,
                1.4806327437201645,
                -3.098686382421485
            ]
        },
        {
            "positions": [
                -2.891140444282995,
                -0.8744802847012829,
                1.4481999949377218,
                -0.5486337136021622,
                1.3487524931613766,
                -3.106002691295399
            ]
        },
        {
            "positions": [
                -2.8655234531020404,
                -0.841286456460875,
                1.3466680073257222,
                -0.4783390284759738,
                1.2168722426025884,
                -3.1133190001693127
            ]
        },
        {
            "positions": [
                -2.8399064619210863,
                -0.808092628220467,
                1.2451360197137227,
                -0.40804434334978557,
                1.0849919920438005,
                -3.1206353090432266
            ]
        },
        {
            "positions": [
                -2.814289470740132,
                -0.7748987999800591,
                1.1436040321017231,
                -0.3377496582235973,
                0.9531117414850123,
                -3.127951617917141
            ]
        },
        {
            "positions": [
                -2.7886724795591773,
                -0.7417049717396511,
                1.0420720444897236,
                -0.267454973097409,
                0.8212314909262243,
                -3.135267926791055
            ]
        },
        {
            "positions": [
                -2.763055488378223,
                -0.7085111434992432,
                0.9405400568777238,
                -0.19716028797122065,
                0.689351240367436,
                -3.1425842356649687
            ]
        },
        {
            "positions": [
                -2.7374384971972687,
                -0.6753173152588352,
                0.8390080692657242,
                -0.12686560284503245,
                0.5574709898086481,
                -3.149900544538883
            ]
        },
        {
            "positions": [
                -2.711821506016314,
                -0.6421234870184273,
                0.7374760816537248,
                -0.05657091771884415,
                0.42559073924985996,
                -3.157216853412797
            ]
        }
    ]
}