{
    "goal": {
        "global_pose": {
            "orientation": {
                "w": 0.7047431468963623,
                "x": -0.7094548344612122,
                "y": 0.0024358443915843964,
                "z": -0.0022348060738295317
            },
            "position": {
                "x": 0.6094750761985779,
                "y": 0.3671506643295288,
                "z": 0.19426114857196808
            }
        },
        "name": "move_to_magneteinheit_A"
    },
    "id": "EST_move_to_magneteinheit_A_31",
    "joint_names": [
        "shoulder_pan_joint",
        "shoulder_lift_joint",
        "elbow_joint",
        "wrist_1_joint",
        "wrist_2_joint",
        "wrist_3_joint"
    ],
    "metrics": {
        "cart_traj_len": 3.4964936233167343,
        "distance_elbow_joint": 3.88178079466831,
        "distance_shoulder_lift_joint": 0.10995974939143283,
        "distance_shoulder_pan_joint": 2.9256209172507672,
        "distance_wrist_1_joint": 0.8014401158894167,
        "distance_wrist_2_joint": 1.690370225763203,
        "distance_wrist_3_joint": 2.618076039105737,
        "smoothness": 0.06512053469706129,
        "time": 0.140441699,
        "traj_len": 3.4680322723511186,
        "weighted_distance": 4.444683370267556
    },
    "planner": "EST",
    "start": {
        "state": {
            "elbow_joint": -1.9196185241190666,
            "shoulder_lift_joint": -1.2443396400964142,
            "shoulder_pan_joint": 2.6996025414629847,
            "wrist_1_joint": -1.5485510000780065,
            "wrist_2_joint": -1.5709468930060704,
            "wrist_3_joint": 0.4420197071253992
        }
    },
    "waypoints": [
        {
            "positions": [
                2.6996025414629847,
                -1.2443396400964142,
                -1.9196185241190666,
                -1.5485510000780065,
                -1.5709468930060704,
                0.4420197071253992
            ]
        },
        {
            "positions": [
                2.584936191039652,
                -1.242221410049016,
                -1.790314399723892,
                -1.520537131104995,
                -1.5278076663292945,
                0.5150986086953921
            ]
        },
        {
            "positions": [
                2.4702698406163197,
                -1.2401031800016182,
                -1.6610102753287173,
                -1.4925232621319835,
                -1.4846684396525187,
                0.5881775102653852
            ]
        },
        {
            "positions": [
                2.355603490192987,
                -1.2379849499542201,
                -1.5317061509335426,
                -1.464509393158972,
                -1.4415292129757429,
                0.6612564118353783
            ]
        },
        {
            "positions": [
                2.2409371397696543,
                -1.235866719906822,
                -1.4024020265383679,
                -1.4364955241859605,
                -1.3983899862989668,
                0.7343353134053713
            ]
        },
        {
            "positions": [
                2.126270789346322,
                -1.233748489859424,
                -1.2730979021431932,
                -1.408481655212949,
                -1.355250759622191,
                0.8074142149753643
            ]
        },
        {
            "positions": [
                2.0116044389229892,
                -1.2316302598120261,
                -1.1437937777480185,
                -1.3804677862399375,
                -1.3121115329454152,
                0.8804931165453573
            ]
        },
        {
            "positions": [
                1.8969380884996567,
                -1.229512029764628,
                -1.0144896533528436,
                -1.352453917266926,
                -1.2689723062686393,
                0.9535720181153504
            ]
        },
        {
            "positions": [
                1.7822717380763242,
                -1.22739379971723,
                -0.8851855289576691,
                -1.3244400482939147,
                -1.2258330795918635,
                1.0266509196853435
            ]
        },
        {
            "positions": [
                1.6676053876529917,
                -1.225275569669832,
                -0.7558814045624944,
                -1.296426179320903,
                -1.1826938529150874,
                1.0997298212553366
            ]
        },
        {
            "positions": [
                1.552939037229659,
                -1.223157339622434,
                -0.6265772801673197,
                -1.2684123103478917,
                -1.1395546262383116,
                1.1728087228253294
            ]
        },
        {
            "positions": [
                1.4382726868063265,
                -1.221039109575036,
                -0.49727315577214504,
                -1.24039844137488,
                -1.0964153995615358,
                1.2458876243953223
            ]
        },
        {
            "positions": [
                1.323606336382994,
                -1.218920879527638,
                -0.36796903137697035,
                -1.2123845724018687,
                -1.05327617288476,
                1.3189665259653154
            ]
        },
        {
            "positions": [
                1.2089399859596615,
                -1.21680264948024,
                -0.23866490698179588,
                -1.1843707034288573,
                -1.010136946207984,
                1.3920454275353085
            ]
        },
        {
            "positions": [
                1.0942736355363287,
                -1.2146844194328419,
                -0.10936078258662074,
                -1.1563568344558457,
                -0.9669977195312082,
                1.4651243291053015
            ]
        },
        {
            "positions": [
                0.9796072851129962,
                -1.2125661893854438,
                0.019943341808553727,
                -1.1283429654828343,
                -0.9238584928544323,
                1.5382032306752946
            ]
        },
        {
            "positions": [
                0.8649409346896637,
                -1.210447959338046,
                0.14924746620372842,
                -1.1003290965098227,
                -0.8807192661776565,
                1.6112821322452877
            ]
        },
        {
            "positions": [
                0.750274584266331,
                -1.2083297292906479,
                0.27855159059890333,
                -1.0723152275368113,
                -0.8375800395008806,
                1.6843610338152808
            ]
        },
        {
            "positions": [
                0.6356082338429987,
                -1.2062114992432498,
                0.4078557149940778,
                -1.0443013585638,
                -0.7944408128241047,
                1.7574399353852739
            ]
        },
        {
            "positions": [
                0.520941883419666,
                -1.204093269195852,
                0.5371598393892523,
                -1.0162874895907883,
                -0.7513015861473289,
                1.8305188369552665
            ]
        },
        {
            "positions": [
                0.40627553299633323,
                -1.2019750391484538,
                0.6664639637844272,
                -0.9882736206177768,
                -0.708162359470553,
                1.9035977385252596
            ]
        },
        {
            "positions": [
                0.29160918257300095,
                -1.1998568091010557,
                0.7957680881796017,
                -0.9602597516447653,
                -0.6650231327937771,
                1.9766766400952527
            ]
        },
        {
            "positions": [
                0.17694283214966822,
                -1.1977385790536577,
                0.9250722125747766,
                -0.9322458826717539,
                -0.6218839061170013,
                2.0497555416652458
            ]
        },
        {
            "positions": [
                0.062276481726335486,
                -1.1956203490062598,
                1.0543763369699515,
                -0.9042320136987424,
                -0.5787446794402253,
                2.122834443235239
            ]
        },
        {
            "positions": [
                -0.05238986869699665,
                -1.1935021189588617,
                1.1836804613651257,
                -0.8762181447257309,
                -0.5356054527634495,
                2.195913344805232
            ]
        },
        {
            "positions": [
                -0.027585796255455937,
                -1.1850560863511646,
                1.294892148391428,
                -0.8577742503632821,
                -0.4420299119747949,
                2.319367973580361
            ]
        },
        {
            "positions": [
                -0.0027817238139152267,
                -1.1766100537434674,
                1.4061038354177302,
                -0.8393303560008335,
                -0.34845437118614037,
                2.4428226023554904
            ]
        },
        {
            "positions": [
                0.022022348627625477,
                -1.1681640211357702,
                1.5173155224440324,
                -0.8208864616383847,
                -0.25487883039748577,
                2.5662772311306195
            ]
        },
        {
            "positions": [
                0.046826421069166194,
                -1.1597179885280728,
                1.628527209470335,
                -0.802442567275936,
                -0.16130328960883122,
                2.689731859905749
            ]
        },
        {
            "positions": [
                0.07163049351070691,
                -1.1512719559203757,
                1.7397388964966372,
                -0.7839986729134872,
                -0.06772774882017657,
                2.813186488680878
            ]
        },
        {
            "positions": [
                0.0964345659522476,
                -1.1428259233126785,
                1.8509505835229394,
                -0.7655547785510386,
                0.025847791968477973,
                2.9366411174560074
            ]
        },
        {
            "positions": [
                0.12123863839378833,
                -1.1343798907049814,
                1.9621622705492416,
                -0.7471108841885898,
                0.11942333275713261,
                3.0600957462311364
            ]
        }
    ]
}