{
    "goal": {
        "global_pose": {
            "orientation": {
                "w": 0.7031023480610252,
                "x": -0.7110244013736278,
                "y": 0.0077485991402295624,
                "z": 0.005598929693374583
            },
            "position": {
                "x": -0.8841497679147869,
                "y": 0.44412534475326537,
                "z": 0.3711530566215515
            }
        },
        "name": "move_to_auspresseinheit_D"
    },
    "id": "EST_move_to_auspresseinheit_D_55",
    "joint_names": [
        "shoulder_pan_joint",
        "shoulder_lift_joint",
        "elbow_joint",
        "wrist_1_joint",
        "wrist_2_joint",
        "wrist_3_joint"
    ],
    "metrics": {
        "cart_traj_len": 0.3433238286234874,
        "distance_elbow_joint": 0.6346658113488299,
        "distance_shoulder_lift_joint": 0.11973220695086173,
        "distance_shoulder_pan_joint": 0.13423150956930607,
        "distance_wrist_1_joint": 0.5060616708029073,
        "distance_wrist_2_joint": 1.447441634627453,
        "distance_wrist_3_joint": 0.017830393302749048,
        "smoothness": 1.9737298371844314e-16,
        "time": 0.248827433,
        "traj_len": 1.6911425802108193,
        "weighted_distance": 2.2020734135441455
    },
    "planner": "EST",
    "start": {
        "state": {
            "elbow_joint": -1.8275523626775212,
            "shoulder_lift_joint": -2.126789852344167,
            "shoulder_pan_joint": -0.03513704404078235,
            "wrist_1_joint": -2.347782403156801,
            "wrist_2_joint": -1.6058999987535132,
            "wrist_3_joint": -3.0880379163319196
        }
    },
    "waypoints": [
        {
            "positions": [
                -0.03513704404078235,
                -2.126789852344167,
                -1.8275523626775212,
                -2.347782403156801,
                -1.6058999987535132,
                -3.0880379163319196
            ]
        },
        {
            "positions": [
                -0.05191598273694561,
                -2.1417563782130244,
                -1.7482191362589174,
                -2.4110401120071643,
                -1.4249697944250816,
                -3.090266715494763
            ]
        },
        {
            "positions": [
                -0.06869492143310887,
                -2.1567229040818825,
                -1.6688859098403137,
                -2.4742978208575277,
                -1.2440395900966499,
                -3.0924955146576067
            ]
        },
        {
            "positions": [
                -0.08547386012927213,
                -2.17168942995074,
                -1.58955268342171,
                -2.537555529707891,
                -1.0631093857682183,
                -3.0947243138204503
            ]
        },
        {
            "positions": [
                -0.10225279882543539,
                -2.1866559558195977,
                -1.5102194570031062,
                -2.6008132385582545,
                -0.8821791814397867,
                -3.096953112983294
            ]
        },
        {
            "positions": [
                -0.11903173752159865,
                -2.2016224816884553,
                -1.4308862305845025,
                -2.664070947408618,
                -0.701248977111355,
                -3.099181912146138
            ]
        },
        {
            "positions": [
                -0.1358106762177619,
                -2.216589007557313,
                -1.3515530041658987,
                -2.7273286562589814,
                -0.5203187727829235,
                -3.1014107113089815
            ]
        },
        {
            "positions": [
                -0.15258961491392517,
                -2.231555533426171,
                -1.272219777747295,
                -2.7905863651093448,
                -0.3393885684544917,
                -3.103639510471825
            ]
        },
        {
            "positions": [
                -0.16936855361008843,
                -2.2465220592950286,
                -1.1928865513286913,
                -2.853844073959708,
                -0.15845836412606012,
                -3.1058683096346686
            ]
        }
    ]
}