{
    "goal": {
        "global_pose": {
            "orientation": {
                "w": 0.7031023502349854,
                "x": -0.7110244035720825,
                "y": 0.007748599164187908,
                "z": 0.005598929710686207
            },
            "position": {
                "x": 0.11585023208521307,
                "y": 0.44412534475326537,
                "z": 0.3711530566215515
            }
        },
        "name": "move_to_auspresseinheit_A"
    },
    "id": "EST_move_to_auspresseinheit_A_87",
    "joint_names": [
        "shoulder_pan_joint",
        "shoulder_lift_joint",
        "elbow_joint",
        "wrist_1_joint",
        "wrist_2_joint",
        "wrist_3_joint"
    ],
    "metrics": {
        "cart_traj_len": 0.6865563606815508,
        "distance_elbow_joint": 0.18687830118396365,
        "distance_shoulder_lift_joint": 0.5334197379303955,
        "distance_shoulder_pan_joint": 1.042601926396033,
        "distance_wrist_1_joint": 1.843790353460818,
        "distance_wrist_2_joint": 2.1545069931882375,
        "distance_wrist_3_joint": 0.40208566459620076,
        "smoothness": 1.3397691988045413,
        "time": 0.37236789800000003,
        "traj_len": 2.4825960156166462,
        "weighted_distance": 3.311457632613938
    },
    "planner": "EST",
    "start": {
        "state": {
            "elbow_joint": 2.4225746658250005,
            "shoulder_lift_joint": -1.3736534386056498,
            "shoulder_pan_joint": -0.3378633547517467,
            "wrist_1_joint": -1.0288598680537169,
            "wrist_2_joint": 1.233022673432363,
            "wrist_3_joint": -3.0940220416140027
        }
    },
    "waypoints": [
        {
            "positions": [
                -0.3378633547517467,
                -1.3736534386056498,
                2.4225746658250005,
                -1.0288598680537169,
                1.233022673432363,
                -3.0940220416140027
            ]
        },
        {
            "positions": [
                -0.2880273083990019,
                -1.3986310581629686,
                2.411809585439095,
                -0.9087968989814933,
                1.0988604424722286,
                -3.115946158877311
            ]
        },
        {
            "positions": [
                -0.23819126204625712,
                -1.4236086777202872,
                2.4010445050531892,
                -0.7887339299092697,
                0.9646982115120941,
                -3.137870276140619
            ]
        },
        {
            "positions": [
                -0.18835521569351232,
                -1.448586297277606,
                2.3902794246672836,
                -0.6686709608370461,
                0.8305359805519597,
                -3.1597943934039274
            ]
        },
        {
            "positions": [
                -0.1385191693407675,
                -1.4735639168349248,
                2.379514344281378,
                -0.5486079917648226,
                0.6963737495918251,
                -3.1817185106672357
            ]
        },
        {
            "positions": [
                -0.0886831229880227,
                -1.4985415363922434,
                2.3687492638954724,
                -0.428545022692599,
                0.5622115186316906,
                -3.2036426279305443
            ]
        },
        {
            "positions": [
                -0.03884707663527792,
                -1.5235191559495622,
                2.3579841835095667,
                -0.3084820536203754,
                0.42804928767155614,
                -3.2255667451938526
            ]
        },
        {
            "positions": [
                0.010988969717466879,
                -1.548496775506881,
                2.347219103123661,
                -0.18841908454815182,
                0.2938870567114217,
                -3.247490862457161
            ]
        },
        {
            "positions": [
                0.060825016070211735,
                -1.5734743950641998,
                2.3364540227377555,
                -0.06835611547592824,
                0.1597248257512871,
                -3.269414979720469
            ]
        },
        {
            "positions": [
                0.11066106242295654,
                -1.5984520146215184,
                2.32568894235185,
                0.051706853596295455,
                0.025562594791152637,
                -3.2913390969837772
            ]
        },
        {
            "positions": [
                0.16049710877570134,
                -1.6234296341788372,
                2.3149238619659442,
                0.17176982266851892,
                -0.10859963616898188,
                -3.3132632142470855
            ]
        },
        {
            "positions": [
                0.23824588918549922,
                -1.6639501402298669,
                2.3262420758695024,
                0.07988972799157862,
                0.007526747200574169,
                -3.2871425725380687
            ]
        },
        {
            "positions": [
                0.3159946695952971,
                -1.7044706462808967,
                2.3375602897730605,
                -0.011990366685361686,
                0.12365313057013022,
                -3.2610219308290516
            ]
        },
        {
            "positions": [
                0.393743450005095,
                -1.7449911523319264,
                2.3488785036766187,
                -0.10387046136230199,
                0.23977951393968627,
                -3.234901289120035
            ]
        },
        {
            "positions": [
                0.47149223041489285,
                -1.7855116583829562,
                2.3601967175801772,
                -0.1957505560392423,
                0.3559058973092423,
                -3.208780647411018
            ]
        },
        {
            "positions": [
                0.5492410108246908,
                -1.8260321644339859,
                2.3715149314837354,
                -0.28763065071618266,
                0.4720322806787984,
                -3.1826600057020014
            ]
        },
        {
            "positions": [
                0.6269897912344886,
                -1.8665526704850155,
                2.3828331453872935,
                -0.3795107453931229,
                0.5881586640483545,
                -3.156539363992984
            ]
        },
        {
            "positions": [
                0.7047385716442865,
                -1.9070731765360454,
                2.3941513592908517,
                -0.4713908400700633,
                0.7042850474179105,
                -3.1304187222839674
            ]
        }
    ]
}