{
    "goal": {
        "global_pose": {
            "orientation": {
                "w": 0.7047431493862688,
                "x": -0.7094548369677653,
                "y": 0.0024358444001904,
                "z": -0.0022348060817251984
            },
            "position": {
                "x": -0.39052492380142206,
                "y": 0.3671506643295288,
                "z": 0.19426114857196808
            }
        },
        "name": "move_to_magneteinheit_D"
    },
    "id": "EST_move_to_magneteinheit_D_9",
    "joint_names": [
        "shoulder_pan_joint",
        "shoulder_lift_joint",
        "elbow_joint",
        "wrist_1_joint",
        "wrist_2_joint",
        "wrist_3_joint"
    ],
    "metrics": {
        "cart_traj_len": 4.410539365030512,
        "distance_elbow_joint": 4.489186034319582,
        "distance_shoulder_lift_joint": 1.6324702508252094,
        "distance_shoulder_pan_joint": 3.3473608676345057,
        "distance_wrist_1_joint": 2.996484179468862,
        "distance_wrist_2_joint": 1.417281109145119,
        "distance_wrist_3_joint": 4.544092992577177,
        "smoothness": 0.7790161126748361,
        "time": 0.439184896,
        "traj_len": 4.2926536587489155,
        "weighted_distance": 5.65055985790247
    },
    "planner": "EST",
    "start": {
        "state": {
            "elbow_joint": 0.749534889911806,
            "shoulder_lift_joint": -0.6476975780787326,
            "shoulder_pan_joint": -2.711696901376241,
            "wrist_1_joint": -0.07506478083263063,
            "wrist_2_joint": 0.43296659715538205,
            "wrist_3_joint": -3.14703540197715
        }
    },
    "waypoints": [
        {
            "positions": [
                -2.711696901376241,
                -0.6476975780787326,
                0.749534889911806,
                -0.07506478083263063,
                0.43296659715538205,
                -3.14703540197715
            ]
        },
        {
            "positions": [
                -2.7165518308340615,
                -0.6669272740271271,
                0.786720433135501,
                -0.12995548477598418,
                0.4219662447164628,
                -3.0795181397865656
            ]
        },
        {
            "positions": [
                -2.7204197936963452,
                -0.70810659041466,
                0.8576334648043284,
                -0.23886299673410824,
                0.400694322068702,
                -2.930857026858683
            ]
        },
        {
            "positions": [
                -2.724287756558629,
                -0.7492859068021929,
                0.9285464964731558,
                -0.3477705086922323,
                0.37942239942094114,
                -2.7821959139308006
            ]
        },
        {
            "positions": [
                -2.7281557194209123,
                -0.7904652231897258,
                0.9994595281419834,
                -0.4566780206503564,
                0.3581504767731803,
                -2.6335348010029183
            ]
        },
        {
            "positions": [
                -2.732023682283196,
                -0.8316445395772586,
                1.0703725598108107,
                -0.5655855326084804,
                0.33687855412541945,
                -2.4848736880750355
            ]
        },
        {
            "positions": [
                -2.7358916451454798,
                -0.8728238559647914,
                1.1412855914796383,
                -0.6744930445666045,
                0.3156066314776586,
                -2.3362125751471527
            ]
        },
        {
            "positions": [
                -2.7397596080077635,
                -0.9140031723523243,
                1.2121986231484656,
                -0.7834005565247286,
                0.29433470882989776,
                -2.1875514622192704
            ]
        },
        {
            "positions": [
                -2.643684676277716,
                -0.9477716964346266,
                1.1033399546790938,
                -0.7266835951022818,
                0.28686347448558214,
                -2.0982553432300985
            ]
        },
        {
            "positions": [
                -2.5476097445476684,
                -0.9815402205169287,
                0.9944812862097223,
                -0.6699666336798349,
                0.2793922401412665,
                -2.0089592242409267
            ]
        },
        {
            "positions": [
                -2.451534812817621,
                -1.0153087445992308,
                0.8856226177403506,
                -0.6132496722573879,
                0.2719210057969509,
                -1.919663105251755
            ]
        },
        {
            "positions": [
                -2.3554598810875733,
                -1.049077268681533,
                0.776763949270979,
                -0.556532710834941,
                0.2644497714526352,
                -1.830366986262583
            ]
        },
        {
            "positions": [
                -2.2593849493575258,
                -1.0828457927638353,
                0.6679052808016073,
                -0.4998157494124941,
                0.2569785371083196,
                -1.7410708672734112
            ]
        },
        {
            "positions": [
                -2.163310017627478,
                -1.1166143168461375,
                0.5590466123322356,
                -0.44309878799004726,
                0.24950730276400396,
                -1.6517747482842395
            ]
        },
        {
            "positions": [
                -2.0672350858974307,
                -1.1503828409284398,
                0.450187943862864,
                -0.38638182656760034,
                0.24203606841968833,
                -1.5624786292950676
            ]
        },
        {
            "positions": [
                -1.9711601541673829,
                -1.184151365010742,
                0.34132927539349234,
                -0.3296648651451535,
                0.2345648340753727,
                -1.4731825103058958
            ]
        },
        {
            "positions": [
                -1.875085222437335,
                -1.2179198890930443,
                0.23247060692412058,
                -0.2729479037227065,
                0.22709359973105706,
                -1.3838863913167239
            ]
        },
        {
            "positions": [
                -1.7790102907072876,
                -1.2516884131753463,
                0.12361193845474894,
                -0.21623094230025963,
                0.2196223653867414,
                -1.294590272327552
            ]
        },
        {
            "positions": [
                -1.6829353589772402,
                -1.2854569372576485,
                0.014753269985377404,
                -0.15951398087781277,
                0.21215113104242578,
                -1.20529415333838
            ]
        },
        {
            "positions": [
                -1.5868604272471927,
                -1.3192254613399508,
                -0.09410539848399435,
                -0.1027970194553659,
                0.20467989669811015,
                -1.1159980343492084
            ]
        },
        {
            "positions": [
                -1.490785495517145,
                -1.352993985422253,
                -0.2029640669533661,
                -0.046080058032918925,
                0.19720866235379453,
                -1.0267019153600365
            ]
        },
        {
            "positions": [
                -1.3947105637870973,
                -1.386762509504555,
                -0.31182273542273764,
                0.01063690338952794,
                0.1897374280094789,
                -0.9374057963708646
            ]
        },
        {
            "positions": [
                -1.2986356320570498,
                -1.4205310335868573,
                -0.4206814038921092,
                0.0673538648119748,
                0.18226619366516328,
                -0.8481096773816927
            ]
        },
        {
            "positions": [
                -1.2025607003270022,
                -1.4542995576691595,
                -0.5295400723614809,
                0.12407082623442167,
                0.17479495932084763,
                -0.7588135583925211
            ]
        },
        {
            "positions": [
                -1.1064857685969547,
                -1.4880680817514618,
                -0.6383987408308525,
                0.18078778765686854,
                0.167323724976532,
                -0.6695174394033492
            ]
        },
        {
            "positions": [
                -1.010410836866907,
                -1.521836605833764,
                -0.7472574093002244,
                0.23750474907931562,
                0.15985249063221635,
                -0.5802213204141771
            ]
        },
        {
            "positions": [
                -0.9143359051368594,
                -1.5556051299160663,
                -0.8561160777695962,
                0.2942217105017624,
                0.15238125628790072,
                -0.4909252014250054
            ]
        },
        {
            "positions": [
                -0.8182609734068118,
                -1.5893736539983685,
                -0.9649747462389677,
                0.35093867192420936,
                0.14491002194358507,
                -0.4016290824358335
            ]
        },
        {
            "positions": [
                -0.722186041676764,
                -1.6231421780806705,
                -1.0738334147083393,
                0.40765563334665633,
                0.13743878759926945,
                -0.3123329634466616
            ]
        },
        {
            "positions": [
                -0.6261111099467169,
                -1.6569107021629728,
                -1.1826920831777108,
                0.4643725947691031,
                0.12996755325495382,
                -0.22303684445748995
            ]
        },
        {
            "positions": [
                -0.5300361782166694,
                -1.690679226245275,
                -1.2915507516470823,
                0.5210895561915501,
                0.1224963189106382,
                -0.13374072546831828
            ]
        },
        {
            "positions": [
                -0.4339612464866218,
                -1.724447750327577,
                -1.4004094201164543,
                0.5778065176139968,
                0.11502508456632257,
                -0.04444460647914639
            ]
        },
        {
            "positions": [
                -0.3378863147565738,
                -1.7582162744098793,
                -1.5092680885858258,
                0.6345234790364438,
                0.10755385022200692,
                0.04485151251002595
            ]
        },
        {
            "positions": [
                -0.24181138302652627,
                -1.7919847984921815,
                -1.6181267570551978,
                0.6912404404588908,
                0.10008261587769127,
                0.1341476314991974
            ]
        },
        {
            "positions": [
                -0.14573645129647872,
                -1.8257533225744838,
                -1.7269854255245694,
                0.7479574018813375,
                0.09261138153337564,
                0.22344375048836929
            ]
        },
        {
            "positions": [
                -0.04966151956643122,
                -1.859521846656786,
                -1.8358440939939407,
                0.8046743633037846,
                0.08514014718906002,
                0.31273986947754123
            ]
        },
        {
            "positions": [
                -0.01872486336894532,
                -1.8950530968844503,
                -1.9308858443700292,
                0.8482291606036004,
                0.023545409883219126,
                0.22630660872300426
            ]
        },
        {
            "positions": [
                0.012211792828540582,
                -1.9305843471121147,
                -2.0259275947461175,
                0.8917839579034162,
                -0.038049327422621765,
                0.1398733479684673
            ]
        },
        {
            "positions": [
                0.04314844902602649,
                -1.966115597339779,
                -2.120969345122206,
                0.935338755203232,
                -0.09964406472846266,
                0.05344008721393029
            ]
        },
        {
            "positions": [
                0.07408510522351239,
                -2.0016468475674434,
                -2.2160110954982946,
                0.9788935525030478,
                -0.16123880203430355,
                -0.03299317354060666
            ]
        },
        {
            "positions": [
                0.10502176142099828,
                -2.037178097795108,
                -2.311052845874383,
                1.0224483498028636,
                -0.2228335393401444,
                -0.1194264342951436
            ]
        },
        {
            "positions": [
                0.1359584176184842,
                -2.072709348022772,
                -2.4060945962504716,
                1.0660031471026794,
                -0.28442827664598536,
                -0.20585969504968066
            ]
        },
        {
            "positions": [
                0.1668950738159701,
                -2.108240598250436,
                -2.5011363466265597,
                1.1095579444024952,
                -0.3460230139518262,
                -0.2922929558042176
            ]
        },
        {
            "positions": [
                0.197831730013456,
                -2.1437718484781008,
                -2.5961780970026482,
                1.153112741702311,
                -0.4076177512576671,
                -0.3787262165587545
            ]
        },
        {
            "positions": [
                0.1342139261831619,
                -2.166504511882408,
                -2.55982050018068,
                1.2117185926272651,
                -0.3115016244689887,
                -0.31325094404438963
            ]
        },
        {
            "positions": [
                0.07059612235286783,
                -2.1892371752867144,
                -2.523462903358712,
                1.2703244435522192,
                -0.21538549768031032,
                -0.24777567153002478
            ]
        },
        {
            "positions": [
                0.006978318522573745,
                -2.2119698386910214,
                -2.487105306536744,
                1.3289302944771733,
                -0.11926937089163192,
                -0.18230039901565992
            ]
        },
        {
            "positions": [
                -0.05663948530772034,
                -2.2347025020953284,
                -2.4507477097147765,
                1.3875361454021273,
                -0.023153244102953552,
                -0.11682512650129506
            ]
        },
        {
            "positions": [
                -0.12025728913801442,
                -2.257435165499635,
                -2.4143901128928085,
                1.4461419963270814,
                0.07296288268572487,
                -0.051349853986930205
            ]
        },
        {
            "positions": [
                -0.18387509296830853,
                -2.280167828903942,
                -2.3780325160708404,
                1.5047478472520355,
                0.16907900947440319,
                0.014125418527434661
            ]
        }
    ]
}