{
    "goal": {
        "global_pose": {
            "orientation": {
                "w": -0.00223480608172531,
                "x": 0.0024358444001904467,
                "y": 0.7094548369677653,
                "z": -0.704743149386269
            },
            "position": {
                "x": 0.6205249238014221,
                "y": -0.6371506643295288,
                "z": 0.19426114857196808
            }
        },
        "name": "move_to_magneteinheit_B"
    },
    "id": "EST_move_to_magneteinheit_B_107",
    "joint_names": [
        "shoulder_pan_joint",
        "shoulder_lift_joint",
        "elbow_joint",
        "wrist_1_joint",
        "wrist_2_joint",
        "wrist_3_joint"
    ],
    "metrics": {
        "cart_traj_len": 3.7608335145553475,
        "distance_elbow_joint": 4.28396116184226,
        "distance_shoulder_lift_joint": 1.1857824551422897,
        "distance_shoulder_pan_joint": 3.780798558759293,
        "distance_wrist_1_joint": 1.293141693669162,
        "distance_wrist_2_joint": 1.566632354958395,
        "distance_wrist_3_joint": 0.789031530903196,
        "smoothness": 0.6850608701286469,
        "time": 3.509866407,
        "traj_len": 3.5915661980916616,
        "weighted_distance": 4.163794527316225
    },
    "planner": "EST",
    "start": {
        "state": {
            "elbow_joint": 2.6216224122426386,
            "shoulder_lift_joint": -1.4174107377796124,
            "shoulder_pan_joint": 0.7066234856936794,
            "wrist_1_joint": 1.9546482284002225,
            "wrist_2_joint": -0.7096286983471962,
            "wrist_3_joint": 0.005740856962016249
        }
    },
    "waypoints": [
        {
            "positions": [
                0.7066234856936794,
                -1.4174107377796124,
                2.6216224122426386,
                1.9546482284002225,
                -0.7096286983471962,
                0.005740856962016249
            ]
        },
        {
            "positions": [
                0.575976650492759,
                -1.4073389550442117,
                2.6038163066862254,
                1.8327771289825368,
                -0.7423571462936602,
                0.061709300953201256
            ]
        },
        {
            "positions": [
                0.4453298152918388,
                -1.3972671723088113,
                2.586010201129812,
                1.7109060295648508,
                -0.7750855942401244,
                0.11767774494438626
            ]
        },
        {
            "positions": [
                0.3146829800909185,
                -1.3871953895734106,
                2.5682040955733987,
                1.589034930147165,
                -0.8078140421865884,
                0.1736461889355713
            ]
        },
        {
            "positions": [
                0.1840361448899982,
                -1.37712360683801,
                2.5503979900169855,
                1.4671638307294792,
                -0.8405424901330524,
                0.2296146329267563
            ]
        },
        {
            "positions": [
                0.053389309689077846,
                -1.3670518241026095,
                2.532591884460572,
                1.3452927313117935,
                -0.8732709380795165,
                0.2855830769179413
            ]
        },
        {
            "positions": [
                -0.07725752551184242,
                -1.3569800413672088,
                2.5147857789041588,
                1.2234216318941076,
                -0.9059993860259805,
                0.3415515209091263
            ]
        },
        {
            "positions": [
                0.053081413073565675,
                -1.4008838512301913,
                2.3489719488968155,
                1.2116090520284797,
                -0.8780758061333508,
                0.33131701759224325
            ]
        },
        {
            "positions": [
                0.18342035165897377,
                -1.444787661093174,
                2.183158118889472,
                1.1997964721628518,
                -0.850152226240721,
                0.3210825142753601
            ]
        },
        {
            "positions": [
                0.31375929024438176,
                -1.4886914709561565,
                2.0173442888821294,
                1.1879838922972241,
                -0.8222286463480912,
                0.31084801095847703
            ]
        },
        {
            "positions": [
                0.44409822882979,
                -1.5325952808191392,
                1.851530458874786,
                1.1761713124315962,
                -0.7943050664554614,
                0.30061350764159395
            ]
        },
        {
            "positions": [
                0.574437167415198,
                -1.5764990906821217,
                1.685716628867443,
                1.1643587325659683,
                -0.7663814865628317,
                0.29037900432471087
            ]
        },
        {
            "positions": [
                0.704776106000606,
                -1.6204029005451044,
                1.5199027988601,
                1.1525461527003404,
                -0.738457906670202,
                0.28014450100782773
            ]
        },
        {
            "positions": [
                0.8351150445860142,
                -1.6643067104080869,
                1.3540889688527566,
                1.1407335728347126,
                -0.7105343267775721,
                0.26990999769094465
            ]
        },
        {
            "positions": [
                0.9654539831714224,
                -1.7082105202710696,
                1.1882751388454134,
                1.1289209929690849,
                -0.6826107468849423,
                0.25967549437406157
            ]
        },
        {
            "positions": [
                1.0957929217568305,
                -1.752114330134052,
                1.02246130883807,
                1.117108413103457,
                -0.6546871669923126,
                0.24944099105717846
            ]
        },
        {
            "positions": [
                1.2261318603422384,
                -1.7960181399970345,
                0.8566474788307272,
                1.105295833237829,
                -0.6267635870996828,
                0.23920648774029535
            ]
        },
        {
            "positions": [
                1.3564707989276465,
                -1.8399219498600172,
                0.6908336488233839,
                1.0934832533722012,
                -0.598840007207053,
                0.22897198442341227
            ]
        },
        {
            "positions": [
                1.4868097375130545,
                -1.883825759723,
                0.5250198188160409,
                1.0816706735065735,
                -0.5709164273144233,
                0.21873748110652919
            ]
        },
        {
            "positions": [
                1.6171486760984628,
                -1.9277295695859824,
                0.35920598880869736,
                1.0698580936409456,
                -0.5429928474217934,
                0.20850297778964608
            ]
        },
        {
            "positions": [
                1.7474876146838707,
                -1.9716333794489649,
                0.19339215880135452,
                1.0580455137753177,
                -0.5150692675291637,
                0.19826847447276297
            ]
        },
        {
            "positions": [
                1.8778265532692788,
                -2.0155371893119476,
                0.027578328794011675,
                1.0462329339096899,
                -0.48714568763653393,
                0.1880339711558799
            ]
        },
        {
            "positions": [
                2.008165491854687,
                -2.0594409991749303,
                -0.13823550121333206,
                1.034420354044062,
                -0.4592221077439041,
                0.17779946783899678
            ]
        },
        {
            "positions": [
                2.138504430440095,
                -2.1033448090379125,
                -0.3040493312206749,
                1.022607774178434,
                -0.43129852785127437,
                0.1675649645221137
            ]
        },
        {
            "positions": [
                2.2688433690255034,
                -2.1472486189008952,
                -0.46986316122801863,
                1.0107951943128064,
                -0.4033749479586446,
                0.1573304612052306
            ]
        },
        {
            "positions": [
                2.399182307610911,
                -2.191152428763878,
                -0.6356769912353615,
                0.9989826144471785,
                -0.37545136806601476,
                0.1470959578883475
            ]
        },
        {
            "positions": [
                2.5295212461963192,
                -2.2350562386268606,
                -0.8014908212427043,
                0.9871700345815506,
                -0.34752778817338503,
                0.1368614545714644
            ]
        },
        {
            "positions": [
                2.6598601847817274,
                -2.278960048489843,
                -0.967304651250048,
                0.9753574547159227,
                -0.3196042082807552,
                0.1266269512545813
            ]
        },
        {
            "positions": [
                2.7901991233671355,
                -2.3228638583528256,
                -1.1331184812573907,
                0.9635448748502949,
                -0.2916806283881255,
                0.1163924479376982
            ]
        },
        {
            "positions": [
                2.7886717766033,
                -2.3413177015781956,
                -1.2783991664482746,
                1.0200429857030835,
                -0.23360083897558834,
                0.13486341198394833
            ]
        },
        {
            "positions": [
                2.787144429839464,
                -2.3597715448035657,
                -1.4236798516391587,
                1.076541096555872,
                -0.1755210495630512,
                0.15333437603019845
            ]
        },
        {
            "positions": [
                2.7856170830756284,
                -2.3782253880289357,
                -1.5689605368300426,
                1.1330392074086606,
                -0.11744126015051404,
                0.1718053400764486
            ]
        },
        {
            "positions": [
                2.7517933306991726,
                -2.4057856982427372,
                -1.5948943888369722,
                1.0949231619543807,
                0.04123454176162267,
                0.12698781727655054
            ]
        },
        {
            "positions": [
                2.7179695783227174,
                -2.4333460084565384,
                -1.6208282408439016,
                1.0568071165001007,
                0.19991034367375937,
                0.08217029447665246
            ]
        },
        {
            "positions": [
                2.6841458259462616,
                -2.46090631867034,
                -1.6467620928508313,
                1.0186910710458208,
                0.3585861455858961,
                0.03735277167675437
            ]
        },
        {
            "positions": [
                2.660738224692342,
                -2.482331800097095,
                -1.662338749599621,
                1.0004951998477918,
                0.46426228125362995,
                -0.000843561769458489
            ]
        }
    ]
}