{
    "goal": {
        "global_pose": {
            "orientation": {
                "w": -0.00223480608172531,
                "x": 0.0024358444001904467,
                "y": 0.7094548369677653,
                "z": -0.704743149386269
            },
            "position": {
                "x": 0.6205249238014221,
                "y": -0.6371506643295288,
                "z": 0.19426114857196808
            }
        },
        "name": "move_to_magneteinheit_B"
    },
    "id": "EST_move_to_magneteinheit_B_98",
    "joint_names": [
        "shoulder_pan_joint",
        "shoulder_lift_joint",
        "elbow_joint",
        "wrist_1_joint",
        "wrist_2_joint",
        "wrist_3_joint"
    ],
    "metrics": {
        "cart_traj_len": 3.5879781381772218,
        "distance_elbow_joint": 5.1854571192955214,
        "distance_shoulder_lift_joint": 0.785528294874839,
        "distance_shoulder_pan_joint": 2.275379280248666,
        "distance_wrist_1_joint": 4.399266421678361,
        "distance_wrist_2_joint": 2.7063935846061993,
        "distance_wrist_3_joint": 4.2975665880155915,
        "smoothness": 0.37871839631938975,
        "time": 1.3539025059999998,
        "traj_len": 4.432785951150719,
        "weighted_distance": 5.945618930862868
    },
    "planner": "EST",
    "start": {
        "state": {
            "elbow_joint": 2.6216224122426386,
            "shoulder_lift_joint": -1.4174107377796124,
            "shoulder_pan_joint": 0.7066234856936794,
            "wrist_1_joint": 1.9546482284002225,
            "wrist_2_joint": -0.7096286983471962,
            "wrist_3_joint": 0.005740856962016249
        }
    },
    "waypoints": [
        {
            "positions": [
                0.7066234856936794,
                -1.4174107377796124,
                2.6216224122426386,
                1.9546482284002225,
                -0.7096286983471962,
                0.005740856962016249
            ]
        },
        {
            "positions": [
                0.6719558966841642,
                -1.4392628948722703,
                2.717664158423074,
                1.941963174411785,
                -0.7319009426455793,
                -0.09848502122015236
            ]
        },
        {
            "positions": [
                0.6372883076746492,
                -1.461115051964928,
                2.813705904603509,
                1.9292781204233473,
                -0.7541731869439624,
                -0.20271089940232095
            ]
        },
        {
            "positions": [
                0.602620718665134,
                -1.482967209057586,
                2.9097476507839444,
                1.9165930664349098,
                -0.7764454312423454,
                -0.30693677758448956
            ]
        },
        {
            "positions": [
                0.6187652487033287,
                -1.5169237462659921,
                2.760309822749323,
                1.8225001330319546,
                -0.7014025162655411,
                -0.3292970113686724
            ]
        },
        {
            "positions": [
                0.6349097787415234,
                -1.5508802834743984,
                2.610871994714701,
                1.7284071996289991,
                -0.6263596012887367,
                -0.3516572451528553
            ]
        },
        {
            "positions": [
                0.6510543087797181,
                -1.5848368206828045,
                2.4614341666800796,
                1.6343142662260437,
                -0.5513166863119323,
                -0.37401747893703813
            ]
        },
        {
            "positions": [
                0.6671988388179129,
                -1.6187933578912106,
                2.311996338645458,
                1.5402213328230885,
                -0.47627377133512794,
                -0.39637771272122096
            ]
        },
        {
            "positions": [
                0.6833433688561076,
                -1.652749895099617,
                2.1625585106108365,
                1.4461283994201333,
                -0.4012308563583235,
                -0.41873794650540386
            ]
        },
        {
            "positions": [
                0.6994878988943023,
                -1.686706432308023,
                2.013120682576215,
                1.3520354660171778,
                -0.32618794138151913,
                -0.4410981802895867
            ]
        },
        {
            "positions": [
                0.715632428932497,
                -1.720662969516429,
                1.8636828545415933,
                1.2579425326142224,
                -0.2511450264047147,
                -0.46345841407376953
            ]
        },
        {
            "positions": [
                0.7317769589706917,
                -1.7546195067248354,
                1.7142450265069717,
                1.1638495992112672,
                -0.17610211142791043,
                -0.48581864785795237
            ]
        },
        {
            "positions": [
                0.7479214890088864,
                -1.7885760439332414,
                1.5648071984723502,
                1.069756665808312,
                -0.10105919645110595,
                -0.5081788816421353
            ]
        },
        {
            "positions": [
                0.7640660190470812,
                -1.8225325811416475,
                1.4153693704377286,
                0.9756637324053565,
                -0.026016281474301572,
                -0.5305391154263182
            ]
        },
        {
            "positions": [
                0.7802105490852759,
                -1.8564891183500536,
                1.265931542403107,
                0.8815707990024013,
                0.0490266335025028,
                -0.552899349210501
            ]
        },
        {
            "positions": [
                0.7963550791234706,
                -1.89044565555846,
                1.1164937143684854,
                0.7874778655994458,
                0.12406954847930718,
                -0.5752595829946838
            ]
        },
        {
            "positions": [
                0.8913101773154667,
                -1.8899623498439317,
                0.9437303984465786,
                0.7222715066260951,
                0.15774807743807354,
                -0.5470111514357517
            ]
        },
        {
            "positions": [
                0.9862652755074628,
                -1.8894790441294036,
                0.7709670825246718,
                0.6570651476527444,
                0.1914266063968399,
                -0.5187627198768198
            ]
        },
        {
            "positions": [
                1.0812203736994588,
                -1.8889957384148754,
                0.598203766602765,
                0.5918587886793936,
                0.22510513535560628,
                -0.4905142883178877
            ]
        },
        {
            "positions": [
                1.176175471891455,
                -1.8885124327003473,
                0.42544045068085823,
                0.5266524297060429,
                0.2587836643143726,
                -0.46226585675895565
            ]
        },
        {
            "positions": [
                1.271130570083451,
                -1.8880291269858192,
                0.2526771347589515,
                0.4614460707326922,
                0.292462193273139,
                -0.4340174252000236
            ]
        },
        {
            "positions": [
                1.366085668275447,
                -1.887545821271291,
                0.07991381883704451,
                0.3962397117593415,
                0.3261407222319054,
                -0.40576899364109154
            ]
        },
        {
            "positions": [
                1.461040766467443,
                -1.8870625155567629,
                -0.09284949708486212,
                0.33103335278599083,
                0.3598192511906717,
                -0.37752056208215956
            ]
        },
        {
            "positions": [
                1.5559958646594392,
                -1.8865792098422347,
                -0.265612813006769,
                0.2658269938126401,
                0.3934977801494381,
                -0.3492721305232275
            ]
        },
        {
            "positions": [
                1.6509509628514352,
                -1.8860959041277066,
                -0.4383761289286756,
                0.20062063483928938,
                0.4271763091082044,
                -0.32102369896429545
            ]
        },
        {
            "positions": [
                1.7459060610434314,
                -1.8856125984131784,
                -0.6111394448505825,
                0.13541427586593868,
                0.4608548380669708,
                -0.2927752674053634
            ]
        },
        {
            "positions": [
                1.8408611592354274,
                -1.8851292926986503,
                -0.7839027607724893,
                0.07020791689258787,
                0.4945333670257372,
                -0.2645268358464314
            ]
        },
        {
            "positions": [
                1.9358162574274236,
                -1.8846459869841221,
                -0.9566660766943964,
                0.005001557919237176,
                0.5282118959845036,
                -0.2362784042874993
            ]
        },
        {
            "positions": [
                2.0307713556194193,
                -1.884162681269594,
                -1.1294293926163026,
                -0.06020480105411341,
                0.5618904249432699,
                -0.20802997272856733
            ]
        },
        {
            "positions": [
                2.1257264538114153,
                -1.8836793755550658,
                -1.3021927085382097,
                -0.1254111600274641,
                0.5955689539020362,
                -0.1797815411696353
            ]
        },
        {
            "positions": [
                2.2206815520034118,
                -1.8831960698405377,
                -1.4749560244601163,
                -0.19061751900081492,
                0.6292474828608026,
                -0.15153310961070326
            ]
        },
        {
            "positions": [
                2.3156366501954078,
                -1.8827127641260095,
                -1.6477193403820234,
                -0.2558238779741656,
                0.662926011819569,
                -0.12328467805177118
            ]
        },
        {
            "positions": [
                2.4105917483874038,
                -1.8822294584114814,
                -1.82048265630393,
                -0.3210302369475164,
                0.6966045407783353,
                -0.09503624649283915
            ]
        },
        {
            "positions": [
                2.434191881235299,
                -1.8996082076407772,
                -1.8175487875102916,
                -0.4370653411751294,
                0.6349862668621178,
                0.07133809026266022
            ]
        },
        {
            "positions": [
                2.457792014083195,
                -1.9169869568700728,
                -1.8146149187166534,
                -0.5531004454027424,
                0.5733679929459002,
                0.2377124270181596
            ]
        },
        {
            "positions": [
                2.4813921469310904,
                -1.9343657060993686,
                -1.811681049923015,
                -0.6691355496303555,
                0.5117497190296827,
                0.40408676377365893
            ]
        },
        {
            "positions": [
                2.5049922797789863,
                -1.9517444553286645,
                -1.8087471811293767,
                -0.7851706538579685,
                0.45013144511346526,
                0.5704611005291583
            ]
        },
        {
            "positions": [
                2.5285924126268817,
                -1.96912320455796,
                -1.8058133123357383,
                -0.9012057580855815,
                0.3885131711972477,
                0.7368354372846576
            ]
        },
        {
            "positions": [
                2.5521925454747776,
                -1.986501953787256,
                -1.8028794435421,
                -1.0172408623131945,
                0.32689489728103016,
                0.903209774040157
            ]
        },
        {
            "positions": [
                2.575792678322673,
                -2.0038807030165517,
                -1.7999455747484616,
                -1.1332759665408074,
                0.2652766233648127,
                1.0695841107956563
            ]
        },
        {
            "positions": [
                2.599392811170569,
                -2.0212594522458476,
                -1.7970117059548234,
                -1.2493110707684205,
                0.20365834944859512,
                1.2359584475511558
            ]
        },
        {
            "positions": [
                2.6229929440184643,
                -2.0386382014751434,
                -1.794077837161185,
                -1.3653461749960334,
                0.14204007553237763,
                1.402332784306655
            ]
        },
        {
            "positions": [
                2.64659307686636,
                -2.0560169507044392,
                -1.7911439683675467,
                -1.4813812792236465,
                0.08042180161616008,
                1.5687071210621544
            ]
        },
        {
            "positions": [
                2.6701932097142556,
                -2.0733956999337346,
                -1.7882100995739083,
                -1.5974163834512596,
                0.018803527699942646,
                1.7350814578176537
            ]
        },
        {
            "positions": [
                2.6937933425621514,
                -2.0907744491630305,
                -1.78527623078027,
                -1.7134514876788727,
                -0.04281474621627501,
                1.9014557945731532
            ]
        },
        {
            "positions": [
                2.717393475410047,
                -2.1081531983923263,
                -1.7823423619866317,
                -1.8294865919064855,
                -0.10443302013249242,
                2.0678301313286527
            ]
        },
        {
            "positions": [
                2.707959515997512,
                -2.1212121050536874,
                -1.760848815428458,
                -1.9320085254684276,
                -0.16534790659574952,
                2.2467428702845784
            ]
        },
        {
            "positions": [
                2.6985255565849777,
                -2.134271011715049,
                -1.7393552688702842,
                -2.0345304590303694,
                -0.22626279305900662,
                2.4256556092405046
            ]
        },
        {
            "positions": [
                2.689091597172443,
                -2.1473299183764105,
                -1.7178617223121107,
                -2.1370523925923113,
                -0.2871776795222637,
                2.6045683481964303
            ]
        },
        {
            "positions": [
                2.679657637759908,
                -2.1603888250377716,
                -1.696368175753937,
                -2.239574326154253,
                -0.34809256598552085,
                2.783481087152356
            ]
        },
        {
            "positions": [
                2.670223678347374,
                -2.1734477316991327,
                -1.6748746291957632,
                -2.3420962597161954,
                -0.4090074524487779,
                2.9623938261082823
            ]
        },
        {
            "positions": [
                2.660789718934839,
                -2.1865066383604943,
                -1.6533810826375896,
                -2.4446181932781372,
                -0.46992233891203505,
                3.141306565064208
            ]
        }
    ]
}