{
    "goal": {
        "global_pose": {
            "orientation": {
                "w": -0.00223480608172531,
                "x": 0.0024358444001904467,
                "y": 0.7094548369677653,
                "z": -0.704743149386269
            },
            "position": {
                "x": -0.37947507619857795,
                "y": -0.6371506643295288,
                "z": 0.19426114857196808
            }
        },
        "name": "move_to_magneteinheit_C"
    },
    "id": "EST_move_to_magneteinheit_C_52",
    "joint_names": [
        "shoulder_pan_joint",
        "shoulder_lift_joint",
        "elbow_joint",
        "wrist_1_joint",
        "wrist_2_joint",
        "wrist_3_joint"
    ],
    "metrics": {
        "cart_traj_len": 0.7021343320398441,
        "distance_elbow_joint": 0.050832006747725256,
        "distance_shoulder_lift_joint": 0.5494696898737896,
        "distance_shoulder_pan_joint": 0.8024983786943969,
        "distance_wrist_1_joint": 1.6298708964999156,
        "distance_wrist_2_joint": 1.1616011991374295,
        "distance_wrist_3_joint": 5.84844994596888,
        "smoothness": 1.0327871235315529,
        "time": 0.211696964,
        "traj_len": 3.16902542068096,
        "weighted_distance": 4.9528874512245125
    },
    "planner": "EST",
    "start": {
        "state": {
            "elbow_joint": 1.9565354010623817,
            "shoulder_lift_joint": -1.4165861575791021,
            "shoulder_pan_joint": -1.6717766225146293,
            "wrist_1_joint": -0.5286633292919765,
            "wrist_2_joint": 1.472756589071564,
            "wrist_3_joint": -3.1238370188695823
        }
    },
    "waypoints": [
        {
            "positions": [
                -1.6717766225146293,
                -1.4165861575791021,
                1.9565354010623817,
                -0.5286633292919765,
                1.472756589071564,
                -3.1238370188695823
            ]
        },
        {
            "positions": [
                -1.7264941301326668,
                -1.42715299906979,
                1.956516214495338,
                -0.4808422993117091,
                1.4025526504515455,
                -2.91606823606129
            ]
        },
        {
            "positions": [
                -1.7812116377507043,
                -1.4377198405604779,
                1.9564970279282943,
                -0.43302126933144175,
                1.3323487118315271,
                -2.708299453252998
            ]
        },
        {
            "positions": [
                -1.8359291453687419,
                -1.4482866820511657,
                1.9564778413612505,
                -0.38520023935117437,
                1.2621447732115085,
                -2.5005306704447063
            ]
        },
        {
            "positions": [
                -1.8906466529867794,
                -1.4588535235418536,
                1.9564586547942069,
                -0.33737920937090704,
                1.1919408345914901,
                -2.292761887636414
            ]
        },
        {
            "positions": [
                -1.9453641606048169,
                -1.4694203650325415,
                1.9564394682271633,
                -0.28955817939063966,
                1.1217368959714715,
                -2.084993104828122
            ]
        },
        {
            "positions": [
                -2.000081668222854,
                -1.4799872065232293,
                1.9564202816601195,
                -0.24173714941037228,
                1.0515329573514531,
                -1.87722432201983
            ]
        },
        {
            "positions": [
                -2.0547991758408917,
                -1.4905540480139172,
                1.9564010950930757,
                -0.1939161194301049,
                0.9813290187314347,
                -1.6694555392115378
            ]
        },
        {
            "positions": [
                -2.109516683458929,
                -1.501120889504605,
                1.956381908526032,
                -0.14609508944983757,
                0.9111250801114164,
                -1.4616867564032459
            ]
        },
        {
            "positions": [
                -2.1642341910769667,
                -1.511687730995293,
                1.9563627219589885,
                -0.09827405946957013,
                0.8409211414913977,
                -1.2539179735949535
            ]
        },
        {
            "positions": [
                -2.218951698695004,
                -1.5222545724859808,
                1.9563435353919447,
                -0.0504530294893028,
                0.7707172028713793,
                -1.0461491907866614
            ]
        },
        {
            "positions": [
                -2.2736692063130417,
                -1.5328214139766687,
                1.956324348824901,
                -0.0026319995090354764,
                0.700513264251361,
                -0.8383804079783697
            ]
        },
        {
            "positions": [
                -2.328386713931079,
                -1.5433882554673566,
                1.9563051622578573,
                0.045189030471231906,
                0.6303093256313426,
                -0.6306116251700775
            ]
        },
        {
            "positions": [
                -2.3831042215491167,
                -1.5539550969580445,
                1.9562859756908137,
                0.09301006045149929,
                0.560105387011324,
                -0.4228428423617854
            ]
        },
        {
            "positions": [
                -2.4378217291671542,
                -1.5645219384487323,
                1.95626678912377,
                0.1408310904317667,
                0.4899014483913056,
                -0.21507405955349307
            ]
        },
        {
            "positions": [
                -2.4418486767515306,
                -1.533045881223628,
                1.961343005408753,
                0.06616060487525512,
                0.5048711286773981,
                -0.4447446136868081
            ]
        },
        {
            "positions": [
                -2.445875624335907,
                -1.5015698239985238,
                1.9664192216937364,
                -0.008509880681256465,
                0.5198408089634906,
                -0.6744151678201231
            ]
        },
        {
            "positions": [
                -2.4499025719202834,
                -1.4700937667734195,
                1.9714954379787195,
                -0.08318036623776806,
                0.5348104892495831,
                -0.9040857219534383
            ]
        },
        {
            "positions": [
                -2.4526106196190325,
                -1.4359709070702142,
                1.9754215208625154,
                -0.16499870180517218,
                0.5496812689827935,
                -1.1541607579815323
            ]
        },
        {
            "positions": [
                -2.4553186673177816,
                -1.4018480473670092,
                1.9793476037463116,
                -0.24681703737257632,
                0.5645520487160038,
                -1.4042357940096262
            ]
        },
        {
            "positions": [
                -2.458026715016531,
                -1.367725187663804,
                1.9832736866301075,
                -0.32863537293998046,
                0.5794228284492142,
                -1.65431083003772
            ]
        },
        {
            "positions": [
                -2.4607347627152802,
                -1.3336023279605989,
                1.9871997695139034,
                -0.4104537085073846,
                0.5942936081824246,
                -1.9043858660658142
            ]
        },
        {
            "positions": [
                -2.4634428104140293,
                -1.2994794682573936,
                1.9911258523976996,
                -0.49227204407478875,
                0.609164387915635,
                -2.1544609020939083
            ]
        },
        {
            "positions": [
                -2.4661508581127785,
                -1.2653566085541885,
                1.9950519352814955,
                -0.5740903796421928,
                0.6240351676488453,
                -2.404535938122002
            ]
        },
        {
            "positions": [
                -2.468858905811528,
                -1.2312337488509832,
                1.9989780181652914,
                -0.6559087152095969,
                0.6389059473820556,
                -2.654610974150096
            ]
        },
        {
            "positions": [
                -2.471566953510277,
                -1.197110889147778,
                2.0029041010490873,
                -0.7377270507770011,
                0.653776727115266,
                -2.9046860101781897
            ]
        },
        {
            "positions": [
                -2.474275001209026,
                -1.162988029444573,
                2.0068301839328835,
                -0.8195453863444052,
                0.6686475068484764,
                -3.154761046206284
            ]
        }
    ]
}