{
    "goal": {
        "global_pose": {
            "orientation": {
                "w": 0.7047431468963623,
                "x": -0.7094548344612122,
                "y": 0.0024358443915843964,
                "z": -0.0022348060738295317
            },
            "position": {
                "x": 0.6094750761985779,
                "y": 0.3671506643295288,
                "z": 0.19426114857196808
            }
        },
        "name": "move_to_magneteinheit_A"
    },
    "id": "EST_move_to_magneteinheit_A_23",
    "joint_names": [
        "shoulder_pan_joint",
        "shoulder_lift_joint",
        "elbow_joint",
        "wrist_1_joint",
        "wrist_2_joint",
        "wrist_3_joint"
    ],
    "metrics": {
        "cart_traj_len": 3.7234088368766276,
        "distance_elbow_joint": 3.906593709446976,
        "distance_shoulder_lift_joint": 0.18968971522291533,
        "distance_shoulder_pan_joint": 3.5436007031523484,
        "distance_wrist_1_joint": 0.7674189851640157,
        "distance_wrist_2_joint": 1.6907791165448767,
        "distance_wrist_3_joint": 3.561402657035481,
        "smoothness": 0.08034391605396794,
        "time": 0.274171745,
        "traj_len": 3.6958740355383624,
        "weighted_distance": 4.820838962498796
    },
    "planner": "EST",
    "start": {
        "state": {
            "elbow_joint": -1.9196185241190666,
            "shoulder_lift_joint": -1.2443396400964142,
            "shoulder_pan_joint": 2.6996025414629847,
            "wrist_1_joint": -1.5485510000780065,
            "wrist_2_joint": -1.5709468930060704,
            "wrist_3_joint": 0.4420197071253992
        }
    },
    "waypoints": [
        {
            "positions": [
                2.6996025414629847,
                -1.2443396400964142,
                -1.9196185241190666,
                -1.5485510000780065,
                -1.5709468930060704,
                0.4420197071253992
            ]
        },
        {
            "positions": [
                2.538510023291138,
                -1.2467866933835543,
                -1.7748773360801713,
                -1.5506979779446788,
                -1.5401050167771089,
                0.3963347117222589
            ]
        },
        {
            "positions": [
                2.3774175051192916,
                -1.2492337466706946,
                -1.6301361480412757,
                -1.5528449558113508,
                -1.5092631405481476,
                0.3506497163191187
            ]
        },
        {
            "positions": [
                2.216324986947445,
                -1.2516807999578348,
                -1.4853949600023804,
                -1.5549919336780231,
                -1.478421264319186,
                0.3049647209159785
            ]
        },
        {
            "positions": [
                2.0552324687755985,
                -1.2541278532449749,
                -1.3406537719634848,
                -1.5571389115446954,
                -1.4475793880902248,
                0.25927972551283823
            ]
        },
        {
            "positions": [
                1.8941399506037517,
                -1.2565749065321152,
                -1.1959125839245894,
                -1.5592858894113675,
                -1.4167375118612633,
                0.21359473010969798
            ]
        },
        {
            "positions": [
                1.7330474324319054,
                -1.2590219598192554,
                -1.051171395885694,
                -1.5614328672780398,
                -1.385895635632302,
                0.16790973470655773
            ]
        },
        {
            "positions": [
                1.5719549142600586,
                -1.2614690131063957,
                -0.9064302078467985,
                -1.5635798451447118,
                -1.3550537594033405,
                0.12222473930341748
            ]
        },
        {
            "positions": [
                1.410862396088212,
                -1.2639160663935358,
                -0.7616890198079032,
                -1.565726823011384,
                -1.324211883174379,
                0.07653974390027729
            ]
        },
        {
            "positions": [
                1.2497698779163655,
                -1.266363119680676,
                -0.6169478317690078,
                -1.5678738008780564,
                -1.2933700069454177,
                0.03085474849713704
            ]
        },
        {
            "positions": [
                1.088677359744519,
                -1.2688101729678163,
                -0.47220664373011223,
                -1.5700207787447285,
                -1.2625281307164562,
                -0.014830246906003208
            ]
        },
        {
            "positions": [
                0.9275848415726722,
                -1.2712572262549564,
                -0.32746545569121666,
                -1.5721677566114007,
                -1.231686254487495,
                -0.06051524230914351
            ]
        },
        {
            "positions": [
                0.7664923234008258,
                -1.2737042795420965,
                -0.1827242676523213,
                -1.574314734478073,
                -1.2008443782585334,
                -0.10620023771228371
            ]
        },
        {
            "positions": [
                0.6053998052289788,
                -1.2761513328292369,
                -0.03798307961342573,
                -1.576461712344745,
                -1.170002502029572,
                -0.151885233115424
            ]
        },
        {
            "positions": [
                0.4443072870571325,
                -1.278598386116377,
                0.10675810842546962,
                -1.5786086902114174,
                -1.1391606258006106,
                -0.1975702285185642
            ]
        },
        {
            "positions": [
                0.28321476888528574,
                -1.2810454394035173,
                0.251499296464365,
                -1.5807556680780894,
                -1.108318749571649,
                -0.2432552239217044
            ]
        },
        {
            "positions": [
                0.1221222507134394,
                -1.2834924926906575,
                0.3962404845032603,
                -1.5829026459447617,
                -1.0774768733426878,
                -0.2889402193248446
            ]
        },
        {
            "positions": [
                -0.03897026745840737,
                -1.2859395459777976,
                0.5409816725421561,
                -1.585049623811434,
                -1.0466349971137263,
                -0.3346252147279849
            ]
        },
        {
            "positions": [
                -0.2000627856302537,
                -1.288386599264938,
                0.685722860581051,
                -1.587196601678106,
                -1.0157931208847648,
                -0.3803102101311251
            ]
        },
        {
            "positions": [
                -0.3611553038021003,
                -1.290833652552078,
                0.8304640486199468,
                -1.5893435795447783,
                -0.9849512446558035,
                -0.4259952055342654
            ]
        },
        {
            "positions": [
                -0.3309776251841463,
                -1.2818839211291249,
                0.9027459946641947,
                -1.5439294291887007,
                -0.9159022778936404,
                -0.5943319395577539
            ]
        },
        {
            "positions": [
                -0.30079994656619224,
                -1.2729341897061717,
                0.9750279407084425,
                -1.4985152788326228,
                -0.8468533111314773,
                -0.7626686735812425
            ]
        },
        {
            "positions": [
                -0.2706222679482382,
                -1.2639844582832185,
                1.0473098867526902,
                -1.4531011284765452,
                -0.7778043443693143,
                -0.9310054076047309
            ]
        },
        {
            "positions": [
                -0.24044458933028418,
                -1.255034726860265,
                1.119591832796938,
                -1.4076869781204673,
                -0.7087553776071511,
                -1.0993421416282194
            ]
        },
        {
            "positions": [
                -0.21026691071233014,
                -1.2460849954373119,
                1.191873778841186,
                -1.3622728277643896,
                -0.6397064108449881,
                -1.267678875651708
            ]
        },
        {
            "positions": [
                -0.1800892320943761,
                -1.2371352640143587,
                1.2641557248854336,
                -1.316858677408312,
                -0.570657444082825,
                -1.4360156096751964
            ]
        },
        {
            "positions": [
                -0.14991155347642207,
                -1.2281855325914055,
                1.3364376709296815,
                -1.271444527052234,
                -0.5016084773206619,
                -1.604352343698685
            ]
        },
        {
            "positions": [
                -0.11973387485846804,
                -1.2192358011684523,
                1.4087196169739293,
                -1.2260303766961564,
                -0.43255951055849884,
                -1.7726890777221733
            ]
        },
        {
            "positions": [
                -0.08955619624051397,
                -1.2102860697454991,
                1.4810015630181772,
                -1.1806162263400786,
                -0.36351054379633574,
                -1.941025811745662
            ]
        },
        {
            "positions": [
                -0.05937851762255997,
                -1.201336338322546,
                1.553283509062425,
                -1.135202075984001,
                -0.29446157703417264,
                -2.1093625457691503
            ]
        },
        {
            "positions": [
                -0.02920083900460596,
                -1.1923866068995927,
                1.6255654551066727,
                -1.089787925627923,
                -0.22541261027200954,
                -2.277699279792639
            ]
        },
        {
            "positions": [
                0.0009768396133481017,
                -1.1834368754766396,
                1.6978474011509206,
                -1.0443737752718454,
                -0.15636364350984655,
                -2.4460360138161277
            ]
        },
        {
            "positions": [
                0.031154518231302164,
                -1.1744871440536861,
                1.7701293471951685,
                -0.9989596249157676,
                -0.08731467674768345,
                -2.614372747839616
            ]
        },
        {
            "positions": [
                0.06133219684925617,
                -1.165537412630733,
                1.842411293239416,
                -0.95354547455969,
                -0.01826570998552035,
                -2.7827094818631046
            ]
        },
        {
            "positions": [
                0.09150987546721018,
                -1.1565876812077798,
                1.914693239283664,
                -0.9081313242036122,
                0.05078325677664286,
                -2.951046215886593
            ]
        },
        {
            "positions": [
                0.12168755408516423,
                -1.1476379497848266,
                1.9869751853279118,
                -0.8627171738475344,
                0.1198322235388058,
                -3.1193829499100816
            ]
        }
    ]
}