{
    "goal": {
        "global_pose": {
            "orientation": {
                "w": -0.00223480608172531,
                "x": 0.0024358444001904467,
                "y": 0.7094548369677653,
                "z": -0.704743149386269
            },
            "position": {
                "x": 0.6205249238014221,
                "y": -0.6371506643295288,
                "z": 0.19426114857196808
            }
        },
        "name": "move_to_magneteinheit_B"
    },
    "id": "EST_move_to_magneteinheit_B_66",
    "joint_names": [
        "shoulder_pan_joint",
        "shoulder_lift_joint",
        "elbow_joint",
        "wrist_1_joint",
        "wrist_2_joint",
        "wrist_3_joint"
    ],
    "metrics": {
        "cart_traj_len": 3.2712528194326875,
        "distance_elbow_joint": 4.486343536105821,
        "distance_shoulder_lift_joint": 1.0593613402429414,
        "distance_shoulder_pan_joint": 2.7828121132847374,
        "distance_wrist_1_joint": 1.9590513261897866,
        "distance_wrist_2_joint": 2.996821186929121,
        "distance_wrist_3_joint": 2.9079551402308272,
        "smoothness": 0.5163987064512979,
        "time": 3.929006521,
        "traj_len": 4.023971252753085,
        "weighted_distance": 5.192699436378328
    },
    "planner": "EST",
    "start": {
        "state": {
            "elbow_joint": 2.6216224122426386,
            "shoulder_lift_joint": -1.4174107377796124,
            "shoulder_pan_joint": 0.7066234856936794,
            "wrist_1_joint": 1.9546482284002225,
            "wrist_2_joint": -0.7096286983471962,
            "wrist_3_joint": 0.005740856962016249
        }
    },
    "waypoints": [
        {
            "positions": [
                0.7066234856936794,
                -1.4174107377796124,
                2.6216224122426386,
                1.9546482284002225,
                -0.7096286983471962,
                0.005740856962016249
            ]
        },
        {
            "positions": [
                0.6422671779651903,
                -1.4480379948661097,
                2.5806768072252058,
                1.8446471276885952,
                -0.616592662669049,
                0.04796887918784245
            ]
        },
        {
            "positions": [
                0.5779108702367011,
                -1.478665251952607,
                2.5397312022077725,
                1.7346460269769677,
                -0.5235566269909018,
                0.09019690141366865
            ]
        },
        {
            "positions": [
                0.513554562508212,
                -1.5092925090391043,
                2.4987855971903397,
                1.6246449262653404,
                -0.4305205913127545,
                0.13242492363949487
            ]
        },
        {
            "positions": [
                0.47339489144637636,
                -1.5266656466421435,
                2.4045128871781225,
                1.5374812487441492,
                -0.3518805605489144,
                0.14358541104552022
            ]
        },
        {
            "positions": [
                0.43323522038454076,
                -1.5440387842451828,
                2.3102401771659054,
                1.450317571222958,
                -0.27324052978507435,
                0.15474589845154557
            ]
        },
        {
            "positions": [
                0.39307554932270516,
                -1.5614119218482219,
                2.2159674671536878,
                1.3631538937017669,
                -0.19460049902123427,
                0.1659063858575709
            ]
        },
        {
            "positions": [
                0.3529158782608695,
                -1.5787850594512611,
                2.1216947571414706,
                1.2759902161805756,
                -0.1159604682573942,
                0.17706687326359624
            ]
        },
        {
            "positions": [
                0.3127562071990339,
                -1.5961581970543004,
                2.0274220471292534,
                1.1888265386593844,
                -0.037320437493554154,
                0.1882273606696216
            ]
        },
        {
            "positions": [
                0.3866433769890833,
                -1.605705244824441,
                1.8631670685068693,
                1.1569871159172644,
                -0.07837304712859508,
                0.12262518930532189
            ]
        },
        {
            "positions": [
                0.46053054677913274,
                -1.6152522925945818,
                1.6989120898844852,
                1.1251476931751445,
                -0.119425656763636,
                0.057023017941022186
            ]
        },
        {
            "positions": [
                0.5344177165691821,
                -1.6247993403647225,
                1.5346571112621008,
                1.0933082704330246,
                -0.1604782663986769,
                -0.008579153423277502
            ]
        },
        {
            "positions": [
                0.6083048863592315,
                -1.6343463881348634,
                1.3704021326397167,
                1.0614688476909047,
                -0.20153087603371786,
                -0.07418132478757722
            ]
        },
        {
            "positions": [
                0.6821920561492809,
                -1.6438934359050041,
                1.2061471540173325,
                1.0296294249487845,
                -0.24258348566875879,
                -0.1397834961518769
            ]
        },
        {
            "positions": [
                0.7560792259393303,
                -1.6534404836751448,
                1.0418921753949482,
                0.9977900022066647,
                -0.2836360953037997,
                -0.2053856675161766
            ]
        },
        {
            "positions": [
                0.8299663957293797,
                -1.6629875314452855,
                0.877637196772564,
                0.9659505794645447,
                -0.3246887049388406,
                -0.2709878388804763
            ]
        },
        {
            "positions": [
                0.9038535655194291,
                -1.6725345792154263,
                0.7133822181501799,
                0.9341111567224247,
                -0.3657413145738816,
                -0.33659001024477603
            ]
        },
        {
            "positions": [
                0.9777407353094785,
                -1.682081626985567,
                0.5491272395277955,
                0.9022717339803048,
                -0.40679392420892246,
                -0.4021921816090757
            ]
        },
        {
            "positions": [
                1.0516279050995279,
                -1.6916286747557077,
                0.3848722609054116,
                0.8704323112381849,
                -0.44784653384396345,
                -0.4677943529733754
            ]
        },
        {
            "positions": [
                1.1255150748895772,
                -1.7011757225258486,
                0.22061728228302724,
                0.838592888496065,
                -0.4888991434790043,
                -0.533396524337675
            ]
        },
        {
            "positions": [
                1.1994022446796266,
                -1.7107227702959893,
                0.0563623036606431,
                0.806753465753945,
                -0.5299517531140452,
                -0.5989986957019748
            ]
        },
        {
            "positions": [
                1.2732894144696763,
                -1.72026981806613,
                -0.10789267496174126,
                0.774914043011825,
                -0.5710043627490863,
                -0.6646008670662746
            ]
        },
        {
            "positions": [
                1.3471765842597256,
                -1.7298168658362707,
                -0.2721476535841254,
                0.743074620269705,
                -0.6120569723841272,
                -0.7302030384305742
            ]
        },
        {
            "positions": [
                1.4210637540497748,
                -1.7393639136064114,
                -0.43640263220650954,
                0.7112351975275851,
                -0.653109582019168,
                -0.7958052097948738
            ]
        },
        {
            "positions": [
                1.4949509238398244,
                -1.748910961376552,
                -0.6006576108288937,
                0.6793957747854651,
                -0.694162191654209,
                -0.8614073811591736
            ]
        },
        {
            "positions": [
                1.5688380936298738,
                -1.7584580091466928,
                -0.7649125894512778,
                0.6475563520433452,
                -0.7352148012892499,
                -0.9270095525234732
            ]
        },
        {
            "positions": [
                1.6427252634199232,
                -1.7680050569168335,
                -0.9291675680736624,
                0.6157169293012252,
                -0.7762674109242909,
                -0.992611723887773
            ]
        },
        {
            "positions": [
                1.7166124332099726,
                -1.7775521046869744,
                -1.0934225466960465,
                0.5838775065591053,
                -0.8173200205593318,
                -1.0582138952520725
            ]
        },
        {
            "positions": [
                1.790499603000022,
                -1.7870991524571151,
                -1.2576775253184302,
                0.5520380838169854,
                -0.8583726301943727,
                -1.1238160666163723
            ]
        },
        {
            "positions": [
                1.8643867727900714,
                -1.7966462002272559,
                -1.4219325039408148,
                0.5201986610748653,
                -0.8994252398294137,
                -1.1894182379806721
            ]
        },
        {
            "positions": [
                1.9382739425801208,
                -1.8061932479973966,
                -1.586187482563199,
                0.4883592383327454,
                -0.9404778494644546,
                -1.2550204093449717
            ]
        },
        {
            "positions": [
                2.0125214817023735,
                -1.8604603040245027,
                -1.6044303381412077,
                0.515101989395904,
                -0.8241106322907782,
                -1.1608270697029335
            ]
        },
        {
            "positions": [
                2.086769020824627,
                -1.9147273600516086,
                -1.6226731937192165,
                0.5418447404590627,
                -0.7077434151171018,
                -1.066633730060895
            ]
        },
        {
            "positions": [
                2.16101655994688,
                -1.9689944160787145,
                -1.6409160492972255,
                0.5685874915222213,
                -0.5913761979434253,
                -0.9724403904188568
            ]
        },
        {
            "positions": [
                2.235264099069133,
                -2.023261472105821,
                -1.6591589048752342,
                0.5953302425853799,
                -0.47500898076974896,
                -0.8782470507768183
            ]
        },
        {
            "positions": [
                2.3095116381913856,
                -2.0775285281329268,
                -1.677401760453243,
                0.6220729936485385,
                -0.3586417635960726,
                -0.7840537111347801
            ]
        },
        {
            "positions": [
                2.383759177313639,
                -2.1317955841600327,
                -1.6956446160312517,
                0.6488157447116972,
                -0.2422745464223962,
                -0.6898603714927417
            ]
        },
        {
            "positions": [
                2.458006716435892,
                -2.1860626401871386,
                -1.7138874716092605,
                0.6755584957748558,
                -0.12590732924871983,
                -0.5956670318507035
            ]
        },
        {
            "positions": [
                2.532254255558145,
                -2.2403296962142445,
                -1.7321303271872694,
                0.7023012468380145,
                -0.00954011207504335,
                -0.501473692208665
            ]
        },
        {
            "positions": [
                2.6065017946803977,
                -2.294596752241351,
                -1.7503731827652782,
                0.7290439979011731,
                0.10682710509863313,
                -0.40728035256662676
            ]
        },
        {
            "positions": [
                2.680749333802651,
                -2.3488638082684568,
                -1.768616038343287,
                0.7557867489643317,
                0.2231943222723094,
                -0.31308701292458846
            ]
        },
        {
            "positions": [
                2.673765431073826,
                -2.3914998981864892,
                -1.7365810098366568,
                0.8308983574612395,
                0.3090887697282476,
                -0.19965785622850651
            ]
        },
        {
            "positions": [
                2.666781528345001,
                -2.4341359881045213,
                -1.7045459813300263,
                0.9060099659581473,
                0.39498321718418583,
                -0.08622869953242454
            ]
        },
        {
            "positions": [
                2.659797625616176,
                -2.4767720780225537,
                -1.6725109528233961,
                0.9811215744550552,
                0.48087766464012405,
                0.027200457163657404
            ]
        }
    ]
}