{
    "goal": {
        "global_pose": {
            "orientation": {
                "w": 0.5084816262002911,
                "x": -0.4908360881923452,
                "y": 0.5182115481033761,
                "z": -0.48164630358495003
            },
            "position": {
                "x": 0.5540239810943604,
                "y": -0.46912469901144505,
                "z": 0.16403168439865112
            }
        },
        "name": "move_to_storage_B"
    },
    "id": "EST_move_to_storage_B_76",
    "joint_names": [
        "shoulder_pan_joint",
        "shoulder_lift_joint",
        "elbow_joint",
        "wrist_1_joint",
        "wrist_2_joint",
        "wrist_3_joint"
    ],
    "metrics": {
        "cart_traj_len": 2.184396784918,
        "distance_elbow_joint": 0.3582674194155322,
        "distance_shoulder_lift_joint": 2.148467165910093,
        "distance_shoulder_pan_joint": 1.1819868808295875,
        "distance_wrist_1_joint": 3.027907069087421,
        "distance_wrist_2_joint": 2.7036777786786264,
        "distance_wrist_3_joint": 4.945881758793769,
        "smoothness": 0.30848988228922014,
        "time": 0.068189413,
        "traj_len": 3.790275461324022,
        "weighted_distance": 5.476270303597936
    },
    "planner": "EST",
    "start": {
        "state": {
            "elbow_joint": 1.664937868594044,
            "shoulder_lift_joint": -0.661644460510453,
            "shoulder_pan_joint": -0.9139846352900073,
            "wrist_1_joint": 2.146753192139373,
            "wrist_2_joint": -2.2341966793290973,
            "wrist_3_joint": 0.005466555786416001
        }
    },
    "waypoints": [
        {
            "positions": [
                -0.9139846352900073,
                -0.661644460510453,
                1.664937868594044,
                2.146753192139373,
                -2.2341966793290973,
                0.005466555786416001
            ]
        },
        {
            "positions": [
                -0.875478105849649,
                -0.7619596881551846,
                1.6823650227999285,
                2.0719595218251516,
                -2.141967426107979,
                0.07607713147131881
            ]
        },
        {
            "positions": [
                -0.8369715764092908,
                -0.8622749157999161,
                1.699792177005813,
                1.9971658515109298,
                -2.0497381728868604,
                0.14668770715622162
            ]
        },
        {
            "positions": [
                -0.7984650469689325,
                -0.9625901434446478,
                1.7172193312116975,
                1.922372181196708,
                -1.957508919665742,
                0.21729828284112443
            ]
        },
        {
            "positions": [
                -0.7599585175285744,
                -1.0629053710893792,
                1.734646485417582,
                1.8475785108824865,
                -1.8652796664446234,
                0.28790885852602727
            ]
        },
        {
            "positions": [
                -0.7214519880882161,
                -1.1632205987341109,
                1.7520736396234666,
                1.7727848405682647,
                -1.773050413223505,
                0.3585194342109301
            ]
        },
        {
            "positions": [
                -0.6829454586478578,
                -1.2635358263788423,
                1.7695007938293512,
                1.6979911702540431,
                -1.6808211600023866,
                0.4291300098958329
            ]
        },
        {
            "positions": [
                -0.6444389292074996,
                -1.363851054023574,
                1.7869279480352356,
                1.6231974999398213,
                -1.5885919067812682,
                0.4997405855807356
            ]
        },
        {
            "positions": [
                -0.6059323997671413,
                -1.4641662816683056,
                1.8043551022411202,
                1.5484038296255997,
                -1.4963626535601495,
                0.5703511612656385
            ]
        },
        {
            "positions": [
                -0.5674258703267832,
                -1.5644815093130369,
                1.8217822564470048,
                1.473610159311378,
                -1.4041334003390311,
                0.6409617369505411
            ]
        },
        {
            "positions": [
                -0.5289193408864248,
                -1.6647967369577688,
                1.8392094106528893,
                1.3988164889971562,
                -1.3119041471179127,
                0.7115723126354441
            ]
        },
        {
            "positions": [
                -0.4904128114460666,
                -1.7651119646025002,
                1.856636564858774,
                1.3240228186829346,
                -1.2196748938967943,
                0.7821828883203468
            ]
        },
        {
            "positions": [
                -0.4519062820057083,
                -1.8654271922472319,
                1.8740637190646583,
                1.249229148368713,
                -1.1274456406756759,
                0.8527934640052497
            ]
        },
        {
            "positions": [
                -0.4133997525653501,
                -1.9657424198919633,
                1.8914908732705429,
                1.1744354780544912,
                -1.0352163874545575,
                0.9234040396901524
            ]
        },
        {
            "positions": [
                -0.4417915024863889,
                -1.930560369619939,
                1.8969789738846692,
                1.088785921596052,
                -0.9725206588377204,
                0.755573028236401
            ]
        },
        {
            "positions": [
                -0.47018325240742764,
                -1.8953783193479148,
                1.9024670744987957,
                1.003136365137613,
                -0.9098249302208834,
                0.5877420167826497
            ]
        },
        {
            "positions": [
                -0.4985750023284664,
                -1.8601962690758904,
                1.907955175112922,
                0.9174868086791739,
                -0.8471292016040464,
                0.41991100532889836
            ]
        },
        {
            "positions": [
                -0.5269667522495052,
                -1.8250142188038663,
                1.9134432757270483,
                0.8318372522207348,
                -0.7844334729872093,
                0.252079993875147
            ]
        },
        {
            "positions": [
                -0.5553585021705439,
                -1.789832168531842,
                1.9189313763411748,
                0.7461876957622956,
                -0.7217377443703723,
                0.08424898242139567
            ]
        },
        {
            "positions": [
                -0.5837502520915827,
                -1.7546501182598178,
                1.9244194769553011,
                0.6605381393038565,
                -0.6590420157535353,
                -0.08358202903235568
            ]
        },
        {
            "positions": [
                -0.6121420020126214,
                -1.7194680679877934,
                1.9299075775694277,
                0.5748885828454173,
                -0.5963462871366982,
                -0.251413040486107
            ]
        },
        {
            "positions": [
                -0.6405337519336601,
                -1.684286017715769,
                1.935395678183554,
                0.48923902638697836,
                -0.5336505585198612,
                -0.41924405193985836
            ]
        },
        {
            "positions": [
                -0.6689255018546989,
                -1.6491039674437449,
                1.9408837787976803,
                0.40358946992853917,
                -0.4709548299030242,
                -0.5870750633936097
            ]
        },
        {
            "positions": [
                -0.6973172517757378,
                -1.6139219171717205,
                1.9463718794118068,
                0.3179399134701,
                -0.40825910128618714,
                -0.754906074847361
            ]
        },
        {
            "positions": [
                -0.7257090016967764,
                -1.5787398668996964,
                1.951859980025933,
                0.232290357011661,
                -0.3455633726693501,
                -0.9227370863011124
            ]
        },
        {
            "positions": [
                -0.7541007516178152,
                -1.543557816627672,
                1.9573480806400596,
                0.14664080055322182,
                -0.2828676440525131,
                -1.0905680977548637
            ]
        },
        {
            "positions": [
                -0.782492501538854,
                -1.5083757663556479,
                1.962836181254186,
                0.06099124409478285,
                -0.22017191543567616,
                -1.258399109208615
            ]
        },
        {
            "positions": [
                -0.8108842514598927,
                -1.4731937160836235,
                1.9683242818683122,
                -0.024658312363656565,
                -0.1574761868188389,
                -1.4262301206623664
            ]
        },
        {
            "positions": [
                -0.8392760013809315,
                -1.4380116658115991,
                1.9738123824824387,
                -0.11030786882209553,
                -0.09478045820200198,
                -1.5940611321161178
            ]
        },
        {
            "positions": [
                -0.8676677513019702,
                -1.402829615539575,
                1.979300483096565,
                -0.1959574252805345,
                -0.03208472958516495,
                -1.7618921435698691
            ]
        },
        {
            "positions": [
                -0.896059501223009,
                -1.3676475652675506,
                1.9847885837106913,
                -0.2816069817389739,
                0.03061099903167208,
                -1.9297231550236205
            ]
        },
        {
            "positions": [
                -0.9244512511440477,
                -1.3324655149955262,
                1.9902766843248179,
                -0.3672565381974129,
                0.09330672764850911,
                -2.097554166477372
            ]
        },
        {
            "positions": [
                -0.9528430010650865,
                -1.297283464723502,
                1.9957647849389442,
                -0.45290609465585185,
                0.15600245626534615,
                -2.2653851779311234
            ]
        },
        {
            "positions": [
                -0.9812347509861253,
                -1.2621014144514777,
                2.0012528855530705,
                -0.5385556511142913,
                0.21869818488218318,
                -2.4332161893848747
            ]
        },
        {
            "positions": [
                -1.009626500907164,
                -1.2269193641794536,
                2.006740986167197,
                -0.6242052075727302,
                0.2813939134990202,
                -2.601047200838626
            ]
        },
        {
            "positions": [
                -1.0380182508282028,
                -1.1917373139074292,
                2.0122290867813235,
                -0.7098547640311692,
                0.34408964211585724,
                -2.7688782122923774
            ]
        },
        {
            "positions": [
                -1.0664100007492414,
                -1.156555263635405,
                2.0177171873954496,
                -0.7955043204896086,
                0.4067853707326943,
                -2.9367092237461287
            ]
        },
        {
            "positions": [
                -1.0948017506702803,
                -1.1213732133633807,
                2.023205288009576,
                -0.8811538769480475,
                0.4694810993495312,
                -3.1045402351998796
            ]
        }
    ]
}