{
    "goal": {
        "global_pose": {
            "orientation": {
                "w": 0.5084816217422485,
                "x": -0.49083608388900757,
                "y": 0.5182115435600281,
                "z": -0.4816462993621826
            },
            "position": {
                "x": 0.5540239810943604,
                "y": 0.030875300988554955,
                "z": 0.16403168439865112
            }
        },
        "name": "move_to_storage_A"
    },
    "id": "EST_move_to_storage_A_130",
    "joint_names": [
        "shoulder_pan_joint",
        "shoulder_lift_joint",
        "elbow_joint",
        "wrist_1_joint",
        "wrist_2_joint",
        "wrist_3_joint"
    ],
    "metrics": {
        "cart_traj_len": 0.35267536131118776,
        "distance_elbow_joint": 0.44702821777210056,
        "distance_shoulder_lift_joint": 0.23357085408897849,
        "distance_shoulder_pan_joint": 0.4617802075044282,
        "distance_wrist_1_joint": 0.23552560727218708,
        "distance_wrist_2_joint": 1.0943351672741943,
        "distance_wrist_3_joint": 0.0880544363549296,
        "smoothness": 6.661338165333112e-16,
        "time": 0.019076231,
        "traj_len": 1.6000920255619107,
        "weighted_distance": 2.016497988474836
    },
    "planner": "EST",
    "start": {
        "state": {
            "elbow_joint": 1.971548259319323,
            "shoulder_lift_joint": -1.1394851275133948,
            "shoulder_pan_joint": 0.1228115487234821,
            "wrist_1_joint": -0.7804723859257726,
            "wrist_2_joint": 0.12958671773740124,
            "wrist_3_joint": -3.192489227718131
        }
    },
    "waypoints": [
        {
            "positions": [
                0.1228115487234821,
                -1.1394851275133948,
                1.971548259319323,
                -0.7804723859257726,
                0.12958671773740124,
                -3.192489227718131
            ]
        },
        {
            "positions": [
                0.056842947651420936,
                -1.1728523923832488,
                2.035409433286766,
                -0.8141189012503708,
                0.28592031306228616,
                -3.17991002252457
            ]
        },
        {
            "positions": [
                -0.009125653420640228,
                -1.206219657253103,
                2.099270607254209,
                -0.847765416574969,
                0.44225390838717105,
                -3.1673308173310084
            ]
        },
        {
            "positions": [
                -0.0750942544927014,
                -1.239586922122957,
                2.1631317812216517,
                -0.881411931899567,
                0.5985875037120559,
                -3.154751612137447
            ]
        },
        {
            "positions": [
                -0.14106285556476256,
                -1.2729541869928112,
                2.2269929551890946,
                -0.9150584472241652,
                0.7549210990369408,
                -3.1421724069438857
            ]
        },
        {
            "positions": [
                -0.20703145663682376,
                -1.3063214518626651,
                2.290854129156538,
                -0.9487049625487634,
                0.9112546943618258,
                -3.1295932017503243
            ]
        },
        {
            "positions": [
                -0.2730000577088849,
                -1.3396887167325193,
                2.3547153031239807,
                -0.9823514778733615,
                1.0675882896867106,
                -3.117013996556763
            ]
        },
        {
            "positions": [
                -0.3389686587809461,
                -1.3730559816023733,
                2.4185764770914235,
                -1.0159979931979597,
                1.2239218850115956,
                -3.1044347913632016
            ]
        }
    ]
}{
    "goal": {
        "global_pose": {
            "orientation": {
                "w": 0.5084816217422485,
                "x": -0.49083608388900757,
                "y": 0.5182115435600281,
                "z": -0.4816462993621826
            },
            "position": {
                "x": 0.5540239810943604,
                "y": 0.030875300988554955,
                "z": 0.16403168439865112
            }
        },
        "name": "move_to_storage_A"
    },
    "id": "EST_move_to_storage_A_130",
    "joint_names": [
        "shoulder_pan_joint",
        "shoulder_lift_joint",
        "elbow_joint",
        "wrist_1_joint",
        "wrist_2_joint",
        "wrist_3_joint"
    ],
    "metrics": {
        "cart_traj_len": 0.35293153785974296,
        "distance_elbow_joint": 0.4526917964137227,
        "distance_shoulder_lift_joint": 0.2342648915639809,
        "distance_shoulder_pan_joint": 0.4605937269754401,
        "distance_wrist_1_joint": 0.2556195000134145,
        "distance_wrist_2_joint": 1.1025937750587946,
        "distance_wrist_3_joint": 0.10390935428752623,
        "smoothness": 0.0,
        "time": 0.132922377,
        "traj_len": 1.6154482487263029,
        "weighted_distance": 2.043454190325817
    },
    "planner": "EST",
    "start": {
        "state": {
            "elbow_joint": 1.97154746011099,
            "shoulder_lift_joint": -1.13948474672311,
            "shoulder_pan_joint": 0.12281154466712228,
            "wrist_1_joint": -0.7804688027058302,
            "wrist_2_joint": 0.12958655903071145,
            "wrist_3_joint": 3.0906928834467795
        }
    },
    "waypoints": [
        {
            "positions": [
                0.12281154466712228,
                -1.13948474672311,
                1.97154746011099,
                -0.7804688027058302,
                0.12958655903071145,
                3.0906928834467795
            ]
        },
        {
            "positions": [
                0.05701244081348798,
                -1.1729511598036786,
                2.036217716741522,
                -0.816985874136318,
                0.2870999554676821,
                3.105537076916426
            ]
        },
        {
            "positions": [
                -0.008786663040146317,
                -1.2064175728842474,
                2.1008879733720534,
                -0.8535029455668057,
                0.4446133519046528,
                3.1203812703860727
            ]
        },
        {
            "positions": [
                -0.07458576689378062,
                -1.239883985964816,
                2.1655582300025853,
                -0.8900200169972935,
                0.6021267483416234,
                3.1352254638557193
            ]
        },
        {
            "positions": [
                -0.1403848707474149,
                -1.2733503990453847,
                2.2302284866331172,
                -0.9265370884277813,
                0.7596401447785941,
                3.150069657325366
            ]
        },
        {
            "positions": [
                -0.2061839746010492,
                -1.3068168121259536,
                2.294898743263649,
                -0.9630541598582691,
                0.9171535412155648,
                3.1649138507950125
            ]
        },
        {
            "positions": [
                -0.2719830784546835,
                -1.3402832252065222,
                2.3595689998941807,
                -0.9995712312887569,
                1.0746669376525353,
                3.179758044264659
            ]
        },
        {
            "positions": [
                -0.3377821823083178,
                -1.3737496382870908,
                2.4242392565247126,
                -1.0360883027192447,
                1.2321803340895061,
                3.1946022377343057
            ]
        }
    ]
}{
    "goal": {
        "global_pose": {
            "orientation": {
                "w": 0.5084816217422485,
                "x": -0.49083608388900757,
                "y": 0.5182115435600281,
                "z": -0.4816462993621826
            },
            "position": {
                "x": 0.5540239810943604,
                "y": 0.030875300988554955,
                "z": 0.16403168439865112
            }
        },
        "name": "move_to_storage_A"
    },
    "id": "EST_move_to_storage_A_130",
    "joint_names": [
        "shoulder_pan_joint",
        "shoulder_lift_joint",
        "elbow_joint",
        "wrist_1_joint",
        "wrist_2_joint",
        "wrist_3_joint"
    ],
    "metrics": {
        "cart_traj_len": 0.35302522975908024,
        "distance_elbow_joint": 0.45128106174015326,
        "distance_shoulder_lift_joint": 0.2349033228085491,
        "distance_shoulder_pan_joint": 0.4637754336037856,
        "distance_wrist_1_joint": 0.24337208288427936,
        "distance_wrist_2_joint": 1.0902509601547414,
        "distance_wrist_3_joint": 0.08984072974323087,
        "smoothness": 2.2204460668324854e-16,
        "time": 0.079661042,
        "traj_len": 1.6041893874897502,
        "weighted_distance": 2.021565752940087
    },
    "planner": "EST",
    "start": {
        "state": {
            "elbow_joint": 1.9715472970024885,
            "shoulder_lift_joint": -1.1394870060712896,
            "shoulder_pan_joint": 0.12281152778156021,
            "wrist_1_joint": -0.780463741449964,
            "wrist_2_joint": 0.12958659822042276,
            "wrist_3_joint": 3.090690232415272
        }
    },
    "waypoints": [
        {
            "positions": [
                0.12281152778156021,
                -1.1394870060712896,
                1.9715472970024885,
                -0.780463741449964,
                0.12958659822042276,
                3.090690232415272
            ]
        },
        {
            "positions": [
                0.056557894409590845,
                -1.173044623615368,
                2.036016020108225,
                -0.8152311818620039,
                0.28533673538538584,
                3.1035246223785906
            ]
        },
        {
            "positions": [
                -0.00969573896237852,
                -1.2066022411594466,
                2.100484743213961,
                -0.8499986222740438,
                0.44108687255034884,
                3.1163590123419094
            ]
        },
        {
            "positions": [
                -0.0759493723343479,
                -1.240159858703525,
                2.164953466319697,
                -0.8847660626860837,
                0.596837009715312,
                3.129193402305228
            ]
        },
        {
            "positions": [
                -0.14220300570631725,
                -1.2737174762476033,
                2.229422189425433,
                -0.9195335030981237,
                0.752587146880275,
                3.1420277922685464
            ]
        },
        {
            "positions": [
                -0.20845663907828663,
                -1.3072750937916817,
                2.2938909125311695,
                -0.9543009435101635,
                0.9083372840452381,
                3.154862182231865
            ]
        },
        {
            "positions": [
                -0.27471027245025603,
                -1.3408327113357603,
                2.3583596356369054,
                -0.9890683839222034,
                1.0640874212102012,
                3.167696572195184
            ]
        },
        {
            "positions": [
                -0.34096390582222535,
                -1.3743903288798387,
                2.422828358742642,
                -1.0238358243342434,
                1.2198375583751642,
                3.1805309621585027
            ]
        }
    ]
}