{
    "goal": {
        "global_pose": {
            "orientation": {
                "w": -0.4816463035849501,
                "x": 0.5182115481033762,
                "y": 0.4908360881923453,
                "z": -0.5084816262002911
            },
            "position": {
                "x": -0.8240239810943604,
                "y": 0.19912469901144506,
                "z": 0.16403168439865112
            }
        },
        "name": "move_to_storage_D"
    },
    "id": "EST_move_to_storage_D_23",
    "joint_names": [
        "shoulder_pan_joint",
        "shoulder_lift_joint",
        "elbow_joint",
        "wrist_1_joint",
        "wrist_2_joint",
        "wrist_3_joint"
    ],
    "metrics": {
        "cart_traj_len": 4.049913313129777,
        "distance_elbow_joint": 4.209727985471622,
        "distance_shoulder_lift_joint": 1.2660663029049042,
        "distance_shoulder_pan_joint": 2.8120369505008864,
        "distance_wrist_1_joint": 2.272018856069763,
        "distance_wrist_2_joint": 0.8696693671234343,
        "distance_wrist_3_joint": 3.1350000691177624,
        "smoothness": 1.9984014538862388e-16,
        "time": 0.119957703,
        "traj_len": 3.8163489792193244,
        "weighted_distance": 4.896550611667065
    },
    "planner": "EST",
    "start": {
        "state": {
            "elbow_joint": -2.384821988534728,
            "shoulder_lift_joint": -2.2788054721415256,
            "shoulder_pan_joint": -0.1854694642142757,
            "wrist_1_joint": 1.4845938289331202,
            "wrist_2_joint": 0.17898776772866878,
            "wrist_3_joint": 0.037105688729662994
        }
    },
    "waypoints": [
        {
            "positions": [
                -0.1854694642142757,
                -2.2788054721415256,
                -2.384821988534728,
                1.4845938289331202,
                0.17898776772866878,
                0.037105688729662994
            ]
        },
        {
            "positions": [
                -0.06928372602916703,
                -2.2515327112706394,
                -2.2779725385213028,
                1.4256270841168341,
                0.21187225701661383,
                -0.004640301286810727
            ]
        },
        {
            "positions": [
                0.04690201215594164,
                -2.2242599503997527,
                -2.171123088507878,
                1.366660339300548,
                0.24475674630455888,
                -0.04638629130328445
            ]
        },
        {
            "positions": [
                0.1630877503410503,
                -2.1969871895288664,
                -2.064273638494453,
                1.307693594484262,
                0.2776412355925039,
                -0.08813228131975817
            ]
        },
        {
            "positions": [
                0.27927348852615896,
                -2.16971442865798,
                -1.9574241884810282,
                1.248726849667976,
                0.31052572488044894,
                -0.1298782713362319
            ]
        },
        {
            "positions": [
                0.39545922671126765,
                -2.1424416677870934,
                -1.850574738467603,
                1.1897601048516901,
                0.343410214168394,
                -0.17162426135270561
            ]
        },
        {
            "positions": [
                0.5116449648963763,
                -2.115168906916207,
                -1.743725288454178,
                1.130793360035404,
                0.3762947034563391,
                -0.21337025136917934
            ]
        },
        {
            "positions": [
                0.627830703081485,
                -2.0878961460453205,
                -1.6368758384407531,
                1.071826615219118,
                0.4091791927442841,
                -0.25511624138565303
            ]
        },
        {
            "positions": [
                0.7440164412665937,
                -2.060623385174434,
                -1.5300263884273282,
                1.012859870402832,
                0.4420636820322292,
                -0.2968622314021268
            ]
        },
        {
            "positions": [
                0.8108335842821435,
                -2.026607058424288,
                -1.4194440926073852,
                0.9533718376103976,
                0.4632249322719433,
                -0.3851672468781985
            ]
        },
        {
            "positions": [
                0.8776507272976932,
                -1.9925907316741414,
                -1.3088617967874425,
                0.893883804817963,
                0.4843861825116573,
                -0.4734722623542702
            ]
        },
        {
            "positions": [
                0.944467870313243,
                -1.958574404923995,
                -1.1982795009674998,
                0.8343957720255286,
                0.5055474327513714,
                -0.5617772778303418
            ]
        },
        {
            "positions": [
                1.0112850133287927,
                -1.9245580781738487,
                -1.0876972051475569,
                0.7749077392330941,
                0.5267086829910855,
                -0.6500822933064135
            ]
        },
        {
            "positions": [
                1.0781021563443425,
                -1.8905417514237022,
                -0.977114909327614,
                0.7154197064406596,
                0.5478699332307996,
                -0.7383873087824853
            ]
        },
        {
            "positions": [
                1.1449192993598922,
                -1.8565254246735559,
                -0.8665326135076712,
                0.6559316736482252,
                0.5690311834705137,
                -0.8266923242585569
            ]
        },
        {
            "positions": [
                1.211736442375442,
                -1.8225090979234095,
                -0.7559503176877284,
                0.5964436408557907,
                0.5901924337102278,
                -0.9149973397346287
            ]
        },
        {
            "positions": [
                1.2785535853909917,
                -1.7884927711732632,
                -0.6453680218677855,
                0.5369556080633562,
                0.6113536839499418,
                -1.0033023552107003
            ]
        },
        {
            "positions": [
                1.3453707284065413,
                -1.7544764444231167,
                -0.5347857260478428,
                0.47746757527092176,
                0.6325149341896559,
                -1.091607370686772
            ]
        },
        {
            "positions": [
                1.4121878714220912,
                -1.7204601176729704,
                -0.42420343022789986,
                0.41797954247848723,
                0.65367618442937,
                -1.1799123861628438
            ]
        },
        {
            "positions": [
                1.4790050144376408,
                -1.6864437909228238,
                -0.31362113440795714,
                0.3584915096860528,
                0.6748374346690841,
                -1.2682174016389154
            ]
        },
        {
            "positions": [
                1.5458221574531907,
                -1.6524274641726775,
                -0.2030388385880142,
                0.2990034768936184,
                0.6959986849087982,
                -1.356522417114987
            ]
        },
        {
            "positions": [
                1.6126393004687403,
                -1.6184111374225312,
                -0.09245654276807147,
                0.23951544410118386,
                0.7171599351485123,
                -1.4448274325910586
            ]
        },
        {
            "positions": [
                1.6794564434842902,
                -1.5843948106723846,
                0.018125753051871474,
                0.18002741130874933,
                0.7383211853882263,
                -1.5331324480671304
            ]
        },
        {
            "positions": [
                1.7462735864998398,
                -1.5503784839222385,
                0.1287080488718142,
                0.12053937851631502,
                0.7594824356279404,
                -1.621437463543202
            ]
        },
        {
            "positions": [
                1.8130907295153895,
                -1.516362157172092,
                0.23929034469175714,
                0.06105134572388049,
                0.7806436858676544,
                -1.7097424790192737
            ]
        },
        {
            "positions": [
                1.8799078725309395,
                -1.4823458304219455,
                0.3498726405117001,
                0.0015633129314458483,
                0.8018049361073686,
                -1.7980474944953455
            ]
        },
        {
            "positions": [
                1.946725015546489,
                -1.4483295036717991,
                0.4604549363316426,
                -0.05792471986098846,
                0.8229661863470826,
                -1.886352509971417
            ]
        },
        {
            "positions": [
                2.0135421585620388,
                -1.4143131769216528,
                0.5710372321515857,
                -0.11741275265342299,
                0.8441274365867968,
                -1.9746575254474887
            ]
        },
        {
            "positions": [
                2.0803593015775887,
                -1.3802968501715065,
                0.6816195279715285,
                -0.17690078544585752,
                0.8652886868265108,
                -2.062962540923561
            ]
        },
        {
            "positions": [
                2.1471764445931383,
                -1.3462805234213602,
                0.7922018237914712,
                -0.23638881823829183,
                0.8864499370662249,
                -2.151267556399632
            ]
        },
        {
            "positions": [
                2.2139935876086883,
                -1.3122641966712136,
                0.9027841196114139,
                -0.29587685103072636,
                0.9076111873059389,
                -2.239572571875704
            ]
        },
        {
            "positions": [
                2.280810730624238,
                -1.278247869921067,
                1.013366415431357,
                -0.3553648838231609,
                0.9287724375456531,
                -2.3278775873517756
            ]
        },
        {
            "positions": [
                2.3476278736397873,
                -1.2442315431709208,
                1.1239487112512998,
                -0.4148529166155952,
                0.9499336877853672,
                -2.4161826028278472
            ]
        },
        {
            "positions": [
                2.4144450166553373,
                -1.2102152164207745,
                1.2345310070712427,
                -0.47434094940802973,
                0.9710949380250813,
                -2.504487618303919
            ]
        },
        {
            "positions": [
                2.449798761593883,
                -1.1773025418900822,
                1.3329268387155182,
                -0.5265216290294653,
                0.984021970829585,
                -2.603388745317949
            ]
        },
        {
            "positions": [
                2.4851525065324283,
                -1.1443898673593902,
                1.4313226703597939,
                -0.5787023086509009,
                0.9969490036340886,
                -2.702289872331979
            ]
        },
        {
            "positions": [
                2.520506251470974,
                -1.111477192828698,
                1.5297185020040693,
                -0.6308829882723364,
                1.0098760364385924,
                -2.801190999346009
            ]
        },
        {
            "positions": [
                2.5558599964095197,
                -1.0785645182980057,
                1.6281143336483448,
                -0.6830636678937719,
                1.0228030692430958,
                -2.900092126360039
            ]
        },
        {
            "positions": [
                2.591213741348065,
                -1.0456518437673137,
                1.7265101652926205,
                -0.7352443475152075,
                1.0357301020475995,
                -2.9989932533740693
            ]
        },
        {
            "positions": [
                2.6265674862866106,
                -1.0127391692366214,
                1.824905996936896,
                -0.7874250271366431,
                1.0486571348521032,
                -3.0978943803880994
            ]
        }
    ]
}