{
    "goal": {
        "global_pose": {
            "orientation": {
                "w": 0.5084816262002911,
                "x": -0.4908360881923452,
                "y": 0.5182115481033761,
                "z": -0.48164630358495003
            },
            "position": {
                "x": 0.5540239810943604,
                "y": -0.46912469901144505,
                "z": 0.16403168439865112
            }
        },
        "name": "move_to_storage_B"
    },
    "id": "EST_move_to_storage_B_81",
    "joint_names": [
        "shoulder_pan_joint",
        "shoulder_lift_joint",
        "elbow_joint",
        "wrist_1_joint",
        "wrist_2_joint",
        "wrist_3_joint"
    ],
    "metrics": {
        "cart_traj_len": 1.6485500226865872,
        "distance_elbow_joint": 0.3595832541651447,
        "distance_shoulder_lift_joint": 0.6351391043452288,
        "distance_shoulder_pan_joint": 1.8246498321422167,
        "distance_wrist_1_joint": 2.9889311890975137,
        "distance_wrist_2_joint": 2.706186025831522,
        "distance_wrist_3_joint": 4.375350341155636,
        "smoothness": 0.36635759891754566,
        "time": 0.089977266,
        "traj_len": 3.5902422963829705,
        "weighted_distance": 5.228351331345051
    },
    "planner": "EST",
    "start": {
        "state": {
            "elbow_joint": 1.664937868594044,
            "shoulder_lift_joint": -0.661644460510453,
            "shoulder_pan_joint": -0.9139846352900073,
            "wrist_1_joint": 2.146753192139373,
            "wrist_2_joint": -2.2341966793290973,
            "wrist_3_joint": 0.005466555786416001
        }
    },
    "waypoints": [
        {
            "positions": [
                -0.9139846352900073,
                -0.661644460510453,
                1.664937868594044,
                2.146753192139373,
                -2.2341966793290973,
                0.005466555786416001
            ]
        },
        {
            "positions": [
                -0.7771102758842602,
                -0.7410193586599086,
                1.6641715834867792,
                2.1154767445095164,
                -2.20455183770608,
                -0.09790466357722831
            ]
        },
        {
            "positions": [
                -0.6402359164785132,
                -0.8203942568093643,
                1.6634052983795145,
                2.0842002968796596,
                -2.1749069960830623,
                -0.20127588294087262
            ]
        },
        {
            "positions": [
                -0.5033615570727661,
                -0.8997691549588199,
                1.6626390132722495,
                2.0529238492498028,
                -2.145262154460045,
                -0.3046471023045169
            ]
        },
        {
            "positions": [
                -0.366487197667019,
                -0.9791440531082756,
                1.6618727281649848,
                2.0216474016199455,
                -2.1156173128370277,
                -0.4080183216681612
            ]
        },
        {
            "positions": [
                -0.22961283826127188,
                -1.058518951257731,
                1.66110644305772,
                1.9903709539900887,
                -2.08597247121401,
                -0.5113895410318057
            ]
        },
        {
            "positions": [
                -0.09273847885552475,
                -1.1378938494071869,
                1.6603401579504553,
                1.9590945063602319,
                -2.0563276295909927,
                -0.6147607603954499
            ]
        },
        {
            "positions": [
                -0.12971059458838236,
                -1.1407447617396258,
                1.6723721104926927,
                1.8559986373621937,
                -1.9585863307958993,
                -0.48057002847928176
            ]
        },
        {
            "positions": [
                -0.16668271032123994,
                -1.1435956740720645,
                1.6844040630349302,
                1.7529027683641554,
                -1.860845032000806,
                -0.34637929656311367
            ]
        },
        {
            "positions": [
                -0.20365482605409752,
                -1.1464465864045035,
                1.6964360155771676,
                1.649806899366117,
                -1.7631037332057127,
                -0.21218856464694563
            ]
        },
        {
            "positions": [
                -0.24062694178695512,
                -1.1492974987369422,
                1.708467968119405,
                1.5467110303680789,
                -1.6653624344106195,
                -0.07799783273077743
            ]
        },
        {
            "positions": [
                -0.27759905751981273,
                -1.1521484110693812,
                1.7204999206616423,
                1.4436151613700408,
                -1.567621135615526,
                0.05619289918539061
            ]
        },
        {
            "positions": [
                -0.3145711732526703,
                -1.1549993234018199,
                1.7325318732038797,
                1.3405192923720024,
                -1.4698798368204327,
                0.19038363110155865
            ]
        },
        {
            "positions": [
                -0.3515432889855279,
                -1.1578502357342588,
                1.7445638257461171,
                1.237423423373964,
                -1.3721385380253392,
                0.3245743630177269
            ]
        },
        {
            "positions": [
                -0.3885154047183855,
                -1.1607011480666976,
                1.7565957782883546,
                1.134327554375926,
                -1.274397239230246,
                0.45876509493389506
            ]
        },
        {
            "positions": [
                -0.42548752045124305,
                -1.1635520603991365,
                1.768627730830592,
                1.0312316853778878,
                -1.1766559404351526,
                0.592955826850063
            ]
        },
        {
            "positions": [
                -0.4624596361841007,
                -1.1664029727315752,
                1.7806596833728294,
                0.9281358163798494,
                -1.0789146416400595,
                0.7271465587662311
            ]
        },
        {
            "positions": [
                -0.4994317519169583,
                -1.1692538850640142,
                1.7926916359150669,
                0.8250399473818113,
                -0.981173342844966,
                0.8613372906823993
            ]
        },
        {
            "positions": [
                -0.5364038676498158,
                -1.172104797396453,
                1.8047235884573043,
                0.721944078383773,
                -0.8834320440498729,
                0.9955280225985672
            ]
        },
        {
            "positions": [
                -0.5733759833826735,
                -1.1749557097288919,
                1.8167555409995417,
                0.6188482093857348,
                -0.7856907452547792,
                1.1297187545147356
            ]
        },
        {
            "positions": [
                -0.6103480991155311,
                -1.1778066220613306,
                1.828787493541779,
                0.5157523403876965,
                -0.6879494464596858,
                1.2639094864309037
            ]
        },
        {
            "positions": [
                -0.6473202148483886,
                -1.1806575343937695,
                1.8408194460840164,
                0.41265647138965833,
                -0.5902081476645928,
                1.3981002183470717
            ]
        },
        {
            "positions": [
                -0.6842923305812463,
                -1.1835084467262083,
                1.8528513986262538,
                0.30956060239162,
                -0.49246684886949943,
                1.53229095026324
            ]
        },
        {
            "positions": [
                -0.7212644463141039,
                -1.1863593590586472,
                1.8648833511684912,
                0.20646473339358162,
                -0.394725550074406,
                1.666481682179408
            ]
        },
        {
            "positions": [
                -0.7582365620469614,
                -1.189210271391086,
                1.8769153037107287,
                0.10336886439554371,
                -0.2969842512793128,
                1.8006724140955759
            ]
        },
        {
            "positions": [
                -0.7952086777798191,
                -1.1920611837235249,
                1.8889472562529661,
                0.00027299539750536006,
                -0.19924295248421942,
                1.9348631460117443
            ]
        },
        {
            "positions": [
                -0.8321807935126767,
                -1.1949120960559636,
                1.9009792087952035,
                -0.102822873600533,
                -0.101501653689126,
                2.069053877927912
            ]
        },
        {
            "positions": [
                -0.8691529092455342,
                -1.1977630083884026,
                1.9130111613374408,
                -0.20591874259857113,
                -0.0037603548940325915,
                2.20324460984408
            ]
        },
        {
            "positions": [
                -0.9061250249783919,
                -1.2006139207208413,
                1.9250431138796782,
                -0.30901461159660926,
                0.0939809439010606,
                2.3374353417602487
            ]
        },
        {
            "positions": [
                -0.9430971407112495,
                -1.2034648330532802,
                1.9370750664219156,
                -0.41211048059464783,
                0.19172224269615423,
                2.4716260736764166
            ]
        },
        {
            "positions": [
                -0.980069256444107,
                -1.206315745385719,
                1.949107018964153,
                -0.515206349592686,
                0.289463541491247,
                2.6058168055925846
            ]
        },
        {
            "positions": [
                -1.0170413721769647,
                -1.209166657718158,
                1.9611389715063905,
                -0.6183022185907241,
                0.3872048402863406,
                2.7400075375087525
            ]
        },
        {
            "positions": [
                -1.0434082996390632,
                -1.17996102200565,
                1.979201214828264,
                -0.6929274780465297,
                0.41546634235836866,
                2.873459113198608
            ]
        },
        {
            "positions": [
                -1.0697752271011616,
                -1.150755386293142,
                1.9972634581501378,
                -0.7675527375023352,
                0.44372784443039665,
                3.006910688888463
            ]
        },
        {
            "positions": [
                -1.0961421545632601,
                -1.121549750580634,
                2.0153257014720114,
                -0.8421779969581409,
                0.4719893465024247,
                3.1403622645783185
            ]
        }
    ]
}