{
    "goal": {
        "global_pose": {
            "orientation": {
                "w": -0.4816463035849501,
                "x": 0.5182115481033762,
                "y": 0.4908360881923453,
                "z": -0.5084816262002911
            },
            "position": {
                "x": -0.8240239810943604,
                "y": 0.19912469901144506,
                "z": 0.16403168439865112
            }
        },
        "name": "move_to_storage_D"
    },
    "id": "EST_move_to_storage_D_101",
    "joint_names": [
        "shoulder_pan_joint",
        "shoulder_lift_joint",
        "elbow_joint",
        "wrist_1_joint",
        "wrist_2_joint",
        "wrist_3_joint"
    ],
    "metrics": {
        "cart_traj_len": 3.695122816194368,
        "distance_elbow_joint": 4.211060186506937,
        "distance_shoulder_lift_joint": 1.263926127417341,
        "distance_shoulder_pan_joint": 2.811989754398557,
        "distance_wrist_1_joint": 2.276954680057611,
        "distance_wrist_2_joint": 0.8675985178096614,
        "distance_wrist_3_joint": 3.1311310511014554,
        "smoothness": 0.0010239936274963495,
        "time": 0.125345909,
        "traj_len": 3.8161053860305745,
        "weighted_distance": 4.895863112604532
    },
    "planner": "EST",
    "start": {
        "state": {
            "elbow_joint": -2.384821988534728,
            "shoulder_lift_joint": -2.2788054721415256,
            "shoulder_pan_joint": -0.1854694642142757,
            "wrist_1_joint": 1.4845938289331202,
            "wrist_2_joint": 0.17898776772866878,
            "wrist_3_joint": 0.037105688729662994
        }
    },
    "waypoints": [
        {
            "positions": [
                -0.1854694642142757,
                -2.2788054721415256,
                -2.384821988534728,
                1.4845938289331202,
                0.17898776772866878,
                0.037105688729662994
            ]
        },
        {
            "positions": [
                -0.17654600986884583,
                -2.275471593493908,
                -2.3752933003556844,
                1.4846576788628503,
                0.18308867839820245,
                0.03638718581185769
            ]
        },
        {
            "positions": [
                -0.09441078224617439,
                -2.239632467227755,
                -2.2575672962588187,
                1.4313765919108508,
                0.1991495472128118,
                -0.04776700942306921
            ]
        },
        {
            "positions": [
                -0.012275554623502938,
                -2.2037933409616017,
                -2.1398412921619525,
                1.3780955049588515,
                0.21521041602742114,
                -0.13192120465799612
            ]
        },
        {
            "positions": [
                0.06985967299916851,
                -2.167954214695449,
                -2.022115288065087,
                1.324814418006852,
                0.2312712848420305,
                -0.21607539989292301
            ]
        },
        {
            "positions": [
                0.15199490062183996,
                -2.1321150884292956,
                -1.9043892839682206,
                1.2715333310548527,
                0.24733215365663985,
                -0.3002295951278499
            ]
        },
        {
            "positions": [
                0.2341301282445114,
                -2.096275962163143,
                -1.7866632798713549,
                1.2182522441028532,
                0.2633930224712492,
                -0.38438379036277687
            ]
        },
        {
            "positions": [
                0.31626535586718285,
                -2.0604368358969896,
                -1.6689372757744887,
                1.1649711571508536,
                0.2794538912858585,
                -0.4685379855977037
            ]
        },
        {
            "positions": [
                0.3984005834898543,
                -2.0245977096308367,
                -1.551211271677623,
                1.1116900701988544,
                0.2955147601004679,
                -0.5526921808326306
            ]
        },
        {
            "positions": [
                0.48053581111252575,
                -1.9887585833646837,
                -1.433485267580757,
                1.0584089832468548,
                0.31157562891507723,
                -0.6368463760675575
            ]
        },
        {
            "positions": [
                0.5626710387351972,
                -1.9529194570985307,
                -1.315759263483891,
                1.0051278962948555,
                0.3276364977296866,
                -0.7210005713024844
            ]
        },
        {
            "positions": [
                0.6448062663578686,
                -1.9170803308323776,
                -1.198033259387025,
                0.951846809342856,
                0.34369736654429595,
                -0.8051547665374114
            ]
        },
        {
            "positions": [
                0.7269414939805401,
                -1.8812412045662246,
                -1.0803072552901591,
                0.8985657223908566,
                0.3597582353589053,
                -0.8893089617723381
            ]
        },
        {
            "positions": [
                0.8090767216032115,
                -1.8454020783000715,
                -0.9625812511932932,
                0.8452846354388572,
                0.3758191041735146,
                -0.973463157007265
            ]
        },
        {
            "positions": [
                0.891211949225883,
                -1.8095629520339185,
                -0.8448552470964272,
                0.7920035484868578,
                0.391879972988124,
                -1.057617352242192
            ]
        },
        {
            "positions": [
                0.9733471768485544,
                -1.7737238257677657,
                -0.7271292429995613,
                0.7387224615348583,
                0.4079408418027334,
                -1.141771547477119
            ]
        },
        {
            "positions": [
                1.0554824044712259,
                -1.7378846995016124,
                -0.6094032389026953,
                0.6854413745828589,
                0.4240017106173427,
                -1.225925742712046
            ]
        },
        {
            "positions": [
                1.1376176320938973,
                -1.7020455732354596,
                -0.4916772348058296,
                0.6321602876308595,
                0.44006257943195204,
                -1.3100799379469728
            ]
        },
        {
            "positions": [
                1.2197528597165685,
                -1.6662064469693065,
                -0.37395123070896386,
                0.5788792006788602,
                0.45612344824656137,
                -1.3942341331818995
            ]
        },
        {
            "positions": [
                1.3018880873392402,
                -1.6303673207031535,
                -0.2562252266120977,
                0.5255981137268607,
                0.4721843170611707,
                -1.4783883284168267
            ]
        },
        {
            "positions": [
                1.3840233149619117,
                -1.5945281944370004,
                -0.13849922251523195,
                0.4723170267748613,
                0.48824518587578003,
                -1.5625425236517534
            ]
        },
        {
            "positions": [
                1.4661585425845831,
                -1.5586890681708474,
                -0.02077321841836577,
                0.4190359398228618,
                0.5043060546903895,
                -1.6466967188866806
            ]
        },
        {
            "positions": [
                1.5482937702072546,
                -1.5228499419046944,
                0.09695278567849996,
                0.3657548528708625,
                0.5203669235049988,
                -1.7308509141216073
            ]
        },
        {
            "positions": [
                1.630428997829926,
                -1.4870108156385413,
                0.21467878977536614,
                0.312473765918863,
                0.5364277923196081,
                -1.815005109356534
            ]
        },
        {
            "positions": [
                1.7125642254525975,
                -1.4511716893723883,
                0.3324047938722323,
                0.2591926789668635,
                0.5524886611342175,
                -1.8991593045914612
            ]
        },
        {
            "positions": [
                1.794699453075269,
                -1.4153325631062352,
                0.45013079796909805,
                0.2059115920148642,
                0.5685495299488268,
                -1.983313499826388
            ]
        },
        {
            "positions": [
                1.8768346806979403,
                -1.3794934368400824,
                0.5678568020659638,
                0.1526305050628649,
                0.5846103987634361,
                -2.0674676950613144
            ]
        },
        {
            "positions": [
                1.9589699083206118,
                -1.3436543105739291,
                0.68558280616283,
                0.0993494181108654,
                0.6006712675780456,
                -2.1516218902962416
            ]
        },
        {
            "positions": [
                2.0411051359432832,
                -1.3078151843077763,
                0.8033088102596957,
                0.04606833115886588,
                0.6167321363926549,
                -2.2357760855311684
            ]
        },
        {
            "positions": [
                2.1232403635659547,
                -1.2719760580416233,
                0.9210348143565619,
                -0.0072127557931336295,
                0.6327930052072642,
                -2.3199302807660955
            ]
        },
        {
            "positions": [
                2.205375591188626,
                -1.2361369317754702,
                1.0387608184534274,
                -0.06049384274513294,
                0.6488538740218736,
                -2.4040844760010223
            ]
        },
        {
            "positions": [
                2.2521694466325877,
                -1.2115527554364385,
                1.1262583050666253,
                -0.14179821035845497,
                0.6930463641903687,
                -2.480744574486663
            ]
        },
        {
            "positions": [
                2.2989633020765496,
                -1.1869685790974067,
                1.2137557916798234,
                -0.223102577971777,
                0.7372388543588639,
                -2.5574046729723046
            ]
        },
        {
            "positions": [
                2.345757157520511,
                -1.162384402758375,
                1.3012532782930213,
                -0.304406945585099,
                0.7814313445273591,
                -2.6340647714579455
            ]
        },
        {
            "positions": [
                2.3925510129644727,
                -1.1378002264193432,
                1.3887507649062192,
                -0.385711313198421,
                0.8256238346958542,
                -2.7107248699435864
            ]
        },
        {
            "positions": [
                2.4393448684084347,
                -1.1132160500803114,
                1.4762482515194173,
                -0.46701568081174305,
                0.8698163248643495,
                -2.787384968429228
            ]
        },
        {
            "positions": [
                2.486138723852396,
                -1.08863187374128,
                1.5637457381326152,
                -0.5483200484250651,
                0.9140088150328446,
                -2.8640450669148687
            ]
        },
        {
            "positions": [
                2.5329325792963577,
                -1.0640476974022481,
                1.651243224745813,
                -0.6296244160383871,
                0.9582013052013398,
                -2.9407051654005096
            ]
        },
        {
            "positions": [
                2.5797264347403197,
                -1.0394635210632164,
                1.7387407113590112,
                -0.7109287836517091,
                1.002393795369835,
                -3.017365263886151
            ]
        },
        {
            "positions": [
                2.6265202901842812,
                -1.0148793447241846,
                1.826238197972209,
                -0.7922331512650311,
                1.04658628553833,
                -3.094025362371792
            ]
        }
    ]
}