{
    "goal": {
        "global_pose": {
            "orientation": {
                "w": 0.7031023480610252,
                "x": -0.7110244013736278,
                "y": 0.0077485991402295624,
                "z": 0.005598929693374583
            },
            "position": {
                "x": -0.8841497679147869,
                "y": 0.44412534475326537,
                "z": 0.3711530566215515
            }
        },
        "name": "move_to_auspresseinheit_D"
    },
    "id": "EST_move_to_auspresseinheit_D_48",
    "joint_names": [
        "shoulder_pan_joint",
        "shoulder_lift_joint",
        "elbow_joint",
        "wrist_1_joint",
        "wrist_2_joint",
        "wrist_3_joint"
    ],
    "metrics": {
        "cart_traj_len": 0.34394731066536727,
        "distance_elbow_joint": 0.6472491070067348,
        "distance_shoulder_lift_joint": 0.12557360595401335,
        "distance_shoulder_pan_joint": 0.13431680120451225,
        "distance_wrist_1_joint": 0.5670851175218341,
        "distance_wrist_2_joint": 1.4326605158847285,
        "distance_wrist_3_joint": 0.0348814986330277,
        "smoothness": 9.868649123407766e-16,
        "time": 0.073623207,
        "traj_len": 1.7151579070758618,
        "weighted_distance": 2.2385877862789902
    },
    "planner": "EST",
    "start": {
        "state": {
            "elbow_joint": -1.8275523626775212,
            "shoulder_lift_joint": -2.126789852344167,
            "shoulder_pan_joint": -0.03513704404078235,
            "wrist_1_joint": -2.347782403156801,
            "wrist_2_joint": -1.6058999987535132,
            "wrist_3_joint": -3.0880379163319196
        }
    },
    "waypoints": [
        {
            "positions": [
                -0.03513704404078235,
                -2.126789852344167,
                -1.8275523626775212,
                -2.347782403156801,
                -1.6058999987535132,
                -3.0880379163319196
            ]
        },
        {
            "positions": [
                -0.05192664419134638,
                -2.1424865530884185,
                -1.7466462243016794,
                -2.41866804284703,
                -1.426817434267922,
                -3.0836777290027912
            ]
        },
        {
            "positions": [
                -0.06871624434191041,
                -2.15818325383267,
                -1.6657400859258376,
                -2.4895536825372595,
                -1.247734869782331,
                -3.079317541673663
            ]
        },
        {
            "positions": [
                -0.08550584449247445,
                -2.173879954576922,
                -1.5848339475499957,
                -2.560439322227489,
                -1.06865230529674,
                -3.074957354344534
            ]
        },
        {
            "positions": [
                -0.10229544464303847,
                -2.1895766553211735,
                -1.503927809174154,
                -2.631324961917718,
                -0.8895697408111489,
                -3.0705971670154057
            ]
        },
        {
            "positions": [
                -0.11908504479360252,
                -2.205273356065425,
                -1.4230216707983119,
                -2.702210601607947,
                -0.7104871763255578,
                -3.0662369796862774
            ]
        },
        {
            "positions": [
                -0.13587464494416654,
                -2.220970056809677,
                -1.34211553242247,
                -2.7730962412981763,
                -0.5314046118399669,
                -3.0618767923571486
            ]
        },
        {
            "positions": [
                -0.15266424509473056,
                -2.2366667575539285,
                -1.2612093940466282,
                -2.8439818809884057,
                -0.3523220473543758,
                -3.0575166050280203
            ]
        },
        {
            "positions": [
                -0.1694538452452946,
                -2.25236345829818,
                -1.1803032556707864,
                -2.914867520678635,
                -0.17323948286878477,
                -3.053156417698892
            ]
        }
    ]
}