{
    "goal": {
        "global_pose": {
            "orientation": {
                "w": 0.5084816217422485,
                "x": -0.49083608388900757,
                "y": 0.5182115435600281,
                "z": -0.4816462993621826
            },
            "position": {
                "x": 0.5540239810943604,
                "y": 0.030875300988554955,
                "z": 0.16403168439865112
            }
        },
        "name": "move_to_storage_A"
    },
    "id": "EST_move_to_storage_A_111",
    "joint_names": [
        "shoulder_pan_joint",
        "shoulder_lift_joint",
        "elbow_joint",
        "wrist_1_joint",
        "wrist_2_joint",
        "wrist_3_joint"
    ],
    "metrics": {
        "cart_traj_len": 0.3529024634786636,
        "distance_elbow_joint": 0.45389531841551745,
        "distance_shoulder_lift_joint": 0.23239983847607704,
        "distance_shoulder_pan_joint": 0.4585018310343491,
        "distance_wrist_1_joint": 0.2608957326490301,
        "distance_wrist_2_joint": 1.1108514790170414,
        "distance_wrist_3_joint": 0.10984899018480343,
        "smoothness": 1.1102230298998083e-15,
        "time": 0.057817512,
        "traj_len": 1.6206150652689917,
        "weighted_distance": 2.0537376613902025
    },
    "planner": "EST",
    "start": {
        "state": {
            "elbow_joint": 1.971548259319323,
            "shoulder_lift_joint": -1.1394851275133948,
            "shoulder_pan_joint": 0.1228115487234821,
            "wrist_1_joint": -0.7804723859257726,
            "wrist_2_joint": 0.12958671773740124,
            "wrist_3_joint": -3.192489227718131
        }
    },
    "waypoints": [
        {
            "positions": [
                0.1228115487234821,
                -1.1394851275133948,
                1.971548259319323,
                -0.7804723859257726,
                0.12958671773740124,
                -3.192489227718131
            ]
        },
        {
            "positions": [
                0.05731128714714652,
                -1.1726851044385487,
                2.036390447664397,
                -0.817743204875634,
                0.28827978616840716,
                -3.176796514834588
            ]
        },
        {
            "positions": [
                -0.008188974429189061,
                -1.2058850813637025,
                2.101232636009471,
                -0.8550140238254955,
                0.44697285459941305,
                -3.1611038019510445
            ]
        },
        {
            "positions": [
                -0.07368923600552466,
                -1.2390850582888564,
                2.1660748243545447,
                -0.8922848427753569,
                0.605665923030419,
                -3.145411089067501
            ]
        },
        {
            "positions": [
                -0.13918949758186022,
                -1.2722850352140103,
                2.2309170126996185,
                -0.9295556617252184,
                0.7643589914614249,
                -3.1297183761839578
            ]
        },
        {
            "positions": [
                -0.20468975915819582,
                -1.3054850121391641,
                2.2957592010446928,
                -0.9668264806750798,
                0.9230520598924309,
                -3.1140256633004144
            ]
        },
        {
            "positions": [
                -0.2701900207345314,
                -1.338684989064318,
                2.3606013893897666,
                -1.0040972996249413,
                1.0817451283234367,
                -3.098332950416871
            ]
        },
        {
            "positions": [
                -0.335690282310867,
                -1.3718849659894718,
                2.4254435777348404,
                -1.0413681185748027,
                1.2404381967544427,
                -3.0826402375333277
            ]
        }
    ]
}{
    "goal": {
        "global_pose": {
            "orientation": {
                "w": 0.5084816217422485,
                "x": -0.49083608388900757,
                "y": 0.5182115435600281,
                "z": -0.4816462993621826
            },
            "position": {
                "x": 0.5540239810943604,
                "y": 0.030875300988554955,
                "z": 0.16403168439865112
            }
        },
        "name": "move_to_storage_A"
    },
    "id": "EST_move_to_storage_A_111",
    "joint_names": [
        "shoulder_pan_joint",
        "shoulder_lift_joint",
        "elbow_joint",
        "wrist_1_joint",
        "wrist_2_joint",
        "wrist_3_joint"
    ],
    "metrics": {
        "cart_traj_len": 0.353076713862611,
        "distance_elbow_joint": 0.45137551314667546,
        "distance_shoulder_lift_joint": 0.23605097456905288,
        "distance_shoulder_pan_joint": 0.46118871076782003,
        "distance_wrist_1_joint": 0.24136191378988925,
        "distance_wrist_2_joint": 1.1024527861566529,
        "distance_wrist_3_joint": 0.10260078239894188,
        "smoothness": 8.881784267329941e-16,
        "time": 0.062814231,
        "traj_len": 1.610909892212793,
        "weighted_distance": 2.035693234643535
    },
    "planner": "EST",
    "start": {
        "state": {
            "elbow_joint": 1.97154746011099,
            "shoulder_lift_joint": -1.13948474672311,
            "shoulder_pan_joint": 0.12281154466712228,
            "wrist_1_joint": -0.7804688027058302,
            "wrist_2_joint": 0.12958655903071145,
            "wrist_3_joint": 3.0906928834467795
        }
    },
    "waypoints": [
        {
            "positions": [
                0.12281154466712228,
                -1.13948474672311,
                1.97154746011099,
                -0.7804688027058302,
                0.12958655903071145,
                3.0906928834467795
            ]
        },
        {
            "positions": [
                0.056927443128862276,
                -1.1732063145186888,
                2.0360296762748007,
                -0.8149490761043858,
                0.2870798141959476,
                3.1053501380751998
            ]
        },
        {
            "positions": [
                -0.00895665840939773,
                -1.206927882314268,
                2.1005118924386115,
                -0.8494293495029414,
                0.4445730693611837,
                3.12000739270362
            ]
        },
        {
            "positions": [
                -0.07484075994765772,
                -1.2406494501098468,
                2.1649941086024223,
                -0.883909622901497,
                0.6020663245264198,
                3.1346646473320403
            ]
        },
        {
            "positions": [
                -0.14072486148591773,
                -1.274371017905426,
                2.229476324766233,
                -0.9183898963000526,
                0.759559579691656,
                3.1493219019604606
            ]
        },
        {
            "positions": [
                -0.20660896302417775,
                -1.3080925857010048,
                2.293958540930044,
                -0.9528701696986082,
                0.9170528348568922,
                3.163979156588881
            ]
        },
        {
            "positions": [
                -0.2724930645624377,
                -1.3418141534965837,
                2.3584407570938546,
                -0.9873504430971638,
                1.0745460900221282,
                3.178636411217301
            ]
        },
        {
            "positions": [
                -0.33837716610069773,
                -1.3755357212921628,
                2.4229229732576654,
                -1.0218307164957194,
                1.2320393451873644,
                3.1932936658457214
            ]
        }
    ]
}{
    "goal": {
        "global_pose": {
            "orientation": {
                "w": 0.5084816217422485,
                "x": -0.49083608388900757,
                "y": 0.5182115435600281,
                "z": -0.4816462993621826
            },
            "position": {
                "x": 0.5540239810943604,
                "y": 0.030875300988554955,
                "z": 0.16403168439865112
            }
        },
        "name": "move_to_storage_A"
    },
    "id": "EST_move_to_storage_A_111",
    "joint_names": [
        "shoulder_pan_joint",
        "shoulder_lift_joint",
        "elbow_joint",
        "wrist_1_joint",
        "wrist_2_joint",
        "wrist_3_joint"
    ],
    "metrics": {
        "cart_traj_len": 0.3538141151661195,
        "distance_elbow_joint": 0.4513180479613128,
        "distance_shoulder_lift_joint": 0.23433647552411419,
        "distance_shoulder_pan_joint": 0.46537783263682625,
        "distance_wrist_1_joint": 0.2468541125098318,
        "distance_wrist_2_joint": 1.0887397863777861,
        "distance_wrist_3_joint": 0.10760163080549479,
        "smoothness": 4.440892098500626e-16,
        "time": 0.064231366,
        "traj_len": 1.610660698538139,
        "weighted_distance": 2.0359334582235182
    },
    "planner": "EST",
    "start": {
        "state": {
            "elbow_joint": 1.9715472970024885,
            "shoulder_lift_joint": -1.1394870060712896,
            "shoulder_pan_joint": 0.12281152778156021,
            "wrist_1_joint": -0.780463741449964,
            "wrist_2_joint": 0.12958659822042276,
            "wrist_3_joint": 3.090690232415272
        }
    },
    "waypoints": [
        {
            "positions": [
                0.12281152778156021,
                -1.1394870060712896,
                1.9715472970024885,
                -0.780463741449964,
                0.12958659822042276,
                3.090690232415272
            ]
        },
        {
            "positions": [
                0.05632898026201362,
                -1.1729636454318773,
                2.036021303854105,
                -0.8157286146656543,
                0.28512085341724935,
                3.106061893958914
            ]
        },
        {
            "positions": [
                -0.01015356725753297,
                -1.2064402847924651,
                2.1004953107057207,
                -0.8509934878813445,
                0.440655108614076,
                3.121433555502556
            ]
        },
        {
            "positions": [
                -0.07663611477707957,
                -1.2399169241530528,
                2.164969317557337,
                -0.8862583610970347,
                0.5961893638109025,
                3.136805217046198
            ]
        },
        {
            "positions": [
                -0.14311866229662615,
                -1.2733935635136406,
                2.229443324408953,
                -0.921523234312725,
                0.7517236190077291,
                3.1521768785898403
            ]
        },
        {
            "positions": [
                -0.20960120981617278,
                -1.3068702028742283,
                2.293917331260569,
                -0.9567881075284153,
                0.9072578742045557,
                3.1675485401334824
            ]
        },
        {
            "positions": [
                -0.2760837573357193,
                -1.340346842234816,
                2.358391338112185,
                -0.9920529807441055,
                1.0627921294013822,
                3.1829202016771245
            ]
        },
        {
            "positions": [
                -0.342566304855266,
                -1.3738234815954038,
                2.4228653449638013,
                -1.0273178539597958,
                1.2183263845982089,
                3.1982918632207666
            ]
        }
    ]
}