{
    "goal": {
        "global_pose": {
            "orientation": {
                "w": 0.005598929693374612,
                "x": 0.007748599140229565,
                "y": 0.7110244013736278,
                "z": -0.7031023480610252
            },
            "position": {
                "x": 0.1141497679147869,
                "y": -0.7141253447532654,
                "z": 0.3711530566215515
            }
        },
        "name": "move_to_auspresseinheit_B"
    },
    "id": "EST_move_to_auspresseinheit_B_87",
    "joint_names": [
        "shoulder_pan_joint",
        "shoulder_lift_joint",
        "elbow_joint",
        "wrist_1_joint",
        "wrist_2_joint",
        "wrist_3_joint"
    ],
    "metrics": {
        "cart_traj_len": 0.5655416406422111,
        "distance_elbow_joint": 0.06478772282671774,
        "distance_shoulder_lift_joint": 0.29396743630467337,
        "distance_shoulder_pan_joint": 0.5785736211984738,
        "distance_wrist_1_joint": 0.33495657540158663,
        "distance_wrist_2_joint": 0.9920985797347288,
        "distance_wrist_3_joint": 0.002995526647947777,
        "smoothness": 5.075305255429287e-16,
        "time": 0.07254098,
        "traj_len": 1.5057820101575552,
        "weighted_distance": 1.8974787668235813
    },
    "planner": "EST",
    "start": {
        "state": {
            "elbow_joint": 2.0193083361928714,
            "shoulder_lift_joint": -1.1220246554650708,
            "shoulder_pan_joint": -1.0952077554168747,
            "wrist_1_joint": -0.8559753972642168,
            "wrist_2_joint": 0.4759566250798843,
            "wrist_3_joint": -3.1240929996934557
        }
    },
    "waypoints": [
        {
            "positions": [
                -1.0952077554168747,
                -1.1220246554650708,
                2.0193083361928714,
                -0.8559753972642168,
                0.4759566250798843,
                -3.1240929996934557
            ]
        },
        {
            "positions": [
                -1.191636692283287,
                -1.1710192281825162,
                2.0085103823884185,
                -0.8001493013639523,
                0.6413063883690058,
                -3.12459225413478
            ]
        },
        {
            "positions": [
                -1.2880656291496992,
                -1.220013800899962,
                1.9977124285839656,
                -0.7443232054636879,
                0.8066561516581272,
                -3.125091508576105
            ]
        },
        {
            "positions": [
                -1.3844945660161114,
                -1.2690083736174076,
                1.9869144747795127,
                -0.6884971095634235,
                0.9720059149472486,
                -3.1255907630174296
            ]
        },
        {
            "positions": [
                -1.4809235028825238,
                -1.318002946334853,
                1.9761165209750595,
                -0.632671013663159,
                1.13735567823637,
                -3.126090017458754
            ]
        },
        {
            "positions": [
                -1.5773524397489362,
                -1.3669975190522985,
                1.9653185671706066,
                -0.5768449177628946,
                1.3027054415254917,
                -3.126589271900079
            ]
        },
        {
            "positions": [
                -1.6737813766153484,
                -1.4159920917697442,
                1.9545206133661537,
                -0.5210188218626302,
                1.4680552048146132,
                -3.1270885263414034
            ]
        }
    ]
}