{
    "goal": {
        "global_pose": {
            "orientation": {
                "w": 0.7047431493862688,
                "x": -0.7094548369677653,
                "y": 0.0024358444001904,
                "z": -0.0022348060817251984
            },
            "position": {
                "x": -0.39052492380142206,
                "y": 0.3671506643295288,
                "z": 0.19426114857196808
            }
        },
        "name": "move_to_magneteinheit_D"
    },
    "id": "EST_move_to_magneteinheit_D_115",
    "joint_names": [
        "shoulder_pan_joint",
        "shoulder_lift_joint",
        "elbow_joint",
        "wrist_1_joint",
        "wrist_2_joint",
        "wrist_3_joint"
    ],
    "metrics": {
        "cart_traj_len": 5.236831517642546,
        "distance_elbow_joint": 3.438323839662257,
        "distance_shoulder_lift_joint": 2.9589003391489452,
        "distance_shoulder_pan_joint": 8.711111689337562,
        "distance_wrist_1_joint": 9.038539452654046,
        "distance_wrist_2_joint": 2.672091836258823,
        "distance_wrist_3_joint": 3.322873478568634,
        "smoothness": 0.45829744876393474,
        "time": 0.286914101,
        "traj_len": 5.490158525546439,
        "weighted_distance": 6.964066260575096
    },
    "planner": "EST",
    "start": {
        "state": {
            "elbow_joint": 0.749534889911806,
            "shoulder_lift_joint": -0.6476975780787326,
            "shoulder_pan_joint": -2.711696901376241,
            "wrist_1_joint": -0.07506478083263063,
            "wrist_2_joint": 0.43296659715538205,
            "wrist_3_joint": -3.14703540197715
        }
    },
    "waypoints": [
        {
            "positions": [
                -2.711696901376241,
                -0.6476975780787326,
                0.749534889911806,
                -0.07506478083263063,
                0.43296659715538205,
                -3.14703540197715
            ]
        },
        {
            "positions": [
                -2.6961223152828984,
                -0.7035577213990893,
                0.7716662172343222,
                0.19429550851624622,
                0.4235828397816387,
                -3.132745903118018
            ]
        },
        {
            "positions": [
                -2.6805477291895556,
                -0.7594178647194461,
                0.7937975445568384,
                0.46365579786512306,
                0.4141990824078953,
                -3.118456404258886
            ]
        },
        {
            "positions": [
                -2.664973143096213,
                -0.8152780080398028,
                0.8159288718793546,
                0.7330160872139999,
                0.40481532503415196,
                -3.104166905399754
            ]
        },
        {
            "positions": [
                -2.6493985570028697,
                -0.8711381513601595,
                0.8380601992018708,
                1.0023763765628768,
                0.3954315676604086,
                -3.0898774065406216
            ]
        },
        {
            "positions": [
                -2.633823970909527,
                -0.9269982946805162,
                0.8601915265243871,
                1.2717366659117537,
                0.38604781028666524,
                -3.0755879076814896
            ]
        },
        {
            "positions": [
                -2.6182493848161843,
                -0.9828584380008729,
                0.8823228538469033,
                1.5410969552606304,
                0.3766640529129219,
                -3.0612984088223576
            ]
        },
        {
            "positions": [
                -2.6026747987228416,
                -1.0387185813212296,
                0.9044541811694196,
                1.8104572446095073,
                0.3672802955391785,
                -3.0470089099632256
            ]
        },
        {
            "positions": [
                -2.4911909013956386,
                -1.0527892070000529,
                0.809817179647946,
                1.7598849355024135,
                0.3669949969970108,
                -2.922163187777261
            ]
        },
        {
            "positions": [
                -2.379707004068436,
                -1.066859832678876,
                0.7151801781264724,
                1.7093126263953196,
                0.36670969845484314,
                -2.7973174655912967
            ]
        },
        {
            "positions": [
                -2.268223106741233,
                -1.0809304583576995,
                0.6205431766049987,
                1.6587403172882258,
                0.3664243999126755,
                -2.6724717434053322
            ]
        },
        {
            "positions": [
                -2.1567392094140305,
                -1.0950010840365227,
                0.5259061750835251,
                1.6081680081811318,
                0.3661391013705078,
                -2.5476260212193678
            ]
        },
        {
            "positions": [
                -2.0452553120868275,
                -1.109071709715346,
                0.43126917356205147,
                1.557595699074038,
                0.3658538028283401,
                -2.4227802990334038
            ]
        },
        {
            "positions": [
                -1.9337714147596248,
                -1.1231423353941692,
                0.3366321720405778,
                1.5070233899669443,
                0.36556850428617244,
                -2.297934576847439
            ]
        },
        {
            "positions": [
                -1.822287517432422,
                -1.1372129610729924,
                0.24199517051910424,
                1.4564510808598503,
                0.36528320574400475,
                -2.173088854661475
            ]
        },
        {
            "positions": [
                -1.7108036201052192,
                -1.1512835867518156,
                0.14735816899763066,
                1.4058787717527566,
                0.36499790720183706,
                -2.0482431324755104
            ]
        },
        {
            "positions": [
                -1.5993197227780165,
                -1.165354212430639,
                0.05272116747615696,
                1.3553064626456626,
                0.3647126086596694,
                -1.923397410289546
            ]
        },
        {
            "positions": [
                -1.4878358254508137,
                -1.1794248381094623,
                -0.041915834045316624,
                1.3047341535385688,
                0.36442731011750173,
                -1.7985516881035815
            ]
        },
        {
            "positions": [
                -1.3763519281236107,
                -1.1934954637882855,
                -0.1365528355667902,
                1.2541618444314748,
                0.36414201157533405,
                -1.673705965917617
            ]
        },
        {
            "positions": [
                -1.264868030796408,
                -1.2075660894671087,
                -0.2311898370882639,
                1.203589535324381,
                0.36385671303316636,
                -1.5488602437316525
            ]
        },
        {
            "positions": [
                -1.1533841334692054,
                -1.221636715145932,
                -0.3258268386097374,
                1.1530172262172873,
                0.36357141449099867,
                -1.4240145215456885
            ]
        },
        {
            "positions": [
                -1.0419002361420027,
                -1.2357073408247552,
                -0.4204638401312111,
                1.1024449171101933,
                0.363286115948831,
                -1.299168799359724
            ]
        },
        {
            "positions": [
                -0.9304163388147997,
                -1.2497779665035786,
                -0.5151008416526848,
                1.0518726080030996,
                0.36300081740666335,
                -1.1743230771737596
            ]
        },
        {
            "positions": [
                -0.8189324414875969,
                -1.2638485921824019,
                -0.6097378431741582,
                1.0013002988960058,
                0.36271551886449566,
                -1.0494773549877952
            ]
        },
        {
            "positions": [
                -0.7074485441603942,
                -1.277919217861225,
                -0.7043748446956319,
                0.9507279897889118,
                0.36243022032232797,
                -0.9246316328018306
            ]
        },
        {
            "positions": [
                -0.5828286361077186,
                -1.2550352187237344,
                -0.7601478179867182,
                0.8516079802269517,
                0.31427516337647715,
                -0.8894386521323538
            ]
        },
        {
            "positions": [
                -0.45820872805504315,
                -1.2321512195862436,
                -0.8159207912778045,
                0.7524879706649916,
                0.26612010643062634,
                -0.8542456714628771
            ]
        },
        {
            "positions": [
                -0.3335888200023676,
                -1.209267220448753,
                -0.8716937645688907,
                0.6533679611030314,
                0.21796504948477555,
                -0.8190526907934004
            ]
        },
        {
            "positions": [
                -0.20896891194969214,
                -1.1863832213112622,
                -0.927466737859977,
                0.5542479515410714,
                0.16980999253892473,
                -0.7838597101239237
            ]
        },
        {
            "positions": [
                -0.0843490038970166,
                -1.1634992221737717,
                -0.9832397111510633,
                0.4551279419791112,
                0.12165493559307389,
                -0.748666729454447
            ]
        },
        {
            "positions": [
                0.040270904155658926,
                -1.140615223036281,
                -1.0390126844421494,
                0.3560079324171511,
                0.07349987864722313,
                -0.7134737487849703
            ]
        },
        {
            "positions": [
                0.16489081220833446,
                -1.1177312238987902,
                -1.0947856577332358,
                0.256887922855191,
                0.025344821701372255,
                -0.6782807681154935
            ]
        },
        {
            "positions": [
                0.2895107202610099,
                -1.0948472247612995,
                -1.150558631024322,
                0.15776791329323092,
                -0.022810235244478505,
                -0.6430877874460168
            ]
        },
        {
            "positions": [
                0.4141306283136854,
                -1.0719632256238087,
                -1.2063316043154084,
                0.05864790373127071,
                -0.07096529219032932,
                -0.6078948067765402
            ]
        },
        {
            "positions": [
                0.5387505363663609,
                -1.049079226486318,
                -1.2621045776064945,
                -0.04047210583068939,
                -0.11912034913618019,
                -0.5727018261070633
            ]
        },
        {
            "positions": [
                0.6633704444190365,
                -1.0261952273488273,
                -1.3178775508975809,
                -0.13959211539264937,
                -0.16727540608203095,
                -0.5375088454375867
            ]
        },
        {
            "positions": [
                0.787990352471712,
                -1.0033112282113366,
                -1.3736505241886672,
                -0.23871212495460958,
                -0.2154304630278817,
                -0.50231586476811
            ]
        },
        {
            "positions": [
                0.9126102605243875,
                -0.9804272290738458,
                -1.4294234974797533,
                -0.3378321345165698,
                -0.2635855199737326,
                -0.46712288409863323
            ]
        },
        {
            "positions": [
                1.037230168577063,
                -0.9575432299363552,
                -1.4851964707708398,
                -0.4369521440785298,
                -0.31174057691958346,
                -0.4319299034291565
            ]
        },
        {
            "positions": [
                1.1618500766297386,
                -0.9346592307988645,
                -1.540969444061926,
                -0.53607215364049,
                -0.3598956338654342,
                -0.39673692275967976
            ]
        },
        {
            "positions": [
                1.286469984682414,
                -0.9117752316613739,
                -1.596742417353012,
                -0.63519216320245,
                -0.408050690811285,
                -0.36154394209020313
            ]
        },
        {
            "positions": [
                1.4110898927350892,
                -0.8888912325238831,
                -1.6525153906440984,
                -0.73431217276441,
                -0.45620574775713574,
                -0.3263509614207264
            ]
        },
        {
            "positions": [
                1.535709800787765,
                -0.8660072333863924,
                -1.7082883639351847,
                -0.8334321823263704,
                -0.5043608047029866,
                -0.29115798075124966
            ]
        },
        {
            "positions": [
                1.6603297088404403,
                -0.8431232342489017,
                -1.764061337226271,
                -0.9325521918883304,
                -0.5525158616488374,
                -0.2559650000817729
            ]
        },
        {
            "positions": [
                1.784949616893116,
                -0.820239235111411,
                -1.8198343105173573,
                -1.0316722014502906,
                -0.6006709185946884,
                -0.22077201941229618
            ]
        },
        {
            "positions": [
                1.9095695249457914,
                -0.7973552359739202,
                -1.8756072838084434,
                -1.1307922110122508,
                -0.648825975540539,
                -0.18557903874281956
            ]
        },
        {
            "positions": [
                2.034189432998467,
                -0.7744712368364296,
                -1.9313802570995298,
                -1.2299122205742106,
                -0.6969810324863899,
                -0.15038605807334282
            ]
        },
        {
            "positions": [
                2.1588093410511426,
                -0.7515872376989389,
                -1.987153230390616,
                -1.3290322301361708,
                -0.7451360894322407,
                -0.11519307740386608
            ]
        },
        {
            "positions": [
                2.2834292491038184,
                -0.7287032385614481,
                -2.042926203681702,
                -1.428152239698131,
                -0.7932911463780914,
                -0.08000009673438935
            ]
        },
        {
            "positions": [
                2.4080491571564933,
                -0.7058192394239574,
                -2.0986991769727883,
                -1.5272722492600908,
                -0.8414462033239423,
                -0.04480711606491272
            ]
        },
        {
            "positions": [
                2.532669065209169,
                -0.6829352402864667,
                -2.154472150263875,
                -1.6263922588220514,
                -0.8896012602697931,
                -0.009614135395435874
            ]
        },
        {
            "positions": [
                2.6572889732618448,
                -0.6600512411489761,
                -2.210245123554961,
                -1.7255122683840112,
                -0.9377563172156438,
                0.02557884527404075
            ]
        },
        {
            "positions": [
                2.7819088813145205,
                -0.6371672420114853,
                -2.2660180968460475,
                -1.8246322779459714,
                -0.9859113741614949,
                0.0607718259435176
            ]
        },
        {
            "positions": [
                2.9065287893671954,
                -0.6142832428739946,
                -2.3217910701371336,
                -1.9237522875079318,
                -1.0340664311073455,
                0.09596480661299411
            ]
        },
        {
            "positions": [
                2.7828133494234306,
                -0.6808849518491635,
                -2.3240774420210575,
                -1.7869999717041534,
                -0.9858640787875016,
                0.09276987581385446
            ]
        },
        {
            "positions": [
                2.6590979094796654,
                -0.7474866608243325,
                -2.326363813904981,
                -1.6502476559003747,
                -0.9376617264676578,
                0.0895749450147148
            ]
        },
        {
            "positions": [
                2.5353824695359006,
                -0.8140883697995014,
                -2.328650185788905,
                -1.5134953400965963,
                -0.8894593741478138,
                0.08638001421557515
            ]
        },
        {
            "positions": [
                2.411667029592136,
                -0.8806900787746703,
                -2.3309365576728283,
                -1.3767430242928178,
                -0.84125702182797,
                0.08318508341643548
            ]
        },
        {
            "positions": [
                2.2879515896483706,
                -0.9472917877498392,
                -2.333222929556752,
                -1.2399907084890391,
                -0.7930546695081261,
                0.07999015261729582
            ]
        },
        {
            "positions": [
                2.164236149704606,
                -1.0138934967250082,
                -2.3355093014406756,
                -1.103238392685261,
                -0.7448523171882822,
                0.07679522181815616
            ]
        },
        {
            "positions": [
                2.040520709760841,
                -1.0804952057001773,
                -2.3377956733245995,
                -0.9664860768814821,
                -0.6966499648684382,
                0.07360029101901651
            ]
        },
        {
            "positions": [
                1.9168052698170763,
                -1.147096914675346,
                -2.340082045208523,
                -0.8297337610777038,
                -0.6484476125485944,
                0.07040536021987685
            ]
        },
        {
            "positions": [
                1.7930898298733113,
                -1.2136986236505152,
                -2.342368417092447,
                -0.6929814452739254,
                -0.6002452602287505,
                0.0672104294207372
            ]
        },
        {
            "positions": [
                1.6693743899295463,
                -1.2803003326256839,
                -2.3446547889763703,
                -0.5562291294701467,
                -0.5520429079089066,
                0.06401549862159753
            ]
        },
        {
            "positions": [
                1.5456589499857816,
                -1.346902041600853,
                -2.346941160860294,
                -0.41947681366636824,
                -0.5038405555890627,
                0.06082056782245787
            ]
        },
        {
            "positions": [
                1.4219435100420168,
                -1.4135037505760217,
                -2.3492275327442176,
                -0.2827244978625898,
                -0.4556382032692189,
                0.057625637023318216
            ]
        },
        {
            "positions": [
                1.2982280700982516,
                -1.4801054595511909,
                -2.3515139046281415,
                -0.14597218205881113,
                -0.40743585094937484,
                0.05443070622417856
            ]
        },
        {
            "positions": [
                1.1745126301544866,
                -1.5467071685263598,
                -2.353800276512065,
                -0.00921986625503246,
                -0.3592334986295309,
                0.0512357754250389
            ]
        },
        {
            "positions": [
                1.050797190210722,
                -1.6133088775015287,
                -2.356086648395989,
                0.12753244954874554,
                -0.3110311463096872,
                0.04804084462589924
            ]
        },
        {
            "positions": [
                0.927081750266957,
                -1.6799105864766977,
                -2.3583730202799122,
                0.2642847653525242,
                -0.26282879398984327,
                0.044845913826759586
            ]
        },
        {
            "positions": [
                0.8033663103231921,
                -1.7465122954518666,
                -2.360659392163836,
                0.4010370811563029,
                -0.21462644166999933,
                0.04165098302761992
            ]
        },
        {
            "positions": [
                0.6796508703794273,
                -1.8131140044270355,
                -2.3629457640477596,
                0.5377893969600811,
                -0.1664240893501555,
                0.038456052228480274
            ]
        },
        {
            "positions": [
                0.5559354304356625,
                -1.8797157134022044,
                -2.3652321359316835,
                0.6745417127638598,
                -0.11822173703031158,
                0.03526112142934061
            ]
        },
        {
            "positions": [
                0.4322199904918973,
                -1.9463174223773734,
                -2.367518507815607,
                0.8112940285676384,
                -0.07001938471046765,
                0.032066190630200955
            ]
        },
        {
            "positions": [
                0.30850455054813253,
                -2.0129191313525423,
                -2.369804879699531,
                0.9480463443714167,
                -0.021817032390623714,
                0.0288712598310613
            ]
        },
        {
            "positions": [
                0.18478911060436776,
                -2.079520840327711,
                -2.3720912515834542,
                1.0847986601751953,
                0.026385319929220108,
                0.02567632903192163
            ]
        },
        {
            "positions": [
                0.06107367066060254,
                -2.14612254930288,
                -2.374377623467378,
                1.221550975978974,
                0.07458767224906415,
                0.022481398232781974
            ]
        },
        {
            "positions": [
                -0.06264176928316179,
                -2.2127242582780493,
                -2.3766639953513016,
                1.3583032917827522,
                0.12279002456890775,
                0.019286467433642318
            ]
        },
        {
            "positions": [
                -0.1863572092269272,
                -2.279325967253218,
                -2.3789503672352255,
                1.4950556075865307,
                0.17099237688875185,
                0.016091536634502655
            ]
        }
    ]
}