{
    "goal": {
        "global_pose": {
            "orientation": {
                "w": -0.4816463035849501,
                "x": 0.5182115481033762,
                "y": 0.4908360881923453,
                "z": -0.5084816262002911
            },
            "position": {
                "x": -0.8240239810943604,
                "y": -0.300875300988555,
                "z": 0.16403168439865112
            }
        },
        "name": "move_to_storage_C"
    },
    "id": "EST_move_to_storage_C_141",
    "joint_names": [
        "shoulder_pan_joint",
        "shoulder_lift_joint",
        "elbow_joint",
        "wrist_1_joint",
        "wrist_2_joint",
        "wrist_3_joint"
    ],
    "metrics": {
        "cart_traj_len": 0.5773566966330866,
        "distance_elbow_joint": 0.26153653801928156,
        "distance_shoulder_lift_joint": 0.18938292798649659,
        "distance_shoulder_pan_joint": 0.49516579866534993,
        "distance_wrist_1_joint": 0.0891854976346268,
        "distance_wrist_2_joint": 1.0679088375335568,
        "distance_wrist_3_joint": 0.062189856298047186,
        "smoothness": 2.5376526478085547e-16,
        "time": 0.06973689,
        "traj_len": 1.471519437906737,
        "weighted_distance": 1.8565676674717884
    },
    "planner": "EST",
    "start": {
        "state": {
            "elbow_joint": 2.010868314990456,
            "shoulder_lift_joint": -1.1634956873337592,
            "shoulder_pan_joint": -2.4736205022346125,
            "wrist_1_joint": -0.8367026794202681,
            "wrist_2_joint": 0.6746043897044499,
            "wrist_3_joint": -3.1496632123970403
        }
    },
    "waypoints": [
        {
            "positions": [
                -2.4736205022346125,
                -1.1634956873337592,
                2.010868314990456,
                -0.8367026794202681,
                0.6746043897044499,
                -3.1496632123970403
            ]
        },
        {
            "positions": [
                -2.556148135345504,
                -1.1319318660026765,
                1.9672788919872422,
                -0.821838429814497,
                0.8525891959600427,
                -3.139298236347366
            ]
        },
        {
            "positions": [
                -2.638675768456396,
                -1.1003680446715935,
                1.9236894689840287,
                -0.8069741802087258,
                1.0305740022156356,
                -3.1289332602976914
            ]
        },
        {
            "positions": [
                -2.7212034015672875,
                -1.0688042233405108,
                1.880100045980815,
                -0.7921099306029546,
                1.2085588084712282,
                -3.118568284248017
            ]
        },
        {
            "positions": [
                -2.803731034678179,
                -1.0372404020094281,
                1.8365106229776014,
                -0.7772456809971836,
                1.386543614726821,
                -3.108203308198342
            ]
        },
        {
            "positions": [
                -2.886258667789071,
                -1.0056765806783454,
                1.792921199974388,
                -0.7623814313914125,
                1.564528420982414,
                -3.0978383321486676
            ]
        },
        {
            "positions": [
                -2.9687863008999624,
                -0.9741127593472626,
                1.7493317769711743,
                -0.7475171817856413,
                1.7425132272380068,
                -3.087473356098993
            ]
        }
    ]
}