{
    "goal": {
        "global_pose": {
            "orientation": {
                "w": 0.7047431468963623,
                "x": -0.7094548344612122,
                "y": 0.0024358443915843964,
                "z": -0.0022348060738295317
            },
            "position": {
                "x": 0.6094750761985779,
                "y": 0.3671506643295288,
                "z": 0.19426114857196808
            }
        },
        "name": "move_to_magneteinheit_A"
    },
    "id": "EST_move_to_magneteinheit_A_60",
    "joint_names": [
        "shoulder_pan_joint",
        "shoulder_lift_joint",
        "elbow_joint",
        "wrist_1_joint",
        "wrist_2_joint",
        "wrist_3_joint"
    ],
    "metrics": {
        "cart_traj_len": 4.043019655690531,
        "distance_elbow_joint": 3.9018176731932632,
        "distance_shoulder_lift_joint": 0.20427397902175515,
        "distance_shoulder_pan_joint": 5.380271304508876,
        "distance_wrist_1_joint": 0.7194048211719418,
        "distance_wrist_2_joint": 1.6947895021390604,
        "distance_wrist_3_joint": 4.230738441603927,
        "smoothness": 0.16703360268732037,
        "time": 0.229068445,
        "traj_len": 4.016378433569081,
        "weighted_distance": 5.196822772440647
    },
    "planner": "EST",
    "start": {
        "state": {
            "elbow_joint": -1.9196185241190666,
            "shoulder_lift_joint": -1.2443396400964142,
            "shoulder_pan_joint": 2.6996025414629847,
            "wrist_1_joint": -1.5485510000780065,
            "wrist_2_joint": -1.5709468930060704,
            "wrist_3_joint": 0.4420197071253992
        }
    },
    "waypoints": [
        {
            "positions": [
                2.6996025414629847,
                -1.2443396400964142,
                -1.9196185241190666,
                -1.5485510000780065,
                -1.5709468930060704,
                0.4420197071253992
            ]
        },
        {
            "positions": [
                2.4901936362944657,
                -1.2363591259529128,
                -1.860951065400563,
                -1.5123744290930594,
                -1.5086186694895607,
                0.4590433865926349
            ]
        },
        {
            "positions": [
                2.2807847311259466,
                -1.228378611809411,
                -1.8022836066820593,
                -1.4761978581081123,
                -1.4462904459730512,
                0.4760670660598706
            ]
        },
        {
            "positions": [
                2.0713758259574275,
                -1.2203980976659097,
                -1.7436161479635555,
                -1.440021287123165,
                -1.3839622224565415,
                0.49309074552710636
            ]
        },
        {
            "positions": [
                1.8619669207889085,
                -1.212417583522408,
                -1.6849486892450518,
                -1.403844716138218,
                -1.3216339989400319,
                0.510114424994342
            ]
        },
        {
            "positions": [
                1.6525580156203894,
                -1.2044370693789066,
                -1.6262812305265482,
                -1.3676681451532708,
                -1.2593057754235224,
                0.5271381044615777
            ]
        },
        {
            "positions": [
                1.4431491104518703,
                -1.1964565552354052,
                -1.5676137718080445,
                -1.3314915741683238,
                -1.1969775519070127,
                0.5441617839288135
            ]
        },
        {
            "positions": [
                1.2337402052833513,
                -1.1884760410919035,
                -1.5089463130895409,
                -1.2953150031833767,
                -1.1346493283905033,
                0.5611854633960492
            ]
        },
        {
            "positions": [
                1.0243313001148322,
                -1.180495526948402,
                -1.450278854371037,
                -1.2591384321984296,
                -1.0723211048739936,
                0.578209142863285
            ]
        },
        {
            "positions": [
                0.8149223949463131,
                -1.1725150128049004,
                -1.3916113956525333,
                -1.2229618612134825,
                -1.0099928813574839,
                0.5952328223305207
            ]
        },
        {
            "positions": [
                0.6055134897777941,
                -1.164534498661399,
                -1.3329439369340297,
                -1.1867852902285352,
                -0.9476646578409744,
                0.6122565017977564
            ]
        },
        {
            "positions": [
                0.396104584609275,
                -1.1565539845178974,
                -1.2742764782155258,
                -1.150608719243588,
                -0.8853364343244647,
                0.6292801812649921
            ]
        },
        {
            "positions": [
                0.18669567944075594,
                -1.148573470374396,
                -1.2156090194970224,
                -1.114432148258641,
                -0.8230082108079552,
                0.6463038607322278
            ]
        },
        {
            "positions": [
                -0.02271322572776313,
                -1.1405929562308943,
                -1.1569415607785185,
                -1.0782555772736937,
                -0.7606799872914455,
                0.6633275401994636
            ]
        },
        {
            "positions": [
                -0.2321221308962822,
                -1.1326124420873929,
                -1.098274102060015,
                -1.0420790062887466,
                -0.698351763774936,
                0.6803512196666992
            ]
        },
        {
            "positions": [
                -0.44153103606480126,
                -1.1246319279438914,
                -1.0396066433415112,
                -1.0059024353037995,
                -0.6360235402584263,
                0.697374899133935
            ]
        },
        {
            "positions": [
                -0.6509399412333203,
                -1.1166514138003898,
                -0.9809391846230076,
                -0.9697258643188524,
                -0.5736953167419168,
                0.7143985786011706
            ]
        },
        {
            "positions": [
                -0.8603488464018394,
                -1.1086708996568884,
                -0.9222717259045038,
                -0.9335492933339054,
                -0.5113670932254071,
                0.7314222580684064
            ]
        },
        {
            "positions": [
                -1.0697577515703585,
                -1.1006903855133867,
                -0.863604267186,
                -0.8973727223489583,
                -0.4490388697088976,
                0.748445937535642
            ]
        },
        {
            "positions": [
                -1.2791666567388775,
                -1.0927098713698853,
                -0.8049368084674964,
                -0.8611961513640111,
                -0.3867106461923879,
                0.7654696170028779
            ]
        },
        {
            "positions": [
                -1.215462015543104,
                -1.0951027900196684,
                -0.6782488103974194,
                -0.8597393344341044,
                -0.3635036800412344,
                0.5878655928334938
            ]
        },
        {
            "positions": [
                -1.1517573743473306,
                -1.0974957086694512,
                -0.5515608123273423,
                -0.8582825175041977,
                -0.34029671389008087,
                0.41026156866410984
            ]
        },
        {
            "positions": [
                -1.088052733151557,
                -1.0998886273192343,
                -0.4248728142572654,
                -0.8568257005742911,
                -0.3170897477389274,
                0.23265754449472587
            ]
        },
        {
            "positions": [
                -1.0243480919557837,
                -1.1022815459690174,
                -0.2981848161871884,
                -0.8553688836443845,
                -0.2938827815877739,
                0.05505352032534183
            ]
        },
        {
            "positions": [
                -0.9606434507600101,
                -1.1046744646188003,
                -0.17149681811711137,
                -0.8539120667144778,
                -0.2706758154366204,
                -0.12255050384404209
            ]
        },
        {
            "positions": [
                -0.8969388095642367,
                -1.1070673832685833,
                -0.04480882004703446,
                -0.8524552497845711,
                -0.24746884928546692,
                -0.3001545280134261
            ]
        },
        {
            "positions": [
                -0.8332341683684632,
                -1.1094603019183664,
                0.08187917802304268,
                -0.8509984328546645,
                -0.22426188313431342,
                -0.47775855218281005
            ]
        },
        {
            "positions": [
                -0.7695295271726896,
                -1.1118532205681493,
                0.2085671760931196,
                -0.8495416159247579,
                -0.20105491698315991,
                -0.6553625763521942
            ]
        },
        {
            "positions": [
                -0.7058248859769162,
                -1.1142461392179324,
                0.3352551741631966,
                -0.8480847989948512,
                -0.1778479508320064,
                -0.8329666005215783
            ]
        },
        {
            "positions": [
                -0.6421202447811427,
                -1.1166390578677154,
                0.46194317223327364,
                -0.8466279820649445,
                -0.15464098468085294,
                -1.010570624690962
            ]
        },
        {
            "positions": [
                -0.5784156035853693,
                -1.1190319765174985,
                0.5886311703033507,
                -0.8451711651350379,
                -0.13143401852969944,
                -1.1881746488603462
            ]
        },
        {
            "positions": [
                -0.5147109623895958,
                -1.1214248951672814,
                0.7153191683734275,
                -0.8437143482051312,
                -0.10822705237854596,
                -1.36577867302973
            ]
        },
        {
            "positions": [
                -0.4510063211938222,
                -1.1238178138170645,
                0.8420071664435047,
                -0.8422575312752245,
                -0.08502008622739243,
                -1.5433826971991145
            ]
        },
        {
            "positions": [
                -0.3873016799980489,
                -1.1262107324668476,
                0.9686951645135817,
                -0.8408007143453179,
                -0.06181312007623896,
                -1.720986721368498
            ]
        },
        {
            "positions": [
                -0.3235970388022754,
                -1.1286036511166304,
                1.0953831625836585,
                -0.8393438974154113,
                -0.038606153925085485,
                -1.8985907455378819
            ]
        },
        {
            "positions": [
                -0.25989239760650173,
                -1.1309965697664135,
                1.2220711606537356,
                -0.8378870804855046,
                -0.015399187773931955,
                -2.076194769707266
            ]
        },
        {
            "positions": [
                -0.1961877564107284,
                -1.1333894884161966,
                1.3487591587238128,
                -0.8364302635555979,
                0.007807778377221519,
                -2.2537987938766504
            ]
        },
        {
            "positions": [
                -0.13248311521495482,
                -1.1357824070659794,
                1.4754471567938896,
                -0.8349734466256913,
                0.03101474452837505,
                -2.4314028180460348
            ]
        },
        {
            "positions": [
                -0.06877847401918147,
                -1.1381753257157625,
                1.6021351548639668,
                -0.8335166296957847,
                0.05422171067952852,
                -2.6090068422154182
            ]
        },
        {
            "positions": [
                -0.005073832823407898,
                -1.1405682443655456,
                1.7288231529340436,
                -0.832059812765878,
                0.077428676830682,
                -2.7866108663848017
            ]
        },
        {
            "positions": [
                0.05863080837236567,
                -1.1429611630153285,
                1.855511151004121,
                -0.8306029958359713,
                0.10063564298183553,
                -2.964214890554186
            ]
        },
        {
            "positions": [
                0.1223354495681391,
                -1.1453540816651115,
                1.9821991490741975,
                -0.8291461789060647,
                0.12384260913298897,
                -3.14181891472357
            ]
        }
    ]
}