{
    "goal": {
        "global_pose": {
            "orientation": {
                "w": -0.4816463035849501,
                "x": 0.5182115481033762,
                "y": 0.4908360881923453,
                "z": -0.5084816262002911
            },
            "position": {
                "x": -0.8240239810943604,
                "y": -0.300875300988555,
                "z": 0.16403168439865112
            }
        },
        "name": "move_to_storage_C"
    },
    "id": "EST_move_to_storage_C_33",
    "joint_names": [
        "shoulder_pan_joint",
        "shoulder_lift_joint",
        "elbow_joint",
        "wrist_1_joint",
        "wrist_2_joint",
        "wrist_3_joint"
    ],
    "metrics": {
        "cart_traj_len": 0.5764691507875037,
        "distance_elbow_joint": 0.26122066106547814,
        "distance_shoulder_lift_joint": 0.18895977415750076,
        "distance_shoulder_pan_joint": 0.4934896253685128,
        "distance_wrist_1_joint": 0.09102916884217849,
        "distance_wrist_2_joint": 1.0758661678712667,
        "distance_wrist_3_joint": 0.05783765743142144,
        "smoothness": 0.0,
        "time": 0.014849587999999999,
        "traj_len": 1.4725498479631711,
        "weighted_distance": 1.8576796565373281
    },
    "planner": "EST",
    "start": {
        "state": {
            "elbow_joint": 2.010868314990456,
            "shoulder_lift_joint": -1.1634956873337592,
            "shoulder_pan_joint": -2.4736205022346125,
            "wrist_1_joint": -0.8367026794202681,
            "wrist_2_joint": 0.6746043897044499,
            "wrist_3_joint": -3.1496632123970403
        }
    },
    "waypoints": [
        {
            "positions": [
                -2.4736205022346125,
                -1.1634956873337592,
                2.010868314990456,
                -0.8367026794202681,
                0.6746043897044499,
                -3.1496632123970403
            ]
        },
        {
            "positions": [
                -2.555868773129365,
                -1.1320023916408424,
                1.9673315381462095,
                -0.8215311512799051,
                0.8539154176829944,
                -3.1400236028251367
            ]
        },
        {
            "positions": [
                -2.6381170440241166,
                -1.1005090959479256,
                1.923794761301963,
                -0.8063596231395419,
                1.0332264456615388,
                -3.130383993253233
            ]
        },
        {
            "positions": [
                -2.720365314918869,
                -1.0690158002550088,
                1.8802579844577167,
                -0.7911880949991789,
                1.2125374736400834,
                -3.1207443836813296
            ]
        },
        {
            "positions": [
                -2.802613585813621,
                -1.037522504562092,
                1.8367212076134705,
                -0.7760165668588158,
                1.3918485016186275,
                -3.111104774109426
            ]
        },
        {
            "positions": [
                -2.884861856708373,
                -1.0060292088691751,
                1.793184430769224,
                -0.7608450387184527,
                1.571159529597172,
                -3.1014651645375224
            ]
        },
        {
            "positions": [
                -2.9671101276031253,
                -0.9745359131762584,
                1.7496476539249777,
                -0.7456735105780896,
                1.7504705575757165,
                -3.091825554965619
            ]
        }
    ]
}