{
    "goal": {
        "global_pose": {
            "orientation": {
                "w": 0.7031023480610252,
                "x": -0.7110244013736278,
                "y": 0.0077485991402295624,
                "z": 0.005598929693374583
            },
            "position": {
                "x": -0.8841497679147869,
                "y": 0.44412534475326537,
                "z": 0.3711530566215515
            }
        },
        "name": "move_to_auspresseinheit_D"
    },
    "id": "EST_move_to_auspresseinheit_D_107",
    "joint_names": [
        "shoulder_pan_joint",
        "shoulder_lift_joint",
        "elbow_joint",
        "wrist_1_joint",
        "wrist_2_joint",
        "wrist_3_joint"
    ],
    "metrics": {
        "cart_traj_len": 0.3436887241224126,
        "distance_elbow_joint": 0.6490200118676106,
        "distance_shoulder_lift_joint": 0.1274459800428871,
        "distance_shoulder_pan_joint": 0.1337739317951436,
        "distance_wrist_1_joint": 0.5574314049586726,
        "distance_wrist_2_joint": 1.4400176933638544,
        "distance_wrist_3_joint": 0.027208467299528305,
        "smoothness": 3.947459674368863e-16,
        "time": 0.14166066,
        "traj_len": 1.713154251469405,
        "weighted_distance": 2.2331062496552376
    },
    "planner": "EST",
    "start": {
        "state": {
            "elbow_joint": -1.8275523626775212,
            "shoulder_lift_joint": -2.126789852344167,
            "shoulder_pan_joint": -0.03513704404078235,
            "wrist_1_joint": -2.347782403156801,
            "wrist_2_joint": -1.6058999987535132,
            "wrist_3_joint": -3.0880379163319196
        }
    },
    "waypoints": [
        {
            "positions": [
                -0.03513704404078235,
                -2.126789852344167,
                -1.8275523626775212,
                -2.347782403156801,
                -1.6058999987535132,
                -3.0880379163319196
            ]
        },
        {
            "positions": [
                -0.051858785515175296,
                -2.1427205998495276,
                -1.7464248611940698,
                -2.417461328776635,
                -1.4258977870830314,
                -3.0846368579194787
            ]
        },
        {
            "positions": [
                -0.06858052698956825,
                -2.1586513473548887,
                -1.6652973597106184,
                -2.487140254396469,
                -1.2458955754125496,
                -3.0812357995070374
            ]
        },
        {
            "positions": [
                -0.08530226846396119,
                -2.1745820948602494,
                -1.5841698582271673,
                -2.556819180016303,
                -1.0658933637420678,
                -3.0778347410945965
            ]
        },
        {
            "positions": [
                -0.10202400993835414,
                -2.19051284236561,
                -1.503042356743716,
                -2.626498105636137,
                -0.885891152071586,
                -3.0744336826821552
            ]
        },
        {
            "positions": [
                -0.1187457514127471,
                -2.2064435898709713,
                -1.4219148552602645,
                -2.696177031255971,
                -0.7058889404011042,
                -3.0710326242697144
            ]
        },
        {
            "positions": [
                -0.13546749288714005,
                -2.222374337376332,
                -1.3407873537768134,
                -2.7658559568758054,
                -0.5258867287306224,
                -3.0676315658572735
            ]
        },
        {
            "positions": [
                -0.152189234361533,
                -2.238305084881693,
                -1.259659852293362,
                -2.8355348824956392,
                -0.34588451706014056,
                -3.064230507444832
            ]
        },
        {
            "positions": [
                -0.16891097583592596,
                -2.254235832387054,
                -1.1785323508099106,
                -2.9052138081154735,
                -0.16588230538965879,
                -3.0608294490323913
            ]
        }
    ]
}