{
    "goal": {
        "global_pose": {
            "orientation": {
                "w": 0.5084816262002911,
                "x": -0.4908360881923452,
                "y": 0.5182115481033761,
                "z": -0.48164630358495003
            },
            "position": {
                "x": 0.5540239810943604,
                "y": -0.46912469901144505,
                "z": 0.16403168439865112
            }
        },
        "name": "move_to_storage_B"
    },
    "id": "EST_move_to_storage_B_23",
    "joint_names": [
        "shoulder_pan_joint",
        "shoulder_lift_joint",
        "elbow_joint",
        "wrist_1_joint",
        "wrist_2_joint",
        "wrist_3_joint"
    ],
    "metrics": {
        "cart_traj_len": 0.6481607653707374,
        "distance_elbow_joint": 0.3553070219629908,
        "distance_shoulder_lift_joint": 0.4607285333676592,
        "distance_shoulder_pan_joint": 0.24473466272401645,
        "distance_wrist_1_joint": 3.0102538113769097,
        "distance_wrist_2_joint": 2.7126214369522663,
        "distance_wrist_3_joint": 3.672217905685721,
        "smoothness": 0.35490765903174676,
        "time": 0.136276292,
        "traj_len": 3.233552747686291,
        "weighted_distance": 4.8500695285501
    },
    "planner": "EST",
    "start": {
        "state": {
            "elbow_joint": 1.664937868594044,
            "shoulder_lift_joint": -0.661644460510453,
            "shoulder_pan_joint": -0.9139846352900073,
            "wrist_1_joint": 2.146753192139373,
            "wrist_2_joint": -2.2341966793290973,
            "wrist_3_joint": 0.005466555786416001
        }
    },
    "waypoints": [
        {
            "positions": [
                -0.9139846352900073,
                -0.661644460510453,
                1.664937868594044,
                2.146753192139373,
                -2.2341966793290973,
                0.005466555786416001
            ]
        },
        {
            "positions": [
                -0.90349394821349,
                -0.6828787106730427,
                1.724946136201577,
                2.0816281804590133,
                -2.1926742568393602,
                0.09717492804617409
            ]
        },
        {
            "positions": [
                -0.8930032611369729,
                -0.7041129608356326,
                1.7849544038091103,
                2.016503168778653,
                -2.151151834349623,
                0.18888330030593217
            ]
        },
        {
            "positions": [
                -0.8825125740604557,
                -0.7253472109982223,
                1.8449626714166434,
                1.9513781570982929,
                -2.109629411859886,
                0.2805916725656903
            ]
        },
        {
            "positions": [
                -0.8910430781202343,
                -0.7412282423134179,
                1.8519739601822591,
                1.8387830060448598,
                -2.006107245080564,
                0.14470796100943242
            ]
        },
        {
            "positions": [
                -0.8995735821800129,
                -0.7571092736286135,
                1.8589852489478746,
                1.7261878549914265,
                -1.9025850783012417,
                0.00882424945317456
            ]
        },
        {
            "positions": [
                -0.9081040862397914,
                -0.772990304943809,
                1.8659965377134904,
                1.6135927039379934,
                -1.7990629115219194,
                -0.12705946210308328
            ]
        },
        {
            "positions": [
                -0.9166345902995701,
                -0.7888713362590047,
                1.873007826479106,
                1.5009975528845603,
                -1.6955407447425972,
                -0.26294317365934117
            ]
        },
        {
            "positions": [
                -0.9251650943593487,
                -0.8047523675742003,
                1.8800191152447217,
                1.3884024018311272,
                -1.592018577963275,
                -0.39882688521559906
            ]
        },
        {
            "positions": [
                -0.9336955984191273,
                -0.8206333988893959,
                1.8870304040103374,
                1.2758072507776939,
                -1.4884964111839527,
                -0.5347105967718568
            ]
        },
        {
            "positions": [
                -0.9422261024789058,
                -0.8365144302045915,
                1.894041692775953,
                1.1632120997242605,
                -1.3849742444046305,
                -0.6705943083281148
            ]
        },
        {
            "positions": [
                -0.9507566065386844,
                -0.8523954615197871,
                1.9010529815415687,
                1.0506169486708274,
                -1.2814520776253082,
                -0.8064780198843726
            ]
        },
        {
            "positions": [
                -0.959287110598463,
                -0.8682764928349826,
                1.9080642703071842,
                0.9380217976173943,
                -1.1779299108459862,
                -0.9423617314406305
            ]
        },
        {
            "positions": [
                -0.9678176146582417,
                -0.8841575241501782,
                1.9150755590728,
                0.8254266465639613,
                -1.074407744066664,
                -1.0782454429968884
            ]
        },
        {
            "positions": [
                -0.9763481187180202,
                -0.9000385554653738,
                1.9220868478384157,
                0.7128314955105279,
                -0.9708855772873417,
                -1.2141291545531463
            ]
        },
        {
            "positions": [
                -0.9848786227777988,
                -0.9159195867805694,
                1.9290981366040312,
                0.6002363444570948,
                -0.8673634105080195,
                -1.350012866109404
            ]
        },
        {
            "positions": [
                -0.9934091268375774,
                -0.931800618095765,
                1.936109425369647,
                0.48764119340366174,
                -0.7638412437286972,
                -1.485896577665662
            ]
        },
        {
            "positions": [
                -1.001939630897356,
                -0.9476816494109607,
                1.9431207141352624,
                0.3750460423502284,
                -0.6603190769493748,
                -1.62178028922192
            ]
        },
        {
            "positions": [
                -1.0104701349571346,
                -0.9635626807261563,
                1.9501320029008782,
                0.26245089129679533,
                -0.5567969101700527,
                -1.7576640007781774
            ]
        },
        {
            "positions": [
                -1.0190006390169133,
                -0.9794437120413518,
                1.957143291666494,
                0.14985574024336223,
                -0.4532747433907305,
                -1.8935477123344355
            ]
        },
        {
            "positions": [
                -1.0275311430766918,
                -0.9953247433565474,
                1.9641545804321094,
                0.03726058918992892,
                -0.34975257661140824,
                -2.029431423890694
            ]
        },
        {
            "positions": [
                -1.0360616471364703,
                -1.011205774671743,
                1.9711658691977252,
                -0.07533456186350418,
                -0.24623040983208622,
                -2.165315135446951
            ]
        },
        {
            "positions": [
                -1.044592151196249,
                -1.0270868059869387,
                1.9781771579633407,
                -0.18792971291693727,
                -0.14270824305276375,
                -2.301198847003209
            ]
        },
        {
            "positions": [
                -1.0531226552560276,
                -1.0429678373021343,
                1.9851884467289564,
                -0.30052486397037037,
                -0.03918607627344173,
                -2.4370825585594673
            ]
        },
        {
            "positions": [
                -1.061653159315806,
                -1.0588488686173299,
                1.9921997354945722,
                -0.41312001502380347,
                0.06433609050588052,
                -2.5729662701157245
            ]
        },
        {
            "positions": [
                -1.0701836633755848,
                -1.0747298999325254,
                1.9992110242601877,
                -0.525715166077237,
                0.16785825728520276,
                -2.7088499816719827
            ]
        },
        {
            "positions": [
                -1.0787141674353633,
                -1.090610931247721,
                2.0062223130258032,
                -0.6383103171306701,
                0.271380424064525,
                -2.8447336932282408
            ]
        },
        {
            "positions": [
                -1.087244671495142,
                -1.1064919625629166,
                2.013233601791419,
                -0.7509054681841032,
                0.37490259084384725,
                -2.980617404784498
            ]
        },
        {
            "positions": [
                -1.0957751755549205,
                -1.1223729938781122,
                2.0202448905570347,
                -0.8635006192375364,
                0.47842475762316955,
                -3.116501116340756
            ]
        }
    ]
}