{
    "goal": {
        "global_pose": {
            "orientation": {
                "w": -0.4816463035849501,
                "x": 0.5182115481033762,
                "y": 0.4908360881923453,
                "z": -0.5084816262002911
            },
            "position": {
                "x": -0.8240239810943604,
                "y": -0.300875300988555,
                "z": 0.16403168439865112
            }
        },
        "name": "move_to_storage_C"
    },
    "id": "EST_move_to_storage_C_19",
    "joint_names": [
        "shoulder_pan_joint",
        "shoulder_lift_joint",
        "elbow_joint",
        "wrist_1_joint",
        "wrist_2_joint",
        "wrist_3_joint"
    ],
    "metrics": {
        "cart_traj_len": 0.5769548263228474,
        "distance_elbow_joint": 0.25951689611334783,
        "distance_shoulder_lift_joint": 0.1899782665428369,
        "distance_shoulder_pan_joint": 0.4937413439291243,
        "distance_wrist_1_joint": 0.07776582943482413,
        "distance_wrist_2_joint": 1.0733124134897691,
        "distance_wrist_3_joint": 0.06318728423728226,
        "smoothness": 0.0,
        "time": 0.141924355,
        "traj_len": 1.4688437744522678,
        "weighted_distance": 1.853363117456032
    },
    "planner": "EST",
    "start": {
        "state": {
            "elbow_joint": 2.010868314990456,
            "shoulder_lift_joint": -1.1634956873337592,
            "shoulder_pan_joint": -2.4736205022346125,
            "wrist_1_joint": -0.8367026794202681,
            "wrist_2_joint": 0.6746043897044499,
            "wrist_3_joint": -3.1496632123970403
        }
    },
    "waypoints": [
        {
            "positions": [
                -2.4736205022346125,
                -1.1634956873337592,
                2.010868314990456,
                -0.8367026794202681,
                0.6746043897044499,
                -3.1496632123970403
            ]
        },
        {
            "positions": [
                -2.5559107262228,
                -1.131832642909953,
                1.9676154989715644,
                -0.8237417078477974,
                0.8534897919527448,
                -3.1391319983574935
            ]
        },
        {
            "positions": [
                -2.638200950210987,
                -1.1001695984861468,
                1.9243626829526732,
                -0.8107807362753268,
                1.0323751942010397,
                -3.128600784317946
            ]
        },
        {
            "positions": [
                -2.7204911741991746,
                -1.0685065540623406,
                1.881109866933782,
                -0.797819764702856,
                1.2112605964493346,
                -3.118069570278399
            ]
        },
        {
            "positions": [
                -2.802781398187362,
                -1.0368435096385347,
                1.8378570509148906,
                -0.7848587931303853,
                1.3901459986976294,
                -3.107538356238852
            ]
        },
        {
            "positions": [
                -2.8850716221755492,
                -1.0051804652147285,
                1.7946042348959992,
                -0.7718978215579146,
                1.5690314009459243,
                -3.0970071421993053
            ]
        },
        {
            "positions": [
                -2.9673618461637368,
                -0.9735174207909223,
                1.751351418877108,
                -0.758936849985444,
                1.747916803194219,
                -3.086475928159758
            ]
        }
    ]
}