{
    "goal": {
        "global_pose": {
            "orientation": {
                "w": -0.4816463035849501,
                "x": 0.5182115481033762,
                "y": 0.4908360881923453,
                "z": -0.5084816262002911
            },
            "position": {
                "x": -0.8240239810943604,
                "y": -0.300875300988555,
                "z": 0.16403168439865112
            }
        },
        "name": "move_to_storage_C"
    },
    "id": "EST_move_to_storage_C_31",
    "joint_names": [
        "shoulder_pan_joint",
        "shoulder_lift_joint",
        "elbow_joint",
        "wrist_1_joint",
        "wrist_2_joint",
        "wrist_3_joint"
    ],
    "metrics": {
        "cart_traj_len": 0.5766267989233372,
        "distance_elbow_joint": 0.2590879735594822,
        "distance_shoulder_lift_joint": 0.18873272627637694,
        "distance_shoulder_pan_joint": 0.4954526718575827,
        "distance_wrist_1_joint": 0.08830685571245145,
        "distance_wrist_2_joint": 1.0661205815988266,
        "distance_wrist_3_joint": 0.0637310392957322,
        "smoothness": 2.5376526478085547e-16,
        "time": 0.107026773,
        "traj_len": 1.4701808896528523,
        "weighted_distance": 1.8556188628603651
    },
    "planner": "EST",
    "start": {
        "state": {
            "elbow_joint": 2.010868314990456,
            "shoulder_lift_joint": -1.1634956873337592,
            "shoulder_pan_joint": -2.4736205022346125,
            "wrist_1_joint": -0.8367026794202681,
            "wrist_2_joint": 0.6746043897044499,
            "wrist_3_joint": -3.1496632123970403
        }
    },
    "waypoints": [
        {
            "positions": [
                -2.4736205022346125,
                -1.1634956873337592,
                2.010868314990456,
                -0.8367026794202681,
                0.6746043897044499,
                -3.1496632123970403
            ]
        },
        {
            "positions": [
                -2.5561959475442095,
                -1.132040232954363,
                1.9676869860638755,
                -0.8219848701348595,
                0.8522911533042543,
                -3.139041372514418
            ]
        },
        {
            "positions": [
                -2.6387713928538066,
                -1.100584778574967,
                1.9245056571372952,
                -0.807267060849451,
                1.0299779169040588,
                -3.128419532631796
            ]
        },
        {
            "positions": [
                -2.721346838163404,
                -1.0691293241955706,
                1.8813243282107148,
                -0.7925492515640424,
                1.2076646805038633,
                -3.117797692749174
            ]
        },
        {
            "positions": [
                -2.803922283473001,
                -1.0376738698161745,
                1.8381429992841343,
                -0.7778314422786338,
                1.3853514441036676,
                -3.1071758528665523
            ]
        },
        {
            "positions": [
                -2.886497728782598,
                -1.0062184154367784,
                1.794961670357554,
                -0.7631136329932252,
                1.5630382077034721,
                -3.09655401298393
            ]
        },
        {
            "positions": [
                -2.969073174092195,
                -0.9747629610573822,
                1.7517803414309736,
                -0.7483958237078167,
                1.7407249713032764,
                -3.085932173101308
            ]
        }
    ]
}