{
    "goal": {
        "global_pose": {
            "orientation": {
                "w": 0.7031023480610252,
                "x": -0.7110244013736278,
                "y": 0.0077485991402295624,
                "z": 0.005598929693374583
            },
            "position": {
                "x": -0.8841497679147869,
                "y": 0.44412534475326537,
                "z": 0.3711530566215515
            }
        },
        "name": "move_to_auspresseinheit_D"
    },
    "id": "EST_move_to_auspresseinheit_D_9",
    "joint_names": [
        "shoulder_pan_joint",
        "shoulder_lift_joint",
        "elbow_joint",
        "wrist_1_joint",
        "wrist_2_joint",
        "wrist_3_joint"
    ],
    "metrics": {
        "cart_traj_len": 0.34375981013885226,
        "distance_elbow_joint": 0.6572670937610134,
        "distance_shoulder_lift_joint": 0.13151354339724675,
        "distance_shoulder_pan_joint": 0.13350859156879555,
        "distance_wrist_1_joint": 0.5993004421343988,
        "distance_wrist_2_joint": 1.4298804861538945,
        "distance_wrist_3_joint": 0.06390856398400757,
        "smoothness": 1.1842378871728624e-15,
        "time": 0.045168533,
        "traj_len": 1.7364845870319023,
        "weighted_distance": 2.274285992846033
    },
    "planner": "EST",
    "start": {
        "state": {
            "elbow_joint": -1.8275523626775212,
            "shoulder_lift_joint": -2.126789852344167,
            "shoulder_pan_joint": -0.03513704404078235,
            "wrist_1_joint": -2.347782403156801,
            "wrist_2_joint": -1.6058999987535132,
            "wrist_3_joint": -3.0880379163319196
        }
    },
    "waypoints": [
        {
            "positions": [
                -0.03513704404078235,
                -2.126789852344167,
                -1.8275523626775212,
                -2.347782403156801,
                -1.6058999987535132,
                -3.0880379163319196
            ]
        },
        {
            "positions": [
                -0.05182561798688179,
                -2.1432290452688227,
                -1.7453939759573944,
                -2.422694958423601,
                -1.4271649379842763,
                -3.0800493458339187
            ]
        },
        {
            "positions": [
                -0.06851419193298124,
                -2.1596682381934786,
                -1.6632355892372679,
                -2.497607513690401,
                -1.2484298772150395,
                -3.0720607753359177
            ]
        },
        {
            "positions": [
                -0.08520276587908068,
                -2.1761074311181345,
                -1.5810772025171411,
                -2.5725200689572003,
                -1.0696948164458027,
                -3.0640722048379168
            ]
        },
        {
            "positions": [
                -0.10189133982518012,
                -2.19254662404279,
                -1.4989188157970146,
                -2.6474326242240003,
                -0.8909597556765659,
                -3.056083634339916
            ]
        },
        {
            "positions": [
                -0.11857991377127958,
                -2.208985816967446,
                -1.4167604290768878,
                -2.7223451794908002,
                -0.7122246949073291,
                -3.048095063841915
            ]
        },
        {
            "positions": [
                -0.135268487717379,
                -2.225425009892102,
                -1.334602042356761,
                -2.7972577347575998,
                -0.5334896341380924,
                -3.040106493343914
            ]
        },
        {
            "positions": [
                -0.15195706166347844,
                -2.2418642028167577,
                -1.2524436556366343,
                -2.8721702900243997,
                -0.3547545733688555,
                -3.032117922845913
            ]
        },
        {
            "positions": [
                -0.1686456356095779,
                -2.2583033957414136,
                -1.1702852689165077,
                -2.9470828452911997,
                -0.17601951259961865,
                -3.024129352347912
            ]
        }
    ]
}