{
    "goal": {
        "global_pose": {
            "orientation": {
                "w": 0.7047431493862688,
                "x": -0.7094548369677653,
                "y": 0.0024358444001904,
                "z": -0.0022348060817251984
            },
            "position": {
                "x": -0.39052492380142206,
                "y": 0.3671506643295288,
                "z": 0.19426114857196808
            }
        },
        "name": "move_to_magneteinheit_D"
    },
    "id": "EST_move_to_magneteinheit_D_118",
    "joint_names": [
        "shoulder_pan_joint",
        "shoulder_lift_joint",
        "elbow_joint",
        "wrist_1_joint",
        "wrist_2_joint",
        "wrist_3_joint"
    ],
    "metrics": {
        "cart_traj_len": 4.36610464893687,
        "distance_elbow_joint": 3.4845132280171724,
        "distance_shoulder_lift_joint": 1.6282693474708394,
        "distance_shoulder_pan_joint": 2.966145316459338,
        "distance_wrist_1_joint": 1.982553580392303,
        "distance_wrist_2_joint": 2.2403313668719114,
        "distance_wrist_3_joint": 3.2165060344684364,
        "smoothness": 0.43291317117166983,
        "time": 0.165849478,
        "traj_len": 3.939329749294923,
        "weighted_distance": 5.116074265477495
    },
    "planner": "EST",
    "start": {
        "state": {
            "elbow_joint": 0.749534889911806,
            "shoulder_lift_joint": -0.6476975780787326,
            "shoulder_pan_joint": -2.711696901376241,
            "wrist_1_joint": -0.07506478083263063,
            "wrist_2_joint": 0.43296659715538205,
            "wrist_3_joint": -3.14703540197715
        }
    },
    "waypoints": [
        {
            "positions": [
                -2.711696901376241,
                -0.6476975780787326,
                0.749534889911806,
                -0.07506478083263063,
                0.43296659715538205,
                -3.14703540197715
            ]
        },
        {
            "positions": [
                -2.7069713979228682,
                -0.6824022787367905,
                0.7667032201915569,
                0.02096782381417639,
                0.339271931685601,
                -3.0387640483024034
            ]
        },
        {
            "positions": [
                -2.702245894469495,
                -0.7171069793948484,
                0.783871550471308,
                0.11700042846098341,
                0.24557726621581988,
                -2.9304926946276564
            ]
        },
        {
            "positions": [
                -2.697520391016122,
                -0.7518116800529062,
                0.8010398807510589,
                0.21303303310779043,
                0.15188260074603882,
                -2.8222213409529098
            ]
        },
        {
            "positions": [
                -2.6927948875627488,
                -0.7865163807109641,
                0.81820821103081,
                0.30906563775459744,
                0.05818793527625771,
                -2.7139499872781627
            ]
        },
        {
            "positions": [
                -2.688069384109376,
                -0.8212210813690219,
                0.8353765413105609,
                0.40509824240140446,
                -0.035506730193523406,
                -2.605678633603416
            ]
        },
        {
            "positions": [
                -2.683343880656003,
                -0.8559257820270798,
                0.8525448715903119,
                0.5011308470482114,
                -0.1292013956633044,
                -2.4974072799286695
            ]
        },
        {
            "positions": [
                -2.6786183772026297,
                -0.8906304826851377,
                0.869713201870063,
                0.5971634516950186,
                -0.22289606113308552,
                -2.389135926253923
            ]
        },
        {
            "positions": [
                -2.673892873749257,
                -0.9253351833431955,
                0.8868815321498139,
                0.6931960563418256,
                -0.31659072660286663,
                -2.280864572579176
            ]
        },
        {
            "positions": [
                -2.657708826398625,
                -0.959423083529879,
                0.8985590712004581,
                0.7806693949918877,
                -0.3949487643207696,
                -2.1695030074294106
            ]
        },
        {
            "positions": [
                -2.641524779047993,
                -0.9935109837165624,
                0.9102366102511024,
                0.8681427336419498,
                -0.4733068020386726,
                -2.058141442279646
            ]
        },
        {
            "positions": [
                -2.6253407316973614,
                -1.027598883903246,
                0.9219141493017465,
                0.955616072292012,
                -0.5516648397565755,
                -1.9467798771298805
            ]
        },
        {
            "positions": [
                -2.5069521953727003,
                -1.0533377930547587,
                0.8735777320110679,
                0.9407118798587171,
                -0.48716837424214543,
                -1.8371468914473161
            ]
        },
        {
            "positions": [
                -2.3885636590480392,
                -1.0790767022062717,
                0.8252413147203893,
                0.9258076874254223,
                -0.4226719087277154,
                -1.727513905764752
            ]
        },
        {
            "positions": [
                -2.270175122723378,
                -1.1048156113577845,
                0.7769048974297107,
                0.9109034949921274,
                -0.3581754432132853,
                -1.6178809200821875
            ]
        },
        {
            "positions": [
                -2.1517865863987176,
                -1.1305545205092973,
                0.7285684801390321,
                0.8959993025588326,
                -0.2936789776988552,
                -1.5082479343996233
            ]
        },
        {
            "positions": [
                -2.0333980500740565,
                -1.15629342966081,
                0.6802320628483536,
                0.8810951101255378,
                -0.22918251218442515,
                -1.398614948717059
            ]
        },
        {
            "positions": [
                -1.9150095137493954,
                -1.182032338812323,
                0.631895645557675,
                0.8661909176922429,
                -0.16468604666999503,
                -1.2889819630344945
            ]
        },
        {
            "positions": [
                -1.7966209774247344,
                -1.2077712479638358,
                0.5835592282669964,
                0.8512867252589481,
                -0.10018958115556498,
                -1.1793489773519301
            ]
        },
        {
            "positions": [
                -1.6782324411000733,
                -1.2335101571153486,
                0.5352228109763177,
                0.8363825328256532,
                -0.035693115641134865,
                -1.0697159916693662
            ]
        },
        {
            "positions": [
                -1.5598439047754125,
                -1.2592490662668614,
                0.4868863936856391,
                0.8214783403923585,
                0.028803349873295137,
                -0.9600830059868017
            ]
        },
        {
            "positions": [
                -1.4414553684507514,
                -1.2849879754183742,
                0.4385499763949605,
                0.8065741479590636,
                0.09329981538772525,
                -0.8504500203042373
            ]
        },
        {
            "positions": [
                -1.3230668321260903,
                -1.3107268845698872,
                0.3902135591042819,
                0.7916699555257687,
                0.15779628090215536,
                -0.7408170346216731
            ]
        },
        {
            "positions": [
                -1.2046782958014293,
                -1.3364657937214,
                0.3418771418136033,
                0.7767657630924739,
                0.22229274641658547,
                -0.6311840489391085
            ]
        },
        {
            "positions": [
                -1.0862897594767682,
                -1.362204702872913,
                0.2935407245229247,
                0.761861570659179,
                0.2867892119310156,
                -0.5215510632565443
            ]
        },
        {
            "positions": [
                -0.9679012231521074,
                -1.3879436120244257,
                0.24520430723224607,
                0.7469573782258843,
                0.3512856774454456,
                -0.4119180775739799
            ]
        },
        {
            "positions": [
                -0.8495126868274463,
                -1.4136825211759385,
                0.19686788994156745,
                0.7320531857925894,
                0.4157821429598757,
                -0.3022850918914157
            ]
        },
        {
            "positions": [
                -0.7863786254749954,
                -1.4749318780385212,
                0.031705768567133696,
                0.7821508919976244,
                0.397050572503965,
                -0.2826690266199578
            ]
        },
        {
            "positions": [
                -0.7232445641225443,
                -1.5361812349011041,
                -0.13345635280730006,
                0.8322485982026595,
                0.3783190020480544,
                -0.26305296134849987
            ]
        },
        {
            "positions": [
                -0.6601105027700933,
                -1.5974305917636868,
                -0.2986184741817338,
                0.8823463044076946,
                0.35958743159214374,
                -0.243436896077042
            ]
        },
        {
            "positions": [
                -0.5969764414176424,
                -1.6586799486262698,
                -0.4637805955561676,
                0.9324440106127296,
                0.34085586113623306,
                -0.22382083080558407
            ]
        },
        {
            "positions": [
                -0.5338423800651914,
                -1.7199293054888525,
                -0.6289427169306014,
                0.9825417168177647,
                0.32212429068032244,
                -0.20420476553412614
            ]
        },
        {
            "positions": [
                -0.47070831871274044,
                -1.7811786623514352,
                -0.7941048383050351,
                1.0326394230227998,
                0.30339272022441177,
                -0.18458870026266824
            ]
        },
        {
            "positions": [
                -0.4075742573602894,
                -1.842428019214018,
                -0.959266959679469,
                1.082737129227835,
                0.2846611497685011,
                -0.16497263499121032
            ]
        },
        {
            "positions": [
                -0.3444401960078385,
                -1.9036773760766008,
                -1.1244290810539026,
                1.13283483543287,
                0.2659295793125904,
                -0.14535656971975242
            ]
        },
        {
            "positions": [
                -0.28130613465538734,
                -1.9649267329391837,
                -1.2895912024283367,
                1.182932541637905,
                0.24719800885667978,
                -0.12574050444829446
            ]
        },
        {
            "positions": [
                -0.21817207330293642,
                -2.0261760898017664,
                -1.4547533238027703,
                1.23303024784294,
                0.22846643840076913,
                -0.10612443917683656
            ]
        },
        {
            "positions": [
                -0.1550380119504855,
                -2.087425446664349,
                -1.619915445177204,
                1.2831279540479752,
                0.20973486794485846,
                -0.08650837390537866
            ]
        },
        {
            "positions": [
                -0.09190395059803458,
                -2.148674803526932,
                -1.7850775665516376,
                1.3332256602530101,
                0.19100329748894782,
                -0.06689230863392076
            ]
        },
        {
            "positions": [
                -0.028769889245583435,
                -2.209924160389515,
                -1.9502396879260717,
                1.383323366458045,
                0.17227172703303714,
                -0.04727624336246283
            ]
        },
        {
            "positions": [
                0.03436417210686754,
                -2.2711735172520977,
                -2.115401809300505,
                1.4334210726630803,
                0.15354015657712647,
                -0.027660178091004906
            ]
        },
        {
            "positions": [
                -0.07567794938124775,
                -2.273570221400835,
                -2.252810814312995,
                1.446892049611954,
                0.16654563700750258,
                0.02090522720013973
            ]
        },
        {
            "positions": [
                -0.18572007086936304,
                -2.275966925549572,
                -2.3902198193254853,
                1.4603630265608276,
                0.17955111743787872,
                0.06947063249128436
            ]
        }
    ]
}