{
    "goal": {
        "global_pose": {
            "orientation": {
                "w": 0.5084816262002911,
                "x": -0.4908360881923452,
                "y": 0.5182115481033761,
                "z": -0.48164630358495003
            },
            "position": {
                "x": 0.5540239810943604,
                "y": -0.46912469901144505,
                "z": 0.16403168439865112
            }
        },
        "name": "move_to_storage_B"
    },
    "id": "EST_move_to_storage_B_74",
    "joint_names": [
        "shoulder_pan_joint",
        "shoulder_lift_joint",
        "elbow_joint",
        "wrist_1_joint",
        "wrist_2_joint",
        "wrist_3_joint"
    ],
    "metrics": {
        "cart_traj_len": 0.6427052749926732,
        "distance_elbow_joint": 0.35663752176007923,
        "distance_shoulder_lift_joint": 0.46098067781487306,
        "distance_shoulder_pan_joint": 0.18459834900578487,
        "distance_wrist_1_joint": 3.00864136047944,
        "distance_wrist_2_joint": 2.712813199248641,
        "distance_wrist_3_joint": 3.1354468853937596,
        "smoothness": 0.03547952757428105,
        "time": 0.115854826,
        "traj_len": 3.1399232464667945,
        "weighted_distance": 4.674555200681471
    },
    "planner": "EST",
    "start": {
        "state": {
            "elbow_joint": 1.664937868594044,
            "shoulder_lift_joint": -0.661644460510453,
            "shoulder_pan_joint": -0.9139846352900073,
            "wrist_1_joint": 2.146753192139373,
            "wrist_2_joint": -2.2341966793290973,
            "wrist_3_joint": 0.005466555786416001
        }
    },
    "waypoints": [
        {
            "positions": [
                -0.9139846352900073,
                -0.661644460510453,
                1.664937868594044,
                2.146753192139373,
                -2.2341966793290973,
                0.005466555786416001
            ]
        },
        {
            "positions": [
                -0.9117909899077411,
                -0.7573221037959219,
                1.7382405891997714,
                2.041511877897921,
                -2.1589403964525373,
                0.014094263318346095
            ]
        },
        {
            "positions": [
                -0.9193911858920544,
                -0.7725430635679804,
                1.750046205914536,
                1.9205368759713382,
                -2.0490421916037005,
                -0.11618986909256349
            ]
        },
        {
            "positions": [
                -0.9269913818763676,
                -0.7877640233400389,
                1.7618518226293007,
                1.7995618740447552,
                -1.9391439867548639,
                -0.24647400150347307
            ]
        },
        {
            "positions": [
                -0.9345915778606809,
                -0.8029849831120974,
                1.7736574393440654,
                1.6785868721181725,
                -1.8292457819060273,
                -0.3767581339143826
            ]
        },
        {
            "positions": [
                -0.9421917738449942,
                -0.8182059428841559,
                1.78546305605883,
                1.5576118701915898,
                -1.7193475770571904,
                -0.5070422663252923
            ]
        },
        {
            "positions": [
                -0.9497919698293075,
                -0.8334269026562144,
                1.7972686727735947,
                1.4366368682650068,
                -1.6094493722083538,
                -0.6373263987362019
            ]
        },
        {
            "positions": [
                -0.9573921658136207,
                -0.848647862428273,
                1.8090742894883594,
                1.315661866338424,
                -1.4995511673595172,
                -0.7676105311471114
            ]
        },
        {
            "positions": [
                -0.964992361797934,
                -0.8638688222003315,
                1.820879906203124,
                1.1946868644118411,
                -1.3896529625106804,
                -0.8978946635580211
            ]
        },
        {
            "positions": [
                -0.9725925577822473,
                -0.87908978197239,
                1.8326855229178887,
                1.0737118624852586,
                -1.2797547576618438,
                -1.0281787959689306
            ]
        },
        {
            "positions": [
                -0.9801927537665606,
                -0.8943107417444485,
                1.8444911396326533,
                0.9527368605586757,
                -1.169856552813007,
                -1.1584629283798402
            ]
        },
        {
            "positions": [
                -0.987792949750874,
                -0.909531701516507,
                1.856296756347418,
                0.8317618586320927,
                -1.0599583479641703,
                -1.2887470607907499
            ]
        },
        {
            "positions": [
                -0.9953931457351871,
                -0.9247526612885655,
                1.8681023730621826,
                0.7107868567055102,
                -0.9500601431153337,
                -1.4190311932016593
            ]
        },
        {
            "positions": [
                -1.0029933417195005,
                -0.939973621060624,
                1.8799079897769473,
                0.5898118547789273,
                -0.8401619382664969,
                -1.549315325612569
            ]
        },
        {
            "positions": [
                -1.0105935377038138,
                -0.9551945808326825,
                1.891713606491712,
                0.46883685285234455,
                -0.7302637334176603,
                -1.6795994580234783
            ]
        },
        {
            "positions": [
                -1.018193733688127,
                -0.970415540604741,
                1.9035192232064766,
                0.3478618509257616,
                -0.6203655285688234,
                -1.8098835904343882
            ]
        },
        {
            "positions": [
                -1.0257939296724403,
                -0.9856365003767995,
                1.9153248399212413,
                0.22688684899917888,
                -0.5104673237199868,
                -1.9401677228452976
            ]
        },
        {
            "positions": [
                -1.0333941256567536,
                -1.000857460148858,
                1.927130456636006,
                0.10591184707259615,
                -0.4005691188711502,
                -2.070451855256207
            ]
        },
        {
            "positions": [
                -1.0409943216410669,
                -1.0160784199209165,
                1.9389360733507706,
                -0.015063154853987015,
                -0.29067091402231315,
                -2.200735987667117
            ]
        },
        {
            "positions": [
                -1.0485945176253801,
                -1.031299379692975,
                1.9507416900655352,
                -0.13603815678056952,
                -0.18077270917347654,
                -2.3310201200780263
            ]
        },
        {
            "positions": [
                -1.0561947136096934,
                -1.0465203394650335,
                1.9625473067802999,
                -0.257013158707152,
                -0.07087450432464015,
                -2.4613042524889357
            ]
        },
        {
            "positions": [
                -1.0637949095940067,
                -1.061741299237092,
                1.9743529234950645,
                -0.3779881606337354,
                0.03902370052419668,
                -2.5915883848998456
            ]
        },
        {
            "positions": [
                -1.07139510557832,
                -1.0769622590091505,
                1.9861585402098292,
                -0.4989631625603179,
                0.14892190537303351,
                -2.721872517310755
            ]
        },
        {
            "positions": [
                -1.0789953015626332,
                -1.092183218781209,
                1.9979641569245938,
                -0.6199381644869004,
                0.2588201102218699,
                -2.8521566497216644
            ]
        },
        {
            "positions": [
                -1.0865954975469465,
                -1.1074041785532676,
                2.0097697736393583,
                -0.7409131664134838,
                0.3687183150707072,
                -2.9824407821325742
            ]
        },
        {
            "positions": [
                -1.0941956935312598,
                -1.122625138325326,
                2.021575390354123,
                -0.8618881683400665,
                0.4786165199195434,
                -3.1127249145434837
            ]
        }
    ]
}