{
    "goal": {
        "global_pose": {
            "orientation": {
                "w": 0.005598929693374612,
                "x": 0.007748599140229565,
                "y": 0.7110244013736278,
                "z": -0.7031023480610252
            },
            "position": {
                "x": -0.8858502320852131,
                "y": -0.7141253447532654,
                "z": 0.3711530566215515
            }
        },
        "name": "move_to_auspresseinheit_C"
    },
    "id": "EST_move_to_auspresseinheit_C_92",
    "joint_names": [
        "shoulder_pan_joint",
        "shoulder_lift_joint",
        "elbow_joint",
        "wrist_1_joint",
        "wrist_2_joint",
        "wrist_3_joint"
    ],
    "metrics": {
        "cart_traj_len": 0.49329190370634796,
        "distance_elbow_joint": 0.9920516222950334,
        "distance_shoulder_lift_joint": 0.32018410591770274,
        "distance_shoulder_pan_joint": 0.256929954063136,
        "distance_wrist_1_joint": 0.6643082316745174,
        "distance_wrist_2_joint": 1.3054612961707472,
        "distance_wrist_3_joint": 0.039642447255304525,
        "smoothness": 6.459479416000911e-16,
        "time": 1.127519062,
        "traj_len": 1.891712889784399,
        "weighted_distance": 2.3722630713587214
    },
    "planner": "EST",
    "start": {
        "state": {
            "elbow_joint": 1.7527959577737207,
            "shoulder_lift_joint": -0.9740617694225068,
            "shoulder_pan_joint": -2.967991417825858,
            "wrist_1_joint": -0.759517768980727,
            "wrist_2_joint": 1.7443932448377408,
            "wrist_3_joint": -3.0840537646736568
        }
    },
    "waypoints": [
        {
            "positions": [
                -2.967991417825858,
                -0.9740617694225068,
                1.7527959577737207,
                -0.759517768980727,
                1.7443932448377408,
                -3.0840537646736568
            ]
        },
        {
            "positions": [
                -2.9422984224195443,
                -0.9420433588307365,
                1.6535907955442173,
                -0.6930869458132752,
                1.6138471152206662,
                -3.088018009399187
            ]
        },
        {
            "positions": [
                -2.9166054270132307,
                -0.9100249482389662,
                1.554385633314714,
                -0.6266561226458235,
                1.4833009856035915,
                -3.0919822541247175
            ]
        },
        {
            "positions": [
                -2.890912431606917,
                -0.8780065376471959,
                1.4551804710852108,
                -0.5602252994783717,
                1.3527548559865168,
                -3.0959464988502483
            ]
        },
        {
            "positions": [
                -2.8652194362006034,
                -0.8459881270554257,
                1.3559753088557072,
                -0.49379447631092005,
                1.2222087263694419,
                -3.0999107435757787
            ]
        },
        {
            "positions": [
                -2.83952644079429,
                -0.8139697164636555,
                1.256770146626204,
                -0.4273636531434683,
                1.0916625967523672,
                -3.103874988301309
            ]
        },
        {
            "positions": [
                -2.8138334453879765,
                -0.7819513058718851,
                1.1575649843967006,
                -0.36093282997601656,
                0.9611164671352925,
                -3.1078392330268394
            ]
        },
        {
            "positions": [
                -2.788140449981663,
                -0.7499328952801149,
                1.0583598221671973,
                -0.29450200680856486,
                0.8305703375182178,
                -3.1118034777523698
            ]
        },
        {
            "positions": [
                -2.7624474545753492,
                -0.7179144846883445,
                0.9591546599376939,
                -0.22807118364111312,
                0.700024207901143,
                -3.1157677224779006
            ]
        },
        {
            "positions": [
                -2.7367544591690356,
                -0.6858960740965743,
                0.8599494977081906,
                -0.16164036047366137,
                0.5694780782840683,
                -3.119731967203431
            ]
        },
        {
            "positions": [
                -2.711061463762722,
                -0.653877663504804,
                0.7607443354786873,
                -0.09520953730620965,
                0.4389319486669936,
                -3.1236962119289613
            ]
        }
    ]
}