{
    "goal": {
        "global_pose": {
            "orientation": {
                "w": 0.7031023480610252,
                "x": -0.7110244013736278,
                "y": 0.0077485991402295624,
                "z": 0.005598929693374583
            },
            "position": {
                "x": -0.8841497679147869,
                "y": 0.44412534475326537,
                "z": 0.3711530566215515
            }
        },
        "name": "move_to_auspresseinheit_D"
    },
    "id": "EST_move_to_auspresseinheit_D_144",
    "joint_names": [
        "shoulder_pan_joint",
        "shoulder_lift_joint",
        "elbow_joint",
        "wrist_1_joint",
        "wrist_2_joint",
        "wrist_3_joint"
    ],
    "metrics": {
        "cart_traj_len": 0.34338583717885207,
        "distance_elbow_joint": 0.6339685670501303,
        "distance_shoulder_lift_joint": 0.11893374016763003,
        "distance_shoulder_pan_joint": 0.13450857766497235,
        "distance_wrist_1_joint": 0.5134797623843164,
        "distance_wrist_2_joint": 1.445323852521137,
        "distance_wrist_3_joint": 0.011014422478925034,
        "smoothness": 0.0,
        "time": 0.05120047999999999,
        "traj_len": 1.6903339676723979,
        "weighted_distance": 2.199559360901727
    },
    "planner": "EST",
    "start": {
        "state": {
            "elbow_joint": -1.8275523626775212,
            "shoulder_lift_joint": -2.126789852344167,
            "shoulder_pan_joint": -0.03513704404078235,
            "wrist_1_joint": -2.347782403156801,
            "wrist_2_joint": -1.6058999987535132,
            "wrist_3_joint": -3.0880379163319196
        }
    },
    "waypoints": [
        {
            "positions": [
                -0.03513704404078235,
                -2.126789852344167,
                -1.8275523626775212,
                -2.347782403156801,
                -1.6058999987535132,
                -3.0880379163319196
            ]
        },
        {
            "positions": [
                -0.05195061624890389,
                -2.1416565698651207,
                -1.7483062917962549,
                -2.4119673734548406,
                -1.4252345171883711,
                -3.0894147191417853
            ]
        },
        {
            "positions": [
                -0.06876418845702544,
                -2.1565232873860745,
                -1.6690602209149885,
                -2.47615234375288,
                -1.244569035623229,
                -3.090791521951651
            ]
        },
        {
            "positions": [
                -0.08557776066514697,
                -2.1713900049070283,
                -1.5898141500337224,
                -2.5403373140509196,
                -1.0639035540580868,
                -3.0921683247615164
            ]
        },
        {
            "positions": [
                -0.10239133287326851,
                -2.1862567224279816,
                -1.510568079152456,
                -2.604522284348959,
                -0.8832380724929447,
                -3.093545127571382
            ]
        },
        {
            "positions": [
                -0.11920490508139006,
                -2.2011234399489354,
                -1.4313220082711897,
                -2.6687072546469985,
                -0.7025725909278027,
                -3.094921930381248
            ]
        },
        {
            "positions": [
                -0.1360184772895116,
                -2.2159901574698893,
                -1.3520759373899236,
                -2.7328922249450383,
                -0.5219071093626604,
                -3.096298733191113
            ]
        },
        {
            "positions": [
                -0.15283204949763315,
                -2.230856874990843,
                -1.2728298665086573,
                -2.7970771952430775,
                -0.3412416277975183,
                -3.097675536000979
            ]
        },
        {
            "positions": [
                -0.1696456217057547,
                -2.245723592511797,
                -1.193583795627391,
                -2.8612621655411172,
                -0.16057614623237626,
                -3.0990523388108446
            ]
        }
    ]
}