{
    "goal": {
        "global_pose": {
            "orientation": {
                "w": -0.00223480608172531,
                "x": 0.0024358444001904467,
                "y": 0.7094548369677653,
                "z": -0.704743149386269
            },
            "position": {
                "x": 0.6205249238014221,
                "y": -0.6371506643295288,
                "z": 0.19426114857196808
            }
        },
        "name": "move_to_magneteinheit_B"
    },
    "id": "EST_move_to_magneteinheit_B_133",
    "joint_names": [
        "shoulder_pan_joint",
        "shoulder_lift_joint",
        "elbow_joint",
        "wrist_1_joint",
        "wrist_2_joint",
        "wrist_3_joint"
    ],
    "metrics": {
        "cart_traj_len": 1.5043647538661216,
        "distance_elbow_joint": 0.9604081372992521,
        "distance_shoulder_lift_joint": 1.3913747000369345,
        "distance_shoulder_pan_joint": 1.6203558730092575,
        "distance_wrist_1_joint": 2.653943849495036,
        "distance_wrist_2_joint": 2.636016738757589,
        "distance_wrist_3_joint": 1.3698521931420684,
        "smoothness": 0.6669665206340103,
        "time": 0.323518248,
        "traj_len": 3.260667338404845,
        "weighted_distance": 4.31990931227461
    },
    "planner": "EST",
    "start": {
        "state": {
            "elbow_joint": 2.6216224122426386,
            "shoulder_lift_joint": -1.4174107377796124,
            "shoulder_pan_joint": 0.7066234856936794,
            "wrist_1_joint": 1.9546482284002225,
            "wrist_2_joint": -0.7096286983471962,
            "wrist_3_joint": 0.005740856962016249
        }
    },
    "waypoints": [
        {
            "positions": [
                0.7066234856936794,
                -1.4174107377796124,
                2.6216224122426386,
                1.9546482284002225,
                -0.7096286983471962,
                0.005740856962016249
            ]
        },
        {
            "positions": [
                0.6437548744475715,
                -1.4526253887069545,
                2.613923347446554,
                1.8178544492340463,
                -0.6483211518318484,
                0.0820258373040824
            ]
        },
        {
            "positions": [
                0.5808862632014637,
                -1.4878400396342968,
                2.6062242826504693,
                1.6810606700678699,
                -0.5870136053165005,
                0.15831081764614857
            ]
        },
        {
            "positions": [
                0.5180176519553559,
                -1.523054690561639,
                2.598525217854385,
                1.5442668909016937,
                -0.5257060588011526,
                0.23459579798821473
            ]
        },
        {
            "positions": [
                0.45514904070924805,
                -1.5582693414889812,
                2.5908261530583006,
                1.4074731117355173,
                -0.46439851228580464,
                0.3108807783302809
            ]
        },
        {
            "positions": [
                0.3922804294631402,
                -1.5934839924163233,
                2.583127088262216,
                1.2706793325693408,
                -0.4030909657704568,
                0.3871657586723471
            ]
        },
        {
            "positions": [
                0.32941181821703236,
                -1.6286986433436657,
                2.5754280234661313,
                1.1338855534031649,
                -0.3417834192551089,
                0.4634507390144132
            ]
        },
        {
            "positions": [
                0.26654320697092454,
                -1.6639132942710078,
                2.567728958670047,
                0.9970917742369885,
                -0.280475872739761,
                0.5397357193564793
            ]
        },
        {
            "positions": [
                0.20367459572481672,
                -1.69912794519835,
                2.5600298938739625,
                0.8602979950708123,
                -0.21916832622441312,
                0.6160206996985454
            ]
        },
        {
            "positions": [
                0.14080598447870882,
                -1.7343425961256922,
                2.552330829077878,
                0.7235042159046359,
                -0.15786077970906517,
                0.6923056800406117
            ]
        },
        {
            "positions": [
                0.08530396491058848,
                -1.677792972878805,
                2.5054299578076416,
                0.7983884178519752,
                -0.26755808603114184,
                0.6563431868793762
            ]
        },
        {
            "positions": [
                0.02980194534246812,
                -1.621243349631918,
                2.458529086537405,
                0.8732726197993147,
                -0.3772553923532186,
                0.6203806937181409
            ]
        },
        {
            "positions": [
                -0.025700074225652236,
                -1.564693726385031,
                2.411628215267169,
                0.948156821746654,
                -0.4869526986752952,
                0.5844182005569054
            ]
        },
        {
            "positions": [
                -0.08120209379377258,
                -1.508144103138144,
                2.3647273439969325,
                1.0230410236939935,
                -0.596650004997372,
                0.5484557073956701
            ]
        },
        {
            "positions": [
                -0.13670411336189295,
                -1.4515944798912568,
                2.317826472726696,
                1.0979252256413328,
                -0.7063473113194487,
                0.5124932142344346
            ]
        },
        {
            "positions": [
                -0.1922061329300133,
                -1.3950448566443696,
                2.2709256014564594,
                1.1728094275886722,
                -0.8160446176415254,
                0.47653072107319927
            ]
        },
        {
            "positions": [
                -0.24770815249813363,
                -1.3384952333974827,
                2.224024730186223,
                1.2476936295360117,
                -0.9257419239636021,
                0.4405682279119638
            ]
        },
        {
            "positions": [
                -0.303210172066254,
                -1.2819456101505955,
                2.1771238589159867,
                1.322577831483351,
                -1.0354392302856787,
                0.4046057347507284
            ]
        },
        {
            "positions": [
                -0.3587121916343743,
                -1.2253959869037083,
                2.1302229876457504,
                1.3974620334306904,
                -1.1451365366077555,
                0.368643241589493
            ]
        },
        {
            "positions": [
                -0.4142142112024947,
                -1.1688463636568214,
                2.083322116375514,
                1.4723462353780299,
                -1.2548338429298322,
                0.3326807484282576
            ]
        },
        {
            "positions": [
                -0.4697162307706151,
                -1.1122967404099342,
                2.0364212451052777,
                1.5472304373253691,
                -1.364531149251909,
                0.29671825526702217
            ]
        },
        {
            "positions": [
                -0.5252182503387354,
                -1.055747117163047,
                1.9895203738350413,
                1.6221146392727086,
                -1.4742284555739855,
                0.2607557621057868
            ]
        },
        {
            "positions": [
                -0.5807202699068558,
                -0.99919749391616,
                1.9426195025648048,
                1.696998841220048,
                -1.5839257618960623,
                0.22479326894455137
            ]
        },
        {
            "positions": [
                -0.636222289474976,
                -0.942647870669273,
                1.8957186312945684,
                1.7718830431673873,
                -1.693623068218139,
                0.18883077578331597
            ]
        },
        {
            "positions": [
                -0.6917243090430965,
                -0.8860982474223859,
                1.848817760024332,
                1.8467672451147268,
                -1.8033203745402158,
                0.15286828262208052
            ]
        },
        {
            "positions": [
                -0.7472263286112167,
                -0.8295486241754988,
                1.8019168887540957,
                1.9216514470620663,
                -1.9130176808622923,
                0.11690578946084518
            ]
        },
        {
            "positions": [
                -0.8027283481793371,
                -0.7729990009286116,
                1.7550160174838592,
                1.9965356490094057,
                -2.022714987184369,
                0.08094329629960972
            ]
        },
        {
            "positions": [
                -0.8582303677474574,
                -0.7164493776817247,
                1.7081151462136228,
                2.0714198509567447,
                -2.132412293506446,
                0.04498080313837438
            ]
        },
        {
            "positions": [
                -0.9137323873155778,
                -0.6598997544348374,
                1.6612142749433865,
                2.1463040529040844,
                -2.2421095998285225,
                0.009018309977138938
            ]
        }
    ]
}