{
    "goal": {
        "global_pose": {
            "orientation": {
                "w": 0.7047431468963623,
                "x": -0.7094548344612122,
                "y": 0.0024358443915843964,
                "z": -0.0022348060738295317
            },
            "position": {
                "x": 0.6094750761985779,
                "y": 0.3671506643295288,
                "z": 0.19426114857196808
            }
        },
        "name": "move_to_magneteinheit_A"
    },
    "id": "EST_move_to_magneteinheit_A_69",
    "joint_names": [
        "shoulder_pan_joint",
        "shoulder_lift_joint",
        "elbow_joint",
        "wrist_1_joint",
        "wrist_2_joint",
        "wrist_3_joint"
    ],
    "metrics": {
        "cart_traj_len": 3.3395232051960804,
        "distance_elbow_joint": 3.9014989458314373,
        "distance_shoulder_lift_joint": 1.4279600541108992,
        "distance_shoulder_pan_joint": 2.9964054810942433,
        "distance_wrist_1_joint": 0.7170492534360356,
        "distance_wrist_2_joint": 1.8477106407251183,
        "distance_wrist_3_joint": 3.598020538656086,
        "smoothness": 0.09570495556637286,
        "time": 0.159623619,
        "traj_len": 3.806395265057719,
        "weighted_distance": 4.924372638755839
    },
    "planner": "EST",
    "start": {
        "state": {
            "elbow_joint": -1.9196185241190666,
            "shoulder_lift_joint": -1.2443396400964142,
            "shoulder_pan_joint": 2.6996025414629847,
            "wrist_1_joint": -1.5485510000780065,
            "wrist_2_joint": -1.5709468930060704,
            "wrist_3_joint": 0.4420197071253992
        }
    },
    "waypoints": [
        {
            "positions": [
                2.6996025414629847,
                -1.2443396400964142,
                -1.9196185241190666,
                -1.5485510000780065,
                -1.5709468930060704,
                0.4420197071253992
            ]
        },
        {
            "positions": [
                2.544796664178579,
                -1.2812464998243538,
                -1.8098587981253096,
                -1.5115853190720165,
                -1.575095785433729,
                0.39937388685176617
            ]
        },
        {
            "positions": [
                2.389990786894173,
                -1.3181533595522934,
                -1.7000990721315523,
                -1.4746196380660264,
                -1.5792446778613878,
                0.3567280665781331
            ]
        },
        {
            "positions": [
                2.2351849096097673,
                -1.355060219280233,
                -1.5903393461377953,
                -1.4376539570600364,
                -1.5833935702890465,
                0.3140822463045001
            ]
        },
        {
            "positions": [
                2.0803790323253617,
                -1.3919670790081726,
                -1.4805796201440382,
                -1.4006882760540464,
                -1.5875424627167052,
                0.27143642603086704
            ]
        },
        {
            "positions": [
                1.9255731550409556,
                -1.4288739387361122,
                -1.370819894150281,
                -1.3637225950480563,
                -1.5916913551443639,
                0.228790605757234
            ]
        },
        {
            "positions": [
                1.77076727775655,
                -1.4657807984640518,
                -1.2610601681565239,
                -1.3267569140420663,
                -1.5958402475720226,
                0.18614478548360103
            ]
        },
        {
            "positions": [
                1.6159614004721439,
                -1.5026876581919915,
                -1.1513004421627668,
                -1.2897912330360763,
                -1.5999891399996813,
                0.14349896520996797
            ]
        },
        {
            "positions": [
                1.4611555231877382,
                -1.539594517919931,
                -1.0415407161690098,
                -1.2528255520300862,
                -1.60413803242734,
                0.10085314493633496
            ]
        },
        {
            "positions": [
                1.3063496459033324,
                -1.5765013776478707,
                -0.9317809901752525,
                -1.2158598710240962,
                -1.608286924854999,
                0.0582073246627019
            ]
        },
        {
            "positions": [
                1.1515437686189265,
                -1.6134082373758103,
                -0.8220212641814952,
                -1.1788941900181062,
                -1.6124358172826576,
                0.015561504389068836
            ]
        },
        {
            "positions": [
                0.9967378913345206,
                -1.65031509710375,
                -0.7122615381877382,
                -1.141928509012116,
                -1.6165847097103163,
                -0.027084315884564225
            ]
        },
        {
            "positions": [
                0.841932014050115,
                -1.6872219568316895,
                -0.6025018121939811,
                -1.104962828006126,
                -1.620733602137975,
                -0.06973013615819712
            ]
        },
        {
            "positions": [
                0.6871261367657091,
                -1.7241288165596291,
                -0.4927420862002241,
                -1.0679971470001361,
                -1.6248824945656337,
                -0.11237595643183018
            ]
        },
        {
            "positions": [
                0.532320259481303,
                -1.7610356762875687,
                -0.3829823602064668,
                -1.031031465994146,
                -1.6290313869932924,
                -0.15502177670546324
            ]
        },
        {
            "positions": [
                0.37751438219689737,
                -1.7979425360155084,
                -0.27322263421270976,
                -0.994065784988156,
                -1.6331802794209511,
                -0.1976675969790963
            ]
        },
        {
            "positions": [
                0.22270850491249172,
                -1.834849395743448,
                -0.1634629082189527,
                -0.957100103982166,
                -1.6373291718486098,
                -0.24031341725272926
            ]
        },
        {
            "positions": [
                0.06790262762808608,
                -1.8717562554713876,
                -0.053703182225195656,
                -0.920134422976176,
                -1.6414780642762685,
                -0.2829592375263623
            ]
        },
        {
            "positions": [
                -0.08690324965631985,
                -1.9086631151993272,
                0.05605654376856162,
                -0.8831687419701859,
                -1.6456269567039272,
                -0.3256050577999954
            ]
        },
        {
            "positions": [
                -0.08415077231446878,
                -1.8709089720423766,
                0.15744794918382204,
                -0.8805767372822021,
                -1.5554827477489255,
                -0.47170795816293404
            ]
        },
        {
            "positions": [
                -0.0813982949726177,
                -1.8331548288854258,
                0.25883935459908247,
                -0.8779847325942182,
                -1.465338538793924,
                -0.6178108585258727
            ]
        },
        {
            "positions": [
                -0.07864581763076664,
                -1.7954006857284752,
                0.36023076001434295,
                -0.8753927279062343,
                -1.3751943298389222,
                -0.7639137588888114
            ]
        },
        {
            "positions": [
                -0.07589334028891558,
                -1.7576465425715244,
                0.4616221654296033,
                -0.8728007232182504,
                -1.2850501208839207,
                -0.91001665925175
            ]
        },
        {
            "positions": [
                -0.0731408629470645,
                -1.7198923994145738,
                0.5630135708448638,
                -0.8702087185302666,
                -1.194905911928919,
                -1.0561195596146886
            ]
        },
        {
            "positions": [
                -0.07038838560521343,
                -1.6821382562576233,
                0.6644049762601243,
                -0.8676167138422827,
                -1.1047617029739172,
                -1.2022224599776274
            ]
        },
        {
            "positions": [
                -0.06763590826336235,
                -1.6443841131006725,
                0.7657963816753846,
                -0.8650247091542989,
                -1.0146174940189154,
                -1.348325360340566
            ]
        },
        {
            "positions": [
                -0.06488343092151129,
                -1.6066299699437219,
                0.867187787090645,
                -0.8624327044663149,
                -0.9244732850639139,
                -1.4944282607035047
            ]
        },
        {
            "positions": [
                -0.062130953579660225,
                -1.568875826786771,
                0.9685791925059055,
                -0.8598406997783311,
                -0.8343290761089122,
                -1.6405311610664435
            ]
        },
        {
            "positions": [
                -0.059378476237809154,
                -1.5311216836298205,
                1.069970597921166,
                -0.8572486950903472,
                -0.7441848671539105,
                -1.786634061429382
            ]
        },
        {
            "positions": [
                -0.05662599889595808,
                -1.4933675404728697,
                1.1713620033364265,
                -0.8546566904023634,
                -0.6540406581989088,
                -1.932736961792321
            ]
        },
        {
            "positions": [
                -0.05387352155410701,
                -1.455613397315919,
                1.272753408751687,
                -0.8520646857143794,
                -0.5638964492439071,
                -2.0788398621552595
            ]
        },
        {
            "positions": [
                -0.051121044212255946,
                -1.4178592541589685,
                1.3741448141669472,
                -0.8494726810263956,
                -0.4737522402889056,
                -2.224942762518198
            ]
        },
        {
            "positions": [
                -0.048368566870404875,
                -1.3801051110020177,
                1.4755362195822075,
                -0.8468806763384117,
                -0.38360803133390386,
                -2.3710456628811367
            ]
        },
        {
            "positions": [
                -0.04561608952855381,
                -1.3423509678450671,
                1.576927624997468,
                -0.8442886716504279,
                -0.2934638223789021,
                -2.5171485632440755
            ]
        },
        {
            "positions": [
                -0.04286361218670274,
                -1.3045968246881166,
                1.6783190304127285,
                -0.8416966669624439,
                -0.2033196134239006,
                -2.663251463607014
            ]
        },
        {
            "positions": [
                -0.04011113484485167,
                -1.2668426815311657,
                1.779710435827989,
                -0.8391046622744601,
                -0.11317540446889887,
                -2.8093543639699528
            ]
        },
        {
            "positions": [
                0.014258056876305186,
                -1.226237299751224,
                1.8471004311227828,
                -0.8365703570636304,
                -0.03298239620482124,
                -2.9249031864901975
            ]
        },
        {
            "positions": [
                0.06862724859746204,
                -1.1856319179712826,
                1.9144904264175764,
                -0.8340360518528006,
                0.04721061205925639,
                -3.040452009010442
            ]
        },
        {
            "positions": [
                0.1229964403186189,
                -1.145026536191341,
                1.9818804217123702,
                -0.8315017466419709,
                0.12740362032333402,
                -3.1560008315306867
            ]
        }
    ]
}