{
    "goal": {
        "global_pose": {
            "orientation": {
                "w": -0.00223480608172531,
                "x": 0.0024358444001904467,
                "y": 0.7094548369677653,
                "z": -0.704743149386269
            },
            "position": {
                "x": -0.37947507619857795,
                "y": -0.6371506643295288,
                "z": 0.19426114857196808
            }
        },
        "name": "move_to_magneteinheit_C"
    },
    "id": "EST_move_to_magneteinheit_C_130",
    "joint_names": [
        "shoulder_pan_joint",
        "shoulder_lift_joint",
        "elbow_joint",
        "wrist_1_joint",
        "wrist_2_joint",
        "wrist_3_joint"
    ],
    "metrics": {
        "cart_traj_len": 1.7902699486939735,
        "distance_elbow_joint": 0.6505468550844649,
        "distance_shoulder_lift_joint": 1.1576605625950236,
        "distance_shoulder_pan_joint": 1.542252460771677,
        "distance_wrist_1_joint": 3.5153218891080655,
        "distance_wrist_2_joint": 2.1640852807994895,
        "distance_wrist_3_joint": 2.720749161151246,
        "smoothness": 0.9040612956850187,
        "time": 0.62097139,
        "traj_len": 3.4279171824170382,
        "weighted_distance": 4.782417976475917
    },
    "planner": "EST",
    "start": {
        "state": {
            "elbow_joint": 1.9565354010623817,
            "shoulder_lift_joint": -1.4165861575791021,
            "shoulder_pan_joint": -1.6717766225146293,
            "wrist_1_joint": -0.5286633292919765,
            "wrist_2_joint": 1.472756589071564,
            "wrist_3_joint": -3.1238370188695823
        }
    },
    "waypoints": [
        {
            "positions": [
                -1.6717766225146293,
                -1.4165861575791021,
                1.9565354010623817,
                -0.5286633292919765,
                1.472756589071564,
                -3.1238370188695823
            ]
        },
        {
            "positions": [
                -1.659909535469161,
                -1.4488954128136138,
                1.9406174368469742,
                -0.4135383075743716,
                1.366720661800815,
                -3.02786922402156
            ]
        },
        {
            "positions": [
                -1.6480424484236929,
                -1.4812046680481257,
                1.9246994726315667,
                -0.29841328585676674,
                1.260684734530066,
                -2.931901429173537
            ]
        },
        {
            "positions": [
                -1.6361753613782248,
                -1.5135139232826376,
                1.9087815084161592,
                -0.18328826413916188,
                1.154648807259317,
                -2.8359336343255146
            ]
        },
        {
            "positions": [
                -1.6243082743327566,
                -1.5458231785171492,
                1.8928635442007515,
                -0.06816324242155702,
                1.0486128799885681,
                -2.739965839477492
            ]
        },
        {
            "positions": [
                -1.6124411872872884,
                -1.578132433751661,
                1.876945579985344,
                0.046961779296047834,
                0.9425769527178193,
                -2.6439980446294693
            ]
        },
        {
            "positions": [
                -1.6005741002418201,
                -1.6104416889861728,
                1.8610276157699366,
                0.1620868010136527,
                0.8365410254470703,
                -2.548030249781447
            ]
        },
        {
            "positions": [
                -1.5887070131963519,
                -1.6427509442206847,
                1.845109651554529,
                0.27721182273125755,
                0.7305050981763214,
                -2.452062454933424
            ]
        },
        {
            "positions": [
                -1.5768399261508839,
                -1.6750601994551964,
                1.8291916873391216,
                0.3923368444488624,
                0.6244691709055725,
                -2.3560946600854016
            ]
        },
        {
            "positions": [
                -1.5649728391054156,
                -1.707369454689708,
                1.8132737231237142,
                0.5074618661664674,
                0.5184332436348235,
                -2.260126865237379
            ]
        },
        {
            "positions": [
                -1.5531057520599474,
                -1.73967870992422,
                1.7973557589083065,
                0.6225868878840721,
                0.4123973163640746,
                -2.1641590703893563
            ]
        },
        {
            "positions": [
                -1.5412386650144791,
                -1.7719879651587318,
                1.781437794692899,
                0.7377119096016769,
                0.30636138909332566,
                -2.068191275541334
            ]
        },
        {
            "positions": [
                -1.5293715779690111,
                -1.8042972203932435,
                1.7655198304774915,
                0.8528369313192818,
                0.2003254618225767,
                -1.9722234806933114
            ]
        },
        {
            "positions": [
                -1.517504490923543,
                -1.8366064756277551,
                1.749601866262084,
                0.9679619530368868,
                0.09428953455182776,
                -1.8762556858452888
            ]
        },
        {
            "positions": [
                -1.5056374038780747,
                -1.868915730862267,
                1.7336839020466766,
                1.0830869747544916,
                -0.011746392718921228,
                -1.7802878909972661
            ]
        },
        {
            "positions": [
                -1.5958080119155673,
                -1.8526825219569982,
                1.7606343416164902,
                0.9410734250090709,
                0.011738718247883978,
                -1.8487940530046674
            ]
        },
        {
            "positions": [
                -1.68597861995306,
                -1.8364493130517294,
                1.7875847811863037,
                0.7990598752636502,
                0.03522382921468918,
                -1.9173002150120686
            ]
        },
        {
            "positions": [
                -1.7761492279905529,
                -1.8202161041464608,
                1.8145352207561174,
                0.6570463255182295,
                0.0587089401814944,
                -1.9858063770194698
            ]
        },
        {
            "positions": [
                -1.8663198360280455,
                -1.803982895241192,
                1.841485660325931,
                0.5150327757728087,
                0.0821940511482996,
                -2.054312539026871
            ]
        },
        {
            "positions": [
                -1.9564904440655382,
                -1.7877496863359232,
                1.8684360998957446,
                0.373019226027388,
                0.10567916211510481,
                -2.122818701034272
            ]
        },
        {
            "positions": [
                -2.046661052103031,
                -1.7715164774306544,
                1.8953865394655582,
                0.23100567628196733,
                0.12916427308191003,
                -2.1913248630416735
            ]
        },
        {
            "positions": [
                -2.1368316601405235,
                -1.7552832685253859,
                1.922336979035372,
                0.08899212653654665,
                0.1526493840487152,
                -2.2598310250490745
            ]
        },
        {
            "positions": [
                -2.2270022681780164,
                -1.739050059620117,
                1.9492874186051856,
                -0.05302142320887415,
                0.17613449501552042,
                -2.328337187056476
            ]
        },
        {
            "positions": [
                -2.3171728762155093,
                -1.7228168507148482,
                1.976237858174999,
                -0.19503497295429484,
                0.19961960598232562,
                -2.396843349063877
            ]
        },
        {
            "positions": [
                -2.4073434842530017,
                -1.7065836418095794,
                2.0031882977448126,
                -0.3370485226997155,
                0.22310471694913084,
                -2.4653495110712784
            ]
        },
        {
            "positions": [
                -2.4975140922904946,
                -1.6903504329043106,
                2.0301387373146262,
                -0.4790620724451362,
                0.24658982791593606,
                -2.5338556730786794
            ]
        },
        {
            "positions": [
                -2.587684700327987,
                -1.674117223999042,
                2.05708917688444,
                -0.6210756221905569,
                0.27007493888274126,
                -2.602361835086081
            ]
        },
        {
            "positions": [
                -2.67785530836548,
                -1.6578840150937733,
                2.0840396164542536,
                -0.7630891719359776,
                0.2935600498495464,
                -2.670867997093482
            ]
        },
        {
            "positions": [
                -2.6370762408359365,
                -1.5590241603851003,
                2.068571688122017,
                -0.7745682596102031,
                0.36841522113765346,
                -2.7681919825300247
            ]
        },
        {
            "positions": [
                -2.596297173306393,
                -1.4601643056764273,
                2.0531037597897805,
                -0.7860473472844287,
                0.44327039242576055,
                -2.8655159679665676
            ]
        },
        {
            "positions": [
                -2.5555181057768497,
                -1.3613044509677543,
                2.037635831457544,
                -0.7975264349586542,
                0.5181255637138675,
                -2.9628399534031105
            ]
        },
        {
            "positions": [
                -2.5147390382473063,
                -1.2624445962590813,
                2.0221679031253075,
                -0.8090055226328797,
                0.5929807350019747,
                -3.0601639388396533
            ]
        },
        {
            "positions": [
                -2.473959970717763,
                -1.1635847415504084,
                2.006699974793071,
                -0.8204846103071053,
                0.6678359062900817,
                -3.157487924276196
            ]
        }
    ]
}