{
    "goal": {
        "global_pose": {
            "orientation": {
                "w": 0.005598929693374612,
                "x": 0.007748599140229565,
                "y": 0.7110244013736278,
                "z": -0.7031023480610252
            },
            "position": {
                "x": 0.1141497679147869,
                "y": -0.7141253447532654,
                "z": 0.3711530566215515
            }
        },
        "name": "move_to_auspresseinheit_B"
    },
    "id": "EST_move_to_auspresseinheit_B_77",
    "joint_names": [
        "shoulder_pan_joint",
        "shoulder_lift_joint",
        "elbow_joint",
        "wrist_1_joint",
        "wrist_2_joint",
        "wrist_3_joint"
    ],
    "metrics": {
        "cart_traj_len": 0.5651573956107655,
        "distance_elbow_joint": 0.06130151354430913,
        "distance_shoulder_lift_joint": 0.2952440583069307,
        "distance_shoulder_pan_joint": 0.5766638671515609,
        "distance_wrist_1_joint": 0.3206077846815938,
        "distance_wrist_2_joint": 0.9986986665724553,
        "distance_wrist_3_joint": 0.010645086723297226,
        "smoothness": 2.5376526478085547e-16,
        "time": 0.128520894,
        "traj_len": 1.5043805957868999,
        "weighted_distance": 1.898356552832157
    },
    "planner": "EST",
    "start": {
        "state": {
            "elbow_joint": 2.0193083361928714,
            "shoulder_lift_joint": -1.1220246554650708,
            "shoulder_pan_joint": -1.0952077554168747,
            "wrist_1_joint": -0.8559753972642168,
            "wrist_2_joint": 0.4759566250798843,
            "wrist_3_joint": -3.1240929996934557
        }
    },
    "waypoints": [
        {
            "positions": [
                -1.0952077554168747,
                -1.1220246554650708,
                2.0193083361928714,
                -0.8559753972642168,
                0.4759566250798843,
                -3.1240929996934557
            ]
        },
        {
            "positions": [
                -1.1913183999421348,
                -1.1712319985162258,
                2.00909141726882,
                -0.8025407664839511,
                0.6424064028419602,
                -3.1223188185729063
            ]
        },
        {
            "positions": [
                -1.287429044467395,
                -1.220439341567381,
                1.9988744983447684,
                -0.7491061357036856,
                0.808856180604036,
                -3.1205446374523564
            ]
        },
        {
            "positions": [
                -1.3835396889926552,
                -1.2696466846185361,
                1.9886575794207169,
                -0.6956715049234199,
                0.9753059583661119,
                -3.118770456331807
            ]
        },
        {
            "positions": [
                -1.4796503335179152,
                -1.3188540276696912,
                1.9784406604966653,
                -0.6422368741431543,
                1.1417557361281878,
                -3.1169962752112577
            ]
        },
        {
            "positions": [
                -1.5757609780431754,
                -1.3680613707208464,
                1.9682237415726138,
                -0.5888022433628886,
                1.3082055138902637,
                -3.115222094090708
            ]
        },
        {
            "positions": [
                -1.6718716225684356,
                -1.4172687137720015,
                1.9580068226485623,
                -0.535367612582623,
                1.4746552916523397,
                -3.1134479129701584
            ]
        }
    ]
}