{
    "goal": {
        "global_pose": {
            "orientation": {
                "w": -0.00223480608172531,
                "x": 0.0024358444001904467,
                "y": 0.7094548369677653,
                "z": -0.704743149386269
            },
            "position": {
                "x": -0.37947507619857795,
                "y": -0.6371506643295288,
                "z": 0.19426114857196808
            }
        },
        "name": "move_to_magneteinheit_C"
    },
    "id": "EST_move_to_magneteinheit_C_78",
    "joint_names": [
        "shoulder_pan_joint",
        "shoulder_lift_joint",
        "elbow_joint",
        "wrist_1_joint",
        "wrist_2_joint",
        "wrist_3_joint"
    ],
    "metrics": {
        "cart_traj_len": 1.3213317720119877,
        "distance_elbow_joint": 0.6244613299731969,
        "distance_shoulder_lift_joint": 0.8441386753581006,
        "distance_shoulder_pan_joint": 1.1884632371094852,
        "distance_wrist_1_joint": 1.9016719261586923,
        "distance_wrist_2_joint": 1.5334188943047278,
        "distance_wrist_3_joint": 2.775437794960807,
        "smoothness": 1.0343325063437379,
        "time": 1.99179811,
        "traj_len": 2.9778502074256537,
        "weighted_distance": 4.225347118077998
    },
    "planner": "EST",
    "start": {
        "state": {
            "elbow_joint": 1.9565354010623817,
            "shoulder_lift_joint": -1.4165861575791021,
            "shoulder_pan_joint": -1.6717766225146293,
            "wrist_1_joint": -0.5286633292919765,
            "wrist_2_joint": 1.472756589071564,
            "wrist_3_joint": -3.1238370188695823
        }
    },
    "waypoints": [
        {
            "positions": [
                -1.6717766225146293,
                -1.4165861575791021,
                1.9565354010623817,
                -0.5286633292919765,
                1.472756589071564,
                -3.1238370188695823
            ]
        },
        {
            "positions": [
                -1.6625514705005797,
                -1.4435136802142912,
                1.9352486309090986,
                -0.4569602138882758,
                1.366659529798663,
                -2.9980080012910726
            ]
        },
        {
            "positions": [
                -1.6533263184865301,
                -1.4704412028494804,
                1.9139618607558155,
                -0.3852570984845751,
                1.2605624705257623,
                -2.872178983712563
            ]
        },
        {
            "positions": [
                -1.6441011664724805,
                -1.4973687254846695,
                1.8926750906025327,
                -0.31355398308087457,
                1.1544654112528614,
                -2.746349966134053
            ]
        },
        {
            "positions": [
                -1.634876014458431,
                -1.5242962481198585,
                1.8713883204492496,
                -0.24185086767717384,
                1.0483683519799607,
                -2.620520948555543
            ]
        },
        {
            "positions": [
                -1.6256508624443813,
                -1.5512237707550476,
                1.8501015502959666,
                -0.17014775227347323,
                0.9422712927070598,
                -2.4946919309770332
            ]
        },
        {
            "positions": [
                -1.6164257104303315,
                -1.5781512933902369,
                1.8288147801426835,
                -0.09844463686977262,
                0.836174233434159,
                -2.3688629133985235
            ]
        },
        {
            "positions": [
                -1.6072005584162818,
                -1.605078816025426,
                1.8075280099894004,
                -0.026741521466071894,
                0.7300771741612581,
                -2.243033895820014
            ]
        },
        {
            "positions": [
                -1.5979754064022322,
                -1.632006338660615,
                1.7862412398361174,
                0.044961593937628774,
                0.6239801148883573,
                -2.1172048782415036
            ]
        },
        {
            "positions": [
                -1.5887502543881826,
                -1.6589338612958042,
                1.7649544696828345,
                0.11666470934132944,
                0.5178830556154563,
                -1.9913758606629939
            ]
        },
        {
            "positions": [
                -1.579525102374133,
                -1.6858613839309933,
                1.7436676995295515,
                0.18836782474503,
                0.41178599634255564,
                -1.8655468430844844
            ]
        },
        {
            "positions": [
                -1.5702999503600834,
                -1.7127889065661823,
                1.7223809293762684,
                0.26007094014873067,
                0.30568893706965466,
                -1.7397178255059744
            ]
        },
        {
            "positions": [
                -1.6808514275231745,
                -1.662551725380001,
                1.7602651952206392,
                0.19530300528731945,
                0.31262522894478556,
                -1.8426569203576837
            ]
        },
        {
            "positions": [
                -1.7914029046862654,
                -1.6123145441938196,
                1.79814946106501,
                0.13053507042590823,
                0.3195615208199164,
                -1.9455960152093932
            ]
        },
        {
            "positions": [
                -1.9019543818493565,
                -1.5620773630076383,
                1.836033726909381,
                0.06576713556449704,
                0.3264978126950473,
                -2.0485351100611027
            ]
        },
        {
            "positions": [
                -2.0125058590124474,
                -1.5118401818214569,
                1.8739179927537517,
                0.0009992007030857897,
                0.33343410457017814,
                -2.151474204912812
            ]
        },
        {
            "positions": [
                -2.1230573361755387,
                -1.4616030006352756,
                1.9118022585981225,
                -0.0637687341583254,
                0.34037039644530903,
                -2.254413299764521
            ]
        },
        {
            "positions": [
                -2.2336088133386296,
                -1.4113658194490943,
                1.9496865244424932,
                -0.1285366690197366,
                0.34730668832043987,
                -2.3573523946162305
            ]
        },
        {
            "positions": [
                -2.3441602905017205,
                -1.3611286382629129,
                1.9875707902868642,
                -0.19330460388114784,
                0.35424298019557077,
                -2.4602914894679397
            ]
        },
        {
            "positions": [
                -2.4547117676648114,
                -1.3108914570767314,
                2.0254550561312348,
                -0.2580725387425591,
                0.3611792720707016,
                -2.5632305843196495
            ]
        },
        {
            "positions": [
                -2.5652632448279027,
                -1.2606542758905501,
                2.0633393219756058,
                -0.3228404736039703,
                0.3681155639458325,
                -2.6661696791713587
            ]
        },
        {
            "positions": [
                -2.5422574272061227,
                -1.2367039519667031,
                2.051002205553669,
                -0.4553470343452914,
                0.44409671780249277,
                -2.7823863661543125
            ]
        },
        {
            "positions": [
                -2.5192516095843427,
                -1.2127536280428561,
                2.0386650891317326,
                -0.5878535950866125,
                0.5200778716591531,
                -2.898603053137266
            ]
        },
        {
            "positions": [
                -2.4962457919625627,
                -1.188803304119009,
                2.026327972709796,
                -0.7203601558279336,
                0.5960590255158134,
                -3.01481974012022
            ]
        },
        {
            "positions": [
                -2.4732399743407827,
                -1.164852980195162,
                2.0139908562878595,
                -0.8528667165692547,
                0.6720401793724736,
                -3.1310364271031736
            ]
        }
    ]
}