{
    "goal": {
        "global_pose": {
            "orientation": {
                "w": 0.7031023502349854,
                "x": -0.7110244035720825,
                "y": 0.007748599164187908,
                "z": 0.005598929710686207
            },
            "position": {
                "x": 0.11585023208521307,
                "y": 0.44412534475326537,
                "z": 0.3711530566215515
            }
        },
        "name": "move_to_auspresseinheit_A"
    },
    "id": "EST_move_to_auspresseinheit_A_24",
    "joint_names": [
        "shoulder_pan_joint",
        "shoulder_lift_joint",
        "elbow_joint",
        "wrist_1_joint",
        "wrist_2_joint",
        "wrist_3_joint"
    ],
    "metrics": {
        "cart_traj_len": 0.7368334189396867,
        "distance_elbow_joint": 0.06352982107039029,
        "distance_shoulder_lift_joint": 0.6418093467989476,
        "distance_shoulder_pan_joint": 1.0668592373983836,
        "distance_wrist_1_joint": 0.7645335881747672,
        "distance_wrist_2_joint": 0.523728703382915,
        "distance_wrist_3_joint": 0.10277058457255794,
        "smoothness": 1.9540652961098082,
        "time": 0.76461492,
        "traj_len": 1.778547520140511,
        "weighted_distance": 2.158016390600581
    },
    "planner": "EST",
    "start": {
        "state": {
            "elbow_joint": 2.4225746658250005,
            "shoulder_lift_joint": -1.3736534386056498,
            "shoulder_pan_joint": -0.3378633547517467,
            "wrist_1_joint": -1.0288598680537169,
            "wrist_2_joint": 1.233022673432363,
            "wrist_3_joint": -3.0940220416140027
        }
    },
    "waypoints": [
        {
            "positions": [
                -0.3378633547517467,
                -1.3736534386056498,
                2.4225746658250005,
                -1.0288598680537169,
                1.233022673432363,
                -3.0940220416140027
            ]
        },
        {
            "positions": [
                -0.20573867089539621,
                -1.4472273165341565,
                2.416688168704661,
                -0.9456522932975844,
                1.1681534551990775,
                -3.0898433913466654
            ]
        },
        {
            "positions": [
                -0.0736139870390457,
                -1.5208011944626634,
                2.410801671584322,
                -0.862444718541452,
                1.103284236965792,
                -3.0856647410793285
            ]
        },
        {
            "positions": [
                0.05851069681730481,
                -1.59437507239117,
                2.4049151744639827,
                -0.7792371437853195,
                1.0384150187325065,
                -3.0814860908119917
            ]
        },
        {
            "positions": [
                0.19063538067365532,
                -1.6679489503196767,
                2.399028677343644,
                -0.6960295690291871,
                0.9735458004992209,
                -3.0773074405446543
            ]
        },
        {
            "positions": [
                0.3227600645300059,
                -1.7415228282481836,
                2.3931421802233044,
                -0.6128219942730546,
                0.9086765822659354,
                -3.073128790277317
            ]
        },
        {
            "positions": [
                0.45488474838635634,
                -1.8150967061766903,
                2.387255683102965,
                -0.5296144195169221,
                0.8438073640326498,
                -3.06895014000998
            ]
        },
        {
            "positions": [
                0.5870094322427069,
                -1.888670584105197,
                2.381369185982626,
                -0.44640684476078973,
                0.7789381457993643,
                -3.0647714897426432
            ]
        },
        {
            "positions": [
                0.7191341160990574,
                -1.9622444620337038,
                2.3754826888622866,
                -0.36319927000465724,
                0.7140689275660788,
                -3.060592839475306
            ]
        },
        {
            "positions": [
                0.7092723495514779,
                -1.9090261386628102,
                2.391920532969963,
                -0.4620722601303649,
                0.7188438850827095,
                -3.129934221909167
            ]
        }
    ]
}