{
    "goal": {
        "global_pose": {
            "orientation": {
                "w": -0.4816463035849501,
                "x": 0.5182115481033762,
                "y": 0.4908360881923453,
                "z": -0.5084816262002911
            },
            "position": {
                "x": -0.8240239810943604,
                "y": -0.300875300988555,
                "z": 0.16403168439865112
            }
        },
        "name": "move_to_storage_C"
    },
    "id": "EST_move_to_storage_C_138",
    "joint_names": [
        "shoulder_pan_joint",
        "shoulder_lift_joint",
        "elbow_joint",
        "wrist_1_joint",
        "wrist_2_joint",
        "wrist_3_joint"
    ],
    "metrics": {
        "cart_traj_len": 0.5768216894885776,
        "distance_elbow_joint": 0.25616926741142,
        "distance_shoulder_lift_joint": 0.18994719417028927,
        "distance_shoulder_pan_joint": 0.4953881391850765,
        "distance_wrist_1_joint": 0.07200403320668658,
        "distance_wrist_2_joint": 1.065021065081984,
        "distance_wrist_3_joint": 0.06794578806084273,
        "smoothness": 0.0,
        "time": 0.057691959,
        "traj_len": 1.4650854879891135,
        "weighted_distance": 1.8491598528863467
    },
    "planner": "EST",
    "start": {
        "state": {
            "elbow_joint": 2.010868314990456,
            "shoulder_lift_joint": -1.1634956873337592,
            "shoulder_pan_joint": -2.4736205022346125,
            "wrist_1_joint": -0.8367026794202681,
            "wrist_2_joint": 0.6746043897044499,
            "wrist_3_joint": -3.1496632123970403
        }
    },
    "waypoints": [
        {
            "positions": [
                -2.4736205022346125,
                -1.1634956873337592,
                2.010868314990456,
                -0.8367026794202681,
                0.6746043897044499,
                -3.1496632123970403
            ]
        },
        {
            "positions": [
                -2.556185192098792,
                -1.131837821638711,
                1.9681734370885524,
                -0.8247020072191537,
                0.8521079005514473,
                -3.1383389143868996
            ]
        },
        {
            "positions": [
                -2.6387498819629713,
                -1.1001799559436627,
                1.9254785591866492,
                -0.8127013350180392,
                1.0296114113984447,
                -3.1270146163767594
            ]
        },
        {
            "positions": [
                -2.7213145718271505,
                -1.0685220902486146,
                1.8827836812847458,
                -0.8007006628169249,
                1.207114922245442,
                -3.115690318366619
            ]
        },
        {
            "positions": [
                -2.80387926169133,
                -1.0368642245535664,
                1.8400888033828424,
                -0.7886999906158104,
                1.3846184330924394,
                -3.1043660203564785
            ]
        },
        {
            "positions": [
                -2.88644395155551,
                -1.005206358858518,
                1.7973939254809392,
                -0.776699318414696,
                1.5621219439394367,
                -3.093041722346338
            ]
        },
        {
            "positions": [
                -2.969008641419689,
                -0.9735484931634699,
                1.7546990475790358,
                -0.7646986462135815,
                1.7396254547864338,
                -3.0817174243361976
            ]
        }
    ]
}