{
    "goal": {
        "global_pose": {
            "orientation": {
                "w": 0.005598929693374612,
                "x": 0.007748599140229565,
                "y": 0.7110244013736278,
                "z": -0.7031023480610252
            },
            "position": {
                "x": 0.1141497679147869,
                "y": -0.7141253447532654,
                "z": 0.3711530566215515
            }
        },
        "name": "move_to_auspresseinheit_B"
    },
    "id": "EST_move_to_auspresseinheit_B_131",
    "joint_names": [
        "shoulder_pan_joint",
        "shoulder_lift_joint",
        "elbow_joint",
        "wrist_1_joint",
        "wrist_2_joint",
        "wrist_3_joint"
    ],
    "metrics": {
        "cart_traj_len": 0.5651168321006036,
        "distance_elbow_joint": 0.06344432981136139,
        "distance_shoulder_lift_joint": 0.29352879814305965,
        "distance_shoulder_pan_joint": 0.5787293095354258,
        "distance_wrist_1_joint": 0.32697736935638166,
        "distance_wrist_2_joint": 0.986285657351023,
        "distance_wrist_3_joint": 0.0007295027478511074,
        "smoothness": 5.075305255429287e-16,
        "time": 0.094592378,
        "traj_len": 1.4998983188686834,
        "weighted_distance": 1.8879663660002552
    },
    "planner": "EST",
    "start": {
        "state": {
            "elbow_joint": 2.0193083361928714,
            "shoulder_lift_joint": -1.1220246554650708,
            "shoulder_pan_joint": -1.0952077554168747,
            "wrist_1_joint": -0.8559753972642168,
            "wrist_2_joint": 0.4759566250798843,
            "wrist_3_joint": -3.1240929996934557
        }
    },
    "waypoints": [
        {
            "positions": [
                -1.0952077554168747,
                -1.1220246554650708,
                2.0193083361928714,
                -0.8559753972642168,
                0.4759566250798843,
                -3.1240929996934557
            ]
        },
        {
            "positions": [
                -1.1916626403394457,
                -1.1709461218222474,
                2.008734281224311,
                -0.8014791690381532,
                0.6403375679717215,
                -3.1242145834847643
            ]
        },
        {
            "positions": [
                -1.2881175252620165,
                -1.219867588179424,
                1.998160226255751,
                -0.7469829408120896,
                0.8047185108635586,
                -3.1243361672760726
            ]
        },
        {
            "positions": [
                -1.3845724101845875,
                -1.2687890545366005,
                1.9875861712871907,
                -0.6924867125860259,
                0.9690994537553959,
                -3.124457751067381
            ]
        },
        {
            "positions": [
                -1.4810272951071584,
                -1.3177105208937772,
                1.9770121163186305,
                -0.6379904843599624,
                1.1334803966472329,
                -3.12457933485869
            ]
        },
        {
            "positions": [
                -1.5774821800297296,
                -1.3666319872509538,
                1.9664380613500703,
                -0.5834942561338987,
                1.2978613395390701,
                -3.124700918649998
            ]
        },
        {
            "positions": [
                -1.6739370649523004,
                -1.4155534536081305,
                1.95586400638151,
                -0.5289980279078351,
                1.4622422824309074,
                -3.1248225024413068
            ]
        }
    ]
}