{
    "goal": {
        "global_pose": {
            "orientation": {
                "w": 0.5084816217422485,
                "x": -0.49083608388900757,
                "y": 0.5182115435600281,
                "z": -0.4816462993621826
            },
            "position": {
                "x": 0.5540239810943604,
                "y": 0.030875300988554955,
                "z": 0.16403168439865112
            }
        },
        "name": "move_to_storage_A"
    },
    "id": "EST_move_to_storage_A_149",
    "joint_names": [
        "shoulder_pan_joint",
        "shoulder_lift_joint",
        "elbow_joint",
        "wrist_1_joint",
        "wrist_2_joint",
        "wrist_3_joint"
    ],
    "metrics": {
        "cart_traj_len": 0.3533636908441743,
        "distance_elbow_joint": 0.44839463544650493,
        "distance_shoulder_lift_joint": 0.23275229149898524,
        "distance_shoulder_pan_joint": 0.46334497216753767,
        "distance_wrist_1_joint": 0.23815621893855632,
        "distance_wrist_2_joint": 1.0929217701215668,
        "distance_wrist_3_joint": 0.10209886452790595,
        "smoothness": 1.5543122343307022e-15,
        "time": 0.034238427,
        "traj_len": 1.6055119908306685,
        "weighted_distance": 2.0280395634249824
    },
    "planner": "EST",
    "start": {
        "state": {
            "elbow_joint": 1.971548259319323,
            "shoulder_lift_joint": -1.1394851275133948,
            "shoulder_pan_joint": 0.1228115487234821,
            "wrist_1_joint": -0.7804723859257726,
            "wrist_2_joint": 0.12958671773740124,
            "wrist_3_joint": -3.192489227718131
        }
    },
    "waypoints": [
        {
            "positions": [
                0.1228115487234821,
                -1.1394851275133948,
                1.971548259319323,
                -0.7804723859257726,
                0.12958671773740124,
                -3.192489227718131
            ]
        },
        {
            "positions": [
                0.056619409842405294,
                -1.1727354548703928,
                2.035604635811681,
                -0.814494702916995,
                0.28571839918333936,
                -3.177903675642716
            ]
        },
        {
            "positions": [
                -0.009572729038671512,
                -1.2059857822273905,
                2.099661012304039,
                -0.8485170199082173,
                0.44185008062927744,
                -3.1633181235673007
            ]
        },
        {
            "positions": [
                -0.07576486791974832,
                -1.2392361095843885,
                2.1637173887963965,
                -0.8825393368994396,
                0.5979817620752156,
                -3.1487325714918857
            ]
        },
        {
            "positions": [
                -0.14195700680082513,
                -1.2724864369413864,
                2.227773765288754,
                -0.9165616538906619,
                0.7541134435211537,
                -3.1341470194164707
            ]
        },
        {
            "positions": [
                -0.20814914568190196,
                -1.3057367642983844,
                2.291830141781112,
                -0.9505839708818843,
                0.9102451249670919,
                -3.1195614673410557
            ]
        },
        {
            "positions": [
                -0.27434128456297874,
                -1.338987091655382,
                2.3558865182734703,
                -0.9846062878731066,
                1.06637680641303,
                -3.10497591526564
            ]
        },
        {
            "positions": [
                -0.34053342344405557,
                -1.37223741901238,
                2.419942894765828,
                -1.018628604864329,
                1.222508487858968,
                -3.090390363190225
            ]
        }
    ]
}{
    "goal": {
        "global_pose": {
            "orientation": {
                "w": 0.5084816217422485,
                "x": -0.49083608388900757,
                "y": 0.5182115435600281,
                "z": -0.4816462993621826
            },
            "position": {
                "x": 0.5540239810943604,
                "y": 0.030875300988554955,
                "z": 0.16403168439865112
            }
        },
        "name": "move_to_storage_A"
    },
    "id": "EST_move_to_storage_A_149",
    "joint_names": [
        "shoulder_pan_joint",
        "shoulder_lift_joint",
        "elbow_joint",
        "wrist_1_joint",
        "wrist_2_joint",
        "wrist_3_joint"
    ],
    "metrics": {
        "cart_traj_len": 0.3525662022971498,
        "distance_elbow_joint": 0.4486877838528258,
        "distance_shoulder_lift_joint": 0.2340316940991547,
        "distance_shoulder_pan_joint": 0.46151057226533554,
        "distance_wrist_1_joint": 0.23636007799808278,
        "distance_wrist_2_joint": 1.0956303772436586,
        "distance_wrist_3_joint": 0.09689540918293105,
        "smoothness": 1.1102230263833737e-15,
        "time": 0.061360191999999994,
        "traj_len": 1.6040934868772418,
        "weighted_distance": 2.0245733348657913
    },
    "planner": "EST",
    "start": {
        "state": {
            "elbow_joint": 1.97154746011099,
            "shoulder_lift_joint": -1.13948474672311,
            "shoulder_pan_joint": 0.12281154466712228,
            "wrist_1_joint": -0.7804688027058302,
            "wrist_2_joint": 0.12958655903071145,
            "wrist_3_joint": 3.0906928834467795
        }
    },
    "waypoints": [
        {
            "positions": [
                0.12281154466712228,
                -1.13948474672311,
                1.97154746011099,
                -0.7804688027058302,
                0.12958655903071145,
                3.0906928834467795
            ]
        },
        {
            "positions": [
                0.0568814629149315,
                -1.1729178458801321,
                2.035645714947108,
                -0.8142345281341278,
                0.2861051843512341,
                3.1045350847586266
            ]
        },
        {
            "positions": [
                -0.009048618837259284,
                -1.2063509450371541,
                2.099743969783226,
                -0.8480002535624253,
                0.44262380967175674,
                3.118377286070474
            ]
        },
        {
            "positions": [
                -0.07497870058945007,
                -1.2397840441941763,
                2.163842224619344,
                -0.8817659789907228,
                0.5991424349922794,
                3.1322194873823213
            ]
        },
        {
            "positions": [
                -0.14090878234164084,
                -1.2732171433511983,
                2.227940479455462,
                -0.9155317044190203,
                0.7556610603128021,
                3.146061688694169
            ]
        },
        {
            "positions": [
                -0.20683886409383168,
                -1.3066502425082205,
                2.29203873429158,
                -0.9492974298473179,
                0.9121796856333249,
                3.159903890006016
            ]
        },
        {
            "positions": [
                -0.2727689458460224,
                -1.3400833416652425,
                2.3561369891276978,
                -0.9830631552756154,
                1.0686983109538473,
                3.1737460913178634
            ]
        },
        {
            "positions": [
                -0.33869902759821324,
                -1.3735164408222647,
                2.4202352439638157,
                -1.016828880703913,
                1.2252169362743701,
                3.1875882926297106
            ]
        }
    ]
}{
    "goal": {
        "global_pose": {
            "orientation": {
                "w": 0.5084816217422485,
                "x": -0.49083608388900757,
                "y": 0.5182115435600281,
                "z": -0.4816462993621826
            },
            "position": {
                "x": 0.5540239810943604,
                "y": 0.030875300988554955,
                "z": 0.16403168439865112
            }
        },
        "name": "move_to_storage_A"
    },
    "id": "EST_move_to_storage_A_149",
    "joint_names": [
        "shoulder_pan_joint",
        "shoulder_lift_joint",
        "elbow_joint",
        "wrist_1_joint",
        "wrist_2_joint",
        "wrist_3_joint"
    ],
    "metrics": {
        "cart_traj_len": 0.352912343986455,
        "distance_elbow_joint": 0.4535969182826092,
        "distance_shoulder_lift_joint": 0.23351240641590443,
        "distance_shoulder_pan_joint": 0.4629842388671437,
        "distance_wrist_1_joint": 0.25877545297267157,
        "distance_wrist_2_joint": 1.092014936023711,
        "distance_wrist_3_joint": 0.10107664983753262,
        "smoothness": 2.2204460668324854e-16,
        "time": 0.168802449,
        "traj_len": 1.6130593920868421,
        "weighted_distance": 2.0383582342343605
    },
    "planner": "EST",
    "start": {
        "state": {
            "elbow_joint": 1.9715472970024885,
            "shoulder_lift_joint": -1.1394870060712896,
            "shoulder_pan_joint": 0.12281152778156021,
            "wrist_1_joint": -0.780463741449964,
            "wrist_2_joint": 0.12958659822042276,
            "wrist_3_joint": 3.090690232415272
        }
    },
    "waypoints": [
        {
            "positions": [
                0.12281152778156021,
                -1.1394870060712896,
                1.9715472970024885,
                -0.780463741449964,
                0.12958659822042276,
                3.090690232415272
            ]
        },
        {
            "positions": [
                0.05667092222911112,
                -1.1728459212735616,
                2.036346856757147,
                -0.8174316633032028,
                0.28558873193809575,
                3.1051297538206337
            ]
        },
        {
            "positions": [
                -0.009469683323337974,
                -1.2062048364758338,
                2.1011464165118054,
                -0.8543995851564415,
                0.44159086565576877,
                3.1195692752259956
            ]
        },
        {
            "positions": [
                -0.07561028887578708,
                -1.2395637516781057,
                2.165945976266464,
                -0.8913675070096804,
                0.5975929993734418,
                3.1340087966313575
            ]
        },
        {
            "positions": [
                -0.14175089442823616,
                -1.272922666880378,
                2.2307455360211224,
                -0.9283354288629192,
                0.7535951330911147,
                3.148448318036719
            ]
        },
        {
            "positions": [
                -0.20789149998068526,
                -1.3062815820826499,
                2.295545095775781,
                -0.9653033507161579,
                0.9095972668087877,
                3.1628878394420807
            ]
        },
        {
            "positions": [
                -0.2740321055331344,
                -1.3396404972849218,
                2.3603446555304393,
                -1.0022712725693967,
                1.0655994005264608,
                3.1773273608474426
            ]
        },
        {
            "positions": [
                -0.34017271108558345,
                -1.372999412487194,
                2.4251442152850977,
                -1.0392391944226356,
                1.2216015342441338,
                3.1917668822528045
            ]
        }
    ]
}