{
    "goal": {
        "global_pose": {
            "orientation": {
                "w": 0.5084816262002911,
                "x": -0.4908360881923452,
                "y": 0.5182115481033761,
                "z": -0.48164630358495003
            },
            "position": {
                "x": 0.5540239810943604,
                "y": -0.46912469901144505,
                "z": 0.16403168439865112
            }
        },
        "name": "move_to_storage_B"
    },
    "id": "EST_move_to_storage_B_75",
    "joint_names": [
        "shoulder_pan_joint",
        "shoulder_lift_joint",
        "elbow_joint",
        "wrist_1_joint",
        "wrist_2_joint",
        "wrist_3_joint"
    ],
    "metrics": {
        "cart_traj_len": 4.2894223850468105,
        "distance_elbow_joint": 4.640898189620954,
        "distance_shoulder_lift_joint": 1.3879371669940959,
        "distance_shoulder_pan_joint": 2.4189279794807774,
        "distance_wrist_1_joint": 2.9775585332050203,
        "distance_wrist_2_joint": 2.8572298607557784,
        "distance_wrist_3_joint": 3.3207207837526886,
        "smoothness": 0.4445952332386827,
        "time": 0.201187448,
        "traj_len": 4.195625401988279,
        "weighted_distance": 5.4844783229834615
    },
    "planner": "EST",
    "start": {
        "state": {
            "elbow_joint": 1.664937868594044,
            "shoulder_lift_joint": -0.661644460510453,
            "shoulder_pan_joint": -0.9139846352900073,
            "wrist_1_joint": 2.146753192139373,
            "wrist_2_joint": -2.2341966793290973,
            "wrist_3_joint": 0.005466555786416001
        }
    },
    "waypoints": [
        {
            "positions": [
                -0.9139846352900073,
                -0.661644460510453,
                1.664937868594044,
                2.146753192139373,
                -2.2341966793290973,
                0.005466555786416001
            ]
        },
        {
            "positions": [
                -0.8258864029412178,
                -0.7003561882348364,
                1.614265547328071,
                2.0657656093055152,
                -2.273049706226713,
                -0.04111611835425403
            ]
        },
        {
            "positions": [
                -0.7377881705924285,
                -0.7390679159592198,
                1.5635932260620982,
                1.9847780264716568,
                -2.3119027331243283,
                -0.08769879249492406
            ]
        },
        {
            "positions": [
                -0.6906808199974448,
                -0.7813278853238625,
                1.4613301300395465,
                1.9109662239191916,
                -2.2192224521502357,
                -0.06436050096481194
            ]
        },
        {
            "positions": [
                -0.6435734694024611,
                -0.8235878546885054,
                1.3590670340169946,
                1.8371544213667264,
                -2.1265421711761436,
                -0.04102220943469982
            ]
        },
        {
            "positions": [
                -0.5964661188074774,
                -0.8658478240531481,
                1.2568039379944431,
                1.7633426188142611,
                -2.033861890202051,
                -0.017683917904587718
            ]
        },
        {
            "positions": [
                -0.5493587682124935,
                -0.9081077934177908,
                1.1545408419718912,
                1.689530816261796,
                -1.9411816092279588,
                0.005654373625524414
            ]
        },
        {
            "positions": [
                -0.5022514176175098,
                -0.9503677627824335,
                1.0522777459493395,
                1.615719013709331,
                -1.8485013282538665,
                0.02899266515563652
            ]
        },
        {
            "positions": [
                -0.4551440670225261,
                -0.9926277321470762,
                0.9500146499267879,
                1.5419072111568657,
                -1.7558210472797742,
                0.05233095668574862
            ]
        },
        {
            "positions": [
                -0.40803671642754236,
                -1.034887701511719,
                0.8477515539042362,
                1.4680954086044005,
                -1.6631407663056819,
                0.07566924821586073
            ]
        },
        {
            "positions": [
                -0.3609293658325586,
                -1.0771476708763617,
                0.7454884578816843,
                1.394283606051935,
                -1.5704604853315893,
                0.09900753974597289
            ]
        },
        {
            "positions": [
                -0.31382201523757486,
                -1.1194076402410045,
                0.6432253618591326,
                1.32047180349947,
                -1.477780204357497,
                0.12234583127608499
            ]
        },
        {
            "positions": [
                -0.26671466464259114,
                -1.1616676096056473,
                0.5409622658365809,
                1.2466600009470048,
                -1.3850999233834047,
                0.14568412280619708
            ]
        },
        {
            "positions": [
                -0.21960731404760736,
                -1.2039275789702901,
                0.438699169814029,
                1.1728481983945396,
                -1.2924196424093122,
                0.1690224143363092
            ]
        },
        {
            "positions": [
                -0.17249996345262364,
                -1.2461875483349327,
                0.33643607379147755,
                1.0990363958420746,
                -1.19973936143522,
                0.1923607058664213
            ]
        },
        {
            "positions": [
                -0.12539261285763992,
                -1.2884475176995753,
                0.23417297776892565,
                1.0252245932896091,
                -1.1070590804611276,
                0.21569899739653342
            ]
        },
        {
            "positions": [
                -0.0782852622626562,
                -1.3307074870642182,
                0.1319098817463742,
                0.9514127907371441,
                -1.0143787994870355,
                0.2390372889266455
            ]
        },
        {
            "positions": [
                -0.031177911667672475,
                -1.372967456428861,
                0.02964678572382229,
                0.8776009881846787,
                -0.9216985185129429,
                0.2623755804567577
            ]
        },
        {
            "positions": [
                0.015929438927311357,
                -1.4152274257935038,
                -0.07261631029872961,
                0.8037891856322135,
                -0.8290182375388504,
                0.2857138719868698
            ]
        },
        {
            "positions": [
                0.06303678952229497,
                -1.4574873951581464,
                -0.17487940632128107,
                0.7299773830797485,
                -0.7363379565647583,
                0.3090521635169819
            ]
        },
        {
            "positions": [
                0.1101441401172788,
                -1.4997473645227892,
                -0.277142502343833,
                0.6561655805272832,
                -0.6436576755906658,
                0.332390455047094
            ]
        },
        {
            "positions": [
                0.1572514907122624,
                -1.5420073338874318,
                -0.37940559836638443,
                0.582353777974818,
                -0.5509773946165737,
                0.3557287465772061
            ]
        },
        {
            "positions": [
                0.20435884130724624,
                -1.5842673032520747,
                -0.48166869438893617,
                0.5085419754223529,
                -0.45829711364248127,
                0.37906703810731823
            ]
        },
        {
            "positions": [
                0.1501678203537662,
                -1.5648792064082215,
                -0.377739876612354,
                0.452735837235353,
                -0.41971718916420214,
                0.49409993831019766
            ]
        },
        {
            "positions": [
                0.09597679940028614,
                -1.5454911095643684,
                -0.27381105883577184,
                0.39692969904835307,
                -0.38113726468592307,
                0.6091328385130771
            ]
        },
        {
            "positions": [
                0.04178577844680609,
                -1.5261030127205153,
                -0.16988224105918964,
                0.3411235608613531,
                -0.34255734020764395,
                0.7241657387159566
            ]
        },
        {
            "positions": [
                -0.012405242506673964,
                -1.5067149158766622,
                -0.0659534232826075,
                0.28531742267435317,
                -0.3039774157293649,
                0.839198638918836
            ]
        },
        {
            "positions": [
                -0.06659626346015401,
                -1.4873268190328093,
                0.037975394493974746,
                0.2295112844873532,
                -0.2653974912510857,
                0.9542315391217155
            ]
        },
        {
            "positions": [
                -0.12078728441363407,
                -1.4679387221889562,
                0.14190421227055688,
                0.17370514630035327,
                -0.22681756677280662,
                1.069264439324595
            ]
        },
        {
            "positions": [
                -0.17497830536711412,
                -1.448550625345103,
                0.24583303004713913,
                0.1178990081133533,
                -0.1882376422945275,
                1.1842973395274745
            ]
        },
        {
            "positions": [
                -0.22916932632059417,
                -1.42916252850125,
                0.34976184782372116,
                0.06209286992635343,
                -0.14965771781624843,
                1.2993302397303537
            ]
        },
        {
            "positions": [
                -0.2833603472740742,
                -1.4097744316573968,
                0.4536906656003034,
                0.006286731739353457,
                -0.1110777933379693,
                1.4143631399332333
            ]
        },
        {
            "positions": [
                -0.33755136822755427,
                -1.3903863348135437,
                0.5576194833768857,
                -0.04951940644764652,
                -0.07249786885969017,
                1.5293960401361129
            ]
        },
        {
            "positions": [
                -0.3917423891810343,
                -1.3709982379696906,
                0.6615483011534677,
                -0.10532554463464638,
                -0.0339179443814111,
                1.644428940338992
            ]
        },
        {
            "positions": [
                -0.4459334101345144,
                -1.3516101411258377,
                0.76547711893005,
                -0.16113168282164636,
                0.004661980096868024,
                1.7594618405418716
            ]
        },
        {
            "positions": [
                -0.5001244310879944,
                -1.3322220442819845,
                0.869405936706632,
                -0.21693782100864623,
                0.043241904575147094,
                1.874494740744751
            ]
        },
        {
            "positions": [
                -0.5543154520414745,
                -1.3128339474381314,
                0.9733347544832145,
                -0.2727439591956463,
                0.08182182905342628,
                1.9895276409476306
            ]
        },
        {
            "positions": [
                -0.6085064729949545,
                -1.2934458505942783,
                1.0772635722597965,
                -0.3285500973826462,
                0.12040175353170535,
                2.10456054115051
            ]
        },
        {
            "positions": [
                -0.6626974939484346,
                -1.2740577537504252,
                1.1811923900363785,
                -0.38435623556964604,
                0.15898167800998442,
                2.219593441353389
            ]
        },
        {
            "positions": [
                -0.7168885149019146,
                -1.254669656906572,
                1.285121207812961,
                -0.44016237375664613,
                0.1975616024882636,
                2.3346263415562687
            ]
        },
        {
            "positions": [
                -0.7710795358553947,
                -1.235281560062719,
                1.389050025589543,
                -0.495968511943646,
                0.23614152696654267,
                2.4496592417591483
            ]
        },
        {
            "positions": [
                -0.8252705568088746,
                -1.2158934632188658,
                1.492978843366125,
                -0.5517746501306459,
                0.27472145144482174,
                2.5646921419620274
            ]
        },
        {
            "positions": [
                -0.8794615777623548,
                -1.1965053663750127,
                1.5969076611427075,
                -0.607580788317646,
                0.3133013759231009,
                2.6797250421649075
            ]
        },
        {
            "positions": [
                -0.933652598715835,
                -1.1771172695311596,
                1.7008364789192894,
                -0.6633869265046458,
                0.35188130040138,
                2.7947579423677866
            ]
        },
        {
            "positions": [
                -0.9878436196693149,
                -1.1577291726873067,
                1.8047652966958716,
                -0.7191930646916457,
                0.39046122487965906,
                2.909790842570666
            ]
        },
        {
            "positions": [
                -1.042034640622795,
                -1.1383410758434536,
                1.9086941144724539,
                -0.7749992028786458,
                0.42904114935793825,
                3.024823742773546
            ]
        },
        {
            "positions": [
                -1.096225661576275,
                -1.1189529789996004,
                2.012622932249036,
                -0.8308053410656455,
                0.46762107383621726,
                3.139856642976425
            ]
        }
    ]
}