{
    "goal": {
        "global_pose": {
            "orientation": {
                "w": -0.4816463035849501,
                "x": 0.5182115481033762,
                "y": 0.4908360881923453,
                "z": -0.5084816262002911
            },
            "position": {
                "x": -0.8240239810943604,
                "y": 0.19912469901144506,
                "z": 0.16403168439865112
            }
        },
        "name": "move_to_storage_D"
    },
    "id": "EST_move_to_storage_D_29",
    "joint_names": [
        "shoulder_pan_joint",
        "shoulder_lift_joint",
        "elbow_joint",
        "wrist_1_joint",
        "wrist_2_joint",
        "wrist_3_joint"
    ],
    "metrics": {
        "cart_traj_len": 4.372625612035843,
        "distance_elbow_joint": 4.213176983607843,
        "distance_shoulder_lift_joint": 1.2656451197924068,
        "distance_shoulder_pan_joint": 2.8137523419603525,
        "distance_wrist_1_joint": 3.7390964425526017,
        "distance_wrist_2_joint": 0.8804757279305298,
        "distance_wrist_3_joint": 3.1607562269957685,
        "smoothness": 0.20113034012124847,
        "time": 0.135671096,
        "traj_len": 4.009102498420251,
        "weighted_distance": 5.197498193103503
    },
    "planner": "EST",
    "start": {
        "state": {
            "elbow_joint": -2.384821988534728,
            "shoulder_lift_joint": -2.2788054721415256,
            "shoulder_pan_joint": -0.1854694642142757,
            "wrist_1_joint": 1.4845938289331202,
            "wrist_2_joint": 0.17898776772866878,
            "wrist_3_joint": 0.037105688729662994
        }
    },
    "waypoints": [
        {
            "positions": [
                -0.1854694642142757,
                -2.2788054721415256,
                -2.384821988534728,
                1.4845938289331202,
                0.17898776772866878,
                0.037105688729662994
            ]
        },
        {
            "positions": [
                -0.14994729878611984,
                -2.263084772537667,
                -2.3802258444348263,
                1.4810612675912205,
                0.17617381510987656,
                0.05562873154040172
            ]
        },
        {
            "positions": [
                -0.0750609454341334,
                -2.23226674910971,
                -2.303987562621421,
                1.3442081917606787,
                0.189710829171112,
                -0.003993135280975238
            ]
        },
        {
            "positions": [
                -0.0001745920821469571,
                -2.201448725681753,
                -2.2277492808080153,
                1.2073551159301368,
                0.20324784323234746,
                -0.06361500210235219
            ]
        },
        {
            "positions": [
                0.07471176126983947,
                -2.170630702253796,
                -2.1515109989946097,
                1.070502040099595,
                0.2167848572935829,
                -0.12323686892372915
            ]
        },
        {
            "positions": [
                0.14959811462182593,
                -2.139812678825839,
                -2.075272717181204,
                0.9336489642690532,
                0.23032187135481835,
                -0.1828587357451061
            ]
        },
        {
            "positions": [
                0.22448446797381238,
                -2.1089946553978822,
                -1.9990344353677985,
                0.7967958884385115,
                0.24385888541605383,
                -0.24248060256648307
            ]
        },
        {
            "positions": [
                0.2993708213257988,
                -2.0781766319699253,
                -1.922796153554393,
                0.6599428126079696,
                0.25739589947728925,
                -0.30210246938786
            ]
        },
        {
            "positions": [
                0.37425717467778524,
                -2.0473586085419684,
                -1.8465578717409874,
                0.5230897367774278,
                0.2709329135385247,
                -0.36172433620923694
            ]
        },
        {
            "positions": [
                0.4491435280297717,
                -2.0165405851140115,
                -1.7703195899275816,
                0.3862366609468859,
                0.2844699275997602,
                -0.42134620303061393
            ]
        },
        {
            "positions": [
                0.5240298813817583,
                -1.9857225616860548,
                -1.6940813081141761,
                0.24938358511634395,
                0.2980069416609956,
                -0.4809680698519909
            ]
        },
        {
            "positions": [
                0.5989162347337447,
                -1.9549045382580978,
                -1.6178430263007706,
                0.11253050928580244,
                0.31154395572223104,
                -0.5405899366733679
            ]
        },
        {
            "positions": [
                0.673802588085731,
                -1.924086514830141,
                -1.541604744487365,
                -0.02432256654473952,
                0.3250809697834665,
                -0.6002118034947448
            ]
        },
        {
            "positions": [
                0.7486889414377174,
                -1.893268491402184,
                -1.4653664626739595,
                -0.16117564237528126,
                0.338617983844702,
                -0.6598336703161217
            ]
        },
        {
            "positions": [
                0.8235752947897039,
                -1.862450467974227,
                -1.389128180860554,
                -0.2980287182058232,
                0.3521549979059374,
                -0.7194555371374988
            ]
        },
        {
            "positions": [
                0.8984616481416903,
                -1.8316324445462702,
                -1.3128898990471485,
                -0.43488179403636495,
                0.3656920119671728,
                -0.7790774039588756
            ]
        },
        {
            "positions": [
                0.9733480014936766,
                -1.8008144211183135,
                -1.236651617233743,
                -0.5717348698669065,
                0.3792290260284083,
                -0.8386992707802525
            ]
        },
        {
            "positions": [
                1.0482343548456632,
                -1.7699963976903565,
                -1.1604133354203372,
                -0.7085879456974487,
                0.3927660400896438,
                -0.8983211376016296
            ]
        },
        {
            "positions": [
                1.1231207081976498,
                -1.7391783742623996,
                -1.0841750536069317,
                -0.8454410215279904,
                0.4063030541508792,
                -0.9579430044230065
            ]
        },
        {
            "positions": [
                1.1980070615496363,
                -1.7083603508344427,
                -1.007936771793526,
                -0.9822940973585326,
                0.41984006821211467,
                -1.0175648712443834
            ]
        },
        {
            "positions": [
                1.2728934149016227,
                -1.6775423274064858,
                -0.9316984899801204,
                -1.1191471731890743,
                0.4333770822733501,
                -1.0771867380657603
            ]
        },
        {
            "positions": [
                1.347779768253609,
                -1.6467243039785289,
                -0.8554602081667151,
                -1.2560002490196156,
                0.44691409633458556,
                -1.1368086048871373
            ]
        },
        {
            "positions": [
                1.4226661216055956,
                -1.615906280550572,
                -0.7792219263533093,
                -1.3928533248501578,
                0.46045111039582104,
                -1.1964304717085144
            ]
        },
        {
            "positions": [
                1.497552474957582,
                -1.585088257122615,
                -0.7029836445399037,
                -1.5297064006806995,
                0.47398812445705646,
                -1.2560523385298912
            ]
        },
        {
            "positions": [
                1.5570646014201344,
                -1.5549867884503257,
                -0.569755295086587,
                -1.4915592315786583,
                0.5045064121394016,
                -1.352397186641193
            ]
        },
        {
            "positions": [
                1.6165767278826866,
                -1.5248853197780365,
                -0.4365269456332702,
                -1.4534120624766171,
                0.5350246998217467,
                -1.448742034752495
            ]
        },
        {
            "positions": [
                1.676088854345239,
                -1.4947838511057472,
                -0.3032985961799534,
                -1.415264893374576,
                0.5655429875040918,
                -1.5450868828637971
            ]
        },
        {
            "positions": [
                1.7356009808077915,
                -1.464682382433458,
                -0.17007024672663673,
                -1.377117724272535,
                0.596061275186437,
                -1.641431730975099
            ]
        },
        {
            "positions": [
                1.795113107270344,
                -1.4345809137611687,
                -0.03684189727331999,
                -1.3389705551704938,
                0.6265795628687821,
                -1.7377765790864008
            ]
        },
        {
            "positions": [
                1.8546252337328961,
                -1.4044794450888793,
                0.09638645217999686,
                -1.3008233860684526,
                0.6570978505511272,
                -1.8341214271977029
            ]
        },
        {
            "positions": [
                1.9141373601954486,
                -1.3743779764165902,
                0.2296148016333136,
                -1.2626762169664114,
                0.6876161382334725,
                -1.930466275309005
            ]
        },
        {
            "positions": [
                1.973649486658001,
                -1.3442765077443009,
                0.36284315108663023,
                -1.2245290478643702,
                0.7181344259158176,
                -2.026811123420307
            ]
        },
        {
            "positions": [
                2.033161613120553,
                -1.3141750390720115,
                0.4960715005399471,
                -1.186381878762329,
                0.7486527135981627,
                -2.1231559715316086
            ]
        },
        {
            "positions": [
                2.0926737395831054,
                -1.2840735703997224,
                0.6292998499932637,
                -1.1482347096602878,
                0.7791710012805078,
                -2.219500819642911
            ]
        },
        {
            "positions": [
                2.152185866045658,
                -1.253972101727433,
                0.7625281994465808,
                -1.1100875405582467,
                0.809689288962853,
                -2.3158456677542127
            ]
        },
        {
            "positions": [
                2.2116979925082103,
                -1.2238706330551437,
                0.8957565488998974,
                -1.0719403714562055,
                0.8402075766451981,
                -2.4121905158655146
            ]
        },
        {
            "positions": [
                2.271210118970763,
                -1.1937691643828545,
                1.0289848983532144,
                -1.0337932023541643,
                0.8707258643275433,
                -2.508535363976817
            ]
        },
        {
            "positions": [
                2.330722245433315,
                -1.1636676957105652,
                1.1622132478065308,
                -0.9956460332521232,
                0.9012441520098884,
                -2.6048802120881183
            ]
        },
        {
            "positions": [
                2.3902343718958674,
                -1.1335662270382758,
                1.2954415972598476,
                -0.957498864150082,
                0.9317624396922335,
                -2.7012250601994205
            ]
        },
        {
            "positions": [
                2.44974649835842,
                -1.1034647583659867,
                1.428669946713164,
                -0.9193516950480409,
                0.9622807273745786,
                -2.7975699083107224
            ]
        },
        {
            "positions": [
                2.5092586248209727,
                -1.0733632896936973,
                1.561898296166481,
                -0.8812045259459997,
                0.9927990150569237,
                -2.8939147564220242
            ]
        },
        {
            "positions": [
                2.568770751283525,
                -1.0432618210214082,
                1.6951266456197978,
                -0.8430573568439585,
                1.0233173027392688,
                -2.9902596045333265
            ]
        },
        {
            "positions": [
                2.628282877746077,
                -1.0131603523491188,
                1.8283549950731146,
                -0.8049101877419174,
                1.0538355904216141,
                -3.0866044526446283
            ]
        }
    ]
}