{
    "goal": {
        "global_pose": {
            "orientation": {
                "w": 0.5084816262002911,
                "x": -0.4908360881923452,
                "y": 0.5182115481033761,
                "z": -0.48164630358495003
            },
            "position": {
                "x": 0.5540239810943604,
                "y": -0.46912469901144505,
                "z": 0.16403168439865112
            }
        },
        "name": "move_to_storage_B"
    },
    "id": "EST_move_to_storage_B_115",
    "joint_names": [
        "shoulder_pan_joint",
        "shoulder_lift_joint",
        "elbow_joint",
        "wrist_1_joint",
        "wrist_2_joint",
        "wrist_3_joint"
    ],
    "metrics": {
        "cart_traj_len": 1.583228593327652,
        "distance_elbow_joint": 0.7478785042476446,
        "distance_shoulder_lift_joint": 1.6256058699006788,
        "distance_shoulder_pan_joint": 1.168881177079337,
        "distance_wrist_1_joint": 3.243373335509463,
        "distance_wrist_2_joint": 2.733747895788123,
        "distance_wrist_3_joint": 3.2326229810913,
        "smoothness": 0.5424603189495463,
        "time": 0.06553929,
        "traj_len": 3.5710096280487047,
        "weighted_distance": 5.019410020818855
    },
    "planner": "EST",
    "start": {
        "state": {
            "elbow_joint": 1.664937868594044,
            "shoulder_lift_joint": -0.661644460510453,
            "shoulder_pan_joint": -0.9139846352900073,
            "wrist_1_joint": 2.146753192139373,
            "wrist_2_joint": -2.2341966793290973,
            "wrist_3_joint": 0.005466555786416001
        }
    },
    "waypoints": [
        {
            "positions": [
                -0.9139846352900073,
                -0.661644460510453,
                1.664937868594044,
                2.146753192139373,
                -2.2341966793290973,
                0.005466555786416001
            ]
        },
        {
            "positions": [
                -0.7881274425099944,
                -0.6998873119478553,
                1.5653771668346015,
                2.2125039330010403,
                -2.2420611433169264,
                -0.017401153397203467
            ]
        },
        {
            "positions": [
                -0.6622702497299817,
                -0.7381301633852576,
                1.4658164650751593,
                2.2782546738627074,
                -2.2499256073047555,
                -0.040268862580822934
            ]
        },
        {
            "positions": [
                -0.6998147790401172,
                -0.7917933882183922,
                1.4797906749031864,
                2.2088070456949325,
                -2.1217270707888556,
                0.033385620746939695
            ]
        },
        {
            "positions": [
                -0.7373593083502527,
                -0.8454566130515269,
                1.4937648847312137,
                2.1393594175271575,
                -1.9935285342729556,
                0.10704010407470232
            ]
        },
        {
            "positions": [
                -0.7749038376603882,
                -0.8991198378846614,
                1.5077390945592408,
                2.0699117893593826,
                -1.8653299977570559,
                0.18069458740246497
            ]
        },
        {
            "positions": [
                -0.8124483669705236,
                -0.952783062717796,
                1.521713304387268,
                2.0004641611916076,
                -1.737131461241156,
                0.2543490707302276
            ]
        },
        {
            "positions": [
                -0.8499928962806591,
                -1.0064462875509306,
                1.535687514215295,
                1.9310165330238327,
                -1.608932924725256,
                0.3280035540579903
            ]
        },
        {
            "positions": [
                -0.8875374255907946,
                -1.0601095123840651,
                1.5496617240433224,
                1.861568904856058,
                -1.4807343882093562,
                0.4016580373857529
            ]
        },
        {
            "positions": [
                -0.9250819549009301,
                -1.1137727372171997,
                1.5636359338713495,
                1.792121276688283,
                -1.3525358516934562,
                0.4753125207135155
            ]
        },
        {
            "positions": [
                -0.9626264842110656,
                -1.1674359620503343,
                1.5776101436993766,
                1.722673648520508,
                -1.2243373151775563,
                0.5489670040412781
            ]
        },
        {
            "positions": [
                -1.000171013521201,
                -1.221099186883469,
                1.591584353527404,
                1.6532260203527331,
                -1.0961387786616563,
                0.6226214873690408
            ]
        },
        {
            "positions": [
                -1.0377155428313367,
                -1.2747624117166036,
                1.605558563355431,
                1.5837783921849582,
                -0.9679402421457564,
                0.6962759706968035
            ]
        },
        {
            "positions": [
                -1.075260072141472,
                -1.3284256365497382,
                1.6195327731834581,
                1.5143307640171833,
                -0.8397417056298564,
                0.7699304540245661
            ]
        },
        {
            "positions": [
                -1.1128046014516075,
                -1.3820888613828728,
                1.6335069830114852,
                1.4448831358494085,
                -0.7115431691139567,
                0.8435849373523286
            ]
        },
        {
            "positions": [
                -1.150349130761743,
                -1.4357520862160076,
                1.6474811928395126,
                1.3754355076816336,
                -0.5833446325980567,
                0.9172394206800913
            ]
        },
        {
            "positions": [
                -1.1878936600718784,
                -1.4894153110491422,
                1.6614554026675397,
                1.3059878795138586,
                -0.4551460960821567,
                0.9908939040078539
            ]
        },
        {
            "positions": [
                -1.225438189382014,
                -1.5430785358822767,
                1.6754296124955668,
                1.2365402513460835,
                -0.32694755956625676,
                1.0645483873356167
            ]
        },
        {
            "positions": [
                -1.2629827186921494,
                -1.5967417607154113,
                1.6894038223235939,
                1.1670926231783088,
                -0.19874902305035702,
                1.138202870663379
            ]
        },
        {
            "positions": [
                -1.300527248002285,
                -1.6504049855485459,
                1.7033780321516212,
                1.0976449950105338,
                -0.07055048653445706,
                1.211857353991142
            ]
        },
        {
            "positions": [
                -1.3380717773124204,
                -1.7040682103816804,
                1.7173522419796483,
                1.0281973668427589,
                0.05764804998144282,
                1.2855118373189045
            ]
        },
        {
            "positions": [
                -1.3208314013169296,
                -1.662412344665291,
                1.738582336538525,
                0.8952106135023173,
                0.08696557216189034,
                1.4184480418063568
            ]
        },
        {
            "positions": [
                -1.3035910253214387,
                -1.6207564789489017,
                1.7598124310974013,
                0.7622238601618758,
                0.11628309434233786,
                1.5513842462938092
            ]
        },
        {
            "positions": [
                -1.2863506493259478,
                -1.5791006132325123,
                1.7810425256562779,
                0.6292371068214344,
                0.1456006165227854,
                1.6843204507812617
            ]
        },
        {
            "positions": [
                -1.2691102733304567,
                -1.537444747516123,
                1.8022726202151542,
                0.4962503534809929,
                0.17491813870323292,
                1.817256655268714
            ]
        },
        {
            "positions": [
                -1.2518698973349658,
                -1.4957888817997336,
                1.8235027147740308,
                0.36326360014055137,
                0.20423566088368045,
                1.9501928597561664
            ]
        },
        {
            "positions": [
                -1.234629521339475,
                -1.454133016083344,
                1.8447328093329072,
                0.23027684680010985,
                0.23355318306412795,
                2.083129064243619
            ]
        },
        {
            "positions": [
                -1.217389145343984,
                -1.4124771503669549,
                1.8659629038917838,
                0.09729009345966833,
                0.26287070524457545,
                2.216065268731071
            ]
        },
        {
            "positions": [
                -1.2001487693484931,
                -1.3708212846505654,
                1.8871929984506601,
                -0.035696659880773085,
                0.292188227425023,
                2.3490014732185234
            ]
        },
        {
            "positions": [
                -1.1829083933530022,
                -1.329165418934176,
                1.9084230930095367,
                -0.16868341322121472,
                0.3215057496054705,
                2.481937677705976
            ]
        },
        {
            "positions": [
                -1.1656680173575111,
                -1.2875095532177867,
                1.9296531875684133,
                -0.30167016656165613,
                0.3508232717859181,
                2.6148738821934283
            ]
        },
        {
            "positions": [
                -1.1484276413620202,
                -1.2458536875013972,
                1.9508832821272897,
                -0.43465691990209776,
                0.3801407939663656,
                2.7478100866808806
            ]
        },
        {
            "positions": [
                -1.1311872653665294,
                -1.2041978217850078,
                1.9721133766861663,
                -0.5676436732425392,
                0.40945831614681305,
                2.880746291168333
            ]
        },
        {
            "positions": [
                -1.1139468893710385,
                -1.1625419560686185,
                1.9933434712450429,
                -0.7006304265829808,
                0.43877583832726064,
                3.0136824956557855
            ]
        },
        {
            "positions": [
                -1.0967065133755476,
                -1.120886090352229,
                2.014573565803919,
                -0.8336171799234221,
                0.46809336050770817,
                3.1466187001432377
            ]
        }
    ]
}