{
    "goal": {
        "global_pose": {
            "orientation": {
                "w": -0.4816463035849501,
                "x": 0.5182115481033762,
                "y": 0.4908360881923453,
                "z": -0.5084816262002911
            },
            "position": {
                "x": -0.8240239810943604,
                "y": -0.300875300988555,
                "z": 0.16403168439865112
            }
        },
        "name": "move_to_storage_C"
    },
    "id": "EST_move_to_storage_C_64",
    "joint_names": [
        "shoulder_pan_joint",
        "shoulder_lift_joint",
        "elbow_joint",
        "wrist_1_joint",
        "wrist_2_joint",
        "wrist_3_joint"
    ],
    "metrics": {
        "cart_traj_len": 0.5768122213523854,
        "distance_elbow_joint": 0.2555824195834786,
        "distance_shoulder_lift_joint": 0.1900176096121341,
        "distance_shoulder_pan_joint": 0.4940416764536262,
        "distance_wrist_1_joint": 0.06743856765771072,
        "distance_wrist_2_joint": 1.074983972762352,
        "distance_wrist_3_joint": 0.05845576210491954,
        "smoothness": 0.0,
        "time": 0.026124435,
        "traj_len": 1.4630516081718448,
        "weighted_distance": 1.8438693209672217
    },
    "planner": "EST",
    "start": {
        "state": {
            "elbow_joint": 2.010868314990456,
            "shoulder_lift_joint": -1.1634956873337592,
            "shoulder_pan_joint": -2.4736205022346125,
            "wrist_1_joint": -0.8367026794202681,
            "wrist_2_joint": 0.6746043897044499,
            "wrist_3_joint": -3.1496632123970403
        }
    },
    "waypoints": [
        {
            "positions": [
                -2.4736205022346125,
                -1.1634956873337592,
                2.010868314990456,
                -0.8367026794202681,
                0.6746043897044499,
                -3.1496632123970403
            ]
        },
        {
            "positions": [
                -2.55596078164355,
                -1.1318260857317368,
                1.968271245059876,
                -0.825462918143983,
                0.8537683851648419,
                -3.1399205853795538
            ]
        },
        {
            "positions": [
                -2.6383010610524877,
                -1.1001564841297145,
                1.9256741751292963,
                -0.8142231568676979,
                1.032932380625234,
                -3.1301779583620672
            ]
        },
        {
            "positions": [
                -2.720641340461426,
                -1.068486882527692,
                1.8830771051987165,
                -0.8029833955914127,
                1.212096376085626,
                -3.1204353313445807
            ]
        },
        {
            "positions": [
                -2.8029816198703634,
                -1.0368172809256697,
                1.8404800352681367,
                -0.7917436343151276,
                1.391260371546018,
                -3.1106927043270938
            ]
        },
        {
            "positions": [
                -2.885321899279301,
                -1.0051476793236473,
                1.797882965337557,
                -0.7805038730388425,
                1.57042436700641,
                -3.1009500773096073
            ]
        },
        {
            "positions": [
                -2.9676621786882387,
                -0.9734780777216251,
                1.7552858954069772,
                -0.7692641117625574,
                1.749588362466802,
                -3.0912074502921207
            ]
        }
    ]
}