{
    "goal": {
        "global_pose": {
            "orientation": {
                "w": -0.4816463035849501,
                "x": 0.5182115481033762,
                "y": 0.4908360881923453,
                "z": -0.5084816262002911
            },
            "position": {
                "x": -0.8240239810943604,
                "y": 0.19912469901144506,
                "z": 0.16403168439865112
            }
        },
        "name": "move_to_storage_D"
    },
    "id": "EST_move_to_storage_D_54",
    "joint_names": [
        "shoulder_pan_joint",
        "shoulder_lift_joint",
        "elbow_joint",
        "wrist_1_joint",
        "wrist_2_joint",
        "wrist_3_joint"
    ],
    "metrics": {
        "cart_traj_len": 4.083644749017562,
        "distance_elbow_joint": 4.209252403033499,
        "distance_shoulder_lift_joint": 1.2654969297796745,
        "distance_shoulder_pan_joint": 2.8146754843145865,
        "distance_wrist_1_joint": 2.2707793580925304,
        "distance_wrist_2_joint": 2.0311314380580345,
        "distance_wrist_3_joint": 3.14998747873989,
        "smoothness": 0.0933378894630446,
        "time": 0.14543728,
        "traj_len": 3.96753362834119,
        "weighted_distance": 5.132563574438077
    },
    "planner": "EST",
    "start": {
        "state": {
            "elbow_joint": -2.384821988534728,
            "shoulder_lift_joint": -2.2788054721415256,
            "shoulder_pan_joint": -0.1854694642142757,
            "wrist_1_joint": 1.4845938289331202,
            "wrist_2_joint": 0.17898776772866878,
            "wrist_3_joint": 0.037105688729662994
        }
    },
    "waypoints": [
        {
            "positions": [
                -0.1854694642142757,
                -2.2788054721415256,
                -2.384821988534728,
                1.4845938289331202,
                0.17898776772866878,
                0.037105688729662994
            ]
        },
        {
            "positions": [
                -0.1037703459485436,
                -2.243121808841018,
                -2.2744196566425288,
                1.4182989998454802,
                0.2245453204919364,
                0.08469709212003478
            ]
        },
        {
            "positions": [
                -0.0220712276828115,
                -2.2074381455405105,
                -2.1640173247503296,
                1.3520041707578403,
                0.270102873255204,
                0.13228849551040656
            ]
        },
        {
            "positions": [
                0.05962789058292059,
                -2.171754482240003,
                -2.0536149928581304,
                1.2857093416702003,
                0.3156604260184716,
                0.17987989890077835
            ]
        },
        {
            "positions": [
                0.1413270088486527,
                -2.1360708189394955,
                -1.9432126609659313,
                1.2194145125825604,
                0.3612179787817392,
                0.22747130229115012
            ]
        },
        {
            "positions": [
                0.22302612711438483,
                -2.100387155638988,
                -1.832810329073732,
                1.1531196834949204,
                0.40677553154500684,
                0.2750627056815219
            ]
        },
        {
            "positions": [
                0.3047252453801169,
                -2.0647034923384804,
                -1.722407997181533,
                1.0868248544072805,
                0.45233308430827446,
                0.32265410907189374
            ]
        },
        {
            "positions": [
                0.3864243636458491,
                -2.029019829037973,
                -1.6120056652893338,
                1.0205300253196405,
                0.497890637071542,
                0.37024551246226545
            ]
        },
        {
            "positions": [
                0.46812348191158115,
                -1.9933361657374655,
                -1.5016033333971346,
                0.9542351962320007,
                0.5434481898348097,
                0.41783691585263727
            ]
        },
        {
            "positions": [
                0.5498226001773132,
                -1.957652502436958,
                -1.3912010015049354,
                0.8879403671443608,
                0.5890057425980773,
                0.465428319243009
            ]
        },
        {
            "positions": [
                0.6315217184430454,
                -1.9219688391364504,
                -1.280798669612736,
                0.8216455380567208,
                0.6345632953613449,
                0.5130197226333808
            ]
        },
        {
            "positions": [
                0.7132208367087775,
                -1.8862851758359431,
                -1.1703963377205369,
                0.7553507089690809,
                0.6801208481246125,
                0.5606111260237526
            ]
        },
        {
            "positions": [
                0.7949199549745095,
                -1.8506015125354356,
                -1.0599940058283377,
                0.689055879881441,
                0.72567840088788,
                0.6082025294141244
            ]
        },
        {
            "positions": [
                0.8766190732402416,
                -1.814917849234928,
                -0.9495916739361385,
                0.6227610507938011,
                0.7712359536511477,
                0.6557939328044962
            ]
        },
        {
            "positions": [
                0.9583181915059739,
                -1.7792341859344205,
                -0.8391893420439394,
                0.5564662217061611,
                0.8167935064144153,
                0.703385336194868
            ]
        },
        {
            "positions": [
                1.0400173097717058,
                -1.743550522633913,
                -0.7287870101517402,
                0.49017139261852116,
                0.862351059177683,
                0.7509767395852397
            ]
        },
        {
            "positions": [
                1.1217164280374379,
                -1.7078668593334054,
                -0.618384678259541,
                0.4238765635308812,
                0.9079086119409505,
                0.7985681429756115
            ]
        },
        {
            "positions": [
                1.20341554630317,
                -1.672183196032898,
                -0.5079823463673419,
                0.35758173444324126,
                0.9534661647042181,
                0.8461595463659833
            ]
        },
        {
            "positions": [
                1.285114664568902,
                -1.6364995327323903,
                -0.3975800144751427,
                0.2912869053556013,
                0.9990237174674858,
                0.893750949756355
            ]
        },
        {
            "positions": [
                1.3668137828346343,
                -1.6008158694318828,
                -0.2871776825829433,
                0.22499207626796136,
                1.0445812702307533,
                0.9413423531467269
            ]
        },
        {
            "positions": [
                1.4485129011003663,
                -1.5651322061313753,
                -0.17677535069074413,
                0.1586972471803214,
                1.090138822994021,
                0.9889337565370986
            ]
        },
        {
            "positions": [
                1.5302120193660984,
                -1.5294485428308677,
                -0.06637301879854496,
                0.09240241809268146,
                1.1356963757572887,
                1.0365251599274703
            ]
        },
        {
            "positions": [
                1.6119111376318305,
                -1.4937648795303604,
                0.04402931309365421,
                0.02610758900504151,
                1.1812539285205563,
                1.0841165633178422
            ]
        },
        {
            "positions": [
                1.6936102558975625,
                -1.4580812162298529,
                0.15443164498585338,
                -0.04018724008259844,
                1.226811481283824,
                1.131707966708214
            ]
        },
        {
            "positions": [
                1.7753093741632946,
                -1.4223975529293453,
                0.26483397687805255,
                -0.10648206917023817,
                1.2723690340470915,
                1.1792993700985859
            ]
        },
        {
            "positions": [
                1.8570084924290269,
                -1.3867138896288378,
                0.3752363087702517,
                -0.17277689825787812,
                1.3179265868103591,
                1.2268907734889576
            ]
        },
        {
            "positions": [
                1.9387076106947587,
                -1.3510302263283303,
                0.4856386406624509,
                -0.23907172734551807,
                1.3634841395736268,
                1.2744821768793293
            ]
        },
        {
            "positions": [
                2.020406728960491,
                -1.315346563027823,
                0.59604097255465,
                -0.305366556433158,
                1.4090416923368942,
                1.322073580269701
            ]
        },
        {
            "positions": [
                2.1021058472262233,
                -1.2796628997273154,
                0.7064433044468492,
                -0.37166138552079797,
                1.454599245100162,
                1.369664983660073
            ]
        },
        {
            "positions": [
                2.183804965491955,
                -1.2439792364268079,
                0.8168456363390484,
                -0.4379562146084379,
                1.5001567978634296,
                1.4172563870504447
            ]
        },
        {
            "positions": [
                2.2655040837576874,
                -1.2082955731263003,
                0.9272479682312476,
                -0.5042510436960779,
                1.5457143506266973,
                1.4648477904408164
            ]
        },
        {
            "positions": [
                2.3472032020234193,
                -1.1726119098257928,
                1.0376503001234467,
                -0.5705458727837178,
                1.5912719033899647,
                1.5124391938311883
            ]
        },
        {
            "positions": [
                2.4289023202891515,
                -1.1369282465252852,
                1.148052632015646,
                -0.6368407018713578,
                1.6368294561532324,
                1.56003059722156
            ]
        },
        {
            "positions": [
                2.451158286934836,
                -1.1231927238404593,
                1.2232057189582153,
                -0.6534345715700303,
                1.5731305950828467,
                1.7408153272491147
            ]
        },
        {
            "positions": [
                2.47341425358052,
                -1.1094572011556332,
                1.298358805900785,
                -0.6700284412687028,
                1.5094317340124612,
                1.9216000572766694
            ]
        },
        {
            "positions": [
                2.4956702202262044,
                -1.0957216784708073,
                1.3735118928433543,
                -0.6866223109673754,
                1.4457328729420755,
                2.1023847873042243
            ]
        },
        {
            "positions": [
                2.5179261868718887,
                -1.0819861557859811,
                1.448664979785924,
                -0.7032161806660479,
                1.3820340118716898,
                2.283169517331779
            ]
        },
        {
            "positions": [
                2.5401821535175735,
                -1.0682506331011552,
                1.5238180667284933,
                -0.7198100503647203,
                1.3183351508013041,
                2.463954247359334
            ]
        },
        {
            "positions": [
                2.562438120163258,
                -1.054515110416329,
                1.5989711536710627,
                -0.7364039200633928,
                1.2546362897309185,
                2.6447389773868886
            ]
        },
        {
            "positions": [
                2.584694086808942,
                -1.0407795877315031,
                1.6741242406136323,
                -0.7529977897620654,
                1.1909374286605328,
                2.825523707414443
            ]
        },
        {
            "positions": [
                2.6069500534546264,
                -1.027044065046677,
                1.749277327556202,
                -0.7695916594607379,
                1.1272385675901473,
                3.006308437441998
            ]
        },
        {
            "positions": [
                2.6292060201003107,
                -1.013308542361851,
                1.8244304144987713,
                -0.7861855291594104,
                1.0635397065197616,
                3.187093167469553
            ]
        }
    ]
}