{
    "goal": {
        "global_pose": {
            "orientation": {
                "w": 0.5084816262002911,
                "x": -0.4908360881923452,
                "y": 0.5182115481033761,
                "z": -0.48164630358495003
            },
            "position": {
                "x": 0.5540239810943604,
                "y": -0.46912469901144505,
                "z": 0.16403168439865112
            }
        },
        "name": "move_to_storage_B"
    },
    "id": "EST_move_to_storage_B_1",
    "joint_names": [
        "shoulder_pan_joint",
        "shoulder_lift_joint",
        "elbow_joint",
        "wrist_1_joint",
        "wrist_2_joint",
        "wrist_3_joint"
    ],
    "metrics": {
        "cart_traj_len": 0.7630667970530628,
        "distance_elbow_joint": 0.35082906452773077,
        "distance_shoulder_lift_joint": 0.46018829769004466,
        "distance_shoulder_pan_joint": 0.2866885623265646,
        "distance_wrist_1_joint": 2.9918965950395036,
        "distance_wrist_2_joint": 2.708493932567539,
        "distance_wrist_3_joint": 3.7082987884346323,
        "smoothness": 0.25192549009273557,
        "time": 0.09493595499999999,
        "traj_len": 3.241357006037134,
        "weighted_distance": 4.8603892174456895
    },
    "planner": "EST",
    "start": {
        "state": {
            "elbow_joint": 1.664937868594044,
            "shoulder_lift_joint": -0.661644460510453,
            "shoulder_pan_joint": -0.9139846352900073,
            "wrist_1_joint": 2.146753192139373,
            "wrist_2_joint": -2.2341966793290973,
            "wrist_3_joint": 0.005466555786416001
        }
    },
    "waypoints": [
        {
            "positions": [
                -0.9139846352900073,
                -0.661644460510453,
                1.664937868594044,
                2.146753192139373,
                -2.2341966793290973,
                0.005466555786416001
            ]
        },
        {
            "positions": [
                -0.9008264229051806,
                -0.7204484802264726,
                1.67673934217204,
                2.0444413137172344,
                -2.1297724881178364,
                -0.0643141180492702
            ]
        },
        {
            "positions": [
                -0.8876682105203539,
                -0.779252499942492,
                1.6885408157500361,
                1.9421294352950953,
                -2.025348296906575,
                -0.1340947918849564
            ]
        },
        {
            "positions": [
                -0.8745099981355272,
                -0.8380565196585115,
                1.700342289328032,
                1.8398175568729562,
                -1.9209241056953141,
                -0.2038754657206426
            ]
        },
        {
            "positions": [
                -0.8613517857507005,
                -0.896860539374531,
                1.712143762906028,
                1.7375056784508174,
                -1.8164999144840532,
                -0.2736561395563288
            ]
        },
        {
            "positions": [
                -0.8715281210892769,
                -0.9066419401930513,
                1.7253447703067126,
                1.625216587957298,
                -1.7169000376265535,
                -0.12456152681320326
            ]
        },
        {
            "positions": [
                -0.8817044564278533,
                -0.9164233410115716,
                1.7385457777073974,
                1.5129274974637785,
                -1.6173001607690538,
                0.02453308592992226
            ]
        },
        {
            "positions": [
                -0.8918807917664298,
                -0.9262047418300919,
                1.751746785108082,
                1.4006384069702589,
                -1.5177002839115539,
                0.17362769867304778
            ]
        },
        {
            "positions": [
                -0.9020571271050062,
                -0.9359861426486121,
                1.7649477925087667,
                1.2883493164767394,
                -1.4181004070540542,
                0.3227223114161733
            ]
        },
        {
            "positions": [
                -0.9122334624435826,
                -0.9457675434671324,
                1.7781487999094512,
                1.17606022598322,
                -1.3185005301965544,
                0.4718169241592988
            ]
        },
        {
            "positions": [
                -0.922409797782159,
                -0.9555489442856527,
                1.791349807310136,
                1.0637711354897004,
                -1.2189006533390547,
                0.6209115369024243
            ]
        },
        {
            "positions": [
                -0.9325861331207355,
                -0.965330345104173,
                1.8045508147108205,
                0.9514820449961809,
                -1.119300776481555,
                0.7700061496455499
            ]
        },
        {
            "positions": [
                -0.9427624684593119,
                -0.9751117459226933,
                1.8177518221115052,
                0.8391929545026615,
                -1.019700899624055,
                0.9191007623886753
            ]
        },
        {
            "positions": [
                -0.9529388037978883,
                -0.9848931467412136,
                1.8309528295121897,
                0.7269038640091419,
                -0.9201010227665554,
                1.068195375131801
            ]
        },
        {
            "positions": [
                -0.9631151391364647,
                -0.994674547559734,
                1.8441538369128745,
                0.6146147735156227,
                -0.8205011459090557,
                1.2172899878749264
            ]
        },
        {
            "positions": [
                -0.9732914744750412,
                -1.0044559483782542,
                1.857354844313559,
                0.502325683022103,
                -0.7209012690515557,
                1.366384600618052
            ]
        },
        {
            "positions": [
                -0.9834678098136176,
                -1.0142373491967744,
                1.8705558517142438,
                0.3900365925285836,
                -0.6213013921940562,
                1.5154792133611774
            ]
        },
        {
            "positions": [
                -0.993644145152194,
                -1.0240187500152949,
                1.8837568591149283,
                0.27774750203506415,
                -0.5217015153365565,
                1.6645738261043028
            ]
        },
        {
            "positions": [
                -1.0038204804907704,
                -1.033800150833815,
                1.896957866515613,
                0.1654584115415445,
                -0.4221016384790566,
                1.8136684388474287
            ]
        },
        {
            "positions": [
                -1.0139968158293469,
                -1.0435815516523355,
                1.9101588739162976,
                0.053169321048025076,
                -0.32250176162155686,
                1.962763051590554
            ]
        },
        {
            "positions": [
                -1.0241731511679233,
                -1.0533629524708557,
                1.9233598813169823,
                -0.05911976944549435,
                -0.22290188476405715,
                2.1118576643336797
            ]
        },
        {
            "positions": [
                -1.0343494865064997,
                -1.0631443532893758,
                1.9365608887176669,
                -0.17140885993901378,
                -0.12330200790655743,
                2.260952277076805
            ]
        },
        {
            "positions": [
                -1.0445258218450761,
                -1.0729257541078963,
                1.9497618961183516,
                -0.28369795043253365,
                -0.023702131049057495,
                2.410046889819931
            ]
        },
        {
            "positions": [
                -1.0547021571836526,
                -1.0827071549264164,
                1.9629629035190361,
                -0.3959870409260531,
                0.07589774580844222,
                2.5591415025630564
            ]
        },
        {
            "positions": [
                -1.064878492522229,
                -1.0924885557449369,
                1.9761639109197207,
                -0.5082761314195721,
                0.17549762266594193,
                2.708236115306182
            ]
        },
        {
            "positions": [
                -1.0750548278608054,
                -1.102269956563457,
                1.9893649183204054,
                -0.6205652219130915,
                0.27509749952344187,
                2.857330728049307
            ]
        },
        {
            "positions": [
                -1.0852311631993818,
                -1.1120513573819775,
                2.00256592572109,
                -0.7328543124066114,
                0.3746973763809418,
                3.006425340792433
            ]
        },
        {
            "positions": [
                -1.0954074985379583,
                -1.1218327582004977,
                2.0157669331217747,
                -0.8451434029001306,
                0.4742972532384412,
                3.1555199535355585
            ]
        }
    ]
}