{
    "goal": {
        "global_pose": {
            "orientation": {
                "w": -0.4816463035849501,
                "x": 0.5182115481033762,
                "y": 0.4908360881923453,
                "z": -0.5084816262002911
            },
            "position": {
                "x": -0.8240239810943604,
                "y": 0.19912469901144506,
                "z": 0.16403168439865112
            }
        },
        "name": "move_to_storage_D"
    },
    "id": "EST_move_to_storage_D_109",
    "joint_names": [
        "shoulder_pan_joint",
        "shoulder_lift_joint",
        "elbow_joint",
        "wrist_1_joint",
        "wrist_2_joint",
        "wrist_3_joint"
    ],
    "metrics": {
        "cart_traj_len": 4.522787360351728,
        "distance_elbow_joint": 4.210791156494266,
        "distance_shoulder_lift_joint": 1.2635780046568115,
        "distance_shoulder_pan_joint": 2.8154961202913906,
        "distance_wrist_1_joint": 2.2692883243348523,
        "distance_wrist_2_joint": 0.9391895509789258,
        "distance_wrist_3_joint": 4.519039812066763,
        "smoothness": 0.11698286959680909,
        "time": 0.129886949,
        "traj_len": 4.002172281252146,
        "weighted_distance": 5.316384153564368
    },
    "planner": "EST",
    "start": {
        "state": {
            "elbow_joint": -2.384821988534728,
            "shoulder_lift_joint": -2.2788054721415256,
            "shoulder_pan_joint": -0.1854694642142757,
            "wrist_1_joint": 1.4845938289331202,
            "wrist_2_joint": 0.17898776772866878,
            "wrist_3_joint": 0.037105688729662994
        }
    },
    "waypoints": [
        {
            "positions": [
                -0.1854694642142757,
                -2.2788054721415256,
                -2.384821988534728,
                1.4845938289331202,
                0.17898776772866878,
                0.037105688729662994
            ]
        },
        {
            "positions": [
                -0.028449842625793836,
                -2.2442630192244497,
                -2.357753951246075,
                1.460330788334222,
                0.2551156759115874,
                -0.020196934309465023
            ]
        },
        {
            "positions": [
                0.12856977896268804,
                -2.2097205663073733,
                -2.3306859139574216,
                1.4360677477353239,
                0.33124358409450605,
                -0.07749955734859304
            ]
        },
        {
            "positions": [
                0.2855894005511699,
                -2.1751781133902974,
                -2.3036178766687687,
                1.4118047071364255,
                0.4073714922774247,
                -0.13480218038772107
            ]
        },
        {
            "positions": [
                0.4426090221396518,
                -2.140635660473221,
                -2.276549839380116,
                1.3875416665375273,
                0.48349940046034334,
                -0.19210480342684907
            ]
        },
        {
            "positions": [
                0.5996286437281337,
                -2.106093207556145,
                -2.249481802091463,
                1.3632786259386291,
                0.5596273086432619,
                -0.2494074264659771
            ]
        },
        {
            "positions": [
                0.7566482653166156,
                -2.071550754639069,
                -2.22241376480281,
                1.339015585339731,
                0.6357552168261806,
                -0.30671004950510516
            ]
        },
        {
            "positions": [
                0.9136678869050975,
                -2.037008301721993,
                -2.1953457275141566,
                1.3147525447408328,
                0.7118831250090992,
                -0.3640126725442332
            ]
        },
        {
            "positions": [
                1.0706875084935792,
                -2.0024658488049165,
                -2.1682776902255037,
                1.2904895041419346,
                0.7880110331920178,
                -0.4213152955833611
            ]
        },
        {
            "positions": [
                1.227707130082061,
                -1.9679233958878406,
                -2.1412096529368507,
                1.2662264635430365,
                0.8641389413749365,
                -0.47861791862248915
            ]
        },
        {
            "positions": [
                1.384726751670543,
                -1.9333809429707645,
                -2.1141416156481974,
                1.241963422944138,
                0.9402668495578551,
                -0.5359205416616172
            ]
        },
        {
            "positions": [
                1.5417463732590246,
                -1.8988384900536883,
                -2.0870735783595444,
                1.21770038234524,
                1.0163947577407737,
                -0.5932231647007452
            ]
        },
        {
            "positions": [
                1.6987659948475067,
                -1.8642960371366122,
                -2.0600055410708915,
                1.1934373417463418,
                1.0925226659236924,
                -0.6505257877398732
            ]
        },
        {
            "positions": [
                1.7298080168884935,
                -1.835993751481549,
                -1.9304730507698773,
                1.127499613841406,
                1.0916675108308957,
                -0.5228121765532989
            ]
        },
        {
            "positions": [
                1.7608500389294806,
                -1.8076914658264855,
                -1.8009405604688629,
                1.0615618859364702,
                1.0908123557380989,
                -0.39509856536672466
            ]
        },
        {
            "positions": [
                1.7918920609704674,
                -1.7793891801714223,
                -1.6714080701678486,
                0.9956241580315344,
                1.0899572006453022,
                -0.2673849541801504
            ]
        },
        {
            "positions": [
                1.8229340830114542,
                -1.7510868945163591,
                -1.5418755798668342,
                0.9296864301265986,
                1.0891020455525056,
                -0.1396713429935761
            ]
        },
        {
            "positions": [
                1.8539761050524413,
                -1.722784608861296,
                -1.41234308956582,
                0.8637487022216628,
                1.0882468904597087,
                -0.011957731807001881
            ]
        },
        {
            "positions": [
                1.885018127093428,
                -1.6944823232062325,
                -1.2828105992648058,
                0.797810974316727,
                1.087391735366912,
                0.11575587937957244
            ]
        },
        {
            "positions": [
                1.9160601491344151,
                -1.6661800375511693,
                -1.1532781089637913,
                0.7318732464117912,
                1.0865365802741151,
                0.24346949056614675
            ]
        },
        {
            "positions": [
                1.947102171175402,
                -1.637877751896106,
                -1.0237456186627771,
                0.6659355185068555,
                1.0856814251813185,
                0.37118310175272107
            ]
        },
        {
            "positions": [
                1.9781441932163888,
                -1.6095754662410429,
                -0.8942131283617629,
                0.5999977906019197,
                1.0848262700885218,
                0.4988967129392953
            ]
        },
        {
            "positions": [
                2.0091862152573756,
                -1.5812731805859794,
                -0.7646806380607485,
                0.5340600626969839,
                1.083971114995725,
                0.6266103241258695
            ]
        },
        {
            "positions": [
                2.0402282372983627,
                -1.5529708949309162,
                -0.6351481477597343,
                0.4681223347920481,
                1.0831159599029283,
                0.7543239353124437
            ]
        },
        {
            "positions": [
                2.0712702593393497,
                -1.524668609275853,
                -0.5056156574587198,
                0.4021846068871122,
                1.0822608048101316,
                0.8820375464990181
            ]
        },
        {
            "positions": [
                2.1023122813803363,
                -1.4963663236207898,
                -0.3760831671577056,
                0.33624687898217653,
                1.0814056497173348,
                1.0097511576855926
            ]
        },
        {
            "positions": [
                2.1333543034213234,
                -1.4680640379657264,
                -0.2465506768566912,
                0.27030915107724074,
                1.0805504946245381,
                1.1374647688721669
            ]
        },
        {
            "positions": [
                2.1643963254623104,
                -1.4397617523106632,
                -0.11701818655567697,
                0.20437142317230494,
                1.0796953395317415,
                1.265178380058741
            ]
        },
        {
            "positions": [
                2.195438347503297,
                -1.4114594666556,
                0.01251430374533724,
                0.13843369526736926,
                1.0788401844389446,
                1.3928919912453153
            ]
        },
        {
            "positions": [
                2.226480369544284,
                -1.3831571810005365,
                0.14204679404635145,
                0.07249596736243347,
                1.077985029346148,
                1.5206056024318895
            ]
        },
        {
            "positions": [
                2.257522391585271,
                -1.3548548953454733,
                0.27157928434736567,
                0.006558239457497672,
                1.077129874253351,
                1.6483192136184637
            ]
        },
        {
            "positions": [
                2.2885644136262577,
                -1.3265526096904101,
                0.4011117746483803,
                -0.05937948844743812,
                1.0762747191605544,
                1.7760328248050379
            ]
        },
        {
            "positions": [
                2.319606435667245,
                -1.298250324035347,
                0.5306442649493945,
                -0.12531721635237392,
                1.0754195640677577,
                1.903746435991612
            ]
        },
        {
            "positions": [
                2.350648457708232,
                -1.2699480383802837,
                0.6601767552504088,
                -0.1912549442573097,
                1.0745644089749609,
                2.0314600471781863
            ]
        },
        {
            "positions": [
                2.381690479749219,
                -1.2416457527252205,
                0.789709245551423,
                -0.2571926721622455,
                1.0737092538821642,
                2.1591736583647605
            ]
        },
        {
            "positions": [
                2.4127325017902055,
                -1.2133434670701568,
                0.9192417358524376,
                -0.3231304000671815,
                1.0728540987893675,
                2.286887269551335
            ]
        },
        {
            "positions": [
                2.4437745238311925,
                -1.1850411814150936,
                1.0487742261534518,
                -0.3890681279721173,
                1.0719989436965707,
                2.4146008807379093
            ]
        },
        {
            "positions": [
                2.4748165458721796,
                -1.1567388957600304,
                1.178306716454466,
                -0.4550058558770529,
                1.071143788603774,
                2.5423144919244836
            ]
        },
        {
            "positions": [
                2.505858567913166,
                -1.1284366101049672,
                1.3078392067554803,
                -0.5209435837819887,
                1.0702886335109771,
                2.670028103111058
            ]
        },
        {
            "positions": [
                2.5369005899541532,
                -1.100134324449904,
                1.437371697056495,
                -0.5868813116869245,
                1.0694334784181805,
                2.7977417142976324
            ]
        },
        {
            "positions": [
                2.5679426119951403,
                -1.0718320387948408,
                1.5669041873575091,
                -0.6528190395918603,
                1.0685783233253838,
                2.9254553254842066
            ]
        },
        {
            "positions": [
                2.598984634036127,
                -1.0435297531397774,
                1.6964366776585234,
                -0.7187567674967961,
                1.067723168232587,
                3.053168936670781
            ]
        },
        {
            "positions": [
                2.630026656077114,
                -1.0152274674847142,
                1.8259691679595373,
                -0.7846944954017319,
                1.0668680131397903,
                3.180882547857355
            ]
        }
    ]
}