{
    "goal": {
        "global_pose": {
            "orientation": {
                "w": 0.005598929693374612,
                "x": 0.007748599140229565,
                "y": 0.7110244013736278,
                "z": -0.7031023480610252
            },
            "position": {
                "x": 0.1141497679147869,
                "y": -0.7141253447532654,
                "z": 0.3711530566215515
            }
        },
        "name": "move_to_auspresseinheit_B"
    },
    "id": "EST_move_to_auspresseinheit_B_4",
    "joint_names": [
        "shoulder_pan_joint",
        "shoulder_lift_joint",
        "elbow_joint",
        "wrist_1_joint",
        "wrist_2_joint",
        "wrist_3_joint"
    ],
    "metrics": {
        "cart_traj_len": 0.5653536896945727,
        "distance_elbow_joint": 0.06581908950034787,
        "distance_shoulder_lift_joint": 0.2952422658256726,
        "distance_shoulder_pan_joint": 0.5795733003887702,
        "distance_wrist_1_joint": 0.3408781797007969,
        "distance_wrist_2_joint": 0.9840853835025727,
        "distance_wrist_3_joint": 0.0071866021931432655,
        "smoothness": 2.5376526478085547e-16,
        "time": 0.113762348,
        "traj_len": 1.5075758094077072,
        "weighted_distance": 1.900558230810348
    },
    "planner": "EST",
    "start": {
        "state": {
            "elbow_joint": 2.0193083361928714,
            "shoulder_lift_joint": -1.1220246554650708,
            "shoulder_pan_joint": -1.0952077554168747,
            "wrist_1_joint": -0.8559753972642168,
            "wrist_2_joint": 0.4759566250798843,
            "wrist_3_joint": -3.1240929996934557
        }
    },
    "waypoints": [
        {
            "positions": [
                -1.0952077554168747,
                -1.1220246554650708,
                2.0193083361928714,
                -0.8559753972642168,
                0.4759566250798843,
                -3.1240929996934557
            ]
        },
        {
            "positions": [
                -1.1918033054816697,
                -1.1712316997693495,
                2.0083384879428134,
                -0.799162367314084,
                0.6399708556636464,
                -3.122895232661265
            ]
        },
        {
            "positions": [
                -1.2883988555464647,
                -1.2204387440736284,
                1.9973686396927555,
                -0.7423493373639511,
                0.8039850862474085,
                -3.1216974656290746
            ]
        },
        {
            "positions": [
                -1.3849944056112597,
                -1.269645788377907,
                1.9863987914426975,
                -0.6855363074138183,
                0.9679993168311707,
                -3.120499698596884
            ]
        },
        {
            "positions": [
                -1.4815899556760548,
                -1.3188528326821858,
                1.9754289431926395,
                -0.6287232774636855,
                1.1320135474149327,
                -3.1193019315646935
            ]
        },
        {
            "positions": [
                -1.5781855057408498,
                -1.3680598769864647,
                1.9644590949425815,
                -0.5719102475135527,
                1.2960277779986948,
                -3.118104164532503
            ]
        },
        {
            "positions": [
                -1.6747810558056448,
                -1.4172669212907434,
                1.9534892466925236,
                -0.5150972175634199,
                1.460042008582457,
                -3.1169063975003124
            ]
        }
    ]
}