{
    "goal": {
        "global_pose": {
            "orientation": {
                "w": -0.00223480608172531,
                "x": 0.0024358444001904467,
                "y": 0.7094548369677653,
                "z": -0.704743149386269
            },
            "position": {
                "x": 0.6205249238014221,
                "y": -0.6371506643295288,
                "z": 0.19426114857196808
            }
        },
        "name": "move_to_magneteinheit_B"
    },
    "id": "EST_move_to_magneteinheit_B_101",
    "joint_names": [
        "shoulder_pan_joint",
        "shoulder_lift_joint",
        "elbow_joint",
        "wrist_1_joint",
        "wrist_2_joint",
        "wrist_3_joint"
    ],
    "metrics": {
        "cart_traj_len": 1.4955637761760923,
        "distance_elbow_joint": 0.9591514311012779,
        "distance_shoulder_lift_joint": 0.875236134603409,
        "distance_shoulder_pan_joint": 1.6209694863872237,
        "distance_wrist_1_joint": 0.557456581084721,
        "distance_wrist_2_joint": 2.2006322119181116,
        "distance_wrist_3_joint": 0.8837182498348911,
        "smoothness": 0.7294389831869179,
        "time": 0.127825422,
        "traj_len": 2.664050317642224,
        "weighted_distance": 3.4092065627653376
    },
    "planner": "EST",
    "start": {
        "state": {
            "elbow_joint": 2.6216224122426386,
            "shoulder_lift_joint": -1.4174107377796124,
            "shoulder_pan_joint": 0.7066234856936794,
            "wrist_1_joint": 1.9546482284002225,
            "wrist_2_joint": -0.7096286983471962,
            "wrist_3_joint": 0.005740856962016249
        }
    },
    "waypoints": [
        {
            "positions": [
                0.7066234856936794,
                -1.4174107377796124,
                2.6216224122426386,
                1.9546482284002225,
                -0.7096286983471962,
                0.005740856962016249
            ]
        },
        {
            "positions": [
                0.6339752990926495,
                -1.43203018484109,
                2.604293671211198,
                1.9075805051383492,
                -0.6241004628912715,
                -0.10672551311061236
            ]
        },
        {
            "positions": [
                0.5613271124916195,
                -1.4466496319025675,
                2.5869649301797577,
                1.8605127818764762,
                -0.5385722274353468,
                -0.21919188318324095
            ]
        },
        {
            "positions": [
                0.4886789258905896,
                -1.461269078964045,
                2.5696361891483175,
                1.8134450586146031,
                -0.453043991979422,
                -0.33165825325586956
            ]
        },
        {
            "positions": [
                0.4160307392895597,
                -1.4758885260255226,
                2.552307448116877,
                1.76637733535273,
                -0.36751575652349733,
                -0.44412462332849817
            ]
        },
        {
            "positions": [
                0.32733895662401946,
                -1.4214379696016892,
                2.492985016985176,
                1.7909897145552118,
                -0.4914170411964582,
                -0.41520110535887306
            ]
        },
        {
            "positions": [
                0.23864717395847918,
                -1.366987413177856,
                2.4336625858534746,
                1.8156020937576938,
                -0.615318325869419,
                -0.38627758738924795
            ]
        },
        {
            "positions": [
                0.1499553912929389,
                -1.3125368567540228,
                2.3743401547217737,
                1.8402144729601755,
                -0.73921961054238,
                -0.35735406941962283
            ]
        },
        {
            "positions": [
                0.06126360862739866,
                -1.2580863003301896,
                2.3150177235900724,
                1.8648268521626574,
                -0.8631208952153407,
                -0.3284305514499977
            ]
        },
        {
            "positions": [
                -0.027428174038141573,
                -1.2036357439063563,
                2.2556952924583715,
                1.8894392313651394,
                -0.9870221798883015,
                -0.2995070334803726
            ]
        },
        {
            "positions": [
                -0.11611995670368191,
                -1.149185187482523,
                2.19637286132667,
                1.9140516105676213,
                -1.1109234645612625,
                -0.2705835155107475
            ]
        },
        {
            "positions": [
                -0.20481173936922215,
                -1.0947346310586898,
                2.1370504301949693,
                1.9386639897701032,
                -1.2348247492342233,
                -0.24165999754112238
            ]
        },
        {
            "positions": [
                -0.2935035220347624,
                -1.0402840746348565,
                2.077727999063268,
                1.963276368972585,
                -1.358726033907184,
                -0.21273647957149727
            ]
        },
        {
            "positions": [
                -0.3821953047003026,
                -0.9858335182110234,
                2.018405567931567,
                1.9878887481750669,
                -1.4826273185801448,
                -0.18381296160187216
            ]
        },
        {
            "positions": [
                -0.47088708736584284,
                -0.93138296178719,
                1.9590831367998662,
                2.012501127377549,
                -1.6065286032531056,
                -0.15488944363224705
            ]
        },
        {
            "positions": [
                -0.5595788700313831,
                -0.8769324053633568,
                1.899760705668165,
                2.0371135065800305,
                -1.7304298879260664,
                -0.12596592566262194
            ]
        },
        {
            "positions": [
                -0.6482706526969235,
                -0.8224818489395235,
                1.840438274536464,
                2.0617258857825127,
                -1.8543311725990277,
                -0.09704240769299682
            ]
        },
        {
            "positions": [
                -0.7369624353624638,
                -0.7680312925156902,
                1.7811158434047627,
                2.0863382649849944,
                -1.9782324572719885,
                -0.06811888972337171
            ]
        },
        {
            "positions": [
                -0.825654218028004,
                -0.713580736091857,
                1.7217934122730618,
                2.1109506441874766,
                -2.1021337419449493,
                -0.0391953717537466
            ]
        },
        {
            "positions": [
                -0.9143460006935442,
                -0.6591301796680238,
                1.6624709811413607,
                2.1355630233899583,
                -2.22603502661791,
                -0.010271853784121501
            ]
        }
    ]
}