{
    "goal": {
        "global_pose": {
            "orientation": {
                "w": -0.4816463035849501,
                "x": 0.5182115481033762,
                "y": 0.4908360881923453,
                "z": -0.5084816262002911
            },
            "position": {
                "x": -0.8240239810943604,
                "y": 0.19912469901144506,
                "z": 0.16403168439865112
            }
        },
        "name": "move_to_storage_D"
    },
    "id": "EST_move_to_storage_D_57",
    "joint_names": [
        "shoulder_pan_joint",
        "shoulder_lift_joint",
        "elbow_joint",
        "wrist_1_joint",
        "wrist_2_joint",
        "wrist_3_joint"
    ],
    "metrics": {
        "cart_traj_len": 0.7135459754321722,
        "distance_elbow_joint": 0.5528138675492522,
        "distance_shoulder_lift_joint": 0.43665560549118787,
        "distance_shoulder_pan_joint": 0.36155244357214034,
        "distance_wrist_1_joint": 4.121781405736664,
        "distance_wrist_2_joint": 1.7741817735395096,
        "distance_wrist_3_joint": 3.5741537030995594,
        "smoothness": 0.3932530693866976,
        "time": 0.090895922,
        "traj_len": 3.289549938667646,
        "weighted_distance": 4.885223575688589
    },
    "planner": "EST",
    "start": {
        "state": {
            "elbow_joint": -2.384821988534728,
            "shoulder_lift_joint": -2.2788054721415256,
            "shoulder_pan_joint": -0.1854694642142757,
            "wrist_1_joint": 1.4845938289331202,
            "wrist_2_joint": 0.17898776772866878,
            "wrist_3_joint": 0.037105688729662994
        }
    },
    "waypoints": [
        {
            "positions": [
                -0.1854694642142757,
                -2.2788054721415256,
                -2.384821988534728,
                1.4845938289331202,
                0.17898776772866878,
                0.037105688729662994
            ]
        },
        {
            "positions": [
                -0.09986932891116976,
                -2.180591787759178,
                -2.3577076948409568,
                1.534762166353947,
                0.11847450477444277,
                -0.0334251740974508
            ]
        },
        {
            "positions": [
                -0.014269193608063807,
                -2.08237810337683,
                -2.3305934011471856,
                1.5849305037747736,
                0.05796124182021674,
                -0.1039560369245646
            ]
        },
        {
            "positions": [
                0.07133094169504214,
                -1.9841644189944825,
                -2.3034791074534144,
                1.6350988411956004,
                -0.0025520211340092844,
                -0.17448689975167841
            ]
        },
        {
            "positions": [
                0.06714086018852924,
                -1.9898450010882482,
                -2.284620267994697,
                1.4762477854566332,
                -0.06625770052108254,
                -0.039984455166949706
            ]
        },
        {
            "positions": [
                0.06295077868201635,
                -1.995525583182014,
                -2.2657614285359795,
                1.3173967297176659,
                -0.1299633799081558,
                0.094517989417779
            ]
        },
        {
            "positions": [
                0.05876069717550345,
                -2.00120616527578,
                -2.2469025890772616,
                1.1585456739786983,
                -0.19366905929522904,
                0.22902043400250766
            ]
        },
        {
            "positions": [
                0.05457061566899056,
                -2.0068867473695455,
                -2.228043749618544,
                0.999694618239731,
                -0.25737473868230226,
                0.3635228785872364
            ]
        },
        {
            "positions": [
                0.05038053416247766,
                -2.0125673294633115,
                -2.2091849101598267,
                0.8408435625007636,
                -0.32108041806937554,
                0.49802532317196513
            ]
        },
        {
            "positions": [
                0.04619045265596476,
                -2.018247911557077,
                -2.190326070701109,
                0.6819925067617963,
                -0.38478609745644876,
                0.6325277677566937
            ]
        },
        {
            "positions": [
                0.04200037114945186,
                -2.023928493650843,
                -2.1714672312423917,
                0.5231414510228289,
                -0.4484917768435221,
                0.7670302123414225
            ]
        },
        {
            "positions": [
                0.03781028964293897,
                -2.0296090757446086,
                -2.1526083917836742,
                0.36429039528386165,
                -0.5121974562305953,
                0.9015326569261513
            ]
        },
        {
            "positions": [
                0.03362020813642608,
                -2.0352896578383746,
                -2.1337495523249563,
                0.20543933954489435,
                -0.5759031356176686,
                1.0360351015108797
            ]
        },
        {
            "positions": [
                0.029430126629913178,
                -2.0409702399321406,
                -2.114890712866239,
                0.04658828380592683,
                -0.6396088150047419,
                1.1705375460956087
            ]
        },
        {
            "positions": [
                0.02524004512340028,
                -2.046650822025906,
                -2.0960318734075214,
                -0.11226277193304046,
                -0.7033144943918151,
                1.3050399906803374
            ]
        },
        {
            "positions": [
                0.021049963616887386,
                -2.052331404119672,
                -2.077173033948804,
                -0.27111382767200776,
                -0.7670201737788883,
                1.4395424352650659
            ]
        },
        {
            "positions": [
                0.016859882110374487,
                -2.0580119862134376,
                -2.0583141944900865,
                -0.42996488341097505,
                -0.8307258531659617,
                1.5740448798497948
            ]
        },
        {
            "positions": [
                0.012669800603861588,
                -2.0636925683072036,
                -2.0394553550313685,
                -0.5888159391499426,
                -0.894431532553035,
                1.7085473244345235
            ]
        },
        {
            "positions": [
                0.008479719097348695,
                -2.069373150400969,
                -2.020596515572651,
                -0.7476669948889096,
                -0.9581372119401081,
                1.843049769019252
            ]
        },
        {
            "positions": [
                0.004289637590835796,
                -2.075053732494735,
                -2.0017376761139336,
                -0.9065180506278772,
                -1.0218428913271813,
                1.977552213603981
            ]
        },
        {
            "positions": [
                9.955608432289653e-05,
                -2.080734314588501,
                -1.9828788366552161,
                -1.0653691063668447,
                -1.0855485707142547,
                2.11205465818871
            ]
        },
        {
            "positions": [
                -0.004090525422189989,
                -2.0864148966822667,
                -1.9640199971964987,
                -1.2242201621058117,
                -1.1492542501013279,
                2.246557102773438
            ]
        },
        {
            "positions": [
                -0.008280606928702888,
                -2.0920954787760326,
                -1.945161157737781,
                -1.3830712178447793,
                -1.2129599294884013,
                2.381059547358167
            ]
        },
        {
            "positions": [
                -0.012470688435215788,
                -2.097776060869798,
                -1.9263023182790635,
                -1.5419222735837468,
                -1.2766656088754744,
                2.5155619919428958
            ]
        },
        {
            "positions": [
                -0.016660769941728687,
                -2.103456642963564,
                -1.9074434788203458,
                -1.7007733293227139,
                -1.3403712882625476,
                2.6500644365276242
            ]
        },
        {
            "positions": [
                -0.020850851448241586,
                -2.1091372250573297,
                -1.8885846393616283,
                -1.8596243850616814,
                -1.404076967649621,
                2.784566881112353
            ]
        },
        {
            "positions": [
                -0.025040932954754486,
                -2.1148178071510957,
                -1.8697257999029109,
                -2.018475440800649,
                -1.4677826470366941,
                2.9190693256970817
            ]
        },
        {
            "positions": [
                -0.02923101446126737,
                -2.1204983892448612,
                -1.8508669604441934,
                -2.177326496539616,
                -1.5314883264237673,
                3.05357177028181
            ]
        },
        {
            "positions": [
                -0.03342109596778027,
                -2.126178971338627,
                -1.8320081209854757,
                -2.3361775522785835,
                -1.5951940058108407,
                3.188074214866539
            ]
        }
    ]
}