{
    "goal": {
        "global_pose": {
            "orientation": {
                "w": -0.4816463035849501,
                "x": 0.5182115481033762,
                "y": 0.4908360881923453,
                "z": -0.5084816262002911
            },
            "position": {
                "x": -0.8240239810943604,
                "y": -0.300875300988555,
                "z": 0.16403168439865112
            }
        },
        "name": "move_to_storage_C"
    },
    "id": "EST_move_to_storage_C_49",
    "joint_names": [
        "shoulder_pan_joint",
        "shoulder_lift_joint",
        "elbow_joint",
        "wrist_1_joint",
        "wrist_2_joint",
        "wrist_3_joint"
    ],
    "metrics": {
        "cart_traj_len": 0.5770599559855827,
        "distance_elbow_joint": 0.25886527143994953,
        "distance_shoulder_lift_joint": 0.19055806666204322,
        "distance_shoulder_pan_joint": 0.4939327674287459,
        "distance_wrist_1_joint": 0.07800365139192333,
        "distance_wrist_2_joint": 1.0752557776136178,
        "distance_wrist_3_joint": 0.0603303929463066,
        "smoothness": 0.0,
        "time": 0.012290543,
        "traj_len": 1.4686544615676576,
        "weighted_distance": 1.8522597394482072
    },
    "planner": "EST",
    "start": {
        "state": {
            "elbow_joint": 2.010868314990456,
            "shoulder_lift_joint": -1.1634956873337592,
            "shoulder_pan_joint": -2.4736205022346125,
            "wrist_1_joint": -0.8367026794202681,
            "wrist_2_joint": 0.6746043897044499,
            "wrist_3_joint": -3.1496632123970403
        }
    },
    "waypoints": [
        {
            "positions": [
                -2.4736205022346125,
                -1.1634956873337592,
                2.010868314990456,
                -0.8367026794202681,
                0.6746043897044499,
                -3.1496632123970403
            ]
        },
        {
            "positions": [
                -2.5559426301394037,
                -1.131736009556752,
                1.9677241030837975,
                -0.8237020708549475,
                0.8538136859733862,
                -3.139608146905989
            ]
        },
        {
            "positions": [
                -2.6382647580441945,
                -1.0999763317797449,
                1.9245798911771392,
                -0.810701462289627,
                1.0330229822423225,
                -3.129553081414938
            ]
        },
        {
            "positions": [
                -2.7205868859489852,
                -1.0682166540027376,
                1.881435679270481,
                -0.7977008537243064,
                1.2122322785112587,
                -3.119498015923887
            ]
        },
        {
            "positions": [
                -2.8029090138537764,
                -1.0364569762257303,
                1.8382914673638229,
                -0.7847002451589858,
                1.391441574780195,
                -3.109442950432836
            ]
        },
        {
            "positions": [
                -2.8852311417585677,
                -1.0046972984487232,
                1.7951472554571646,
                -0.7716996365936654,
                1.5706508710491316,
                -3.099387884941785
            ]
        },
        {
            "positions": [
                -2.9675532696633584,
                -0.972937620671716,
                1.7520030435505063,
                -0.7586990280283448,
                1.7498601673180676,
                -3.0893328194507337
            ]
        }
    ]
}