{
    "goal": {
        "global_pose": {
            "orientation": {
                "w": 0.7031023480610252,
                "x": -0.7110244013736278,
                "y": 0.0077485991402295624,
                "z": 0.005598929693374583
            },
            "position": {
                "x": -0.8841497679147869,
                "y": 0.44412534475326537,
                "z": 0.3711530566215515
            }
        },
        "name": "move_to_auspresseinheit_D"
    },
    "id": "EST_move_to_auspresseinheit_D_60",
    "joint_names": [
        "shoulder_pan_joint",
        "shoulder_lift_joint",
        "elbow_joint",
        "wrist_1_joint",
        "wrist_2_joint",
        "wrist_3_joint"
    ],
    "metrics": {
        "cart_traj_len": 0.34414318894652185,
        "distance_elbow_joint": 0.6582471430702337,
        "distance_shoulder_lift_joint": 0.13282436203495562,
        "distance_shoulder_pan_joint": 0.13392757440025577,
        "distance_wrist_1_joint": 0.5874755107484466,
        "distance_wrist_2_joint": 1.4465142559307773,
        "distance_wrist_3_joint": 0.053604517792643414,
        "smoothness": 3.9474596431116675e-16,
        "time": 0.096579679,
        "traj_len": 1.7356823914464627,
        "weighted_distance": 2.2701965038828296
    },
    "planner": "EST",
    "start": {
        "state": {
            "elbow_joint": -1.8275523626775212,
            "shoulder_lift_joint": -2.126789852344167,
            "shoulder_pan_joint": -0.03513704404078235,
            "wrist_1_joint": -2.347782403156801,
            "wrist_2_joint": -1.6058999987535132,
            "wrist_3_joint": -3.0880379163319196
        }
    },
    "waypoints": [
        {
            "positions": [
                -0.03513704404078235,
                -2.126789852344167,
                -1.8275523626775212,
                -2.347782403156801,
                -1.6058999987535132,
                -3.0880379163319196
            ]
        },
        {
            "positions": [
                -0.05187799084081432,
                -2.1433928975985364,
                -1.745271469793742,
                -2.421216842000357,
                -1.425085716762166,
                -3.0813373516078393
            ]
        },
        {
            "positions": [
                -0.06861893764084628,
                -2.159995942852906,
                -1.6629905769099627,
                -2.4946512808439127,
                -1.2442714347708188,
                -3.074636786883759
            ]
        },
        {
            "positions": [
                -0.08535988444087826,
                -2.1765989881072754,
                -1.5807096840261836,
                -2.5680857196874682,
                -1.0634571527794718,
                -3.067936222159678
            ]
        },
        {
            "positions": [
                -0.10210083124091024,
                -2.1932020333616444,
                -1.4984287911424043,
                -2.641520158531024,
                -0.8826428707881245,
                -3.061235657435598
            ]
        },
        {
            "positions": [
                -0.1188417780409422,
                -2.209805078616014,
                -1.416147898258625,
                -2.71495459737458,
                -0.7018285887967773,
                -3.0545350927115176
            ]
        },
        {
            "positions": [
                -0.13558272484097417,
                -2.2264081238703834,
                -1.333867005374846,
                -2.7883890362181356,
                -0.5210143068054303,
                -3.047834527987437
            ]
        },
        {
            "positions": [
                -0.15232367164100616,
                -2.243011169124753,
                -1.2515861124910668,
                -2.8618234750616915,
                -0.34020002481408307,
                -3.0411339632633565
            ]
        },
        {
            "positions": [
                -0.16906461844103812,
                -2.2596142143791225,
                -1.1693052196072875,
                -2.9352579139052475,
                -0.1593857428227359,
                -3.034433398539276
            ]
        }
    ]
}