{
    "goal": {
        "global_pose": {
            "orientation": {
                "w": -0.00223480608172531,
                "x": 0.0024358444001904467,
                "y": 0.7094548369677653,
                "z": -0.704743149386269
            },
            "position": {
                "x": -0.37947507619857795,
                "y": -0.6371506643295288,
                "z": 0.19426114857196808
            }
        },
        "name": "move_to_magneteinheit_C"
    },
    "id": "EST_move_to_magneteinheit_C_49",
    "joint_names": [
        "shoulder_pan_joint",
        "shoulder_lift_joint",
        "elbow_joint",
        "wrist_1_joint",
        "wrist_2_joint",
        "wrist_3_joint"
    ],
    "metrics": {
        "cart_traj_len": 1.2971029680225288,
        "distance_elbow_joint": 1.0931661031442705,
        "distance_shoulder_lift_joint": 0.9118360080386789,
        "distance_shoulder_pan_joint": 1.0762710778966509,
        "distance_wrist_1_joint": 1.0523511184559058,
        "distance_wrist_2_joint": 0.8935606933041922,
        "distance_wrist_3_joint": 6.823176924684839,
        "smoothness": 0.517474986372904,
        "time": 0.7192489009999999,
        "traj_len": 3.442435464249771,
        "weighted_distance": 5.2385711397913
    },
    "planner": "EST",
    "start": {
        "state": {
            "elbow_joint": 1.9565354010623817,
            "shoulder_lift_joint": -1.4165861575791021,
            "shoulder_pan_joint": -1.6717766225146293,
            "wrist_1_joint": -0.5286633292919765,
            "wrist_2_joint": 1.472756589071564,
            "wrist_3_joint": -3.1238370188695823
        }
    },
    "waypoints": [
        {
            "positions": [
                -1.6717766225146293,
                -1.4165861575791021,
                1.9565354010623817,
                -0.5286633292919765,
                1.472756589071564,
                -3.1238370188695823
            ]
        },
        {
            "positions": [
                -1.6584980499078252,
                -1.453632439365338,
                1.9387503539296518,
                -0.426241672820831,
                1.432801087727952,
                -2.963690356126665
            ]
        },
        {
            "positions": [
                -1.6452194773010214,
                -1.490678721151574,
                1.9209653067969221,
                -0.3238200163496855,
                1.3928455863843403,
                -2.8035436933837485
            ]
        },
        {
            "positions": [
                -1.6319409046942173,
                -1.5277250029378098,
                1.9031802596641922,
                -0.22139835987853995,
                1.3528900850407284,
                -2.6433970306408314
            ]
        },
        {
            "positions": [
                -1.6230959935285445,
                -1.547607822841382,
                1.8872300099480692,
                -0.2228111871046892,
                1.3010740336699906,
                -2.3774516433156463
            ]
        },
        {
            "positions": [
                -1.614251082362872,
                -1.5674906427449542,
                1.871279760231946,
                -0.22422401433083847,
                1.249257982299253,
                -2.111506255990461
            ]
        },
        {
            "positions": [
                -1.6054061711971992,
                -1.5873734626485265,
                1.855329510515823,
                -0.2256368415569877,
                1.1974419309285154,
                -1.8455608686652765
            ]
        },
        {
            "positions": [
                -1.5965612600315267,
                -1.6072562825520986,
                1.8393792607997,
                -0.22704966878313698,
                1.1456258795577776,
                -1.5796154813400913
            ]
        },
        {
            "positions": [
                -1.5877163488658539,
                -1.627139102455671,
                1.823429011083577,
                -0.22846249600928623,
                1.0938098281870399,
                -1.3136700940149064
            ]
        },
        {
            "positions": [
                -1.5788714377001813,
                -1.647021922359243,
                1.8074787613674537,
                -0.2298753232354355,
                1.0419937768163021,
                -1.0477247066897215
            ]
        },
        {
            "positions": [
                -1.5700265265345086,
                -1.6669047422628154,
                1.7915285116513306,
                -0.23128815046158474,
                0.9901777254455644,
                -0.7817793193645364
            ]
        },
        {
            "positions": [
                -1.561181615368836,
                -1.6867875621663875,
                1.7755782619352076,
                -0.232700977687734,
                0.9383616740748267,
                -0.5158339320393512
            ]
        },
        {
            "positions": [
                -1.5523367042031633,
                -1.7066703820699598,
                1.7596280122190846,
                -0.23411380491388326,
                0.886545622704089,
                -0.2498885447141661
            ]
        },
        {
            "positions": [
                -1.5434917930374907,
                -1.726553201973532,
                1.7436777625029614,
                -0.2355266321400325,
                0.8347295713333514,
                0.016056842611018585
            ]
        },
        {
            "positions": [
                -1.534646881871818,
                -1.7464360218771042,
                1.7277275127868383,
                -0.23693945936618177,
                0.7829135199626136,
                0.2820022299362036
            ]
        },
        {
            "positions": [
                -1.6315918446154263,
                -1.7163226433944856,
                1.7915989236898582,
                -0.31123939488081176,
                0.7882096861979427,
                0.19408050841368657
            ]
        },
        {
            "positions": [
                -1.7285368073590346,
                -1.6862092649118667,
                1.8554703345928778,
                -0.38553933039544175,
                0.7935058524332719,
                0.10615878689116953
            ]
        },
        {
            "positions": [
                -1.825481770102643,
                -1.656095886429248,
                1.9193417454958976,
                -0.4598392659100717,
                0.798802018668601,
                0.018237065368652494
            ]
        },
        {
            "positions": [
                -1.9224267328462512,
                -1.6259825079466295,
                1.9832131563989175,
                -0.5341392014247017,
                0.8040981849039301,
                -0.06968465615386454
            ]
        },
        {
            "positions": [
                -2.0193716955898595,
                -1.5958691294640106,
                2.0470845673019373,
                -0.6084391369393316,
                0.8093943511392593,
                -0.15760637767638164
            ]
        },
        {
            "positions": [
                -2.116316658333468,
                -1.565755750981392,
                2.1109559782049567,
                -0.6827390724539616,
                0.8146905173745884,
                -0.24552809919889862
            ]
        },
        {
            "positions": [
                -2.213261621077076,
                -1.5356423724987733,
                2.1748273891079766,
                -0.7570390079685916,
                0.8199866836099176,
                -0.3334498207214157
            ]
        },
        {
            "positions": [
                -2.3102065838206842,
                -1.5055289940161545,
                2.2386988000109964,
                -0.8313389434832216,
                0.8252828498452467,
                -0.4213715422439327
            ]
        },
        {
            "positions": [
                -2.4071515465642928,
                -1.4754156155335358,
                2.3025702109140163,
                -0.9056388789978516,
                0.8305790160805758,
                -0.5092932637664498
            ]
        },
        {
            "positions": [
                -2.4145556212933332,
                -1.4408638669338572,
                2.270401820164955,
                -0.898878253450834,
                0.8132398907386559,
                -0.8010757284527166
            ]
        },
        {
            "positions": [
                -2.4219596960223737,
                -1.4063121183341785,
                2.238233429415894,
                -0.8921176279038165,
                0.7959007653967359,
                -1.0928581931389834
            ]
        },
        {
            "positions": [
                -2.429363770751414,
                -1.3717603697344998,
                2.206065038666833,
                -0.8853570023567991,
                0.778561640054816,
                -1.3846406578252501
            ]
        },
        {
            "positions": [
                -2.4367678454804547,
                -1.337208621134821,
                2.173896647917772,
                -0.8785963768097816,
                0.761222514712896,
                -1.676423122511517
            ]
        },
        {
            "positions": [
                -2.4441719202094956,
                -1.3026568725351422,
                2.1417282571687113,
                -0.8718357512627641,
                0.743883389370976,
                -1.9682055871977837
            ]
        },
        {
            "positions": [
                -2.451575994938536,
                -1.2681051239354635,
                2.10955986641965,
                -0.8650751257157466,
                0.726544264029056,
                -2.2599880518840507
            ]
        },
        {
            "positions": [
                -2.4589800696675765,
                -1.2335533753357848,
                2.077391475670589,
                -0.8583145001687292,
                0.7092051386871361,
                -2.5517705165703175
            ]
        },
        {
            "positions": [
                -2.466384144396617,
                -1.199001626736106,
                2.045223084921528,
                -0.8515538746217117,
                0.6918660133452161,
                -2.8435529812565843
            ]
        },
        {
            "positions": [
                -2.4737882191256575,
                -1.1644498781364274,
                2.013054694172467,
                -0.8447932490746942,
                0.6745268880032962,
                -3.1353354459428506
            ]
        }
    ]
}