{
    "goal": {
        "global_pose": {
            "orientation": {
                "w": 0.7047431493862688,
                "x": -0.7094548369677653,
                "y": 0.0024358444001904,
                "z": -0.0022348060817251984
            },
            "position": {
                "x": -0.39052492380142206,
                "y": 0.3671506643295288,
                "z": 0.19426114857196808
            }
        },
        "name": "move_to_magneteinheit_D"
    },
    "id": "EST_move_to_magneteinheit_D_38",
    "joint_names": [
        "shoulder_pan_joint",
        "shoulder_lift_joint",
        "elbow_joint",
        "wrist_1_joint",
        "wrist_2_joint",
        "wrist_3_joint"
    ],
    "metrics": {
        "cart_traj_len": 4.5715158135349805,
        "distance_elbow_joint": 3.920189374328451,
        "distance_shoulder_lift_joint": 1.416905932216232,
        "distance_shoulder_pan_joint": 3.1451479700408176,
        "distance_wrist_1_joint": 2.098200018646886,
        "distance_wrist_2_joint": 1.0131217263987873,
        "distance_wrist_3_joint": 6.319407495658828,
        "smoothness": 0.39850794332617046,
        "time": 0.15632539,
        "traj_len": 4.232371972935508,
        "weighted_distance": 5.8019918350212585
    },
    "planner": "EST",
    "start": {
        "state": {
            "elbow_joint": 0.749534889911806,
            "shoulder_lift_joint": -0.6476975780787326,
            "shoulder_pan_joint": -2.711696901376241,
            "wrist_1_joint": -0.07506478083263063,
            "wrist_2_joint": 0.43296659715538205,
            "wrist_3_joint": -3.14703540197715
        }
    },
    "waypoints": [
        {
            "positions": [
                -2.711696901376241,
                -0.6476975780787326,
                0.749534889911806,
                -0.07506478083263063,
                0.43296659715538205,
                -3.14703540197715
            ]
        },
        {
            "positions": [
                -2.729733816317218,
                -0.7054806667002114,
                0.8164871367994171,
                -0.11235568155066887,
                0.40503959174106363,
                -3.0227911817591395
            ]
        },
        {
            "positions": [
                -2.747770731258195,
                -0.7632637553216902,
                0.8834393836870282,
                -0.1496465822687071,
                0.37711258632674516,
                -2.898546961541129
            ]
        },
        {
            "positions": [
                -2.7658076461991716,
                -0.8210468439431691,
                0.9503916305746395,
                -0.18693748298674537,
                0.3491855809124267,
                -2.7743027413231185
            ]
        },
        {
            "positions": [
                -2.7838445611401483,
                -0.8788299325646478,
                1.0173438774622507,
                -0.2242283837047836,
                0.32125857549810827,
                -2.650058521105108
            ]
        },
        {
            "positions": [
                -2.8018814760811255,
                -0.9366130211861265,
                1.084296124349862,
                -0.2615192844228219,
                0.29333157008378985,
                -2.5258143008870975
            ]
        },
        {
            "positions": [
                -2.819918391022102,
                -0.9943961098076054,
                1.151248371237473,
                -0.2988101851408601,
                0.2654045646694714,
                -2.401570080669087
            ]
        },
        {
            "positions": [
                -2.7443812467622775,
                -1.0156271840381965,
                1.0661997779249262,
                -0.34738625032369347,
                0.2479559722694039,
                -2.260428455253022
            ]
        },
        {
            "positions": [
                -2.6688441025024523,
                -1.0368582582687877,
                0.981151184612379,
                -0.3959623155065268,
                0.23050737986933648,
                -2.119286829836957
            ]
        },
        {
            "positions": [
                -2.5933069582426276,
                -1.058089332499379,
                0.8961025912998322,
                -0.44453838068936014,
                0.21305878746926904,
                -1.9781452044208923
            ]
        },
        {
            "positions": [
                -2.5177698139828024,
                -1.0793204067299702,
                0.8110539979872852,
                -0.49311444587219344,
                0.19561019506920158,
                -1.8370035790048274
            ]
        },
        {
            "positions": [
                -2.4422326697229777,
                -1.1005514809605614,
                0.7260054046747382,
                -0.5416905110550267,
                0.1781616026691341,
                -1.6958619535887625
            ]
        },
        {
            "positions": [
                -2.3666955254631525,
                -1.1217825551911524,
                0.6409568113621913,
                -0.5902665762378602,
                0.16071301026906668,
                -1.5547203281726976
            ]
        },
        {
            "positions": [
                -2.291158381203328,
                -1.1430136294217437,
                0.5559082180496443,
                -0.6388426414206935,
                0.14326441786899924,
                -1.4135787027566327
            ]
        },
        {
            "positions": [
                -2.2156212369435027,
                -1.164244703652335,
                0.4708596247370973,
                -0.6874187066035269,
                0.12581582546893177,
                -1.2724370773405678
            ]
        },
        {
            "positions": [
                -2.140084092683678,
                -1.1854757778829261,
                0.3858110314245503,
                -0.7359947717863602,
                0.10836723306886434,
                -1.1312954519245029
            ]
        },
        {
            "positions": [
                -2.064546948423853,
                -1.2067068521135171,
                0.3007624381120034,
                -0.7845708369691935,
                0.09091864066879687,
                -0.990153826508438
            ]
        },
        {
            "positions": [
                -1.989009804164028,
                -1.2279379263441084,
                0.21571384479945643,
                -0.8331469021520268,
                0.07347004826872944,
                -0.8490122010923731
            ]
        },
        {
            "positions": [
                -1.913472659904203,
                -1.2491690005746996,
                0.13066525148690955,
                -0.8817229673348602,
                0.056021455868661973,
                -0.7078705756763082
            ]
        },
        {
            "positions": [
                -1.8379355156443782,
                -1.2704000748052908,
                0.045616658174362446,
                -0.9302990325176935,
                0.03857286346859454,
                -0.5667289502602433
            ]
        },
        {
            "positions": [
                -1.7623983713845532,
                -1.291631149035882,
                -0.03943193513818444,
                -0.9788750977005268,
                0.021124271068527073,
                -0.4255873248441784
            ]
        },
        {
            "positions": [
                -1.6868612271247283,
                -1.3128622232664733,
                -0.12448052845073154,
                -1.0274511628833602,
                0.0036756786684596365,
                -0.2844456994281135
            ]
        },
        {
            "positions": [
                -1.6113240828649034,
                -1.3340932974970643,
                -0.20952912176327843,
                -1.0760272280661936,
                -0.013772913731607828,
                -0.1433040740120486
            ]
        },
        {
            "positions": [
                -1.5357869386050784,
                -1.3553243717276555,
                -0.2945777150758253,
                -1.1246032932490269,
                -0.031221506131675292,
                -0.0021624485959836903
            ]
        },
        {
            "positions": [
                -1.4602497943452535,
                -1.3765554459582467,
                -0.3796263083883724,
                -1.1731793584318602,
                -0.0486700985317427,
                0.1389791768200812
            ]
        },
        {
            "positions": [
                -1.3847126500854288,
                -1.3977865201888378,
                -0.4646749017009191,
                -1.2217554236146935,
                -0.06611869093181016,
                0.2801208022361461
            ]
        },
        {
            "positions": [
                -1.3091755058256036,
                -1.419017594419429,
                -0.5497234950134662,
                -1.270331488797527,
                -0.08356728333187763,
                0.421262427652211
            ]
        },
        {
            "positions": [
                -1.2336383615657789,
                -1.4402486686500202,
                -0.6347720883260131,
                -1.31890755398036,
                -0.10101587573194504,
                0.5624040530682759
            ]
        },
        {
            "positions": [
                -1.1581012173059537,
                -1.4614797428806114,
                -0.7198206816385602,
                -1.3674836191631936,
                -0.1184644681320125,
                0.7035456784843408
            ]
        },
        {
            "positions": [
                -1.082564073046129,
                -1.4827108171112027,
                -0.804869274951107,
                -1.4160596843460267,
                -0.13591306053207997,
                0.8446873039004057
            ]
        },
        {
            "positions": [
                -1.0070269287863038,
                -1.503941891341794,
                -0.8899178682636539,
                -1.4646357495288602,
                -0.15336165293214743,
                0.9858289293164706
            ]
        },
        {
            "positions": [
                -0.9314897845264791,
                -1.5251729655723851,
                -0.974966461576201,
                -1.5132118147116933,
                -0.17081024533221484,
                1.1269705547325355
            ]
        },
        {
            "positions": [
                -0.8559526402666542,
                -1.5464040398029764,
                -1.0600150548887481,
                -1.5617878798945268,
                -0.1882588377322823,
                1.2681121801486004
            ]
        },
        {
            "positions": [
                -0.7804154960068295,
                -1.5676351140335674,
                -1.1450636482012948,
                -1.6103639450773604,
                -0.20570743013234977,
                1.4092538055646653
            ]
        },
        {
            "positions": [
                -0.7048783517470043,
                -1.5888661882641586,
                -1.230112241513842,
                -1.6589400102601934,
                -0.22315602253241723,
                1.5503954309807302
            ]
        },
        {
            "positions": [
                -0.6293412074871796,
                -1.6100972624947496,
                -1.315160834826389,
                -1.707516075443027,
                -0.24060461493248464,
                1.691537056396795
            ]
        },
        {
            "positions": [
                -0.5538040632273544,
                -1.6313283367253408,
                -1.4002094281389361,
                -1.75609214062586,
                -0.2580532073325521,
                1.83267868181286
            ]
        },
        {
            "positions": [
                -0.4782669189675297,
                -1.652559410955932,
                -1.4852580214514828,
                -1.8046682058086936,
                -0.27550179973261957,
                1.9738203072289249
            ]
        },
        {
            "positions": [
                -0.40272977470770455,
                -1.6737904851865233,
                -1.5703066147640299,
                -1.853244270991527,
                -0.29295039213268703,
                2.1149619326449898
            ]
        },
        {
            "positions": [
                -0.32719263044787983,
                -1.6950215594171145,
                -1.6553552080765765,
                -1.9018203361743602,
                -0.3103989845327545,
                2.2561035580610547
            ]
        },
        {
            "positions": [
                -0.25165548618805467,
                -1.7162526336477057,
                -1.7404038013891237,
                -1.9503964013571937,
                -0.32784757693282196,
                2.3972451834771196
            ]
        },
        {
            "positions": [
                -0.17611834192822995,
                -1.737483707878297,
                -1.8254523947016708,
                -1.9989724665400268,
                -0.3452961693328893,
                2.5383868088931845
            ]
        },
        {
            "positions": [
                -0.10058119766840479,
                -1.7587147821088882,
                -1.9105009880142179,
                -2.0475485317228603,
                -0.3627447617329568,
                2.6795284343092494
            ]
        },
        {
            "positions": [
                -0.025044053408580236,
                -1.7799458563394792,
                -1.9955495813267643,
                -2.0961245969056934,
                -0.38019335413302424,
                2.820670059725314
            ]
        },
        {
            "positions": [
                -0.011186639223404127,
                -1.7259711176413035,
                -2.0980144119873922,
                -2.0946317897295526,
                -0.37137644903049316,
                2.931816391104435
            ]
        },
        {
            "positions": [
                0.0026707749617719823,
                -1.6719963789431276,
                -2.2004792426480204,
                -2.093138982553412,
                -0.362559543927962,
                3.0429627224835567
            ]
        },
        {
            "positions": [
                0.01652818914694809,
                -1.6180216402449519,
                -2.302944073308648,
                -2.0916461753772713,
                -0.35374263882543094,
                3.154109053862678
            ]
        },
        {
            "positions": [
                -0.08371176096600466,
                -1.679388359175431,
                -2.3350857975369794,
                -2.127977065899972,
                -0.2669871089240372,
                3.144977533953178
            ]
        },
        {
            "positions": [
                -0.18395171107895741,
                -1.74075507810591,
                -2.3672275217653107,
                -2.1643079564226726,
                -0.18023157902264353,
                3.135846014043678
            ]
        }
    ]
}