{
    "goal": {
        "global_pose": {
            "orientation": {
                "w": 0.7047431493862688,
                "x": -0.7094548369677653,
                "y": 0.0024358444001904,
                "z": -0.0022348060817251984
            },
            "position": {
                "x": -0.39052492380142206,
                "y": 0.3671506643295288,
                "z": 0.19426114857196808
            }
        },
        "name": "move_to_magneteinheit_D"
    },
    "id": "EST_move_to_magneteinheit_D_46",
    "joint_names": [
        "shoulder_pan_joint",
        "shoulder_lift_joint",
        "elbow_joint",
        "wrist_1_joint",
        "wrist_2_joint",
        "wrist_3_joint"
    ],
    "metrics": {
        "cart_traj_len": 4.321269502912646,
        "distance_elbow_joint": 3.4947749803562225,
        "distance_shoulder_lift_joint": 1.1065535093192207,
        "distance_shoulder_pan_joint": 3.5310110729184165,
        "distance_wrist_1_joint": 2.8257921243207855,
        "distance_wrist_2_joint": 0.8527290475177343,
        "distance_wrist_3_joint": 1.3459764971838282,
        "smoothness": 0.7007402829659546,
        "time": 0.300881081,
        "traj_len": 3.6272354805852083,
        "weighted_distance": 4.418971757979721
    },
    "planner": "EST",
    "start": {
        "state": {
            "elbow_joint": 0.749534889911806,
            "shoulder_lift_joint": -0.6476975780787326,
            "shoulder_pan_joint": -2.711696901376241,
            "wrist_1_joint": -0.07506478083263063,
            "wrist_2_joint": 0.43296659715538205,
            "wrist_3_joint": -3.14703540197715
        }
    },
    "waypoints": [
        {
            "positions": [
                -2.711696901376241,
                -0.6476975780787326,
                0.749534889911806,
                -0.07506478083263063,
                0.43296659715538205,
                -3.14703540197715
            ]
        },
        {
            "positions": [
                -2.7458682047095966,
                -0.739383734983733,
                0.816426128159963,
                0.017856484517284346,
                0.442431644571431,
                -3.071257388544371
            ]
        },
        {
            "positions": [
                -2.780039508042952,
                -0.8310698918887334,
                0.8833173664081199,
                0.11077774986719932,
                0.45189669198748,
                -2.995479375111592
            ]
        },
        {
            "positions": [
                -2.8142108113763076,
                -0.9227560487937339,
                0.9502086046562769,
                0.2036990152171143,
                0.461361739403529,
                -2.919701361678813
            ]
        },
        {
            "positions": [
                -2.6879845296839036,
                -0.9390780160307133,
                0.8314242361784902,
                0.10026585858170464,
                0.4651874409623707,
                -2.89928733409235
            ]
        },
        {
            "positions": [
                -2.561758247991499,
                -0.9553999832676928,
                0.7126398677007035,
                -0.0031672980537050255,
                0.4690131425212124,
                -2.878873306505887
            ]
        },
        {
            "positions": [
                -2.435531966299095,
                -0.9717219505046722,
                0.5938554992229168,
                -0.10660045468911472,
                0.4728388440800541,
                -2.858459278919424
            ]
        },
        {
            "positions": [
                -2.3093056846066906,
                -0.9880439177416518,
                0.47507113074513013,
                -0.21003361132452436,
                0.4766645456388958,
                -2.838045251332961
            ]
        },
        {
            "positions": [
                -2.1830794029142866,
                -1.0043658849786312,
                0.35628676226734335,
                -0.3134667679599341,
                0.48049024719773753,
                -2.8176312237464978
            ]
        },
        {
            "positions": [
                -2.056853121221882,
                -1.0206878522156106,
                0.23750239378955673,
                -0.41689992459534375,
                0.48431594875657924,
                -2.7972171961600347
            ]
        },
        {
            "positions": [
                -1.9306268395294781,
                -1.03700981945259,
                0.11871802531177,
                -0.5203330812307535,
                0.4881416503154209,
                -2.776803168573572
            ]
        },
        {
            "positions": [
                -1.8044005578370739,
                -1.0533317866895697,
                -6.634316601661361e-05,
                -0.623766237866163,
                0.4919673518742626,
                -2.756389140987109
            ]
        },
        {
            "positions": [
                -1.6781742761446696,
                -1.0696537539265492,
                -0.11885071164380323,
                -0.7271993945015728,
                0.4957930534331043,
                -2.735975113400646
            ]
        },
        {
            "positions": [
                -1.5519479944522654,
                -1.0859757211635286,
                -0.23763508012159018,
                -0.8306325511369825,
                0.499618754991946,
                -2.715561085814183
            ]
        },
        {
            "positions": [
                -1.4257217127598611,
                -1.102297688400508,
                -0.3564194485993767,
                -0.9340657077723922,
                0.5034444565507877,
                -2.69514705822772
            ]
        },
        {
            "positions": [
                -1.299495431067457,
                -1.1186196556374877,
                -0.4752038170771634,
                -1.0374988644078018,
                0.5072701581096295,
                -2.674733030641257
            ]
        },
        {
            "positions": [
                -1.1732691493750529,
                -1.134941622874467,
                -0.5939881855549499,
                -1.1409320210432115,
                0.5110958596684712,
                -2.654319003054794
            ]
        },
        {
            "positions": [
                -1.0470428676826484,
                -1.1512635901114465,
                -0.7127725540327369,
                -1.2443651776786213,
                0.5149215612273128,
                -2.633904975468331
            ]
        },
        {
            "positions": [
                -0.9208165859902442,
                -1.167585557348426,
                -0.8315569225105236,
                -1.347798334314031,
                0.5187472627861546,
                -2.6134909478818678
            ]
        },
        {
            "positions": [
                -0.7945903042978402,
                -1.1839075245854054,
                -0.9503412909883101,
                -1.4512314909494404,
                0.5225729643449962,
                -2.5930769202954047
            ]
        },
        {
            "positions": [
                -0.6683640226054357,
                -1.2002294918223848,
                -1.069125659466097,
                -1.5546646475848502,
                0.526398665903838,
                -2.5726628927089417
            ]
        },
        {
            "positions": [
                -0.5421377409130317,
                -1.2165514590593645,
                -1.1879100279438832,
                -1.6580978042202599,
                0.5302243674626796,
                -2.552248865122479
            ]
        },
        {
            "positions": [
                -0.41591145922062767,
                -1.2328734262963439,
                -1.30669439642167,
                -1.7615309608556695,
                0.5340500690215214,
                -2.531834837536016
            ]
        },
        {
            "positions": [
                -0.2896851775282232,
                -1.2491953935333233,
                -1.4254787648994571,
                -1.8649641174910794,
                0.5378757705803631,
                -2.511420809949553
            ]
        },
        {
            "positions": [
                -0.16345889583581874,
                -1.265517360770303,
                -1.5442631333772434,
                -1.9683972741264888,
                0.5417014721392048,
                -2.49100678236309
            ]
        },
        {
            "positions": [
                -0.03723261414341472,
                -1.2818393280072824,
                -1.6630475018550301,
                -2.0718304307618984,
                0.5455271736980465,
                -2.470592754776627
            ]
        },
        {
            "positions": [
                0.08899366754898974,
                -1.2981612952442618,
                -1.7818318703328169,
                -2.1752635873973087,
                0.5493528752568883,
                -2.450178727190164
            ]
        },
        {
            "positions": [
                0.21521994924139362,
                -1.3144832624812413,
                -1.9006162388106038,
                -2.2786967440327177,
                0.5531785768157299,
                -2.429764699603701
            ]
        },
        {
            "positions": [
                0.16886510637751942,
                -1.3630078102218155,
                -1.9602825917665556,
                -2.2894018786046058,
                0.47541923599199465,
                -2.509915068087791
            ]
        },
        {
            "positions": [
                0.1225102635136452,
                -1.41153235796239,
                -2.0199489447225076,
                -2.3001070131764942,
                0.3976598951682594,
                -2.5900654365718814
            ]
        },
        {
            "positions": [
                0.07615542064977099,
                -1.4600569057029642,
                -2.079615297678459,
                -2.3108121477483823,
                0.3199005543445241,
                -2.6702158050559714
            ]
        },
        {
            "positions": [
                0.024155045907965828,
                -1.518895742041962,
                -2.132470770333862,
                -2.3043087146872736,
                0.22005274526728796,
                -2.747866742927593
            ]
        },
        {
            "positions": [
                -0.027845328833839333,
                -1.5777345783809598,
                -2.185326242989265,
                -2.297805281626165,
                0.12020493619005185,
                -2.825517680799215
            ]
        },
        {
            "positions": [
                -0.07984570357564447,
                -1.6365734147199578,
                -2.2381817156446684,
                -2.2913018485650563,
                0.02035712711281573,
                -2.9031686186708363
            ]
        },
        {
            "positions": [
                -0.13184607831744966,
                -1.6954122510589555,
                -2.2910371883000713,
                -2.2847984155039476,
                -0.07949068196442038,
                -2.9808195565424582
            ]
        },
        {
            "positions": [
                -0.1838464530592548,
                -1.7542510873979533,
                -2.343892660955474,
                -2.278294982442839,
                -0.1793384910416565,
                -3.0584704944140797
            ]
        }
    ]
}