{
    "goal": {
        "global_pose": {
            "orientation": {
                "w": 0.005598929693374612,
                "x": 0.007748599140229565,
                "y": 0.7110244013736278,
                "z": -0.7031023480610252
            },
            "position": {
                "x": -0.8858502320852131,
                "y": -0.7141253447532654,
                "z": 0.3711530566215515
            }
        },
        "name": "move_to_auspresseinheit_C"
    },
    "id": "EST_move_to_auspresseinheit_C_56",
    "joint_names": [
        "shoulder_pan_joint",
        "shoulder_lift_joint",
        "elbow_joint",
        "wrist_1_joint",
        "wrist_2_joint",
        "wrist_3_joint"
    ],
    "metrics": {
        "cart_traj_len": 0.4928590879691249,
        "distance_elbow_joint": 1.000279062174613,
        "distance_shoulder_lift_joint": 0.32488931306298907,
        "distance_shoulder_pan_joint": 0.25579373567795916,
        "distance_wrist_1_joint": 0.6783055376696276,
        "distance_wrist_2_joint": 1.3204782596480955,
        "distance_wrist_3_joint": 0.05828585438721667,
        "smoothness": 3.2297397080004555e-16,
        "time": 1.693459964,
        "traj_len": 1.9073625147361213,
        "weighted_distance": 2.398621952020088
    },
    "planner": "EST",
    "start": {
        "state": {
            "elbow_joint": 1.7527959577737207,
            "shoulder_lift_joint": -0.9740617694225068,
            "shoulder_pan_joint": -2.967991417825858,
            "wrist_1_joint": -0.759517768980727,
            "wrist_2_joint": 1.7443932448377408,
            "wrist_3_joint": -3.0840537646736568
        }
    },
    "waypoints": [
        {
            "positions": [
                -2.967991417825858,
                -0.9740617694225068,
                1.7527959577737207,
                -0.759517768980727,
                1.7443932448377408,
                -3.0840537646736568
            ]
        },
        {
            "positions": [
                -2.942412044258062,
                -0.9415728381162078,
                1.6527680515562593,
                -0.6916872152137642,
                1.6123454188729314,
                -3.0898823501123784
            ]
        },
        {
            "positions": [
                -2.9168326706902663,
                -0.9090839068099089,
                1.5527401453387981,
                -0.6238566614468014,
                1.4802975929081217,
                -3.0957109355511
            ]
        },
        {
            "positions": [
                -2.89125329712247,
                -0.8765949755036101,
                1.4527122391213367,
                -0.5560261076798387,
                1.3482497669433122,
                -3.1015395209898218
            ]
        },
        {
            "positions": [
                -2.865673923554674,
                -0.8441060441973112,
                1.3526843329038756,
                -0.4881955539128759,
                1.2162019409785025,
                -3.1073681064285434
            ]
        },
        {
            "positions": [
                -2.8400945499868784,
                -0.8116171128910122,
                1.2526564266864142,
                -0.42036500014591316,
                1.084154115013693,
                -3.113196691867265
            ]
        },
        {
            "positions": [
                -2.8145151764190826,
                -0.7791281815847133,
                1.1526285204689528,
                -0.35253444637895043,
                0.9521062890488835,
                -3.1190252773059868
            ]
        },
        {
            "positions": [
                -2.7889358028512867,
                -0.7466392502784145,
                1.0526006142514917,
                -0.28470389261198764,
                0.820058463084074,
                -3.1248538627447084
            ]
        },
        {
            "positions": [
                -2.7633564292834905,
                -0.7141503189721154,
                0.9525727080340303,
                -0.2168733388450248,
                0.6880106371192645,
                -3.13068244818343
            ]
        },
        {
            "positions": [
                -2.7377770557156946,
                -0.6816613876658166,
                0.852544801816569,
                -0.14904278507806212,
                0.5559628111544548,
                -3.136511033622152
            ]
        },
        {
            "positions": [
                -2.712197682147899,
                -0.6491724563595177,
                0.7525168955991078,
                -0.08121223131109939,
                0.4239149851896454,
                -3.1423396190608734
            ]
        }
    ]
}