{
    "goal": {
        "global_pose": {
            "orientation": {
                "w": 0.5084816217422485,
                "x": -0.49083608388900757,
                "y": 0.5182115435600281,
                "z": -0.4816462993621826
            },
            "position": {
                "x": 0.5540239810943604,
                "y": 0.030875300988554955,
                "z": 0.16403168439865112
            }
        },
        "name": "move_to_storage_A"
    },
    "id": "EST_move_to_storage_A_94",
    "joint_names": [
        "shoulder_pan_joint",
        "shoulder_lift_joint",
        "elbow_joint",
        "wrist_1_joint",
        "wrist_2_joint",
        "wrist_3_joint"
    ],
    "metrics": {
        "cart_traj_len": 0.3526391284717076,
        "distance_elbow_joint": 0.4478741009800109,
        "distance_shoulder_lift_joint": 0.2345337088402497,
        "distance_shoulder_pan_joint": 0.461420351632234,
        "distance_wrist_1_joint": 0.2366369101335587,
        "distance_wrist_2_joint": 1.0962877861362976,
        "distance_wrist_3_joint": 0.1011643279170058,
        "smoothness": 6.661338165333112e-16,
        "time": 0.129077752,
        "traj_len": 1.6055893577248688,
        "weighted_distance": 2.0280952979934708
    },
    "planner": "EST",
    "start": {
        "state": {
            "elbow_joint": 1.971548259319323,
            "shoulder_lift_joint": -1.1394851275133948,
            "shoulder_pan_joint": 0.1228115487234821,
            "wrist_1_joint": -0.7804723859257726,
            "wrist_2_joint": 0.12958671773740124,
            "wrist_3_joint": -3.192489227718131
        }
    },
    "waypoints": [
        {
            "positions": [
                0.1228115487234821,
                -1.1394851275133948,
                1.971548259319323,
                -0.7804723859257726,
                0.12958671773740124,
                -3.192489227718131
            ]
        },
        {
            "positions": [
                0.05689435563316296,
                -1.1729899430620019,
                2.0355302737450387,
                -0.8142776588019953,
                0.2861992586140152,
                -3.1780371808728445
            ]
        },
        {
            "positions": [
                -0.00902283745715618,
                -1.206494758610609,
                2.0995122881707546,
                -0.8480829316782179,
                0.4428117994906291,
                -3.1635851340275583
            ]
        },
        {
            "positions": [
                -0.0749400305474753,
                -1.239999574159216,
                2.1634943025964706,
                -0.8818882045544406,
                0.599424340367243,
                -3.1491330871822716
            ]
        },
        {
            "positions": [
                -0.14085722363779446,
                -1.2735043897078233,
                2.2274763170221865,
                -0.9156934774306633,
                0.756036881243857,
                -3.134681040336985
            ]
        },
        {
            "positions": [
                -0.20677441672811364,
                -1.3070092052564304,
                2.2914583314479025,
                -0.9494987503068859,
                0.9126494221204711,
                -3.1202289934916982
            ]
        },
        {
            "positions": [
                -0.2726916098184327,
                -1.3405140208050375,
                2.355440345873618,
                -0.9833040231831086,
                1.0692619629970848,
                -3.105776946646412
            ]
        },
        {
            "positions": [
                -0.3386088029087519,
                -1.3740188363536445,
                2.419422360299334,
                -1.0171092960593313,
                1.225874503873699,
                -3.0913248998011253
            ]
        }
    ]
}{
    "goal": {
        "global_pose": {
            "orientation": {
                "w": 0.5084816217422485,
                "x": -0.49083608388900757,
                "y": 0.5182115435600281,
                "z": -0.4816462993621826
            },
            "position": {
                "x": 0.5540239810943604,
                "y": 0.030875300988554955,
                "z": 0.16403168439865112
            }
        },
        "name": "move_to_storage_A"
    },
    "id": "EST_move_to_storage_A_94",
    "joint_names": [
        "shoulder_pan_joint",
        "shoulder_lift_joint",
        "elbow_joint",
        "wrist_1_joint",
        "wrist_2_joint",
        "wrist_3_joint"
    ],
    "metrics": {
        "cart_traj_len": 0.35302968087688036,
        "distance_elbow_joint": 0.45017500337061955,
        "distance_shoulder_lift_joint": 0.2360429863352127,
        "distance_shoulder_pan_joint": 0.4607500458387254,
        "distance_wrist_1_joint": 0.23911908455656739,
        "distance_wrist_2_joint": 1.10359232061782,
        "distance_wrist_3_joint": 0.08853812506437286,
        "smoothness": 4.440892098500626e-16,
        "time": 0.07576519,
        "traj_len": 1.6056828970202424,
        "weighted_distance": 2.0243530376607857
    },
    "planner": "EST",
    "start": {
        "state": {
            "elbow_joint": 1.97154746011099,
            "shoulder_lift_joint": -1.13948474672311,
            "shoulder_pan_joint": 0.12281154466712228,
            "wrist_1_joint": -0.7804688027058302,
            "wrist_2_joint": 0.12958655903071145,
            "wrist_3_joint": 3.0906928834467795
        }
    },
    "waypoints": [
        {
            "positions": [
                0.12281154466712228,
                -1.13948474672311,
                1.97154746011099,
                -0.7804688027058302,
                0.12958655903071145,
                3.0906928834467795
            ]
        },
        {
            "positions": [
                0.056990109547304366,
                -1.173205173342426,
                2.0358581748782214,
                -0.814628671928197,
                0.28724260483325714,
                3.103341187027404
            ]
        },
        {
            "positions": [
                -0.008831325572513551,
                -1.206925599961742,
                2.1001688896454525,
                -0.8487885411505637,
                0.4448986506358028,
                3.1159894906080288
            ]
        },
        {
            "positions": [
                -0.07465276069233147,
                -1.2406460265810582,
                2.164479604412684,
                -0.8829484103729305,
                0.6025546964383486,
                3.1286377941886534
            ]
        },
        {
            "positions": [
                -0.14047419581214937,
                -1.2743664532003742,
                2.2287903191799154,
                -0.9171082795952973,
                0.7602107422408942,
                3.1412860977692785
            ]
        },
        {
            "positions": [
                -0.2062956309319673,
                -1.3080868798196905,
                2.293101033947147,
                -0.951268148817664,
                0.91786678804344,
                3.153934401349903
            ]
        },
        {
            "positions": [
                -0.2721170660517852,
                -1.3418073064390066,
                2.357411748714378,
                -0.9854280180400308,
                1.0755228338459857,
                3.1665827049305277
            ]
        },
        {
            "positions": [
                -0.3379385011716031,
                -1.3755277330583227,
                2.4217224634816095,
                -1.0195878872623976,
                1.2331788796485315,
                3.1792310085111524
            ]
        }
    ]
}{
    "goal": {
        "global_pose": {
            "orientation": {
                "w": 0.5084816217422485,
                "x": -0.49083608388900757,
                "y": 0.5182115435600281,
                "z": -0.4816462993621826
            },
            "position": {
                "x": 0.5540239810943604,
                "y": 0.030875300988554955,
                "z": 0.16403168439865112
            }
        },
        "name": "move_to_storage_A"
    },
    "id": "EST_move_to_storage_A_94",
    "joint_names": [
        "shoulder_pan_joint",
        "shoulder_lift_joint",
        "elbow_joint",
        "wrist_1_joint",
        "wrist_2_joint",
        "wrist_3_joint"
    ],
    "metrics": {
        "cart_traj_len": 0.3523453089695497,
        "distance_elbow_joint": 0.4523994247734824,
        "distance_shoulder_lift_joint": 0.23350537999719312,
        "distance_shoulder_pan_joint": 0.4596390942032415,
        "distance_wrist_1_joint": 0.2534156251025226,
        "distance_wrist_2_joint": 1.1021091501979206,
        "distance_wrist_3_joint": 0.09859768885403764,
        "smoothness": 6.661338165333112e-16,
        "time": 0.021713627000000003,
        "traj_len": 1.6123480899385212,
        "weighted_distance": 2.0377405419083447
    },
    "planner": "EST",
    "start": {
        "state": {
            "elbow_joint": 1.9715472970024885,
            "shoulder_lift_joint": -1.1394870060712896,
            "shoulder_pan_joint": 0.12281152778156021,
            "wrist_1_joint": -0.780463741449964,
            "wrist_2_joint": 0.12958659822042276,
            "wrist_3_joint": 3.090690232415272
        }
    },
    "waypoints": [
        {
            "positions": [
                0.12281152778156021,
                -1.1394870060712896,
                1.9715472970024885,
                -0.780463741449964,
                0.12958659822042276,
                3.090690232415272
            ]
        },
        {
            "positions": [
                0.05714880003824001,
                -1.17284491749946,
                2.036175786255843,
                -0.8166659736074672,
                0.2870307625344114,
                3.1047756165372773
            ]
        },
        {
            "positions": [
                -0.008513927705080193,
                -1.2062028289276305,
                2.100804275509198,
                -0.8528682057649705,
                0.44447492684840006,
                3.1188610006592827
            ]
        },
        {
            "positions": [
                -0.07417665544840041,
                -1.2395607403558009,
                2.1654327647625524,
                -0.8890704379224736,
                0.6019190911623887,
                3.132946384781288
            ]
        },
        {
            "positions": [
                -0.1398393831917206,
                -1.2729186517839715,
                2.230061254015907,
                -0.9252726700799769,
                0.7593632554763773,
                3.147031768903293
            ]
        },
        {
            "positions": [
                -0.2055021109350408,
                -1.3062765632121418,
                2.2946897432692617,
                -0.9614749022374801,
                0.916807419790366,
                3.1611171530252986
            ]
        },
        {
            "positions": [
                -0.27116483867836105,
                -1.3396344746403122,
                2.3593182325226163,
                -0.9976771343949833,
                1.0742515841043547,
                3.175202537147304
            ]
        },
        {
            "positions": [
                -0.33682756642168127,
                -1.3729923860684827,
                2.423946721775971,
                -1.0338793665524866,
                1.2316957484183433,
                3.1892879212693095
            ]
        }
    ]
}