{
    "goal": {
        "global_pose": {
            "orientation": {
                "w": 0.7047431468963623,
                "x": -0.7094548344612122,
                "y": 0.0024358443915843964,
                "z": -0.0022348060738295317
            },
            "position": {
                "x": 0.6094750761985779,
                "y": 0.3671506643295288,
                "z": 0.19426114857196808
            }
        },
        "name": "move_to_magneteinheit_A"
    },
    "id": "EST_move_to_magneteinheit_A_116",
    "joint_names": [
        "shoulder_pan_joint",
        "shoulder_lift_joint",
        "elbow_joint",
        "wrist_1_joint",
        "wrist_2_joint",
        "wrist_3_joint"
    ],
    "metrics": {
        "cart_traj_len": 3.3162024013836895,
        "distance_elbow_joint": 3.898321940296861,
        "distance_shoulder_lift_joint": 0.35357616869413433,
        "distance_shoulder_pan_joint": 2.845980320571369,
        "distance_wrist_1_joint": 1.9120232665787418,
        "distance_wrist_2_joint": 1.762399117000599,
        "distance_wrist_3_joint": 2.6678007207979615,
        "smoothness": 0.1281327967546554,
        "time": 0.081217472,
        "traj_len": 3.666074403764832,
        "weighted_distance": 4.738156324892091
    },
    "planner": "EST",
    "start": {
        "state": {
            "elbow_joint": -1.9196185241190666,
            "shoulder_lift_joint": -1.2443396400964142,
            "shoulder_pan_joint": 2.6996025414629847,
            "wrist_1_joint": -1.5485510000780065,
            "wrist_2_joint": -1.5709468930060704,
            "wrist_3_joint": 0.4420197071253992
        }
    },
    "waypoints": [
        {
            "positions": [
                2.6996025414629847,
                -1.2443396400964142,
                -1.9196185241190666,
                -1.5485510000780065,
                -1.5709468930060704,
                0.4420197071253992
            ]
        },
        {
            "positions": [
                2.5866079975994767,
                -1.249599411540698,
                -1.7768141144024936,
                -1.4933185487162142,
                -1.5001422201177357,
                0.4489172497483662
            ]
        },
        {
            "positions": [
                2.4736134537359686,
                -1.254859182984982,
                -1.6340097046859205,
                -1.438086097354422,
                -1.4293375472294008,
                0.4558147923713333
            ]
        },
        {
            "positions": [
                2.360618909872461,
                -1.260118954429266,
                -1.4912052949693473,
                -1.3828536459926297,
                -1.358532874341066,
                0.4627123349943004
            ]
        },
        {
            "positions": [
                2.247624366008953,
                -1.2653787258735498,
                -1.3484008852527742,
                -1.3276211946308376,
                -1.2877282014527314,
                0.46960987761726747
            ]
        },
        {
            "positions": [
                2.134629822145445,
                -1.2706384973178337,
                -1.205596475536201,
                -1.2723887432690453,
                -1.2169235285643965,
                0.4765074202402345
            ]
        },
        {
            "positions": [
                2.021635278281937,
                -1.2758982687621176,
                -1.062792065819628,
                -1.2171562919072532,
                -1.1461188556760615,
                0.4834049628632016
            ]
        },
        {
            "positions": [
                1.9086407344184289,
                -1.2811580402064016,
                -0.9199876561030549,
                -1.1619238405454608,
                -1.0753141827877268,
                0.4903025054861687
            ]
        },
        {
            "positions": [
                1.7956461905549213,
                -1.2864178116506855,
                -0.7771832463864818,
                -1.1066913891836685,
                -1.0045095098993921,
                0.49720004810913576
            ]
        },
        {
            "positions": [
                1.6826516466914132,
                -1.2916775830949694,
                -0.6343788366699088,
                -1.0514589378218764,
                -0.9337048370110572,
                0.5040975907321028
            ]
        },
        {
            "positions": [
                1.5696571028279052,
                -1.2969373545392533,
                -0.49157442695333553,
                -0.996226486460084,
                -0.8629001641227224,
                0.51099513335507
            ]
        },
        {
            "positions": [
                1.4566625589643973,
                -1.3021971259835372,
                -0.3487700172367627,
                -0.9409940350982918,
                -0.7920954912343877,
                0.517892675978037
            ]
        },
        {
            "positions": [
                1.3436680151008893,
                -1.3074568974278211,
                -0.20596560752018944,
                -0.8857615837364996,
                -0.7212908183460529,
                0.524790218601004
            ]
        },
        {
            "positions": [
                1.2306734712373815,
                -1.312716668872105,
                -0.0631611978036164,
                -0.8305291323747074,
                -0.6504861454577182,
                0.5316877612239711
            ]
        },
        {
            "positions": [
                1.1176789273738732,
                -1.317976440316389,
                0.07964321191295687,
                -0.775296681012915,
                -0.5796814725693833,
                0.5385853038469381
            ]
        },
        {
            "positions": [
                1.0046843835103654,
                -1.3232362117606729,
                0.2224476216295299,
                -0.7200642296511228,
                -0.5088767996810486,
                0.5454828464699053
            ]
        },
        {
            "positions": [
                0.8916898396468576,
                -1.3284959832049568,
                0.36525203134610296,
                -0.6648317782893307,
                -0.4380721267927139,
                0.5523803890928723
            ]
        },
        {
            "positions": [
                0.7786952957833495,
                -1.3337557546492407,
                0.508056441062676,
                -0.6095993269275384,
                -0.367267453904379,
                0.5592779317158394
            ]
        },
        {
            "positions": [
                0.6657007519198417,
                -1.3390155260935246,
                0.650860850779249,
                -0.5543668755657462,
                -0.29646278101604406,
                0.5661754743388066
            ]
        },
        {
            "positions": [
                0.5527062080563336,
                -1.3442752975378085,
                0.7936652604958221,
                -0.49913442420395393,
                -0.22565810812770937,
                0.5730730169617736
            ]
        },
        {
            "positions": [
                0.4397116641928256,
                -1.3495350689820924,
                0.9364696702123956,
                -0.4439019728421616,
                -0.15485343523937445,
                0.5799705595847406
            ]
        },
        {
            "positions": [
                0.32671712032931755,
                -1.3547948404263763,
                1.0792740799289686,
                -0.3886695214803695,
                -0.08404876235103975,
                0.5868681022077077
            ]
        },
        {
            "positions": [
                0.21372257646580994,
                -1.3600546118706602,
                1.2220784896455412,
                -0.33343707011857715,
                -0.013244089462705055,
                0.5937656448306747
            ]
        },
        {
            "positions": [
                0.1007280326023019,
                -1.3653143833149441,
                1.3648828993621147,
                -0.2782046187567848,
                0.05756058342562986,
                0.6006631874536419
            ]
        },
        {
            "positions": [
                -0.012266511261206037,
                -1.370574154759228,
                1.5076873090786878,
                -0.22297216739499282,
                0.12836525631396462,
                0.6075607300766089
            ]
        },
        {
            "positions": [
                -0.011170800941148014,
                -1.350209964339025,
                1.568127510828385,
                -0.26584593879583807,
                0.13255948425685346,
                0.8454226289436804
            ]
        },
        {
            "positions": [
                -0.01007509062108999,
                -1.3298457739188223,
                1.6285677125780824,
                -0.3087197101966834,
                0.13675371219974233,
                1.083284527810752
            ]
        },
        {
            "positions": [
                -0.008979380301031967,
                -1.3094815834986193,
                1.6890079143277796,
                -0.3515934815975287,
                0.14094794014263118,
                1.3211464266778234
            ]
        },
        {
            "positions": [
                -0.007883669980973944,
                -1.2891173930784163,
                1.749448116077477,
                -0.39446725299837393,
                0.14514216808552002,
                1.5590083255448948
            ]
        },
        {
            "positions": [
                -0.006787959660915919,
                -1.2687532026582133,
                1.8098883178271743,
                -0.43734102439921924,
                0.14933639602840887,
                1.7968702244119665
            ]
        },
        {
            "positions": [
                -0.0056922493408578965,
                -1.2483890122380106,
                1.8703285195768715,
                -0.4802147958000645,
                0.15353062397129774,
                2.0347321232790376
            ]
        },
        {
            "positions": [
                -0.004596539020799872,
                -1.2280248218178076,
                1.930768721326569,
                -0.5230885672009098,
                0.1577248519141866,
                2.272594022146109
            ]
        },
        {
            "positions": [
                0.02701378488089292,
                -1.2068267415453326,
                1.9427523950393755,
                -0.5946705757233626,
                0.149293008894101,
                2.481900623590422
            ]
        },
        {
            "positions": [
                0.05862410878258571,
                -1.1856286612728577,
                1.954736068752182,
                -0.6662525842458152,
                0.14086116587401537,
                2.6912072250347348
            ]
        },
        {
            "positions": [
                0.0902344326842785,
                -1.1644305810003825,
                1.9667197424649885,
                -0.7378345927682679,
                0.13242932285392978,
                2.9005138264790475
            ]
        },
        {
            "positions": [
                0.1218447565859713,
                -1.1432325007279076,
                1.978703416177795,
                -0.8094166012907207,
                0.12399747983384417,
                3.1098204279233603
            ]
        }
    ]
}