{
    "goal": {
        "global_pose": {
            "orientation": {
                "w": 0.5084816262002911,
                "x": -0.4908360881923452,
                "y": 0.5182115481033761,
                "z": -0.48164630358495003
            },
            "position": {
                "x": 0.5540239810943604,
                "y": -0.46912469901144505,
                "z": 0.16403168439865112
            }
        },
        "name": "move_to_storage_B"
    },
    "id": "EST_move_to_storage_B_95",
    "joint_names": [
        "shoulder_pan_joint",
        "shoulder_lift_joint",
        "elbow_joint",
        "wrist_1_joint",
        "wrist_2_joint",
        "wrist_3_joint"
    ],
    "metrics": {
        "cart_traj_len": 1.6999881101751941,
        "distance_elbow_joint": 1.0341466988094314,
        "distance_shoulder_lift_joint": 0.9097212548374216,
        "distance_shoulder_pan_joint": 1.231762657801392,
        "distance_wrist_1_joint": 2.9781691712345815,
        "distance_wrist_2_joint": 2.7024487532010752,
        "distance_wrist_3_joint": 5.201400530371245,
        "smoothness": 0.2814135592531601,
        "time": 0.13398785,
        "traj_len": 3.749353153045889,
        "weighted_distance": 5.490088164267793
    },
    "planner": "EST",
    "start": {
        "state": {
            "elbow_joint": 1.664937868594044,
            "shoulder_lift_joint": -0.661644460510453,
            "shoulder_pan_joint": -0.9139846352900073,
            "wrist_1_joint": 2.146753192139373,
            "wrist_2_joint": -2.2341966793290973,
            "wrist_3_joint": 0.005466555786416001
        }
    },
    "waypoints": [
        {
            "positions": [
                -0.9139846352900073,
                -0.661644460510453,
                1.664937868594044,
                2.146753192139373,
                -2.2341966793290973,
                0.005466555786416001
            ]
        },
        {
            "positions": [
                -0.8391441367181294,
                -0.7000875733518286,
                1.6241269009430903,
                2.0496173668671474,
                -2.173030193356714,
                -0.06563131108827348
            ]
        },
        {
            "positions": [
                -0.7643036381462516,
                -0.7385306861932042,
                1.583315933292137,
                1.9524815415949217,
                -2.1118637073843303,
                -0.13672917796296297
            ]
        },
        {
            "positions": [
                -0.6894631395743737,
                -0.7769737990345796,
                1.5425049656411833,
                1.8553457163226958,
                -2.050697221411947,
                -0.2078270448376524
            ]
        },
        {
            "positions": [
                -0.6146226410024958,
                -0.8154169118759552,
                1.50169399799023,
                1.7582098910504702,
                -1.9895307354395635,
                -0.2789249117123419
            ]
        },
        {
            "positions": [
                -0.539782142430618,
                -0.8538600247173308,
                1.4608830303392764,
                1.6610740657782443,
                -1.92836424946718,
                -0.35002277858703135
            ]
        },
        {
            "positions": [
                -0.5229951451069351,
                -0.9084997498423631,
                1.4454574498456392,
                1.5373927465409378,
                -1.8555952892612932,
                -0.42569819855638413
            ]
        },
        {
            "positions": [
                -0.5062081477832523,
                -0.9631394749673955,
                1.4300318693520022,
                1.4137114273036313,
                -1.7828263290554063,
                -0.5013736185257369
            ]
        },
        {
            "positions": [
                -0.4894211504595695,
                -1.0177792000924277,
                1.414606288858365,
                1.2900301080663248,
                -1.7100573688495195,
                -0.5770490384950897
            ]
        },
        {
            "positions": [
                -0.47263415313588675,
                -1.07241892521746,
                1.399180708364728,
                1.1663487888290183,
                -1.6372884086436328,
                -0.6527244584644425
            ]
        },
        {
            "positions": [
                -0.4558471558122039,
                -1.1270586503424924,
                1.383755127871091,
                1.0426674695917115,
                -1.5645194484377458,
                -0.7283998784337955
            ]
        },
        {
            "positions": [
                -0.43906015848852115,
                -1.1816983754675248,
                1.368329547377454,
                0.9189861503544051,
                -1.491750488231859,
                -0.8040752984031482
            ]
        },
        {
            "positions": [
                -0.4222731611648383,
                -1.236338100592557,
                1.3529039668838168,
                0.7953048311170985,
                -1.4189815280259723,
                -0.8797507183725011
            ]
        },
        {
            "positions": [
                -0.40548616384115554,
                -1.2909778257175895,
                1.3374783863901798,
                0.6716235118797921,
                -1.3462125678200856,
                -0.9554261383418537
            ]
        },
        {
            "positions": [
                -0.3886991665174727,
                -1.3456175508426218,
                1.3220528058965426,
                0.5479421926424853,
                -1.2734436076141986,
                -1.0311015583112066
            ]
        },
        {
            "positions": [
                -0.41941556604046654,
                -1.335802413255437,
                1.3521076596405395,
                0.48797009821910736,
                -1.1977177084191475,
                -0.8500218880384404
            ]
        },
        {
            "positions": [
                -0.45013196556346036,
                -1.325987275668252,
                1.3821625133845366,
                0.4279980037957294,
                -1.1219918092240961,
                -0.6689422177656741
            ]
        },
        {
            "positions": [
                -0.4808483650864541,
                -1.3161721380810671,
                1.4122173671285334,
                0.36802590937235136,
                -1.046265910029045,
                -0.4878625474929079
            ]
        },
        {
            "positions": [
                -0.5115647646094479,
                -1.3063570004938823,
                1.4422722208725305,
                0.30805381494897344,
                -0.9705400108339937,
                -0.30678287722014164
            ]
        },
        {
            "positions": [
                -0.5422811641324418,
                -1.2965418629066974,
                1.4723270746165273,
                0.2480817205255954,
                -0.8948141116389425,
                -0.12570320694737536
            ]
        },
        {
            "positions": [
                -0.5729975636554355,
                -1.2867267253195123,
                1.5023819283605244,
                0.18810962610221743,
                -0.8190882124438913,
                0.05537646332539081
            ]
        },
        {
            "positions": [
                -0.6037139631784294,
                -1.2769115877323274,
                1.5324367821045213,
                0.1281375316788394,
                -0.7433623132488401,
                0.2364561335981572
            ]
        },
        {
            "positions": [
                -0.6344303627014232,
                -1.2670964501451425,
                1.5624916358485184,
                0.06816543725546148,
                -0.6676364140537888,
                0.41753580387092337
            ]
        },
        {
            "positions": [
                -0.6651467622244169,
                -1.2572813125579576,
                1.5925464895925152,
                0.008193342832083395,
                -0.5919105148587376,
                0.5986154741436898
            ]
        },
        {
            "positions": [
                -0.6958631617474108,
                -1.2474661749707727,
                1.6226013433365123,
                -0.051778751591294525,
                -0.5161846156636863,
                0.7796951444164559
            ]
        },
        {
            "positions": [
                -0.7265795612704047,
                -1.2376510373835878,
                1.6526561970805091,
                -0.11175084601467256,
                -0.4404587164686351,
                0.9607748146892223
            ]
        },
        {
            "positions": [
                -0.7572959607933984,
                -1.227835899796403,
                1.6827110508245062,
                -0.17172294043805048,
                -0.364732817273584,
                1.1418544849619883
            ]
        },
        {
            "positions": [
                -0.7880123603163922,
                -1.218020762209218,
                1.712765904568503,
                -0.2316950348614284,
                -0.28900691807853274,
                1.3229341552347544
            ]
        },
        {
            "positions": [
                -0.818728759839386,
                -1.2082056246220332,
                1.7428207583125002,
                -0.29166712928480654,
                -0.2132810188834815,
                1.504013825507521
            ]
        },
        {
            "positions": [
                -0.8494451593623799,
                -1.1983904870348483,
                1.772875612056497,
                -0.35163922370818446,
                -0.13755511968843015,
                1.6850934957802872
            ]
        },
        {
            "positions": [
                -0.8801615588853736,
                -1.1885753494476634,
                1.802930465800494,
                -0.4116113181315624,
                -0.06182922049337902,
                1.8661731660530534
            ]
        },
        {
            "positions": [
                -0.9108779584083674,
                -1.1787602118604785,
                1.832985319544491,
                -0.4715834125549404,
                0.013896678701672105,
                2.0472528363258196
            ]
        },
        {
            "positions": [
                -0.9415943579313613,
                -1.1689450742732934,
                1.8630401732884878,
                -0.5315555069783185,
                0.08962257789672345,
                2.228332506598586
            ]
        },
        {
            "positions": [
                -0.972310757454355,
                -1.1591299366861085,
                1.893095027032485,
                -0.5915276014016965,
                0.16534847709177458,
                2.4094121768713523
            ]
        },
        {
            "positions": [
                -1.0030271569773488,
                -1.1493147990989236,
                1.923149880776482,
                -0.6514996958250744,
                0.24107437628682593,
                2.5904918471441185
            ]
        },
        {
            "positions": [
                -1.0337435565003426,
                -1.1394996615117388,
                1.9532047345204788,
                -0.7114717902484523,
                0.31680027548187706,
                2.7715715174168847
            ]
        },
        {
            "positions": [
                -1.0644599560233365,
                -1.1296845239245539,
                1.9832595882644757,
                -0.7714438846718304,
                0.3925261746769284,
                2.9526511876896513
            ]
        },
        {
            "positions": [
                -1.0951763555463303,
                -1.119869386337369,
                2.0133144420084728,
                -0.8314159790952084,
                0.46825207387197954,
                3.1337308579624175
            ]
        }
    ]
}