{
    "goal": {
        "global_pose": {
            "orientation": {
                "w": -0.4816463035849501,
                "x": 0.5182115481033762,
                "y": 0.4908360881923453,
                "z": -0.5084816262002911
            },
            "position": {
                "x": -0.8240239810943604,
                "y": 0.19912469901144506,
                "z": 0.16403168439865112
            }
        },
        "name": "move_to_storage_D"
    },
    "id": "EST_move_to_storage_D_150",
    "joint_names": [
        "shoulder_pan_joint",
        "shoulder_lift_joint",
        "elbow_joint",
        "wrist_1_joint",
        "wrist_2_joint",
        "wrist_3_joint"
    ],
    "metrics": {
        "cart_traj_len": 3.3303922392266037,
        "distance_elbow_joint": 4.209044190084175,
        "distance_shoulder_lift_joint": 1.265250378461871,
        "distance_shoulder_pan_joint": 2.8144120478442756,
        "distance_wrist_1_joint": 2.356916152886928,
        "distance_wrist_2_joint": 1.2647990797908222,
        "distance_wrist_3_joint": 3.138273237033105,
        "smoothness": 0.028870081854907727,
        "time": 0.077374845,
        "traj_len": 3.87926476102124,
        "weighted_distance": 4.9946928627138965
    },
    "planner": "EST",
    "start": {
        "state": {
            "elbow_joint": -2.384821988534728,
            "shoulder_lift_joint": -2.2788054721415256,
            "shoulder_pan_joint": -0.1854694642142757,
            "wrist_1_joint": 1.4845938289331202,
            "wrist_2_joint": 0.17898776772866878,
            "wrist_3_joint": 0.037105688729662994
        }
    },
    "waypoints": [
        {
            "positions": [
                -0.1854694642142757,
                -2.2788054721415256,
                -2.384821988534728,
                1.4845938289331202,
                0.17898776772866878,
                0.037105688729662994
            ]
        },
        {
            "positions": [
                -0.05733689262447059,
                -2.254175957286192,
                -2.1928126592687947,
                1.487277931120361,
                0.16789053289644038,
                0.052357087064358515
            ]
        },
        {
            "positions": [
                0.07079567896533454,
                -2.229546442430858,
                -2.000803330002862,
                1.4899620333076018,
                0.15679329806421197,
                0.06760848539905404
            ]
        },
        {
            "positions": [
                0.1989282505551397,
                -2.2049169275755247,
                -1.8087940007369285,
                1.4926461354948426,
                0.14569606323198353,
                0.08285988373374956
            ]
        },
        {
            "positions": [
                0.3270608221449448,
                -2.1802874127201908,
                -1.6167846714709952,
                1.4953302376820834,
                0.13459882839975512,
                0.09811128206844506
            ]
        },
        {
            "positions": [
                0.45519339373475,
                -2.1556578978648573,
                -1.4247753422050622,
                1.4980143398693244,
                0.12350159356752671,
                0.11336268040314058
            ]
        },
        {
            "positions": [
                0.5833259653245552,
                -2.1310283830095234,
                -1.232766012939129,
                1.5006984420565652,
                0.1124043587352983,
                0.1286140787378361
            ]
        },
        {
            "positions": [
                0.7114585369143601,
                -2.10639886815419,
                -1.0407566836731958,
                1.503382544243806,
                0.10130712390306991,
                0.1438654770725316
            ]
        },
        {
            "positions": [
                0.8395911085041653,
                -2.0817693532988564,
                -0.8487473544072628,
                1.5060666464310468,
                0.09020988907084149,
                0.15911687540722713
            ]
        },
        {
            "positions": [
                0.9677236800939705,
                -2.0571398384435224,
                -0.6567380251413295,
                1.5087507486182876,
                0.07911265423861308,
                0.17436827374192265
            ]
        },
        {
            "positions": [
                1.0958562516837755,
                -2.032510323588189,
                -0.46472869587539645,
                1.5114348508055284,
                0.06801541940638466,
                0.18961967207661817
            ]
        },
        {
            "positions": [
                1.2239888232735807,
                -2.007880808732855,
                -0.27271936660946317,
                1.5141189529927692,
                0.05691818457415625,
                0.2048710704113137
            ]
        },
        {
            "positions": [
                1.352121394863386,
                -1.9832512938775213,
                -0.08071003734352988,
                1.51680305518001,
                0.045820949741927824,
                0.22012246874600921
            ]
        },
        {
            "positions": [
                1.4802539664531906,
                -1.9586217790221878,
                0.11129929192240295,
                1.519487157367251,
                0.034723714909699444,
                0.2353738670807047
            ]
        },
        {
            "positions": [
                1.6083865380429958,
                -1.933992264166854,
                0.30330862118833624,
                1.5221712595544918,
                0.023626480077471035,
                0.2506252654154002
            ]
        },
        {
            "positions": [
                1.736519109632801,
                -1.9093627493115204,
                0.4953179504542691,
                1.5248553617417326,
                0.012529245245242598,
                0.2658766637500958
            ]
        },
        {
            "positions": [
                1.8646516812226062,
                -1.8847332344561867,
                0.6873272797202024,
                1.5275394639289734,
                0.0014320104130141897,
                0.28112806208479124
            ]
        },
        {
            "positions": [
                1.9927842528124113,
                -1.860103719600853,
                0.8793366089861356,
                1.5302235661162142,
                -0.009665224419214226,
                0.2963794604194868
            ]
        },
        {
            "positions": [
                2.0217005405768473,
                -1.8216242366044348,
                0.9222859541026498,
                1.425165092675131,
                0.039250506837283,
                0.42724307248054505
            ]
        },
        {
            "positions": [
                2.050616828341283,
                -1.7831447536080167,
                0.9652352992191638,
                1.3201066192340474,
                0.08816623809378021,
                0.5581066845416033
            ]
        },
        {
            "positions": [
                2.079533116105719,
                -1.7446652706115986,
                1.008184644335678,
                1.215048145792964,
                0.13708196935027744,
                0.6889702966026614
            ]
        },
        {
            "positions": [
                2.108449403870155,
                -1.7061857876151805,
                1.051133989452192,
                1.1099896723518807,
                0.18599770060677467,
                0.8198339086637197
            ]
        },
        {
            "positions": [
                2.1373656916345904,
                -1.6677063046187626,
                1.0940833345687062,
                1.0049311989107972,
                0.2349134318632719,
                0.950697520724778
            ]
        },
        {
            "positions": [
                2.1662819793990264,
                -1.6292268216223444,
                1.1370326796852204,
                0.899872725469714,
                0.2838291631197691,
                1.081561132785836
            ]
        },
        {
            "positions": [
                2.195198267163462,
                -1.5907473386259263,
                1.1799820248017345,
                0.7948142520286305,
                0.3327448943762663,
                1.2124247448468943
            ]
        },
        {
            "positions": [
                2.224114554927898,
                -1.5522678556295082,
                1.2229313699182485,
                0.6897557785875471,
                0.38166062563276354,
                1.3432883569079528
            ]
        },
        {
            "positions": [
                2.253030842692334,
                -1.51378837263309,
                1.2658807150347626,
                0.5846973051464638,
                0.4305763568892608,
                1.4741519689690108
            ]
        },
        {
            "positions": [
                2.2819471304567696,
                -1.475308889636672,
                1.3088300601512768,
                0.47963883170538035,
                0.479492088145758,
                1.6050155810300692
            ]
        },
        {
            "positions": [
                2.3108634182212056,
                -1.4368294066402538,
                1.351779405267791,
                0.37458035826429703,
                0.5284078194022552,
                1.7358791930911273
            ]
        },
        {
            "positions": [
                2.3397797059856416,
                -1.3983499236438357,
                1.394728750384305,
                0.2695218848232137,
                0.5773235506587524,
                1.8667428051521853
            ]
        },
        {
            "positions": [
                2.368695993750077,
                -1.3598704406474176,
                1.4376780955008193,
                0.16446341138213016,
                0.6262392819152497,
                1.9976064172132437
            ]
        },
        {
            "positions": [
                2.397612281514513,
                -1.3213909576509995,
                1.4806274406173334,
                0.05940493794104684,
                0.6751550131717469,
                2.128470029274302
            ]
        },
        {
            "positions": [
                2.4265285692789487,
                -1.2829114746545813,
                1.5235767857338474,
                -0.04565353550003648,
                0.724070744428244,
                2.25933364133536
            ]
        },
        {
            "positions": [
                2.4554448570433847,
                -1.2444319916581632,
                1.5665261308503615,
                -0.15071200894112002,
                0.7729864756847413,
                2.3901972533964186
            ]
        },
        {
            "positions": [
                2.4843611448078207,
                -1.205952508661745,
                1.6094754759668757,
                -0.2557704823822031,
                0.8219022069412386,
                2.5210608654574767
            ]
        },
        {
            "positions": [
                2.5132774325722567,
                -1.167473025665327,
                1.6524248210833898,
                -0.36082895582328667,
                0.8708179381977359,
                2.651924477518535
            ]
        },
        {
            "positions": [
                2.542193720336692,
                -1.1289935426689088,
                1.6953741661999038,
                -0.46588742926437,
                0.9197336694542331,
                2.7827880895795936
            ]
        },
        {
            "positions": [
                2.571110008101128,
                -1.090514059672491,
                1.738323511316418,
                -0.5709459027054535,
                0.9686494007107302,
                2.9136517016406516
            ]
        },
        {
            "positions": [
                2.6000262958655638,
                -1.0520345766760728,
                1.781272856432932,
                -0.6760043761465369,
                1.0175651319672276,
                3.04451531370171
            ]
        },
        {
            "positions": [
                2.6289425836299998,
                -1.0135550936796547,
                1.8242222015494463,
                -0.7810628495876202,
                1.0664808632237248,
                3.175378925762768
            ]
        }
    ]
}