{
    "goal": {
        "global_pose": {
            "orientation": {
                "w": -0.4816463035849501,
                "x": 0.5182115481033762,
                "y": 0.4908360881923453,
                "z": -0.5084816262002911
            },
            "position": {
                "x": -0.8240239810943604,
                "y": -0.300875300988555,
                "z": 0.16403168439865112
            }
        },
        "name": "move_to_storage_C"
    },
    "id": "EST_move_to_storage_C_134",
    "joint_names": [
        "shoulder_pan_joint",
        "shoulder_lift_joint",
        "elbow_joint",
        "wrist_1_joint",
        "wrist_2_joint",
        "wrist_3_joint"
    ],
    "metrics": {
        "cart_traj_len": 0.5772191105550597,
        "distance_elbow_joint": 0.2576465954734093,
        "distance_shoulder_lift_joint": 0.19001340979800208,
        "distance_shoulder_pan_joint": 0.4943970195657581,
        "distance_wrist_1_joint": 0.07519512028123976,
        "distance_wrist_2_joint": 1.075339222984132,
        "distance_wrist_3_joint": 0.06514629177802433,
        "smoothness": 0.0,
        "time": 0.035342729,
        "traj_len": 1.4689239802932506,
        "weighted_distance": 1.8543366972321897
    },
    "planner": "EST",
    "start": {
        "state": {
            "elbow_joint": 2.010868314990456,
            "shoulder_lift_joint": -1.1634956873337592,
            "shoulder_pan_joint": -2.4736205022346125,
            "wrist_1_joint": -0.8367026794202681,
            "wrist_2_joint": 0.6746043897044499,
            "wrist_3_joint": -3.1496632123970403
        }
    },
    "waypoints": [
        {
            "positions": [
                -2.4736205022346125,
                -1.1634956873337592,
                2.010868314990456,
                -0.8367026794202681,
                0.6746043897044499,
                -3.1496632123970403
            ]
        },
        {
            "positions": [
                -2.556020005495572,
                -1.131826785700759,
                1.9679272157448877,
                -0.8241701593733948,
                0.8538275935351386,
                -3.138805497100703
            ]
        },
        {
            "positions": [
                -2.638419508756532,
                -1.1001578840677584,
                1.9249861164993194,
                -0.8116376393265216,
                1.0330507973658274,
                -3.1279477818043655
            ]
        },
        {
            "positions": [
                -2.7208190120174915,
                -1.068488982434758,
                1.882045017253751,
                -0.7991051192796482,
                1.212274001196516,
                -3.117090066508028
            ]
        },
        {
            "positions": [
                -2.8032185152784512,
                -1.0368200808017578,
                1.839103918008183,
                -0.7865725992327749,
                1.3914972050272048,
                -3.1062323512116907
            ]
        },
        {
            "positions": [
                -2.885618018539411,
                -1.0051511791687575,
                1.7961628187626149,
                -0.7740400791859017,
                1.5707204088578934,
                -3.0953746359153533
            ]
        },
        {
            "positions": [
                -2.9680175218003706,
                -0.9734822775357571,
                1.7532217195170465,
                -0.7615075591390283,
                1.749943612688582,
                -3.084516920619016
            ]
        }
    ]
}