{
    "goal": {
        "global_pose": {
            "orientation": {
                "w": 0.5084816217422485,
                "x": -0.49083608388900757,
                "y": 0.5182115435600281,
                "z": -0.4816462993621826
            },
            "position": {
                "x": 0.5540239810943604,
                "y": 0.030875300988554955,
                "z": 0.16403168439865112
            }
        },
        "name": "move_to_storage_A"
    },
    "id": "EST_move_to_storage_A_19",
    "joint_names": [
        "shoulder_pan_joint",
        "shoulder_lift_joint",
        "elbow_joint",
        "wrist_1_joint",
        "wrist_2_joint",
        "wrist_3_joint"
    ],
    "metrics": {
        "cart_traj_len": 0.35297763369122975,
        "distance_elbow_joint": 0.4495360456638797,
        "distance_shoulder_lift_joint": 0.23432490777228554,
        "distance_shoulder_pan_joint": 0.4617184233149033,
        "distance_wrist_1_joint": 0.24370402987900486,
        "distance_wrist_2_joint": 1.0976399008795341,
        "distance_wrist_3_joint": 0.10152491948303322,
        "smoothness": 2.2204460668324854e-16,
        "time": 0.026765485999999998,
        "traj_len": 1.608865509293005,
        "weighted_distance": 2.0329392506214363
    },
    "planner": "EST",
    "start": {
        "state": {
            "elbow_joint": 1.971548259319323,
            "shoulder_lift_joint": -1.1394851275133948,
            "shoulder_pan_joint": 0.1228115487234821,
            "wrist_1_joint": -0.7804723859257726,
            "wrist_2_joint": 0.12958671773740124,
            "wrist_3_joint": -3.192489227718131
        }
    },
    "waypoints": [
        {
            "positions": [
                0.1228115487234821,
                -1.1394851275133948,
                1.971548259319323,
                -0.7804723859257726,
                0.12958671773740124,
                -3.192489227718131
            ]
        },
        {
            "positions": [
                0.056851773964210206,
                -1.172960114338007,
                2.035767694414163,
                -0.815287247337059,
                0.286392417863049,
                -3.1779856677919835
            ]
        },
        {
            "positions": [
                -0.009108000795061688,
                -1.2064351011626193,
                2.099987129509003,
                -0.8501021087483455,
                0.4431981179886967,
                -3.163482107865836
            ]
        },
        {
            "positions": [
                -0.07506777555433358,
                -1.2399100879872316,
                2.164206564603843,
                -0.8849169701596318,
                0.6000038181143444,
                -3.1489785479396883
            ]
        },
        {
            "positions": [
                -0.14102755031360548,
                -1.2733850748118436,
                2.2284259996986826,
                -0.9197318315709182,
                0.7568095182399922,
                -3.1344749880135407
            ]
        },
        {
            "positions": [
                -0.20698732507287743,
                -1.3068600616364558,
                2.292645434793523,
                -0.9545466929822046,
                0.91361521836564,
                -3.119971428087393
            ]
        },
        {
            "positions": [
                -0.27294709983214926,
                -1.340335048461068,
                2.356864869888363,
                -0.989361554393491,
                1.0704209184912876,
                -3.1054678681612455
            ]
        },
        {
            "positions": [
                -0.3389068745914212,
                -1.3738100352856804,
                2.4210843049832027,
                -1.0241764158047775,
                1.2272266186169354,
                -3.090964308235098
            ]
        }
    ]
}{
    "goal": {
        "global_pose": {
            "orientation": {
                "w": 0.5084816217422485,
                "x": -0.49083608388900757,
                "y": 0.5182115435600281,
                "z": -0.4816462993621826
            },
            "position": {
                "x": 0.5540239810943604,
                "y": 0.030875300988554955,
                "z": 0.16403168439865112
            }
        },
        "name": "move_to_storage_A"
    },
    "id": "EST_move_to_storage_A_19",
    "joint_names": [
        "shoulder_pan_joint",
        "shoulder_lift_joint",
        "elbow_joint",
        "wrist_1_joint",
        "wrist_2_joint",
        "wrist_3_joint"
    ],
    "metrics": {
        "cart_traj_len": 0.3530149598358833,
        "distance_elbow_joint": 0.44779321753082524,
        "distance_shoulder_lift_joint": 0.23272668452373857,
        "distance_shoulder_pan_joint": 0.46287581612892953,
        "distance_wrist_1_joint": 0.23794229173161474,
        "distance_wrist_2_joint": 1.0920161921286353,
        "distance_wrist_3_joint": 0.10366466932441565,
        "smoothness": 6.661338165333112e-16,
        "time": 0.05637557,
        "traj_len": 1.605309587390594,
        "weighted_distance": 2.028375382880901
    },
    "planner": "EST",
    "start": {
        "state": {
            "elbow_joint": 1.97154746011099,
            "shoulder_lift_joint": -1.13948474672311,
            "shoulder_pan_joint": 0.12281154466712228,
            "wrist_1_joint": -0.7804688027058302,
            "wrist_2_joint": 0.12958655903071145,
            "wrist_3_joint": 3.0906928834467795
        }
    },
    "waypoints": [
        {
            "positions": [
                0.12281154466712228,
                -1.13948474672311,
                1.97154746011099,
                -0.7804688027058302,
                0.12958655903071145,
                3.0906928834467795
            ]
        },
        {
            "positions": [
                0.05668642807727521,
                -1.172731415940787,
                2.0355179197582505,
                -0.8144605586674895,
                0.28558887219194506,
                3.105502121921696
            ]
        },
        {
            "positions": [
                -0.00943868851257186,
                -1.2059780851584638,
                2.0994883794055115,
                -0.8484523146291487,
                0.44159118535317865,
                3.1203113603966126
            ]
        },
        {
            "positions": [
                -0.07556380510241893,
                -1.2392247543761408,
                2.163458839052772,
                -0.8824440705908079,
                0.5975934985144122,
                3.135120598871529
            ]
        },
        {
            "positions": [
                -0.141688921692266,
                -1.2724714235938177,
                2.227429298700033,
                -0.9164358265524671,
                0.7535958116756459,
                3.1499298373464457
            ]
        },
        {
            "positions": [
                -0.2078140382821131,
                -1.3057180928114946,
                2.2913997583472936,
                -0.9504275825141264,
                0.9095981248368796,
                3.164739075821362
            ]
        },
        {
            "positions": [
                -0.27393915487196013,
                -1.3389647620291716,
                2.3553702179945546,
                -0.9844193384757857,
                1.065600437998113,
                3.179548314296279
            ]
        },
        {
            "positions": [
                -0.34006427146180723,
                -1.3722114312468485,
                2.419340677641815,
                -1.018411094437445,
                1.2216027511593468,
                3.194357552771195
            ]
        }
    ]
}{
    "goal": {
        "global_pose": {
            "orientation": {
                "w": 0.5084816217422485,
                "x": -0.49083608388900757,
                "y": 0.5182115435600281,
                "z": -0.4816462993621826
            },
            "position": {
                "x": 0.5540239810943604,
                "y": 0.030875300988554955,
                "z": 0.16403168439865112
            }
        },
        "name": "move_to_storage_A"
    },
    "id": "EST_move_to_storage_A_19",
    "joint_names": [
        "shoulder_pan_joint",
        "shoulder_lift_joint",
        "elbow_joint",
        "wrist_1_joint",
        "wrist_2_joint",
        "wrist_3_joint"
    ],
    "metrics": {
        "cart_traj_len": 0.35366878703473376,
        "distance_elbow_joint": 0.448658275981479,
        "distance_shoulder_lift_joint": 0.23406123262937562,
        "distance_shoulder_pan_joint": 0.45944332958276807,
        "distance_wrist_1_joint": 0.23818489500888917,
        "distance_wrist_2_joint": 1.1126607567684392,
        "distance_wrist_3_joint": 0.10565825813276986,
        "smoothness": 8.881784197001252e-16,
        "time": 0.029774652,
        "traj_len": 1.612038072783556,
        "weighted_distance": 2.039811000104321
    },
    "planner": "EST",
    "start": {
        "state": {
            "elbow_joint": 1.9715472970024885,
            "shoulder_lift_joint": -1.1394870060712896,
            "shoulder_pan_joint": 0.12281152778156021,
            "wrist_1_joint": -0.780463741449964,
            "wrist_2_joint": 0.12958659822042276,
            "wrist_3_joint": 3.090690232415272
        }
    },
    "waypoints": [
        {
            "positions": [
                0.12281152778156021,
                -1.1394870060712896,
                1.9715472970024885,
                -0.780463741449964,
                0.12958659822042276,
                3.090690232415272
            ]
        },
        {
            "positions": [
                0.05717676641259335,
                -1.1729243250183432,
                2.035641336428414,
                -0.8144901550226624,
                0.2885381349016284,
                3.105784269291382
            ]
        },
        {
            "positions": [
                -0.008457994956373505,
                -1.206361643965397,
                2.0997353758543396,
                -0.8485165685953608,
                0.4474896715828339,
                3.1208783061674916
            ]
        },
        {
            "positions": [
                -0.07409275632534035,
                -1.2397989629124506,
                2.163829415280265,
                -0.8825429821680594,
                0.6064412082640396,
                3.1359723430436017
            ]
        },
        {
            "positions": [
                -0.13972751769430722,
                -1.2732362818595042,
                2.2279234547061906,
                -0.9165693957407578,
                0.7653927449452451,
                3.151066379919712
            ]
        },
        {
            "positions": [
                -0.20536227906327412,
                -1.3066736008065578,
                2.2920174941321165,
                -0.9505958093134563,
                0.9243442816264508,
                3.166160416795822
            ]
        },
        {
            "positions": [
                -0.27099704043224093,
                -1.3401109197536116,
                2.356111533558042,
                -0.9846222228861548,
                1.0832958183076564,
                3.1812544536719316
            ]
        },
        {
            "positions": [
                -0.33663180180120783,
                -1.3735482387006652,
                2.4202055729839675,
                -1.0186486364588532,
                1.242247354988862,
                3.1963484905480417
            ]
        }
    ]
}