{
    "goal": {
        "global_pose": {
            "orientation": {
                "w": 0.7047431493862688,
                "x": -0.7094548369677653,
                "y": 0.0024358444001904,
                "z": -0.0022348060817251984
            },
            "position": {
                "x": -0.39052492380142206,
                "y": 0.3671506643295288,
                "z": 0.19426114857196808
            }
        },
        "name": "move_to_magneteinheit_D"
    },
    "id": "EST_move_to_magneteinheit_D_17",
    "joint_names": [
        "shoulder_pan_joint",
        "shoulder_lift_joint",
        "elbow_joint",
        "wrist_1_joint",
        "wrist_2_joint",
        "wrist_3_joint"
    ],
    "metrics": {
        "cart_traj_len": 4.809960790058676,
        "distance_elbow_joint": 3.145817316035287,
        "distance_shoulder_lift_joint": 1.628353124491061,
        "distance_shoulder_pan_joint": 3.4597635297798033,
        "distance_wrist_1_joint": 1.602878628987537,
        "distance_wrist_2_joint": 1.3508158193822504,
        "distance_wrist_3_joint": 3.408760596716153,
        "smoothness": 0.21283350220393019,
        "time": 0.30176703699999996,
        "traj_len": 3.8205220867562186,
        "weighted_distance": 4.936355402236976
    },
    "planner": "EST",
    "start": {
        "state": {
            "elbow_joint": 0.749534889911806,
            "shoulder_lift_joint": -0.6476975780787326,
            "shoulder_pan_joint": -2.711696901376241,
            "wrist_1_joint": -0.07506478083263063,
            "wrist_2_joint": 0.43296659715538205,
            "wrist_3_joint": -3.14703540197715
        }
    },
    "waypoints": [
        {
            "positions": [
                -2.711696901376241,
                -0.6476975780787326,
                0.749534889911806,
                -0.07506478083263063,
                0.43296659715538205,
                -3.14703540197715
            ]
        },
        {
            "positions": [
                -2.713341168944449,
                -0.654063903352047,
                0.6548788212596088,
                -0.0898263934799841,
                0.39963151500216415,
                -3.094306822753011
            ]
        },
        {
            "positions": [
                -2.7149854365126567,
                -0.6604302286253613,
                0.5602227526074116,
                -0.10458800612733757,
                0.36629643284894625,
                -3.041578243528872
            ]
        },
        {
            "positions": [
                -2.7166297040808645,
                -0.6667965538986755,
                0.4655666839552144,
                -0.11934961877469104,
                0.33296135069572835,
                -2.988849664304733
            ]
        },
        {
            "positions": [
                -2.5670021284648343,
                -0.7153842486562406,
                0.420219971800755,
                -0.10613039932205523,
                0.29792305697668464,
                -2.884561710908195
            ]
        },
        {
            "positions": [
                -2.417374552848804,
                -0.7639719434138057,
                0.37487325964629564,
                -0.09291117986941941,
                0.26288476325764093,
                -2.7802737575116576
            ]
        },
        {
            "positions": [
                -2.267746977232774,
                -0.8125596381713709,
                0.3295265474918363,
                -0.0796919604167836,
                0.22784646953859722,
                -2.6759858041151197
            ]
        },
        {
            "positions": [
                -2.118119401616744,
                -0.861147332928936,
                0.2841798353373769,
                -0.06647274096414778,
                0.1928081758195535,
                -2.5716978507185817
            ]
        },
        {
            "positions": [
                -1.9684918260007138,
                -0.909735027686501,
                0.2388331231829175,
                -0.05325352151151197,
                0.1577698821005098,
                -2.467409897322044
            ]
        },
        {
            "positions": [
                -1.8188642503846837,
                -0.9583227224440661,
                0.19348641102845815,
                -0.04003430205887616,
                0.12273158838146608,
                -2.3631219439255062
            ]
        },
        {
            "positions": [
                -1.6692366747686536,
                -1.0069104172016312,
                0.14813969887399875,
                -0.026815082606240354,
                0.0876932946624224,
                -2.2588339905289683
            ]
        },
        {
            "positions": [
                -1.5196090991526232,
                -1.0554981119591964,
                0.10279298671953935,
                -0.013595863153604518,
                0.05265500094337866,
                -2.1545460371324308
            ]
        },
        {
            "positions": [
                -1.369981523536593,
                -1.1040858067167614,
                0.05744627456507995,
                -0.0003766437009687096,
                0.01761670722433495,
                -2.050258083735893
            ]
        },
        {
            "positions": [
                -1.220353947920563,
                -1.1526735014743266,
                0.012099562410620601,
                0.012842575751667099,
                -0.017421586494708763,
                -1.945970130339355
            ]
        },
        {
            "positions": [
                -1.0707263723045326,
                -1.2012611962318918,
                -0.0332471497438388,
                0.02606179520430292,
                -0.05245988021375253,
                -1.841682176942817
            ]
        },
        {
            "positions": [
                -0.9210987966885027,
                -1.2498488909894567,
                -0.07859386189829809,
                0.039281014656938715,
                -0.08749817393279619,
                -1.7373942235462796
            ]
        },
        {
            "positions": [
                -0.7714712210724723,
                -1.298436585747022,
                -0.1239405740527576,
                0.05250023410957454,
                -0.1225364676518399,
                -1.6331062701497416
            ]
        },
        {
            "positions": [
                -0.6218436454564427,
                -1.347024280504587,
                -0.1692872862072169,
                0.06571945356221033,
                -0.15757476137088355,
                -1.528818316753204
            ]
        },
        {
            "positions": [
                -0.4722160698404121,
                -1.395611975262152,
                -0.2146339983616763,
                0.07893867301484618,
                -0.19261305508992738,
                -1.424530363356666
            ]
        },
        {
            "positions": [
                -0.32258849422438196,
                -1.4441996700197173,
                -0.2599807105161357,
                0.092157892467482,
                -0.22765134880897103,
                -1.3202424099601282
            ]
        },
        {
            "positions": [
                -0.17296091860835183,
                -1.4927873647772822,
                -0.305327422670595,
                0.1053771119201178,
                -0.2626896425280147,
                -1.2159544565635905
            ]
        },
        {
            "positions": [
                -0.023333342992321704,
                -1.5413750595348474,
                -0.3506741348250545,
                0.11859633137275362,
                -0.29772793624705846,
                -1.1116665031670525
            ]
        },
        {
            "positions": [
                0.12629423262370842,
                -1.5899627542924124,
                -0.3960208469795138,
                0.13181555082538943,
                -0.3327662299661021,
                -1.007378549770515
            ]
        },
        {
            "positions": [
                0.27592180823973855,
                -1.6385504490499776,
                -0.4413675591339732,
                0.14503477027802522,
                -0.36780452368514593,
                -0.9030905963739769
            ]
        },
        {
            "positions": [
                0.2609203593407915,
                -1.6744604976312458,
                -0.5574121473291926,
                0.2307819244572332,
                -0.32799538535244827,
                -0.8202684157417695
            ]
        },
        {
            "positions": [
                0.24591891044184444,
                -1.7103705462125138,
                -0.673456735524412,
                0.3165290786364412,
                -0.2881862470197506,
                -0.7374462351095621
            ]
        },
        {
            "positions": [
                0.23091746154289738,
                -1.746280594793782,
                -0.7895013237196313,
                0.40227623281564917,
                -0.24837710868705296,
                -0.6546240544773545
            ]
        },
        {
            "positions": [
                0.2159160126439503,
                -1.78219064337505,
                -0.9055459119148508,
                0.48802338699485714,
                -0.20856797035435531,
                -0.5718018738451471
            ]
        },
        {
            "positions": [
                0.20091456374500324,
                -1.8181006919563183,
                -1.02159050011007,
                0.5737705411740651,
                -0.16875883202165765,
                -0.48897969321293966
            ]
        },
        {
            "positions": [
                0.1859131148460562,
                -1.8540107405375863,
                -1.1376350883052897,
                0.6595176953532731,
                -0.12894969368895998,
                -0.4061575125807322
            ]
        },
        {
            "positions": [
                0.17091166594710913,
                -1.8899207891188545,
                -1.253679676500509,
                0.745264849532481,
                -0.08914055535626236,
                -0.3233353319485248
            ]
        },
        {
            "positions": [
                0.15591021704816205,
                -1.9258308377001225,
                -1.3697242646957284,
                0.831012003711689,
                -0.049331417023564694,
                -0.24051315131631734
            ]
        },
        {
            "positions": [
                0.14090876814921502,
                -1.9617408862813908,
                -1.4857688528909476,
                0.9167591578908969,
                -0.009522278690867025,
                -0.15769097068410987
            ]
        },
        {
            "positions": [
                0.12590731925026794,
                -1.997650934862659,
                -1.601813441086167,
                1.002506312070105,
                0.030286859641830643,
                -0.07486879005190239
            ]
        },
        {
            "positions": [
                0.11090587035132088,
                -2.0335609834439268,
                -1.7178580292813865,
                1.0882534662493129,
                0.07009599797452826,
                0.007953390580304975
            ]
        },
        {
            "positions": [
                0.09590442145237382,
                -2.069471032025195,
                -1.833902617476606,
                1.174000620428521,
                0.10990513630722598,
                0.09077557121251256
            ]
        },
        {
            "positions": [
                0.08090297255342677,
                -2.1053810806064632,
                -1.9499472056718252,
                1.2597477746077288,
                0.1497142746399236,
                0.17359775184471984
            ]
        },
        {
            "positions": [
                -0.008183820469327807,
                -2.16227095459424,
                -2.098725612489044,
                1.319579907162081,
                0.16055624137880775,
                0.14422193754662574
            ]
        },
        {
            "positions": [
                -0.09727061349208238,
                -2.219160828582017,
                -2.247504019306263,
                1.3794120397164333,
                0.17139820811769188,
                0.11484612324853165
            ]
        },
        {
            "positions": [
                -0.18635740651483695,
                -2.2760507025697936,
                -2.3962824261234816,
                1.4392441722707856,
                0.18224017485657604,
                0.08547030895043754
            ]
        }
    ]
}