{
    "goal": {
        "global_pose": {
            "orientation": {
                "w": 0.005598929693374612,
                "x": 0.007748599140229565,
                "y": 0.7110244013736278,
                "z": -0.7031023480610252
            },
            "position": {
                "x": -0.8858502320852131,
                "y": -0.7141253447532654,
                "z": 0.3711530566215515
            }
        },
        "name": "move_to_auspresseinheit_C"
    },
    "id": "EST_move_to_auspresseinheit_C_12",
    "joint_names": [
        "shoulder_pan_joint",
        "shoulder_lift_joint",
        "elbow_joint",
        "wrist_1_joint",
        "wrist_2_joint",
        "wrist_3_joint"
    ],
    "metrics": {
        "cart_traj_len": 0.4940422141144243,
        "distance_elbow_joint": 1.0132772528660827,
        "distance_shoulder_lift_joint": 0.3308921912989239,
        "distance_shoulder_pan_joint": 0.25565627903765886,
        "distance_wrist_1_joint": 0.699116514036015,
        "distance_wrist_2_joint": 1.3207741198084573,
        "distance_wrist_3_joint": 0.07443925453496592,
        "smoothness": 3.2297397080004555e-16,
        "time": 0.292329981,
        "traj_len": 1.9220186293535515,
        "weighted_distance": 2.421347714496311
    },
    "planner": "EST",
    "start": {
        "state": {
            "elbow_joint": 1.7527959577737207,
            "shoulder_lift_joint": -0.9740617694225068,
            "shoulder_pan_joint": -2.967991417825858,
            "wrist_1_joint": -0.759517768980727,
            "wrist_2_joint": 1.7443932448377408,
            "wrist_3_joint": -3.0840537646736568
        }
    },
    "waypoints": [
        {
            "positions": [
                -2.967991417825858,
                -0.9740617694225068,
                1.7527959577737207,
                -0.759517768980727,
                1.7443932448377408,
                -3.0840537646736568
            ]
        },
        {
            "positions": [
                -2.9424257899220922,
                -0.9409725502926144,
                1.6514682324871124,
                -0.6896061175771255,
                1.6123158328568952,
                -3.091497690127153
            ]
        },
        {
            "positions": [
                -2.916860162018326,
                -0.907883331162722,
                1.5501405072005041,
                -0.619694466173524,
                1.4802384208760493,
                -3.09894161558065
            ]
        },
        {
            "positions": [
                -2.8912945341145604,
                -0.8747941120328296,
                1.4488127819138958,
                -0.5497828147699224,
                1.3481610088952036,
                -3.1063855410341468
            ]
        },
        {
            "positions": [
                -2.8657289062107942,
                -0.8417048929029372,
                1.3474850566272876,
                -0.47987116336632096,
                1.2160835969143577,
                -3.113829466487643
            ]
        },
        {
            "positions": [
                -2.8401632783070285,
                -0.8086156737730448,
                1.2461573313406793,
                -0.40995951196271946,
                1.084006184933512,
                -3.1212733919411395
            ]
        },
        {
            "positions": [
                -2.814597650403263,
                -0.7755264546431524,
                1.144829606054071,
                -0.34004786055911795,
                0.9519287729526665,
                -3.1287173173946363
            ]
        },
        {
            "positions": [
                -2.7890320224994967,
                -0.74243723551326,
                1.0435018807674628,
                -0.2701362091555165,
                0.8198513609718208,
                -3.136161242848133
            ]
        },
        {
            "positions": [
                -2.763466394595731,
                -0.7093480163833676,
                0.9421741554808545,
                -0.20022455775191494,
                0.6877739489909749,
                -3.1436051683016295
            ]
        },
        {
            "positions": [
                -2.737900766691965,
                -0.6762587972534753,
                0.8408464301942462,
                -0.13031290634831338,
                0.5556965370101292,
                -3.151049093755126
            ]
        },
        {
            "positions": [
                -2.712335138788199,
                -0.6431695781235829,
                0.7395187049076378,
                -0.06040125494471196,
                0.4236191250292835,
                -3.1584930192086227
            ]
        }
    ]
}