{
    "goal": {
        "global_pose": {
            "orientation": {
                "w": 0.7031023480610252,
                "x": -0.7110244013736278,
                "y": 0.0077485991402295624,
                "z": 0.005598929693374583
            },
            "position": {
                "x": -0.8841497679147869,
                "y": 0.44412534475326537,
                "z": 0.3711530566215515
            }
        },
        "name": "move_to_auspresseinheit_D"
    },
    "id": "EST_move_to_auspresseinheit_D_90",
    "joint_names": [
        "shoulder_pan_joint",
        "shoulder_lift_joint",
        "elbow_joint",
        "wrist_1_joint",
        "wrist_2_joint",
        "wrist_3_joint"
    ],
    "metrics": {
        "cart_traj_len": 0.3448974813199719,
        "distance_elbow_joint": 0.6662087405851256,
        "distance_shoulder_lift_joint": 0.13618318760655512,
        "distance_shoulder_pan_joint": 0.13373146666252014,
        "distance_wrist_1_joint": 0.6198856004873514,
        "distance_wrist_2_joint": 1.442272206835605,
        "distance_wrist_3_joint": 0.07709750718128028,
        "smoothness": 0.0,
        "time": 0.102542766,
        "traj_len": 1.753675770876258,
        "weighted_distance": 2.300376388994626
    },
    "planner": "EST",
    "start": {
        "state": {
            "elbow_joint": -1.8275523626775212,
            "shoulder_lift_joint": -2.126789852344167,
            "shoulder_pan_joint": -0.03513704404078235,
            "wrist_1_joint": -2.347782403156801,
            "wrist_2_joint": -1.6058999987535132,
            "wrist_3_joint": -3.0880379163319196
        }
    },
    "waypoints": [
        {
            "positions": [
                -0.03513704404078235,
                -2.126789852344167,
                -1.8275523626775212,
                -2.347782403156801,
                -1.6058999987535132,
                -3.0880379163319196
            ]
        },
        {
            "positions": [
                -0.05185347737359737,
                -2.1438127507949862,
                -1.7442762701043806,
                -2.4252681032177197,
                -1.4256159728990625,
                -3.07840072793426
            ]
        },
        {
            "positions": [
                -0.06856991070641238,
                -2.1608356492458056,
                -1.6610001775312397,
                -2.5027538032786385,
                -1.2453319470446118,
                -3.0687635395365995
            ]
        },
        {
            "positions": [
                -0.08528634403922741,
                -2.177858547696625,
                -1.5777240849580991,
                -2.5802395033395578,
                -1.0650479211901613,
                -3.0591263511389393
            ]
        },
        {
            "positions": [
                -0.10200277737204241,
                -2.1948814461474444,
                -1.4944479923849583,
                -2.6577252034004766,
                -0.8847638953357106,
                -3.0494891627412795
            ]
        },
        {
            "positions": [
                -0.11871921070485744,
                -2.211904344598264,
                -1.4111718998118177,
                -2.7352109034613954,
                -0.70447986948126,
                -3.0398519743436196
            ]
        },
        {
            "positions": [
                -0.13543564403767247,
                -2.228927243049083,
                -1.327895807238677,
                -2.8126966035223147,
                -0.5241958436268095,
                -3.0302147859459594
            ]
        },
        {
            "positions": [
                -0.15215207737048747,
                -2.2459501414999026,
                -1.2446197146655362,
                -2.8901823035832335,
                -0.3439118177723588,
                -3.020577597548299
            ]
        },
        {
            "positions": [
                -0.1688685107033025,
                -2.262973039950722,
                -1.1613436220923956,
                -2.9676680036441523,
                -0.16362779191790813,
                -3.0109404091506393
            ]
        }
    ]
}