{
    "goal": {
        "global_pose": {
            "orientation": {
                "w": 0.5084816217422485,
                "x": -0.49083608388900757,
                "y": 0.5182115435600281,
                "z": -0.4816462993621826
            },
            "position": {
                "x": 0.5540239810943604,
                "y": 0.030875300988554955,
                "z": 0.16403168439865112
            }
        },
        "name": "move_to_storage_A"
    },
    "id": "EST_move_to_storage_A_46",
    "joint_names": [
        "shoulder_pan_joint",
        "shoulder_lift_joint",
        "elbow_joint",
        "wrist_1_joint",
        "wrist_2_joint",
        "wrist_3_joint"
    ],
    "metrics": {
        "cart_traj_len": 0.3528715913087009,
        "distance_elbow_joint": 0.4511898309928173,
        "distance_shoulder_lift_joint": 0.23539334981187654,
        "distance_shoulder_pan_joint": 0.4613916959397914,
        "distance_wrist_1_joint": 0.2444113321761222,
        "distance_wrist_2_joint": 1.0994137107475233,
        "distance_wrist_3_joint": 0.09961624177973505,
        "smoothness": 4.440892133664971e-16,
        "time": 0.058052682,
        "traj_len": 1.6097876137701725,
        "weighted_distance": 2.0333405243418974
    },
    "planner": "EST",
    "start": {
        "state": {
            "elbow_joint": 1.971548259319323,
            "shoulder_lift_joint": -1.1394851275133948,
            "shoulder_pan_joint": 0.1228115487234821,
            "wrist_1_joint": -0.7804723859257726,
            "wrist_2_joint": 0.12958671773740124,
            "wrist_3_joint": -3.192489227718131
        }
    },
    "waypoints": [
        {
            "positions": [
                0.1228115487234821,
                -1.1394851275133948,
                1.971548259319323,
                -0.7804723859257726,
                0.12958671773740124,
                -3.192489227718131
            ]
        },
        {
            "positions": [
                0.0568984493035119,
                -1.1731127489150914,
                2.036003949461154,
                -0.8153882905223615,
                0.28664581927276167,
                -3.178258336035312
            ]
        },
        {
            "positions": [
                -0.0090146501164583,
                -1.206740370316788,
                2.100459639602985,
                -0.8503041951189504,
                0.4437049208081222,
                -3.1640274443524925
            ]
        },
        {
            "positions": [
                -0.0749277495364285,
                -1.2403679917184847,
                2.164915329744816,
                -0.8852200997155393,
                0.6007640223434826,
                -3.1497965526696734
            ]
        },
        {
            "positions": [
                -0.1408408489563987,
                -1.2739956131201815,
                2.229371019886647,
                -0.9201360043121282,
                0.7578231238788431,
                -3.135565660986854
            ]
        },
        {
            "positions": [
                -0.2067539483763689,
                -1.3076232345218781,
                2.2938267100284784,
                -0.955051908908717,
                0.9148822254142036,
                -3.1213347693040348
            ]
        },
        {
            "positions": [
                -0.2726670477963391,
                -1.3412508559235747,
                2.3582824001703093,
                -0.9899678135053059,
                1.071941326949564,
                -3.107103877621215
            ]
        },
        {
            "positions": [
                -0.3385801472163093,
                -1.3748784773252714,
                2.4227380903121403,
                -1.0248837181018948,
                1.2290004284849245,
                -3.092872985938396
            ]
        }
    ]
}{
    "goal": {
        "global_pose": {
            "orientation": {
                "w": 0.5084816217422485,
                "x": -0.49083608388900757,
                "y": 0.5182115435600281,
                "z": -0.4816462993621826
            },
            "position": {
                "x": 0.5540239810943604,
                "y": 0.030875300988554955,
                "z": 0.16403168439865112
            }
        },
        "name": "move_to_storage_A"
    },
    "id": "EST_move_to_storage_A_46",
    "joint_names": [
        "shoulder_pan_joint",
        "shoulder_lift_joint",
        "elbow_joint",
        "wrist_1_joint",
        "wrist_2_joint",
        "wrist_3_joint"
    ],
    "metrics": {
        "cart_traj_len": 0.35278793295210575,
        "distance_elbow_joint": 0.45317962104665943,
        "distance_shoulder_lift_joint": 0.23405577010993683,
        "distance_shoulder_pan_joint": 0.4620886049268547,
        "distance_wrist_1_joint": 0.2592870379356256,
        "distance_wrist_2_joint": 1.0948665527556734,
        "distance_wrist_3_joint": 0.0948909350542646,
        "smoothness": 2.2204460668324854e-16,
        "time": 0.046038759,
        "traj_len": 1.6119455703679995,
        "weighted_distance": 2.0352650890311175
    },
    "planner": "EST",
    "start": {
        "state": {
            "elbow_joint": 1.97154746011099,
            "shoulder_lift_joint": -1.13948474672311,
            "shoulder_pan_joint": 0.12281154466712228,
            "wrist_1_joint": -0.7804688027058302,
            "wrist_2_joint": 0.12958655903071145,
            "wrist_3_joint": 3.0906928834467795
        }
    },
    "waypoints": [
        {
            "positions": [
                0.12281154466712228,
                -1.13948474672311,
                1.97154746011099,
                -0.7804688027058302,
                0.12958655903071145,
                3.0906928834467795
            ]
        },
        {
            "positions": [
                0.05679888682042876,
                -1.1729212853102438,
                2.0362874059747984,
                -0.8175098081252052,
                0.2859960665672362,
                3.1042487313116744
            ]
        },
        {
            "positions": [
                -0.009213771026264764,
                -1.2063578238973776,
                2.101027351838607,
                -0.8545508135445803,
                0.4424055741037609,
                3.1178045791765694
            ]
        },
        {
            "positions": [
                -0.07522642887295829,
                -1.2397943624845114,
                2.1657672977024154,
                -0.8915918189639555,
                0.5988150816402857,
                3.1313604270414643
            ]
        },
        {
            "positions": [
                -0.1412390867196518,
                -1.2732309010716452,
                2.230507243566224,
                -0.9286328243833305,
                0.7552245891768105,
                3.1449162749063593
            ]
        },
        {
            "positions": [
                -0.20725174456634538,
                -1.3066674396587792,
                2.2952471894300324,
                -0.9656738298027057,
                0.9116340967133353,
                3.158472122771254
            ]
        },
        {
            "positions": [
                -0.27326440241303884,
                -1.340103978245913,
                2.359987135293841,
                -1.0027148352220807,
                1.06804360424986,
                3.172027970636149
            ]
        },
        {
            "positions": [
                -0.3392770602597324,
                -1.3735405168330468,
                2.4247270811576493,
                -1.0397558406414558,
                1.2244531117863848,
                3.185583818501044
            ]
        }
    ]
}{
    "goal": {
        "global_pose": {
            "orientation": {
                "w": 0.5084816217422485,
                "x": -0.49083608388900757,
                "y": 0.5182115435600281,
                "z": -0.4816462993621826
            },
            "position": {
                "x": 0.5540239810943604,
                "y": 0.030875300988554955,
                "z": 0.16403168439865112
            }
        },
        "name": "move_to_storage_A"
    },
    "id": "EST_move_to_storage_A_46",
    "joint_names": [
        "shoulder_pan_joint",
        "shoulder_lift_joint",
        "elbow_joint",
        "wrist_1_joint",
        "wrist_2_joint",
        "wrist_3_joint"
    ],
    "metrics": {
        "cart_traj_len": 0.352386199019929,
        "distance_elbow_joint": 0.4476599229253937,
        "distance_shoulder_lift_joint": 0.2365179425191486,
        "distance_shoulder_pan_joint": 0.46042514938601214,
        "distance_wrist_1_joint": 0.2322581500272305,
        "distance_wrist_2_joint": 1.0996890285640961,
        "distance_wrist_3_joint": 0.09860167150652588,
        "smoothness": 0.0,
        "time": 0.160618542,
        "traj_len": 1.604727972252122,
        "weighted_distance": 2.025907793196123
    },
    "planner": "EST",
    "start": {
        "state": {
            "elbow_joint": 1.9715472970024885,
            "shoulder_lift_joint": -1.1394870060712896,
            "shoulder_pan_joint": 0.12281152778156021,
            "wrist_1_joint": -0.780463741449964,
            "wrist_2_joint": 0.12958659822042276,
            "wrist_3_joint": 3.090690232415272
        }
    },
    "waypoints": [
        {
            "positions": [
                0.12281152778156021,
                -1.1394870060712896,
                1.9715472970024885,
                -0.780463741449964,
                0.12958659822042276,
                3.090690232415272
            ]
        },
        {
            "positions": [
                0.05703650644070134,
                -1.1732752835740252,
                2.0354987145632593,
                -0.8136434771681398,
                0.28668503087243646,
                3.1047761854876326
            ]
        },
        {
            "positions": [
                -0.008738514900157535,
                -1.2070635610767606,
                2.0994501321240295,
                -0.8468232128863156,
                0.4437834635244502,
                3.1188621385599937
            ]
        },
        {
            "positions": [
                -0.07451353624101639,
                -1.2408518385794962,
                2.1634015496848003,
                -0.8800029486044914,
                0.6008818961764639,
                3.1329480916323544
            ]
        },
        {
            "positions": [
                -0.14028855758187528,
                -1.2746401160822316,
                2.2273529672455705,
                -0.9131826843226671,
                0.7579803288284777,
                3.147034044704715
            ]
        },
        {
            "positions": [
                -0.20606357892273416,
                -1.3084283935849672,
                2.2913043848063412,
                -0.9463624200408429,
                0.9150787614804914,
                3.161119997777076
            ]
        },
        {
            "positions": [
                -0.27183860026359297,
                -1.3422166710877026,
                2.3552558023671115,
                -0.9795421557590187,
                1.0721771941325051,
                3.175205950849437
            ]
        },
        {
            "positions": [
                -0.3376136216044519,
                -1.3760049485904382,
                2.4192072199278822,
                -1.0127218914771945,
                1.2292756267845188,
                3.1892919039217977
            ]
        }
    ]
}