{
    "goal": {
        "global_pose": {
            "orientation": {
                "w": 0.7031023502349854,
                "x": -0.7110244035720825,
                "y": 0.007748599164187908,
                "z": 0.005598929710686207
            },
            "position": {
                "x": 0.11585023208521307,
                "y": 0.44412534475326537,
                "z": 0.3711530566215515
            }
        },
        "name": "move_to_auspresseinheit_A"
    },
    "id": "EST_move_to_auspresseinheit_A_19",
    "joint_names": [
        "shoulder_pan_joint",
        "shoulder_lift_joint",
        "elbow_joint",
        "wrist_1_joint",
        "wrist_2_joint",
        "wrist_3_joint"
    ],
    "metrics": {
        "cart_traj_len": 0.8915583901546031,
        "distance_elbow_joint": 0.2771485013324817,
        "distance_shoulder_lift_joint": 0.5432063275250065,
        "distance_shoulder_pan_joint": 1.3586993414003683,
        "distance_wrist_1_joint": 1.42630550273476,
        "distance_wrist_2_joint": 0.6042412811315103,
        "distance_wrist_3_joint": 0.04557360938041999,
        "smoothness": 1.7651544297351573,
        "time": 0.133597273,
        "traj_len": 2.062807447025666,
        "weighted_distance": 2.525246238712506
    },
    "planner": "EST",
    "start": {
        "state": {
            "elbow_joint": 2.4225746658250005,
            "shoulder_lift_joint": -1.3736534386056498,
            "shoulder_pan_joint": -0.3378633547517467,
            "wrist_1_joint": -1.0288598680537169,
            "wrist_2_joint": 1.233022673432363,
            "wrist_3_joint": -3.0940220416140027
        }
    },
    "waypoints": [
        {
            "positions": [
                -0.3378633547517467,
                -1.3736534386056498,
                2.4225746658250005,
                -1.0288598680537169,
                1.233022673432363,
                -3.0940220416140027
            ]
        },
        {
            "positions": [
                -0.20448549461329124,
                -1.4335016763797497,
                2.405519578985461,
                -0.9180422263688188,
                1.1702203130133142,
                -3.097155566744591
            ]
        },
        {
            "positions": [
                -0.07110763447483576,
                -1.4933499141538495,
                2.3884644921459213,
                -0.8072245846839208,
                1.1074179525942653,
                -3.10028909187518
            ]
        },
        {
            "positions": [
                0.06227022566361978,
                -1.5531981519279494,
                2.3714094053063817,
                -0.6964069429990228,
                1.0446155921752163,
                -3.1034226170057684
            ]
        },
        {
            "positions": [
                0.1956480858020752,
                -1.6130463897020493,
                2.354354318466842,
                -0.5855893013141248,
                0.9818132317561674,
                -3.106556142136357
            ]
        },
        {
            "positions": [
                0.32902594594053086,
                -1.6728946274761491,
                2.337299231627303,
                -0.47477165962922674,
                0.9190108713371186,
                -3.1096896672669456
            ]
        },
        {
            "positions": [
                0.4624038060789863,
                -1.7327428652502492,
                2.3202441447877633,
                -0.3639540179443288,
                0.8562085109180697,
                -3.112823192397534
            ]
        },
        {
            "positions": [
                0.5957816662174418,
                -1.792591103024349,
                2.3031890579482237,
                -0.25313637625943064,
                0.7934061504990207,
                -3.1159567175281224
            ]
        },
        {
            "positions": [
                0.7291595263558972,
                -1.852439340798449,
                2.286133971108684,
                -0.1423187345745327,
                0.7306037900799719,
                -3.1190902426587113
            ]
        },
        {
            "positions": [
                0.8625373864943529,
                -1.9122875785725488,
                2.2690788842691445,
                -0.03150109288963465,
                0.6678014296609229,
                -3.1222237677892997
            ]
        },
        {
            "positions": [
                0.7833880864172185,
                -1.910001484793495,
                2.3309052441574574,
                -0.24597445667497359,
                0.687311448340958,
                -3.130909709391861
            ]
        },
        {
            "positions": [
                0.7042387863400841,
                -1.9077153910144413,
                2.3927316040457702,
                -0.4604478204603125,
                0.7068214670209931,
                -3.1395956509944227
            ]
        }
    ]
}