{
    "goal": {
        "global_pose": {
            "orientation": {
                "w": -0.4816463035849501,
                "x": 0.5182115481033762,
                "y": 0.4908360881923453,
                "z": -0.5084816262002911
            },
            "position": {
                "x": -0.8240239810943604,
                "y": 0.19912469901144506,
                "z": 0.16403168439865112
            }
        },
        "name": "move_to_storage_D"
    },
    "id": "EST_move_to_storage_D_143",
    "joint_names": [
        "shoulder_pan_joint",
        "shoulder_lift_joint",
        "elbow_joint",
        "wrist_1_joint",
        "wrist_2_joint",
        "wrist_3_joint"
    ],
    "metrics": {
        "cart_traj_len": 0.6293733800103652,
        "distance_elbow_joint": 0.5575045585914384,
        "distance_shoulder_lift_joint": 0.15129129646660422,
        "distance_shoulder_pan_joint": 0.3051604692373592,
        "distance_wrist_1_joint": 3.828640364308132,
        "distance_wrist_2_joint": 1.8824842688435595,
        "distance_wrist_3_joint": 3.1971953087316503,
        "smoothness": 0.15972868962586662,
        "time": 0.069453801,
        "traj_len": 3.149964486494847,
        "weighted_distance": 4.693377410436299
    },
    "planner": "EST",
    "start": {
        "state": {
            "elbow_joint": -2.384821988534728,
            "shoulder_lift_joint": -2.2788054721415256,
            "shoulder_pan_joint": -0.1854694642142757,
            "wrist_1_joint": 1.4845938289331202,
            "wrist_2_joint": 0.17898776772866878,
            "wrist_3_joint": 0.037105688729662994
        }
    },
    "waypoints": [
        {
            "positions": [
                -0.1854694642142757,
                -2.2788054721415256,
                -2.384821988534728,
                1.4845938289331202,
                0.17898776772866878,
                0.037105688729662994
            ]
        },
        {
            "positions": [
                -0.07117954599325786,
                -2.2395356234263497,
                -2.235014842871104,
                1.4642270464525615,
                0.20541235753863868,
                0.057067955687295266
            ]
        },
        {
            "positions": [
                0.04311037222775999,
                -2.2002657747111742,
                -2.0852076972074807,
                1.4438602639720028,
                0.2318369473486086,
                0.07703022264492754
            ]
        },
        {
            "positions": [
                0.03991951252795486,
                -2.197234458084664,
                -2.074462269404806,
                1.2860308139992105,
                0.1556021519642911,
                -0.054522726305755165
            ]
        },
        {
            "positions": [
                0.03672865282814973,
                -2.194203141458153,
                -2.0637168416021314,
                1.1282013640264184,
                0.07936735657997362,
                -0.18607567525643787
            ]
        },
        {
            "positions": [
                0.033537793128344595,
                -2.1911718248316427,
                -2.052971413799457,
                0.970371914053626,
                0.0031325611956561084,
                -0.3176286242071206
            ]
        },
        {
            "positions": [
                0.03034693342853946,
                -2.188140508205132,
                -2.042225985996782,
                0.8125424640808337,
                -0.07310223418866135,
                -0.44918157315780327
            ]
        },
        {
            "positions": [
                0.027156073728734326,
                -2.1851091915786216,
                -2.0314805581941076,
                0.6547130141080414,
                -0.1493370295729789,
                -0.5807345221084861
            ]
        },
        {
            "positions": [
                0.023965214028929194,
                -2.1820778749521113,
                -2.020735130391433,
                0.49688356413524915,
                -0.22557182495729639,
                -0.7122874710591688
            ]
        },
        {
            "positions": [
                0.02077435432912406,
                -2.1790465583256005,
                -2.0099897025887583,
                0.3390541141624568,
                -0.3018066203416139,
                -0.8438404200098516
            ]
        },
        {
            "positions": [
                0.01758349462931893,
                -2.17601524169909,
                -1.9992442747860837,
                0.18122466418966465,
                -0.3780414157259313,
                -0.9753933689605341
            ]
        },
        {
            "positions": [
                0.014392634929513794,
                -2.1729839250725793,
                -1.988498846983409,
                0.023395214216872295,
                -0.45427621111024885,
                -1.106946317911217
            ]
        },
        {
            "positions": [
                0.011201775229708659,
                -2.169952608446069,
                -1.9777534191807344,
                -0.13443423575592006,
                -0.5305110064945664,
                -1.2384992668618997
            ]
        },
        {
            "positions": [
                0.008010915529903531,
                -2.166921291819558,
                -1.9670079913780598,
                -0.2922636857287122,
                -0.6067458018788838,
                -1.3700522158125823
            ]
        },
        {
            "positions": [
                0.0048200558300983964,
                -2.163889975193048,
                -1.9562625635753852,
                -0.45009313570150455,
                -0.6829805972632014,
                -1.501605164763265
            ]
        },
        {
            "positions": [
                0.0016291961302932687,
                -2.1608586585665375,
                -1.9455171357727106,
                -0.6079225856742969,
                -0.7592153926475188,
                -1.6331581137139477
            ]
        },
        {
            "positions": [
                -0.001561663569511873,
                -2.1578273419400267,
                -1.9347717079700357,
                -0.7657520356470893,
                -0.8354501880318363,
                -1.7647110626646307
            ]
        },
        {
            "positions": [
                -0.004752523269317001,
                -2.1547960253135163,
                -1.924026280167361,
                -0.9235814856198812,
                -0.9116849834161538,
                -1.8962640116153133
            ]
        },
        {
            "positions": [
                -0.007943382969122136,
                -2.1517647086870055,
                -1.9132808523646865,
                -1.0814109355926735,
                -0.9879197788004712,
                -2.0278169605659957
            ]
        },
        {
            "positions": [
                -0.01113424266892727,
                -2.148733392060495,
                -1.9025354245620119,
                -1.239240385565466,
                -1.0641545741847889,
                -2.1593699095166787
            ]
        },
        {
            "positions": [
                -0.014325102368732405,
                -2.1457020754339844,
                -1.8917899967593372,
                -1.3970698355382583,
                -1.1403893695691063,
                -2.2909228584673613
            ]
        },
        {
            "positions": [
                -0.017515962068537533,
                -2.142670758807474,
                -1.8810445689566626,
                -1.5548992855110506,
                -1.2166241649534237,
                -2.422475807418044
            ]
        },
        {
            "positions": [
                -0.020706821768342674,
                -2.1396394421809637,
                -1.870299141153988,
                -1.712728735483843,
                -1.2928589603377414,
                -2.554028756368727
            ]
        },
        {
            "positions": [
                -0.023897681468147795,
                -2.136608125554453,
                -1.8595537133513134,
                -1.8705581854566353,
                -1.3690937557220588,
                -2.6855817053194095
            ]
        },
        {
            "positions": [
                -0.02708854116795293,
                -2.1335768089279425,
                -1.8488082855486387,
                -2.0283876354294272,
                -1.4453285511063763,
                -2.817134654270092
            ]
        },
        {
            "positions": [
                -0.030279400867758065,
                -2.1305454923014318,
                -1.8380628577459641,
                -2.1862170854022196,
                -1.521563346490694,
                -2.948687603220775
            ]
        },
        {
            "positions": [
                -0.0334702605675632,
                -2.1275141756749214,
                -1.8273174299432895,
                -2.344046535375012,
                -1.5977981418750113,
                -3.0802405521714578
            ]
        }
    ]
}