{
    "goal": {
        "global_pose": {
            "orientation": {
                "w": 0.7031023480610252,
                "x": -0.7110244013736278,
                "y": 0.0077485991402295624,
                "z": 0.005598929693374583
            },
            "position": {
                "x": -0.8841497679147869,
                "y": 0.44412534475326537,
                "z": 0.3711530566215515
            }
        },
        "name": "move_to_auspresseinheit_D"
    },
    "id": "EST_move_to_auspresseinheit_D_94",
    "joint_names": [
        "shoulder_pan_joint",
        "shoulder_lift_joint",
        "elbow_joint",
        "wrist_1_joint",
        "wrist_2_joint",
        "wrist_3_joint"
    ],
    "metrics": {
        "cart_traj_len": 0.3445965345415267,
        "distance_elbow_joint": 0.6616073768532049,
        "distance_shoulder_lift_joint": 0.13362309850180765,
        "distance_shoulder_pan_joint": 0.13335983236217702,
        "distance_wrist_1_joint": 0.5985028579352991,
        "distance_wrist_2_joint": 1.445322590380758,
        "distance_wrist_3_joint": 0.062481671090159896,
        "smoothness": 0.0,
        "time": 0.13964798,
        "traj_len": 1.7420956997603223,
        "weighted_distance": 2.2811589636892435
    },
    "planner": "EST",
    "start": {
        "state": {
            "elbow_joint": -1.8275523626775212,
            "shoulder_lift_joint": -2.126789852344167,
            "shoulder_pan_joint": -0.03513704404078235,
            "wrist_1_joint": -2.347782403156801,
            "wrist_2_joint": -1.6058999987535132,
            "wrist_3_joint": -3.0880379163319196
        }
    },
    "waypoints": [
        {
            "positions": [
                -0.03513704404078235,
                -2.126789852344167,
                -1.8275523626775212,
                -2.347782403156801,
                -1.6058999987535132,
                -3.0880379163319196
            ]
        },
        {
            "positions": [
                -0.05180702308605448,
                -2.143492739656893,
                -1.7448514405708706,
                -2.422595260398713,
                -1.4252346749559184,
                -3.0802277074456494
            ]
        },
        {
            "positions": [
                -0.0684770021313266,
                -2.1601956269696188,
                -1.66215051846422,
                -2.4974081176406258,
                -1.2445693511583236,
                -3.0724174985593797
            ]
        },
        {
            "positions": [
                -0.08514698117659873,
                -2.1768985142823447,
                -1.5794495963575694,
                -2.572220974882538,
                -1.063904027360729,
                -3.0646072896731096
            ]
        },
        {
            "positions": [
                -0.10181696022187087,
                -2.1936014015950707,
                -1.4967486742509188,
                -2.6470338321244506,
                -0.8832387035631342,
                -3.05679708078684
            ]
        },
        {
            "positions": [
                -0.11848693926714299,
                -2.2103042889077966,
                -1.4140477521442683,
                -2.721846689366363,
                -0.7025733797655394,
                -3.0489868719005697
            ]
        },
        {
            "positions": [
                -0.1351569183124151,
                -2.2270071762205226,
                -1.3313468300376174,
                -2.796659546608275,
                -0.5219080559679448,
                -3.0411766630142996
            ]
        },
        {
            "positions": [
                -0.15182689735768726,
                -2.2437100635332485,
                -1.2486459079309669,
                -2.8714724038501878,
                -0.34124273217034995,
                -3.03336645412803
            ]
        },
        {
            "positions": [
                -0.16849687640295938,
                -2.2604129508459745,
                -1.1659449858243163,
                -2.9462852610921,
                -0.16057740837275516,
                -3.0255562452417597
            ]
        }
    ]
}