{
    "goal": {
        "global_pose": {
            "orientation": {
                "w": -0.4816463035849501,
                "x": 0.5182115481033762,
                "y": 0.4908360881923453,
                "z": -0.5084816262002911
            },
            "position": {
                "x": -0.8240239810943604,
                "y": 0.19912469901144506,
                "z": 0.16403168439865112
            }
        },
        "name": "move_to_storage_D"
    },
    "id": "EST_move_to_storage_D_89",
    "joint_names": [
        "shoulder_pan_joint",
        "shoulder_lift_joint",
        "elbow_joint",
        "wrist_1_joint",
        "wrist_2_joint",
        "wrist_3_joint"
    ],
    "metrics": {
        "cart_traj_len": 0.5451610142347926,
        "distance_elbow_joint": 0.8980901756311039,
        "distance_shoulder_lift_joint": 0.1523678678239424,
        "distance_shoulder_pan_joint": 0.23439518149779323,
        "distance_wrist_1_joint": 3.826400469731544,
        "distance_wrist_2_joint": 2.0617904994723184,
        "distance_wrist_3_joint": 3.61825774213853,
        "smoothness": 0.5679211848290998,
        "time": 0.10204128700000001,
        "traj_len": 3.2850117102219336,
        "weighted_distance": 4.8903996145280555
    },
    "planner": "EST",
    "start": {
        "state": {
            "elbow_joint": -2.384821988534728,
            "shoulder_lift_joint": -2.2788054721415256,
            "shoulder_pan_joint": -0.1854694642142757,
            "wrist_1_joint": 1.4845938289331202,
            "wrist_2_joint": 0.17898776772866878,
            "wrist_3_joint": 0.037105688729662994
        }
    },
    "waypoints": [
        {
            "positions": [
                -0.1854694642142757,
                -2.2788054721415256,
                -2.384821988534728,
                1.4845938289331202,
                0.17898776772866878,
                0.037105688729662994
            ]
        },
        {
            "positions": [
                -0.12115553003977325,
                -2.2734285364231295,
                -2.4418078937654775,
                1.4496080795017565,
                0.22570232799252857,
                0.1204338649597986
            ]
        },
        {
            "positions": [
                -0.056841595865270794,
                -2.2680516007047338,
                -2.498793798996227,
                1.414622330070393,
                0.2724168882563884,
                0.2037620411899342
            ]
        },
        {
            "positions": [
                0.007472338309231663,
                -2.2626746649863376,
                -2.5557797042269765,
                1.3796365806390294,
                0.31913144852024816,
                0.28709021742006985
            ]
        },
        {
            "positions": [
                0.005877977579451441,
                -2.2574347780375392,
                -2.5278130711524054,
                1.2365041490452813,
                0.2452219554940659,
                0.1575412476720651
            ]
        },
        {
            "positions": [
                0.0042836168496712184,
                -2.2521948910887413,
                -2.499846438077834,
                1.093371717451533,
                0.17131246246788362,
                0.027992277924060338
            ]
        },
        {
            "positions": [
                0.0026892561198909965,
                -2.246955004139943,
                -2.4718798050032627,
                0.9502392858577848,
                0.09740296944170135,
                -0.10155669182394444
            ]
        },
        {
            "positions": [
                0.0010948953901107738,
                -2.2417151171911445,
                -2.443913171928691,
                0.8071068542640366,
                0.023493476415519077,
                -0.23110566157194917
            ]
        },
        {
            "positions": [
                -0.0004994653396694481,
                -2.2364752302423465,
                -2.41594653885412,
                0.6639744226702884,
                -0.050416016610663195,
                -0.36065463131995396
            ]
        },
        {
            "positions": [
                -0.00209382606944967,
                -2.231235343293548,
                -2.3879799057795483,
                0.5208419910765402,
                -0.12432550963684547,
                -0.49020360106795874
            ]
        },
        {
            "positions": [
                -0.003688186799229892,
                -2.2259954563447497,
                -2.360013272704977,
                0.37770955948279217,
                -0.19823500266302768,
                -0.6197525708159632
            ]
        },
        {
            "positions": [
                -0.0052825475290101155,
                -2.2207555693959518,
                -2.3320466396304056,
                0.23457712788904383,
                -0.27214449568921,
                -0.7493015405639682
            ]
        },
        {
            "positions": [
                -0.006876908258790336,
                -2.2155156824471534,
                -2.3040800065558344,
                0.09144469629529572,
                -0.3460539887153922,
                -0.8788505103119728
            ]
        },
        {
            "positions": [
                -0.00847126898857056,
                -2.210275795498355,
                -2.276113373481263,
                -0.05168773529845261,
                -0.41996348174157455,
                -1.0083994800599778
            ]
        },
        {
            "positions": [
                -0.010065629718350781,
                -2.205035908549557,
                -2.2481467404066917,
                -0.19482016689220072,
                -0.49387297476775677,
                -1.1379484498079824
            ]
        },
        {
            "positions": [
                -0.011659990448131003,
                -2.1997960216007586,
                -2.22018010733212,
                -0.33795259848594905,
                -0.5677824677939391,
                -1.2674974195559874
            ]
        },
        {
            "positions": [
                -0.013254351177911225,
                -2.19455613465196,
                -2.192213474257549,
                -0.48108503007969716,
                -0.6416919608201213,
                -1.397046389303992
            ]
        },
        {
            "positions": [
                -0.014848711907691447,
                -2.1893162477031622,
                -2.1642468411829774,
                -0.624217461673445,
                -0.7156014538463036,
                -1.5265953590519965
            ]
        },
        {
            "positions": [
                -0.01644307263747167,
                -2.184076360754364,
                -2.1362802081084062,
                -0.7673498932671934,
                -0.7895109468724859,
                -1.6561443288000013
            ]
        },
        {
            "positions": [
                -0.018037433367251894,
                -2.178836473805566,
                -2.1083135750338347,
                -0.9104823248609417,
                -0.8634204398986682,
                -1.7856932985480063
            ]
        },
        {
            "positions": [
                -0.019631794097032113,
                -2.1735965868567675,
                -2.0803469419592635,
                -1.05361475645469,
                -0.9373299329248503,
                -1.915242268296011
            ]
        },
        {
            "positions": [
                -0.021226154826812334,
                -2.168356699907969,
                -2.052380308884692,
                -1.196747188048438,
                -1.0112394259510327,
                -2.044791238044015
            ]
        },
        {
            "positions": [
                -0.022820515556592556,
                -2.163116812959171,
                -2.0244136758101208,
                -1.3398796196421863,
                -1.085148918977215,
                -2.17434020779202
            ]
        },
        {
            "positions": [
                -0.02441487628637278,
                -2.1578769260103727,
                -1.9964470427355492,
                -1.4830120512359346,
                -1.1590584120033973,
                -2.303889177540025
            ]
        },
        {
            "positions": [
                -0.026009237016153,
                -2.1526370390615743,
                -1.968480409660978,
                -1.626144482829683,
                -1.2329679050295794,
                -2.43343814728803
            ]
        },
        {
            "positions": [
                -0.027603597745933225,
                -2.1473971521127764,
                -1.9405137765864067,
                -1.7692769144234308,
                -1.3068773980557618,
                -2.5629871170360343
            ]
        },
        {
            "positions": [
                -0.029197958475713444,
                -2.142157265163978,
                -1.9125471435118353,
                -1.9124093460171792,
                -1.380786891081944,
                -2.692536086784039
            ]
        },
        {
            "positions": [
                -0.03079231920549367,
                -2.1369173782151796,
                -1.884580510437264,
                -2.0555417776109275,
                -1.4546963841081264,
                -2.8220850565320443
            ]
        },
        {
            "positions": [
                -0.032386679935273895,
                -2.1316774912663816,
                -1.8566138773626926,
                -2.198674209204676,
                -1.5286058771343085,
                -2.9516340262800487
            ]
        },
        {
            "positions": [
                -0.03398104066505411,
                -2.126437604317583,
                -1.8286472442881212,
                -2.3418066407984237,
                -1.6025153701604908,
                -3.0811829960280535
            ]
        }
    ]
}