{
    "goal": {
        "global_pose": {
            "orientation": {
                "w": 0.7047431468963623,
                "x": -0.7094548344612122,
                "y": 0.0024358443915843964,
                "z": -0.0022348060738295317
            },
            "position": {
                "x": 0.6094750761985779,
                "y": 0.3671506643295288,
                "z": 0.19426114857196808
            }
        },
        "name": "move_to_magneteinheit_A"
    },
    "id": "EST_move_to_magneteinheit_A_99",
    "joint_names": [
        "shoulder_pan_joint",
        "shoulder_lift_joint",
        "elbow_joint",
        "wrist_1_joint",
        "wrist_2_joint",
        "wrist_3_joint"
    ],
    "metrics": {
        "cart_traj_len": 3.7105902677793643,
        "distance_elbow_joint": 3.9051520356782223,
        "distance_shoulder_lift_joint": 0.3879438555719841,
        "distance_shoulder_pan_joint": 3.1321104018438666,
        "distance_wrist_1_joint": 1.4255825166435159,
        "distance_wrist_2_joint": 1.6917692921024101,
        "distance_wrist_3_joint": 2.706754080020299,
        "smoothness": 0.27124902829733316,
        "time": 0.255424386,
        "traj_len": 3.6399604643265424,
        "weighted_distance": 4.666923199565943
    },
    "planner": "EST",
    "start": {
        "state": {
            "elbow_joint": -1.9196185241190666,
            "shoulder_lift_joint": -1.2443396400964142,
            "shoulder_pan_joint": 2.6996025414629847,
            "wrist_1_joint": -1.5485510000780065,
            "wrist_2_joint": -1.5709468930060704,
            "wrist_3_joint": 0.4420197071253992
        }
    },
    "waypoints": [
        {
            "positions": [
                2.6996025414629847,
                -1.2443396400964142,
                -1.9196185241190666,
                -1.5485510000780065,
                -1.5709468930060704,
                0.4420197071253992
            ]
        },
        {
            "positions": [
                2.5496073625814875,
                -1.2624627018546721,
                -1.8105152317488475,
                -1.5939647478574182,
                -1.526621179160776,
                0.4549710901306958
            ]
        },
        {
            "positions": [
                2.39961218369999,
                -1.2805857636129303,
                -1.7014119393786284,
                -1.63937849563683,
                -1.4822954653154816,
                0.46792247313599244
            ]
        },
        {
            "positions": [
                2.249617004818493,
                -1.2987088253711883,
                -1.5923086470084091,
                -1.6847922434162417,
                -1.4379697514701872,
                0.480873856141289
            ]
        },
        {
            "positions": [
                2.099621825936996,
                -1.3168318871294464,
                -1.48320535463819,
                -1.7302059911956533,
                -1.3936440376248929,
                0.49382523914658566
            ]
        },
        {
            "positions": [
                1.9496266470554986,
                -1.3349549488877044,
                -1.374102062267971,
                -1.7756197389750652,
                -1.3493183237795985,
                0.5067766221518822
            ]
        },
        {
            "positions": [
                1.7996314681740015,
                -1.3530780106459623,
                -1.2649987698977516,
                -1.8210334867544768,
                -1.304992609934304,
                0.5197280051571789
            ]
        },
        {
            "positions": [
                1.6496362892925043,
                -1.3712010724042205,
                -1.1558954775275325,
                -1.8664472345338887,
                -1.2606668960890097,
                0.5326793881624755
            ]
        },
        {
            "positions": [
                1.499641110411007,
                -1.3893241341624785,
                -1.0467921851573134,
                -1.9118609823133004,
                -1.2163411822437153,
                0.5456307711677721
            ]
        },
        {
            "positions": [
                1.4307163985888731,
                -1.3827316234940241,
                -0.9226007325849148,
                -1.878809014635427,
                -1.162049712443364,
                0.6421559498342961
            ]
        },
        {
            "positions": [
                1.3617916867667392,
                -1.3761391128255696,
                -0.7984092800125162,
                -1.8457570469575537,
                -1.1077582426430128,
                0.73868112850082
            ]
        },
        {
            "positions": [
                1.2928669749446051,
                -1.3695466021571152,
                -0.6742178274401176,
                -1.8127050792796804,
                -1.0534667728426614,
                0.835206307167344
            ]
        },
        {
            "positions": [
                1.2239422631224712,
                -1.3629540914886609,
                -0.550026374867719,
                -1.779653111601807,
                -0.9991753030423103,
                0.9317314858338679
            ]
        },
        {
            "positions": [
                1.1550175513003373,
                -1.3563615808202065,
                -0.4258349222953204,
                -1.746601143923934,
                -0.9448838332419589,
                1.0282566645003919
            ]
        },
        {
            "positions": [
                1.0860928394782032,
                -1.349769070151752,
                -0.3016434697229218,
                -1.7135491762460606,
                -0.8905923634416076,
                1.1247818431669159
            ]
        },
        {
            "positions": [
                1.0171681276560693,
                -1.3431765594832976,
                -0.17745201715052317,
                -1.6804972085681873,
                -0.8363008936412564,
                1.2213070218334399
            ]
        },
        {
            "positions": [
                0.9482434158339355,
                -1.3365840488148433,
                -0.05326056457812456,
                -1.647445240890314,
                -0.7820094238409051,
                1.3178322004999639
            ]
        },
        {
            "positions": [
                0.8793187040118016,
                -1.3299915381463887,
                0.07093088799427405,
                -1.6143932732124406,
                -0.7277179540405538,
                1.4143573791664878
            ]
        },
        {
            "positions": [
                0.8103939921896676,
                -1.3233990274779344,
                0.19512234056667266,
                -1.5813413055345673,
                -0.6734264842402025,
                1.5108825578330118
            ]
        },
        {
            "positions": [
                0.7414692803675337,
                -1.31680651680948,
                0.31931379313907127,
                -1.5482893378566942,
                -0.6191350144398512,
                1.6074077364995356
            ]
        },
        {
            "positions": [
                0.6725445685453997,
                -1.3102140061410257,
                0.4435052457114699,
                -1.5152373701788209,
                -0.5648435446394999,
                1.7039329151660596
            ]
        },
        {
            "positions": [
                0.6036198567232658,
                -1.3036214954725711,
                0.5676966982838685,
                -1.4821854025009475,
                -0.5105520748391487,
                1.8004580938325834
            ]
        },
        {
            "positions": [
                0.5346951449011317,
                -1.2970289848041168,
                0.6918881508562671,
                -1.4491334348230742,
                -0.4562606050387973,
                1.8969832724991076
            ]
        },
        {
            "positions": [
                0.4657704330789978,
                -1.2904364741356624,
                0.8160796034286657,
                -1.416081467145201,
                -0.401969135238446,
                1.9935084511656316
            ]
        },
        {
            "positions": [
                0.3968457212568639,
                -1.2838439634672079,
                0.9402710560010643,
                -1.3830294994673276,
                -0.34767766543809486,
                2.0900336298321553
            ]
        },
        {
            "positions": [
                0.3279210094347298,
                -1.2772514527987535,
                1.0644625085734631,
                -1.3499775317894542,
                -0.2933861956377435,
                2.1865588084986793
            ]
        },
        {
            "positions": [
                0.2589962976125961,
                -1.2706589421302992,
                1.1886539611458615,
                -1.316925564111581,
                -0.23909472583739222,
                2.2830839871652033
            ]
        },
        {
            "positions": [
                0.19007158579046224,
                -1.2640664314618446,
                1.31284541371826,
                -1.2838735964337076,
                -0.18480325603704095,
                2.3796091658317273
            ]
        },
        {
            "positions": [
                0.12114687396832813,
                -1.2574739207933903,
                1.4370368662906587,
                -1.2508216287558342,
                -0.13051178623668958,
                2.4761343444982513
            ]
        },
        {
            "positions": [
                0.05222216214619424,
                -1.250881410124936,
                1.5612283188630576,
                -1.217769661077961,
                -0.07622031643633842,
                2.5726595231647753
            ]
        },
        {
            "positions": [
                -0.01670254967593965,
                -1.2442888994564816,
                1.685419771435456,
                -1.1847176934000878,
                -0.021928846635987043,
                2.6691847018312993
            ]
        },
        {
            "positions": [
                -0.08562726149807376,
                -1.237696388788027,
                1.8096112240078548,
                -1.1516657257222143,
                0.032362623164364335,
                2.7657098804978233
            ]
        },
        {
            "positions": [
                -0.1545519733202076,
                -1.2311038781195727,
                1.9338026765802534,
                -1.1186137580443412,
                0.0866540929647156,
                2.8622350591643473
            ]
        },
        {
            "positions": [
                -0.061900010966649585,
                -1.2028575096319014,
                1.9510462882398871,
                -1.028938654664587,
                0.09804352834192351,
                2.9577479684914643
            ]
        },
        {
            "positions": [
                0.03075195138690842,
                -1.17461114114423,
                1.9682898998995206,
                -0.9392635512848325,
                0.10943296371913142,
                3.0532608778185812
            ]
        },
        {
            "positions": [
                0.12340391374046644,
                -1.1463647726565587,
                1.9855335115591544,
                -0.8495884479050781,
                0.12082239909633934,
                3.1487737871456982
            ]
        }
    ]
}