{
    "goal": {
        "global_pose": {
            "orientation": {
                "w": 0.7047431468963623,
                "x": -0.7094548344612122,
                "y": 0.0024358443915843964,
                "z": -0.0022348060738295317
            },
            "position": {
                "x": 0.6094750761985779,
                "y": 0.3671506643295288,
                "z": 0.19426114857196808
            }
        },
        "name": "move_to_magneteinheit_A"
    },
    "id": "EST_move_to_magneteinheit_A_44",
    "joint_names": [
        "shoulder_pan_joint",
        "shoulder_lift_joint",
        "elbow_joint",
        "wrist_1_joint",
        "wrist_2_joint",
        "wrist_3_joint"
    ],
    "metrics": {
        "cart_traj_len": 3.4287161468726475,
        "distance_elbow_joint": 3.8700770820698747,
        "distance_shoulder_lift_joint": 0.195997665705119,
        "distance_shoulder_pan_joint": 2.7704528423836523,
        "distance_wrist_1_joint": 1.6152392643318798,
        "distance_wrist_2_joint": 1.6923316379986841,
        "distance_wrist_3_joint": 2.5663470839029987,
        "smoothness": 0.18162646241328465,
        "time": 0.392133023,
        "traj_len": 3.565171184724824,
        "weighted_distance": 4.598990176824557
    },
    "planner": "EST",
    "start": {
        "state": {
            "elbow_joint": -1.9196185241190666,
            "shoulder_lift_joint": -1.2443396400964142,
            "shoulder_pan_joint": 2.6996025414629847,
            "wrist_1_joint": -1.5485510000780065,
            "wrist_2_joint": -1.5709468930060704,
            "wrist_3_joint": 0.4420197071253992
        }
    },
    "waypoints": [
        {
            "positions": [
                2.6996025414629847,
                -1.2443396400964142,
                -1.9196185241190666,
                -1.5485510000780065,
                -1.5709468930060704,
                0.4420197071253992
            ]
        },
        {
            "positions": [
                2.595602152762473,
                -1.2411104870759149,
                -1.7979570933113198,
                -1.4970090539816219,
                -1.503405532759899,
                0.47554038771832063
            ]
        },
        {
            "positions": [
                2.4916017640619605,
                -1.2378813340554158,
                -1.6762956625035732,
                -1.4454671078852372,
                -1.4358641725137276,
                0.509061068311242
            ]
        },
        {
            "positions": [
                2.3876013753614487,
                -1.2346521810349165,
                -1.5546342316958266,
                -1.3939251617888526,
                -1.3683228122675561,
                0.5425817489041634
            ]
        },
        {
            "positions": [
                2.2836009866609364,
                -1.2314230280144174,
                -1.4329728008880798,
                -1.342383215692468,
                -1.300781452021385,
                0.5761024294970849
            ]
        },
        {
            "positions": [
                2.1796005979604245,
                -1.228193874993918,
                -1.311311370080333,
                -1.2908412695960834,
                -1.2332400917752133,
                0.6096231100900064
            ]
        },
        {
            "positions": [
                2.075600209259912,
                -1.2249647219734188,
                -1.1896499392725863,
                -1.239299323499699,
                -1.1656987315290421,
                0.6431437906829278
            ]
        },
        {
            "positions": [
                1.9715998205594003,
                -1.2217355689529197,
                -1.0679885084648397,
                -1.1877573774033143,
                -1.0981573712828707,
                0.6766644712758493
            ]
        },
        {
            "positions": [
                1.8675994318588882,
                -1.2185064159324204,
                -0.9463270776570929,
                -1.1362154313069297,
                -1.0306160110366993,
                0.7101851518687706
            ]
        },
        {
            "positions": [
                1.7635990431583761,
                -1.215277262911921,
                -0.8246656468493461,
                -1.084673485210545,
                -0.9630746507905279,
                0.7437058324616921
            ]
        },
        {
            "positions": [
                1.659598654457864,
                -1.212048109891422,
                -0.7030042160415995,
                -1.0331315391141604,
                -0.8955332905443564,
                0.7772265130546135
            ]
        },
        {
            "positions": [
                1.555598265757352,
                -1.2088189568709227,
                -0.5813427852338529,
                -0.9815895930177758,
                -0.8279919302981851,
                0.810747193647535
            ]
        },
        {
            "positions": [
                1.4515978770568398,
                -1.2055898038504234,
                -0.459681354426106,
                -0.9300476469213912,
                -0.7604505700520137,
                0.8442678742404564
            ]
        },
        {
            "positions": [
                1.3475974883563278,
                -1.2023606508299243,
                -0.3380199236183594,
                -0.8785057008250067,
                -0.6929092098058424,
                0.8777885548333778
            ]
        },
        {
            "positions": [
                1.2435970996558157,
                -1.199131497809425,
                -0.2163584928106126,
                -0.8269637547286219,
                -0.6253678495596708,
                0.9113092354262993
            ]
        },
        {
            "positions": [
                1.1395967109553036,
                -1.1959023447889259,
                -0.09469706200286598,
                -0.7754218086322373,
                -0.5578264893134994,
                0.9448299160192207
            ]
        },
        {
            "positions": [
                1.0355963222547917,
                -1.1926731917684266,
                0.026964368804880845,
                -0.7238798625358528,
                -0.49028512906732824,
                0.9783505966121421
            ]
        },
        {
            "positions": [
                0.9315959335542794,
                -1.1894440387479273,
                0.14862579961262767,
                -0.672337916439468,
                -0.4227437688211566,
                1.0118712772050635
            ]
        },
        {
            "positions": [
                0.8275955448537675,
                -1.1862148857274282,
                0.2702872304203745,
                -0.6207959703430835,
                -0.3552024085749854,
                1.0453919577979849
            ]
        },
        {
            "positions": [
                0.7235951561532554,
                -1.1829857327069289,
                0.3919486612281209,
                -0.569254024246699,
                -0.287661048328814,
                1.0789126383909065
            ]
        },
        {
            "positions": [
                0.6195947674527433,
                -1.1797565796864298,
                0.5136100920358677,
                -0.5177120781503142,
                -0.22011968808264237,
                1.112433318983828
            ]
        },
        {
            "positions": [
                0.515594378752231,
                -1.1765274266659305,
                0.6352715228436145,
                -0.46617013205392976,
                -0.15257832783647118,
                1.1459539995767494
            ]
        },
        {
            "positions": [
                0.41159399005171915,
                -1.1732982736454312,
                0.7569329536513609,
                -0.41462818595754514,
                -0.08503696759029977,
                1.1794746801696707
            ]
        },
        {
            "positions": [
                0.30759360135120684,
                -1.170069120624932,
                0.8785943844591078,
                -0.3630862398611605,
                -0.01749560734412836,
                1.212995360762592
            ]
        },
        {
            "positions": [
                0.20359321265069488,
                -1.1668399676044328,
                1.0002558152668548,
                -0.31154429376477577,
                0.050045752902043016,
                1.2465160413555136
            ]
        },
        {
            "positions": [
                0.1782451833762329,
                -1.1555071534233445,
                1.1093518302425696,
                -0.34287479623740375,
                0.05221886533317502,
                1.4574824926303345
            ]
        },
        {
            "positions": [
                0.15289715410177096,
                -1.1441743392422563,
                1.2184478452182843,
                -0.3742052987100318,
                0.05439197776430703,
                1.6684489439051555
            ]
        },
        {
            "positions": [
                0.12754912482730896,
                -1.132841525061168,
                1.327543860193999,
                -0.40553580118265975,
                0.05656509019543903,
                1.8794153951799761
            ]
        },
        {
            "positions": [
                0.10220109555284701,
                -1.1215087108800799,
                1.436639875169714,
                -0.4368663036552878,
                0.058738202626571034,
                2.090381846454797
            ]
        },
        {
            "positions": [
                0.07685306627838503,
                -1.1101758966989916,
                1.5457358901454288,
                -0.46819680612791575,
                0.060911315057703044,
                2.3013482977296182
            ]
        },
        {
            "positions": [
                0.05150503700392306,
                -1.0988430825179034,
                1.6548319051211435,
                -0.49952730860054373,
                0.06308442748883504,
                2.512314749004439
            ]
        },
        {
            "positions": [
                0.0261570077294611,
                -1.0875102683368152,
                1.7639279200968583,
                -0.5308578110731718,
                0.06525753991996705,
                2.72328120027926
            ]
        },
        {
            "positions": [
                0.05849277727950372,
                -1.1005663663186551,
                1.826104799381508,
                -0.5838308246432562,
                0.08396660827751617,
                2.8183097305289726
            ]
        },
        {
            "positions": [
                0.09082854682954634,
                -1.1136224643004953,
                1.8882816786661578,
                -0.6368038382133406,
                0.10267567663506529,
                2.9133382607786853
            ]
        },
        {
            "positions": [
                0.12316431637958897,
                -1.1266785622823352,
                1.9504585579508076,
                -0.6897768517834251,
                0.12138474499261441,
                3.008366791028398
            ]
        }
    ]
}