{
    "goal": {
        "global_pose": {
            "orientation": {
                "w": -0.4816463035849501,
                "x": 0.5182115481033762,
                "y": 0.4908360881923453,
                "z": -0.5084816262002911
            },
            "position": {
                "x": -0.8240239810943604,
                "y": 0.19912469901144506,
                "z": 0.16403168439865112
            }
        },
        "name": "move_to_storage_D"
    },
    "id": "EST_move_to_storage_D_8",
    "joint_names": [
        "shoulder_pan_joint",
        "shoulder_lift_joint",
        "elbow_joint",
        "wrist_1_joint",
        "wrist_2_joint",
        "wrist_3_joint"
    ],
    "metrics": {
        "cart_traj_len": 0.835612107102839,
        "distance_elbow_joint": 0.5552918974758929,
        "distance_shoulder_lift_joint": 0.3482403133303724,
        "distance_shoulder_pan_joint": 1.0012248934374217,
        "distance_wrist_1_joint": 3.831028399714263,
        "distance_wrist_2_joint": 1.78368196678914,
        "distance_wrist_3_joint": 4.210258216818726,
        "smoothness": 0.27174690441649163,
        "time": 0.08588997200000001,
        "traj_len": 3.4248687109969365,
        "weighted_distance": 5.075918881119622
    },
    "planner": "EST",
    "start": {
        "state": {
            "elbow_joint": -2.384821988534728,
            "shoulder_lift_joint": -2.2788054721415256,
            "shoulder_pan_joint": -0.1854694642142757,
            "wrist_1_joint": 1.4845938289331202,
            "wrist_2_joint": 0.17898776772866878,
            "wrist_3_joint": 0.037105688729662994
        }
    },
    "waypoints": [
        {
            "positions": [
                -0.1854694642142757,
                -2.2788054721415256,
                -2.384821988534728,
                1.4845938289331202,
                0.17898776772866878,
                0.037105688729662994
            ]
        },
        {
            "positions": [
                -0.10315265854824683,
                -2.242983637043337,
                -2.3584999863871645,
                1.3897308250922675,
                0.10342359111281015,
                -0.03863824166957788
            ]
        },
        {
            "positions": [
                -0.020835852882217953,
                -2.2071618019451478,
                -2.332177984239601,
                1.2948678212514149,
                0.027859414496951507,
                -0.11438217206881876
            ]
        },
        {
            "positions": [
                0.06148095278381094,
                -2.171339966846959,
                -2.3058559820920377,
                1.2000048174105622,
                -0.047704762118907146,
                -0.19012610246805964
            ]
        },
        {
            "positions": [
                0.1437977584498398,
                -2.13551813174877,
                -2.2795339799444743,
                1.1051418135697095,
                -0.12326893873476577,
                -0.2658700328673005
            ]
        },
        {
            "positions": [
                0.2261145641158687,
                -2.099696296650581,
                -2.253211977796911,
                1.0102788097288566,
                -0.19883311535062445,
                -0.34161396326654137
            ]
        },
        {
            "positions": [
                0.30843136978189756,
                -2.063874461552392,
                -2.2268899756493474,
                0.9154158058880041,
                -0.2743972919664831,
                -0.41735789366578224
            ]
        },
        {
            "positions": [
                0.3907481754479265,
                -2.0280526264542034,
                -2.200567973501784,
                0.8205528020471513,
                -0.3499614685823418,
                -0.4931018240650232
            ]
        },
        {
            "positions": [
                0.37226959919683,
                -2.0322912120039014,
                -2.1844358916564386,
                0.6828576988807038,
                -0.4045150655596517,
                -0.3330996195422388
            ]
        },
        {
            "positions": [
                0.3537910229457335,
                -2.036529797553599,
                -2.1683038098110927,
                0.5451625957142562,
                -0.4590686625369617,
                -0.17309741501945447
            ]
        },
        {
            "positions": [
                0.335312446694637,
                -2.040768383103297,
                -2.1521717279657473,
                0.4074674925478086,
                -0.5136222595142717,
                -0.013095210496670173
            ]
        },
        {
            "positions": [
                0.3168338704435405,
                -2.0450069686529946,
                -2.1360396461204014,
                0.26977238938136106,
                -0.5681758564915816,
                0.14690699402611423
            ]
        },
        {
            "positions": [
                0.298355294192444,
                -2.0492455542026926,
                -2.119907564275056,
                0.13207728621491344,
                -0.6227294534688916,
                0.3069091985488986
            ]
        },
        {
            "positions": [
                0.2798767179413475,
                -2.05348413975239,
                -2.1037754824297106,
                -0.0056178169515340715,
                -0.6772830504462015,
                0.46691140307168283
            ]
        },
        {
            "positions": [
                0.261398141690251,
                -2.057722725302088,
                -2.0876434005843647,
                -0.1433129201179818,
                -0.7318366474235115,
                0.6269136075944675
            ]
        },
        {
            "positions": [
                0.24291956543915452,
                -2.0619613108517862,
                -2.0715113187390193,
                -0.2810080232844292,
                -0.7863902444008215,
                0.7869158121172517
            ]
        },
        {
            "positions": [
                0.22444098918805802,
                -2.066199896401484,
                -2.0553792368936734,
                -0.41870312645087693,
                -0.8409438413781314,
                0.9469180166400362
            ]
        },
        {
            "positions": [
                0.20596241293696152,
                -2.070438481951182,
                -2.039247155048328,
                -0.5563982296173244,
                -0.8954974383554414,
                1.1069202211628204
            ]
        },
        {
            "positions": [
                0.18748383668586502,
                -2.0746770675008794,
                -2.023115073202982,
                -0.6940933327837722,
                -0.9500510353327514,
                1.2669224256856049
            ]
        },
        {
            "positions": [
                0.16900526043476852,
                -2.0789156530505775,
                -2.0069829913576367,
                -0.8317884359502195,
                -1.0046046323100613,
                1.4269246302083889
            ]
        },
        {
            "positions": [
                0.15052668418367204,
                -2.083154238600275,
                -1.990850909512291,
                -0.969483539116667,
                -1.0591582292873714,
                1.5869268347311731
            ]
        },
        {
            "positions": [
                0.1320481079325755,
                -2.087392824149973,
                -1.9747188276669454,
                -1.107178642283115,
                -1.1137118262646812,
                1.746929039253958
            ]
        },
        {
            "positions": [
                0.11356953168147904,
                -2.0916314096996707,
                -1.9585867458216,
                -1.2448737454495624,
                -1.1682654232419911,
                1.906931243776742
            ]
        },
        {
            "positions": [
                0.09509095543038254,
                -2.0958699952493687,
                -1.9424546639762543,
                -1.3825688486160097,
                -1.2228190202193012,
                2.0669334482995265
            ]
        },
        {
            "positions": [
                0.07661237917928604,
                -2.1001085807990667,
                -1.9263225821309087,
                -1.5202639517824574,
                -1.2773726171966109,
                2.2269356528223105
            ]
        },
        {
            "positions": [
                0.05813380292818954,
                -2.1043471663487643,
                -1.910190500285563,
                -1.6579590549489052,
                -1.331926214173921,
                2.3869378573450954
            ]
        },
        {
            "positions": [
                0.039655226677093036,
                -2.1085857518984623,
                -1.8940584184402174,
                -1.7956541581153525,
                -1.386479811151231,
                2.5469400618678795
            ]
        },
        {
            "positions": [
                0.021176650425996535,
                -2.11282433744816,
                -1.877926336594872,
                -1.9333492612818002,
                -1.441033408128541,
                2.706942266390664
            ]
        },
        {
            "positions": [
                0.0026980741749000337,
                -2.117062922997858,
                -1.8617942547495263,
                -2.0710443644482472,
                -1.4955870051058509,
                2.866944470913448
            ]
        },
        {
            "positions": [
                -0.015780502076196468,
                -2.1213015085475555,
                -1.8456621729041807,
                -2.208739467614696,
                -1.550140602083161,
                3.026946675436233
            ]
        },
        {
            "positions": [
                -0.03425907832729295,
                -2.1255400940972535,
                -1.829530091058835,
                -2.346434570781143,
                -1.6046941990604708,
                3.186948879959017
            ]
        }
    ]
}