{
    "goal": {
        "global_pose": {
            "orientation": {
                "w": 0.005598929693374612,
                "x": 0.007748599140229565,
                "y": 0.7110244013736278,
                "z": -0.7031023480610252
            },
            "position": {
                "x": 0.1141497679147869,
                "y": -0.7141253447532654,
                "z": 0.3711530566215515
            }
        },
        "name": "move_to_auspresseinheit_B"
    },
    "id": "EST_move_to_auspresseinheit_B_93",
    "joint_names": [
        "shoulder_pan_joint",
        "shoulder_lift_joint",
        "elbow_joint",
        "wrist_1_joint",
        "wrist_2_joint",
        "wrist_3_joint"
    ],
    "metrics": {
        "cart_traj_len": 0.5652492312743135,
        "distance_elbow_joint": 0.0650821345416499,
        "distance_shoulder_lift_joint": 0.29490576107291977,
        "distance_shoulder_pan_joint": 0.5791437336209455,
        "distance_wrist_1_joint": 0.3370887915981915,
        "distance_wrist_2_joint": 0.9856615989060049,
        "distance_wrist_3_joint": 0.008796427325336698,
        "smoothness": 3.806478935924272e-16,
        "time": 0.224968426,
        "traj_len": 1.5068770510778404,
        "weighted_distance": 1.9002688473528997
    },
    "planner": "EST",
    "start": {
        "state": {
            "elbow_joint": 2.0193083361928714,
            "shoulder_lift_joint": -1.1220246554650708,
            "shoulder_pan_joint": -1.0952077554168747,
            "wrist_1_joint": -0.8559753972642168,
            "wrist_2_joint": 0.4759566250798843,
            "wrist_3_joint": -3.1240929996934557
        }
    },
    "waypoints": [
        {
            "positions": [
                -1.0952077554168747,
                -1.1220246554650708,
                2.0193083361928714,
                -0.8559753972642168,
                0.4759566250798843,
                -3.1240929996934557
            ]
        },
        {
            "positions": [
                -1.1917317110203656,
                -1.1711756156438908,
                2.008461313769263,
                -0.7997939319978515,
                0.6402335582308851,
                -3.1226269284725663
            ]
        },
        {
            "positions": [
                -1.2882556666238565,
                -1.2203265758227106,
                1.9976142913456547,
                -0.7436124667314863,
                0.8045104913818859,
                -3.121160857251677
            ]
        },
        {
            "positions": [
                -1.3847796222273474,
                -1.2694775360015307,
                1.9867672689220464,
                -0.687431001465121,
                0.9687874245328867,
                -3.119694786030787
            ]
        },
        {
            "positions": [
                -1.4813035778308383,
                -1.3186284961803507,
                1.9759202464984382,
                -0.6312495361987558,
                1.1330643576838875,
                -3.1182287148098977
            ]
        },
        {
            "positions": [
                -1.5778275334343292,
                -1.3677794563591705,
                1.9650732240748299,
                -0.5750680709323905,
                1.2973412908348885,
                -3.1167626435890083
            ]
        },
        {
            "positions": [
                -1.6743514890378202,
                -1.4169304165379906,
                1.9542262016512215,
                -0.5188866056660253,
                1.4616182239858893,
                -3.115296572368119
            ]
        }
    ]
}