{
    "goal": {
        "global_pose": {
            "orientation": {
                "w": 0.7031023480610252,
                "x": -0.7110244013736278,
                "y": 0.0077485991402295624,
                "z": 0.005598929693374583
            },
            "position": {
                "x": -0.8841497679147869,
                "y": 0.44412534475326537,
                "z": 0.3711530566215515
            }
        },
        "name": "move_to_auspresseinheit_D"
    },
    "id": "EST_move_to_auspresseinheit_D_61",
    "joint_names": [
        "shoulder_pan_joint",
        "shoulder_lift_joint",
        "elbow_joint",
        "wrist_1_joint",
        "wrist_2_joint",
        "wrist_3_joint"
    ],
    "metrics": {
        "cart_traj_len": 0.3433868684305679,
        "distance_elbow_joint": 0.6509102823330086,
        "distance_shoulder_lift_joint": 0.12815573654349155,
        "distance_shoulder_pan_joint": 0.1331121998316022,
        "distance_wrist_1_joint": 0.5706456862108955,
        "distance_wrist_2_joint": 1.4414948523362703,
        "distance_wrist_3_joint": 0.040142725775486277,
        "smoothness": 1.4802973690661497e-15,
        "time": 0.060644464,
        "traj_len": 1.7217611573707763,
        "weighted_distance": 2.24875242593063
    },
    "planner": "EST",
    "start": {
        "state": {
            "elbow_joint": -1.8275523626775212,
            "shoulder_lift_joint": -2.126789852344167,
            "shoulder_pan_joint": -0.03513704404078235,
            "wrist_1_joint": -2.347782403156801,
            "wrist_2_joint": -1.6058999987535132,
            "wrist_3_joint": -3.0880379163319196
        }
    },
    "waypoints": [
        {
            "positions": [
                -0.03513704404078235,
                -2.126789852344167,
                -1.8275523626775212,
                -2.347782403156801,
                -1.6058999987535132,
                -3.0880379163319196
            ]
        },
        {
            "positions": [
                -0.051776069019732626,
                -2.142809319412103,
                -1.7461885773858952,
                -2.4191131139331628,
                -1.4257131422114795,
                -3.083020075609984
            ]
        },
        {
            "positions": [
                -0.0684150939986829,
                -2.15882878648004,
                -1.6648247920942691,
                -2.4904438247095246,
                -1.2455262856694456,
                -3.0780022348880482
            ]
        },
        {
            "positions": [
                -0.08505411897763318,
                -2.1748482535479763,
                -1.583461006802643,
                -2.5617745354858865,
                -1.0653394291274119,
                -3.072984394166112
            ]
        },
        {
            "positions": [
                -0.10169314395658344,
                -2.1908677206159126,
                -1.5020972215110169,
                -2.6331052462622484,
                -0.885152572585378,
                -3.0679665534441765
            ]
        },
        {
            "positions": [
                -0.11833216893553372,
                -2.206887187683849,
                -1.4207334362193909,
                -2.7044359570386107,
                -0.7049657160433442,
                -3.062948712722241
            ]
        },
        {
            "positions": [
                -0.134971193914484,
                -2.2229066547517853,
                -1.3393696509277646,
                -2.7757666678149726,
                -0.5247788595013105,
                -3.0579308720003047
            ]
        },
        {
            "positions": [
                -0.15161021889343426,
                -2.238926121819722,
                -1.2580058656361386,
                -2.8470973785913345,
                -0.3445920029592766,
                -3.052913031278369
            ]
        },
        {
            "positions": [
                -0.16824924387238455,
                -2.2549455888876584,
                -1.1766420803445126,
                -2.9184280893676964,
                -0.16440514641724285,
                -3.0478951905564333
            ]
        }
    ]
}