{
    "goal": {
        "global_pose": {
            "orientation": {
                "w": 0.005598929693374612,
                "x": 0.007748599140229565,
                "y": 0.7110244013736278,
                "z": -0.7031023480610252
            },
            "position": {
                "x": -0.8858502320852131,
                "y": -0.7141253447532654,
                "z": 0.3711530566215515
            }
        },
        "name": "move_to_auspresseinheit_C"
    },
    "id": "EST_move_to_auspresseinheit_C_17",
    "joint_names": [
        "shoulder_pan_joint",
        "shoulder_lift_joint",
        "elbow_joint",
        "wrist_1_joint",
        "wrist_2_joint",
        "wrist_3_joint"
    ],
    "metrics": {
        "cart_traj_len": 0.49239972238042873,
        "distance_elbow_joint": 0.991075822209257,
        "distance_shoulder_lift_joint": 0.3209364756096956,
        "distance_shoulder_pan_joint": 0.25660101720664485,
        "distance_wrist_1_joint": 0.6632847061111649,
        "distance_wrist_2_joint": 1.306957592051163,
        "distance_wrist_3_joint": 0.05074887119832905,
        "smoothness": 6.45947944157498e-16,
        "time": 0.511373852,
        "traj_len": 1.8946251566962407,
        "weighted_distance": 2.3793580068886735
    },
    "planner": "EST",
    "start": {
        "state": {
            "elbow_joint": 1.7527959577737207,
            "shoulder_lift_joint": -0.9740617694225068,
            "shoulder_pan_joint": -2.967991417825858,
            "wrist_1_joint": -0.759517768980727,
            "wrist_2_joint": 1.7443932448377408,
            "wrist_3_joint": -3.0840537646736568
        }
    },
    "waypoints": [
        {
            "positions": [
                -2.967991417825858,
                -0.9740617694225068,
                1.7527959577737207,
                -0.759517768980727,
                1.7443932448377408,
                -3.0840537646736568
            ]
        },
        {
            "positions": [
                -2.9423313161051934,
                -0.9419681218615372,
                1.653688375552795,
                -0.6931892983696105,
                1.6136974856326245,
                -3.0891286517934895
            ]
        },
        {
            "positions": [
                -2.916671214384529,
                -0.9098744743005677,
                1.5545807933318692,
                -0.6268608277584939,
                1.4830017264275082,
                -3.0942035389133227
            ]
        },
        {
            "positions": [
                -2.8910111126638647,
                -0.8777808267395981,
                1.4554732111109436,
                -0.5605323571473775,
                1.352305967222392,
                -3.0992784260331554
            ]
        },
        {
            "positions": [
                -2.8653510109432,
                -0.8456871791786285,
                1.3563656288900179,
                -0.494203886536261,
                1.2216102080172755,
                -3.1043533131529886
            ]
        },
        {
            "positions": [
                -2.8396909092225355,
                -0.813593531617659,
                1.2572580466690921,
                -0.42787541592514455,
                1.0909144488121594,
                -3.1094282002728213
            ]
        },
        {
            "positions": [
                -2.814030807501871,
                -0.7814998840566894,
                1.1581504644481666,
                -0.3615469453140281,
                0.9602186896070432,
                -3.114503087392654
            ]
        },
        {
            "positions": [
                -2.7883707057812064,
                -0.7494062364957199,
                1.0590428822272409,
                -0.2952184747029116,
                0.8295229304019268,
                -3.119577974512487
            ]
        },
        {
            "positions": [
                -2.7627106040605423,
                -0.7173125889347503,
                0.959935300006315,
                -0.22889000409179505,
                0.6988271711968104,
                -3.12465286163232
            ]
        },
        {
            "positions": [
                -2.7370505023398777,
                -0.6852189413737807,
                0.8608277177853892,
                -0.1625615334806786,
                0.5681314119916943,
                -3.129727748752153
            ]
        },
        {
            "positions": [
                -2.711390400619213,
                -0.6531252938128111,
                0.7617201355644636,
                -0.09623306286956208,
                0.4374356527865778,
                -3.134802635871986
            ]
        }
    ]
}