{
    "goal": {
        "global_pose": {
            "orientation": {
                "w": 0.7031023502349854,
                "x": -0.7110244035720825,
                "y": 0.007748599164187908,
                "z": 0.005598929710686207
            },
            "position": {
                "x": 0.11585023208521307,
                "y": 0.44412534475326537,
                "z": 0.3711530566215515
            }
        },
        "name": "move_to_auspresseinheit_A"
    },
    "id": "EST_move_to_auspresseinheit_A_120",
    "joint_names": [
        "shoulder_pan_joint",
        "shoulder_lift_joint",
        "elbow_joint",
        "wrist_1_joint",
        "wrist_2_joint",
        "wrist_3_joint"
    ],
    "metrics": {
        "cart_traj_len": 0.7859543710392584,
        "distance_elbow_joint": 0.15324891466488877,
        "distance_shoulder_lift_joint": 0.5340547638800028,
        "distance_shoulder_pan_joint": 1.6486752092058437,
        "distance_wrist_1_joint": 1.4227469852650207,
        "distance_wrist_2_joint": 1.998432089049793,
        "distance_wrist_3_joint": 2.7292077042689384,
        "smoothness": 1.019146297425104,
        "time": 0.166273086,
        "traj_len": 2.9131367400680817,
        "weighted_distance": 4.16724851061071
    },
    "planner": "EST",
    "start": {
        "state": {
            "elbow_joint": 2.4225746658250005,
            "shoulder_lift_joint": -1.3736534386056498,
            "shoulder_pan_joint": -0.3378633547517467,
            "wrist_1_joint": -1.0288598680537169,
            "wrist_2_joint": 1.233022673432363,
            "wrist_3_joint": -3.0940220416140027
        }
    },
    "waypoints": [
        {
            "positions": [
                -0.3378633547517467,
                -1.3736534386056498,
                2.4225746658250005,
                -1.0288598680537169,
                1.233022673432363,
                -3.0940220416140027
            ]
        },
        {
            "positions": [
                -0.3630952860509123,
                -1.4104470067371055,
                2.4149214119356115,
                -0.9458135068681033,
                1.1275929291568727,
                -2.982389335322194
            ]
        },
        {
            "positions": [
                -0.3883272173500779,
                -1.447240574868561,
                2.4072681580462225,
                -0.8627671456824897,
                1.0221631848813821,
                -2.8707566290303848
            ]
        },
        {
            "positions": [
                -0.4135591486492435,
                -1.4840341430000168,
                2.3996149041568335,
                -0.779720784496876,
                0.9167334406058918,
                -2.759123922738576
            ]
        },
        {
            "positions": [
                -0.43879107994840905,
                -1.5208277111314725,
                2.391961650267445,
                -0.6966744233112624,
                0.8113036963304013,
                -2.647491216446767
            ]
        },
        {
            "positions": [
                -0.4640230112475746,
                -1.5576212792629283,
                2.384308396378056,
                -0.6136280621256487,
                0.7058739520549109,
                -2.535858510154958
            ]
        },
        {
            "positions": [
                -0.4892549425467402,
                -1.594414847394384,
                2.376655142488667,
                -0.5305817009400351,
                0.6004442077794204,
                -2.4242258038631492
            ]
        },
        {
            "positions": [
                -0.5144868738459059,
                -1.6312084155258395,
                2.369001888599278,
                -0.4475353397544214,
                0.49501446350392997,
                -2.31259309757134
            ]
        },
        {
            "positions": [
                -0.5397188051450714,
                -1.6680019836572952,
                2.361348634709889,
                -0.3644889785688079,
                0.3895847192284396,
                -2.2009603912795317
            ]
        },
        {
            "positions": [
                -0.564950736444237,
                -1.704795551788751,
                2.3536953808205006,
                -0.2814426173831942,
                0.28415497495294906,
                -2.0893276849877225
            ]
        },
        {
            "positions": [
                -0.5901826677434026,
                -1.7415891199202065,
                2.3460421269311116,
                -0.1983962561975805,
                0.1787252306774587,
                -1.9776949786959135
            ]
        },
        {
            "positions": [
                -0.6154145990425681,
                -1.7783826880516622,
                2.3383888730417226,
                -0.11534989501196702,
                0.07329548640196837,
                -1.8660622724041047
            ]
        },
        {
            "positions": [
                -0.6406465303417337,
                -1.815176256183118,
                2.3307356191523336,
                -0.032303533826353314,
                -0.0321342578735222,
                -1.7544295661122957
            ]
        },
        {
            "positions": [
                -0.5182927091039286,
                -1.8235882513015302,
                2.336318334424354,
                -0.07104813846614039,
                0.03452712010319672,
                -1.8807582232729532
            ]
        },
        {
            "positions": [
                -0.3959388878661234,
                -1.8320002464199425,
                2.341901049696374,
                -0.10979274310592746,
                0.10118849807991565,
                -2.0070868804336106
            ]
        },
        {
            "positions": [
                -0.27358506662831833,
                -1.8404122415383546,
                2.347483764968394,
                -0.14853734774571453,
                0.16784987605663457,
                -2.133415537594268
            ]
        },
        {
            "positions": [
                -0.15123124539051314,
                -1.8488242366567669,
                2.353066480240414,
                -0.1872819523855016,
                0.2345112540333535,
                -2.2597441947549255
            ]
        },
        {
            "positions": [
                -0.02887742415270811,
                -1.8572362317751792,
                2.3586491955124345,
                -0.22602655702528868,
                0.30117263201007244,
                -2.386072851915583
            ]
        },
        {
            "positions": [
                0.09347639708509703,
                -1.8656482268935914,
                2.3642319107844547,
                -0.26477116166507575,
                0.36783400998679133,
                -2.51240150907624
            ]
        },
        {
            "positions": [
                0.21583021832290217,
                -1.8740602220120037,
                2.369814626056475,
                -0.3035157663048628,
                0.4344953879635103,
                -2.6387301662368974
            ]
        },
        {
            "positions": [
                0.3381840395607074,
                -1.882472217130416,
                2.3753973413284952,
                -0.3422603709446499,
                0.5011567659402292,
                -2.7650588233975553
            ]
        },
        {
            "positions": [
                0.46053786079851244,
                -1.890884212248828,
                2.380980056600515,
                -0.38100497558443697,
                0.5678181439169482,
                -2.8913874805582127
            ]
        },
        {
            "positions": [
                0.5828916820363175,
                -1.8992962073672404,
                2.3865627718725353,
                -0.41974958022422404,
                0.6344795218936671,
                -3.0177161377188697
            ]
        },
        {
            "positions": [
                0.7052455032741227,
                -1.9077082024856526,
                2.3921454871445555,
                -0.4584941848640111,
                0.701140899870386,
                -3.144044794879527
            ]
        }
    ]
}