{
    "goal": {
        "global_pose": {
            "orientation": {
                "w": 0.005598929693374612,
                "x": 0.007748599140229565,
                "y": 0.7110244013736278,
                "z": -0.7031023480610252
            },
            "position": {
                "x": -0.8858502320852131,
                "y": -0.7141253447532654,
                "z": 0.3711530566215515
            }
        },
        "name": "move_to_auspresseinheit_C"
    },
    "id": "EST_move_to_auspresseinheit_C_121",
    "joint_names": [
        "shoulder_pan_joint",
        "shoulder_lift_joint",
        "elbow_joint",
        "wrist_1_joint",
        "wrist_2_joint",
        "wrist_3_joint"
    ],
    "metrics": {
        "cart_traj_len": 0.4941171582982854,
        "distance_elbow_joint": 1.0165628355710874,
        "distance_shoulder_lift_joint": 0.3331141339031187,
        "distance_shoulder_pan_joint": 0.25658032976866396,
        "distance_wrist_1_joint": 0.7131243178912433,
        "distance_wrist_2_joint": 1.313331301293946,
        "distance_wrist_3_joint": 0.07612439263424742,
        "smoothness": 1.6148698667872622e-16,
        "time": 0.140298334,
        "traj_len": 1.9258341857653027,
        "weighted_distance": 2.4264257078089146
    },
    "planner": "EST",
    "start": {
        "state": {
            "elbow_joint": 1.7527959577737207,
            "shoulder_lift_joint": -0.9740617694225068,
            "shoulder_pan_joint": -2.967991417825858,
            "wrist_1_joint": -0.759517768980727,
            "wrist_2_joint": 1.7443932448377408,
            "wrist_3_joint": -3.0840537646736568
        }
    },
    "waypoints": [
        {
            "positions": [
                -2.967991417825858,
                -0.9740617694225068,
                1.7527959577737207,
                -0.759517768980727,
                1.7443932448377408,
                -3.0840537646736568
            ]
        },
        {
            "positions": [
                -2.9423333848489914,
                -0.9407503560321949,
                1.651139674216612,
                -0.6882053371916026,
                1.6130601147083463,
                -3.0916662039370815
            ]
        },
        {
            "positions": [
                -2.9166753518721253,
                -0.9074389426418831,
                1.5494833906595031,
                -0.6168929054024783,
                1.4817269845789516,
                -3.099278643200506
            ]
        },
        {
            "positions": [
                -2.891017318895259,
                -0.8741275292515711,
                1.4478271071023945,
                -0.545580473613354,
                1.350393854449557,
                -3.106891082463931
            ]
        },
        {
            "positions": [
                -2.8653592859183923,
                -0.8408161158612593,
                1.3461708235452856,
                -0.47426804182422966,
                1.2190607243201623,
                -3.1145035217273556
            ]
        },
        {
            "positions": [
                -2.839701252941526,
                -0.8075047024709474,
                1.244514539988177,
                -0.4029556100351053,
                1.0877275941907678,
                -3.1221159609907803
            ]
        },
        {
            "positions": [
                -2.8140432199646597,
                -0.7741932890806356,
                1.1428582564310683,
                -0.331643178245981,
                0.9563944640613732,
                -3.1297284002542054
            ]
        },
        {
            "positions": [
                -2.788385186987793,
                -0.7408818756903237,
                1.0412019728739597,
                -0.2603307464568567,
                0.8250613339319787,
                -3.13734083951763
            ]
        },
        {
            "positions": [
                -2.7627271540109266,
                -0.7075704623000119,
                0.9395456893168507,
                -0.18901831466773233,
                0.693728203802584,
                -3.144953278781055
            ]
        },
        {
            "positions": [
                -2.7370691210340605,
                -0.6742590489096999,
                0.837889405759742,
                -0.11770588287860795,
                0.5623950736731893,
                -3.1525657180444795
            ]
        },
        {
            "positions": [
                -2.711411088057194,
                -0.640947635519388,
                0.7362331222026332,
                -0.04639345108948366,
                0.4310619435437948,
                -3.160178157307904
            ]
        }
    ]
}