{
    "goal": {
        "global_pose": {
            "orientation": {
                "w": 0.5084816217422485,
                "x": -0.49083608388900757,
                "y": 0.5182115435600281,
                "z": -0.4816462993621826
            },
            "position": {
                "x": 0.5540239810943604,
                "y": 0.030875300988554955,
                "z": 0.16403168439865112
            }
        },
        "name": "move_to_storage_A"
    },
    "id": "EST_move_to_storage_A_140",
    "joint_names": [
        "shoulder_pan_joint",
        "shoulder_lift_joint",
        "elbow_joint",
        "wrist_1_joint",
        "wrist_2_joint",
        "wrist_3_joint"
    ],
    "metrics": {
        "cart_traj_len": 0.353314598545081,
        "distance_elbow_joint": 0.45010672401242613,
        "distance_shoulder_lift_joint": 0.23426060461175768,
        "distance_shoulder_pan_joint": 0.46046543792654626,
        "distance_wrist_1_joint": 0.24007051080283637,
        "distance_wrist_2_joint": 1.106223553860948,
        "distance_wrist_3_joint": 0.10450277250862205,
        "smoothness": 6.661338200497456e-16,
        "time": 0.026143137,
        "traj_len": 1.611095777327697,
        "weighted_distance": 2.0373829324415587
    },
    "planner": "EST",
    "start": {
        "state": {
            "elbow_joint": 1.971548259319323,
            "shoulder_lift_joint": -1.1394851275133948,
            "shoulder_pan_joint": 0.1228115487234821,
            "wrist_1_joint": -0.7804723859257726,
            "wrist_2_joint": 0.12958671773740124,
            "wrist_3_joint": -3.192489227718131
        }
    },
    "waypoints": [
        {
            "positions": [
                0.1228115487234821,
                -1.1394851275133948,
                1.971548259319323,
                -0.7804723859257726,
                0.12958671773740124,
                -3.192489227718131
            ]
        },
        {
            "positions": [
                0.05703077187683264,
                -1.1729509281722172,
                2.0358492198925267,
                -0.8147681731833206,
                0.28761865400325093,
                -3.1775602602168993
            ]
        },
        {
            "positions": [
                -0.008750004969816816,
                -1.20641672883104,
                2.1001501804657305,
                -0.8490639604408687,
                0.4456505902691006,
                -3.162631292715668
            ]
        },
        {
            "positions": [
                -0.07453078181646627,
                -1.2398825294898623,
                2.164451141038934,
                -0.8833597476984167,
                0.6036825265349504,
                -3.147702325214436
            ]
        },
        {
            "positions": [
                -0.14031155866311573,
                -1.273348330148685,
                2.228752101612138,
                -0.9176555349559649,
                0.7617144628008,
                -3.132773357713204
            ]
        },
        {
            "positions": [
                -0.20609233550976525,
                -1.3068141308075074,
                2.2930530621853418,
                -0.9519513222135129,
                0.9197463990666498,
                -3.1178443902119723
            ]
        },
        {
            "positions": [
                -0.27187311235641465,
                -1.34027993146633,
                2.357354022758545,
                -0.986247109471061,
                1.0777783353324994,
                -3.102915422710741
            ]
        },
        {
            "positions": [
                -0.33765388920306416,
                -1.3737457321251525,
                2.421654983331749,
                -1.020542896728609,
                1.2358102715983492,
                -3.087986455209509
            ]
        }
    ]
}{
    "goal": {
        "global_pose": {
            "orientation": {
                "w": 0.5084816217422485,
                "x": -0.49083608388900757,
                "y": 0.5182115435600281,
                "z": -0.4816462993621826
            },
            "position": {
                "x": 0.5540239810943604,
                "y": 0.030875300988554955,
                "z": 0.16403168439865112
            }
        },
        "name": "move_to_storage_A"
    },
    "id": "EST_move_to_storage_A_140",
    "joint_names": [
        "shoulder_pan_joint",
        "shoulder_lift_joint",
        "elbow_joint",
        "wrist_1_joint",
        "wrist_2_joint",
        "wrist_3_joint"
    ],
    "metrics": {
        "cart_traj_len": 0.3533665033552256,
        "distance_elbow_joint": 0.45029638915938186,
        "distance_shoulder_lift_joint": 0.23689648177687284,
        "distance_shoulder_pan_joint": 0.46120379165675573,
        "distance_wrist_1_joint": 0.23849910506618865,
        "distance_wrist_2_joint": 1.104579375936642,
        "distance_wrist_3_joint": 0.09019181517347041,
        "smoothness": 8.881784232165597e-16,
        "time": 0.025853142000000003,
        "traj_len": 1.6067566582308945,
        "weighted_distance": 2.026111810863133
    },
    "planner": "EST",
    "start": {
        "state": {
            "elbow_joint": 1.97154746011099,
            "shoulder_lift_joint": -1.13948474672311,
            "shoulder_pan_joint": 0.12281154466712228,
            "wrist_1_joint": -0.7804688027058302,
            "wrist_2_joint": 0.12958655903071145,
            "wrist_3_joint": 3.0906928834467795
        }
    },
    "waypoints": [
        {
            "positions": [
                0.12281154466712228,
                -1.13948474672311,
                1.97154746011099,
                -0.7804688027058302,
                0.12958655903071145,
                3.0906928834467795
            ]
        },
        {
            "positions": [
                0.05692528871615718,
                -1.1733271012626632,
                2.0358755157051873,
                -0.8145401034295714,
                0.28738361273594604,
                3.103577428471561
            ]
        },
        {
            "positions": [
                -0.008960967234807923,
                -1.2071694558022166,
                2.1002035712993847,
                -0.8486114041533126,
                0.4451806664411806,
                3.1164619734963424
            ]
        },
        {
            "positions": [
                -0.07484722318577301,
                -1.2410118103417698,
                2.164531626893582,
                -0.8826827048770539,
                0.6029777201464152,
                3.1293465185211238
            ]
        },
        {
            "positions": [
                -0.14073347913673812,
                -1.274854164881323,
                2.2288596824877795,
                -0.9167540056007951,
                0.7607747738516497,
                3.1422310635459056
            ]
        },
        {
            "positions": [
                -0.20661973508770326,
                -1.3086965194208764,
                2.293187738081977,
                -0.9508253063245364,
                0.9185718275568844,
                3.155115608570687
            ]
        },
        {
            "positions": [
                -0.2725059910386683,
                -1.3425388739604296,
                2.3575157936761744,
                -0.9848966070482776,
                1.0763688812621188,
                3.1680001535954685
            ]
        },
        {
            "positions": [
                -0.33839224698963344,
                -1.3763812284999828,
                2.4218438492703718,
                -1.0189679077720188,
                1.2341659349673535,
                3.18088469862025
            ]
        }
    ]
}{
    "goal": {
        "global_pose": {
            "orientation": {
                "w": 0.5084816217422485,
                "x": -0.49083608388900757,
                "y": 0.5182115435600281,
                "z": -0.4816462993621826
            },
            "position": {
                "x": 0.5540239810943604,
                "y": 0.030875300988554955,
                "z": 0.16403168439865112
            }
        },
        "name": "move_to_storage_A"
    },
    "id": "EST_move_to_storage_A_140",
    "joint_names": [
        "shoulder_pan_joint",
        "shoulder_lift_joint",
        "elbow_joint",
        "wrist_1_joint",
        "wrist_2_joint",
        "wrist_3_joint"
    ],
    "metrics": {
        "cart_traj_len": 0.3532203882410135,
        "distance_elbow_joint": 0.4522288348554335,
        "distance_shoulder_lift_joint": 0.23546140776792135,
        "distance_shoulder_pan_joint": 0.4610069826449703,
        "distance_wrist_1_joint": 0.24740886593507283,
        "distance_wrist_2_joint": 1.1039633525747399,
        "distance_wrist_3_joint": 0.09573043525321889,
        "smoothness": 2.2204460668324854e-16,
        "time": 0.08411597999999999,
        "traj_len": 1.6111486210251855,
        "weighted_distance": 2.034363037426606
    },
    "planner": "EST",
    "start": {
        "state": {
            "elbow_joint": 1.9715472970024885,
            "shoulder_lift_joint": -1.1394870060712896,
            "shoulder_pan_joint": 0.12281152778156021,
            "wrist_1_joint": -0.780463741449964,
            "wrist_2_joint": 0.12958659822042276,
            "wrist_3_joint": 3.090690232415272
        }
    },
    "waypoints": [
        {
            "positions": [
                0.12281152778156021,
                -1.1394870060712896,
                1.9715472970024885,
                -0.780463741449964,
                0.12958659822042276,
                3.090690232415272
            ]
        },
        {
            "positions": [
                0.05695338740370731,
                -1.1731243500381354,
                2.0361514162675505,
                -0.8158078651549744,
                0.28729564858824275,
                3.1043660088800173
            ]
        },
        {
            "positions": [
                -0.008904752974145586,
                -1.2067616940049815,
                2.1007555355326124,
                -0.8511519888599848,
                0.44500469895606276,
                3.118041785344763
            ]
        },
        {
            "positions": [
                -0.07476289335199848,
                -1.2403990379718273,
                2.1653596547976743,
                -0.8864961125649952,
                0.6027137493238827,
                3.1317175618095083
            ]
        },
        {
            "positions": [
                -0.14062103372985138,
                -1.2740363819386733,
                2.2299637740627363,
                -0.9218402362700056,
                0.7604227996917027,
                3.1453933382742543
            ]
        },
        {
            "positions": [
                -0.2064791741077043,
                -1.3076737259055191,
                2.294567893327798,
                -0.957184359975016,
                0.9181318500595227,
                3.1590691147389998
            ]
        },
        {
            "positions": [
                -0.2723373144855572,
                -1.341311069872365,
                2.35917201259286,
                -0.9925284836800264,
                1.0758409004273426,
                3.1727448912037453
            ]
        },
        {
            "positions": [
                -0.33819545486341007,
                -1.374948413839211,
                2.423776131857922,
                -1.0278726073850368,
                1.2335499507951626,
                3.1864206676684907
            ]
        }
    ]
}