{
    "goal": {
        "global_pose": {
            "orientation": {
                "w": -0.00223480608172531,
                "x": 0.0024358444001904467,
                "y": 0.7094548369677653,
                "z": -0.704743149386269
            },
            "position": {
                "x": -0.37947507619857795,
                "y": -0.6371506643295288,
                "z": 0.19426114857196808
            }
        },
        "name": "move_to_magneteinheit_C"
    },
    "id": "EST_move_to_magneteinheit_C_60",
    "joint_names": [
        "shoulder_pan_joint",
        "shoulder_lift_joint",
        "elbow_joint",
        "wrist_1_joint",
        "wrist_2_joint",
        "wrist_3_joint"
    ],
    "metrics": {
        "cart_traj_len": 4.476535671306248,
        "distance_elbow_joint": 0.3149737151248666,
        "distance_shoulder_lift_joint": 3.4039911765337347,
        "distance_shoulder_pan_joint": 5.893276595780721,
        "distance_wrist_1_joint": 0.3114466202758168,
        "distance_wrist_2_joint": 0.7950769413423757,
        "distance_wrist_3_joint": 0.77688002077271,
        "smoothness": 1.0161534339726637,
        "time": 3.920857111,
        "traj_len": 3.390522831338882,
        "weighted_distance": 3.762436534081849
    },
    "planner": "EST",
    "start": {
        "state": {
            "elbow_joint": 1.9565354010623817,
            "shoulder_lift_joint": -1.4165861575791021,
            "shoulder_pan_joint": -1.6717766225146293,
            "wrist_1_joint": -0.5286633292919765,
            "wrist_2_joint": 1.472756589071564,
            "wrist_3_joint": -3.1238370188695823
        }
    },
    "waypoints": [
        {
            "positions": [
                -1.6717766225146293,
                -1.4165861575791021,
                1.9565354010623817,
                -0.5286633292919765,
                1.472756589071564,
                -3.1238370188695823
            ]
        },
        {
            "positions": [
                -1.4596615128522565,
                -1.547930424558944,
                1.945755362800462,
                -0.5324773260452302,
                1.4698999451147763,
                -3.0924289721181566
            ]
        },
        {
            "positions": [
                -1.2475464031898835,
                -1.6792746915387862,
                1.9349753245385426,
                -0.5362913227984839,
                1.4670433011579886,
                -3.061020925366731
            ]
        },
        {
            "positions": [
                -1.0354312935275107,
                -1.810618958518628,
                1.924195286276623,
                -0.5401053195517376,
                1.4641866572012012,
                -3.029612878615305
            ]
        },
        {
            "positions": [
                -0.8233161838651379,
                -1.94196322549847,
                1.9134152480147033,
                -0.5439193163049914,
                1.4613300132444136,
                -2.9982048318638794
            ]
        },
        {
            "positions": [
                -0.6112010742027649,
                -2.073307492478312,
                1.9026352097527839,
                -0.5477333130582451,
                1.458473369287626,
                -2.9667967851124537
            ]
        },
        {
            "positions": [
                -0.39908596454039214,
                -2.2046517594581543,
                1.8918551714908642,
                -0.5515473098114988,
                1.4556167253308383,
                -2.935388738361028
            ]
        },
        {
            "positions": [
                -0.18697085487801912,
                -2.3359960264379964,
                1.8810751332289446,
                -0.5553613065647525,
                1.4527600813740507,
                -2.903980691609602
            ]
        },
        {
            "positions": [
                0.025144254784353448,
                -2.467340293417838,
                1.8702950949670252,
                -0.5591753033180062,
                1.449903437417263,
                -2.872572644858176
            ]
        },
        {
            "positions": [
                0.23725936444672646,
                -2.5986845603976803,
                1.8595150567051055,
                -0.56298930007126,
                1.4470467934604754,
                -2.8411645981067504
            ]
        },
        {
            "positions": [
                0.4493744741090995,
                -2.730028827377522,
                1.8487350184431859,
                -0.5668032968245137,
                1.444190149503688,
                -2.8097565513553246
            ]
        },
        {
            "positions": [
                0.6614895837714723,
                -2.861373094357364,
                1.8379549801812665,
                -0.5706172935777674,
                1.4413335055469003,
                -2.778348504603899
            ]
        },
        {
            "positions": [
                0.8736046934338448,
                -2.9927173613372062,
                1.8271749419193468,
                -0.5744312903310211,
                1.4384768615901127,
                -2.746940457852473
            ]
        },
        {
            "positions": [
                0.6876105112209421,
                -2.8911695850718933,
                1.837486789473893,
                -0.5891912158441751,
                1.3962103497089502,
                -2.769161761172229
            ]
        },
        {
            "positions": [
                0.5016163290080393,
                -2.7896218088065807,
                1.8477986370284392,
                -0.6039511413573292,
                1.3539438378277877,
                -2.7913830644919844
            ]
        },
        {
            "positions": [
                0.31562214679513667,
                -2.6880740325412678,
                1.8581104845829854,
                -0.6187110668704832,
                1.3116773259466252,
                -2.81360436781174
            ]
        },
        {
            "positions": [
                0.1296279645822339,
                -2.5865262562759552,
                1.8684223321375317,
                -0.6334709923836371,
                1.2694108140654627,
                -2.8358256711314955
            ]
        },
        {
            "positions": [
                -0.05636621763066885,
                -2.4849784800106423,
                1.8787341796920778,
                -0.6482309178967912,
                1.2271443021843003,
                -2.858046974451251
            ]
        },
        {
            "positions": [
                -0.2423603998435715,
                -2.3834307037453293,
                1.889046027246624,
                -0.6629908434099452,
                1.1848777903031378,
                -2.8802682777710067
            ]
        },
        {
            "positions": [
                -0.42835458205647425,
                -2.2818829274800168,
                1.8993578748011704,
                -0.6777507689230992,
                1.1426112784219753,
                -2.9024895810907623
            ]
        },
        {
            "positions": [
                -0.614348764269377,
                -2.180335151214704,
                1.9096697223557164,
                -0.6925106944362532,
                1.1003447665408128,
                -2.924710884410518
            ]
        },
        {
            "positions": [
                -0.8003429464822798,
                -2.078787374949391,
                1.9199815699102627,
                -0.7072706199494072,
                1.0580782546596503,
                -2.9469321877302734
            ]
        },
        {
            "positions": [
                -0.9863371286951825,
                -1.9772395986840783,
                1.930293417464809,
                -0.7220305454625613,
                1.0158117427784878,
                -2.9691534910500295
            ]
        },
        {
            "positions": [
                -1.1723313109080853,
                -1.8756918224187653,
                1.940605265019355,
                -0.7367904709757153,
                0.9735452308973255,
                -2.991374794369785
            ]
        },
        {
            "positions": [
                -1.3583254931209878,
                -1.7741440461534528,
                1.9509171125739013,
                -0.7515503964888692,
                0.9312787190161631,
                -3.0135960976895406
            ]
        },
        {
            "positions": [
                -1.5443196753338908,
                -1.6725962698881398,
                1.9612289601284476,
                -0.7663103220020232,
                0.8890122071350006,
                -3.035817401009296
            ]
        },
        {
            "positions": [
                -1.7303138575467933,
                -1.571048493622827,
                1.9715408076829937,
                -0.7810702475151773,
                0.846745695253838,
                -3.058038704329052
            ]
        },
        {
            "positions": [
                -1.9163080397596963,
                -1.469500717357514,
                1.98185265523754,
                -0.7958301730283313,
                0.8044791833726755,
                -3.0802600076488074
            ]
        },
        {
            "positions": [
                -2.102302221972599,
                -1.3679529410922016,
                1.9921645027920862,
                -0.8105900985414852,
                0.7622126714915132,
                -3.102481310968563
            ]
        },
        {
            "positions": [
                -2.2882964041855014,
                -1.2664051648268886,
                2.0024763503466323,
                -0.8253500240546392,
                0.7199461596103507,
                -3.1247026142883185
            ]
        },
        {
            "positions": [
                -2.4742905863984044,
                -1.1648573885615758,
                2.0127881979011786,
                -0.8401099495677933,
                0.6776796477291882,
                -3.146923917608074
            ]
        }
    ]
}