{
    "goal": {
        "global_pose": {
            "orientation": {
                "w": 0.5084816262002911,
                "x": -0.4908360881923452,
                "y": 0.5182115481033761,
                "z": -0.48164630358495003
            },
            "position": {
                "x": 0.5540239810943604,
                "y": -0.46912469901144505,
                "z": 0.16403168439865112
            }
        },
        "name": "move_to_storage_B"
    },
    "id": "EST_move_to_storage_B_131",
    "joint_names": [
        "shoulder_pan_joint",
        "shoulder_lift_joint",
        "elbow_joint",
        "wrist_1_joint",
        "wrist_2_joint",
        "wrist_3_joint"
    ],
    "metrics": {
        "cart_traj_len": 0.6982446468666123,
        "distance_elbow_joint": 0.3494233042164976,
        "distance_shoulder_lift_joint": 0.45835079923806044,
        "distance_shoulder_pan_joint": 0.20086634035390072,
        "distance_wrist_1_joint": 3.094526961103798,
        "distance_wrist_2_joint": 2.7002611630994497,
        "distance_wrist_3_joint": 3.1402602418737904,
        "smoothness": 0.14784687337546185,
        "time": 0.106009606,
        "traj_len": 3.1533615095458845,
        "weighted_distance": 4.6924404543730045
    },
    "planner": "EST",
    "start": {
        "state": {
            "elbow_joint": 1.664937868594044,
            "shoulder_lift_joint": -0.661644460510453,
            "shoulder_pan_joint": -0.9139846352900073,
            "wrist_1_joint": 2.146753192139373,
            "wrist_2_joint": -2.2341966793290973,
            "wrist_3_joint": 0.005466555786416001
        }
    },
    "waypoints": [
        {
            "positions": [
                -0.9139846352900073,
                -0.661644460510453,
                1.664937868594044,
                2.146753192139373,
                -2.2341966793290973,
                0.005466555786416001
            ]
        },
        {
            "positions": [
                -0.9094719924189364,
                -0.7370905713221747,
                1.6952738577654523,
                2.175347742641771,
                -2.219785135253008,
                -0.04222516778526935
            ]
        },
        {
            "positions": [
                -0.9049593495478655,
                -0.8125366821338964,
                1.7256098469368606,
                2.203942293144169,
                -2.205373591176918,
                -0.0899168913569547
            ]
        },
        {
            "positions": [
                -0.9126329917323358,
                -0.8248350252384811,
                1.7371598999718079,
                2.082448778740209,
                -2.098516068179027,
                -0.2117119631461715
            ]
        },
        {
            "positions": [
                -0.9203066339168062,
                -0.8371333683430657,
                1.7487099530067551,
                1.960955264336249,
                -1.9916585451811362,
                -0.3335070349353883
            ]
        },
        {
            "positions": [
                -0.9279802761012765,
                -0.8494317114476504,
                1.7602600060417024,
                1.8394617499322887,
                -1.8848010221832454,
                -0.455302106724605
            ]
        },
        {
            "positions": [
                -0.935653918285747,
                -0.8617300545522352,
                1.7718100590766495,
                1.7179682355283288,
                -1.7779434991853547,
                -0.5770971785138219
            ]
        },
        {
            "positions": [
                -0.9433275604702173,
                -0.8740283976568198,
                1.7833601121115967,
                1.5964747211243684,
                -1.671085976187464,
                -0.6988922503030387
            ]
        },
        {
            "positions": [
                -0.9510012026546877,
                -0.8863267407614045,
                1.794910165146544,
                1.4749812067204084,
                -1.564228453189573,
                -0.8206873220922554
            ]
        },
        {
            "positions": [
                -0.958674844839158,
                -0.8986250838659892,
                1.8064602181814913,
                1.3534876923164483,
                -1.457370930191682,
                -0.9424823938814723
            ]
        },
        {
            "positions": [
                -0.9663484870236284,
                -0.9109234269705738,
                1.8180102712164385,
                1.2319941779124883,
                -1.3505134071937914,
                -1.064277465670689
            ]
        },
        {
            "positions": [
                -0.9740221292080987,
                -0.9232217700751585,
                1.8295603242513858,
                1.1105006635085282,
                -1.2436558841959005,
                -1.1860725374599057
            ]
        },
        {
            "positions": [
                -0.9816957713925691,
                -0.9355201131797433,
                1.8411103772863329,
                0.989007149104568,
                -1.1367983611980097,
                -1.3078676092491228
            ]
        },
        {
            "positions": [
                -0.9893694135770394,
                -0.9478184562843279,
                1.8526604303212801,
                0.867513634700608,
                -1.029940838200119,
                -1.4296626810383395
            ]
        },
        {
            "positions": [
                -0.9970430557615098,
                -0.9601167993889126,
                1.8642104833562274,
                0.7460201202966481,
                -0.9230833152022282,
                -1.5514577528275562
            ]
        },
        {
            "positions": [
                -1.00471669794598,
                -0.9724151424934973,
                1.8757605363911747,
                0.6245266058926877,
                -0.8162257922043372,
                -1.673252824616773
            ]
        },
        {
            "positions": [
                -1.0123903401304506,
                -0.9847134855980819,
                1.887310589426122,
                0.5030330914887275,
                -0.7093682692064462,
                -1.79504789640599
            ]
        },
        {
            "positions": [
                -1.020063982314921,
                -0.9970118287026666,
                1.8988606424610692,
                0.3815395770847678,
                -0.6025107462085557,
                -1.9168429681952064
            ]
        },
        {
            "positions": [
                -1.0277376244993912,
                -1.0093101718072512,
                1.9104106954960165,
                0.26004606268080765,
                -0.49565322321066474,
                -2.0386380399844235
            ]
        },
        {
            "positions": [
                -1.0354112666838615,
                -1.021608514911836,
                1.9219607485309635,
                0.13855254827684726,
                -0.388795700212774,
                -2.16043311177364
            ]
        },
        {
            "positions": [
                -1.0430849088683318,
                -1.0339068580164206,
                1.9335108015659108,
                0.01705903387288732,
                -0.28193817721488323,
                -2.2822281835628564
            ]
        },
        {
            "positions": [
                -1.0507585510528024,
                -1.0462052011210052,
                1.945060854600858,
                -0.10443448053107263,
                -0.17508065421699248,
                -2.4040232553520737
            ]
        },
        {
            "positions": [
                -1.0584321932372727,
                -1.0585035442255901,
                1.9566109076358054,
                -0.22592799493503302,
                -0.06822313121910151,
                -2.5258183271412906
            ]
        },
        {
            "positions": [
                -1.066105835421743,
                -1.0708018873301748,
                1.9681609606707526,
                -0.34742150933899296,
                0.03863439177878902,
                -2.647613398930507
            ]
        },
        {
            "positions": [
                -1.0737794776062133,
                -1.0831002304347594,
                1.9797110137056997,
                -0.4689150237429529,
                0.14549191477668,
                -2.769408470719724
            ]
        },
        {
            "positions": [
                -1.0814531197906838,
                -1.0953985735393441,
                1.991261066740647,
                -0.5904085381469133,
                0.252349437774571,
                -2.891203542508941
            ]
        },
        {
            "positions": [
                -1.0891267619751541,
                -1.1076969166439288,
                2.0028111197755942,
                -0.7119020525508728,
                0.3592069607724615,
                -3.0129986142981573
            ]
        },
        {
            "positions": [
                -1.0968004041596244,
                -1.1199952597485134,
                2.0143611728105415,
                -0.8333955669548332,
                0.4660644837703525,
                -3.134793686087374
            ]
        }
    ]
}