{
    "goal": {
        "global_pose": {
            "orientation": {
                "w": 0.7047431468963623,
                "x": -0.7094548344612122,
                "y": 0.0024358443915843964,
                "z": -0.0022348060738295317
            },
            "position": {
                "x": 0.6094750761985779,
                "y": 0.3671506643295288,
                "z": 0.19426114857196808
            }
        },
        "name": "move_to_magneteinheit_A"
    },
    "id": "EST_move_to_magneteinheit_A_7",
    "joint_names": [
        "shoulder_pan_joint",
        "shoulder_lift_joint",
        "elbow_joint",
        "wrist_1_joint",
        "wrist_2_joint",
        "wrist_3_joint"
    ],
    "metrics": {
        "cart_traj_len": 3.658428229306119,
        "distance_elbow_joint": 3.9077303680353346,
        "distance_shoulder_lift_joint": 0.5011189726732607,
        "distance_shoulder_pan_joint": 3.0037882158712015,
        "distance_wrist_1_joint": 3.4587392061494953,
        "distance_wrist_2_joint": 1.761872169476786,
        "distance_wrist_3_joint": 2.1102385599867914,
        "smoothness": 0.14113306840683715,
        "time": 0.097343927,
        "traj_len": 3.8397249240268323,
        "weighted_distance": 4.91778161245421
    },
    "planner": "EST",
    "start": {
        "state": {
            "elbow_joint": -1.9196185241190666,
            "shoulder_lift_joint": -1.2443396400964142,
            "shoulder_pan_joint": 2.6996025414629847,
            "wrist_1_joint": -1.5485510000780065,
            "wrist_2_joint": -1.5709468930060704,
            "wrist_3_joint": 0.4420197071253992
        }
    },
    "waypoints": [
        {
            "positions": [
                2.6996025414629847,
                -1.2443396400964142,
                -1.9196185241190666,
                -1.5485510000780065,
                -1.5709468930060704,
                0.4420197071253992
            ]
        },
        {
            "positions": [
                2.560087472522508,
                -1.230915780906089,
                -1.8283000543040815,
                -1.5313307906592968,
                -1.4908664349371392,
                0.4843931690194636
            ]
        },
        {
            "positions": [
                2.420572403582031,
                -1.217491921715764,
                -1.7369815844890963,
                -1.5141105812405868,
                -1.410785976868208,
                0.526766630913528
            ]
        },
        {
            "positions": [
                2.281057334641554,
                -1.2040680625254392,
                -1.6456631146741114,
                -1.4968903718218771,
                -1.330705518799277,
                0.5691400928075925
            ]
        },
        {
            "positions": [
                2.1415422657010774,
                -1.1906442033351141,
                -1.5543446448591263,
                -1.4796701624031672,
                -1.2506250607303457,
                0.6115135547016569
            ]
        },
        {
            "positions": [
                2.0020271967606003,
                -1.177220344144789,
                -1.4630261750441411,
                -1.4624499529844575,
                -1.1705446026614146,
                0.6538870165957213
            ]
        },
        {
            "positions": [
                1.8625121278201235,
                -1.163796484954464,
                -1.3717077052291562,
                -1.4452297435657475,
                -1.0904641445924836,
                0.6962604784897858
            ]
        },
        {
            "positions": [
                1.7229970588796468,
                -1.1503726257641391,
                -1.2803892354141713,
                -1.4280095341470378,
                -1.0103836865235523,
                0.7386339403838502
            ]
        },
        {
            "positions": [
                1.5834819899391697,
                -1.136948766573814,
                -1.189070765599186,
                -1.4107893247283279,
                -0.9303032284546211,
                0.7810074022779148
            ]
        },
        {
            "positions": [
                1.443966920998693,
                -1.123524907383489,
                -1.097752295784201,
                -1.3935691153096181,
                -0.85022277038569,
                0.8233808641719791
            ]
        },
        {
            "positions": [
                1.304451852058216,
                -1.110101048193164,
                -1.0064338259692158,
                -1.3763489058909082,
                -0.7701423123167589,
                0.8657543260660436
            ]
        },
        {
            "positions": [
                1.164936783117739,
                -1.0966771890028388,
                -0.9151153561542307,
                -1.3591286964721985,
                -0.6900618542478276,
                0.9081277879601081
            ]
        },
        {
            "positions": [
                1.0254217141772624,
                -1.083253329812514,
                -0.8237968863392457,
                -1.3419084870534888,
                -0.6099813961788967,
                0.9505012498541724
            ]
        },
        {
            "positions": [
                0.8859066452367854,
                -1.069829470622189,
                -0.7324784165242606,
                -1.3246882776347788,
                -0.5299009381099653,
                0.9928747117482369
            ]
        },
        {
            "positions": [
                0.7463915762963087,
                -1.0564056114318638,
                -0.6411599467092757,
                -1.307468068216069,
                -0.44982048004103437,
                1.0352481736423012
            ]
        },
        {
            "positions": [
                0.6068765073558318,
                -1.0429817522415388,
                -0.5498414768942905,
                -1.2902478587973591,
                -0.3697400219721032,
                1.077621635536366
            ]
        },
        {
            "positions": [
                0.4673614384153546,
                -1.029557893051214,
                -0.45852300707930516,
                -1.2730276493786494,
                -0.2896595639031718,
                1.1199950974304302
            ]
        },
        {
            "positions": [
                0.3278463694748779,
                -1.0161340338608889,
                -0.36720453726432023,
                -1.2558074399599395,
                -0.2095791058342409,
                1.1623685593244946
            ]
        },
        {
            "positions": [
                0.18833130053440117,
                -1.0027101746705638,
                -0.2758860674493351,
                -1.2385872305412298,
                -0.12949864776530973,
                1.2047420212185591
            ]
        },
        {
            "positions": [
                0.04881623159392445,
                -0.9892863154802387,
                -0.18456759763435016,
                -1.22136702112252,
                -0.04941818969637857,
                1.2471154831126237
            ]
        },
        {
            "positions": [
                -0.09069883734655261,
                -0.9758624562899137,
                -0.09324912781936498,
                -1.20414681170381,
                0.030662268372552506,
                1.289488945006688
            ]
        },
        {
            "positions": [
                -0.08099369176793836,
                -0.9623232684024032,
                0.022452439973985064,
                -1.0252289021195582,
                0.02539281038760331,
                1.2203584802714944
            ]
        },
        {
            "positions": [
                -0.07128854618932412,
                -0.9487840805148927,
                0.1381540077673351,
                -0.8463109925353064,
                0.02012335240265411,
                1.1512280155363006
            ]
        },
        {
            "positions": [
                -0.06158340061070987,
                -0.9352448926273822,
                0.25385557556068516,
                -0.6673930829510546,
                0.014853894417704912,
                1.082097550801107
            ]
        },
        {
            "positions": [
                -0.051878255032095616,
                -0.9217057047398716,
                0.3695571433540352,
                -0.4884751733668027,
                0.009584436432755715,
                1.0129670860659135
            ]
        },
        {
            "positions": [
                -0.042173109453481364,
                -0.908166516852361,
                0.48525871114738517,
                -0.3095572637825508,
                0.004314978447806518,
                0.9438366213307198
            ]
        },
        {
            "positions": [
                -0.03246796387486712,
                -0.8946273289648505,
                0.6009602789407352,
                -0.13063935419829908,
                -0.0009544795371426822,
                0.8747061565955261
            ]
        },
        {
            "positions": [
                -0.022762818296252874,
                -0.88108814107734,
                0.7166618467340853,
                0.048278555385952826,
                -0.006223937522091879,
                0.8055756918603325
            ]
        },
        {
            "positions": [
                -0.013057672717638621,
                -0.8675489531898295,
                0.8323634145274353,
                0.22719646497020474,
                -0.011493395507041076,
                0.7364452271251388
            ]
        },
        {
            "positions": [
                -0.0033525271390243694,
                -0.854009765302319,
                0.9480649823207854,
                0.40611437455445665,
                -0.016762853491990273,
                0.6673147623899451
            ]
        },
        {
            "positions": [
                0.006352618439589883,
                -0.8404705774148085,
                1.0637665501141353,
                0.5850322841387086,
                -0.02203231147693947,
                0.5981842976547516
            ]
        },
        {
            "positions": [
                0.01605776401820412,
                -0.8269313895272978,
                1.1794681179074855,
                0.7639501937229602,
                -0.027301769461888666,
                0.5290538329195579
            ]
        },
        {
            "positions": [
                0.025762909596818373,
                -0.8133922016397874,
                1.2951696857008355,
                0.9428681033072119,
                -0.032571227446837867,
                0.4599233681843642
            ]
        },
        {
            "positions": [
                0.035468055175432625,
                -0.7998530137522768,
                1.4108712534941856,
                1.121786012891464,
                -0.03784068543178706,
                0.3907929034491706
            ]
        },
        {
            "positions": [
                0.04517320075404686,
                -0.7863138258647663,
                1.5265728212875356,
                1.3007039224757158,
                -0.04311014341673626,
                0.32166243871397693
            ]
        },
        {
            "positions": [
                0.05487834633266113,
                -0.7727746379772558,
                1.6422743890808857,
                1.479621832059968,
                -0.04837960140168546,
                0.25253197397878324
            ]
        },
        {
            "positions": [
                0.06458349191127537,
                -0.7592354500897452,
                1.7579759568742357,
                1.6585397416442194,
                -0.053649059386634654,
                0.18340150924358967
            ]
        },
        {
            "positions": [
                0.09368574581319261,
                -0.7672428414230411,
                1.8730439003952513,
                1.7843639738578538,
                -0.09162489955612207,
                0.10506056607238749
            ]
        },
        {
            "positions": [
                0.12278799971510984,
                -0.775250232756337,
                1.988111843916267,
                1.9101882060714883,
                -0.1296007397256095,
                0.02671962290118532
            ]
        }
    ]
}