{
    "goal": {
        "global_pose": {
            "orientation": {
                "w": -0.4816463035849501,
                "x": 0.5182115481033762,
                "y": 0.4908360881923453,
                "z": -0.5084816262002911
            },
            "position": {
                "x": -0.8240239810943604,
                "y": -0.300875300988555,
                "z": 0.16403168439865112
            }
        },
        "name": "move_to_storage_C"
    },
    "id": "EST_move_to_storage_C_109",
    "joint_names": [
        "shoulder_pan_joint",
        "shoulder_lift_joint",
        "elbow_joint",
        "wrist_1_joint",
        "wrist_2_joint",
        "wrist_3_joint"
    ],
    "metrics": {
        "cart_traj_len": 0.5766147907127649,
        "distance_elbow_joint": 0.25881937630459606,
        "distance_shoulder_lift_joint": 0.1901627507182697,
        "distance_shoulder_pan_joint": 0.492573822092762,
        "distance_wrist_1_joint": 0.0757697422269038,
        "distance_wrist_2_joint": 1.0806927854530537,
        "distance_wrist_3_joint": 0.061815628779565035,
        "smoothness": 0.0,
        "time": 0.015522883000000001,
        "traj_len": 1.4696374061567534,
        "weighted_distance": 1.8547042596635825
    },
    "planner": "EST",
    "start": {
        "state": {
            "elbow_joint": 2.010868314990456,
            "shoulder_lift_joint": -1.1634956873337592,
            "shoulder_pan_joint": -2.4736205022346125,
            "wrist_1_joint": -0.8367026794202681,
            "wrist_2_joint": 0.6746043897044499,
            "wrist_3_joint": -3.1496632123970403
        }
    },
    "waypoints": [
        {
            "positions": [
                -2.4736205022346125,
                -1.1634956873337592,
                2.010868314990456,
                -0.8367026794202681,
                0.6746043897044499,
                -3.1496632123970403
            ]
        },
        {
            "positions": [
                -2.5557161392500727,
                -1.131801895547381,
                1.967731752273023,
                -0.8240743890491175,
                0.8547198539466255,
                -3.1393606076004463
            ]
        },
        {
            "positions": [
                -2.6378117762655333,
                -1.1001081037610025,
                1.9245951895555904,
                -0.8114460986779668,
                1.0348353181888013,
                -3.129058002803852
            ]
        },
        {
            "positions": [
                -2.7199074132809935,
                -1.0684143119746243,
                1.8814586268381577,
                -0.7988178083068163,
                1.2149507824309769,
                -3.1187553980072575
            ]
        },
        {
            "positions": [
                -2.8020030502964537,
                -1.0367205201882461,
                1.8383220641207252,
                -0.7861895179356656,
                1.3950662466731525,
                -3.1084527932106636
            ]
        },
        {
            "positions": [
                -2.8840986873119143,
                -1.0050267284018677,
                1.7951855014032925,
                -0.773561227564515,
                1.575181710915328,
                -3.0981501884140696
            ]
        },
        {
            "positions": [
                -2.9661943243273745,
                -0.9733329366154895,
                1.7520489386858598,
                -0.7609329371933643,
                1.7552971751575035,
                -3.0878475836174752
            ]
        }
    ]
}