{
    "goal": {
        "global_pose": {
            "orientation": {
                "w": 0.005598929693374612,
                "x": 0.007748599140229565,
                "y": 0.7110244013736278,
                "z": -0.7031023480610252
            },
            "position": {
                "x": 0.1141497679147869,
                "y": -0.7141253447532654,
                "z": 0.3711530566215515
            }
        },
        "name": "move_to_auspresseinheit_B"
    },
    "id": "EST_move_to_auspresseinheit_B_105",
    "joint_names": [
        "shoulder_pan_joint",
        "shoulder_lift_joint",
        "elbow_joint",
        "wrist_1_joint",
        "wrist_2_joint",
        "wrist_3_joint"
    ],
    "metrics": {
        "cart_traj_len": 0.5646533007734628,
        "distance_elbow_joint": 0.06419414694837089,
        "distance_shoulder_lift_joint": 0.29565506703728883,
        "distance_shoulder_pan_joint": 0.5772155634767908,
        "distance_wrist_1_joint": 0.3364056600137961,
        "distance_wrist_2_joint": 0.9935544680475623,
        "distance_wrist_3_joint": 0.006352608784741864,
        "smoothness": 0.0,
        "time": 0.251225422,
        "traj_len": 1.5077723682003696,
        "weighted_distance": 1.9015895613773737
    },
    "planner": "EST",
    "start": {
        "state": {
            "elbow_joint": 2.0193083361928714,
            "shoulder_lift_joint": -1.1220246554650708,
            "shoulder_pan_joint": -1.0952077554168747,
            "wrist_1_joint": -0.8559753972642168,
            "wrist_2_joint": 0.4759566250798843,
            "wrist_3_joint": -3.1240929996934557
        }
    },
    "waypoints": [
        {
            "positions": [
                -1.0952077554168747,
                -1.1220246554650708,
                2.0193083361928714,
                -0.8559753972642168,
                0.4759566250798843,
                -3.1240929996934557
            ]
        },
        {
            "positions": [
                -1.191410349329673,
                -1.1713004999712857,
                2.008609311701476,
                -0.7999077872619175,
                0.6415490364211447,
                -3.1230342315626656
            ]
        },
        {
            "positions": [
                -1.2876129432424717,
                -1.2205763444775004,
                1.9979102872100811,
                -0.743840177259618,
                0.807141447762405,
                -3.121975463431875
            ]
        },
        {
            "positions": [
                -1.38381553715527,
                -1.269852188983715,
                1.987211262718686,
                -0.6877725672573187,
                0.9727338591036654,
                -3.1209166953010845
            ]
        },
        {
            "positions": [
                -1.4800181310680685,
                -1.31912803348993,
                1.9765122382272908,
                -0.6317049572550194,
                1.1383262704449257,
                -3.1198579271702944
            ]
        },
        {
            "positions": [
                -1.576220724980867,
                -1.368403877996145,
                1.9658132137358957,
                -0.57563734725272,
                1.3039186817861863,
                -3.1187991590395043
            ]
        },
        {
            "positions": [
                -1.6724233188936655,
                -1.4176797225023596,
                1.9551141892445005,
                -0.5195697372504207,
                1.4695110931274467,
                -3.117740390908714
            ]
        }
    ]
}