{
    "goal": {
        "global_pose": {
            "orientation": {
                "w": -0.4816463035849501,
                "x": 0.5182115481033762,
                "y": 0.4908360881923453,
                "z": -0.5084816262002911
            },
            "position": {
                "x": -0.8240239810943604,
                "y": -0.300875300988555,
                "z": 0.16403168439865112
            }
        },
        "name": "move_to_storage_C"
    },
    "id": "EST_move_to_storage_C_114",
    "joint_names": [
        "shoulder_pan_joint",
        "shoulder_lift_joint",
        "elbow_joint",
        "wrist_1_joint",
        "wrist_2_joint",
        "wrist_3_joint"
    ],
    "metrics": {
        "cart_traj_len": 0.5766767072646278,
        "distance_elbow_joint": 0.25630737918710933,
        "distance_shoulder_lift_joint": 0.18853496343096043,
        "distance_shoulder_pan_joint": 0.4940396030251284,
        "distance_wrist_1_joint": 0.07247893662279559,
        "distance_wrist_2_joint": 1.075803237056471,
        "distance_wrist_3_joint": 0.061463929228854575,
        "smoothness": 2.5376526478085547e-16,
        "time": 0.017907812000000002,
        "traj_len": 1.4658199236438696,
        "weighted_distance": 1.8492804224044268
    },
    "planner": "EST",
    "start": {
        "state": {
            "elbow_joint": 2.010868314990456,
            "shoulder_lift_joint": -1.1634956873337592,
            "shoulder_pan_joint": -2.4736205022346125,
            "wrist_1_joint": -0.8367026794202681,
            "wrist_2_joint": 0.6746043897044499,
            "wrist_3_joint": -3.1496632123970403
        }
    },
    "waypoints": [
        {
            "positions": [
                -2.4736205022346125,
                -1.1634956873337592,
                2.010868314990456,
                -0.8367026794202681,
                0.6746043897044499,
                -3.1496632123970403
            ]
        },
        {
            "positions": [
                -2.5559604360721337,
                -1.132073193428599,
                1.9681504184592709,
                -0.8246228566498022,
                0.8539049292138617,
                -3.139419224192231
            ]
        },
        {
            "positions": [
                -2.6383003699096554,
                -1.100650699523439,
                1.9254325219280861,
                -0.8125430338793362,
                1.0332054687232737,
                -3.129175235987422
            ]
        },
        {
            "positions": [
                -2.7206403037471767,
                -1.069228205618279,
                1.8827146253969012,
                -0.8004632111088703,
                1.2125060082326855,
                -3.118931247782613
            ]
        },
        {
            "positions": [
                -2.802980237584698,
                -1.037805711713119,
                1.8399967288657162,
                -0.7883833883384044,
                1.3918065477420973,
                -3.108687259577804
            ]
        },
        {
            "positions": [
                -2.8853201714222196,
                -1.0063832178079588,
                1.7972788323345315,
                -0.7763035655679384,
                1.5711070872515092,
                -3.098443271372995
            ]
        },
        {
            "positions": [
                -2.967660105259741,
                -0.9749607239027988,
                1.7545609358033465,
                -0.7642237427974725,
                1.750407626760921,
                -3.0881992831681857
            ]
        }
    ]
}