{
    "goal": {
        "global_pose": {
            "orientation": {
                "w": 0.7031023502349854,
                "x": -0.7110244035720825,
                "y": 0.007748599164187908,
                "z": 0.005598929710686207
            },
            "position": {
                "x": 0.11585023208521307,
                "y": 0.44412534475326537,
                "z": 0.3711530566215515
            }
        },
        "name": "move_to_auspresseinheit_A"
    },
    "id": "EST_move_to_auspresseinheit_A_122",
    "joint_names": [
        "shoulder_pan_joint",
        "shoulder_lift_joint",
        "elbow_joint",
        "wrist_1_joint",
        "wrist_2_joint",
        "wrist_3_joint"
    ],
    "metrics": {
        "cart_traj_len": 0.6971622331661865,
        "distance_elbow_joint": 0.05769799915687113,
        "distance_shoulder_lift_joint": 0.5823111324166692,
        "distance_shoulder_pan_joint": 1.0479371578860408,
        "distance_wrist_1_joint": 0.5442650360966048,
        "distance_wrist_2_joint": 0.5167009200427298,
        "distance_wrist_3_joint": 0.45144446172448127,
        "smoothness": 0.5165668923636638,
        "time": 0.8084625630000001,
        "traj_len": 1.7889540819493934,
        "weighted_distance": 2.2724901731166396
    },
    "planner": "EST",
    "start": {
        "state": {
            "elbow_joint": 2.4225746658250005,
            "shoulder_lift_joint": -1.3736534386056498,
            "shoulder_pan_joint": -0.3378633547517467,
            "wrist_1_joint": -1.0288598680537169,
            "wrist_2_joint": 1.233022673432363,
            "wrist_3_joint": -3.0940220416140027
        }
    },
    "waypoints": [
        {
            "positions": [
                -0.3378633547517467,
                -1.3736534386056498,
                2.4225746658250005,
                -1.0288598680537169,
                1.233022673432363,
                -3.0940220416140027
            ]
        },
        {
            "positions": [
                -0.20541059095836922,
                -1.4535396184177252,
                2.4166319064176247,
                -0.9513195252500585,
                1.1759940440026926,
                -3.063265898461447
            ]
        },
        {
            "positions": [
                -0.07295782716499172,
                -1.5334257982298007,
                2.4106891470102485,
                -0.8737791824464,
                1.1189654145730221,
                -3.0325097553088907
            ]
        },
        {
            "positions": [
                0.059494936628385786,
                -1.613311978041876,
                2.4047463876028727,
                -0.7962388396427416,
                1.0619367851433517,
                -3.001753612156335
            ]
        },
        {
            "positions": [
                0.1919477004217633,
                -1.6931981578539517,
                2.3988036281954965,
                -0.718698496839083,
                1.0049081557136812,
                -2.970997469003779
            ]
        },
        {
            "positions": [
                0.32440046421514085,
                -1.773084337666027,
                2.3928608687881208,
                -0.6411581540354246,
                0.9478795262840107,
                -2.940241325851223
            ]
        },
        {
            "positions": [
                0.4568532280085183,
                -1.8529705174781026,
                2.3869181093807446,
                -0.5636178112317662,
                0.8908508968543403,
                -2.909485182698667
            ]
        },
        {
            "positions": [
                0.5893059918018958,
                -1.932856697290178,
                2.380975349973369,
                -0.48607746842810773,
                0.8338222674246698,
                -2.878729039546111
            ]
        },
        {
            "positions": [
                0.6496898974680949,
                -1.9213027604241075,
                2.3890246916259885,
                -0.4853361501926099,
                0.7750720104071516,
                -2.996804769374406
            ]
        },
        {
            "positions": [
                0.7100738031342939,
                -1.9097488235580369,
                2.3970740332786082,
                -0.48459483195711206,
                0.7163217533896332,
                -3.114880499202701
            ]
        }
    ]
}