{
    "goal": {
        "global_pose": {
            "orientation": {
                "w": 0.005598929693374612,
                "x": 0.007748599140229565,
                "y": 0.7110244013736278,
                "z": -0.7031023480610252
            },
            "position": {
                "x": -0.8858502320852131,
                "y": -0.7141253447532654,
                "z": 0.3711530566215515
            }
        },
        "name": "move_to_auspresseinheit_C"
    },
    "id": "EST_move_to_auspresseinheit_C_4",
    "joint_names": [
        "shoulder_pan_joint",
        "shoulder_lift_joint",
        "elbow_joint",
        "wrist_1_joint",
        "wrist_2_joint",
        "wrist_3_joint"
    ],
    "metrics": {
        "cart_traj_len": 0.4930771566217073,
        "distance_elbow_joint": 0.9955521427041231,
        "distance_shoulder_lift_joint": 0.3228497209148178,
        "distance_shoulder_pan_joint": 0.25646367059971986,
        "distance_wrist_1_joint": 0.6668392082796807,
        "distance_wrist_2_joint": 1.313001168373795,
        "distance_wrist_3_joint": 0.04282333949903583,
        "smoothness": 1.6148698667872622e-16,
        "time": 0.214885606,
        "traj_len": 1.8967153846508369,
        "weighted_distance": 2.379709290233309
    },
    "planner": "EST",
    "start": {
        "state": {
            "elbow_joint": 1.7527959577737207,
            "shoulder_lift_joint": -0.9740617694225068,
            "shoulder_pan_joint": -2.967991417825858,
            "wrist_1_joint": -0.759517768980727,
            "wrist_2_joint": 1.7443932448377408,
            "wrist_3_joint": -3.0840537646736568
        }
    },
    "waypoints": [
        {
            "positions": [
                -2.967991417825858,
                -0.9740617694225068,
                1.7527959577737207,
                -0.759517768980727,
                1.7443932448377408,
                -3.0840537646736568
            ]
        },
        {
            "positions": [
                -2.942345050765886,
                -0.941776797331025,
                1.6532407435033083,
                -0.692833848152759,
                1.6130931280003613,
                -3.0883360986235604
            ]
        },
        {
            "positions": [
                -2.916698683705914,
                -0.9094918252395432,
                1.553685529232896,
                -0.6261499273247908,
                1.4817930111629818,
                -3.092618432573464
            ]
        },
        {
            "positions": [
                -2.891052316645942,
                -0.8772068531480615,
                1.4541303149624838,
                -0.5594660064968228,
                1.3504928943256023,
                -3.0969007665233677
            ]
        },
        {
            "positions": [
                -2.86540594958597,
                -0.8449218810565796,
                1.3545751006920714,
                -0.4927820856688547,
                1.2191927774882227,
                -3.1011831004732713
            ]
        },
        {
            "positions": [
                -2.839759582525998,
                -0.8126369089650979,
                1.255019886421659,
                -0.42609816484088664,
                1.0878926606508434,
                -3.1054654344231745
            ]
        },
        {
            "positions": [
                -2.814113215466026,
                -0.7803519368736161,
                1.155464672151247,
                -0.3594142440129186,
                0.9565925438134638,
                -3.109747768373078
            ]
        },
        {
            "positions": [
                -2.788466848406054,
                -0.7480669647821343,
                1.0559094578808346,
                -0.2927303231849505,
                0.8252924269760844,
                -3.1140301023229817
            ]
        },
        {
            "positions": [
                -2.762820481346082,
                -0.7157819926906526,
                0.9563542436104222,
                -0.22604640235698237,
                0.6939923101387049,
                -3.1183124362728853
            ]
        },
        {
            "positions": [
                -2.73717411428611,
                -0.6834970205991708,
                0.8567990293400098,
                -0.15936248152901433,
                0.5626921933013254,
                -3.122594770222789
            ]
        },
        {
            "positions": [
                -2.711527747226138,
                -0.651212048507689,
                0.7572438150695976,
                -0.0926785607010463,
                0.43139207646394584,
                -3.1268771041726926
            ]
        }
    ]
}