{
    "goal": {
        "global_pose": {
            "orientation": {
                "w": -0.00223480608172531,
                "x": 0.0024358444001904467,
                "y": 0.7094548369677653,
                "z": -0.704743149386269
            },
            "position": {
                "x": 0.6205249238014221,
                "y": -0.6371506643295288,
                "z": 0.19426114857196808
            }
        },
        "name": "move_to_magneteinheit_B"
    },
    "id": "EST_move_to_magneteinheit_B_25",
    "joint_names": [
        "shoulder_pan_joint",
        "shoulder_lift_joint",
        "elbow_joint",
        "wrist_1_joint",
        "wrist_2_joint",
        "wrist_3_joint"
    ],
    "metrics": {
        "cart_traj_len": 1.8335029253745572,
        "distance_elbow_joint": 1.4141670008186698,
        "distance_shoulder_lift_joint": 1.407316363768512,
        "distance_shoulder_pan_joint": 2.305905365379862,
        "distance_wrist_1_joint": 0.38373852860754054,
        "distance_wrist_2_joint": 1.5284230571880995,
        "distance_wrist_3_joint": 1.217980709441611,
        "smoothness": 0.8264087891771663,
        "time": 0.152369276,
        "traj_len": 2.873592007436737,
        "weighted_distance": 3.550444201770133
    },
    "planner": "EST",
    "start": {
        "state": {
            "elbow_joint": 2.6216224122426386,
            "shoulder_lift_joint": -1.4174107377796124,
            "shoulder_pan_joint": 0.7066234856936794,
            "wrist_1_joint": 1.9546482284002225,
            "wrist_2_joint": -0.7096286983471962,
            "wrist_3_joint": 0.005740856962016249
        }
    },
    "waypoints": [
        {
            "positions": [
                0.7066234856936794,
                -1.4174107377796124,
                2.6216224122426386,
                1.9546482284002225,
                -0.7096286983471962,
                0.005740856962016249
            ]
        },
        {
            "positions": [
                0.7638340711132245,
                -1.471751678844244,
                2.6598030449927714,
                1.9391754883107013,
                -0.8279623860650464,
                -0.09577138489471575
            ]
        },
        {
            "positions": [
                0.8210446565327697,
                -1.5260926199088758,
                2.697983677742904,
                1.92370274822118,
                -0.9462960737828964,
                -0.19728362675144773
            ]
        },
        {
            "positions": [
                0.8782552419523149,
                -1.5804335609735074,
                2.7361643104930367,
                1.9082300081316588,
                -1.0646297615007465,
                -0.29879586860817975
            ]
        },
        {
            "positions": [
                0.9354658273718599,
                -1.634774502038139,
                2.7743449432431695,
                1.8927572680421376,
                -1.1829634492185965,
                -0.4003081104649117
            ]
        },
        {
            "positions": [
                0.9926764127914052,
                -1.6891154431027708,
                2.812525575993302,
                1.8772845279526162,
                -1.3012971369364468,
                -0.5018203523216438
            ]
        },
        {
            "positions": [
                1.0498869982109502,
                -1.7434563841674025,
                2.8507062087434347,
                1.861811787863095,
                -1.4196308246542968,
                -0.6033325941783758
            ]
        },
        {
            "positions": [
                0.9272218824070383,
                -1.6758769643311073,
                2.7766385084735674,
                1.879993168367496,
                -1.4707821328343593,
                -0.5652758905345496
            ]
        },
        {
            "positions": [
                0.8045567666031264,
                -1.6082975444948122,
                2.7025708082037005,
                1.8981745488718968,
                -1.5219334410144216,
                -0.5272191868907234
            ]
        },
        {
            "positions": [
                0.6818916507992143,
                -1.540718124658517,
                2.6285031079338332,
                1.9163559293762975,
                -1.5730847491944842,
                -0.48916248324689726
            ]
        },
        {
            "positions": [
                0.5592265349953024,
                -1.473138704822222,
                2.5544354076639664,
                1.9345373098806984,
                -1.6242360573745465,
                -0.4511057796030711
            ]
        },
        {
            "positions": [
                0.43656141919139047,
                -1.4055592849859269,
                2.480367707394099,
                1.9527186903850993,
                -1.675387365554609,
                -0.4130490759592449
            ]
        },
        {
            "positions": [
                0.3138963033874784,
                -1.3379798651496317,
                2.406300007124232,
                1.9709000708895,
                -1.7265386737346713,
                -0.3749923723154187
            ]
        },
        {
            "positions": [
                0.1912311875835665,
                -1.2704004453133366,
                2.332232306854365,
                1.9890814513939008,
                -1.7776899819147338,
                -0.3369356686715925
            ]
        },
        {
            "positions": [
                0.06856607177965457,
                -1.2028210254770415,
                2.258164606584498,
                2.0072628318983017,
                -1.8288412900947963,
                -0.29887896502776634
            ]
        },
        {
            "positions": [
                -0.05409904402425747,
                -1.1352416056407464,
                2.1840969063146307,
                2.0254442124027023,
                -1.8799925982748587,
                -0.26082226138394016
            ]
        },
        {
            "positions": [
                -0.1767641598281693,
                -1.0676621858044513,
                2.110029206044764,
                2.0436255929071034,
                -1.931143906454921,
                -0.22276555774011397
            ]
        },
        {
            "positions": [
                -0.2994292756320813,
                -1.0000827659681562,
                2.0359615057748965,
                2.061806973411504,
                -1.9822952146349835,
                -0.1847088540962878
            ]
        },
        {
            "positions": [
                -0.42209439143599337,
                -0.932503346131861,
                1.9618938055050295,
                2.0799883539159048,
                -2.033446522815046,
                -0.1466521504524616
            ]
        },
        {
            "positions": [
                -0.5447595072399052,
                -0.8649239262955659,
                1.8878261052351624,
                2.098169734420306,
                -2.0845978309951083,
                -0.10859544680863542
            ]
        },
        {
            "positions": [
                -0.6674246230438172,
                -0.7973445064592708,
                1.8137584049652953,
                2.1163511149247065,
                -2.1357491391751706,
                -0.07053874316480924
            ]
        },
        {
            "positions": [
                -0.790089738847729,
                -0.7297650866229757,
                1.7396907046954282,
                2.1345324954291076,
                -2.1869004473552334,
                -0.03248203952098305
            ]
        },
        {
            "positions": [
                -0.9127548546516412,
                -0.6621856667866804,
                1.665623004425561,
                2.1527138759335083,
                -2.2380517555352957,
                0.0055746641228431645
            ]
        }
    ]
}