{
    "goal": {
        "global_pose": {
            "orientation": {
                "w": 0.5084816262002911,
                "x": -0.4908360881923452,
                "y": 0.5182115481033761,
                "z": -0.48164630358495003
            },
            "position": {
                "x": 0.5540239810943604,
                "y": -0.46912469901144505,
                "z": 0.16403168439865112
            }
        },
        "name": "move_to_storage_B"
    },
    "id": "EST_move_to_storage_B_53",
    "joint_names": [
        "shoulder_pan_joint",
        "shoulder_lift_joint",
        "elbow_joint",
        "wrist_1_joint",
        "wrist_2_joint",
        "wrist_3_joint"
    ],
    "metrics": {
        "cart_traj_len": 1.8440130068651435,
        "distance_elbow_joint": 0.3476184356228864,
        "distance_shoulder_lift_joint": 1.753835120922834,
        "distance_shoulder_pan_joint": 0.2680781698268139,
        "distance_wrist_1_joint": 2.9810762764363736,
        "distance_wrist_2_joint": 2.703893014258733,
        "distance_wrist_3_joint": 4.979253934134519,
        "smoothness": 0.37940181623079544,
        "time": 0.051382239,
        "traj_len": 3.610229210341382,
        "weighted_distance": 5.355112707512915
    },
    "planner": "EST",
    "start": {
        "state": {
            "elbow_joint": 1.664937868594044,
            "shoulder_lift_joint": -0.661644460510453,
            "shoulder_pan_joint": -0.9139846352900073,
            "wrist_1_joint": 2.146753192139373,
            "wrist_2_joint": -2.2341966793290973,
            "wrist_3_joint": 0.005466555786416001
        }
    },
    "waypoints": [
        {
            "positions": [
                -0.9139846352900073,
                -0.661644460510453,
                1.664937868594044,
                2.146753192139373,
                -2.2341966793290973,
                0.005466555786416001
            ]
        },
        {
            "positions": [
                -0.908579789791902,
                -0.799835446439731,
                1.6736887453948417,
                2.098856770091315,
                -2.183850820429473,
                -0.11009438509920433
            ]
        },
        {
            "positions": [
                -0.9031749442937969,
                -0.9380264323690091,
                1.6824396221956395,
                2.050960348043257,
                -2.133504961529849,
                -0.22565532598482466
            ]
        },
        {
            "positions": [
                -0.8977700987956916,
                -1.0762174182982869,
                1.6911904989964375,
                2.0030639259951997,
                -2.0831591026302245,
                -0.341216266870445
            ]
        },
        {
            "positions": [
                -0.8923652532975863,
                -1.214408404227565,
                1.6999413757972353,
                1.9551675039471417,
                -2.0328132437306,
                -0.4567772077560653
            ]
        },
        {
            "positions": [
                -0.8869604077994812,
                -1.352599390156843,
                1.708692252598033,
                1.9072710818990837,
                -1.982467384830976,
                -0.5723381486416856
            ]
        },
        {
            "positions": [
                -0.8815555623013759,
                -1.490790376086121,
                1.717443129398831,
                1.859374659851026,
                -1.9321215259313518,
                -0.687899089527306
            ]
        },
        {
            "positions": [
                -0.8761507168032707,
                -1.628981362015399,
                1.7261940061996288,
                1.8114782378029681,
                -1.8817756670317274,
                -0.8034600304129264
            ]
        },
        {
            "positions": [
                -0.8707458713051655,
                -1.767172347944677,
                1.7349448830004266,
                1.7635818157549101,
                -1.8314298081321032,
                -0.9190209712985467
            ]
        },
        {
            "positions": [
                -0.8793935407606259,
                -1.7422374543489614,
                1.7456222453549075,
                1.6636623965221442,
                -1.7429249564758824,
                -0.7630684171812561
            ]
        },
        {
            "positions": [
                -0.8880412102160864,
                -1.7173025607532455,
                1.7562996077093884,
                1.5637429772893785,
                -1.6544201048196618,
                -0.6071158630639654
            ]
        },
        {
            "positions": [
                -0.8966888796715469,
                -1.6923676671575296,
                1.7669769700638693,
                1.4638235580566126,
                -1.565915253163441,
                -0.4511633089466747
            ]
        },
        {
            "positions": [
                -0.9053365491270073,
                -1.667432773561814,
                1.7776543324183502,
                1.3639041388238469,
                -1.4774104015072203,
                -0.2952107548293841
            ]
        },
        {
            "positions": [
                -0.9139842185824678,
                -1.6424978799660983,
                1.7883316947728312,
                1.263984719591081,
                -1.3889055498509997,
                -0.13925820071209338
            ]
        },
        {
            "positions": [
                -0.9226318880379283,
                -1.6175629863703824,
                1.799009057127312,
                1.164065300358315,
                -1.3004006981947789,
                0.016694353405197204
            ]
        },
        {
            "positions": [
                -0.9312795574933886,
                -1.5926280927746665,
                1.809686419481793,
                1.0641458811255493,
                -1.2118958465385583,
                0.17264690752248768
            ]
        },
        {
            "positions": [
                -0.9399272269488491,
                -1.567693199178951,
                1.820363781836274,
                0.9642264618927835,
                -1.1233909948823375,
                0.3285994616397785
            ]
        },
        {
            "positions": [
                -0.9485748964043096,
                -1.5427583055832352,
                1.8310411441907548,
                0.8643070426600178,
                -1.034886143226117,
                0.4845520157570691
            ]
        },
        {
            "positions": [
                -0.9572225658597701,
                -1.5178234119875194,
                1.8417185065452357,
                0.7643876234272519,
                -0.946381291569896,
                0.6405045698743599
            ]
        },
        {
            "positions": [
                -0.9658702353152305,
                -1.4928885183918035,
                1.8523958688997166,
                0.664468204194486,
                -0.8578764399136755,
                0.7964571239916503
            ]
        },
        {
            "positions": [
                -0.974517904770691,
                -1.4679536247960878,
                1.8630732312541975,
                0.5645487849617201,
                -0.7693715882574546,
                0.9524096781089411
            ]
        },
        {
            "positions": [
                -0.9831655742261515,
                -1.4430187312003722,
                1.8737505936086785,
                0.4646293657289544,
                -0.680866736601234,
                1.1083622322262316
            ]
        },
        {
            "positions": [
                -0.991813243681612,
                -1.4180838376046563,
                1.8844279559631594,
                0.3647099464961887,
                -0.5923618849450134,
                1.264314786343522
            ]
        },
        {
            "positions": [
                -1.0004609131370723,
                -1.3931489440089406,
                1.8951053183176403,
                0.264790527263423,
                -0.5038570332887926,
                1.4202673404608128
            ]
        },
        {
            "positions": [
                -1.0091085825925328,
                -1.3682140504132247,
                1.9057826806721212,
                0.16487110803065685,
                -0.4153521816325718,
                1.5762198945781036
            ]
        },
        {
            "positions": [
                -1.0177562520479932,
                -1.343279156817509,
                1.9164600430266021,
                0.06495168879789115,
                -0.326847329976351,
                1.7321724486953944
            ]
        },
        {
            "positions": [
                -1.0264039215034537,
                -1.3183442632217932,
                1.927137405381083,
                -0.034967730434874555,
                -0.23834247832013045,
                1.8881250028126848
            ]
        },
        {
            "positions": [
                -1.0350515909589142,
                -1.2934093696260773,
                1.937814767735564,
                -0.13488714966764048,
                -0.14983762666390987,
                2.044077556929975
            ]
        },
        {
            "positions": [
                -1.0436992604143747,
                -1.2684744760303617,
                1.9484921300900448,
                -0.2348065689004064,
                -0.061332775007688856,
                2.2000301110472664
            ]
        },
        {
            "positions": [
                -1.0523469298698351,
                -1.243539582434646,
                1.9591694924445258,
                -0.33472598813317234,
                0.027172076648531718,
                2.355982665164557
            ]
        },
        {
            "positions": [
                -1.0609945993252956,
                -1.2186046888389301,
                1.9698468547990067,
                -0.43464540736593804,
                0.11567692830475229,
                2.511935219281847
            ]
        },
        {
            "positions": [
                -1.069642268780756,
                -1.1936697952432143,
                1.9805242171534876,
                -0.5345648265987037,
                0.2041817799609731,
                2.667887773399138
            ]
        },
        {
            "positions": [
                -1.0782899382362165,
                -1.1687349016474986,
                1.9912015795079685,
                -0.6344842458314699,
                0.2926866316171941,
                2.8238403275164288
            ]
        },
        {
            "positions": [
                -1.086937607691677,
                -1.143800008051783,
                2.0018789418624494,
                -0.7344036650642356,
                0.3811914832734147,
                2.9797928816337196
            ]
        },
        {
            "positions": [
                -1.0955852771471375,
                -1.118865114456067,
                2.0125563042169303,
                -0.8343230842970014,
                0.4696963349296354,
                3.13574543575101
            ]
        }
    ]
}