{
    "goal": {
        "global_pose": {
            "orientation": {
                "w": 0.7047431493862688,
                "x": -0.7094548369677653,
                "y": 0.0024358444001904,
                "z": -0.0022348060817251984
            },
            "position": {
                "x": -0.39052492380142206,
                "y": 0.3671506643295288,
                "z": 0.19426114857196808
            }
        },
        "name": "move_to_magneteinheit_D"
    },
    "id": "EST_move_to_magneteinheit_D_32",
    "joint_names": [
        "shoulder_pan_joint",
        "shoulder_lift_joint",
        "elbow_joint",
        "wrist_1_joint",
        "wrist_2_joint",
        "wrist_3_joint"
    ],
    "metrics": {
        "cart_traj_len": 4.836908672879376,
        "distance_elbow_joint": 5.730285068807392,
        "distance_shoulder_lift_joint": 1.2441961016152225,
        "distance_shoulder_pan_joint": 2.9235556382607526,
        "distance_wrist_1_joint": 2.2659080587098326,
        "distance_wrist_2_joint": 4.78839496726482,
        "distance_wrist_3_joint": 4.91958030257441,
        "smoothness": 0.480230789289088,
        "time": 0.58866752,
        "traj_len": 4.676742470698212,
        "weighted_distance": 6.226185330389381
    },
    "planner": "EST",
    "start": {
        "state": {
            "elbow_joint": 0.749534889911806,
            "shoulder_lift_joint": -0.6476975780787326,
            "shoulder_pan_joint": -2.711696901376241,
            "wrist_1_joint": -0.07506478083263063,
            "wrist_2_joint": 0.43296659715538205,
            "wrist_3_joint": -3.14703540197715
        }
    },
    "waypoints": [
        {
            "positions": [
                -2.711696901376241,
                -0.6476975780787326,
                0.749534889911806,
                -0.07506478083263063,
                0.43296659715538205,
                -3.14703540197715
            ]
        },
        {
            "positions": [
                -2.7019041254987752,
                -0.6832950445240389,
                0.8188639978431572,
                -0.11153827225051643,
                0.5418792977752559,
                -3.0153376038717288
            ]
        },
        {
            "positions": [
                -2.6921113496213094,
                -0.7188925109693453,
                0.8881931057745085,
                -0.14801176366840224,
                0.6507919983951298,
                -2.8836398057663075
            ]
        },
        {
            "positions": [
                -2.6823185737438435,
                -0.7544899774146515,
                0.9575222137058597,
                -0.18448525508628802,
                0.7597046990150037,
                -2.7519420076608863
            ]
        },
        {
            "positions": [
                -2.6725257978663772,
                -0.7900874438599578,
                1.0268513216372108,
                -0.22095874650417383,
                0.8686173996348776,
                -2.620244209555465
            ]
        },
        {
            "positions": [
                -2.6627330219889114,
                -0.8256849103052641,
                1.0961804295685622,
                -0.2574322379220596,
                0.9775301002547514,
                -2.4885464114500433
            ]
        },
        {
            "positions": [
                -2.6529402461114455,
                -0.8612823767505704,
                1.1655095374999134,
                -0.2939057293399454,
                1.0864428008746254,
                -2.356848613344622
            ]
        },
        {
            "positions": [
                -2.6431474702339797,
                -0.8968798431958767,
                1.2348386454312648,
                -0.3303792207578312,
                1.1953555014944992,
                -2.2251508152392008
            ]
        },
        {
            "positions": [
                -2.633354694356514,
                -0.9324773096411829,
                1.304167753362616,
                -0.366852712175717,
                1.304268202114373,
                -2.0934530171337795
            ]
        },
        {
            "positions": [
                -2.623561918479048,
                -0.9680747760864892,
                1.373496861293967,
                -0.40332620359360283,
                1.413180902734247,
                -1.961755219028358
            ]
        },
        {
            "positions": [
                -2.6137691426015817,
                -1.0036722425317954,
                1.4428259692253183,
                -0.43979969501148863,
                1.5220936033541208,
                -1.8300574209229368
            ]
        },
        {
            "positions": [
                -2.603976366724116,
                -1.039269708977102,
                1.5121550771566696,
                -0.47627318642937444,
                1.6310063039739948,
                -1.6983596228175153
            ]
        },
        {
            "positions": [
                -2.59418359084665,
                -1.0748671754224082,
                1.5814841850880208,
                -0.5127466778472602,
                1.7399190045938686,
                -1.5666618247120943
            ]
        },
        {
            "positions": [
                -2.584390814969184,
                -1.1104646418677144,
                1.6508132930193722,
                -0.549220169265146,
                1.8488317052137426,
                -1.4349640266066728
            ]
        },
        {
            "positions": [
                -2.5745980390917182,
                -1.1460621083130207,
                1.7201424009507233,
                -0.5856936606830319,
                1.9577444058336164,
                -1.3032662285012515
            ]
        },
        {
            "positions": [
                -2.5648052632142524,
                -1.181659574758327,
                1.7894715088820747,
                -0.6221671521009176,
                2.06665710645349,
                -1.17156843039583
            ]
        },
        {
            "positions": [
                -2.5550124873367865,
                -1.2172570412036334,
                1.858800616813426,
                -0.6586406435188035,
                2.175569807073364,
                -1.039870632290409
            ]
        },
        {
            "positions": [
                -2.5452197114593202,
                -1.2528545076489395,
                1.928129724744777,
                -0.6951141349366892,
                2.2844825076932382,
                -0.9081728341849873
            ]
        },
        {
            "positions": [
                -2.5354269355818544,
                -1.288451974094246,
                1.9974588326761282,
                -0.7315876263545751,
                2.393395208313112,
                -0.776475036079566
            ]
        },
        {
            "positions": [
                -2.5256341597043885,
                -1.3240494405395522,
                2.0667879406074796,
                -0.7680611177724608,
                2.502307908932986,
                -0.6447772379741445
            ]
        },
        {
            "positions": [
                -2.4531257892158824,
                -1.3383094137479012,
                1.9510247674852548,
                -0.8118163474887498,
                2.4250762394137175,
                -0.7064712426601621
            ]
        },
        {
            "positions": [
                -2.3806174187273768,
                -1.3525693869562503,
                1.8352615943630302,
                -0.8555715772050387,
                2.3478445698944497,
                -0.7681652473461796
            ]
        },
        {
            "positions": [
                -2.3081090482388706,
                -1.3668293601645993,
                1.7194984212408053,
                -0.8993268069213277,
                2.2706129003751814,
                -0.8298592520321972
            ]
        },
        {
            "positions": [
                -2.2356006777503645,
                -1.3810893333729484,
                1.6037352481185805,
                -0.9430820366376167,
                2.1933812308559135,
                -0.8915532567182147
            ]
        },
        {
            "positions": [
                -2.1630923072618584,
                -1.3953493065812974,
                1.4879720749963559,
                -0.9868372663539057,
                2.1161495613366452,
                -0.9532472614042322
            ]
        },
        {
            "positions": [
                -2.0905839367733527,
                -1.4096092797896465,
                1.372208901874131,
                -1.0305924960701947,
                2.038917891817377,
                -1.01494126609025
            ]
        },
        {
            "positions": [
                -2.0180755662848466,
                -1.4238692529979955,
                1.2564457287519062,
                -1.0743477257864837,
                1.9616862222981089,
                -1.0766352707762674
            ]
        },
        {
            "positions": [
                -1.9455671957963405,
                -1.4381292262063445,
                1.1406825556296813,
                -1.1181029555027726,
                1.8844545527788408,
                -1.138329275462285
            ]
        },
        {
            "positions": [
                -1.8730588253078349,
                -1.4523891994146936,
                1.0249193825074567,
                -1.1618581852190615,
                1.8072228832595727,
                -1.2000232801483026
            ]
        },
        {
            "positions": [
                -1.8005504548193287,
                -1.4666491726230426,
                0.9091562093852319,
                -1.2056134149353506,
                1.7299912137403046,
                -1.26171728483432
            ]
        },
        {
            "positions": [
                -1.7280420843308226,
                -1.4809091458313917,
                0.7933930362630071,
                -1.2493686446516397,
                1.6527595442210363,
                -1.3234112895203376
            ]
        },
        {
            "positions": [
                -1.6555337138423167,
                -1.4951691190397407,
                0.6776298631407822,
                -1.2931238743679285,
                1.5755278747017682,
                -1.385105294206355
            ]
        },
        {
            "positions": [
                -1.5830253433538108,
                -1.5094290922480897,
                0.5618666900185574,
                -1.3368791040842176,
                1.4982962051825002,
                -1.4467992988923728
            ]
        },
        {
            "positions": [
                -1.5105169728653047,
                -1.523689065456439,
                0.44610351689633276,
                -1.3806343338005065,
                1.4210645356632319,
                -1.5084933035783903
            ]
        },
        {
            "positions": [
                -1.4380086023767988,
                -1.5379490386647878,
                0.33034034377410815,
                -1.4243895635167956,
                1.3438328661439638,
                -1.5701873082644078
            ]
        },
        {
            "positions": [
                -1.3655002318882927,
                -1.5522090118731369,
                0.2145771706518833,
                -1.4681447932330844,
                1.2666011966246957,
                -1.6318813129504255
            ]
        },
        {
            "positions": [
                -1.2929918613997868,
                -1.5664689850814861,
                0.09881399752965847,
                -1.5119000229493733,
                1.1893695271054276,
                -1.693575317636443
            ]
        },
        {
            "positions": [
                -1.220483490911281,
                -1.5807289582898352,
                -0.016949175592566146,
                -1.5556552526656624,
                1.1121378575861596,
                -1.7552693223224605
            ]
        },
        {
            "positions": [
                -1.1479751204227748,
                -1.5949889314981842,
                -0.13271234871479098,
                -1.5994104823819515,
                1.0349061880668915,
                -1.816963327008478
            ]
        },
        {
            "positions": [
                -1.075466749934269,
                -1.6092489047065333,
                -0.24847552183701582,
                -1.6431657120982404,
                0.9576745185476232,
                -1.8786573316944954
            ]
        },
        {
            "positions": [
                -1.0029583794457628,
                -1.6235088779148823,
                -0.36423869495924066,
                -1.6869209418145292,
                0.8804428490283551,
                -1.9403513363805132
            ]
        },
        {
            "positions": [
                -0.9304500089572569,
                -1.6377688511232313,
                -0.4800018680814655,
                -1.7306761715308183,
                0.8032111795090868,
                -2.0020453410665304
            ]
        },
        {
            "positions": [
                -0.8579416384687508,
                -1.6520288243315804,
                -0.5957650412036903,
                -1.7744314012471074,
                0.7259795099898187,
                -2.0637393457525484
            ]
        },
        {
            "positions": [
                -0.7854332679802449,
                -1.6662887975399294,
                -0.7115282143259152,
                -1.8181866309633963,
                0.6487478404705507,
                -2.125433350438566
            ]
        },
        {
            "positions": [
                -0.7129248974917388,
                -1.6805487707482785,
                -0.82729138744814,
                -1.8619418606796854,
                0.5715161709512824,
                -2.1871273551245833
            ]
        },
        {
            "positions": [
                -0.6404165270032329,
                -1.6948087439566275,
                -0.9430545605703649,
                -1.9056970903959745,
                0.4942845014320145,
                -2.2488213598106013
            ]
        },
        {
            "positions": [
                -0.5679081565147268,
                -1.7090687171649765,
                -1.0588177336925892,
                -1.9494523201122633,
                0.4170528319127462,
                -2.3105153644966183
            ]
        },
        {
            "positions": [
                -0.4953997860262209,
                -1.7233286903733256,
                -1.174580906814814,
                -1.9932075498285524,
                0.3398211623934779,
                -2.3722093691826363
            ]
        },
        {
            "positions": [
                -0.4228914155377148,
                -1.7375886635816746,
                -1.290344079937039,
                -2.036962779544841,
                0.26258949287420963,
                -2.4339033738686537
            ]
        },
        {
            "positions": [
                -0.35038304504920914,
                -1.7518486367900237,
                -1.4061072530592633,
                -2.08071800926113,
                0.18535782335494178,
                -2.4955973785546712
            ]
        },
        {
            "positions": [
                -0.27787467456070303,
                -1.7661086099983727,
                -1.5218704261814882,
                -2.1244732389774192,
                0.10812615383567392,
                -2.5572913832406883
            ]
        },
        {
            "positions": [
                -0.20536630407219691,
                -1.7803685832067218,
                -1.637633599303713,
                -2.168228468693708,
                0.030894484316405624,
                -2.618985387926706
            ]
        },
        {
            "positions": [
                -0.13285793358369125,
                -1.7946285564150708,
                -1.7533967724259378,
                -2.2119836984099974,
                -0.046337185202862674,
                -2.680679392612724
            ]
        },
        {
            "positions": [
                -0.06034956309518513,
                -1.8088885296234198,
                -1.8691599455481627,
                -2.255738928126286,
                -0.12356885472213053,
                -2.742373397298741
            ]
        },
        {
            "positions": [
                0.01215880739332089,
                -1.8231485028317689,
                -1.9849231186703873,
                -2.299494157842575,
                -0.20080052424139905,
                -2.804067401984759
            ]
        },
        {
            "positions": [
                -0.03227629564179903,
                -1.8073700985766554,
                -2.066009966055594,
                -2.289933722306645,
                -0.1973398184639083,
                -2.8625454851949605
            ]
        },
        {
            "positions": [
                -0.10990870886983424,
                -1.780886712273119,
                -2.2061270217799165,
                -2.2739745992246663,
                -0.19109756019623642,
                -2.9623224308702545
            ]
        },
        {
            "positions": [
                -0.18754112209786944,
                -1.7544033259695826,
                -2.346244077504239,
                -2.2580154761426874,
                -0.18485530192856456,
                -3.062099376545549
            ]
        }
    ]
}