{
    "goal": {
        "global_pose": {
            "orientation": {
                "w": 0.7031023480610252,
                "x": -0.7110244013736278,
                "y": 0.0077485991402295624,
                "z": 0.005598929693374583
            },
            "position": {
                "x": -0.8841497679147869,
                "y": 0.44412534475326537,
                "z": 0.3711530566215515
            }
        },
        "name": "move_to_auspresseinheit_D"
    },
    "id": "EST_move_to_auspresseinheit_D_44",
    "joint_names": [
        "shoulder_pan_joint",
        "shoulder_lift_joint",
        "elbow_joint",
        "wrist_1_joint",
        "wrist_2_joint",
        "wrist_3_joint"
    ],
    "metrics": {
        "cart_traj_len": 0.34417475867650105,
        "distance_elbow_joint": 0.6641874898367937,
        "distance_shoulder_lift_joint": 0.1358167127255956,
        "distance_shoulder_pan_joint": 0.13374296358336812,
        "distance_wrist_1_joint": 0.6186515412860962,
        "distance_wrist_2_joint": 1.437475619458255,
        "distance_wrist_3_joint": 0.07728837043751247,
        "smoothness": 1.1842378911764402e-15,
        "time": 0.05319818,
        "traj_len": 1.751331692549307,
        "weighted_distance": 2.297360789895004
    },
    "planner": "EST",
    "start": {
        "state": {
            "elbow_joint": -1.8275523626775212,
            "shoulder_lift_joint": -2.126789852344167,
            "shoulder_pan_joint": -0.03513704404078235,
            "wrist_1_joint": -2.347782403156801,
            "wrist_2_joint": -1.6058999987535132,
            "wrist_3_joint": -3.0880379163319196
        }
    },
    "waypoints": [
        {
            "positions": [
                -0.03513704404078235,
                -2.126789852344167,
                -1.8275523626775212,
                -2.347782403156801,
                -1.6058999987535132,
                -3.0880379163319196
            ]
        },
        {
            "positions": [
                -0.051854914488703364,
                -2.1437669414348663,
                -1.744528926447922,
                -2.4251138458175627,
                -1.4262155463212314,
                -3.0783768700272307
            ]
        },
        {
            "positions": [
                -0.06857278493662439,
                -2.160744030525566,
                -1.6615054902183228,
                -2.502445288478325,
                -1.2465310938889496,
                -3.0687158237225414
            ]
        },
        {
            "positions": [
                -0.08529065538454539,
                -2.1777211196162654,
                -1.5784820539887237,
                -2.579776731139087,
                -1.0668466414566675,
                -3.0590547774178525
            ]
        },
        {
            "positions": [
                -0.10200852583246642,
                -2.1946982087069644,
                -1.4954586177591245,
                -2.657108173799849,
                -0.8871621890243857,
                -3.049393731113163
            ]
        },
        {
            "positions": [
                -0.11872639628038742,
                -2.211675297797664,
                -1.412435181529525,
                -2.734439616460611,
                -0.7074777365921039,
                -3.0397326848084743
            ]
        },
        {
            "positions": [
                -0.13544426672830845,
                -2.2286523868883634,
                -1.329411745299926,
                -2.811771059121373,
                -0.5277932841598219,
                -3.0300716385037854
            ]
        },
        {
            "positions": [
                -0.15216213717622945,
                -2.245629475979063,
                -1.2463883090703267,
                -2.8891025017821352,
                -0.34810883172754004,
                -3.020410592199096
            ]
        },
        {
            "positions": [
                -0.16888000762415048,
                -2.2626065650697624,
                -1.1633648728407275,
                -2.966433944442897,
                -0.1684243792952583,
                -3.010749545894407
            ]
        }
    ]
}