{
    "goal": {
        "global_pose": {
            "orientation": {
                "w": 0.7047431493862688,
                "x": -0.7094548369677653,
                "y": 0.0024358444001904,
                "z": -0.0022348060817251984
            },
            "position": {
                "x": -0.39052492380142206,
                "y": 0.3671506643295288,
                "z": 0.19426114857196808
            }
        },
        "name": "move_to_magneteinheit_D"
    },
    "id": "EST_move_to_magneteinheit_D_24",
    "joint_names": [
        "shoulder_pan_joint",
        "shoulder_lift_joint",
        "elbow_joint",
        "wrist_1_joint",
        "wrist_2_joint",
        "wrist_3_joint"
    ],
    "metrics": {
        "cart_traj_len": 4.330461195071613,
        "distance_elbow_joint": 3.687866353670543,
        "distance_shoulder_lift_joint": 1.7670392209457224,
        "distance_shoulder_pan_joint": 4.036711894734523,
        "distance_wrist_1_joint": 1.9271050418854414,
        "distance_wrist_2_joint": 0.9172866552552501,
        "distance_wrist_3_joint": 3.927405733582377,
        "smoothness": 0.5195645500383589,
        "time": 0.402014386,
        "traj_len": 4.032792444457544,
        "weighted_distance": 5.192554098358467
    },
    "planner": "EST",
    "start": {
        "state": {
            "elbow_joint": 0.749534889911806,
            "shoulder_lift_joint": -0.6476975780787326,
            "shoulder_pan_joint": -2.711696901376241,
            "wrist_1_joint": -0.07506478083263063,
            "wrist_2_joint": 0.43296659715538205,
            "wrist_3_joint": -3.14703540197715
        }
    },
    "waypoints": [
        {
            "positions": [
                -2.711696901376241,
                -0.6476975780787326,
                0.749534889911806,
                -0.07506478083263063,
                0.43296659715538205,
                -3.14703540197715
            ]
        },
        {
            "positions": [
                -2.7141231502278917,
                -0.7298394370921691,
                0.763750133372288,
                -0.11572182381787526,
                0.4898691171710321,
                -3.100747603275247
            ]
        },
        {
            "positions": [
                -2.7165493990795424,
                -0.8119812961056057,
                0.7779653768327701,
                -0.15637886680311988,
                0.5467716371866821,
                -3.0544598045733435
            ]
        },
        {
            "positions": [
                -2.7164467884754084,
                -0.9158782387482365,
                0.7896121342062362,
                -0.21237611834989628,
                0.6211594172489694,
                -2.9738123937331657
            ]
        },
        {
            "positions": [
                -2.6563201892214092,
                -0.9105952914321098,
                0.7032179689786697,
                -0.21625199250381774,
                0.6323048369910576,
                -2.7591063951018238
            ]
        },
        {
            "positions": [
                -2.59619358996741,
                -0.9053123441159832,
                0.6168238037511032,
                -0.2201278666577392,
                0.6434502567331456,
                -2.5444003964704818
            ]
        },
        {
            "positions": [
                -2.536066990713411,
                -0.9000293967998565,
                0.5304296385235368,
                -0.22400374081166066,
                0.6545956764752338,
                -2.3296943978391393
            ]
        },
        {
            "positions": [
                -2.475940391459411,
                -0.8947464494837299,
                0.4440354732959702,
                -0.22787961496558212,
                0.6657410962173218,
                -2.1149883992077974
            ]
        },
        {
            "positions": [
                -2.415813792205412,
                -0.8894635021676033,
                0.3576413080684037,
                -0.23175548911950358,
                0.67688651595941,
                -1.9002824005764551
            ]
        },
        {
            "positions": [
                -2.3556871929514127,
                -0.8841805548514766,
                0.2712471428408372,
                -0.23563136327342504,
                0.688031935701498,
                -1.6855764019451132
            ]
        },
        {
            "positions": [
                -2.2955605936974135,
                -0.87889760753535,
                0.1848529776132708,
                -0.23950723742734648,
                0.6991773554435862,
                -1.4708704033137712
            ]
        },
        {
            "positions": [
                -2.2354339944434143,
                -0.8736146602192233,
                0.0984588123857042,
                -0.24338311158126796,
                0.7103227751856742,
                -1.256164404682429
            ]
        },
        {
            "positions": [
                -2.175307395189415,
                -0.8683317129030966,
                0.012064647158137709,
                -0.2472589857351894,
                0.7214681949277624,
                -1.041458406051087
            ]
        },
        {
            "positions": [
                -2.115180795935416,
                -0.8630487655869701,
                -0.07432951806942878,
                -0.2511348598891109,
                0.7326136146698505,
                -0.8267524074197445
            ]
        },
        {
            "positions": [
                -2.055054196681416,
                -0.8577658182708434,
                -0.16072368329699527,
                -0.2550107340430323,
                0.7437590344119386,
                -0.612046408788403
            ]
        },
        {
            "positions": [
                -1.994927597427417,
                -0.8524828709547168,
                -0.24711784852456187,
                -0.2588866081969538,
                0.7549044541540266,
                -0.39734041015706056
            ]
        },
        {
            "positions": [
                -1.9348009981734178,
                -0.8471999236385901,
                -0.33351201375212824,
                -0.26276248235087524,
                0.7660498738961148,
                -0.18263441152571863
            ]
        },
        {
            "positions": [
                -1.8286199250124437,
                -0.8827050028254673,
                -0.425015005097617,
                -0.17745083724230765,
                0.7343904305743169,
                -0.15504902441515936
            ]
        },
        {
            "positions": [
                -1.7224388518514697,
                -0.9182100820123444,
                -0.5165179964431057,
                -0.09213919213374008,
                0.7027309872525188,
                -0.12746363730460009
            ]
        },
        {
            "positions": [
                -1.616257778690496,
                -0.9537151611992217,
                -0.6080209877885945,
                -0.00682754702517252,
                0.6710715439307209,
                -0.09987825019404079
            ]
        },
        {
            "positions": [
                -1.510076705529522,
                -0.9892202403860989,
                -0.6995239791340833,
                0.07848409808339507,
                0.639412100608923,
                -0.07229286308348151
            ]
        },
        {
            "positions": [
                -1.4038956323685479,
                -1.0247253195729762,
                -0.791026970479572,
                0.16379574319196266,
                0.6077526572871249,
                -0.04470747597292221
            ]
        },
        {
            "positions": [
                -1.297714559207574,
                -1.0602303987598534,
                -0.8825299618250607,
                0.2491073883005302,
                0.576093213965327,
                -0.01712208886236294
            ]
        },
        {
            "positions": [
                -1.1915334860466,
                -1.0957354779467305,
                -0.9740329531705496,
                0.3344190334090978,
                0.544433770643529,
                0.010463298248196334
            ]
        },
        {
            "positions": [
                -1.085352412885626,
                -1.1312405571336077,
                -1.0655359445160384,
                0.4197306785176654,
                0.5127743273217311,
                0.03804868535875561
            ]
        },
        {
            "positions": [
                -0.979171339724652,
                -1.166745636320485,
                -1.157038935861527,
                0.5050423236262329,
                0.4811148839999331,
                0.06563407246931491
            ]
        },
        {
            "positions": [
                -0.872990266563678,
                -1.202250715507362,
                -1.248541927207016,
                0.5903539687348005,
                0.4494554406781351,
                0.09321945957987421
            ]
        },
        {
            "positions": [
                -0.7668091934027039,
                -1.2377557946942392,
                -1.3400449185525045,
                0.6756656138433681,
                0.4177959973563371,
                0.12080484669043351
            ]
        },
        {
            "positions": [
                -0.6606281202417301,
                -1.2732608738811164,
                -1.431547909897993,
                0.7609772589519357,
                0.38613655403453917,
                0.14839023380099275
            ]
        },
        {
            "positions": [
                -0.5544470470807561,
                -1.3087659530679936,
                -1.523050901243482,
                0.8462889040605033,
                0.3544771107127412,
                0.17597562091155206
            ]
        },
        {
            "positions": [
                -0.44826597391978207,
                -1.3442710322548708,
                -1.614553892588971,
                0.9316005491690709,
                0.32281766739094325,
                0.2035610080221113
            ]
        },
        {
            "positions": [
                -0.34208490075880804,
                -1.3797761114417482,
                -1.7060568839344596,
                1.0169121942776385,
                0.29115822406914527,
                0.2311463951326706
            ]
        },
        {
            "positions": [
                -0.23590382759783424,
                -1.4152811906286251,
                -1.7975598752799482,
                1.102223839386206,
                0.25949878074734734,
                0.25873178224322985
            ]
        },
        {
            "positions": [
                -0.1297227544368602,
                -1.4507862698155025,
                -1.8890628666254372,
                1.1875354844947736,
                0.2278393374255493,
                0.28631716935378915
            ]
        },
        {
            "positions": [
                -0.023541681275886184,
                -1.4862913490023797,
                -1.980565857970926,
                1.2728471296033412,
                0.19617989410375136,
                0.31390255646434845
            ]
        },
        {
            "positions": [
                0.0745382598511593,
                -1.6024639071784728,
                -2.0875011508510704,
                1.2816700244458623,
                0.1951913640576968,
                0.2528569025906531
            ]
        },
        {
            "positions": [
                0.1726182009782048,
                -1.7186364653545658,
                -2.194436443731215,
                1.2904929192883836,
                0.1942028340116422,
                0.19181124871695765
            ]
        },
        {
            "positions": [
                0.2706981421052503,
                -1.8348090235306587,
                -2.301371736611359,
                1.299315814130905,
                0.19321430396558764,
                0.13076559484326225
            ]
        },
        {
            "positions": [
                0.3687780832322958,
                -1.9509815817067517,
                -2.4083070294915037,
                1.308138708973426,
                0.19222577391953308,
                0.06971994096956685
            ]
        },
        {
            "positions": [
                0.46685802435934126,
                -2.067154139882845,
                -2.5152423223716482,
                1.316961603815947,
                0.19123724387347849,
                0.008674287095871425
            ]
        },
        {
            "positions": [
                0.5649379654863868,
                -2.183326698058938,
                -2.6221776152517924,
                1.3257844986584684,
                0.19024871382742392,
                -0.05237136677782395
            ]
        },
        {
            "positions": [
                0.37734495737006324,
                -2.206840065745494,
                -2.5631777752722713,
                1.3634995884979317,
                0.18814815921596734,
                -0.027322903803147416
            ]
        },
        {
            "positions": [
                0.18975194925373973,
                -2.2303534334320503,
                -2.5041779352927502,
                1.4012146783373949,
                0.18604760460451072,
                -0.0022744408284708847
            ]
        },
        {
            "positions": [
                0.002158941137416215,
                -2.253866801118606,
                -2.4451780953132296,
                1.438929768176858,
                0.1839470499930541,
                0.02277402214620565
            ]
        },
        {
            "positions": [
                -0.1854340669789073,
                -2.2773801688051623,
                -2.3861782553337085,
                1.4766448580163214,
                0.18184649538159753,
                0.04782248512088218
            ]
        }
    ]
}