{
    "goal": {
        "global_pose": {
            "orientation": {
                "w": -0.4816463035849501,
                "x": 0.5182115481033762,
                "y": 0.4908360881923453,
                "z": -0.5084816262002911
            },
            "position": {
                "x": -0.8240239810943604,
                "y": -0.300875300988555,
                "z": 0.16403168439865112
            }
        },
        "name": "move_to_storage_C"
    },
    "id": "EST_move_to_storage_C_35",
    "joint_names": [
        "shoulder_pan_joint",
        "shoulder_lift_joint",
        "elbow_joint",
        "wrist_1_joint",
        "wrist_2_joint",
        "wrist_3_joint"
    ],
    "metrics": {
        "cart_traj_len": 0.5770118489634228,
        "distance_elbow_joint": 0.2586593629957985,
        "distance_shoulder_lift_joint": 0.18860942395934455,
        "distance_shoulder_pan_joint": 0.49684021019774827,
        "distance_wrist_1_joint": 0.0860054319882042,
        "distance_wrist_2_joint": 1.0578595930735806,
        "distance_wrist_3_joint": 0.06100547043500226,
        "smoothness": 2.5376526478085547e-16,
        "time": 0.060440188,
        "traj_len": 1.4659397984397853,
        "weighted_distance": 1.8479327527216645
    },
    "planner": "EST",
    "start": {
        "state": {
            "elbow_joint": 2.010868314990456,
            "shoulder_lift_joint": -1.1634956873337592,
            "shoulder_pan_joint": -2.4736205022346125,
            "wrist_1_joint": -0.8367026794202681,
            "wrist_2_joint": 0.6746043897044499,
            "wrist_3_joint": -3.1496632123970403
        }
    },
    "waypoints": [
        {
            "positions": [
                -2.4736205022346125,
                -1.1634956873337592,
                2.010868314990456,
                -0.8367026794202681,
                0.6746043897044499,
                -3.1496632123970403
            ]
        },
        {
            "positions": [
                -2.5564272039342373,
                -1.1320607833405352,
                1.9677584211578227,
                -0.8223684407555674,
                0.85091432188338,
                -3.1394956339912063
            ]
        },
        {
            "positions": [
                -2.639233905633862,
                -1.100625879347311,
                1.9246485273251897,
                -0.8080342020908667,
                1.0272242540623102,
                -3.129328055585373
            ]
        },
        {
            "positions": [
                -2.7220406073334864,
                -1.069190975354087,
                1.8815386334925566,
                -0.793699963426166,
                1.20353418624124,
                -3.1191604771795394
            ]
        },
        {
            "positions": [
                -2.804847309033111,
                -1.037756071360863,
                1.8384287396599235,
                -0.7793657247614653,
                1.3798441184201704,
                -3.1089928987737054
            ]
        },
        {
            "positions": [
                -2.887654010732736,
                -1.0063211673676387,
                1.7953188458272904,
                -0.7650314860967646,
                1.5561540505991003,
                -3.0988253203678715
            ]
        },
        {
            "positions": [
                -2.9704607124323608,
                -0.9748862633744146,
                1.7522089519946573,
                -0.7506972474320639,
                1.7324639827780306,
                -3.088657741962038
            ]
        }
    ]
}