{
    "goal": {
        "global_pose": {
            "orientation": {
                "w": 0.7047431493862688,
                "x": -0.7094548369677653,
                "y": 0.0024358444001904,
                "z": -0.0022348060817251984
            },
            "position": {
                "x": -0.39052492380142206,
                "y": 0.3671506643295288,
                "z": 0.19426114857196808
            }
        },
        "name": "move_to_magneteinheit_D"
    },
    "id": "EST_move_to_magneteinheit_D_101",
    "joint_names": [
        "shoulder_pan_joint",
        "shoulder_lift_joint",
        "elbow_joint",
        "wrist_1_joint",
        "wrist_2_joint",
        "wrist_3_joint"
    ],
    "metrics": {
        "cart_traj_len": 4.957523708116737,
        "distance_elbow_joint": 3.5253313834917877,
        "distance_shoulder_lift_joint": 1.0936711967317498,
        "distance_shoulder_pan_joint": 4.266295546451999,
        "distance_wrist_1_joint": 2.0823835005889535,
        "distance_wrist_2_joint": 2.3614831351240224,
        "distance_wrist_3_joint": 6.278331419860633,
        "smoothness": 0.29934219037939797,
        "time": 0.183228904,
        "traj_len": 4.428035250791162,
        "weighted_distance": 6.050456648690525
    },
    "planner": "EST",
    "start": {
        "state": {
            "elbow_joint": 0.749534889911806,
            "shoulder_lift_joint": -0.6476975780787326,
            "shoulder_pan_joint": -2.711696901376241,
            "wrist_1_joint": -0.07506478083263063,
            "wrist_2_joint": 0.43296659715538205,
            "wrist_3_joint": -3.14703540197715
        }
    },
    "waypoints": [
        {
            "positions": [
                -2.711696901376241,
                -0.6476975780787326,
                0.749534889911806,
                -0.07506478083263063,
                0.43296659715538205,
                -3.14703540197715
            ]
        },
        {
            "positions": [
                -2.75718782375331,
                -0.670076692897608,
                0.849100096701192,
                -0.10172813844611349,
                0.46007487560510174,
                -2.9780120157311627
            ]
        },
        {
            "positions": [
                -2.802678746130379,
                -0.6924558077164833,
                0.9486653034905781,
                -0.12839149605959635,
                0.4871831540548215,
                -2.808988629485175
            ]
        },
        {
            "positions": [
                -2.762625930031815,
                -0.8105014097548574,
                0.9500724541369387,
                -0.13436045839622346,
                0.5133919535486404,
                -2.6477829744826327
            ]
        },
        {
            "positions": [
                -2.722573113933251,
                -0.9285470117932315,
                0.9514796047832993,
                -0.1403294207328506,
                0.5396007530424595,
                -2.486577319480091
            ]
        },
        {
            "positions": [
                -2.682520297834687,
                -1.0465926138316055,
                0.9528867554296598,
                -0.14629838306947773,
                0.5658095525362785,
                -2.3253716644775486
            ]
        },
        {
            "positions": [
                -2.642467481736123,
                -1.1646382158699797,
                0.9542939060760205,
                -0.15226734540610484,
                0.5920183520300975,
                -2.1641660094750064
            ]
        },
        {
            "positions": [
                -2.5443946955404253,
                -1.1710243162956346,
                0.8739556740149682,
                -0.20996976043561882,
                0.5469692182144931,
                -2.0590932687664867
            ]
        },
        {
            "positions": [
                -2.4463219093447273,
                -1.1774104167212895,
                0.7936174419539159,
                -0.26767217546513283,
                0.5019200843988886,
                -1.9540205280579668
            ]
        },
        {
            "positions": [
                -2.3482491231490297,
                -1.1837965171469444,
                0.7132792098928635,
                -0.3253745904946468,
                0.4568709505832842,
                -1.8489477873494469
            ]
        },
        {
            "positions": [
                -2.2501763369533316,
                -1.1901826175725991,
                0.6329409778318112,
                -0.3830770055241608,
                0.4118218167676798,
                -1.743875046640927
            ]
        },
        {
            "positions": [
                -2.152103550757634,
                -1.196568717998254,
                0.552602745770759,
                -0.4407794205536748,
                0.3667726829520754,
                -1.638802305932407
            ]
        },
        {
            "positions": [
                -2.0540307645619365,
                -1.202954818423909,
                0.47226451370970657,
                -0.4984818355831888,
                0.321723549136471,
                -1.5337295652238874
            ]
        },
        {
            "positions": [
                -1.9559579783662384,
                -1.2093409188495639,
                0.3919262816486543,
                -0.5561842506127028,
                0.27667441532086656,
                -1.4286568245153675
            ]
        },
        {
            "positions": [
                -1.8578851921705408,
                -1.2157270192752188,
                0.311588049587602,
                -0.6138866656422167,
                0.23162528150526213,
                -1.3235840838068476
            ]
        },
        {
            "positions": [
                -1.759812405974843,
                -1.2221131197008737,
                0.23124981752654972,
                -0.6715890806717307,
                0.1865761476896578,
                -1.2185113430983279
            ]
        },
        {
            "positions": [
                -1.6617396197791452,
                -1.2284992201265283,
                0.15091158546549732,
                -0.7292914957012447,
                0.1415270138740533,
                -1.113438602389808
            ]
        },
        {
            "positions": [
                -1.5636668335834476,
                -1.2348853205521833,
                0.07057335340444504,
                -0.7869939107307588,
                0.09647788005844893,
                -1.0083658616812883
            ]
        },
        {
            "positions": [
                -1.4655940473877496,
                -1.2412714209778382,
                -0.009764878656607356,
                -0.8446963257602728,
                0.05142874624284455,
                -0.9032931209727684
            ]
        },
        {
            "positions": [
                -1.367521261192052,
                -1.247657521403493,
                -0.09010311071765953,
                -0.9023987407897867,
                0.006379612427240167,
                -0.7982203802642487
            ]
        },
        {
            "positions": [
                -1.2694484749963542,
                -1.254043621829148,
                -0.17044134277871192,
                -0.9601011558193008,
                -0.038669521388364325,
                -0.6931476395557286
            ]
        },
        {
            "positions": [
                -1.1713756888006563,
                -1.2604297222548029,
                -0.2507795748397641,
                -1.0178035708488147,
                -0.0837186552039687,
                -0.5880748988472089
            ]
        },
        {
            "positions": [
                -1.0733029026049585,
                -1.2668158226804578,
                -0.3311178069008165,
                -1.0755059858783287,
                -0.1287677890195732,
                -0.48300215813868896
            ]
        },
        {
            "positions": [
                -0.9752301164092609,
                -1.2732019231061125,
                -0.4114560389618689,
                -1.1332084009078427,
                -0.17381692283517747,
                -0.3779294174301693
            ]
        },
        {
            "positions": [
                -0.8771573302135631,
                -1.2795880235317674,
                -0.49179427102292106,
                -1.1909108159373565,
                -0.21886605665078185,
                -0.2728566767216496
            ]
        },
        {
            "positions": [
                -0.7790845440178651,
                -1.2859741239574223,
                -0.5721325030839737,
                -1.2486132309668707,
                -0.26391519046638645,
                -0.16778393601312946
            ]
        },
        {
            "positions": [
                -0.6810117578221675,
                -1.2923602243830772,
                -0.6524707351450258,
                -1.3063156459963845,
                -0.30896432428199083,
                -0.06271119530460956
            ]
        },
        {
            "positions": [
                -0.5829389716264699,
                -1.298746324808732,
                -0.732808967206078,
                -1.3640180610258985,
                -0.3540134580975952,
                0.04236154540391013
            ]
        },
        {
            "positions": [
                -0.4848661854307723,
                -1.305132425234387,
                -0.8131471992671304,
                -1.4217204760554125,
                -0.3990625919131996,
                0.1474342861124298
            ]
        },
        {
            "positions": [
                -0.3867933992350743,
                -1.3115185256600417,
                -0.8934854313281828,
                -1.4794228910849265,
                -0.4441117257288041,
                0.25250702682094994
            ]
        },
        {
            "positions": [
                -0.28872061303937624,
                -1.3179046260856966,
                -0.9738236633892352,
                -1.5371253061144405,
                -0.48916085954440836,
                0.3575797675294696
            ]
        },
        {
            "positions": [
                -0.19064782684367865,
                -1.3242907265113515,
                -1.0541618954502872,
                -1.5948277211439545,
                -0.5342099933600128,
                0.4626525082379893
            ]
        },
        {
            "positions": [
                -0.09257504064798106,
                -1.3306768269370064,
                -1.1345001275113396,
                -1.6525301361734683,
                -0.5792591271756171,
                0.567725248946509
            ]
        },
        {
            "positions": [
                0.005497745547716981,
                -1.3370629273626613,
                -1.214838359572392,
                -1.7102325512029826,
                -0.6243082609912218,
                0.6727979896550291
            ]
        },
        {
            "positions": [
                0.10357053174341457,
                -1.3434490277883162,
                -1.2951765916334443,
                -1.7679349662324966,
                -0.6693573948068261,
                0.7778707303635493
            ]
        },
        {
            "positions": [
                0.20164331793911217,
                -1.3498351282139711,
                -1.3755148236944967,
                -1.8256373812620104,
                -0.7144065286224304,
                0.8829434710720689
            ]
        },
        {
            "positions": [
                0.2997161041348102,
                -1.3562212286396258,
                -1.4558530557555487,
                -1.8833397962915244,
                -0.7594556624380349,
                0.9880162117805886
            ]
        },
        {
            "positions": [
                0.39778889033050824,
                -1.3626073290652807,
                -1.5361912878166015,
                -1.9410422113210386,
                -0.8045047962536394,
                1.0930889524891088
            ]
        },
        {
            "positions": [
                0.49586167652620583,
                -1.3689934294909356,
                -1.6165295198776535,
                -1.9987446263505524,
                -0.8495539300692438,
                1.1981616931976284
            ]
        },
        {
            "positions": [
                0.5939344627219034,
                -1.3753795299165905,
                -1.696867751938706,
                -2.0564470413800664,
                -0.8946030638848481,
                1.3032344339061483
            ]
        },
        {
            "positions": [
                0.5265766698785442,
                -1.4072154967439314,
                -1.7573931764647708,
                -2.0646825086610794,
                -0.8316433398005115,
                1.4649762877445596
            ]
        },
        {
            "positions": [
                0.45921887703518505,
                -1.4390514635712723,
                -1.8179186009908357,
                -2.072917975942093,
                -0.7686836157161749,
                1.6267181415829708
            ]
        },
        {
            "positions": [
                0.39186108419182586,
                -1.470887430398613,
                -1.8784440255169004,
                -2.081153443223106,
                -0.7057238916318385,
                1.788459995421382
            ]
        },
        {
            "positions": [
                0.3245032913484666,
                -1.502723397225954,
                -1.9389694500429653,
                -2.0893889105041192,
                -0.6427641675475018,
                1.9502018492597935
            ]
        },
        {
            "positions": [
                0.25714549850510743,
                -1.5345593640532948,
                -1.99949487456903,
                -2.097624377785132,
                -0.5798044434631653,
                2.1119437030982047
            ]
        },
        {
            "positions": [
                0.18978770566174824,
                -1.5663953308806358,
                -2.0600202990950947,
                -2.1058598450661457,
                -0.5168447193788288,
                2.2736855569366154
            ]
        },
        {
            "positions": [
                0.12242991281838905,
                -1.5982312977079767,
                -2.1205457236211593,
                -2.1140953123471586,
                -0.45388499529449217,
                2.435427410775027
            ]
        },
        {
            "positions": [
                0.05507211997502981,
                -1.6300672645353176,
                -2.1810711481472245,
                -2.122330779628172,
                -0.3909252712101555,
                2.5971692646134383
            ]
        },
        {
            "positions": [
                -0.012285672868329378,
                -1.6619032313626585,
                -2.241596572673289,
                -2.130566246909185,
                -0.32796554712581893,
                2.7589111184518496
            ]
        },
        {
            "positions": [
                -0.07964346571168857,
                -1.6937391981899992,
                -2.302121997199354,
                -2.1388017141901985,
                -0.26500582304148246,
                2.9206529722902608
            ]
        },
        {
            "positions": [
                -0.1470012585550477,
                -1.72557516501734,
                -2.3626474217254185,
                -2.1470371814712115,
                -0.20204609895714587,
                3.082394826128672
            ]
        },
        {
            "positions": [
                -0.18476603012367354,
                -1.7413687748104825,
                -2.366278461251553,
                -2.1574482814215843,
                -0.17879309955048714,
                3.1312960178834843
            ]
        }
    ]
}