{
    "goal": {
        "global_pose": {
            "orientation": {
                "w": 0.7031023480610252,
                "x": -0.7110244013736278,
                "y": 0.0077485991402295624,
                "z": 0.005598929693374583
            },
            "position": {
                "x": -0.8841497679147869,
                "y": 0.44412534475326537,
                "z": 0.3711530566215515
            }
        },
        "name": "move_to_auspresseinheit_D"
    },
    "id": "EST_move_to_auspresseinheit_D_38",
    "joint_names": [
        "shoulder_pan_joint",
        "shoulder_lift_joint",
        "elbow_joint",
        "wrist_1_joint",
        "wrist_2_joint",
        "wrist_3_joint"
    ],
    "metrics": {
        "cart_traj_len": 0.3440840745564061,
        "distance_elbow_joint": 0.6632089574744873,
        "distance_shoulder_lift_joint": 0.13493399005149342,
        "distance_shoulder_pan_joint": 0.13278472530219682,
        "distance_wrist_1_joint": 0.6052364338872303,
        "distance_wrist_2_joint": 1.4475630158972859,
        "distance_wrist_3_joint": 0.056970237871119433,
        "smoothness": 0.0,
        "time": 0.051608651,
        "traj_len": 1.7437595477828396,
        "weighted_distance": 2.2819810003614336
    },
    "planner": "EST",
    "start": {
        "state": {
            "elbow_joint": -1.8275523626775212,
            "shoulder_lift_joint": -2.126789852344167,
            "shoulder_pan_joint": -0.03513704404078235,
            "wrist_1_joint": -2.347782403156801,
            "wrist_2_joint": -1.6058999987535132,
            "wrist_3_joint": -3.0880379163319196
        }
    },
    "waypoints": [
        {
            "positions": [
                -0.03513704404078235,
                -2.126789852344167,
                -1.8275523626775212,
                -2.347782403156801,
                -1.6058999987535132,
                -3.0880379163319196
            ]
        },
        {
            "positions": [
                -0.05173513470355695,
                -2.1436566011006035,
                -1.7446512429932102,
                -2.423436957392705,
                -1.4249546217663525,
                -3.0809166365980296
            ]
        },
        {
            "positions": [
                -0.06833322536633155,
                -2.16052334985704,
                -1.6617501233088994,
                -2.4990915116286083,
                -1.2440092447791917,
                -3.0737953568641396
            ]
        },
        {
            "positions": [
                -0.08493131602910615,
                -2.177390098613477,
                -1.5788490036245886,
                -2.5747460658645123,
                -1.063063867792031,
                -3.0666740771302496
            ]
        },
        {
            "positions": [
                -0.10152940669188076,
                -2.1942568473699136,
                -1.4959478839402776,
                -2.6504006201004158,
                -0.8821184908048703,
                -3.0595527973963597
            ]
        },
        {
            "positions": [
                -0.11812749735465536,
                -2.2111235961263502,
                -1.4130467642559665,
                -2.7260551743363197,
                -0.7011731138177095,
                -3.05243151766247
            ]
        },
        {
            "positions": [
                -0.13472558801742995,
                -2.227990344882787,
                -1.3301456445716557,
                -2.8017097285722237,
                -0.5202277368305488,
                -3.04531023792858
            ]
        },
        {
            "positions": [
                -0.15132367868020458,
                -2.2448570936392236,
                -1.247244524887345,
                -2.877364282808127,
                -0.33928235984338806,
                -3.03818895819469
            ]
        },
        {
            "positions": [
                -0.16792176934297917,
                -2.2617238423956603,
                -1.164343405203034,
                -2.953018837044031,
                -0.15833698285622722,
                -3.0310676784608
            ]
        }
    ]
}