{
    "goal": {
        "global_pose": {
            "orientation": {
                "w": -0.4816463035849501,
                "x": 0.5182115481033762,
                "y": 0.4908360881923453,
                "z": -0.5084816262002911
            },
            "position": {
                "x": -0.8240239810943604,
                "y": 0.19912469901144506,
                "z": 0.16403168439865112
            }
        },
        "name": "move_to_storage_D"
    },
    "id": "EST_move_to_storage_D_58",
    "joint_names": [
        "shoulder_pan_joint",
        "shoulder_lift_joint",
        "elbow_joint",
        "wrist_1_joint",
        "wrist_2_joint",
        "wrist_3_joint"
    ],
    "metrics": {
        "cart_traj_len": 3.7940724430717596,
        "distance_elbow_joint": 4.213737046634676,
        "distance_shoulder_lift_joint": 1.263625783839713,
        "distance_shoulder_pan_joint": 2.8115873417820247,
        "distance_wrist_1_joint": 2.2661399199478662,
        "distance_wrist_2_joint": 1.1493425720591035,
        "distance_wrist_3_joint": 3.1387688128370272,
        "smoothness": 0.006092835802669742,
        "time": 0.22891816299999998,
        "traj_len": 3.8526875654665282,
        "weighted_distance": 4.953405050546689
    },
    "planner": "EST",
    "start": {
        "state": {
            "elbow_joint": -2.384821988534728,
            "shoulder_lift_joint": -2.2788054721415256,
            "shoulder_pan_joint": -0.1854694642142757,
            "wrist_1_joint": 1.4845938289331202,
            "wrist_2_joint": 0.17898776772866878,
            "wrist_3_joint": 0.037105688729662994
        }
    },
    "waypoints": [
        {
            "positions": [
                -0.1854694642142757,
                -2.2788054721415256,
                -2.384821988534728,
                1.4845938289331202,
                0.17898776772866878,
                0.037105688729662994
            ]
        },
        {
            "positions": [
                -0.1441131637128988,
                -2.261532552372304,
                -2.3858355283921595,
                1.3822650514889385,
                0.10880399419463992,
                0.0676659366992764
            ]
        },
        {
            "positions": [
                -0.10275686321152191,
                -2.244259632603083,
                -2.3868490682495915,
                1.2799362740447568,
                0.03862022066061104,
                0.0982261846688898
            ]
        },
        {
            "positions": [
                -0.006902227476562814,
                -2.2093301875700355,
                -2.2713541824880097,
                1.2084791072630783,
                0.040002820891113317,
                0.1725760439946284
            ]
        },
        {
            "positions": [
                0.08895240825839629,
                -2.1744007425369882,
                -2.155859296726428,
                1.1370219404813995,
                0.0413854211216156,
                0.24692590332036699
            ]
        },
        {
            "positions": [
                0.18480704399335537,
                -2.139471297503941,
                -2.040364410964846,
                1.065564773699721,
                0.04276802135211787,
                0.3212757626461056
            ]
        },
        {
            "positions": [
                0.28066167972831446,
                -2.1045418524708936,
                -1.924869525203264,
                0.9941076069180423,
                0.044150621582620155,
                0.39562562197184414
            ]
        },
        {
            "positions": [
                0.3765163154632736,
                -2.0696124074378464,
                -1.8093746394416819,
                0.9226504401363637,
                0.04553322181312243,
                0.4699754812975827
            ]
        },
        {
            "positions": [
                0.4723709511982327,
                -2.034682962404799,
                -1.6938797536801,
                0.851193273354685,
                0.04691582204362471,
                0.5443253406233214
            ]
        },
        {
            "positions": [
                0.5682255869331918,
                -1.9997535173717518,
                -1.5783848679185182,
                0.7797361065730064,
                0.048298422274126986,
                0.61867519994906
            ]
        },
        {
            "positions": [
                0.6640802226681509,
                -1.9648240723387045,
                -1.4628899821569363,
                0.7082789397913277,
                0.04968102250462927,
                0.6930250592747985
            ]
        },
        {
            "positions": [
                0.75993485840311,
                -1.9298946273056572,
                -1.3473950963953545,
                0.636821773009649,
                0.05106362273513154,
                0.7673749186005371
            ]
        },
        {
            "positions": [
                0.8557894941380692,
                -1.89496518227261,
                -1.2319002106337724,
                0.5653646062279705,
                0.052446222965633824,
                0.8417247779262756
            ]
        },
        {
            "positions": [
                0.9516441298730283,
                -1.8600357372395626,
                -1.1164053248721906,
                0.4939074394462917,
                0.0538288231961361,
                0.9160746372520144
            ]
        },
        {
            "positions": [
                1.0474987656079873,
                -1.8251062922065155,
                -1.0009104391106087,
                0.4224502726646131,
                0.05521142342663837,
                0.9904244965777529
            ]
        },
        {
            "positions": [
                1.1433534013429465,
                -1.790176847173468,
                -0.8854155533490267,
                0.3509931058829344,
                0.056594023657140655,
                1.0647743559034917
            ]
        },
        {
            "positions": [
                1.2392080370779055,
                -1.755247402140421,
                -0.7699206675874448,
                0.27953593910125596,
                0.057976623887642936,
                1.1391242152292302
            ]
        },
        {
            "positions": [
                1.3350626728128647,
                -1.7203179571073735,
                -0.654425781825863,
                0.20807877231957717,
                0.05935922411814521,
                1.2134740745549688
            ]
        },
        {
            "positions": [
                1.4309173085478237,
                -1.6853885120743264,
                -0.5389308960642811,
                0.1366216055378986,
                0.060741824348647486,
                1.2878239338807074
            ]
        },
        {
            "positions": [
                1.526771944282783,
                -1.650459067041279,
                -0.42343601030269906,
                0.0651644387562198,
                0.06212442457914977,
                1.3621737932064462
            ]
        },
        {
            "positions": [
                1.622626580017742,
                -1.6155296220082318,
                -0.30794112454111744,
                -0.006292728025458771,
                0.06350702480965205,
                1.4365236525321845
            ]
        },
        {
            "positions": [
                1.7184812157527012,
                -1.5806001769751845,
                -0.19244623877953515,
                -0.07774989480713734,
                0.06488962504015433,
                1.5108735118579233
            ]
        },
        {
            "positions": [
                1.8143358514876602,
                -1.5456707319421372,
                -0.0769513530179533,
                -0.14920706158881591,
                0.0662722252706566,
                1.5852233711836616
            ]
        },
        {
            "positions": [
                1.9101904872226192,
                -1.51074128690909,
                0.038543532743628706,
                -0.22066422837049482,
                0.06765482550115888,
                1.6595732305094004
            ]
        },
        {
            "positions": [
                1.9549359491191898,
                -1.479768686996135,
                0.15018836811404068,
                -0.2557193447857605,
                0.128901101760565,
                1.754342059950481
            ]
        },
        {
            "positions": [
                1.9996814110157604,
                -1.4487960870831802,
                0.2618332034844526,
                -0.2907744612010262,
                0.19014737801997111,
                1.8491108893915618
            ]
        },
        {
            "positions": [
                2.044426872912331,
                -1.4178234871702255,
                0.3734780388548646,
                -0.3258295776162919,
                0.2513936542793772,
                1.9438797188326422
            ]
        },
        {
            "positions": [
                2.0891723348089015,
                -1.3868508872572707,
                0.48512287422527656,
                -0.36088469403155754,
                0.3126399305387833,
                2.0386485482737227
            ]
        },
        {
            "positions": [
                2.133917796705472,
                -1.3558782873443158,
                0.5967677095956885,
                -0.39593981044682325,
                0.3738862067981894,
                2.1334173777148036
            ]
        },
        {
            "positions": [
                2.1786632586020427,
                -1.324905687431361,
                0.7084125449661005,
                -0.43099492686208896,
                0.43513248305759555,
                2.228186207155884
            ]
        },
        {
            "positions": [
                2.2234087204986137,
                -1.293933087518406,
                0.8200573803365125,
                -0.46605004327735466,
                0.49637875931700165,
                2.322955036596965
            ]
        },
        {
            "positions": [
                2.2681541823951843,
                -1.2629604876054512,
                0.9317022157069244,
                -0.5011051596926204,
                0.5576250355764077,
                2.4177238660380453
            ]
        },
        {
            "positions": [
                2.312899644291755,
                -1.2319878876924966,
                1.0433470510773364,
                -0.5361602761078861,
                0.6188713118358139,
                2.512492695479126
            ]
        },
        {
            "positions": [
                2.3576451061883255,
                -1.2010152877795417,
                1.1549918864477484,
                -0.5712153925231517,
                0.6801175880952199,
                2.6072615249202067
            ]
        },
        {
            "positions": [
                2.402390568084896,
                -1.1700426878665868,
                1.2666367218181604,
                -0.6062705089384174,
                0.7413638643546261,
                2.702030354361287
            ]
        },
        {
            "positions": [
                2.4471360299814666,
                -1.139070087953632,
                1.3782815571885723,
                -0.6413256253536831,
                0.8026101406140322,
                2.796799183802368
            ]
        },
        {
            "positions": [
                2.491881491878037,
                -1.108097488040677,
                1.4899263925589843,
                -0.6763807417689487,
                0.8638564168734383,
                2.8915680132434485
            ]
        },
        {
            "positions": [
                2.536626953774608,
                -1.0771248881277224,
                1.6015712279293963,
                -0.7114358581842144,
                0.9251026931328444,
                2.986336842684529
            ]
        },
        {
            "positions": [
                2.5813724156711784,
                -1.0461522882147676,
                1.7132160632998081,
                -0.7464909745994801,
                0.9863489693922505,
                3.0811056721256094
            ]
        },
        {
            "positions": [
                2.626117877567749,
                -1.0151796883018127,
                1.8248608986702202,
                -0.7815460910147458,
                1.0475952456516566,
                3.1758745015666903
            ]
        }
    ]
}