{
    "goal": {
        "global_pose": {
            "orientation": {
                "w": 0.5084816217422485,
                "x": -0.49083608388900757,
                "y": 0.5182115435600281,
                "z": -0.4816462993621826
            },
            "position": {
                "x": 0.5540239810943604,
                "y": 0.030875300988554955,
                "z": 0.16403168439865112
            }
        },
        "name": "move_to_storage_A"
    },
    "id": "EST_move_to_storage_A_31",
    "joint_names": [
        "shoulder_pan_joint",
        "shoulder_lift_joint",
        "elbow_joint",
        "wrist_1_joint",
        "wrist_2_joint",
        "wrist_3_joint"
    ],
    "metrics": {
        "cart_traj_len": 0.3534061802679602,
        "distance_elbow_joint": 0.4494301420777289,
        "distance_shoulder_lift_joint": 0.23270297468238743,
        "distance_shoulder_pan_joint": 0.46330731019688215,
        "distance_wrist_1_joint": 0.24566726749999346,
        "distance_wrist_2_joint": 1.0931734068619723,
        "distance_wrist_3_joint": 0.10385775152035626,
        "smoothness": 2.2204460668324854e-16,
        "time": 0.100339747,
        "traj_len": 1.6087693597403327,
        "weighted_distance": 2.0333949518580985
    },
    "planner": "EST",
    "start": {
        "state": {
            "elbow_joint": 1.971548259319323,
            "shoulder_lift_joint": -1.1394851275133948,
            "shoulder_pan_joint": 0.1228115487234821,
            "wrist_1_joint": -0.7804723859257726,
            "wrist_2_joint": 0.12958671773740124,
            "wrist_3_joint": -3.192489227718131
        }
    },
    "waypoints": [
        {
            "positions": [
                0.1228115487234821,
                -1.1394851275133948,
                1.971548259319323,
                -0.7804723859257726,
                0.12958671773740124,
                -3.192489227718131
            ]
        },
        {
            "positions": [
                0.056624790123927515,
                -1.1727284096108788,
                2.035752565330427,
                -0.8155677098543431,
                0.28575434728911153,
                -3.177652406072366
            ]
        },
        {
            "positions": [
                -0.00956196847562707,
                -1.2059716917083627,
                2.099956871341531,
                -0.8506630337829136,
                0.4419219768408219,
                -3.1628155844266006
            ]
        },
        {
            "positions": [
                -0.07574872707518165,
                -1.2392149738058467,
                2.1641611773526352,
                -0.885758357711484,
                0.5980896063925322,
                -3.1479787627808355
            ]
        },
        {
            "positions": [
                -0.14193548567473624,
                -1.2724582559033304,
                2.2283654833637394,
                -0.9208536816400545,
                0.7542572359442425,
                -3.1331419411350705
            ]
        },
        {
            "positions": [
                -0.20812224427429088,
                -1.3057015380008143,
                2.2925697893748436,
                -0.955949005568625,
                0.9104248654959529,
                -3.1183051194893054
            ]
        },
        {
            "positions": [
                -0.2743090028738454,
                -1.3389448200982983,
                2.3567740953859477,
                -0.9910443294971956,
                1.066592495047663,
                -3.10346829784354
            ]
        },
        {
            "positions": [
                -0.34049576147340005,
                -1.3721881021957822,
                2.420978401397052,
                -1.026139653425766,
                1.2227601245993736,
                -3.088631476197775
            ]
        }
    ]
}{
    "goal": {
        "global_pose": {
            "orientation": {
                "w": 0.5084816217422485,
                "x": -0.49083608388900757,
                "y": 0.5182115435600281,
                "z": -0.4816462993621826
            },
            "position": {
                "x": 0.5540239810943604,
                "y": 0.030875300988554955,
                "z": 0.16403168439865112
            }
        },
        "name": "move_to_storage_A"
    },
    "id": "EST_move_to_storage_A_31",
    "joint_names": [
        "shoulder_pan_joint",
        "shoulder_lift_joint",
        "elbow_joint",
        "wrist_1_joint",
        "wrist_2_joint",
        "wrist_3_joint"
    ],
    "metrics": {
        "cart_traj_len": 0.3528183501802532,
        "distance_elbow_joint": 0.4525024864993732,
        "distance_shoulder_lift_joint": 0.23309859318535753,
        "distance_shoulder_pan_joint": 0.4614851324649646,
        "distance_wrist_1_joint": 0.2559963787101516,
        "distance_wrist_2_joint": 1.0973522569649012,
        "distance_wrist_3_joint": 0.10830134081358356,
        "smoothness": 0.0,
        "time": 0.049575267,
        "traj_len": 1.6151582549825674,
        "weighted_distance": 2.044183823911282
    },
    "planner": "EST",
    "start": {
        "state": {
            "elbow_joint": 1.97154746011099,
            "shoulder_lift_joint": -1.13948474672311,
            "shoulder_pan_joint": 0.12281154466712228,
            "wrist_1_joint": -0.7804688027058302,
            "wrist_2_joint": 0.12958655903071145,
            "wrist_3_joint": 3.0906928834467795
        }
    },
    "waypoints": [
        {
            "positions": [
                0.12281154466712228,
                -1.13948474672311,
                1.97154746011099,
                -0.7804688027058302,
                0.12958655903071145,
                3.0906928834467795
            ]
        },
        {
            "positions": [
                0.05688509717212735,
                -1.1727845457495896,
                2.0361906724680434,
                -0.8170397139501375,
                0.28635116716855447,
                3.1061645035630057
            ]
        },
        {
            "positions": [
                -0.009041350322867583,
                -1.2060843447760692,
                2.1008338848250965,
                -0.8536106251944449,
                0.44311577530639745,
                3.121636123679232
            ]
        },
        {
            "positions": [
                -0.07496779781786252,
                -1.2393841438025488,
                2.16547709718215,
                -0.8901815364387523,
                0.5998803834442406,
                3.137107743795458
            ]
        },
        {
            "positions": [
                -0.14089424531285744,
                -1.2726839428290284,
                2.230120309539203,
                -0.9267524476830596,
                0.7566449915820835,
                3.1525793639116846
            ]
        },
        {
            "positions": [
                -0.20682069280785242,
                -1.3059837418555083,
                2.2947635218962565,
                -0.9633233589273671,
                0.9134095997199266,
                3.1680509840279107
            ]
        },
        {
            "positions": [
                -0.2727471403028473,
                -1.3392835408819879,
                2.3594067342533096,
                -0.9998942701716744,
                1.0701742078577696,
                3.183522604144137
            ]
        },
        {
            "positions": [
                -0.3386735877978423,
                -1.3725833399084675,
                2.424049946610363,
                -1.0364651814159818,
                1.2269388159956127,
                3.198994224260363
            ]
        }
    ]
}{
    "goal": {
        "global_pose": {
            "orientation": {
                "w": 0.5084816217422485,
                "x": -0.49083608388900757,
                "y": 0.5182115435600281,
                "z": -0.4816462993621826
            },
            "position": {
                "x": 0.5540239810943604,
                "y": 0.030875300988554955,
                "z": 0.16403168439865112
            }
        },
        "name": "move_to_storage_A"
    },
    "id": "EST_move_to_storage_A_31",
    "joint_names": [
        "shoulder_pan_joint",
        "shoulder_lift_joint",
        "elbow_joint",
        "wrist_1_joint",
        "wrist_2_joint",
        "wrist_3_joint"
    ],
    "metrics": {
        "cart_traj_len": 0.3535956301575194,
        "distance_elbow_joint": 0.45132074146634427,
        "distance_shoulder_lift_joint": 0.23398993581014094,
        "distance_shoulder_pan_joint": 0.46433169143248254,
        "distance_wrist_1_joint": 0.24685593643899173,
        "distance_wrist_2_joint": 1.0915031537486375,
        "distance_wrist_3_joint": 0.09517601866250347,
        "smoothness": 0.0,
        "time": 0.182375501,
        "traj_len": 1.6072266416280874,
        "weighted_distance": 2.0277792298649615
    },
    "planner": "EST",
    "start": {
        "state": {
            "elbow_joint": 1.9715472970024885,
            "shoulder_lift_joint": -1.1394870060712896,
            "shoulder_pan_joint": 0.12281152778156021,
            "wrist_1_joint": -0.780463741449964,
            "wrist_2_joint": 0.12958659822042276,
            "wrist_3_joint": 3.090690232415272
        }
    },
    "waypoints": [
        {
            "positions": [
                0.12281152778156021,
                -1.1394870060712896,
                1.9715472970024885,
                -0.780463741449964,
                0.12958659822042276,
                3.090690232415272
            ]
        },
        {
            "positions": [
                0.056478429005491285,
                -1.1729141397584526,
                2.036021688640538,
                -0.8157288752269628,
                0.2855156201845138,
                3.1042868065099154
            ]
        },
        {
            "positions": [
                -0.00985466977057764,
                -1.2063412734456156,
                2.100496080278587,
                -0.8509940090039616,
                0.4414446421486049,
                3.1178833806045585
            ]
        },
        {
            "positions": [
                -0.07618776854664658,
                -1.2397684071327786,
                2.1649704719166363,
                -0.8862591427809604,
                0.597373664112696,
                3.131479954699202
            ]
        },
        {
            "positions": [
                -0.1425208673227155,
                -1.2731955408199416,
                2.229444863554685,
                -0.9215242765579592,
                0.753302686076787,
                3.145076528793845
            ]
        },
        {
            "positions": [
                -0.20885396609878445,
                -1.3066226745071046,
                2.2939192551927343,
                -0.9567894103349581,
                0.909231708040878,
                3.1586731028884887
            ]
        },
        {
            "positions": [
                -0.27518706487485334,
                -1.3400498081942676,
                2.3583936468307836,
                -0.9920545441119569,
                1.0651607300049692,
                3.172269676983132
            ]
        },
        {
            "positions": [
                -0.3415201636509223,
                -1.3734769418814305,
                2.422868038468833,
                -1.0273196778889557,
                1.2210897519690602,
                3.1858662510777753
            ]
        }
    ]
}