{
    "goal": {
        "global_pose": {
            "orientation": {
                "w": 0.5084816262002911,
                "x": -0.4908360881923452,
                "y": 0.5182115481033761,
                "z": -0.48164630358495003
            },
            "position": {
                "x": 0.5540239810943604,
                "y": -0.46912469901144505,
                "z": 0.16403168439865112
            }
        },
        "name": "move_to_storage_B"
    },
    "id": "EST_move_to_storage_B_12",
    "joint_names": [
        "shoulder_pan_joint",
        "shoulder_lift_joint",
        "elbow_joint",
        "wrist_1_joint",
        "wrist_2_joint",
        "wrist_3_joint"
    ],
    "metrics": {
        "cart_traj_len": 1.3657818855230113,
        "distance_elbow_joint": 0.5169545337023269,
        "distance_shoulder_lift_joint": 0.7104268029304637,
        "distance_shoulder_pan_joint": 1.0527152704263123,
        "distance_wrist_1_joint": 3.0174415814675566,
        "distance_wrist_2_joint": 2.7180122752750573,
        "distance_wrist_3_joint": 3.117506821622944,
        "smoothness": 0.1372040486706511,
        "time": 0.263863572,
        "traj_len": 3.3366236355670473,
        "weighted_distance": 4.80661261029149
    },
    "planner": "EST",
    "start": {
        "state": {
            "elbow_joint": 1.664937868594044,
            "shoulder_lift_joint": -0.661644460510453,
            "shoulder_pan_joint": -0.9139846352900073,
            "wrist_1_joint": 2.146753192139373,
            "wrist_2_joint": -2.2341966793290973,
            "wrist_3_joint": 0.005466555786416001
        }
    },
    "waypoints": [
        {
            "positions": [
                -0.9139846352900073,
                -0.661644460510453,
                1.664937868594044,
                2.146753192139373,
                -2.2341966793290973,
                0.005466555786416001
            ]
        },
        {
            "positions": [
                -0.8743181401783741,
                -0.7148546834021757,
                1.657669823244838,
                2.009477113654816,
                -2.112125697188913,
                -0.02461400957440898
            ]
        },
        {
            "positions": [
                -0.8346516450667408,
                -0.7680649062938986,
                1.650401777895632,
                1.8722010351702587,
                -1.9900547150487289,
                -0.05469457493523396
            ]
        },
        {
            "positions": [
                -0.7949851499551076,
                -0.8212751291856213,
                1.643133732546426,
                1.7349249566857017,
                -1.867983732908545,
                -0.08477514029605893
            ]
        },
        {
            "positions": [
                -0.7553186548434743,
                -0.8744853520773441,
                1.63586568719722,
                1.5976488782011442,
                -1.7459127507683607,
                -0.11485570565688392
            ]
        },
        {
            "positions": [
                -0.715652159731841,
                -0.9276955749690668,
                1.628597641848014,
                1.4603727997165872,
                -1.6238417686281765,
                -0.1449362710177089
            ]
        },
        {
            "positions": [
                -0.6759856646202078,
                -0.9809057978607896,
                1.621329596498808,
                1.32309672123203,
                -1.5017707864879926,
                -0.17501683637853385
            ]
        },
        {
            "positions": [
                -0.6363191695085746,
                -1.0341160207525124,
                1.614061551149602,
                1.1858206427474727,
                -1.3796998043478084,
                -0.20509740173935886
            ]
        },
        {
            "positions": [
                -0.5966526743969414,
                -1.0873262436442352,
                1.606793505800396,
                1.0485445642629154,
                -1.2576288222076242,
                -0.23517796710018385
            ]
        },
        {
            "positions": [
                -0.5569861792853081,
                -1.140536466535958,
                1.59952546045119,
                0.911268485778358,
                -1.1355578400674398,
                -0.2652585324610088
            ]
        },
        {
            "positions": [
                -0.5173196841736749,
                -1.1937466894276807,
                1.592257415101984,
                0.7739924072938009,
                -1.0134868579272558,
                -0.29533909782183376
            ]
        },
        {
            "positions": [
                -0.4776531890620417,
                -1.2469569123194035,
                1.584989369752778,
                0.6367163288092437,
                -0.8914158757870716,
                -0.32541966318265875
            ]
        },
        {
            "positions": [
                -0.5118967348508388,
                -1.2400061150348751,
                1.6092674828006146,
                0.5529716222460533,
                -0.8150141273574587,
                -0.4802319188856515
            ]
        },
        {
            "positions": [
                -0.5461402806396358,
                -1.2330553177503465,
                1.6335455958484513,
                0.4692269156828629,
                -0.7386123789278459,
                -0.6350441745886442
            ]
        },
        {
            "positions": [
                -0.5803838264284328,
                -1.226104520465818,
                1.6578237088962882,
                0.38548220911967257,
                -0.6622106304982331,
                -0.7898564302916369
            ]
        },
        {
            "positions": [
                -0.6146273722172299,
                -1.2191537231812895,
                1.6821018219441248,
                0.3017375025564822,
                -0.5858088820686203,
                -0.9446686859946296
            ]
        },
        {
            "positions": [
                -0.6488709180060269,
                -1.212202925896761,
                1.7063799349919615,
                0.21799279599329174,
                -0.5094071336390074,
                -1.0994809416976223
            ]
        },
        {
            "positions": [
                -0.6831144637948239,
                -1.2052521286122324,
                1.7306580480397982,
                0.13424808943010147,
                -0.4330053852093946,
                -1.254293197400615
            ]
        },
        {
            "positions": [
                -0.717358009583621,
                -1.198301331327704,
                1.754936161087635,
                0.05050338286691103,
                -0.3566036367797817,
                -1.4091054531036078
            ]
        },
        {
            "positions": [
                -0.751601555372418,
                -1.1913505340431754,
                1.7792142741354717,
                -0.0332413236962793,
                -0.2802018883501689,
                -1.5639177088066005
            ]
        },
        {
            "positions": [
                -0.7858451011612151,
                -1.184399736758647,
                1.8034923871833084,
                -0.11698603025946974,
                -0.203800139920556,
                -1.7187299645095933
            ]
        },
        {
            "positions": [
                -0.8200886469500122,
                -1.1774489394741185,
                1.827770500231145,
                -0.20073073682266018,
                -0.12739839149094312,
                -1.873542220212586
            ]
        },
        {
            "positions": [
                -0.8543321927388092,
                -1.17049814218959,
                1.8520486132789817,
                -0.2844754433858506,
                -0.05099664306133023,
                -2.028354475915579
            ]
        },
        {
            "positions": [
                -0.8885757385276062,
                -1.1635473449050615,
                1.8763267263268184,
                -0.36822014994904073,
                0.025405105368282443,
                -2.1831667316185714
            ]
        },
        {
            "positions": [
                -0.9228192843164033,
                -1.1565965476205329,
                1.9006048393746553,
                -0.4519648565122312,
                0.10180685379789534,
                -2.337978987321564
            ]
        },
        {
            "positions": [
                -0.9570628301052003,
                -1.1496457503360045,
                1.924882952422492,
                -0.5357095630754216,
                0.17820860222750823,
                -2.492791243024557
            ]
        },
        {
            "positions": [
                -0.9913063758939974,
                -1.1426949530514758,
                1.9491610654703289,
                -0.619454269638612,
                0.2546103506571211,
                -2.6476034987275496
            ]
        },
        {
            "positions": [
                -1.0255499216827944,
                -1.1357441557669474,
                1.9734391785181655,
                -0.7031989762018023,
                0.3310120990867338,
                -2.8024157544305424
            ]
        },
        {
            "positions": [
                -1.0597934674715914,
                -1.1287933584824188,
                1.9977172915660022,
                -0.7869436827649927,
                0.4074138475163467,
                -2.957228010133535
            ]
        },
        {
            "positions": [
                -1.0940370132603885,
                -1.1218425611978904,
                2.021995404613839,
                -0.8706883893281832,
                0.48381559594595946,
                -3.112040265836528
            ]
        }
    ]
}