{
    "goal": {
        "global_pose": {
            "orientation": {
                "w": 0.5084816217422485,
                "x": -0.49083608388900757,
                "y": 0.5182115435600281,
                "z": -0.4816462993621826
            },
            "position": {
                "x": 0.5540239810943604,
                "y": 0.030875300988554955,
                "z": 0.16403168439865112
            }
        },
        "name": "move_to_storage_A"
    },
    "id": "EST_move_to_storage_A_30",
    "joint_names": [
        "shoulder_pan_joint",
        "shoulder_lift_joint",
        "elbow_joint",
        "wrist_1_joint",
        "wrist_2_joint",
        "wrist_3_joint"
    ],
    "metrics": {
        "cart_traj_len": 0.35333518401145103,
        "distance_elbow_joint": 0.45232557126918294,
        "distance_shoulder_lift_joint": 0.23517963046095458,
        "distance_shoulder_pan_joint": 0.45880675552597044,
        "distance_wrist_1_joint": 0.25699086908235713,
        "distance_wrist_2_joint": 1.1133125177781724,
        "distance_wrist_3_joint": 0.09657033876964105,
        "smoothness": 4.440892133664971e-16,
        "time": 0.094416715,
        "traj_len": 1.616535085572311,
        "weighted_distance": 2.0436804415774232
    },
    "planner": "EST",
    "start": {
        "state": {
            "elbow_joint": 1.971548259319323,
            "shoulder_lift_joint": -1.1394851275133948,
            "shoulder_pan_joint": 0.1228115487234821,
            "wrist_1_joint": -0.7804723859257726,
            "wrist_2_joint": 0.12958671773740124,
            "wrist_3_joint": -3.192489227718131
        }
    },
    "waypoints": [
        {
            "positions": [
                0.1228115487234821,
                -1.1394851275133948,
                1.971548259319323,
                -0.7804723859257726,
                0.12958671773740124,
                -3.192489227718131
            ]
        },
        {
            "positions": [
                0.057267726505486324,
                -1.1730822175792455,
                2.0361661980720633,
                -0.8171853672232522,
                0.288631363134283,
                -3.178693465036754
            ]
        },
        {
            "positions": [
                -0.008276095712509451,
                -1.2066793076450961,
                2.100784136824804,
                -0.8538983485207318,
                0.44767600853116474,
                -3.1648977023553764
            ]
        },
        {
            "positions": [
                -0.07381991793050521,
                -1.2402763977109468,
                2.165402075577544,
                -0.8906113298182113,
                0.6067206539280465,
                -3.151101939673999
            ]
        },
        {
            "positions": [
                -0.139363740148501,
                -1.2738734877767974,
                2.2300200143302846,
                -0.927324311115691,
                0.7657652993249283,
                -3.137306176992622
            ]
        },
        {
            "positions": [
                -0.20490756236649682,
                -1.307470577842648,
                2.294637953083025,
                -0.9640372924131706,
                0.9248099447218101,
                -3.123510414311245
            ]
        },
        {
            "positions": [
                -0.2704513845844925,
                -1.3410676679084987,
                2.3592558918357653,
                -1.0007502737106502,
                1.0838545901186918,
                -3.1097146516298673
            ]
        },
        {
            "positions": [
                -0.33599520680248834,
                -1.3746647579743494,
                2.423873830588506,
                -1.0374632550081297,
                1.2428992355155737,
                -3.09591888894849
            ]
        }
    ]
}{
    "goal": {
        "global_pose": {
            "orientation": {
                "w": 0.5084816217422485,
                "x": -0.49083608388900757,
                "y": 0.5182115435600281,
                "z": -0.4816462993621826
            },
            "position": {
                "x": 0.5540239810943604,
                "y": 0.030875300988554955,
                "z": 0.16403168439865112
            }
        },
        "name": "move_to_storage_A"
    },
    "id": "EST_move_to_storage_A_30",
    "joint_names": [
        "shoulder_pan_joint",
        "shoulder_lift_joint",
        "elbow_joint",
        "wrist_1_joint",
        "wrist_2_joint",
        "wrist_3_joint"
    ],
    "metrics": {
        "cart_traj_len": 0.35337415696296137,
        "distance_elbow_joint": 0.4502884952526869,
        "distance_shoulder_lift_joint": 0.2341074564327299,
        "distance_shoulder_pan_joint": 0.46028209987253327,
        "distance_wrist_1_joint": 0.24650381553642364,
        "distance_wrist_2_joint": 1.106868460601199,
        "distance_wrist_3_joint": 0.08895805562202819,
        "smoothness": 6.661338200497456e-16,
        "time": 0.113531119,
        "traj_len": 1.608417975315372,
        "weighted_distance": 2.0293587092230094
    },
    "planner": "EST",
    "start": {
        "state": {
            "elbow_joint": 1.97154746011099,
            "shoulder_lift_joint": -1.13948474672311,
            "shoulder_pan_joint": 0.12281154466712228,
            "wrist_1_joint": -0.7804688027058302,
            "wrist_2_joint": 0.12958655903071145,
            "wrist_3_joint": 3.0906928834467795
        }
    },
    "waypoints": [
        {
            "positions": [
                0.12281154466712228,
                -1.13948474672311,
                1.97154746011099,
                -0.7804688027058302,
                0.12958655903071145,
                3.0906928834467795
            ]
        },
        {
            "positions": [
                0.05705695897104611,
                -1.1729286690706429,
                2.0358743880042307,
                -0.8156836334967479,
                0.2877106248308827,
                3.1034011771070693
            ]
        },
        {
            "positions": [
                -0.008697626725030064,
                -1.2063725914181755,
                2.100201315897472,
                -0.8508984642876655,
                0.44583469063105396,
                3.116109470767359
            ]
        },
        {
            "positions": [
                -0.07445221242110624,
                -1.2398165137657085,
                2.1645282437907127,
                -0.8861132950785832,
                0.6039587564312252,
                3.128817764427649
            ]
        },
        {
            "positions": [
                -0.1402067981171824,
                -1.2732604361132414,
                2.228855171683954,
                -0.9213281258695009,
                0.7620828222313966,
                3.1415260580879383
            ]
        },
        {
            "positions": [
                -0.20596138381325862,
                -1.3067043584607743,
                2.2931820995771948,
                -0.9565429566604184,
                0.9202068880315679,
                3.154234351748228
            ]
        },
        {
            "positions": [
                -0.27171596950933474,
                -1.340148280808307,
                2.357509027470436,
                -0.9917577874513361,
                1.078330953831739,
                3.166942645408518
            ]
        },
        {
            "positions": [
                -0.33747055520541097,
                -1.3735922031558399,
                2.421835955363677,
                -1.0269726182422538,
                1.2364550196319104,
                3.1796509390688077
            ]
        }
    ]
}{
    "goal": {
        "global_pose": {
            "orientation": {
                "w": 0.5084816217422485,
                "x": -0.49083608388900757,
                "y": 0.5182115435600281,
                "z": -0.4816462993621826
            },
            "position": {
                "x": 0.5540239810943604,
                "y": 0.030875300988554955,
                "z": 0.16403168439865112
            }
        },
        "name": "move_to_storage_A"
    },
    "id": "EST_move_to_storage_A_30",
    "joint_names": [
        "shoulder_pan_joint",
        "shoulder_lift_joint",
        "elbow_joint",
        "wrist_1_joint",
        "wrist_2_joint",
        "wrist_3_joint"
    ],
    "metrics": {
        "cart_traj_len": 0.3530922270238321,
        "distance_elbow_joint": 0.4484601241660373,
        "distance_shoulder_lift_joint": 0.23434549019985895,
        "distance_shoulder_pan_joint": 0.45830989802185856,
        "distance_wrist_1_joint": 0.23944103268341022,
        "distance_wrist_2_joint": 1.1130931986312484,
        "distance_wrist_3_joint": 0.09561636570182674,
        "smoothness": 6.661338165333112e-16,
        "time": 0.032999579,
        "traj_len": 1.6091196690750629,
        "weighted_distance": 2.032986244941798
    },
    "planner": "EST",
    "start": {
        "state": {
            "elbow_joint": 1.9715472970024885,
            "shoulder_lift_joint": -1.1394870060712896,
            "shoulder_pan_joint": 0.12281152778156021,
            "wrist_1_joint": -0.780463741449964,
            "wrist_2_joint": 0.12958659822042276,
            "wrist_3_joint": 3.090690232415272
        }
    },
    "waypoints": [
        {
            "positions": [
                0.12281152778156021,
                -1.1394870060712896,
                1.9715472970024885,
                -0.780463741449964,
                0.12958659822042276,
                3.090690232415272
            ]
        },
        {
            "positions": [
                0.057338685207008994,
                -1.1729649332426981,
                2.035613029026208,
                -0.8146696032618798,
                0.2885999123106011,
                3.1043497132298183
            ]
        },
        {
            "positions": [
                -0.008134157367542222,
                -1.2064428604141064,
                2.099678761049928,
                -0.8488754650737955,
                0.4476132264007795,
                3.1180091940443653
            ]
        },
        {
            "positions": [
                -0.07360699994209344,
                -1.239920787585515,
                2.1637444930736476,
                -0.8830813268857112,
                0.6066265404909578,
                3.1316686748589118
            ]
        },
        {
            "positions": [
                -0.13907984251664465,
                -1.2733987147569232,
                2.227810225097367,
                -0.9172871886976269,
                0.7656398545811361,
                3.1453281556734587
            ]
        },
        {
            "positions": [
                -0.20455268509119587,
                -1.3068766419283318,
                2.2918759571210865,
                -0.9514930505095427,
                0.9246531686713145,
                3.158987636488005
            ]
        },
        {
            "positions": [
                -0.27002552766574706,
                -1.34035456909974,
                2.355941689144806,
                -0.9856989123214585,
                1.0836664827614928,
                3.172647117302552
            ]
        },
        {
            "positions": [
                -0.3354983702402983,
                -1.3738324962711486,
                2.420007421168526,
                -1.0199047741333742,
                1.2426797968516712,
                3.1863065981170986
            ]
        }
    ]
}