{
    "goal": {
        "global_pose": {
            "orientation": {
                "w": 0.5084816262002911,
                "x": -0.4908360881923452,
                "y": 0.5182115481033761,
                "z": -0.48164630358495003
            },
            "position": {
                "x": 0.5540239810943604,
                "y": -0.46912469901144505,
                "z": 0.16403168439865112
            }
        },
        "name": "move_to_storage_B"
    },
    "id": "EST_move_to_storage_B_62",
    "joint_names": [
        "shoulder_pan_joint",
        "shoulder_lift_joint",
        "elbow_joint",
        "wrist_1_joint",
        "wrist_2_joint",
        "wrist_3_joint"
    ],
    "metrics": {
        "cart_traj_len": 2.006862647074893,
        "distance_elbow_joint": 0.4030062653989859,
        "distance_shoulder_lift_joint": 1.0356411321414054,
        "distance_shoulder_pan_joint": 1.9227534183352224,
        "distance_wrist_1_joint": 2.9795828484790747,
        "distance_wrist_2_joint": 2.711059169811226,
        "distance_wrist_3_joint": 4.481004442464821,
        "smoothness": 0.28162428520312033,
        "time": 0.121883861,
        "traj_len": 3.6787290300633364,
        "weighted_distance": 5.309020453892665
    },
    "planner": "EST",
    "start": {
        "state": {
            "elbow_joint": 1.664937868594044,
            "shoulder_lift_joint": -0.661644460510453,
            "shoulder_pan_joint": -0.9139846352900073,
            "wrist_1_joint": 2.146753192139373,
            "wrist_2_joint": -2.2341966793290973,
            "wrist_3_joint": 0.005466555786416001
        }
    },
    "waypoints": [
        {
            "positions": [
                -0.9139846352900073,
                -0.661644460510453,
                1.664937868594044,
                2.146753192139373,
                -2.2341966793290973,
                0.005466555786416001
            ]
        },
        {
            "positions": [
                -0.841404203262946,
                -0.7238803052012036,
                1.662659896049585,
                2.04614977080709,
                -2.1345268339009627,
                -0.050600716217151794
            ]
        },
        {
            "positions": [
                -0.7688237712358847,
                -0.7861161498919542,
                1.6603819235051263,
                1.9455463494748064,
                -2.034856988472828,
                -0.10666798822071959
            ]
        },
        {
            "positions": [
                -0.6962433392088234,
                -0.8483519945827048,
                1.6581039509606674,
                1.844942928142523,
                -1.9351871430446932,
                -0.1627352602242874
            ]
        },
        {
            "positions": [
                -0.6236629071817621,
                -0.9105878392734554,
                1.6558259784162086,
                1.7443395068102396,
                -1.8355172976165586,
                -0.21880253222785517
            ]
        },
        {
            "positions": [
                -0.5510824751547008,
                -0.972823683964206,
                1.6535480058717498,
                1.6437360854779564,
                -1.735847452188424,
                -0.274869804231423
            ]
        },
        {
            "positions": [
                -0.47850204312763944,
                -1.0350595286549567,
                1.651270033327291,
                1.5431326641456728,
                -1.6361776067602891,
                -0.33093707623499075
            ]
        },
        {
            "positions": [
                -0.4059216111005781,
                -1.0972953733457071,
                1.6489920607828321,
                1.4425292428133893,
                -1.5365077613321545,
                -0.38700434823855856
            ]
        },
        {
            "positions": [
                -0.3333411790735169,
                -1.1595312180364579,
                1.6467140882383733,
                1.341925821481106,
                -1.4368379159040199,
                -0.4430716202421263
            ]
        },
        {
            "positions": [
                -0.2607607470464556,
                -1.2217670627272086,
                1.6444361156939145,
                1.2413224001488228,
                -1.3371680704758853,
                -0.49913889224569413
            ]
        },
        {
            "positions": [
                -0.18818031501939414,
                -1.284002907417959,
                1.6421581431494556,
                1.1407189788165393,
                -1.2374982250477506,
                -0.5552061642492621
            ]
        },
        {
            "positions": [
                -0.11559988299233293,
                -1.3462387521087096,
                1.6398801706049968,
                1.040115557484256,
                -1.1378283796196158,
                -0.6112734362528297
            ]
        },
        {
            "positions": [
                -0.043019450965271655,
                -1.4084745967994603,
                1.637602198060538,
                0.9395121361519725,
                -1.0381585341914812,
                -0.6673407082563976
            ]
        },
        {
            "positions": [
                -0.08874937418311893,
                -1.3959175969797908,
                1.653935702185124,
                0.8624537973479867,
                -0.9722880548578461,
                -0.5017669178902233
            ]
        },
        {
            "positions": [
                -0.1344792974009662,
                -1.3833605971601213,
                1.6702692063097102,
                0.7853954585440008,
                -0.9064175755242109,
                -0.3361931275240491
            ]
        },
        {
            "positions": [
                -0.18020922061881348,
                -1.3708035973404518,
                1.6866027104342962,
                0.708337119740015,
                -0.8405470961905757,
                -0.17061933715787486
            ]
        },
        {
            "positions": [
                -0.22593914383666075,
                -1.3582465975207825,
                1.7029362145588822,
                0.6312787809360292,
                -0.7746766168569406,
                -0.005045546791700661
            ]
        },
        {
            "positions": [
                -0.271669067054508,
                -1.345689597701113,
                1.7192697186834685,
                0.5542204421320434,
                -0.7088061375233055,
                0.1605282435744736
            ]
        },
        {
            "positions": [
                -0.3173989902723553,
                -1.3331325978814434,
                1.7356032228080545,
                0.47716210332805753,
                -0.6429356581896702,
                0.32610203394064785
            ]
        },
        {
            "positions": [
                -0.3631289134902026,
                -1.320575598061774,
                1.7519367269326405,
                0.4001037645240717,
                -0.577065178856035,
                0.4916758243068222
            ]
        },
        {
            "positions": [
                -0.40885883670804984,
                -1.3080185982421044,
                1.7682702310572267,
                0.3230454257200859,
                -0.5111946995223999,
                0.6572496146729963
            ]
        },
        {
            "positions": [
                -0.45458875992589715,
                -1.295461598422435,
                1.7846037351818127,
                0.24598708691610005,
                -0.4453242201887647,
                0.8228234050391707
            ]
        },
        {
            "positions": [
                -0.5003186831437444,
                -1.2829045986027654,
                1.800937239306399,
                0.16892874811211422,
                -0.3794537408551296,
                0.9883971954053448
            ]
        },
        {
            "positions": [
                -0.5460486063615917,
                -1.2703475987830959,
                1.817270743430985,
                0.0918704093081284,
                -0.3135832615214944,
                1.1539709857715192
            ]
        },
        {
            "positions": [
                -0.5917785295794389,
                -1.2577905989634266,
                1.833604247555571,
                0.014812070504142572,
                -0.2477127821878593,
                1.3195447761376933
            ]
        },
        {
            "positions": [
                -0.6375084527972863,
                -1.245233599143757,
                1.849937751680157,
                -0.062246268299843255,
                -0.1818423028542242,
                1.4851185665038675
            ]
        },
        {
            "positions": [
                -0.6832383760151335,
                -1.2326765993240876,
                1.8662712558047432,
                -0.13930460710382908,
                -0.11597182352058888,
                1.650692356870042
            ]
        },
        {
            "positions": [
                -0.7289682992329809,
                -1.220119599504418,
                1.8826047599293292,
                -0.2163629459078149,
                -0.05010134418695378,
                1.816266147236216
            ]
        },
        {
            "positions": [
                -0.7746982224508281,
                -1.2075625996847485,
                1.8989382640539154,
                -0.29342128471180073,
                0.015769135146681323,
                1.98183993760239
            ]
        },
        {
            "positions": [
                -0.8204281456686753,
                -1.195005599865079,
                1.9152717681785014,
                -0.37047962351578656,
                0.08163961448031642,
                2.147413727968565
            ]
        },
        {
            "positions": [
                -0.8661580688865227,
                -1.1824486000454095,
                1.9316052723030874,
                -0.4475379623197724,
                0.14751009381395175,
                2.3129875183347393
            ]
        },
        {
            "positions": [
                -0.9118879921043699,
                -1.16989160022574,
                1.9479387764276734,
                -0.5245963011237582,
                0.21338057314758685,
                2.478561308700913
            ]
        },
        {
            "positions": [
                -0.9576179153222171,
                -1.1573346004060707,
                1.9642722805522597,
                -0.601654639927744,
                0.27925105248122195,
                2.6441350990670873
            ]
        },
        {
            "positions": [
                -1.0033478385400645,
                -1.1447776005864012,
                1.9806057846768457,
                -0.6787129787317299,
                0.34512153181485705,
                2.809708889433262
            ]
        },
        {
            "positions": [
                -1.049077761757912,
                -1.1322206007667317,
                1.996939288801432,
                -0.7557713175357157,
                0.4109920111484924,
                2.9752826797994363
            ]
        },
        {
            "positions": [
                -1.094807684975759,
                -1.1196636009470622,
                2.013272792926018,
                -0.8328296563397016,
                0.47686249048212753,
                3.1408564701656103
            ]
        }
    ]
}