{
    "goal": {
        "global_pose": {
            "orientation": {
                "w": -0.4816463035849501,
                "x": 0.5182115481033762,
                "y": 0.4908360881923453,
                "z": -0.5084816262002911
            },
            "position": {
                "x": -0.8240239810943604,
                "y": -0.300875300988555,
                "z": 0.16403168439865112
            }
        },
        "name": "move_to_storage_C"
    },
    "id": "EST_move_to_storage_C_77",
    "joint_names": [
        "shoulder_pan_joint",
        "shoulder_lift_joint",
        "elbow_joint",
        "wrist_1_joint",
        "wrist_2_joint",
        "wrist_3_joint"
    ],
    "metrics": {
        "cart_traj_len": 0.5761672201412221,
        "distance_elbow_joint": 0.25731635221189175,
        "distance_shoulder_lift_joint": 0.18812496477932183,
        "distance_shoulder_pan_joint": 0.496028225755643,
        "distance_wrist_1_joint": 0.08436983103911266,
        "distance_wrist_2_joint": 1.0594929000235798,
        "distance_wrist_3_joint": 0.06611587742346714,
        "smoothness": 5.075305295617109e-16,
        "time": 0.178896734,
        "traj_len": 1.4667815622078892,
        "weighted_distance": 1.851362373265332
    },
    "planner": "EST",
    "start": {
        "state": {
            "elbow_joint": 2.010868314990456,
            "shoulder_lift_joint": -1.1634956873337592,
            "shoulder_pan_joint": -2.4736205022346125,
            "wrist_1_joint": -0.8367026794202681,
            "wrist_2_joint": 0.6746043897044499,
            "wrist_3_joint": -3.1496632123970403
        }
    },
    "waypoints": [
        {
            "positions": [
                -2.4736205022346125,
                -1.1634956873337592,
                2.010868314990456,
                -0.8367026794202681,
                0.6746043897044499,
                -3.1496632123970403
            ]
        },
        {
            "positions": [
                -2.5562918731938864,
                -1.1321415265372055,
                1.967982256288474,
                -0.8226410409137493,
                0.8511865397083799,
                -3.138643899493129
            ]
        },
        {
            "positions": [
                -2.6389632441531603,
                -1.100787365740652,
                1.925096197586492,
                -0.8085794024072306,
                1.02776868971231,
                -3.127624586589218
            ]
        },
        {
            "positions": [
                -2.7216346151124338,
                -1.0694332049440982,
                1.8822101388845098,
                -0.7945177639007117,
                1.20435083971624,
                -3.1166052736853067
            ]
        },
        {
            "positions": [
                -2.8043059860717077,
                -1.0380790441475447,
                1.839324080182528,
                -0.780456125394193,
                1.3809329897201699,
                -3.1055859607813954
            ]
        },
        {
            "positions": [
                -2.8869773570309816,
                -1.006724883350991,
                1.796438021480546,
                -0.7663944868876742,
                1.5575151397240998,
                -3.0945666478774845
            ]
        },
        {
            "positions": [
                -2.9696487279902555,
                -0.9753707225544374,
                1.753551962778564,
                -0.7523328483811554,
                1.7340972897280296,
                -3.083547334973573
            ]
        }
    ]
}