{
    "goal": {
        "global_pose": {
            "orientation": {
                "w": 0.005598929693374612,
                "x": 0.007748599140229565,
                "y": 0.7110244013736278,
                "z": -0.7031023480610252
            },
            "position": {
                "x": -0.8858502320852131,
                "y": -0.7141253447532654,
                "z": 0.3711530566215515
            }
        },
        "name": "move_to_auspresseinheit_C"
    },
    "id": "EST_move_to_auspresseinheit_C_5",
    "joint_names": [
        "shoulder_pan_joint",
        "shoulder_lift_joint",
        "elbow_joint",
        "wrist_1_joint",
        "wrist_2_joint",
        "wrist_3_joint"
    ],
    "metrics": {
        "cart_traj_len": 0.49317372753023114,
        "distance_elbow_joint": 0.9995607264018234,
        "distance_shoulder_lift_joint": 0.32536969374168323,
        "distance_shoulder_pan_joint": 0.25680374288775143,
        "distance_wrist_1_joint": 0.676774298742421,
        "distance_wrist_2_joint": 1.3083052279364027,
        "distance_wrist_3_joint": 0.062225303962410106,
        "smoothness": 1.6148698667872622e-16,
        "time": 0.312225013,
        "traj_len": 1.9050036728763784,
        "weighted_distance": 2.3955310743708034
    },
    "planner": "EST",
    "start": {
        "state": {
            "elbow_joint": 1.7527959577737207,
            "shoulder_lift_joint": -0.9740617694225068,
            "shoulder_pan_joint": -2.967991417825858,
            "wrist_1_joint": -0.759517768980727,
            "wrist_2_joint": 1.7443932448377408,
            "wrist_3_joint": -3.0840537646736568
        }
    },
    "waypoints": [
        {
            "positions": [
                -2.967991417825858,
                -0.9740617694225068,
                1.7527959577737207,
                -0.759517768980727,
                1.7443932448377408,
                -3.0840537646736568
            ]
        },
        {
            "positions": [
                -2.942311043537083,
                -0.9415248000483385,
                1.6528398851335384,
                -0.6918403391064849,
                1.6135627220441005,
                -3.0902762950698976
            ]
        },
        {
            "positions": [
                -2.9166306692483075,
                -0.9089878306741701,
                1.552883812493356,
                -0.6241629092322427,
                1.4827321992504603,
                -3.096498825466139
            ]
        },
        {
            "positions": [
                -2.8909502949595325,
                -0.8764508613000018,
                1.4529277398531737,
                -0.5564854793580007,
                1.3519016764568201,
                -3.10272135586238
            ]
        },
        {
            "positions": [
                -2.8652699206707575,
                -0.8439138919258334,
                1.3529716672129912,
                -0.48880804948375856,
                1.2210711536631798,
                -3.1089438862586207
            ]
        },
        {
            "positions": [
                -2.8395895463819825,
                -0.8113769225516652,
                1.253015594572809,
                -0.4211306196095165,
                1.0902406308695394,
                -3.115166416654862
            ]
        },
        {
            "positions": [
                -2.813909172093207,
                -0.7788399531774969,
                1.1530595219326267,
                -0.3534531897352744,
                0.9594101080758992,
                -3.121388947051103
            ]
        },
        {
            "positions": [
                -2.788228797804432,
                -0.7463029838033285,
                1.0531034492924443,
                -0.2857757598610323,
                0.8285795852822591,
                -3.127611477447344
            ]
        },
        {
            "positions": [
                -2.762548423515657,
                -0.7137660144291602,
                0.9531473766522619,
                -0.21809832998679013,
                0.6977490624886187,
                -3.1338340078435847
            ]
        },
        {
            "positions": [
                -2.7368680492268815,
                -0.6812290450549918,
                0.8531913040120797,
                -0.15042090011254805,
                0.5669185396949783,
                -3.140056538239826
            ]
        },
        {
            "positions": [
                -2.7111876749381065,
                -0.6486920756808235,
                0.7532352313718973,
                -0.082743470238306,
                0.43608801690133814,
                -3.146279068636067
            ]
        }
    ]
}