{
    "goal": {
        "global_pose": {
            "orientation": {
                "w": -0.4816463035849501,
                "x": 0.5182115481033762,
                "y": 0.4908360881923453,
                "z": -0.5084816262002911
            },
            "position": {
                "x": -0.8240239810943604,
                "y": -0.300875300988555,
                "z": 0.16403168439865112
            }
        },
        "name": "move_to_storage_C"
    },
    "id": "EST_move_to_storage_C_57",
    "joint_names": [
        "shoulder_pan_joint",
        "shoulder_lift_joint",
        "elbow_joint",
        "wrist_1_joint",
        "wrist_2_joint",
        "wrist_3_joint"
    ],
    "metrics": {
        "cart_traj_len": 0.5774532278151028,
        "distance_elbow_joint": 0.26095204435343633,
        "distance_shoulder_lift_joint": 0.1901507168490414,
        "distance_shoulder_pan_joint": 0.4953623673401659,
        "distance_wrist_1_joint": 0.08688609217021137,
        "distance_wrist_2_joint": 1.0671059382810375,
        "distance_wrist_3_joint": 0.07521996813412946,
        "smoothness": 0.0,
        "time": 0.010926409,
        "traj_len": 1.4750176701070472,
        "weighted_distance": 1.8655050506089579
    },
    "planner": "EST",
    "start": {
        "state": {
            "elbow_joint": 2.010868314990456,
            "shoulder_lift_joint": -1.1634956873337592,
            "shoulder_pan_joint": -2.4736205022346125,
            "wrist_1_joint": -0.8367026794202681,
            "wrist_2_joint": 0.6746043897044499,
            "wrist_3_joint": -3.1496632123970403
        }
    },
    "waypoints": [
        {
            "positions": [
                -2.4736205022346125,
                -1.1634956873337592,
                2.010868314990456,
                -0.8367026794202681,
                0.6746043897044499,
                -3.1496632123970403
            ]
        },
        {
            "positions": [
                -2.556180896791307,
                -1.1318039011922523,
                1.9673763075982165,
                -0.8222216640585662,
                0.8524553794179561,
                -3.137126551041352
            ]
        },
        {
            "positions": [
                -2.6387412913480013,
                -1.1001121150507454,
                1.9238843002059771,
                -0.8077406486968643,
                1.0303063691314625,
                -3.1245898896856636
            ]
        },
        {
            "positions": [
                -2.7213016859046952,
                -1.0684203289092384,
                1.8803922928137378,
                -0.7932596333351625,
                1.2081573588449688,
                -3.1120532283299758
            ]
        },
        {
            "positions": [
                -2.8038620804613896,
                -1.0367285427677315,
                1.8369002854214982,
                -0.7787786179734605,
                1.3860083485584749,
                -3.0995165669742875
            ]
        },
        {
            "positions": [
                -2.886422475018084,
                -1.0050367566262246,
                1.7934082780292588,
                -0.7642976026117586,
                1.5638593382719812,
                -3.086979905618599
            ]
        },
        {
            "positions": [
                -2.9689828695747784,
                -0.9733449704847178,
                1.7499162706370195,
                -0.7498165872500567,
                1.7417103279854875,
                -3.074443244262911
            ]
        }
    ]
}