{
    "goal": {
        "global_pose": {
            "orientation": {
                "w": 0.7031023502349854,
                "x": -0.7110244035720825,
                "y": 0.007748599164187908,
                "z": 0.005598929710686207
            },
            "position": {
                "x": 0.11585023208521307,
                "y": 0.44412534475326537,
                "z": 0.3711530566215515
            }
        },
        "name": "move_to_auspresseinheit_A"
    },
    "id": "EST_move_to_auspresseinheit_A_48",
    "joint_names": [
        "shoulder_pan_joint",
        "shoulder_lift_joint",
        "elbow_joint",
        "wrist_1_joint",
        "wrist_2_joint",
        "wrist_3_joint"
    ],
    "metrics": {
        "cart_traj_len": 0.7258086663695612,
        "distance_elbow_joint": 0.07960657522555259,
        "distance_shoulder_lift_joint": 0.5512558937649199,
        "distance_shoulder_pan_joint": 1.0446983432669632,
        "distance_wrist_1_joint": 0.5464885903651457,
        "distance_wrist_2_joint": 0.524466583833437,
        "distance_wrist_3_joint": 0.5362045276117944,
        "smoothness": 0.4940724366805872,
        "time": 0.630184408,
        "traj_len": 1.8118279482522102,
        "weighted_distance": 2.329395789360405
    },
    "planner": "EST",
    "start": {
        "state": {
            "elbow_joint": 2.4225746658250005,
            "shoulder_lift_joint": -1.3736534386056498,
            "shoulder_pan_joint": -0.3378633547517467,
            "wrist_1_joint": -1.0288598680537169,
            "wrist_2_joint": 1.233022673432363,
            "wrist_3_joint": -3.0940220416140027
        }
    },
    "waypoints": [
        {
            "positions": [
                -0.3378633547517467,
                -1.3736534386056498,
                2.4225746658250005,
                -1.0288598680537169,
                1.233022673432363,
                -3.0940220416140027
            ]
        },
        {
            "positions": [
                -0.18958487645063848,
                -1.4644745736768285,
                2.413832676318111,
                -0.970993321173483,
                1.195232826976089,
                -3.0520029630464585
            ]
        },
        {
            "positions": [
                -0.041306398149530243,
                -1.5552957087480073,
                2.4050906868112216,
                -0.9131267742932493,
                1.157442980519815,
                -3.0099838844789137
            ]
        },
        {
            "positions": [
                0.10697208015157805,
                -1.6461168438191862,
                2.396348697304332,
                -0.8552602274130154,
                1.1196531340635412,
                -2.967964805911369
            ]
        },
        {
            "positions": [
                0.25525055845268624,
                -1.736937978890365,
                2.3876067077974428,
                -0.7973936805327817,
                1.0818632876072671,
                -2.9259457273438247
            ]
        },
        {
            "positions": [
                0.40352903675379465,
                -1.8277591139615437,
                2.3788647182905533,
                -0.7395271336525477,
                1.044073441150993,
                -2.8839266487762805
            ]
        },
        {
            "positions": [
                0.5518075150549029,
                -1.9185802490327224,
                2.370122728783664,
                -0.681660586772314,
                1.006283594694719,
                -2.8419075702087357
            ]
        },
        {
            "positions": [
                0.6034833395416741,
                -1.9164705545867733,
                2.3791742748450693,
                -0.6152308170777331,
                0.9070410929961213,
                -2.9366042556109115
            ]
        },
        {
            "positions": [
                0.6551591640284454,
                -1.9143608601408242,
                2.3882258209064746,
                -0.5488010473831522,
                0.8077985912975237,
                -3.0313009410130873
            ]
        },
        {
            "positions": [
                0.7068349885152166,
                -1.912251165694875,
                2.39727736696788,
                -0.48237127768857113,
                0.708556089598926,
                -3.125997626415263
            ]
        }
    ]
}