{
    "goal": {
        "global_pose": {
            "orientation": {
                "w": -0.4816463035849501,
                "x": 0.5182115481033762,
                "y": 0.4908360881923453,
                "z": -0.5084816262002911
            },
            "position": {
                "x": -0.8240239810943604,
                "y": 0.19912469901144506,
                "z": 0.16403168439865112
            }
        },
        "name": "move_to_storage_D"
    },
    "id": "EST_move_to_storage_D_3",
    "joint_names": [
        "shoulder_pan_joint",
        "shoulder_lift_joint",
        "elbow_joint",
        "wrist_1_joint",
        "wrist_2_joint",
        "wrist_3_joint"
    ],
    "metrics": {
        "cart_traj_len": 0.5470803746168013,
        "distance_elbow_joint": 0.5540049401725926,
        "distance_shoulder_lift_joint": 0.15260876451129635,
        "distance_shoulder_pan_joint": 0.1715472310239507,
        "distance_wrist_1_joint": 3.9301804517478067,
        "distance_wrist_2_joint": 1.8566056322326168,
        "distance_wrist_3_joint": 3.117631849064523,
        "smoothness": 0.3168798123774633,
        "time": 0.092793995,
        "traj_len": 3.127711442693009,
        "weighted_distance": 4.669542659711147
    },
    "planner": "EST",
    "start": {
        "state": {
            "elbow_joint": -2.384821988534728,
            "shoulder_lift_joint": -2.2788054721415256,
            "shoulder_pan_joint": -0.1854694642142757,
            "wrist_1_joint": 1.4845938289331202,
            "wrist_2_joint": 0.17898776772866878,
            "wrist_3_joint": 0.037105688729662994
        }
    },
    "waypoints": [
        {
            "positions": [
                -0.1854694642142757,
                -2.2788054721415256,
                -2.384821988534728,
                1.4845938289331202,
                0.17898776772866878,
                0.037105688729662994
            ]
        },
        {
            "positions": [
                -0.023753431497173877,
                -2.244977834383414,
                -2.3293602773394966,
                1.539596464793361,
                0.21743095938227996,
                0.011807042918506289
            ]
        },
        {
            "positions": [
                -0.02416306475995926,
                -2.240028620768698,
                -2.308587642798773,
                1.3781307224647126,
                0.14167419102482143,
                -0.11704017388371729
            ]
        },
        {
            "positions": [
                -0.02457269802274464,
                -2.235079407153982,
                -2.28781500825805,
                1.216664980136064,
                0.06591742266736286,
                -0.24588739068594087
            ]
        },
        {
            "positions": [
                -0.02498233128553002,
                -2.230130193539266,
                -2.2670423737173264,
                1.0551992378074153,
                -0.009839345690095702,
                -0.37473460748816445
            ]
        },
        {
            "positions": [
                -0.025391964548315403,
                -2.22518097992455,
                -2.246269739176603,
                0.8937334954787668,
                -0.08559611404755424,
                -0.503581824290388
            ]
        },
        {
            "positions": [
                -0.025801597811100786,
                -2.220231766309834,
                -2.22549710463588,
                0.7322677531501182,
                -0.16135288240501283,
                -0.6324290410926117
            ]
        },
        {
            "positions": [
                -0.026211231073886166,
                -2.215282552695118,
                -2.2047244700951563,
                0.5708020108214696,
                -0.23710965076247137,
                -0.7612762578948352
            ]
        },
        {
            "positions": [
                -0.026620864336671546,
                -2.210333339080402,
                -2.1839518355544327,
                0.409336268492821,
                -0.31286641911992996,
                -0.8901234746970589
            ]
        },
        {
            "positions": [
                -0.02703049759945693,
                -2.205384125465686,
                -2.1631792010137096,
                0.2478705261641725,
                -0.38862318747738844,
                -1.0189706914992824
            ]
        },
        {
            "positions": [
                -0.027440130862242312,
                -2.20043491185097,
                -2.142406566472986,
                0.08640478383552397,
                -0.46437995583484704,
                -1.147817908301506
            ]
        },
        {
            "positions": [
                -0.027849764125027692,
                -2.195485698236254,
                -2.1216339319322626,
                -0.07506095849312477,
                -0.5401367241923056,
                -1.2766651251037298
            ]
        },
        {
            "positions": [
                -0.028259397387813072,
                -2.190536484621538,
                -2.1008612973915395,
                -0.23652670082177307,
                -0.6158934925497641,
                -1.4055123419059532
            ]
        },
        {
            "positions": [
                -0.028669030650598455,
                -2.1855872710068214,
                -2.080088662850816,
                -0.3979924431504218,
                -0.6916502609072227,
                -1.5343595587081769
            ]
        },
        {
            "positions": [
                -0.02907866391338384,
                -2.1806380573921054,
                -2.0593160283100924,
                -0.5594581854790701,
                -0.7674070292646812,
                -1.6632067755104003
            ]
        },
        {
            "positions": [
                -0.029488297176169218,
                -2.1756888437773894,
                -2.0385433937693693,
                -0.7209239278077191,
                -0.8431637976221399,
                -1.7920539923126242
            ]
        },
        {
            "positions": [
                -0.029897930438954598,
                -2.1707396301626734,
                -2.017770759228646,
                -0.8823896701363676,
                -0.9189205659795984,
                -1.9209012091148476
            ]
        },
        {
            "positions": [
                -0.03030756370173998,
                -2.1657904165479573,
                -1.9969981246879225,
                -1.0438554124650161,
                -0.9946773343370569,
                -2.049748425917071
            ]
        },
        {
            "positions": [
                -0.030717196964525365,
                -2.1608412029332413,
                -1.976225490147199,
                -1.2053211547936646,
                -1.0704341026945157,
                -2.1785956427192947
            ]
        },
        {
            "positions": [
                -0.031126830227310744,
                -2.1558919893185253,
                -1.9554528556064756,
                -1.3667868971223132,
                -1.146190871051974,
                -2.3074428595215184
            ]
        },
        {
            "positions": [
                -0.031536463490096124,
                -2.1509427757038093,
                -1.9346802210657523,
                -1.5282526394509617,
                -1.2219476394094326,
                -2.436290076323742
            ]
        },
        {
            "positions": [
                -0.03194609675288151,
                -2.1459935620890933,
                -1.9139075865250288,
                -1.6897183817796106,
                -1.2977044077668913,
                -2.5651372931259657
            ]
        },
        {
            "positions": [
                -0.03235573001566689,
                -2.1410443484743773,
                -1.8931349519843055,
                -1.8511841241082592,
                -1.3734611761243496,
                -2.693984509928189
            ]
        },
        {
            "positions": [
                -0.03276536327845227,
                -2.1360951348596613,
                -1.8723623174435822,
                -2.0126498664369072,
                -1.4492179444818083,
                -2.8228317267304126
            ]
        },
        {
            "positions": [
                -0.03317499654123765,
                -2.1311459212449453,
                -1.8515896829028586,
                -2.174115608765556,
                -1.524974712839267,
                -2.9516789435326363
            ]
        },
        {
            "positions": [
                -0.03358462980402303,
                -2.1261967076302293,
                -1.8308170483621353,
                -2.3355813510942047,
                -1.6007314811967255,
                -3.08052616033486
            ]
        }
    ]
}