{
    "goal": {
        "global_pose": {
            "orientation": {
                "w": -0.00223480608172531,
                "x": 0.0024358444001904467,
                "y": 0.7094548369677653,
                "z": -0.704743149386269
            },
            "position": {
                "x": -0.37947507619857795,
                "y": -0.6371506643295288,
                "z": 0.19426114857196808
            }
        },
        "name": "move_to_magneteinheit_C"
    },
    "id": "EST_move_to_magneteinheit_C_28",
    "joint_names": [
        "shoulder_pan_joint",
        "shoulder_lift_joint",
        "elbow_joint",
        "wrist_1_joint",
        "wrist_2_joint",
        "wrist_3_joint"
    ],
    "metrics": {
        "cart_traj_len": 1.2872964653872394,
        "distance_elbow_joint": 0.2492942065756476,
        "distance_shoulder_lift_joint": 0.42985909856825577,
        "distance_shoulder_pan_joint": 1.4942208332909412,
        "distance_wrist_1_joint": 0.4651678269044104,
        "distance_wrist_2_joint": 1.1436836218671893,
        "distance_wrist_3_joint": 1.0658248081432697,
        "smoothness": 1.4100567531129475,
        "time": 2.3874329110000003,
        "traj_len": 2.2018288751285175,
        "weighted_distance": 2.9306230498663344
    },
    "planner": "EST",
    "start": {
        "state": {
            "elbow_joint": 1.9565354010623817,
            "shoulder_lift_joint": -1.4165861575791021,
            "shoulder_pan_joint": -1.6717766225146293,
            "wrist_1_joint": -0.5286633292919765,
            "wrist_2_joint": 1.472756589071564,
            "wrist_3_joint": -3.1238370188695823
        }
    },
    "waypoints": [
        {
            "positions": [
                -1.6717766225146293,
                -1.4165861575791021,
                1.9565354010623817,
                -0.5286633292919765,
                1.472756589071564,
                -3.1238370188695823
            ]
        },
        {
            "positions": [
                -1.6142076174590902,
                -1.4311879654625126,
                1.9400523811529957,
                -0.5145308042982462,
                1.3102930642378274,
                -3.037887898674106
            ]
        },
        {
            "positions": [
                -1.5566386124035512,
                -1.4457897733459233,
                1.9235693612436098,
                -0.5003982793045159,
                1.147829539404091,
                -2.9519387784786293
            ]
        },
        {
            "positions": [
                -1.4990696073480123,
                -1.460391581229334,
                1.9070863413342238,
                -0.48626575431078567,
                0.9853660145703544,
                -2.865989658283153
            ]
        },
        {
            "positions": [
                -1.4415006022924732,
                -1.4749933891127445,
                1.890603321424838,
                -0.47213322931705537,
                0.822902489736618,
                -2.7800405380876767
            ]
        },
        {
            "positions": [
                -1.3839315972369342,
                -1.489595196996155,
                1.874120301515452,
                -0.45800070432332507,
                0.6604389649028813,
                -2.6940914178922
            ]
        },
        {
            "positions": [
                -1.326362592181395,
                -1.5041970048795656,
                1.857637281606066,
                -0.4438681793295948,
                0.49797544006914485,
                -2.6081422976967237
            ]
        },
        {
            "positions": [
                -1.4904778497467817,
                -1.4553043975555953,
                1.8791224369088277,
                -0.49820713317845605,
                0.522104364764112,
                -2.686732310121068
            ]
        },
        {
            "positions": [
                -1.6545931073121685,
                -1.406411790231625,
                1.9006075922115895,
                -0.5525460870273173,
                0.5462332894590792,
                -2.7653223225454124
            ]
        },
        {
            "positions": [
                -1.8187083648775553,
                -1.3575191829076547,
                1.9220927475143512,
                -0.6068850408761786,
                0.5703622141540464,
                -2.843912334969757
            ]
        },
        {
            "positions": [
                -1.9828236224429419,
                -1.3086265755836843,
                1.9435779028171127,
                -0.6612239947250398,
                0.5944911388490137,
                -2.9225023473941016
            ]
        },
        {
            "positions": [
                -2.146938880008329,
                -1.259733968259714,
                1.9650630581198745,
                -0.715562948573901,
                0.6186200635439809,
                -3.001092359818446
            ]
        },
        {
            "positions": [
                -2.3110541375737155,
                -1.2108413609357438,
                1.9865482134226362,
                -0.7699019024227622,
                0.6427489882389481,
                -3.0796823722427904
            ]
        },
        {
            "positions": [
                -2.475169395139102,
                -1.1619487536117734,
                2.008033368725398,
                -0.8242408562716236,
                0.6668779129339153,
                -3.158272384667135
            ]
        }
    ]
}