{
    "goal": {
        "global_pose": {
            "orientation": {
                "w": -0.4816463035849501,
                "x": 0.5182115481033762,
                "y": 0.4908360881923453,
                "z": -0.5084816262002911
            },
            "position": {
                "x": -0.8240239810943604,
                "y": -0.300875300988555,
                "z": 0.16403168439865112
            }
        },
        "name": "move_to_storage_C"
    },
    "id": "EST_move_to_storage_C_83",
    "joint_names": [
        "shoulder_pan_joint",
        "shoulder_lift_joint",
        "elbow_joint",
        "wrist_1_joint",
        "wrist_2_joint",
        "wrist_3_joint"
    ],
    "metrics": {
        "cart_traj_len": 0.5768538895883696,
        "distance_elbow_joint": 0.2571405313824364,
        "distance_shoulder_lift_joint": 0.1890417745590217,
        "distance_shoulder_pan_joint": 0.49486915200121917,
        "distance_wrist_1_joint": 0.07666021863494554,
        "distance_wrist_2_joint": 1.0707446384666355,
        "distance_wrist_3_joint": 0.0735925774720898,
        "smoothness": 0.0,
        "time": 0.031414944,
        "traj_len": 1.470390727839491,
        "weighted_distance": 1.8592038362057317
    },
    "planner": "EST",
    "start": {
        "state": {
            "elbow_joint": 2.010868314990456,
            "shoulder_lift_joint": -1.1634956873337592,
            "shoulder_pan_joint": -2.4736205022346125,
            "wrist_1_joint": -0.8367026794202681,
            "wrist_2_joint": 0.6746043897044499,
            "wrist_3_joint": -3.1496632123970403
        }
    },
    "waypoints": [
        {
            "positions": [
                -2.4736205022346125,
                -1.1634956873337592,
                2.010868314990456,
                -0.8367026794202681,
                0.6746043897044499,
                -3.1496632123970403
            ]
        },
        {
            "positions": [
                -2.556098694234816,
                -1.1319887249072556,
                1.9680115597600498,
                -0.8239259763144439,
                0.8530618294488892,
                -3.1373977828183586
            ]
        },
        {
            "positions": [
                -2.6385768862350187,
                -1.100481762480752,
                1.9251548045296436,
                -0.8111492732086196,
                1.0315192691933284,
                -3.125132353239677
            ]
        },
        {
            "positions": [
                -2.721055078235222,
                -1.0689748000542483,
                1.8822980492992376,
                -0.7983725701027953,
                1.2099767089377678,
                -3.112866923660995
            ]
        },
        {
            "positions": [
                -2.8035332702354254,
                -1.0374678376277446,
                1.8394412940688316,
                -0.785595866996971,
                1.3884341486822067,
                -3.100601494082314
            ]
        },
        {
            "positions": [
                -2.8860114622356283,
                -1.005960875201241,
                1.7965845388384254,
                -0.7728191638911468,
                1.566891588426646,
                -3.088336064503632
            ]
        },
        {
            "positions": [
                -2.9684896542358317,
                -0.9744539127747375,
                1.7537277836080194,
                -0.7600424607853226,
                1.7453490281710855,
                -3.0760706349249505
            ]
        }
    ]
}