{
    "goal": {
        "global_pose": {
            "orientation": {
                "w": 0.005598929693374612,
                "x": 0.007748599140229565,
                "y": 0.7110244013736278,
                "z": -0.7031023480610252
            },
            "position": {
                "x": 0.1141497679147869,
                "y": -0.7141253447532654,
                "z": 0.3711530566215515
            }
        },
        "name": "move_to_auspresseinheit_B"
    },
    "id": "EST_move_to_auspresseinheit_B_37",
    "joint_names": [
        "shoulder_pan_joint",
        "shoulder_lift_joint",
        "elbow_joint",
        "wrist_1_joint",
        "wrist_2_joint",
        "wrist_3_joint"
    ],
    "metrics": {
        "cart_traj_len": 0.5640905004249099,
        "distance_elbow_joint": 0.06255615608117071,
        "distance_shoulder_lift_joint": 0.2952929565049087,
        "distance_shoulder_pan_joint": 0.577479678312097,
        "distance_wrist_1_joint": 0.3283148048174114,
        "distance_wrist_2_joint": 0.9869176377983833,
        "distance_wrist_3_joint": 0.007099784221227257,
        "smoothness": 0.0,
        "time": 0.250079708,
        "traj_len": 1.5025515025233573,
        "weighted_distance": 1.893962256433176
    },
    "planner": "EST",
    "start": {
        "state": {
            "elbow_joint": 2.0193083361928714,
            "shoulder_lift_joint": -1.1220246554650708,
            "shoulder_pan_joint": -1.0952077554168747,
            "wrist_1_joint": -0.8559753972642168,
            "wrist_2_joint": 0.4759566250798843,
            "wrist_3_joint": -3.1240929996934557
        }
    },
    "waypoints": [
        {
            "positions": [
                -1.0952077554168747,
                -1.1220246554650708,
                2.0193083361928714,
                -0.8559753972642168,
                0.4759566250798843,
                -3.1240929996934557
            ]
        },
        {
            "positions": [
                -1.1914543684688907,
                -1.171240148215889,
                2.008882310179343,
                -0.8012562631279816,
                0.6404428980462815,
                -3.122909702323251
            ]
        },
        {
            "positions": [
                -1.287700981520907,
                -1.2204556409667071,
                1.9984562841658144,
                -0.7465371289917463,
                0.8049291710126787,
                -3.1217264049530464
            ]
        },
        {
            "positions": [
                -1.3839475945729232,
                -1.2696711337175253,
                1.988030258152286,
                -0.6918179948555111,
                0.9694154439790759,
                -3.120543107582842
            ]
        },
        {
            "positions": [
                -1.4801942076249393,
                -1.3188866264683432,
                1.9776042321387577,
                -0.6370988607192759,
                1.133901716945473,
                -3.1193598102126376
            ]
        },
        {
            "positions": [
                -1.5764408206769556,
                -1.3681021192191614,
                1.9671782061252292,
                -0.5823797265830406,
                1.2983879899118704,
                -3.118176512842433
            ]
        },
        {
            "positions": [
                -1.6726874337289717,
                -1.4173176119699795,
                1.9567521801117007,
                -0.5276605924468054,
                1.4628742628782676,
                -3.1169932154722284
            ]
        }
    ]
}