{
    "goal": {
        "global_pose": {
            "orientation": {
                "w": 0.7031023502349854,
                "x": -0.7110244035720825,
                "y": 0.007748599164187908,
                "z": 0.005598929710686207
            },
            "position": {
                "x": 0.11585023208521307,
                "y": 0.44412534475326537,
                "z": 0.3711530566215515
            }
        },
        "name": "move_to_auspresseinheit_A"
    },
    "id": "EST_move_to_auspresseinheit_A_45",
    "joint_names": [
        "shoulder_pan_joint",
        "shoulder_lift_joint",
        "elbow_joint",
        "wrist_1_joint",
        "wrist_2_joint",
        "wrist_3_joint"
    ],
    "metrics": {
        "cart_traj_len": 0.7711891181455571,
        "distance_elbow_joint": 0.6037932332340823,
        "distance_shoulder_lift_joint": 0.5309748404388428,
        "distance_shoulder_pan_joint": 1.0428048289307754,
        "distance_wrist_1_joint": 1.9018276421663352,
        "distance_wrist_2_joint": 0.6573557486752291,
        "distance_wrist_3_joint": 1.0078769151501459,
        "smoothness": 1.2241965345954795,
        "time": 0.059999959,
        "traj_len": 2.3967964470508147,
        "weighted_distance": 3.2124088204550283
    },
    "planner": "EST",
    "start": {
        "state": {
            "elbow_joint": 2.4225746658250005,
            "shoulder_lift_joint": -1.3736534386056498,
            "shoulder_pan_joint": -0.3378633547517467,
            "wrist_1_joint": -1.0288598680537169,
            "wrist_2_joint": 1.233022673432363,
            "wrist_3_joint": -3.0940220416140027
        }
    },
    "waypoints": [
        {
            "positions": [
                -0.3378633547517467,
                -1.3736534386056498,
                2.4225746658250005,
                -1.0288598680537169,
                1.233022673432363,
                -3.0940220416140027
            ]
        },
        {
            "positions": [
                -0.28610191978254085,
                -1.417934154570541,
                2.387223413914827,
                -0.8915931193926661,
                1.1669106291469595,
                -3.040257378896099
            ]
        },
        {
            "positions": [
                -0.23434048481333497,
                -1.4622148705354325,
                2.351872162004654,
                -0.7543263707316152,
                1.1007985848615562,
                -2.986492716178195
            ]
        },
        {
            "positions": [
                -0.1825790498441291,
                -1.5064955865003238,
                2.3165209100944804,
                -0.6170596220705645,
                1.0346865405761527,
                -2.932728053460291
            ]
        },
        {
            "positions": [
                -0.13081761487492322,
                -1.550776302465215,
                2.2811696581843073,
                -0.4797928734095137,
                0.9685744962907494,
                -2.878963390742387
            ]
        },
        {
            "positions": [
                -0.07905617990571728,
                -1.5950570184301065,
                2.2458184062741338,
                -0.3425261247484629,
                0.9024624520053459,
                -2.8251987280244832
            ]
        },
        {
            "positions": [
                -0.02729474493651146,
                -1.6393377343949977,
                2.2104671543639607,
                -0.20525937608741218,
                0.8363504077199426,
                -2.7714340653065794
            ]
        },
        {
            "positions": [
                0.02446669003269447,
                -1.683618450359889,
                2.175115902453787,
                -0.06799262742636125,
                0.7702383634345391,
                -2.717669402588675
            ]
        },
        {
            "positions": [
                0.0762281250019003,
                -1.7278991663247805,
                2.139764650543614,
                0.06927412123468946,
                0.7041263191491357,
                -2.6639047398707714
            ]
        },
        {
            "positions": [
                0.12798955997110623,
                -1.7721798822896717,
                2.1044133986334406,
                0.20654086989574022,
                0.6380142748637323,
                -2.6101400771528676
            ]
        },
        {
            "positions": [
                0.2241482123390933,
                -1.794254615082142,
                2.1520187263071944,
                0.09546971919292727,
                0.6484054998814986,
                -2.6974725689343693
            ]
        },
        {
            "positions": [
                0.32030686470708036,
                -1.816329347874612,
                2.199624053980948,
                -0.015601431509885688,
                0.6587967248992651,
                -2.784805060715871
            ]
        },
        {
            "positions": [
                0.41646551707506746,
                -1.838404080667082,
                2.2472293816547015,
                -0.12667258221269867,
                0.6691879499170315,
                -2.8721375524973727
            ]
        },
        {
            "positions": [
                0.5126241694430544,
                -1.8604788134595522,
                2.2948347093284553,
                -0.2377437329155116,
                0.6795791749347978,
                -2.959470044278875
            ]
        },
        {
            "positions": [
                0.6087828218110416,
                -1.8825535462520224,
                2.342440037002209,
                -0.34881488361832463,
                0.6899703999525643,
                -3.0468025360603765
            ]
        },
        {
            "positions": [
                0.7049414741790287,
                -1.9046282790444926,
                2.390045364675963,
                -0.4598860343211376,
                0.7003616249703306,
                -3.1341350278418783
            ]
        }
    ]
}