{
    "goal": {
        "global_pose": {
            "orientation": {
                "w": 0.7031023502349854,
                "x": -0.7110244035720825,
                "y": 0.007748599164187908,
                "z": 0.005598929710686207
            },
            "position": {
                "x": 0.11585023208521307,
                "y": 0.44412534475326537,
                "z": 0.3711530566215515
            }
        },
        "name": "move_to_auspresseinheit_A"
    },
    "id": "EST_move_to_auspresseinheit_A_115",
    "joint_names": [
        "shoulder_pan_joint",
        "shoulder_lift_joint",
        "elbow_joint",
        "wrist_1_joint",
        "wrist_2_joint",
        "wrist_3_joint"
    ],
    "metrics": {
        "cart_traj_len": 2.8110579387906505,
        "distance_elbow_joint": 3.583359898876669,
        "distance_shoulder_lift_joint": 0.827916931356987,
        "distance_shoulder_pan_joint": 1.9334746669562541,
        "distance_wrist_1_joint": 0.7435043847102888,
        "distance_wrist_2_joint": 0.9463736164405584,
        "distance_wrist_3_joint": 5.660414027749251,
        "smoothness": 0.6351762505480432,
        "time": 0.424590517,
        "traj_len": 3.7006814948182187,
        "weighted_distance": 5.167760596500128
    },
    "planner": "EST",
    "start": {
        "state": {
            "elbow_joint": 2.4225746658250005,
            "shoulder_lift_joint": -1.3736534386056498,
            "shoulder_pan_joint": -0.3378633547517467,
            "wrist_1_joint": -1.0288598680537169,
            "wrist_2_joint": 1.233022673432363,
            "wrist_3_joint": -3.0940220416140027
        }
    },
    "waypoints": [
        {
            "positions": [
                -0.3378633547517467,
                -1.3736534386056498,
                2.4225746658250005,
                -1.0288598680537169,
                1.233022673432363,
                -3.0940220416140027
            ]
        },
        {
            "positions": [
                -0.3054362538750345,
                -1.37793611466209,
                2.3020638216427307,
                -1.0202880245356365,
                1.210199003200481,
                -2.907208093926737
            ]
        },
        {
            "positions": [
                -0.2730091529983222,
                -1.3822187907185304,
                2.1815529774604605,
                -1.0117161810175563,
                1.1873753329685988,
                -2.720394146239471
            ]
        },
        {
            "positions": [
                -0.24058205212160988,
                -1.3865014667749707,
                2.0610421332781907,
                -1.003144337499476,
                1.1645516627367167,
                -2.5335801985522046
            ]
        },
        {
            "positions": [
                -0.20815495124489763,
                -1.390784142831411,
                1.9405312890959208,
                -0.9945724939813958,
                1.1417279925048345,
                -2.346766250864939
            ]
        },
        {
            "positions": [
                -0.17572785036818536,
                -1.3950668188878512,
                1.820020444913651,
                -0.9860006504633155,
                1.1189043222729524,
                -2.159952303177673
            ]
        },
        {
            "positions": [
                -0.14330074949147306,
                -1.3993494949442915,
                1.699509600731381,
                -0.9774288069452353,
                1.0960806520410702,
                -1.973138355490407
            ]
        },
        {
            "positions": [
                -0.11087364861476079,
                -1.4036321710007318,
                1.5789987565491113,
                -0.9688569634271549,
                1.0732569818091882,
                -1.786324407803141
            ]
        },
        {
            "positions": [
                -0.07844654773804854,
                -1.407914847057172,
                1.458487912366841,
                -0.9602851199090747,
                1.050433311577306,
                -1.5995104601158752
            ]
        },
        {
            "positions": [
                -0.046019446861336244,
                -1.4121975231136124,
                1.3379770681845713,
                -0.9517132763909943,
                1.0276096413454239,
                -1.4126965124286093
            ]
        },
        {
            "positions": [
                -0.013592345984623999,
                -1.4164801991700526,
                1.2174662240023015,
                -0.9431414328729141,
                1.0047859711135416,
                -1.2258825647413434
            ]
        },
        {
            "positions": [
                0.018834754892088246,
                -1.420762875226493,
                1.0969553798200316,
                -0.9345695893548338,
                0.9819623008816596,
                -1.0390686170540775
            ]
        },
        {
            "positions": [
                0.0512618557688006,
                -1.4250455512829332,
                0.9764445356377616,
                -0.9259977458367535,
                0.9591386306497773,
                -0.8522546693668112
            ]
        },
        {
            "positions": [
                0.08368895664551285,
                -1.4293282273393735,
                0.8559336914554916,
                -0.9174259023186733,
                0.9363149604178953,
                -0.6654407216795453
            ]
        },
        {
            "positions": [
                0.11611605752222515,
                -1.4336109033958138,
                0.7354228472732218,
                -0.908854058800593,
                0.9134912901860132,
                -0.4786267739922794
            ]
        },
        {
            "positions": [
                0.1485431583989374,
                -1.437893579452254,
                0.6149120030909518,
                -0.9002822152825127,
                0.890667619954131,
                -0.2918128263050135
            ]
        },
        {
            "positions": [
                0.22003648194044004,
                -1.481960711606375,
                0.6924417269574177,
                -0.8622967214321381,
                0.8623406389085817,
                -0.40691551459669023
            ]
        },
        {
            "positions": [
                0.2915298054819427,
                -1.526027843760496,
                0.7699714508238836,
                -0.8243112275817635,
                0.8340136578630324,
                -0.522018202888367
            ]
        },
        {
            "positions": [
                0.36302312902344536,
                -1.570094975914617,
                0.8475011746903496,
                -0.7863257337313888,
                0.8056866768174831,
                -0.6371208911800438
            ]
        },
        {
            "positions": [
                0.434516452564948,
                -1.614162108068738,
                0.9250308985568154,
                -0.7483402398810142,
                0.7773596957719338,
                -0.7522235794717205
            ]
        },
        {
            "positions": [
                0.5060097761064506,
                -1.6582292402228591,
                1.0025606224232813,
                -0.7103547460306394,
                0.7490327147263844,
                -0.8673262677633974
            ]
        },
        {
            "positions": [
                0.5775030996479533,
                -1.70229637237698,
                1.0800903462897473,
                -0.6723692521802648,
                0.7207057336808351,
                -0.9824289560550741
            ]
        },
        {
            "positions": [
                0.6489964231894559,
                -1.746363504531101,
                1.1576200701562132,
                -0.6343837583298901,
                0.6923787526352858,
                -1.0975316443467509
            ]
        },
        {
            "positions": [
                0.7204897467309586,
                -1.790430636685222,
                1.235149794022679,
                -0.5963982644795155,
                0.6640517715897366,
                -1.2126343326384275
            ]
        },
        {
            "positions": [
                0.7919830702724613,
                -1.8344977688393431,
                1.312679517889145,
                -0.5584127706291409,
                0.6357247905441872,
                -1.3277370209301045
            ]
        },
        {
            "positions": [
                0.8634763938139639,
                -1.878564900993464,
                1.390209241755611,
                -0.5204272767787661,
                0.6073978094986379,
                -1.4428397092217813
            ]
        },
        {
            "positions": [
                0.9349697173554665,
                -1.922632033147585,
                1.4677389656220767,
                -0.4824417829283915,
                0.5790708284530887,
                -1.5579423975134579
            ]
        },
        {
            "positions": [
                1.006463040896969,
                -1.9666991653017059,
                1.5452686894885426,
                -0.4444562890780169,
                0.5507438474075393,
                -1.6730450858051347
            ]
        },
        {
            "positions": [
                1.0779563644384718,
                -2.010766297455827,
                1.6227984133550086,
                -0.4064707952276422,
                0.52241686636199,
                -1.7881477740968115
            ]
        },
        {
            "positions": [
                1.1494496879799745,
                -2.054833429609948,
                1.7003281372214745,
                -0.3684853013772676,
                0.4940898853164407,
                -1.9032504623884883
            ]
        },
        {
            "positions": [
                1.1120230319274038,
                -2.0502934122724654,
                1.8205198207058775,
                -0.37167586772244543,
                0.5186728557299545,
                -2.099505230985188
            ]
        },
        {
            "positions": [
                1.0745963758748331,
                -2.0457533949349833,
                1.9407115041902805,
                -0.37486643406762327,
                0.5432558261434682,
                -2.295759999581888
            ]
        },
        {
            "positions": [
                1.0371697198222627,
                -2.0412133775975008,
                2.0609031876746835,
                -0.3780570004128011,
                0.5678387965569821,
                -2.4920147681785876
            ]
        },
        {
            "positions": [
                0.999743063769692,
                -2.0366733602600187,
                2.1810948711590865,
                -0.38124756675797894,
                0.5924217669704959,
                -2.6882695367752873
            ]
        },
        {
            "positions": [
                0.9623164077171213,
                -2.032133342922536,
                2.3012865546434895,
                -0.3844381331031568,
                0.6170047373840096,
                -2.884524305371987
            ]
        },
        {
            "positions": [
                0.8909090810376401,
                -2.0000537192638586,
                2.3415140348396326,
                -0.4027863407609498,
                0.6429695270137846,
                -2.9787276120294734
            ]
        },
        {
            "positions": [
                0.8195017543581588,
                -1.9679740956051808,
                2.381741515035776,
                -0.42113454841874287,
                0.6689343166435596,
                -3.0729309186869602
            ]
        },
        {
            "positions": [
                0.703288063755442,
                -1.9080964892572592,
                2.3906092392335725,
                -0.4516151194111071,
                0.7015307136410768,
                -3.150017638745275
            ]
        }
    ]
}