{
    "goal": {
        "global_pose": {
            "orientation": {
                "w": 0.005598929693374612,
                "x": 0.007748599140229565,
                "y": 0.7110244013736278,
                "z": -0.7031023480610252
            },
            "position": {
                "x": 0.1141497679147869,
                "y": -0.7141253447532654,
                "z": 0.3711530566215515
            }
        },
        "name": "move_to_auspresseinheit_B"
    },
    "id": "EST_move_to_auspresseinheit_B_5",
    "joint_names": [
        "shoulder_pan_joint",
        "shoulder_lift_joint",
        "elbow_joint",
        "wrist_1_joint",
        "wrist_2_joint",
        "wrist_3_joint"
    ],
    "metrics": {
        "cart_traj_len": 0.565351013577229,
        "distance_elbow_joint": 0.05988550488091038,
        "distance_shoulder_lift_joint": 0.2952808902740385,
        "distance_shoulder_pan_joint": 0.5788118985489958,
        "distance_wrist_1_joint": 0.31659088199026175,
        "distance_wrist_2_joint": 0.9898244235005529,
        "distance_wrist_3_joint": 0.005627376710823029,
        "smoothness": 5.075305255429287e-16,
        "time": 0.344764877,
        "traj_len": 1.4986730717223093,
        "weighted_distance": 1.8877740952820714
    },
    "planner": "EST",
    "start": {
        "state": {
            "elbow_joint": 2.0193083361928714,
            "shoulder_lift_joint": -1.1220246554650708,
            "shoulder_pan_joint": -1.0952077554168747,
            "wrist_1_joint": -0.8559753972642168,
            "wrist_2_joint": 0.4759566250798843,
            "wrist_3_joint": -3.1240929996934557
        }
    },
    "waypoints": [
        {
            "positions": [
                -1.0952077554168747,
                -1.1220246554650708,
                2.0193083361928714,
                -0.8559753972642168,
                0.4759566250798843,
                -3.1240929996934557
            ]
        },
        {
            "positions": [
                -1.1916764051750406,
                -1.1712381371774105,
                2.0093274187127195,
                -0.8032102502658398,
                0.6409273623299765,
                -3.125030895811926
            ]
        },
        {
            "positions": [
                -1.2881450549332065,
                -1.2204516188897503,
                1.999346501232568,
                -0.7504451032674628,
                0.8058980995800686,
                -3.1259687919303967
            ]
        },
        {
            "positions": [
                -1.3846137046913727,
                -1.26966510060209,
                1.9893655837524162,
                -0.6976799562690859,
                0.9708688368301608,
                -3.126906688048867
            ]
        },
        {
            "positions": [
                -1.4810823544495384,
                -1.3188785823144298,
                1.9793846662722645,
                -0.644914809270709,
                1.135839574080253,
                -3.1278445841673377
            ]
        },
        {
            "positions": [
                -1.5775510042077046,
                -1.3680920640267695,
                1.9694037487921128,
                -0.5921496622723319,
                1.300810311330345,
                -3.128782480285808
            ]
        },
        {
            "positions": [
                -1.6740196539658705,
                -1.4173055457391093,
                1.959422831311961,
                -0.539384515273955,
                1.4657810485804372,
                -3.1297203764042787
            ]
        }
    ]
}