{
    "goal": {
        "global_pose": {
            "orientation": {
                "w": -0.00223480608172531,
                "x": 0.0024358444001904467,
                "y": 0.7094548369677653,
                "z": -0.704743149386269
            },
            "position": {
                "x": 0.6205249238014221,
                "y": -0.6371506643295288,
                "z": 0.19426114857196808
            }
        },
        "name": "move_to_magneteinheit_B"
    },
    "id": "EST_move_to_magneteinheit_B_35",
    "joint_names": [
        "shoulder_pan_joint",
        "shoulder_lift_joint",
        "elbow_joint",
        "wrist_1_joint",
        "wrist_2_joint",
        "wrist_3_joint"
    ],
    "metrics": {
        "cart_traj_len": 2.9747173539792042,
        "distance_elbow_joint": 4.621624641169442,
        "distance_shoulder_lift_joint": 1.0575098055507413,
        "distance_shoulder_pan_joint": 1.974202889092397,
        "distance_wrist_1_joint": 4.010566857214841,
        "distance_wrist_2_joint": 2.5229715077029913,
        "distance_wrist_3_joint": 0.8991125122612336,
        "smoothness": 0.6533892443737342,
        "time": 0.6533186820000001,
        "traj_len": 3.8840685129116417,
        "weighted_distance": 4.839189147205546
    },
    "planner": "EST",
    "start": {
        "state": {
            "elbow_joint": 2.6216224122426386,
            "shoulder_lift_joint": -1.4174107377796124,
            "shoulder_pan_joint": 0.7066234856936794,
            "wrist_1_joint": 1.9546482284002225,
            "wrist_2_joint": -0.7096286983471962,
            "wrist_3_joint": 0.005740856962016249
        }
    },
    "waypoints": [
        {
            "positions": [
                0.7066234856936794,
                -1.4174107377796124,
                2.6216224122426386,
                1.9546482284002225,
                -0.7096286983471962,
                0.005740856962016249
            ]
        },
        {
            "positions": [
                0.7274705603970452,
                -1.5056756530276632,
                2.5849934428857915,
                1.8794998075444835,
                -0.8065805513935931,
                0.06722785330278859
            ]
        },
        {
            "positions": [
                0.7483176351004109,
                -1.5939405682757137,
                2.548364473528944,
                1.8043513866887446,
                -0.90353240443999,
                0.12871484964356095
            ]
        },
        {
            "positions": [
                0.7691647098037768,
                -1.6822054835237643,
                2.511735504172097,
                1.729202965833006,
                -1.000484257486387,
                0.1902018459843333
            ]
        },
        {
            "positions": [
                0.7900117845071426,
                -1.7704703987718151,
                2.4751065348152497,
                1.654054544977267,
                -1.097436110532784,
                0.25168884232510563
            ]
        },
        {
            "positions": [
                0.8108588592105084,
                -1.858735314019866,
                2.438477565458402,
                1.578906124121528,
                -1.1943879635791808,
                0.313175838665878
            ]
        },
        {
            "positions": [
                0.8317059339138742,
                -1.9470002292679165,
                2.401848596101555,
                1.5037577032657892,
                -1.2913398166255776,
                0.3746628350066503
            ]
        },
        {
            "positions": [
                0.9007995868508953,
                -1.9507691482234222,
                2.2231600412405386,
                1.4147694677353466,
                -1.2541382176236706,
                0.35651557141616813
            ]
        },
        {
            "positions": [
                0.9698932397879165,
                -1.9545380671789279,
                2.0444714863795226,
                1.3257812322049038,
                -1.2169366186217636,
                0.33836830782568594
            ]
        },
        {
            "positions": [
                1.0389868927249377,
                -1.9583069861344335,
                1.8657829315185062,
                1.2367929966744613,
                -1.1797350196198568,
                0.32022104423520376
            ]
        },
        {
            "positions": [
                1.108080545661959,
                -1.9620759050899392,
                1.68709437665749,
                1.1478047611440187,
                -1.1425334206179498,
                0.30207378064472157
            ]
        },
        {
            "positions": [
                1.17717419859898,
                -1.965844824045445,
                1.5084058217964738,
                1.058816525613576,
                -1.1053318216160428,
                0.2839265170542394
            ]
        },
        {
            "positions": [
                1.2462678515360013,
                -1.9696137430009504,
                1.3297172669354576,
                0.9698282900831334,
                -1.0681302226141358,
                0.2657792534637572
            ]
        },
        {
            "positions": [
                1.3153615044730227,
                -1.973382661956456,
                1.1510287120744411,
                0.8808400545526908,
                -1.0309286236122288,
                0.247631989873275
            ]
        },
        {
            "positions": [
                1.3844551574100437,
                -1.9771515809119617,
                0.9723401572134249,
                0.7918518190222482,
                -0.9937270246103218,
                0.22948472628279284
            ]
        },
        {
            "positions": [
                1.453548810347065,
                -1.9809204998674674,
                0.7936516023524087,
                0.7028635834918056,
                -0.9565254256084148,
                0.21133746269231066
            ]
        },
        {
            "positions": [
                1.522642463284086,
                -1.9846894188229731,
                0.6149630474913925,
                0.613875347961363,
                -0.9193238266065079,
                0.19319019910182847
            ]
        },
        {
            "positions": [
                1.5917361162211074,
                -1.9884583377784788,
                0.4362744926303761,
                0.5248871124309203,
                -0.8821222276046009,
                0.17504293551134628
            ]
        },
        {
            "positions": [
                1.6608297691581284,
                -1.9922272567339845,
                0.2575859377693601,
                0.4358988769004777,
                -0.844920628602694,
                0.1568956719208641
            ]
        },
        {
            "positions": [
                1.7299234220951498,
                -1.9959961756894902,
                0.0788973829083437,
                0.34691064137003513,
                -0.807719029600787,
                0.13874840833038193
            ]
        },
        {
            "positions": [
                1.799017075032171,
                -1.9997650946449959,
                -0.09979117195267273,
                0.25792240583959236,
                -0.77051743059888,
                0.12060114473989969
            ]
        },
        {
            "positions": [
                1.8681107279691922,
                -2.0035340136005013,
                -0.2784797268136887,
                0.1689341703091498,
                -0.733315831596973,
                0.10245388114941756
            ]
        },
        {
            "positions": [
                1.9372043809062134,
                -2.0073029325560072,
                -0.45716828167470513,
                0.07994593477870726,
                -0.6961142325950661,
                0.08430661755893537
            ]
        },
        {
            "positions": [
                2.006298033843234,
                -2.0110718515115127,
                -0.6358568365357211,
                -0.009042300751735288,
                -0.6589126335931592,
                0.06615935396845318
            ]
        },
        {
            "positions": [
                2.0753916867802555,
                -2.0148407704670186,
                -0.8145453913967375,
                -0.09803053628217806,
                -0.6217110345912521,
                0.048012090377970995
            ]
        },
        {
            "positions": [
                2.144485339717277,
                -2.018609689422524,
                -0.993233946257754,
                -0.1870187718126206,
                -0.5845094355893452,
                0.029864826787488807
            ]
        },
        {
            "positions": [
                2.2135789926542984,
                -2.02237860837803,
                -1.17192250111877,
                -0.27600700734306316,
                -0.5473078365874382,
                0.01171756319700662
            ]
        },
        {
            "positions": [
                2.2826726455913193,
                -2.0261475273335354,
                -1.350611055979786,
                -0.3649952428735057,
                -0.5101062375855313,
                -0.006429700393475568
            ]
        },
        {
            "positions": [
                2.3517662985283403,
                -2.0299164462890413,
                -1.5292996108408028,
                -0.4539834784039485,
                -0.4729046385836242,
                -0.024576963983957756
            ]
        },
        {
            "positions": [
                2.4208599514653617,
                -2.033685365244547,
                -1.707988165701819,
                -0.5429717139343913,
                -0.4357030395817173,
                -0.04272422757443996
            ]
        },
        {
            "positions": [
                2.4155322194854785,
                -2.0906266198769368,
                -1.7721126416554922,
                -0.4417467793849402,
                -0.479046483138416,
                0.006006015691565399
            ]
        },
        {
            "positions": [
                2.4102044875055957,
                -2.1475678745093267,
                -1.8362371176091654,
                -0.3405218448354892,
                -0.5223899266951147,
                0.054736258957570755
            ]
        },
        {
            "positions": [
                2.441368357425714,
                -2.1884869581119553,
                -1.8157664786944607,
                -0.17670971411282332,
                -0.39752283603669564,
                0.05281838581963351
            ]
        },
        {
            "positions": [
                2.472532227345833,
                -2.2294060417145833,
                -1.7952958397797558,
                -0.012897583390157452,
                -0.2726557453782765,
                0.050900512681696264
            ]
        },
        {
            "positions": [
                2.5036960972659514,
                -2.270325125317212,
                -1.7748252008650511,
                0.15091454733250842,
                -0.14778865471985742,
                0.048982639543759025
            ]
        },
        {
            "positions": [
                2.53485996718607,
                -2.31124420891984,
                -1.7543545619503464,
                0.3147266780551743,
                -0.022921564061438304,
                0.04706476640582178
            ]
        },
        {
            "positions": [
                2.5660238371061888,
                -2.3521632925224685,
                -1.7338839230356415,
                0.47853880877784016,
                0.10194552659698075,
                0.045146893267884534
            ]
        },
        {
            "positions": [
                2.597187707026307,
                -2.393082376125097,
                -1.7134132841209369,
                0.642350939500506,
                0.22681261725539992,
                0.043229020129947296
            ]
        },
        {
            "positions": [
                2.628351576946426,
                -2.434001459727725,
                -1.692942645206232,
                0.8061630702231719,
                0.3516797079138191,
                0.04131114699201005
            ]
        },
        {
            "positions": [
                2.6595154468665445,
                -2.4749205433303536,
                -1.6724720062915273,
                0.9699752009458378,
                0.47654679857223814,
                0.039393273854072805
            ]
        }
    ]
}