{
    "goal": {
        "global_pose": {
            "orientation": {
                "w": 0.005598929693374612,
                "x": 0.007748599140229565,
                "y": 0.7110244013736278,
                "z": -0.7031023480610252
            },
            "position": {
                "x": -0.8858502320852131,
                "y": -0.7141253447532654,
                "z": 0.3711530566215515
            }
        },
        "name": "move_to_auspresseinheit_C"
    },
    "id": "EST_move_to_auspresseinheit_C_115",
    "joint_names": [
        "shoulder_pan_joint",
        "shoulder_lift_joint",
        "elbow_joint",
        "wrist_1_joint",
        "wrist_2_joint",
        "wrist_3_joint"
    ],
    "metrics": {
        "cart_traj_len": 1.0640579687307847,
        "distance_elbow_joint": 0.9868430218348738,
        "distance_shoulder_lift_joint": 0.4464805221769086,
        "distance_shoulder_pan_joint": 0.25612264680551844,
        "distance_wrist_1_joint": 0.6527824016529016,
        "distance_wrist_2_joint": 1.3494482503236198,
        "distance_wrist_3_joint": 0.6771534449745866,
        "smoothness": 0.34707425391212954,
        "time": 0.312310764,
        "traj_len": 2.0901747026907604,
        "weighted_distance": 2.7794545921266827
    },
    "planner": "EST",
    "start": {
        "state": {
            "elbow_joint": 1.7527959577737207,
            "shoulder_lift_joint": -0.9740617694225068,
            "shoulder_pan_joint": -2.967991417825858,
            "wrist_1_joint": -0.759517768980727,
            "wrist_2_joint": 1.7443932448377408,
            "wrist_3_joint": -3.0840537646736568
        }
    },
    "waypoints": [
        {
            "positions": [
                -2.967991417825858,
                -0.9740617694225068,
                1.7527959577737207,
                -0.759517768980727,
                1.7443932448377408,
                -3.0840537646736568
            ]
        },
        {
            "positions": [
                -2.9484965729085513,
                -0.9811367870335093,
                1.651512903724175,
                -0.7007892077026787,
                1.596668979149381,
                -3.0484886212551117
            ]
        },
        {
            "positions": [
                -2.929001727991245,
                -0.9882118046445117,
                1.5502298496746294,
                -0.6420606464246305,
                1.4489447134610216,
                -3.012923477836567
            ]
        },
        {
            "positions": [
                -2.9095068830739383,
                -0.9952868222555141,
                1.4489467956250837,
                -0.5833320851465822,
                1.3012204477726619,
                -2.977358334418022
            ]
        },
        {
            "positions": [
                -2.8900120381566317,
                -1.0023618398665166,
                1.3476637415755381,
                -0.5246035238685339,
                1.1534961820843024,
                -2.941793190999477
            ]
        },
        {
            "positions": [
                -2.8705171932393254,
                -1.009436857477519,
                1.2463806875259924,
                -0.4658749625904856,
                1.0057719163959424,
                -2.906228047580932
            ]
        },
        {
            "positions": [
                -2.8510223483220187,
                -1.0165118750885216,
                1.1450976334764467,
                -0.40714640131243734,
                0.8580476507075829,
                -2.870662904162387
            ]
        },
        {
            "positions": [
                -2.831527503404712,
                -1.023586892699524,
                1.043814579426901,
                -0.348417840034389,
                0.7103233850192232,
                -2.835097760743842
            ]
        },
        {
            "positions": [
                -2.812032658487406,
                -1.0306619103105266,
                0.9425315253773554,
                -0.2896892787563408,
                0.5625991193308637,
                -2.7995326173252972
            ]
        },
        {
            "positions": [
                -2.792537813570099,
                -1.037736927921529,
                0.8412484713278097,
                -0.23096071747829255,
                0.414874853642504,
                -2.763967473906752
            ]
        },
        {
            "positions": [
                -2.7656481327201794,
                -0.9101351400289002,
                0.8161499595314887,
                -0.18955226742813683,
                0.42151814001863175,
                -2.882989858642646
            ]
        },
        {
            "positions": [
                -2.7387584518702592,
                -0.7825333521362714,
                0.7910514477351678,
                -0.1481438173779811,
                0.4281614263947595,
                -3.00201224337854
            ]
        },
        {
            "positions": [
                -2.7118687710203395,
                -0.6549315642436425,
                0.7659529359388468,
                -0.10673536732782535,
                0.4348047127708873,
                -3.121034628114434
            ]
        }
    ]
}