{
    "goal": {
        "global_pose": {
            "orientation": {
                "w": 0.005598929693374612,
                "x": 0.007748599140229565,
                "y": 0.7110244013736278,
                "z": -0.7031023480610252
            },
            "position": {
                "x": -0.8858502320852131,
                "y": -0.7141253447532654,
                "z": 0.3711530566215515
            }
        },
        "name": "move_to_auspresseinheit_C"
    },
    "id": "EST_move_to_auspresseinheit_C_139",
    "joint_names": [
        "shoulder_pan_joint",
        "shoulder_lift_joint",
        "elbow_joint",
        "wrist_1_joint",
        "wrist_2_joint",
        "wrist_3_joint"
    ],
    "metrics": {
        "cart_traj_len": 0.49386611366529426,
        "distance_elbow_joint": 0.9982930045068281,
        "distance_shoulder_lift_joint": 0.3239467298935491,
        "distance_shoulder_pan_joint": 0.25686827170746707,
        "distance_wrist_1_joint": 0.6692040654107947,
        "distance_wrist_2_joint": 1.3143435493687359,
        "distance_wrist_3_joint": 0.05859713287839874,
        "smoothness": 0.0,
        "time": 0.127813461,
        "traj_len": 1.9029589469470363,
        "weighted_distance": 2.3920691115229302
    },
    "planner": "EST",
    "start": {
        "state": {
            "elbow_joint": 1.7527959577737207,
            "shoulder_lift_joint": -0.9740617694225068,
            "shoulder_pan_joint": -2.967991417825858,
            "wrist_1_joint": -0.759517768980727,
            "wrist_2_joint": 1.7443932448377408,
            "wrist_3_joint": -3.0840537646736568
        }
    },
    "waypoints": [
        {
            "positions": [
                -2.967991417825858,
                -0.9740617694225068,
                1.7527959577737207,
                -0.759517768980727,
                1.7443932448377408,
                -3.0840537646736568
            ]
        },
        {
            "positions": [
                -2.942304590655111,
                -0.9416670964331518,
                1.652966657323038,
                -0.6925973624396475,
                1.6129588899008673,
                -3.0899134779614967
            ]
        },
        {
            "positions": [
                -2.9166177634843646,
                -0.909272423443797,
                1.553137356872355,
                -0.625676955898568,
                1.4815245349639936,
                -3.0957731912493367
            ]
        },
        {
            "positions": [
                -2.8909309363136177,
                -0.876877750454442,
                1.4533080564216723,
                -0.5587565493574886,
                1.3500901800271201,
                -3.101632904537176
            ]
        },
        {
            "positions": [
                -2.8652441091428713,
                -0.8444830774650871,
                1.3534787559709893,
                -0.4918361428164091,
                1.2186558250902464,
                -3.107492617825016
            ]
        },
        {
            "positions": [
                -2.8395572819721244,
                -0.8120884044757322,
                1.2536494555203066,
                -0.42491573627532964,
                1.087221470153373,
                -3.113352331112856
            ]
        },
        {
            "positions": [
                -2.8138704548013775,
                -0.7796937314863773,
                1.1538201550696239,
                -0.3579953297342502,
                0.9557871152164993,
                -3.119212044400696
            ]
        },
        {
            "positions": [
                -2.788183627630631,
                -0.7472990584970224,
                1.0539908546189412,
                -0.29107492319317074,
                0.8243527602796258,
                -3.125071757688536
            ]
        },
        {
            "positions": [
                -2.762496800459884,
                -0.7149043855076676,
                0.9541615541682581,
                -0.22415451665209118,
                0.6929184053427522,
                -3.1309314709763756
            ]
        },
        {
            "positions": [
                -2.7368099732891378,
                -0.6825097125183126,
                0.8543322537175754,
                -0.15723411011101174,
                0.5614840504058785,
                -3.1367911842642155
            ]
        },
        {
            "positions": [
                -2.711123146118391,
                -0.6501150395289577,
                0.7545029532668925,
                -0.09031370356993232,
                0.43004969546900484,
                -3.1426508975520555
            ]
        }
    ]
}