{
    "goal": {
        "global_pose": {
            "orientation": {
                "w": 0.005598929693374612,
                "x": 0.007748599140229565,
                "y": 0.7110244013736278,
                "z": -0.7031023480610252
            },
            "position": {
                "x": 0.1141497679147869,
                "y": -0.7141253447532654,
                "z": 0.3711530566215515
            }
        },
        "name": "move_to_auspresseinheit_B"
    },
    "id": "EST_move_to_auspresseinheit_B_82",
    "joint_names": [
        "shoulder_pan_joint",
        "shoulder_lift_joint",
        "elbow_joint",
        "wrist_1_joint",
        "wrist_2_joint",
        "wrist_3_joint"
    ],
    "metrics": {
        "cart_traj_len": 0.5641957729275716,
        "distance_elbow_joint": 0.06112177851763656,
        "distance_shoulder_lift_joint": 0.29465909294154624,
        "distance_shoulder_pan_joint": 0.5741246153196431,
        "distance_wrist_1_joint": 0.3186236278727107,
        "distance_wrist_2_joint": 1.0050528117833668,
        "distance_wrist_3_joint": 0.005208300717268521,
        "smoothness": 5.075305255429287e-16,
        "time": 0.18065160400000002,
        "traj_len": 1.5029272195126988,
        "weighted_distance": 1.8954902448292332
    },
    "planner": "EST",
    "start": {
        "state": {
            "elbow_joint": 2.0193083361928714,
            "shoulder_lift_joint": -1.1220246554650708,
            "shoulder_pan_joint": -1.0952077554168747,
            "wrist_1_joint": -0.8559753972642168,
            "wrist_2_joint": 0.4759566250798843,
            "wrist_3_joint": -3.1240929996934557
        }
    },
    "waypoints": [
        {
            "positions": [
                -1.0952077554168747,
                -1.1220246554650708,
                2.0193083361928714,
                -0.8559753972642168,
                0.4759566250798843,
                -3.1240929996934557
            ]
        },
        {
            "positions": [
                -1.1908951913034818,
                -1.1711345042886618,
                2.0091213731065984,
                -0.8028714592854317,
                0.6434654270437787,
                -3.123224949573911
            ]
        },
        {
            "positions": [
                -1.286582627190089,
                -1.2202443531122529,
                1.998934410020326,
                -0.7497675213066466,
                0.8109742290076731,
                -3.122356899454366
            ]
        },
        {
            "positions": [
                -1.3822700630766962,
                -1.269354201935844,
                1.9887474469340531,
                -0.6966635833278614,
                0.9784830309715677,
                -3.1214888493348214
            ]
        },
        {
            "positions": [
                -1.4779574989633033,
                -1.318464050759435,
                1.9785604838477804,
                -0.6435596453490764,
                1.1459918329354621,
                -3.120620799215277
            ]
        },
        {
            "positions": [
                -1.5736449348499106,
                -1.367573899583026,
                1.9683735207615076,
                -0.5904557073702912,
                1.3135006348993568,
                -3.1197527490957317
            ]
        },
        {
            "positions": [
                -1.6693323707365177,
                -1.416683748406617,
                1.9581865576752349,
                -0.5373517693915061,
                1.4810094368632511,
                -3.118884698976187
            ]
        }
    ]
}