{
    "goal": {
        "global_pose": {
            "orientation": {
                "w": -0.00223480608172531,
                "x": 0.0024358444001904467,
                "y": 0.7094548369677653,
                "z": -0.704743149386269
            },
            "position": {
                "x": -0.37947507619857795,
                "y": -0.6371506643295288,
                "z": 0.19426114857196808
            }
        },
        "name": "move_to_magneteinheit_C"
    },
    "id": "EST_move_to_magneteinheit_C_118",
    "joint_names": [
        "shoulder_pan_joint",
        "shoulder_lift_joint",
        "elbow_joint",
        "wrist_1_joint",
        "wrist_2_joint",
        "wrist_3_joint"
    ],
    "metrics": {
        "cart_traj_len": 4.987689833069926,
        "distance_elbow_joint": 6.151086002980096,
        "distance_shoulder_lift_joint": 2.8332215943774774,
        "distance_shoulder_pan_joint": 2.532526858160075,
        "distance_wrist_1_joint": 8.31515708389068,
        "distance_wrist_2_joint": 2.627494379617737,
        "distance_wrist_3_joint": 7.8935885825789605,
        "smoothness": 0.5573025420103107,
        "time": 4.0197568949999996,
        "traj_len": 5.509362440573777,
        "weighted_distance": 7.555322834285203
    },
    "planner": "EST",
    "start": {
        "state": {
            "elbow_joint": 1.9565354010623817,
            "shoulder_lift_joint": -1.4165861575791021,
            "shoulder_pan_joint": -1.6717766225146293,
            "wrist_1_joint": -0.5286633292919765,
            "wrist_2_joint": 1.472756589071564,
            "wrist_3_joint": -3.1238370188695823
        }
    },
    "waypoints": [
        {
            "positions": [
                -1.6717766225146293,
                -1.4165861575791021,
                1.9565354010623817,
                -0.5286633292919765,
                1.472756589071564,
                -3.1238370188695823
            ]
        },
        {
            "positions": [
                -1.6450754032364607,
                -1.4325579049041115,
                2.0065770811783756,
                -0.6239736871028257,
                1.4416974261868079,
                -2.9669976489968626
            ]
        },
        {
            "positions": [
                -1.618374183958292,
                -1.4485296522291207,
                2.0566187612943696,
                -0.7192840449136749,
                1.4106382633020518,
                -2.810158279124143
            ]
        },
        {
            "positions": [
                -1.5916729646801233,
                -1.46450139955413,
                2.1066604414103636,
                -0.8145944027245242,
                1.3795791004172957,
                -2.653318909251423
            ]
        },
        {
            "positions": [
                -1.574273955152118,
                -1.4675395990566196,
                1.9796185551923007,
                -0.7599507339531887,
                1.3316107526339702,
                -2.517954548609658
            ]
        },
        {
            "positions": [
                -1.5568749456241129,
                -1.470577798559109,
                1.8525766689742378,
                -0.7053070651818533,
                1.2836424048506445,
                -2.3825901879678932
            ]
        },
        {
            "positions": [
                -1.5394759360961077,
                -1.4736159980615984,
                1.725534782756175,
                -0.6506633964105177,
                1.235674057067319,
                -2.2472258273261283
            ]
        },
        {
            "positions": [
                -1.5220769265681025,
                -1.476654197564088,
                1.598492896538112,
                -0.5960197276391823,
                1.1877057092839935,
                -2.1118614666843634
            ]
        },
        {
            "positions": [
                -1.5046779170400972,
                -1.4796923970665774,
                1.4714510103200489,
                -0.5413760588678467,
                1.139737361500668,
                -1.9764971060425984
            ]
        },
        {
            "positions": [
                -1.487278907512092,
                -1.482730596569067,
                1.3444091241019862,
                -0.48673239009651126,
                1.0917690137173426,
                -1.8411327454008337
            ]
        },
        {
            "positions": [
                -1.4698798979840868,
                -1.4857687960715564,
                1.217367237883923,
                -0.43208872132517573,
                1.0438006659340169,
                -1.7057683847590688
            ]
        },
        {
            "positions": [
                -1.4524808884560816,
                -1.488806995574046,
                1.0903253516658604,
                -0.3774450525538403,
                0.9958323181506914,
                -1.570404024117304
            ]
        },
        {
            "positions": [
                -1.4350818789280764,
                -1.4918451950765355,
                0.9632834654477973,
                -0.3228013837825048,
                0.9478639703673659,
                -1.4350396634755391
            ]
        },
        {
            "positions": [
                -1.4176828694000712,
                -1.4948833945790247,
                0.8362415792297344,
                -0.26815771501116925,
                0.8998956225840403,
                -1.299675302833774
            ]
        },
        {
            "positions": [
                -1.400283859872066,
                -1.4979215940815143,
                0.7091996930116715,
                -0.21351404623983383,
                0.8519272748007148,
                -1.1643109421920093
            ]
        },
        {
            "positions": [
                -1.3828848503440607,
                -1.5009597935840038,
                0.5821578067936086,
                -0.1588703774684983,
                0.8039589270173892,
                -1.0289465815502443
            ]
        },
        {
            "positions": [
                -1.3654858408160555,
                -1.5039979930864933,
                0.45511592057554573,
                -0.10422670869716288,
                0.7559905792340638,
                -0.8935822209084796
            ]
        },
        {
            "positions": [
                -1.3480868312880503,
                -1.5070361925889828,
                0.3280740343574826,
                -0.049583039925827244,
                0.7080222314507382,
                -0.7582178602667144
            ]
        },
        {
            "positions": [
                -1.330687821760045,
                -1.510074392091472,
                0.20103214813941994,
                0.005060628845508175,
                0.6600538836674126,
                -0.6228534996249495
            ]
        },
        {
            "positions": [
                -1.3132888122320399,
                -1.5131125915939616,
                0.07399026192135727,
                0.059704297616843593,
                0.6120855358840871,
                -0.487489138983185
            ]
        },
        {
            "positions": [
                -1.2958898027040346,
                -1.5161507910964511,
                -0.053051624296705846,
                0.11434796638817923,
                0.5641171881007615,
                -0.35212477834141964
            ]
        },
        {
            "positions": [
                -1.2784907931760294,
                -1.5191889905989406,
                -0.18009351051476896,
                0.16899163515951465,
                0.516148840317436,
                -0.21676041769965515
            ]
        },
        {
            "positions": [
                -1.2610917836480242,
                -1.5222271901014301,
                -0.30713539673283163,
                0.22363530393085007,
                0.46818049253411054,
                -0.08139605705789021
            ]
        },
        {
            "positions": [
                -1.243692774120019,
                -1.5252653896039197,
                -0.43417728295089475,
                0.2782789727021857,
                0.42021214475078494,
                0.053968303583875166
            ]
        },
        {
            "positions": [
                -1.2262937645920138,
                -1.5283035891064092,
                -0.5612191691689574,
                0.33292264147352113,
                0.37224379696745946,
                0.18933266422563966
            ]
        },
        {
            "positions": [
                -1.2088947550640086,
                -1.5313417886088985,
                -0.6882610553870205,
                0.38756631024485655,
                0.324275449184134,
                0.3246970248674046
            ]
        },
        {
            "positions": [
                -1.1914957455360033,
                -1.534379988111388,
                -0.8153029416050837,
                0.4422099790161922,
                0.2763071014008083,
                0.46006138550916953
            ]
        },
        {
            "positions": [
                -1.1740967360079981,
                -1.5374181876138775,
                -0.9423448278231463,
                0.4968536477875275,
                0.22833875361748276,
                0.5954257461509344
            ]
        },
        {
            "positions": [
                -1.2336269780114344,
                -1.4823003595605797,
                -0.9370515738521485,
                0.5929706768778246,
                0.2609179988416043,
                0.4542104569085783
            ]
        },
        {
            "positions": [
                -1.2931572200148704,
                -1.427182531507282,
                -0.9317583198811508,
                0.6890877059681216,
                0.29349724406572586,
                0.3129951676662223
            ]
        },
        {
            "positions": [
                -1.3526874620183067,
                -1.3720647034539843,
                -0.926465065910153,
                0.7852047350584188,
                0.3260764892898474,
                0.17177987842386633
            ]
        },
        {
            "positions": [
                -1.412217704021743,
                -1.3169468754006866,
                -0.9211718119391552,
                0.8813217641487159,
                0.3586557345139689,
                0.030564589181510282
            ]
        },
        {
            "positions": [
                -1.4717479460251792,
                -1.2618290473473888,
                -0.9158785579681574,
                0.977438793239013,
                0.3912349797380905,
                -0.11065070006084576
            ]
        },
        {
            "positions": [
                -1.5312781880286153,
                -1.206711219294091,
                -0.9105853039971596,
                1.07355582232931,
                0.42381422496221205,
                -0.2518659893032017
            ]
        },
        {
            "positions": [
                -1.5908084300320515,
                -1.1515933912407932,
                -0.9052920500261619,
                1.169672851419607,
                0.4563934701863336,
                -0.39308127854555774
            ]
        },
        {
            "positions": [
                -1.6503386720354878,
                -1.0964755631874954,
                -0.8999987960551641,
                1.2657898805099042,
                0.48897271541045517,
                -0.5342965677879138
            ]
        },
        {
            "positions": [
                -1.7098689140389238,
                -1.0413577351341976,
                -0.8947055420841663,
                1.3619069096002012,
                0.5215519606345768,
                -0.67551185703027
            ]
        },
        {
            "positions": [
                -1.76939915604236,
                -0.9862399070808999,
                -0.8894122881131685,
                1.4580239386904985,
                0.5541312058586982,
                -0.8167271462726259
            ]
        },
        {
            "positions": [
                -1.8289293980457964,
                -0.9311220790276021,
                -0.8841190341421707,
                1.5541409677807954,
                0.5867104510828198,
                -0.9579424355149818
            ]
        },
        {
            "positions": [
                -1.8884596400492324,
                -0.8760042509743045,
                -0.878825780171173,
                1.6502579968710926,
                0.6192896963069413,
                -1.0991577247573376
            ]
        },
        {
            "positions": [
                -1.9479898820526689,
                -0.8208864229210066,
                -0.8735325262001752,
                1.7463750259613895,
                0.6518689415310629,
                -1.2403730139996938
            ]
        },
        {
            "positions": [
                -2.007520124056105,
                -0.7657685948677089,
                -0.8682392722291774,
                1.8424920550516868,
                0.6844481867551845,
                -1.38158830324205
            ]
        },
        {
            "positions": [
                -2.067050366059541,
                -0.7106507668144112,
                -0.8629460182581796,
                1.9386090841419836,
                0.717027431979306,
                -1.5228035924844057
            ]
        },
        {
            "positions": [
                -2.1265806080629774,
                -0.6555329387611134,
                -0.8576527642871818,
                2.034726113232281,
                0.7496066772034276,
                -1.6640188817267618
            ]
        },
        {
            "positions": [
                -2.1861108500664135,
                -0.6004151107078157,
                -0.8523595103161841,
                2.1308431423225778,
                0.7821859224275491,
                -1.8052341709691175
            ]
        },
        {
            "positions": [
                -2.2456410920698495,
                -0.5452972826545177,
                -0.8470662563451863,
                2.226960171412875,
                0.8147651676516707,
                -1.9464494602114741
            ]
        },
        {
            "positions": [
                -2.305171334073286,
                -0.4901794546012199,
                -0.8417730023741885,
                2.3230772005031723,
                0.8473444128757922,
                -2.08766474945383
            ]
        },
        {
            "positions": [
                -2.364701576076722,
                -0.43506162654792235,
                -0.8364797484031907,
                2.419194229593469,
                0.8799236580999138,
                -2.228880038696186
            ]
        },
        {
            "positions": [
                -2.424231818080158,
                -0.37994379849462456,
                -0.831186494432193,
                2.515311258683766,
                0.9125029033240353,
                -2.3700953279385417
            ]
        },
        {
            "positions": [
                -2.4837620600835946,
                -0.3248259704413268,
                -0.8258932404611952,
                2.6114282877740633,
                0.9450821485481569,
                -2.511310617180898
            ]
        },
        {
            "positions": [
                -2.5432923020870306,
                -0.2697081423880292,
                -0.8205999864901974,
                2.70754531686436,
                0.9776613937722785,
                -2.6525259064232536
            ]
        },
        {
            "positions": [
                -2.6028225440904666,
                -0.2145903143347314,
                -0.8153067325191996,
                2.8036623459546575,
                1.0102406389963998,
                -2.7937411956656097
            ]
        },
        {
            "positions": [
                -2.662352786093903,
                -0.1594724862814334,
                -0.8100134785482018,
                2.8997793750449548,
                1.0428198842205214,
                -2.934956484907966
            ]
        },
        {
            "positions": [
                -2.7218830280973396,
                -0.10435465822813561,
                -0.804720224577204,
                2.9958964041352516,
                1.075399129444643,
                -3.076171774150322
            ]
        },
        {
            "positions": [
                -2.781413270100775,
                -0.04923683017483804,
                -0.7994269706062063,
                3.092013433225549,
                1.1079783746687646,
                -3.2173870633926778
            ]
        },
        {
            "positions": [
                -2.8409435121042117,
                0.005880997878459748,
                -0.7941337166352085,
                3.1881304623158457,
                1.1405576198928862,
                -3.358602352635034
            ]
        },
        {
            "positions": [
                -2.8249435036017236,
                -0.04494901859329521,
                -0.6722317782782233,
                3.013065195123769,
                1.1200855469412232,
                -3.349024190949274
            ]
        },
        {
            "positions": [
                -2.808943495099235,
                -0.09577903506505017,
                -0.5503298399212382,
                2.8379999279316923,
                1.0996134739895602,
                -3.3394460292635144
            ]
        },
        {
            "positions": [
                -2.792943486596747,
                -0.14660905153680515,
                -0.4284279015642531,
                2.662934660739616,
                1.0791414010378972,
                -3.329867867577754
            ]
        },
        {
            "positions": [
                -2.7769434780942586,
                -0.1974390680085601,
                -0.306525963207268,
                2.487869393547539,
                1.0586693280862343,
                -3.3202897058919945
            ]
        },
        {
            "positions": [
                -2.7609434695917705,
                -0.24826908448031504,
                -0.18462402485028284,
                2.312804126355462,
                1.0381972551345713,
                -3.3107115442062347
            ]
        },
        {
            "positions": [
                -2.744943461089282,
                -0.29909910095207004,
                -0.06272208649329769,
                2.1377388591633855,
                1.0177251821829083,
                -3.301133382520475
            ]
        },
        {
            "positions": [
                -2.728943452586794,
                -0.34992911742382504,
                0.05917985186368746,
                1.9626735919713085,
                0.9972531092312453,
                -3.291555220834715
            ]
        },
        {
            "positions": [
                -2.7129434440843054,
                -0.40075913389557993,
                0.1810817902206725,
                1.787608324779232,
                0.9767810362795825,
                -3.2819770591489554
            ]
        },
        {
            "positions": [
                -2.6969434355818174,
                -0.45158915036733493,
                0.30298372857765776,
                1.612543057587155,
                0.9563089633279195,
                -3.2723988974631952
            ]
        },
        {
            "positions": [
                -2.6809434270793293,
                -0.5024191668390898,
                0.4248856669346428,
                1.4374777903950786,
                0.9358368903762565,
                -3.2628207357774355
            ]
        },
        {
            "positions": [
                -2.664943418576841,
                -0.5532491833108448,
                0.5467876052916278,
                1.2624125232030017,
                0.9153648174245935,
                -3.2532425740916757
            ]
        },
        {
            "positions": [
                -2.6489434100743527,
                -0.6040791997825998,
                0.6686895436486131,
                1.0873472560109252,
                0.8948927444729305,
                -3.243664412405916
            ]
        },
        {
            "positions": [
                -2.6329434015718642,
                -0.6549092162543547,
                0.7905914820055981,
                0.9122819888188487,
                0.8744206715212677,
                -3.234086250720156
            ]
        },
        {
            "positions": [
                -2.616943393069376,
                -0.7057392327261098,
                0.9124934203625834,
                0.7372167216267713,
                0.8539485985696046,
                -3.2245080890343965
            ]
        },
        {
            "positions": [
                -2.6009433845668877,
                -0.7565692491978647,
                1.0343953587195684,
                0.5621514544346948,
                0.8334765256179417,
                -3.2149299273486363
            ]
        },
        {
            "positions": [
                -2.5849433760643996,
                -0.8073992656696196,
                1.1562972970765535,
                0.38708618724261834,
                0.8130044526662787,
                -3.2053517656628765
            ]
        },
        {
            "positions": [
                -2.5689433675619116,
                -0.8582292821413746,
                1.2781992354335387,
                0.21202092005054185,
                0.7925323797146158,
                -3.1957736039771167
            ]
        },
        {
            "positions": [
                -2.552943359059423,
                -0.9090592986131296,
                1.400101173790524,
                0.03695565285846447,
                0.7720603067629528,
                -3.186195442291357
            ]
        },
        {
            "positions": [
                -2.536943350556935,
                -0.9598893150848845,
                1.5220031121475088,
                -0.13810961433361202,
                0.7515882338112898,
                -3.1766172806055972
            ]
        },
        {
            "positions": [
                -2.5209433420544465,
                -1.0107193315566394,
                1.643905050504494,
                -0.3131748815256885,
                0.7311161608596268,
                -3.1670391189198375
            ]
        },
        {
            "positions": [
                -2.5049433335519584,
                -1.0615493480283944,
                1.765806988861479,
                -0.488240148717765,
                0.7106440879079639,
                -3.1574609572340773
            ]
        },
        {
            "positions": [
                -2.48894332504947,
                -1.1123793645001494,
                1.8877089272184642,
                -0.6633054159098424,
                0.6901720149563009,
                -3.1478827955483175
            ]
        },
        {
            "positions": [
                -2.472943316546982,
                -1.1632093809719044,
                2.0096108655754494,
                -0.8383706831019192,
                0.6696999420046379,
                -3.1383046338625578
            ]
        }
    ]
}