{
    "goal": {
        "global_pose": {
            "orientation": {
                "w": 0.7047431493862688,
                "x": -0.7094548369677653,
                "y": 0.0024358444001904,
                "z": -0.0022348060817251984
            },
            "position": {
                "x": -0.39052492380142206,
                "y": 0.3671506643295288,
                "z": 0.19426114857196808
            }
        },
        "name": "move_to_magneteinheit_D"
    },
    "id": "EST_move_to_magneteinheit_D_69",
    "joint_names": [
        "shoulder_pan_joint",
        "shoulder_lift_joint",
        "elbow_joint",
        "wrist_1_joint",
        "wrist_2_joint",
        "wrist_3_joint"
    ],
    "metrics": {
        "cart_traj_len": 3.825446315220561,
        "distance_elbow_joint": 3.3720570843889655,
        "distance_shoulder_lift_joint": 1.6340594724516546,
        "distance_shoulder_pan_joint": 2.988637747960662,
        "distance_wrist_1_joint": 1.8741827650464769,
        "distance_wrist_2_joint": 1.7797678834623938,
        "distance_wrist_3_joint": 4.087104943777693,
        "smoothness": 0.31510367683802143,
        "time": 0.202928334,
        "traj_len": 3.966838778812147,
        "weighted_distance": 5.250140039384864
    },
    "planner": "EST",
    "start": {
        "state": {
            "elbow_joint": 0.749534889911806,
            "shoulder_lift_joint": -0.6476975780787326,
            "shoulder_pan_joint": -2.711696901376241,
            "wrist_1_joint": -0.07506478083263063,
            "wrist_2_joint": 0.43296659715538205,
            "wrist_3_joint": -3.14703540197715
        }
    },
    "waypoints": [
        {
            "positions": [
                -2.711696901376241,
                -0.6476975780787326,
                0.749534889911806,
                -0.07506478083263063,
                0.43296659715538205,
                -3.14703540197715
            ]
        },
        {
            "positions": [
                -2.7373337495475107,
                -0.6993884469803905,
                0.875170993114051,
                0.003970125384305885,
                0.42106040562039104,
                -3.0981869550242847
            ]
        },
        {
            "positions": [
                -2.700297321539871,
                -0.7610899266212254,
                0.8612580779636951,
                -0.008047517328728052,
                0.38804435801583254,
                -2.8662205312616793
            ]
        },
        {
            "positions": [
                -2.6632608935322315,
                -0.8227914062620604,
                0.8473451628133392,
                -0.020065160041761988,
                0.35502831041127403,
                -2.634254107499074
            ]
        },
        {
            "positions": [
                -2.626224465524592,
                -0.8844928859028953,
                0.8334322476629833,
                -0.03208280275479593,
                0.32201226280671547,
                -2.4022876837364686
            ]
        },
        {
            "positions": [
                -2.5891880375169523,
                -0.9461943655437303,
                0.8195193325126274,
                -0.04410044546782987,
                0.28899621520215696,
                -2.1703212599738633
            ]
        },
        {
            "positions": [
                -2.5521516095093126,
                -1.0078958451845652,
                0.8056064173622715,
                -0.0561180881808638,
                0.25598016759759845,
                -1.938354836211258
            ]
        },
        {
            "positions": [
                -2.515115181501673,
                -1.0695973248254003,
                0.7916935022119156,
                -0.06813573089389774,
                0.22296411999303992,
                -1.7063884124486526
            ]
        },
        {
            "positions": [
                -2.4780787534940334,
                -1.131298804466235,
                0.7777805870615597,
                -0.08015337360693167,
                0.18994807238848138,
                -1.4744219886860472
            ]
        },
        {
            "positions": [
                -2.4410423254863938,
                -1.19300028410707,
                0.7638676719112037,
                -0.09217101631996562,
                0.15693202478392287,
                -1.242455564923442
            ]
        },
        {
            "positions": [
                -2.404005897478754,
                -1.254701763747905,
                0.7499547567608479,
                -0.10418865903299956,
                0.12391597717936431,
                -1.0104891411608365
            ]
        },
        {
            "positions": [
                -2.3669694694711145,
                -1.31640324338874,
                0.7360418416104919,
                -0.11620630174603348,
                0.0908999295748058,
                -0.7785227173982312
            ]
        },
        {
            "positions": [
                -2.329933041463475,
                -1.3781047230295749,
                0.722128926460136,
                -0.12822394445906743,
                0.0578838819702473,
                -0.5465562936356261
            ]
        },
        {
            "positions": [
                -2.306535922047229,
                -1.3793960100682467,
                0.6811753917335255,
                -0.13346500309345755,
                0.04633841230226308,
                -0.5434363255320279
            ]
        },
        {
            "positions": [
                -2.1829617692562233,
                -1.3935092608890285,
                0.525563373087129,
                -0.09379238961129369,
                0.011128333407309933,
                -0.5700624296329394
            ]
        },
        {
            "positions": [
                -2.0593876164652176,
                -1.4076225117098102,
                0.3699513544407324,
                -0.05411977612912984,
                -0.024081745487643212,
                -0.596688533733851
            ]
        },
        {
            "positions": [
                -1.9358134636742121,
                -1.421735762530592,
                0.21433933579433584,
                -0.01444716264696598,
                -0.05929182438259636,
                -0.6233146378347625
            ]
        },
        {
            "positions": [
                -1.8122393108832064,
                -1.435849013351374,
                0.05872731714793933,
                0.025225450835197866,
                -0.09450190327754951,
                -0.649940741935674
            ]
        },
        {
            "positions": [
                -1.6886651580922007,
                -1.4499622641721557,
                -0.0968847014984574,
                0.06489806431736175,
                -0.12971198217250265,
                -0.6765668460365855
            ]
        },
        {
            "positions": [
                -1.5650910053011953,
                -1.4640755149929374,
                -0.2524967201448538,
                0.10457067779952559,
                -0.1649220610674558,
                -0.7031929501374969
            ]
        },
        {
            "positions": [
                -1.4415168525101896,
                -1.4781887658137192,
                -0.40810873879125054,
                0.14424329128168945,
                -0.20013213996240894,
                -0.7298190542384085
            ]
        },
        {
            "positions": [
                -1.3179426997191839,
                -1.492302016634501,
                -0.5637207574376468,
                0.18391590476385328,
                -0.2353422188573621,
                -0.75644515833932
            ]
        },
        {
            "positions": [
                -1.1943685469281782,
                -1.5064152674552829,
                -0.7193327760840436,
                0.22358851824601716,
                -0.2705522977523152,
                -0.7830712624402316
            ]
        },
        {
            "positions": [
                -1.0707943941371725,
                -1.5205285182760646,
                -0.8749447947304403,
                0.26326113172818105,
                -0.30576237664726835,
                -0.8096973665411431
            ]
        },
        {
            "positions": [
                -0.9472202413461668,
                -1.5346417690968464,
                -1.0305568133768368,
                0.30293374521034494,
                -0.34097245554222155,
                -0.8363234706420546
            ]
        },
        {
            "positions": [
                -0.8236460885551613,
                -1.548755019917628,
                -1.186168832023233,
                0.3426063586925087,
                -0.37618253443717464,
                -0.8629495747429661
            ]
        },
        {
            "positions": [
                -0.7000719357641556,
                -1.5628682707384098,
                -1.3417808506696296,
                0.38227897217467255,
                -0.4113926133321278,
                -0.8895756788438776
            ]
        },
        {
            "positions": [
                -0.5764977829731499,
                -1.5769815215591916,
                -1.4973928693160266,
                0.42195158565683644,
                -0.44660269222708093,
                -0.9162017829447892
            ]
        },
        {
            "positions": [
                -0.4529236301821442,
                -1.5910947723799733,
                -1.653004887962423,
                0.4616241991390003,
                -0.48181277112203413,
                -0.9428278870457008
            ]
        },
        {
            "positions": [
                -0.32934947739113873,
                -1.6052080232007553,
                -1.8086169066088191,
                0.5012968126211641,
                -0.5170228500169872,
                -0.9694539911466121
            ]
        },
        {
            "positions": [
                -0.20577532460013304,
                -1.619321274021537,
                -1.964228925255216,
                0.540969426103328,
                -0.5522329289119403,
                -0.9960800952475237
            ]
        },
        {
            "positions": [
                -0.08220117180912756,
                -1.6334345248423188,
                -2.119840943901613,
                0.5806420395854919,
                -0.5874430078068935,
                -1.0227061993484352
            ]
        },
        {
            "positions": [
                -0.03094662536012712,
                -1.6666402855685871,
                -2.19392590968873,
                0.639650195146733,
                -0.5696752150082003,
                -0.9918597376179241
            ]
        },
        {
            "positions": [
                0.020307921088873318,
                -1.6998460462948557,
                -2.2680108754758472,
                0.6986583507079742,
                -0.551907422209507,
                -0.9610132758874129
            ]
        },
        {
            "positions": [
                -0.002509771039238499,
                -1.7645028245432481,
                -2.2794818879866052,
                0.7903905036580126,
                -0.4714826785536479,
                -0.8562862681035083
            ]
        },
        {
            "positions": [
                -0.025327463167350316,
                -1.8291596027916404,
                -2.290952900497363,
                0.882122656608051,
                -0.39105793489778884,
                -0.7515592603196036
            ]
        },
        {
            "positions": [
                -0.048145155295462136,
                -1.8938163810400328,
                -2.302423913008121,
                0.9738548095580893,
                -0.31063319124192973,
                -0.6468322525356991
            ]
        },
        {
            "positions": [
                -0.07096284742357395,
                -1.9584731592884252,
                -2.313894925518879,
                1.0655869625081278,
                -0.23020844758607067,
                -0.5421052447517944
            ]
        },
        {
            "positions": [
                -0.09378053955168578,
                -2.023129937536818,
                -2.325365938029637,
                1.1573191154581661,
                -0.1497837039302115,
                -0.4373782369678897
            ]
        },
        {
            "positions": [
                -0.11659823167979759,
                -2.08778671578521,
                -2.336836950540395,
                1.2490512684082045,
                -0.06935896027435251,
                -0.33265122918398515
            ]
        },
        {
            "positions": [
                -0.1394159238079094,
                -2.1524434940336024,
                -2.348307963051153,
                1.340783421358243,
                0.011065783381506655,
                -0.2279242214000805
            ]
        },
        {
            "positions": [
                -0.1622336159360212,
                -2.2171002722819946,
                -2.359778975561911,
                1.4325155743082814,
                0.0914905270373656,
                -0.12319721361617586
            ]
        },
        {
            "positions": [
                -0.18505130806413306,
                -2.2817570505303872,
                -2.371249988072669,
                1.5242477272583197,
                0.17191527069322476,
                -0.018470205832271238
            ]
        }
    ]
}