{
    "goal": {
        "global_pose": {
            "orientation": {
                "w": 0.5084816217422485,
                "x": -0.49083608388900757,
                "y": 0.5182115435600281,
                "z": -0.4816462993621826
            },
            "position": {
                "x": 0.5540239810943604,
                "y": 0.030875300988554955,
                "z": 0.16403168439865112
            }
        },
        "name": "move_to_storage_A"
    },
    "id": "EST_move_to_storage_A_124",
    "joint_names": [
        "shoulder_pan_joint",
        "shoulder_lift_joint",
        "elbow_joint",
        "wrist_1_joint",
        "wrist_2_joint",
        "wrist_3_joint"
    ],
    "metrics": {
        "cart_traj_len": 0.35344597691840085,
        "distance_elbow_joint": 0.44900718985586807,
        "distance_shoulder_lift_joint": 0.23620858119151755,
        "distance_shoulder_pan_joint": 0.46364718922247794,
        "distance_wrist_1_joint": 0.23698564838704017,
        "distance_wrist_2_joint": 1.0938640056371574,
        "distance_wrist_3_joint": 0.08735863472679206,
        "smoothness": 1.1102230263833737e-15,
        "time": 0.10051822399999999,
        "traj_len": 1.6022082414657757,
        "weighted_distance": 2.0180778410404874
    },
    "planner": "EST",
    "start": {
        "state": {
            "elbow_joint": 1.971548259319323,
            "shoulder_lift_joint": -1.1394851275133948,
            "shoulder_pan_joint": 0.1228115487234821,
            "wrist_1_joint": -0.7804723859257726,
            "wrist_2_joint": 0.12958671773740124,
            "wrist_3_joint": -3.192489227718131
        }
    },
    "waypoints": [
        {
            "positions": [
                0.1228115487234821,
                -1.1394851275133948,
                1.971548259319323,
                -0.7804723859257726,
                0.12958671773740124,
                -3.192489227718131
            ]
        },
        {
            "positions": [
                0.05657623597741383,
                -1.1732292105407545,
                2.035692143584447,
                -0.8143274785524927,
                0.2858530042569951,
                -3.180009422757161
            ]
        },
        {
            "positions": [
                -0.009659076768654434,
                -1.2069732935681141,
                2.099836027849571,
                -0.8481825711792127,
                0.44211929077658907,
                -3.1675296177961907
            ]
        },
        {
            "positions": [
                -0.07589438951472272,
                -1.2407173765954738,
                2.163979912114695,
                -0.8820376638059326,
                0.5983855772961829,
                -3.1550498128352205
            ]
        },
        {
            "positions": [
                -0.14212970226079097,
                -1.2744614596228334,
                2.228123796379819,
                -0.9158927564326527,
                0.7546518638157769,
                -3.14257000787425
            ]
        },
        {
            "positions": [
                -0.20836501500685928,
                -1.308205542650193,
                2.292267680644943,
                -0.9497478490593727,
                0.9109181503353708,
                -3.1300902029132796
            ]
        },
        {
            "positions": [
                -0.27460032775292753,
                -1.3419496256775527,
                2.356411564910067,
                -0.9836029416860927,
                1.0671844368549646,
                -3.1176103979523093
            ]
        },
        {
            "positions": [
                -0.34083564049899584,
                -1.3756937087049124,
                2.420555449175191,
                -1.0174580343128128,
                1.2234507233745586,
                -3.105130592991339
            ]
        }
    ]
}{
    "goal": {
        "global_pose": {
            "orientation": {
                "w": 0.5084816217422485,
                "x": -0.49083608388900757,
                "y": 0.5182115435600281,
                "z": -0.4816462993621826
            },
            "position": {
                "x": 0.5540239810943604,
                "y": 0.030875300988554955,
                "z": 0.16403168439865112
            }
        },
        "name": "move_to_storage_A"
    },
    "id": "EST_move_to_storage_A_124",
    "joint_names": [
        "shoulder_pan_joint",
        "shoulder_lift_joint",
        "elbow_joint",
        "wrist_1_joint",
        "wrist_2_joint",
        "wrist_3_joint"
    ],
    "metrics": {
        "cart_traj_len": 0.3529131492023893,
        "distance_elbow_joint": 0.45037184687227194,
        "distance_shoulder_lift_joint": 0.23481095612854208,
        "distance_shoulder_pan_joint": 0.4629458889361061,
        "distance_wrist_1_joint": 0.24949526259319255,
        "distance_wrist_2_joint": 1.0918527830060327,
        "distance_wrist_3_joint": 0.1039457576217937,
        "smoothness": 8.881784197001252e-16,
        "time": 0.032314761,
        "traj_len": 1.6104106604086856,
        "weighted_distance": 2.035353054386573
    },
    "planner": "EST",
    "start": {
        "state": {
            "elbow_joint": 1.97154746011099,
            "shoulder_lift_joint": -1.13948474672311,
            "shoulder_pan_joint": 0.12281154466712228,
            "wrist_1_joint": -0.7804688027058302,
            "wrist_2_joint": 0.12958655903071145,
            "wrist_3_joint": 3.0906928834467795
        }
    },
    "waypoints": [
        {
            "positions": [
                0.12281154466712228,
                -1.13948474672311,
                1.97154746011099,
                -0.7804688027058302,
                0.12958655903071145,
                3.0906928834467795
            ]
        },
        {
            "positions": [
                0.05667641767624998,
                -1.1730291690271875,
                2.0358862953784573,
                -0.8161109830762863,
                0.28556552803157326,
                3.10554227739275
            ]
        },
        {
            "positions": [
                -0.009458709314622324,
                -1.2065735913312647,
                2.1002251306459248,
                -0.8517531634467423,
                0.44154449703243503,
                3.1203916713387208
            ]
        },
        {
            "positions": [
                -0.07559383630549461,
                -1.2401180136353422,
                2.164563965913392,
                -0.8873953438171984,
                0.5975234660332969,
                3.135241065284691
            ]
        },
        {
            "positions": [
                -0.14172896329636692,
                -1.2736624359394197,
                2.2289028011808596,
                -0.9230375241876545,
                0.7535024350341587,
                3.1500904592306616
            ]
        },
        {
            "positions": [
                -0.20786409028723923,
                -1.3072068582434972,
                2.293241636448327,
                -0.9586797045581106,
                0.9094814040350205,
                3.164939853176632
            ]
        },
        {
            "positions": [
                -0.2739992172781115,
                -1.3407512805475745,
                2.3575804717157944,
                -0.9943218849285667,
                1.0654603730358823,
                3.179789247122603
            ]
        },
        {
            "positions": [
                -0.3401343442689838,
                -1.374295702851652,
                2.421919306983262,
                -1.0299640652990227,
                1.2214393420367442,
                3.194638641068573
            ]
        }
    ]
}{
    "goal": {
        "global_pose": {
            "orientation": {
                "w": 0.5084816217422485,
                "x": -0.49083608388900757,
                "y": 0.5182115435600281,
                "z": -0.4816462993621826
            },
            "position": {
                "x": 0.5540239810943604,
                "y": 0.030875300988554955,
                "z": 0.16403168439865112
            }
        },
        "name": "move_to_storage_A"
    },
    "id": "EST_move_to_storage_A_124",
    "joint_names": [
        "shoulder_pan_joint",
        "shoulder_lift_joint",
        "elbow_joint",
        "wrist_1_joint",
        "wrist_2_joint",
        "wrist_3_joint"
    ],
    "metrics": {
        "cart_traj_len": 0.35303983241682013,
        "distance_elbow_joint": 0.4499040370818932,
        "distance_shoulder_lift_joint": 0.23506062306126752,
        "distance_shoulder_pan_joint": 0.4619885326932613,
        "distance_wrist_1_joint": 0.2415810993376193,
        "distance_wrist_2_joint": 1.0976013387388535,
        "distance_wrist_3_joint": 0.10353067846819597,
        "smoothness": 8.881784197001252e-16,
        "time": 0.16762565200000001,
        "traj_len": 1.6092440179727532,
        "weighted_distance": 2.0336937095821375
    },
    "planner": "EST",
    "start": {
        "state": {
            "elbow_joint": 1.9715472970024885,
            "shoulder_lift_joint": -1.1394870060712896,
            "shoulder_pan_joint": 0.12281152778156021,
            "wrist_1_joint": -0.780463741449964,
            "wrist_2_joint": 0.12958659822042276,
            "wrist_3_joint": 3.090690232415272
        }
    },
    "waypoints": [
        {
            "positions": [
                0.12281152778156021,
                -1.1394870060712896,
                1.9715472970024885,
                -0.780463741449964,
                0.12958659822042276,
                3.090690232415272
            ]
        },
        {
            "positions": [
                0.056813165968237184,
                -1.1730670950800421,
                2.035819302299902,
                -0.814975327069624,
                0.2863867894688304,
                3.1054803293393
            ]
        },
        {
            "positions": [
                -0.009185195845085842,
                -1.2066471840887947,
                2.100091307597315,
                -0.8494869126892838,
                0.44318698071723805,
                3.120270426263328
            ]
        },
        {
            "positions": [
                -0.07518355765840887,
                -1.2402272730975472,
                2.1643633128947286,
                -0.8839984983089437,
                0.5999871719656457,
                3.135060523187356
            ]
        },
        {
            "positions": [
                -0.1411819194717319,
                -1.2738073621062995,
                2.2286353181921417,
                -0.9185100839286036,
                0.7567873632140533,
                3.149850620111384
            ]
        },
        {
            "positions": [
                -0.20718028128505497,
                -1.307387451115052,
                2.292907323489555,
                -0.9530216695482635,
                0.913587554462461,
                3.164640717035412
            ]
        },
        {
            "positions": [
                -0.2731786430983779,
                -1.3409675401238046,
                2.3571793287869682,
                -0.9875332551679233,
                1.0703877457108686,
                3.17943081395944
            ]
        },
        {
            "positions": [
                -0.33917700491170105,
                -1.3745476291325571,
                2.4214513340843817,
                -1.0220448407875833,
                1.2271879369592762,
                3.194220910883468
            ]
        }
    ]
}