{
    "goal": {
        "global_pose": {
            "orientation": {
                "w": 0.005598929693374612,
                "x": 0.007748599140229565,
                "y": 0.7110244013736278,
                "z": -0.7031023480610252
            },
            "position": {
                "x": -0.8858502320852131,
                "y": -0.7141253447532654,
                "z": 0.3711530566215515
            }
        },
        "name": "move_to_auspresseinheit_C"
    },
    "id": "EST_move_to_auspresseinheit_C_1",
    "joint_names": [
        "shoulder_pan_joint",
        "shoulder_lift_joint",
        "elbow_joint",
        "wrist_1_joint",
        "wrist_2_joint",
        "wrist_3_joint"
    ],
    "metrics": {
        "cart_traj_len": 0.49324642656897866,
        "distance_elbow_joint": 1.008001752675398,
        "distance_shoulder_lift_joint": 0.32918473833254036,
        "distance_shoulder_pan_joint": 0.25571620214243085,
        "distance_wrist_1_joint": 0.6906545184831367,
        "distance_wrist_2_joint": 1.319312881963941,
        "distance_wrist_3_joint": 0.06436957161890788,
        "smoothness": 1.6148698667872622e-16,
        "time": 0.050530015,
        "traj_len": 1.9150038290343847,
        "weighted_distance": 2.4095531139406843
    },
    "planner": "EST",
    "start": {
        "state": {
            "elbow_joint": 1.7527959577737207,
            "shoulder_lift_joint": -0.9740617694225068,
            "shoulder_pan_joint": -2.967991417825858,
            "wrist_1_joint": -0.759517768980727,
            "wrist_2_joint": 1.7443932448377408,
            "wrist_3_joint": -3.0840537646736568
        }
    },
    "waypoints": [
        {
            "positions": [
                -2.967991417825858,
                -0.9740617694225068,
                1.7527959577737207,
                -0.759517768980727,
                1.7443932448377408,
                -3.0840537646736568
            ]
        },
        {
            "positions": [
                -2.942419797611615,
                -0.9411432955892527,
                1.6519957825061808,
                -0.6904523171324133,
                1.6124619566413467,
                -3.0904907218355477
            ]
        },
        {
            "positions": [
                -2.916848177397372,
                -0.9082248217559987,
                1.551195607238641,
                -0.6213868652840996,
                1.4805306684449526,
                -3.0969276789974383
            ]
        },
        {
            "positions": [
                -2.8912765571831285,
                -0.8753063479227446,
                1.4503954319711012,
                -0.552321413435786,
                1.3485993802485585,
                -3.1033646361593292
            ]
        },
        {
            "positions": [
                -2.8657049369688856,
                -0.8423878740894906,
                1.3495952567035614,
                -0.48325596158747225,
                1.2166680920521644,
                -3.1098015933212197
            ]
        },
        {
            "positions": [
                -2.8401333167546428,
                -0.8094694002562366,
                1.2487950814360218,
                -0.4141905097391586,
                1.0847368038557703,
                -3.1162385504831107
            ]
        },
        {
            "positions": [
                -2.8145616965403994,
                -0.7765509264229826,
                1.1479949061684818,
                -0.34512505789084497,
                0.9528055156593762,
                -3.1226755076450017
            ]
        },
        {
            "positions": [
                -2.788990076326156,
                -0.7436324525897285,
                1.0471947309009422,
                -0.27605960604253127,
                0.8208742274629822,
                -3.129112464806892
            ]
        },
        {
            "positions": [
                -2.7634184561119133,
                -0.7107139787564745,
                0.9463945556334022,
                -0.20699415419421752,
                0.688942939266588,
                -3.135549421968783
            ]
        },
        {
            "positions": [
                -2.7378468358976704,
                -0.6777955049232205,
                0.8455943803658625,
                -0.13792870234590393,
                0.5570116510701939,
                -3.1419863791306737
            ]
        },
        {
            "positions": [
                -2.712275215683427,
                -0.6448770310899664,
                0.7447942050983227,
                -0.06886325049759023,
                0.4250803628737999,
                -3.1484233362925647
            ]
        }
    ]
}