{
    "goal": {
        "global_pose": {
            "orientation": {
                "w": 0.5084816262002911,
                "x": -0.4908360881923452,
                "y": 0.5182115481033761,
                "z": -0.48164630358495003
            },
            "position": {
                "x": 0.5540239810943604,
                "y": -0.46912469901144505,
                "z": 0.16403168439865112
            }
        },
        "name": "move_to_storage_B"
    },
    "id": "EST_move_to_storage_B_37",
    "joint_names": [
        "shoulder_pan_joint",
        "shoulder_lift_joint",
        "elbow_joint",
        "wrist_1_joint",
        "wrist_2_joint",
        "wrist_3_joint"
    ],
    "metrics": {
        "cart_traj_len": 1.9713720757373778,
        "distance_elbow_joint": 3.357727425066223,
        "distance_shoulder_lift_joint": 1.2080708777918918,
        "distance_shoulder_pan_joint": 0.4710918314555629,
        "distance_wrist_1_joint": 3.877811731155614,
        "distance_wrist_2_joint": 2.998948880278453,
        "distance_wrist_3_joint": 4.69447616522487,
        "smoothness": 0.6772330973635322,
        "time": 0.10261734,
        "traj_len": 4.075306971379287,
        "weighted_distance": 5.733571300058667
    },
    "planner": "EST",
    "start": {
        "state": {
            "elbow_joint": 1.664937868594044,
            "shoulder_lift_joint": -0.661644460510453,
            "shoulder_pan_joint": -0.9139846352900073,
            "wrist_1_joint": 2.146753192139373,
            "wrist_2_joint": -2.2341966793290973,
            "wrist_3_joint": 0.005466555786416001
        }
    },
    "waypoints": [
        {
            "positions": [
                -0.9139846352900073,
                -0.661644460510453,
                1.664937868594044,
                2.146753192139373,
                -2.2341966793290973,
                0.005466555786416001
            ]
        },
        {
            "positions": [
                -0.9671502900714355,
                -0.7070703496148097,
                1.7553499900964844,
                2.2103096498798678,
                -2.260418594162597,
                0.053445145829322346
            ]
        },
        {
            "positions": [
                -1.0203159448528636,
                -0.7524962387191665,
                1.845762111598925,
                2.2738661076203623,
                -2.2866405089960966,
                0.10142373587222869
            ]
        },
        {
            "positions": [
                -1.0435873663512472,
                -0.85866138252611,
                1.9144090763954351,
                2.317641071555665,
                -2.300011652968465,
                -0.008266510969408503
            ]
        },
        {
            "positions": [
                -1.066858787849631,
                -0.9648265263330535,
                1.9830560411919453,
                2.361416035490968,
                -2.313382796940834,
                -0.1179567578110457
            ]
        },
        {
            "positions": [
                -1.0901302093480145,
                -1.070991670139997,
                2.051703005988456,
                2.405190999426271,
                -2.3267539409132025,
                -0.2276470046526829
            ]
        },
        {
            "positions": [
                -1.1134016308463983,
                -1.1771568139469406,
                2.120349970784966,
                2.448965963361574,
                -2.340125084885571,
                -0.3373372514943201
            ]
        },
        {
            "positions": [
                -1.1366730523447819,
                -1.2833219577538844,
                2.1889969355814762,
                2.4927409272968766,
                -2.3534962288579395,
                -0.4470274983359573
            ]
        },
        {
            "positions": [
                -1.1599444738431655,
                -1.3894871015608277,
                2.2576439003779862,
                2.5365158912321792,
                -2.3668673728303085,
                -0.5567177451775944
            ]
        },
        {
            "positions": [
                -1.1832158953415493,
                -1.4956522453677714,
                2.3262908651744967,
                2.5802908551674824,
                -2.380238516802677,
                -0.6664079920192316
            ]
        },
        {
            "positions": [
                -1.1857973899155994,
                -1.4799937691449712,
                2.2580608275992113,
                2.435206014400697,
                -2.282378983715603,
                -0.6009388156165415
            ]
        },
        {
            "positions": [
                -1.1883788844896497,
                -1.4643352929221711,
                2.189830790023926,
                2.2901211736339113,
                -2.1845194506285295,
                -0.5354696392138514
            ]
        },
        {
            "positions": [
                -1.1909603790636998,
                -1.4486768166993709,
                2.1216007524486407,
                2.145036332867126,
                -2.0866599175414557,
                -0.4700004628111613
            ]
        },
        {
            "positions": [
                -1.1935418736377499,
                -1.4330183404765706,
                2.0533707148733553,
                1.9999514921003403,
                -1.9888003844543818,
                -0.4045312864084712
            ]
        },
        {
            "positions": [
                -1.1961233682118,
                -1.4173598642537706,
                1.9851406772980698,
                1.854866651333555,
                -1.890940851367308,
                -0.33906211000578107
            ]
        },
        {
            "positions": [
                -1.1987048627858503,
                -1.4017013880309703,
                1.9169106397227844,
                1.7097818105667697,
                -1.793081318280234,
                -0.273592933603091
            ]
        },
        {
            "positions": [
                -1.2012863573599004,
                -1.38604291180817,
                1.8486806021474989,
                1.564696969799984,
                -1.6952217851931604,
                -0.20812375720040083
            ]
        },
        {
            "positions": [
                -1.2038678519339505,
                -1.37038443558537,
                1.7804505645722135,
                1.4196121290331984,
                -1.5973622521060866,
                -0.14265458079771076
            ]
        },
        {
            "positions": [
                -1.2064493465080006,
                -1.3547259593625698,
                1.7122205269969282,
                1.274527288266413,
                -1.4995027190190129,
                -0.07718540439502053
            ]
        },
        {
            "positions": [
                -1.209030841082051,
                -1.3390674831397695,
                1.6439904894216428,
                1.1294424474996276,
                -1.4016431859319392,
                -0.011716227992330519
            ]
        },
        {
            "positions": [
                -1.211612335656101,
                -1.3234090069169695,
                1.5757604518463575,
                0.9843576067328421,
                -1.3037836528448652,
                0.0537529484103596
            ]
        },
        {
            "positions": [
                -1.2141938302301511,
                -1.3077505306941692,
                1.5075304142710722,
                0.8392727659660568,
                -1.2059241197577915,
                0.11922212481304961
            ]
        },
        {
            "positions": [
                -1.2167753248042015,
                -1.292092054471369,
                1.4393003766957866,
                0.6941879251992711,
                -1.1080645866707175,
                0.18469130121573984
            ]
        },
        {
            "positions": [
                -1.2193568193782516,
                -1.276433578248569,
                1.3710703391205012,
                0.5491030844324856,
                -1.0102050535836438,
                0.25016047761842997
            ]
        },
        {
            "positions": [
                -1.2219383139523017,
                -1.2607751020257687,
                1.302840301545216,
                0.40401824366570027,
                -0.91234552049657,
                0.31562965402112
            ]
        },
        {
            "positions": [
                -1.2245198085263518,
                -1.2451166258029684,
                1.2346102639699303,
                0.25893340289891453,
                -0.8144859874094961,
                0.3810988304238101
            ]
        },
        {
            "positions": [
                -1.227101303100402,
                -1.2294581495801684,
                1.166380226394645,
                0.11384856213212924,
                -0.7166264543224226,
                0.44656800682650033
            ]
        },
        {
            "positions": [
                -1.2296827976744522,
                -1.2137996733573682,
                1.0981501888193597,
                -0.0312362786346565,
                -0.6187669212353486,
                0.5120371832291906
            ]
        },
        {
            "positions": [
                -1.2322642922485023,
                -1.198141197134568,
                1.0299201512440743,
                -0.1763211194014418,
                -0.5209073881482749,
                0.5775063596318806
            ]
        },
        {
            "positions": [
                -1.2348457868225524,
                -1.1824827209117679,
                0.961690113668789,
                -0.3214059601682271,
                -0.42304785506120113,
                0.6429755360345706
            ]
        },
        {
            "positions": [
                -1.2374272813966027,
                -1.1668242446889674,
                0.8934600760935034,
                -0.46649080093501283,
                -0.32518832197412717,
                0.7084447124372608
            ]
        },
        {
            "positions": [
                -1.2400087759706528,
                -1.1511657684661674,
                0.8252300385182181,
                -0.6115756417017982,
                -0.22732878888705324,
                0.7739138888399509
            ]
        },
        {
            "positions": [
                -1.2279198017394097,
                -1.1487010504634199,
                0.9248395053373424,
                -0.632609605973317,
                -0.168995679312949,
                0.9731110035389855
            ]
        },
        {
            "positions": [
                -1.2158308275081666,
                -1.1462363324606724,
                1.0244489721564665,
                -0.6536435702448358,
                -0.11066256973884481,
                1.1723081182380202
            ]
        },
        {
            "positions": [
                -1.2037418532769235,
                -1.143771614457925,
                1.1240584389755908,
                -0.6746775345163545,
                -0.05232946016474058,
                1.3715052329370547
            ]
        },
        {
            "positions": [
                -1.1916528790456804,
                -1.1413068964551776,
                1.223667905794715,
                -0.6957114987878732,
                0.006003649409363626,
                1.5707023476360893
            ]
        },
        {
            "positions": [
                -1.1795639048144373,
                -1.13884217845243,
                1.3232773726138394,
                -0.716745463059392,
                0.06433675898346788,
                1.769899462335124
            ]
        },
        {
            "positions": [
                -1.1674749305831942,
                -1.1363774604496828,
                1.4228868394329637,
                -0.7377794273309107,
                0.12266986855757209,
                1.9690965770341586
            ]
        },
        {
            "positions": [
                -1.155385956351951,
                -1.1339127424469353,
                1.522496306252088,
                -0.7588133916024296,
                0.18100297813167635,
                2.168293691733193
            ]
        },
        {
            "positions": [
                -1.143296982120708,
                -1.1314480244441878,
                1.622105773071212,
                -0.7798473558739483,
                0.2393360877057805,
                2.3674908064322278
            ]
        },
        {
            "positions": [
                -1.1312080078894649,
                -1.1289833064414403,
                1.7217152398903364,
                -0.800881320145467,
                0.29766919727988483,
                2.5666879211312623
            ]
        },
        {
            "positions": [
                -1.1191190336582217,
                -1.1265185884386928,
                1.8213247067094605,
                -0.8219152844169857,
                0.35600230685398904,
                2.765885035830297
            ]
        },
        {
            "positions": [
                -1.1070300594269786,
                -1.1240538704359455,
                1.9209341735285848,
                -0.8429492486885044,
                0.41433541642809324,
                2.9650821505293314
            ]
        },
        {
            "positions": [
                -1.0949410851957355,
                -1.121589152433198,
                2.020543640347709,
                -0.8639832129600232,
                0.4726685260021974,
                3.164279265228366
            ]
        }
    ]
}