{
    "goal": {
        "global_pose": {
            "orientation": {
                "w": 0.7047431493862688,
                "x": -0.7094548369677653,
                "y": 0.0024358444001904,
                "z": -0.0022348060817251984
            },
            "position": {
                "x": -0.39052492380142206,
                "y": 0.3671506643295288,
                "z": 0.19426114857196808
            }
        },
        "name": "move_to_magneteinheit_D"
    },
    "id": "EST_move_to_magneteinheit_D_108",
    "joint_names": [
        "shoulder_pan_joint",
        "shoulder_lift_joint",
        "elbow_joint",
        "wrist_1_joint",
        "wrist_2_joint",
        "wrist_3_joint"
    ],
    "metrics": {
        "cart_traj_len": 4.211276408816625,
        "distance_elbow_joint": 3.1351537632214534,
        "distance_shoulder_lift_joint": 2.0180872750088317,
        "distance_shoulder_pan_joint": 4.052991285684943,
        "distance_wrist_1_joint": 3.1451999696273765,
        "distance_wrist_2_joint": 3.1383774448286066,
        "distance_wrist_3_joint": 4.221880829802581,
        "smoothness": 0.2310233339035901,
        "time": 0.121463768,
        "traj_len": 4.439784968686411,
        "weighted_distance": 5.8684776256057205
    },
    "planner": "EST",
    "start": {
        "state": {
            "elbow_joint": 0.749534889911806,
            "shoulder_lift_joint": -0.6476975780787326,
            "shoulder_pan_joint": -2.711696901376241,
            "wrist_1_joint": -0.07506478083263063,
            "wrist_2_joint": 0.43296659715538205,
            "wrist_3_joint": -3.14703540197715
        }
    },
    "waypoints": [
        {
            "positions": [
                -2.711696901376241,
                -0.6476975780787326,
                0.749534889911806,
                -0.07506478083263063,
                0.43296659715538205,
                -3.14703540197715
            ]
        },
        {
            "positions": [
                -2.7286692845385505,
                -0.6332113937179301,
                0.6821221910759874,
                -0.1310658289833822,
                0.3447794617328065,
                -3.0211230061937
            ]
        },
        {
            "positions": [
                -2.7456416677008604,
                -0.6187252093571275,
                0.6147094922401688,
                -0.18706687713413378,
                0.25659232631023093,
                -2.89521061041025
            ]
        },
        {
            "positions": [
                -2.76261405086317,
                -0.604239024996325,
                0.5472967934043502,
                -0.24306792528488536,
                0.16840519088765538,
                -2.7692982146268
            ]
        },
        {
            "positions": [
                -2.7698688250960513,
                -0.590631957223118,
                0.4755234786384422,
                -0.3000663012227803,
                0.07828171538630493,
                -2.646812127866108
            ]
        },
        {
            "positions": [
                -2.7771235993289323,
                -0.577024889449911,
                0.40375016387253415,
                -0.35706467716067514,
                -0.011841760115045508,
                -2.5243260411054167
            ]
        },
        {
            "positions": [
                -2.7843783735618137,
                -0.5634178216767042,
                0.33197684910662606,
                -0.41406305309857006,
                -0.10196523561639592,
                -2.401839954344725
            ]
        },
        {
            "positions": [
                -2.7916331477946947,
                -0.5498107539034972,
                0.260203534340718,
                -0.471061429036465,
                -0.1920887111177464,
                -2.2793538675840335
            ]
        },
        {
            "positions": [
                -2.798887922027576,
                -0.5362036861302902,
                0.18843021957481,
                -0.5280598049743599,
                -0.2822121866190968,
                -2.1568677808233416
            ]
        },
        {
            "positions": [
                -2.806142696260457,
                -0.5225966183570833,
                0.11665690480890195,
                -0.5850581809122547,
                -0.3723356621204472,
                -2.0343816940626502
            ]
        },
        {
            "positions": [
                -2.8133974704933387,
                -0.5089895505838764,
                0.044883590042993915,
                -0.6420565568501496,
                -0.4624591376217977,
                -1.9118956073019584
            ]
        },
        {
            "positions": [
                -2.8206522447262197,
                -0.49538248281066943,
                -0.026889724722914177,
                -0.6990549327880445,
                -0.5525826131231482,
                -1.7894095205412668
            ]
        },
        {
            "positions": [
                -2.827907018959101,
                -0.48177541503746246,
                -0.09866303948882227,
                -0.7560533087259396,
                -0.6427060886244986,
                -1.6669234337805752
            ]
        },
        {
            "positions": [
                -2.835161793191982,
                -0.4681683472642555,
                -0.17043635425473025,
                -0.8130516846638343,
                -0.732829564125849,
                -1.5444373470198836
            ]
        },
        {
            "positions": [
                -2.8424165674248636,
                -0.4545612794910486,
                -0.2422096690206384,
                -0.8700500606017292,
                -0.8229530396271995,
                -1.421951260259192
            ]
        },
        {
            "positions": [
                -2.659646357658801,
                -0.4886261068532884,
                -0.34012954142736007,
                -0.8621236685960211,
                -0.8476290845244102,
                -1.4508014570796155
            ]
        },
        {
            "positions": [
                -2.476876147892739,
                -0.5226909342155281,
                -0.4380494138340818,
                -0.8541972765903129,
                -0.872305129421621,
                -1.4796516539000388
            ]
        },
        {
            "positions": [
                -2.294105938126677,
                -0.556755761577768,
                -0.5359692862408034,
                -0.8462708845846048,
                -0.8969811743188318,
                -1.5085018507204624
            ]
        },
        {
            "positions": [
                -2.1113357283606144,
                -0.5908205889400078,
                -0.6338891586475252,
                -0.8383444925788966,
                -0.9216572192160426,
                -1.5373520475408857
            ]
        },
        {
            "positions": [
                -1.928565518594552,
                -0.6248854163022476,
                -0.7318090310542469,
                -0.8304181005731884,
                -0.9463332641132534,
                -1.5662022443613093
            ]
        },
        {
            "positions": [
                -1.7457953088284899,
                -0.6589502436644874,
                -0.8297289034609685,
                -0.8224917085674803,
                -0.9710093090104641,
                -1.5950524411817328
            ]
        },
        {
            "positions": [
                -1.5630250990624275,
                -0.6930150710267272,
                -0.9276487758676903,
                -0.8145653165617722,
                -0.9956853539076749,
                -1.6239026380021562
            ]
        },
        {
            "positions": [
                -1.3802548892963653,
                -0.727079898388967,
                -1.025568648274412,
                -0.806638924556064,
                -1.0203613988048856,
                -1.6527528348225797
            ]
        },
        {
            "positions": [
                -1.197484679530303,
                -0.7611447257512067,
                -1.1234885206811336,
                -0.7987125325503559,
                -1.0450374437020964,
                -1.6816030316430033
            ]
        },
        {
            "positions": [
                -1.0147144697642405,
                -0.7952095531134467,
                -1.2214083930878554,
                -0.7907861405446478,
                -1.0697134885993071,
                -1.7104532284634266
            ]
        },
        {
            "positions": [
                -0.8319442599981781,
                -0.8292743804756864,
                -1.319328265494577,
                -0.7828597485389396,
                -1.0943895334965181,
                -1.7393034252838502
            ]
        },
        {
            "positions": [
                -0.6491740502321162,
                -0.8633392078379262,
                -1.4172481379012987,
                -0.7749333565332315,
                -1.1190655783937289,
                -1.7681536221042735
            ]
        },
        {
            "positions": [
                -0.46640384046605377,
                -0.897404035200166,
                -1.5151680103080203,
                -0.7670069645275234,
                -1.1437416232909396,
                -1.797003818924697
            ]
        },
        {
            "positions": [
                -0.28363363069999137,
                -0.9314688625624058,
                -1.6130878827147421,
                -0.7590805725218152,
                -1.1684176681881504,
                -1.8258540157451204
            ]
        },
        {
            "positions": [
                -0.10086342093392897,
                -0.9655336899246456,
                -1.7110077551214637,
                -0.751154180516107,
                -1.1930937130853612,
                -1.854704212565544
            ]
        },
        {
            "positions": [
                0.08190678883213298,
                -0.9995985172868853,
                -1.8089276275281854,
                -0.743227788510399,
                -1.217769757982572,
                -1.8835544093859675
            ]
        },
        {
            "positions": [
                0.2646769985981954,
                -1.0336633446491252,
                -1.906847499934907,
                -0.7353013965046907,
                -1.2424458028797827,
                -1.9124046062063909
            ]
        },
        {
            "positions": [
                0.44744720836425783,
                -1.067728172011365,
                -2.004767372341629,
                -0.7273750044989826,
                -1.2671218477769934,
                -1.9412548030268144
            ]
        },
        {
            "positions": [
                0.41873133662877554,
                -1.1293157392464197,
                -2.0246557477502267,
                -0.6154592644458196,
                -1.1941925090370011,
                -1.8438981084745085
            ]
        },
        {
            "positions": [
                0.3900154648932933,
                -1.1909033064814745,
                -2.044544123158824,
                -0.5035435243926565,
                -1.1212631702970088,
                -1.7465414139222026
            ]
        },
        {
            "positions": [
                0.361299593157811,
                -1.2524908737165292,
                -2.064432498567422,
                -0.3916277843394933,
                -1.0483338315570165,
                -1.6491847193698965
            ]
        },
        {
            "positions": [
                0.3325837214223287,
                -1.314078440951584,
                -2.0843208739760195,
                -0.27971204428633023,
                -0.9754044928170242,
                -1.5518280248175906
            ]
        },
        {
            "positions": [
                0.30386784968684644,
                -1.375666008186639,
                -2.1042092493846174,
                -0.16779630423316705,
                -0.9024751540770319,
                -1.4544713302652847
            ]
        },
        {
            "positions": [
                0.27515197795136415,
                -1.4372535754216937,
                -2.124097624793215,
                -0.05588056418000398,
                -0.8295458153370396,
                -1.3571146357129789
            ]
        },
        {
            "positions": [
                0.2464361062158819,
                -1.4988411426567485,
                -2.1439860002018127,
                0.05603517587315909,
                -0.7566164765970474,
                -1.259757941160673
            ]
        },
        {
            "positions": [
                0.21772023448039962,
                -1.5604287098918033,
                -2.16387437561041,
                0.16795091592632216,
                -0.6836871378570551,
                -1.162401246608367
            ]
        },
        {
            "positions": [
                0.18900436274491733,
                -1.622016277126858,
                -2.183762751019008,
                0.27986665597948535,
                -0.6107577991170628,
                -1.0650445520560612
            ]
        },
        {
            "positions": [
                0.16028849100943504,
                -1.683603844361913,
                -2.2036511264276055,
                0.39178239603264853,
                -0.5378284603770705,
                -0.9676878575037552
            ]
        },
        {
            "positions": [
                0.13157261927395275,
                -1.7451914115969678,
                -2.2235395018362034,
                0.5036981360858115,
                -0.46489912163707825,
                -0.8703311629514492
            ]
        },
        {
            "positions": [
                0.10285674753847046,
                -1.8067789788320225,
                -2.243427877244801,
                0.6156138761389747,
                -0.39196978289708595,
                -0.7729744683991433
            ]
        },
        {
            "positions": [
                0.07414087580298828,
                -1.8683665460670773,
                -2.2633162526533988,
                0.7275296161921376,
                -0.31904044415709376,
                -0.6756177738468376
            ]
        },
        {
            "positions": [
                0.04542500406750599,
                -1.929954113302132,
                -2.283204628061996,
                0.8394453562453008,
                -0.24611110541710146,
                -0.5782610792945317
            ]
        },
        {
            "positions": [
                0.016709132332023702,
                -1.9915416805371868,
                -2.303093003470594,
                0.9513610962984638,
                -0.17318176667710916,
                -0.48090438474222563
            ]
        },
        {
            "positions": [
                -0.012006739403458588,
                -2.0531292477722416,
                -2.3229813788791915,
                1.063276836351627,
                -0.10025242793711686,
                -0.38354769018991974
            ]
        },
        {
            "positions": [
                -0.04072261113894088,
                -2.1147168150072964,
                -2.3428697542877894,
                1.1751925764047901,
                -0.02732308919712456,
                -0.28619099563761397
            ]
        },
        {
            "positions": [
                -0.08880195258694212,
                -2.169648628642263,
                -2.357119460628409,
                1.2768499273553762,
                0.0388403245749961,
                -0.17871454966168027
            ]
        },
        {
            "positions": [
                -0.13688129403494337,
                -2.2245804422772295,
                -2.3713691669690284,
                1.3785072783059624,
                0.10500373834711677,
                -0.07123810368574657
            ]
        },
        {
            "positions": [
                -0.18496063548294464,
                -2.2795122559121963,
                -2.385618873309648,
                1.4801646292565485,
                0.17116715211923744,
                0.03623834229018713
            ]
        }
    ]
}