{
    "goal": {
        "global_pose": {
            "orientation": {
                "w": 0.005598929693374612,
                "x": 0.007748599140229565,
                "y": 0.7110244013736278,
                "z": -0.7031023480610252
            },
            "position": {
                "x": 0.1141497679147869,
                "y": -0.7141253447532654,
                "z": 0.3711530566215515
            }
        },
        "name": "move_to_auspresseinheit_B"
    },
    "id": "EST_move_to_auspresseinheit_B_133",
    "joint_names": [
        "shoulder_pan_joint",
        "shoulder_lift_joint",
        "elbow_joint",
        "wrist_1_joint",
        "wrist_2_joint",
        "wrist_3_joint"
    ],
    "metrics": {
        "cart_traj_len": 0.564613754407316,
        "distance_elbow_joint": 0.05887899017028708,
        "distance_shoulder_lift_joint": 0.29479640670903495,
        "distance_shoulder_pan_joint": 0.5787152082203431,
        "distance_wrist_1_joint": 0.3136040724516955,
        "distance_wrist_2_joint": 0.9861643088354468,
        "distance_wrist_3_joint": 0.000535535406533949,
        "smoothness": 0.0,
        "time": 0.165474373,
        "traj_len": 1.4942203725666912,
        "weighted_distance": 1.8797696597970595
    },
    "planner": "EST",
    "start": {
        "state": {
            "elbow_joint": 2.0193083361928714,
            "shoulder_lift_joint": -1.1220246554650708,
            "shoulder_pan_joint": -1.0952077554168747,
            "wrist_1_joint": -0.8559753972642168,
            "wrist_2_joint": 0.4759566250798843,
            "wrist_3_joint": -3.1240929996934557
        }
    },
    "waypoints": [
        {
            "positions": [
                -1.0952077554168747,
                -1.1220246554650708,
                2.0193083361928714,
                -0.8559753972642168,
                0.4759566250798843,
                -3.1240929996934557
            ]
        },
        {
            "positions": [
                -1.191660290120265,
                -1.1711573899165766,
                2.0094951711644904,
                -0.8037080518556009,
                0.6403173432191254,
                -3.124182255594545
            ]
        },
        {
            "positions": [
                -1.2881128248236557,
                -1.2202901243680824,
                1.9996820061361091,
                -0.7514407064469849,
                0.8046780613583666,
                -3.1242715114956336
            ]
        },
        {
            "positions": [
                -1.3845653595270462,
                -1.2694228588195884,
                1.9898688411077279,
                -0.699173361038369,
                0.9690387794976076,
                -3.1243607673967224
            ]
        },
        {
            "positions": [
                -1.4810178942304366,
                -1.3185555932710942,
                1.9800556760793466,
                -0.6469060156297531,
                1.1333994976368489,
                -3.1244500232978116
            ]
        },
        {
            "positions": [
                -1.5774704289338273,
                -1.3676883277226,
                1.9702425110509656,
                -0.5946386702211371,
                1.29776021577609,
                -3.124539279198901
            ]
        },
        {
            "positions": [
                -1.6739229636372177,
                -1.4168210621741057,
                1.9604293460225843,
                -0.5423713248125213,
                1.4621209339153312,
                -3.1246285350999896
            ]
        }
    ]
}