{
    "goal": {
        "global_pose": {
            "orientation": {
                "w": 0.5084816217422485,
                "x": -0.49083608388900757,
                "y": 0.5182115435600281,
                "z": -0.4816462993621826
            },
            "position": {
                "x": 0.5540239810943604,
                "y": 0.030875300988554955,
                "z": 0.16403168439865112
            }
        },
        "name": "move_to_storage_A"
    },
    "id": "EST_move_to_storage_A_39",
    "joint_names": [
        "shoulder_pan_joint",
        "shoulder_lift_joint",
        "elbow_joint",
        "wrist_1_joint",
        "wrist_2_joint",
        "wrist_3_joint"
    ],
    "metrics": {
        "cart_traj_len": 0.3532621267784617,
        "distance_elbow_joint": 0.45397912418226816,
        "distance_shoulder_lift_joint": 0.23422974859938606,
        "distance_shoulder_pan_joint": 0.46186752855809343,
        "distance_wrist_1_joint": 0.2618582962260113,
        "distance_wrist_2_joint": 1.099617049595162,
        "distance_wrist_3_joint": 0.10901446256244451,
        "smoothness": 4.440892098500626e-16,
        "time": 0.159406234,
        "traj_len": 1.6188162989429546,
        "weighted_distance": 2.049407348642389
    },
    "planner": "EST",
    "start": {
        "state": {
            "elbow_joint": 1.971548259319323,
            "shoulder_lift_joint": -1.1394851275133948,
            "shoulder_pan_joint": 0.1228115487234821,
            "wrist_1_joint": -0.7804723859257726,
            "wrist_2_joint": 0.12958671773740124,
            "wrist_3_joint": -3.192489227718131
        }
    },
    "waypoints": [
        {
            "positions": [
                0.1228115487234821,
                -1.1394851275133948,
                1.971548259319323,
                -0.7804723859257726,
                0.12958671773740124,
                -3.192489227718131
            ]
        },
        {
            "positions": [
                0.056830473215183044,
                -1.1729465201704499,
                2.03640241991679,
                -0.81788071395806,
                0.28667486767956724,
                -3.1769157330663536
            ]
        },
        {
            "positions": [
                -0.009150602293116011,
                -1.2064079128275051,
                2.101256580514257,
                -0.8552890419903473,
                0.4437630176217332,
                -3.1613422384145755
            ]
        },
        {
            "positions": [
                -0.07513167780141508,
                -1.2398693054845602,
                2.1661107411117237,
                -0.8926973700226346,
                0.6008511675638992,
                -3.145768743762798
            ]
        },
        {
            "positions": [
                -0.14111275330971412,
                -1.2733306981416155,
                2.2309649017091906,
                -0.9301056980549219,
                0.7579393175060652,
                -3.13019524911102
            ]
        },
        {
            "positions": [
                -0.2070938288180132,
                -1.3067920907986705,
                2.2958190623066574,
                -0.9675140260872093,
                0.9150274674482313,
                -3.1146217544592423
            ]
        },
        {
            "positions": [
                -0.27307490432631226,
                -1.3402534834557258,
                2.3606732229041243,
                -1.0049223541194965,
                1.0721156173903972,
                -3.0990482598074642
            ]
        },
        {
            "positions": [
                -0.33905597983461133,
                -1.3737148761127809,
                2.425527383501591,
                -1.042330682151784,
                1.2292037673325633,
                -3.0834747651556866
            ]
        }
    ]
}{
    "goal": {
        "global_pose": {
            "orientation": {
                "w": 0.5084816217422485,
                "x": -0.49083608388900757,
                "y": 0.5182115435600281,
                "z": -0.4816462993621826
            },
            "position": {
                "x": 0.5540239810943604,
                "y": 0.030875300988554955,
                "z": 0.16403168439865112
            }
        },
        "name": "move_to_storage_A"
    },
    "id": "EST_move_to_storage_A_39",
    "joint_names": [
        "shoulder_pan_joint",
        "shoulder_lift_joint",
        "elbow_joint",
        "wrist_1_joint",
        "wrist_2_joint",
        "wrist_3_joint"
    ],
    "metrics": {
        "cart_traj_len": 0.35297680690446775,
        "distance_elbow_joint": 0.4494907943515787,
        "distance_shoulder_lift_joint": 0.23458190976065452,
        "distance_shoulder_pan_joint": 0.45878957159873646,
        "distance_wrist_1_joint": 0.23765041797051767,
        "distance_wrist_2_joint": 1.1109398055759776,
        "distance_wrist_3_joint": 0.09163263967747604,
        "smoothness": 6.661338200497456e-16,
        "time": 0.033834054,
        "traj_len": 1.6071979152969746,
        "weighted_distance": 2.0285316467426355
    },
    "planner": "EST",
    "start": {
        "state": {
            "elbow_joint": 1.97154746011099,
            "shoulder_lift_joint": -1.13948474672311,
            "shoulder_pan_joint": 0.12281154466712228,
            "wrist_1_joint": -0.7804688027058302,
            "wrist_2_joint": 0.12958655903071145,
            "wrist_3_joint": 3.0906928834467795
        }
    },
    "waypoints": [
        {
            "positions": [
                0.12281154466712228,
                -1.13948474672311,
                1.97154746011099,
                -0.7804688027058302,
                0.12958655903071145,
                3.0906928834467795
            ]
        },
        {
            "positions": [
                0.05727017729587422,
                -1.1729964481174893,
                2.035760430732644,
                -0.8144188624159041,
                0.2882922455415654,
                3.103783260543562
            ]
        },
        {
            "positions": [
                -0.008271190075373844,
                -1.2065081495118684,
                2.099973401354298,
                -0.848368922125978,
                0.44699793205241933,
                3.116873637640344
            ]
        },
        {
            "positions": [
                -0.0738125574466219,
                -1.2400198509062477,
                2.164186371975952,
                -0.8823189818360521,
                0.6057036185632733,
                3.1299640147371264
            ]
        },
        {
            "positions": [
                -0.13935392481786996,
                -1.2735315523006268,
                2.2283993425976063,
                -0.916269041546126,
                0.7644093050741272,
                3.1430543918339087
            ]
        },
        {
            "positions": [
                -0.20489529218911806,
                -1.307043253695006,
                2.2926123132192604,
                -0.9502191012562,
                0.9231149915849812,
                3.156144768930691
            ]
        },
        {
            "positions": [
                -0.27043665956036606,
                -1.3405549550893852,
                2.3568252838409145,
                -0.9841691609662739,
                1.081820678095835,
                3.1692351460274732
            ]
        },
        {
            "positions": [
                -0.33597802693161416,
                -1.3740666564837645,
                2.4210382544625686,
                -1.0181192206763479,
                1.240526364606689,
                3.1823255231242555
            ]
        }
    ]
}{
    "goal": {
        "global_pose": {
            "orientation": {
                "w": 0.5084816217422485,
                "x": -0.49083608388900757,
                "y": 0.5182115435600281,
                "z": -0.4816462993621826
            },
            "position": {
                "x": 0.5540239810943604,
                "y": 0.030875300988554955,
                "z": 0.16403168439865112
            }
        },
        "name": "move_to_storage_A"
    },
    "id": "EST_move_to_storage_A_39",
    "joint_names": [
        "shoulder_pan_joint",
        "shoulder_lift_joint",
        "elbow_joint",
        "wrist_1_joint",
        "wrist_2_joint",
        "wrist_3_joint"
    ],
    "metrics": {
        "cart_traj_len": 0.3536873351353611,
        "distance_elbow_joint": 0.4533679106744066,
        "distance_shoulder_lift_joint": 0.23376966486017836,
        "distance_shoulder_pan_joint": 0.4645632855533472,
        "distance_wrist_1_joint": 0.25891749892569904,
        "distance_wrist_2_joint": 1.0909778895923141,
        "distance_wrist_3_joint": 0.10760677442908095,
        "smoothness": 4.440892133664971e-16,
        "time": 0.030965779,
        "traj_len": 1.615302765439045,
        "weighted_distance": 2.043113301168391
    },
    "planner": "EST",
    "start": {
        "state": {
            "elbow_joint": 1.9715472970024885,
            "shoulder_lift_joint": -1.1394870060712896,
            "shoulder_pan_joint": 0.12281152778156021,
            "wrist_1_joint": -0.780463741449964,
            "wrist_2_joint": 0.12958659822042276,
            "wrist_3_joint": 3.090690232415272
        }
    },
    "waypoints": [
        {
            "positions": [
                0.12281152778156021,
                -1.1394870060712896,
                1.9715472970024885,
                -0.780463741449964,
                0.12958659822042276,
                3.090690232415272
            ]
        },
        {
            "positions": [
                0.056445344131082056,
                -1.1728826724798864,
                2.0363141413845467,
                -0.8174519555822067,
                0.28544058244789616,
                3.1060626287622832
            ]
        },
        {
            "positions": [
                -0.009920839519396096,
                -1.2062783388884835,
                2.101080985766605,
                -0.8544401697144495,
                0.4412945666753696,
                3.121435025109295
            ]
        },
        {
            "positions": [
                -0.07628702316987426,
                -1.2396740052970803,
                2.165847830148663,
                -0.8914283838466921,
                0.597148550902843,
                3.1368074214563064
            ]
        },
        {
            "positions": [
                -0.1426532068203524,
                -1.2730696717056773,
                2.2306146745307207,
                -0.9284165979789348,
                0.7530025351303165,
                3.1521798178033182
            ]
        },
        {
            "positions": [
                -0.2090193904708306,
                -1.3064653381142741,
                2.295381518912779,
                -0.9654048121111776,
                0.90885651935779,
                3.1675522141503296
            ]
        },
        {
            "positions": [
                -0.2753855741213087,
                -1.339861004522871,
                2.360148363294837,
                -1.0023930262434204,
                1.0647105035852633,
                3.1829246104973414
            ]
        },
        {
            "positions": [
                -0.34175175777178696,
                -1.373256670931468,
                2.424915207676895,
                -1.039381240375663,
                1.2205644878127369,
                3.198297006844353
            ]
        }
    ]
}