{
    "goal": {
        "global_pose": {
            "orientation": {
                "w": -0.00223480608172531,
                "x": 0.0024358444001904467,
                "y": 0.7094548369677653,
                "z": -0.704743149386269
            },
            "position": {
                "x": 0.6205249238014221,
                "y": -0.6371506643295288,
                "z": 0.19426114857196808
            }
        },
        "name": "move_to_magneteinheit_B"
    },
    "id": "EST_move_to_magneteinheit_B_6",
    "joint_names": [
        "shoulder_pan_joint",
        "shoulder_lift_joint",
        "elbow_joint",
        "wrist_1_joint",
        "wrist_2_joint",
        "wrist_3_joint"
    ],
    "metrics": {
        "cart_traj_len": 2.440461784893168,
        "distance_elbow_joint": 2.0221064851295227,
        "distance_shoulder_lift_joint": 1.0551095033513271,
        "distance_shoulder_pan_joint": 2.0945145453753398,
        "distance_wrist_1_joint": 3.0579738793811853,
        "distance_wrist_2_joint": 1.5866975918956672,
        "distance_wrist_3_joint": 2.283808800265575,
        "smoothness": 0.8025573403761128,
        "time": 0.378488952,
        "traj_len": 3.4785357271988184,
        "weighted_distance": 4.6165463148555785
    },
    "planner": "EST",
    "start": {
        "state": {
            "elbow_joint": 2.6216224122426386,
            "shoulder_lift_joint": -1.4174107377796124,
            "shoulder_pan_joint": 0.7066234856936794,
            "wrist_1_joint": 1.9546482284002225,
            "wrist_2_joint": -0.7096286983471962,
            "wrist_3_joint": 0.005740856962016249
        }
    },
    "waypoints": [
        {
            "positions": [
                0.7066234856936794,
                -1.4174107377796124,
                2.6216224122426386,
                1.9546482284002225,
                -0.7096286983471962,
                0.005740856962016249
            ]
        },
        {
            "positions": [
                0.7089468444900777,
                -1.4267376151065856,
                2.606576327476079,
                1.797879521833003,
                -0.7410313394259034,
                0.08866795648308033
            ]
        },
        {
            "positions": [
                0.7112702032864762,
                -1.4360644924335588,
                2.59153024270952,
                1.6411108152657838,
                -0.7724339805046107,
                0.17159505600414443
            ]
        },
        {
            "positions": [
                0.7135935620828745,
                -1.445391369760532,
                2.5764841579429607,
                1.4843421086985644,
                -0.8038366215833178,
                0.2545221555252085
            ]
        },
        {
            "positions": [
                0.736630703972172,
                -1.4574338066319565,
                2.4318914551539157,
                1.3877371350684653,
                -0.8006507829509943,
                0.1397502278451277
            ]
        },
        {
            "positions": [
                0.7596678458614696,
                -1.4694762435033812,
                2.2872987523648702,
                1.2911321614383662,
                -0.7974649443186709,
                0.0249783001650469
            ]
        },
        {
            "positions": [
                0.7827049877507671,
                -1.4815186803748057,
                2.1427060495758248,
                1.194527187808267,
                -0.7942791056863474,
                -0.08979362751503389
            ]
        },
        {
            "positions": [
                0.8057421296400646,
                -1.4935611172462302,
                1.9981133467867798,
                1.097922214178168,
                -0.7910932670540239,
                -0.2045655551951147
            ]
        },
        {
            "positions": [
                0.8287792715293623,
                -1.5056035541176547,
                1.8535206439977345,
                1.0013172405480688,
                -0.7879074284217005,
                -0.3193374828751955
            ]
        },
        {
            "positions": [
                0.8518164134186598,
                -1.5176459909890794,
                1.7089279412086893,
                0.9047122669179697,
                -0.7847215897893771,
                -0.4341094105552763
            ]
        },
        {
            "positions": [
                0.8748535553079573,
                -1.5296884278605039,
                1.564335238419644,
                0.8081072932878706,
                -0.7815357511570536,
                -0.548881338235357
            ]
        },
        {
            "positions": [
                0.8978906971972549,
                -1.5417308647319283,
                1.4197425356305988,
                0.7115023196577714,
                -0.7783499125247302,
                -0.6636532659154379
            ]
        },
        {
            "positions": [
                0.9209278390865524,
                -1.553773301603353,
                1.2751498328415536,
                0.6148973460276723,
                -0.7751640738924067,
                -0.7784251935955188
            ]
        },
        {
            "positions": [
                0.9439649809758499,
                -1.5658157384747775,
                1.1305571300525084,
                0.5182923723975732,
                -0.7719782352600832,
                -0.8931971212755995
            ]
        },
        {
            "positions": [
                0.8462190309709463,
                -1.5180944488612953,
                1.1585066670493185,
                0.603640689417496,
                -0.8488535659093628,
                -0.846496688386043
            ]
        },
        {
            "positions": [
                0.7484730809660427,
                -1.470373159247813,
                1.1864562040461286,
                0.6889890064374189,
                -0.9257288965586423,
                -0.7997962554964865
            ]
        },
        {
            "positions": [
                0.650727130961139,
                -1.4226518696343309,
                1.2144057410429387,
                0.7743373234573419,
                -1.0026042272079219,
                -0.75309582260693
            ]
        },
        {
            "positions": [
                0.5529811809562354,
                -1.3749305800208487,
                1.2423552780397489,
                0.8596856404772647,
                -1.0794795578572014,
                -0.7063953897173734
            ]
        },
        {
            "positions": [
                0.4552352309513317,
                -1.3272092904073665,
                1.270304815036559,
                0.9450339574971875,
                -1.156354888506481,
                -0.6596949568278169
            ]
        },
        {
            "positions": [
                0.35748928094642807,
                -1.2794880007938843,
                1.2982543520333691,
                1.0303822745171103,
                -1.2332302191557605,
                -0.6129945239382604
            ]
        },
        {
            "positions": [
                0.25974333094152446,
                -1.231766711180402,
                1.3262038890301793,
                1.1157305915370332,
                -1.3101055498050398,
                -0.5662940910487038
            ]
        },
        {
            "positions": [
                0.16199738093662086,
                -1.1840454215669198,
                1.3541534260269894,
                1.2010789085569562,
                -1.3869808804543196,
                -0.5195936581591474
            ]
        },
        {
            "positions": [
                0.06425143093171726,
                -1.1363241319534376,
                1.3821029630237995,
                1.2864272255768792,
                -1.4638562111035989,
                -0.4728932252695908
            ]
        },
        {
            "positions": [
                -0.03349451907318646,
                -1.0886028423399554,
                1.4100525000206097,
                1.371775542596802,
                -1.5407315417528786,
                -0.42619279238003427
            ]
        },
        {
            "positions": [
                -0.13124046907809017,
                -1.0408815527264732,
                1.4380020370174198,
                1.4571238596167249,
                -1.617606872402158,
                -0.37949235949047766
            ]
        },
        {
            "positions": [
                -0.22898641908299378,
                -0.9931602631129911,
                1.46595157401423,
                1.5424721766366476,
                -1.6944822030514375,
                -0.3327919266009213
            ]
        },
        {
            "positions": [
                -0.3267323690878974,
                -0.9454389734995089,
                1.49390111101104,
                1.6278204936565706,
                -1.771357533700717,
                -0.28609149371136466
            ]
        },
        {
            "positions": [
                -0.424478319092801,
                -0.8977176838860267,
                1.5218506480078502,
                1.7131688106764935,
                -1.8482328643499966,
                -0.23939106082180817
            ]
        },
        {
            "positions": [
                -0.5222242690977046,
                -0.8499963942725445,
                1.5498001850046603,
                1.7985171276964165,
                -1.925108194999276,
                -0.19269062793225167
            ]
        },
        {
            "positions": [
                -0.6199702191026082,
                -0.8022751046590623,
                1.5777497220014705,
                1.8838654447163392,
                -2.001983525648556,
                -0.14599019504269517
            ]
        },
        {
            "positions": [
                -0.717716169107512,
                -0.7545538150455801,
                1.6056992589982806,
                1.9692137617362622,
                -2.078858856297835,
                -0.09928976215313856
            ]
        },
        {
            "positions": [
                -0.8154621191124154,
                -0.7068325254320978,
                1.6336487959950907,
                2.054562078756185,
                -2.1557341869471145,
                -0.052589329263582174
            ]
        },
        {
            "positions": [
                -0.9132080691173193,
                -0.6591112358186156,
                1.6615983329919009,
                2.139910395776108,
                -2.2326095175963943,
                -0.0058888963740255955
            ]
        }
    ]
}