{
    "goal": {
        "global_pose": {
            "orientation": {
                "w": -0.4816463035849501,
                "x": 0.5182115481033762,
                "y": 0.4908360881923453,
                "z": -0.5084816262002911
            },
            "position": {
                "x": -0.8240239810943604,
                "y": 0.19912469901144506,
                "z": 0.16403168439865112
            }
        },
        "name": "move_to_storage_D"
    },
    "id": "EST_move_to_storage_D_33",
    "joint_names": [
        "shoulder_pan_joint",
        "shoulder_lift_joint",
        "elbow_joint",
        "wrist_1_joint",
        "wrist_2_joint",
        "wrist_3_joint"
    ],
    "metrics": {
        "cart_traj_len": 0.6397201333072091,
        "distance_elbow_joint": 0.5557378761848297,
        "distance_shoulder_lift_joint": 0.2491570845510287,
        "distance_shoulder_pan_joint": 0.35983075315532076,
        "distance_wrist_1_joint": 3.870094645466587,
        "distance_wrist_2_joint": 1.7882603582207255,
        "distance_wrist_3_joint": 3.116853563449324,
        "smoothness": 0.06081779643052388,
        "time": 0.08726002699999999,
        "traj_len": 3.1527661316735527,
        "weighted_distance": 4.672472194846512
    },
    "planner": "EST",
    "start": {
        "state": {
            "elbow_joint": -2.384821988534728,
            "shoulder_lift_joint": -2.2788054721415256,
            "shoulder_pan_joint": -0.1854694642142757,
            "wrist_1_joint": 1.4845938289331202,
            "wrist_2_joint": 0.17898776772866878,
            "wrist_3_joint": 0.037105688729662994
        }
    },
    "waypoints": [
        {
            "positions": [
                -0.1854694642142757,
                -2.2788054721415256,
                -2.384821988534728,
                1.4845938289331202,
                0.17898776772866878,
                0.037105688729662994
            ]
        },
        {
            "positions": [
                -0.058141791460902564,
                -2.178802542806525,
                -2.339290434848678,
                1.4969235666017253,
                0.14795723149978712,
                -0.0007700298042767062
            ]
        },
        {
            "positions": [
                0.06918588129247058,
                -2.0787996134715248,
                -2.2937588811626277,
                1.5092533042703307,
                0.11692669527090548,
                -0.038645748338216414
            ]
        },
        {
            "positions": [
                0.06480357264044664,
                -2.0808475812165677,
                -2.2743974324620972,
                1.3490268388482733,
                0.04500172503078205,
                -0.16535833693744326
            ]
        },
        {
            "positions": [
                0.06042126398842272,
                -2.0828955489616106,
                -2.2550359837615668,
                1.188800373426216,
                -0.026923245209341376,
                -0.29207092553667013
            ]
        },
        {
            "positions": [
                0.056038955336398785,
                -2.0849435167066535,
                -2.2356745350610367,
                1.0285739080041587,
                -0.0988482154494648,
                -0.418783514135897
            ]
        },
        {
            "positions": [
                0.05165664668437486,
                -2.086991484451696,
                -2.2163130863605063,
                0.8683474425821013,
                -0.17077318568958821,
                -0.5454961027351238
            ]
        },
        {
            "positions": [
                0.04727433803235093,
                -2.089039452196739,
                -2.196951637659976,
                0.7081209771600439,
                -0.24269815592971167,
                -0.6722086913343507
            ]
        },
        {
            "positions": [
                0.042892029380327,
                -2.0910874199417817,
                -2.1775901889594453,
                0.5478945117379865,
                -0.31462312616983507,
                -0.7989212799335775
            ]
        },
        {
            "positions": [
                0.03850972072830307,
                -2.0931353876868246,
                -2.158228740258915,
                0.3876680463159292,
                -0.3865480964099586,
                -0.9256338685328045
            ]
        },
        {
            "positions": [
                0.03412741207627914,
                -2.0951833554318675,
                -2.1388672915583844,
                0.2274415808938719,
                -0.4584730666500819,
                -1.0523464571320311
            ]
        },
        {
            "positions": [
                0.02974510342425521,
                -2.09723132317691,
                -2.119505842857854,
                0.06721511547181458,
                -0.5303980368902054,
                -1.179059045731258
            ]
        },
        {
            "positions": [
                0.025362794772231273,
                -2.099279290921953,
                -2.100144394157324,
                -0.09301134995024296,
                -0.6023230071303288,
                -1.3057716343304848
            ]
        },
        {
            "positions": [
                0.020980486120207344,
                -2.1013272586669958,
                -2.0807829454567934,
                -0.2532378153723003,
                -0.6742479773704522,
                -1.4324842229297117
            ]
        },
        {
            "positions": [
                0.016598177468183414,
                -2.1033752264120387,
                -2.061421496756263,
                -0.4134642807943576,
                -0.7461729476105756,
                -1.5591968115289385
            ]
        },
        {
            "positions": [
                0.012215868816159485,
                -2.1054231941570816,
                -2.0420600480557325,
                -0.5736907462164147,
                -0.818097917850699,
                -1.6859094001281651
            ]
        },
        {
            "positions": [
                0.007833560164135549,
                -2.1074711619021245,
                -2.022698599355202,
                -0.7339172116384722,
                -0.8900228880908226,
                -1.8126219887273924
            ]
        },
        {
            "positions": [
                0.0034512515121116194,
                -2.1095191296471674,
                -2.003337150654672,
                -0.8941436770605298,
                -0.9619478583309459,
                -1.939334577326619
            ]
        },
        {
            "positions": [
                -0.000931057139912303,
                -2.11156709739221,
                -1.9839757019541415,
                -1.0543701424825869,
                -1.0338728285710694,
                -2.066047165925846
            ]
        },
        {
            "positions": [
                -0.005313365791936239,
                -2.1136150651372527,
                -1.964614253253611,
                -1.2145966079046444,
                -1.1057977988111929,
                -2.192759754525073
            ]
        },
        {
            "positions": [
                -0.009695674443960162,
                -2.1156630328822956,
                -1.9452528045530806,
                -1.3748230733267015,
                -1.1777227690513163,
                -2.3194723431243
            ]
        },
        {
            "positions": [
                -0.014077983095984098,
                -2.1177110006273385,
                -1.9258913558525501,
                -1.535049538748759,
                -1.2496477392914396,
                -2.4461849317235265
            ]
        },
        {
            "positions": [
                -0.018460291748008034,
                -2.1197589683723814,
                -1.9065299071520196,
                -1.6952760041708166,
                -1.3215727095315632,
                -2.5728975203227535
            ]
        },
        {
            "positions": [
                -0.022842600400031957,
                -2.121806936117424,
                -1.8871684584514894,
                -1.8555024695928737,
                -1.3934976797716865,
                -2.69961010892198
            ]
        },
        {
            "positions": [
                -0.027224909052055893,
                -2.123854903862467,
                -1.8678070097509591,
                -2.0157289350149314,
                -1.46542265001181,
                -2.8263226975212072
            ]
        },
        {
            "positions": [
                -0.03160721770407983,
                -2.1259028716075097,
                -1.8484455610504287,
                -2.1759554004369885,
                -1.5373476202519334,
                -2.9530352861204343
            ]
        },
        {
            "positions": [
                -0.03598952635610375,
                -2.1279508393525526,
                -1.8290841123498982,
                -2.336181865859046,
                -1.6092725904920568,
                -3.079747874719661
            ]
        }
    ]
}