{
    "goal": {
        "global_pose": {
            "orientation": {
                "w": 0.7047431468963623,
                "x": -0.7094548344612122,
                "y": 0.0024358443915843964,
                "z": -0.0022348060738295317
            },
            "position": {
                "x": 0.6094750761985779,
                "y": 0.3671506643295288,
                "z": 0.19426114857196808
            }
        },
        "name": "move_to_magneteinheit_A"
    },
    "id": "EST_move_to_magneteinheit_A_47",
    "joint_names": [
        "shoulder_pan_joint",
        "shoulder_lift_joint",
        "elbow_joint",
        "wrist_1_joint",
        "wrist_2_joint",
        "wrist_3_joint"
    ],
    "metrics": {
        "cart_traj_len": 3.6823105062253174,
        "distance_elbow_joint": 3.9206737430771144,
        "distance_shoulder_lift_joint": 0.4643631375515912,
        "distance_shoulder_pan_joint": 4.950087593889903,
        "distance_wrist_1_joint": 3.492999035640466,
        "distance_wrist_2_joint": 1.4360400631016423,
        "distance_wrist_3_joint": 1.0139396687163102,
        "smoothness": 0.2890610626713514,
        "time": 0.089501254,
        "traj_len": 3.908721433151386,
        "weighted_distance": 4.71540259979482
    },
    "planner": "EST",
    "start": {
        "state": {
            "elbow_joint": -1.9196185241190666,
            "shoulder_lift_joint": -1.2443396400964142,
            "shoulder_pan_joint": 2.6996025414629847,
            "wrist_1_joint": -1.5485510000780065,
            "wrist_2_joint": -1.5709468930060704,
            "wrist_3_joint": 0.4420197071253992
        }
    },
    "waypoints": [
        {
            "positions": [
                2.6996025414629847,
                -1.2443396400964142,
                -1.9196185241190666,
                -1.5485510000780065,
                -1.5709468930060704,
                0.4420197071253992
            ]
        },
        {
            "positions": [
                2.5651808084408403,
                -1.2386052502614187,
                -1.851917720496187,
                -1.4381594411858256,
                -1.5230894906827617,
                0.41570981922389566
            ]
        },
        {
            "positions": [
                2.4307590754186963,
                -1.2328708604264231,
                -1.784216916873307,
                -1.3277678822936447,
                -1.4752320883594532,
                0.3893999313223922
            ]
        },
        {
            "positions": [
                2.2963373423965523,
                -1.2271364705914276,
                -1.7165161132504274,
                -1.2173763234014638,
                -1.4273746860361445,
                0.3630900434208887
            ]
        },
        {
            "positions": [
                2.161915609374408,
                -1.2214020807564319,
                -1.6488153096275477,
                -1.1069847645092827,
                -1.3795172837128358,
                0.3367801555193852
            ]
        },
        {
            "positions": [
                2.0274938763522634,
                -1.2156676909214363,
                -1.5811145060046679,
                -0.9965932056171019,
                -1.331659881389527,
                0.31047026761788166
            ]
        },
        {
            "positions": [
                1.8930721433301194,
                -1.2099333010864408,
                -1.5134137023817882,
                -0.8862016467249211,
                -1.2838024790662186,
                0.2841603797163782
            ]
        },
        {
            "positions": [
                1.7586504103079752,
                -1.2041989112514453,
                -1.4457128987589085,
                -0.7758100878327401,
                -1.2359450767429099,
                0.25785049181487474
            ]
        },
        {
            "positions": [
                1.624228677285831,
                -1.1984645214164498,
                -1.3780120951360288,
                -0.6654185289405592,
                -1.1880876744196014,
                0.23154060391337122
            ]
        },
        {
            "positions": [
                1.4898069442636868,
                -1.1927301315814542,
                -1.310311291513149,
                -0.5550269700483782,
                -1.1402302720962925,
                0.2052307160118677
            ]
        },
        {
            "positions": [
                1.3553852112415425,
                -1.1869957417464587,
                -1.242610487890269,
                -0.4446354111561972,
                -1.092372869772984,
                0.1789208281103642
            ]
        },
        {
            "positions": [
                1.2209634782193983,
                -1.181261351911463,
                -1.1749096842673894,
                -0.33424385226401654,
                -1.0445154674496753,
                0.15261094020886073
            ]
        },
        {
            "positions": [
                1.086541745197254,
                -1.1755269620764675,
                -1.1072088806445097,
                -0.22385229337183565,
                -0.9966580651263667,
                0.12630105230735728
            ]
        },
        {
            "positions": [
                0.9521200121751099,
                -1.169792572241472,
                -1.03950807702163,
                -0.11346073447965455,
                -0.948800662803058,
                0.0999911644058537
            ]
        },
        {
            "positions": [
                0.8176982791529657,
                -1.1640581824064764,
                -0.9718072733987503,
                -0.0030691755874736604,
                -0.9009432604797494,
                0.07368127650435025
            ]
        },
        {
            "positions": [
                0.6832765461308217,
                -1.1583237925714809,
                -0.9041064697758705,
                0.10732238330470723,
                -0.8530858581564408,
                0.04737138860284679
            ]
        },
        {
            "positions": [
                0.5488548131086772,
                -1.1525894027364854,
                -0.8364056661529908,
                0.2177139421968881,
                -0.8052284558331322,
                0.021061500701343272
            ]
        },
        {
            "positions": [
                0.41443308008653323,
                -1.1468550129014898,
                -0.7687048625301112,
                0.328105501089069,
                -0.7573710535098235,
                -0.005248387200160187
            ]
        },
        {
            "positions": [
                0.2800113470643888,
                -1.141120623066494,
                -0.7010040589072313,
                0.4384970599812501,
                -0.7095136511865148,
                -0.03155827510166376
            ]
        },
        {
            "positions": [
                0.14558961404224435,
                -1.1353862332314986,
                -0.6333032552843516,
                0.5488886188734312,
                -0.6616562488632061,
                -0.05786816300316727
            ]
        },
        {
            "positions": [
                0.011167881020100356,
                -1.129651843396503,
                -0.5656024516614717,
                0.6592801777656121,
                -0.6137988465398975,
                -0.08417805090467079
            ]
        },
        {
            "positions": [
                -0.12325385200204364,
                -1.1239174535615075,
                -0.49790164803859205,
                0.7696717366577925,
                -0.5659414442165889,
                -0.11048793880617425
            ]
        },
        {
            "positions": [
                -0.2576755850241881,
                -1.118183063726512,
                -0.4302008444157124,
                0.8800632955499734,
                -0.5180840418932802,
                -0.1367978267076777
            ]
        },
        {
            "positions": [
                -0.3920973180463321,
                -1.1124486738915165,
                -0.3625000407928327,
                0.9904548544421543,
                -0.4702266395699717,
                -0.16310771460918116
            ]
        },
        {
            "positions": [
                -0.5265190510684765,
                -1.106714284056521,
                -0.29479923716995304,
                1.1008464133343352,
                -0.422369237246663,
                -0.18941760251068462
            ]
        },
        {
            "positions": [
                -0.660940784090621,
                -1.1009798942215252,
                -0.22709843354707315,
                1.2112379722265165,
                -0.37451183492335427,
                -0.2157274904121882
            ]
        },
        {
            "positions": [
                -0.795362517112765,
                -1.0952455043865297,
                -0.15939762992419326,
                1.3216295311186974,
                -0.32665443260004556,
                -0.24203737831369176
            ]
        },
        {
            "positions": [
                -0.9297842501349094,
                -1.0895111145515342,
                -0.0916968263013136,
                1.4320210900108783,
                -0.2787970302767371,
                -0.2683472662151952
            ]
        },
        {
            "positions": [
                -1.0642059831570534,
                -1.0837767247165386,
                -0.02399602267843399,
                1.542412648903059,
                -0.23093962795342837,
                -0.2946571541166987
            ]
        },
        {
            "positions": [
                -0.9563624314052476,
                -1.056158522700928,
                0.1600995447430643,
                1.5789613204175499,
                -0.22220937358533735,
                -0.26945144434631574
            ]
        },
        {
            "positions": [
                -0.8485188796534417,
                -1.0285403206853176,
                0.34419511216456256,
                1.615509991932041,
                -0.21347911921724633,
                -0.24424573457593282
            ]
        },
        {
            "positions": [
                -0.7406753279016359,
                -1.000922118669707,
                0.5282906795860607,
                1.652058663446532,
                -0.2047488648491553,
                -0.2190400248055499
            ]
        },
        {
            "positions": [
                -0.6328317761498301,
                -0.9733039166540965,
                0.712386247007559,
                1.688607334961023,
                -0.19601861048106428,
                -0.19383431503516696
            ]
        },
        {
            "positions": [
                -0.5249882243980243,
                -0.945685714638486,
                0.8964818144290573,
                1.725156006475514,
                -0.18728835611297326,
                -0.16862860526478402
            ]
        },
        {
            "positions": [
                -0.41714467264621846,
                -0.9180675126228756,
                1.0805773818505555,
                1.7617046779900052,
                -0.17855810174488224,
                -0.1434228954944011
            ]
        },
        {
            "positions": [
                -0.30930112089441253,
                -0.8904493106072651,
                1.2646729492720539,
                1.7982533495044961,
                -0.1698278473767912,
                -0.11821718572401815
            ]
        },
        {
            "positions": [
                -0.2014575691426067,
                -0.8628311085916545,
                1.4487685166935522,
                1.8348020210189873,
                -0.1610975930087002,
                -0.09301147595363521
            ]
        },
        {
            "positions": [
                -0.09361401739080089,
                -0.835212906576044,
                1.6328640841150506,
                1.8713506925334782,
                -0.15236733864060917,
                -0.06780576618325226
            ]
        },
        {
            "positions": [
                0.014229534361004825,
                -0.8075947045604335,
                1.8169596515365487,
                1.9078993640479691,
                -0.14363708427251815,
                -0.04260005641286935
            ]
        },
        {
            "positions": [
                0.12207308611281086,
                -0.779976502544823,
                2.001055218958047,
                1.9444480355624603,
                -0.13490682990442712,
                -0.017394346642486395
            ]
        }
    ]
}