{
    "goal": {
        "global_pose": {
            "orientation": {
                "w": -0.4816463035849501,
                "x": 0.5182115481033762,
                "y": 0.4908360881923453,
                "z": -0.5084816262002911
            },
            "position": {
                "x": -0.8240239810943604,
                "y": -0.300875300988555,
                "z": 0.16403168439865112
            }
        },
        "name": "move_to_storage_C"
    },
    "id": "EST_move_to_storage_C_38",
    "joint_names": [
        "shoulder_pan_joint",
        "shoulder_lift_joint",
        "elbow_joint",
        "wrist_1_joint",
        "wrist_2_joint",
        "wrist_3_joint"
    ],
    "metrics": {
        "cart_traj_len": 0.5771271002131128,
        "distance_elbow_joint": 0.25606950588520094,
        "distance_shoulder_lift_joint": 0.18875760173062928,
        "distance_shoulder_pan_joint": 0.49510668315597783,
        "distance_wrist_1_joint": 0.06909324345712564,
        "distance_wrist_2_joint": 1.0692206270754991,
        "distance_wrist_3_joint": 0.07131768602618838,
        "smoothness": 2.5376526478085547e-16,
        "time": 0.021794363999999997,
        "traj_len": 1.4661396070397326,
        "weighted_distance": 1.8521648387537277
    },
    "planner": "EST",
    "start": {
        "state": {
            "elbow_joint": 2.010868314990456,
            "shoulder_lift_joint": -1.1634956873337592,
            "shoulder_pan_joint": -2.4736205022346125,
            "wrist_1_joint": -0.8367026794202681,
            "wrist_2_joint": 0.6746043897044499,
            "wrist_3_joint": -3.1496632123970403
        }
    },
    "waypoints": [
        {
            "positions": [
                -2.4736205022346125,
                -1.1634956873337592,
                2.010868314990456,
                -0.8367026794202681,
                0.6746043897044499,
                -3.1496632123970403
            ]
        },
        {
            "positions": [
                -2.556138282760609,
                -1.132036087045321,
                1.968190064009589,
                -0.8251871388440805,
                0.8528078275503664,
                -3.1377769313926756
            ]
        },
        {
            "positions": [
                -2.638656063286605,
                -1.1005764867568828,
                1.925511813028722,
                -0.8136715982678929,
                1.031011265396283,
                -3.125890650388311
            ]
        },
        {
            "positions": [
                -2.7211738438126014,
                -1.0691168864684446,
                1.8828335620478553,
                -0.8021560576917053,
                1.2092147032421994,
                -3.114004369383946
            ]
        },
        {
            "positions": [
                -2.803691624338598,
                -1.0376572861800064,
                1.8401553110669886,
                -0.7906405171155176,
                1.3874181410881161,
                -3.1021180883795814
            ]
        },
        {
            "positions": [
                -2.886209404864594,
                -1.0061976858915682,
                1.7974770600861216,
                -0.7791249765393301,
                1.5656215789340324,
                -3.0902318073752166
            ]
        },
        {
            "positions": [
                -2.9687271853905903,
                -0.9747380856031299,
                1.7547988091052549,
                -0.7676094359631425,
                1.743825016779949,
                -3.078345526370852
            ]
        }
    ]
}