{
    "goal": {
        "global_pose": {
            "orientation": {
                "w": 0.5084816217422485,
                "x": -0.49083608388900757,
                "y": 0.5182115435600281,
                "z": -0.4816462993621826
            },
            "position": {
                "x": 0.5540239810943604,
                "y": 0.030875300988554955,
                "z": 0.16403168439865112
            }
        },
        "name": "move_to_storage_A"
    },
    "id": "EST_move_to_storage_A_89",
    "joint_names": [
        "shoulder_pan_joint",
        "shoulder_lift_joint",
        "elbow_joint",
        "wrist_1_joint",
        "wrist_2_joint",
        "wrist_3_joint"
    ],
    "metrics": {
        "cart_traj_len": 0.35332335739875975,
        "distance_elbow_joint": 0.45027799423910175,
        "distance_shoulder_lift_joint": 0.23255270449310972,
        "distance_shoulder_pan_joint": 0.46208157132041894,
        "distance_wrist_1_joint": 0.2442356243636835,
        "distance_wrist_2_joint": 1.098395796640303,
        "distance_wrist_3_joint": 0.09984054398002451,
        "smoothness": 8.881784267329941e-16,
        "time": 0.141031083,
        "traj_len": 1.608534810017067,
        "weighted_distance": 2.032165530659517
    },
    "planner": "EST",
    "start": {
        "state": {
            "elbow_joint": 1.971548259319323,
            "shoulder_lift_joint": -1.1394851275133948,
            "shoulder_pan_joint": 0.1228115487234821,
            "wrist_1_joint": -0.7804723859257726,
            "wrist_2_joint": 0.12958671773740124,
            "wrist_3_joint": -3.192489227718131
        }
    },
    "waypoints": [
        {
            "positions": [
                0.1228115487234821,
                -1.1394851275133948,
                1.971548259319323,
                -0.7804723859257726,
                0.12958671773740124,
                -3.192489227718131
            ]
        },
        {
            "positions": [
                0.056799895677707976,
                -1.172706942440982,
                2.0358736870677663,
                -0.8153631894062988,
                0.28650040297173024,
                -3.178226292863842
            ]
        },
        {
            "positions": [
                -0.009211757368066148,
                -1.205928757368569,
                2.1001991148162094,
                -0.850253992886825,
                0.4434140882060592,
                -3.1639633580095525
            ]
        },
        {
            "positions": [
                -0.07522341041384029,
                -1.2391505722961562,
                2.1645245425646524,
                -0.8851447963673512,
                0.6003277734403882,
                -3.1497004231552634
            ]
        },
        {
            "positions": [
                -0.1412350634596144,
                -1.2723723872237431,
                2.2288499703130955,
                -0.9200355998478775,
                0.7572414586747173,
                -3.1354374883009744
            ]
        },
        {
            "positions": [
                -0.20724671650538856,
                -1.3055942021513303,
                2.2931753980615386,
                -0.9549264033284037,
                0.9141551439090463,
                -3.1211745534466853
            ]
        },
        {
            "positions": [
                -0.27325836955116267,
                -1.3388160170789174,
                2.3575008258099817,
                -0.9898172068089299,
                1.0710688291433752,
                -3.1069116185923957
            ]
        },
        {
            "positions": [
                -0.33927002259693684,
                -1.3720378320065045,
                2.4218262535584247,
                -1.0247080102894561,
                1.2279825143777043,
                -3.0926486837381066
            ]
        }
    ]
}{
    "goal": {
        "global_pose": {
            "orientation": {
                "w": 0.5084816217422485,
                "x": -0.49083608388900757,
                "y": 0.5182115435600281,
                "z": -0.4816462993621826
            },
            "position": {
                "x": 0.5540239810943604,
                "y": 0.030875300988554955,
                "z": 0.16403168439865112
            }
        },
        "name": "move_to_storage_A"
    },
    "id": "EST_move_to_storage_A_89",
    "joint_names": [
        "shoulder_pan_joint",
        "shoulder_lift_joint",
        "elbow_joint",
        "wrist_1_joint",
        "wrist_2_joint",
        "wrist_3_joint"
    ],
    "metrics": {
        "cart_traj_len": 0.35359741556349966,
        "distance_elbow_joint": 0.4531610618610076,
        "distance_shoulder_lift_joint": 0.2342359983300648,
        "distance_shoulder_pan_joint": 0.45995504313978136,
        "distance_wrist_1_joint": 0.2589340160147964,
        "distance_wrist_2_joint": 1.1102558271058205,
        "distance_wrist_3_joint": 0.09522413835478583,
        "smoothness": 6.661338165333112e-16,
        "time": 0.11661474799999999,
        "traj_len": 1.6160959392332674,
        "weighted_distance": 2.0424015777110154
    },
    "planner": "EST",
    "start": {
        "state": {
            "elbow_joint": 1.97154746011099,
            "shoulder_lift_joint": -1.13948474672311,
            "shoulder_pan_joint": 0.12281154466712228,
            "wrist_1_joint": -0.7804688027058302,
            "wrist_2_joint": 0.12958655903071145,
            "wrist_3_joint": 3.0906928834467795
        }
    },
    "waypoints": [
        {
            "positions": [
                0.12281154466712228,
                -1.13948474672311,
                1.97154746011099,
                -0.7804688027058302,
                0.12958655903071145,
                3.0906928834467795
            ]
        },
        {
            "positions": [
                0.05710368136143923,
                -1.1729470321988336,
                2.0362847546625624,
                -0.8174593764222297,
                0.28819453433154296,
                3.1042963317831775
            ]
        },
        {
            "positions": [
                -0.008604181944243824,
                -1.206409317674557,
                2.101022049214135,
                -0.8544499501386291,
                0.44680250963237444,
                3.1178997801195756
            ]
        },
        {
            "positions": [
                -0.07431204524992686,
                -1.2398716031502806,
                2.1657593437657074,
                -0.8914405238550286,
                0.6054104849332059,
                3.1315032284559736
            ]
        },
        {
            "positions": [
                -0.14001990855560992,
                -1.2733338886260042,
                2.23049663831728,
                -0.928431097571428,
                0.7640184602340374,
                3.145106676792371
            ]
        },
        {
            "positions": [
                -0.20572777186129299,
                -1.3067961741017278,
                2.2952339328688525,
                -0.9654216712878276,
                0.922626435534869,
                3.1587101251287693
            ]
        },
        {
            "positions": [
                -0.271435635166976,
                -1.3402584595774512,
                2.359971227420425,
                -1.002412245004227,
                1.0812344108357004,
                3.1723135734651673
            ]
        },
        {
            "positions": [
                -0.33714349847265906,
                -1.3737207450531748,
                2.4247085219719975,
                -1.0394028187206266,
                1.239842386136532,
                3.1859170218015653
            ]
        }
    ]
}{
    "goal": {
        "global_pose": {
            "orientation": {
                "w": 0.5084816217422485,
                "x": -0.49083608388900757,
                "y": 0.5182115435600281,
                "z": -0.4816462993621826
            },
            "position": {
                "x": 0.5540239810943604,
                "y": 0.030875300988554955,
                "z": 0.16403168439865112
            }
        },
        "name": "move_to_storage_A"
    },
    "id": "EST_move_to_storage_A_89",
    "joint_names": [
        "shoulder_pan_joint",
        "shoulder_lift_joint",
        "elbow_joint",
        "wrist_1_joint",
        "wrist_2_joint",
        "wrist_3_joint"
    ],
    "metrics": {
        "cart_traj_len": 0.35357444640652624,
        "distance_elbow_joint": 0.4493217431885981,
        "distance_shoulder_lift_joint": 0.23588531763064413,
        "distance_shoulder_pan_joint": 0.4636556479581442,
        "distance_wrist_1_joint": 0.2349322870308963,
        "distance_wrist_2_joint": 1.0950672541400719,
        "distance_wrist_3_joint": 0.08988245073466627,
        "smoothness": 6.661338200497456e-16,
        "time": 0.031904178,
        "traj_len": 1.602730389267958,
        "weighted_distance": 2.0195319119348727
    },
    "planner": "EST",
    "start": {
        "state": {
            "elbow_joint": 1.9715472970024885,
            "shoulder_lift_joint": -1.1394870060712896,
            "shoulder_pan_joint": 0.12281152778156021,
            "wrist_1_joint": -0.780463741449964,
            "wrist_2_joint": 0.12958659822042276,
            "wrist_3_joint": 3.090690232415272
        }
    },
    "waypoints": [
        {
            "positions": [
                0.12281152778156021,
                -1.1394870060712896,
                1.9715472970024885,
                -0.780463741449964,
                0.12958659822042276,
                3.090690232415272
            ]
        },
        {
            "positions": [
                0.05657500664468247,
                -1.173184908589953,
                2.0357361174580024,
                -0.8140254967400921,
                0.28602477738329013,
                3.103530582520224
            ]
        },
        {
            "positions": [
                -0.009661514492195267,
                -1.2068828111086165,
                2.0999249379135168,
                -0.8475872520302201,
                0.4424629565461575,
                3.1163709326251765
            ]
        },
        {
            "positions": [
                -0.07589803562907299,
                -1.24058071362728,
                2.1641137583690306,
                -0.8811490073203481,
                0.5989011357090249,
                3.129211282730129
            ]
        },
        {
            "positions": [
                -0.14213455676595074,
                -1.2742786161459434,
                2.2283025788245445,
                -0.9147107626104761,
                0.7553393148718923,
                3.142051632835081
            ]
        },
        {
            "positions": [
                -0.20837107790282852,
                -1.3079765186646068,
                2.292491399280059,
                -0.9482725179006042,
                0.9117774940347598,
                3.1548919829400335
            ]
        },
        {
            "positions": [
                -0.2746075990397062,
                -1.3416744211832703,
                2.3566802197355727,
                -0.9818342731907322,
                1.0682156731976271,
                3.167732333044986
            ]
        },
        {
            "positions": [
                -0.34084412017658394,
                -1.3753723237019337,
                2.4208690401910866,
                -1.0153960284808603,
                1.2246538523604946,
                3.180572683149938
            ]
        }
    ]
}