{
    "goal": {
        "global_pose": {
            "orientation": {
                "w": 0.7047431493862688,
                "x": -0.7094548369677653,
                "y": 0.0024358444001904,
                "z": -0.0022348060817251984
            },
            "position": {
                "x": -0.39052492380142206,
                "y": 0.3671506643295288,
                "z": 0.19426114857196808
            }
        },
        "name": "move_to_magneteinheit_D"
    },
    "id": "EST_move_to_magneteinheit_D_65",
    "joint_names": [
        "shoulder_pan_joint",
        "shoulder_lift_joint",
        "elbow_joint",
        "wrist_1_joint",
        "wrist_2_joint",
        "wrist_3_joint"
    ],
    "metrics": {
        "cart_traj_len": 3.9552976608764308,
        "distance_elbow_joint": 4.633094055024388,
        "distance_shoulder_lift_joint": 1.6308823335821214,
        "distance_shoulder_pan_joint": 2.85236961651496,
        "distance_wrist_1_joint": 1.5570639579832564,
        "distance_wrist_2_joint": 0.8118985770397551,
        "distance_wrist_3_joint": 3.5608393507152845,
        "smoothness": 0.5942456487742915,
        "time": 0.329192049,
        "traj_len": 3.878936438105137,
        "weighted_distance": 4.953462337326625
    },
    "planner": "EST",
    "start": {
        "state": {
            "elbow_joint": 0.749534889911806,
            "shoulder_lift_joint": -0.6476975780787326,
            "shoulder_pan_joint": -2.711696901376241,
            "wrist_1_joint": -0.07506478083263063,
            "wrist_2_joint": 0.43296659715538205,
            "wrist_3_joint": -3.14703540197715
        }
    },
    "waypoints": [
        {
            "positions": [
                -2.711696901376241,
                -0.6476975780787326,
                0.749534889911806,
                -0.07506478083263063,
                0.43296659715538205,
                -3.14703540197715
            ]
        },
        {
            "positions": [
                -2.7020441550553524,
                -0.742595296838399,
                0.844832767439804,
                0.07297526248909672,
                0.44273876025051934,
                -3.145137180170319
            ]
        },
        {
            "positions": [
                -2.692391408734464,
                -0.8374930155980653,
                0.9401306449678021,
                0.22101530581082407,
                0.4525109233456566,
                -3.1432389583634883
            ]
        },
        {
            "positions": [
                -2.682738662413575,
                -0.9323907343577318,
                1.0354285224958002,
                0.36905534913255145,
                0.4622830864407939,
                -3.1413407365566575
            ]
        },
        {
            "positions": [
                -2.673085916092687,
                -1.027288453117398,
                1.1307264000237982,
                0.5170953924542787,
                0.47205524953593114,
                -3.139442514749826
            ]
        },
        {
            "positions": [
                -2.6634331697717983,
                -1.1221861718770645,
                1.2260242775517964,
                0.6651354357760062,
                0.48182741263106843,
                -3.1375442929429953
            ]
        },
        {
            "positions": [
                -2.6537804234509097,
                -1.2170838906367307,
                1.3213221550797942,
                0.8131754790977335,
                0.4915995757262057,
                -3.1356460711361644
            ]
        },
        {
            "positions": [
                -2.644127677130021,
                -1.3119816093963972,
                1.4166200326077925,
                0.961215522419461,
                0.501371738821343,
                -3.1337478493293336
            ]
        },
        {
            "positions": [
                -2.5454174115750594,
                -1.335921994549275,
                1.3000182284958157,
                0.9768573575055765,
                0.4846953881477198,
                -3.0094674125299603
            ]
        },
        {
            "positions": [
                -2.4467071460200973,
                -1.3598623797021532,
                1.183416424383839,
                0.992499192591692,
                0.46801903747409657,
                -2.8851869757305866
            ]
        },
        {
            "positions": [
                -2.3479968804651357,
                -1.383802764855031,
                1.0668146202718625,
                1.0081410276778073,
                0.4513426868004733,
                -2.7609065389312133
            ]
        },
        {
            "positions": [
                -2.2492866149101736,
                -1.4077431500079092,
                0.9502128161598857,
                1.023782862763923,
                0.4346663361268501,
                -2.6366261021318396
            ]
        },
        {
            "positions": [
                -2.150576349355212,
                -1.431683535160787,
                0.8336110120479091,
                1.0394246978500383,
                0.41798998545322685,
                -2.5123456653324663
            ]
        },
        {
            "positions": [
                -2.05186608380025,
                -1.455623920313665,
                0.7170092079359324,
                1.055066532936154,
                0.4013136347796036,
                -2.388065228533093
            ]
        },
        {
            "positions": [
                -1.9531558182452882,
                -1.479564305466543,
                0.6004074038239559,
                1.0707083680222693,
                0.3846372841059804,
                -2.2637847917337197
            ]
        },
        {
            "positions": [
                -1.8544455526903263,
                -1.503504690619421,
                0.483805599711979,
                1.0863502031083847,
                0.36796093343235714,
                -2.139504354934346
            ]
        },
        {
            "positions": [
                -1.7557352871353644,
                -1.5274450757722988,
                0.3672037956000025,
                1.1019920381945003,
                0.3512845827587339,
                -2.0152239181349723
            ]
        },
        {
            "positions": [
                -1.6570250215804028,
                -1.551385460925177,
                0.25060199148802575,
                1.1176338732806157,
                0.3346082320851107,
                -1.890943481335599
            ]
        },
        {
            "positions": [
                -1.558314756025441,
                -1.5753258460780548,
                0.13400018737604902,
                1.1332757083667313,
                0.3179318814114874,
                -1.7666630445362257
            ]
        },
        {
            "positions": [
                -1.459604490470479,
                -1.599266231230933,
                0.01739838326407228,
                1.1489175434528467,
                0.3012555307378642,
                -1.642382607736852
            ]
        },
        {
            "positions": [
                -1.3608942249155171,
                -1.6232066163838108,
                -0.09920342084790423,
                1.164559378538962,
                0.284579180064241,
                -1.5181021709374787
            ]
        },
        {
            "positions": [
                -1.2621839593605553,
                -1.6471470015366887,
                -0.21580522495988075,
                1.1802012136250777,
                0.26790282939061777,
                -1.3938217341381054
            ]
        },
        {
            "positions": [
                -1.1634736938055936,
                -1.6710873866895668,
                -0.3324070290718575,
                1.195843048711193,
                0.25122647871699455,
                -1.2695412973387319
            ]
        },
        {
            "positions": [
                -1.0647634282506315,
                -1.6950277718424447,
                -0.44900883318383444,
                1.2114848837973087,
                0.23455012804337128,
                -1.1452608605393582
            ]
        },
        {
            "positions": [
                -0.9660531626956699,
                -1.7189681569953228,
                -0.565610637295811,
                1.227126718883424,
                0.21787377736974806,
                -1.0209804237399847
            ]
        },
        {
            "positions": [
                -0.867342897140708,
                -1.7429085421482007,
                -0.6822124414077875,
                1.2427685539695394,
                0.20119742669612484,
                -0.8966999869406114
            ]
        },
        {
            "positions": [
                -0.7686326315857461,
                -1.7668489273010786,
                -0.7988142455197642,
                1.258410389055655,
                0.18452107602250162,
                -0.7724195501412381
            ]
        },
        {
            "positions": [
                -0.6699223660307843,
                -1.7907893124539567,
                -0.915416049631741,
                1.2740522241417707,
                0.16784472534887834,
                -0.6481391133418644
            ]
        },
        {
            "positions": [
                -0.5712121004758224,
                -1.8147296976068346,
                -1.0320178537437177,
                1.289694059227886,
                0.15116837467525512,
                -0.5238586765424911
            ]
        },
        {
            "positions": [
                -0.47250183492086073,
                -1.8386700827597124,
                -1.1486196578556944,
                1.3053358943140014,
                0.1344920240016319,
                -0.3995782397431178
            ]
        },
        {
            "positions": [
                -0.37379156936589863,
                -1.8626104679125906,
                -1.2652214619676707,
                1.320977729400117,
                0.11781567332800869,
                -0.27529780294374406
            ]
        },
        {
            "positions": [
                -0.275081303810937,
                -1.8865508530654687,
                -1.381823266079648,
                1.3366195644862324,
                0.10113932265438541,
                -0.15101736614437034
            ]
        },
        {
            "positions": [
                -0.1763710382559749,
                -1.9104912382183463,
                -1.4984250701916242,
                1.352261399572348,
                0.08446297198076219,
                -0.02673692934499705
            ]
        },
        {
            "positions": [
                -0.07766077270101336,
                -1.9344316233712244,
                -1.615026874303601,
                1.3679032346584634,
                0.06778662130713897,
                0.09754350745437639
            ]
        },
        {
            "positions": [
                -0.05025939755565368,
                -1.9805817537467034,
                -1.7873226609243527,
                1.4037562825980476,
                0.10459024203747148,
                0.1642959383401249
            ]
        },
        {
            "positions": [
                -0.022858022410294,
                -2.0267318841221824,
                -1.9596184475451044,
                1.4396093305376318,
                0.141393862767804,
                0.23104836922587346
            ]
        },
        {
            "positions": [
                -0.031328791239613685,
                -2.088793760742688,
                -2.1292314156472396,
                1.4530986425987957,
                0.1886857354085707,
                0.2083412116003258
            ]
        },
        {
            "positions": [
                -0.03979956006893337,
                -2.150855637363193,
                -2.298844383749375,
                1.4665879546599598,
                0.2359776080493374,
                0.1856340539747781
            ]
        },
        {
            "positions": [
                -0.048270328898253057,
                -2.2129175139836983,
                -2.46845735185151,
                1.4800772667211237,
                0.2832694806901041,
                0.1629268963492304
            ]
        },
        {
            "positions": [
                -0.11732954442877977,
                -2.245748712822276,
                -2.42799158791696,
                1.4791163115063726,
                0.23605675145179164,
                0.10560984303142121
            ]
        },
        {
            "positions": [
                -0.18638875995930648,
                -2.278579911660854,
                -2.38752582398241,
                1.4781553562916214,
                0.18884402221347918,
                0.048292789713612005
            ]
        }
    ]
}