{
    "goal": {
        "global_pose": {
            "orientation": {
                "w": 0.5084816262002911,
                "x": -0.4908360881923452,
                "y": 0.5182115481033761,
                "z": -0.48164630358495003
            },
            "position": {
                "x": 0.5540239810943604,
                "y": -0.46912469901144505,
                "z": 0.16403168439865112
            }
        },
        "name": "move_to_storage_B"
    },
    "id": "EST_move_to_storage_B_83",
    "joint_names": [
        "shoulder_pan_joint",
        "shoulder_lift_joint",
        "elbow_joint",
        "wrist_1_joint",
        "wrist_2_joint",
        "wrist_3_joint"
    ],
    "metrics": {
        "cart_traj_len": 2.9751187023317116,
        "distance_elbow_joint": 0.504425775222257,
        "distance_shoulder_lift_joint": 1.7304703282665035,
        "distance_shoulder_pan_joint": 3.431348188629838,
        "distance_wrist_1_joint": 3.3596276496981528,
        "distance_wrist_2_joint": 2.706601931476866,
        "distance_wrist_3_joint": 3.6340372908537883,
        "smoothness": 0.39707295054085123,
        "time": 0.12985950899999998,
        "traj_len": 3.9200141790747907,
        "weighted_distance": 5.357314189687776
    },
    "planner": "EST",
    "start": {
        "state": {
            "elbow_joint": 1.664937868594044,
            "shoulder_lift_joint": -0.661644460510453,
            "shoulder_pan_joint": -0.9139846352900073,
            "wrist_1_joint": 2.146753192139373,
            "wrist_2_joint": -2.2341966793290973,
            "wrist_3_joint": 0.005466555786416001
        }
    },
    "waypoints": [
        {
            "positions": [
                -0.9139846352900073,
                -0.661644460510453,
                1.664937868594044,
                2.146753192139373,
                -2.2341966793290973,
                0.005466555786416001
            ]
        },
        {
            "positions": [
                -0.8371610794344668,
                -0.7529730335356903,
                1.7034750556353453,
                2.2399901124905552,
                -2.1927808897724583,
                0.01853709104535338
            ]
        },
        {
            "positions": [
                -0.7603375235789263,
                -0.8443016065609278,
                1.7420122426766464,
                2.333227032841737,
                -2.151365100215819,
                0.03160762630429076
            ]
        },
        {
            "positions": [
                -0.6552742086521317,
                -0.9094578029433844,
                1.7670314474699857,
                2.2871286355942657,
                -2.0421470905575183,
                0.014003390501204225
            ]
        },
        {
            "positions": [
                -0.5502108937253373,
                -0.9746139993258409,
                1.7920506522633248,
                2.241030238346794,
                -1.9329290808992179,
                -0.003600845301882309
            ]
        },
        {
            "positions": [
                -0.4451475787985427,
                -1.0397701957082977,
                1.8170698570566641,
                2.194931841099323,
                -1.8237110712409175,
                -0.021205081104968847
            ]
        },
        {
            "positions": [
                -0.3400842638717482,
                -1.1049263920907542,
                1.8420890618500034,
                2.148833443851852,
                -1.714493061582617,
                -0.03880931690805538
            ]
        },
        {
            "positions": [
                -0.23502094894495362,
                -1.170082588473211,
                1.8671082666433425,
                2.1027350466043804,
                -1.6052750519243164,
                -0.056413552711141915
            ]
        },
        {
            "positions": [
                -0.12995763401815918,
                -1.2352387848556674,
                1.8921274714366818,
                2.0566366493569093,
                -1.496057042266016,
                -0.07401778851422845
            ]
        },
        {
            "positions": [
                -0.024894319091364636,
                -1.300394981238124,
                1.917146676230021,
                2.0105382521094377,
                -1.3868390326077153,
                -0.09162202431731499
            ]
        },
        {
            "positions": [
                0.0801689958354298,
                -1.3655511776205804,
                1.9421658810233602,
                1.9644398548619666,
                -1.2776210229494152,
                -0.10922626012040151
            ]
        },
        {
            "positions": [
                0.18523231076222446,
                -1.4307073740030372,
                1.9671850858166995,
                1.9183414576144955,
                -1.1684030132911145,
                -0.12683049592348808
            ]
        },
        {
            "positions": [
                0.290295625689019,
                -1.495863570385494,
                1.9922042906100388,
                1.8722430603670241,
                -1.0591850036328139,
                -0.1444347317265746
            ]
        },
        {
            "positions": [
                0.39535894061581334,
                -1.5610197667679504,
                2.017223495403378,
                1.8261446631195528,
                -0.9499669939745135,
                -0.16203896752966113
            ]
        },
        {
            "positions": [
                0.5004222555426079,
                -1.626175963150407,
                2.042242700196717,
                1.7800462658720817,
                -0.840748984316213,
                -0.17964320333274766
            ]
        },
        {
            "positions": [
                0.6054855704694024,
                -1.6913321595328634,
                2.0672619049900565,
                1.7339478686246101,
                -0.7315309746579124,
                -0.1972474391358342
            ]
        },
        {
            "positions": [
                0.710548885396197,
                -1.7564883559153202,
                2.0922811097833955,
                1.687849471377139,
                -0.622312964999612,
                -0.21485167493892074
            ]
        },
        {
            "positions": [
                0.6352649408985456,
                -1.730003921212752,
                2.0890693375320244,
                1.5825254610633395,
                -0.5766997059518045,
                -0.07479180331005819
            ]
        },
        {
            "positions": [
                0.5599809964008942,
                -1.7035194865101837,
                2.0858575652806532,
                1.4772014507495397,
                -0.5310864469039971,
                0.06526806831880436
            ]
        },
        {
            "positions": [
                0.4846970519032428,
                -1.6770350518076156,
                2.0826457930292825,
                1.3718774404357401,
                -0.48547318785618965,
                0.20532793994766693
            ]
        },
        {
            "positions": [
                0.40941310740559145,
                -1.6505506171050475,
                2.0794340207779114,
                1.2665534301219405,
                -0.4398599288083822,
                0.3453878115765294
            ]
        },
        {
            "positions": [
                0.33412916290794,
                -1.6240661824024794,
                2.0762222485265402,
                1.1612294198081408,
                -0.39424666976057476,
                0.485447683205392
            ]
        },
        {
            "positions": [
                0.2588452184102886,
                -1.597581747699911,
                2.073010476275169,
                1.0559054094943412,
                -0.3486334107127673,
                0.6255075548342546
            ]
        },
        {
            "positions": [
                0.1835612739126372,
                -1.571097312997343,
                2.069798704023798,
                0.9505813991805415,
                -0.3030201516649599,
                0.7655674264631172
            ]
        },
        {
            "positions": [
                0.10827732941498591,
                -1.5446128782947748,
                2.0665869317724272,
                0.845257388866742,
                -0.25740689261715244,
                0.9056272980919796
            ]
        },
        {
            "positions": [
                0.0329933849173345,
                -1.5181284435922064,
                2.063375159521056,
                0.7399333785529423,
                -0.211793633569345,
                1.0456871697208423
            ]
        },
        {
            "positions": [
                -0.04229055958031702,
                -1.4916440088896383,
                2.060163387269685,
                0.6346093682391425,
                -0.16618037452153755,
                1.1857470413497049
            ]
        },
        {
            "positions": [
                -0.11757450407796832,
                -1.4651595741870702,
                2.056951615018314,
                0.5292853579253431,
                -0.12056711547373011,
                1.3258069129785675
            ]
        },
        {
            "positions": [
                -0.19285844857561973,
                -1.438675139484502,
                2.0537398427669427,
                0.42396134761154336,
                -0.07495385642592267,
                1.46586678460743
            ]
        },
        {
            "positions": [
                -0.26814239307327103,
                -1.4121907047819338,
                2.050528070515572,
                0.3186373372977438,
                -0.02934059737811523,
                1.6059266562362924
            ]
        },
        {
            "positions": [
                -0.34342633757092256,
                -1.3857062700793656,
                2.047316298264201,
                0.213313326983944,
                0.016272661669692212,
                1.7459865278651552
            ]
        },
        {
            "positions": [
                -0.41871028206857397,
                -1.3592218353767973,
                2.0441045260128297,
                0.10798931667014444,
                0.061885920717499654,
                1.8860463994940178
            ]
        },
        {
            "positions": [
                -0.49399422656622516,
                -1.3327374006742292,
                2.0408927537614585,
                0.0026653063563448764,
                0.1074991797653071,
                2.02610627112288
            ]
        },
        {
            "positions": [
                -0.5692781710638768,
                -1.306252965971661,
                2.037680981510088,
                -0.10265870395745491,
                0.15311243881311454,
                2.166166142751743
            ]
        },
        {
            "positions": [
                -0.644562115561528,
                -1.279768531269093,
                2.0344692092587167,
                -0.20798271427125448,
                0.19872569786092198,
                2.3062260143806053
            ]
        },
        {
            "positions": [
                -0.7198460600591794,
                -1.2532840965665248,
                2.0312574370073455,
                -0.31330672458505404,
                0.24433895690872942,
                2.4462858860094676
            ]
        },
        {
            "positions": [
                -0.795130004556831,
                -1.2267996618639565,
                2.0280456647559744,
                -0.41863073489885405,
                0.28995221595653686,
                2.5863457576383304
            ]
        },
        {
            "positions": [
                -0.8704139490544822,
                -1.2003152271613884,
                2.024833892504603,
                -0.5239547452126532,
                0.3355654750043443,
                2.726405629267193
            ]
        },
        {
            "positions": [
                -0.9456978935521336,
                -1.17383079245882,
                2.0216221202532325,
                -0.6292787555264527,
                0.38117873405215175,
                2.8664655008960556
            ]
        },
        {
            "positions": [
                -1.020981838049785,
                -1.147346357756252,
                2.0184103480018614,
                -0.7346027658402527,
                0.4267919930999593,
                3.0065253725249184
            ]
        },
        {
            "positions": [
                -1.0962657825474365,
                -1.1208619230536838,
                2.01519857575049,
                -0.8399267761540525,
                0.4724052521477665,
                3.1465852441537807
            ]
        }
    ]
}