{
    "goal": {
        "global_pose": {
            "orientation": {
                "w": 0.5084816217422485,
                "x": -0.49083608388900757,
                "y": 0.5182115435600281,
                "z": -0.4816462993621826
            },
            "position": {
                "x": 0.5540239810943604,
                "y": 0.030875300988554955,
                "z": 0.16403168439865112
            }
        },
        "name": "move_to_storage_A"
    },
    "id": "EST_move_to_storage_A_14",
    "joint_names": [
        "shoulder_pan_joint",
        "shoulder_lift_joint",
        "elbow_joint",
        "wrist_1_joint",
        "wrist_2_joint",
        "wrist_3_joint"
    ],
    "metrics": {
        "cart_traj_len": 0.3535043986755665,
        "distance_elbow_joint": 0.44799753327652314,
        "distance_shoulder_lift_joint": 0.23494089192518208,
        "distance_shoulder_pan_joint": 0.46423344364800023,
        "distance_wrist_1_joint": 0.23587058740207179,
        "distance_wrist_2_joint": 1.0909075599681757,
        "distance_wrist_3_joint": 0.08880997598218165,
        "smoothness": 2.2204460668324854e-16,
        "time": 0.035641564,
        "traj_len": 1.6008622652190083,
        "weighted_distance": 2.016719636324481
    },
    "planner": "EST",
    "start": {
        "state": {
            "elbow_joint": 1.971548259319323,
            "shoulder_lift_joint": -1.1394851275133948,
            "shoulder_pan_joint": 0.1228115487234821,
            "wrist_1_joint": -0.7804723859257726,
            "wrist_2_joint": 0.12958671773740124,
            "wrist_3_joint": -3.192489227718131
        }
    },
    "waypoints": [
        {
            "positions": [
                0.1228115487234821,
                -1.1394851275133948,
                1.971548259319323,
                -0.7804723859257726,
                0.12958671773740124,
                -3.192489227718131
            ]
        },
        {
            "positions": [
                0.05649248534519635,
                -1.1730481120741352,
                2.0355479069302547,
                -0.8141681841260686,
                0.28543065487571206,
                -3.179802088292105
            ]
        },
        {
            "positions": [
                -0.009826578033089395,
                -1.2066110966348753,
                2.0995475545411866,
                -0.8478639823263645,
                0.44127459201402286,
                -3.1671149488660792
            ]
        },
        {
            "positions": [
                -0.07614564141137514,
                -1.2401740811956157,
                2.1635472021521185,
                -0.8815597805266605,
                0.5971185291523337,
                -3.1544278094400533
            ]
        },
        {
            "positions": [
                -0.1424647047896609,
                -1.273737065756356,
                2.2275468497630504,
                -0.9152555787269565,
                0.7529624662906444,
                -3.1417406700140273
            ]
        },
        {
            "positions": [
                -0.20878376816794664,
                -1.3073000503170964,
                2.2915464973739823,
                -0.9489513769272524,
                0.9088064034289554,
                -3.1290535305880014
            ]
        },
        {
            "positions": [
                -0.2751028315462324,
                -1.3408630348778365,
                2.355546144984914,
                -0.9826471751275484,
                1.064650340567266,
                -3.1163663911619754
            ]
        },
        {
            "positions": [
                -0.34142189492451813,
                -1.374426019438577,
                2.419545792595846,
                -1.0163429733278444,
                1.220494277705577,
                -3.1036792517359495
            ]
        }
    ]
}{
    "goal": {
        "global_pose": {
            "orientation": {
                "w": 0.5084816217422485,
                "x": -0.49083608388900757,
                "y": 0.5182115435600281,
                "z": -0.4816462993621826
            },
            "position": {
                "x": 0.5540239810943604,
                "y": 0.030875300988554955,
                "z": 0.16403168439865112
            }
        },
        "name": "move_to_storage_A"
    },
    "id": "EST_move_to_storage_A_14",
    "joint_names": [
        "shoulder_pan_joint",
        "shoulder_lift_joint",
        "elbow_joint",
        "wrist_1_joint",
        "wrist_2_joint",
        "wrist_3_joint"
    ],
    "metrics": {
        "cart_traj_len": 0.35234161014340515,
        "distance_elbow_joint": 0.4532379405677207,
        "distance_shoulder_lift_joint": 0.23347107465132022,
        "distance_shoulder_pan_joint": 0.4612933194213053,
        "distance_wrist_1_joint": 0.26058097463680774,
        "distance_wrist_2_joint": 1.0946432714190824,
        "distance_wrist_3_joint": 0.10868040427262704,
        "smoothness": 2.2204460668324854e-16,
        "time": 0.057765836,
        "traj_len": 1.6161395314046567,
        "weighted_distance": 2.045603099227709
    },
    "planner": "EST",
    "start": {
        "state": {
            "elbow_joint": 1.97154746011099,
            "shoulder_lift_joint": -1.13948474672311,
            "shoulder_pan_joint": 0.12281154466712228,
            "wrist_1_joint": -0.7804688027058302,
            "wrist_2_joint": 0.12958655903071145,
            "wrist_3_joint": 3.0906928834467795
        }
    },
    "waypoints": [
        {
            "positions": [
                0.12281154466712228,
                -1.13948474672311,
                1.97154746011099,
                -0.7804688027058302,
                0.12958655903071145,
                3.0906928834467795
            ]
        },
        {
            "positions": [
                0.05691249903550724,
                -1.1728377573875843,
                2.03629573733495,
                -0.8176946562253742,
                0.2859641692334375,
                3.1062186554857263
            ]
        },
        {
            "positions": [
                -0.0089865465961078,
                -1.2061907680520585,
                2.10104401455891,
                -0.8549205097449181,
                0.4423417794361635,
                3.121744427524673
            ]
        },
        {
            "positions": [
                -0.07488559222772283,
                -1.2395437787165329,
                2.16579229178287,
                -0.8921463632644621,
                0.5987193896388896,
                3.13727019956362
            ]
        },
        {
            "positions": [
                -0.14078463785933787,
                -1.2728967893810073,
                2.2305405690068305,
                -0.9293722167840061,
                0.7550969998416156,
                3.152795971602566
            ]
        },
        {
            "positions": [
                -0.20668368349095295,
                -1.3062498000454816,
                2.2952888462307905,
                -0.9665980703035499,
                0.9114746100443417,
                3.168321743641513
            ]
        },
        {
            "positions": [
                -0.2725827291225679,
                -1.3396028107099558,
                2.3600371234547506,
                -1.003823923823094,
                1.0678522202470677,
                3.1838475156804598
            ]
        },
        {
            "positions": [
                -0.338481774754183,
                -1.3729558213744302,
                2.4247854006787106,
                -1.041049777342638,
                1.2242298304497938,
                3.1993732877194065
            ]
        }
    ]
}{
    "goal": {
        "global_pose": {
            "orientation": {
                "w": 0.5084816217422485,
                "x": -0.49083608388900757,
                "y": 0.5182115435600281,
                "z": -0.4816462993621826
            },
            "position": {
                "x": 0.5540239810943604,
                "y": 0.030875300988554955,
                "z": 0.16403168439865112
            }
        },
        "name": "move_to_storage_A"
    },
    "id": "EST_move_to_storage_A_14",
    "joint_names": [
        "shoulder_pan_joint",
        "shoulder_lift_joint",
        "elbow_joint",
        "wrist_1_joint",
        "wrist_2_joint",
        "wrist_3_joint"
    ],
    "metrics": {
        "cart_traj_len": 0.35308657481837613,
        "distance_elbow_joint": 0.4496536492764389,
        "distance_shoulder_lift_joint": 0.2354561903004071,
        "distance_shoulder_pan_joint": 0.4638220970848855,
        "distance_wrist_1_joint": 0.24017029679169322,
        "distance_wrist_2_joint": 1.0901622925677334,
        "distance_wrist_3_joint": 0.10235088798498193,
        "smoothness": 6.661338200497456e-16,
        "time": 0.032470979,
        "traj_len": 1.6067406181478516,
        "weighted_distance": 2.0289528775542154
    },
    "planner": "EST",
    "start": {
        "state": {
            "elbow_joint": 1.9715472970024885,
            "shoulder_lift_joint": -1.1394870060712896,
            "shoulder_pan_joint": 0.12281152778156021,
            "wrist_1_joint": -0.780463741449964,
            "wrist_2_joint": 0.12958659822042276,
            "wrist_3_joint": 3.090690232415272
        }
    },
    "waypoints": [
        {
            "positions": [
                0.12281152778156021,
                -1.1394870060712896,
                1.9715472970024885,
                -0.780463741449964,
                0.12958659822042276,
                3.090690232415272
            ]
        },
        {
            "positions": [
                0.05655122819800515,
                -1.1731236046856335,
                2.0357835326134084,
                -0.8147737838487773,
                0.2853240685872418,
                3.105311787841698
            ]
        },
        {
            "positions": [
                -0.009709071385549911,
                -1.2067602032999774,
                2.1000197682243282,
                -0.8490838262475906,
                0.44106153895406086,
                3.1199333432681238
            ]
        },
        {
            "positions": [
                -0.07596937096910497,
                -1.2403968019143212,
                2.164256003835248,
                -0.8833938686464039,
                0.5967990093208799,
                3.13455489869455
            ]
        },
        {
            "positions": [
                -0.14222967055266003,
                -1.274033400528665,
                2.228492239446168,
                -0.9177039110452172,
                0.752536479687699,
                3.1491764541209757
            ]
        },
        {
            "positions": [
                -0.2084899701362151,
                -1.307669999143009,
                2.2927284750570878,
                -0.9520139534440306,
                0.908273950054518,
                3.163798009547402
            ]
        },
        {
            "positions": [
                -0.2747502697197701,
                -1.3413065977573528,
                2.3569647106680076,
                -0.9863239958428439,
                1.0640114204213371,
                3.1784195649738276
            ]
        },
        {
            "positions": [
                -0.34101056930332524,
                -1.3749431963716967,
                2.4212009462789275,
                -1.0206340382416572,
                1.2197488907881562,
                3.193041120400254
            ]
        }
    ]
}