{
    "goal": {
        "global_pose": {
            "orientation": {
                "w": 0.005598929693374612,
                "x": 0.007748599140229565,
                "y": 0.7110244013736278,
                "z": -0.7031023480610252
            },
            "position": {
                "x": -0.8858502320852131,
                "y": -0.7141253447532654,
                "z": 0.3711530566215515
            }
        },
        "name": "move_to_auspresseinheit_C"
    },
    "id": "EST_move_to_auspresseinheit_C_69",
    "joint_names": [
        "shoulder_pan_joint",
        "shoulder_lift_joint",
        "elbow_joint",
        "wrist_1_joint",
        "wrist_2_joint",
        "wrist_3_joint"
    ],
    "metrics": {
        "cart_traj_len": 0.49225154496370827,
        "distance_elbow_joint": 0.9880296975070175,
        "distance_shoulder_lift_joint": 0.3196866282266061,
        "distance_shoulder_pan_joint": 0.2567805878652325,
        "distance_wrist_1_joint": 0.6572382984024641,
        "distance_wrist_2_joint": 1.3076933993286015,
        "distance_wrist_3_joint": 0.040462194897434856,
        "smoothness": 0.0,
        "time": 1.099698813,
        "traj_len": 1.8894154668117218,
        "weighted_distance": 2.3697567161532196
    },
    "planner": "EST",
    "start": {
        "state": {
            "elbow_joint": 1.7527959577737207,
            "shoulder_lift_joint": -0.9740617694225068,
            "shoulder_pan_joint": -2.967991417825858,
            "wrist_1_joint": -0.759517768980727,
            "wrist_2_joint": 1.7443932448377408,
            "wrist_3_joint": -3.0840537646736568
        }
    },
    "waypoints": [
        {
            "positions": [
                -2.967991417825858,
                -0.9740617694225068,
                1.7527959577737207,
                -0.759517768980727,
                1.7443932448377408,
                -3.0840537646736568
            ]
        },
        {
            "positions": [
                -2.9423133590393347,
                -0.9420931065998461,
                1.6539929880230189,
                -0.6937939391404806,
                1.6136239049048806,
                -3.0880999841634003
            ]
        },
        {
            "positions": [
                -2.9166353002528114,
                -0.9101244437771856,
                1.555190018272317,
                -0.6280701093002341,
                1.4828545649720204,
                -3.0921462036531437
            ]
        },
        {
            "positions": [
                -2.890957241466288,
                -0.878155780954525,
                1.4563870485216155,
                -0.5623462794599878,
                1.3520852250391604,
                -3.0961924231428872
            ]
        },
        {
            "positions": [
                -2.865279182679765,
                -0.8461871181318643,
                1.3575840787709137,
                -0.49662244961974134,
                1.2213158851063002,
                -3.1002386426326307
            ]
        },
        {
            "positions": [
                -2.8396011238932415,
                -0.8142184553092038,
                1.258781109020212,
                -0.43089861977949495,
                1.09054654517344,
                -3.104284862122374
            ]
        },
        {
            "positions": [
                -2.8139230651067186,
                -0.7822497924865431,
                1.1599781392695103,
                -0.36517478993924857,
                0.95977720524058,
                -3.1083310816121177
            ]
        },
        {
            "positions": [
                -2.7882450063201953,
                -0.7502811296638825,
                1.0611751695188083,
                -0.2994509600990022,
                0.8290078653077199,
                -3.112377301101861
            ]
        },
        {
            "positions": [
                -2.762566947533672,
                -0.718312466841222,
                0.9623721997681066,
                -0.2337271302587557,
                0.6982385253748595,
                -3.1164235205916047
            ]
        },
        {
            "positions": [
                -2.7368888887471488,
                -0.6863438040185612,
                0.8635692300174048,
                -0.1680033004185093,
                0.5674691854419995,
                -3.120469740081348
            ]
        },
        {
            "positions": [
                -2.7112108299606255,
                -0.6543751411959007,
                0.7647662602667031,
                -0.10227947057826295,
                0.4366998455091394,
                -3.1245159595710916
            ]
        }
    ]
}