{
    "goal": {
        "global_pose": {
            "orientation": {
                "w": 0.7047431468963623,
                "x": -0.7094548344612122,
                "y": 0.0024358443915843964,
                "z": -0.0022348060738295317
            },
            "position": {
                "x": 0.6094750761985779,
                "y": 0.3671506643295288,
                "z": 0.19426114857196808
            }
        },
        "name": "move_to_magneteinheit_A"
    },
    "id": "EST_move_to_magneteinheit_A_147",
    "joint_names": [
        "shoulder_pan_joint",
        "shoulder_lift_joint",
        "elbow_joint",
        "wrist_1_joint",
        "wrist_2_joint",
        "wrist_3_joint"
    ],
    "metrics": {
        "cart_traj_len": 3.7618605741941247,
        "distance_elbow_joint": 4.06918223999929,
        "distance_shoulder_lift_joint": 0.7042808402381288,
        "distance_shoulder_pan_joint": 3.689878300102011,
        "distance_wrist_1_joint": 3.8205228996946583,
        "distance_wrist_2_joint": 1.568638246432927,
        "distance_wrist_3_joint": 1.22776798875877,
        "smoothness": 0.5654796356036158,
        "time": 0.105228953,
        "traj_len": 3.8833323982406895,
        "weighted_distance": 4.788002468553135
    },
    "planner": "EST",
    "start": {
        "state": {
            "elbow_joint": -1.9196185241190666,
            "shoulder_lift_joint": -1.2443396400964142,
            "shoulder_pan_joint": 2.6996025414629847,
            "wrist_1_joint": -1.5485510000780065,
            "wrist_2_joint": -1.5709468930060704,
            "wrist_3_joint": 0.4420197071253992
        }
    },
    "waypoints": [
        {
            "positions": [
                2.6996025414629847,
                -1.2443396400964142,
                -1.9196185241190666,
                -1.5485510000780065,
                -1.5709468930060704,
                0.4420197071253992
            ]
        },
        {
            "positions": [
                2.6050928411681267,
                -1.235691127026652,
                -1.8113576975664314,
                -1.4317065830357503,
                -1.535920436517467,
                0.41317605800926877
            ]
        },
        {
            "positions": [
                2.510583140873269,
                -1.2270426139568897,
                -1.7030968710137961,
                -1.314862165993494,
                -1.5008939800288637,
                0.38433240889313836
            ]
        },
        {
            "positions": [
                2.416073440578411,
                -1.2183941008871275,
                -1.594836044461161,
                -1.198017748951238,
                -1.4658675235402603,
                0.355488759777008
            ]
        },
        {
            "positions": [
                2.321563740283553,
                -1.2097455878173653,
                -1.4865752179085256,
                -1.0811733319089818,
                -1.430841067051657,
                0.3266451106608776
            ]
        },
        {
            "positions": [
                2.2270540399886953,
                -1.201097074747603,
                -1.3783143913558904,
                -0.9643289148667255,
                -1.3958146105630536,
                0.2978014615447472
            ]
        },
        {
            "positions": [
                2.1325443396938373,
                -1.1924485616778409,
                -1.2700535648032552,
                -0.8474844978244693,
                -1.3607881540744502,
                0.2689578124286168
            ]
        },
        {
            "positions": [
                2.0380346393989797,
                -1.1838000486080786,
                -1.16179273825062,
                -0.7306400807822131,
                -1.3257616975858468,
                0.2401141633124864
            ]
        },
        {
            "positions": [
                1.9435249391041216,
                -1.1751515355383162,
                -1.0535319116979847,
                -0.6137956637399569,
                -1.2907352410972435,
                0.211270514196356
            ]
        },
        {
            "positions": [
                1.8490152388092636,
                -1.166503022468554,
                -0.9452710851453495,
                -0.49695124669770063,
                -1.25570878460864,
                0.1824268650802256
            ]
        },
        {
            "positions": [
                1.754505538514406,
                -1.1578545093987918,
                -0.8370102585927142,
                -0.3801068296554444,
                -1.2206823281200365,
                0.1535832159640952
            ]
        },
        {
            "positions": [
                1.659995838219548,
                -1.1492059963290295,
                -0.7287494320400791,
                -0.2632624126131884,
                -1.1856558716314334,
                0.12473956684796483
            ]
        },
        {
            "positions": [
                1.56548613792469,
                -1.1405574832592673,
                -0.6204886054874439,
                -0.14641799557093216,
                -1.1506294151428298,
                0.09589591773183442
            ]
        },
        {
            "positions": [
                1.4709764376298322,
                -1.131908970189505,
                -0.5122277789348086,
                -0.029573578528675926,
                -1.1156029586542267,
                0.06705226861570401
            ]
        },
        {
            "positions": [
                1.3764667373349742,
                -1.1232604571197429,
                -0.4039669523821734,
                0.0872708385135803,
                -1.080576502165623,
                0.038208619499573604
            ]
        },
        {
            "positions": [
                1.2819570370401163,
                -1.1146119440499807,
                -0.29570612582953815,
                0.20411525555583654,
                -1.04555004567702,
                0.009364970383443194
            ]
        },
        {
            "positions": [
                1.1874473367452585,
                -1.1059634309802184,
                -0.1874452992769029,
                0.32095967259809277,
                -1.0105235891884163,
                -0.01947867873268716
            ]
        },
        {
            "positions": [
                1.0929376364504009,
                -1.0973149179104562,
                -0.07918447272426787,
                0.4378040896403488,
                -0.9754971326998131,
                -0.048322327848817515
            ]
        },
        {
            "positions": [
                0.9984279361555426,
                -1.088666404840694,
                0.029076353828367596,
                0.5546485066826052,
                -0.9404706762112097,
                -0.07716597696494798
            ]
        },
        {
            "positions": [
                0.903918235860685,
                -1.0800178917709318,
                0.13733718038100262,
                0.6714929237248615,
                -0.9054442197226064,
                -0.10600962608107833
            ]
        },
        {
            "positions": [
                0.8094085355658269,
                -1.0713693787011696,
                0.2455980069336383,
                0.7883373407671177,
                -0.8704177632340029,
                -0.1348532751972088
            ]
        },
        {
            "positions": [
                0.7148988352709691,
                -1.062720865631407,
                0.3538588334862731,
                0.9051817578093739,
                -0.8353913067453996,
                -0.16369692431333915
            ]
        },
        {
            "positions": [
                0.6203891349761115,
                -1.0540723525616449,
                0.46211966003890836,
                1.0220261748516297,
                -0.8003648502567963,
                -0.1925405734294695
            ]
        },
        {
            "positions": [
                0.5258794346812534,
                -1.0454238394918827,
                0.5703804865915436,
                1.1388705918938864,
                -0.7653383937681928,
                -0.22138422254559997
            ]
        },
        {
            "positions": [
                0.43136973438639536,
                -1.0367753264221204,
                0.6786413131441789,
                1.2557150089361422,
                -0.7303119372795894,
                -0.25022787166173033
            ]
        },
        {
            "positions": [
                0.33686003409153775,
                -1.0281268133523582,
                0.7869021396968141,
                1.3725594259783984,
                -0.6952854807909862,
                -0.2790715207778607
            ]
        },
        {
            "positions": [
                0.2423503337966797,
                -1.019478300282596,
                0.8951629662494494,
                1.4894038430206546,
                -0.6602590243023827,
                -0.30791516989399115
            ]
        },
        {
            "positions": [
                0.14784063350182164,
                -1.0108297872128338,
                1.0034237928020846,
                1.6062482600629109,
                -0.6252325678137793,
                -0.3367588190101215
            ]
        },
        {
            "positions": [
                0.05333093320696358,
                -1.0021812741430716,
                1.1116846193547198,
                1.7230926771051671,
                -0.590206111325176,
                -0.36560246812625197
            ]
        },
        {
            "positions": [
                -0.04117876708789403,
                -0.9935327610733093,
                1.2199454459073553,
                1.8399370941474233,
                -0.5551796548365725,
                -0.3944461172423823
            ]
        },
        {
            "positions": [
                -0.11964152644521048,
                -0.9268283855428576,
                1.2047921518457816,
                1.8055088823691967,
                -0.45822571411528923,
                -0.3358302325012113
            ]
        },
        {
            "positions": [
                -0.19810428580252692,
                -0.8601240100124059,
                1.1896388577842079,
                1.77108067059097,
                -0.36127177339400596,
                -0.2772143477600403
            ]
        },
        {
            "positions": [
                -0.2765670451598433,
                -0.7934196344819542,
                1.1744855637226344,
                1.7366524588127434,
                -0.2643178326727227,
                -0.2185984630188693
            ]
        },
        {
            "positions": [
                -0.3550298045171598,
                -0.7267152589515024,
                1.1593322696610606,
                1.7022242470345168,
                -0.16736389195143941,
                -0.15998257827769827
            ]
        },
        {
            "positions": [
                -0.4334925638744762,
                -0.6600108834210506,
                1.144178975599487,
                1.6677960352562902,
                -0.07040995123015614,
                -0.10136669353652727
            ]
        },
        {
            "positions": [
                -0.3221359249215663,
                -0.6840013001336037,
                1.3149493355324866,
                1.7197747845719091,
                -0.08403021216155877,
                -0.08172214539950072
            ]
        },
        {
            "positions": [
                -0.2107792859686564,
                -0.7079917168461567,
                1.4857196954654863,
                1.7717535338875283,
                -0.0976504730929614,
                -0.062077597262474166
            ]
        },
        {
            "positions": [
                -0.09942264701574649,
                -0.7319821335587098,
                1.656490055398486,
                1.8237322832031473,
                -0.11127073402436402,
                -0.04243304912544761
            ]
        },
        {
            "positions": [
                0.011933991937163435,
                -0.7559725502712629,
                1.8272604153314858,
                1.8757110325187665,
                -0.12489099495576667,
                -0.022788500988421057
            ]
        },
        {
            "positions": [
                0.12329063089007326,
                -0.7799629669838158,
                1.9980307752644855,
                1.9276897818343854,
                -0.13851125588716928,
                -0.003143952851394497
            ]
        }
    ]
}