{
    "goal": {
        "global_pose": {
            "orientation": {
                "w": 0.5084816262002911,
                "x": -0.4908360881923452,
                "y": 0.5182115481033761,
                "z": -0.48164630358495003
            },
            "position": {
                "x": 0.5540239810943604,
                "y": -0.46912469901144505,
                "z": 0.16403168439865112
            }
        },
        "name": "move_to_storage_B"
    },
    "id": "EST_move_to_storage_B_47",
    "joint_names": [
        "shoulder_pan_joint",
        "shoulder_lift_joint",
        "elbow_joint",
        "wrist_1_joint",
        "wrist_2_joint",
        "wrist_3_joint"
    ],
    "metrics": {
        "cart_traj_len": 2.711141305879683,
        "distance_elbow_joint": 1.4244729340505962,
        "distance_shoulder_lift_joint": 0.9008714644604423,
        "distance_shoulder_pan_joint": 2.694991902477547,
        "distance_wrist_1_joint": 2.980026827616678,
        "distance_wrist_2_joint": 3.9040956716927826,
        "distance_wrist_3_joint": 3.1431221768647375,
        "smoothness": 0.30535787871888753,
        "time": 0.157186894,
        "traj_len": 3.8791211604128564,
        "weighted_distance": 5.31205683612306
    },
    "planner": "EST",
    "start": {
        "state": {
            "elbow_joint": 1.664937868594044,
            "shoulder_lift_joint": -0.661644460510453,
            "shoulder_pan_joint": -0.9139846352900073,
            "wrist_1_joint": 2.146753192139373,
            "wrist_2_joint": -2.2341966793290973,
            "wrist_3_joint": 0.005466555786416001
        }
    },
    "waypoints": [
        {
            "positions": [
                -0.9139846352900073,
                -0.661644460510453,
                1.664937868594044,
                2.146753192139373,
                -2.2341966793290973,
                0.005466555786416001
            ]
        },
        {
            "positions": [
                -0.9014839002989798,
                -0.674018851312565,
                1.665801858150421,
                2.1397575975763683,
                -2.2079625322237275,
                0.0028434770659745766
            ]
        },
        {
            "positions": [
                -0.8496053826589625,
                -0.701820676728898,
                1.6433946676020754,
                2.049921521842969,
                -2.0710856661035315,
                0.06681513881278336
            ]
        },
        {
            "positions": [
                -0.7977268650189451,
                -0.7296225021452311,
                1.6209874770537298,
                1.9600854461095698,
                -1.9342087999833357,
                0.13078680055959216
            ]
        },
        {
            "positions": [
                -0.7458483473789277,
                -0.7574243275615641,
                1.5985802865053842,
                1.8702493703761705,
                -1.7973319338631397,
                0.19475846230640095
            ]
        },
        {
            "positions": [
                -0.6939698297389104,
                -0.7852261529778971,
                1.5761730959570386,
                1.7804132946427713,
                -1.660455067742944,
                0.2587301240532098
            ]
        },
        {
            "positions": [
                -0.6420913120988929,
                -0.8130279783942301,
                1.553765905408693,
                1.6905772189093722,
                -1.523578201622748,
                0.32270178580001857
            ]
        },
        {
            "positions": [
                -0.5902127944588756,
                -0.8408298038105632,
                1.5313587148603474,
                1.6007411431759728,
                -1.386701335502552,
                0.38667344754682736
            ]
        },
        {
            "positions": [
                -0.5383342768188583,
                -0.8686316292268963,
                1.5089515243120017,
                1.5109050674425735,
                -1.249824469382356,
                0.4506451092936362
            ]
        },
        {
            "positions": [
                -0.48645575917884093,
                -0.8964334546432292,
                1.4865443337636561,
                1.4210689917091743,
                -1.1129476032621601,
                0.5146167710404449
            ]
        },
        {
            "positions": [
                -0.43457724153882354,
                -0.9242352800595623,
                1.4641371432153105,
                1.3312329159757752,
                -0.9760707371419641,
                0.5785884327872537
            ]
        },
        {
            "positions": [
                -0.3826987238988061,
                -0.9520371054758954,
                1.441729952666965,
                1.2413968402423758,
                -0.8391938710217681,
                0.6425600945340625
            ]
        },
        {
            "positions": [
                -0.33082020625878883,
                -0.9798389308922284,
                1.4193227621186193,
                1.1515607645089765,
                -0.7023170049015723,
                0.7065317562808713
            ]
        },
        {
            "positions": [
                -0.27894168861877144,
                -1.0076407563085614,
                1.3969155715702737,
                1.0617246887755774,
                -0.5654401387813763,
                0.7705034180276801
            ]
        },
        {
            "positions": [
                -0.22706317097875417,
                -1.0354425817248945,
                1.374508381021928,
                0.9718886130421782,
                -0.42856327266118055,
                0.8344750797744888
            ]
        },
        {
            "positions": [
                -0.17518465333873667,
                -1.0632444071412275,
                1.3521011904735825,
                0.8820525373087789,
                -0.2916864065409843,
                0.8984467415212978
            ]
        },
        {
            "positions": [
                -0.12330613569871929,
                -1.0910462325575605,
                1.3296939999252368,
                0.7922164615753795,
                -0.15480954042078832,
                0.9624184032681065
            ]
        },
        {
            "positions": [
                -0.07142761805870201,
                -1.1188480579738935,
                1.3072868093768912,
                0.7023803858419804,
                -0.017932674300592755,
                1.0263900650149154
            ]
        },
        {
            "positions": [
                -0.019549100418684517,
                -1.1466498833902266,
                1.2848796188285456,
                0.612544310108581,
                0.11894419181960325,
                1.0903617267617243
            ]
        },
        {
            "positions": [
                0.03232941722133276,
                -1.1744517088065596,
                1.2624724282802,
                0.5227082343751819,
                0.25582105793979926,
                1.154333388508533
            ]
        },
        {
            "positions": [
                0.08420793486135003,
                -1.2022535342228926,
                1.2400652377318544,
                0.43287215864178274,
                0.39269792405999526,
                1.2183050502553416
            ]
        },
        {
            "positions": [
                0.13608645250136764,
                -1.2300553596392256,
                1.2176580471835088,
                0.3430360829083834,
                0.5295747901801913,
                1.2822767120021505
            ]
        },
        {
            "positions": [
                0.1879649701413848,
                -1.2578571850555587,
                1.1952508566351632,
                0.25320000717498425,
                0.6664516563003868,
                1.3462483737489594
            ]
        },
        {
            "positions": [
                0.2398434877814022,
                -1.2856590104718917,
                1.1728436660868176,
                0.1633639314415849,
                0.8033285224205828,
                1.4102200354957681
            ]
        },
        {
            "positions": [
                0.2917220054214196,
                -1.3134608358882247,
                1.150436475538472,
                0.07352785570818554,
                0.9402053885407788,
                1.474191697242577
            ]
        },
        {
            "positions": [
                0.34360052306143696,
                -1.3412626613045577,
                1.1280292849901263,
                -0.01630822002521372,
                1.0770822546609748,
                1.5381633589893857
            ]
        },
        {
            "positions": [
                0.24777340678636345,
                -1.3265124437268019,
                1.1870850430790547,
                -0.07077258105535314,
                1.0375611388141275,
                1.6451753067374446
            ]
        },
        {
            "positions": [
                0.15194629051128994,
                -1.311762226149046,
                1.2461408011679829,
                -0.12523694208549258,
                0.9980400229672801,
                1.7521872544855037
            ]
        },
        {
            "positions": [
                0.05611917423621643,
                -1.2970120085712902,
                1.3051965592569112,
                -0.17970130311563204,
                0.9585189071204328,
                1.8591992022335626
            ]
        },
        {
            "positions": [
                -0.03970794203885708,
                -1.2822617909935343,
                1.3642523173458394,
                -0.23416566414577145,
                0.9189977912735854,
                1.9662111499816217
            ]
        },
        {
            "positions": [
                -0.1355350583139306,
                -1.2675115734157785,
                1.4233080754347678,
                -0.28863002517591085,
                0.879476675426738,
                2.073223097729681
            ]
        },
        {
            "positions": [
                -0.2313621745890041,
                -1.2527613558380226,
                1.4823638335236962,
                -0.3430943862060503,
                0.8399555595798907,
                2.1802350454777395
            ]
        },
        {
            "positions": [
                -0.32718929086407766,
                -1.2380111382602668,
                1.5414195916126243,
                -0.3975587472361897,
                0.8004344437330433,
                2.2872469932257986
            ]
        },
        {
            "positions": [
                -0.4230164071391511,
                -1.2232609206825111,
                1.6004753497015527,
                -0.45202310826632913,
                0.7609133278861959,
                2.3942589409738577
            ]
        },
        {
            "positions": [
                -0.5188435234142247,
                -1.2085107031047553,
                1.6595311077904809,
                -0.5064874692964686,
                0.7213922120393486,
                2.5012708887219164
            ]
        },
        {
            "positions": [
                -0.6146706396892981,
                -1.1937604855269994,
                1.7185868658794092,
                -0.560951830326608,
                0.6818710961925012,
                2.6082828364699755
            ]
        },
        {
            "positions": [
                -0.7104977559643717,
                -1.1790102679492436,
                1.7776426239683376,
                -0.6154161913567474,
                0.6423499803456538,
                2.7152947842180346
            ]
        },
        {
            "positions": [
                -0.8063248722394452,
                -1.1642600503714877,
                1.836698382057266,
                -0.6698805523868869,
                0.6028288644988065,
                2.8223067319660937
            ]
        },
        {
            "positions": [
                -0.9021519885145188,
                -1.1495098327937319,
                1.8957541401461941,
                -0.7243449134170263,
                0.5633077486519591,
                2.929318679714153
            ]
        },
        {
            "positions": [
                -0.9979791047895923,
                -1.134759615215976,
                1.9548098982351223,
                -0.7788092744471657,
                0.5237866328051117,
                3.0363306274622115
            ]
        },
        {
            "positions": [
                -1.0938062210646657,
                -1.1200093976382202,
                2.0138656563240507,
                -0.8332736354773052,
                0.48426551695826436,
                3.1433425752102706
            ]
        }
    ]
}