{
    "goal": {
        "global_pose": {
            "orientation": {
                "w": 0.7031023480610252,
                "x": -0.7110244013736278,
                "y": 0.0077485991402295624,
                "z": 0.005598929693374583
            },
            "position": {
                "x": -0.8841497679147869,
                "y": 0.44412534475326537,
                "z": 0.3711530566215515
            }
        },
        "name": "move_to_auspresseinheit_D"
    },
    "id": "EST_move_to_auspresseinheit_D_141",
    "joint_names": [
        "shoulder_pan_joint",
        "shoulder_lift_joint",
        "elbow_joint",
        "wrist_1_joint",
        "wrist_2_joint",
        "wrist_3_joint"
    ],
    "metrics": {
        "cart_traj_len": 0.34345999209190436,
        "distance_elbow_joint": 0.6335150119722559,
        "distance_shoulder_lift_joint": 0.11828434425565959,
        "distance_shoulder_pan_joint": 0.13428256093691318,
        "distance_wrist_1_joint": 0.5119191530245302,
        "distance_wrist_2_joint": 1.4326667754101432,
        "distance_wrist_3_joint": 0.010529814179703667,
        "smoothness": 1.1842378960592198e-15,
        "time": 0.055410531,
        "traj_len": 1.6855852573451173,
        "weighted_distance": 2.192451417152336
    },
    "planner": "EST",
    "start": {
        "state": {
            "elbow_joint": -1.8275523626775212,
            "shoulder_lift_joint": -2.126789852344167,
            "shoulder_pan_joint": -0.03513704404078235,
            "wrist_1_joint": -2.347782403156801,
            "wrist_2_joint": -1.6058999987535132,
            "wrist_3_joint": -3.0880379163319196
        }
    },
    "waypoints": [
        {
            "positions": [
                -0.03513704404078235,
                -2.126789852344167,
                -1.8275523626775212,
                -2.347782403156801,
                -1.6058999987535132,
                -3.0880379163319196
            ]
        },
        {
            "positions": [
                -0.0519223641578965,
                -2.1415753953761243,
                -1.7483629861809893,
                -2.411772297284867,
                -1.4268166518272454,
                -3.0893541431043827
            ]
        },
        {
            "positions": [
                -0.06870768427501064,
                -2.1563609384080817,
                -1.6691736096844572,
                -2.4757621914129335,
                -1.2477333049009773,
                -3.0906703698768454
            ]
        },
        {
            "positions": [
                -0.08549300439212479,
                -2.171146481440039,
                -1.5899842331879253,
                -2.5397520855409996,
                -1.0686499579747095,
                -3.0919865966493085
            ]
        },
        {
            "positions": [
                -0.10227832450923893,
                -2.1859320244719966,
                -1.5107948566913931,
                -2.603741979669066,
                -0.8895666110484416,
                -3.093302823421771
            ]
        },
        {
            "positions": [
                -0.11906364462635308,
                -2.200717567503954,
                -1.4316054801948612,
                -2.6677318737971323,
                -0.7104832641221737,
                -3.0946190501942343
            ]
        },
        {
            "positions": [
                -0.13584896474346725,
                -2.2155031105359115,
                -1.3524161036983293,
                -2.7317217679251984,
                -0.5313999171959058,
                -3.0959352769666975
            ]
        },
        {
            "positions": [
                -0.1526342848605814,
                -2.230288653567869,
                -1.2732267272017972,
                -2.795711662053265,
                -0.3523165702696378,
                -3.09725150373916
            ]
        },
        {
            "positions": [
                -0.16941960497769554,
                -2.2450741965998264,
                -1.1940373507052653,
                -2.859701556181331,
                -0.17323322334337007,
                -3.0985677305116233
            ]
        }
    ]
}