{
    "goal": {
        "global_pose": {
            "orientation": {
                "w": 0.5084816217422485,
                "x": -0.49083608388900757,
                "y": 0.5182115435600281,
                "z": -0.4816462993621826
            },
            "position": {
                "x": 0.5540239810943604,
                "y": 0.030875300988554955,
                "z": 0.16403168439865112
            }
        },
        "name": "move_to_storage_A"
    },
    "id": "EST_move_to_storage_A_100",
    "joint_names": [
        "shoulder_pan_joint",
        "shoulder_lift_joint",
        "elbow_joint",
        "wrist_1_joint",
        "wrist_2_joint",
        "wrist_3_joint"
    ],
    "metrics": {
        "cart_traj_len": 0.3536171357078919,
        "distance_elbow_joint": 0.4477206074364426,
        "distance_shoulder_lift_joint": 0.23482551707699084,
        "distance_shoulder_pan_joint": 0.45937687409504774,
        "distance_wrist_1_joint": 0.2360266513388377,
        "distance_wrist_2_joint": 1.1125463025820488,
        "distance_wrist_3_joint": 0.1024726003913794,
        "smoothness": 4.440892098500626e-16,
        "time": 0.063749903,
        "traj_len": 1.6102697143400377,
        "weighted_distance": 2.0362923924683294
    },
    "planner": "EST",
    "start": {
        "state": {
            "elbow_joint": 1.971548259319323,
            "shoulder_lift_joint": -1.1394851275133948,
            "shoulder_pan_joint": 0.1228115487234821,
            "wrist_1_joint": -0.7804723859257726,
            "wrist_2_joint": 0.12958671773740124,
            "wrist_3_joint": -3.192489227718131
        }
    },
    "waypoints": [
        {
            "positions": [
                0.1228115487234821,
                -1.1394851275133948,
                1.971548259319323,
                -0.7804723859257726,
                0.12958671773740124,
                -3.192489227718131
            ]
        },
        {
            "positions": [
                0.057186280995618136,
                -1.1730316299529648,
                2.0355083460959578,
                -0.814190478974178,
                0.2885219038205511,
                -3.177850284805077
            ]
        },
        {
            "positions": [
                -0.008438986732245829,
                -1.206578132392535,
                2.0994684328725923,
                -0.8479085720225834,
                0.4474570899037009,
                -3.1632113418920227
            ]
        },
        {
            "positions": [
                -0.07406425446010978,
                -1.240124634832105,
                2.163428519649227,
                -0.8816266650709887,
                0.6063922759868507,
                -3.1485723989789687
            ]
        },
        {
            "positions": [
                -0.13968952218797376,
                -1.2736711372716754,
                2.2273886064258615,
                -0.9153447581193942,
                0.7653274620700006,
                -3.1339334560659142
            ]
        },
        {
            "positions": [
                -0.20531478991583774,
                -1.3072176397112454,
                2.2913486932024965,
                -0.9490628511677995,
                0.9242626481531504,
                -3.11929451315286
            ]
        },
        {
            "positions": [
                -0.27094005764370166,
                -1.3407641421508156,
                2.355308779979131,
                -0.982780944216205,
                1.0831978342363002,
                -3.1046555702398058
            ]
        },
        {
            "positions": [
                -0.33656532537156564,
                -1.3743106445903857,
                2.4192688667557656,
                -1.0164990372646103,
                1.24213302031945,
                -3.0900166273267518
            ]
        }
    ]
}{
    "goal": {
        "global_pose": {
            "orientation": {
                "w": 0.5084816217422485,
                "x": -0.49083608388900757,
                "y": 0.5182115435600281,
                "z": -0.4816462993621826
            },
            "position": {
                "x": 0.5540239810943604,
                "y": 0.030875300988554955,
                "z": 0.16403168439865112
            }
        },
        "name": "move_to_storage_A"
    },
    "id": "EST_move_to_storage_A_100",
    "joint_names": [
        "shoulder_pan_joint",
        "shoulder_lift_joint",
        "elbow_joint",
        "wrist_1_joint",
        "wrist_2_joint",
        "wrist_3_joint"
    ],
    "metrics": {
        "cart_traj_len": 0.3538628288657277,
        "distance_elbow_joint": 0.45268261444256463,
        "distance_shoulder_lift_joint": 0.2320818536095257,
        "distance_shoulder_pan_joint": 0.4625844011192447,
        "distance_wrist_1_joint": 0.2596789915791313,
        "distance_wrist_2_joint": 1.0998345391080984,
        "distance_wrist_3_joint": 0.10485043783323089,
        "smoothness": 1.3322676295501878e-15,
        "time": 0.112283987,
        "traj_len": 1.6160794651538009,
        "weighted_distance": 2.044731582395471
    },
    "planner": "EST",
    "start": {
        "state": {
            "elbow_joint": 1.97154746011099,
            "shoulder_lift_joint": -1.13948474672311,
            "shoulder_pan_joint": 0.12281154466712228,
            "wrist_1_joint": -0.7804688027058302,
            "wrist_2_joint": 0.12958655903071145,
            "wrist_3_joint": 3.0906928834467795
        }
    },
    "waypoints": [
        {
            "positions": [
                0.12281154466712228,
                -1.13948474672311,
                1.97154746011099,
                -0.7804688027058302,
                0.12958655903071145,
                3.0906928834467795
            ]
        },
        {
            "positions": [
                0.05672805879294447,
                -1.1726392972387565,
                2.0362164050313565,
                -0.817565801502849,
                0.28670577890329696,
                3.105671517422955
            ]
        },
        {
            "positions": [
                -0.009355427081233339,
                -1.205793847754403,
                2.1008853499517226,
                -0.8546628002998677,
                0.44382499877588244,
                3.1206501513991314
            ]
        },
        {
            "positions": [
                -0.07543891295541115,
                -1.2389483982700495,
                2.165554294872089,
                -0.8917597990968864,
                0.6009442186484679,
                3.135628785375307
            ]
        },
        {
            "positions": [
                -0.14152239882958895,
                -1.272102948785696,
                2.2302232397924553,
                -0.9288567978939052,
                0.7580634385210534,
                3.150607419351483
            ]
        },
        {
            "positions": [
                -0.20760588470376679,
                -1.3052574993013426,
                2.294892184712822,
                -0.965953796690924,
                0.9151826583936389,
                3.1655860533276585
            ]
        },
        {
            "positions": [
                -0.27368937057794457,
                -1.3384120498169891,
                2.359561129633188,
                -1.0030507954879426,
                1.0723018782662244,
                3.1805646873038347
            ]
        },
        {
            "positions": [
                -0.3397728564521224,
                -1.3715666003326357,
                2.4242300745535545,
                -1.0401477942849615,
                1.2294210981388098,
                3.1955433212800104
            ]
        }
    ]
}{
    "goal": {
        "global_pose": {
            "orientation": {
                "w": 0.5084816217422485,
                "x": -0.49083608388900757,
                "y": 0.5182115435600281,
                "z": -0.4816462993621826
            },
            "position": {
                "x": 0.5540239810943604,
                "y": 0.030875300988554955,
                "z": 0.16403168439865112
            }
        },
        "name": "move_to_storage_A"
    },
    "id": "EST_move_to_storage_A_100",
    "joint_names": [
        "shoulder_pan_joint",
        "shoulder_lift_joint",
        "elbow_joint",
        "wrist_1_joint",
        "wrist_2_joint",
        "wrist_3_joint"
    ],
    "metrics": {
        "cart_traj_len": 0.3527329907693056,
        "distance_elbow_joint": 0.45221451245260447,
        "distance_shoulder_lift_joint": 0.23339808845608978,
        "distance_shoulder_pan_joint": 0.45693827323719494,
        "distance_wrist_1_joint": 0.2523284365826204,
        "distance_wrist_2_joint": 1.1166325739818503,
        "distance_wrist_3_joint": 0.09110524489231864,
        "smoothness": 2.2204460668324854e-16,
        "time": 0.065809907,
        "traj_len": 1.6132628829805384,
        "weighted_distance": 2.0380845492647715
    },
    "planner": "EST",
    "start": {
        "state": {
            "elbow_joint": 1.9715472970024885,
            "shoulder_lift_joint": -1.1394870060712896,
            "shoulder_pan_joint": 0.12281152778156021,
            "wrist_1_joint": -0.780463741449964,
            "wrist_2_joint": 0.12958659822042276,
            "wrist_3_joint": 3.090690232415272
        }
    },
    "waypoints": [
        {
            "positions": [
                0.12281152778156021,
                -1.1394870060712896,
                1.9715472970024885,
                -0.780463741449964,
                0.12958659822042276,
                3.090690232415272
            ]
        },
        {
            "positions": [
                0.05753463160481807,
                -1.1728295901364454,
                2.0361493702100035,
                -0.8165106609617669,
                0.2891055373606871,
                3.1037052673998886
            ]
        },
        {
            "positions": [
                -0.007742264571924062,
                -1.206172174201601,
                2.1007514434175185,
                -0.8525575804735698,
                0.4486244765009514,
                3.116720302384506
            ]
        },
        {
            "positions": [
                -0.07301916074866618,
                -1.2395147582667567,
                2.1653535166250335,
                -0.8886044999853727,
                0.6081434156412158,
                3.1297353373691226
            ]
        },
        {
            "positions": [
                -0.13829605692540833,
                -1.2728573423319123,
                2.229955589832548,
                -0.9246514194971757,
                0.76766235478148,
                3.1427503723537398
            ]
        },
        {
            "positions": [
                -0.20357295310215048,
                -1.306199926397068,
                2.294557663040063,
                -0.9606983390089785,
                0.9271812939217444,
                3.1557654073383565
            ]
        },
        {
            "positions": [
                -0.26884984927889255,
                -1.3395425104622236,
                2.359159736247578,
                -0.9967452585207814,
                1.0867002330620088,
                3.1687804423229737
            ]
        },
        {
            "positions": [
                -0.3341267454556347,
                -1.3728850945273794,
                2.423761809455093,
                -1.0327921780325844,
                1.246219172202273,
                3.1817954773075905
            ]
        }
    ]
}