{
    "goal": {
        "global_pose": {
            "orientation": {
                "w": -0.00223480608172531,
                "x": 0.0024358444001904467,
                "y": 0.7094548369677653,
                "z": -0.704743149386269
            },
            "position": {
                "x": 0.6205249238014221,
                "y": -0.6371506643295288,
                "z": 0.19426114857196808
            }
        },
        "name": "move_to_magneteinheit_B"
    },
    "id": "EST_move_to_magneteinheit_B_142",
    "joint_names": [
        "shoulder_pan_joint",
        "shoulder_lift_joint",
        "elbow_joint",
        "wrist_1_joint",
        "wrist_2_joint",
        "wrist_3_joint"
    ],
    "metrics": {
        "cart_traj_len": 4.402142320289809,
        "distance_elbow_joint": 4.629812773751758,
        "distance_shoulder_lift_joint": 4.828182598216035,
        "distance_shoulder_pan_joint": 3.071869731823817,
        "distance_wrist_1_joint": 4.414901681716234,
        "distance_wrist_2_joint": 3.1430821671082567,
        "distance_wrist_3_joint": 3.5180957564261517,
        "smoothness": 0.3339533135836323,
        "time": 0.437030276,
        "traj_len": 4.858594931566351,
        "weighted_distance": 6.180624569630407
    },
    "planner": "EST",
    "start": {
        "state": {
            "elbow_joint": 2.6216224122426386,
            "shoulder_lift_joint": -1.4174107377796124,
            "shoulder_pan_joint": 0.7066234856936794,
            "wrist_1_joint": 1.9546482284002225,
            "wrist_2_joint": -0.7096286983471962,
            "wrist_3_joint": 0.005740856962016249
        }
    },
    "waypoints": [
        {
            "positions": [
                0.7066234856936794,
                -1.4174107377796124,
                2.6216224122426386,
                1.9546482284002225,
                -0.7096286983471962,
                0.005740856962016249
            ]
        },
        {
            "positions": [
                0.7053330260796955,
                -1.4221210516153424,
                2.6140132614662015,
                1.92168303039906,
                -0.7162742965230452,
                -0.015098399923179009
            ]
        },
        {
            "positions": [
                0.7052761049059645,
                -1.4478627609004584,
                2.559368000679284,
                1.7318128547718383,
                -0.7334858493443758,
                -0.12252016260978672
            ]
        },
        {
            "positions": [
                0.7052191837322334,
                -1.4736044701855742,
                2.504722739892366,
                1.5419426791446165,
                -0.7506974021657064,
                -0.22994192529639446
            ]
        },
        {
            "positions": [
                0.7051622625585023,
                -1.4993461794706902,
                2.450077479105448,
                1.3520725035173946,
                -0.7679089549870369,
                -0.3373636879830022
            ]
        },
        {
            "positions": [
                0.7051053413847713,
                -1.5250878887558061,
                2.3954322183185304,
                1.162202327890173,
                -0.7851205078083675,
                -0.4447854506696099
            ]
        },
        {
            "positions": [
                0.7050484202110402,
                -1.550829598040922,
                2.3407869575316127,
                0.9723321522629512,
                -0.8023320606296981,
                -0.5522072133562176
            ]
        },
        {
            "positions": [
                0.7049914990373092,
                -1.576571307326038,
                2.2861416967446946,
                0.7824619766357295,
                -0.8195436134510287,
                -0.6596289760428253
            ]
        },
        {
            "positions": [
                0.7049345778635782,
                -1.6023130166111539,
                2.231496435957777,
                0.5925918010085078,
                -0.8367551662723591,
                -0.767050738729433
            ]
        },
        {
            "positions": [
                0.704877656689847,
                -1.6280547258962696,
                2.1768511751708592,
                0.402721625381286,
                -0.8539667190936897,
                -0.8744725014160407
            ]
        },
        {
            "positions": [
                0.704820735516116,
                -1.6537964351813856,
                2.1222059143839416,
                0.21285144975406434,
                -0.8711782719150203,
                -0.9818942641026484
            ]
        },
        {
            "positions": [
                0.7047638143423849,
                -1.6795381444665014,
                2.067560653597024,
                0.022981274126842477,
                -0.8883898247363509,
                -1.0893160267892563
            ]
        },
        {
            "positions": [
                0.7047068931686539,
                -1.7052798537516174,
                2.012915392810106,
                -0.16688890150037938,
                -0.9056013775576814,
                -1.196737789475864
            ]
        },
        {
            "positions": [
                0.7046499719949229,
                -1.7310215630367334,
                1.9582701320231881,
                -0.356759077127601,
                -0.922812930379012,
                -1.3041595521624718
            ]
        },
        {
            "positions": [
                0.7045930508211917,
                -1.7567632723218491,
                1.9036248712362704,
                -0.5466292527548227,
                -0.9400244832003426,
                -1.4115813148490792
            ]
        },
        {
            "positions": [
                0.7045361296474607,
                -1.7825049816069651,
                1.8489796104493528,
                -0.7364994283820443,
                -0.9572360360216732,
                -1.519003077535687
            ]
        },
        {
            "positions": [
                0.7044792084737297,
                -1.8082466908920811,
                1.7943343496624349,
                -0.9263696040092659,
                -0.9744475888430038,
                -1.6264248402222947
            ]
        },
        {
            "positions": [
                0.7044222872999986,
                -1.8339884001771969,
                1.739689088875517,
                -1.116239779636488,
                -0.9916591416643343,
                -1.7338466029089026
            ]
        },
        {
            "positions": [
                0.7043653661262675,
                -1.8597301094623129,
                1.6850438280885993,
                -1.3061099552637097,
                -1.008870694485665,
                -1.8412683655955102
            ]
        },
        {
            "positions": [
                0.7265690675449441,
                -1.8762496109221187,
                1.6068940540675387,
                -1.464321199179063,
                -0.9651481218290137,
                -1.8968958266723879
            ]
        },
        {
            "positions": [
                0.7487727689636205,
                -1.8927691123819246,
                1.528744280046478,
                -1.6225324430944164,
                -0.9214255491723624,
                -1.9525232877492655
            ]
        },
        {
            "positions": [
                0.8339073153115992,
                -1.8228007646388136,
                1.4129574963787848,
                -1.6345509757865904,
                -0.8661578167224644,
                -1.999617856356949
            ]
        },
        {
            "positions": [
                0.9190418616595778,
                -1.7528324168957026,
                1.2971707127110914,
                -1.6465695084787644,
                -0.8108900842725664,
                -2.0467124249646327
            ]
        },
        {
            "positions": [
                1.0041764080075564,
                -1.6828640691525913,
                1.181383929043398,
                -1.6585880411709384,
                -0.7556223518226683,
                -2.0938069935723167
            ]
        },
        {
            "positions": [
                1.089310954355535,
                -1.6128957214094803,
                1.0655971453757045,
                -1.6706065738631124,
                -0.7003546193727703,
                -2.1409015621800003
            ]
        },
        {
            "positions": [
                1.1744455007035137,
                -1.5429273736663693,
                0.9498103617080111,
                -1.6826251065552864,
                -0.6450868869228723,
                -2.187996130787684
            ]
        },
        {
            "positions": [
                1.2595800470514924,
                -1.4729590259232583,
                0.8340235780403178,
                -1.6946436392474604,
                -0.5898191544729743,
                -2.235090699395368
            ]
        },
        {
            "positions": [
                1.344714593399471,
                -1.402990678180147,
                0.7182367943726243,
                -1.7066621719396344,
                -0.5345514220230763,
                -2.2821852680030514
            ]
        },
        {
            "positions": [
                1.4298491397474495,
                -1.333022330437036,
                0.602450010704931,
                -1.7186807046318084,
                -0.4792836895731782,
                -2.329279836610735
            ]
        },
        {
            "positions": [
                1.5149836860954284,
                -1.263053982693925,
                0.4866632270372375,
                -1.7306992373239825,
                -0.4240159571232801,
                -2.3763744052184186
            ]
        },
        {
            "positions": [
                1.600118232443407,
                -1.193085634950814,
                0.3708764433695442,
                -1.7427177700161565,
                -0.3687482246733821,
                -2.423468973826102
            ]
        },
        {
            "positions": [
                1.6852527787913856,
                -1.123117287207703,
                0.2550896597018508,
                -1.7547363027083305,
                -0.3134804922234842,
                -2.470563542433786
            ]
        },
        {
            "positions": [
                1.7703873251393643,
                -1.053148939464592,
                0.13930287603415747,
                -1.7667548354005045,
                -0.25821275977358604,
                -2.5176581110414697
            ]
        },
        {
            "positions": [
                1.855521871487343,
                -0.9831805917214809,
                0.023516092366463903,
                -1.7787733680926787,
                -0.20294502732368802,
                -2.5647526796491533
            ]
        },
        {
            "positions": [
                1.9406564178353216,
                -0.9132122439783699,
                -0.09227069130122945,
                -1.7907919007848525,
                -0.14767729487379,
                -2.6118472482568373
            ]
        },
        {
            "positions": [
                2.0257909641833,
                -0.8432438962352589,
                -0.20805747496892302,
                -1.8028104334770267,
                -0.09240956242389187,
                -2.658941816864521
            ]
        },
        {
            "positions": [
                2.1109255105312785,
                -0.7732755484921479,
                -0.32384425863661614,
                -1.8148289661692005,
                -0.037141829973993956,
                -2.7060363854722045
            ]
        },
        {
            "positions": [
                2.1960600568792574,
                -0.7033072007490369,
                -0.4396310423043095,
                -1.8268474988613748,
                0.018125902475903954,
                -2.753130954079888
            ]
        },
        {
            "positions": [
                2.2811946032272363,
                -0.6333388530059256,
                -0.5554178259720031,
                -1.8388660315535488,
                0.0733936349258022,
                -2.8002255226875716
            ]
        },
        {
            "positions": [
                2.366329149575215,
                -0.5633705052628146,
                -0.6712046096396964,
                -1.8508845642457228,
                0.1286613673757,
                -2.8473200912952557
            ]
        },
        {
            "positions": [
                2.4514636959231932,
                -0.4934021575197034,
                -0.7869913933073898,
                -1.8629030969378968,
                0.18392909982559824,
                -2.8944146599029392
            ]
        },
        {
            "positions": [
                2.5365982422711717,
                -0.4234338097765926,
                -0.9027781769750831,
                -1.8749216296300708,
                0.23919683227549626,
                -2.941509228510623
            ]
        },
        {
            "positions": [
                2.6217327886191506,
                -0.3534654620334816,
                -1.0185649606427765,
                -1.8869401623222448,
                0.29446456472539406,
                -2.9886037971183064
            ]
        },
        {
            "positions": [
                2.7068673349671295,
                -0.2834971142903704,
                -1.1343517443104703,
                -1.8989586950144188,
                0.3497322971752923,
                -3.03569836572599
            ]
        },
        {
            "positions": [
                2.792001881315108,
                -0.21352876654725939,
                -1.2501385279781632,
                -1.9109772277065928,
                0.4050000296251903,
                -3.082792934333674
            ]
        },
        {
            "positions": [
                2.8771364276630864,
                -0.14356041880414838,
                -1.3659253116458565,
                -1.9229957603987669,
                0.4602677620750881,
                -3.1298875029413575
            ]
        },
        {
            "positions": [
                2.9622709740110653,
                -0.07359207106103716,
                -1.4817120953135503,
                -1.9350142930909409,
                0.5155354945249864,
                -3.176982071549041
            ]
        },
        {
            "positions": [
                3.0474055203590438,
                -0.003623723317926375,
                -1.5974988789812437,
                -1.9470328257831149,
                0.5708032269748844,
                -3.224076640156725
            ]
        },
        {
            "positions": [
                3.1325400667070227,
                0.06634462442518485,
                -1.713285662648937,
                -1.9590513584752889,
                0.6260709594247824,
                -3.2711712087644087
            ]
        },
        {
            "positions": [
                3.217674613055001,
                0.13631297216829585,
                -1.8290724463166304,
                -1.971069891167463,
                0.6813386918746804,
                -3.3182657773720923
            ]
        },
        {
            "positions": [
                3.174882123414411,
                -0.04243642314428117,
                -1.8152941451479776,
                -2.00869939594812,
                0.5925978622893388,
                -3.3033358449034735
            ]
        },
        {
            "positions": [
                3.1320896337738207,
                -0.2211858184568582,
                -1.8015158439793248,
                -2.0463289007287773,
                0.5038570327039971,
                -3.288405912434855
            ]
        },
        {
            "positions": [
                3.089297144133231,
                -0.3999352137694353,
                -1.787737542810672,
                -2.0839584055094345,
                0.4151162031186553,
                -3.273475979966236
            ]
        },
        {
            "positions": [
                3.0465046544926406,
                -0.5786846090820122,
                -1.7739592416420191,
                -2.1215879102900916,
                0.32637537353331364,
                -3.2585460474976173
            ]
        },
        {
            "positions": [
                3.0037121648520504,
                -0.7574340043945893,
                -1.7601809404733664,
                -2.159217415070749,
                0.23763454394797195,
                -3.2436161150289986
            ]
        },
        {
            "positions": [
                2.96091967521146,
                -0.9361833997071665,
                -1.7464026393047136,
                -2.196846919851406,
                0.14889371436263021,
                -3.22868618256038
            ]
        },
        {
            "positions": [
                2.9181271855708704,
                -1.1149327950197432,
                -1.7326243381360609,
                -2.234476424632063,
                0.06015288477728864,
                -3.2137562500917616
            ]
        },
        {
            "positions": [
                2.87533469593028,
                -1.2936821903323203,
                -1.7188460369674081,
                -2.2721059294127204,
                -0.028587944808053156,
                -3.198826317623143
            ]
        },
        {
            "positions": [
                2.83254220628969,
                -1.4724315856448973,
                -1.7050677357987554,
                -2.3097354341933776,
                -0.11732877439339484,
                -3.183896385154524
            ]
        },
        {
            "positions": [
                2.7897497166490997,
                -1.6511809809574745,
                -1.6912894346301024,
                -2.3473649389740348,
                -0.20606960397873653,
                -3.1689664526859054
            ]
        },
        {
            "positions": [
                2.74695722700851,
                -1.8299303762700514,
                -1.6775111334614496,
                -2.384994443754692,
                -0.2948104335640782,
                -3.1540365202172866
            ]
        },
        {
            "positions": [
                2.7041647373679196,
                -2.008679771582629,
                -1.663732832292797,
                -2.422623948535349,
                -0.38355126314942,
                -3.139106587748668
            ]
        },
        {
            "positions": [
                2.6613722477273294,
                -2.1874291668952055,
                -1.6499545311241441,
                -2.4602534533160063,
                -0.4722920927347616,
                -3.124176655280049
            ]
        }
    ]
}