{
    "goal": {
        "global_pose": {
            "orientation": {
                "w": -0.4816463035849501,
                "x": 0.5182115481033762,
                "y": 0.4908360881923453,
                "z": -0.5084816262002911
            },
            "position": {
                "x": -0.8240239810943604,
                "y": 0.19912469901144506,
                "z": 0.16403168439865112
            }
        },
        "name": "move_to_storage_D"
    },
    "id": "EST_move_to_storage_D_61",
    "joint_names": [
        "shoulder_pan_joint",
        "shoulder_lift_joint",
        "elbow_joint",
        "wrist_1_joint",
        "wrist_2_joint",
        "wrist_3_joint"
    ],
    "metrics": {
        "cart_traj_len": 0.6866999262780372,
        "distance_elbow_joint": 0.5538377426088357,
        "distance_shoulder_lift_joint": 0.1540338651254447,
        "distance_shoulder_pan_joint": 0.6088296503051996,
        "distance_wrist_1_joint": 3.9888691174231554,
        "distance_wrist_2_joint": 1.7798655815867097,
        "distance_wrist_3_joint": 3.3655897780265867,
        "smoothness": 0.2369473149597737,
        "time": 0.083146252,
        "traj_len": 3.2328046237092543,
        "weighted_distance": 4.790713933239906
    },
    "planner": "EST",
    "start": {
        "state": {
            "elbow_joint": -2.384821988534728,
            "shoulder_lift_joint": -2.2788054721415256,
            "shoulder_pan_joint": -0.1854694642142757,
            "wrist_1_joint": 1.4845938289331202,
            "wrist_2_joint": 0.17898776772866878,
            "wrist_3_joint": 0.037105688729662994
        }
    },
    "waypoints": [
        {
            "positions": [
                -0.1854694642142757,
                -2.2788054721415256,
                -2.384821988534728,
                1.4845938289331202,
                0.17898776772866878,
                0.037105688729662994
            ]
        },
        {
            "positions": [
                -0.05887263216509714,
                -2.2276104064741014,
                -2.3182709633597094,
                1.5119601726367486,
                0.15844546436827428,
                0.0025101752846656417
            ]
        },
        {
            "positions": [
                0.06772419988408143,
                -2.1764153408066775,
                -2.251719938184691,
                1.539326516340377,
                0.13790316100787975,
                -0.03208533816033171
            ]
        },
        {
            "positions": [
                0.19432103193326003,
                -2.1252202751392533,
                -2.1851689130096723,
                1.5666928600440055,
                0.11736085764748524,
                -0.06668085160532906
            ]
        },
        {
            "positions": [
                0.18477773384335736,
                -2.1252389696443856,
                -2.1704112185478484,
                1.4039107731143277,
                0.04576757966808832,
                0.06922761663182074
            ]
        },
        {
            "positions": [
                0.1752344357534547,
                -2.1252576641495176,
                -2.155653524086024,
                1.2411286861846498,
                -0.025825698311308598,
                0.20513608486897056
            ]
        },
        {
            "positions": [
                0.16569113766355203,
                -2.12527635865465,
                -2.1408958296242,
                1.0783465992549717,
                -0.09741897629070553,
                0.34104455310612036
            ]
        },
        {
            "positions": [
                0.15614783957364936,
                -2.125295053159782,
                -2.1261381351623756,
                0.9155645123252939,
                -0.16901225427010244,
                0.47695302134327017
            ]
        },
        {
            "positions": [
                0.1466045414837467,
                -2.125313747664914,
                -2.1113804407005516,
                0.7527824253956159,
                -0.2406055322494994,
                0.61286148958042
            ]
        },
        {
            "positions": [
                0.137061243393844,
                -2.1253324421700466,
                -2.0966227462387272,
                0.590000338465938,
                -0.3121988102288963,
                0.7487699578175697
            ]
        },
        {
            "positions": [
                0.12751794530394134,
                -2.1253511366751785,
                -2.0818650517769033,
                0.42721825153626014,
                -0.38379208820829325,
                0.8846784260547196
            ]
        },
        {
            "positions": [
                0.11797464721403869,
                -2.125369831180311,
                -2.067107357315079,
                0.26443616460658226,
                -0.4553853661876901,
                1.0205868942918694
            ]
        },
        {
            "positions": [
                0.10843134912413602,
                -2.125388525685443,
                -2.052349662853255,
                0.10165407767690438,
                -0.5269786441670871,
                1.1564953625290193
            ]
        },
        {
            "positions": [
                0.09888805103423334,
                -2.125407220190575,
                -2.0375919683914305,
                -0.06112800925277373,
                -0.598571922146484,
                1.2924038307661692
            ]
        },
        {
            "positions": [
                0.08934475294433068,
                -2.125425914695707,
                -2.0228342739296066,
                -0.2239100961824516,
                -0.6701652001258809,
                1.4283122990033188
            ]
        },
        {
            "positions": [
                0.07980145485442801,
                -2.1254446092008394,
                -2.008076579467782,
                -0.3866921831121295,
                -0.7417584781052778,
                1.5642207672404687
            ]
        },
        {
            "positions": [
                0.07025815676452535,
                -2.125463303705972,
                -1.9933188850059582,
                -0.5494742700418072,
                -0.8133517560846747,
                1.7001292354776183
            ]
        },
        {
            "positions": [
                0.060714858674622674,
                -2.1254819982111037,
                -1.9785611905441338,
                -0.7122563569714853,
                -0.8849450340640718,
                1.8360377037147684
            ]
        },
        {
            "positions": [
                0.05117156058472,
                -2.125500692716236,
                -1.9638034960823099,
                -0.8750384439011634,
                -0.9565383120434686,
                1.9719461719519182
            ]
        },
        {
            "positions": [
                0.04162826249481735,
                -2.125519387221368,
                -1.9490458016204857,
                -1.037820530830841,
                -1.0281315900228656,
                2.1078546401890677
            ]
        },
        {
            "positions": [
                0.03208496440491465,
                -2.1255380817265004,
                -1.9342881071586615,
                -1.2006026177605191,
                -1.0997248680022627,
                2.2437631084262177
            ]
        },
        {
            "positions": [
                0.022541666315012004,
                -2.1255567762316323,
                -1.9195304126968373,
                -1.3633847046901968,
                -1.1713181459816595,
                2.3796715766633674
            ]
        },
        {
            "positions": [
                0.01299836822510933,
                -2.1255754707367647,
                -1.9047727182350132,
                -1.526166791619875,
                -1.2429114239610564,
                2.515580044900517
            ]
        },
        {
            "positions": [
                0.003455070135206656,
                -2.125594165241897,
                -1.890015023773189,
                -1.688948878549553,
                -1.3145047019404534,
                2.651488513137667
            ]
        },
        {
            "positions": [
                -0.006088227954696018,
                -2.125612859747029,
                -1.8752573293113648,
                -1.8517309654792307,
                -1.3860979799198503,
                2.7873969813748167
            ]
        },
        {
            "positions": [
                -0.015631526044598665,
                -2.1256315542521613,
                -1.8604996348495406,
                -2.0145130524089088,
                -1.4576912578992471,
                2.9233054496119664
            ]
        },
        {
            "positions": [
                -0.025174824134501367,
                -2.1256502487572932,
                -1.8457419403877164,
                -2.177295139338587,
                -1.5292845358786442,
                3.0592139178491164
            ]
        },
        {
            "positions": [
                -0.03471812222440402,
                -2.1256689432624256,
                -1.8309842459258923,
                -2.3400772262682645,
                -1.600877813858041,
                3.195122386086266
            ]
        }
    ]
}