{
    "goal": {
        "global_pose": {
            "orientation": {
                "w": 0.5084816262002911,
                "x": -0.4908360881923452,
                "y": 0.5182115481033761,
                "z": -0.48164630358495003
            },
            "position": {
                "x": 0.5540239810943604,
                "y": -0.46912469901144505,
                "z": 0.16403168439865112
            }
        },
        "name": "move_to_storage_B"
    },
    "id": "EST_move_to_storage_B_4",
    "joint_names": [
        "shoulder_pan_joint",
        "shoulder_lift_joint",
        "elbow_joint",
        "wrist_1_joint",
        "wrist_2_joint",
        "wrist_3_joint"
    ],
    "metrics": {
        "cart_traj_len": 0.7690198196767435,
        "distance_elbow_joint": 0.5720825805197469,
        "distance_shoulder_lift_joint": 0.4597701215465442,
        "distance_shoulder_pan_joint": 0.4855945175029529,
        "distance_wrist_1_joint": 2.994630021627539,
        "distance_wrist_2_joint": 2.7165462908208475,
        "distance_wrist_3_joint": 3.1276471681977966,
        "smoothness": 0.10106995783285884,
        "time": 0.217718068,
        "traj_len": 3.2181160172087373,
        "weighted_distance": 4.724694841898194
    },
    "planner": "EST",
    "start": {
        "state": {
            "elbow_joint": 1.664937868594044,
            "shoulder_lift_joint": -0.661644460510453,
            "shoulder_pan_joint": -0.9139846352900073,
            "wrist_1_joint": 2.146753192139373,
            "wrist_2_joint": -2.2341966793290973,
            "wrist_3_joint": 0.005466555786416001
        }
    },
    "waypoints": [
        {
            "positions": [
                -0.9139846352900073,
                -0.661644460510453,
                1.664937868594044,
                2.146753192139373,
                -2.2341966793290973,
                0.005466555786416001
            ]
        },
        {
            "positions": [
                -0.8378602744887818,
                -0.6971702979290948,
                1.610495781275999,
                2.1138114057181765,
                -2.119685556890084,
                -0.027998761015748885
            ]
        },
        {
            "positions": [
                -0.7617359136875561,
                -0.7326961353477367,
                1.5560536939579541,
                2.0808696192969798,
                -2.005174434451071,
                -0.06146407781791377
            ]
        },
        {
            "positions": [
                -0.7750697455235762,
                -0.7482448732161071,
                1.5745816301933004,
                1.963719761345574,
                -1.9056734726133582,
                -0.18389273920165244
            ]
        },
        {
            "positions": [
                -0.7884035773595962,
                -0.7637936110844775,
                1.5931095664286468,
                1.846569903394168,
                -1.8061725107756452,
                -0.30632140058539115
            ]
        },
        {
            "positions": [
                -0.8017374091956163,
                -0.7793423489528479,
                1.611637502663993,
                1.7294200454427622,
                -1.7066715489379325,
                -0.4287500619691298
            ]
        },
        {
            "positions": [
                -0.8150712410316364,
                -0.7948910868212183,
                1.6301654388993392,
                1.6122701874913563,
                -1.6071705871002195,
                -0.5511787233528685
            ]
        },
        {
            "positions": [
                -0.8284050728676564,
                -0.8104398246895888,
                1.6486933751346855,
                1.4951203295399504,
                -1.5076696252625068,
                -0.6736073847366072
            ]
        },
        {
            "positions": [
                -0.8417389047036765,
                -0.8259885625579593,
                1.6672213113700318,
                1.3779704715885446,
                -1.408168663424794,
                -0.7960360461203458
            ]
        },
        {
            "positions": [
                -0.8550727365396966,
                -0.8415373004263297,
                1.6857492476053781,
                1.2608206136371387,
                -1.3086677015870811,
                -0.9184647075040846
            ]
        },
        {
            "positions": [
                -0.8684065683757167,
                -0.8570860382947001,
                1.7042771838407245,
                1.1436707556857328,
                -1.2091667397493682,
                -1.0408933688878232
            ]
        },
        {
            "positions": [
                -0.8817404002117367,
                -0.8726347761630705,
                1.7228051200760706,
                1.0265208977343272,
                -1.1096657779116554,
                -1.163322030271562
            ]
        },
        {
            "positions": [
                -0.8950742320477568,
                -0.8881835140314409,
                1.7413330563114169,
                0.9093710397829213,
                -1.0101648160739427,
                -1.2857506916553008
            ]
        },
        {
            "positions": [
                -0.9084080638837768,
                -0.9037322518998113,
                1.7598609925467632,
                0.7922211818315155,
                -0.9106638542362298,
                -1.4081793530390394
            ]
        },
        {
            "positions": [
                -0.9217418957197969,
                -0.9192809897681817,
                1.7783889287821095,
                0.6750713238801096,
                -0.811162892398517,
                -1.530608014422778
            ]
        },
        {
            "positions": [
                -0.935075727555817,
                -0.9348297276365521,
                1.7969168650174558,
                0.5579214659287037,
                -0.7116619305608041,
                -1.6530366758065167
            ]
        },
        {
            "positions": [
                -0.9484095593918371,
                -0.9503784655049226,
                1.8154448012528022,
                0.44077160797729764,
                -0.6121609687230911,
                -1.7754653371902556
            ]
        },
        {
            "positions": [
                -0.9617433912278571,
                -0.965927203373293,
                1.8339727374881485,
                0.323621750025892,
                -0.5126600068853786,
                -1.897893998573994
            ]
        },
        {
            "positions": [
                -0.9750772230638772,
                -0.9814759412416634,
                1.8525006737234948,
                0.20647189207448613,
                -0.41315904504766565,
                -2.0203226599577326
            ]
        },
        {
            "positions": [
                -0.9884110548998973,
                -0.9970246791100339,
                1.8710286099588411,
                0.08932203412308026,
                -0.3136580832099527,
                -2.1427513213414717
            ]
        },
        {
            "positions": [
                -1.0017448867359173,
                -1.0125734169784042,
                1.8895565461941872,
                -0.027827823828325382,
                -0.21415712137223997,
                -2.26517998272521
            ]
        },
        {
            "positions": [
                -1.0150787185719374,
                -1.0281221548467747,
                1.9080844824295335,
                -0.14497768177973125,
                -0.11465615953452724,
                -2.387608644108949
            ]
        },
        {
            "positions": [
                -1.0284125504079575,
                -1.043670892715145,
                1.9266124186648799,
                -0.2621275397311371,
                -0.015155197696814282,
                -2.5100373054926877
            ]
        },
        {
            "positions": [
                -1.0417463822439776,
                -1.0592196305835155,
                1.945140354900226,
                -0.379277397682543,
                0.08434576414089845,
                -2.632465966876426
            ]
        },
        {
            "positions": [
                -1.0550802140799975,
                -1.074768368451886,
                1.9636682911355723,
                -0.49642725563394885,
                0.1838467259786114,
                -2.754894628260165
            ]
        },
        {
            "positions": [
                -1.0684140459160179,
                -1.0903171063202564,
                1.9821962273709186,
                -0.6135771135853547,
                0.28334768781632436,
                -2.8773232896439036
            ]
        },
        {
            "positions": [
                -1.0817478777520377,
                -1.1058658441886267,
                2.000724163606265,
                -0.7307269715367606,
                0.38284864965403687,
                -2.9997519510276422
            ]
        },
        {
            "positions": [
                -1.0950817095880578,
                -1.1214145820569972,
                2.0192520998416112,
                -0.8478768294881663,
                0.48234961149175004,
                -3.122180612411381
            ]
        }
    ]
}