{
    "goal": {
        "global_pose": {
            "orientation": {
                "w": 0.7031023480610252,
                "x": -0.7110244013736278,
                "y": 0.0077485991402295624,
                "z": 0.005598929693374583
            },
            "position": {
                "x": -0.8841497679147869,
                "y": 0.44412534475326537,
                "z": 0.3711530566215515
            }
        },
        "name": "move_to_auspresseinheit_D"
    },
    "id": "EST_move_to_auspresseinheit_D_57",
    "joint_names": [
        "shoulder_pan_joint",
        "shoulder_lift_joint",
        "elbow_joint",
        "wrist_1_joint",
        "wrist_2_joint",
        "wrist_3_joint"
    ],
    "metrics": {
        "cart_traj_len": 0.3448557379519898,
        "distance_elbow_joint": 0.6724899068877077,
        "distance_shoulder_lift_joint": 0.14080358553415273,
        "distance_shoulder_pan_joint": 0.13411505277755198,
        "distance_wrist_1_joint": 0.6391133643559579,
        "distance_wrist_2_joint": 1.4384100345654558,
        "distance_wrist_3_joint": 0.0987916931453845,
        "smoothness": 0.0,
        "time": 0.043495194,
        "traj_len": 1.767405906198746,
        "weighted_distance": 2.323538341082065
    },
    "planner": "EST",
    "start": {
        "state": {
            "elbow_joint": -1.8275523626775212,
            "shoulder_lift_joint": -2.126789852344167,
            "shoulder_pan_joint": -0.03513704404078235,
            "wrist_1_joint": -2.347782403156801,
            "wrist_2_joint": -1.6058999987535132,
            "wrist_3_joint": -3.0880379163319196
        }
    },
    "waypoints": [
        {
            "positions": [
                -0.03513704404078235,
                -2.126789852344167,
                -1.8275523626775212,
                -2.347782403156801,
                -1.6058999987535132,
                -3.0880379163319196
            ]
        },
        {
            "positions": [
                -0.051901425637976346,
                -2.144390300535936,
                -1.7434911243165576,
                -2.4276715737012955,
                -1.4260987444328312,
                -3.0756889546887467
            ]
        },
        {
            "positions": [
                -0.06866580723517035,
                -2.161990748727705,
                -1.6594298859555943,
                -2.50756074424579,
                -1.2462974901121493,
                -3.0633399930455734
            ]
        },
        {
            "positions": [
                -0.08543018883236433,
                -2.179591196919474,
                -1.575368647594631,
                -2.587449914790285,
                -1.0664962357914671,
                -3.0509910314024005
            ]
        },
        {
            "positions": [
                -0.10219457042955835,
                -2.197191645111243,
                -1.4913074092336673,
                -2.66733908533478,
                -0.8866949814707853,
                -3.038642069759227
            ]
        },
        {
            "positions": [
                -0.11895895202675233,
                -2.2147920933030125,
                -1.4072461708727038,
                -2.7472282558792744,
                -0.7068937271501033,
                -3.0262931081160542
            ]
        },
        {
            "positions": [
                -0.13572333362394634,
                -2.2323925414947814,
                -1.3231849325117404,
                -2.8271174264237695,
                -0.5270924728294213,
                -3.0139441464728813
            ]
        },
        {
            "positions": [
                -0.15248771522114032,
                -2.2499929896865503,
                -1.239123694150777,
                -2.907006596968264,
                -0.34729121850873934,
                -3.001595184829708
            ]
        },
        {
            "positions": [
                -0.16925209681833434,
                -2.2675934378783196,
                -1.1550624557898135,
                -2.9868957675127588,
                -0.16748996418805745,
                -2.989246223186535
            ]
        }
    ]
}