{
    "goal": {
        "global_pose": {
            "orientation": {
                "w": 0.5084816217422485,
                "x": -0.49083608388900757,
                "y": 0.5182115435600281,
                "z": -0.4816462993621826
            },
            "position": {
                "x": 0.5540239810943604,
                "y": 0.030875300988554955,
                "z": 0.16403168439865112
            }
        },
        "name": "move_to_storage_A"
    },
    "id": "EST_move_to_storage_A_67",
    "joint_names": [
        "shoulder_pan_joint",
        "shoulder_lift_joint",
        "elbow_joint",
        "wrist_1_joint",
        "wrist_2_joint",
        "wrist_3_joint"
    ],
    "metrics": {
        "cart_traj_len": 0.35343853479489623,
        "distance_elbow_joint": 0.4525980364072304,
        "distance_shoulder_lift_joint": 0.23495217150594194,
        "distance_shoulder_pan_joint": 0.46362283754568007,
        "distance_wrist_1_joint": 0.25135940653463773,
        "distance_wrist_2_joint": 1.0939354091184847,
        "distance_wrist_3_joint": 0.09258861770427895,
        "smoothness": 1.3322676295501878e-15,
        "time": 0.022775726,
        "traj_len": 1.6090545294725889,
        "weighted_distance": 2.029662171366933
    },
    "planner": "EST",
    "start": {
        "state": {
            "elbow_joint": 1.971548259319323,
            "shoulder_lift_joint": -1.1394851275133948,
            "shoulder_pan_joint": 0.1228115487234821,
            "wrist_1_joint": -0.7804723859257726,
            "wrist_2_joint": 0.12958671773740124,
            "wrist_3_joint": -3.192489227718131
        }
    },
    "waypoints": [
        {
            "positions": [
                0.1228115487234821,
                -1.1394851275133948,
                1.971548259319323,
                -0.7804723859257726,
                0.12958671773740124,
                -3.192489227718131
            ]
        },
        {
            "positions": [
                0.05657971478838496,
                -1.173049723442815,
                2.036205121663213,
                -0.816380872573578,
                0.28586320475432764,
                -3.1792622823318055
            ]
        },
        {
            "positions": [
                -0.009652119146712185,
                -1.2066143193722354,
                2.100861984007103,
                -0.8522893592213834,
                0.442139691771254,
                -3.16603533694548
            ]
        },
        {
            "positions": [
                -0.07588395308180934,
                -1.2401789153016556,
                2.1655188463509933,
                -0.8881978458691888,
                0.5984161787881804,
                -3.1528083915591543
            ]
        },
        {
            "positions": [
                -0.14211578701690647,
                -1.273743511231076,
                2.2301757086948832,
                -0.9241063325169941,
                0.7546926658051069,
                -3.139581446172829
            ]
        },
        {
            "positions": [
                -0.20834762095200365,
                -1.3073081071604962,
                2.294832571038773,
                -0.9600148191647996,
                0.9109691528220333,
                -3.1263545007865035
            ]
        },
        {
            "positions": [
                -0.2745794548871008,
                -1.3408727030899166,
                2.3594894333826635,
                -0.9959233058126049,
                1.0672456398389596,
                -3.113127555400178
            ]
        },
        {
            "positions": [
                -0.34081128882219797,
                -1.3744372990193368,
                2.4241462957265534,
                -1.0318317924604103,
                1.223522126855886,
                -3.099900610013852
            ]
        }
    ]
}{
    "goal": {
        "global_pose": {
            "orientation": {
                "w": 0.5084816217422485,
                "x": -0.49083608388900757,
                "y": 0.5182115435600281,
                "z": -0.4816462993621826
            },
            "position": {
                "x": 0.5540239810943604,
                "y": 0.030875300988554955,
                "z": 0.16403168439865112
            }
        },
        "name": "move_to_storage_A"
    },
    "id": "EST_move_to_storage_A_67",
    "joint_names": [
        "shoulder_pan_joint",
        "shoulder_lift_joint",
        "elbow_joint",
        "wrist_1_joint",
        "wrist_2_joint",
        "wrist_3_joint"
    ],
    "metrics": {
        "cart_traj_len": 0.35299458028933756,
        "distance_elbow_joint": 0.45278850430440887,
        "distance_shoulder_lift_joint": 0.23485156007864139,
        "distance_shoulder_pan_joint": 0.4625008135892675,
        "distance_wrist_1_joint": 0.2496282058880952,
        "distance_wrist_2_joint": 1.095675408632654,
        "distance_wrist_3_joint": 0.10611534572473635,
        "smoothness": 4.440892098500626e-16,
        "time": 0.055015221,
        "traj_len": 1.612935162434561,
        "weighted_distance": 2.0393857271708127
    },
    "planner": "EST",
    "start": {
        "state": {
            "elbow_joint": 1.97154746011099,
            "shoulder_lift_joint": -1.13948474672311,
            "shoulder_pan_joint": 0.12281154466712228,
            "wrist_1_joint": -0.7804688027058302,
            "wrist_2_joint": 0.12958655903071145,
            "wrist_3_joint": 3.0906928834467795
        }
    },
    "waypoints": [
        {
            "positions": [
                0.12281154466712228,
                -1.13948474672311,
                1.97154746011099,
                -0.7804688027058302,
                0.12958655903071145,
                3.0906928834467795
            ]
        },
        {
            "positions": [
                0.05673999986865551,
                -1.1730349695914872,
                2.036231532154477,
                -0.8161299749755581,
                0.28611161740680485,
                3.1058522185503135
            ]
        },
        {
            "positions": [
                -0.009331544929811267,
                -1.2065851924598647,
                2.1009156041979637,
                -0.8517911472452859,
                0.4426366757828982,
                3.121011553653847
            ]
        },
        {
            "positions": [
                -0.07540308972827804,
                -1.240135415328242,
                2.1655996762414507,
                -0.8874523195150138,
                0.5991617341589917,
                3.136170888757381
            ]
        },
        {
            "positions": [
                -0.1414746345267448,
                -1.2736856381966193,
                2.230283748284938,
                -0.9231134917847417,
                0.7556867925350851,
                3.1513302238609144
            ]
        },
        {
            "positions": [
                -0.20754617932521163,
                -1.3072358610649966,
                2.294967820328425,
                -0.9587746640544696,
                0.9122118509111785,
                3.1664895589644484
            ]
        },
        {
            "positions": [
                -0.27361772412367835,
                -1.340786083933374,
                2.359651892371912,
                -0.9944358363241975,
                1.0687369092872718,
                3.181648894067982
            ]
        },
        {
            "positions": [
                -0.3396892689221452,
                -1.3743363068017513,
                2.424335964415399,
                -1.0300970085939254,
                1.2252619676633654,
                3.196808229171516
            ]
        }
    ]
}{
    "goal": {
        "global_pose": {
            "orientation": {
                "w": 0.5084816217422485,
                "x": -0.49083608388900757,
                "y": 0.5182115435600281,
                "z": -0.4816462993621826
            },
            "position": {
                "x": 0.5540239810943604,
                "y": 0.030875300988554955,
                "z": 0.16403168439865112
            }
        },
        "name": "move_to_storage_A"
    },
    "id": "EST_move_to_storage_A_67",
    "joint_names": [
        "shoulder_pan_joint",
        "shoulder_lift_joint",
        "elbow_joint",
        "wrist_1_joint",
        "wrist_2_joint",
        "wrist_3_joint"
    ],
    "metrics": {
        "cart_traj_len": 0.3527719955222389,
        "distance_elbow_joint": 0.4490522714198284,
        "distance_shoulder_lift_joint": 0.23554698711900302,
        "distance_shoulder_pan_joint": 0.45998584074809284,
        "distance_wrist_1_joint": 0.24077380722931974,
        "distance_wrist_2_joint": 1.104038241612592,
        "distance_wrist_3_joint": 0.09346676409002308,
        "smoothness": 0.0,
        "time": 0.051972896,
        "traj_len": 1.6071290900916637,
        "weighted_distance": 2.0284500213810586
    },
    "planner": "EST",
    "start": {
        "state": {
            "elbow_joint": 1.9715472970024885,
            "shoulder_lift_joint": -1.1394870060712896,
            "shoulder_pan_joint": 0.12281152778156021,
            "wrist_1_joint": -0.780463741449964,
            "wrist_2_joint": 0.12958659822042276,
            "wrist_3_joint": 3.090690232415272
        }
    },
    "waypoints": [
        {
            "positions": [
                0.12281152778156021,
                -1.1394870060712896,
                1.9715472970024885,
                -0.780463741449964,
                0.12958659822042276,
                3.090690232415272
            ]
        },
        {
            "positions": [
                0.05709926481754696,
                -1.1731365756597185,
                2.0356976214910354,
                -0.8148599996255811,
                0.2873063470222216,
                3.104042627285275
            ]
        },
        {
            "positions": [
                -0.008612998146466294,
                -1.2067861452481476,
                2.0998479459795822,
                -0.8492562578011982,
                0.4450260958240204,
                3.1173950221552786
            ]
        },
        {
            "positions": [
                -0.07432526111047955,
                -1.2404357148365766,
                2.163998270468129,
                -0.8836525159768153,
                0.6027458446258193,
                3.130747417025282
            ]
        },
        {
            "positions": [
                -0.1400375240744928,
                -1.2740852844250057,
                2.228148594956676,
                -0.9180487741524324,
                0.7604655934276181,
                3.144099811895285
            ]
        },
        {
            "positions": [
                -0.20574978703850608,
                -1.3077348540134346,
                2.2922989194452232,
                -0.9524450323280496,
                0.9181853422294171,
                3.157452206765288
            ]
        },
        {
            "positions": [
                -0.27146205000251933,
                -1.3413844236018635,
                2.35644924393377,
                -0.9868412905036666,
                1.0759050910312158,
                3.1708046016352918
            ]
        },
        {
            "positions": [
                -0.3371743129665326,
                -1.3750339931902926,
                2.420599568422317,
                -1.0212375486792837,
                1.2336248398330147,
                3.184156996505295
            ]
        }
    ]
}