{
    "goal": {
        "global_pose": {
            "orientation": {
                "w": -0.00223480608172531,
                "x": 0.0024358444001904467,
                "y": 0.7094548369677653,
                "z": -0.704743149386269
            },
            "position": {
                "x": 0.6205249238014221,
                "y": -0.6371506643295288,
                "z": 0.19426114857196808
            }
        },
        "name": "move_to_magneteinheit_B"
    },
    "id": "EST_move_to_magneteinheit_B_72",
    "joint_names": [
        "shoulder_pan_joint",
        "shoulder_lift_joint",
        "elbow_joint",
        "wrist_1_joint",
        "wrist_2_joint",
        "wrist_3_joint"
    ],
    "metrics": {
        "cart_traj_len": 4.1386325959994466,
        "distance_elbow_joint": 4.435558232246603,
        "distance_shoulder_lift_joint": 0.9407696701686197,
        "distance_shoulder_pan_joint": 3.7439291714348966,
        "distance_wrist_1_joint": 4.40702872902445,
        "distance_wrist_2_joint": 0.6798290555791577,
        "distance_wrist_3_joint": 3.1271965985711763,
        "smoothness": 0.24755191159588516,
        "time": 1.300677192,
        "traj_len": 4.163449466130808,
        "weighted_distance": 5.354956810168582
    },
    "planner": "EST",
    "start": {
        "state": {
            "elbow_joint": 2.6216224122426386,
            "shoulder_lift_joint": -1.4174107377796124,
            "shoulder_pan_joint": 0.7066234856936794,
            "wrist_1_joint": 1.9546482284002225,
            "wrist_2_joint": -0.7096286983471962,
            "wrist_3_joint": 0.005740856962016249
        }
    },
    "waypoints": [
        {
            "positions": [
                0.7066234856936794,
                -1.4174107377796124,
                2.6216224122426386,
                1.9546482284002225,
                -0.7096286983471962,
                0.005740856962016249
            ]
        },
        {
            "positions": [
                0.5169113352556322,
                -1.4208177523096213,
                2.582932745894096,
                1.9559614795686844,
                -0.7681079063613757,
                0.0714485800413588
            ]
        },
        {
            "positions": [
                0.3271991848175849,
                -1.4242247668396302,
                2.544243079545553,
                1.957274730737146,
                -0.8265871143755552,
                0.13715630312070137
            ]
        },
        {
            "positions": [
                0.13748703437953763,
                -1.427631781369639,
                2.5055534131970103,
                1.958587981905608,
                -0.8850663223897347,
                0.20286402620004396
            ]
        },
        {
            "positions": [
                0.062145928198523714,
                -1.4217283216381962,
                2.4003149952521188,
                1.9081942862816663,
                -0.8948239126326382,
                0.2468354488128222
            ]
        },
        {
            "positions": [
                -0.013195177982490203,
                -1.415824861906753,
                2.2950765773072277,
                1.8578005906577248,
                -0.9045815028755415,
                0.29080687142560047
            ]
        },
        {
            "positions": [
                -0.0885362841635041,
                -1.4099214021753101,
                2.189838159362336,
                1.8074068950337832,
                -0.914339093118445,
                0.3347782940383787
            ]
        },
        {
            "positions": [
                -0.0021872071442895213,
                -1.4078473631638075,
                2.070947271116304,
                1.6884767461249903,
                -0.9003678040966118,
                0.38503540009268944
            ]
        },
        {
            "positions": [
                0.08416186987492506,
                -1.4057733241523047,
                1.952056382870272,
                1.5695465972161977,
                -0.8863965150747787,
                0.4352925061470001
            ]
        },
        {
            "positions": [
                0.1705109468941396,
                -1.4036992851408021,
                1.8331654946242397,
                1.4506164483074049,
                -0.8724252260529455,
                0.4855496122013109
            ]
        },
        {
            "positions": [
                0.2568600239133542,
                -1.4016252461292995,
                1.7142746063782077,
                1.331686299398612,
                -0.8584539370311124,
                0.5358067182556215
            ]
        },
        {
            "positions": [
                0.3432091009325688,
                -1.3995512071177967,
                1.5953837181321755,
                1.2127561504898194,
                -0.8444826480092792,
                0.5860638243099323
            ]
        },
        {
            "positions": [
                0.4295581779517833,
                -1.397477168106294,
                1.4764928298861433,
                1.0938260015810264,
                -0.830511358987446,
                0.636320930364243
            ]
        },
        {
            "positions": [
                0.515907254970998,
                -1.3954031290947915,
                1.3576019416401113,
                0.9748958526722338,
                -0.8165400699656129,
                0.6865780364185536
            ]
        },
        {
            "positions": [
                0.6022563319902126,
                -1.3933290900832889,
                1.2387110533940793,
                0.8559657037634409,
                -0.8025687809437797,
                0.7368351424728643
            ]
        },
        {
            "positions": [
                0.688605409009427,
                -1.391255051071786,
                1.119820165148047,
                0.7370355548546483,
                -0.7885974919219466,
                0.787092248527175
            ]
        },
        {
            "positions": [
                0.7749544860286417,
                -1.3891810120602834,
                1.0009292769020148,
                0.6181054059458555,
                -0.7746262029001134,
                0.8373493545814858
            ]
        },
        {
            "positions": [
                0.8613035630478562,
                -1.3871069730487808,
                0.8820383886559828,
                0.49917525703706267,
                -0.7606549138782803,
                0.8876064606357965
            ]
        },
        {
            "positions": [
                0.9476526400670707,
                -1.385032934037278,
                0.7631475004099506,
                0.38024510812826984,
                -0.7466836248564471,
                0.9378635666901072
            ]
        },
        {
            "positions": [
                1.0340017170862854,
                -1.3829588950257754,
                0.6442566121639186,
                0.2613149592194772,
                -0.7327123358346139,
                0.9881206727444178
            ]
        },
        {
            "positions": [
                1.1203507941055002,
                -1.3808848560142728,
                0.5253657239178864,
                0.1423848103106844,
                -0.7187410468127808,
                1.0383777787987285
            ]
        },
        {
            "positions": [
                1.2066998711247146,
                -1.37881081700277,
                0.4064748356718544,
                0.023454661401891563,
                -0.7047697577909476,
                1.0886348848530392
            ]
        },
        {
            "positions": [
                1.2930489481439293,
                -1.3767367779912674,
                0.28758394742582216,
                -0.09547548750690127,
                -0.6907984687691144,
                1.13889199090735
            ]
        },
        {
            "positions": [
                1.3793980251631437,
                -1.3746627389797648,
                0.16869305917979016,
                -0.21440563641569388,
                -0.6768271797472813,
                1.1891490969616607
            ]
        },
        {
            "positions": [
                1.4657471021823583,
                -1.3725886999682622,
                0.04980217093375794,
                -0.3333357853244865,
                -0.6628558907254483,
                1.2394062030159714
            ]
        },
        {
            "positions": [
                1.552096179201573,
                -1.3705146609567593,
                -0.06908871731227428,
                -0.45226593423327954,
                -0.648884601703615,
                1.2896633090702823
            ]
        },
        {
            "positions": [
                1.6384452562207876,
                -1.3684406219452567,
                -0.1879796055583065,
                -0.5711960831420722,
                -0.6349133126817819,
                1.339920415124593
            ]
        },
        {
            "positions": [
                1.7247943332400022,
                -1.3663665829337541,
                -0.3068704938043383,
                -0.6901262320508652,
                -0.6209420236599488,
                1.3901775211789036
            ]
        },
        {
            "positions": [
                1.8111434102592165,
                -1.3642925439222513,
                -0.4257613820503705,
                -0.8090563809596578,
                -0.6069707346381156,
                1.4404346272332142
            ]
        },
        {
            "positions": [
                1.8974924872784313,
                -1.3622185049107487,
                -0.5446522702964032,
                -0.9279865298684509,
                -0.5929994456162824,
                1.4906917332875251
            ]
        },
        {
            "positions": [
                1.9838415642976457,
                -1.360144465899246,
                -0.663543158542435,
                -1.0469166787772435,
                -0.5790281565944493,
                1.5409488393418358
            ]
        },
        {
            "positions": [
                2.0701906413168603,
                -1.3580704268877433,
                -0.7824340467884672,
                -1.165846827686036,
                -0.5650568675726161,
                1.5912059453961462
            ]
        },
        {
            "positions": [
                2.1565397183360746,
                -1.3559963878762407,
                -0.901324935034499,
                -1.2847769765948287,
                -0.5510855785507829,
                1.641463051450457
            ]
        },
        {
            "positions": [
                2.2428887953552894,
                -1.353922348864738,
                -1.0202158232805316,
                -1.4037071255036218,
                -0.5371142895289498,
                1.6917201575047678
            ]
        },
        {
            "positions": [
                2.329237872374504,
                -1.3518483098532355,
                -1.1391067115265634,
                -1.5226372744124144,
                -0.5231430005071166,
                1.7419772635590784
            ]
        },
        {
            "positions": [
                2.4155869493937185,
                -1.3497742708417326,
                -1.2579975997725956,
                -1.6415674233212074,
                -0.5091717114852834,
                1.7922343696133891
            ]
        },
        {
            "positions": [
                2.501936026412933,
                -1.34770023183023,
                -1.3768884880186274,
                -1.76049757223,
                -0.4952004224634503,
                1.8424914756676998
            ]
        },
        {
            "positions": [
                2.5882851034321477,
                -1.3456261928187274,
                -1.49577937626466,
                -1.879427721138793,
                -0.4812291334416171,
                1.8927485817220107
            ]
        },
        {
            "positions": [
                2.6746341804513625,
                -1.3435521538072246,
                -1.6146702645106918,
                -1.9983578700475857,
                -0.46725784441978396,
                1.9430056877763213
            ]
        },
        {
            "positions": [
                2.760983257470577,
                -1.341478114795722,
                -1.7335611527567243,
                -2.117288018956378,
                -0.4532865553979508,
                1.993262793830632
            ]
        },
        {
            "positions": [
                2.746804706050058,
                -1.4621059662249614,
                -1.7220790574356901,
                -2.164032729621675,
                -0.4552960015532958,
                2.1560734597881406
            ]
        },
        {
            "positions": [
                2.732626154629539,
                -1.5827338176542007,
                -1.7105969621146557,
                -2.210777440286972,
                -0.45730544770864073,
                2.318884125745649
            ]
        },
        {
            "positions": [
                2.7184476032090203,
                -1.70336166908344,
                -1.6991148667936216,
                -2.2575221509522687,
                -0.4593148938639857,
                2.4816947917031578
            ]
        },
        {
            "positions": [
                2.7042690517885015,
                -1.8239895205126797,
                -1.6876327714725874,
                -2.304266861617566,
                -0.4613243400193307,
                2.6445054576606664
            ]
        },
        {
            "positions": [
                2.6900905003679827,
                -1.944617371941919,
                -1.6761506761515532,
                -2.3510115722828626,
                -0.4633337861746757,
                2.807316123618175
            ]
        },
        {
            "positions": [
                2.675911948947464,
                -2.0652452233711585,
                -1.6646685808305188,
                -2.3977562829481593,
                -0.4653432323300206,
                2.9701267895756835
            ]
        },
        {
            "positions": [
                2.661733397526945,
                -2.185873074800398,
                -1.6531864855094847,
                -2.4445009936134565,
                -0.4673526784853656,
                3.132937455533192
            ]
        }
    ]
}