{
    "goal": {
        "global_pose": {
            "orientation": {
                "w": 0.7031023480610252,
                "x": -0.7110244013736278,
                "y": 0.0077485991402295624,
                "z": 0.005598929693374583
            },
            "position": {
                "x": -0.8841497679147869,
                "y": 0.44412534475326537,
                "z": 0.3711530566215515
            }
        },
        "name": "move_to_auspresseinheit_D"
    },
    "id": "EST_move_to_auspresseinheit_D_150",
    "joint_names": [
        "shoulder_pan_joint",
        "shoulder_lift_joint",
        "elbow_joint",
        "wrist_1_joint",
        "wrist_2_joint",
        "wrist_3_joint"
    ],
    "metrics": {
        "cart_traj_len": 0.3427414881381512,
        "distance_elbow_joint": 0.6358849520214902,
        "distance_shoulder_lift_joint": 0.12023546474346558,
        "distance_shoulder_pan_joint": 0.13323127470186208,
        "distance_wrist_1_joint": 0.5143344328436714,
        "distance_wrist_2_joint": 1.4453333697549116,
        "distance_wrist_3_joint": 0.015138576408560311,
        "smoothness": 1.9737298371844314e-16,
        "time": 0.033652758,
        "traj_len": 1.6923823653282262,
        "weighted_distance": 2.2032029016615025
    },
    "planner": "EST",
    "start": {
        "state": {
            "elbow_joint": -1.8275523626775212,
            "shoulder_lift_joint": -2.126789852344167,
            "shoulder_pan_joint": -0.03513704404078235,
            "wrist_1_joint": -2.347782403156801,
            "wrist_2_joint": -1.6058999987535132,
            "wrist_3_joint": -3.0880379163319196
        }
    },
    "waypoints": [
        {
            "positions": [
                -0.03513704404078235,
                -2.126789852344167,
                -1.8275523626775212,
                -2.347782403156801,
                -1.6058999987535132,
                -3.0880379163319196
            ]
        },
        {
            "positions": [
                -0.05179095337851511,
                -2.1418192854371,
                -1.748066743674835,
                -2.41207420726226,
                -1.4252333275341493,
                -3.0899302383829896
            ]
        },
        {
            "positions": [
                -0.06844486271624786,
                -2.1568487185300333,
                -1.6685811246721487,
                -2.476366011367719,
                -1.2445666563147852,
                -3.0918225604340597
            ]
        },
        {
            "positions": [
                -0.08509877205398063,
                -2.1718781516229666,
                -1.5890955056694624,
                -2.540657815473178,
                -1.0638999850954214,
                -3.0937148824851297
            ]
        },
        {
            "positions": [
                -0.1017526813917134,
                -2.1869075847158994,
                -1.5096098866667762,
                -2.604949619578637,
                -0.8832333138760574,
                -3.0956072045361998
            ]
        },
        {
            "positions": [
                -0.11840659072944615,
                -2.2019370178088327,
                -1.4301242676640897,
                -2.6692414236840953,
                -0.7025666426566934,
                -3.09749952658727
            ]
        },
        {
            "positions": [
                -0.1350605000671789,
                -2.216966450901766,
                -1.3506386486614035,
                -2.7335332277895543,
                -0.5218999714373296,
                -3.09939184863834
            ]
        },
        {
            "positions": [
                -0.15171440940491168,
                -2.231995883994699,
                -1.2711530296587172,
                -2.7978250318950133,
                -0.3412333002179655,
                -3.10128417068941
            ]
        },
        {
            "positions": [
                -0.16836831874264443,
                -2.2470253170876324,
                -1.191667410656031,
                -2.8621168360004723,
                -0.16056662899860166,
                -3.10317649274048
            ]
        }
    ]
}