{
    "goal": {
        "global_pose": {
            "orientation": {
                "w": 0.7031023502349854,
                "x": -0.7110244035720825,
                "y": 0.007748599164187908,
                "z": 0.005598929710686207
            },
            "position": {
                "x": 0.11585023208521307,
                "y": 0.44412534475326537,
                "z": 0.3711530566215515
            }
        },
        "name": "move_to_auspresseinheit_A"
    },
    "id": "EST_move_to_auspresseinheit_A_5",
    "joint_names": [
        "shoulder_pan_joint",
        "shoulder_lift_joint",
        "elbow_joint",
        "wrist_1_joint",
        "wrist_2_joint",
        "wrist_3_joint"
    ],
    "metrics": {
        "cart_traj_len": 0.7483637065857892,
        "distance_elbow_joint": 0.0891486804280679,
        "distance_shoulder_lift_joint": 0.5510308915015707,
        "distance_shoulder_pan_joint": 1.042807237721926,
        "distance_wrist_1_joint": 0.5656564217114057,
        "distance_wrist_2_joint": 0.532936240418591,
        "distance_wrist_3_joint": 0.17246924574761024,
        "smoothness": 0.3744420982969541,
        "time": 0.300871287,
        "traj_len": 1.7187346268488255,
        "weighted_distance": 2.097040741415004
    },
    "planner": "EST",
    "start": {
        "state": {
            "elbow_joint": 2.4225746658250005,
            "shoulder_lift_joint": -1.3736534386056498,
            "shoulder_pan_joint": -0.3378633547517467,
            "wrist_1_joint": -1.0288598680537169,
            "wrist_2_joint": 1.233022673432363,
            "wrist_3_joint": -3.0940220416140027
        }
    },
    "waypoints": [
        {
            "positions": [
                -0.3378633547517467,
                -1.3736534386056498,
                2.4225746658250005,
                -1.0288598680537169,
                1.233022673432363,
                -3.0940220416140027
            ]
        },
        {
            "positions": [
                -0.3264268057837443,
                -1.3652117723644017,
                2.362916231812746,
                -1.0232800161123274,
                1.223859968073668,
                -3.026103256486908
            ]
        },
        {
            "positions": [
                -0.19750546968950386,
                -1.433035425521942,
                2.366602512614723,
                -0.9532704448910754,
                1.158388276191181,
                -3.0391720640644726
            ]
        },
        {
            "positions": [
                -0.06858413359526344,
                -1.5008590786794824,
                2.3702887934166994,
                -0.8832608736698233,
                1.0929165843086939,
                -3.052240871642037
            ]
        },
        {
            "positions": [
                0.060337202498977005,
                -1.5686827318370227,
                2.3739750742186763,
                -0.8132513024485714,
                1.027444892426207,
                -3.0653096792196015
            ]
        },
        {
            "positions": [
                0.1892585385932174,
                -1.6365063849945631,
                2.3776613550206527,
                -0.7432417312273193,
                0.96197320054372,
                -3.078378486797166
            ]
        },
        {
            "positions": [
                0.3181798746874578,
                -1.7043300381521034,
                2.3813476358226295,
                -0.6732321600060672,
                0.896501508661233,
                -3.0914472943747304
            ]
        },
        {
            "positions": [
                0.4471012107816983,
                -1.7721536913096436,
                2.3850339166246064,
                -0.6032225887848153,
                0.831029816778746,
                -3.104516101952295
            ]
        },
        {
            "positions": [
                0.5760225468759387,
                -1.8399773444671839,
                2.388720197426583,
                -0.5332130175635632,
                0.7655581248962591,
                -3.1175849095298593
            ]
        },
        {
            "positions": [
                0.7049438829701791,
                -1.9078009976247243,
                2.3924064782285597,
                -0.4632034463423111,
                0.700086433013772,
                -3.130653717107424
            ]
        }
    ]
}