{
    "goal": {
        "global_pose": {
            "orientation": {
                "w": 0.005598929693374612,
                "x": 0.007748599140229565,
                "y": 0.7110244013736278,
                "z": -0.7031023480610252
            },
            "position": {
                "x": -0.8858502320852131,
                "y": -0.7141253447532654,
                "z": 0.3711530566215515
            }
        },
        "name": "move_to_auspresseinheit_C"
    },
    "id": "EST_move_to_auspresseinheit_C_79",
    "joint_names": [
        "shoulder_pan_joint",
        "shoulder_lift_joint",
        "elbow_joint",
        "wrist_1_joint",
        "wrist_2_joint",
        "wrist_3_joint"
    ],
    "metrics": {
        "cart_traj_len": 0.49196221257095085,
        "distance_elbow_joint": 0.9889335279653894,
        "distance_shoulder_lift_joint": 0.3192191434472528,
        "distance_shoulder_pan_joint": 0.256513946151657,
        "distance_wrist_1_joint": 0.6663960382190756,
        "distance_wrist_2_joint": 1.3030266691978434,
        "distance_wrist_3_joint": 0.044277008961631115,
        "smoothness": 8.074349294524176e-16,
        "time": 0.20891865599999998,
        "traj_len": 1.8916570339104415,
        "weighted_distance": 2.3740983676509764
    },
    "planner": "EST",
    "start": {
        "state": {
            "elbow_joint": 1.7527959577737207,
            "shoulder_lift_joint": -0.9740617694225068,
            "shoulder_pan_joint": -2.967991417825858,
            "wrist_1_joint": -0.759517768980727,
            "wrist_2_joint": 1.7443932448377408,
            "wrist_3_joint": -3.0840537646736568
        }
    },
    "waypoints": [
        {
            "positions": [
                -2.967991417825858,
                -0.9740617694225068,
                1.7527959577737207,
                -0.759517768980727,
                1.7443932448377408,
                -3.0840537646736568
            ]
        },
        {
            "positions": [
                -2.942340023210692,
                -0.9421398550777815,
                1.6539026049771817,
                -0.6928781651588194,
                1.6140905779179564,
                -3.08848146556982
            ]
        },
        {
            "positions": [
                -2.9166886285955265,
                -0.9102179407330562,
                1.5550092521806427,
                -0.6262385613369119,
                1.4837879109981722,
                -3.092909166465983
            ]
        },
        {
            "positions": [
                -2.8910372339803607,
                -0.8782960263883309,
                1.456115899384104,
                -0.5595989575150043,
                1.3534852440783878,
                -3.097336867362146
            ]
        },
        {
            "positions": [
                -2.865385839365195,
                -0.8463741120436057,
                1.357222546587565,
                -0.49295935369309674,
                1.2231825771586036,
                -3.101764568258309
            ]
        },
        {
            "positions": [
                -2.8397344447500297,
                -0.8144521976988803,
                1.258329193791026,
                -0.4263197498711892,
                1.0928799102388191,
                -3.106192269154472
            ]
        },
        {
            "positions": [
                -2.814083050134864,
                -0.7825302833541551,
                1.1594358409944872,
                -0.35968014604928167,
                0.9625772433190348,
                -3.1106199700506356
            ]
        },
        {
            "positions": [
                -2.788431655519698,
                -0.7506083690094298,
                1.0605424881979482,
                -0.29304054222737413,
                0.8322745763992505,
                -3.1150476709467987
            ]
        },
        {
            "positions": [
                -2.7627802609045324,
                -0.7186864546647045,
                0.9616491354014092,
                -0.2264009384054665,
                0.7019719094794661,
                -3.1194753718429618
            ]
        },
        {
            "positions": [
                -2.7371288662893667,
                -0.6867645403199792,
                0.8627557826048702,
                -0.159761334583559,
                0.5716692425596817,
                -3.123903072739125
            ]
        },
        {
            "positions": [
                -2.711477471674201,
                -0.654842625975254,
                0.7638624298083313,
                -0.09312173076165146,
                0.44136657563989734,
                -3.128330773635288
            ]
        }
    ]
}