{
    "goal": {
        "global_pose": {
            "orientation": {
                "w": 0.7047431493862688,
                "x": -0.7094548369677653,
                "y": 0.0024358444001904,
                "z": -0.0022348060817251984
            },
            "position": {
                "x": -0.39052492380142206,
                "y": 0.3671506643295288,
                "z": 0.19426114857196808
            }
        },
        "name": "move_to_magneteinheit_D"
    },
    "id": "EST_move_to_magneteinheit_D_11",
    "joint_names": [
        "shoulder_pan_joint",
        "shoulder_lift_joint",
        "elbow_joint",
        "wrist_1_joint",
        "wrist_2_joint",
        "wrist_3_joint"
    ],
    "metrics": {
        "cart_traj_len": 4.631277912426505,
        "distance_elbow_joint": 3.7913765231119134,
        "distance_shoulder_lift_joint": 1.6816586354294405,
        "distance_shoulder_pan_joint": 3.0266091541007656,
        "distance_wrist_1_joint": 1.6406612140380012,
        "distance_wrist_2_joint": 1.6966369275793358,
        "distance_wrist_3_joint": 3.3781378354022387,
        "smoothness": 0.28646765490973525,
        "time": 0.3274417,
        "traj_len": 3.900651264809723,
        "weighted_distance": 5.030770726447738
    },
    "planner": "EST",
    "start": {
        "state": {
            "elbow_joint": 0.749534889911806,
            "shoulder_lift_joint": -0.6476975780787326,
            "shoulder_pan_joint": -2.711696901376241,
            "wrist_1_joint": -0.07506478083263063,
            "wrist_2_joint": 0.43296659715538205,
            "wrist_3_joint": -3.14703540197715
        }
    },
    "waypoints": [
        {
            "positions": [
                -2.711696901376241,
                -0.6476975780787326,
                0.749534889911806,
                -0.07506478083263063,
                0.43296659715538205,
                -3.14703540197715
            ]
        },
        {
            "positions": [
                -2.7077449522646275,
                -0.7183027188778286,
                0.8022163685400941,
                -0.08091631809231087,
                0.5139485440815055,
                -3.0785133450171625
            ]
        },
        {
            "positions": [
                -2.703793003153014,
                -0.7889078596769246,
                0.8548978471683824,
                -0.08676785535199111,
                0.594930491007629,
                -3.009991288057175
            ]
        },
        {
            "positions": [
                -2.6833763996601063,
                -0.8752926758930677,
                0.9098439455042632,
                -0.09723958868180438,
                0.6966294989344862,
                -2.9204332852700556
            ]
        },
        {
            "positions": [
                -2.6629597961671987,
                -0.9616774921092109,
                0.964790043840144,
                -0.10771132201161766,
                0.7983285068613435,
                -2.830875282482936
            ]
        },
        {
            "positions": [
                -2.642543192674291,
                -1.0480623083253542,
                1.0197361421760247,
                -0.11818305534143095,
                0.9000275147882008,
                -2.7413172796958163
            ]
        },
        {
            "positions": [
                -2.6221265891813834,
                -1.1344471245414973,
                1.0746822405119056,
                -0.12865478867124422,
                1.001726522715058,
                -2.651759276908697
            ]
        },
        {
            "positions": [
                -2.50333360001643,
                -1.16929434503072,
                0.9685502775198271,
                -0.11645386955236867,
                1.009266935067691,
                -2.551975899961339
            ]
        },
        {
            "positions": [
                -2.384540610851476,
                -1.2041415655199428,
                0.8624183145277488,
                -0.10425295043349311,
                1.0168073474203239,
                -2.452192523013981
            ]
        },
        {
            "positions": [
                -2.2657476216865224,
                -1.2389887860091655,
                0.7562863515356704,
                -0.09205203131461757,
                1.0243477597729567,
                -2.352409146066623
            ]
        },
        {
            "positions": [
                -2.1469546325215685,
                -1.2738360064983882,
                0.6501543885435919,
                -0.07985111219574202,
                1.0318881721255897,
                -2.2526257691192653
            ]
        },
        {
            "positions": [
                -2.028161643356615,
                -1.308683226987611,
                0.5440224255515134,
                -0.06765019307686648,
                1.0394285844782227,
                -2.152842392171907
            ]
        },
        {
            "positions": [
                -1.9093686541916615,
                -1.3435304474768337,
                0.437890462559435,
                -0.05544927395799093,
                1.0469689968308555,
                -2.0530590152245494
            ]
        },
        {
            "positions": [
                -1.790575665026708,
                -1.3783776679660564,
                0.3317584995673565,
                -0.04324835483911538,
                1.0545094091834883,
                -1.9532756382771912
            ]
        },
        {
            "positions": [
                -1.671782675861754,
                -1.4132248884552792,
                0.22562653657527798,
                -0.031047435720239824,
                1.0620498215361214,
                -1.8534922613298332
            ]
        },
        {
            "positions": [
                -1.5529896866968005,
                -1.448072108944502,
                0.11949457358319948,
                -0.018846516601364285,
                1.0695902338887544,
                -1.7537088843824753
            ]
        },
        {
            "positions": [
                -1.4341966975318468,
                -1.4829193294337246,
                0.013362610591121094,
                -0.006645597482488733,
                1.0771306462413872,
                -1.6539255074351173
            ]
        },
        {
            "positions": [
                -1.315403708366893,
                -1.5177665499229474,
                -0.0927693524009574,
                0.005555321636386834,
                1.08467105859402,
                -1.5541421304877594
            ]
        },
        {
            "positions": [
                -1.1966107192019395,
                -1.55261377041217,
                -0.19890131539303568,
                0.01775624075526236,
                1.092211470946653,
                -1.4543587535404014
            ]
        },
        {
            "positions": [
                -1.0778177300369858,
                -1.5874609909013928,
                -0.3050332783851144,
                0.029957159874137912,
                1.099751883299286,
                -1.3545753765930435
            ]
        },
        {
            "positions": [
                -0.9590247408720323,
                -1.6223082113906155,
                -0.4111652413771927,
                0.042158078993013465,
                1.107292295651919,
                -1.2547919996456856
            ]
        },
        {
            "positions": [
                -0.8402317517070785,
                -1.6571554318798383,
                -0.5172972043692712,
                0.05435899811188902,
                1.1148327080045517,
                -1.1550086226983276
            ]
        },
        {
            "positions": [
                -0.7214387625421246,
                -1.692002652369061,
                -0.6234291673613497,
                0.06655991723076457,
                1.1223731203571847,
                -1.0552252457509694
            ]
        },
        {
            "positions": [
                -0.6026457733771711,
                -1.7268498728582837,
                -0.729561130353428,
                0.0787608363496401,
                1.1299135327098178,
                -0.9554418688036115
            ]
        },
        {
            "positions": [
                -0.48385278421221756,
                -1.7616970933475065,
                -0.8356930933455067,
                0.09096175546851565,
                1.1374539450624506,
                -0.8556584918562535
            ]
        },
        {
            "positions": [
                -0.36505979504726405,
                -1.7965443138367292,
                -0.941825056337585,
                0.1031626745873912,
                1.1449943574150834,
                -0.7558751149088956
            ]
        },
        {
            "positions": [
                -0.24626680588231004,
                -1.831391534325952,
                -1.0479570193296632,
                0.11536359370626675,
                1.1525347697677164,
                -0.6560917379615376
            ]
        },
        {
            "positions": [
                -0.22028885002397838,
                -1.8707549480436751,
                -1.138895386247113,
                0.20882149764066926,
                1.0893100598057035,
                -0.5889512887810665
            ]
        },
        {
            "positions": [
                -0.19431089416564673,
                -1.9101183617613984,
                -1.2298337531645624,
                0.3022794015750718,
                1.0260853498436906,
                -0.5218108396005954
            ]
        },
        {
            "positions": [
                -0.16833293830731505,
                -1.9494817754791214,
                -1.3207721200820122,
                0.39573730550947434,
                0.9628606398816778,
                -0.45467039042012414
            ]
        },
        {
            "positions": [
                -0.1423549824489834,
                -1.9888451891968446,
                -1.4117104869994619,
                0.48919520944387684,
                0.8996359299196649,
                -0.387529941239653
            ]
        },
        {
            "positions": [
                -0.11637702659065172,
                -2.028208602914568,
                -1.5026488539169116,
                0.5826531133782794,
                0.836411219957652,
                -0.32038949205918177
            ]
        },
        {
            "positions": [
                -0.09039907073232006,
                -2.0675720166322913,
                -1.5935872208343613,
                0.6761110173126819,
                0.7731865099956392,
                -0.25324904287871064
            ]
        },
        {
            "positions": [
                -0.06442111487398838,
                -2.1069354303500143,
                -1.684525587751811,
                0.7695689212470844,
                0.7099618000336263,
                -0.18610859369823946
            ]
        },
        {
            "positions": [
                -0.03844315901565676,
                -2.1462988440677373,
                -1.7754639546692605,
                0.863026825181487,
                0.6467370900716134,
                -0.11896814451776838
            ]
        },
        {
            "positions": [
                -0.012465203157325078,
                -2.1856622577854607,
                -1.8664023215867103,
                0.9564847291158896,
                0.5835123801096005,
                -0.05182769533729714
            ]
        },
        {
            "positions": [
                0.013512752701006603,
                -2.2250256715031838,
                -1.9573406885041598,
                1.0499426330502921,
                0.5202876701475876,
                0.015312753843174098
            ]
        },
        {
            "positions": [
                0.03949070855933823,
                -2.264389085220907,
                -2.0482790554216095,
                1.1434005369846945,
                0.4570629601855748,
                0.08245320302364512
            ]
        },
        {
            "positions": [
                0.06546866441766988,
                -2.30375249893863,
                -2.139217422339059,
                1.236858440919097,
                0.3938382502235619,
                0.14959365220411638
            ]
        },
        {
            "positions": [
                -0.017679198351281317,
                -2.2952179274154494,
                -2.223327258892675,
                1.3107110997887792,
                0.32104750508261276,
                0.12242405846379256
            ]
        },
        {
            "positions": [
                -0.10082706112023251,
                -2.286683355892268,
                -2.3074370954462906,
                1.3845637586584614,
                0.2482567599416636,
                0.09525446472346874
            ]
        },
        {
            "positions": [
                -0.1839749238891837,
                -2.2781487843690873,
                -2.3915469319999065,
                1.4584164175281435,
                0.17546601480071444,
                0.06808487098314492
            ]
        }
    ]
}