{
    "goal": {
        "global_pose": {
            "orientation": {
                "w": 0.005598929693374612,
                "x": 0.007748599140229565,
                "y": 0.7110244013736278,
                "z": -0.7031023480610252
            },
            "position": {
                "x": 0.1141497679147869,
                "y": -0.7141253447532654,
                "z": 0.3711530566215515
            }
        },
        "name": "move_to_auspresseinheit_B"
    },
    "id": "EST_move_to_auspresseinheit_B_20",
    "joint_names": [
        "shoulder_pan_joint",
        "shoulder_lift_joint",
        "elbow_joint",
        "wrist_1_joint",
        "wrist_2_joint",
        "wrist_3_joint"
    ],
    "metrics": {
        "cart_traj_len": 0.5640174466914232,
        "distance_elbow_joint": 0.06451983232706038,
        "distance_shoulder_lift_joint": 0.2944072941209124,
        "distance_shoulder_pan_joint": 0.5749381824350417,
        "distance_wrist_1_joint": 0.3354501897584715,
        "distance_wrist_2_joint": 1.0010869587261748,
        "distance_wrist_3_joint": 0.002082414035379454,
        "smoothness": 3.806478935924272e-16,
        "time": 0.19785934400000002,
        "traj_len": 1.507476325320912,
        "weighted_distance": 1.9008384591959533
    },
    "planner": "EST",
    "start": {
        "state": {
            "elbow_joint": 2.0193083361928714,
            "shoulder_lift_joint": -1.1220246554650708,
            "shoulder_pan_joint": -1.0952077554168747,
            "wrist_1_joint": -0.8559753972642168,
            "wrist_2_joint": 0.4759566250798843,
            "wrist_3_joint": -3.1240929996934557
        }
    },
    "waypoints": [
        {
            "positions": [
                -1.0952077554168747,
                -1.1220246554650708,
                2.0193083361928714,
                -0.8559753972642168,
                0.4759566250798843,
                -3.1240929996934557
            ]
        },
        {
            "positions": [
                -1.191030785822715,
                -1.1710925378185562,
                2.008555030805028,
                -0.8000670323044715,
                0.6428044515342468,
                -3.123745930687559
            ]
        },
        {
            "positions": [
                -1.2868538162285552,
                -1.2201604201720415,
                1.9978017254171847,
                -0.7441586673447262,
                0.8096522779886093,
                -3.1233988616816624
            ]
        },
        {
            "positions": [
                -1.3826768466343955,
                -1.2692283025255269,
                1.9870484200293412,
                -0.6882503023849811,
                0.9765001044429718,
                -3.123051792675766
            ]
        },
        {
            "positions": [
                -1.4784998770402358,
                -1.3182961848790125,
                1.9762951146414978,
                -0.6323419374252358,
                1.1433479308973342,
                -3.1227047236698695
            ]
        },
        {
            "positions": [
                -1.574322907446076,
                -1.3673640672324978,
                1.9655418092536545,
                -0.5764335724654905,
                1.3101957573516967,
                -3.122357654663973
            ]
        },
        {
            "positions": [
                -1.6701459378519163,
                -1.4164319495859832,
                1.954788503865811,
                -0.5205252075057453,
                1.4770435838060592,
                -3.122010585658076
            ]
        }
    ]
}