{
    "goal": {
        "global_pose": {
            "orientation": {
                "w": 0.7047431493862688,
                "x": -0.7094548369677653,
                "y": 0.0024358444001904,
                "z": -0.0022348060817251984
            },
            "position": {
                "x": -0.39052492380142206,
                "y": 0.3671506643295288,
                "z": 0.19426114857196808
            }
        },
        "name": "move_to_magneteinheit_D"
    },
    "id": "EST_move_to_magneteinheit_D_127",
    "joint_names": [
        "shoulder_pan_joint",
        "shoulder_lift_joint",
        "elbow_joint",
        "wrist_1_joint",
        "wrist_2_joint",
        "wrist_3_joint"
    ],
    "metrics": {
        "cart_traj_len": 4.648336473233834,
        "distance_elbow_joint": 4.0280267606786895,
        "distance_shoulder_lift_joint": 1.6832013978126363,
        "distance_shoulder_pan_joint": 3.903637612171067,
        "distance_wrist_1_joint": 2.680208110668387,
        "distance_wrist_2_joint": 1.2472386017563877,
        "distance_wrist_3_joint": 3.127149920469336,
        "smoothness": 0.5202415486776106,
        "time": 0.886292871,
        "traj_len": 4.082825296722418,
        "weighted_distance": 5.1818152183303425
    },
    "planner": "EST",
    "start": {
        "state": {
            "elbow_joint": 0.749534889911806,
            "shoulder_lift_joint": -0.6476975780787326,
            "shoulder_pan_joint": -2.711696901376241,
            "wrist_1_joint": -0.07506478083263063,
            "wrist_2_joint": 0.43296659715538205,
            "wrist_3_joint": -3.14703540197715
        }
    },
    "waypoints": [
        {
            "positions": [
                -2.711696901376241,
                -0.6476975780787326,
                0.749534889911806,
                -0.07506478083263063,
                0.43296659715538205,
                -3.14703540197715
            ]
        },
        {
            "positions": [
                -2.7259424568686024,
                -0.6723304616858481,
                0.6593449028452183,
                -0.07730410830697483,
                0.3881718221674649,
                -3.1446068992445664
            ]
        },
        {
            "positions": [
                -2.7402779507769015,
                -0.7224005014178494,
                0.4810833383529792,
                -0.0813260747144408,
                0.304472068106304,
                -3.131515687884024
            ]
        },
        {
            "positions": [
                -2.7546134446852,
                -0.7724705411498507,
                0.30282177386074005,
                -0.08534804112190676,
                0.22077231404514308,
                -3.118424476523481
            ]
        },
        {
            "positions": [
                -2.6447642281305854,
                -0.8168351420994721,
                0.21812452193172932,
                -0.05090622462456834,
                0.23612482862611678,
                -3.0199451530845645
            ]
        },
        {
            "positions": [
                -2.5349150115759707,
                -0.8611997430490934,
                0.1334272700027186,
                -0.01646440812722992,
                0.2514773432070905,
                -2.9214658296456473
            ]
        },
        {
            "positions": [
                -2.425065795021356,
                -0.9055643439987147,
                0.04873001807370786,
                0.017977408370108486,
                0.2668298577880641,
                -2.8229865062067305
            ]
        },
        {
            "positions": [
                -2.315216578466741,
                -0.9499289449483361,
                -0.03596723385530287,
                0.05241922486744692,
                0.2821823723690378,
                -2.7245071827678133
            ]
        },
        {
            "positions": [
                -2.2053673619121263,
                -0.9942935458979574,
                -0.1206644857843136,
                0.08686104136478533,
                0.2975348869500115,
                -2.6260278593288966
            ]
        },
        {
            "positions": [
                -2.0955181453575116,
                -1.0386581468475788,
                -0.20536173771332433,
                0.12130285786212373,
                0.3128874015309852,
                -2.52754853588998
            ]
        },
        {
            "positions": [
                -1.9856689288028966,
                -1.0830227477972,
                -0.2900589896423351,
                0.1557446743594622,
                0.3282399161119589,
                -2.4290692124510627
            ]
        },
        {
            "positions": [
                -1.875819712248282,
                -1.1273873487468213,
                -0.3747562415713458,
                0.19018649085680062,
                0.34359243069293255,
                -2.3305898890121455
            ]
        },
        {
            "positions": [
                -1.765970495693667,
                -1.1717519496964428,
                -0.4594534935003566,
                0.22462830735413902,
                0.35894494527390625,
                -2.2321105655732287
            ]
        },
        {
            "positions": [
                -1.6561212791390523,
                -1.216116550646064,
                -0.5441507454293673,
                0.25907012385147743,
                0.37429745985487994,
                -2.133631242134312
            ]
        },
        {
            "positions": [
                -1.5462720625844375,
                -1.2604811515956855,
                -0.628847997358378,
                0.2935119403488159,
                0.3896499744358536,
                -2.035151918695395
            ]
        },
        {
            "positions": [
                -1.4364228460298227,
                -1.3048457525453068,
                -0.7135452492873887,
                0.32795375684615424,
                0.40500248901682734,
                -1.936672595256478
            ]
        },
        {
            "positions": [
                -1.326573629475208,
                -1.3492103534949282,
                -0.7982425012163993,
                0.36239557334349265,
                0.420355003597801,
                -1.838193271817561
            ]
        },
        {
            "positions": [
                -1.216724412920593,
                -1.3935749544445497,
                -0.8829397531454103,
                0.39683738984083117,
                0.4357075181787747,
                -1.739713948378644
            ]
        },
        {
            "positions": [
                -1.1068751963659784,
                -1.4379395553941707,
                -0.9676370050744209,
                0.4312792063381695,
                0.4510600327597484,
                -1.6412346249397272
            ]
        },
        {
            "positions": [
                -0.9970259798113636,
                -1.4823041563437922,
                -1.0523342570034315,
                0.465721022835508,
                0.466412547340722,
                -1.5427553015008102
            ]
        },
        {
            "positions": [
                -0.8871767632567489,
                -1.5266687572934134,
                -1.1370315089324423,
                0.5001628393328463,
                0.4817650619216957,
                -1.4442759780618935
            ]
        },
        {
            "positions": [
                -0.7773275467021339,
                -1.571033358243035,
                -1.221728760861453,
                0.5346046558301848,
                0.4971175765026694,
                -1.3457966546229763
            ]
        },
        {
            "positions": [
                -0.6674783301475191,
                -1.6153979591926562,
                -1.3064260127904639,
                0.5690464723275233,
                0.512470091083643,
                -1.2473173311840593
            ]
        },
        {
            "positions": [
                -0.5576291135929043,
                -1.6597625601422776,
                -1.3911232647194747,
                0.6034882888248616,
                0.5278226056646167,
                -1.1488380077451426
            ]
        },
        {
            "positions": [
                -0.4477798970382896,
                -1.7041271610918989,
                -1.475820516648485,
                0.6379301053222,
                0.5431751202455904,
                -1.0503586843062256
            ]
        },
        {
            "positions": [
                -0.3379306804836748,
                -1.7484917620415201,
                -1.5605177685774962,
                0.6723719218195385,
                0.5585276348265642,
                -0.9518793608673084
            ]
        },
        {
            "positions": [
                -0.22808146392905998,
                -1.7928563629911416,
                -1.6452150205065066,
                0.7068137383168769,
                0.5738801494075378,
                -0.8534000374283917
            ]
        },
        {
            "positions": [
                -0.1296954090844761,
                -1.8018408028846369,
                -1.814147894281573,
                0.7425488235342022,
                0.59490939571486,
                -0.8303993727027382
            ]
        },
        {
            "positions": [
                -0.03130935423989223,
                -1.810825242778132,
                -1.9830807680566394,
                0.7782839087515273,
                0.6159386420221823,
                -0.8073987079770849
            ]
        },
        {
            "positions": [
                0.06707670060469162,
                -1.8198096826716272,
                -2.1520136418317057,
                0.8140189939688526,
                0.6369678883295045,
                -0.7843980432514315
            ]
        },
        {
            "positions": [
                0.16546275544927552,
                -1.8287941225651223,
                -2.3209465156067726,
                0.8497540791861778,
                0.6579971346368267,
                -0.761397378525778
            ]
        },
        {
            "positions": [
                0.2638488102938594,
                -1.8377785624586176,
                -2.489879389381839,
                0.885489164403503,
                0.6790263809441489,
                -0.7383967138001246
            ]
        },
        {
            "positions": [
                0.3622348651384432,
                -1.8467630023521127,
                -2.6588122631569053,
                0.9212242496208283,
                0.7000556272514711,
                -0.7153960490744713
            ]
        },
        {
            "positions": [
                0.4606209199830271,
                -1.855747442245608,
                -2.8277451369319717,
                0.9569593348381535,
                0.7210848735587934,
                -0.6923953843488179
            ]
        },
        {
            "positions": [
                0.39165111359301163,
                -1.9200968653429265,
                -2.8018261231653216,
                1.1140847334219057,
                0.6728821023841981,
                -0.6756487619285833
            ]
        },
        {
            "positions": [
                0.3226813072029961,
                -1.984446288440245,
                -2.7759071093986716,
                1.271210132005658,
                0.624679331209603,
                -0.6589021395083486
            ]
        },
        {
            "positions": [
                0.25371150081298055,
                -2.0487957115375637,
                -2.7499880956320215,
                1.42833553058941,
                0.5764765600350077,
                -0.642155517088114
            ]
        },
        {
            "positions": [
                0.18474169442296506,
                -2.113145134634882,
                -2.724069081865371,
                1.5854609291731623,
                0.5282737888604125,
                -0.6254088946678793
            ]
        },
        {
            "positions": [
                0.11577188803294952,
                -2.1774945577322007,
                -2.698150068098721,
                1.7425863277569147,
                0.4800710176858173,
                -0.6086622722476447
            ]
        },
        {
            "positions": [
                0.046802081642934035,
                -2.241843980829519,
                -2.672231054332071,
                1.8997117263406667,
                0.4318682465112221,
                -0.5919156498274101
            ]
        },
        {
            "positions": [
                -0.022167724747081508,
                -2.3061934039268377,
                -2.646312040565421,
                2.056837124924419,
                0.3836654753366268,
                -0.5751690274071755
            ]
        },
        {
            "positions": [
                -0.054707336639835645,
                -2.3012522895339314,
                -2.5924493130717488,
                1.951289188057862,
                0.3442030031545604,
                -0.4641123182273032
            ]
        },
        {
            "positions": [
                -0.08724694853258978,
                -2.296311175141025,
                -2.5385865855780767,
                1.8457412511913052,
                0.3047405309724941,
                -0.35305560904743094
            ]
        },
        {
            "positions": [
                -0.1197865604253439,
                -2.291370060748119,
                -2.484723858084404,
                1.740193314324748,
                0.26527805879042776,
                -0.24199889986755874
            ]
        },
        {
            "positions": [
                -0.15232617231809806,
                -2.2864289463552128,
                -2.430861130590732,
                1.6346453774581913,
                0.22581558660836137,
                -0.13094219068768642
            ]
        },
        {
            "positions": [
                -0.18486578421085217,
                -2.2814878319623064,
                -2.37699840309706,
                1.5290974405916342,
                0.18635311442629504,
                -0.019885481507814235
            ]
        }
    ]
}