{
    "goal": {
        "global_pose": {
            "orientation": {
                "w": -0.00223480608172531,
                "x": 0.0024358444001904467,
                "y": 0.7094548369677653,
                "z": -0.704743149386269
            },
            "position": {
                "x": 0.6205249238014221,
                "y": -0.6371506643295288,
                "z": 0.19426114857196808
            }
        },
        "name": "move_to_magneteinheit_B"
    },
    "id": "EST_move_to_magneteinheit_B_78",
    "joint_names": [
        "shoulder_pan_joint",
        "shoulder_lift_joint",
        "elbow_joint",
        "wrist_1_joint",
        "wrist_2_joint",
        "wrist_3_joint"
    ],
    "metrics": {
        "cart_traj_len": 2.167329110679428,
        "distance_elbow_joint": 0.9992960651604268,
        "distance_shoulder_lift_joint": 3.765479929071197,
        "distance_shoulder_pan_joint": 1.6199095012088511,
        "distance_wrist_1_joint": 1.6115786377524604,
        "distance_wrist_2_joint": 1.5282442594010222,
        "distance_wrist_3_joint": 3.7231938444557238,
        "smoothness": 0.6231261888716509,
        "time": 0.40039669599999994,
        "traj_len": 3.639739308940914,
        "weighted_distance": 4.881998855296324
    },
    "planner": "EST",
    "start": {
        "state": {
            "elbow_joint": 2.6216224122426386,
            "shoulder_lift_joint": -1.4174107377796124,
            "shoulder_pan_joint": 0.7066234856936794,
            "wrist_1_joint": 1.9546482284002225,
            "wrist_2_joint": -0.7096286983471962,
            "wrist_3_joint": 0.005740856962016249
        }
    },
    "waypoints": [
        {
            "positions": [
                0.7066234856936794,
                -1.4174107377796124,
                2.6216224122426386,
                1.9546482284002225,
                -0.7096286983471962,
                0.005740856962016249
            ]
        },
        {
            "positions": [
                0.6388939616421572,
                -1.4436483163989031,
                2.606675719691663,
                1.98261290118354,
                -0.782968094537899,
                0.011190034348715749
            ]
        },
        {
            "positions": [
                0.5711644375906351,
                -1.4698858950181937,
                2.5917290271406865,
                2.0105775739668577,
                -0.8563074907286016,
                0.01663921173541525
            ]
        },
        {
            "positions": [
                0.5603636486717669,
                -1.5735023304541993,
                2.5931328865716448,
                2.070578096564116,
                -0.9426750395360547,
                0.1486912639748188
            ]
        },
        {
            "positions": [
                0.5495628597528988,
                -1.6771187658902051,
                2.5945367460026025,
                2.1305786191613745,
                -1.0290425883435077,
                0.2807433162142224
            ]
        },
        {
            "positions": [
                0.5387620708340306,
                -1.7807352013262108,
                2.5959406054335608,
                2.190579141758633,
                -1.115410137150961,
                0.41279536845362597
            ]
        },
        {
            "positions": [
                0.5279612819151626,
                -1.8843516367622164,
                2.597344464864519,
                2.250579664355891,
                -1.201777685958414,
                0.5448474206930295
            ]
        },
        {
            "positions": [
                0.5171604929962944,
                -1.9879680721982222,
                2.5987483242954768,
                2.3105801869531493,
                -1.2881452347658673,
                0.6768994729324331
            ]
        },
        {
            "positions": [
                0.5063597040774263,
                -2.091584507634228,
                2.600152183726435,
                2.3705807095504077,
                -1.3745127835733202,
                0.8089515251718367
            ]
        },
        {
            "positions": [
                0.4955589151585581,
                -2.1952009430702337,
                2.6015560431573928,
                2.430581232147666,
                -1.4608803323807735,
                0.9410035774112403
            ]
        },
        {
            "positions": [
                0.48475812623968995,
                -2.2988173785062394,
                2.602959902588351,
                2.4905817547449245,
                -1.5472478811882264,
                1.0730556296506437
            ]
        },
        {
            "positions": [
                0.4739573373208218,
                -2.402433813942245,
                2.604363762019309,
                2.550582277342183,
                -1.6336154299956798,
                1.2051076818900475
            ]
        },
        {
            "positions": [
                0.4631565484019537,
                -2.5060502493782506,
                2.605767621450267,
                2.610582799939441,
                -1.7199829788031327,
                1.337159734129451
            ]
        },
        {
            "positions": [
                0.45235575948308554,
                -2.6096666848142567,
                2.607171480881225,
                2.6705833225366993,
                -1.806350527610586,
                1.4692117863688545
            ]
        },
        {
            "positions": [
                0.44155497056421744,
                -2.713283120250262,
                2.6085753403121834,
                2.7305838451339577,
                -1.892718076418039,
                1.601263838608258
            ]
        },
        {
            "positions": [
                0.4307541816453493,
                -2.816899555686268,
                2.609979199743141,
                2.790584367731216,
                -1.9790856252254923,
                1.7333158908476618
            ]
        },
        {
            "positions": [
                0.41995339272648113,
                -2.9205159911222736,
                2.6113830591740994,
                2.8505848903284745,
                -2.065453174032945,
                1.8653679430870653
            ]
        },
        {
            "positions": [
                0.34978289755586783,
                -2.80144363976814,
                2.5613962882254118,
                2.812919523179832,
                -2.0745278994916436,
                1.767285482122293
            ]
        },
        {
            "positions": [
                0.27961240238525453,
                -2.6823712884140067,
                2.5114095172767246,
                2.7752541560311896,
                -2.0836026249503425,
                1.6692030211575206
            ]
        },
        {
            "positions": [
                0.2094419072146412,
                -2.5632989370598733,
                2.461422746328037,
                2.737588788882547,
                -2.092677350409041,
                1.5711205601927483
            ]
        },
        {
            "positions": [
                0.13927141204402788,
                -2.44422658570574,
                2.4114359753793497,
                2.6999234217339043,
                -2.1017520758677395,
                1.473038099227976
            ]
        },
        {
            "positions": [
                0.06910091687341458,
                -2.325154234351606,
                2.361449204430662,
                2.6622580545852617,
                -2.110826801326438,
                1.3749556382632036
            ]
        },
        {
            "positions": [
                -0.0010695782971987255,
                -2.2060818829974727,
                2.3114624334819744,
                2.6245926874366194,
                -2.119901526785137,
                1.2768731772984312
            ]
        },
        {
            "positions": [
                -0.07124007346781203,
                -2.0870095316433392,
                2.2614756625332872,
                2.586927320287977,
                -2.1289762522438354,
                1.1787907163336588
            ]
        },
        {
            "positions": [
                -0.14141056863842538,
                -1.9679371802892058,
                2.2114888915845996,
                2.549261953139334,
                -2.138050977702534,
                1.0807082553688865
            ]
        },
        {
            "positions": [
                -0.21158106380903863,
                -1.8488648289350724,
                2.1615021206359124,
                2.5115965859906915,
                -2.1471257031612323,
                0.9826257944041142
            ]
        },
        {
            "positions": [
                -0.281751558979652,
                -1.729792477580939,
                2.1115153496872248,
                2.4739312188420493,
                -2.156200428619931,
                0.884543333439342
            ]
        },
        {
            "positions": [
                -0.35192205415026534,
                -1.6107201262268054,
                2.061528578738537,
                2.4362658516934066,
                -2.1652751540786297,
                0.7864608724745694
            ]
        },
        {
            "positions": [
                -0.4220925493208786,
                -1.4916477748726722,
                2.01154180778985,
                2.398600484544764,
                -2.174349879537328,
                0.6883784115097973
            ]
        },
        {
            "positions": [
                -0.49226304449149194,
                -1.3725754235185386,
                1.9615550368411623,
                2.3609351173961213,
                -2.1834246049960266,
                0.5902959505450249
            ]
        },
        {
            "positions": [
                -0.5624335396621052,
                -1.2535030721644052,
                1.9115682658924749,
                2.323269750247479,
                -2.1924993304547256,
                0.49221348958025257
            ]
        },
        {
            "positions": [
                -0.6326040348327187,
                -1.1344307208102717,
                1.8615814949437874,
                2.2856043830988364,
                -2.201574055913424,
                0.3941310286154802
            ]
        },
        {
            "positions": [
                -0.7027745300033319,
                -1.0153583694561383,
                1.8115947239951,
                2.2479390159501937,
                -2.2106487813721225,
                0.29604856765070786
            ]
        },
        {
            "positions": [
                -0.7729450251739451,
                -0.8962860181020047,
                1.7616079530464126,
                2.210273648801551,
                -2.219723506830821,
                0.1979661066859355
            ]
        },
        {
            "positions": [
                -0.8431155203445584,
                -0.7772136667478713,
                1.711621182097725,
                2.172608281652909,
                -2.22879823228952,
                0.09988364572116315
            ]
        },
        {
            "positions": [
                -0.9132860155151719,
                -0.6581413153937378,
                1.6616344111490375,
                2.134942914504266,
                -2.2378729577482184,
                0.001801184756390808
            ]
        }
    ]
}