{
    "goal": {
        "global_pose": {
            "orientation": {
                "w": 0.005598929693374612,
                "x": 0.007748599140229565,
                "y": 0.7110244013736278,
                "z": -0.7031023480610252
            },
            "position": {
                "x": 0.1141497679147869,
                "y": -0.7141253447532654,
                "z": 0.3711530566215515
            }
        },
        "name": "move_to_auspresseinheit_B"
    },
    "id": "EST_move_to_auspresseinheit_B_115",
    "joint_names": [
        "shoulder_pan_joint",
        "shoulder_lift_joint",
        "elbow_joint",
        "wrist_1_joint",
        "wrist_2_joint",
        "wrist_3_joint"
    ],
    "metrics": {
        "cart_traj_len": 0.5641378304327848,
        "distance_elbow_joint": 0.06029042144432695,
        "distance_shoulder_lift_joint": 0.2950911841056252,
        "distance_shoulder_pan_joint": 0.5756983398878619,
        "distance_wrist_1_joint": 0.31725106770656286,
        "distance_wrist_2_joint": 0.9968372787802326,
        "distance_wrist_3_joint": 0.008695307271031183,
        "smoothness": 0.0,
        "time": 0.04551648,
        "traj_len": 1.501287314006097,
        "weighted_distance": 1.8935000819182708
    },
    "planner": "EST",
    "start": {
        "state": {
            "elbow_joint": 2.0193083361928714,
            "shoulder_lift_joint": -1.1220246554650708,
            "shoulder_pan_joint": -1.0952077554168747,
            "wrist_1_joint": -0.8559753972642168,
            "wrist_2_joint": 0.4759566250798843,
            "wrist_3_joint": -3.1240929996934557
        }
    },
    "waypoints": [
        {
            "positions": [
                -1.0952077554168747,
                -1.1220246554650708,
                2.0193083361928714,
                -0.8559753972642168,
                0.4759566250798843,
                -3.1240929996934557
            ]
        },
        {
            "positions": [
                -1.1911574787315182,
                -1.171206519482675,
                2.009259932618817,
                -0.8031002193131229,
                0.6420961715432564,
                -3.1255422175719607
            ]
        },
        {
            "positions": [
                -1.287107202046162,
                -1.2203883835002791,
                1.9992115290447625,
                -0.7502250413620292,
                0.8082357180066284,
                -3.126991435450466
            ]
        },
        {
            "positions": [
                -1.3830569253608056,
                -1.2695702475178834,
                1.989163125470708,
                -0.6973498634109354,
                0.9743752644700006,
                -3.1284406533289713
            ]
        },
        {
            "positions": [
                -1.4790066486754492,
                -1.3187521115354877,
                1.9791147218966534,
                -0.6444746854598415,
                1.1405148109333727,
                -3.1298898712074763
            ]
        },
        {
            "positions": [
                -1.574956371990093,
                -1.3679339755530917,
                1.969066318322599,
                -0.5915995075087477,
                1.3066543573967448,
                -3.131339089085982
            ]
        },
        {
            "positions": [
                -1.6709060953047365,
                -1.417115839570696,
                1.9590179147485445,
                -0.5387243295576539,
                1.472793903860117,
                -3.132788306964487
            ]
        }
    ]
}