{
    "goal": {
        "global_pose": {
            "orientation": {
                "w": 0.5084816217422485,
                "x": -0.49083608388900757,
                "y": 0.5182115435600281,
                "z": -0.4816462993621826
            },
            "position": {
                "x": 0.5540239810943604,
                "y": 0.030875300988554955,
                "z": 0.16403168439865112
            }
        },
        "name": "move_to_storage_A"
    },
    "id": "EST_move_to_storage_A_87",
    "joint_names": [
        "shoulder_pan_joint",
        "shoulder_lift_joint",
        "elbow_joint",
        "wrist_1_joint",
        "wrist_2_joint",
        "wrist_3_joint"
    ],
    "metrics": {
        "cart_traj_len": 0.35261423054230223,
        "distance_elbow_joint": 0.4496710794805916,
        "distance_shoulder_lift_joint": 0.23532800628661188,
        "distance_shoulder_pan_joint": 0.45933486847353405,
        "distance_wrist_1_joint": 0.2455999222943116,
        "distance_wrist_2_joint": 1.105428009758417,
        "distance_wrist_3_joint": 0.10168063869347588,
        "smoothness": 6.661338165333112e-16,
        "time": 0.036669187,
        "traj_len": 1.6115342146497982,
        "weighted_distance": 2.0375062538374262
    },
    "planner": "EST",
    "start": {
        "state": {
            "elbow_joint": 1.971548259319323,
            "shoulder_lift_joint": -1.1394851275133948,
            "shoulder_pan_joint": 0.1228115487234821,
            "wrist_1_joint": -0.7804723859257726,
            "wrist_2_joint": 0.12958671773740124,
            "wrist_3_joint": -3.192489227718131
        }
    },
    "waypoints": [
        {
            "positions": [
                0.1228115487234821,
                -1.1394851275133948,
                1.971548259319323,
                -0.7804723859257726,
                0.12958671773740124,
                -3.192489227718131
            ]
        },
        {
            "positions": [
                0.05719228179869153,
                -1.173103414125768,
                2.0357869849594077,
                -0.8155580891106743,
                0.28750500484574654,
                -3.1779634221904915
            ]
        },
        {
            "positions": [
                -0.008426985126099046,
                -1.206721700738141,
                2.100025710599492,
                -0.850643792295576,
                0.4454232919540918,
                -3.1634376166628524
            ]
        },
        {
            "positions": [
                -0.07404625205088963,
                -1.240339987350514,
                2.1642644362395766,
                -0.8857294954804775,
                0.6033415790624371,
                -3.148911811135213
            ]
        },
        {
            "positions": [
                -0.1396655189756802,
                -1.2739582739628874,
                2.228503161879661,
                -0.9208151986653792,
                0.7612598661707825,
                -3.1343860056075736
            ]
        },
        {
            "positions": [
                -0.20528478590047078,
                -1.3075765605752605,
                2.2927418875197456,
                -0.9559009018502809,
                0.9191781532791278,
                -3.119860200079934
            ]
        },
        {
            "positions": [
                -0.27090405282526137,
                -1.3411948471876336,
                2.35698061315983,
                -0.9909866050351825,
                1.077096440387473,
                -3.105334394552295
            ]
        },
        {
            "positions": [
                -0.33652331975005195,
                -1.3748131338000067,
                2.4212193387999146,
                -1.0260723082200842,
                1.2350147274958183,
                -3.0908085890246553
            ]
        }
    ]
}{
    "goal": {
        "global_pose": {
            "orientation": {
                "w": 0.5084816217422485,
                "x": -0.49083608388900757,
                "y": 0.5182115435600281,
                "z": -0.4816462993621826
            },
            "position": {
                "x": 0.5540239810943604,
                "y": 0.030875300988554955,
                "z": 0.16403168439865112
            }
        },
        "name": "move_to_storage_A"
    },
    "id": "EST_move_to_storage_A_87",
    "joint_names": [
        "shoulder_pan_joint",
        "shoulder_lift_joint",
        "elbow_joint",
        "wrist_1_joint",
        "wrist_2_joint",
        "wrist_3_joint"
    ],
    "metrics": {
        "cart_traj_len": 0.3529347585298286,
        "distance_elbow_joint": 0.45066638800453873,
        "distance_shoulder_lift_joint": 0.23505154459017352,
        "distance_shoulder_pan_joint": 0.4577225429569946,
        "distance_wrist_1_joint": 0.2403796625135497,
        "distance_wrist_2_joint": 1.1157031472164374,
        "distance_wrist_3_joint": 0.08882851340207143,
        "smoothness": 1.8873791433662325e-15,
        "time": 0.133370469,
        "traj_len": 1.6088355412172386,
        "weighted_distance": 2.0302934849961707
    },
    "planner": "EST",
    "start": {
        "state": {
            "elbow_joint": 1.97154746011099,
            "shoulder_lift_joint": -1.13948474672311,
            "shoulder_pan_joint": 0.12281154466712228,
            "wrist_1_joint": -0.7804688027058302,
            "wrist_2_joint": 0.12958655903071145,
            "wrist_3_joint": 3.0906928834467795
        }
    },
    "waypoints": [
        {
            "positions": [
                0.12281154466712228,
                -1.13948474672311,
                1.97154746011099,
                -0.7804688027058302,
                0.12958655903071145,
                3.0906928834467795
            ]
        },
        {
            "positions": [
                0.0574226099589802,
                -1.1730635388074204,
                2.035928372683067,
                -0.8148087544934801,
                0.28897272291877396,
                3.103382671075647
            ]
        },
        {
            "positions": [
                -0.007966324749161882,
                -1.206642330891731,
                2.1003092852551437,
                -0.84914870628113,
                0.44835888680683644,
                3.1160724587045143
            ]
        },
        {
            "positions": [
                -0.07335525945730396,
                -1.2402211229760414,
                2.1646901978272206,
                -0.8834886580687801,
                0.6077450506948989,
                3.1287622463333817
            ]
        },
        {
            "positions": [
                -0.13874419416544603,
                -1.2737999150603518,
                2.229071110399298,
                -0.91782860985643,
                0.7671312145829614,
                3.1414520339622487
            ]
        },
        {
            "positions": [
                -0.20413312887358814,
                -1.3073787071446625,
                2.293452022971375,
                -0.95216856164408,
                0.9265173784710239,
                3.154141821591116
            ]
        },
        {
            "positions": [
                -0.2695220635817302,
                -1.340957499228973,
                2.3578329355434517,
                -0.98650851343173,
                1.0859035423590864,
                3.1668316092199835
            ]
        },
        {
            "positions": [
                -0.3349109982898723,
                -1.3745362913132835,
                2.4222138481155286,
                -1.0208484652193799,
                1.2452897062471489,
                3.179521396848851
            ]
        }
    ]
}{
    "goal": {
        "global_pose": {
            "orientation": {
                "w": 0.5084816217422485,
                "x": -0.49083608388900757,
                "y": 0.5182115435600281,
                "z": -0.4816462993621826
            },
            "position": {
                "x": 0.5540239810943604,
                "y": 0.030875300988554955,
                "z": 0.16403168439865112
            }
        },
        "name": "move_to_storage_A"
    },
    "id": "EST_move_to_storage_A_87",
    "joint_names": [
        "shoulder_pan_joint",
        "shoulder_lift_joint",
        "elbow_joint",
        "wrist_1_joint",
        "wrist_2_joint",
        "wrist_3_joint"
    ],
    "metrics": {
        "cart_traj_len": 0.35265227320789905,
        "distance_elbow_joint": 0.4498385845583468,
        "distance_shoulder_lift_joint": 0.2337509439342007,
        "distance_shoulder_pan_joint": 0.46203651275635277,
        "distance_wrist_1_joint": 0.24375841009983779,
        "distance_wrist_2_joint": 1.0937693553557497,
        "distance_wrist_3_joint": 0.09405283134462206,
        "smoothness": 2.2204460668324854e-16,
        "time": 0.03516609,
        "traj_len": 1.6053680693377173,
        "weighted_distance": 2.025546856084534
    },
    "planner": "EST",
    "start": {
        "state": {
            "elbow_joint": 1.9715472970024885,
            "shoulder_lift_joint": -1.1394870060712896,
            "shoulder_pan_joint": 0.12281152778156021,
            "wrist_1_joint": -0.780463741449964,
            "wrist_2_joint": 0.12958659822042276,
            "wrist_3_joint": 3.090690232415272
        }
    },
    "waypoints": [
        {
            "positions": [
                0.12281152778156021,
                -1.1394870060712896,
                1.9715472970024885,
                -0.780463741449964,
                0.12958659822042276,
                3.090690232415272
            ]
        },
        {
            "positions": [
                0.05680631167350983,
                -1.1728799980618898,
                2.0358099519393953,
                -0.8152863714642266,
                0.28583936327124415,
                3.104126351178789
            ]
        },
        {
            "positions": [
                -0.00919890443454055,
                -1.2062729900524898,
                2.100072606876302,
                -0.8501090014784891,
                0.44209212832206557,
                3.117562469942307
            ]
        },
        {
            "positions": [
                -0.07520412054259093,
                -1.23966598204309,
                2.164335261813209,
                -0.8849316314927516,
                0.5983448933728869,
                3.130998588705824
            ]
        },
        {
            "positions": [
                -0.1412093366506413,
                -1.27305897403369,
                2.228597916750115,
                -0.9197542615070141,
                0.7545976584237083,
                3.1444347074693417
            ]
        },
        {
            "positions": [
                -0.20721455275869174,
                -1.3064519660242901,
                2.292860571687022,
                -0.9545768915212767,
                0.9108504234745297,
                3.157870826232859
            ]
        },
        {
            "positions": [
                -0.27321976886674204,
                -1.3398449580148901,
                2.3571232266239286,
                -0.9893995215355392,
                1.067103188525351,
                3.1713069449963767
            ]
        },
        {
            "positions": [
                -0.33922498497479253,
                -1.3732379500054903,
                2.4213858815608353,
                -1.0242221515498018,
                1.2233559535761724,
                3.184743063759894
            ]
        }
    ]
}