{
    "goal": {
        "global_pose": {
            "orientation": {
                "w": -0.00223480608172531,
                "x": 0.0024358444001904467,
                "y": 0.7094548369677653,
                "z": -0.704743149386269
            },
            "position": {
                "x": -0.37947507619857795,
                "y": -0.6371506643295288,
                "z": 0.19426114857196808
            }
        },
        "name": "move_to_magneteinheit_C"
    },
    "id": "EST_move_to_magneteinheit_C_86",
    "joint_names": [
        "shoulder_pan_joint",
        "shoulder_lift_joint",
        "elbow_joint",
        "wrist_1_joint",
        "wrist_2_joint",
        "wrist_3_joint"
    ],
    "metrics": {
        "cart_traj_len": 6.449527759786921,
        "distance_elbow_joint": 0.18704323562473046,
        "distance_shoulder_lift_joint": 2.516905110946122,
        "distance_shoulder_pan_joint": 10.312687413240715,
        "distance_wrist_1_joint": 1.9246016537882444,
        "distance_wrist_2_joint": 0.7889959305784288,
        "distance_wrist_3_joint": 7.553538492182319,
        "smoothness": 0.6317548481569467,
        "time": 1.09847415,
        "traj_len": 4.8253260860133125,
        "weighted_distance": 6.411274943807345
    },
    "planner": "EST",
    "start": {
        "state": {
            "elbow_joint": 1.9565354010623817,
            "shoulder_lift_joint": -1.4165861575791021,
            "shoulder_pan_joint": -1.6717766225146293,
            "wrist_1_joint": -0.5286633292919765,
            "wrist_2_joint": 1.472756589071564,
            "wrist_3_joint": -3.1238370188695823
        }
    },
    "waypoints": [
        {
            "positions": [
                -1.6717766225146293,
                -1.4165861575791021,
                1.9565354010623817,
                -0.5286633292919765,
                1.472756589071564,
                -3.1238370188695823
            ]
        },
        {
            "positions": [
                -1.6006794112587577,
                -1.4384203683691934,
                1.9257262984791979,
                -0.45626505235690124,
                1.4369807235584071,
                -3.074047426579656
            ]
        },
        {
            "positions": [
                -1.5295822000028862,
                -1.4602545791592847,
                1.894917195896014,
                -0.383866775421826,
                1.40120485804525,
                -3.0242578342897293
            ]
        },
        {
            "positions": [
                -1.364790147132427,
                -1.499119842747713,
                1.8991871398192715,
                -0.42349541854267425,
                1.3929265466290564,
                -2.893491906582041
            ]
        },
        {
            "positions": [
                -1.199998094261968,
                -1.5379851063361412,
                1.9034570837425289,
                -0.4631240616635225,
                1.3846482352128624,
                -2.762725978874353
            ]
        },
        {
            "positions": [
                -1.035206041391509,
                -1.5768503699245695,
                1.9077270276657865,
                -0.5027527047843707,
                1.3763699237966687,
                -2.631960051166664
            ]
        },
        {
            "positions": [
                -0.8704139885210497,
                -1.6157156335129976,
                1.911996971589044,
                -0.5423813479052191,
                1.3680916123804747,
                -2.501194123458976
            ]
        },
        {
            "positions": [
                -0.7056219356505905,
                -1.654580897101426,
                1.9162669155123013,
                -0.5820099910260673,
                1.359813300964281,
                -2.3704281957512876
            ]
        },
        {
            "positions": [
                -0.5408298827801314,
                -1.6934461606898543,
                1.9205368594355587,
                -0.6216386341469156,
                1.3515349895480873,
                -2.2396622680435994
            ]
        },
        {
            "positions": [
                -0.37603782990967227,
                -1.7323114242782824,
                1.9248068033588162,
                -0.6612672772677638,
                1.3432566781318933,
                -2.108896340335911
            ]
        },
        {
            "positions": [
                -0.2112457770392131,
                -1.7711766878667108,
                1.9290767472820738,
                -0.700895920388612,
                1.3349783667156996,
                -1.9781304126282226
            ]
        },
        {
            "positions": [
                -0.04645372416875393,
                -1.8100419514551391,
                1.9333466912053312,
                -0.7405245635094604,
                1.3267000552995056,
                -1.8473644849205342
            ]
        },
        {
            "positions": [
                0.11833832870170524,
                -1.8489072150435673,
                1.9376166351285886,
                -0.7801532066303085,
                1.318421743883312,
                -1.716598557212846
            ]
        },
        {
            "positions": [
                0.2831303815721642,
                -1.8877724786319956,
                1.941886579051846,
                -0.8197818497511569,
                1.3101434324671182,
                -1.5858326295051577
            ]
        },
        {
            "positions": [
                0.44792243444262336,
                -1.9266377422204237,
                1.9461565229751037,
                -0.859410492872005,
                1.3018651210509242,
                -1.4550667017974694
            ]
        },
        {
            "positions": [
                0.6127144873130828,
                -1.965503005808852,
                1.950426466898361,
                -0.8990391359928533,
                1.2935868096347305,
                -1.324300774089781
            ]
        },
        {
            "positions": [
                0.7775065401835417,
                -2.0043682693972804,
                1.9546964108216185,
                -0.9386677791137016,
                1.2853084982185368,
                -1.1935348463820927
            ]
        },
        {
            "positions": [
                0.9422985930540007,
                -2.0432335329857088,
                1.958966354744876,
                -0.9782964222345498,
                1.2770301868023428,
                -1.0627689186744045
            ]
        },
        {
            "positions": [
                1.10709064592446,
                -2.0820987965741367,
                1.9632362986681333,
                -1.017925065355398,
                1.268751875386149,
                -0.932002990966716
            ]
        },
        {
            "positions": [
                1.271882698794919,
                -2.120964060162565,
                1.967506242591391,
                -1.0575537084762463,
                1.2604735639699551,
                -0.8012370632590278
            ]
        },
        {
            "positions": [
                1.4366747516653784,
                -2.1598293237509933,
                1.9717761865146484,
                -1.0971823515970947,
                1.2521952525537614,
                -0.6704711355513391
            ]
        },
        {
            "positions": [
                1.6014668045358373,
                -2.1986945873394217,
                1.9760461304379058,
                -1.1368109947179428,
                1.2439169411375675,
                -0.5397052078436508
            ]
        },
        {
            "positions": [
                1.7662588574062967,
                -2.23755985092785,
                1.9803160743611632,
                -1.1764396378387911,
                1.2356386297213737,
                -0.4089392801359626
            ]
        },
        {
            "positions": [
                1.9310509102767557,
                -2.276425114516278,
                1.9845860182844208,
                -1.2160682809596395,
                1.22736031830518,
                -0.27817335242827435
            ]
        },
        {
            "positions": [
                2.0958429631472146,
                -2.3152903781047063,
                1.9888559622076782,
                -1.2556969240804876,
                1.219082006888986,
                -0.1474074247205861
            ]
        },
        {
            "positions": [
                2.260635016017674,
                -2.3541556416931346,
                1.9931259061309357,
                -1.2953255672013357,
                1.2108036954727923,
                -0.016641497012897855
            ]
        },
        {
            "positions": [
                2.425427068888133,
                -2.393020905281563,
                1.997395850054193,
                -1.334954210322184,
                1.2025253840565986,
                0.11412443069479039
            ]
        },
        {
            "positions": [
                2.5902191217585924,
                -2.4318861688699913,
                2.0016657939774505,
                -1.3745828534430324,
                1.1942470726404046,
                0.24489035840247908
            ]
        },
        {
            "positions": [
                2.7550111746290518,
                -2.470751432458419,
                2.005935737900708,
                -1.4142114965638806,
                1.185968761224211,
                0.3756562861101673
            ]
        },
        {
            "positions": [
                2.9198032274995103,
                -2.5096166960468476,
                2.0102056818239653,
                -1.4538401396847291,
                1.177690449808017,
                0.5064222138178556
            ]
        },
        {
            "positions": [
                3.08459528036997,
                -2.548481959635276,
                2.014475625747223,
                -1.493468782805577,
                1.1694121383918232,
                0.6371881415255438
            ]
        },
        {
            "positions": [
                2.905359296164934,
                -2.5038042399936646,
                2.014286380566347,
                -1.471849328207695,
                1.1537459616208978,
                0.5148490017904731
            ]
        },
        {
            "positions": [
                2.726123311959898,
                -2.4591265203520534,
                2.014097135385471,
                -1.450229873609813,
                1.1380797848499724,
                0.3925098620554025
            ]
        },
        {
            "positions": [
                2.5468873277548623,
                -2.414448800710442,
                2.013907890204595,
                -1.4286104190119309,
                1.122413608079047,
                0.2701707223203318
            ]
        },
        {
            "positions": [
                2.3676513435498263,
                -2.3697710810688313,
                2.0137186450237192,
                -1.4069909644140488,
                1.1067474313081216,
                0.14783158258526113
            ]
        },
        {
            "positions": [
                2.1884153593447904,
                -2.32509336142722,
                2.0135293998428434,
                -1.385371509816167,
                1.0910812545371962,
                0.025492442850190478
            ]
        },
        {
            "positions": [
                2.0091793751397544,
                -2.2804156417856087,
                2.013340154661967,
                -1.363752055218285,
                1.0754150777662708,
                -0.09684669688488023
            ]
        },
        {
            "positions": [
                1.8299433909347187,
                -2.2357379221439975,
                2.0131509094810913,
                -1.3421326006204028,
                1.0597489009953454,
                -0.21918583661995095
            ]
        },
        {
            "positions": [
                1.6507074067296827,
                -2.191060202502386,
                2.0129616643002155,
                -1.3205131460225208,
                1.04408272422442,
                -0.34152497635502155
            ]
        },
        {
            "positions": [
                1.4714714225246468,
                -2.146382482860775,
                2.0127724191193397,
                -1.2988936914246387,
                1.0284165474534945,
                -0.4638641160900925
            ]
        },
        {
            "positions": [
                1.292235438319611,
                -2.101704763219164,
                2.0125831739384634,
                -1.2772742368267567,
                1.0127503706825691,
                -0.5862032558251629
            ]
        },
        {
            "positions": [
                1.112999454114575,
                -2.057027043577553,
                2.0123939287575876,
                -1.2556547822288746,
                0.9970841939116436,
                -0.7085423955602337
            ]
        },
        {
            "positions": [
                0.9337634699095392,
                -2.0123493239359416,
                2.012204683576712,
                -1.2340353276309926,
                0.9814180171407182,
                -0.8308815352953043
            ]
        },
        {
            "positions": [
                0.7545274857045032,
                -1.9676716042943303,
                2.012015438395836,
                -1.2124158730331107,
                0.9657518403697928,
                -0.9532206750303751
            ]
        },
        {
            "positions": [
                0.5752915014994673,
                -1.922993884652719,
                2.0118261932149597,
                -1.1907964184352284,
                0.9500856635988674,
                -1.0755598147654457
            ]
        },
        {
            "positions": [
                0.39605551729443134,
                -1.8783161650111078,
                2.011636948034084,
                -1.1691769638373466,
                0.9344194868279418,
                -1.1978989545005165
            ]
        },
        {
            "positions": [
                0.2168195330893954,
                -1.8336384453694965,
                2.011447702853208,
                -1.1475575092394645,
                0.9187533100570164,
                -1.320238094235587
            ]
        },
        {
            "positions": [
                0.037583548884359885,
                -1.7889607257278854,
                2.0112584576723322,
                -1.1259380546415825,
                0.903087133286091,
                -1.4425772339706575
            ]
        },
        {
            "positions": [
                -0.1416524353206765,
                -1.7442830060862742,
                2.011069212491456,
                -1.1043186000437004,
                0.8874209565151656,
                -1.5649163737057288
            ]
        },
        {
            "positions": [
                -0.32088841952571245,
                -1.6996052864446631,
                2.01087996731058,
                -1.0826991454458184,
                0.8717547797442402,
                -1.6872555134407992
            ]
        },
        {
            "positions": [
                -0.500124403730748,
                -1.6549275668030519,
                2.0106907221297043,
                -1.0610796908479363,
                0.8560886029733148,
                -1.8095946531758695
            ]
        },
        {
            "positions": [
                -0.6793603879357839,
                -1.6102498471614406,
                2.0105014769488285,
                -1.0394602362500542,
                0.8404224262023894,
                -1.9319337929109404
            ]
        },
        {
            "positions": [
                -0.8585963721408203,
                -1.5655721275198293,
                2.0103122317679523,
                -1.0178407816521724,
                0.824756249431464,
                -2.054272932646011
            ]
        },
        {
            "positions": [
                -1.0378323563458558,
                -1.5208944078782183,
                2.0101229865870764,
                -0.9962213270542902,
                0.8090900726605386,
                -2.176612072381082
            ]
        },
        {
            "positions": [
                -1.2170683405508917,
                -1.476216688236607,
                2.0099337414062006,
                -0.9746018724564083,
                0.7934238958896132,
                -2.2989512121161524
            ]
        },
        {
            "positions": [
                -1.3963043247559277,
                -1.431538968594996,
                2.009744496225325,
                -0.9529824178585262,
                0.7777577191186877,
                -2.421290351851223
            ]
        },
        {
            "positions": [
                -1.5755403089609636,
                -1.3868612489533845,
                2.0095552510444485,
                -0.9313629632606442,
                0.7620915423477623,
                -2.543629491586294
            ]
        },
        {
            "positions": [
                -1.7547762931659996,
                -1.3421835293117734,
                2.0093660058635727,
                -0.9097435086627621,
                0.7464253655768369,
                -2.6659686313213644
            ]
        },
        {
            "positions": [
                -1.9340122773710355,
                -1.2975058096701622,
                2.009176760682697,
                -0.88812405406488,
                0.7307591888059115,
                -2.7883077710564352
            ]
        },
        {
            "positions": [
                -2.1132482615760715,
                -1.2528280900285511,
                2.008987515501821,
                -0.8665045994669981,
                0.7150930120349861,
                -2.9106469107915056
            ]
        },
        {
            "positions": [
                -2.2924842457811074,
                -1.2081503703869398,
                2.008798270320945,
                -0.844885144869116,
                0.6994268352640606,
                -3.032986050526577
            ]
        },
        {
            "positions": [
                -2.4717202299861434,
                -1.1634726507453286,
                2.008609025140069,
                -0.823265690271234,
                0.6837606584931352,
                -3.1553251902616473
            ]
        }
    ]
}