{
    "goal": {
        "global_pose": {
            "orientation": {
                "w": -0.00223480608172531,
                "x": 0.0024358444001904467,
                "y": 0.7094548369677653,
                "z": -0.704743149386269
            },
            "position": {
                "x": -0.37947507619857795,
                "y": -0.6371506643295288,
                "z": 0.19426114857196808
            }
        },
        "name": "move_to_magneteinheit_C"
    },
    "id": "EST_move_to_magneteinheit_C_21",
    "joint_names": [
        "shoulder_pan_joint",
        "shoulder_lift_joint",
        "elbow_joint",
        "wrist_1_joint",
        "wrist_2_joint",
        "wrist_3_joint"
    ],
    "metrics": {
        "cart_traj_len": 1.4048173375872928,
        "distance_elbow_joint": 1.5993151676840132,
        "distance_shoulder_lift_joint": 0.3651758332652624,
        "distance_shoulder_pan_joint": 1.133339051110921,
        "distance_wrist_1_joint": 2.289350407450839,
        "distance_wrist_2_joint": 2.314852671526994,
        "distance_wrist_3_joint": 3.270211314613672,
        "smoothness": 0.7447517360515828,
        "time": 0.928348427,
        "traj_len": 3.3124378402698667,
        "weighted_distance": 4.702857658260229
    },
    "planner": "EST",
    "start": {
        "state": {
            "elbow_joint": 1.9565354010623817,
            "shoulder_lift_joint": -1.4165861575791021,
            "shoulder_pan_joint": -1.6717766225146293,
            "wrist_1_joint": -0.5286633292919765,
            "wrist_2_joint": 1.472756589071564,
            "wrist_3_joint": -3.1238370188695823
        }
    },
    "waypoints": [
        {
            "positions": [
                -1.6717766225146293,
                -1.4165861575791021,
                1.9565354010623817,
                -0.5286633292919765,
                1.472756589071564,
                -3.1238370188695823
            ]
        },
        {
            "positions": [
                -1.6385049866634946,
                -1.4294651749803857,
                1.9235460786367518,
                -0.4601429919935225,
                1.4003921816170128,
                -3.059558780947739
            ]
        },
        {
            "positions": [
                -1.6052333508123597,
                -1.4423441923816693,
                1.8905567562111218,
                -0.39162265469506846,
                1.3280277741624615,
                -2.995280543025896
            ]
        },
        {
            "positions": [
                -1.571961714961225,
                -1.455223209782953,
                1.857567433785492,
                -0.32310231739661444,
                1.2556633667079105,
                -2.9310023051040526
            ]
        },
        {
            "positions": [
                -1.6125806110557817,
                -1.4565857123266477,
                1.8013640258064862,
                -0.2575196693672872,
                1.143910553949947,
                -2.8116900628264783
            ]
        },
        {
            "positions": [
                -1.6531995071503385,
                -1.4579482148703424,
                1.7451606178274803,
                -0.19193702133795992,
                1.0321577411919836,
                -2.692377820548904
            ]
        },
        {
            "positions": [
                -1.693818403244895,
                -1.4593107174140372,
                1.6889572098484746,
                -0.12635437330863267,
                0.9204049284340201,
                -2.5730655782713296
            ]
        },
        {
            "positions": [
                -1.734437299339452,
                -1.460673219957732,
                1.632753801869469,
                -0.06077172527930541,
                0.8086521156760568,
                -2.4537533359937553
            ]
        },
        {
            "positions": [
                -1.7750561954340085,
                -1.4620357225014267,
                1.576550393890463,
                0.004810922750021873,
                0.6968993029180933,
                -2.3344410937161806
            ]
        },
        {
            "positions": [
                -1.8156750915285653,
                -1.4633982250451214,
                1.5203469859114573,
                0.0703935707793491,
                0.5851464901601299,
                -2.2151288514386067
            ]
        },
        {
            "positions": [
                -1.856293987623122,
                -1.4647607275888161,
                1.4641435779324516,
                0.13597621880867639,
                0.4733936774021664,
                -2.095816609161032
            ]
        },
        {
            "positions": [
                -1.8969128837176785,
                -1.466123230132511,
                1.407940169953446,
                0.20155886683800361,
                0.3616408646442031,
                -1.9765043668834579
            ]
        },
        {
            "positions": [
                -1.9375317798122353,
                -1.4674857326762056,
                1.35173676197444,
                0.26714151486733084,
                0.24988805188623964,
                -1.8571921246058833
            ]
        },
        {
            "positions": [
                -1.978150675906792,
                -1.4688482352199004,
                1.2955333539954341,
                0.3327241628966582,
                0.1381352391282762,
                -1.737879882328309
            ]
        },
        {
            "positions": [
                -2.0187695720013488,
                -1.4702107377635951,
                1.2393299460164284,
                0.3983068109259853,
                0.02638242637031274,
                -1.6185676400507347
            ]
        },
        {
            "positions": [
                -2.0593884680959054,
                -1.4715732403072899,
                1.1831265380374227,
                0.46388945895531264,
                -0.08537038638765068,
                -1.4992553977731604
            ]
        },
        {
            "positions": [
                -2.1549772536212424,
                -1.4480942970783686,
                1.265736689540861,
                0.4030056385531752,
                -0.06515380631789447,
                -1.5660200563460458
            ]
        },
        {
            "positions": [
                -2.250566039146579,
                -1.4246153538494473,
                1.3483468410442996,
                0.3421218181510378,
                -0.04493722624813824,
                -1.6327847149189314
            ]
        },
        {
            "positions": [
                -2.346154824671916,
                -1.401136410620526,
                1.430956992547738,
                0.28123799774890035,
                -0.024720646178382016,
                -1.6995493734918168
            ]
        },
        {
            "positions": [
                -2.4092196139132844,
                -1.3797766181183322,
                1.5112558435023298,
                0.20392780027188503,
                0.015789795846827104,
                -1.7932192837664467
            ]
        },
        {
            "positions": [
                -2.4722844031546534,
                -1.3584168256161384,
                1.5915546944569214,
                0.12661760279486972,
                0.056300237872036224,
                -1.8868891940410768
            ]
        },
        {
            "positions": [
                -2.535349192396022,
                -1.3370570331139446,
                1.6718535454115133,
                0.049307405317854394,
                0.09681067989724534,
                -1.9805591043157067
            ]
        },
        {
            "positions": [
                -2.536405068369162,
                -1.318570918041706,
                1.73406894013937,
                -0.056322863694148864,
                0.16375350005496758,
                -2.116408864989054
            ]
        },
        {
            "positions": [
                -2.537460944342303,
                -1.3000848029694674,
                1.7962843348672266,
                -0.16195313270615214,
                0.23069632021268982,
                -2.2522586256624013
            ]
        },
        {
            "positions": [
                -2.5385168203154436,
                -1.2815986878972287,
                1.8584997295950831,
                -0.2675834017181554,
                0.29763914037041206,
                -2.388108386335749
            ]
        },
        {
            "positions": [
                -2.539572696288584,
                -1.2631125728249901,
                1.92071512432294,
                -0.37321367073015865,
                0.3645819605281343,
                -2.5239581470090964
            ]
        },
        {
            "positions": [
                -2.5263900638425523,
                -1.242766956214035,
                1.9383786679976474,
                -0.46515256863377435,
                0.4259366303585329,
                -2.6481435358653593
            ]
        },
        {
            "positions": [
                -2.5132074313965207,
                -1.22242133960308,
                1.9560422116723548,
                -0.5570914665373901,
                0.4872913001889315,
                -2.7723289247216223
            ]
        },
        {
            "positions": [
                -2.500024798950489,
                -1.2020757229921253,
                1.973705755347062,
                -0.6490303644410058,
                0.5486459700193301,
                -2.896514313577885
            ]
        },
        {
            "positions": [
                -2.4868421665044576,
                -1.1817301063811703,
                1.9913692990217695,
                -0.7409692623446216,
                0.6100006398497287,
                -3.0206997024341478
            ]
        },
        {
            "positions": [
                -2.473659534058426,
                -1.1613844897702152,
                2.009032842696477,
                -0.8329081602482372,
                0.6713553096801274,
                -3.1448850912904107
            ]
        }
    ]
}