{
    "goal": {
        "global_pose": {
            "orientation": {
                "w": 0.7047431493862688,
                "x": -0.7094548369677653,
                "y": 0.0024358444001904,
                "z": -0.0022348060817251984
            },
            "position": {
                "x": -0.39052492380142206,
                "y": 0.3671506643295288,
                "z": 0.19426114857196808
            }
        },
        "name": "move_to_magneteinheit_D"
    },
    "id": "EST_move_to_magneteinheit_D_128",
    "joint_names": [
        "shoulder_pan_joint",
        "shoulder_lift_joint",
        "elbow_joint",
        "wrist_1_joint",
        "wrist_2_joint",
        "wrist_3_joint"
    ],
    "metrics": {
        "cart_traj_len": 4.71034757321934,
        "distance_elbow_joint": 4.043156007763955,
        "distance_shoulder_lift_joint": 1.635218856435211,
        "distance_shoulder_pan_joint": 5.7148470690731275,
        "distance_wrist_1_joint": 1.5976221894516893,
        "distance_wrist_2_joint": 1.3543828129316755,
        "distance_wrist_3_joint": 3.1490056993252624,
        "smoothness": 0.364661689482821,
        "time": 0.373875514,
        "traj_len": 4.182610743899189,
        "weighted_distance": 5.1714842198361985
    },
    "planner": "EST",
    "start": {
        "state": {
            "elbow_joint": 0.749534889911806,
            "shoulder_lift_joint": -0.6476975780787326,
            "shoulder_pan_joint": -2.711696901376241,
            "wrist_1_joint": -0.07506478083263063,
            "wrist_2_joint": 0.43296659715538205,
            "wrist_3_joint": -3.14703540197715
        }
    },
    "waypoints": [
        {
            "positions": [
                -2.711696901376241,
                -0.6476975780787326,
                0.749534889911806,
                -0.07506478083263063,
                0.43296659715538205,
                -3.14703540197715
            ]
        },
        {
            "positions": [
                -2.706152214580123,
                -0.7230265287163582,
                0.8151965402395641,
                0.03127201625712936,
                0.3179598481340856,
                -3.1220809555839697
            ]
        },
        {
            "positions": [
                -2.700607527784005,
                -0.7983554793539838,
                0.8808581905673224,
                0.13760881334688935,
                0.20295309911278922,
                -3.09712650919079
            ]
        },
        {
            "positions": [
                -2.695062840987887,
                -0.8736844299916093,
                0.9465198408950806,
                0.2439456104366493,
                0.08794635009149282,
                -3.0721720627976095
            ]
        },
        {
            "positions": [
                -2.6895181541917688,
                -0.9490133806292349,
                1.0121814912228388,
                0.3502824075264093,
                -0.02706039892980361,
                -3.047217616404429
            ]
        },
        {
            "positions": [
                -2.6839734673956506,
                -1.0243423312668605,
                1.0778431415505971,
                0.4566192046161694,
                -0.14206714795110004,
                -3.022263170011249
            ]
        },
        {
            "positions": [
                -2.678428780599533,
                -1.099671281904486,
                1.1435047918783552,
                0.5629560017059292,
                -0.2570738969723964,
                -2.997308723618069
            ]
        },
        {
            "positions": [
                -2.6728840938034146,
                -1.1750002325421116,
                1.2091664422061135,
                0.6692927987956894,
                -0.37208064599369284,
                -2.9723542772248885
            ]
        },
        {
            "positions": [
                -2.5158664013171927,
                -1.1799455564992942,
                1.1227708420382052,
                0.6923189500929374,
                -0.3665102426939537,
                -2.8663378725545563
            ]
        },
        {
            "positions": [
                -2.3588487088309713,
                -1.1848908804564768,
                1.036375241870297,
                0.7153451013901855,
                -0.3609398393942146,
                -2.760321467884224
            ]
        },
        {
            "positions": [
                -2.2018310163447494,
                -1.1898362044136594,
                0.9499796417023886,
                0.7383712526874335,
                -0.35536943609447547,
                -2.654305063213892
            ]
        },
        {
            "positions": [
                -2.044813323858528,
                -1.194781528370842,
                0.8635840415344802,
                0.7613974039846816,
                -0.34979903279473634,
                -2.548288658543559
            ]
        },
        {
            "positions": [
                -1.887795631372306,
                -1.199726852328025,
                0.777188441366572,
                0.7844235552819296,
                -0.3442286294949972,
                -2.442272253873227
            ]
        },
        {
            "positions": [
                -1.7307779388860847,
                -1.2046721762852075,
                0.6907928411986637,
                0.8074497065791777,
                -0.3386582261952581,
                -2.3362558492028946
            ]
        },
        {
            "positions": [
                -1.573760246399863,
                -1.2096175002423901,
                0.6043972410307554,
                0.8304758578764257,
                -0.333087822895519,
                -2.2302394445325624
            ]
        },
        {
            "positions": [
                -1.4167425539136411,
                -1.2145628241995727,
                0.5180016408628471,
                0.8535020091736739,
                -0.3275174195957799,
                -2.12422303986223
            ]
        },
        {
            "positions": [
                -1.2597248614274195,
                -1.2195081481567553,
                0.4316060406949388,
                0.876528160470922,
                -0.3219470162960408,
                -2.018206635191898
            ]
        },
        {
            "positions": [
                -1.1027071689411978,
                -1.224453472113938,
                0.3452104405270304,
                0.89955431176817,
                -0.31637661299630165,
                -1.9121902305215654
            ]
        },
        {
            "positions": [
                -0.9456894764549761,
                -1.2293987960711206,
                0.2588148403591223,
                0.9225804630654181,
                -0.31080620969656253,
                -1.8061738258512332
            ]
        },
        {
            "positions": [
                -0.7886717839687545,
                -1.2343441200283032,
                0.1724192401912139,
                0.9456066143626661,
                -0.3052358063968234,
                -1.7001574211809007
            ]
        },
        {
            "positions": [
                -0.6316540914825328,
                -1.239289443985486,
                0.08602364002330565,
                0.9686327656599142,
                -0.2996654030970843,
                -1.5941410165105685
            ]
        },
        {
            "positions": [
                -0.4746363989963114,
                -1.2442347679426686,
                -0.0003719601446026122,
                0.9916589169571622,
                -0.29409499979734516,
                -1.4881246118402363
            ]
        },
        {
            "positions": [
                -0.3176187065100895,
                -1.2491800918998512,
                -0.08676756031251087,
                1.0146850682544102,
                -0.28852459649760603,
                -1.382108207169904
            ]
        },
        {
            "positions": [
                -0.16060101402386762,
                -1.2541254158570339,
                -0.17316316048041935,
                1.0377112195516585,
                -0.2829541931978669,
                -1.2760918024995715
            ]
        },
        {
            "positions": [
                -0.003583321537646178,
                -1.2590707398142165,
                -0.2595587606483276,
                1.0607373708489065,
                -0.2773837898981278,
                -1.1700753978292393
            ]
        },
        {
            "positions": [
                0.1534343709485757,
                -1.264016063771399,
                -0.3459543608162359,
                1.0837635221461546,
                -0.2718133865983887,
                -1.064058993158907
            ]
        },
        {
            "positions": [
                0.31045206343479714,
                -1.2689613877285817,
                -0.4323499609841439,
                1.1067896734434024,
                -0.2662429832986496,
                -0.9580425884885746
            ]
        },
        {
            "positions": [
                0.467469755921019,
                -1.2739067116857643,
                -0.5187455611520526,
                1.1298158247406507,
                -0.26067257999891047,
                -0.8520261838182424
            ]
        },
        {
            "positions": [
                0.6244874484072405,
                -1.278852035642947,
                -0.6051411613199607,
                1.1528419760378987,
                -0.25510217669917135,
                -0.7460097791479101
            ]
        },
        {
            "positions": [
                0.7815051408934623,
                -1.2837973596001298,
                -0.6915367614878689,
                1.1758681273351468,
                -0.24953177339943222,
                -0.6399933744775779
            ]
        },
        {
            "positions": [
                0.9385228333796838,
                -1.2887426835573124,
                -0.7779323616557772,
                1.1988942786323948,
                -0.2439613700996931,
                -0.5339769698072456
            ]
        },
        {
            "positions": [
                1.0955405258659057,
                -1.293688007514495,
                -0.8643279618236857,
                1.221920429929643,
                -0.23839096679995395,
                -0.42796056513691294
            ]
        },
        {
            "positions": [
                1.2525582183521276,
                -1.2986333314716776,
                -0.9507235619915939,
                1.244946581226891,
                -0.23282056350021485,
                -0.3219441604665807
            ]
        },
        {
            "positions": [
                1.4095759108383492,
                -1.3035786554288602,
                -1.0371191621595024,
                1.267972732524139,
                -0.22725016020047573,
                -0.21592775579624846
            ]
        },
        {
            "positions": [
                1.2869932756953848,
                -1.3789123307430975,
                -1.1399836891675048,
                1.2875561691468251,
                -0.1961343845089847,
                -0.1991663670928359
            ]
        },
        {
            "positions": [
                1.1644106405524206,
                -1.4542460060573346,
                -1.2428482161755072,
                1.3071396057695113,
                -0.1650186088174937,
                -0.18240497838942332
            ]
        },
        {
            "positions": [
                1.0418280054094562,
                -1.5295796813715719,
                -1.3457127431835096,
                1.3267230423921974,
                -0.13390283312600265,
                -0.16564358968601078
            ]
        },
        {
            "positions": [
                0.9192453702664918,
                -1.604913356685809,
                -1.448577270191512,
                1.3463064790148835,
                -0.10278705743451164,
                -0.14888220098259822
            ]
        },
        {
            "positions": [
                0.7966627351235275,
                -1.6802470320000462,
                -1.5514417971995145,
                1.3658899156375697,
                -0.07167128174302062,
                -0.13212081227918565
            ]
        },
        {
            "positions": [
                0.6740800999805631,
                -1.7555807073142833,
                -1.6543063242075169,
                1.3854733522602558,
                -0.04055550605152958,
                -0.11535942357577308
            ]
        },
        {
            "positions": [
                0.5514974648375989,
                -1.8309143826285204,
                -1.7571708512155193,
                1.4050567888829422,
                -0.00943973036003859,
                -0.09859803487236055
            ]
        },
        {
            "positions": [
                0.42891482969463435,
                -1.9062480579427579,
                -1.8600353782235217,
                1.4246402255056283,
                0.021676045331452454,
                -0.08183664616894798
            ]
        },
        {
            "positions": [
                0.30633219455167016,
                -1.981581733256995,
                -1.9628999052315241,
                1.4442236621283144,
                0.05279182102294344,
                -0.06507525746553541
            ]
        },
        {
            "positions": [
                0.18374955940870574,
                -2.056915408571232,
                -2.0657644322395265,
                1.4638070987510006,
                0.08390759671443448,
                -0.04831386876212285
            ]
        },
        {
            "positions": [
                0.06116692426574133,
                -2.132249083885469,
                -2.168628959247529,
                1.4833905353736867,
                0.11502337240592553,
                -0.03155248005871031
            ]
        },
        {
            "positions": [
                -0.061415710877223084,
                -2.2075827591997066,
                -2.2714934862555314,
                1.5029739719963728,
                0.14613914809741657,
                -0.014791091355297714
            ]
        },
        {
            "positions": [
                -0.18399834602018733,
                -2.2829164345139437,
                -2.374358013263534,
                1.522557408619059,
                0.17725492378890756,
                0.0019702973481148306
            ]
        }
    ]
}