{
    "goal": {
        "global_pose": {
            "orientation": {
                "w": 0.7047431493862688,
                "x": -0.7094548369677653,
                "y": 0.0024358444001904,
                "z": -0.0022348060817251984
            },
            "position": {
                "x": -0.39052492380142206,
                "y": 0.3671506643295288,
                "z": 0.19426114857196808
            }
        },
        "name": "move_to_magneteinheit_D"
    },
    "id": "EST_move_to_magneteinheit_D_59",
    "joint_names": [
        "shoulder_pan_joint",
        "shoulder_lift_joint",
        "elbow_joint",
        "wrist_1_joint",
        "wrist_2_joint",
        "wrist_3_joint"
    ],
    "metrics": {
        "cart_traj_len": 4.3477125216176375,
        "distance_elbow_joint": 3.406255826697283,
        "distance_shoulder_lift_joint": 1.124987918921588,
        "distance_shoulder_pan_joint": 3.6205168030013146,
        "distance_wrist_1_joint": 4.837029686131949,
        "distance_wrist_2_joint": 1.5008670772973765,
        "distance_wrist_3_joint": 6.2731752166537404,
        "smoothness": 0.29512804567769896,
        "time": 0.347886439,
        "traj_len": 4.55662512488171,
        "weighted_distance": 6.296592707603064
    },
    "planner": "EST",
    "start": {
        "state": {
            "elbow_joint": 0.749534889911806,
            "shoulder_lift_joint": -0.6476975780787326,
            "shoulder_pan_joint": -2.711696901376241,
            "wrist_1_joint": -0.07506478083263063,
            "wrist_2_joint": 0.43296659715538205,
            "wrist_3_joint": -3.14703540197715
        }
    },
    "waypoints": [
        {
            "positions": [
                -2.711696901376241,
                -0.6476975780787326,
                0.749534889911806,
                -0.07506478083263063,
                0.43296659715538205,
                -3.14703540197715
            ]
        },
        {
            "positions": [
                -2.723848814995007,
                -0.6822337463059891,
                0.753685694026699,
                -0.0069748833104600755,
                0.44302459519878246,
                -3.0272059546838594
            ]
        },
        {
            "positions": [
                -2.736000728613772,
                -0.7167699145332456,
                0.7578364981415922,
                0.06111501421171048,
                0.4530825932421828,
                -2.907376507390569
            ]
        },
        {
            "positions": [
                -2.734858151240875,
                -0.7707895073779524,
                0.7637043699273497,
                0.1571391459541578,
                0.47204585494085727,
                -2.719762602780483
            ]
        },
        {
            "positions": [
                -2.7337155738679777,
                -0.8248091002226593,
                0.7695722417131072,
                0.25316327769660507,
                0.49100911663953173,
                -2.532148698170398
            ]
        },
        {
            "positions": [
                -2.7325729964950805,
                -0.8788286930673661,
                0.7754401134988648,
                0.34918740943905247,
                0.5099723783382062,
                -2.344534793560312
            ]
        },
        {
            "positions": [
                -2.7006662181150896,
                -0.925588912149247,
                0.7795610759089395,
                0.4162295715677167,
                0.5313450111108642,
                -2.181852096000004
            ]
        },
        {
            "positions": [
                -2.6687594397350987,
                -0.9723491312311279,
                0.7836820383190143,
                0.483271733696381,
                0.5527176438835221,
                -2.019169398439696
            ]
        },
        {
            "positions": [
                -2.636852661355108,
                -1.0191093503130086,
                0.787803000729089,
                0.5503138958250452,
                0.5740902766561801,
                -1.856486700879388
            ]
        },
        {
            "positions": [
                -2.6049458829751173,
                -1.0658695693948896,
                0.7919239631391638,
                0.6173560579537094,
                0.595462909428838,
                -1.6938040033190798
            ]
        },
        {
            "positions": [
                -2.5730391045951264,
                -1.1126297884767704,
                0.7960449255492386,
                0.6843982200823737,
                0.616835542201496,
                -1.5311213057587718
            ]
        },
        {
            "positions": [
                -2.5170841844711527,
                -1.1631119980011586,
                0.7998272060416771,
                0.7455919340556146,
                0.6433583092401289,
                -1.3552939299472069
            ]
        },
        {
            "positions": [
                -2.4611292643471785,
                -1.2135942075255468,
                0.8036094865341158,
                0.8067856480288554,
                0.6698810762787619,
                -1.179466554135642
            ]
        },
        {
            "positions": [
                -2.4051743442232048,
                -1.264076417049935,
                0.8073917670265544,
                0.8679793620020964,
                0.696403843317395,
                -1.003639178324077
            ]
        },
        {
            "positions": [
                -2.349219424099231,
                -1.3145586265743232,
                0.8111740475189929,
                0.9291730759753372,
                0.722926610356028,
                -0.8278118025125121
            ]
        },
        {
            "positions": [
                -2.293264503975257,
                -1.3650408360987114,
                0.8149563280114316,
                0.9903667899485781,
                0.749449377394661,
                -0.6519844267009471
            ]
        },
        {
            "positions": [
                -2.237309583851283,
                -1.4155230456230996,
                0.8187386085038701,
                1.051560503921819,
                0.775972144433294,
                -0.4761570508893822
            ]
        },
        {
            "positions": [
                -2.1813546637273094,
                -1.4660052551474878,
                0.8225208889963087,
                1.1127542178950598,
                0.802494911471927,
                -0.30032967507781727
            ]
        },
        {
            "positions": [
                -2.125399743603335,
                -1.516487464671876,
                0.8263031694887473,
                1.1739479318683008,
                0.8290176785105601,
                -0.12450229926625234
            ]
        },
        {
            "positions": [
                -2.0694448234793614,
                -1.5669696741962642,
                0.8300854499811859,
                1.2351416458415416,
                0.8555404455491931,
                0.0513250765453126
            ]
        },
        {
            "positions": [
                -2.0134899033553877,
                -1.6174518837206524,
                0.8338677304736245,
                1.2963353598147824,
                0.882063212587826,
                0.22715245235687753
            ]
        },
        {
            "positions": [
                -1.9399930792559155,
                -1.6170023764264971,
                0.7320103379798859,
                1.1947250554545294,
                0.8568656914183113,
                0.3168954421146266
            ]
        },
        {
            "positions": [
                -1.866496255156443,
                -1.616552869132342,
                0.6301529454861472,
                1.0931147510942762,
                0.8316681702487965,
                0.40663843187237575
            ]
        },
        {
            "positions": [
                -1.7929994310569706,
                -1.6161033618381868,
                0.5282955529924086,
                0.9915044467340233,
                0.8064706490792817,
                0.4963814216301249
            ]
        },
        {
            "positions": [
                -1.7195026069574983,
                -1.6156538545440315,
                0.42643816049867,
                0.8898941423737701,
                0.7812731279097669,
                0.586124411387874
            ]
        },
        {
            "positions": [
                -1.6460057828580261,
                -1.6152043472498765,
                0.3245807680049314,
                0.7882838380135171,
                0.7560756067402521,
                0.675867401145623
            ]
        },
        {
            "positions": [
                -1.5725089587585537,
                -1.6147548399557212,
                0.2227233755111927,
                0.686673533653264,
                0.7308780855707373,
                0.7656103909033722
            ]
        },
        {
            "positions": [
                -1.4990121346590812,
                -1.614305332661566,
                0.1208659830174541,
                0.5850632292930109,
                0.7056805644012225,
                0.8553533806611213
            ]
        },
        {
            "positions": [
                -1.425515310559609,
                -1.613855825367411,
                0.019008590523715507,
                0.4834529249327578,
                0.6804830432317077,
                0.9450963704188704
            ]
        },
        {
            "positions": [
                -1.3520184864601368,
                -1.6134063180732556,
                -0.08284880197002309,
                0.38184262057250473,
                0.6552855220621929,
                1.0348393601766195
            ]
        },
        {
            "positions": [
                -1.2785216623606643,
                -1.6129568107791004,
                -0.18470619446376169,
                0.28023231621225175,
                0.6300880008926781,
                1.1245823499343686
            ]
        },
        {
            "positions": [
                -1.2050248382611919,
                -1.6125073034849453,
                -0.2865635869575004,
                0.17862201185199855,
                0.6048904797231633,
                1.2143253396921176
            ]
        },
        {
            "positions": [
                -1.1315280141617197,
                -1.61205779619079,
                -0.3884209794512391,
                0.07701170749174557,
                0.5796929585536484,
                1.304068329449867
            ]
        },
        {
            "positions": [
                -1.0580311900622474,
                -1.6116082888966348,
                -0.4902783719449776,
                -0.024598596868507627,
                0.5544954373841336,
                1.393811319207616
            ]
        },
        {
            "positions": [
                -0.984534365962775,
                -1.6111587816024797,
                -0.5921357644387163,
                -0.1262089012287606,
                0.5292979162146189,
                1.483554308965365
            ]
        },
        {
            "positions": [
                -0.9110375418633025,
                -1.6107092743083244,
                -0.6939931569324548,
                -0.2278192055890138,
                0.5041003950451041,
                1.5732972987231142
            ]
        },
        {
            "positions": [
                -0.8375407177638303,
                -1.6102597670141692,
                -0.7958505494261935,
                -0.3294295099492668,
                0.4789028738755893,
                1.6630402884808633
            ]
        },
        {
            "positions": [
                -0.7640438936643581,
                -1.6098102597200141,
                -0.8977079419199322,
                -0.43103981430951976,
                0.4537053527060745,
                1.7527832782386124
            ]
        },
        {
            "positions": [
                -0.6905470695648857,
                -1.6093607524258589,
                -0.9995653344136707,
                -0.532650118669773,
                0.4285078315365597,
                1.8425262679963614
            ]
        },
        {
            "positions": [
                -0.6170502454654132,
                -1.6089112451317038,
                -1.1014227269074093,
                -0.6342604230300259,
                0.4033103103670449,
                1.9322692577541105
            ]
        },
        {
            "positions": [
                -0.543553421365941,
                -1.6084617378375485,
                -1.203280119401148,
                -0.7358707273902789,
                0.3781127891975301,
                2.0220122475118596
            ]
        },
        {
            "positions": [
                -0.47005659726646876,
                -1.6080122305433933,
                -1.3051375118948867,
                -0.8374810317505323,
                0.3529152680280153,
                2.111755237269609
            ]
        },
        {
            "positions": [
                -0.3965597731669963,
                -1.6075627232492382,
                -1.4069949043886254,
                -0.9390913361107853,
                0.3277177468585005,
                2.2014982270273578
            ]
        },
        {
            "positions": [
                -0.32306294906752386,
                -1.607113215955083,
                -1.508852296882364,
                -1.0407016404710383,
                0.30252022568898573,
                2.291241216785107
            ]
        },
        {
            "positions": [
                -0.24956612496805164,
                -1.6066637086609277,
                -1.6107096893761028,
                -1.1423119448312913,
                0.27732270451947083,
                2.3809842065428564
            ]
        },
        {
            "positions": [
                -0.17606930086857941,
                -1.6062142013667726,
                -1.712567081869841,
                -1.2439222491915443,
                0.25212518334995604,
                2.4707271963006052
            ]
        },
        {
            "positions": [
                -0.10257247676910697,
                -1.6057646940726173,
                -1.8144244743635798,
                -1.3455325535517977,
                0.22692766218044125,
                2.5604701860583545
            ]
        },
        {
            "positions": [
                -0.029075652669634522,
                -1.605315186778462,
                -1.9162818668573185,
                -1.4471428579120507,
                0.20173014101092646,
                2.6502131758161034
            ]
        },
        {
            "positions": [
                0.0444211714298377,
                -1.604865679484307,
                -2.018139259351057,
                -1.5487531622723036,
                0.17653261984141166,
                2.7399561655738527
            ]
        },
        {
            "positions": [
                0.11791799552930993,
                -1.6044161721901518,
                -2.119996651844796,
                -1.6503634666325566,
                0.15133509867189687,
                2.8296991553316015
            ]
        },
        {
            "positions": [
                0.1914148196287826,
                -1.6039666648959965,
                -2.221854044338534,
                -1.75197377099281,
                0.12613757750238208,
                2.919442145089351
            ]
        },
        {
            "positions": [
                0.2649116437282548,
                -1.6035171576018414,
                -2.323711436832273,
                -1.853584075353063,
                0.10094005633286729,
                3.0091851348470997
            ]
        },
        {
            "positions": [
                0.3384084678277268,
                -1.6030676503076862,
                -2.4255688293260116,
                -1.955194379713316,
                0.0757425351633525,
                3.098928124604849
            ]
        },
        {
            "positions": [
                0.20795752299715617,
                -1.6382799952743616,
                -2.4099472227420544,
                -2.008719331202425,
                0.014380089053237767,
                3.1057310471227857
            ]
        },
        {
            "positions": [
                0.07750657816658552,
                -1.673492340241037,
                -2.3943256161580972,
                -2.062244282691535,
                -0.046982357056876964,
                3.1125339696407224
            ]
        },
        {
            "positions": [
                -0.052944366663985165,
                -1.7087046852077126,
                -2.3787040095741405,
                -2.115769234180644,
                -0.10834480316699169,
                3.1193368921586595
            ]
        },
        {
            "positions": [
                -0.18339531149455582,
                -1.743917030174388,
                -2.3630824029901834,
                -2.169294185669753,
                -0.16970724927710643,
                3.126139814676596
            ]
        }
    ]
}