{
    "goal": {
        "global_pose": {
            "orientation": {
                "w": -0.00223480608172531,
                "x": 0.0024358444001904467,
                "y": 0.7094548369677653,
                "z": -0.704743149386269
            },
            "position": {
                "x": -0.37947507619857795,
                "y": -0.6371506643295288,
                "z": 0.19426114857196808
            }
        },
        "name": "move_to_magneteinheit_C"
    },
    "id": "EST_move_to_magneteinheit_C_133",
    "joint_names": [
        "shoulder_pan_joint",
        "shoulder_lift_joint",
        "elbow_joint",
        "wrist_1_joint",
        "wrist_2_joint",
        "wrist_3_joint"
    ],
    "metrics": {
        "cart_traj_len": 0.8085995138424354,
        "distance_elbow_joint": 1.0642546124343357,
        "distance_shoulder_lift_joint": 0.6772478198970056,
        "distance_shoulder_pan_joint": 1.1767573520264512,
        "distance_wrist_1_joint": 0.5011615732175388,
        "distance_wrist_2_joint": 1.3773380316337764,
        "distance_wrist_3_joint": 1.3584271350192139,
        "smoothness": 1.2195714114029796,
        "time": 0.390161577,
        "traj_len": 2.480964837362336,
        "weighted_distance": 3.2788016712082575
    },
    "planner": "EST",
    "start": {
        "state": {
            "elbow_joint": 1.9565354010623817,
            "shoulder_lift_joint": -1.4165861575791021,
            "shoulder_pan_joint": -1.6717766225146293,
            "wrist_1_joint": -0.5286633292919765,
            "wrist_2_joint": 1.472756589071564,
            "wrist_3_joint": -3.1238370188695823
        }
    },
    "waypoints": [
        {
            "positions": [
                -1.6717766225146293,
                -1.4165861575791021,
                1.9565354010623817,
                -0.5286633292919765,
                1.472756589071564,
                -3.1238370188695823
            ]
        },
        {
            "positions": [
                -1.7707883543182519,
                -1.437780657567549,
                2.0124027745110977,
                -0.5187408209247368,
                1.3635918234369189,
                -3.0570319078451846
            ]
        },
        {
            "positions": [
                -1.8698000861218746,
                -1.4589751575559955,
                2.0682701479598133,
                -0.5088183125574972,
                1.2544270578022738,
                -2.9902267968207874
            ]
        },
        {
            "positions": [
                -1.9688118179254972,
                -1.4801696575444423,
                2.124137521408529,
                -0.49889580419025764,
                1.1452622921676288,
                -2.9234216857963897
            ]
        },
        {
            "positions": [
                -2.0678235497291197,
                -1.5013641575328889,
                2.180004894857245,
                -0.4889732958230181,
                1.0360975265329837,
                -2.856616574771992
            ]
        },
        {
            "positions": [
                -2.1668352815327423,
                -1.5225586575213357,
                2.235872268305961,
                -0.47905078745577845,
                0.9269327608983385,
                -2.7898114637475944
            ]
        },
        {
            "positions": [
                -2.265847013336365,
                -1.5437531575097825,
                2.2917396417546767,
                -0.4691282790885388,
                0.8177679952636935,
                -2.723006352723197
            ]
        },
        {
            "positions": [
                -2.364858745139988,
                -1.564947657498229,
                2.3476070152033923,
                -0.45920577072129926,
                0.7086032296290484,
                -2.6562012416987995
            ]
        },
        {
            "positions": [
                -2.4638704769436104,
                -1.5861421574866759,
                2.4034743886521084,
                -0.44928326235405963,
                0.5994384639944033,
                -2.5893961306744018
            ]
        },
        {
            "positions": [
                -2.562882208747233,
                -1.6073366574751224,
                2.4593417621008244,
                -0.43936075398682006,
                0.4902736983597582,
                -2.5225910196500045
            ]
        },
        {
            "positions": [
                -2.6618939405508555,
                -1.6285311574635692,
                2.51520913554954,
                -0.42943824561958044,
                0.3811089327251131,
                -2.455785908625607
            ]
        },
        {
            "positions": [
                -2.635231078552252,
                -1.5620593260332065,
                2.4429832958428004,
                -0.4868577441260294,
                0.42192184348044526,
                -2.5544110550220696
            ]
        },
        {
            "positions": [
                -2.6085682165536483,
                -1.495587494602844,
                2.3707574561360607,
                -0.5442772426324783,
                0.4627347542357775,
                -2.6530362014185322
            ]
        },
        {
            "positions": [
                -2.5819053545550448,
                -1.4291156631724813,
                2.298531616429321,
                -0.6016967411389273,
                0.5035476649911097,
                -2.751661347814995
            ]
        },
        {
            "positions": [
                -2.555242492556441,
                -1.3626438317421188,
                2.226305776722582,
                -0.6591162396453764,
                0.5443605757464418,
                -2.850286494211457
            ]
        },
        {
            "positions": [
                -2.5285796305578376,
                -1.296172000311756,
                2.154079937015842,
                -0.7165357381518254,
                0.5851734865017741,
                -2.94891164060792
            ]
        },
        {
            "positions": [
                -2.501916768559234,
                -1.2297001688813936,
                2.0818540973091024,
                -0.7739552366582743,
                0.6259863972571063,
                -3.0475367870043826
            ]
        },
        {
            "positions": [
                -2.4752539065606305,
                -1.1632283374510308,
                2.0096282576023627,
                -0.8313747351647233,
                0.6667993080124385,
                -3.1461619334008453
            ]
        }
    ]
}