{
    "goal": {
        "global_pose": {
            "orientation": {
                "w": -0.00223480608172531,
                "x": 0.0024358444001904467,
                "y": 0.7094548369677653,
                "z": -0.704743149386269
            },
            "position": {
                "x": -0.37947507619857795,
                "y": -0.6371506643295288,
                "z": 0.19426114857196808
            }
        },
        "name": "move_to_magneteinheit_C"
    },
    "id": "EST_move_to_magneteinheit_C_92",
    "joint_names": [
        "shoulder_pan_joint",
        "shoulder_lift_joint",
        "elbow_joint",
        "wrist_1_joint",
        "wrist_2_joint",
        "wrist_3_joint"
    ],
    "metrics": {
        "cart_traj_len": 3.676682248469081,
        "distance_elbow_joint": 0.35815118465932994,
        "distance_shoulder_lift_joint": 2.1730430760718384,
        "distance_shoulder_pan_joint": 5.571428201046506,
        "distance_wrist_1_joint": 0.7576039885305338,
        "distance_wrist_2_joint": 0.7861761230681761,
        "distance_wrist_3_joint": 2.6793494956440718,
        "smoothness": 1.0174128807198979,
        "time": 0.199496531,
        "traj_len": 3.5108050457153634,
        "weighted_distance": 4.385000703752202
    },
    "planner": "EST",
    "start": {
        "state": {
            "elbow_joint": 1.9565354010623817,
            "shoulder_lift_joint": -1.4165861575791021,
            "shoulder_pan_joint": -1.6717766225146293,
            "wrist_1_joint": -0.5286633292919765,
            "wrist_2_joint": 1.472756589071564,
            "wrist_3_joint": -3.1238370188695823
        }
    },
    "waypoints": [
        {
            "positions": [
                -1.6717766225146293,
                -1.4165861575791021,
                1.9565354010623817,
                -0.5286633292919765,
                1.472756589071564,
                -3.1238370188695823
            ]
        },
        {
            "positions": [
                -1.50135896558385,
                -1.485139080691205,
                1.9711398004351526,
                -0.512010949229883,
                1.4505068721208794,
                -3.0293457691118184
            ]
        },
        {
            "positions": [
                -1.3309413086530706,
                -1.5536920038033077,
                1.9857441998079237,
                -0.49535856916778964,
                1.4282571551701948,
                -2.9348545193540545
            ]
        },
        {
            "positions": [
                -1.1605236517222912,
                -1.6222449269154107,
                2.0003485991806946,
                -0.4787061891056962,
                1.4060074382195102,
                -2.840363269596291
            ]
        },
        {
            "positions": [
                -0.990105994791512,
                -1.6907978500275136,
                2.0149529985534658,
                -0.46205380904360277,
                1.3837577212688255,
                -2.745872019838527
            ]
        },
        {
            "positions": [
                -0.8196883378607326,
                -1.7593507731396163,
                2.0295573979262365,
                -0.44540142898150936,
                1.361508004318141,
                -2.6513807700807632
            ]
        },
        {
            "positions": [
                -0.6492706809299533,
                -1.8279036962517192,
                2.0441617972990076,
                -0.42874904891941595,
                1.3392582873674563,
                -2.5568895203229993
            ]
        },
        {
            "positions": [
                -0.47885302399917395,
                -1.8964566193638221,
                2.0587661966717787,
                -0.41209666885732255,
                1.3170085704167718,
                -2.4623982705652354
            ]
        },
        {
            "positions": [
                -0.3084353670683946,
                -1.9650095424759249,
                2.0733705960445494,
                -0.3954442887952291,
                1.2947588534660872,
                -2.3679070208074715
            ]
        },
        {
            "positions": [
                -0.1380177101376152,
                -2.0335624655880276,
                2.0879749954173206,
                -0.3787919087331357,
                1.2725091365154027,
                -2.2734157710497076
            ]
        },
        {
            "positions": [
                0.03239994679316416,
                -2.1021153887001307,
                2.1025793947900913,
                -0.36213952867104227,
                1.2502594195647179,
                -2.178924521291944
            ]
        },
        {
            "positions": [
                0.2028176037239433,
                -2.1706683118122334,
                2.1171837941628624,
                -0.3454871486089488,
                1.2280097026140333,
                -2.08443327153418
            ]
        },
        {
            "positions": [
                0.3732352606547227,
                -2.239221234924336,
                2.1317881935356335,
                -0.32883476854685545,
                1.2057599856633487,
                -1.9899420217764163
            ]
        },
        {
            "positions": [
                0.5436529175855023,
                -2.3077741580364393,
                2.1463925929084042,
                -0.312182388484762,
                1.1835102687126642,
                -1.8954507720186524
            ]
        },
        {
            "positions": [
                0.7140705745162814,
                -2.376327081148542,
                2.1609969922811754,
                -0.2955300084226686,
                1.1612605517619796,
                -1.8009595222608885
            ]
        },
        {
            "positions": [
                0.5370938520709706,
                -2.30892140600952,
                2.152458681534479,
                -0.32466726773718113,
                1.1348894358865023,
                -1.876319077762854
            ]
        },
        {
            "positions": [
                0.3601171296256598,
                -2.2415157308704976,
                2.1439203707877823,
                -0.3538045270516937,
                1.108518320011025,
                -1.9516786332648195
            ]
        },
        {
            "positions": [
                0.18314040718034896,
                -2.1741100557314756,
                2.1353820600410858,
                -0.38294178636620624,
                1.0821472041355475,
                -2.027038188766785
            ]
        },
        {
            "positions": [
                0.006163684735038144,
                -2.1067043805924532,
                2.1268437492943897,
                -0.41207904568071874,
                1.0557760882600704,
                -2.1023977442687505
            ]
        },
        {
            "positions": [
                -0.17081303771027279,
                -2.0392987054534313,
                2.118305438547693,
                -0.44121630499523135,
                1.029404972384593,
                -2.1777572997707155
            ]
        },
        {
            "positions": [
                -0.3477897601555835,
                -1.9718930303144089,
                2.1097671278009966,
                -0.47035356430974384,
                1.0030338565091157,
                -2.253116855272681
            ]
        },
        {
            "positions": [
                -0.5247664826008944,
                -1.9044873551753867,
                2.1012288170543,
                -0.49949082362425645,
                0.9766627406336383,
                -2.3284764107746465
            ]
        },
        {
            "positions": [
                -0.7017432050462051,
                -1.8370816800363645,
                2.0926905063076036,
                -0.528628082938769,
                0.9502916247581611,
                -2.403835966276612
            ]
        },
        {
            "positions": [
                -0.8787199274915161,
                -1.7696760048973426,
                2.0841521955609075,
                -0.5577653422532816,
                0.9239205088826837,
                -2.4791955217785775
            ]
        },
        {
            "positions": [
                -1.055696649936827,
                -1.7022703297583202,
                2.075613884814211,
                -0.5869026015677941,
                0.8975493930072064,
                -2.554555077280543
            ]
        },
        {
            "positions": [
                -1.232673372382138,
                -1.6348646546192982,
                2.0670755740675144,
                -0.6160398608823066,
                0.8711782771317291,
                -2.6299146327825085
            ]
        },
        {
            "positions": [
                -1.4096500948274484,
                -1.567458979480276,
                2.058537263320818,
                -0.645177120196819,
                0.8448071612562518,
                -2.7052741882844735
            ]
        },
        {
            "positions": [
                -1.5866268172727593,
                -1.5000533043412538,
                2.0499989525741213,
                -0.6743143795113317,
                0.8184360453807744,
                -2.7806337437864395
            ]
        },
        {
            "positions": [
                -1.7636035397180703,
                -1.4326476292022314,
                2.041460641827425,
                -0.7034516388258443,
                0.792064929505297,
                -2.8559932992884045
            ]
        },
        {
            "positions": [
                -1.9405802621633812,
                -1.3652419540632095,
                2.0329223310807283,
                -0.7325888981403568,
                0.7656938136298198,
                -2.9313528547903704
            ]
        },
        {
            "positions": [
                -2.117556984608692,
                -1.2978362789241873,
                2.024384020334032,
                -0.7617261574548693,
                0.7393226977543426,
                -3.0067124102923355
            ]
        },
        {
            "positions": [
                -2.2945337070540024,
                -1.2304306037851651,
                2.0158457095873357,
                -0.7908634167693819,
                0.7129515818788652,
                -3.082071965794301
            ]
        },
        {
            "positions": [
                -2.4715104294993138,
                -1.163024928646143,
                2.007307398840639,
                -0.8200006760838945,
                0.6865804660033878,
                -3.1574315212962665
            ]
        }
    ]
}