{
    "goal": {
        "global_pose": {
            "orientation": {
                "w": -0.4816463035849501,
                "x": 0.5182115481033762,
                "y": 0.4908360881923453,
                "z": -0.5084816262002911
            },
            "position": {
                "x": -0.8240239810943604,
                "y": -0.300875300988555,
                "z": 0.16403168439865112
            }
        },
        "name": "move_to_storage_C"
    },
    "id": "EST_move_to_storage_C_101",
    "joint_names": [
        "shoulder_pan_joint",
        "shoulder_lift_joint",
        "elbow_joint",
        "wrist_1_joint",
        "wrist_2_joint",
        "wrist_3_joint"
    ],
    "metrics": {
        "cart_traj_len": 0.5764782532165289,
        "distance_elbow_joint": 0.2588147272742942,
        "distance_shoulder_lift_joint": 0.1890001316748683,
        "distance_shoulder_pan_joint": 0.49446927662626283,
        "distance_wrist_1_joint": 0.08254183702903517,
        "distance_wrist_2_joint": 1.0689232654264775,
        "distance_wrist_3_joint": 0.05633122629329668,
        "smoothness": 2.5376526478085547e-16,
        "time": 0.020553062,
        "traj_len": 1.4663152677116318,
        "weighted_distance": 1.8477575650951454
    },
    "planner": "EST",
    "start": {
        "state": {
            "elbow_joint": 2.010868314990456,
            "shoulder_lift_joint": -1.1634956873337592,
            "shoulder_pan_joint": -2.4736205022346125,
            "wrist_1_joint": -0.8367026794202681,
            "wrist_2_joint": 0.6746043897044499,
            "wrist_3_joint": -3.1496632123970403
        }
    },
    "waypoints": [
        {
            "positions": [
                -2.4736205022346125,
                -1.1634956873337592,
                2.010868314990456,
                -0.8367026794202681,
                0.6746043897044499,
                -3.1496632123970403
            ]
        },
        {
            "positions": [
                -2.55603204833899,
                -1.1319956653879477,
                1.9677325271114068,
                -0.8229457065820955,
                0.8527582672755295,
                -3.140274674681491
            ]
        },
        {
            "positions": [
                -2.6384435944433666,
                -1.1004956434421365,
                1.9245967392323577,
                -0.8091887337439231,
                1.0309121448466092,
                -3.1308861369659415
            ]
        },
        {
            "positions": [
                -2.720855140547744,
                -1.068995621496325,
                1.8814609513533087,
                -0.7954317609057505,
                1.2090660224176886,
                -3.121497599250392
            ]
        },
        {
            "positions": [
                -2.803266686652121,
                -1.0374955995505137,
                1.8383251634742597,
                -0.781674788067578,
                1.3872198999887684,
                -3.1121090615348423
            ]
        },
        {
            "positions": [
                -2.885678232756498,
                -1.0059955776047023,
                1.7951893755952106,
                -0.7679178152294055,
                1.5653737775598477,
                -3.102720523819293
            ]
        },
        {
            "positions": [
                -2.9680897788608753,
                -0.9744955556588909,
                1.7520535877161616,
                -0.7541608423912329,
                1.7435276551309276,
                -3.0933319861037436
            ]
        }
    ]
}