{
    "goal": {
        "global_pose": {
            "orientation": {
                "w": -0.00223480608172531,
                "x": 0.0024358444001904467,
                "y": 0.7094548369677653,
                "z": -0.704743149386269
            },
            "position": {
                "x": -0.37947507619857795,
                "y": -0.6371506643295288,
                "z": 0.19426114857196808
            }
        },
        "name": "move_to_magneteinheit_C"
    },
    "id": "EST_move_to_magneteinheit_C_120",
    "joint_names": [
        "shoulder_pan_joint",
        "shoulder_lift_joint",
        "elbow_joint",
        "wrist_1_joint",
        "wrist_2_joint",
        "wrist_3_joint"
    ],
    "metrics": {
        "cart_traj_len": 3.7870038186124995,
        "distance_elbow_joint": 0.9420801796610148,
        "distance_shoulder_lift_joint": 1.9319932680051832,
        "distance_shoulder_pan_joint": 6.83865437551267,
        "distance_wrist_1_joint": 2.9331441502722155,
        "distance_wrist_2_joint": 3.301665768308361,
        "distance_wrist_3_joint": 4.026372941381532,
        "smoothness": 0.4023878508704201,
        "time": 0.807828045,
        "traj_len": 4.4692181288387545,
        "weighted_distance": 5.853329521262631
    },
    "planner": "EST",
    "start": {
        "state": {
            "elbow_joint": 1.9565354010623817,
            "shoulder_lift_joint": -1.4165861575791021,
            "shoulder_pan_joint": -1.6717766225146293,
            "wrist_1_joint": -0.5286633292919765,
            "wrist_2_joint": 1.472756589071564,
            "wrist_3_joint": -3.1238370188695823
        }
    },
    "waypoints": [
        {
            "positions": [
                -1.6717766225146293,
                -1.4165861575791021,
                1.9565354010623817,
                -0.5286633292919765,
                1.472756589071564,
                -3.1238370188695823
            ]
        },
        {
            "positions": [
                -1.5345461346402103,
                -1.4462022140722044,
                1.979531785473374,
                -0.5400384128936554,
                1.4988519080259537,
                -2.961136323984113
            ]
        },
        {
            "positions": [
                -1.3973156467657912,
                -1.475818270565307,
                2.0025281698843664,
                -0.5514134964953342,
                1.5249472269803432,
                -2.7984356290986434
            ]
        },
        {
            "positions": [
                -1.2600851588913722,
                -1.5054343270584094,
                2.0255245542953593,
                -0.5627885800970132,
                1.551042545934733,
                -2.635734934213174
            ]
        },
        {
            "positions": [
                -1.122854671016953,
                -1.5350503835515117,
                2.0485209387063517,
                -0.5741636636986921,
                1.5771378648891226,
                -2.4730342393277045
            ]
        },
        {
            "positions": [
                -0.985624183142534,
                -1.564666440044614,
                2.071517323117344,
                -0.5855387473003709,
                1.6032331838435123,
                -2.3103335444422353
            ]
        },
        {
            "positions": [
                -0.8483936952681149,
                -1.5942824965377165,
                2.0945137075283364,
                -0.5969138309020499,
                1.6293285027979019,
                -2.147632849556766
            ]
        },
        {
            "positions": [
                -0.7111632073936959,
                -1.623898553030819,
                2.1175100919393293,
                -0.6082889145037288,
                1.6554238217522916,
                -1.9849321546712964
            ]
        },
        {
            "positions": [
                -0.5739327195192767,
                -1.6535146095239213,
                2.1405064763503217,
                -0.6196639981054077,
                1.6815191407066812,
                -1.822231459785827
            ]
        },
        {
            "positions": [
                -0.43670223164485766,
                -1.6831306660170235,
                2.163502860761314,
                -0.6310390817070866,
                1.707614459661071,
                -1.6595307649003574
            ]
        },
        {
            "positions": [
                -0.2994717437704386,
                -1.712746722510126,
                2.1864992451723064,
                -0.6424141653087655,
                1.7337097786154607,
                -1.4968300700148882
            ]
        },
        {
            "positions": [
                -0.16224125589601956,
                -1.7423627790032286,
                2.209495629583299,
                -0.6537892489104444,
                1.7598050975698503,
                -1.3341293751294188
            ]
        },
        {
            "positions": [
                -0.025010768021600516,
                -1.7719788354963308,
                2.2324920139942916,
                -0.6651643325121233,
                1.7859004165242398,
                -1.1714286802439495
            ]
        },
        {
            "positions": [
                0.11221971985281876,
                -1.8015948919894331,
                2.255488398405284,
                -0.6765394161138022,
                1.8119957354786296,
                -1.0087279853584796
            ]
        },
        {
            "positions": [
                0.24945020772723758,
                -1.8312109484825356,
                2.2784847828162764,
                -0.6879144997154811,
                1.8380910544330193,
                -0.8460272904730104
            ]
        },
        {
            "positions": [
                0.38668069560165663,
                -1.860827004975638,
                2.301481167227269,
                -0.69928958331716,
                1.864186373387409,
                -0.6833265955875412
            ]
        },
        {
            "positions": [
                0.5239111834760759,
                -1.8904430614687404,
                2.3244775516382616,
                -0.7106646669188389,
                1.8902816923417987,
                -0.5206259007020715
            ]
        },
        {
            "positions": [
                0.6611416713504947,
                -1.9200591179618427,
                2.347473936049254,
                -0.7220397505205178,
                1.9163770112961882,
                -0.35792520581660225
            ]
        },
        {
            "positions": [
                0.798372159224914,
                -1.9496751744549452,
                2.3704703204602464,
                -0.7334148341221967,
                1.942472330250578,
                -0.19522451093113258
            ]
        },
        {
            "positions": [
                0.9356026470993328,
                -1.9792912309480477,
                2.393466704871239,
                -0.7447899177238756,
                1.9685676492049677,
                -0.032523816045663345
            ]
        },
        {
            "positions": [
                1.072833134973752,
                -2.0089072874411498,
                2.4164630892822316,
                -0.7561650013255545,
                1.9946629681593573,
                0.1301768788398059
            ]
        },
        {
            "positions": [
                1.2100636228481714,
                -2.0385233439342523,
                2.439459473693224,
                -0.7675400849272334,
                2.020758287113747,
                0.29287757372527556
            ]
        },
        {
            "positions": [
                1.3472941107225904,
                -2.068139400427355,
                2.4624558581042164,
                -0.7789151685289123,
                2.0468536060681366,
                0.45557826861074474
            ]
        },
        {
            "positions": [
                1.2155843299544715,
                -2.0239862961115986,
                2.4474158676690725,
                -0.6864016405621785,
                1.9527995111953163,
                0.4401659357175998
            ]
        },
        {
            "positions": [
                1.0838745491863526,
                -1.9798331917958423,
                2.432375877233928,
                -0.5938881125954447,
                1.8587454163224961,
                0.4247536028244549
            ]
        },
        {
            "positions": [
                0.9521647684182336,
                -1.9356800874800861,
                2.417335886798784,
                -0.501374584628711,
                1.7646913214496758,
                0.4093412699313099
            ]
        },
        {
            "positions": [
                0.8204549876501147,
                -1.8915269831643298,
                2.40229589636364,
                -0.40886105666197714,
                1.6706372265768554,
                0.393928937038165
            ]
        },
        {
            "positions": [
                0.6887452068819957,
                -1.8473738788485736,
                2.387255905928496,
                -0.3163475286952433,
                1.576583131704035,
                0.3785166041450201
            ]
        },
        {
            "positions": [
                0.5570354261138768,
                -1.8032207745328175,
                2.3722159154933515,
                -0.22383400072850956,
                1.482529036831215,
                0.36310427125187517
            ]
        },
        {
            "positions": [
                0.4253256453457579,
                -1.7590676702170611,
                2.3571759250582076,
                -0.13132047276177572,
                1.3884749419583946,
                0.34769193835873025
            ]
        },
        {
            "positions": [
                0.293615864577639,
                -1.714914565901305,
                2.3421359346230632,
                -0.03880694479504199,
                1.2944208470855743,
                0.3322796054655853
            ]
        },
        {
            "positions": [
                0.1619060838095201,
                -1.6707614615855486,
                2.3270959441879193,
                0.05370658317169186,
                1.2003667522127541,
                0.3168672725724404
            ]
        },
        {
            "positions": [
                0.030196303041400974,
                -1.6266083572697925,
                2.312055953752775,
                0.1462201111384257,
                1.1063126573399338,
                0.30145493967929543
            ]
        },
        {
            "positions": [
                -0.1015134777267177,
                -1.5824552529540363,
                2.297015963317631,
                0.23873363910515943,
                1.0122585624671137,
                0.28604260678615057
            ]
        },
        {
            "positions": [
                -0.23322325849483683,
                -1.5383021486382802,
                2.2819759728824867,
                0.33124716707189317,
                0.9182044675942933,
                0.2706302738930056
            ]
        },
        {
            "positions": [
                -0.3649330392629557,
                -1.4941490443225238,
                2.2669359824473427,
                0.4237606950386271,
                0.824150372721473,
                0.2552179409998606
            ]
        },
        {
            "positions": [
                -0.4966428200310746,
                -1.4499959400067675,
                2.2518959920121984,
                0.5162742230053609,
                0.7300962778486526,
                0.23980560810671572
            ]
        },
        {
            "positions": [
                -0.6283526007991938,
                -1.4058428356910113,
                2.2368560015770544,
                0.6087877509720948,
                0.6360421829758323,
                0.22439327521357078
            ]
        },
        {
            "positions": [
                -0.7600623815673124,
                -1.3616897313752552,
                2.22181601114191,
                0.7013012789388283,
                0.5419880881030121,
                0.20898094232042588
            ]
        },
        {
            "positions": [
                -0.8917721623354313,
                -1.317536627059499,
                2.206776020706766,
                0.793814806905562,
                0.447933993230192,
                0.19356860942728094
            ]
        },
        {
            "positions": [
                -1.0234819431035502,
                -1.2733835227437427,
                2.191736030271622,
                0.886328334872296,
                0.35387989835737144,
                0.17815627653413602
            ]
        },
        {
            "positions": [
                -1.1551917238716691,
                -1.2292304184279865,
                2.176696039836478,
                0.9788418628390297,
                0.2598258034845513,
                0.1627439436409911
            ]
        },
        {
            "positions": [
                -1.2869015046397885,
                -1.1850773141122302,
                2.1616560494013335,
                1.0713553908057638,
                0.16577170861173096,
                0.14733161074784612
            ]
        },
        {
            "positions": [
                -1.418611285407907,
                -1.140924209796474,
                2.1466160589661896,
                1.1638689187724975,
                0.07171761373891061,
                0.1319192778547012
            ]
        },
        {
            "positions": [
                -1.5503210661760258,
                -1.0967711054807179,
                2.131576068531045,
                1.2563824467392313,
                -0.02233648113390929,
                0.11650694496155634
            ]
        },
        {
            "positions": [
                -1.6820308469441452,
                -1.0526180011649615,
                2.1165360780959013,
                1.348895974705965,
                -0.11639057600672986,
                0.10109461206841136
            ]
        },
        {
            "positions": [
                -1.813740627712264,
                -1.0084648968492054,
                2.101496087660757,
                1.4414095026726987,
                -0.21044467087955,
                0.08568227917526644
            ]
        },
        {
            "positions": [
                -1.9454504084803825,
                -0.9643117925334492,
                2.086456097225613,
                1.5339230306394325,
                -0.3044987657523701,
                0.07026994628212152
            ]
        },
        {
            "positions": [
                -2.077160189248502,
                -0.9201586882176929,
                2.0714161067904686,
                1.6264365586061666,
                -0.3985528606251907,
                0.054857613388976545
            ]
        },
        {
            "positions": [
                -2.2088699700166208,
                -0.8760055839019367,
                2.0563761163553247,
                1.7189500865729004,
                -0.4926069554980108,
                0.03944528049583168
            ]
        },
        {
            "positions": [
                -2.3405797507847397,
                -0.8318524795861804,
                2.0413361259201803,
                1.8114636145396341,
                -0.5866610503708314,
                0.024032947602686705
            ]
        },
        {
            "positions": [
                -2.4722895315528586,
                -0.7876993752704242,
                2.0262961354850364,
                1.9039771425063676,
                -0.6807151452436515,
                0.00862061470954181
            ]
        }
    ]
}