{
    "goal": {
        "global_pose": {
            "orientation": {
                "w": 0.005598929693374612,
                "x": 0.007748599140229565,
                "y": 0.7110244013736278,
                "z": -0.7031023480610252
            },
            "position": {
                "x": 0.1141497679147869,
                "y": -0.7141253447532654,
                "z": 0.3711530566215515
            }
        },
        "name": "move_to_auspresseinheit_B"
    },
    "id": "EST_move_to_auspresseinheit_B_109",
    "joint_names": [
        "shoulder_pan_joint",
        "shoulder_lift_joint",
        "elbow_joint",
        "wrist_1_joint",
        "wrist_2_joint",
        "wrist_3_joint"
    ],
    "metrics": {
        "cart_traj_len": 0.5652337366400698,
        "distance_elbow_joint": 0.06356661534143915,
        "distance_shoulder_lift_joint": 0.2939713462055027,
        "distance_shoulder_pan_joint": 0.5760672520326113,
        "distance_wrist_1_joint": 0.3285137799748796,
        "distance_wrist_2_joint": 1.0029707106606571,
        "distance_wrist_3_joint": 0.007238678464827952,
        "smoothness": 2.5376526478085547e-16,
        "time": 0.013132172000000001,
        "traj_len": 1.507424420221431,
        "weighted_distance": 1.9021803884608608
    },
    "planner": "EST",
    "start": {
        "state": {
            "elbow_joint": 2.0193083361928714,
            "shoulder_lift_joint": -1.1220246554650708,
            "shoulder_pan_joint": -1.0952077554168747,
            "wrist_1_joint": -0.8559753972642168,
            "wrist_2_joint": 0.4759566250798843,
            "wrist_3_joint": -3.1240929996934557
        }
    },
    "waypoints": [
        {
            "positions": [
                -1.0952077554168747,
                -1.1220246554650708,
                2.0193083361928714,
                -0.8559753972642168,
                0.4759566250798843,
                -3.1240929996934557
            ]
        },
        {
            "positions": [
                -1.1912189640889765,
                -1.1710198798326545,
                2.0087139003026317,
                -0.8012231006017368,
                0.6431184101899938,
                -3.122886553282651
            ]
        },
        {
            "positions": [
                -1.2872301727610784,
                -1.2200151042002383,
                1.9981194644123916,
                -0.7464708039392569,
                0.8102801953001033,
                -3.1216801068718465
            ]
        },
        {
            "positions": [
                -1.3832413814331803,
                -1.269010328567822,
                1.987525028522152,
                -0.691718507276777,
                0.9774419804102128,
                -3.120473660461042
            ]
        },
        {
            "positions": [
                -1.4792525901052822,
                -1.318005552935406,
                1.976930592631912,
                -0.636966210614297,
                1.1446037655203223,
                -3.119267214050237
            ]
        },
        {
            "positions": [
                -1.575263798777384,
                -1.3670007773029897,
                1.9663361567416722,
                -0.5822139139518171,
                1.311765550630432,
                -3.1180607676394323
            ]
        },
        {
            "positions": [
                -1.671275007449486,
                -1.4159960016705735,
                1.9557417208514323,
                -0.5274616172893372,
                1.4789273357405415,
                -3.1168543212286277
            ]
        }
    ]
}