{
    "goal": {
        "global_pose": {
            "orientation": {
                "w": 0.7031023480610252,
                "x": -0.7110244013736278,
                "y": 0.0077485991402295624,
                "z": 0.005598929693374583
            },
            "position": {
                "x": -0.8841497679147869,
                "y": 0.44412534475326537,
                "z": 0.3711530566215515
            }
        },
        "name": "move_to_auspresseinheit_D"
    },
    "id": "EST_move_to_auspresseinheit_D_69",
    "joint_names": [
        "shoulder_pan_joint",
        "shoulder_lift_joint",
        "elbow_joint",
        "wrist_1_joint",
        "wrist_2_joint",
        "wrist_3_joint"
    ],
    "metrics": {
        "cart_traj_len": 0.34301201272170667,
        "distance_elbow_joint": 0.6345493953343704,
        "distance_shoulder_lift_joint": 0.11920898240102451,
        "distance_shoulder_pan_joint": 0.13421783995143233,
        "distance_wrist_1_joint": 0.5228641865640213,
        "distance_wrist_2_joint": 1.4326874222605308,
        "distance_wrist_3_joint": 0.008321920855959952,
        "smoothness": 1.9737298371844314e-16,
        "time": 0.201504455,
        "traj_len": 1.6887420606378405,
        "weighted_distance": 2.1963709153746804
    },
    "planner": "EST",
    "start": {
        "state": {
            "elbow_joint": -1.8275523626775212,
            "shoulder_lift_joint": -2.126789852344167,
            "shoulder_pan_joint": -0.03513704404078235,
            "wrist_1_joint": -2.347782403156801,
            "wrist_2_joint": -1.6058999987535132,
            "wrist_3_joint": -3.0880379163319196
        }
    },
    "waypoints": [
        {
            "positions": [
                -0.03513704404078235,
                -2.126789852344167,
                -1.8275523626775212,
                -2.347782403156801,
                -1.6058999987535132,
                -3.0880379163319196
            ]
        },
        {
            "positions": [
                -0.05191427403471139,
                -2.1416909751442947,
                -1.7482336882607248,
                -2.4131404264773035,
                -1.426814070970947,
                -3.0890781564389145
            ]
        },
        {
            "positions": [
                -0.06869150402864044,
                -2.156592097944423,
                -1.6689150138439286,
                -2.478498449797806,
                -1.2477281431883804,
                -3.0901183965459094
            ]
        },
        {
            "positions": [
                -0.08546873402256946,
                -2.171493220744551,
                -1.5895963394271324,
                -2.543856473118309,
                -1.0686422154058142,
                -3.0911586366529047
            ]
        },
        {
            "positions": [
                -0.10224596401649852,
                -2.186394343544679,
                -1.510277665010336,
                -2.6092144964388115,
                -0.8895562876232478,
                -3.0921988767598996
            ]
        },
        {
            "positions": [
                -0.11902319401042755,
                -2.201295466344807,
                -1.4309589905935396,
                -2.674572519759314,
                -0.7104703598406814,
                -3.0932391168668945
            ]
        },
        {
            "positions": [
                -0.1358004240043566,
                -2.216196589144935,
                -1.3516403161767434,
                -2.739930543079817,
                -0.5313844320581151,
                -3.09427935697389
            ]
        },
        {
            "positions": [
                -0.15257765399828563,
                -2.2310977119450635,
                -1.2723216417599472,
                -2.8052885664003195,
                -0.35229850427554865,
                -3.0953195970808847
            ]
        },
        {
            "positions": [
                -0.16935488399221468,
                -2.2459988347451914,
                -1.1930029673431508,
                -2.870646589720822,
                -0.1732125764929823,
                -3.0963598371878795
            ]
        }
    ]
}