{
    "goal": {
        "global_pose": {
            "orientation": {
                "w": 0.7047431468963623,
                "x": -0.7094548344612122,
                "y": 0.0024358443915843964,
                "z": -0.0022348060738295317
            },
            "position": {
                "x": 0.6094750761985779,
                "y": 0.3671506643295288,
                "z": 0.19426114857196808
            }
        },
        "name": "move_to_magneteinheit_A"
    },
    "id": "EST_move_to_magneteinheit_A_74",
    "joint_names": [
        "shoulder_pan_joint",
        "shoulder_lift_joint",
        "elbow_joint",
        "wrist_1_joint",
        "wrist_2_joint",
        "wrist_3_joint"
    ],
    "metrics": {
        "cart_traj_len": 4.097222371101392,
        "distance_elbow_joint": 3.8810439110733883,
        "distance_shoulder_lift_joint": 0.6933278515185699,
        "distance_shoulder_pan_joint": 3.2823270997543017,
        "distance_wrist_1_joint": 1.138407597388702,
        "distance_wrist_2_joint": 1.767488848487287,
        "distance_wrist_3_joint": 2.6020778179743407,
        "smoothness": 0.3039554393716023,
        "time": 0.35205453600000003,
        "traj_len": 3.6557725758308033,
        "weighted_distance": 4.634082995374733
    },
    "planner": "EST",
    "start": {
        "state": {
            "elbow_joint": -1.9196185241190666,
            "shoulder_lift_joint": -1.2443396400964142,
            "shoulder_pan_joint": 2.6996025414629847,
            "wrist_1_joint": -1.5485510000780065,
            "wrist_2_joint": -1.5709468930060704,
            "wrist_3_joint": 0.4420197071253992
        }
    },
    "waypoints": [
        {
            "positions": [
                2.6996025414629847,
                -1.2443396400964142,
                -1.9196185241190666,
                -1.5485510000780065,
                -1.5709468930060704,
                0.4420197071253992
            ]
        },
        {
            "positions": [
                2.601968331184515,
                -1.2309499109214705,
                -1.8142471672642817,
                -1.5159163380435088,
                -1.5130669859574477,
                0.5183594756846933
            ]
        },
        {
            "positions": [
                2.5043341209060457,
                -1.2175601817465267,
                -1.7088758104094968,
                -1.483281676009011,
                -1.4551870789088253,
                0.5946992442439875
            ]
        },
        {
            "positions": [
                2.4066999106275757,
                -1.204170452571583,
                -1.6035044535547116,
                -1.4506470139745133,
                -1.3973071718602026,
                0.6710390128032816
            ]
        },
        {
            "positions": [
                2.309065700349106,
                -1.1907807233966392,
                -1.4981330966999267,
                -1.4180123519400156,
                -1.3394272648115801,
                0.7473787813625757
            ]
        },
        {
            "positions": [
                2.2114314900706367,
                -1.1773909942216956,
                -1.3927617398451417,
                -1.385377689905518,
                -1.2815473577629575,
                0.8237185499218699
            ]
        },
        {
            "positions": [
                2.113797279792167,
                -1.164001265046752,
                -1.2873903829903566,
                -1.3527430278710202,
                -1.2236674507143348,
                0.900058318481164
            ]
        },
        {
            "positions": [
                2.016163069513697,
                -1.150611535871808,
                -1.1820190261355719,
                -1.3201083658365225,
                -1.1657875436657124,
                0.9763980870404582
            ]
        },
        {
            "positions": [
                1.9185288592352276,
                -1.1372218066968645,
                -1.0766476692807867,
                -1.287473703802025,
                -1.1079076366170897,
                1.0527378555997524
            ]
        },
        {
            "positions": [
                1.8208946489567581,
                -1.1238320775219206,
                -0.9712763124260019,
                -1.2548390417675273,
                -1.050027729568467,
                1.1290776241590463
            ]
        },
        {
            "positions": [
                1.7232604386782886,
                -1.110442348346977,
                -0.8659049555712168,
                -1.2222043797330295,
                -0.9921478225198446,
                1.2054173927183407
            ]
        },
        {
            "positions": [
                1.6256262283998189,
                -1.0970526191720333,
                -0.7605335987164319,
                -1.1895697176985318,
                -0.934267915471222,
                1.2817571612776346
            ]
        },
        {
            "positions": [
                1.527992018121349,
                -1.0836628899970895,
                -0.6551622418616467,
                -1.156935055664034,
                -0.8763880084225993,
                1.358096929836929
            ]
        },
        {
            "positions": [
                1.4303578078428796,
                -1.0702731608221459,
                -0.5497908850068618,
                -1.1243003936295364,
                -0.8185081013739768,
                1.434436698396223
            ]
        },
        {
            "positions": [
                1.3327235975644098,
                -1.056883431647202,
                -0.44441952815207686,
                -1.0916657315950387,
                -0.7606281943253542,
                1.5107764669555173
            ]
        },
        {
            "positions": [
                1.2350893872859403,
                -1.0434937024722584,
                -0.3390481712972919,
                -1.059031069560541,
                -0.7027482872767317,
                1.5871162355148112
            ]
        },
        {
            "positions": [
                1.1374551770074708,
                -1.0301039732973147,
                -0.23367681444250699,
                -1.0263964075260432,
                -0.6448683802281091,
                1.6634560040741055
            ]
        },
        {
            "positions": [
                1.039820966729001,
                -1.0167142441223709,
                -0.12830545758772205,
                -0.9937617454915455,
                -0.5869884731794865,
                1.7397957726333995
            ]
        },
        {
            "positions": [
                0.9421867564505315,
                -1.0033245149474272,
                -0.022934100732937113,
                -0.9611270834570478,
                -0.5291085661308639,
                1.8161355411926938
            ]
        },
        {
            "positions": [
                0.844552546172062,
                -0.9899347857724835,
                0.08243725612184782,
                -0.9284924214225501,
                -0.47122865908224143,
                1.8924753097519877
            ]
        },
        {
            "positions": [
                0.7469183358935922,
                -0.9765450565975398,
                0.18780861297663298,
                -0.8958577593880523,
                -0.41334875203361876,
                1.968815078311282
            ]
        },
        {
            "positions": [
                0.6492841256151225,
                -0.9631553274225961,
                0.2931799698314177,
                -0.8632230973535546,
                -0.3554688449849963,
                2.045154846870576
            ]
        },
        {
            "positions": [
                0.551649915336653,
                -0.9497655982476523,
                0.39855132668620286,
                -0.830588435319057,
                -0.29758893793637364,
                2.12149461542987
            ]
        },
        {
            "positions": [
                0.454015705058183,
                -0.9363758690727086,
                0.503922683540988,
                -0.7979537732845592,
                -0.23970903088775097,
                2.1978343839891648
            ]
        },
        {
            "positions": [
                0.3563814947797135,
                -0.9229861398977648,
                0.6092940403957732,
                -0.7653191112500615,
                -0.1818291238391283,
                2.2741741525484587
            ]
        },
        {
            "positions": [
                0.25874728450124396,
                -0.9095964107228212,
                0.7146653972505579,
                -0.7326844492155637,
                -0.12394921679050586,
                2.3505139211077526
            ]
        },
        {
            "positions": [
                0.16111307422277443,
                -0.8962066815478774,
                0.820036754105343,
                -0.700049787181066,
                -0.06606930974188319,
                2.426853689667047
            ]
        },
        {
            "positions": [
                0.06347886394430491,
                -0.8828169523729337,
                0.9254081109601278,
                -0.6674151251465684,
                -0.008189402693260739,
                2.5031934582263413
            ]
        },
        {
            "positions": [
                -0.03415534633416506,
                -0.86942722319799,
                1.030779467814913,
                -0.6347804631120707,
                0.04969050435536193,
                2.5795332267856352
            ]
        },
        {
            "positions": [
                -0.13178955661263458,
                -0.8560374940230463,
                1.1361508246696976,
                -0.602145801077573,
                0.10757041140398438,
                2.6558729953449296
            ]
        },
        {
            "positions": [
                -0.22942376689110405,
                -0.8426477648481026,
                1.241522181524483,
                -0.5695111390430753,
                0.16545031845260705,
                2.7322127639042235
            ]
        },
        {
            "positions": [
                -0.1587636086110613,
                -0.9009749601021542,
                1.3855028226104509,
                -0.6013846863138295,
                0.1592319910468851,
                2.7945897161433266
            ]
        },
        {
            "positions": [
                -0.0881034503310186,
                -0.9593021553562059,
                1.5294834636964185,
                -0.6332582335845836,
                0.15301366364116314,
                2.85696666838243
            ]
        },
        {
            "positions": [
                -0.01744329205097586,
                -1.0176293506102576,
                1.6734641047823864,
                -0.6651317808553378,
                0.1467953362354412,
                2.9193436206215333
            ]
        },
        {
            "positions": [
                0.05321686622906685,
                -1.0759565458643092,
                1.8174447458683543,
                -0.697005328126092,
                0.14057700882971924,
                2.981720572860637
            ]
        },
        {
            "positions": [
                0.1238770245091096,
                -1.1342837411183608,
                1.961425386954322,
                -0.728878875396846,
                0.1343586814239973,
                3.04409752509974
            ]
        }
    ]
}