{
    "goal": {
        "global_pose": {
            "orientation": {
                "w": 0.7047431468963623,
                "x": -0.7094548344612122,
                "y": 0.0024358443915843964,
                "z": -0.0022348060738295317
            },
            "position": {
                "x": 0.6094750761985779,
                "y": 0.3671506643295288,
                "z": 0.19426114857196808
            }
        },
        "name": "move_to_magneteinheit_A"
    },
    "id": "EST_move_to_magneteinheit_A_54",
    "joint_names": [
        "shoulder_pan_joint",
        "shoulder_lift_joint",
        "elbow_joint",
        "wrist_1_joint",
        "wrist_2_joint",
        "wrist_3_joint"
    ],
    "metrics": {
        "cart_traj_len": 3.0207038455813904,
        "distance_elbow_joint": 3.909975305325726,
        "distance_shoulder_lift_joint": 0.634058688874131,
        "distance_shoulder_pan_joint": 2.9081934119082806,
        "distance_wrist_1_joint": 3.4700405681999196,
        "distance_wrist_2_joint": 1.453753766643116,
        "distance_wrist_3_joint": 0.5479942813115809,
        "smoothness": 0.15542682660730844,
        "time": 0.14943752700000001,
        "traj_len": 3.5949987513576067,
        "weighted_distance": 4.3524474631785
    },
    "planner": "EST",
    "start": {
        "state": {
            "elbow_joint": -1.9196185241190666,
            "shoulder_lift_joint": -1.2443396400964142,
            "shoulder_pan_joint": 2.6996025414629847,
            "wrist_1_joint": -1.5485510000780065,
            "wrist_2_joint": -1.5709468930060704,
            "wrist_3_joint": 0.4420197071253992
        }
    },
    "waypoints": [
        {
            "positions": [
                2.6996025414629847,
                -1.2443396400964142,
                -1.9196185241190666,
                -1.5485510000780065,
                -1.5709468930060704,
                0.4420197071253992
            ]
        },
        {
            "positions": [
                2.601887162586797,
                -1.2473973092793074,
                -1.797816836350741,
                -1.4470647406328023,
                -1.5176546422298256,
                0.42636717607953684
            ]
        },
        {
            "positions": [
                2.5041717837106097,
                -1.2504549784622006,
                -1.6760151485824153,
                -1.345578481187598,
                -1.464362391453581,
                0.4107146450336745
            ]
        },
        {
            "positions": [
                2.406456404834422,
                -1.2535126476450937,
                -1.5542134608140894,
                -1.2440922217423938,
                -1.4110701406773365,
                0.39506211398781216
            ]
        },
        {
            "positions": [
                2.3087410259582346,
                -1.2565703168279867,
                -1.432411773045764,
                -1.1426059622971896,
                -1.3577778899010917,
                0.3794095829419498
            ]
        },
        {
            "positions": [
                2.211025647082047,
                -1.2596279860108799,
                -1.310610085277438,
                -1.0411197028519852,
                -1.304485639124847,
                0.36375705189608754
            ]
        },
        {
            "positions": [
                2.1133102682058595,
                -1.262685655193773,
                -1.1888083975091124,
                -0.9396334434067809,
                -1.2511933883486024,
                0.34810452085022514
            ]
        },
        {
            "positions": [
                2.015594889329672,
                -1.2657433243766663,
                -1.0670067097407867,
                -0.8381471839615767,
                -1.1979011375723578,
                0.33245198980436286
            ]
        },
        {
            "positions": [
                1.9178795104534845,
                -1.2688009935595594,
                -0.945205021972461,
                -0.7366609245163724,
                -1.144608886796113,
                0.31679945875850046
            ]
        },
        {
            "positions": [
                1.8201641315772967,
                -1.2718586627424526,
                -0.8234033342041354,
                -0.6351746650711682,
                -1.0913166360198683,
                0.3011469277126382
            ]
        },
        {
            "positions": [
                1.7224487527011092,
                -1.2749163319253458,
                -0.7016016464358095,
                -0.5336884056259639,
                -1.0380243852436237,
                0.28549439666677584
            ]
        },
        {
            "positions": [
                1.6247333738249217,
                -1.2779740011082388,
                -0.5797999586674838,
                -0.4322021461807597,
                -0.9847321344673791,
                0.2698418656209135
            ]
        },
        {
            "positions": [
                1.5270179949487341,
                -1.281031670291132,
                -0.4579982708991581,
                -0.3307158867355553,
                -0.9314398836911344,
                0.25418933457505116
            ]
        },
        {
            "positions": [
                1.4293026160725466,
                -1.2840893394740251,
                -0.33619658313083245,
                -0.22922962729035112,
                -0.8781476329148897,
                0.23853680352918882
            ]
        },
        {
            "positions": [
                1.331587237196359,
                -1.2871470086569183,
                -0.21439489536250678,
                -0.12774336784514695,
                -0.8248553821386451,
                0.2228842724833265
            ]
        },
        {
            "positions": [
                1.2338718583201713,
                -1.2902046778398115,
                -0.09259320759418088,
                -0.026257108399942553,
                -0.7715631313624003,
                0.20723174143746415
            ]
        },
        {
            "positions": [
                1.136156479443984,
                -1.2932623470227047,
                0.02920848017414457,
                0.07522915104526162,
                -0.7182708805861557,
                0.1915792103916018
            ]
        },
        {
            "positions": [
                1.0384411005677963,
                -1.296320016205598,
                0.15101016794247046,
                0.17671541049046602,
                -0.664978629809911,
                0.17592667934573947
            ]
        },
        {
            "positions": [
                0.9407257216916087,
                -1.2993776853884909,
                0.2728118557107959,
                0.2782016699356702,
                -0.6116863790336664,
                0.16027414829987718
            ]
        },
        {
            "positions": [
                0.8430103428154212,
                -1.302435354571384,
                0.3946135434791218,
                0.3796879293808746,
                -0.5583941282574216,
                0.1446216172540148
            ]
        },
        {
            "positions": [
                0.7452949639392337,
                -1.3054930237542772,
                0.5164152312474477,
                0.48117418882607876,
                -0.5051018774811771,
                0.1289690862081525
            ]
        },
        {
            "positions": [
                0.6475795850630459,
                -1.3085506929371704,
                0.6382169190157736,
                0.5826604482712832,
                -0.4518096267049323,
                0.11331655516229011
            ]
        },
        {
            "positions": [
                0.5498642061868586,
                -1.3116083621200636,
                0.760018606784099,
                0.6841467077164871,
                -0.39851737592868774,
                0.09766402411642783
            ]
        },
        {
            "positions": [
                0.45214882731067085,
                -1.3146660313029568,
                0.8818202945524249,
                0.7856329671616915,
                -0.34522512515244297,
                0.08201149307056549
            ]
        },
        {
            "positions": [
                0.35443344843448354,
                -1.3177237004858497,
                1.0036219823207504,
                0.8871192266068959,
                -0.2919328743761984,
                0.06635896202470315
            ]
        },
        {
            "positions": [
                0.2567180695582958,
                -1.320781369668743,
                1.1254236700890763,
                0.9886054860521003,
                -0.23864062359995364,
                0.05070643097884081
            ]
        },
        {
            "positions": [
                0.15900269068210848,
                -1.3238390388516361,
                1.2472253578574017,
                1.0900917454973043,
                -0.18534837282370908,
                0.03505389993297847
            ]
        },
        {
            "positions": [
                0.061287311805920605,
                -1.3268967080345293,
                1.3690270456257274,
                1.1915780049425089,
                -0.1320561220474642,
                0.019401368887116115
            ]
        },
        {
            "positions": [
                0.026560484323168453,
                -1.2760593362259085,
                1.448880630729156,
                1.2800720740151836,
                -0.13247495198429368,
                -0.003778553064916857
            ]
        },
        {
            "positions": [
                -0.0081663431595837,
                -1.2252219644172877,
                1.5287342158325845,
                1.3685661430878586,
                -0.1328937819211232,
                -0.02695847501694983
            ]
        },
        {
            "positions": [
                -0.04289317064233586,
                -1.174384592608667,
                1.608587800936013,
                1.4570602121605334,
                -0.13331261185795268,
                -0.0501383969689828
            ]
        },
        {
            "positions": [
                -0.0014687456915956493,
                -1.0746372162311286,
                1.7040300460036744,
                1.5731675511508785,
                -0.12991098538944731,
                -0.03617935266468305
            ]
        },
        {
            "positions": [
                0.03995567925914456,
                -0.9748898398535901,
                1.7994722910713357,
                1.6892748901412233,
                -0.12650935892094192,
                -0.022220308360383297
            ]
        },
        {
            "positions": [
                0.08138010420988477,
                -0.8751424634760518,
                1.8949145361389967,
                1.8053822291315682,
                -0.12310773245243656,
                -0.008261264056083545
            ]
        },
        {
            "positions": [
                0.12280452916062498,
                -0.7753950870985135,
                1.990356781206658,
                1.9214895681219133,
                -0.11970610598393118,
                0.005697780248216205
            ]
        }
    ]
}