{
    "goal": {
        "global_pose": {
            "orientation": {
                "w": -0.00223480608172531,
                "x": 0.0024358444001904467,
                "y": 0.7094548369677653,
                "z": -0.704743149386269
            },
            "position": {
                "x": 0.6205249238014221,
                "y": -0.6371506643295288,
                "z": 0.19426114857196808
            }
        },
        "name": "move_to_magneteinheit_B"
    },
    "id": "EST_move_to_magneteinheit_B_86",
    "joint_names": [
        "shoulder_pan_joint",
        "shoulder_lift_joint",
        "elbow_joint",
        "wrist_1_joint",
        "wrist_2_joint",
        "wrist_3_joint"
    ],
    "metrics": {
        "cart_traj_len": 1.463710616287161,
        "distance_elbow_joint": 0.9598567114713574,
        "distance_shoulder_lift_joint": 1.0520776482114782,
        "distance_shoulder_pan_joint": 1.6195446380511667,
        "distance_wrist_1_joint": 0.1838649405411963,
        "distance_wrist_2_joint": 1.7823380607995294,
        "distance_wrist_3_joint": 0.269260912727925,
        "smoothness": 0.5671336497238934,
        "time": 0.539701092,
        "traj_len": 2.422177308085156,
        "weighted_distance": 2.8933834413363244
    },
    "planner": "EST",
    "start": {
        "state": {
            "elbow_joint": 2.6216224122426386,
            "shoulder_lift_joint": -1.4174107377796124,
            "shoulder_pan_joint": 0.7066234856936794,
            "wrist_1_joint": 1.9546482284002225,
            "wrist_2_joint": -0.7096286983471962,
            "wrist_3_joint": 0.005740856962016249
        }
    },
    "waypoints": [
        {
            "positions": [
                0.7066234856936794,
                -1.4174107377796124,
                2.6216224122426386,
                1.9546482284002225,
                -0.7096286983471962,
                0.005740856962016249
            ]
        },
        {
            "positions": [
                0.5610964988968168,
                -1.466497198217727,
                2.612564255368836,
                2.008806288693504,
                -0.6675358062712243,
                0.04804822928203732
            ]
        },
        {
            "positions": [
                0.4155695120999541,
                -1.5155836586558415,
                2.603506098495034,
                2.062964348986786,
                -0.6254429141952523,
                0.0903556016020584
            ]
        },
        {
            "positions": [
                0.27004252530309136,
                -1.5646701190939563,
                2.5944479416212314,
                2.117122409280068,
                -0.5833500221192804,
                0.13266297392207949
            ]
        },
        {
            "positions": [
                0.1790453193292007,
                -1.4950687139480228,
                2.5227031538635427,
                2.118767852330941,
                -0.7107392055478661,
                0.12171383578609012
            ]
        },
        {
            "positions": [
                0.08804811335531001,
                -1.4254673088020895,
                2.4509583661058545,
                2.1204132953818142,
                -0.8381283889764517,
                0.11076469765010075
            ]
        },
        {
            "positions": [
                -0.002949092618580673,
                -1.355865903656156,
                2.379213578348166,
                2.1220587384326874,
                -0.9655175724050374,
                0.09981555951411136
            ]
        },
        {
            "positions": [
                -0.09394629859247133,
                -1.2862644985102225,
                2.3074687905904776,
                2.12370418148356,
                -1.092906755833623,
                0.08886642137812199
            ]
        },
        {
            "positions": [
                -0.18494350456636205,
                -1.2166630933642892,
                2.235724002832789,
                2.1253496245344334,
                -1.2202959392622088,
                0.07791728324213262
            ]
        },
        {
            "positions": [
                -0.2759407105402527,
                -1.1470616882183557,
                2.1639792150751003,
                2.1269950675853067,
                -1.3476851226907944,
                0.06696814510614324
            ]
        },
        {
            "positions": [
                -0.3669379165141433,
                -1.0774602830724225,
                2.092234427317412,
                2.12864051063618,
                -1.47507430611938,
                0.056019006970153884
            ]
        },
        {
            "positions": [
                -0.45793512248803403,
                -1.007858877926489,
                2.0204896395597234,
                2.130285953687053,
                -1.6024634895479657,
                0.0450698688341645
            ]
        },
        {
            "positions": [
                -0.5489323284619246,
                -0.9382574727805556,
                1.9487448518020352,
                2.1319313967379263,
                -1.7298526729765513,
                0.03412073069817513
            ]
        },
        {
            "positions": [
                -0.6399295344358155,
                -0.8686560676346221,
                1.8770000640443465,
                2.133576839788799,
                -1.8572418564051372,
                0.023171592562185747
            ]
        },
        {
            "positions": [
                -0.730926740409706,
                -0.7990546624886888,
                1.8052552762866583,
                2.1352222828396723,
                -1.9846310398337228,
                0.012222454426196391
            ]
        },
        {
            "positions": [
                -0.8219239463835968,
                -0.7294532573427553,
                1.7335104885289696,
                2.1368677258905455,
                -2.1120202232623084,
                0.0012733162902069939
            ]
        },
        {
            "positions": [
                -0.9129211523574874,
                -0.659851852196822,
                1.6617657007712812,
                2.1385131689414187,
                -2.239409406690894,
                -0.00967582184578235
            ]
        }
    ]
}