{
    "goal": {
        "global_pose": {
            "orientation": {
                "w": 0.005598929693374612,
                "x": 0.007748599140229565,
                "y": 0.7110244013736278,
                "z": -0.7031023480610252
            },
            "position": {
                "x": 0.1141497679147869,
                "y": -0.7141253447532654,
                "z": 0.3711530566215515
            }
        },
        "name": "move_to_auspresseinheit_B"
    },
    "id": "EST_move_to_auspresseinheit_B_64",
    "joint_names": [
        "shoulder_pan_joint",
        "shoulder_lift_joint",
        "elbow_joint",
        "wrist_1_joint",
        "wrist_2_joint",
        "wrist_3_joint"
    ],
    "metrics": {
        "cart_traj_len": 0.5643237261029564,
        "distance_elbow_joint": 0.063102771776117,
        "distance_shoulder_lift_joint": 0.294196101299653,
        "distance_shoulder_pan_joint": 0.5752101122034525,
        "distance_wrist_1_joint": 0.32632152029634465,
        "distance_wrist_2_joint": 0.999697412034559,
        "distance_wrist_3_joint": 0.009433091254266834,
        "smoothness": 0.0,
        "time": 0.028197613,
        "traj_len": 1.5059751023388113,
        "weighted_distance": 1.900748832356298
    },
    "planner": "EST",
    "start": {
        "state": {
            "elbow_joint": 2.0193083361928714,
            "shoulder_lift_joint": -1.1220246554650708,
            "shoulder_pan_joint": -1.0952077554168747,
            "wrist_1_joint": -0.8559753972642168,
            "wrist_2_joint": 0.4759566250798843,
            "wrist_3_joint": -3.1240929996934557
        }
    },
    "waypoints": [
        {
            "positions": [
                -1.0952077554168747,
                -1.1220246554650708,
                2.0193083361928714,
                -0.8559753972642168,
                0.4759566250798843,
                -3.1240929996934557
            ]
        },
        {
            "positions": [
                -1.1910761074507834,
                -1.171057339015013,
                2.008791207563519,
                -0.8015884772148261,
                0.6425728604189774,
                -3.1225208178177444
            ]
        },
        {
            "positions": [
                -1.2869444594846922,
                -1.2200900225649551,
                1.9982740789341658,
                -0.7472015571654352,
                0.8091890957580705,
                -3.1209486359420335
            ]
        },
        {
            "positions": [
                -1.382812811518601,
                -1.2691227061148973,
                1.987756950304813,
                -0.6928146371160444,
                0.9758053310971637,
                -3.1193764540663222
            ]
        },
        {
            "positions": [
                -1.4786811635525097,
                -1.3181553896648395,
                1.97723982167546,
                -0.6384277170666537,
                1.142421566436257,
                -3.117804272190611
            ]
        },
        {
            "positions": [
                -1.5745495155864184,
                -1.3671880732147816,
                1.9667226930461073,
                -0.584040797017263,
                1.3090378017753501,
                -3.1162320903149
            ]
        },
        {
            "positions": [
                -1.6704178676203272,
                -1.4162207567647238,
                1.9562055644167544,
                -0.5296538769678721,
                1.4756540371144433,
                -3.114659908439189
            ]
        }
    ]
}