{
    "goal": {
        "global_pose": {
            "orientation": {
                "w": -0.4816463035849501,
                "x": 0.5182115481033762,
                "y": 0.4908360881923453,
                "z": -0.5084816262002911
            },
            "position": {
                "x": -0.8240239810943604,
                "y": -0.300875300988555,
                "z": 0.16403168439865112
            }
        },
        "name": "move_to_storage_C"
    },
    "id": "EST_move_to_storage_C_65",
    "joint_names": [
        "shoulder_pan_joint",
        "shoulder_lift_joint",
        "elbow_joint",
        "wrist_1_joint",
        "wrist_2_joint",
        "wrist_3_joint"
    ],
    "metrics": {
        "cart_traj_len": 0.5766485234687606,
        "distance_elbow_joint": 0.2615124947497076,
        "distance_shoulder_lift_joint": 0.1897144521769083,
        "distance_shoulder_pan_joint": 0.4936707651967942,
        "distance_wrist_1_joint": 0.08837643700151787,
        "distance_wrist_2_joint": 1.0724443956163832,
        "distance_wrist_3_joint": 0.07610002963140694,
        "smoothness": 2.5376526478085547e-16,
        "time": 0.152494793,
        "traj_len": 1.4770980246323255,
        "weighted_distance": 1.869448973963567
    },
    "planner": "EST",
    "start": {
        "state": {
            "elbow_joint": 2.010868314990456,
            "shoulder_lift_joint": -1.1634956873337592,
            "shoulder_pan_joint": -2.4736205022346125,
            "wrist_1_joint": -0.8367026794202681,
            "wrist_2_joint": 0.6746043897044499,
            "wrist_3_joint": -3.1496632123970403
        }
    },
    "waypoints": [
        {
            "positions": [
                -2.4736205022346125,
                -1.1634956873337592,
                2.010868314990456,
                -0.8367026794202681,
                0.6746043897044499,
                -3.1496632123970403
            ]
        },
        {
            "positions": [
                -2.555898963100745,
                -1.1318766119709411,
                1.9672828991988378,
                -0.8219732732533485,
                0.8533451223071804,
                -3.136979874125139
            ]
        },
        {
            "positions": [
                -2.6381774239668774,
                -1.100257536608123,
                1.92369748340722,
                -0.8072438670864288,
                1.032085854909911,
                -3.124296535853238
            ]
        },
        {
            "positions": [
                -2.72045588483301,
                -1.068638461245305,
                1.880112067615602,
                -0.7925144609195092,
                1.2108265875126416,
                -3.111613197581337
            ]
        },
        {
            "positions": [
                -2.802734345699142,
                -1.037019385882487,
                1.836526651823984,
                -0.7777850547525895,
                1.389567320115372,
                -3.0989298593094357
            ]
        },
        {
            "positions": [
                -2.8850128065652743,
                -1.005400310519669,
                1.7929412360323662,
                -0.7630556485856699,
                1.5683080527181026,
                -3.0862465210375345
            ]
        },
        {
            "positions": [
                -2.9672912674314067,
                -0.9737812351568509,
                1.7493558202407482,
                -0.7483262424187502,
                1.7470487853208332,
                -3.0735631827656333
            ]
        }
    ]
}