{
    "goal": {
        "global_pose": {
            "orientation": {
                "w": 0.005598929693374612,
                "x": 0.007748599140229565,
                "y": 0.7110244013736278,
                "z": -0.7031023480610252
            },
            "position": {
                "x": -0.8858502320852131,
                "y": -0.7141253447532654,
                "z": 0.3711530566215515
            }
        },
        "name": "move_to_auspresseinheit_C"
    },
    "id": "EST_move_to_auspresseinheit_C_65",
    "joint_names": [
        "shoulder_pan_joint",
        "shoulder_lift_joint",
        "elbow_joint",
        "wrist_1_joint",
        "wrist_2_joint",
        "wrist_3_joint"
    ],
    "metrics": {
        "cart_traj_len": 0.49283249049354827,
        "distance_elbow_joint": 0.9939631794545294,
        "distance_shoulder_lift_joint": 0.32183501697129846,
        "distance_shoulder_pan_joint": 0.2561294260586271,
        "distance_wrist_1_joint": 0.6636412940904515,
        "distance_wrist_2_joint": 1.3107105414858573,
        "distance_wrist_3_joint": 0.03852287258763587,
        "smoothness": 1.6148698667872622e-16,
        "time": 0.609823392,
        "traj_len": 1.8933574228466212,
        "weighted_distance": 2.3740682196179574
    },
    "planner": "EST",
    "start": {
        "state": {
            "elbow_joint": 1.7527959577737207,
            "shoulder_lift_joint": -0.9740617694225068,
            "shoulder_pan_joint": -2.967991417825858,
            "wrist_1_joint": -0.759517768980727,
            "wrist_2_joint": 1.7443932448377408,
            "wrist_3_joint": -3.0840537646736568
        }
    },
    "waypoints": [
        {
            "positions": [
                -2.967991417825858,
                -0.9740617694225068,
                1.7527959577737207,
                -0.759517768980727,
                1.7443932448377408,
                -3.0840537646736568
            ]
        },
        {
            "positions": [
                -2.942378475219995,
                -0.941878267725377,
                1.6533996398282678,
                -0.6931536395716819,
                1.613322190689155,
                -3.0879060519324204
            ]
        },
        {
            "positions": [
                -2.9167655326141326,
                -0.9096947660282471,
                1.5540033218828149,
                -0.6267895101626366,
                1.4822511365405693,
                -3.091758339191184
            ]
        },
        {
            "positions": [
                -2.8911525900082697,
                -0.8775112643311173,
                1.4546070039373618,
                -0.5604253807535915,
                1.3511800823919837,
                -3.0956106264499477
            ]
        },
        {
            "positions": [
                -2.8655396474024073,
                -0.8453277626339873,
                1.3552106859919089,
                -0.49406125134454637,
                1.2201090282433977,
                -3.0994629137087113
            ]
        },
        {
            "positions": [
                -2.8399267047965444,
                -0.8131442609368575,
                1.255814368046456,
                -0.42769712193550125,
                1.0890379740948122,
                -3.103315200967475
            ]
        },
        {
            "positions": [
                -2.8143137621906815,
                -0.7809607592397277,
                1.156418050101003,
                -0.3613329925264561,
                0.9579669199462265,
                -3.107167488226238
            ]
        },
        {
            "positions": [
                -2.788700819584819,
                -0.7487772575425978,
                1.0570217321555502,
                -0.294968863117411,
                0.8268958657976407,
                -3.1110197754850017
            ]
        },
        {
            "positions": [
                -2.763087876978956,
                -0.716593755845468,
                0.9576254142100971,
                -0.22860473370836576,
                0.6958248116490549,
                -3.1148720627437654
            ]
        },
        {
            "positions": [
                -2.7374749343730937,
                -0.6844102541483381,
                0.8582290962646442,
                -0.16224060429932063,
                0.5647537575004693,
                -3.118724350002529
            ]
        },
        {
            "positions": [
                -2.711861991767231,
                -0.6522267524512083,
                0.7588327783191913,
                -0.09587647489027554,
                0.4336827033518836,
                -3.1225766372612926
            ]
        }
    ]
}