{
    "goal": {
        "global_pose": {
            "orientation": {
                "w": 0.7031023502349854,
                "x": -0.7110244035720825,
                "y": 0.007748599164187908,
                "z": 0.005598929710686207
            },
            "position": {
                "x": 0.11585023208521307,
                "y": 0.44412534475326537,
                "z": 0.3711530566215515
            }
        },
        "name": "move_to_auspresseinheit_A"
    },
    "id": "EST_move_to_auspresseinheit_A_46",
    "joint_names": [
        "shoulder_pan_joint",
        "shoulder_lift_joint",
        "elbow_joint",
        "wrist_1_joint",
        "wrist_2_joint",
        "wrist_3_joint"
    ],
    "metrics": {
        "cart_traj_len": 2.547846973754801,
        "distance_elbow_joint": 0.4274251114044674,
        "distance_shoulder_lift_joint": 1.8363928904453621,
        "distance_shoulder_pan_joint": 5.5611031834085365,
        "distance_wrist_1_joint": 0.9634501740365455,
        "distance_wrist_2_joint": 0.6004430687737571,
        "distance_wrist_3_joint": 8.033509044277645,
        "smoothness": 0.7267043402915201,
        "time": 0.460434279,
        "traj_len": 4.17400568666914,
        "weighted_distance": 5.920577235685041
    },
    "planner": "EST",
    "start": {
        "state": {
            "elbow_joint": 2.4225746658250005,
            "shoulder_lift_joint": -1.3736534386056498,
            "shoulder_pan_joint": -0.3378633547517467,
            "wrist_1_joint": -1.0288598680537169,
            "wrist_2_joint": 1.233022673432363,
            "wrist_3_joint": -3.0940220416140027
        }
    },
    "waypoints": [
        {
            "positions": [
                -0.3378633547517467,
                -1.3736534386056498,
                2.4225746658250005,
                -1.0288598680537169,
                1.233022673432363,
                -3.0940220416140027
            ]
        },
        {
            "positions": [
                -0.45072811577266847,
                -1.4330013061539082,
                2.4112122935085987,
                -1.036585834966663,
                1.2352494035257282,
                -2.8940258764895694
            ]
        },
        {
            "positions": [
                -0.5635928767935903,
                -1.4923491737021664,
                2.3998499211921973,
                -1.0443118018796091,
                1.2374761336190934,
                -2.6940297113651357
            ]
        },
        {
            "positions": [
                -0.676457637814512,
                -1.5516970412504247,
                2.388487548875796,
                -1.0520377687925553,
                1.2397028637124585,
                -2.4940335462407024
            ]
        },
        {
            "positions": [
                -0.7893223988354336,
                -1.6110449087986831,
                2.377125176559394,
                -1.0597637357055014,
                1.2419295938058235,
                -2.2940373811162686
            ]
        },
        {
            "positions": [
                -0.9021871598563553,
                -1.6703927763469415,
                2.3657628042429923,
                -1.0674897026184476,
                1.2441563238991886,
                -2.0940412159918353
            ]
        },
        {
            "positions": [
                -1.015051920877277,
                -1.7297406438951999,
                2.354400431926591,
                -1.075215669531394,
                1.2463830539925538,
                -1.8940450508674018
            ]
        },
        {
            "positions": [
                -1.1279166818981987,
                -1.789088511443458,
                2.3430380596101896,
                -1.08294163644434,
                1.248609784085919,
                -1.6940488857429685
            ]
        },
        {
            "positions": [
                -1.2407814429191206,
                -1.8484363789917164,
                2.331675687293788,
                -1.0906676033572862,
                1.250836514179284,
                -1.4940527206185348
            ]
        },
        {
            "positions": [
                -1.3536462039400423,
                -1.9077842465399748,
                2.320313314977386,
                -1.0983935702702323,
                1.2530632442726493,
                -1.2940565554941015
            ]
        },
        {
            "positions": [
                -1.466510964960964,
                -1.967132114088233,
                2.3089509426609847,
                -1.1061195371831785,
                1.2552899743660144,
                -1.094060390369668
            ]
        },
        {
            "positions": [
                -1.579375725981886,
                -2.0264799816364913,
                2.297588570344583,
                -1.1138455040961246,
                1.2575167044593794,
                -0.8940642252452342
            ]
        },
        {
            "positions": [
                -1.6922404870028074,
                -2.0858278491847497,
                2.2862261980281815,
                -1.1215714710090707,
                1.2597434345527445,
                -0.6940680601208009
            ]
        },
        {
            "positions": [
                -1.8051052480237293,
                -2.145175716733008,
                2.2748638257117797,
                -1.1292974379220169,
                1.2619701646461097,
                -0.4940718949963676
            ]
        },
        {
            "positions": [
                -1.9179700090446508,
                -2.2045235842812665,
                2.2635014533953783,
                -1.137023404834963,
                1.2641968947394748,
                -0.2940757298719343
            ]
        },
        {
            "positions": [
                -2.0308347700655727,
                -2.263871451829525,
                2.252139081078977,
                -1.1447493717479094,
                1.26642362483284,
                -0.09407956474750057
            ]
        },
        {
            "positions": [
                -2.1436995310864946,
                -2.323219319377783,
                2.240776708762575,
                -1.1524753386608555,
                1.2686503549262051,
                0.10591660037693318
            ]
        },
        {
            "positions": [
                -2.256564292107416,
                -2.3825671869260416,
                2.2294143364461734,
                -1.1602013055738016,
                1.27087708501957,
                0.3059127655013665
            ]
        },
        {
            "positions": [
                -2.369429053128338,
                -2.4419150544742996,
                2.218051964129772,
                -1.1679272724867478,
                1.2731038151129352,
                0.5059089306257998
            ]
        },
        {
            "positions": [
                -2.4822938141492594,
                -2.501262922022558,
                2.2066895918133707,
                -1.175653239399694,
                1.2753305452063004,
                0.7059050957502331
            ]
        },
        {
            "positions": [
                -2.5951585751701813,
                -2.5606107895708163,
                2.195327219496969,
                -1.18337920631264,
                1.2775572752996656,
                0.9059012608746669
            ]
        },
        {
            "positions": [
                -2.4624275321722893,
                -2.533096228517939,
                2.2016191002414343,
                -1.1503770062530823,
                1.2553508040446177,
                0.740523716745524
            ]
        },
        {
            "positions": [
                -2.329696489174397,
                -2.5055816674650613,
                2.2079109809858997,
                -1.1173748061935245,
                1.2331443327895701,
                0.5751461726163809
            ]
        },
        {
            "positions": [
                -2.1969654461765047,
                -2.4780671064121838,
                2.214202861730365,
                -1.0843726061339665,
                1.2109378615345223,
                0.40976862848723794
            ]
        },
        {
            "positions": [
                -2.0642344031786126,
                -2.4505525453593062,
                2.2204947424748305,
                -1.0513704060744087,
                1.1887313902794745,
                0.24439108435809498
            ]
        },
        {
            "positions": [
                -1.9315033601807206,
                -2.4230379843064287,
                2.226786623219296,
                -1.018368206014851,
                1.166524919024427,
                0.0790135402289519
            ]
        },
        {
            "positions": [
                -1.7987723171828283,
                -2.395523423253551,
                2.2330785039637613,
                -0.9853660059552931,
                1.144318447769379,
                -0.08636400390019106
            ]
        },
        {
            "positions": [
                -1.666041274184936,
                -2.368008862200673,
                2.2393703847082267,
                -0.9523638058957352,
                1.1221119765143313,
                -0.25174154802933424
            ]
        },
        {
            "positions": [
                -1.533310231187044,
                -2.3404943011477957,
                2.245662265452692,
                -0.9193616058361773,
                1.0999055052592834,
                -0.417119092158477
            ]
        },
        {
            "positions": [
                -1.4005791881891516,
                -2.312979740094918,
                2.2519541461971575,
                -0.8863594057766195,
                1.0776990340042358,
                -0.5824966362876202
            ]
        },
        {
            "positions": [
                -1.2678481451912595,
                -2.2854651790420406,
                2.258246026941623,
                -0.8533572057170618,
                1.055492562749188,
                -0.7478741804167631
            ]
        },
        {
            "positions": [
                -1.1351171021933673,
                -2.257950617989163,
                2.2645379076860883,
                -0.8203550056575039,
                1.0332860914941402,
                -0.9132517245459061
            ]
        },
        {
            "positions": [
                -1.0023860591954752,
                -2.2304360569362855,
                2.2708297884305533,
                -0.7873528055979461,
                1.0110796202390926,
                -1.0786292686750492
            ]
        },
        {
            "positions": [
                -0.8696550161975831,
                -2.202921495883408,
                2.2771216691750187,
                -0.7543506055383882,
                0.9888731489840448,
                -1.2440068128041921
            ]
        },
        {
            "positions": [
                -0.7369239731996906,
                -2.1754069348305305,
                2.283413549919484,
                -0.7213484054788304,
                0.966666677728997,
                -1.4093843569333355
            ]
        },
        {
            "positions": [
                -0.6041929302017985,
                -2.147892373777653,
                2.2897054306639495,
                -0.6883462054192726,
                0.9444602064739492,
                -1.574761901062478
            ]
        },
        {
            "positions": [
                -0.47146188720390647,
                -2.1203778127247754,
                2.295997311408415,
                -0.6553440053597147,
                0.9222537352189015,
                -1.740139445191621
            ]
        },
        {
            "positions": [
                -0.3387308442060144,
                -2.092863251671898,
                2.3022891921528803,
                -0.6223418053001569,
                0.9000472639638537,
                -1.905516989320764
            ]
        },
        {
            "positions": [
                -0.2059998012081219,
                -2.06534869061902,
                2.3085810728973457,
                -0.589339605240599,
                0.877840792708806,
                -2.0708945334499074
            ]
        },
        {
            "positions": [
                -0.07326875821022982,
                -2.0378341295661424,
                2.314872953641811,
                -0.5563374051810412,
                0.8556343214537583,
                -2.2362720775790503
            ]
        },
        {
            "positions": [
                0.059462284787662245,
                -2.010319568513265,
                2.3211648343862765,
                -0.5233352051214833,
                0.8334278501987105,
                -2.4016496217081933
            ]
        },
        {
            "positions": [
                0.1921933277855543,
                -1.9828050074603873,
                2.327456715130742,
                -0.49033300506192556,
                0.8112213789436628,
                -2.567027165837336
            ]
        },
        {
            "positions": [
                0.3249243707834468,
                -1.9552904464075098,
                2.3337485958752073,
                -0.45733080500236767,
                0.789014907688615,
                -2.732404709966479
            ]
        },
        {
            "positions": [
                0.4576554137813388,
                -1.9277758853546323,
                2.3400404766196727,
                -0.4243286049428099,
                0.7668084364335672,
                -2.897782254095622
            ]
        },
        {
            "positions": [
                0.5831524008006301,
                -1.9194755677226265,
                2.3677726805965387,
                -0.449268722146706,
                0.7442286224133892,
                -3.012733367504966
            ]
        },
        {
            "positions": [
                0.7086493878199214,
                -1.9111752500906207,
                2.3955048845734046,
                -0.47420883935060204,
                0.721648808393211,
                -3.127684480914309
            ]
        }
    ]
}