{
    "goal": {
        "global_pose": {
            "orientation": {
                "w": -0.00223480608172531,
                "x": 0.0024358444001904467,
                "y": 0.7094548369677653,
                "z": -0.704743149386269
            },
            "position": {
                "x": 0.6205249238014221,
                "y": -0.6371506643295288,
                "z": 0.19426114857196808
            }
        },
        "name": "move_to_magneteinheit_B"
    },
    "id": "EST_move_to_magneteinheit_B_59",
    "joint_names": [
        "shoulder_pan_joint",
        "shoulder_lift_joint",
        "elbow_joint",
        "wrist_1_joint",
        "wrist_2_joint",
        "wrist_3_joint"
    ],
    "metrics": {
        "cart_traj_len": 3.51336386712307,
        "distance_elbow_joint": 4.622659256135071,
        "distance_shoulder_lift_joint": 1.1231343990512381,
        "distance_shoulder_pan_joint": 2.789353425910296,
        "distance_wrist_1_joint": 1.0836648507277544,
        "distance_wrist_2_joint": 2.0504984106076414,
        "distance_wrist_3_joint": 1.3287346955260606,
        "smoothness": 0.3626874628266798,
        "time": 2.3175133050000003,
        "traj_len": 3.605280160813866,
        "weighted_distance": 4.33470618270092
    },
    "planner": "EST",
    "start": {
        "state": {
            "elbow_joint": 2.6216224122426386,
            "shoulder_lift_joint": -1.4174107377796124,
            "shoulder_pan_joint": 0.7066234856936794,
            "wrist_1_joint": 1.9546482284002225,
            "wrist_2_joint": -0.7096286983471962,
            "wrist_3_joint": 0.005740856962016249
        }
    },
    "waypoints": [
        {
            "positions": [
                0.7066234856936794,
                -1.4174107377796124,
                2.6216224122426386,
                1.9546482284002225,
                -0.7096286983471962,
                0.005740856962016249
            ]
        },
        {
            "positions": [
                0.6269958783837037,
                -1.4069406680359267,
                2.6148699692684314,
                1.9300501961875411,
                -0.7406726850238132,
                0.1299140498689454
            ]
        },
        {
            "positions": [
                0.5473682710737281,
                -1.3964705982922407,
                2.608117526294224,
                1.9054521639748598,
                -0.7717166717004301,
                0.2540872427758745
            ]
        },
        {
            "positions": [
                0.4677406637637524,
                -1.386000528548555,
                2.601365083320017,
                1.8808541317621785,
                -0.8027606583770471,
                0.37826043568280365
            ]
        },
        {
            "positions": [
                0.45229915124517034,
                -1.428031397909354,
                2.4739229011661923,
                1.8218504053419113,
                -0.6821012080624672,
                0.38775161296001176
            ]
        },
        {
            "positions": [
                0.4368576387265883,
                -1.4700622672701529,
                2.3464807190123675,
                1.7628466789216442,
                -0.5614417577478873,
                0.3972427902372199
            ]
        },
        {
            "positions": [
                0.4214161262080063,
                -1.512093136630952,
                2.219038536858543,
                1.7038429525013772,
                -0.4407823074333073,
                0.40673396751442803
            ]
        },
        {
            "positions": [
                0.4059746136894242,
                -1.554124005991751,
                2.091596354704718,
                1.64483922608111,
                -0.3201228571187274,
                0.41622514479163614
            ]
        },
        {
            "positions": [
                0.39053310117084217,
                -1.5961548753525499,
                1.9641541725508929,
                1.5858354996608428,
                -0.19946340680414743,
                0.4257163220688443
            ]
        },
        {
            "positions": [
                0.3750915886522601,
                -1.6381857447133488,
                1.8367119903970681,
                1.5268317732405756,
                -0.0788039564895675,
                0.4352074993460524
            ]
        },
        {
            "positions": [
                0.3970963213886109,
                -1.6685400207889352,
                1.743717405084511,
                1.4638959875575048,
                0.03449480675319494,
                0.4848434844243464
            ]
        },
        {
            "positions": [
                0.4191010541249617,
                -1.6988942968645213,
                1.650722819771954,
                1.4009602018744338,
                0.14779356999595739,
                0.5344794695026404
            ]
        },
        {
            "positions": [
                0.4411057868613125,
                -1.7292485729401077,
                1.5577282344593968,
                1.338024416191363,
                0.26109233323871983,
                0.5841154545809344
            ]
        },
        {
            "positions": [
                0.4631105195976633,
                -1.7596028490156939,
                1.4647336491468397,
                1.275088630508292,
                0.3743910964814823,
                0.6337514396592283
            ]
        },
        {
            "positions": [
                0.4851152523340141,
                -1.7899571250912802,
                1.3717390638342826,
                1.2121528448252212,
                0.4876898597242448,
                0.6833874247375223
            ]
        },
        {
            "positions": [
                0.6181336342457789,
                -1.803609267269826,
                1.1830670436081083,
                1.1951955611149168,
                0.5070718345688606,
                0.6598694845891284
            ]
        },
        {
            "positions": [
                0.7511520161575438,
                -1.817261409448372,
                0.9943950233819341,
                1.1782382774046123,
                0.5264538094134764,
                0.6363515444407344
            ]
        },
        {
            "positions": [
                0.8841703980693087,
                -1.8309135516269177,
                0.8057230031557597,
                1.1612809936943078,
                0.5458357842580922,
                0.6128336042923404
            ]
        },
        {
            "positions": [
                1.0171887799810735,
                -1.8445656938054635,
                0.6170509829295855,
                1.1443237099840036,
                0.565217759102708,
                0.5893156641439464
            ]
        },
        {
            "positions": [
                1.1502071618928384,
                -1.8582178359840094,
                0.42837896270341114,
                1.127366426273699,
                0.5845997339473238,
                0.5657977239955525
            ]
        },
        {
            "positions": [
                1.2832255438046034,
                -1.8718699781625552,
                0.2397069424772369,
                1.1104091425633946,
                0.6039817087919396,
                0.5422797838471585
            ]
        },
        {
            "positions": [
                1.4162439257163681,
                -1.885522120341101,
                0.05103492225106265,
                1.0934518588530902,
                0.6233636836365554,
                0.5187618436987644
            ]
        },
        {
            "positions": [
                1.549262307628133,
                -1.8991742625196468,
                -0.1376370979751116,
                1.0764945751427857,
                0.6427456584811712,
                0.4952439035503705
            ]
        },
        {
            "positions": [
                1.6822806895398978,
                -1.9128264046981927,
                -0.32630911820128605,
                1.0595372914324812,
                0.662127633325787,
                0.47172596340197653
            ]
        },
        {
            "positions": [
                1.8152990714516628,
                -1.9264785468767385,
                -0.5149811384274603,
                1.0425800077221767,
                0.6815096081704027,
                0.44820802325358255
            ]
        },
        {
            "positions": [
                1.9483174533634278,
                -1.9401306890552843,
                -0.7036531586536348,
                1.0256227240118725,
                0.7008915830150185,
                0.4246900831051886
            ]
        },
        {
            "positions": [
                2.0813358352751927,
                -1.9537828312338301,
                -0.8923251788798088,
                1.008665440301568,
                0.7202735578596343,
                0.4011721429567946
            ]
        },
        {
            "positions": [
                2.2143542171869575,
                -1.967434973412376,
                -1.0809971991059828,
                0.9917081565912635,
                0.73965553270425,
                0.3776542028084006
            ]
        },
        {
            "positions": [
                2.347372599098722,
                -1.9810871155909218,
                -1.2696692193321573,
                0.9747508728809591,
                0.7590375075488659,
                0.35413626266000664
            ]
        },
        {
            "positions": [
                2.480390981010487,
                -1.9947392577694676,
                -1.4583412395583317,
                0.9577935891706546,
                0.7784194823934817,
                0.33061832251161266
            ]
        },
        {
            "positions": [
                2.613409362922252,
                -2.0083913999480134,
                -1.6470132597845057,
                0.9408363054603501,
                0.7978014572380975,
                0.3071003823632187
            ]
        },
        {
            "positions": [
                2.746427744834017,
                -2.0220435421265592,
                -1.8356852800106802,
                0.9238790217500458,
                0.8171834320827133,
                0.2835824422148247
            ]
        },
        {
            "positions": [
                2.7407585889174593,
                -2.0912391871886635,
                -1.8284167535826723,
                0.9348825338729565,
                0.7562621177217528,
                0.23920839838952201
            ]
        },
        {
            "positions": [
                2.7138198499939383,
                -2.220067697582021,
                -1.7757224077647573,
                0.9488465778578454,
                0.6640951024693962,
                0.17023869792200408
            ]
        },
        {
            "positions": [
                2.6868811110704174,
                -2.3488962079753786,
                -1.7230280619468423,
                0.9628106218427344,
                0.5719280872170397,
                0.10126899745448614
            ]
        },
        {
            "positions": [
                2.6599423721468964,
                -2.477724718368736,
                -1.6703337161289273,
                0.9767746658276233,
                0.4797610719646831,
                0.03229929698696821
            ]
        }
    ]
}