{
    "goal": {
        "global_pose": {
            "orientation": {
                "w": -0.00223480608172531,
                "x": 0.0024358444001904467,
                "y": 0.7094548369677653,
                "z": -0.704743149386269
            },
            "position": {
                "x": -0.37947507619857795,
                "y": -0.6371506643295288,
                "z": 0.19426114857196808
            }
        },
        "name": "move_to_magneteinheit_C"
    },
    "id": "EST_move_to_magneteinheit_C_58",
    "joint_names": [
        "shoulder_pan_joint",
        "shoulder_lift_joint",
        "elbow_joint",
        "wrist_1_joint",
        "wrist_2_joint",
        "wrist_3_joint"
    ],
    "metrics": {
        "cart_traj_len": 2.436207090965004,
        "distance_elbow_joint": 2.380343262727925,
        "distance_shoulder_lift_joint": 0.6773710114275306,
        "distance_shoulder_pan_joint": 2.09578930802194,
        "distance_wrist_1_joint": 2.963648703378956,
        "distance_wrist_2_joint": 1.1959277548000933,
        "distance_wrist_3_joint": 6.081555551596925,
        "smoothness": 0.6960900512243123,
        "time": 0.7848203890000001,
        "traj_len": 3.923599825664356,
        "weighted_distance": 5.63181348708622
    },
    "planner": "EST",
    "start": {
        "state": {
            "elbow_joint": 1.9565354010623817,
            "shoulder_lift_joint": -1.4165861575791021,
            "shoulder_pan_joint": -1.6717766225146293,
            "wrist_1_joint": -0.5286633292919765,
            "wrist_2_joint": 1.472756589071564,
            "wrist_3_joint": -3.1238370188695823
        }
    },
    "waypoints": [
        {
            "positions": [
                -1.6717766225146293,
                -1.4165861575791021,
                1.9565354010623817,
                -0.5286633292919765,
                1.472756589071564,
                -3.1238370188695823
            ]
        },
        {
            "positions": [
                -1.6411388637406952,
                -1.4391334588947813,
                1.9624143383500918,
                -0.4915484753510271,
                1.4182864497882446,
                -3.0291376136941395
            ]
        },
        {
            "positions": [
                -1.6069136068360381,
                -1.448103529089417,
                1.8977479040067038,
                -0.41941920084618645,
                1.3807469119568543,
                -2.8661964378402898
            ]
        },
        {
            "positions": [
                -1.5726883499313808,
                -1.457073599284053,
                1.8330814696633155,
                -0.3472899263413458,
                1.3432073741254638,
                -2.7032552619864396
            ]
        },
        {
            "positions": [
                -1.5384630930267238,
                -1.4660436694786887,
                1.7684150353199275,
                -0.27516065183650523,
                1.3056678362940735,
                -2.54031408613259
            ]
        },
        {
            "positions": [
                -1.5042378361220665,
                -1.4750137396733245,
                1.7037486009765392,
                -0.2030313773316646,
                1.2681282984626832,
                -2.3773729102787398
            ]
        },
        {
            "positions": [
                -1.4700125792174095,
                -1.48398380986796,
                1.6390821666331512,
                -0.13090210282682396,
                1.2305887606312926,
                -2.21443173442489
            ]
        },
        {
            "positions": [
                -1.4357873223127522,
                -1.4929538800625959,
                1.5744157322897632,
                -0.058772828321983384,
                1.1930492227999023,
                -2.0514905585710403
            ]
        },
        {
            "positions": [
                -1.4015620654080951,
                -1.5019239502572317,
                1.509749297946375,
                0.013356446182857251,
                1.155509684968512,
                -1.8885493827171902
            ]
        },
        {
            "positions": [
                -1.3673368085034379,
                -1.5108940204518675,
                1.4450828636029869,
                0.08548572068769789,
                1.1179701471371217,
                -1.7256082068633405
            ]
        },
        {
            "positions": [
                -1.3331115515987808,
                -1.5198640906465033,
                1.3804164292595988,
                0.15761499519253852,
                1.0804306093057312,
                -1.5626670310094906
            ]
        },
        {
            "positions": [
                -1.2988862946941238,
                -1.528834160841139,
                1.3157499949162106,
                0.22974426969737916,
                1.0428910714743407,
                -1.3997258551556406
            ]
        },
        {
            "positions": [
                -1.2646610377894665,
                -1.537804231035775,
                1.2510835605728223,
                0.3018735442022198,
                1.0053515336429504,
                -1.2367846793017907
            ]
        },
        {
            "positions": [
                -1.2304357808848094,
                -1.5467743012304107,
                1.1864171262294345,
                0.3740028187070603,
                0.9678119958115601,
                -1.073843503447941
            ]
        },
        {
            "positions": [
                -1.1962105239801522,
                -1.5557443714250465,
                1.1217506918860463,
                0.44613209321190095,
                0.9302724579801698,
                -0.9109023275940911
            ]
        },
        {
            "positions": [
                -1.161985267075495,
                -1.564714441619682,
                1.057084257542658,
                0.5182613677167416,
                0.8927329201487794,
                -0.7479611517402409
            ]
        },
        {
            "positions": [
                -1.1277600101708378,
                -1.573684511814318,
                0.99241782319927,
                0.5903906422215823,
                0.855193382317389,
                -0.5850199758863912
            ]
        },
        {
            "positions": [
                -1.0935347532661808,
                -1.5826545820089537,
                0.9277513888558819,
                0.6625199167264229,
                0.8176538444859986,
                -0.4220788000325415
            ]
        },
        {
            "positions": [
                -1.0593094963615237,
                -1.5916246522035895,
                0.8630849545124939,
                0.7346491912312634,
                0.7801143066546082,
                -0.2591376241786918
            ]
        },
        {
            "positions": [
                -1.0250842394568664,
                -1.6005947223982253,
                0.7984185201691056,
                0.8067784657361041,
                0.7425747688232178,
                -0.09619644832484177
            ]
        },
        {
            "positions": [
                -1.130535459483182,
                -1.602771509486929,
                0.8833031828643467,
                0.7645280038730826,
                0.7581474599450502,
                -0.213897292481749
            ]
        },
        {
            "positions": [
                -1.2359866795094976,
                -1.6049482965756325,
                0.9681878455595879,
                0.7222775420100611,
                0.7737201510668825,
                -0.33159813663865617
            ]
        },
        {
            "positions": [
                -1.3414378995358134,
                -1.6071250836643363,
                1.0530725082548291,
                0.6800270801470396,
                0.7892928421887149,
                -0.44929898079556335
            ]
        },
        {
            "positions": [
                -1.446889119562129,
                -1.6093018707530398,
                1.1379571709500702,
                0.6377766182840181,
                0.8048655333105473,
                -0.5669998249524706
            ]
        },
        {
            "positions": [
                -1.5523403395884445,
                -1.6114786578417435,
                1.2228418336453113,
                0.5955261564209967,
                0.8204382244323797,
                -0.6847006691093778
            ]
        },
        {
            "positions": [
                -1.6577915596147603,
                -1.6136554449304472,
                1.3077264963405524,
                0.5532756945579752,
                0.836010915554212,
                -0.802401513266285
            ]
        },
        {
            "positions": [
                -1.7632427796410757,
                -1.6158322320191507,
                1.3926111590357935,
                0.5110252326949537,
                0.8515836066760444,
                -0.9201023574231921
            ]
        },
        {
            "positions": [
                -1.8686939996673915,
                -1.6180090191078544,
                1.4774958217310348,
                0.4687747708319322,
                0.8671562977978767,
                -1.0378032015800995
            ]
        },
        {
            "positions": [
                -1.974145219693707,
                -1.6201858061965582,
                1.5623804844262759,
                0.42652430896891075,
                0.8827289889197091,
                -1.1555040457370067
            ]
        },
        {
            "positions": [
                -2.0795964397200226,
                -1.6223625932852617,
                1.6472651471215172,
                0.38427384710588924,
                0.8983016800415415,
                -1.273204889893914
            ]
        },
        {
            "positions": [
                -2.1850476597463384,
                -1.6245393803739654,
                1.7321498098167583,
                0.34202338524286774,
                0.9138743711633739,
                -1.390905734050821
            ]
        },
        {
            "positions": [
                -2.290498879772654,
                -1.626716167462669,
                1.8170344725119993,
                0.2997729233798463,
                0.9294470622852062,
                -1.5086065782077283
            ]
        },
        {
            "positions": [
                -2.3959500997989696,
                -1.6288929545513726,
                1.9019191352072404,
                0.2575224615168248,
                0.9450197534070386,
                -1.6263074223646354
            ]
        },
        {
            "positions": [
                -2.4046424403125335,
                -1.5772191529452326,
                1.9138044565651398,
                0.13763902772442513,
                0.9157640922994913,
                -1.7956189786993455
            ]
        },
        {
            "positions": [
                -2.413334780826097,
                -1.5255453513390926,
                1.925689777923039,
                0.01775559393202547,
                0.886508431191944,
                -1.9649305350340553
            ]
        },
        {
            "positions": [
                -2.422027121339661,
                -1.4738715497329526,
                1.9375750992809384,
                -0.10212783986037421,
                0.8572527700843967,
                -2.1342420913687654
            ]
        },
        {
            "positions": [
                -2.430719461853225,
                -1.4221977481268127,
                1.9494604206388377,
                -0.22201127365277384,
                0.8279971089768494,
                -2.3035536477034753
            ]
        },
        {
            "positions": [
                -2.4394118023667883,
                -1.3705239465206724,
                1.961345741996737,
                -0.3418947074451736,
                0.7987414478693021,
                -2.4728652040381855
            ]
        },
        {
            "positions": [
                -2.4481041428803523,
                -1.3188501449145327,
                1.9732310633546364,
                -0.4617781412375732,
                0.7694857867617548,
                -2.6421767603728954
            ]
        },
        {
            "positions": [
                -2.456796483393916,
                -1.2671763433083925,
                1.9851163847125357,
                -0.5816615750299728,
                0.7402301256542075,
                -2.8114883167076057
            ]
        },
        {
            "positions": [
                -2.4654888239074797,
                -1.2155025417022525,
                1.997001706070435,
                -0.7015450088223725,
                0.7109744645466602,
                -2.980799873042315
            ]
        },
        {
            "positions": [
                -2.4741811644210436,
                -1.1638287400961125,
                2.0088870274283344,
                -0.8214284426147721,
                0.681718803439113,
                -3.1501114293770254
            ]
        }
    ]
}