{
    "goal": {
        "global_pose": {
            "orientation": {
                "w": 0.005598929693374612,
                "x": 0.007748599140229565,
                "y": 0.7110244013736278,
                "z": -0.7031023480610252
            },
            "position": {
                "x": -0.8858502320852131,
                "y": -0.7141253447532654,
                "z": 0.3711530566215515
            }
        },
        "name": "move_to_auspresseinheit_C"
    },
    "id": "EST_move_to_auspresseinheit_C_39",
    "joint_names": [
        "shoulder_pan_joint",
        "shoulder_lift_joint",
        "elbow_joint",
        "wrist_1_joint",
        "wrist_2_joint",
        "wrist_3_joint"
    ],
    "metrics": {
        "cart_traj_len": 0.6688152392146166,
        "distance_elbow_joint": 0.9837348841465521,
        "distance_shoulder_lift_joint": 0.5944733899926029,
        "distance_shoulder_pan_joint": 0.64400573398086,
        "distance_wrist_1_joint": 0.6512273634732013,
        "distance_wrist_2_joint": 1.3067900769747154,
        "distance_wrist_3_joint": 0.6392793712727345,
        "smoothness": 0.6706594685695342,
        "time": 0.464540956,
        "traj_len": 2.1953384294547083,
        "weighted_distance": 2.838324682419904
    },
    "planner": "EST",
    "start": {
        "state": {
            "elbow_joint": 1.7527959577737207,
            "shoulder_lift_joint": -0.9740617694225068,
            "shoulder_pan_joint": -2.967991417825858,
            "wrist_1_joint": -0.759517768980727,
            "wrist_2_joint": 1.7443932448377408,
            "wrist_3_joint": -3.0840537646736568
        }
    },
    "waypoints": [
        {
            "positions": [
                -2.967991417825858,
                -0.9740617694225068,
                1.7527959577737207,
                -0.759517768980727,
                1.7443932448377408,
                -3.0840537646736568
            ]
        },
        {
            "positions": [
                -3.000309087282271,
                -0.997193930459122,
                1.729283397529319,
                -0.6718801559477647,
                1.5869458256771005,
                -3.033710165424634
            ]
        },
        {
            "positions": [
                -3.0326267567386838,
                -1.0203260914957373,
                1.7057708372849172,
                -0.5842425429148026,
                1.4294984065164602,
                -2.9833665661756115
            ]
        },
        {
            "positions": [
                -3.0649444261950967,
                -1.0434582525323526,
                1.6822582770405154,
                -0.4966049298818404,
                1.27205098735582,
                -2.933022966926589
            ]
        },
        {
            "positions": [
                -3.0972620956515096,
                -1.0665904135689677,
                1.6587457167961137,
                -0.4089673168488782,
                1.1146035681951796,
                -2.882679367677566
            ]
        },
        {
            "positions": [
                -3.1295797651079225,
                -1.089722574605583,
                1.635233156551712,
                -0.321329703815916,
                0.9571561490345394,
                -2.8323357684285435
            ]
        },
        {
            "positions": [
                -3.1618974345643354,
                -1.1128547356421983,
                1.6117205963073102,
                -0.23369209078295383,
                0.7997087298738991,
                -2.781992169179521
            ]
        },
        {
            "positions": [
                -3.0975974749582806,
                -1.0477575322460682,
                1.4913406644958613,
                -0.21577756431503553,
                0.7479793638723456,
                -2.830166137147892
            ]
        },
        {
            "positions": [
                -3.033297515352226,
                -0.9826603288499379,
                1.3709607326844127,
                -0.19786303784711723,
                0.6962499978707923,
                -2.8783401051162634
            ]
        },
        {
            "positions": [
                -2.968997555746171,
                -0.9175631254538077,
                1.2505808008729637,
                -0.17994851137919893,
                0.6445206318692389,
                -2.9265140730846344
            ]
        },
        {
            "positions": [
                -2.904697596140117,
                -0.8524659220576776,
                1.130200869061515,
                -0.16203398491128063,
                0.5927912658676856,
                -2.974688041053006
            ]
        },
        {
            "positions": [
                -2.840397636534062,
                -0.7873687186615472,
                1.0098209372500662,
                -0.14411945844336232,
                0.5410618998661322,
                -3.022862009021377
            ]
        },
        {
            "positions": [
                -2.7760976769280075,
                -0.7222715152654171,
                0.8894410054386175,
                -0.12620493197544405,
                0.4893325338645788,
                -3.071035976989748
            ]
        },
        {
            "positions": [
                -2.7117977173219527,
                -0.6571743118692869,
                0.7690610736271686,
                -0.10829040550752575,
                0.43760316786302544,
                -3.1192099449581194
            ]
        }
    ]
}