{
    "goal": {
        "global_pose": {
            "orientation": {
                "w": -0.00223480608172531,
                "x": 0.0024358444001904467,
                "y": 0.7094548369677653,
                "z": -0.704743149386269
            },
            "position": {
                "x": -0.37947507619857795,
                "y": -0.6371506643295288,
                "z": 0.19426114857196808
            }
        },
        "name": "move_to_magneteinheit_C"
    },
    "id": "EST_move_to_magneteinheit_C_33",
    "joint_names": [
        "shoulder_pan_joint",
        "shoulder_lift_joint",
        "elbow_joint",
        "wrist_1_joint",
        "wrist_2_joint",
        "wrist_3_joint"
    ],
    "metrics": {
        "cart_traj_len": 0.9865247367024169,
        "distance_elbow_joint": 0.4304368392793756,
        "distance_shoulder_lift_joint": 0.6972733820937316,
        "distance_shoulder_pan_joint": 1.0684332759326975,
        "distance_wrist_1_joint": 1.3311510484919817,
        "distance_wrist_2_joint": 0.8084000676207382,
        "distance_wrist_3_joint": 3.280565390216265,
        "smoothness": 1.1592384760841008,
        "time": 1.053313036,
        "traj_len": 2.759757236358805,
        "weighted_distance": 4.039423461359312
    },
    "planner": "EST",
    "start": {
        "state": {
            "elbow_joint": 1.9565354010623817,
            "shoulder_lift_joint": -1.4165861575791021,
            "shoulder_pan_joint": -1.6717766225146293,
            "wrist_1_joint": -0.5286633292919765,
            "wrist_2_joint": 1.472756589071564,
            "wrist_3_joint": -3.1238370188695823
        }
    },
    "waypoints": [
        {
            "positions": [
                -1.6717766225146293,
                -1.4165861575791021,
                1.9565354010623817,
                -0.5286633292919765,
                1.472756589071564,
                -3.1238370188695823
            ]
        },
        {
            "positions": [
                -1.628687675393344,
                -1.4790054987328574,
                2.0008357172936626,
                -0.5170691661032022,
                1.4364840147542886,
                -3.040915418885619
            ]
        },
        {
            "positions": [
                -1.5855987282720587,
                -1.5414248398866128,
                2.045136033524943,
                -0.5054750029144279,
                1.4002114404370132,
                -2.9579938189016564
            ]
        },
        {
            "positions": [
                -1.5425097811507733,
                -1.603844181040368,
                2.089436349756224,
                -0.4938808397256536,
                1.3639388661197378,
                -2.875072218917693
            ]
        },
        {
            "positions": [
                -1.6279404033877756,
                -1.6072387041551979,
                2.0709606694072487,
                -0.445132586295547,
                1.3002763911791912,
                -2.737719503044982
            ]
        },
        {
            "positions": [
                -1.7133710256247776,
                -1.6106332272700277,
                2.0524849890582733,
                -0.3963843328654403,
                1.2366139162386447,
                -2.600366787172271
            ]
        },
        {
            "positions": [
                -1.7988016478617799,
                -1.6140277503848575,
                2.034009308709298,
                -0.3476360794353336,
                1.1729514412980981,
                -2.46301407129956
            ]
        },
        {
            "positions": [
                -1.884232270098782,
                -1.6174222734996873,
                2.0155336283603225,
                -0.29888782600522695,
                1.1092889663575516,
                -2.3256613554268486
            ]
        },
        {
            "positions": [
                -1.9696628923357842,
                -1.620816796614517,
                1.997057948011347,
                -0.2501395725751203,
                1.045626491417005,
                -2.188308639554138
            ]
        },
        {
            "positions": [
                -2.0550935145727864,
                -1.6242113197293466,
                1.9785822676623714,
                -0.20139131914501363,
                0.9819640164764585,
                -2.0509559236814265
            ]
        },
        {
            "positions": [
                -2.1405241368097885,
                -1.6276058428441764,
                1.960106587313396,
                -0.152643065714907,
                0.9183015415359119,
                -1.9136032078087153
            ]
        },
        {
            "positions": [
                -2.2259547590467905,
                -1.6310003659590062,
                1.9416309069644206,
                -0.1038948122848003,
                0.8546390665953653,
                -1.7762504919360043
            ]
        },
        {
            "positions": [
                -2.311385381283793,
                -1.634394889073836,
                1.9231552266154452,
                -0.055146558854693606,
                0.7909765916548187,
                -1.638897776063293
            ]
        },
        {
            "positions": [
                -2.396816003520795,
                -1.6377894121886658,
                1.9046795462664698,
                -0.006398305424586963,
                0.7273141167142722,
                -1.501545060190582
            ]
        },
        {
            "positions": [
                -2.416884907977231,
                -1.5891601938955793,
                1.937551226010971,
                -0.09442258434350936,
                0.7218495097856853,
                -1.696520381954357
            ]
        },
        {
            "positions": [
                -2.4369538124336674,
                -1.5405309756024925,
                1.9704229057554723,
                -0.18244686326243176,
                0.7163849028570984,
                -1.8914957037181321
            ]
        },
        {
            "positions": [
                -2.447219402906959,
                -1.4931526534114354,
                1.9804465607944244,
                -0.2670140024062477,
                0.710353611151247,
                -2.0498879397874474
            ]
        },
        {
            "positions": [
                -2.45748499338025,
                -1.4457743312203784,
                1.9904702158333762,
                -0.3515811415500636,
                0.7043223194453954,
                -2.208280175856763
            ]
        },
        {
            "positions": [
                -2.4677505838535416,
                -1.398396009029321,
                2.0004938708723286,
                -0.4361482806938795,
                0.6982910277395438,
                -2.3666724119260785
            ]
        },
        {
            "positions": [
                -2.478016174326833,
                -1.351017686838264,
                2.0105175259112804,
                -0.5207154198376954,
                0.6922597360336923,
                -2.5250646479953938
            ]
        },
        {
            "positions": [
                -2.4767961605292395,
                -1.287918219460342,
                2.0082038234276243,
                -0.6189050565748566,
                0.6829586645060701,
                -2.736649262572878
            ]
        },
        {
            "positions": [
                -2.4755761467316453,
                -1.2248187520824199,
                2.005890120943968,
                -0.7170946933120179,
                0.6736575929784479,
                -2.9482338771503622
            ]
        },
        {
            "positions": [
                -2.4743561329340515,
                -1.161719284704498,
                2.003576418460312,
                -0.8152843300491791,
                0.6643565214508257,
                -3.1598184917278465
            ]
        }
    ]
}