{
    "goal": {
        "global_pose": {
            "orientation": {
                "w": 0.5084816217422485,
                "x": -0.49083608388900757,
                "y": 0.5182115435600281,
                "z": -0.4816462993621826
            },
            "position": {
                "x": 0.5540239810943604,
                "y": 0.030875300988554955,
                "z": 0.16403168439865112
            }
        },
        "name": "move_to_storage_A"
    },
    "id": "EST_move_to_storage_A_104",
    "joint_names": [
        "shoulder_pan_joint",
        "shoulder_lift_joint",
        "elbow_joint",
        "wrist_1_joint",
        "wrist_2_joint",
        "wrist_3_joint"
    ],
    "metrics": {
        "cart_traj_len": 0.3539107736819936,
        "distance_elbow_joint": 0.45018006005570244,
        "distance_shoulder_lift_joint": 0.23486989941502312,
        "distance_shoulder_pan_joint": 0.46230033381890107,
        "distance_wrist_1_joint": 0.2417776860953339,
        "distance_wrist_2_joint": 1.1028680388673984,
        "distance_wrist_3_joint": 0.10244643629394856,
        "smoothness": 8.881784197001252e-16,
        "time": 0.067376661,
        "traj_len": 1.6107273060783156,
        "weighted_distance": 2.0356770500491814
    },
    "planner": "EST",
    "start": {
        "state": {
            "elbow_joint": 1.971548259319323,
            "shoulder_lift_joint": -1.1394851275133948,
            "shoulder_pan_joint": 0.1228115487234821,
            "wrist_1_joint": -0.7804723859257726,
            "wrist_2_joint": 0.12958671773740124,
            "wrist_3_joint": -3.192489227718131
        }
    },
    "waypoints": [
        {
            "positions": [
                0.1228115487234821,
                -1.1394851275133948,
                1.971548259319323,
                -0.7804723859257726,
                0.12958671773740124,
                -3.192489227718131
            ]
        },
        {
            "positions": [
                0.05676864389221052,
                -1.1730379702869695,
                2.0358596964701374,
                -0.8150120553679632,
                0.2871392947184581,
                -3.1778540225332814
            ]
        },
        {
            "positions": [
                -0.009274260939061058,
                -1.2065908130605443,
                2.100171133620952,
                -0.8495517248101537,
                0.4446918716995151,
                -3.1632188173484317
            ]
        },
        {
            "positions": [
                -0.07531716577033262,
                -1.240143655834119,
                2.1644825707717668,
                -0.8840913942523443,
                0.6022444486805719,
                -3.148583612163582
            ]
        },
        {
            "positions": [
                -0.14136007060160422,
                -1.2736964986076937,
                2.2287940079225814,
                -0.9186310636945348,
                0.7597970256616289,
                -3.133948406978732
            ]
        },
        {
            "positions": [
                -0.20740297543287584,
                -1.3072493413812685,
                2.293105445073396,
                -0.9531707331367254,
                0.9173496026426858,
                -3.119313201793882
            ]
        },
        {
            "positions": [
                -0.27344588026414735,
                -1.3408021841548432,
                2.3574168822242108,
                -0.987710402578916,
                1.0749021796237426,
                -3.1046779966090323
            ]
        },
        {
            "positions": [
                -0.33948878509541897,
                -1.374355026928418,
                2.4217283193750254,
                -1.0222500720211065,
                1.2324547566047996,
                -3.0900427914241826
            ]
        }
    ]
}{
    "goal": {
        "global_pose": {
            "orientation": {
                "w": 0.5084816217422485,
                "x": -0.49083608388900757,
                "y": 0.5182115435600281,
                "z": -0.4816462993621826
            },
            "position": {
                "x": 0.5540239810943604,
                "y": 0.030875300988554955,
                "z": 0.16403168439865112
            }
        },
        "name": "move_to_storage_A"
    },
    "id": "EST_move_to_storage_A_104",
    "joint_names": [
        "shoulder_pan_joint",
        "shoulder_lift_joint",
        "elbow_joint",
        "wrist_1_joint",
        "wrist_2_joint",
        "wrist_3_joint"
    ],
    "metrics": {
        "cart_traj_len": 0.35288237124080374,
        "distance_elbow_joint": 0.45042796930384466,
        "distance_shoulder_lift_joint": 0.23527900426234072,
        "distance_shoulder_pan_joint": 0.46192055220519845,
        "distance_wrist_1_joint": 0.24037193264335266,
        "distance_wrist_2_joint": 1.0971765772602042,
        "distance_wrist_3_joint": 0.09664542824065547,
        "smoothness": 1.3322676295501878e-15,
        "time": 0.09005297000000001,
        "traj_len": 1.6068047373329457,
        "weighted_distance": 2.0279696324897136
    },
    "planner": "EST",
    "start": {
        "state": {
            "elbow_joint": 1.97154746011099,
            "shoulder_lift_joint": -1.13948474672311,
            "shoulder_pan_joint": 0.12281154466712228,
            "wrist_1_joint": -0.7804688027058302,
            "wrist_2_joint": 0.12958655903071145,
            "wrist_3_joint": 3.0906928834467795
        }
    },
    "waypoints": [
        {
            "positions": [
                0.12281154466712228,
                -1.13948474672311,
                1.97154746011099,
                -0.7804688027058302,
                0.12958655903071145,
                3.0906928834467795
            ]
        },
        {
            "positions": [
                0.056822894352093936,
                -1.1730960330463014,
                2.035894312868682,
                -0.8148076502263092,
                0.28632607006788346,
                3.1044993731954444
            ]
        },
        {
            "positions": [
                -0.00916575596293441,
                -1.206707319369493,
                2.100241165626374,
                -0.8491464977467881,
                0.44306558110505545,
                3.11830586294411
            ]
        },
        {
            "positions": [
                -0.07515440627796276,
                -1.2403186056926845,
                2.164588018384066,
                -0.8834853452672671,
                0.5998050921422275,
                3.1321123526927748
            ]
        },
        {
            "positions": [
                -0.1411430565929911,
                -1.2739298920158761,
                2.2289348711417585,
                -0.917824192787746,
                0.7565446031793995,
                3.1459188424414397
            ]
        },
        {
            "positions": [
                -0.20713170690801946,
                -1.3075411783390676,
                2.2932817238994505,
                -0.952163040308225,
                0.9132841142165716,
                3.1597253321901047
            ]
        },
        {
            "positions": [
                -0.2731203572230478,
                -1.341152464662259,
                2.3576285766571425,
                -0.9865018878287038,
                1.0700236252537436,
                3.17353182193877
            ]
        },
        {
            "positions": [
                -0.33910900753807616,
                -1.3747637509854507,
                2.4219754294148346,
                -1.0208407353491828,
                1.2267631362909157,
                3.187338311687435
            ]
        }
    ]
}{
    "goal": {
        "global_pose": {
            "orientation": {
                "w": 0.5084816217422485,
                "x": -0.49083608388900757,
                "y": 0.5182115435600281,
                "z": -0.4816462993621826
            },
            "position": {
                "x": 0.5540239810943604,
                "y": 0.030875300988554955,
                "z": 0.16403168439865112
            }
        },
        "name": "move_to_storage_A"
    },
    "id": "EST_move_to_storage_A_104",
    "joint_names": [
        "shoulder_pan_joint",
        "shoulder_lift_joint",
        "elbow_joint",
        "wrist_1_joint",
        "wrist_2_joint",
        "wrist_3_joint"
    ],
    "metrics": {
        "cart_traj_len": 0.35261483665279336,
        "distance_elbow_joint": 0.4509898425944736,
        "distance_shoulder_lift_joint": 0.23477713539698608,
        "distance_shoulder_pan_joint": 0.45818673336830973,
        "distance_wrist_1_joint": 0.2514824011157235,
        "distance_wrist_2_joint": 1.1103039757790523,
        "distance_wrist_3_joint": 0.10144651738950694,
        "smoothness": 4.440892133664971e-16,
        "time": 0.031743586,
        "traj_len": 1.6146784836753265,
        "weighted_distance": 2.042514630869958
    },
    "planner": "EST",
    "start": {
        "state": {
            "elbow_joint": 1.9715472970024885,
            "shoulder_lift_joint": -1.1394870060712896,
            "shoulder_pan_joint": 0.12281152778156021,
            "wrist_1_joint": -0.780463741449964,
            "wrist_2_joint": 0.12958659822042276,
            "wrist_3_joint": 3.090690232415272
        }
    },
    "waypoints": [
        {
            "positions": [
                0.12281152778156021,
                -1.1394870060712896,
                1.9715472970024885,
                -0.780463741449964,
                0.12958659822042276,
                3.090690232415272
            ]
        },
        {
            "positions": [
                0.05735628015751597,
                -1.1730265968422877,
                2.0359744173731276,
                -0.8163897987522102,
                0.2882014519031445,
                3.105182592042344
            ]
        },
        {
            "positions": [
                -0.008098967466528273,
                -1.2065661876132856,
                2.1004015377437666,
                -0.8523158560544564,
                0.44681630558586627,
                3.119674951669417
            ]
        },
        {
            "positions": [
                -0.07355421509057253,
                -1.2401057783842837,
                2.1648286581144056,
                -0.8882419133567027,
                0.605431159268588,
                3.134167311296489
            ]
        },
        {
            "positions": [
                -0.13900946271461675,
                -1.2736453691552816,
                2.2292557784850446,
                -0.9241679706589488,
                0.7640460129513097,
                3.1486596709235615
            ]
        },
        {
            "positions": [
                -0.204464710338661,
                -1.3071849599262797,
                2.293682898855684,
                -0.9600940279611951,
                0.9226608666340315,
                3.1631520305506338
            ]
        },
        {
            "positions": [
                -0.2699199579627053,
                -1.3407245506972776,
                2.358110019226323,
                -0.9960200852634413,
                1.0812757203167533,
                3.1776443901777065
            ]
        },
        {
            "positions": [
                -0.3353752055867495,
                -1.3742641414682757,
                2.422537139596962,
                -1.0319461425656875,
                1.239890573999475,
                3.192136749804779
            ]
        }
    ]
}