{
    "goal": {
        "global_pose": {
            "orientation": {
                "w": 0.7047431493862688,
                "x": -0.7094548369677653,
                "y": 0.0024358444001904,
                "z": -0.0022348060817251984
            },
            "position": {
                "x": -0.39052492380142206,
                "y": 0.3671506643295288,
                "z": 0.19426114857196808
            }
        },
        "name": "move_to_magneteinheit_D"
    },
    "id": "EST_move_to_magneteinheit_D_109",
    "joint_names": [
        "shoulder_pan_joint",
        "shoulder_lift_joint",
        "elbow_joint",
        "wrist_1_joint",
        "wrist_2_joint",
        "wrist_3_joint"
    ],
    "metrics": {
        "cart_traj_len": 4.419903828073316,
        "distance_elbow_joint": 3.6520938175274713,
        "distance_shoulder_lift_joint": 1.6256168273459244,
        "distance_shoulder_pan_joint": 3.050393345447992,
        "distance_wrist_1_joint": 4.310332836003159,
        "distance_wrist_2_joint": 1.5667245742484006,
        "distance_wrist_3_joint": 3.3186302812767954,
        "smoothness": 0.4845366715189632,
        "time": 0.51025919,
        "traj_len": 4.186142816704865,
        "weighted_distance": 5.480703390501524
    },
    "planner": "EST",
    "start": {
        "state": {
            "elbow_joint": 0.749534889911806,
            "shoulder_lift_joint": -0.6476975780787326,
            "shoulder_pan_joint": -2.711696901376241,
            "wrist_1_joint": -0.07506478083263063,
            "wrist_2_joint": 0.43296659715538205,
            "wrist_3_joint": -3.14703540197715
        }
    },
    "waypoints": [
        {
            "positions": [
                -2.711696901376241,
                -0.6476975780787326,
                0.749534889911806,
                -0.07506478083263063,
                0.43296659715538205,
                -3.14703540197715
            ]
        },
        {
            "positions": [
                -2.702980014260428,
                -0.7139262634833372,
                0.7812120724885433,
                0.10074320406963255,
                0.3836931277107233,
                -3.1096404217289466
            ]
        },
        {
            "positions": [
                -2.694263127144615,
                -0.7801549488879417,
                0.8128892550652806,
                0.27655118897189573,
                0.33441965826606446,
                -3.072245441480743
            ]
        },
        {
            "positions": [
                -2.685546240028802,
                -0.8463836342925461,
                0.844566437642018,
                0.45235917387415897,
                0.2851461888214057,
                -3.0348504612325393
            ]
        },
        {
            "positions": [
                -2.676829352912989,
                -0.9126123196971507,
                0.8762436202187553,
                0.6281671587764222,
                0.23587271937674692,
                -2.997455480984336
            ]
        },
        {
            "positions": [
                -2.668112465797176,
                -0.9788410051017553,
                0.9079208027954927,
                0.8039751436786853,
                0.18659924993208815,
                -2.9600605007361325
            ]
        },
        {
            "positions": [
                -2.6593955786813632,
                -1.04506969050636,
                0.93959798537223,
                0.9797831285809486,
                0.13732578048742933,
                -2.9226655204879286
            ]
        },
        {
            "positions": [
                -2.6506786915655502,
                -1.1112983759109643,
                0.9712751679489674,
                1.1555911134832118,
                0.08805231104277056,
                -2.885270540239725
            ]
        },
        {
            "positions": [
                -2.6419618044497373,
                -1.1775270613155688,
                1.0029523505257047,
                1.3313990983854749,
                0.03877884159811176,
                -2.8478755599915218
            ]
        },
        {
            "positions": [
                -2.528795573261873,
                -1.1934703315267683,
                0.9243132265933286,
                1.2735541886802022,
                0.059651819019548503,
                -2.746980615751758
            ]
        },
        {
            "positions": [
                -2.415629342074009,
                -1.2094136017379677,
                0.8456741026609524,
                1.2157092789749298,
                0.08052479644098524,
                -2.6460856715119934
            ]
        },
        {
            "positions": [
                -2.302463110886145,
                -1.2253568719491672,
                0.7670349787285763,
                1.157864369269657,
                0.10139777386242199,
                -2.5451907272722294
            ]
        },
        {
            "positions": [
                -2.189296879698281,
                -1.2413001421603667,
                0.6883958547962001,
                1.1000194595643844,
                0.12227075128385873,
                -2.444295783032465
            ]
        },
        {
            "positions": [
                -2.0761306485104165,
                -1.2572434123715661,
                0.6097567308638239,
                1.0421745498591117,
                0.1431437287052955,
                -2.343400838792701
            ]
        },
        {
            "positions": [
                -1.9629644173225524,
                -1.2731866825827656,
                0.5311176069314478,
                0.9843296401538393,
                0.16401670612673222,
                -2.242505894552937
            ]
        },
        {
            "positions": [
                -1.8497981861346884,
                -1.289129952793965,
                0.45247848299907156,
                0.9264847304485666,
                0.18488968354816898,
                -2.1416109503131726
            ]
        },
        {
            "positions": [
                -1.7366319549468243,
                -1.3050732230051645,
                0.3738393590666955,
                0.868639820743294,
                0.2057626609696057,
                -2.0407160060734086
            ]
        },
        {
            "positions": [
                -1.6234657237589603,
                -1.321016493216364,
                0.29520023513431926,
                0.8107949110380214,
                0.22663563839104245,
                -1.9398210618336444
            ]
        },
        {
            "positions": [
                -1.510299492571096,
                -1.3369597634275636,
                0.2165611112019431,
                0.7529500013327488,
                0.2475086158124792,
                -1.8389261175938802
            ]
        },
        {
            "positions": [
                -1.397133261383232,
                -1.3529030336387629,
                0.13792198726956695,
                0.6951050916274762,
                0.2683815932339159,
                -1.7380311733541163
            ]
        },
        {
            "positions": [
                -1.2839670301953678,
                -1.3688463038499625,
                0.059282863337190794,
                0.6372601819222036,
                0.28925457065535265,
                -1.637136229114352
            ]
        },
        {
            "positions": [
                -1.1708007990075038,
                -1.3847895740611618,
                -0.01935626059518536,
                0.579415272216931,
                0.31012754807678944,
                -1.536241284874588
            ]
        },
        {
            "positions": [
                -1.0576345678196395,
                -1.4007328442723614,
                -0.09799538452756162,
                0.5215703625116583,
                0.33100052549822623,
                -1.4353463406348237
            ]
        },
        {
            "positions": [
                -0.9444683366317754,
                -1.416676114483561,
                -0.17663450845993767,
                0.4637254528063858,
                0.3518735029196629,
                -1.3344513963950597
            ]
        },
        {
            "positions": [
                -0.8313021054439114,
                -1.4326193846947604,
                -0.2552736323923137,
                0.4058805431011132,
                0.3727464803410996,
                -1.2335564521552955
            ]
        },
        {
            "positions": [
                -0.7181358742560471,
                -1.4485626549059598,
                -0.3339127563246902,
                0.3480356333958404,
                0.3936194577625364,
                -1.1326615079155313
            ]
        },
        {
            "positions": [
                -0.6049696430681832,
                -1.4645059251171593,
                -0.41255188025706624,
                0.29019072369056786,
                0.41449243518397316,
                -1.0317665636757671
            ]
        },
        {
            "positions": [
                -0.4918034118803192,
                -1.4804491953283587,
                -0.4911910041894423,
                0.2323458139852954,
                0.43536541260540984,
                -0.9308716194360032
            ]
        },
        {
            "positions": [
                -0.37863718069245467,
                -1.4963924655395582,
                -0.5698301281218185,
                0.17450090428002274,
                0.45623839002684663,
                -0.8299766751962387
            ]
        },
        {
            "positions": [
                -0.2654709495045906,
                -1.5123357357507576,
                -0.6484692520541946,
                0.11665599457475007,
                0.4771113674482833,
                -0.7290817309564748
            ]
        },
        {
            "positions": [
                -0.15230471831672654,
                -1.528279005961957,
                -0.7271083759865709,
                0.058811084869477614,
                0.4979843448697201,
                -0.6281867867167108
            ]
        },
        {
            "positions": [
                -0.039138487128862476,
                -1.5442222761731565,
                -0.8057474999189471,
                0.0009661751642047189,
                0.5188573222911569,
                -0.5272918424769464
            ]
        },
        {
            "positions": [
                0.0740277440590018,
                -1.560165546384356,
                -0.8843866238513232,
                -0.056878734541067726,
                0.5397302997125936,
                -0.4263968982371826
            ]
        },
        {
            "positions": [
                0.07420006855546998,
                -1.6165811382190873,
                -0.9931847645905779,
                0.06867729997341435,
                0.49668074991915717,
                -0.37997145135668503
            ]
        },
        {
            "positions": [
                0.07437239305193816,
                -1.6729967300538187,
                -1.1019829053298327,
                0.19423333448789643,
                0.4536312001257208,
                -0.33354600447618754
            ]
        },
        {
            "positions": [
                0.07454471754840634,
                -1.72941232188855,
                -1.2107810460690873,
                0.31978936900237853,
                0.41058165033228433,
                -0.28712055759569
            ]
        },
        {
            "positions": [
                0.07471704204487453,
                -1.7858279137232813,
                -1.319579186808342,
                0.4453454035168606,
                0.367532100538848,
                -0.24069511071519245
            ]
        },
        {
            "positions": [
                0.07488936654134272,
                -1.8422435055580126,
                -1.4283773275475968,
                0.5709014380313427,
                0.32448255074541155,
                -0.19426966383469488
            ]
        },
        {
            "positions": [
                0.07506169103781091,
                -1.898659097392744,
                -1.5371754682868515,
                0.6964574725458248,
                0.28143300095197515,
                -0.14784421695419736
            ]
        },
        {
            "positions": [
                0.07523401553427908,
                -1.9550746892274753,
                -1.6459736090261061,
                0.822013507060307,
                0.2383834511585387,
                -0.10141877007369982
            ]
        },
        {
            "positions": [
                0.07540634003074727,
                -2.0114902810622066,
                -1.7547717497653608,
                0.9475695415747889,
                0.19533390136510237,
                -0.054993323193202326
            ]
        },
        {
            "positions": [
                0.07557866452721546,
                -2.067905872896938,
                -1.8635698905046156,
                1.073125576089271,
                0.15228435157166598,
                -0.00856787631270478
            ]
        },
        {
            "positions": [
                0.07575098902368363,
                -2.1243214647316693,
                -1.9723680312438705,
                1.1986816106037532,
                0.10923480177822953,
                0.03785757056779282
            ]
        },
        {
            "positions": [
                0.07592331352015182,
                -2.1807370565664006,
                -2.081166171983125,
                1.3242376451182352,
                0.06618525198479319,
                0.08428301744829031
            ]
        },
        {
            "positions": [
                0.07609563801662,
                -2.237152648401132,
                -2.18996431272238,
                1.4497936796327173,
                0.02313570219135673,
                0.13070846432878785
            ]
        },
        {
            "positions": [
                -0.05520476501094673,
                -2.2552335269128942,
                -2.2928441595551234,
                1.4453343247903545,
                0.10063108371906256,
                0.11026525684335971
            ]
        },
        {
            "positions": [
                -0.18650516803851347,
                -2.273314405424657,
                -2.395724006387867,
                1.4408749699479917,
                0.1781264652467684,
                0.08982204935793156
            ]
        }
    ]
}