{
    "goal": {
        "global_pose": {
            "orientation": {
                "w": 0.5084816262002911,
                "x": -0.4908360881923452,
                "y": 0.5182115481033761,
                "z": -0.48164630358495003
            },
            "position": {
                "x": 0.5540239810943604,
                "y": -0.46912469901144505,
                "z": 0.16403168439865112
            }
        },
        "name": "move_to_storage_B"
    },
    "id": "EST_move_to_storage_B_106",
    "joint_names": [
        "shoulder_pan_joint",
        "shoulder_lift_joint",
        "elbow_joint",
        "wrist_1_joint",
        "wrist_2_joint",
        "wrist_3_joint"
    ],
    "metrics": {
        "cart_traj_len": 0.9421656333392606,
        "distance_elbow_joint": 0.8390050886961746,
        "distance_shoulder_lift_joint": 0.457599352339505,
        "distance_shoulder_pan_joint": 0.5885923049920093,
        "distance_wrist_1_joint": 3.0876497523407487,
        "distance_wrist_2_joint": 2.7062590614796296,
        "distance_wrist_3_joint": 3.3764809347753144,
        "smoothness": 0.43630622467750096,
        "time": 0.072375567,
        "traj_len": 3.3249942097127603,
        "weighted_distance": 4.85823601505674
    },
    "planner": "EST",
    "start": {
        "state": {
            "elbow_joint": 1.664937868594044,
            "shoulder_lift_joint": -0.661644460510453,
            "shoulder_pan_joint": -0.9139846352900073,
            "wrist_1_joint": 2.146753192139373,
            "wrist_2_joint": -2.2341966793290973,
            "wrist_3_joint": 0.005466555786416001
        }
    },
    "waypoints": [
        {
            "positions": [
                -0.9139846352900073,
                -0.661644460510453,
                1.664937868594044,
                2.146753192139373,
                -2.2341966793290973,
                0.005466555786416001
            ]
        },
        {
            "positions": [
                -0.8842390669906586,
                -0.6645835898042438,
                1.6387590368009644,
                2.145901640742342,
                -2.216669448947094,
                0.02699749625453228
            ]
        },
        {
            "positions": [
                -0.8261433088424734,
                -0.7040646523951151,
                1.5654509965342176,
                2.1642109842837884,
                -2.0570431772415745,
                -0.012300265759045845
            ]
        },
        {
            "positions": [
                -0.7680475506942883,
                -0.7435457149859862,
                1.4921429562674706,
                2.1825203278252343,
                -1.8974169055360548,
                -0.05159802777262397
            ]
        },
        {
            "positions": [
                -0.7099517925461032,
                -0.7830267775768575,
                1.4188349160007239,
                2.2008296713666806,
                -1.7377906338305351,
                -0.0908957897862021
            ]
        },
        {
            "positions": [
                -0.7253341710360274,
                -0.7964754589877815,
                1.442551001444838,
                2.0795548645539053,
                -1.6493965131912924,
                0.038586478544456446
            ]
        },
        {
            "positions": [
                -0.7407165495259516,
                -0.8099241403987055,
                1.4662670868889522,
                1.9582800577411303,
                -1.5610023925520498,
                0.16806874687511497
            ]
        },
        {
            "positions": [
                -0.7560989280158759,
                -0.8233728218096296,
                1.4899831723330663,
                1.8370052509283552,
                -1.472608271912807,
                0.29755101520577354
            ]
        },
        {
            "positions": [
                -0.7714813065058,
                -0.8368215032205535,
                1.5136992577771806,
                1.71573044411558,
                -1.3842141512735644,
                0.42703328353643205
            ]
        },
        {
            "positions": [
                -0.7868636849957242,
                -0.8502701846314775,
                1.5374153432212947,
                1.5944556373028047,
                -1.2958200306343217,
                0.5565155518670907
            ]
        },
        {
            "positions": [
                -0.8022460634856484,
                -0.8637188660424016,
                1.561131428665409,
                1.4731808304900298,
                -1.207425909995079,
                0.6859978201977492
            ]
        },
        {
            "positions": [
                -0.8176284419755726,
                -0.8771675474533256,
                1.584847514109523,
                1.3519060236772544,
                -1.1190317893558361,
                0.8154800885284078
            ]
        },
        {
            "positions": [
                -0.8330108204654969,
                -0.8906162288642496,
                1.6085635995536374,
                1.2306312168644793,
                -1.0306376687165937,
                0.9449623568590663
            ]
        },
        {
            "positions": [
                -0.8483931989554211,
                -0.9040649102751737,
                1.6322796849977514,
                1.1093564100517042,
                -0.9422435480773509,
                1.0744446251897246
            ]
        },
        {
            "positions": [
                -0.8637755774453453,
                -0.9175135916860977,
                1.6559957704418657,
                0.9880816032389288,
                -0.8538494274381081,
                1.2039268935203833
            ]
        },
        {
            "positions": [
                -0.8791579559352695,
                -0.9309622730970217,
                1.6797118558859798,
                0.8668067964261539,
                -0.7654553067988654,
                1.3334091618510417
            ]
        },
        {
            "positions": [
                -0.8945403344251937,
                -0.9444109545079458,
                1.7034279413300941,
                0.7455319896133787,
                -0.6770611861596227,
                1.4628914301817004
            ]
        },
        {
            "positions": [
                -0.909922712915118,
                -0.9578596359188698,
                1.7271440267742082,
                0.6242571828006034,
                -0.5886670655203801,
                1.5923736985123589
            ]
        },
        {
            "positions": [
                -0.9253050914050421,
                -0.9713083173297938,
                1.7508601122183225,
                0.5029823759878282,
                -0.5002729448811372,
                1.7218559668430176
            ]
        },
        {
            "positions": [
                -0.9406874698949663,
                -0.9847569987407178,
                1.7745761976624366,
                0.38170756917505333,
                -0.4118788242418947,
                1.851338235173676
            ]
        },
        {
            "positions": [
                -0.9560698483848905,
                -0.9982056801516418,
                1.7982922831065509,
                0.26043276236227797,
                -0.323484703602652,
                1.9808205035043345
            ]
        },
        {
            "positions": [
                -0.9714522268748147,
                -1.0116543615625657,
                1.822008368550665,
                0.1391579555495026,
                -0.23509058296340912,
                2.1103027718349936
            ]
        },
        {
            "positions": [
                -0.986834605364739,
                -1.0251030429734898,
                1.8457244539947792,
                0.017883148736727694,
                -0.14669646232416667,
                2.2397850401656516
            ]
        },
        {
            "positions": [
                -1.0022169838546633,
                -1.0385517243844138,
                1.8694405394388933,
                -0.10339165807604767,
                -0.058302341684923764,
                2.3692673084963105
            ]
        },
        {
            "positions": [
                -1.0175993623445874,
                -1.0520004057953378,
                1.8931566248830076,
                -0.22466646488882303,
                0.030091778954318915,
                2.498749576826969
            ]
        },
        {
            "positions": [
                -1.0329817408345114,
                -1.0654490872062619,
                1.9168727103271217,
                -0.34594127170159794,
                0.11848589959356137,
                2.6282318451576274
            ]
        },
        {
            "positions": [
                -1.0483641193244357,
                -1.078897768617186,
                1.940588795771236,
                -0.46721607851437286,
                0.20688002023280427,
                2.757714113488286
            ]
        },
        {
            "positions": [
                -1.06374649781436,
                -1.09234645002811,
                1.96430488121535,
                -0.5884908853271482,
                0.29527414087204695,
                2.887196381818945
            ]
        },
        {
            "positions": [
                -1.0791288763042841,
                -1.105795131439034,
                1.9880209666594642,
                -0.7097656921399231,
                0.38366826151128963,
                3.0166786501496032
            ]
        },
        {
            "positions": [
                -1.0945112547942084,
                -1.119243812849958,
                2.0117370521035784,
                -0.8310404989526985,
                0.47206238215053226,
                3.1461609184802617
            ]
        }
    ]
}