{
    "goal": {
        "global_pose": {
            "orientation": {
                "w": 0.5084816262002911,
                "x": -0.4908360881923452,
                "y": 0.5182115481033761,
                "z": -0.48164630358495003
            },
            "position": {
                "x": 0.5540239810943604,
                "y": -0.46912469901144505,
                "z": 0.16403168439865112
            }
        },
        "name": "move_to_storage_B"
    },
    "id": "EST_move_to_storage_B_27",
    "joint_names": [
        "shoulder_pan_joint",
        "shoulder_lift_joint",
        "elbow_joint",
        "wrist_1_joint",
        "wrist_2_joint",
        "wrist_3_joint"
    ],
    "metrics": {
        "cart_traj_len": 1.9071285446104427,
        "distance_elbow_joint": 1.9989221660211318,
        "distance_shoulder_lift_joint": 0.4580766062092241,
        "distance_shoulder_pan_joint": 1.527523973492352,
        "distance_wrist_1_joint": 2.9886162484883476,
        "distance_wrist_2_joint": 2.7044429267661245,
        "distance_wrist_3_joint": 3.1326181724192166,
        "smoothness": 0.1997895865927533,
        "time": 0.097502939,
        "traj_len": 3.5791339865107594,
        "weighted_distance": 4.976795717476186
    },
    "planner": "EST",
    "start": {
        "state": {
            "elbow_joint": 1.664937868594044,
            "shoulder_lift_joint": -0.661644460510453,
            "shoulder_pan_joint": -0.9139846352900073,
            "wrist_1_joint": 2.146753192139373,
            "wrist_2_joint": -2.2341966793290973,
            "wrist_3_joint": 0.005466555786416001
        }
    },
    "waypoints": [
        {
            "positions": [
                -0.9139846352900073,
                -0.661644460510453,
                1.664937868594044,
                2.146753192139373,
                -2.2341966793290973,
                0.005466555786416001
            ]
        },
        {
            "positions": [
                -0.8298427325490914,
                -0.6912802985547993,
                1.561880690846105,
                2.121116044897716,
                -2.118975588711001,
                0.003687059351716323
            ]
        },
        {
            "positions": [
                -0.7457008298081755,
                -0.7209161365991457,
                1.458823513098166,
                2.0954788976560583,
                -2.003754498092905,
                0.0019075629170166456
            ]
        },
        {
            "positions": [
                -0.6615589270672596,
                -0.7505519746434921,
                1.3557663353502267,
                2.069841750414401,
                -1.8885334074748086,
                0.00012806648231696808
            ]
        },
        {
            "positions": [
                -0.5774170243263437,
                -0.7801878126878384,
                1.252709157602288,
                2.044204603172744,
                -1.7733123168567124,
                -0.0016514299523827094
            ]
        },
        {
            "positions": [
                -0.49327512158542786,
                -0.8098236507321848,
                1.1496519798543487,
                2.018567455931086,
                -1.6580912262386163,
                -0.003430926387082387
            ]
        },
        {
            "positions": [
                -0.4091332188445119,
                -0.8394594887765312,
                1.0465948021064098,
                1.992930308689429,
                -1.5428701356205199,
                -0.005210422821782064
            ]
        },
        {
            "positions": [
                -0.3249913161035961,
                -0.8690953268208775,
                0.9435376243584708,
                1.9672931614477718,
                -1.4276490450024237,
                -0.006989919256481742
            ]
        },
        {
            "positions": [
                -0.24084941336268018,
                -0.8987311648652239,
                0.8404804466105318,
                1.9416560142061143,
                -1.3124279543843276,
                -0.00876941569118142
            ]
        },
        {
            "positions": [
                -0.2737105191921042,
                -0.9072307764750105,
                0.8856521675350556,
                1.834597588415534,
                -1.2438635620065832,
                -0.12870719265047448
            ]
        },
        {
            "positions": [
                -0.3065716250215283,
                -0.9157303880847972,
                0.9308238884595794,
                1.7275391626249537,
                -1.1752991696288386,
                -0.2486449696097675
            ]
        },
        {
            "positions": [
                -0.3394327308509524,
                -0.9242299996945839,
                0.9759956093841033,
                1.6204807368343732,
                -1.1067347772510943,
                -0.36858274656906054
            ]
        },
        {
            "positions": [
                -0.3722938366803764,
                -0.9327296113043705,
                1.021167330308627,
                1.513422311043793,
                -1.0381703848733497,
                -0.4885205235283536
            ]
        },
        {
            "positions": [
                -0.40515494250980044,
                -0.9412292229141572,
                1.066339051233151,
                1.4063638852532128,
                -0.9696059924956053,
                -0.6084583004876466
            ]
        },
        {
            "positions": [
                -0.43801604833922453,
                -0.9497288345239439,
                1.1115107721576747,
                1.2993054594626323,
                -0.9010416001178609,
                -0.7283960774469397
            ]
        },
        {
            "positions": [
                -0.47087715416864856,
                -0.9582284461337305,
                1.1566824930821986,
                1.192247033672052,
                -0.8324772077401166,
                -0.8483338544062325
            ]
        },
        {
            "positions": [
                -0.5037382599980726,
                -0.9667280577435171,
                1.2018542140067225,
                1.0851886078814716,
                -0.763912815362372,
                -0.9682716313655257
            ]
        },
        {
            "positions": [
                -0.5365993658274967,
                -0.9752276693533038,
                1.2470259349312462,
                0.9781301820908914,
                -0.6953484229846276,
                -1.0882094083248188
            ]
        },
        {
            "positions": [
                -0.5694604716569207,
                -0.9837272809630905,
                1.2921976558557702,
                0.871071756300311,
                -0.6267840306068831,
                -1.208147185284112
            ]
        },
        {
            "positions": [
                -0.6023215774863449,
                -0.9922268925728771,
                1.3373693767802939,
                0.7640133305097307,
                -0.5582196382291387,
                -1.3280849622434048
            ]
        },
        {
            "positions": [
                -0.6351826833157689,
                -1.0007265041826638,
                1.3825410977048178,
                0.6569549047191503,
                -0.4896552458513942,
                -1.448022739202698
            ]
        },
        {
            "positions": [
                -0.6680437891451929,
                -1.0092261157924505,
                1.4277128186293417,
                0.5498964789285701,
                -0.42109085347364983,
                -1.567960516161991
            ]
        },
        {
            "positions": [
                -0.7009048949746169,
                -1.017725727402237,
                1.4728845395538654,
                0.44283805313798985,
                -0.35252646109590546,
                -1.6878982931212838
            ]
        },
        {
            "positions": [
                -0.733766000804041,
                -1.0262253390120237,
                1.5180562604783892,
                0.3357796273474096,
                -0.283962068718161,
                -1.807836070080577
            ]
        },
        {
            "positions": [
                -0.7666271066334651,
                -1.0347249506218104,
                1.563227981402913,
                0.22872120155682896,
                -0.2153976763404164,
                -1.9277738470398702
            ]
        },
        {
            "positions": [
                -0.7994882124628891,
                -1.0432245622315972,
                1.608399702327437,
                0.12166277576624873,
                -0.14683328396267203,
                -2.047711623999163
            ]
        },
        {
            "positions": [
                -0.8323493182923132,
                -1.0517241738413838,
                1.653571423251961,
                0.014604349975668507,
                -0.07826889158492767,
                -2.167649400958456
            ]
        },
        {
            "positions": [
                -0.8652104241217372,
                -1.0602237854511705,
                1.6987431441764844,
                -0.09245407581491194,
                -0.009704499207183304,
                -2.2875871779177492
            ]
        },
        {
            "positions": [
                -0.8980715299511614,
                -1.068723397060957,
                1.7439148651010086,
                -0.1995125016054924,
                0.058859893170561284,
                -2.4075249548770423
            ]
        },
        {
            "positions": [
                -0.9309326357805854,
                -1.0772230086707437,
                1.7890865860255323,
                -0.3065709273960724,
                0.12742428554830565,
                -2.5274627318363354
            ]
        },
        {
            "positions": [
                -0.9637937416100094,
                -1.0857226202805303,
                1.8342583069500562,
                -0.41362935318665284,
                0.19598867792605024,
                -2.647400508795628
            ]
        },
        {
            "positions": [
                -0.9966548474394334,
                -1.094222231890317,
                1.87943002787458,
                -0.5206877789772333,
                0.2645530703037946,
                -2.767338285754921
            ]
        },
        {
            "positions": [
                -1.0295159532688576,
                -1.1027218435001038,
                1.9246017487991038,
                -0.6277462047678137,
                0.3331174626815392,
                -2.8872760627142147
            ]
        },
        {
            "positions": [
                -1.0623770590982815,
                -1.1112214551098905,
                1.9697734697236278,
                -0.7348046305583937,
                0.40168185505928355,
                -3.0072138396735073
            ]
        },
        {
            "positions": [
                -1.0952381649277056,
                -1.119721066719677,
                2.0149451906481515,
                -0.8418630563489741,
                0.470246247437028,
                -3.1271516166328004
            ]
        }
    ]
}