{
    "goal": {
        "global_pose": {
            "orientation": {
                "w": 0.005598929693374612,
                "x": 0.007748599140229565,
                "y": 0.7110244013736278,
                "z": -0.7031023480610252
            },
            "position": {
                "x": -0.8858502320852131,
                "y": -0.7141253447532654,
                "z": 0.3711530566215515
            }
        },
        "name": "move_to_auspresseinheit_C"
    },
    "id": "EST_move_to_auspresseinheit_C_123",
    "joint_names": [
        "shoulder_pan_joint",
        "shoulder_lift_joint",
        "elbow_joint",
        "wrist_1_joint",
        "wrist_2_joint",
        "wrist_3_joint"
    ],
    "metrics": {
        "cart_traj_len": 0.4921911741995526,
        "distance_elbow_joint": 0.990133054328198,
        "distance_shoulder_lift_joint": 0.32075887235957434,
        "distance_shoulder_pan_joint": 0.2561012242403393,
        "distance_wrist_1_joint": 0.6568910256050216,
        "distance_wrist_2_joint": 1.3150595821088982,
        "distance_wrist_3_joint": 0.03921542003031231,
        "smoothness": 3.2297397335745243e-16,
        "time": 0.529695487,
        "traj_len": 1.8916022781420896,
        "weighted_distance": 2.372454557298598
    },
    "planner": "EST",
    "start": {
        "state": {
            "elbow_joint": 1.7527959577737207,
            "shoulder_lift_joint": -0.9740617694225068,
            "shoulder_pan_joint": -2.967991417825858,
            "wrist_1_joint": -0.759517768980727,
            "wrist_2_joint": 1.7443932448377408,
            "wrist_3_joint": -3.0840537646736568
        }
    },
    "waypoints": [
        {
            "positions": [
                -2.967991417825858,
                -0.9740617694225068,
                1.7527959577737207,
                -0.759517768980727,
                1.7443932448377408,
                -3.0840537646736568
            ]
        },
        {
            "positions": [
                -2.942381295401824,
                -0.9419858821865493,
                1.653782652340901,
                -0.6938286664202248,
                1.612887286626851,
                -3.087975306676688
            ]
        },
        {
            "positions": [
                -2.91677117297779,
                -0.9099099949505919,
                1.554769346908081,
                -0.6281395638597227,
                1.4813813284159612,
                -3.091896848679719
            ]
        },
        {
            "positions": [
                -2.891161050553756,
                -0.8778341077146344,
                1.4557560414752613,
                -0.5624504612992205,
                1.3498753702050714,
                -3.0958183906827506
            ]
        },
        {
            "positions": [
                -2.8655509281297222,
                -0.845758220478677,
                1.3567427360424413,
                -0.49676135873871835,
                1.2183694119941815,
                -3.0997399326857815
            ]
        },
        {
            "positions": [
                -2.8399408057056883,
                -0.8136823332427197,
                1.2577294306096216,
                -0.4310722561782162,
                1.0868634537832917,
                -3.103661474688813
            ]
        },
        {
            "positions": [
                -2.8143306832816544,
                -0.7816064460067622,
                1.158716125176802,
                -0.36538315361771406,
                0.9553574955724019,
                -3.1075830166918443
            ]
        },
        {
            "positions": [
                -2.7887205608576204,
                -0.7495305587708048,
                1.0597028197439822,
                -0.2996940510572119,
                0.8238515373615122,
                -3.1115045586948753
            ]
        },
        {
            "positions": [
                -2.7631104384335865,
                -0.7174546715348473,
                0.9606895143111622,
                -0.23400494849670972,
                0.6923455791506223,
                -3.1154261006979067
            ]
        },
        {
            "positions": [
                -2.7375003160095526,
                -0.6853787842988899,
                0.8616762088783425,
                -0.16831584593620752,
                0.5608396209397324,
                -3.1193476427009377
            ]
        },
        {
            "positions": [
                -2.7118901935855186,
                -0.6533028970629324,
                0.7626629034455227,
                -0.1026267433757054,
                0.4293336627288427,
                -3.123269184703969
            ]
        }
    ]
}