{
    "goal": {
        "global_pose": {
            "orientation": {
                "w": -0.4816463035849501,
                "x": 0.5182115481033762,
                "y": 0.4908360881923453,
                "z": -0.5084816262002911
            },
            "position": {
                "x": -0.8240239810943604,
                "y": 0.19912469901144506,
                "z": 0.16403168439865112
            }
        },
        "name": "move_to_storage_D"
    },
    "id": "EST_move_to_storage_D_90",
    "joint_names": [
        "shoulder_pan_joint",
        "shoulder_lift_joint",
        "elbow_joint",
        "wrist_1_joint",
        "wrist_2_joint",
        "wrist_3_joint"
    ],
    "metrics": {
        "cart_traj_len": 4.2666565713667834,
        "distance_elbow_joint": 4.210149137437709,
        "distance_shoulder_lift_joint": 1.2638493007391403,
        "distance_shoulder_pan_joint": 2.8112573552319624,
        "distance_wrist_1_joint": 2.2652928104367307,
        "distance_wrist_2_joint": 0.8679256402671994,
        "distance_wrist_3_joint": 3.1291581805301747,
        "smoothness": 4.327023063239674e-16,
        "time": 0.052154143,
        "traj_len": 3.8141358686657867,
        "weighted_distance": 4.892766828330081
    },
    "planner": "EST",
    "start": {
        "state": {
            "elbow_joint": -2.384821988534728,
            "shoulder_lift_joint": -2.2788054721415256,
            "shoulder_pan_joint": -0.1854694642142757,
            "wrist_1_joint": 1.4845938289331202,
            "wrist_2_joint": 0.17898776772866878,
            "wrist_3_joint": 0.037105688729662994
        }
    },
    "waypoints": [
        {
            "positions": [
                -0.1854694642142757,
                -2.2788054721415256,
                -2.384821988534728,
                1.4845938289331202,
                0.17898776772866878,
                0.037105688729662994
            ]
        },
        {
            "positions": [
                -0.08528636461129446,
                -2.2584861950108954,
                -2.2592532015035105,
                1.413912630160663,
                0.22064620675682306,
                0.011645628031211941
            ]
        },
        {
            "positions": [
                0.014896734991686783,
                -2.238166917880265,
                -2.1336844144722935,
                1.343231431388206,
                0.2623046457849773,
                -0.013814432667239113
            ]
        },
        {
            "positions": [
                0.11507983459466806,
                -2.2178476407496346,
                -2.008115627441076,
                1.2725502326157492,
                0.3039630848131316,
                -0.039274493365690166
            ]
        },
        {
            "positions": [
                0.21526293419764927,
                -2.1975283636190044,
                -1.8825468404098589,
                1.201869033843292,
                0.34562152384128586,
                -0.06473455406414122
            ]
        },
        {
            "positions": [
                0.31544603380063063,
                -2.1772090864883737,
                -1.7569780533786414,
                1.1311878350708349,
                0.3872799628694401,
                -0.0901946147625923
            ]
        },
        {
            "positions": [
                0.41562913340361185,
                -2.1568898093577435,
                -1.6314092663474242,
                1.060506636298378,
                0.42893840189759436,
                -0.11565467546104333
            ]
        },
        {
            "positions": [
                0.5158122330065931,
                -2.1365705322271134,
                -1.5058404793162068,
                0.9898254375259209,
                0.4705968409257486,
                -0.1411147361594944
            ]
        },
        {
            "positions": [
                0.6159953326095743,
                -2.1162512550964827,
                -1.3802716922849898,
                0.9191442387534638,
                0.5122552799539029,
                -0.16657479685794543
            ]
        },
        {
            "positions": [
                0.7161784322125556,
                -2.0959319779658525,
                -1.2547029052537724,
                0.8484630399810068,
                0.5539137189820572,
                -0.19203485755639652
            ]
        },
        {
            "positions": [
                0.816361531815537,
                -2.0756127008352223,
                -1.129134118222555,
                0.7777818412085498,
                0.5955721580102115,
                -0.2174949182548476
            ]
        },
        {
            "positions": [
                0.9165446314185183,
                -2.0552934237045917,
                -1.0035653311913377,
                0.7071006424360926,
                0.6372305970383657,
                -0.24295497895329868
            ]
        },
        {
            "positions": [
                1.0167277310214993,
                -2.0349741465739615,
                -0.8779965441601205,
                0.6364194436636357,
                0.67888903606652,
                -0.2684150396517496
            ]
        },
        {
            "positions": [
                1.1169108306244806,
                -2.0146548694433313,
                -0.7524277571289033,
                0.5657382448911786,
                0.7205474750946742,
                -0.2938751003502007
            ]
        },
        {
            "positions": [
                1.2170939302274617,
                -1.9943355923127009,
                -0.6268589700976859,
                0.4950570461187216,
                0.7622059141228285,
                -0.3193351610486518
            ]
        },
        {
            "positions": [
                1.317277029830443,
                -1.9740163151820704,
                -0.5012901830664687,
                0.42437584734626443,
                0.8038643531509828,
                -0.34479522174710286
            ]
        },
        {
            "positions": [
                1.4174601294334241,
                -1.9536970380514402,
                -0.3757213960352517,
                0.3536946485738075,
                0.845522792179137,
                -0.37025528244555383
            ]
        },
        {
            "positions": [
                1.5176432290364055,
                -1.9333777609208098,
                -0.25015260900403424,
                0.28301344980135057,
                0.8871812312072913,
                -0.3957153431440049
            ]
        },
        {
            "positions": [
                1.6178263286393868,
                -1.9130584837901794,
                -0.12458382197281659,
                0.21233225102889344,
                0.9288396702354456,
                -0.42117540384245605
            ]
        },
        {
            "positions": [
                1.6682244067583019,
                -1.8681533681707898,
                -0.02708827342902667,
                0.16268068940226824,
                0.9347433571234667,
                -0.5547192582403588
            ]
        },
        {
            "positions": [
                1.7186224848772167,
                -1.8232482525514,
                0.07040727511476325,
                0.11302912777564302,
                0.9406470440114878,
                -0.6882631126382617
            ]
        },
        {
            "positions": [
                1.7690205629961318,
                -1.7783431369320102,
                0.16790282365855314,
                0.06337756614901782,
                0.9465507308995089,
                -0.8218069670361643
            ]
        },
        {
            "positions": [
                1.8194186411150468,
                -1.7334380213126206,
                0.2653983722023431,
                0.013726004522392588,
                0.95245441778753,
                -0.9553508214340671
            ]
        },
        {
            "positions": [
                1.8698167192339619,
                -1.688532905693231,
                0.36289392074613297,
                -0.03592555710423262,
                0.9583581046755512,
                -1.08889467583197
            ]
        },
        {
            "positions": [
                1.9202147973528767,
                -1.6436277900738412,
                0.46038946928992286,
                -0.0855771187308578,
                0.9642617915635724,
                -1.2224385302298726
            ]
        },
        {
            "positions": [
                1.9706128754717918,
                -1.5987226744544514,
                0.5578850178337128,
                -0.135228680357483,
                0.9701654784515935,
                -1.3559823846277754
            ]
        },
        {
            "positions": [
                2.021010953590707,
                -1.5538175588350618,
                0.6553805663775027,
                -0.18488024198410827,
                0.9760691653396146,
                -1.4895262390256783
            ]
        },
        {
            "positions": [
                2.0714090317096217,
                -1.5089124432156722,
                0.7528761149212926,
                -0.23453180361073347,
                0.9819728522276358,
                -1.6230700934235809
            ]
        },
        {
            "positions": [
                2.121807109828537,
                -1.4640073275962824,
                0.8503716634650825,
                -0.28418336523735865,
                0.9878765391156569,
                -1.7566139478214837
            ]
        },
        {
            "positions": [
                2.1722051879474518,
                -1.4191022119768926,
                0.9478672120088725,
                -0.33383492686398397,
                0.993780226003678,
                -1.8901578022193866
            ]
        },
        {
            "positions": [
                2.2226032660663666,
                -1.374197096357503,
                1.0453627605526623,
                -0.38348648849060907,
                0.9996839128916991,
                -2.0237016566172894
            ]
        },
        {
            "positions": [
                2.273001344185282,
                -1.3292919807381134,
                1.1428583090964524,
                -0.4331380501172344,
                1.0055875997797203,
                -2.157245511015192
            ]
        },
        {
            "positions": [
                2.3233994223041967,
                -1.2843868651187236,
                1.2403538576402422,
                -0.4827896117438595,
                1.0114912866677415,
                -2.2907893654130946
            ]
        },
        {
            "positions": [
                2.3737975004231116,
                -1.2394817494993338,
                1.337849406184032,
                -0.5324411733704848,
                1.0173949735557626,
                -2.4243332198109977
            ]
        },
        {
            "positions": [
                2.424195578542027,
                -1.1945766338799442,
                1.435344954727822,
                -0.58209273499711,
                1.0232986604437837,
                -2.5578770742089008
            ]
        },
        {
            "positions": [
                2.4745936566609417,
                -1.1496715182605546,
                1.532840503271612,
                -0.6317442966237352,
                1.0292023473318048,
                -2.6914209286068034
            ]
        },
        {
            "positions": [
                2.5249917347798565,
                -1.1047664026411648,
                1.6303360518154018,
                -0.6813958582503604,
                1.035106034219826,
                -2.824964783004706
            ]
        },
        {
            "positions": [
                2.575389812898772,
                -1.059861287021775,
                1.7278316003591916,
                -0.7310474198769856,
                1.041009721107847,
                -2.9585086374026086
            ]
        },
        {
            "positions": [
                2.6257878910176866,
                -1.0149561714023854,
                1.8253271489029816,
                -0.7806989815036108,
                1.0469134079958682,
                -3.0920524918005117
            ]
        }
    ]
}