{
    "goal": {
        "global_pose": {
            "orientation": {
                "w": -0.4816463035849501,
                "x": 0.5182115481033762,
                "y": 0.4908360881923453,
                "z": -0.5084816262002911
            },
            "position": {
                "x": -0.8240239810943604,
                "y": -0.300875300988555,
                "z": 0.16403168439865112
            }
        },
        "name": "move_to_storage_C"
    },
    "id": "EST_move_to_storage_C_86",
    "joint_names": [
        "shoulder_pan_joint",
        "shoulder_lift_joint",
        "elbow_joint",
        "wrist_1_joint",
        "wrist_2_joint",
        "wrist_3_joint"
    ],
    "metrics": {
        "cart_traj_len": 0.576197490478969,
        "distance_elbow_joint": 0.2591714923408144,
        "distance_shoulder_lift_joint": 0.1879942512521473,
        "distance_shoulder_pan_joint": 0.4958671697145709,
        "distance_wrist_1_joint": 0.08913435915382839,
        "distance_wrist_2_joint": 1.0584624781159713,
        "distance_wrist_3_joint": 0.06810656552862726,
        "smoothness": 0.0,
        "time": 0.01739944,
        "traj_len": 1.4692638687812205,
        "weighted_distance": 1.8554100044014568
    },
    "planner": "EST",
    "start": {
        "state": {
            "elbow_joint": 2.010868314990456,
            "shoulder_lift_joint": -1.1634956873337592,
            "shoulder_pan_joint": -2.4736205022346125,
            "wrist_1_joint": -0.8367026794202681,
            "wrist_2_joint": 0.6746043897044499,
            "wrist_3_joint": -3.1496632123970403
        }
    },
    "waypoints": [
        {
            "positions": [
                -2.4736205022346125,
                -1.1634956873337592,
                2.010868314990456,
                -0.8367026794202681,
                0.6746043897044499,
                -3.1496632123970403
            ]
        },
        {
            "positions": [
                -2.5562650305203745,
                -1.132163312125068,
                1.9676730662669868,
                -0.8218469528946301,
                0.8510148027237785,
                -3.1383121181422693
            ]
        },
        {
            "positions": [
                -2.638909558806136,
                -1.1008309369163767,
                1.9244778175435178,
                -0.806991226368992,
                1.027425215743107,
                -3.126961023887498
            ]
        },
        {
            "positions": [
                -2.721554087091898,
                -1.0694985617076855,
                1.8812825688200485,
                -0.7921354998433539,
                1.2038356287624357,
                -3.1156099296327264
            ]
        },
        {
            "positions": [
                -2.80419861537766,
                -1.0381661864989944,
                1.8380873200965795,
                -0.7772797733177158,
                1.380246041781764,
                -3.1042588353779554
            ]
        },
        {
            "positions": [
                -2.8868431436634214,
                -1.006833811290303,
                1.7948920713731105,
                -0.7624240467920778,
                1.5566564548010926,
                -3.0929077411231845
            ]
        },
        {
            "positions": [
                -2.9694876719491834,
                -0.9755014360816119,
                1.7516968226496414,
                -0.7475683202664397,
                1.733066867820421,
                -3.081556646868413
            ]
        }
    ]
}