{
    "goal": {
        "global_pose": {
            "orientation": {
                "w": 0.7047431493862688,
                "x": -0.7094548369677653,
                "y": 0.0024358444001904,
                "z": -0.0022348060817251984
            },
            "position": {
                "x": -0.39052492380142206,
                "y": 0.3671506643295288,
                "z": 0.19426114857196808
            }
        },
        "name": "move_to_magneteinheit_D"
    },
    "id": "EST_move_to_magneteinheit_D_8",
    "joint_names": [
        "shoulder_pan_joint",
        "shoulder_lift_joint",
        "elbow_joint",
        "wrist_1_joint",
        "wrist_2_joint",
        "wrist_3_joint"
    ],
    "metrics": {
        "cart_traj_len": 4.594402349111065,
        "distance_elbow_joint": 3.134835104950389,
        "distance_shoulder_lift_joint": 1.8246303138869253,
        "distance_shoulder_pan_joint": 3.5745346980037884,
        "distance_wrist_1_joint": 4.2577025691523325,
        "distance_wrist_2_joint": 4.578932826145065,
        "distance_wrist_3_joint": 4.437741949776845,
        "smoothness": 0.5098445339935213,
        "time": 0.473712818,
        "traj_len": 4.669944053403138,
        "weighted_distance": 6.286532967921703
    },
    "planner": "EST",
    "start": {
        "state": {
            "elbow_joint": 0.749534889911806,
            "shoulder_lift_joint": -0.6476975780787326,
            "shoulder_pan_joint": -2.711696901376241,
            "wrist_1_joint": -0.07506478083263063,
            "wrist_2_joint": 0.43296659715538205,
            "wrist_3_joint": -3.14703540197715
        }
    },
    "waypoints": [
        {
            "positions": [
                -2.711696901376241,
                -0.6476975780787326,
                0.749534889911806,
                -0.07506478083263063,
                0.43296659715538205,
                -3.14703540197715
            ]
        },
        {
            "positions": [
                -2.7246191062544773,
                -0.6341119414149365,
                0.7336421514962059,
                0.002098200066792247,
                0.3649487115204421,
                -3.0012536728704786
            ]
        },
        {
            "positions": [
                -2.7375413111327136,
                -0.6205263047511406,
                0.7177494130806058,
                0.07926118096621512,
                0.2969308258855021,
                -2.8554719437638076
            ]
        },
        {
            "positions": [
                -2.75046351601095,
                -0.6069406680873445,
                0.7018566746650058,
                0.156424161865638,
                0.2289129402505622,
                -2.7096902146571367
            ]
        },
        {
            "positions": [
                -2.763385720889186,
                -0.5933550314235484,
                0.6859639362494058,
                0.23358714276506087,
                0.16089505461562226,
                -2.5639084855504652
            ]
        },
        {
            "positions": [
                -2.7763079257674224,
                -0.5797693947597524,
                0.6700711978338056,
                0.3107501236644838,
                0.09287716898068227,
                -2.418126756443794
            ]
        },
        {
            "positions": [
                -2.7892301306456586,
                -0.5661837580959563,
                0.6541784594182056,
                0.38791310456390665,
                0.024859283345742333,
                -2.272345027337123
            ]
        },
        {
            "positions": [
                -2.7703866783792934,
                -0.5651409210746915,
                0.6164260034263803,
                0.468590213958204,
                -0.01356461885464015,
                -2.0761915667540283
            ]
        },
        {
            "positions": [
                -2.7515432261129282,
                -0.5640980840534267,
                0.578673547434555,
                0.5492673233525014,
                -0.051988521055022635,
                -1.880038106170934
            ]
        },
        {
            "positions": [
                -2.732699773846563,
                -0.5630552470321618,
                0.5409210914427297,
                0.6299444327467987,
                -0.09041242325540512,
                -1.6838846455878396
            ]
        },
        {
            "positions": [
                -2.713856321580198,
                -0.5620124100108969,
                0.5031686354509044,
                0.710621542141096,
                -0.1288363254557876,
                -1.487731185004745
            ]
        },
        {
            "positions": [
                -2.6950128693138327,
                -0.560969572989632,
                0.46541617945907915,
                0.7912986515353934,
                -0.16726022765617007,
                -1.2915777244216509
            ]
        },
        {
            "positions": [
                -2.6761694170474675,
                -0.5599267359683672,
                0.4276637234672538,
                0.8719757609296908,
                -0.20568412985655257,
                -1.0954242638385563
            ]
        },
        {
            "positions": [
                -2.6573259647811023,
                -0.5588838989471023,
                0.38991126747542854,
                0.952652870323988,
                -0.24410803205693504,
                -0.8992708032554619
            ]
        },
        {
            "positions": [
                -2.6384825125147375,
                -0.5578410619258375,
                0.35215881148360323,
                1.0333299797182853,
                -0.28253193425731754,
                -0.7031173426723674
            ]
        },
        {
            "positions": [
                -2.6196390602483723,
                -0.5567982249045726,
                0.3144063554917779,
                1.1140070891125828,
                -0.3209558364577,
                -0.506963882089273
            ]
        },
        {
            "positions": [
                -2.600795607982007,
                -0.5557553878833078,
                0.27665389949995267,
                1.1946841985068801,
                -0.3593797386580825,
                -0.31081042150617866
            ]
        },
        {
            "positions": [
                -2.581952155715642,
                -0.554712550862043,
                0.23890144350812736,
                1.2753613079011774,
                -0.397803640858465,
                -0.1146569609230843
            ]
        },
        {
            "positions": [
                -2.5631087034492768,
                -0.553669713840778,
                0.201148987516302,
                1.356038417295475,
                -0.4362275430588475,
                0.08149649966001027
            ]
        },
        {
            "positions": [
                -2.5442652511829116,
                -0.5526268768195132,
                0.1633965315244767,
                1.4367155266897722,
                -0.47465144525923,
                0.27764996024310484
            ]
        },
        {
            "positions": [
                -2.5254217989165464,
                -0.5515840397982483,
                0.12564407553265144,
                1.5173926360840695,
                -0.5130753474596124,
                0.473803420826199
            ]
        },
        {
            "positions": [
                -2.506578346650181,
                -0.5505412027769835,
                0.08789161954082611,
                1.5980697454783668,
                -0.5514992496599949,
                0.6699568814092933
            ]
        },
        {
            "positions": [
                -2.401430875281705,
                -0.5988412352611494,
                0.05887220417312958,
                1.5185865611612035,
                -0.424418197871271,
                0.6629559429681037
            ]
        },
        {
            "positions": [
                -2.296283403913229,
                -0.6471412677453154,
                0.029852788805433052,
                1.4391033768440404,
                -0.2973371460825472,
                0.655955004526914
            ]
        },
        {
            "positions": [
                -2.1911359325447526,
                -0.6954413002294814,
                0.0008333734377365121,
                1.3596201925268772,
                -0.17025609429382332,
                0.6489540660857244
            ]
        },
        {
            "positions": [
                -2.0859884611762767,
                -0.7437413327136473,
                -0.028186041929960007,
                1.2801370082097139,
                -0.043175042505099515,
                0.6419531276445347
            ]
        },
        {
            "positions": [
                -1.9808409898078003,
                -0.7920413651978133,
                -0.05720545729765655,
                1.2006538238925506,
                0.08390600928362435,
                0.6349521892033451
            ]
        },
        {
            "positions": [
                -1.8756935184393244,
                -0.8403413976819794,
                -0.08622487266535309,
                1.1211706395753875,
                0.21098706107234821,
                0.6279512507621554
            ]
        },
        {
            "positions": [
                -1.770546047070848,
                -0.8886414301661452,
                -0.11524428803304959,
                1.0416874552582243,
                0.33806811286107197,
                0.6209503123209658
            ]
        },
        {
            "positions": [
                -1.6653985757023722,
                -0.9369414626503112,
                -0.14426370340074612,
                0.9622042709410611,
                0.46514916464979583,
                0.6139493738797761
            ]
        },
        {
            "positions": [
                -1.5602511043338958,
                -0.9852414951344771,
                -0.17328311876844268,
                0.8827210866238978,
                0.5922302164385198,
                0.6069484354385865
            ]
        },
        {
            "positions": [
                -1.4551036329654197,
                -1.033541527618643,
                -0.20230253413613922,
                0.8032379023067346,
                0.7193112682272436,
                0.5999474969973968
            ]
        },
        {
            "positions": [
                -1.3499561615969435,
                -1.081841560102809,
                -0.23132194950383575,
                0.7237547179895714,
                0.8463923200159675,
                0.5929465585562071
            ]
        },
        {
            "positions": [
                -1.2448086902284674,
                -1.130141592586975,
                -0.26034136487153225,
                0.6442715336724082,
                0.9734733718046913,
                0.5859456201150175
            ]
        },
        {
            "positions": [
                -1.1396612188599915,
                -1.178441625071141,
                -0.28936078023922873,
                0.564788349355245,
                1.100554423593415,
                0.5789446816738278
            ]
        },
        {
            "positions": [
                -1.0345137474915151,
                -1.226741657555307,
                -0.3183801956069253,
                0.48530516503808174,
                1.2276354753821388,
                0.5719437432326382
            ]
        },
        {
            "positions": [
                -0.929366276123039,
                -1.275041690039473,
                -0.3473996109746218,
                0.4058219807209187,
                1.3547165271708628,
                0.5649428047914485
            ]
        },
        {
            "positions": [
                -0.8242188047545629,
                -1.3233417225236388,
                -0.3764190263423184,
                0.3263387964037554,
                1.4817975789595865,
                0.5579418663502589
            ]
        },
        {
            "positions": [
                -0.7190713333860868,
                -1.3716417550078048,
                -0.40543844171001486,
                0.246855612086592,
                1.6088786307483105,
                0.5509409279090692
            ]
        },
        {
            "positions": [
                -0.6537380937667595,
                -1.4123853956728756,
                -0.5155414429773316,
                0.30567617124626323,
                1.529159567051584,
                0.5231973499686906
            ]
        },
        {
            "positions": [
                -0.5884048541474323,
                -1.4531290363379463,
                -0.6256444442446484,
                0.36449673040593444,
                1.4494405033548574,
                0.4954537720283121
            ]
        },
        {
            "positions": [
                -0.5230716145281049,
                -1.493872677003017,
                -0.7357474455119651,
                0.4233172895656057,
                1.369721439658131,
                0.4677101940879335
            ]
        },
        {
            "positions": [
                -0.45773837490877767,
                -1.5346163176680878,
                -0.8458504467792818,
                0.48213784872527693,
                1.2900023759614043,
                0.43996661614755495
            ]
        },
        {
            "positions": [
                -0.3924051352894504,
                -1.5753599583331586,
                -0.9559534480465985,
                0.5409584078849481,
                1.210283312264678,
                0.4122230382071764
            ]
        },
        {
            "positions": [
                -0.3270718956701231,
                -1.6161035989982295,
                -1.0660564493139155,
                0.5997789670446194,
                1.1305642485679512,
                0.3844794602667978
            ]
        },
        {
            "positions": [
                -0.2617386560507959,
                -1.6568472396633003,
                -1.176159450581232,
                0.6585995262042906,
                1.0508451848712248,
                0.3567358823264192
            ]
        },
        {
            "positions": [
                -0.19640541643146858,
                -1.697590880328371,
                -1.2862624518485488,
                0.7174200853639618,
                0.9711261211744983,
                0.32899230438604066
            ]
        },
        {
            "positions": [
                -0.13107217681214134,
                -1.7383345209934418,
                -1.3963654531158656,
                0.7762406445236331,
                0.8914070574777717,
                0.30124872644566203
            ]
        },
        {
            "positions": [
                -0.0657389371928141,
                -1.7790781616585125,
                -1.506468454383182,
                0.8350612036833043,
                0.8116879937810452,
                0.2735051485052835
            ]
        },
        {
            "positions": [
                -0.00040569757348685176,
                -1.8198218023235833,
                -1.616571455650499,
                0.8938817628429755,
                0.7319689300843186,
                0.24576157056490494
            ]
        },
        {
            "positions": [
                0.0649275420458405,
                -1.860565442988654,
                -1.726674456917816,
                0.9527023220026468,
                0.652249866387592,
                0.2180179926245263
            ]
        },
        {
            "positions": [
                0.13026078166516775,
                -1.9013090836537248,
                -1.8367774581851326,
                1.011522881162318,
                0.5725308026908655,
                0.19027441468414774
            ]
        },
        {
            "positions": [
                0.195594021284495,
                -1.9420527243187955,
                -1.9468804594524491,
                1.0703434403219894,
                0.4928117389941389,
                0.16253083674376917
            ]
        },
        {
            "positions": [
                0.26092726090382223,
                -1.9827963649838662,
                -2.056983460719766,
                1.1291639994816605,
                0.41309267529741245,
                0.1347872588033906
            ]
        },
        {
            "positions": [
                0.17862433252584373,
                -2.0380509033010594,
                -2.1192944622051377,
                1.1933367032292632,
                0.36554508279977627,
                0.12070481876336651
            ]
        },
        {
            "positions": [
                0.09632140414786522,
                -2.0933054416182526,
                -2.18160546369051,
                1.2575094069768658,
                0.31799749030214014,
                0.10662237872334243
            ]
        },
        {
            "positions": [
                0.01401847576988674,
                -2.1485599799354462,
                -2.2439164651758814,
                1.3216821107244685,
                0.270449897804504,
                0.09253993868331836
            ]
        },
        {
            "positions": [
                -0.0682844526080918,
                -2.2038145182526394,
                -2.3062274666612534,
                1.3858548144720713,
                0.22290230530686783,
                0.07845749864329427
            ]
        },
        {
            "positions": [
                -0.15058738098607025,
                -2.2590690565698326,
                -2.368538468146625,
                1.4500275182196738,
                0.1753547128092317,
                0.0643750586032702
            ]
        },
        {
            "positions": [
                -0.18591681628106685,
                -2.2780151413621597,
                -2.3853002150385825,
                1.4802095215361535,
                0.17478953182693055,
                0.049207215018890374
            ]
        }
    ]
}