{
    "goal": {
        "global_pose": {
            "orientation": {
                "w": 0.7031023502349854,
                "x": -0.7110244035720825,
                "y": 0.007748599164187908,
                "z": 0.005598929710686207
            },
            "position": {
                "x": 0.11585023208521307,
                "y": 0.44412534475326537,
                "z": 0.3711530566215515
            }
        },
        "name": "move_to_auspresseinheit_A"
    },
    "id": "EST_move_to_auspresseinheit_A_62",
    "joint_names": [
        "shoulder_pan_joint",
        "shoulder_lift_joint",
        "elbow_joint",
        "wrist_1_joint",
        "wrist_2_joint",
        "wrist_3_joint"
    ],
    "metrics": {
        "cart_traj_len": 0.8399137108386372,
        "distance_elbow_joint": 0.31504559523932674,
        "distance_shoulder_lift_joint": 0.5336372893453354,
        "distance_shoulder_pan_joint": 1.0413587280333236,
        "distance_wrist_1_joint": 3.1124153142142665,
        "distance_wrist_2_joint": 0.5282200999198723,
        "distance_wrist_3_joint": 0.5376861279795282,
        "smoothness": 1.238853050022141,
        "time": 0.246296142,
        "traj_len": 2.4634047890534863,
        "weighted_distance": 3.2839565808373363
    },
    "planner": "EST",
    "start": {
        "state": {
            "elbow_joint": 2.4225746658250005,
            "shoulder_lift_joint": -1.3736534386056498,
            "shoulder_pan_joint": -0.3378633547517467,
            "wrist_1_joint": -1.0288598680537169,
            "wrist_2_joint": 1.233022673432363,
            "wrist_3_joint": -3.0940220416140027
        }
    },
    "waypoints": [
        {
            "positions": [
                -0.3378633547517467,
                -1.3736534386056498,
                2.4225746658250005,
                -1.0288598680537169,
                1.233022673432363,
                -3.0940220416140027
            ]
        },
        {
            "positions": [
                -0.2636571916303398,
                -1.4214354854780533,
                2.4367919879131184,
                -0.844853339326747,
                1.194138330439104,
                -3.0697272027369253
            ]
        },
        {
            "positions": [
                -0.18945102850893286,
                -1.4692175323504568,
                2.4510093100012362,
                -0.6608468105997772,
                1.1552539874458447,
                -3.045432363859848
            ]
        },
        {
            "positions": [
                -0.11524486538752593,
                -1.5169995792228603,
                2.465226632089354,
                -0.47684028187280747,
                1.1163696444525857,
                -3.02113752498277
            ]
        },
        {
            "positions": [
                -0.041038702266119,
                -1.564781626095264,
                2.479443954177472,
                -0.2928337531458376,
                1.0774853014593264,
                -2.9968426861056927
            ]
        },
        {
            "positions": [
                0.033167460855287934,
                -1.6125636729676676,
                2.4936612762655903,
                -0.10882722441886783,
                1.0386009584660674,
                -2.9725478472286153
            ]
        },
        {
            "positions": [
                0.10737362397669487,
                -1.660345719840071,
                2.507878598353708,
                0.07517930430810194,
                0.9997166154728082,
                -2.948253008351538
            ]
        },
        {
            "positions": [
                0.1815797870981018,
                -1.7081277667124746,
                2.522095920441826,
                0.2591858330350718,
                0.960832272479549,
                -2.9239581694744605
            ]
        },
        {
            "positions": [
                0.25578595021950873,
                -1.755909813584878,
                2.536313242529944,
                0.4431923617620417,
                0.92194792948629,
                -2.8996633305973827
            ]
        },
        {
            "positions": [
                0.32999211334091566,
                -1.8036918604572816,
                2.550530564618062,
                0.6271988904890113,
                0.8830635864930307,
                -2.8753684917203053
            ]
        },
        {
            "positions": [
                0.40419827646232265,
                -1.851473907329685,
                2.5647478867061797,
                0.8112054192159812,
                0.8441792434997717,
                -2.851073652843228
            ]
        },
        {
            "positions": [
                0.4540811259321984,
                -1.8607767107665685,
                2.535935824313155,
                0.5991470813918864,
                0.8209497985018915,
                -2.9001966093780203
            ]
        },
        {
            "positions": [
                0.5039639754020742,
                -1.8700795142034519,
                2.5071237619201305,
                0.38708874356779177,
                0.7977203535040114,
                -2.949319565912812
            ]
        },
        {
            "positions": [
                0.5538468248719499,
                -1.879382317640335,
                2.478311699527106,
                0.175030405743697,
                0.7744909085061312,
                -2.9984425224476046
            ]
        },
        {
            "positions": [
                0.6037296743418256,
                -1.8886851210772184,
                2.4494996371340814,
                -0.037027932080397674,
                0.7512614635082511,
                -3.047565478982397
            ]
        },
        {
            "positions": [
                0.6536125238117013,
                -1.8979879245141018,
                2.4206875747410566,
                -0.24908626990449245,
                0.7280320185103709,
                -3.096688435517189
            ]
        },
        {
            "positions": [
                0.7034953732815771,
                -1.9072907279509852,
                2.391875512348032,
                -0.4611446077285872,
                0.7048025735124908,
                -3.1458113920519812
            ]
        }
    ]
}