{
    "goal": {
        "global_pose": {
            "orientation": {
                "w": 0.7031023480610252,
                "x": -0.7110244013736278,
                "y": 0.0077485991402295624,
                "z": 0.005598929693374583
            },
            "position": {
                "x": -0.8841497679147869,
                "y": 0.44412534475326537,
                "z": 0.3711530566215515
            }
        },
        "name": "move_to_auspresseinheit_D"
    },
    "id": "EST_move_to_auspresseinheit_D_37",
    "joint_names": [
        "shoulder_pan_joint",
        "shoulder_lift_joint",
        "elbow_joint",
        "wrist_1_joint",
        "wrist_2_joint",
        "wrist_3_joint"
    ],
    "metrics": {
        "cart_traj_len": 0.34385945305536747,
        "distance_elbow_joint": 0.6487937394429237,
        "distance_shoulder_lift_joint": 0.1263518498940348,
        "distance_shoulder_pan_joint": 0.13311209931867737,
        "distance_wrist_1_joint": 0.556833582556175,
        "distance_wrist_2_joint": 1.4469143645059563,
        "distance_wrist_3_joint": 0.01878001345389313,
        "smoothness": 0.0,
        "time": 0.205095828,
        "traj_len": 1.7119537520539685,
        "weighted_distance": 2.22981919068376
    },
    "planner": "EST",
    "start": {
        "state": {
            "elbow_joint": -1.8275523626775212,
            "shoulder_lift_joint": -2.126789852344167,
            "shoulder_pan_joint": -0.03513704404078235,
            "wrist_1_joint": -2.347782403156801,
            "wrist_2_joint": -1.6058999987535132,
            "wrist_3_joint": -3.0880379163319196
        }
    },
    "waypoints": [
        {
            "positions": [
                -0.03513704404078235,
                -2.126789852344167,
                -1.8275523626775212,
                -2.347782403156801,
                -1.6058999987535132,
                -3.0880379163319196
            ]
        },
        {
            "positions": [
                -0.05177605645561702,
                -2.1425838335809213,
                -1.7464531452471557,
                -2.4173866009763225,
                -1.4250357031902687,
                -3.085690414650183
            ]
        },
        {
            "positions": [
                -0.06841506887045169,
                -2.1583778148176753,
                -1.6653539278167901,
                -2.4869907987958446,
                -1.244171407627024,
                -3.083342912968446
            ]
        },
        {
            "positions": [
                -0.08505408128528635,
                -2.17417179605443,
                -1.5842547103864248,
                -2.5565949966153667,
                -1.0633071120637796,
                -3.0809954112867097
            ]
        },
        {
            "positions": [
                -0.10169309370012103,
                -2.1899657772911842,
                -1.5031554929560593,
                -2.6261991944348884,
                -0.882442816500535,
                -3.078647909604973
            ]
        },
        {
            "positions": [
                -0.1183321061149557,
                -2.2057597585279387,
                -1.4220562755256938,
                -2.69580339225441,
                -0.7015785209372905,
                -3.0763004079232363
            ]
        },
        {
            "positions": [
                -0.13497111852979038,
                -2.221553739764693,
                -1.3409570580953285,
                -2.765407590073932,
                -0.520714225374046,
                -3.0739529062415
            ]
        },
        {
            "positions": [
                -0.15161013094462505,
                -2.237347721001447,
                -1.259857840664963,
                -2.835011787893454,
                -0.3398499298108013,
                -3.071605404559763
            ]
        },
        {
            "positions": [
                -0.16824914335945973,
                -2.2531417022382016,
                -1.1787586232345975,
                -2.904615985712976,
                -0.15898563424755685,
                -3.0692579028780265
            ]
        }
    ]
}