{
    "goal": {
        "global_pose": {
            "orientation": {
                "w": 0.7031023480610252,
                "x": -0.7110244013736278,
                "y": 0.0077485991402295624,
                "z": 0.005598929693374583
            },
            "position": {
                "x": -0.8841497679147869,
                "y": 0.44412534475326537,
                "z": 0.3711530566215515
            }
        },
        "name": "move_to_auspresseinheit_D"
    },
    "id": "EST_move_to_auspresseinheit_D_7",
    "joint_names": [
        "shoulder_pan_joint",
        "shoulder_lift_joint",
        "elbow_joint",
        "wrist_1_joint",
        "wrist_2_joint",
        "wrist_3_joint"
    ],
    "metrics": {
        "cart_traj_len": 0.3422953426585932,
        "distance_elbow_joint": 0.6297468471653178,
        "distance_shoulder_lift_joint": 0.11645222422622403,
        "distance_shoulder_pan_joint": 0.13331902105227367,
        "distance_wrist_1_joint": 0.5085158189758863,
        "distance_wrist_2_joint": 1.43519296365187,
        "distance_wrist_3_joint": 0.01559597700547144,
        "smoothness": 1.3816108693918036e-15,
        "time": 0.241780184,
        "traj_len": 1.6848806640462832,
        "weighted_distance": 2.1940199608745
    },
    "planner": "EST",
    "start": {
        "state": {
            "elbow_joint": -1.8275523626775212,
            "shoulder_lift_joint": -2.126789852344167,
            "shoulder_pan_joint": -0.03513704404078235,
            "wrist_1_joint": -2.347782403156801,
            "wrist_2_joint": -1.6058999987535132,
            "wrist_3_joint": -3.0880379163319196
        }
    },
    "waypoints": [
        {
            "positions": [
                -0.03513704404078235,
                -2.126789852344167,
                -1.8275523626775212,
                -2.347782403156801,
                -1.6058999987535132,
                -3.0880379163319196
            ]
        },
        {
            "positions": [
                -0.05180192167231656,
                -2.141346380372445,
                -1.7488340067818564,
                -2.4113468805287868,
                -1.4265008782970294,
                -3.0899874134576035
            ]
        },
        {
            "positions": [
                -0.06846679930385077,
                -2.155902908400723,
                -1.6701156508861916,
                -2.4749113579007727,
                -1.2471017578405457,
                -3.0919369105832875
            ]
        },
        {
            "positions": [
                -0.08513167693538498,
                -2.1704594364290006,
                -1.591397294990527,
                -2.538475835272758,
                -1.067702637384062,
                -3.0938864077089714
            ]
        },
        {
            "positions": [
                -0.10179655456691919,
                -2.185015964457279,
                -1.5126789390948623,
                -2.602040312644744,
                -0.8883035169275781,
                -3.0958359048346553
            ]
        },
        {
            "positions": [
                -0.1184614321984534,
                -2.199572492485557,
                -1.4339605831991975,
                -2.66560479001673,
                -0.7089043964710944,
                -3.0977854019603392
            ]
        },
        {
            "positions": [
                -0.1351263098299876,
                -2.214129020513835,
                -1.355242227303533,
                -2.7291692673887153,
                -0.5295052760146106,
                -3.099734899086023
            ]
        },
        {
            "positions": [
                -0.15179118746152181,
                -2.2286855485421126,
                -1.2765238714078682,
                -2.7927337447607012,
                -0.35010615555812685,
                -3.101684396211707
            ]
        },
        {
            "positions": [
                -0.16845606509305602,
                -2.243242076570391,
                -1.1978055155122034,
                -2.856298222132687,
                -0.17070703510164298,
                -3.103633893337391
            ]
        }
    ]
}