{
    "goal": {
        "global_pose": {
            "orientation": {
                "w": 0.5084816217422485,
                "x": -0.49083608388900757,
                "y": 0.5182115435600281,
                "z": -0.4816462993621826
            },
            "position": {
                "x": 0.5540239810943604,
                "y": 0.030875300988554955,
                "z": 0.16403168439865112
            }
        },
        "name": "move_to_storage_A"
    },
    "id": "EST_move_to_storage_A_59",
    "joint_names": [
        "shoulder_pan_joint",
        "shoulder_lift_joint",
        "elbow_joint",
        "wrist_1_joint",
        "wrist_2_joint",
        "wrist_3_joint"
    ],
    "metrics": {
        "cart_traj_len": 0.3530841793689994,
        "distance_elbow_joint": 0.44908563434637094,
        "distance_shoulder_lift_joint": 0.2336050579804292,
        "distance_shoulder_pan_joint": 0.45989200478949877,
        "distance_wrist_1_joint": 0.2458412443576471,
        "distance_wrist_2_joint": 1.1056383013899111,
        "distance_wrist_3_joint": 0.08991808725527095,
        "smoothness": 6.661338165333112e-16,
        "time": 0.060430648000000003,
        "traj_len": 1.6074763855556722,
        "weighted_distance": 2.028619247265792
    },
    "planner": "EST",
    "start": {
        "state": {
            "elbow_joint": 1.971548259319323,
            "shoulder_lift_joint": -1.1394851275133948,
            "shoulder_pan_joint": 0.1228115487234821,
            "wrist_1_joint": -0.7804723859257726,
            "wrist_2_joint": 0.12958671773740124,
            "wrist_3_joint": -3.192489227718131
        }
    },
    "waypoints": [
        {
            "positions": [
                0.1228115487234821,
                -1.1394851275133948,
                1.971548259319323,
                -0.7804723859257726,
                0.12958671773740124,
                -3.192489227718131
            ]
        },
        {
            "positions": [
                0.057112690896410856,
                -1.1728572786534561,
                2.035703349940233,
                -0.8155925636911507,
                0.28753504650738854,
                -3.179643786681664
            ]
        },
        {
            "positions": [
                -0.008586166930660388,
                -1.2062294297935174,
                2.0998584405611433,
                -0.850712741456529,
                0.4454833752773758,
                -3.1667983456451965
            ]
        },
        {
            "positions": [
                -0.07428502475773163,
                -1.2396015809335788,
                2.164013531182053,
                -0.8858329192219071,
                0.6034317040473631,
                -3.153952904608729
            ]
        },
        {
            "positions": [
                -0.13998388258480288,
                -1.27297373207364,
                2.2281686218029635,
                -0.9209530969872852,
                0.7613800328173504,
                -3.1411074635722622
            ]
        },
        {
            "positions": [
                -0.20568274041187418,
                -1.3063458832137014,
                2.292323712423874,
                -0.9560732747526635,
                0.9193283615873378,
                -3.128262022535795
            ]
        },
        {
            "positions": [
                -0.27138159823894537,
                -1.3397180343537627,
                2.3564788030447836,
                -0.9911934525180415,
                1.077276690357325,
                -3.1154165814993275
            ]
        },
        {
            "positions": [
                -0.33708045606601666,
                -1.373090185493824,
                2.420633893665694,
                -1.0263136302834197,
                1.2352250191273124,
                -3.10257114046286
            ]
        }
    ]
}{
    "goal": {
        "global_pose": {
            "orientation": {
                "w": 0.5084816217422485,
                "x": -0.49083608388900757,
                "y": 0.5182115435600281,
                "z": -0.4816462993621826
            },
            "position": {
                "x": 0.5540239810943604,
                "y": 0.030875300988554955,
                "z": 0.16403168439865112
            }
        },
        "name": "move_to_storage_A"
    },
    "id": "EST_move_to_storage_A_59",
    "joint_names": [
        "shoulder_pan_joint",
        "shoulder_lift_joint",
        "elbow_joint",
        "wrist_1_joint",
        "wrist_2_joint",
        "wrist_3_joint"
    ],
    "metrics": {
        "cart_traj_len": 0.3525693847735048,
        "distance_elbow_joint": 0.45214293246970394,
        "distance_shoulder_lift_joint": 0.2340415291893172,
        "distance_shoulder_pan_joint": 0.4622903917182229,
        "distance_wrist_1_joint": 0.2506580929860631,
        "distance_wrist_2_joint": 1.092660746966238,
        "distance_wrist_3_joint": 0.09794728982076562,
        "smoothness": 2.2204460668324854e-16,
        "time": 0.024268948999999998,
        "traj_len": 1.6092672193114201,
        "weighted_distance": 2.031982874618815
    },
    "planner": "EST",
    "start": {
        "state": {
            "elbow_joint": 1.97154746011099,
            "shoulder_lift_joint": -1.13948474672311,
            "shoulder_pan_joint": 0.12281154466712228,
            "wrist_1_joint": -0.7804688027058302,
            "wrist_2_joint": 0.12958655903071145,
            "wrist_3_joint": 3.0906928834467795
        }
    },
    "waypoints": [
        {
            "positions": [
                0.12281154466712228,
                -1.13948474672311,
                1.97154746011099,
                -0.7804688027058302,
                0.12958655903071145,
                3.0906928834467795
            ]
        },
        {
            "positions": [
                0.056770060135947584,
                -1.1729192508930124,
                2.036139307606662,
                -0.8162771017038392,
                0.2856809514544597,
                3.1046853534211745
            ]
        },
        {
            "positions": [
                -0.009271424395227115,
                -1.2063537550629149,
                2.1007311551023338,
                -0.8520854007018482,
                0.44177534387820794,
                3.11867782339557
            ]
        },
        {
            "positions": [
                -0.07531290892640181,
                -1.2397882592328173,
                2.1653230025980057,
                -0.8878936996998572,
                0.5978697363019563,
                3.132670293369965
            ]
        },
        {
            "positions": [
                -0.1413543934575765,
                -1.2732227634027198,
                2.229914850093678,
                -0.9237019986978663,
                0.7539641287257045,
                3.14666276334436
            ]
        },
        {
            "positions": [
                -0.2073958779887512,
                -1.3066572675726222,
                2.29450669758935,
                -0.9595102976958753,
                0.9100585211494528,
                3.1606552333187548
            ]
        },
        {
            "positions": [
                -0.2734373625199259,
                -1.3400917717425247,
                2.359098545085022,
                -0.9953185966938842,
                1.066152913573201,
                3.17464770329315
            ]
        },
        {
            "positions": [
                -0.3394788470511006,
                -1.3735262759124272,
                2.423690392580694,
                -1.0311268956918933,
                1.2222473059969494,
                3.188640173267545
            ]
        }
    ]
}{
    "goal": {
        "global_pose": {
            "orientation": {
                "w": 0.5084816217422485,
                "x": -0.49083608388900757,
                "y": 0.5182115435600281,
                "z": -0.4816462993621826
            },
            "position": {
                "x": 0.5540239810943604,
                "y": 0.030875300988554955,
                "z": 0.16403168439865112
            }
        },
        "name": "move_to_storage_A"
    },
    "id": "EST_move_to_storage_A_59",
    "joint_names": [
        "shoulder_pan_joint",
        "shoulder_lift_joint",
        "elbow_joint",
        "wrist_1_joint",
        "wrist_2_joint",
        "wrist_3_joint"
    ],
    "metrics": {
        "cart_traj_len": 0.3526008243994101,
        "distance_elbow_joint": 0.4486496276049019,
        "distance_shoulder_lift_joint": 0.23295545794888528,
        "distance_shoulder_pan_joint": 0.46158307400561926,
        "distance_wrist_1_joint": 0.2398897282869581,
        "distance_wrist_2_joint": 1.094832251521432,
        "distance_wrist_3_joint": 0.08690644206521236,
        "smoothness": 8.881784232165597e-16,
        "time": 0.050895526999999996,
        "traj_len": 1.6015044743718354,
        "weighted_distance": 2.018254554156097
    },
    "planner": "EST",
    "start": {
        "state": {
            "elbow_joint": 1.9715472970024885,
            "shoulder_lift_joint": -1.1394870060712896,
            "shoulder_pan_joint": 0.12281152778156021,
            "wrist_1_joint": -0.780463741449964,
            "wrist_2_joint": 0.12958659822042276,
            "wrist_3_joint": 3.090690232415272
        }
    },
    "waypoints": [
        {
            "positions": [
                0.12281152778156021,
                -1.1394870060712896,
                1.9715472970024885,
                -0.780463741449964,
                0.12958659822042276,
                3.090690232415272
            ]
        },
        {
            "positions": [
                0.056871088637900316,
                -1.1727663572068447,
                2.035640100946046,
                -0.8147337026338152,
                0.2859912055806273,
                3.103105438424588
            ]
        },
        {
            "positions": [
                -0.009069350505759577,
                -1.2060457083423997,
                2.099732904889603,
                -0.8490036638176663,
                0.44239581294083186,
                3.115520644433904
            ]
        },
        {
            "positions": [
                -0.07500978964941946,
                -1.2393250594779548,
                2.1638257088331607,
                -0.8832736250015174,
                0.5988004203010364,
                3.12793585044322
            ]
        },
        {
            "positions": [
                -0.14095022879307936,
                -1.2726044106135097,
                2.2279185127767183,
                -0.9175435861853686,
                0.755205027661241,
                3.140351056452536
            ]
        },
        {
            "positions": [
                -0.2068906679367393,
                -1.3058837617490648,
                2.292011316720276,
                -0.9518135473692197,
                0.9116096350214455,
                3.152766262461852
            ]
        },
        {
            "positions": [
                -0.27283110708039915,
                -1.3391631128846198,
                2.356104120663833,
                -0.9860835085530709,
                1.06801424238165,
                3.165181468471168
            ]
        },
        {
            "positions": [
                -0.33877154622405903,
                -1.372442464020175,
                2.4201969246073904,
                -1.020353469736922,
                1.2244188497418547,
                3.177596674480484
            ]
        }
    ]
}