{
    "goal": {
        "global_pose": {
            "orientation": {
                "w": -0.00223480608172531,
                "x": 0.0024358444001904467,
                "y": 0.7094548369677653,
                "z": -0.704743149386269
            },
            "position": {
                "x": -0.37947507619857795,
                "y": -0.6371506643295288,
                "z": 0.19426114857196808
            }
        },
        "name": "move_to_magneteinheit_C"
    },
    "id": "EST_move_to_magneteinheit_C_148",
    "joint_names": [
        "shoulder_pan_joint",
        "shoulder_lift_joint",
        "elbow_joint",
        "wrist_1_joint",
        "wrist_2_joint",
        "wrist_3_joint"
    ],
    "metrics": {
        "cart_traj_len": 0.8724440335383952,
        "distance_elbow_joint": 0.07521705304921333,
        "distance_shoulder_lift_joint": 0.25492113628760316,
        "distance_shoulder_pan_joint": 1.2932332007523633,
        "distance_wrist_1_joint": 0.6652282155966307,
        "distance_wrist_2_joint": 1.047300095815616,
        "distance_wrist_3_joint": 0.2906471200098659,
        "smoothness": 2.431700194630975,
        "time": 3.964087165,
        "traj_len": 1.9043494483710945,
        "weighted_distance": 2.4331809166075735
    },
    "planner": "EST",
    "start": {
        "state": {
            "elbow_joint": 1.9565354010623817,
            "shoulder_lift_joint": -1.4165861575791021,
            "shoulder_pan_joint": -1.6717766225146293,
            "wrist_1_joint": -0.5286633292919765,
            "wrist_2_joint": 1.472756589071564,
            "wrist_3_joint": -3.1238370188695823
        }
    },
    "waypoints": [
        {
            "positions": [
                -1.6717766225146293,
                -1.4165861575791021,
                1.9565354010623817,
                -0.5286633292919765,
                1.472756589071564,
                -3.1238370188695823
            ]
        },
        {
            "positions": [
                -1.747667135893876,
                -1.3937307762196145,
                1.9591401640254074,
                -0.5216282180021363,
                1.2465621630869168,
                -3.092491834154749
            ]
        },
        {
            "positions": [
                -1.823557649273123,
                -1.3708753948601267,
                1.961744926988433,
                -0.5145931067122961,
                1.0203677371022697,
                -3.061146649439916
            ]
        },
        {
            "positions": [
                -1.8994481626523696,
                -1.348020013500639,
                1.9643496899514588,
                -0.5075579954224558,
                0.7941733111176223,
                -3.029801464725083
            ]
        },
        {
            "positions": [
                -1.9753386760316163,
                -1.3251646321411514,
                1.9669544529144845,
                -0.5005228841326157,
                0.5679788851329752,
                -2.9984562800102497
            ]
        },
        {
            "positions": [
                -2.0584350504164224,
                -1.2979146969995425,
                1.9735420145825113,
                -0.5544569348765009,
                0.5847074035844457,
                -3.026000676868672
            ]
        },
        {
            "positions": [
                -2.141531424801229,
                -1.2706647618579339,
                1.980129576250538,
                -0.6083909856203862,
                0.6014359220359163,
                -3.0535450737270944
            ]
        },
        {
            "positions": [
                -2.3341754074687273,
                -1.2601615572185099,
                1.9759174710523797,
                -0.5561437412913931,
                0.6307658268325778,
                -3.0556757310306453
            ]
        },
        {
            "positions": [
                -2.5268193901362253,
                -1.249658352579086,
                1.9717053658542214,
                -0.5038964969623999,
                0.6600957316292392,
                -3.0578063883341966
            ]
        },
        {
            "positions": [
                -2.7194633728037236,
                -1.239155147939662,
                1.9674932606560631,
                -0.45164925263340683,
                0.6894256364259006,
                -3.0599370456377475
            ]
        },
        {
            "positions": [
                -2.637614555982634,
                -1.2133251057236076,
                1.9804887814115906,
                -0.5758085646209136,
                0.6824004228978666,
                -3.0945322508120925
            ]
        },
        {
            "positions": [
                -2.5557657391615445,
                -1.1874950635075534,
                1.9934843021671178,
                -0.6999678766084202,
                0.6753752093698326,
                -3.129127455986438
            ]
        },
        {
            "positions": [
                -2.4739169223404547,
                -1.161665021291499,
                2.0064798229226453,
                -0.8241271885959269,
                0.6683499958417987,
                -3.163722661160783
            ]
        }
    ]
}