{
    "goal": {
        "global_pose": {
            "orientation": {
                "w": 0.5084816217422485,
                "x": -0.49083608388900757,
                "y": 0.5182115435600281,
                "z": -0.4816462993621826
            },
            "position": {
                "x": 0.5540239810943604,
                "y": 0.030875300988554955,
                "z": 0.16403168439865112
            }
        },
        "name": "move_to_storage_A"
    },
    "id": "EST_move_to_storage_A_142",
    "joint_names": [
        "shoulder_pan_joint",
        "shoulder_lift_joint",
        "elbow_joint",
        "wrist_1_joint",
        "wrist_2_joint",
        "wrist_3_joint"
    ],
    "metrics": {
        "cart_traj_len": 0.3523925582861545,
        "distance_elbow_joint": 0.44779406273828504,
        "distance_shoulder_lift_joint": 0.2341746221962102,
        "distance_shoulder_pan_joint": 0.46027980635106386,
        "distance_wrist_1_joint": 0.23639838412100234,
        "distance_wrist_2_joint": 1.0992262357957394,
        "distance_wrist_3_joint": 0.0948787748466029,
        "smoothness": 1.1102230244806396e-15,
        "time": 0.030579608,
        "traj_len": 1.6039800142298855,
        "weighted_distance": 2.0243848585826885
    },
    "planner": "EST",
    "start": {
        "state": {
            "elbow_joint": 1.971548259319323,
            "shoulder_lift_joint": -1.1394851275133948,
            "shoulder_pan_joint": 0.1228115487234821,
            "wrist_1_joint": -0.7804723859257726,
            "wrist_2_joint": 0.12958671773740124,
            "wrist_3_joint": -3.192489227718131
        }
    },
    "waypoints": [
        {
            "positions": [
                0.1228115487234821,
                -1.1394851275133948,
                1.971548259319323,
                -0.7804723859257726,
                0.12958671773740124,
                -3.192489227718131
            ]
        },
        {
            "positions": [
                0.057057290673330124,
                -1.1729386449699963,
                2.0355188397105066,
                -0.8142435836573444,
                0.2866190371367926,
                -3.1789351170257594
            ]
        },
        {
            "positions": [
                -0.008696967376821851,
                -1.2063921624265976,
                2.09948942010169,
                -0.8480147813889162,
                0.4436513565361839,
                -3.1653810063333876
            ]
        },
        {
            "positions": [
                -0.07445122542697383,
                -1.2398456798831992,
                2.163460000492874,
                -0.8817859791204878,
                0.6006836759355753,
                -3.151826895641016
            ]
        },
        {
            "positions": [
                -0.1402054834771258,
                -1.2732991973398007,
                2.2274305808840573,
                -0.9155571768520596,
                0.7577159953349666,
                -3.1382727849486436
            ]
        },
        {
            "positions": [
                -0.2059597415272778,
                -1.3067527147964022,
                2.2914011612752407,
                -0.9493283745836314,
                0.914748314734358,
                -3.124718674256272
            ]
        },
        {
            "positions": [
                -0.27171399957742975,
                -1.3402062322530035,
                2.3553717416664246,
                -0.9830995723152032,
                1.0717806341337492,
                -3.1111645635639
            ]
        },
        {
            "positions": [
                -0.33746825762758176,
                -1.373659749709605,
                2.419342322057608,
                -1.016870770046775,
                1.2288129535331407,
                -3.0976104528715283
            ]
        }
    ]
}{
    "goal": {
        "global_pose": {
            "orientation": {
                "w": 0.5084816217422485,
                "x": -0.49083608388900757,
                "y": 0.5182115435600281,
                "z": -0.4816462993621826
            },
            "position": {
                "x": 0.5540239810943604,
                "y": 0.030875300988554955,
                "z": 0.16403168439865112
            }
        },
        "name": "move_to_storage_A"
    },
    "id": "EST_move_to_storage_A_142",
    "joint_names": [
        "shoulder_pan_joint",
        "shoulder_lift_joint",
        "elbow_joint",
        "wrist_1_joint",
        "wrist_2_joint",
        "wrist_3_joint"
    ],
    "metrics": {
        "cart_traj_len": 0.35350062360748374,
        "distance_elbow_joint": 0.44824914760819645,
        "distance_shoulder_lift_joint": 0.23586358477827107,
        "distance_shoulder_pan_joint": 0.4636308077448384,
        "distance_wrist_1_joint": 0.23357612034139663,
        "distance_wrist_2_joint": 1.0941758244735769,
        "distance_wrist_3_joint": 0.09903707948095608,
        "smoothness": 6.661338165333112e-16,
        "time": 0.14020450999999998,
        "traj_len": 1.6045349994397864,
        "weighted_distance": 2.0249342379949336
    },
    "planner": "EST",
    "start": {
        "state": {
            "elbow_joint": 1.97154746011099,
            "shoulder_lift_joint": -1.13948474672311,
            "shoulder_pan_joint": 0.12281154466712228,
            "wrist_1_joint": -0.7804688027058302,
            "wrist_2_joint": 0.12958655903071145,
            "wrist_3_joint": 3.0906928834467795
        }
    },
    "waypoints": [
        {
            "positions": [
                0.12281154466712228,
                -1.13948474672311,
                1.97154746011099,
                -0.7804688027058302,
                0.12958655903071145,
                3.0906928834467795
            ]
        },
        {
            "positions": [
                0.05657857213214537,
                -1.1731795445485773,
                2.0355830526264467,
                -0.8138368198974583,
                0.2858973910983653,
                3.104841037658345
            ]
        },
        {
            "positions": [
                -0.00965440040283154,
                -1.2068743423740445,
                2.099618645141903,
                -0.8472048370890863,
                0.44220822316601915,
                3.1189891918699097
            ]
        },
        {
            "positions": [
                -0.07588737293780844,
                -1.2405691401995118,
                2.1636542376573598,
                -0.8805728542807144,
                0.598519055233673,
                3.133137346081475
            ]
        },
        {
            "positions": [
                -0.14212034547278535,
                -1.2742639380249792,
                2.2276898301728165,
                -0.9139408714723425,
                0.7548298873013268,
                3.14728550029304
            ]
        },
        {
            "positions": [
                -0.2083533180077623,
                -1.3079587358504465,
                2.2917254226882733,
                -0.9473088886639707,
                0.9111407193689807,
                3.1614336545046053
            ]
        },
        {
            "positions": [
                -0.27458629054273914,
                -1.3416535336759137,
                2.3557610152037296,
                -0.9806769058555987,
                1.0674515514366345,
                3.1755818087161702
            ]
        },
        {
            "positions": [
                -0.3408192630777161,
                -1.375348331501381,
                2.4197966077191864,
                -1.0140449230472268,
                1.2237623835042883,
                3.1897299629277356
            ]
        }
    ]
}{
    "goal": {
        "global_pose": {
            "orientation": {
                "w": 0.5084816217422485,
                "x": -0.49083608388900757,
                "y": 0.5182115435600281,
                "z": -0.4816462993621826
            },
            "position": {
                "x": 0.5540239810943604,
                "y": 0.030875300988554955,
                "z": 0.16403168439865112
            }
        },
        "name": "move_to_storage_A"
    },
    "id": "EST_move_to_storage_A_142",
    "joint_names": [
        "shoulder_pan_joint",
        "shoulder_lift_joint",
        "elbow_joint",
        "wrist_1_joint",
        "wrist_2_joint",
        "wrist_3_joint"
    ],
    "metrics": {
        "cart_traj_len": 0.35352909182176384,
        "distance_elbow_joint": 0.4512463286259951,
        "distance_shoulder_lift_joint": 0.23627556983397713,
        "distance_shoulder_pan_joint": 0.46500139890976366,
        "distance_wrist_1_joint": 0.2438012423192606,
        "distance_wrist_2_joint": 1.0891532065092124,
        "distance_wrist_3_joint": 0.0890111115893486,
        "smoothness": 0.0,
        "time": 0.047052969,
        "traj_len": 1.6045213796604758,
        "weighted_distance": 2.021253455110152
    },
    "planner": "EST",
    "start": {
        "state": {
            "elbow_joint": 1.9715472970024885,
            "shoulder_lift_joint": -1.1394870060712896,
            "shoulder_pan_joint": 0.12281152778156021,
            "wrist_1_joint": -0.780463741449964,
            "wrist_2_joint": 0.12958659822042276,
            "wrist_3_joint": 3.090690232415272
        }
    },
    "waypoints": [
        {
            "positions": [
                0.12281152778156021,
                -1.1394870060712896,
                1.9715472970024885,
                -0.780463741449964,
                0.12958659822042276,
                3.090690232415272
            ]
        },
        {
            "positions": [
                0.056382756508736837,
                -1.1732406589047149,
                2.0360110582347737,
                -0.8152924903527156,
                0.28517991343602456,
                3.1034061054994644
            ]
        },
        {
            "positions": [
                -0.010046014764086536,
                -1.2069943117381403,
                2.1004748194670584,
                -0.850121239255467,
                0.44077322865162627,
                3.1161219785836574
            ]
        },
        {
            "positions": [
                -0.07647478603690991,
                -1.2407479645715656,
                2.1649385806993435,
                -0.8849499881582186,
                0.5963665438672281,
                3.12883785166785
            ]
        },
        {
            "positions": [
                -0.14290355730973328,
                -1.2745016174049908,
                2.2294023419316287,
                -0.91977873706097,
                0.7519598590828298,
                3.1415537247520424
            ]
        },
        {
            "positions": [
                -0.2093323285825567,
                -1.308255270238416,
                2.293866103163914,
                -0.9546074859637216,
                0.9075531742984316,
                3.154269597836235
            ]
        },
        {
            "positions": [
                -0.27576109985538,
                -1.3420089230718415,
                2.3583298643961985,
                -0.989436234866473,
                1.0631464895140335,
                3.166985470920428
            ]
        },
        {
            "positions": [
                -0.3421898711282034,
                -1.3757625759052667,
                2.4227936256284837,
                -1.0242649837692246,
                1.2187398047296352,
                3.1797013440046205
            ]
        }
    ]
}