{
    "goal": {
        "global_pose": {
            "orientation": {
                "w": -0.00223480608172531,
                "x": 0.0024358444001904467,
                "y": 0.7094548369677653,
                "z": -0.704743149386269
            },
            "position": {
                "x": -0.37947507619857795,
                "y": -0.6371506643295288,
                "z": 0.19426114857196808
            }
        },
        "name": "move_to_magneteinheit_C"
    },
    "id": "FMT_move_to_magneteinheit_C_88",
    "joint_names": [
        "shoulder_pan_joint",
        "shoulder_lift_joint",
        "elbow_joint",
        "wrist_1_joint",
        "wrist_2_joint",
        "wrist_3_joint"
    ],
    "metrics": {
        "cart_traj_len": 1.0935684254500988,
        "distance_elbow_joint": 0.5943712051035708,
        "distance_shoulder_lift_joint": 0.3603944205935872,
        "distance_shoulder_pan_joint": 1.1104736639664627,
        "distance_wrist_1_joint": 2.565450564505876,
        "distance_wrist_2_joint": 2.836066702249891,
        "distance_wrist_3_joint": 0.5265058741582247,
        "smoothness": 2.1618328666659146,
        "time": 1.152587521,
        "traj_len": 2.8272358286102723,
        "weighted_distance": 3.801025051962935
    },
    "planner": "FMT",
    "start": {
        "state": {
            "elbow_joint": 1.9565354010623817,
            "shoulder_lift_joint": -1.4165861575791021,
            "shoulder_pan_joint": -1.6717766225146293,
            "wrist_1_joint": -0.5286633292919765,
            "wrist_2_joint": 1.472756589071564,
            "wrist_3_joint": -3.1238370188695823
        }
    },
    "waypoints": [
        {
            "positions": [
                -1.6717766225146293,
                -1.4165861575791021,
                1.9565354010623817,
                -0.5286633292919765,
                1.472756589071564,
                -3.1238370188695823
            ]
        },
        {
            "positions": [
                -1.6672554025144448,
                -1.4155464252076584,
                1.9568576639689876,
                -0.5189212033666942,
                1.4580786225994844,
                -3.1243822790609013
            ]
        },
        {
            "positions": [
                -1.6566904888544187,
                -1.3926555506782756,
                1.9626193921656874,
                -0.4290800329191385,
                1.2649206024536745,
                -3.132270551139369
            ]
        },
        {
            "positions": [
                -1.6461255751943926,
                -1.3697646761488929,
                1.968381120362387,
                -0.33923886247158275,
                1.0717625823078647,
                -3.1401588232178366
            ]
        },
        {
            "positions": [
                -1.6355606615343667,
                -1.3468738016195099,
                1.9741428485590868,
                -0.24939769202402706,
                0.8786045621620547,
                -3.1480470952963047
            ]
        },
        {
            "positions": [
                -1.6249957478743406,
                -1.323982927090127,
                1.9799045767557866,
                -0.15955652157647132,
                0.6854465420162448,
                -3.1559353673747723
            ]
        },
        {
            "positions": [
                -1.6144308342143145,
                -1.3010920525607443,
                1.9856663049524863,
                -0.06971535112891565,
                0.492288521870435,
                -3.16382363945324
            ]
        },
        {
            "positions": [
                -1.7183882233746397,
                -1.2896292468988129,
                2.036187988087001,
                -0.14848993998744384,
                0.4460217245169473,
                -3.200277892304178
            ]
        },
        {
            "positions": [
                -1.8223456125349649,
                -1.2781664412368814,
                2.086709671221516,
                -0.22726452884597204,
                0.3997549271634596,
                -3.2367321451551154
            ]
        },
        {
            "positions": [
                -1.92630300169529,
                -1.26670363557495,
                2.137231354356031,
                -0.3060391177045002,
                0.35348812980997196,
                -3.273186398006053
            ]
        },
        {
            "positions": [
                -2.030260390855615,
                -1.2552408299130184,
                2.187753037490546,
                -0.3848137065630284,
                0.3072213324564843,
                -3.309640650856991
            ]
        },
        {
            "positions": [
                -2.131133222830094,
                -1.2487829676052458,
                2.211628444371083,
                -0.5405070813941764,
                0.3218394396217069,
                -3.3429788481316067
            ]
        },
        {
            "positions": [
                -2.2320060548045735,
                -1.2423251052974729,
                2.2355038512516208,
                -0.6962004562253244,
                0.3364575467869296,
                -3.376317045406223
            ]
        },
        {
            "positions": [
                -2.3328788867790524,
                -1.2358672429897002,
                2.259379258132158,
                -0.8518938310564725,
                0.3510756539521522,
                -3.409655242680839
            ]
        },
        {
            "positions": [
                -2.366896996960215,
                -1.2434317275676086,
                2.2205148001388326,
                -0.7549379930946363,
                0.4900210024197204,
                -3.3811680345745825
            ]
        },
        {
            "positions": [
                -2.4009151071413775,
                -1.250996212145517,
                2.181650342145508,
                -0.6579821551328,
                0.6289663508872887,
                -3.3526808264683265
            ]
        },
        {
            "positions": [
                -2.43493321732254,
                -1.2585606967234253,
                2.1427858841521825,
                -0.5610263171709637,
                0.7679116993548569,
                -3.32419361836207
            ]
        },
        {
            "positions": [
                -2.4689513275037025,
                -1.266125181301334,
                2.1039214261588572,
                -0.46407047920912736,
                0.9068570478224252,
                -3.295706410255814
            ]
        },
        {
            "positions": [
                -2.502969437684865,
                -1.2736896658792423,
                2.065056968165532,
                -0.36711464124729104,
                1.0458023962899934,
                -3.2672192021495574
            ]
        },
        {
            "positions": [
                -2.5369875478660275,
                -1.2812541504571506,
                2.026192510172207,
                -0.27015880328545483,
                1.1847477447575616,
                -3.2387319940433015
            ]
        },
        {
            "positions": [
                -2.57100565804719,
                -1.288818635035059,
                1.9873280521788819,
                -0.17320296532361845,
                1.3236930932251298,
                -3.210244785937045
            ]
        },
        {
            "positions": [
                -2.546867395088872,
                -1.2571376065453523,
                1.9921970876990116,
                -0.33461127549421965,
                1.1601781720085884,
                -3.1999254875362517
            ]
        },
        {
            "positions": [
                -2.5227291321305536,
                -1.225456578055646,
                1.9970661232191411,
                -0.49601958566482085,
                0.9966632507920469,
                -3.189606189135458
            ]
        },
        {
            "positions": [
                -2.4985908691722356,
                -1.1937755495659392,
                2.0019351587392706,
                -0.657427895835422,
                0.8331483295755053,
                -3.179286890734664
            ]
        },
        {
            "positions": [
                -2.4744526062139176,
                -1.1620945210762326,
                2.0068041942594004,
                -0.8188362060060232,
                0.6696334083589639,
                -3.1689675923338707
            ]
        }
    ]
}