{
    "goal": {
        "global_pose": {
            "orientation": {
                "w": 0.7031023502349854,
                "x": -0.7110244035720825,
                "y": 0.007748599164187908,
                "z": 0.005598929710686207
            },
            "position": {
                "x": 0.11585023208521307,
                "y": 0.44412534475326537,
                "z": 0.3711530566215515
            }
        },
        "name": "move_to_auspresseinheit_A"
    },
    "id": "FMT_move_to_auspresseinheit_A_134",
    "joint_names": [
        "shoulder_pan_joint",
        "shoulder_lift_joint",
        "elbow_joint",
        "wrist_1_joint",
        "wrist_2_joint",
        "wrist_3_joint"
    ],
    "metrics": {
        "cart_traj_len": 0.8981587844689983,
        "distance_elbow_joint": 0.16436652118591288,
        "distance_shoulder_lift_joint": 1.0615002366908939,
        "distance_shoulder_pan_joint": 1.3017772990849292,
        "distance_wrist_1_joint": 1.1331166352893982,
        "distance_wrist_2_joint": 0.5149699522012898,
        "distance_wrist_3_joint": 0.11624147713923838,
        "smoothness": 1.480633542557568,
        "time": 1.007407734,
        "traj_len": 2.071707537658649,
        "weighted_distance": 2.4844600345670336
    },
    "planner": "FMT",
    "start": {
        "state": {
            "elbow_joint": 2.4225746658250005,
            "shoulder_lift_joint": -1.3736534386056498,
            "shoulder_pan_joint": -0.3378633547517467,
            "wrist_1_joint": -1.0288598680537169,
            "wrist_2_joint": 1.233022673432363,
            "wrist_3_joint": -3.0940220416140027
        }
    },
    "waypoints": [
        {
            "positions": [
                -0.3378633547517467,
                -1.3736534386056498,
                2.4225746658250005,
                -1.0288598680537169,
                1.233022673432363,
                -3.0940220416140027
            ]
        },
        {
            "positions": [
                -0.19096387902283962,
                -1.4734560356107316,
                2.410588096440039,
                -0.9236717398307458,
                1.2275920584550202,
                -3.0883048595093614
            ]
        },
        {
            "positions": [
                -0.04406440329393252,
                -1.5732586326158133,
                2.398601527055077,
                -0.8184836116077747,
                1.2221614434776773,
                -3.08258767740472
            ]
        },
        {
            "positions": [
                0.10283507243497458,
                -1.6730612296208949,
                2.3866149576701154,
                -0.7132954833848035,
                1.2167308285003344,
                -3.076870495300079
            ]
        },
        {
            "positions": [
                0.2497345481638817,
                -1.7728638266259766,
                2.3746283882851538,
                -0.6081073551618325,
                1.2113002135229916,
                -3.071153313195438
            ]
        },
        {
            "positions": [
                0.39663402389278873,
                -1.8726664236310584,
                2.3626418189001916,
                -0.5029192269388614,
                1.2058695985456487,
                -3.0654361310907965
            ]
        },
        {
            "positions": [
                0.5435334996216958,
                -1.9724690206361402,
                2.35065524951523,
                -0.3977310987158902,
                1.2004389835683058,
                -3.0597189489861556
            ]
        },
        {
            "positions": [
                0.6904329753506031,
                -2.072271617641222,
                2.3386686801302683,
                -0.2925429704929191,
                1.195008368590963,
                -3.0540017668815143
            ]
        },
        {
            "positions": [
                0.83733245107951,
                -2.1720742146463037,
                2.3266821107453066,
                -0.187354842269948,
                1.18957775361362,
                -3.048284584776873
            ]
        },
        {
            "positions": [
                0.8056870777660918,
                -2.106304349483744,
                2.3438006022718616,
                -0.26025774464635526,
                1.0716964955179833,
                -3.0659105898524
            ]
        },
        {
            "positions": [
                0.7740417044526737,
                -2.0405344843211837,
                2.360919093798416,
                -0.3331606470227625,
                0.9538152374223466,
                -3.083536594927927
            ]
        },
        {
            "positions": [
                0.7423963311392556,
                -1.9747646191586237,
                2.3780375853249707,
                -0.4060635493991698,
                0.83593397932671,
                -3.1011626000034545
            ]
        },
        {
            "positions": [
                0.7107509578258374,
                -1.9089947539960637,
                2.3951560768515257,
                -0.47896645177557706,
                0.7180527212310732,
                -3.1187886050789815
            ]
        }
    ]
}