{
    "goal": {
        "global_pose": {
            "orientation": {
                "w": -0.4816463035849501,
                "x": 0.5182115481033762,
                "y": 0.4908360881923453,
                "z": -0.5084816262002911
            },
            "position": {
                "x": -0.8240239810943604,
                "y": -0.300875300988555,
                "z": 0.16403168439865112
            }
        },
        "name": "move_to_storage_C"
    },
    "id": "FMT_move_to_storage_C_136",
    "joint_names": [
        "shoulder_pan_joint",
        "shoulder_lift_joint",
        "elbow_joint",
        "wrist_1_joint",
        "wrist_2_joint",
        "wrist_3_joint"
    ],
    "metrics": {
        "cart_traj_len": 0.5760429924159602,
        "distance_elbow_joint": 0.2536570281515733,
        "distance_shoulder_lift_joint": 0.18906431350992048,
        "distance_shoulder_pan_joint": 0.49431918668132413,
        "distance_wrist_1_joint": 0.06288648569408828,
        "distance_wrist_2_joint": 1.0677330130265648,
        "distance_wrist_3_joint": 0.06618030383489204,
        "smoothness": 0.0,
        "time": 0.309414565,
        "traj_len": 1.4607670351217414,
        "weighted_distance": 1.8430465098007702
    },
    "planner": "FMT",
    "start": {
        "state": {
            "elbow_joint": 2.010868314990456,
            "shoulder_lift_joint": -1.1634956873337592,
            "shoulder_pan_joint": -2.4736205022346125,
            "wrist_1_joint": -0.8367026794202681,
            "wrist_2_joint": 0.6746043897044499,
            "wrist_3_joint": -3.1496632123970403
        }
    },
    "waypoints": [
        {
            "positions": [
                -2.4736205022346125,
                -1.1634956873337592,
                2.010868314990456,
                -0.8367026794202681,
                0.6746043897044499,
                -3.1496632123970403
            ]
        },
        {
            "positions": [
                -2.5560070333481666,
                -1.131984968415439,
                1.9685921436318603,
                -0.8262215984712534,
                0.852559891875544,
                -3.1386331617578915
            ]
        },
        {
            "positions": [
                -2.6383935644617207,
                -1.1004742494971191,
                1.9263159722732648,
                -0.8157405175222386,
                1.0305153940466383,
                -3.127603111118743
            ]
        },
        {
            "positions": [
                -2.7207800955752743,
                -1.068963530578799,
                1.8840398009146693,
                -0.805259436573224,
                1.2084708962177322,
                -3.1165730604795945
            ]
        },
        {
            "positions": [
                -2.8031666266888284,
                -1.0374528116604789,
                1.8417636295560735,
                -0.7947783556242093,
                1.3864263983888265,
                -3.1055430098404457
            ]
        },
        {
            "positions": [
                -2.8855531578023825,
                -1.0059420927421587,
                1.799487458197478,
                -0.7842972746751945,
                1.5643819005599204,
                -3.094512959201297
            ]
        },
        {
            "positions": [
                -2.9679396889159366,
                -0.9744313738238387,
                1.7572112868388825,
                -0.7738161937261798,
                1.7423374027310148,
                -3.0834829085621482
            ]
        }
    ]
}