{
    "goal": {
        "global_pose": {
            "orientation": {
                "w": 0.005598929693374612,
                "x": 0.007748599140229565,
                "y": 0.7110244013736278,
                "z": -0.7031023480610252
            },
            "position": {
                "x": 0.1141497679147869,
                "y": -0.7141253447532654,
                "z": 0.3711530566215515
            }
        },
        "name": "move_to_auspresseinheit_B"
    },
    "id": "FMT_move_to_auspresseinheit_B_136",
    "joint_names": [
        "shoulder_pan_joint",
        "shoulder_lift_joint",
        "elbow_joint",
        "wrist_1_joint",
        "wrist_2_joint",
        "wrist_3_joint"
    ],
    "metrics": {
        "cart_traj_len": 0.563706198901108,
        "distance_elbow_joint": 0.06208477357967501,
        "distance_shoulder_lift_joint": 0.29495276232536627,
        "distance_shoulder_pan_joint": 0.5779548745534155,
        "distance_wrist_1_joint": 0.33058674201793514,
        "distance_wrist_2_joint": 0.9854332401702435,
        "distance_wrist_3_joint": 0.002189953416779744,
        "smoothness": 2.5376526478085547e-16,
        "time": 0.44469494800000003,
        "traj_len": 1.501067069142287,
        "weighted_distance": 1.8903973749149021
    },
    "planner": "FMT",
    "start": {
        "state": {
            "elbow_joint": 2.0193083361928714,
            "shoulder_lift_joint": -1.1220246554650708,
            "shoulder_pan_joint": -1.0952077554168747,
            "wrist_1_joint": -0.8559753972642168,
            "wrist_2_joint": 0.4759566250798843,
            "wrist_3_joint": -3.1240929996934557
        }
    },
    "waypoints": [
        {
            "positions": [
                -1.0952077554168747,
                -1.1220246554650708,
                2.0193083361928714,
                -0.8559753972642168,
                0.4759566250798843,
                -3.1240929996934557
            ]
        },
        {
            "positions": [
                -1.191533567842444,
                -1.1711834491859652,
                2.0089608739295923,
                -0.8008776069278942,
                0.6401954984415915,
                -3.1244579919295856
            ]
        },
        {
            "positions": [
                -1.2878593802680132,
                -1.2203422429068596,
                1.998613411666313,
                -0.7457798165915718,
                0.8044343718032987,
                -3.1248229841657156
            ]
        },
        {
            "positions": [
                -1.3841851926935824,
                -1.269501036627754,
                1.988265949403034,
                -0.6906820262552492,
                0.968673245165006,
                -3.1251879764018455
            ]
        },
        {
            "positions": [
                -1.4805110051191517,
                -1.3186598303486483,
                1.9779184871397548,
                -0.6355842359189268,
                1.1329121185267133,
                -3.1255529686379755
            ]
        },
        {
            "positions": [
                -1.576836817544721,
                -1.3678186240695427,
                1.9675710248764755,
                -0.5804864455826042,
                1.2971509918884205,
                -3.1259179608741055
            ]
        },
        {
            "positions": [
                -1.6731626299702902,
                -1.416977417790437,
                1.9572235626131964,
                -0.5253886552462816,
                1.4613898652501278,
                -3.1262829531102354
            ]
        }
    ]
}