{
    "goal": {
        "global_pose": {
            "orientation": {
                "w": 0.7047431468963623,
                "x": -0.7094548344612122,
                "y": 0.0024358443915843964,
                "z": -0.0022348060738295317
            },
            "position": {
                "x": 0.6094750761985779,
                "y": 0.3671506643295288,
                "z": 0.19426114857196808
            }
        },
        "name": "move_to_magneteinheit_A"
    },
    "id": "FMT_move_to_magneteinheit_A_56",
    "joint_names": [
        "shoulder_pan_joint",
        "shoulder_lift_joint",
        "elbow_joint",
        "wrist_1_joint",
        "wrist_2_joint",
        "wrist_3_joint"
    ],
    "metrics": {
        "cart_traj_len": 3.0170697698239777,
        "distance_elbow_joint": 3.920323263812043,
        "distance_shoulder_lift_joint": 0.4646294307585288,
        "distance_shoulder_pan_joint": 2.73761550200872,
        "distance_wrist_1_joint": 3.49017118148091,
        "distance_wrist_2_joint": 1.43395768060748,
        "distance_wrist_3_joint": 1.2091297809641666,
        "smoothness": 0.04465817535058558,
        "time": 1.3606363910000001,
        "traj_len": 3.6408552346436207,
        "weighted_distance": 4.538525670705033
    },
    "planner": "FMT",
    "start": {
        "state": {
            "elbow_joint": -1.9196185241190666,
            "shoulder_lift_joint": -1.2443396400964142,
            "shoulder_pan_joint": 2.6996025414629847,
            "wrist_1_joint": -1.5485510000780065,
            "wrist_2_joint": -1.5709468930060704,
            "wrist_3_joint": 0.4420197071253992
        }
    },
    "waypoints": [
        {
            "positions": [
                2.6996025414629847,
                -1.2443396400964142,
                -1.9196185241190666,
                -1.5485510000780065,
                -1.5709468930060704,
                0.4420197071253992
            ]
        },
        {
            "positions": [
                2.5736917454621073,
                -1.2401862573676299,
                -1.8164549797963698,
                -1.4509680020771694,
                -1.5382857465576922,
                0.46000434784967287
            ]
        },
        {
            "positions": [
                2.44778094946123,
                -1.2360328746388456,
                -1.713291435473673,
                -1.3533850040763322,
                -1.5056246001093139,
                0.47798898857394656
            ]
        },
        {
            "positions": [
                2.3218701534603525,
                -1.2318794919100615,
                -1.6101278911509762,
                -1.255802006075495,
                -1.4729634536609357,
                0.49597362929822025
            ]
        },
        {
            "positions": [
                2.1959593574594747,
                -1.2277261091812772,
                -1.5069643468282794,
                -1.158219008074658,
                -1.4403023072125574,
                0.513958270022494
            ]
        },
        {
            "positions": [
                2.0700485614585973,
                -1.223572726452493,
                -1.4038008025055828,
                -1.0606360100738208,
                -1.4076411607641792,
                0.5319429107467677
            ]
        },
        {
            "positions": [
                1.9441377654577199,
                -1.2194193437237086,
                -1.3006372581828858,
                -0.9630530120729835,
                -1.3749800143158009,
                0.5499275514710413
            ]
        },
        {
            "positions": [
                1.8182269694568425,
                -1.2152659609949243,
                -1.1974737138601892,
                -0.8654700140721464,
                -1.3423188678674227,
                0.567912192195315
            ]
        },
        {
            "positions": [
                1.692316173455965,
                -1.2111125782661403,
                -1.0943101695374922,
                -0.7678870160713093,
                -1.3096577214190446,
                0.5858968329195887
            ]
        },
        {
            "positions": [
                1.5664053774550877,
                -1.206959195537356,
                -0.9911466252147955,
                -0.6703040180704721,
                -1.2769965749706662,
                0.6038814736438625
            ]
        },
        {
            "positions": [
                1.44049458145421,
                -1.2028058128085717,
                -0.8879830808920988,
                -0.572721020069635,
                -1.244335428522288,
                0.6218661143681361
            ]
        },
        {
            "positions": [
                1.3145837854533327,
                -1.1986524300797874,
                -0.7848195365694017,
                -0.47513802206879774,
                -1.2116742820739097,
                0.6398507550924099
            ]
        },
        {
            "positions": [
                1.1886729894524553,
                -1.194499047351003,
                -0.6816559922467051,
                -0.3775550240679606,
                -1.1790131356255316,
                0.6578353958166835
            ]
        },
        {
            "positions": [
                1.0627621934515776,
                -1.1903456646222188,
                -0.5784924479240081,
                -0.27997202606712346,
                -1.1463519891771532,
                0.6758200365409572
            ]
        },
        {
            "positions": [
                0.9368513974507002,
                -1.1861922818934347,
                -0.4753289036013115,
                -0.18238902806628632,
                -1.113690842728775,
                0.6938046772652309
            ]
        },
        {
            "positions": [
                0.8109406014498228,
                -1.1820388991646504,
                -0.3721653592786147,
                -0.08480603006544896,
                -1.081029696280397,
                0.7117893179895046
            ]
        },
        {
            "positions": [
                0.6850298054489454,
                -1.1778855164358661,
                -0.2690018149559179,
                0.012776967935387962,
                -1.0483685498320185,
                0.7297739587137783
            ]
        },
        {
            "positions": [
                0.559119009448068,
                -1.1737321337070818,
                -0.1658382706332211,
                0.11035996593622532,
                -1.0157074033836402,
                0.747758599438052
            ]
        },
        {
            "positions": [
                0.4332082134471906,
                -1.1695787509782976,
                -0.06267472631052429,
                0.20794296393706224,
                -0.9830462569352622,
                0.7657432401623256
            ]
        },
        {
            "positions": [
                0.3072974174463128,
                -1.1654253682495135,
                0.04048881801217252,
                0.3055259619378996,
                -0.9503851104868839,
                0.7837278808865994
            ]
        },
        {
            "positions": [
                0.18138662144543538,
                -1.1612719855207292,
                0.1436523623348691,
                0.4031089599387365,
                -0.9177239640385056,
                0.8017125216108731
            ]
        },
        {
            "positions": [
                0.05547582544455805,
                -1.157118602791945,
                0.24681590665756628,
                0.5006919579395741,
                -0.8850628175901274,
                0.8196971623351468
            ]
        },
        {
            "positions": [
                0.05438475345696751,
                -1.1307506949742716,
                0.38849525912891214,
                0.616099934812611,
                -0.8294716622437862,
                0.7644047303741216
            ]
        },
        {
            "positions": [
                0.05329368146937698,
                -1.1043827871565983,
                0.530174611600258,
                0.7315079116856479,
                -0.773880506897445,
                0.7091122984130964
            ]
        },
        {
            "positions": [
                0.05220260948178644,
                -1.0780148793389253,
                0.6718539640716039,
                0.8469158885586847,
                -0.7182893515511037,
                0.6538198664520711
            ]
        },
        {
            "positions": [
                0.051111537494195905,
                -1.051646971521252,
                0.8135333165429497,
                0.9623238654317217,
                -0.6626981962047627,
                0.5985274344910461
            ]
        },
        {
            "positions": [
                0.05002046550660537,
                -1.0252790637035787,
                0.9552126690142956,
                1.0777318423047586,
                -0.6071070408584214,
                0.5432350025300208
            ]
        },
        {
            "positions": [
                0.04892939351901483,
                -0.9989111558859054,
                1.0968920214856415,
                1.1931398191777953,
                -0.5515158855120802,
                0.4879425705689956
            ]
        },
        {
            "positions": [
                0.0478383215314243,
                -0.9725432480682322,
                1.2385713739569875,
                1.3085477960508323,
                -0.49592473016573896,
                0.43265013860797036
            ]
        },
        {
            "positions": [
                0.04674724954383377,
                -0.946175340250559,
                1.3802507264283332,
                1.4239557729238692,
                -0.44033357481939783,
                0.37735770664694523
            ]
        },
        {
            "positions": [
                0.04565617755624323,
                -0.9198074324328858,
                1.5219300788996792,
                1.5393637497969062,
                -0.38474241947305665,
                0.32206527468592
            ]
        },
        {
            "positions": [
                0.044565105568652695,
                -0.8934395246152125,
                1.663609431371025,
                1.654771726669943,
                -0.32915126412671536,
                0.26677284272489477
            ]
        },
        {
            "positions": [
                0.04347403358106216,
                -0.8670716167975392,
                1.8052887838423708,
                1.7701797035429798,
                -0.2735601087803742,
                0.2114804107638696
            ]
        },
        {
            "positions": [
                0.04238296159347162,
                -0.840703708979866,
                1.9469681363137168,
                1.8855876804160168,
                -0.21796895343403297,
                0.1561879788028444
            ]
        },
        {
            "positions": [
                0.08258092266307379,
                -0.8102069591588756,
                1.9738364380033468,
                1.91360393090946,
                -0.17747908291631176,
                0.07221640769178624
            ]
        },
        {
            "positions": [
                0.12277888373267597,
                -0.7797102093378854,
                2.000704739692977,
                1.9416201814029033,
                -0.13698921239859055,
                -0.011755163419271944
            ]
        }
    ]
}