{
    "goal": {
        "global_pose": {
            "orientation": {
                "w": 0.7031023502349854,
                "x": -0.7110244035720825,
                "y": 0.007748599164187908,
                "z": 0.005598929710686207
            },
            "position": {
                "x": 0.11585023208521307,
                "y": 0.44412534475326537,
                "z": 0.3711530566215515
            }
        },
        "name": "move_to_auspresseinheit_A"
    },
    "id": "FMT_move_to_auspresseinheit_A_18",
    "joint_names": [
        "shoulder_pan_joint",
        "shoulder_lift_joint",
        "elbow_joint",
        "wrist_1_joint",
        "wrist_2_joint",
        "wrist_3_joint"
    ],
    "metrics": {
        "cart_traj_len": 0.6874413269041915,
        "distance_elbow_joint": 0.03249784779726461,
        "distance_shoulder_lift_joint": 0.5323723004317336,
        "distance_shoulder_pan_joint": 1.040142090793623,
        "distance_wrist_1_joint": 0.5759420658185987,
        "distance_wrist_2_joint": 0.5366111181356272,
        "distance_wrist_3_joint": 0.06130732375276704,
        "smoothness": 4.93432458514678e-16,
        "time": 0.528065508,
        "traj_len": 1.6669951249867572,
        "weighted_distance": 2.0035070696629385
    },
    "planner": "FMT",
    "start": {
        "state": {
            "elbow_joint": 2.4225746658250005,
            "shoulder_lift_joint": -1.3736534386056498,
            "shoulder_pan_joint": -0.3378633547517467,
            "wrist_1_joint": -1.0288598680537169,
            "wrist_2_joint": 1.233022673432363,
            "wrist_3_joint": -3.0940220416140027
        }
    },
    "waypoints": [
        {
            "positions": [
                -0.3378633547517467,
                -1.3736534386056498,
                2.4225746658250005,
                -1.0288598680537169,
                1.233022673432363,
                -3.0940220416140027
            ]
        },
        {
            "positions": [
                -0.20784559340254385,
                -1.4401999761596165,
                2.418512434850342,
                -0.956867109826392,
                1.1659462836654098,
                -3.1016854570830987
            ]
        },
        {
            "positions": [
                -0.07782783205334098,
                -1.5067465137135831,
                2.4144502038756843,
                -0.8848743515990671,
                1.0988698938984562,
                -3.1093488725521947
            ]
        },
        {
            "positions": [
                0.052189929295861914,
                -1.5732930512675498,
                2.4103879729010265,
                -0.8128815933717424,
                1.0317935041315027,
                -3.1170122880212903
            ]
        },
        {
            "positions": [
                0.18220769064506476,
                -1.6398395888215167,
                2.406325741926368,
                -0.7408888351444175,
                0.9647171143645494,
                -3.1246757034903863
            ]
        },
        {
            "positions": [
                0.3122254519942676,
                -1.7063861263754831,
                2.40226351095171,
                -0.6688960769170926,
                0.897640724597596,
                -3.1323391189594822
            ]
        },
        {
            "positions": [
                0.44224321334347055,
                -1.77293266392945,
                2.398201279977052,
                -0.5969033186897679,
                0.8305643348306426,
                -3.140002534428578
            ]
        },
        {
            "positions": [
                0.5722609746926735,
                -1.8394792014834167,
                2.394139049002394,
                -0.524910560462443,
                0.7634879450636892,
                -3.147665949897674
            ]
        },
        {
            "positions": [
                0.7022787360418763,
                -1.9060257390373834,
                2.390076818027736,
                -0.4529178022351181,
                0.6964115552967358,
                -3.1553293653667698
            ]
        }
    ]
}