{
    "goal": {
        "global_pose": {
            "orientation": {
                "w": -0.4816463035849501,
                "x": 0.5182115481033762,
                "y": 0.4908360881923453,
                "z": -0.5084816262002911
            },
            "position": {
                "x": -0.8240239810943604,
                "y": -0.300875300988555,
                "z": 0.16403168439865112
            }
        },
        "name": "move_to_storage_C"
    },
    "id": "FMT_move_to_storage_C_127",
    "joint_names": [
        "shoulder_pan_joint",
        "shoulder_lift_joint",
        "elbow_joint",
        "wrist_1_joint",
        "wrist_2_joint",
        "wrist_3_joint"
    ],
    "metrics": {
        "cart_traj_len": 0.576991727032899,
        "distance_elbow_joint": 0.2562378276246591,
        "distance_shoulder_lift_joint": 0.18952535204627685,
        "distance_shoulder_pan_joint": 0.49594383720410296,
        "distance_wrist_1_joint": 0.06820077109906963,
        "distance_wrist_2_joint": 1.0586060179028163,
        "distance_wrist_3_joint": 0.06346914038294882,
        "smoothness": 0.0,
        "time": 0.32263956400000005,
        "traj_len": 1.4601311400897776,
        "weighted_distance": 1.8400347866352031
    },
    "planner": "FMT",
    "start": {
        "state": {
            "elbow_joint": 2.010868314990456,
            "shoulder_lift_joint": -1.1634956873337592,
            "shoulder_pan_joint": -2.4736205022346125,
            "wrist_1_joint": -0.8367026794202681,
            "wrist_2_joint": 0.6746043897044499,
            "wrist_3_joint": -3.1496632123970403
        }
    },
    "waypoints": [
        {
            "positions": [
                -2.4736205022346125,
                -1.1634956873337592,
                2.010868314990456,
                -0.8367026794202681,
                0.6746043897044499,
                -3.1496632123970403
            ]
        },
        {
            "positions": [
                -2.556277808435296,
                -1.1319081286593797,
                1.968162010386346,
                -0.8253358842370898,
                0.8510387260215859,
                -3.1390850223332154
            ]
        },
        {
            "positions": [
                -2.6389351146359803,
                -1.1003205699850003,
                1.9254557057822361,
                -0.8139690890539115,
                1.027473062338722,
                -3.1285068322693905
            ]
        },
        {
            "positions": [
                -2.721592420836664,
                -1.0687330113106208,
                1.8827494011781263,
                -0.8026022938707333,
                1.2039073986558582,
                -3.117928642205566
            ]
        },
        {
            "positions": [
                -2.8042497270373477,
                -1.0371454526362414,
                1.8400430965740164,
                -0.791235498687555,
                1.380341734972994,
                -3.107350452141741
            ]
        },
        {
            "positions": [
                -2.8869070332380318,
                -1.005557893961862,
                1.7973367919699066,
                -0.7798687035043768,
                1.5567760712901302,
                -3.0967722620779163
            ]
        },
        {
            "positions": [
                -2.9695643394387155,
                -0.9739703352874823,
                1.7546304873657967,
                -0.7685019083211985,
                1.7332104076072663,
                -3.0861940720140915
            ]
        }
    ]
}