{
    "goal": {
        "global_pose": {
            "orientation": {
                "w": 0.005598929693374612,
                "x": 0.007748599140229565,
                "y": 0.7110244013736278,
                "z": -0.7031023480610252
            },
            "position": {
                "x": -0.8858502320852131,
                "y": -0.7141253447532654,
                "z": 0.3711530566215515
            }
        },
        "name": "move_to_auspresseinheit_C"
    },
    "id": "FMT_move_to_auspresseinheit_C_93",
    "joint_names": [
        "shoulder_pan_joint",
        "shoulder_lift_joint",
        "elbow_joint",
        "wrist_1_joint",
        "wrist_2_joint",
        "wrist_3_joint"
    ],
    "metrics": {
        "cart_traj_len": 0.4927432988454366,
        "distance_elbow_joint": 0.991373649156967,
        "distance_shoulder_lift_joint": 0.32077222369164127,
        "distance_shoulder_pan_joint": 0.2564171060004523,
        "distance_wrist_1_joint": 0.6595113869329321,
        "distance_wrist_2_joint": 1.3142781976506515,
        "distance_wrist_3_joint": 0.03842432147978325,
        "smoothness": 3.2297397080004555e-16,
        "time": 0.454748895,
        "traj_len": 1.8922940799232097,
        "weighted_distance": 2.3730602842017263
    },
    "planner": "FMT",
    "start": {
        "state": {
            "elbow_joint": 1.7527959577737207,
            "shoulder_lift_joint": -0.9740617694225068,
            "shoulder_pan_joint": -2.967991417825858,
            "wrist_1_joint": -0.759517768980727,
            "wrist_2_joint": 1.7443932448377408,
            "wrist_3_joint": -3.0840537646736568
        }
    },
    "waypoints": [
        {
            "positions": [
                -2.967991417825858,
                -0.9740617694225068,
                1.7527959577737207,
                -0.759517768980727,
                1.7443932448377408,
                -3.0840537646736568
            ]
        },
        {
            "positions": [
                -2.9423497072258127,
                -0.9419845470533427,
                1.6536585928580239,
                -0.6935666302874338,
                1.6129654250726757,
                -3.087896196821635
            ]
        },
        {
            "positions": [
                -2.9167079966257674,
                -0.9099073246841786,
                1.5545212279423273,
                -0.6276154915941405,
                1.4815376053076106,
                -3.0917386289696136
            ]
        },
        {
            "positions": [
                -2.891066286025722,
                -0.8778301023150143,
                1.4553838630266305,
                -0.5616643529008474,
                1.3501097855425455,
                -3.0955810611175916
            ]
        },
        {
            "positions": [
                -2.865424575425677,
                -0.8457528799458502,
                1.356246498110934,
                -0.49571321420755415,
                1.2186819657774803,
                -3.09942349326557
            ]
        },
        {
            "positions": [
                -2.839782864825632,
                -0.8136756575766861,
                1.257109133195237,
                -0.42976207551426093,
                1.0872541460124152,
                -3.1032659254135484
            ]
        },
        {
            "positions": [
                -2.8141411542255867,
                -0.781598435207522,
                1.1579717682795405,
                -0.3638109368209677,
                0.95582632624735,
                -3.107108357561527
            ]
        },
        {
            "positions": [
                -2.7884994436255415,
                -0.7495212128383579,
                1.0588344033638437,
                -0.29785979812767455,
                0.8243985064822849,
                -3.1109507897095052
            ]
        },
        {
            "positions": [
                -2.762857733025496,
                -0.7174439904691938,
                0.959697038448147,
                -0.23190865943438133,
                0.6929706867172196,
                -3.114793221857483
            ]
        },
        {
            "positions": [
                -2.737216022425451,
                -0.6853667681000296,
                0.8605596735324503,
                -0.16595752074108805,
                0.5615428669521545,
                -3.1186356540054616
            ]
        },
        {
            "positions": [
                -2.7115743118254056,
                -0.6532895457308655,
                0.7614223086167536,
                -0.10000638204779487,
                0.4301150471870893,
                -3.12247808615344
            ]
        }
    ]
}