{
    "goal": {
        "global_pose": {
            "orientation": {
                "w": 0.5084816217422485,
                "x": -0.49083608388900757,
                "y": 0.5182115435600281,
                "z": -0.4816462993621826
            },
            "position": {
                "x": 0.5540239810943604,
                "y": 0.030875300988554955,
                "z": 0.16403168439865112
            }
        },
        "name": "move_to_storage_A"
    },
    "id": "FMT_move_to_storage_A_40",
    "joint_names": [
        "shoulder_pan_joint",
        "shoulder_lift_joint",
        "elbow_joint",
        "wrist_1_joint",
        "wrist_2_joint",
        "wrist_3_joint"
    ],
    "metrics": {
        "cart_traj_len": 0.35296820000066226,
        "distance_elbow_joint": 0.44822706225220244,
        "distance_shoulder_lift_joint": 0.23342671095850043,
        "distance_shoulder_pan_joint": 0.46217327721371176,
        "distance_wrist_1_joint": 0.23849352707097615,
        "distance_wrist_2_joint": 1.0951262720535344,
        "distance_wrist_3_joint": 0.09879096233248497,
        "smoothness": 8.881784232165597e-16,
        "time": 0.378829538,
        "traj_len": 1.6050662951670907,
        "weighted_distance": 2.0266819029317085
    },
    "planner": "FMT",
    "start": {
        "state": {
            "elbow_joint": 1.971548259319323,
            "shoulder_lift_joint": -1.1394851275133948,
            "shoulder_pan_joint": 0.1228115487234821,
            "wrist_1_joint": -0.7804723859257726,
            "wrist_2_joint": 0.12958671773740124,
            "wrist_3_joint": -3.192489227718131
        }
    },
    "waypoints": [
        {
            "positions": [
                0.1228115487234821,
                -1.1394851275133948,
                1.971548259319323,
                -0.7804723859257726,
                0.12958671773740124,
                -3.192489227718131
            ]
        },
        {
            "positions": [
                0.05678679483580899,
                -1.1728318005074663,
                2.0355806967839234,
                -0.8145428897930549,
                0.2860333280307633,
                -3.178376233099205
            ]
        },
        {
            "positions": [
                -0.009237959051864114,
                -1.2061784735015377,
                2.0996131342485236,
                -0.8486133936603373,
                0.44247993832412535,
                -3.1642632384802782
            ]
        },
        {
            "positions": [
                -0.07526271293953721,
                -1.2395251464956092,
                2.163645571713124,
                -0.8826838975276196,
                0.5989265486174874,
                -3.150150243861352
            ]
        },
        {
            "positions": [
                -0.14128746682721033,
                -1.2728718194896809,
                2.2276780091777244,
                -0.9167544013949018,
                0.7553731589108494,
                -3.1360372492424253
            ]
        },
        {
            "positions": [
                -0.20731222071488348,
                -1.3062184924837523,
                2.2917104466423246,
                -0.9508249052621842,
                0.9118197692042116,
                -3.121924254623499
            ]
        },
        {
            "positions": [
                -0.2733369746025565,
                -1.3395651654778238,
                2.3557428841069252,
                -0.9848954091294664,
                1.0682663794975735,
                -3.1078112600045724
            ]
        },
        {
            "positions": [
                -0.33936172849022966,
                -1.3729118384718952,
                2.4197753215715254,
                -1.0189659129967488,
                1.2247129897909357,
                -3.093698265385646
            ]
        }
    ]
}{
    "goal": {
        "global_pose": {
            "orientation": {
                "w": 0.5084816217422485,
                "x": -0.49083608388900757,
                "y": 0.5182115435600281,
                "z": -0.4816462993621826
            },
            "position": {
                "x": 0.5540239810943604,
                "y": 0.030875300988554955,
                "z": 0.16403168439865112
            }
        },
        "name": "move_to_storage_A"
    },
    "id": "FMT_move_to_storage_A_40",
    "joint_names": [
        "shoulder_pan_joint",
        "shoulder_lift_joint",
        "elbow_joint",
        "wrist_1_joint",
        "wrist_2_joint",
        "wrist_3_joint"
    ],
    "metrics": {
        "cart_traj_len": 0.3534806443988837,
        "distance_elbow_joint": 0.45039136654218437,
        "distance_shoulder_lift_joint": 0.235385089486557,
        "distance_shoulder_pan_joint": 0.4636929697080686,
        "distance_wrist_1_joint": 0.24205252424589485,
        "distance_wrist_2_joint": 1.0938708479021926,
        "distance_wrist_3_joint": 0.0884787812869745,
        "smoothness": 8.881784197001252e-16,
        "time": 0.44812167799999997,
        "traj_len": 1.60432901213307,
        "weighted_distance": 2.0215717929111268
    },
    "planner": "FMT",
    "start": {
        "state": {
            "elbow_joint": 1.97154746011099,
            "shoulder_lift_joint": -1.13948474672311,
            "shoulder_pan_joint": 0.12281154466712228,
            "wrist_1_joint": -0.7804688027058302,
            "wrist_2_joint": 0.12958655903071145,
            "wrist_3_joint": 3.0906928834467795
        }
    },
    "waypoints": [
        {
            "positions": [
                0.12281154466712228,
                -1.13948474672311,
                1.97154746011099,
                -0.7804688027058302,
                0.12958655903071145,
                3.0906928834467795
            ]
        },
        {
            "positions": [
                0.05656969185168391,
                -1.1731111880783325,
                2.0358890839027306,
                -0.815047734740958,
                0.28585382301673895,
                3.103332709344919
            ]
        },
        {
            "positions": [
                -0.009672160963754464,
                -1.2067376294335548,
                2.1002307076944713,
                -0.8496266667760859,
                0.4421210870027664,
                3.115972535243058
            ]
        },
        {
            "positions": [
                -0.07591401377919284,
                -1.2403640707887773,
                2.164572331486212,
                -0.8842055988112136,
                0.598388350988794,
                3.1286123611411973
            ]
        },
        {
            "positions": [
                -0.1421558665946312,
                -1.2739905121439996,
                2.228913955277952,
                -0.9187845308463415,
                0.7546556149748215,
                3.141252187039336
            ]
        },
        {
            "positions": [
                -0.20839771941006957,
                -1.3076169534992221,
                2.293255579069693,
                -0.9533634628814693,
                0.910922878960849,
                3.1538920129374755
            ]
        },
        {
            "positions": [
                -0.27463957222550794,
                -1.3412433948544444,
                2.3575972028614336,
                -0.9879423949165972,
                1.0671901429468764,
                3.1665318388356147
            ]
        },
        {
            "positions": [
                -0.3408814250409463,
                -1.374869836209667,
                2.4219388266531743,
                -1.022521326951725,
                1.223457406932904,
                3.179171664733754
            ]
        }
    ]
}{
    "goal": {
        "global_pose": {
            "orientation": {
                "w": 0.5084816217422485,
                "x": -0.49083608388900757,
                "y": 0.5182115435600281,
                "z": -0.4816462993621826
            },
            "position": {
                "x": 0.5540239810943604,
                "y": 0.030875300988554955,
                "z": 0.16403168439865112
            }
        },
        "name": "move_to_storage_A"
    },
    "id": "FMT_move_to_storage_A_40",
    "joint_names": [
        "shoulder_pan_joint",
        "shoulder_lift_joint",
        "elbow_joint",
        "wrist_1_joint",
        "wrist_2_joint",
        "wrist_3_joint"
    ],
    "metrics": {
        "cart_traj_len": 0.35287168134188934,
        "distance_elbow_joint": 0.44993886325542576,
        "distance_shoulder_lift_joint": 0.23462940462684356,
        "distance_shoulder_pan_joint": 0.4632493581069292,
        "distance_wrist_1_joint": 0.2397494825132367,
        "distance_wrist_2_joint": 1.0909328794725122,
        "distance_wrist_3_joint": 0.0887182616428861,
        "smoothness": 1.1102230263833737e-15,
        "time": 0.531491455,
        "traj_len": 1.6022541151820562,
        "weighted_distance": 2.0187464265948196
    },
    "planner": "FMT",
    "start": {
        "state": {
            "elbow_joint": 1.9715472970024885,
            "shoulder_lift_joint": -1.1394870060712896,
            "shoulder_pan_joint": 0.12281152778156021,
            "wrist_1_joint": -0.780463741449964,
            "wrist_2_joint": 0.12958659822042276,
            "wrist_3_joint": 3.090690232415272
        }
    },
    "waypoints": [
        {
            "positions": [
                0.12281152778156021,
                -1.1394870060712896,
                1.9715472970024885,
                -0.780463741449964,
                0.12958659822042276,
                3.090690232415272
            ]
        },
        {
            "positions": [
                0.05663304805199891,
                -1.173005492446553,
                2.0358242774675492,
                -0.8147136675232836,
                0.28543415243078163,
                3.103364269792827
            ]
        },
        {
            "positions": [
                -0.009545431677562388,
                -1.2065239788218163,
                2.1001012579326104,
                -0.848963593596603,
                0.4412817066411405,
                3.116038307170382
            ]
        },
        {
            "positions": [
                -0.0757239114071237,
                -1.2400424651970796,
                2.164378238397671,
                -0.8832135196699226,
                0.5971292608514994,
                3.1287123445479375
            ]
        },
        {
            "positions": [
                -0.14190239113668499,
                -1.273560951572343,
                2.2286552188627318,
                -0.9174634457432421,
                0.7529768150618582,
                3.1413863819254924
            ]
        },
        {
            "positions": [
                -0.2080808708662463,
                -1.3070794379476065,
                2.292932199327793,
                -0.9517133718165616,
                0.9088243692722171,
                3.1540604193030477
            ]
        },
        {
            "positions": [
                -0.27425935059580764,
                -1.3405979243228698,
                2.3572091797928536,
                -0.9859632978898811,
                1.064671923482576,
                3.1667344566806026
            ]
        },
        {
            "positions": [
                -0.34043783032536895,
                -1.3741164106981332,
                2.4214861602579143,
                -1.0202132239632007,
                1.220519477692935,
                3.179408494058158
            ]
        }
    ]
}