{
    "goal": {
        "global_pose": {
            "orientation": {
                "w": 0.005598929693374612,
                "x": 0.007748599140229565,
                "y": 0.7110244013736278,
                "z": -0.7031023480610252
            },
            "position": {
                "x": -0.8858502320852131,
                "y": -0.7141253447532654,
                "z": 0.3711530566215515
            }
        },
        "name": "move_to_auspresseinheit_C"
    },
    "id": "FMT_move_to_auspresseinheit_C_14",
    "joint_names": [
        "shoulder_pan_joint",
        "shoulder_lift_joint",
        "elbow_joint",
        "wrist_1_joint",
        "wrist_2_joint",
        "wrist_3_joint"
    ],
    "metrics": {
        "cart_traj_len": 0.4932890162209306,
        "distance_elbow_joint": 0.9943340508704044,
        "distance_shoulder_lift_joint": 0.32259178806543487,
        "distance_shoulder_pan_joint": 0.25676472845907927,
        "distance_wrist_1_joint": 0.6612565411664629,
        "distance_wrist_2_joint": 1.307459480458747,
        "distance_wrist_3_joint": 0.053366614675533164,
        "smoothness": 1.291895885757589e-15,
        "time": 0.519833271,
        "traj_len": 1.8962524103335139,
        "weighted_distance": 2.3814328574771824
    },
    "planner": "FMT",
    "start": {
        "state": {
            "elbow_joint": 1.7527959577737207,
            "shoulder_lift_joint": -0.9740617694225068,
            "shoulder_pan_joint": -2.967991417825858,
            "wrist_1_joint": -0.759517768980727,
            "wrist_2_joint": 1.7443932448377408,
            "wrist_3_joint": -3.0840537646736568
        }
    },
    "waypoints": [
        {
            "positions": [
                -2.967991417825858,
                -0.9740617694225068,
                1.7527959577737207,
                -0.759517768980727,
                1.7443932448377408,
                -3.0840537646736568
            ]
        },
        {
            "positions": [
                -2.94231494497995,
                -0.9418025906159633,
                1.6533625526866802,
                -0.6933921148640807,
                1.613647296791866,
                -3.08939042614121
            ]
        },
        {
            "positions": [
                -2.916638472134042,
                -0.9095434118094198,
                1.5539291475996397,
                -0.6272664607474344,
                1.4829013487459914,
                -3.0947270876087636
            ]
        },
        {
            "positions": [
                -2.8909619992881344,
                -0.8772842330028763,
                1.4544957425125993,
                -0.5611408066307881,
                1.3521554007001169,
                -3.1000637490763165
            ]
        },
        {
            "positions": [
                -2.8652855264422263,
                -0.8450250541963328,
                1.3550623374255588,
                -0.4950151525141418,
                1.221409452654242,
                -3.10540041054387
            ]
        },
        {
            "positions": [
                -2.8396090535963183,
                -0.8127658753897893,
                1.2556289323385186,
                -0.4288894983974955,
                1.0906635046083673,
                -3.1107370720114234
            ]
        },
        {
            "positions": [
                -2.8139325807504103,
                -0.7805066965832459,
                1.156195527251478,
                -0.36276384428084923,
                0.9599175565624927,
                -3.1160737334789768
            ]
        },
        {
            "positions": [
                -2.7882561079045023,
                -0.7482475177767024,
                1.0567621221644377,
                -0.29663819016420295,
                0.8291716085166181,
                -3.12141039494653
            ]
        },
        {
            "positions": [
                -2.7625796350585947,
                -0.7159883389701589,
                0.9573287170773971,
                -0.23051253604755662,
                0.6984256604707433,
                -3.126747056414083
            ]
        },
        {
            "positions": [
                -2.7369031622126867,
                -0.6837291601636154,
                0.8578953119903567,
                -0.16438688193091033,
                0.5676797124248685,
                -3.1320837178816365
            ]
        },
        {
            "positions": [
                -2.7112266893667787,
                -0.6514699813570719,
                0.7584619069033163,
                -0.09826122781426407,
                0.4369337643789939,
                -3.13742037934919
            ]
        }
    ]
}