{
    "goal": {
        "global_pose": {
            "orientation": {
                "w": 0.7047431468963623,
                "x": -0.7094548344612122,
                "y": 0.0024358443915843964,
                "z": -0.0022348060738295317
            },
            "position": {
                "x": 0.6094750761985779,
                "y": 0.3671506643295288,
                "z": 0.19426114857196808
            }
        },
        "name": "move_to_magneteinheit_A"
    },
    "id": "FMT_move_to_magneteinheit_A_39",
    "joint_names": [
        "shoulder_pan_joint",
        "shoulder_lift_joint",
        "elbow_joint",
        "wrist_1_joint",
        "wrist_2_joint",
        "wrist_3_joint"
    ],
    "metrics": {
        "cart_traj_len": 2.824818946397776,
        "distance_elbow_joint": 4.211523513634392,
        "distance_shoulder_lift_joint": 1.281197984036969,
        "distance_shoulder_pan_joint": 3.014969767301324,
        "distance_wrist_1_joint": 3.556010130173678,
        "distance_wrist_2_joint": 1.4532336797735834,
        "distance_wrist_3_joint": 0.5714135813224879,
        "smoothness": 0.20429315396286574,
        "time": 1.324077048,
        "traj_len": 3.7534449051827616,
        "weighted_distance": 4.498935388381863
    },
    "planner": "FMT",
    "start": {
        "state": {
            "elbow_joint": -1.9196185241190666,
            "shoulder_lift_joint": -1.2443396400964142,
            "shoulder_pan_joint": 2.6996025414629847,
            "wrist_1_joint": -1.5485510000780065,
            "wrist_2_joint": -1.5709468930060704,
            "wrist_3_joint": 0.4420197071253992
        }
    },
    "waypoints": [
        {
            "positions": [
                2.6996025414629847,
                -1.2443396400964142,
                -1.9196185241190666,
                -1.5485510000780065,
                -1.5709468930060704,
                0.4420197071253992
            ]
        },
        {
            "positions": [
                2.5929676288033523,
                -1.2608335816434588,
                -1.7854096730274294,
                -1.4591331195249042,
                -1.5391705003019414,
                0.4250905519609804
            ]
        },
        {
            "positions": [
                2.4863327161437194,
                -1.2773275231905035,
                -1.651200821935792,
                -1.369715238971802,
                -1.5073941075978123,
                0.40816139679656155
            ]
        },
        {
            "positions": [
                2.379697803484087,
                -1.2938214647375483,
                -1.5169919708441548,
                -1.2802973584186996,
                -1.4756177148936833,
                0.39123224163214276
            ]
        },
        {
            "positions": [
                2.273062890824454,
                -1.310315406284593,
                -1.3827831197525176,
                -1.1908794778655976,
                -1.4438413221895543,
                0.374303086467724
            ]
        },
        {
            "positions": [
                2.1664279781648217,
                -1.3268093478316376,
                -1.2485742686608803,
                -1.101461597312495,
                -1.4120649294854253,
                0.35737393130330514
            ]
        },
        {
            "positions": [
                2.0597930655051893,
                -1.3433032893786823,
                -1.114365417569243,
                -1.012043716759393,
                -1.3802885367812963,
                0.34044477613888635
            ]
        },
        {
            "positions": [
                1.9531581528455564,
                -1.3597972309257271,
                -0.9801565664776056,
                -0.9226258362062906,
                -1.3485121440771672,
                0.3235156209744675
            ]
        },
        {
            "positions": [
                1.846523240185924,
                -1.3762911724727718,
                -0.8459477153859685,
                -0.8332079556531884,
                -1.3167357513730382,
                0.3065864658100488
            ]
        },
        {
            "positions": [
                1.7398883275262913,
                -1.3927851140198164,
                -0.7117388642943312,
                -0.7437900751000861,
                -1.2849593586689092,
                0.28965731064562994
            ]
        },
        {
            "positions": [
                1.6332534148666586,
                -1.409279055566861,
                -0.5775300132026939,
                -0.6543721945469838,
                -1.2531829659647802,
                0.2727281554812111
            ]
        },
        {
            "positions": [
                1.526618502207026,
                -1.425772997113906,
                -0.44332116211105665,
                -0.5649543139938816,
                -1.2214065732606512,
                0.25579900031679237
            ]
        },
        {
            "positions": [
                1.4199835895473936,
                -1.4422669386609506,
                -0.3091123110194194,
                -0.47553643344077945,
                -1.1896301805565221,
                0.23886984515237356
            ]
        },
        {
            "positions": [
                1.3133486768877607,
                -1.4587608802079952,
                -0.1749034599277821,
                -0.38611855288767694,
                -1.1578537878523931,
                0.22194068998795471
            ]
        },
        {
            "positions": [
                1.206713764228128,
                -1.47525482175504,
                -0.04069460883614462,
                -0.29670067233457464,
                -1.126077395148264,
                0.2050115348235359
            ]
        },
        {
            "positions": [
                1.1000788515684956,
                -1.4917487633020845,
                0.09351424225549243,
                -0.20728279178147258,
                -1.094301002444135,
                0.18808237965911712
            ]
        },
        {
            "positions": [
                0.993443938908863,
                -1.5082427048491294,
                0.2277230933471297,
                -0.11786491122837028,
                -1.062524609740006,
                0.17115322449469833
            ]
        },
        {
            "positions": [
                0.8868090262492303,
                -1.524736646396174,
                0.361931944438767,
                -0.028447030675267992,
                -1.030748217035877,
                0.1542240693302795
            ]
        },
        {
            "positions": [
                0.7801741135895979,
                -1.5412305879432187,
                0.49614079553040424,
                0.0609708498778343,
                -0.998971824331748,
                0.1372949141658607
            ]
        },
        {
            "positions": [
                0.673539200929965,
                -1.5577245294902635,
                0.6303496466220415,
                0.1503887304309366,
                -0.967195431627619,
                0.12036575900144192
            ]
        },
        {
            "positions": [
                0.5669042882703326,
                -1.5742184710373082,
                0.7645584977136788,
                0.23980661098403888,
                -0.93541903892349,
                0.10343660383702308
            ]
        },
        {
            "positions": [
                0.46026937561070014,
                -1.5907124125843528,
                0.8987673488053161,
                0.32922449153714095,
                -0.903642646219361,
                0.08650744867260435
            ]
        },
        {
            "positions": [
                0.35363446295106726,
                -1.6072063541313975,
                1.0329761998969533,
                0.41864237209024324,
                -0.871866253515232,
                0.06957829350818551
            ]
        },
        {
            "positions": [
                0.24699955029143483,
                -1.623700295678442,
                1.1671850509885906,
                0.5080602526433455,
                -0.8400898608111029,
                0.052649138343766666
            ]
        },
        {
            "positions": [
                0.1403646376318024,
                -1.640194237225487,
                1.3013939020802279,
                0.5974781331964476,
                -0.8083134681069739,
                0.035719983179347936
            ]
        },
        {
            "positions": [
                0.0337297249721695,
                -1.6566881787725316,
                1.4356027531718651,
                0.6868960137495499,
                -0.7765370754028449,
                0.018790828014929102
            ]
        },
        {
            "positions": [
                0.01750420251091982,
                -1.5872519078550933,
                1.5253976436252668,
                0.8079888298123258,
                -0.695147256758761,
                0.0020412849815618916
            ]
        },
        {
            "positions": [
                0.0012786800496701403,
                -1.517815636937655,
                1.6151925340786684,
                0.9290816458751017,
                -0.6137574381146771,
                -0.014708258051805319
            ]
        },
        {
            "positions": [
                -0.014946842411579536,
                -1.4483793660202167,
                1.70498742453207,
                1.0501744619378777,
                -0.5323676194705933,
                -0.03145780108517253
            ]
        },
        {
            "positions": [
                -0.03117236487282922,
                -1.3789430951027783,
                1.7947823149854716,
                1.1712672780006534,
                -0.4509778008265094,
                -0.04820734411853974
            ]
        },
        {
            "positions": [
                -0.0473978873340789,
                -1.30950682418534,
                1.8845772054388732,
                1.2923600940634294,
                -0.3695879821824255,
                -0.06495688715190695
            ]
        },
        {
            "positions": [
                -0.06362340979532857,
                -1.2400705532679017,
                1.9743720958922748,
                1.4134529101262054,
                -0.28819816353834166,
                -0.08170643018527415
            ]
        },
        {
            "positions": [
                -0.07984893225657826,
                -1.1706342823504634,
                2.0641669863456764,
                1.5345457261889814,
                -0.2068083448942578,
                -0.09845597321864138
            ]
        },
        {
            "positions": [
                -0.09607445471782794,
                -1.101198011433025,
                2.153961876799078,
                1.6556385422517572,
                -0.12541852625017386,
                -0.11520551625200859
            ]
        },
        {
            "positions": [
                -0.02297686434432443,
                -0.9967449187592433,
                2.107980839226996,
                1.7729120715330617,
                -0.1279869639227361,
                -0.11047606360364862
            ]
        },
        {
            "positions": [
                0.05012072602917908,
                -0.8922918260854616,
                2.0619998016549133,
                1.890185600814366,
                -0.13055540159529833,
                -0.10574661095528866
            ]
        },
        {
            "positions": [
                0.1232183164026826,
                -0.7878387334116799,
                2.016018764082831,
                2.0074591300956706,
                -0.13312383926786056,
                -0.10101715830692869
            ]
        }
    ]
}