{
    "goal": {
        "global_pose": {
            "orientation": {
                "w": -0.4816463035849501,
                "x": 0.5182115481033762,
                "y": 0.4908360881923453,
                "z": -0.5084816262002911
            },
            "position": {
                "x": -0.8240239810943604,
                "y": 0.19912469901144506,
                "z": 0.16403168439865112
            }
        },
        "name": "move_to_storage_D"
    },
    "id": "FMT_move_to_storage_D_132",
    "joint_names": [
        "shoulder_pan_joint",
        "shoulder_lift_joint",
        "elbow_joint",
        "wrist_1_joint",
        "wrist_2_joint",
        "wrist_3_joint"
    ],
    "metrics": {
        "cart_traj_len": 0.888787325234825,
        "distance_elbow_joint": 0.6418592600199362,
        "distance_shoulder_lift_joint": 0.1519060797575955,
        "distance_shoulder_pan_joint": 1.4577017008198612,
        "distance_wrist_1_joint": 3.8330651409306675,
        "distance_wrist_2_joint": 1.7746257825508627,
        "distance_wrist_3_joint": 3.159210835150084,
        "smoothness": 0.10174084690101398,
        "time": 1.383715638,
        "traj_len": 3.3193928359308433,
        "weighted_distance": 4.790039811213546
    },
    "planner": "FMT",
    "start": {
        "state": {
            "elbow_joint": -2.384821988534728,
            "shoulder_lift_joint": -2.2788054721415256,
            "shoulder_pan_joint": -0.1854694642142757,
            "wrist_1_joint": 1.4845938289331202,
            "wrist_2_joint": 0.17898776772866878,
            "wrist_3_joint": 0.037105688729662994
        }
    },
    "waypoints": [
        {
            "positions": [
                -0.1854694642142757,
                -2.2788054721415256,
                -2.384821988534728,
                1.4845938289331202,
                0.17898776772866878,
                0.037105688729662994
            ]
        },
        {
            "positions": [
                -0.051263000826335975,
                -2.259684395401553,
                -2.391864006978965,
                1.4443269187330967,
                0.11046331582889801,
                0.1406276337259757
            ]
        },
        {
            "positions": [
                0.08294346256160376,
                -2.2405633186615805,
                -2.3989060254232024,
                1.4040600085330734,
                0.04193886392912724,
                0.24414957872228837
            ]
        },
        {
            "positions": [
                0.2171499259495435,
                -2.2214422419216078,
                -2.4059480438674394,
                1.36379309833305,
                -0.02658558797064356,
                0.3476715237186011
            ]
        },
        {
            "positions": [
                0.35135638933748325,
                -2.202321165181635,
                -2.4129900623116765,
                1.3235261881330265,
                -0.0951100398704143,
                0.4511934687149137
            ]
        },
        {
            "positions": [
                0.485562852725423,
                -2.1832000884416627,
                -2.420032080755914,
                1.2832592779330032,
                -0.16363449177018516,
                0.5547154137112266
            ]
        },
        {
            "positions": [
                0.6197693161133627,
                -2.16407901170169,
                -2.427074099200151,
                1.2429923677329797,
                -0.23215894366995593,
                0.6582373587075392
            ]
        },
        {
            "positions": [
                0.5914013630484835,
                -2.162462506513961,
                -2.401004223141259,
                1.0868417729620872,
                -0.29144064241570544,
                0.7685886267585047
            ]
        },
        {
            "positions": [
                0.5630334099836043,
                -2.1608460013262327,
                -2.3749343470823674,
                0.9306911781911948,
                -0.3507223411614549,
                0.8789398948094703
            ]
        },
        {
            "positions": [
                0.534665456918725,
                -2.159229496138504,
                -2.348864471023475,
                0.7745405834203023,
                -0.41000403990720435,
                0.989291162860436
            ]
        },
        {
            "positions": [
                0.5062975038538459,
                -2.157612990950775,
                -2.3227945949645834,
                0.6183899886494099,
                -0.46928573865295387,
                1.0996424309114015
            ]
        },
        {
            "positions": [
                0.4779295507889666,
                -2.1559964857630467,
                -2.2967247189056916,
                0.4622393938785173,
                -0.5285674373987034,
                1.209993698962367
            ]
        },
        {
            "positions": [
                0.4495615977240874,
                -2.154379980575318,
                -2.2706548428468,
                0.3060887991076249,
                -0.5878491361444529,
                1.3203449670133325
            ]
        },
        {
            "positions": [
                0.42119364465920817,
                -2.152763475387589,
                -2.2445849667879076,
                0.14993820433673233,
                -0.6471308348902023,
                1.4306962350642982
            ]
        },
        {
            "positions": [
                0.3928256915943289,
                -2.1511469701998602,
                -2.218515090729016,
                -0.006212390434159998,
                -0.7064125336359518,
                1.5410475031152637
            ]
        },
        {
            "positions": [
                0.3644577385294497,
                -2.149530465012132,
                -2.192445214670124,
                -0.16236298520505277,
                -0.7656942323817013,
                1.6513987711662295
            ]
        },
        {
            "positions": [
                0.33608978546457047,
                -2.147913959824403,
                -2.1663753386112323,
                -0.3185135799759451,
                -0.8249759311274508,
                1.7617500392171948
            ]
        },
        {
            "positions": [
                0.3077218323996912,
                -2.146297454636674,
                -2.14030546255234,
                -0.47466417474683764,
                -0.8842576298732003,
                1.8721013072681605
            ]
        },
        {
            "positions": [
                0.27935387933481204,
                -2.144680949448946,
                -2.1142355864934483,
                -0.63081476951773,
                -0.9435393286189497,
                1.982452575319126
            ]
        },
        {
            "positions": [
                0.2509859262699328,
                -2.143064444261217,
                -2.0881657104345566,
                -0.7869653642886223,
                -1.0028210273646994,
                2.0928038433700915
            ]
        },
        {
            "positions": [
                0.22261797320505355,
                -2.141447939073488,
                -2.062095834375665,
                -0.9431159590595151,
                -1.0621027261104488,
                2.203155111421057
            ]
        },
        {
            "positions": [
                0.19425002014017434,
                -2.13983143388576,
                -2.0360259583167726,
                -1.0992665538304074,
                -1.1213844248561982,
                2.313506379472023
            ]
        },
        {
            "positions": [
                0.16588206707529513,
                -2.138214928698031,
                -2.009956082257881,
                -1.2554171486012997,
                -1.1806661236019478,
                2.423857647522988
            ]
        },
        {
            "positions": [
                0.1375141140104159,
                -2.136598423510302,
                -1.983886206198989,
                -1.4115677433721925,
                -1.239947822347697,
                2.534208915573954
            ]
        },
        {
            "positions": [
                0.10914616094553664,
                -2.1349819183225733,
                -1.957816330140097,
                -1.5677183381430853,
                -1.2992295210934466,
                2.6445601836249195
            ]
        },
        {
            "positions": [
                0.08077820788065737,
                -2.133365413134845,
                -1.9317464540812053,
                -1.7238689329139776,
                -1.3585112198391962,
                2.754911451675885
            ]
        },
        {
            "positions": [
                0.05241025481577821,
                -2.131748907947116,
                -1.9056765780223133,
                -1.88001952768487,
                -1.4177929185849458,
                2.86526271972685
            ]
        },
        {
            "positions": [
                0.024042301750899053,
                -2.1301324027593873,
                -1.8796067019634215,
                -2.0361701224557622,
                -1.477074617330695,
                2.975613987777816
            ]
        },
        {
            "positions": [
                -0.004325651313980328,
                -2.128515897571659,
                -1.8535368259045297,
                -2.192320717226655,
                -1.5363563160764446,
                3.085965255828782
            ]
        },
        {
            "positions": [
                -0.032693604378859466,
                -2.12689939238393,
                -1.8274669498456377,
                -2.3484713119975473,
                -1.595638014822194,
                3.196316523879747
            ]
        }
    ]
}