{
    "goal": {
        "global_pose": {
            "orientation": {
                "w": 0.7047431468963623,
                "x": -0.7094548344612122,
                "y": 0.0024358443915843964,
                "z": -0.0022348060738295317
            },
            "position": {
                "x": 0.6094750761985779,
                "y": 0.3671506643295288,
                "z": 0.19426114857196808
            }
        },
        "name": "move_to_magneteinheit_A"
    },
    "id": "FMT_move_to_magneteinheit_A_53",
    "joint_names": [
        "shoulder_pan_joint",
        "shoulder_lift_joint",
        "elbow_joint",
        "wrist_1_joint",
        "wrist_2_joint",
        "wrist_3_joint"
    ],
    "metrics": {
        "cart_traj_len": 3.717594331837043,
        "distance_elbow_joint": 3.9505139230753104,
        "distance_shoulder_lift_joint": 0.78502720149739,
        "distance_shoulder_pan_joint": 3.1353061752503764,
        "distance_wrist_1_joint": 0.7060746551806536,
        "distance_wrist_2_joint": 2.4402198036808036,
        "distance_wrist_3_joint": 3.5714294360634535,
        "smoothness": 0.47351626541751896,
        "time": 1.328759915,
        "traj_len": 3.819498814602249,
        "weighted_distance": 4.98775746460635
    },
    "planner": "FMT",
    "start": {
        "state": {
            "elbow_joint": -1.9196185241190666,
            "shoulder_lift_joint": -1.2443396400964142,
            "shoulder_pan_joint": 2.6996025414629847,
            "wrist_1_joint": -1.5485510000780065,
            "wrist_2_joint": -1.5709468930060704,
            "wrist_3_joint": 0.4420197071253992
        }
    },
    "waypoints": [
        {
            "positions": [
                2.6996025414629847,
                -1.2443396400964142,
                -1.9196185241190666,
                -1.5485510000780065,
                -1.5709468930060704,
                0.4420197071253992
            ]
        },
        {
            "positions": [
                2.6023058471301383,
                -1.243227895769812,
                -1.7889160394409438,
                -1.5450295397855645,
                -1.5001803383675014,
                0.3531520298318885
            ]
        },
        {
            "positions": [
                2.5050091527972915,
                -1.2421161514432095,
                -1.6582135547628207,
                -1.5415080794931224,
                -1.4294137837289322,
                0.2642843525383778
            ]
        },
        {
            "positions": [
                2.407712458464445,
                -1.2410044071166073,
                -1.5275110700846979,
                -1.5379866192006804,
                -1.3586472290903633,
                0.1754166752448671
            ]
        },
        {
            "positions": [
                2.3104157641315988,
                -1.239892662790005,
                -1.3968085854065748,
                -1.5344651589082383,
                -1.2878806744517943,
                0.0865489979513564
            ]
        },
        {
            "positions": [
                2.2131190697987524,
                -1.2387809184634027,
                -1.266106100728452,
                -1.530943698615796,
                -1.2171141198132251,
                -0.002318679342154295
            ]
        },
        {
            "positions": [
                2.115822375465906,
                -1.2376691741368004,
                -1.1354036160503291,
                -1.527422238323354,
                -1.1463475651746562,
                -0.09118635663566499
            ]
        },
        {
            "positions": [
                2.0185256811330596,
                -1.2365574298101982,
                -1.0047011313722063,
                -1.523900778030912,
                -1.0755810105360872,
                -0.18005403392917563
            ]
        },
        {
            "positions": [
                1.9212289868002128,
                -1.235445685483596,
                -0.8739986466940832,
                -1.52037931773847,
                -1.004814455897518,
                -0.2689217112226864
            ]
        },
        {
            "positions": [
                1.8239322924673664,
                -1.2343339411569936,
                -0.7432961620159604,
                -1.5168578574460279,
                -0.9340479012589492,
                -0.357789388516197
            ]
        },
        {
            "positions": [
                1.7266355981345198,
                -1.2332221968303914,
                -0.6125936773378375,
                -1.5133363971535858,
                -0.8632813466203801,
                -0.44665706580970777
            ]
        },
        {
            "positions": [
                1.6293389038016735,
                -1.2321104525037891,
                -0.4818911926597147,
                -1.5098149368611438,
                -0.7925147919818112,
                -0.5355247431032184
            ]
        },
        {
            "positions": [
                1.5320422094688269,
                -1.2309987081771867,
                -0.35118870798159163,
                -1.5062934765687017,
                -0.7217482373432421,
                -0.6243924203967292
            ]
        },
        {
            "positions": [
                1.4347455151359805,
                -1.2298869638505845,
                -0.2204862233034688,
                -1.5027720162762597,
                -0.6509816827046732,
                -0.7132600976902398
            ]
        },
        {
            "positions": [
                1.337448820803134,
                -1.2287752195239823,
                -0.08978373862534594,
                -1.4992505559838174,
                -0.5802151280661042,
                -0.8021277749837504
            ]
        },
        {
            "positions": [
                1.2401521264702877,
                -1.2276634751973798,
                0.0409187460527769,
                -1.4957290956913754,
                -0.5094485734275351,
                -0.8909954522772611
            ]
        },
        {
            "positions": [
                1.142855432137441,
                -1.2265517308707776,
                0.1716212307309002,
                -1.4922076353989333,
                -0.43868201878896596,
                -0.9798631295707719
            ]
        },
        {
            "positions": [
                1.0455587378045945,
                -1.2254399865441754,
                0.30232371540902303,
                -1.4886861751064913,
                -0.367915464150397,
                -1.0687308068642825
            ]
        },
        {
            "positions": [
                0.9482620434717481,
                -1.224328242217573,
                0.4330262000871459,
                -1.4851647148140492,
                -0.29714890951182804,
                -1.157598484157793
            ]
        },
        {
            "positions": [
                0.8509653491389018,
                -1.2232164978909708,
                0.5637286847652687,
                -1.4816432545216072,
                -0.22638235487325908,
                -1.2464661614513037
            ]
        },
        {
            "positions": [
                0.7536686548060549,
                -1.2221047535643685,
                0.6944311694433916,
                -1.4781217942291651,
                -0.1556158002346899,
                -1.3353338387448148
            ]
        },
        {
            "positions": [
                0.6563719604732086,
                -1.2209930092377663,
                0.8251336541215144,
                -1.474600333936723,
                -0.08484924559612095,
                -1.4242015160383255
            ]
        },
        {
            "positions": [
                0.5590752661403622,
                -1.2198812649111639,
                0.9558361387996372,
                -1.4710788736442808,
                -0.014082690957551991,
                -1.513069193331836
            ]
        },
        {
            "positions": [
                0.4617785718075158,
                -1.2187695205845617,
                1.08653862347776,
                -1.4675574133518388,
                0.056683863681016966,
                -1.6019368706253463
            ]
        },
        {
            "positions": [
                0.364481877474669,
                -1.2176577762579595,
                1.2172411081558834,
                -1.4640359530593967,
                0.12745041831958615,
                -1.6908045479188574
            ]
        },
        {
            "positions": [
                0.2671851831418226,
                -1.216546031931357,
                1.3479435928340062,
                -1.4605144927669547,
                0.1982169729581551,
                -1.779672225212368
            ]
        },
        {
            "positions": [
                0.169888488808976,
                -1.2154342876047548,
                1.478646077512129,
                -1.4569930324745126,
                0.26898352759672406,
                -1.8685399025058786
            ]
        },
        {
            "positions": [
                0.1232631170524637,
                -1.2645626678403947,
                1.5543447975424536,
                -1.4322402084577786,
                0.21662380390096694,
                -1.975219288309154
            ]
        },
        {
            "positions": [
                0.07663774529595141,
                -1.3136910480760347,
                1.6300435175727783,
                -1.4074873844410445,
                0.16426408020520983,
                -2.0818986741124292
            ]
        },
        {
            "positions": [
                0.030012373539439113,
                -1.3628194283116746,
                1.7057422376031028,
                -1.3827345604243104,
                0.11190435650945274,
                -2.1885780599157045
            ]
        },
        {
            "positions": [
                -0.016612998217073183,
                -1.4119478085473145,
                1.7814409576334276,
                -1.3579817364075761,
                0.059544632813695625,
                -2.2952574457189803
            ]
        },
        {
            "positions": [
                -0.0632383699735855,
                -1.4610761887829544,
                1.857139677663752,
                -1.333228912390842,
                0.007184909117938509,
                -2.4019368315222556
            ]
        },
        {
            "positions": [
                -0.10986374173009777,
                -1.5102045690185943,
                1.9328383976940766,
                -1.308476088374108,
                -0.04517481457781858,
                -2.508616217325531
            ]
        },
        {
            "positions": [
                -0.1564891134866101,
                -1.5593329492542343,
                2.0085371177244014,
                -1.283723264357374,
                -0.09753453827357572,
                -2.615295603128806
            ]
        },
        {
            "positions": [
                -0.10064620942645397,
                -1.476888311782984,
                2.004065461478033,
                -1.1954738804653697,
                -0.050780274832033706,
                -2.718118428290656
            ]
        },
        {
            "positions": [
                -0.04480330536629784,
                -1.3944436743117339,
                1.9995938052316644,
                -1.1072244965733655,
                -0.0040260113904916905,
                -2.8209412534525056
            ]
        },
        {
            "positions": [
                0.011039598693858288,
                -1.3119990368404837,
                1.995122148985296,
                -1.0189751126813613,
                0.042728252051050325,
                -2.923764078614355
            ]
        },
        {
            "positions": [
                0.06688250275401442,
                -1.2295543993692333,
                1.9906504927389275,
                -0.9307257287893571,
                0.08948251549259234,
                -3.0265869037762045
            ]
        },
        {
            "positions": [
                0.12272540681417056,
                -1.147109761897983,
                1.986178836492559,
                -0.8424763448973529,
                0.13623677893413436,
                -3.1294097289380542
            ]
        }
    ]
}