{
    "goal": {
        "global_pose": {
            "orientation": {
                "w": 0.005598929693374612,
                "x": 0.007748599140229565,
                "y": 0.7110244013736278,
                "z": -0.7031023480610252
            },
            "position": {
                "x": 0.1141497679147869,
                "y": -0.7141253447532654,
                "z": 0.3711530566215515
            }
        },
        "name": "move_to_auspresseinheit_B"
    },
    "id": "FMT_move_to_auspresseinheit_B_93",
    "joint_names": [
        "shoulder_pan_joint",
        "shoulder_lift_joint",
        "elbow_joint",
        "wrist_1_joint",
        "wrist_2_joint",
        "wrist_3_joint"
    ],
    "metrics": {
        "cart_traj_len": 0.5653453443656627,
        "distance_elbow_joint": 0.06014822764671246,
        "distance_shoulder_lift_joint": 0.29556143450361305,
        "distance_shoulder_pan_joint": 0.5794613865719198,
        "distance_wrist_1_joint": 0.318046440131461,
        "distance_wrist_2_joint": 0.9858755161058759,
        "distance_wrist_3_joint": 0.008876785710091095,
        "smoothness": 2.5376526478085547e-16,
        "time": 0.451765023,
        "traj_len": 1.4993231108302416,
        "weighted_distance": 1.889350501714066
    },
    "planner": "FMT",
    "start": {
        "state": {
            "elbow_joint": 2.0193083361928714,
            "shoulder_lift_joint": -1.1220246554650708,
            "shoulder_pan_joint": -1.0952077554168747,
            "wrist_1_joint": -0.8559753972642168,
            "wrist_2_joint": 0.4759566250798843,
            "wrist_3_joint": -3.1240929996934557
        }
    },
    "waypoints": [
        {
            "positions": [
                -1.0952077554168747,
                -1.1220246554650708,
                2.0193083361928714,
                -0.8559753972642168,
                0.4759566250798843,
                -3.1240929996934557
            ]
        },
        {
            "positions": [
                -1.1917846531788614,
                -1.1712848945490064,
                2.009283631585086,
                -0.8029676572423066,
                0.6402692110975303,
                -3.1255724639784708
            ]
        },
        {
            "positions": [
                -1.288361550940848,
                -1.2205451336329418,
                1.9992589269773007,
                -0.7499599172203965,
                0.8045817971151763,
                -3.127051928263486
            ]
        },
        {
            "positions": [
                -1.3849384487028344,
                -1.2698053727168772,
                1.9892342223695152,
                -0.6969521771984863,
                0.9688943831328223,
                -3.128531392548501
            ]
        },
        {
            "positions": [
                -1.4815153464648212,
                -1.3190656118008128,
                1.9792095177617297,
                -0.6439444371765761,
                1.1332069691504683,
                -3.1300108568335165
            ]
        },
        {
            "positions": [
                -1.578092244226808,
                -1.3683258508847485,
                1.9691848131539444,
                -0.5909366971546659,
                1.2975195551681142,
                -3.1314903211185317
            ]
        },
        {
            "positions": [
                -1.6746691419887945,
                -1.4175860899686838,
                1.959160108546159,
                -0.5379289571327558,
                1.4618321411857602,
                -3.1329697854035468
            ]
        }
    ]
}