{
    "goal": {
        "global_pose": {
            "orientation": {
                "w": 0.005598929693374612,
                "x": 0.007748599140229565,
                "y": 0.7110244013736278,
                "z": -0.7031023480610252
            },
            "position": {
                "x": 0.1141497679147869,
                "y": -0.7141253447532654,
                "z": 0.3711530566215515
            }
        },
        "name": "move_to_auspresseinheit_B"
    },
    "id": "FMT_move_to_auspresseinheit_B_54",
    "joint_names": [
        "shoulder_pan_joint",
        "shoulder_lift_joint",
        "elbow_joint",
        "wrist_1_joint",
        "wrist_2_joint",
        "wrist_3_joint"
    ],
    "metrics": {
        "cart_traj_len": 0.5648299624093093,
        "distance_elbow_joint": 0.06185446312615661,
        "distance_shoulder_lift_joint": 0.2947649496991742,
        "distance_shoulder_pan_joint": 0.5782663259448095,
        "distance_wrist_1_joint": 0.3230681866890398,
        "distance_wrist_2_joint": 0.987420006296402,
        "distance_wrist_3_joint": 0.0034091602416612687,
        "smoothness": 2.5376526478085547e-16,
        "time": 0.454596789,
        "traj_len": 1.4995943091373891,
        "weighted_distance": 1.888409279119865
    },
    "planner": "FMT",
    "start": {
        "state": {
            "elbow_joint": 2.0193083361928714,
            "shoulder_lift_joint": -1.1220246554650708,
            "shoulder_pan_joint": -1.0952077554168747,
            "wrist_1_joint": -0.8559753972642168,
            "wrist_2_joint": 0.4759566250798843,
            "wrist_3_joint": -3.1240929996934557
        }
    },
    "waypoints": [
        {
            "positions": [
                -1.0952077554168747,
                -1.1220246554650708,
                2.0193083361928714,
                -0.8559753972642168,
                0.4759566250798843,
                -3.1240929996934557
            ]
        },
        {
            "positions": [
                -1.1915854764076763,
                -1.1711521470815998,
                2.008999259005179,
                -0.8021306994827102,
                0.6405266261292846,
                -3.124661193067066
            ]
        },
        {
            "positions": [
                -1.2879631973984778,
                -1.220279638698129,
                1.9986901818174858,
                -0.7482860017012035,
                0.805096627178685,
                -3.125229386440676
            ]
        },
        {
            "positions": [
                -1.3843409183892794,
                -1.269407130314658,
                1.9883811046297932,
                -0.6944413039196968,
                0.9696666282280852,
                -3.1257975798142863
            ]
        },
        {
            "positions": [
                -1.4807186393800809,
                -1.3185346219311869,
                1.9780720274421004,
                -0.6405966061381902,
                1.1342366292774857,
                -3.1263657731878967
            ]
        },
        {
            "positions": [
                -1.5770963603708825,
                -1.367662113547716,
                1.9677629502544076,
                -0.5867519083566837,
                1.298806630326886,
                -3.1269339665615066
            ]
        },
        {
            "positions": [
                -1.6734740813616842,
                -1.416789605164245,
                1.9574538730667148,
                -0.532907210575177,
                1.4633766313762864,
                -3.127502159935117
            ]
        }
    ]
}