{
    "goal": {
        "global_pose": {
            "orientation": {
                "w": 0.005598929693374612,
                "x": 0.007748599140229565,
                "y": 0.7110244013736278,
                "z": -0.7031023480610252
            },
            "position": {
                "x": 0.1141497679147869,
                "y": -0.7141253447532654,
                "z": 0.3711530566215515
            }
        },
        "name": "move_to_auspresseinheit_B"
    },
    "id": "FMT_move_to_auspresseinheit_B_61",
    "joint_names": [
        "shoulder_pan_joint",
        "shoulder_lift_joint",
        "elbow_joint",
        "wrist_1_joint",
        "wrist_2_joint",
        "wrist_3_joint"
    ],
    "metrics": {
        "cart_traj_len": 0.5651642687763617,
        "distance_elbow_joint": 0.0628838982526998,
        "distance_shoulder_lift_joint": 0.29393880386708515,
        "distance_shoulder_pan_joint": 0.5781169803263968,
        "distance_wrist_1_joint": 0.3228790018964274,
        "distance_wrist_2_joint": 0.9880663700923304,
        "distance_wrist_3_joint": 0.0023695684868600964,
        "smoothness": 5.075305295617109e-16,
        "time": 0.520668221,
        "traj_len": 1.4994180947693674,
        "weighted_distance": 1.887839805673214
    },
    "planner": "FMT",
    "start": {
        "state": {
            "elbow_joint": 2.0193083361928714,
            "shoulder_lift_joint": -1.1220246554650708,
            "shoulder_pan_joint": -1.0952077554168747,
            "wrist_1_joint": -0.8559753972642168,
            "wrist_2_joint": 0.4759566250798843,
            "wrist_3_joint": -3.1240929996934557
        }
    },
    "waypoints": [
        {
            "positions": [
                -1.0952077554168747,
                -1.1220246554650708,
                2.0193083361928714,
                -0.8559753972642168,
                0.4759566250798843,
                -3.1240929996934557
            ]
        },
        {
            "positions": [
                -1.191560585471274,
                -1.171014456109585,
                2.008827686484088,
                -0.8021622302814789,
                0.6406343534286061,
                -3.124487927774599
            ]
        },
        {
            "positions": [
                -1.2879134155256735,
                -1.2200042567540992,
                1.998347036775305,
                -0.748349063298741,
                0.8053120817773278,
                -3.124882855855742
            ]
        },
        {
            "positions": [
                -1.384266245580073,
                -1.2689940573986134,
                1.9878663870665214,
                -0.6945358963160031,
                0.9699898101260496,
                -3.1252777839368857
            ]
        },
        {
            "positions": [
                -1.4806190756344724,
                -1.3179838580431276,
                1.9773857373577381,
                -0.6407227293332652,
                1.1346675384747713,
                -3.125672712018029
            ]
        },
        {
            "positions": [
                -1.576971905688872,
                -1.3669736586876418,
                1.9669050876489549,
                -0.5869095623505273,
                1.299345266823493,
                -3.1260676400991723
            ]
        },
        {
            "positions": [
                -1.6733247357432715,
                -1.415963459332156,
                1.9564244379401716,
                -0.5330963953677894,
                1.4640229951722148,
                -3.1264625681803158
            ]
        }
    ]
}