{
    "goal": {
        "global_pose": {
            "orientation": {
                "w": 0.5084816217422485,
                "x": -0.49083608388900757,
                "y": 0.5182115435600281,
                "z": -0.4816462993621826
            },
            "position": {
                "x": 0.5540239810943604,
                "y": 0.030875300988554955,
                "z": 0.16403168439865112
            }
        },
        "name": "move_to_storage_A"
    },
    "id": "FMT_move_to_storage_A_148",
    "joint_names": [
        "shoulder_pan_joint",
        "shoulder_lift_joint",
        "elbow_joint",
        "wrist_1_joint",
        "wrist_2_joint",
        "wrist_3_joint"
    ],
    "metrics": {
        "cart_traj_len": 0.35260187882409233,
        "distance_elbow_joint": 0.4487557918107481,
        "distance_shoulder_lift_joint": 0.23618483609199914,
        "distance_shoulder_pan_joint": 0.46015895650042266,
        "distance_wrist_1_joint": 0.2378387847044009,
        "distance_wrist_2_joint": 1.1023631181767641,
        "distance_wrist_3_joint": 0.09401814057023428,
        "smoothness": 1.4432899238840027e-15,
        "time": 0.519864852,
        "traj_len": 1.6060260358582514,
        "weighted_distance": 2.026711082487142
    },
    "planner": "FMT",
    "start": {
        "state": {
            "elbow_joint": 1.971548259319323,
            "shoulder_lift_joint": -1.1394851275133948,
            "shoulder_pan_joint": 0.1228115487234821,
            "wrist_1_joint": -0.7804723859257726,
            "wrist_2_joint": 0.12958671773740124,
            "wrist_3_joint": -3.192489227718131
        }
    },
    "waypoints": [
        {
            "positions": [
                0.1228115487234821,
                -1.1394851275133948,
                1.971548259319323,
                -0.7804723859257726,
                0.12958671773740124,
                -3.192489227718131
            ]
        },
        {
            "positions": [
                0.05707455493770744,
                -1.1732258183836803,
                2.0356562295780014,
                -0.8144493551692584,
                0.2870671631912247,
                -3.179058064779526
            ]
        },
        {
            "positions": [
                -0.008662438848067222,
                -1.206966509253966,
                2.0997641998366796,
                -0.8484263244127443,
                0.44454760864504816,
                -3.1656269018409215
            ]
        },
        {
            "positions": [
                -0.07439943263384188,
                -1.2407072001242516,
                2.163872170095358,
                -0.8824032936562302,
                0.6020280540988716,
                -3.1521957389023165
            ]
        },
        {
            "positions": [
                -0.14013642641961654,
                -1.2744478909945371,
                2.227980140354036,
                -0.916380262899716,
                0.7595084995526951,
                -3.1387645759637115
            ]
        },
        {
            "positions": [
                -0.20587342020539123,
                -1.308188581864823,
                2.2920881106127147,
                -0.9503572321432019,
                0.9169889450065185,
                -3.1253334130251065
            ]
        },
        {
            "positions": [
                -0.27161041399116587,
                -1.3419292727351084,
                2.356196080871393,
                -0.9843342013866876,
                1.074469390460342,
                -3.111902250086502
            ]
        },
        {
            "positions": [
                -0.33734740777694056,
                -1.375669963605394,
                2.420304051130071,
                -1.0183111706301735,
                1.2319498359141654,
                -3.098471087147897
            ]
        }
    ]
}{
    "goal": {
        "global_pose": {
            "orientation": {
                "w": 0.5084816217422485,
                "x": -0.49083608388900757,
                "y": 0.5182115435600281,
                "z": -0.4816462993621826
            },
            "position": {
                "x": 0.5540239810943604,
                "y": 0.030875300988554955,
                "z": 0.16403168439865112
            }
        },
        "name": "move_to_storage_A"
    },
    "id": "FMT_move_to_storage_A_148",
    "joint_names": [
        "shoulder_pan_joint",
        "shoulder_lift_joint",
        "elbow_joint",
        "wrist_1_joint",
        "wrist_2_joint",
        "wrist_3_joint"
    ],
    "metrics": {
        "cart_traj_len": 0.35201633365999646,
        "distance_elbow_joint": 0.4485421673319876,
        "distance_shoulder_lift_joint": 0.23544145810940464,
        "distance_shoulder_pan_joint": 0.45988058140163235,
        "distance_wrist_1_joint": 0.23635424736442912,
        "distance_wrist_2_joint": 1.0989445029145177,
        "distance_wrist_3_joint": 0.0888367708686113,
        "smoothness": 4.440892098500626e-16,
        "time": 0.403060271,
        "traj_len": 1.602497965050372,
        "weighted_distance": 2.0201415841486834
    },
    "planner": "FMT",
    "start": {
        "state": {
            "elbow_joint": 1.97154746011099,
            "shoulder_lift_joint": -1.13948474672311,
            "shoulder_pan_joint": 0.12281154466712228,
            "wrist_1_joint": -0.7804688027058302,
            "wrist_2_joint": 0.12958655903071145,
            "wrist_3_joint": 3.0906928834467795
        }
    },
    "waypoints": [
        {
            "positions": [
                0.12281154466712228,
                -1.13948474672311,
                1.97154746011099,
                -0.7804688027058302,
                0.12958655903071145,
                3.0906928834467795
            ]
        },
        {
            "positions": [
                0.05711431875260338,
                -1.1731192407387392,
                2.035624912586988,
                -0.8142336951864629,
                0.28657863087564256,
                3.103383850713724
            ]
        },
        {
            "positions": [
                -0.008582907161915523,
                -1.2067537347543684,
                2.0997023650629862,
                -0.8479985876670957,
                0.44357070272057364,
                3.1160748179806683
            ]
        },
        {
            "positions": [
                -0.07428013307643443,
                -1.2403882287699977,
                2.1637798175389844,
                -0.8817634801477283,
                0.6005627745655048,
                3.1287657852476127
            ]
        },
        {
            "positions": [
                -0.13997735899095332,
                -1.274022722785627,
                2.227857270014983,
                -0.9155283726283611,
                0.7575548464104359,
                3.1414567525145576
            ]
        },
        {
            "positions": [
                -0.20567458490547225,
                -1.3076572168012561,
                2.291934722490981,
                -0.9492932651089938,
                0.914546918255367,
                3.154147719781502
            ]
        },
        {
            "positions": [
                -0.2713718108199911,
                -1.3412917108168854,
                2.3560121749669793,
                -0.9830581575896266,
                1.071538990100298,
                3.1668386870484464
            ]
        },
        {
            "positions": [
                -0.33706903673451005,
                -1.3749262048325146,
                2.4200896274429775,
                -1.0168230500702593,
                1.2285310619452292,
                3.179529654315391
            ]
        }
    ]
}{
    "goal": {
        "global_pose": {
            "orientation": {
                "w": 0.5084816217422485,
                "x": -0.49083608388900757,
                "y": 0.5182115435600281,
                "z": -0.4816462993621826
            },
            "position": {
                "x": 0.5540239810943604,
                "y": 0.030875300988554955,
                "z": 0.16403168439865112
            }
        },
        "name": "move_to_storage_A"
    },
    "id": "FMT_move_to_storage_A_148",
    "joint_names": [
        "shoulder_pan_joint",
        "shoulder_lift_joint",
        "elbow_joint",
        "wrist_1_joint",
        "wrist_2_joint",
        "wrist_3_joint"
    ],
    "metrics": {
        "cart_traj_len": 0.35236181471846595,
        "distance_elbow_joint": 0.4496610225472404,
        "distance_shoulder_lift_joint": 0.23560184688392094,
        "distance_shoulder_pan_joint": 0.46154235482749734,
        "distance_wrist_1_joint": 0.23763606774542922,
        "distance_wrist_2_joint": 1.0948712148836062,
        "distance_wrist_3_joint": 0.10293517428842769,
        "smoothness": 6.661338165333112e-16,
        "time": 0.514346281,
        "traj_len": 1.6069373606883754,
        "weighted_distance": 2.0299323418237396
    },
    "planner": "FMT",
    "start": {
        "state": {
            "elbow_joint": 1.9715472970024885,
            "shoulder_lift_joint": -1.1394870060712896,
            "shoulder_pan_joint": 0.12281152778156021,
            "wrist_1_joint": -0.780463741449964,
            "wrist_2_joint": 0.12958659822042276,
            "wrist_3_joint": 3.090690232415272
        }
    },
    "waypoints": [
        {
            "positions": [
                0.12281152778156021,
                -1.1394870060712896,
                1.9715472970024885,
                -0.780463741449964,
                0.12958659822042276,
                3.090690232415272
            ]
        },
        {
            "positions": [
                0.056876905663346314,
                -1.1731444127689925,
                2.0357845859378085,
                -0.8144117511278824,
                0.28599677177522365,
                3.1053952573136185
            ]
        },
        {
            "positions": [
                -0.009057716454867581,
                -1.2068018194666956,
                2.1000218748731285,
                -0.8483597608058009,
                0.44240694533002456,
                3.1201002822119657
            ]
        },
        {
            "positions": [
                -0.07499233857308146,
                -1.2404592261643985,
                2.1642591638084485,
                -0.8823077704837193,
                0.5988171188848254,
                3.1348053071103124
            ]
        },
        {
            "positions": [
                -0.14092696069129537,
                -1.2741166328621016,
                2.2284964527437685,
                -0.9162557801616378,
                0.7552272924396263,
                3.149510332008659
            ]
        },
        {
            "positions": [
                -0.2068615828095093,
                -1.3077740395598045,
                2.292733741679089,
                -0.9502037898395563,
                0.9116374659944272,
                3.1642153569070057
            ]
        },
        {
            "positions": [
                -0.27279620492772316,
                -1.3414314462575074,
                2.356971030614409,
                -0.9841517995174748,
                1.068047639549228,
                3.178920381805353
            ]
        },
        {
            "positions": [
                -0.3387308270459371,
                -1.3750888529552105,
                2.421208319549729,
                -1.0180998091953932,
                1.224457813104029,
                3.1936254067036995
            ]
        }
    ]
}