{
    "goal": {
        "global_pose": {
            "orientation": {
                "w": -0.00223480608172531,
                "x": 0.0024358444001904467,
                "y": 0.7094548369677653,
                "z": -0.704743149386269
            },
            "position": {
                "x": 0.6205249238014221,
                "y": -0.6371506643295288,
                "z": 0.19426114857196808
            }
        },
        "name": "move_to_magneteinheit_B"
    },
    "id": "FMT_move_to_magneteinheit_B_27",
    "joint_names": [
        "shoulder_pan_joint",
        "shoulder_lift_joint",
        "elbow_joint",
        "wrist_1_joint",
        "wrist_2_joint",
        "wrist_3_joint"
    ],
    "metrics": {
        "cart_traj_len": 1.4249510436627109,
        "distance_elbow_joint": 1.0924114129030302,
        "distance_shoulder_lift_joint": 0.7562947010160647,
        "distance_shoulder_pan_joint": 1.6197117274279194,
        "distance_wrist_1_joint": 0.3753726256304444,
        "distance_wrist_2_joint": 1.5309477543444332,
        "distance_wrist_3_joint": 2.646905002303359,
        "smoothness": 0.4212663640065388,
        "time": 1.399733536,
        "traj_len": 2.832250558058953,
        "weighted_distance": 3.9015091449600425
    },
    "planner": "FMT",
    "start": {
        "state": {
            "elbow_joint": 2.6216224122426386,
            "shoulder_lift_joint": -1.4174107377796124,
            "shoulder_pan_joint": 0.7066234856936794,
            "wrist_1_joint": 1.9546482284002225,
            "wrist_2_joint": -0.7096286983471962,
            "wrist_3_joint": 0.005740856962016249
        }
    },
    "waypoints": [
        {
            "positions": [
                0.7066234856936794,
                -1.4174107377796124,
                2.6216224122426386,
                1.9546482284002225,
                -0.7096286983471962,
                0.005740856962016249
            ]
        },
        {
            "positions": [
                0.6217595844018147,
                -1.4121177575506478,
                2.632847244851336,
                2.002344031875986,
                -0.7187895205870286,
                0.22688512252320664
            ]
        },
        {
            "positions": [
                0.5368956831099498,
                -1.4068247773216833,
                2.644072077460034,
                2.0500398353517495,
                -0.7279503428268611,
                0.448029388084397
            ]
        },
        {
            "positions": [
                0.45203178181808507,
                -1.4015317970927188,
                2.6552969100687314,
                2.097735638827513,
                -0.7371111650666935,
                0.6691736536455873
            ]
        },
        {
            "positions": [
                0.3671678805262203,
                -1.3962388168637543,
                2.666521742677429,
                2.1454314423032765,
                -0.7462719873065259,
                0.8903179192067777
            ]
        },
        {
            "positions": [
                0.2823039792343555,
                -1.3909458366347898,
                2.6777465752861267,
                2.1931272457790403,
                -0.7554328095463584,
                1.1114621847679682
            ]
        },
        {
            "positions": [
                0.19744007794249072,
                -1.3856528564058253,
                2.688971407894824,
                2.2408230492548036,
                -0.7645936317861908,
                1.3326064503291586
            ]
        },
        {
            "positions": [
                0.12340485663070867,
                -1.3373504017630067,
                2.6206339134114347,
                2.2348765289364128,
                -0.86299248651322,
                1.2446038230667442
            ]
        },
        {
            "positions": [
                0.04936963531892663,
                -1.2890479471201883,
                2.552296418928045,
                2.228930008618022,
                -0.9613913412402493,
                1.1566011958043296
            ]
        },
        {
            "positions": [
                -0.024665585992855427,
                -1.2407454924773698,
                2.4839589244446554,
                2.222983488299631,
                -1.0597901959672784,
                1.068598568541915
            ]
        },
        {
            "positions": [
                -0.09870080730463746,
                -1.1924430378345512,
                2.4156214299612655,
                2.21703696798124,
                -1.1581890506943078,
                0.9805959412795007
            ]
        },
        {
            "positions": [
                -0.17273602861641948,
                -1.1441405831917328,
                2.347283935477876,
                2.211090447662849,
                -1.256587905421337,
                0.8925933140170863
            ]
        },
        {
            "positions": [
                -0.24677124992820157,
                -1.0958381285489143,
                2.278946440994486,
                2.205143927344458,
                -1.3549867601483663,
                0.8045906867546717
            ]
        },
        {
            "positions": [
                -0.3208064712399835,
                -1.0475356739060957,
                2.2106089465110967,
                2.1991974070260674,
                -1.4533856148753954,
                0.7165880594922572
            ]
        },
        {
            "positions": [
                -0.3948416925517656,
                -0.9992332192632772,
                2.142271452027707,
                2.1932508867076765,
                -1.5517844696024246,
                0.6285854322298429
            ]
        },
        {
            "positions": [
                -0.4688769138635476,
                -0.9509307646204588,
                2.0739339575443174,
                2.1873043663892857,
                -1.650183324329454,
                0.5405828049674284
            ]
        },
        {
            "positions": [
                -0.5429121351753297,
                -0.9026283099776402,
                2.005596463060928,
                2.181357846070895,
                -1.7485821790564833,
                0.4525801777050139
            ]
        },
        {
            "positions": [
                -0.6169473564871116,
                -0.8543258553348217,
                1.937258968577538,
                2.175411325752504,
                -1.8469810337835124,
                0.36457755044259943
            ]
        },
        {
            "positions": [
                -0.6909825777988938,
                -0.8060234006920032,
                1.8689214740941482,
                2.169464805434113,
                -1.9453798885105418,
                0.27657492318018484
            ]
        },
        {
            "positions": [
                -0.7650177991106758,
                -0.7577209460491847,
                1.8005839796107588,
                2.163518285115722,
                -2.0437787432375707,
                0.18857229591777047
            ]
        },
        {
            "positions": [
                -0.8390530204224578,
                -0.7094184914063661,
                1.7322464851273691,
                2.157571764797331,
                -2.1421775979646003,
                0.10056966865535588
            ]
        },
        {
            "positions": [
                -0.91308824173424,
                -0.6611160367635477,
                1.6639089906439795,
                2.1516252444789403,
                -2.2405764526916294,
                0.012567041392941517
            ]
        }
    ]
}