{
    "goal": {
        "global_pose": {
            "orientation": {
                "w": 0.005598929693374612,
                "x": 0.007748599140229565,
                "y": 0.7110244013736278,
                "z": -0.7031023480610252
            },
            "position": {
                "x": 0.1141497679147869,
                "y": -0.7141253447532654,
                "z": 0.3711530566215515
            }
        },
        "name": "move_to_auspresseinheit_B"
    },
    "id": "FMT_move_to_auspresseinheit_B_126",
    "joint_names": [
        "shoulder_pan_joint",
        "shoulder_lift_joint",
        "elbow_joint",
        "wrist_1_joint",
        "wrist_2_joint",
        "wrist_3_joint"
    ],
    "metrics": {
        "cart_traj_len": 0.5650653733765534,
        "distance_elbow_joint": 0.062272362528690506,
        "distance_shoulder_lift_joint": 0.29574370395088856,
        "distance_shoulder_pan_joint": 0.5785364784870579,
        "distance_wrist_1_joint": 0.3248400519953326,
        "distance_wrist_2_joint": 0.9863024506604607,
        "distance_wrist_3_joint": 0.007602135688993261,
        "smoothness": 5.075305255429287e-16,
        "time": 0.558407099,
        "traj_len": 1.5017646897271968,
        "weighted_distance": 1.892523172208257
    },
    "planner": "FMT",
    "start": {
        "state": {
            "elbow_joint": 2.0193083361928714,
            "shoulder_lift_joint": -1.1220246554650708,
            "shoulder_pan_joint": -1.0952077554168747,
            "wrist_1_joint": -0.8559753972642168,
            "wrist_2_joint": 0.4759566250798843,
            "wrist_3_joint": -3.1240929996934557
        }
    },
    "waypoints": [
        {
            "positions": [
                -1.0952077554168747,
                -1.1220246554650708,
                2.0193083361928714,
                -0.8559753972642168,
                0.4759566250798843,
                -3.1240929996934557
            ]
        },
        {
            "positions": [
                -1.1916305018313844,
                -1.171315272790219,
                2.008929609104756,
                -0.801835388598328,
                0.6403403668566278,
                -3.125360022308288
            ]
        },
        {
            "positions": [
                -1.288053248245894,
                -1.220605890115367,
                1.9985508820166413,
                -0.7476953799324393,
                0.8047241086333712,
                -3.12662704492312
            ]
        },
        {
            "positions": [
                -1.3844759946604035,
                -1.269896507440515,
                1.988172154928526,
                -0.6935553712665505,
                0.9691078504101147,
                -3.1278940675379525
            ]
        },
        {
            "positions": [
                -1.4808987410749133,
                -1.3191871247656632,
                1.977793427840411,
                -0.6394153626006618,
                1.133491592186858,
                -3.1291610901527847
            ]
        },
        {
            "positions": [
                -1.577321487489423,
                -1.3684777420908112,
                1.967414700752296,
                -0.5852753539347729,
                1.2978753339636016,
                -3.130428112767617
            ]
        },
        {
            "positions": [
                -1.6737442339039326,
                -1.4177683594159594,
                1.957035973664181,
                -0.5311353452688842,
                1.462259075740345,
                -3.131695135382449
            ]
        }
    ]
}