{
    "goal": {
        "global_pose": {
            "orientation": {
                "w": 0.5084816262002911,
                "x": -0.4908360881923452,
                "y": 0.5182115481033761,
                "z": -0.48164630358495003
            },
            "position": {
                "x": 0.5540239810943604,
                "y": -0.46912469901144505,
                "z": 0.16403168439865112
            }
        },
        "name": "move_to_storage_B"
    },
    "id": "FMT_move_to_storage_B_18",
    "joint_names": [
        "shoulder_pan_joint",
        "shoulder_lift_joint",
        "elbow_joint",
        "wrist_1_joint",
        "wrist_2_joint",
        "wrist_3_joint"
    ],
    "metrics": {
        "cart_traj_len": 1.9337807512930056,
        "distance_elbow_joint": 1.6642360288348872,
        "distance_shoulder_lift_joint": 0.45964226702516986,
        "distance_shoulder_pan_joint": 2.0985251244125394,
        "distance_wrist_1_joint": 2.985398691020385,
        "distance_wrist_2_joint": 2.701823999570898,
        "distance_wrist_3_joint": 3.1407995095785397,
        "smoothness": 0.4593393323028682,
        "time": 1.418613107,
        "traj_len": 3.612537282913828,
        "weighted_distance": 5.001924362701898
    },
    "planner": "FMT",
    "start": {
        "state": {
            "elbow_joint": 1.664937868594044,
            "shoulder_lift_joint": -0.661644460510453,
            "shoulder_pan_joint": -0.9139846352900073,
            "wrist_1_joint": 2.146753192139373,
            "wrist_2_joint": -2.2341966793290973,
            "wrist_3_joint": 0.005466555786416001
        }
    },
    "waypoints": [
        {
            "positions": [
                -0.9139846352900073,
                -0.661644460510453,
                1.664937868594044,
                2.146753192139373,
                -2.2341966793290973,
                0.005466555786416001
            ]
        },
        {
            "positions": [
                -0.9572121204790294,
                -0.6949592168109043,
                1.745735712890322,
                2.0971286764571695,
                -2.206110387475646,
                0.11980212823814806
            ]
        },
        {
            "positions": [
                -1.0004396056680513,
                -0.7282739731113557,
                1.8265335571866,
                2.0475041607749653,
                -2.1780240956221952,
                0.23413770068988013
            ]
        },
        {
            "positions": [
                -1.0436670908570735,
                -0.7615887294118069,
                1.907331401482878,
                1.9978796450927616,
                -2.149937803768744,
                0.34847327314161225
            ]
        },
        {
            "positions": [
                -1.0868945760460955,
                -0.7949034857122582,
                1.988129245779156,
                1.9482551294105577,
                -2.121851511915293,
                0.4628088455933443
            ]
        },
        {
            "positions": [
                -1.1301220612351175,
                -0.8282182420127095,
                2.068927090075434,
                1.8986306137283537,
                -2.093765220061842,
                0.5771444180450763
            ]
        },
        {
            "positions": [
                -1.1733495464241397,
                -0.8615329983131609,
                2.149724934371712,
                1.8490060980461498,
                -2.065678928208391,
                0.6914799904968084
            ]
        },
        {
            "positions": [
                -1.2165770316131617,
                -0.8948477546136122,
                2.23052277866799,
                1.7993815823639459,
                -2.03759263635494,
                0.8058155629485405
            ]
        },
        {
            "positions": [
                -1.1366779681569674,
                -0.9136334087358499,
                2.1756664059762905,
                1.768075767694107,
                -1.9565068337737015,
                0.935144438251407
            ]
        },
        {
            "positions": [
                -1.0567789047007732,
                -0.9324190628580876,
                2.1208100332845903,
                1.7367699530242682,
                -1.875421031192463,
                1.0644733135542737
            ]
        },
        {
            "positions": [
                -0.9768798412445788,
                -0.9512047169803253,
                2.0659536605928905,
                1.7054641383544293,
                -1.7943352286112249,
                1.19380218885714
            ]
        },
        {
            "positions": [
                -0.8969807777883846,
                -0.9699903711025629,
                2.0110972879011904,
                1.6741583236845903,
                -1.7132494260299864,
                1.3231310641600067
            ]
        },
        {
            "positions": [
                -0.8170817143321902,
                -0.9887760252248007,
                1.9562409152094906,
                1.6428525090147514,
                -1.632163623448748,
                1.452459939462873
            ]
        },
        {
            "positions": [
                -0.737182650875996,
                -1.0075616793470383,
                1.9013845425177907,
                1.6115466943449126,
                -1.5510778208675098,
                1.5817888147657397
            ]
        },
        {
            "positions": [
                -0.6572835874198016,
                -1.026347333469276,
                1.8465281698260907,
                1.5802408796750738,
                -1.4699920182862711,
                1.7111176900686063
            ]
        },
        {
            "positions": [
                -0.5773845239636075,
                -1.0451329875915136,
                1.791671797134391,
                1.548935065005235,
                -1.388906215705033,
                1.8404465653714728
            ]
        },
        {
            "positions": [
                -0.49748546050741316,
                -1.0639186417137514,
                1.7368154244426908,
                1.5176292503353959,
                -1.3078204131237945,
                1.969775440674339
            ]
        },
        {
            "positions": [
                -0.4175863970512188,
                -1.0827042958359892,
                1.681959051750991,
                1.486323435665557,
                -1.226734610542556,
                2.099104315977206
            ]
        },
        {
            "positions": [
                -0.3376873335950247,
                -1.1014899499582267,
                1.627102679059291,
                1.4550176209957182,
                -1.1456488079613178,
                2.228433191280072
            ]
        },
        {
            "positions": [
                -0.2577882701388303,
                -1.1202756040804644,
                1.572246306367591,
                1.4237118063258793,
                -1.0645630053800794,
                2.357762066582939
            ]
        },
        {
            "positions": [
                -0.3135978679131672,
                -1.1202081958501207,
                1.6016046161316273,
                1.2728879859787532,
                -0.962416983671954,
                2.410328999835073
            ]
        },
        {
            "positions": [
                -0.36940746568750404,
                -1.1201407876197766,
                1.6309629258956633,
                1.1220641656316273,
                -0.8602709619638287,
                2.462895933087208
            ]
        },
        {
            "positions": [
                -0.42521706346184096,
                -1.1200733793894329,
                1.6603212356596995,
                0.9712403452845012,
                -0.7581249402557033,
                2.5154628663393424
            ]
        },
        {
            "positions": [
                -0.48102666123617777,
                -1.1200059711590888,
                1.6896795454237357,
                0.8204165249373752,
                -0.655978918547578,
                2.5680297995914767
            ]
        },
        {
            "positions": [
                -0.5368362590105147,
                -1.119938562928745,
                1.7190378551877716,
                0.6695927045902492,
                -0.5538328968394527,
                2.620596732843611
            ]
        },
        {
            "positions": [
                -0.5926458567848516,
                -1.119871154698401,
                1.7483961649518078,
                0.5187688842431231,
                -0.4516868751313272,
                2.673163666095746
            ]
        },
        {
            "positions": [
                -0.6484554545591885,
                -1.1198037464680572,
                1.777754474715844,
                0.3679450638959971,
                -0.34954085342320196,
                2.72573059934788
            ]
        },
        {
            "positions": [
                -0.7042650523335252,
                -1.1197363382377132,
                1.80711278447988,
                0.21712124354887097,
                -0.2473948317150766,
                2.7782975326000146
            ]
        },
        {
            "positions": [
                -0.7600746501078621,
                -1.1196689300073694,
                1.8364710942439162,
                0.06629742320174503,
                -0.14524881000695133,
                2.830864465852149
            ]
        },
        {
            "positions": [
                -0.815884247882199,
                -1.1196015217770254,
                1.8658294040079522,
                -0.0845263971453809,
                -0.04310278829882597,
                2.8834313991042837
            ]
        },
        {
            "positions": [
                -0.8716938456565358,
                -1.1195341135466816,
                1.8951877137719884,
                -0.23535021749250706,
                0.0590432334092994,
                2.935998332356418
            ]
        },
        {
            "positions": [
                -0.9275034434308729,
                -1.1194667053163376,
                1.9245460235360246,
                -0.3861740378396332,
                0.161189255117425,
                2.9885652656085524
            ]
        },
        {
            "positions": [
                -0.9833130412052097,
                -1.1193992970859938,
                1.9539043333000607,
                -0.5369978581867592,
                0.26333527682555014,
                3.041132198860687
            ]
        },
        {
            "positions": [
                -1.0391226389795465,
                -1.1193318888556498,
                1.9832626430640967,
                -0.6878216785338851,
                0.3654812985336755,
                3.0936991321128215
            ]
        },
        {
            "positions": [
                -1.0949322367538834,
                -1.119264480625306,
                2.012620952828133,
                -0.8386454988810111,
                0.46762732024180087,
                3.146266065364956
            ]
        }
    ]
}