{
    "goal": {
        "global_pose": {
            "orientation": {
                "w": 0.5084816217422485,
                "x": -0.49083608388900757,
                "y": 0.5182115435600281,
                "z": -0.4816462993621826
            },
            "position": {
                "x": 0.5540239810943604,
                "y": 0.030875300988554955,
                "z": 0.16403168439865112
            }
        },
        "name": "move_to_storage_A"
    },
    "id": "FMT_move_to_storage_A_55",
    "joint_names": [
        "shoulder_pan_joint",
        "shoulder_lift_joint",
        "elbow_joint",
        "wrist_1_joint",
        "wrist_2_joint",
        "wrist_3_joint"
    ],
    "metrics": {
        "cart_traj_len": 0.3528196341344648,
        "distance_elbow_joint": 0.4475875555711173,
        "distance_shoulder_lift_joint": 0.23456676258012843,
        "distance_shoulder_pan_joint": 0.4626707011942909,
        "distance_wrist_1_joint": 0.23751605406329312,
        "distance_wrist_2_joint": 1.091996588136516,
        "distance_wrist_3_joint": 0.09541669989868806,
        "smoothness": 1.3322676365830568e-15,
        "time": 0.389659564,
        "traj_len": 1.6030453397967366,
        "weighted_distance": 2.022399664616571
    },
    "planner": "FMT",
    "start": {
        "state": {
            "elbow_joint": 1.971548259319323,
            "shoulder_lift_joint": -1.1394851275133948,
            "shoulder_pan_joint": 0.1228115487234821,
            "wrist_1_joint": -0.7804723859257726,
            "wrist_2_joint": 0.12958671773740124,
            "wrist_3_joint": -3.192489227718131
        }
    },
    "waypoints": [
        {
            "positions": [
                0.1228115487234821,
                -1.1394851275133948,
                1.971548259319323,
                -0.7804723859257726,
                0.12958671773740124,
                -3.192489227718131
            ]
        },
        {
            "positions": [
                0.05671573426715483,
                -1.1729946650248417,
                2.0354893386866255,
                -0.8144032507919573,
                0.2855862303283321,
                -3.178858270589747
            ]
        },
        {
            "positions": [
                -0.00938008018917244,
                -1.2065042025362887,
                2.099430418053928,
                -0.8483341156581421,
                0.4415857429192629,
                -3.1652273134613633
            ]
        },
        {
            "positions": [
                -0.0754758946454997,
                -1.2400137400477356,
                2.1633714974212306,
                -0.8822649805243268,
                0.5975852555101937,
                -3.151596356332979
            ]
        },
        {
            "positions": [
                -0.14157170910182698,
                -1.2735232775591825,
                2.227312576788533,
                -0.9161958453905116,
                0.7535847681011246,
                -3.137965399204595
            ]
        },
        {
            "positions": [
                -0.20766752355815427,
                -1.3070328150706294,
                2.291253656155835,
                -0.9501267102566963,
                0.9095842806920555,
                -3.124334442076211
            ]
        },
        {
            "positions": [
                -0.2737633380144815,
                -1.3405423525820763,
                2.355194735523138,
                -0.9840575751228811,
                1.0655837932829861,
                -3.1107034849478272
            ]
        },
        {
            "positions": [
                -0.3398591524708088,
                -1.3740518900935232,
                2.4191358148904403,
                -1.0179884399890657,
                1.2215833058739172,
                -3.097072527819443
            ]
        }
    ]
}{
    "goal": {
        "global_pose": {
            "orientation": {
                "w": 0.5084816217422485,
                "x": -0.49083608388900757,
                "y": 0.5182115435600281,
                "z": -0.4816462993621826
            },
            "position": {
                "x": 0.5540239810943604,
                "y": 0.030875300988554955,
                "z": 0.16403168439865112
            }
        },
        "name": "move_to_storage_A"
    },
    "id": "FMT_move_to_storage_A_55",
    "joint_names": [
        "shoulder_pan_joint",
        "shoulder_lift_joint",
        "elbow_joint",
        "wrist_1_joint",
        "wrist_2_joint",
        "wrist_3_joint"
    ],
    "metrics": {
        "cart_traj_len": 0.3533510776462501,
        "distance_elbow_joint": 0.45090493366030326,
        "distance_shoulder_lift_joint": 0.23607035258044462,
        "distance_shoulder_pan_joint": 0.4616082636082922,
        "distance_wrist_1_joint": 0.2394876114468607,
        "distance_wrist_2_joint": 1.1026574950456132,
        "distance_wrist_3_joint": 0.09033703830786255,
        "smoothness": 8.881784267329941e-16,
        "time": 0.5299165690000001,
        "traj_len": 1.60656954242553,
        "weighted_distance": 2.0258047481822072
    },
    "planner": "FMT",
    "start": {
        "state": {
            "elbow_joint": 1.97154746011099,
            "shoulder_lift_joint": -1.13948474672311,
            "shoulder_pan_joint": 0.12281154466712228,
            "wrist_1_joint": -0.7804688027058302,
            "wrist_2_joint": 0.12958655903071145,
            "wrist_3_joint": 3.0906928834467795
        }
    },
    "waypoints": [
        {
            "positions": [
                0.12281154466712228,
                -1.13948474672311,
                1.97154746011099,
                -0.7804688027058302,
                0.12958655903071145,
                3.0906928834467795
            ]
        },
        {
            "positions": [
                0.056867507008794824,
                -1.1732090828060306,
                2.0359624506338903,
                -0.8146813186268103,
                0.28710905832294187,
                3.103598174633617
            ]
        },
        {
            "positions": [
                -0.009076530649532635,
                -1.2069334188889513,
                2.100377441156791,
                -0.8488938345477903,
                0.44463155761517237,
                3.1165034658204545
            ]
        },
        {
            "positions": [
                -0.0750205683078601,
                -1.240657754971872,
                2.1647924316796914,
                -0.8831063504687705,
                0.6021540569074028,
                3.129408757007292
            ]
        },
        {
            "positions": [
                -0.14096460596618754,
                -1.2743820910547925,
                2.2292074222025917,
                -0.9173188663897506,
                0.7596765561996333,
                3.1423140481941294
            ]
        },
        {
            "positions": [
                -0.206908643624515,
                -1.3081064271377132,
                2.293622412725492,
                -0.9515313823107308,
                0.9171990554918638,
                3.155219339380967
            ]
        },
        {
            "positions": [
                -0.27285268128284246,
                -1.3418307632206339,
                2.358037403248393,
                -0.9857438982317108,
                1.074721554784094,
                3.1681246305678044
            ]
        },
        {
            "positions": [
                -0.3387967189411699,
                -1.3755550993035546,
                2.422452393771293,
                -1.019956414152691,
                1.2322440540763246,
                3.181029921754642
            ]
        }
    ]
}{
    "goal": {
        "global_pose": {
            "orientation": {
                "w": 0.5084816217422485,
                "x": -0.49083608388900757,
                "y": 0.5182115435600281,
                "z": -0.4816462993621826
            },
            "position": {
                "x": 0.5540239810943604,
                "y": 0.030875300988554955,
                "z": 0.16403168439865112
            }
        },
        "name": "move_to_storage_A"
    },
    "id": "FMT_move_to_storage_A_55",
    "joint_names": [
        "shoulder_pan_joint",
        "shoulder_lift_joint",
        "elbow_joint",
        "wrist_1_joint",
        "wrist_2_joint",
        "wrist_3_joint"
    ],
    "metrics": {
        "cart_traj_len": 0.35370569146264524,
        "distance_elbow_joint": 0.44717717446685423,
        "distance_shoulder_lift_joint": 0.23391090777929024,
        "distance_shoulder_pan_joint": 0.45934960661124724,
        "distance_wrist_1_joint": 0.23399396180312393,
        "distance_wrist_2_joint": 1.1129377657937878,
        "distance_wrist_3_joint": 0.0886998067107676,
        "smoothness": 2.2204460668324854e-16,
        "time": 0.546624366,
        "traj_len": 1.6050137766278116,
        "weighted_distance": 2.024944582990734
    },
    "planner": "FMT",
    "start": {
        "state": {
            "elbow_joint": 1.9715472970024885,
            "shoulder_lift_joint": -1.1394870060712896,
            "shoulder_pan_joint": 0.12281152778156021,
            "wrist_1_joint": -0.780463741449964,
            "wrist_2_joint": 0.12958659822042276,
            "wrist_3_joint": 3.090690232415272
        }
    },
    "waypoints": [
        {
            "positions": [
                0.12281152778156021,
                -1.1394870060712896,
                1.9715472970024885,
                -0.780463741449964,
                0.12958659822042276,
                3.090690232415272
            ]
        },
        {
            "positions": [
                0.05719015540852489,
                -1.1729028500397596,
                2.0354297504977534,
                -0.8138914502789817,
                0.2885777076195353,
                3.103361633373953
            ]
        },
        {
            "positions": [
                -0.008431216964510435,
                -1.2063186940082298,
                2.0993122039930183,
                -0.8473191591079994,
                0.4475688170186478,
                3.116033034332634
            ]
        },
        {
            "positions": [
                -0.07405258933754574,
                -1.2397345379766997,
                2.163194657488283,
                -0.8807468679370171,
                0.6065599264177604,
                3.128704435291315
            ]
        },
        {
            "positions": [
                -0.13967396171058108,
                -1.2731503819451697,
                2.227077110983548,
                -0.9141745767660348,
                0.7655510358168729,
                3.1413758362499964
            ]
        },
        {
            "positions": [
                -0.20529533408361642,
                -1.30656622591364,
                2.290959564478813,
                -0.9476022855950526,
                0.9245421452159854,
                3.1540472372086774
            ]
        },
        {
            "positions": [
                -0.27091670645665167,
                -1.3399820698821099,
                2.354842017974078,
                -0.9810299944240702,
                1.083533254615098,
                3.1667186381673584
            ]
        },
        {
            "positions": [
                -0.336538078829687,
                -1.3733979138505799,
                2.4187244714693428,
                -1.014457703253088,
                1.2425243640142105,
                3.1793900391260395
            ]
        }
    ]
}