{
    "goal": {
        "global_pose": {
            "orientation": {
                "w": 0.5084816217422485,
                "x": -0.49083608388900757,
                "y": 0.5182115435600281,
                "z": -0.4816462993621826
            },
            "position": {
                "x": 0.5540239810943604,
                "y": 0.030875300988554955,
                "z": 0.16403168439865112
            }
        },
        "name": "move_to_storage_A"
    },
    "id": "FMT_move_to_storage_A_99",
    "joint_names": [
        "shoulder_pan_joint",
        "shoulder_lift_joint",
        "elbow_joint",
        "wrist_1_joint",
        "wrist_2_joint",
        "wrist_3_joint"
    ],
    "metrics": {
        "cart_traj_len": 0.35266078628408326,
        "distance_elbow_joint": 0.44958365829022706,
        "distance_shoulder_lift_joint": 0.23343597208501832,
        "distance_shoulder_pan_joint": 0.46217966471190525,
        "distance_wrist_1_joint": 0.23975991040421152,
        "distance_wrist_2_joint": 1.0933691109462993,
        "distance_wrist_3_joint": 0.10120809564192301,
        "smoothness": 2.2204460668324854e-16,
        "time": 0.568042198,
        "traj_len": 1.6060935253214816,
        "weighted_distance": 2.028566396427275
    },
    "planner": "FMT",
    "start": {
        "state": {
            "elbow_joint": 1.971548259319323,
            "shoulder_lift_joint": -1.1394851275133948,
            "shoulder_pan_joint": 0.1228115487234821,
            "wrist_1_joint": -0.7804723859257726,
            "wrist_2_joint": 0.12958671773740124,
            "wrist_3_joint": -3.192489227718131
        }
    },
    "waypoints": [
        {
            "positions": [
                0.1228115487234821,
                -1.1394851275133948,
                1.971548259319323,
                -0.7804723859257726,
                0.12958671773740124,
                -3.192489227718131
            ]
        },
        {
            "positions": [
                0.05678588233606707,
                -1.1728331235255403,
                2.0357744962179267,
                -0.8147238016978028,
                0.285782305015444,
                -3.1780309283407138
            ]
        },
        {
            "positions": [
                -0.009239784051347955,
                -1.2061811195376857,
                2.1000007331165307,
                -0.8489752174698331,
                0.4419778922934867,
                -3.163572628963296
            ]
        },
        {
            "positions": [
                -0.07526545043876298,
                -1.2395291155498311,
                2.1642269700151346,
                -0.8832266332418632,
                0.5981734795715294,
                -3.1491143295858786
            ]
        },
        {
            "positions": [
                -0.141291116826178,
                -1.2728771115619768,
                2.2284532069137386,
                -0.9174780490138935,
                0.7543690668495723,
                -3.1346560302084607
            ]
        },
        {
            "positions": [
                -0.2073167832135931,
                -1.3062251075741222,
                2.292679443812342,
                -0.9517294647859237,
                0.9105646541276151,
                -3.1201977308310433
            ]
        },
        {
            "positions": [
                -0.27334244960100806,
                -1.3395731035862677,
                2.356905680710946,
                -0.985980880557954,
                1.0667602414056576,
                -3.1057394314536255
            ]
        },
        {
            "positions": [
                -0.33936811598842315,
                -1.3729210995984131,
                2.42113191760955,
                -1.0202322963299841,
                1.2229558286837006,
                -3.091281132076208
            ]
        }
    ]
}{
    "goal": {
        "global_pose": {
            "orientation": {
                "w": 0.5084816217422485,
                "x": -0.49083608388900757,
                "y": 0.5182115435600281,
                "z": -0.4816462993621826
            },
            "position": {
                "x": 0.5540239810943604,
                "y": 0.030875300988554955,
                "z": 0.16403168439865112
            }
        },
        "name": "move_to_storage_A"
    },
    "id": "FMT_move_to_storage_A_99",
    "joint_names": [
        "shoulder_pan_joint",
        "shoulder_lift_joint",
        "elbow_joint",
        "wrist_1_joint",
        "wrist_2_joint",
        "wrist_3_joint"
    ],
    "metrics": {
        "cart_traj_len": 0.3534359797796966,
        "distance_elbow_joint": 0.44981956026302683,
        "distance_shoulder_lift_joint": 0.23468203182616554,
        "distance_shoulder_pan_joint": 0.4623768094498358,
        "distance_wrist_1_joint": 0.2415081497991176,
        "distance_wrist_2_joint": 1.0987387278649101,
        "distance_wrist_3_joint": 0.09303491344584502,
        "smoothness": 4.440892098500626e-16,
        "time": 0.448755089,
        "traj_len": 1.6062877054403737,
        "weighted_distance": 2.026444397757959
    },
    "planner": "FMT",
    "start": {
        "state": {
            "elbow_joint": 1.97154746011099,
            "shoulder_lift_joint": -1.13948474672311,
            "shoulder_pan_joint": 0.12281154466712228,
            "wrist_1_joint": -0.7804688027058302,
            "wrist_2_joint": 0.12958655903071145,
            "wrist_3_joint": 3.0906928834467795
        }
    },
    "waypoints": [
        {
            "positions": [
                0.12281154466712228,
                -1.13948474672311,
                1.97154746011099,
                -0.7804688027058302,
                0.12958655903071145,
                3.0906928834467795
            ]
        },
        {
            "positions": [
                0.05675771474571717,
                -1.173010751269705,
                2.035807397291422,
                -0.814969966962847,
                0.2865492344399843,
                3.1039835853676143
            ]
        },
        {
            "positions": [
                -0.009296115175687944,
                -1.2065367558163,
                2.100067334471855,
                -0.8494711312198637,
                0.44351190984925715,
                3.1172742872884496
            ]
        },
        {
            "positions": [
                -0.07534994509709304,
                -1.240062760362895,
                2.164327271652287,
                -0.8839722954768806,
                0.60047458525853,
                3.1305649892092844
            ]
        },
        {
            "positions": [
                -0.14140377501849816,
                -1.2735887649094901,
                2.2285872088327197,
                -0.9184734597338974,
                0.7574372606678029,
                3.1438556911301196
            ]
        },
        {
            "positions": [
                -0.20745760493990328,
                -1.3071147694560854,
                2.292847146013152,
                -0.9529746239909143,
                0.9143999360770758,
                3.1571463930509545
            ]
        },
        {
            "positions": [
                -0.27351143486130836,
                -1.3406407740026804,
                2.3571070831935845,
                -0.987475788247931,
                1.0713626114863486,
                3.1704370949717897
            ]
        },
        {
            "positions": [
                -0.3395652647827135,
                -1.3741667785492755,
                2.4213670203740167,
                -1.0219769525049478,
                1.2283252868956216,
                3.1837277968926245
            ]
        }
    ]
}{
    "goal": {
        "global_pose": {
            "orientation": {
                "w": 0.5084816217422485,
                "x": -0.49083608388900757,
                "y": 0.5182115435600281,
                "z": -0.4816462993621826
            },
            "position": {
                "x": 0.5540239810943604,
                "y": 0.030875300988554955,
                "z": 0.16403168439865112
            }
        },
        "name": "move_to_storage_A"
    },
    "id": "FMT_move_to_storage_A_99",
    "joint_names": [
        "shoulder_pan_joint",
        "shoulder_lift_joint",
        "elbow_joint",
        "wrist_1_joint",
        "wrist_2_joint",
        "wrist_3_joint"
    ],
    "metrics": {
        "cart_traj_len": 0.35222137310438056,
        "distance_elbow_joint": 0.44792454329234,
        "distance_shoulder_lift_joint": 0.2354856884438865,
        "distance_shoulder_pan_joint": 0.46087062881388685,
        "distance_wrist_1_joint": 0.2350983396215478,
        "distance_wrist_2_joint": 1.096025566153567,
        "distance_wrist_3_joint": 0.08761730570861026,
        "smoothness": 0.0,
        "time": 0.420691686,
        "traj_len": 1.6009441189603835,
        "weighted_distance": 2.017270579081094
    },
    "planner": "FMT",
    "start": {
        "state": {
            "elbow_joint": 1.9715472970024885,
            "shoulder_lift_joint": -1.1394870060712896,
            "shoulder_pan_joint": 0.12281152778156021,
            "wrist_1_joint": -0.780463741449964,
            "wrist_2_joint": 0.12958659822042276,
            "wrist_3_joint": 3.090690232415272
        }
    },
    "waypoints": [
        {
            "positions": [
                0.12281152778156021,
                -1.1394870060712896,
                1.9715472970024885,
                -0.780463741449964,
                0.12958659822042276,
                3.090690232415272
            ]
        },
        {
            "positions": [
                0.056972866522433524,
                -1.1731278187061305,
                2.035536517472823,
                -0.8140492185387566,
                0.28616167909950374,
                3.1032069903736446
            ]
        },
        {
            "positions": [
                -0.008865794736693161,
                -1.2067686313409716,
                2.099525737943157,
                -0.8476346956275491,
                0.44273675997858475,
                3.1157237483320177
            ]
        },
        {
            "positions": [
                -0.07470445599581985,
                -1.2404094439758124,
                2.1635149584134914,
                -0.8812201727163416,
                0.5993118408576658,
                3.1282405062903904
            ]
        },
        {
            "positions": [
                -0.14054311725494653,
                -1.2740502566106533,
                2.2275041788838257,
                -0.9148056498051341,
                0.7558869217367467,
                3.1407572642487636
            ]
        },
        {
            "positions": [
                -0.20638177851407327,
                -1.3076910692454944,
                2.29149339935416,
                -0.9483911268939267,
                0.9124620026158277,
                3.1532740222071363
            ]
        },
        {
            "positions": [
                -0.2722204397731999,
                -1.3413318818803353,
                2.3554826198244943,
                -0.9819766039827192,
                1.0690370834949088,
                3.1657907801655094
            ]
        },
        {
            "positions": [
                -0.3380591010323266,
                -1.3749726945151761,
                2.4194718402948285,
                -1.0155620810715118,
                1.2256121643739897,
                3.178307538123882
            ]
        }
    ]
}