{
    "goal": {
        "global_pose": {
            "orientation": {
                "w": 0.7047431493862688,
                "x": -0.7094548369677653,
                "y": 0.0024358444001904,
                "z": -0.0022348060817251984
            },
            "position": {
                "x": -0.39052492380142206,
                "y": 0.3671506643295288,
                "z": 0.19426114857196808
            }
        },
        "name": "move_to_magneteinheit_D"
    },
    "id": "FMT_move_to_magneteinheit_D_149",
    "joint_names": [
        "shoulder_pan_joint",
        "shoulder_lift_joint",
        "elbow_joint",
        "wrist_1_joint",
        "wrist_2_joint",
        "wrist_3_joint"
    ],
    "metrics": {
        "cart_traj_len": 4.749482563770892,
        "distance_elbow_joint": 3.2714075753130265,
        "distance_shoulder_lift_joint": 1.6513139518597868,
        "distance_shoulder_pan_joint": 3.1515640810320056,
        "distance_wrist_1_joint": 2.7925265178676444,
        "distance_wrist_2_joint": 1.8077724373886874,
        "distance_wrist_3_joint": 3.148524237907357,
        "smoothness": 0.286201162905597,
        "time": 1.3791298840000001,
        "traj_len": 3.977827145737796,
        "weighted_distance": 5.169183323547304
    },
    "planner": "FMT",
    "start": {
        "state": {
            "elbow_joint": 0.749534889911806,
            "shoulder_lift_joint": -0.6476975780787326,
            "shoulder_pan_joint": -2.711696901376241,
            "wrist_1_joint": -0.07506478083263063,
            "wrist_2_joint": 0.43296659715538205,
            "wrist_3_joint": -3.14703540197715
        }
    },
    "waypoints": [
        {
            "positions": [
                -2.711696901376241,
                -0.6476975780787326,
                0.749534889911806,
                -0.07506478083263063,
                0.43296659715538205,
                -3.14703540197715
            ]
        },
        {
            "positions": [
                -2.711524036600189,
                -0.7190304004780107,
                0.756333814367985,
                0.031701258490327316,
                0.5037128155011682,
                -3.008092953996774
            ]
        },
        {
            "positions": [
                -2.7113511718241368,
                -0.7903632228772888,
                0.763132738824164,
                0.13846729781328526,
                0.5744590338469543,
                -2.869150506016398
            ]
        },
        {
            "positions": [
                -2.7111783070480846,
                -0.8616960452765668,
                0.7699316632803429,
                0.24523333713624318,
                0.6452052521927404,
                -2.730208058036022
            ]
        },
        {
            "positions": [
                -2.7110054422720324,
                -0.9330288676758449,
                0.7767305877365219,
                0.35199937645920115,
                0.7159514705385266,
                -2.591265610055646
            ]
        },
        {
            "positions": [
                -2.71083257749598,
                -1.004361690075123,
                0.783529512192701,
                0.45876541578215907,
                0.7866976888843127,
                -2.4523231620752695
            ]
        },
        {
            "positions": [
                -2.7106597127199277,
                -1.075694512474401,
                0.79032843664888,
                0.5655314551051169,
                0.8574439072300988,
                -2.313380714094894
            ]
        },
        {
            "positions": [
                -2.7104868479438755,
                -1.147027334873679,
                0.797127361105059,
                0.6722974944280748,
                0.9281901255758849,
                -2.1744382661145174
            ]
        },
        {
            "positions": [
                -2.7103139831678233,
                -1.2183601572729572,
                0.8039262855612379,
                0.779063533751033,
                0.998936343921671,
                -2.0354958181341414
            ]
        },
        {
            "positions": [
                -2.710141118391771,
                -1.2896929796722354,
                0.8107252100174169,
                0.8858295730739909,
                1.069682562267457,
                -1.8965533701537653
            ]
        },
        {
            "positions": [
                -2.709968253615719,
                -1.3610258020715134,
                0.817524134473596,
                0.9925956123969488,
                1.1404287806132432,
                -1.7576109221733893
            ]
        },
        {
            "positions": [
                -2.574890267105109,
                -1.4046445105801124,
                0.7262985747981031,
                0.9637931619642348,
                1.0955584301475618,
                -1.7065039107629825
            ]
        },
        {
            "positions": [
                -2.4398122805944986,
                -1.4482632190887113,
                0.6350730151226103,
                0.9349907115315208,
                1.0506880796818807,
                -1.6553968993525756
            ]
        },
        {
            "positions": [
                -2.3047342940838886,
                -1.4918819275973103,
                0.5438474554471175,
                0.9061882610988068,
                1.0058177292161994,
                -1.6042898879421688
            ]
        },
        {
            "positions": [
                -2.169656307573278,
                -1.5355006361059094,
                0.45262189577162465,
                0.8773858106660927,
                0.9609473787505182,
                -1.5531828765317617
            ]
        },
        {
            "positions": [
                -2.0345783210626682,
                -1.5791193446145082,
                0.3613963360961318,
                0.8485833602333787,
                0.916077028284837,
                -1.5020758651213548
            ]
        },
        {
            "positions": [
                -1.899500334552058,
                -1.6227380531231073,
                0.270170776420639,
                0.8197809098006646,
                0.8712066778191556,
                -1.450968853710948
            ]
        },
        {
            "positions": [
                -1.7644223480414478,
                -1.666356761631706,
                0.17894521674514619,
                0.7909784593679506,
                0.8263363273534744,
                -1.3998618423005411
            ]
        },
        {
            "positions": [
                -1.6293443615308376,
                -1.7099754701403052,
                0.08771965706965335,
                0.7621760089352365,
                0.7814659768877932,
                -1.348754830890134
            ]
        },
        {
            "positions": [
                -1.4942663750202276,
                -1.7535941786489042,
                -0.003505902605839495,
                0.7333735585025225,
                0.7365956264221118,
                -1.2976478194797272
            ]
        },
        {
            "positions": [
                -1.3591883885096174,
                -1.797212887157503,
                -0.09473146228133233,
                0.7045711080698085,
                0.6917252759564306,
                -1.2465408080693203
            ]
        },
        {
            "positions": [
                -1.224110401999007,
                -1.8408315956661023,
                -0.18595702195682517,
                0.6757686576370945,
                0.6468549254907493,
                -1.1954337966589135
            ]
        },
        {
            "positions": [
                -1.089032415488397,
                -1.8844503041747012,
                -0.2771825816323179,
                0.6469662072043805,
                0.6019845750250681,
                -1.1443267852485066
            ]
        },
        {
            "positions": [
                -0.9539544289777868,
                -1.9280690126833002,
                -0.36840814130781085,
                0.6181637567716665,
                0.5571142245593868,
                -1.0932197738380998
            ]
        },
        {
            "positions": [
                -0.8188764424671766,
                -1.971687721191899,
                -0.4596337009833036,
                0.5893613063389525,
                0.5122438740937056,
                -1.042112762427693
            ]
        },
        {
            "positions": [
                -0.6837984559565662,
                -2.015306429700498,
                -0.5508592606587965,
                0.5605588559062383,
                0.4673735236280243,
                -0.9910057510172858
            ]
        },
        {
            "positions": [
                -0.5487204694459562,
                -2.058925138209097,
                -0.6420848203342893,
                0.5317564054735243,
                0.4225031731623431,
                -0.939898739606879
            ]
        },
        {
            "positions": [
                -0.4136424829353462,
                -2.1025438467176962,
                -0.7333103800097822,
                0.5029539550408102,
                0.37763282269666176,
                -0.888791728196472
            ]
        },
        {
            "positions": [
                -0.27856449642473624,
                -2.146162555226295,
                -0.8245359396852749,
                0.4741515046080963,
                0.33276247223098054,
                -0.8376847167860653
            ]
        },
        {
            "positions": [
                -0.14348650991412581,
                -2.189781263734894,
                -0.9157614993607679,
                0.4453490541753822,
                0.2878921217652993,
                -0.7865777053756583
            ]
        },
        {
            "positions": [
                -0.008408523403515833,
                -2.233399972243493,
                -1.0069870590362606,
                0.41654660374266816,
                0.2430217712996181,
                -0.7354706939652513
            ]
        },
        {
            "positions": [
                0.12666946310709448,
                -2.277018680752092,
                -1.0982126187117536,
                0.38774415330995415,
                0.19815142083393678,
                -0.6843636825548446
            ]
        },
        {
            "positions": [
                0.11699204909449418,
                -2.275838162397748,
                -1.2586882104237958,
                0.5004246003373334,
                0.20684739787276307,
                -0.6052543510120616
            ]
        },
        {
            "positions": [
                0.10731463508189389,
                -2.274657644043404,
                -1.419163802135838,
                0.6131050473647125,
                0.2155433749115894,
                -0.5261450194692786
            ]
        },
        {
            "positions": [
                0.0976372210692936,
                -2.27347712568906,
                -1.5796393938478799,
                0.7257854943920916,
                0.22423935195041572,
                -0.4470356879264957
            ]
        },
        {
            "positions": [
                0.08795980705669329,
                -2.2722966073347157,
                -1.740114985559922,
                0.8384659414194708,
                0.23293532898924202,
                -0.3679263563837127
            ]
        },
        {
            "positions": [
                0.07828239304409298,
                -2.271116088980372,
                -1.9005905772719642,
                0.9511463884468501,
                0.24163130602806832,
                -0.2888170248409297
            ]
        },
        {
            "positions": [
                0.0686049790314927,
                -2.269935570626028,
                -2.061066168984006,
                1.063826835474229,
                0.25032728306689467,
                -0.20970769329814676
            ]
        },
        {
            "positions": [
                0.0589275650188924,
                -2.268755052271684,
                -2.2215417606960486,
                1.1765072825016083,
                0.25902326010572096,
                -0.13059836175536377
            ]
        },
        {
            "positions": [
                0.0492501510062921,
                -2.26757453391734,
                -2.3820173524080905,
                1.2891877295289875,
                0.26771923714454726,
                -0.05148903021258075
            ]
        },
        {
            "positions": [
                -0.06863905121764213,
                -2.2738488850931775,
                -2.3800789304733154,
                1.3984732741950059,
                0.22348669822409267,
                -0.025000097141186443
            ]
        },
        {
            "positions": [
                -0.18652825344157636,
                -2.280123236269015,
                -2.37814050853854,
                1.507758818861024,
                0.17925415930363808,
                0.001488835930207865
            ]
        }
    ]
}