{
    "goal": {
        "global_pose": {
            "orientation": {
                "w": 0.5084816217422485,
                "x": -0.49083608388900757,
                "y": 0.5182115435600281,
                "z": -0.4816462993621826
            },
            "position": {
                "x": 0.5540239810943604,
                "y": 0.030875300988554955,
                "z": 0.16403168439865112
            }
        },
        "name": "move_to_storage_A"
    },
    "id": "FMT_move_to_storage_A_80",
    "joint_names": [
        "shoulder_pan_joint",
        "shoulder_lift_joint",
        "elbow_joint",
        "wrist_1_joint",
        "wrist_2_joint",
        "wrist_3_joint"
    ],
    "metrics": {
        "cart_traj_len": 0.35362790503241837,
        "distance_elbow_joint": 0.45004635171632423,
        "distance_shoulder_lift_joint": 0.23463686676197648,
        "distance_shoulder_pan_joint": 0.46466300479237477,
        "distance_wrist_1_joint": 0.2383626396584636,
        "distance_wrist_2_joint": 1.0907203528595035,
        "distance_wrist_3_joint": 0.09303737878710328,
        "smoothness": 4.440892098500626e-16,
        "time": 0.37015022999999997,
        "traj_len": 1.6035793072298439,
        "weighted_distance": 2.0215400922731956
    },
    "planner": "FMT",
    "start": {
        "state": {
            "elbow_joint": 1.971548259319323,
            "shoulder_lift_joint": -1.1394851275133948,
            "shoulder_pan_joint": 0.1228115487234821,
            "wrist_1_joint": -0.7804723859257726,
            "wrist_2_joint": 0.12958671773740124,
            "wrist_3_joint": -3.192489227718131
        }
    },
    "waypoints": [
        {
            "positions": [
                0.1228115487234821,
                -1.1394851275133948,
                1.971548259319323,
                -0.7804723859257726,
                0.12958671773740124,
                -3.192489227718131
            ]
        },
        {
            "positions": [
                0.05643111946742857,
                -1.173004679907963,
                2.0358405952787977,
                -0.8145241915912674,
                0.28540391100304463,
                -3.179198173605688
            ]
        },
        {
            "positions": [
                -0.00994930978862496,
                -1.206524232302531,
                2.1001329312382726,
                -0.8485759972567622,
                0.441221104268688,
                -3.1659071194932444
            ]
        },
        {
            "positions": [
                -0.07632973904467849,
                -1.240043784697099,
                2.1644252671977475,
                -0.882627802922257,
                0.5970382975343314,
                -3.1526160653808013
            ]
        },
        {
            "positions": [
                -0.14271016830073202,
                -1.273563337091667,
                2.2287176031572224,
                -0.9166796085877518,
                0.7528554907999747,
                -3.1393250112683577
            ]
        },
        {
            "positions": [
                -0.2090905975567856,
                -1.3070828894862352,
                2.2930099391166974,
                -0.9507314142532466,
                0.9086726840656181,
                -3.1260339571559146
            ]
        },
        {
            "positions": [
                -0.2754710268128391,
                -1.3406024418808031,
                2.3573022750761723,
                -0.9847832199187414,
                1.0644898773312614,
                -3.112742903043471
            ]
        },
        {
            "positions": [
                -0.34185145606889267,
                -1.3741219942753713,
                2.421594611035647,
                -1.0188350255842362,
                1.2203070705969048,
                -3.099451848931028
            ]
        }
    ]
}{
    "goal": {
        "global_pose": {
            "orientation": {
                "w": 0.5084816217422485,
                "x": -0.49083608388900757,
                "y": 0.5182115435600281,
                "z": -0.4816462993621826
            },
            "position": {
                "x": 0.5540239810943604,
                "y": 0.030875300988554955,
                "z": 0.16403168439865112
            }
        },
        "name": "move_to_storage_A"
    },
    "id": "FMT_move_to_storage_A_80",
    "joint_names": [
        "shoulder_pan_joint",
        "shoulder_lift_joint",
        "elbow_joint",
        "wrist_1_joint",
        "wrist_2_joint",
        "wrist_3_joint"
    ],
    "metrics": {
        "cart_traj_len": 0.3536063157803691,
        "distance_elbow_joint": 0.4483902800223336,
        "distance_shoulder_lift_joint": 0.23331545730482506,
        "distance_shoulder_pan_joint": 0.464189944281367,
        "distance_wrist_1_joint": 0.23858362797637933,
        "distance_wrist_2_joint": 1.091239581143785,
        "distance_wrist_3_joint": 0.088540484894156,
        "smoothness": 4.440892098500626e-16,
        "time": 0.54440229,
        "traj_len": 1.601330501683786,
        "weighted_distance": 2.0177124558596855
    },
    "planner": "FMT",
    "start": {
        "state": {
            "elbow_joint": 1.97154746011099,
            "shoulder_lift_joint": -1.13948474672311,
            "shoulder_pan_joint": 0.12281154466712228,
            "wrist_1_joint": -0.7804688027058302,
            "wrist_2_joint": 0.12958655903071145,
            "wrist_3_joint": 3.0906928834467795
        }
    },
    "waypoints": [
        {
            "positions": [
                0.12281154466712228,
                -1.13948474672311,
                1.97154746011099,
                -0.7804688027058302,
                0.12958655903071145,
                3.0906928834467795
            ]
        },
        {
            "positions": [
                0.056498695484069855,
                -1.172815526338085,
                2.0356032143998948,
                -0.8145521781310272,
                0.2854779277655379,
                3.1033415241459448
            ]
        },
        {
            "positions": [
                -0.009814153698982572,
                -1.20614630595306,
                2.0996589686887996,
                -0.8486355535562242,
                0.44136929650036427,
                3.1159901648451096
            ]
        },
        {
            "positions": [
                -0.07612700288203499,
                -1.239477085568035,
                2.1637147229777045,
                -0.8827189289814213,
                0.5972606652351907,
                3.128638805544275
            ]
        },
        {
            "positions": [
                -0.1424398520650874,
                -1.27280786518301,
                2.227770477266609,
                -0.9168023044066184,
                0.7531520339700172,
                3.14128744624344
            ]
        },
        {
            "positions": [
                -0.20875270124813988,
                -1.306138644797985,
                2.291826231555514,
                -0.9508856798318155,
                0.9090434027048436,
                3.1539360869426054
            ]
        },
        {
            "positions": [
                -0.27506555043119224,
                -1.33946942441296,
                2.3558819858444187,
                -0.9849690552570125,
                1.06493477143967,
                3.1665847276417702
            ]
        },
        {
            "positions": [
                -0.3413783996142447,
                -1.372800204027935,
                2.4199377401333235,
                -1.0190524306822095,
                1.2208261401744964,
                3.1792333683409355
            ]
        }
    ]
}{
    "goal": {
        "global_pose": {
            "orientation": {
                "w": 0.5084816217422485,
                "x": -0.49083608388900757,
                "y": 0.5182115435600281,
                "z": -0.4816462993621826
            },
            "position": {
                "x": 0.5540239810943604,
                "y": 0.030875300988554955,
                "z": 0.16403168439865112
            }
        },
        "name": "move_to_storage_A"
    },
    "id": "FMT_move_to_storage_A_80",
    "joint_names": [
        "shoulder_pan_joint",
        "shoulder_lift_joint",
        "elbow_joint",
        "wrist_1_joint",
        "wrist_2_joint",
        "wrist_3_joint"
    ],
    "metrics": {
        "cart_traj_len": 0.3535502913561946,
        "distance_elbow_joint": 0.4505673195078126,
        "distance_shoulder_lift_joint": 0.23293775465951638,
        "distance_shoulder_pan_joint": 0.46359387910382527,
        "distance_wrist_1_joint": 0.2501071578451588,
        "distance_wrist_2_joint": 1.0932556705890304,
        "distance_wrist_3_joint": 0.09214832285079666,
        "smoothness": 1.1102230244806396e-15,
        "time": 0.39485677300000005,
        "traj_len": 1.6070501250913551,
        "weighted_distance": 2.027379978862355
    },
    "planner": "FMT",
    "start": {
        "state": {
            "elbow_joint": 1.9715472970024885,
            "shoulder_lift_joint": -1.1394870060712896,
            "shoulder_pan_joint": 0.12281152778156021,
            "wrist_1_joint": -0.780463741449964,
            "wrist_2_joint": 0.12958659822042276,
            "wrist_3_joint": 3.090690232415272
        }
    },
    "waypoints": [
        {
            "positions": [
                0.12281152778156021,
                -1.1394870060712896,
                1.9715472970024885,
                -0.780463741449964,
                0.12958659822042276,
                3.090690232415272
            ]
        },
        {
            "positions": [
                0.056583830766728044,
                -1.1727638281655062,
                2.035914056932176,
                -0.8161933354278438,
                0.2857659797331414,
                3.103854278536814
            ]
        },
        {
            "positions": [
                -0.009643866248104122,
                -1.206040650259723,
                2.1002808168618636,
                -0.8519229294057237,
                0.44194536124586004,
                3.1170183246583565
            ]
        },
        {
            "positions": [
                -0.07587156326293629,
                -1.2393174723539395,
                2.164647576791551,
                -0.8876525233836035,
                0.5981247427585786,
                3.130182370779899
            ]
        },
        {
            "positions": [
                -0.14209926027776845,
                -1.272594294448156,
                2.2290143367212387,
                -0.9233821173614833,
                0.7543041242712972,
                3.1433464169014416
            ]
        },
        {
            "positions": [
                -0.20832695729260067,
                -1.3058711165423729,
                2.293381096650926,
                -0.9591117113393631,
                0.9104835057840159,
                3.156510463022984
            ]
        },
        {
            "positions": [
                -0.27455465430743276,
                -1.3391479386365894,
                2.3577478565806134,
                -0.9948413053172429,
                1.0666628872967345,
                3.169674509144526
            ]
        },
        {
            "positions": [
                -0.34078235132226503,
                -1.372424760730806,
                2.422114616510301,
                -1.0305708992951228,
                1.2228422688094531,
                3.1828385552660685
            ]
        }
    ]
}