{
    "goal": {
        "global_pose": {
            "orientation": {
                "w": 0.005598929693374612,
                "x": 0.007748599140229565,
                "y": 0.7110244013736278,
                "z": -0.7031023480610252
            },
            "position": {
                "x": -0.8858502320852131,
                "y": -0.7141253447532654,
                "z": 0.3711530566215515
            }
        },
        "name": "move_to_auspresseinheit_C"
    },
    "id": "FMT_move_to_auspresseinheit_C_121",
    "joint_names": [
        "shoulder_pan_joint",
        "shoulder_lift_joint",
        "elbow_joint",
        "wrist_1_joint",
        "wrist_2_joint",
        "wrist_3_joint"
    ],
    "metrics": {
        "cart_traj_len": 0.4934809440892572,
        "distance_elbow_joint": 0.9938111568915435,
        "distance_shoulder_lift_joint": 0.3216076656238589,
        "distance_shoulder_pan_joint": 0.2564913244015834,
        "distance_wrist_1_joint": 0.6589302667140552,
        "distance_wrist_2_joint": 1.315416919041163,
        "distance_wrist_3_joint": 0.039623070682414774,
        "smoothness": 3.2297397080004555e-16,
        "time": 0.5167432329999999,
        "traj_len": 1.8936421001220423,
        "weighted_distance": 2.374757615099837
    },
    "planner": "FMT",
    "start": {
        "state": {
            "elbow_joint": 1.7527959577737207,
            "shoulder_lift_joint": -0.9740617694225068,
            "shoulder_pan_joint": -2.967991417825858,
            "wrist_1_joint": -0.759517768980727,
            "wrist_2_joint": 1.7443932448377408,
            "wrist_3_joint": -3.0840537646736568
        }
    },
    "waypoints": [
        {
            "positions": [
                -2.967991417825858,
                -0.9740617694225068,
                1.7527959577737207,
                -0.759517768980727,
                1.7443932448377408,
                -3.0840537646736568
            ]
        },
        {
            "positions": [
                -2.9423422853856995,
                -0.9419010028601209,
                1.6534148420845662,
                -0.6936247423093215,
                1.6128515529336245,
                -3.0880160717418983
            ]
        },
        {
            "positions": [
                -2.916693152945541,
                -0.909740236297735,
                1.5540337263954118,
                -0.627731715637916,
                1.4813098610295081,
                -3.09197837881014
            ]
        },
        {
            "positions": [
                -2.891044020505383,
                -0.8775794697353491,
                1.4546526107062576,
                -0.5618386889665105,
                1.349768169125392,
                -3.0959406858783813
            ]
        },
        {
            "positions": [
                -2.8653948880652247,
                -0.8454187031729632,
                1.3552714950171032,
                -0.4959456622951049,
                1.2182264772212754,
                -3.099902992946623
            ]
        },
        {
            "positions": [
                -2.8397457556250663,
                -0.8132579366105773,
                1.255890379327949,
                -0.4300526356236994,
                1.0866847853171593,
                -3.1038653000148644
            ]
        },
        {
            "positions": [
                -2.814096623184908,
                -0.7810971700481915,
                1.1565092636387946,
                -0.3641596089522939,
                0.955143093413043,
                -3.1078276070831055
            ]
        },
        {
            "positions": [
                -2.7884474907447494,
                -0.7489364034858056,
                1.0571281479496402,
                -0.29826658228088837,
                0.8236014015089267,
                -3.111789914151347
            ]
        },
        {
            "positions": [
                -2.7627983583045914,
                -0.7167756369234197,
                0.9577470322604857,
                -0.2323735556094828,
                0.6920597096048102,
                -3.1157522212195885
            ]
        },
        {
            "positions": [
                -2.737149225864433,
                -0.6846148703610337,
                0.8583659165713314,
                -0.1664805289380773,
                0.5605180177006941,
                -3.11971452828783
            ]
        },
        {
            "positions": [
                -2.7115000934242746,
                -0.6524541037986479,
                0.7589848008821771,
                -0.10058750226667176,
                0.42897632579657785,
                -3.1236768353560715
            ]
        }
    ]
}