{
    "goal": {
        "global_pose": {
            "orientation": {
                "w": 0.7031023502349854,
                "x": -0.7110244035720825,
                "y": 0.007748599164187908,
                "z": 0.005598929710686207
            },
            "position": {
                "x": 0.11585023208521307,
                "y": 0.44412534475326537,
                "z": 0.3711530566215515
            }
        },
        "name": "move_to_auspresseinheit_A"
    },
    "id": "FMT_move_to_auspresseinheit_A_86",
    "joint_names": [
        "shoulder_pan_joint",
        "shoulder_lift_joint",
        "elbow_joint",
        "wrist_1_joint",
        "wrist_2_joint",
        "wrist_3_joint"
    ],
    "metrics": {
        "cart_traj_len": 1.0049114491875684,
        "distance_elbow_joint": 0.5600496468849134,
        "distance_shoulder_lift_joint": 0.7197710035890552,
        "distance_shoulder_pan_joint": 1.0432880614655091,
        "distance_wrist_1_joint": 2.9090958374908507,
        "distance_wrist_2_joint": 1.0228991273993233,
        "distance_wrist_3_joint": 0.6598061356145242,
        "smoothness": 1.3454179453812045,
        "time": 1.42964182,
        "traj_len": 2.629621610126479,
        "weighted_distance": 3.488053475588268
    },
    "planner": "FMT",
    "start": {
        "state": {
            "elbow_joint": 2.4225746658250005,
            "shoulder_lift_joint": -1.3736534386056498,
            "shoulder_pan_joint": -0.3378633547517467,
            "wrist_1_joint": -1.0288598680537169,
            "wrist_2_joint": 1.233022673432363,
            "wrist_3_joint": -3.0940220416140027
        }
    },
    "waypoints": [
        {
            "positions": [
                -0.3378633547517467,
                -1.3736534386056498,
                2.4225746658250005,
                -1.0288598680537169,
                1.233022673432363,
                -3.0940220416140027
            ]
        },
        {
            "positions": [
                -0.2696529105184616,
                -1.426871445392631,
                2.431905825865624,
                -0.8707999138739547,
                1.1624497001839995,
                -3.073374569997846
            ]
        },
        {
            "positions": [
                -0.20144246628517645,
                -1.4800894521796122,
                2.441236985906247,
                -0.7127399596941926,
                1.091876726935636,
                -3.0527270983816894
            ]
        },
        {
            "positions": [
                -0.13323202205189136,
                -1.5333074589665934,
                2.4505681459468702,
                -0.5546800055144304,
                1.0213037536872727,
                -3.0320796267655328
            ]
        },
        {
            "positions": [
                -0.06502157781860618,
                -1.5865254657535748,
                2.4598993059874936,
                -0.39662005133466816,
                0.9507307804389091,
                -3.011432155149376
            ]
        },
        {
            "positions": [
                0.0031888664146789147,
                -1.639743472540556,
                2.469230466028117,
                -0.23856009715490611,
                0.8801578071905456,
                -2.9907846835332195
            ]
        },
        {
            "positions": [
                0.07139931064796401,
                -1.6929614793275372,
                2.47856162606874,
                -0.08050014297514396,
                0.8095848339421821,
                -2.9701372119170633
            ]
        },
        {
            "positions": [
                0.13960975488124916,
                -1.7461794861145183,
                2.4878927861093634,
                0.0775598112046183,
                0.7390118606938185,
                -2.9494897403009066
            ]
        },
        {
            "positions": [
                0.20782019911453437,
                -1.7993974929014995,
                2.4972239461499868,
                0.23561976538438056,
                0.6684388874454551,
                -2.92884226868475
            ]
        },
        {
            "positions": [
                0.2760306433478195,
                -1.852615499688481,
                2.50655510619061,
                0.3936797195641426,
                0.5978659141970916,
                -2.9081947970685933
            ]
        },
        {
            "positions": [
                0.34424108758110455,
                -1.905833506475462,
                2.515886266231233,
                0.5517396737439046,
                0.5272929409487281,
                -2.8875473254524366
            ]
        },
        {
            "positions": [
                0.41245153181438976,
                -1.9590515132624433,
                2.5252174262718565,
                0.7097996279236668,
                0.45671996770036455,
                -2.86689985383628
            ]
        },
        {
            "positions": [
                0.4562878938812731,
                -1.965908097524195,
                2.5522927906742674,
                0.5330515849472637,
                0.4761636335809407,
                -2.9257008542211578
            ]
        },
        {
            "positions": [
                0.5001242559481565,
                -1.9727646817859468,
                2.5793681550766783,
                0.35630354197086045,
                0.4956072994615169,
                -2.9845018546060356
            ]
        },
        {
            "positions": [
                0.5439606180150398,
                -1.9796212660476984,
                2.6064435194790887,
                0.17955549899445722,
                0.515050965342093,
                -3.0433028549909134
            ]
        },
        {
            "positions": [
                0.5877969800819232,
                -1.98647785030945,
                2.6335188838814996,
                0.0028074560180540997,
                0.5344946312226692,
                -3.1021038553757907
            ]
        },
        {
            "positions": [
                0.6316333421488065,
                -1.9933344345712019,
                2.6605942482839104,
                -0.17394058695834924,
                0.5539382971032454,
                -3.1609048557606685
            ]
        },
        {
            "positions": [
                0.6754697042156899,
                -2.0001910188329535,
                2.6876696126863213,
                -0.3506886299347524,
                0.5733819629838215,
                -3.2197058561455463
            ]
        },
        {
            "positions": [
                0.6904472054647262,
                -1.9535743071520777,
                2.540192262674525,
                -0.4056626717622762,
                0.6383491761757556,
                -3.1797668833817787
            ]
        },
        {
            "positions": [
                0.7054247067137623,
                -1.906957595471202,
                2.3927149126627287,
                -0.46063671358979996,
                0.7033163893676896,
                -3.139827910618011
            ]
        }
    ]
}