{
    "goal": {
        "global_pose": {
            "orientation": {
                "w": -0.00223480608172531,
                "x": 0.0024358444001904467,
                "y": 0.7094548369677653,
                "z": -0.704743149386269
            },
            "position": {
                "x": -0.37947507619857795,
                "y": -0.6371506643295288,
                "z": 0.19426114857196808
            }
        },
        "name": "move_to_magneteinheit_C"
    },
    "id": "FMT_move_to_magneteinheit_C_117",
    "joint_names": [
        "shoulder_pan_joint",
        "shoulder_lift_joint",
        "elbow_joint",
        "wrist_1_joint",
        "wrist_2_joint",
        "wrist_3_joint"
    ],
    "metrics": {
        "cart_traj_len": 0.9371522853625746,
        "distance_elbow_joint": 0.7578783795269248,
        "distance_shoulder_lift_joint": 1.6756234297393389,
        "distance_shoulder_pan_joint": 0.9123157411513876,
        "distance_wrist_1_joint": 1.7644230648779913,
        "distance_wrist_2_joint": 0.8954903915313202,
        "distance_wrist_3_joint": 0.02963568190219501,
        "smoothness": 1.1156132448321485,
        "time": 1.178871062,
        "traj_len": 2.4566983308353425,
        "weighted_distance": 2.9588091369574445
    },
    "planner": "FMT",
    "start": {
        "state": {
            "elbow_joint": 1.9565354010623817,
            "shoulder_lift_joint": -1.4165861575791021,
            "shoulder_pan_joint": -1.6717766225146293,
            "wrist_1_joint": -0.5286633292919765,
            "wrist_2_joint": 1.472756589071564,
            "wrist_3_joint": -3.1238370188695823
        }
    },
    "waypoints": [
        {
            "positions": [
                -1.6717766225146293,
                -1.4165861575791021,
                1.9565354010623817,
                -0.5286633292919765,
                1.472756589071564,
                -3.1238370188695823
            ]
        },
        {
            "positions": [
                -1.757454605342406,
                -1.4877331379066239,
                1.9971166768335071,
                -0.45545148392110074,
                1.3883008135697419,
                -3.1260206685663277
            ]
        },
        {
            "positions": [
                -1.843132588170183,
                -1.5588801182341454,
                2.0376979526046326,
                -0.382239638550225,
                1.3038450380679198,
                -3.1282043182630734
            ]
        },
        {
            "positions": [
                -1.9288105709979597,
                -1.6300270985616672,
                2.078279228375758,
                -0.3090277931793493,
                1.2193892625660978,
                -3.1303879679598188
            ]
        },
        {
            "positions": [
                -2.0144885538257364,
                -1.701174078889189,
                2.1188605041468835,
                -0.2358159478084736,
                1.1349334870642758,
                -3.1325716176565646
            ]
        },
        {
            "positions": [
                -2.1001665366535134,
                -1.7723210592167105,
                2.1594417799180086,
                -0.16260410243759787,
                1.0504777115624537,
                -3.13475526735331
            ]
        },
        {
            "positions": [
                -2.18584451948129,
                -1.8434680395442322,
                2.200023055689134,
                -0.08939225706672216,
                0.9660219360606318,
                -3.1369389170500552
            ]
        },
        {
            "positions": [
                -2.271522502309067,
                -1.914615019871754,
                2.2406043314602595,
                -0.016180411695846497,
                0.8815661605588098,
                -3.139122566746801
            ]
        },
        {
            "positions": [
                -2.3572004851368438,
                -1.9857620001992755,
                2.281185607231385,
                0.057031433675029275,
                0.7971103850569876,
                -3.1413062164435464
            ]
        },
        {
            "positions": [
                -2.4428784679646203,
                -2.0569089805267975,
                2.3217668830025104,
                0.13024327904590505,
                0.7126546095551657,
                -3.143489866140292
            ]
        },
        {
            "positions": [
                -2.528556450792397,
                -2.128055960854319,
                2.362348158773636,
                0.20345512441678068,
                0.6281988340533436,
                -3.1456735158370375
            ]
        },
        {
            "positions": [
                -2.5206227489533086,
                -1.9903197285023015,
                2.312053069942826,
                0.05598303710689009,
                0.6354749249837864,
                -3.146787685113429
            ]
        },
        {
            "positions": [
                -2.51268904711422,
                -1.8525834961502843,
                2.261757981112016,
                -0.0914890502030005,
                0.6427510159142293,
                -3.1479018543898203
            ]
        },
        {
            "positions": [
                -2.5047553452751314,
                -1.7148472637982668,
                2.211462892281206,
                -0.23896113751289108,
                0.6500271068446721,
                -3.1490160236662117
            ]
        },
        {
            "positions": [
                -2.4968216434360433,
                -1.5771110314462495,
                2.1611678034503954,
                -0.38643322482278164,
                0.657303197775115,
                -3.150130192942603
            ]
        },
        {
            "positions": [
                -2.4888879415969547,
                -1.439374799094232,
                2.1108727146195854,
                -0.5339053121326723,
                0.6645792887055578,
                -3.1512443622189945
            ]
        },
        {
            "positions": [
                -2.480954239757866,
                -1.3016385667422146,
                2.0605776257887753,
                -0.6813773994425628,
                0.6718553796360007,
                -3.152358531495386
            ]
        },
        {
            "positions": [
                -2.4730205379187775,
                -1.163902334390197,
                2.0102825369579653,
                -0.8288494867524535,
                0.6791314705664435,
                -3.1534727007717773
            ]
        }
    ]
}