{
    "goal": {
        "global_pose": {
            "orientation": {
                "w": -0.4816463035849501,
                "x": 0.5182115481033762,
                "y": 0.4908360881923453,
                "z": -0.5084816262002911
            },
            "position": {
                "x": -0.8240239810943604,
                "y": -0.300875300988555,
                "z": 0.16403168439865112
            }
        },
        "name": "move_to_storage_C"
    },
    "id": "FMT_move_to_storage_C_41",
    "joint_names": [
        "shoulder_pan_joint",
        "shoulder_lift_joint",
        "elbow_joint",
        "wrist_1_joint",
        "wrist_2_joint",
        "wrist_3_joint"
    ],
    "metrics": {
        "cart_traj_len": 0.5772233607576213,
        "distance_elbow_joint": 0.25640703948935495,
        "distance_shoulder_lift_joint": 0.18868371591614874,
        "distance_shoulder_pan_joint": 0.4963510313751862,
        "distance_wrist_1_joint": 0.07146114208749799,
        "distance_wrist_2_joint": 1.0601768945122654,
        "distance_wrist_3_joint": 0.0693440646191461,
        "smoothness": 2.5376526478085547e-16,
        "time": 0.320692415,
        "traj_len": 1.4637021172354707,
        "weighted_distance": 1.847363000018582
    },
    "planner": "FMT",
    "start": {
        "state": {
            "elbow_joint": 2.010868314990456,
            "shoulder_lift_joint": -1.1634956873337592,
            "shoulder_pan_joint": -2.4736205022346125,
            "wrist_1_joint": -0.8367026794202681,
            "wrist_2_joint": 0.6746043897044499,
            "wrist_3_joint": -3.1496632123970403
        }
    },
    "waypoints": [
        {
            "positions": [
                -2.4736205022346125,
                -1.1634956873337592,
                2.010868314990456,
                -0.8367026794202681,
                0.6746043897044499,
                -3.1496632123970403
            ]
        },
        {
            "positions": [
                -2.556345674130477,
                -1.1320484013477343,
                1.9681338084088966,
                -0.8247924890723518,
                0.8513005387898275,
                -3.138105868293849
            ]
        },
        {
            "positions": [
                -2.6390708460263412,
                -1.1006011153617097,
                1.9253993018273374,
                -0.8128822987244354,
                1.0279966878752052,
                -3.126548524190658
            ]
        },
        {
            "positions": [
                -2.7217960179222054,
                -1.0691538293756848,
                1.8826647952457782,
                -0.8009721083765191,
                1.2046928369605827,
                -3.1149911800874674
            ]
        },
        {
            "positions": [
                -2.80452118981807,
                -1.03770654338966,
                1.8399302886642193,
                -0.7890619180286028,
                1.3813889860459603,
                -3.1034338359842764
            ]
        },
        {
            "positions": [
                -2.8872463617139346,
                -1.0062592574036353,
                1.79719578208266,
                -0.7771517276806864,
                1.5580851351313378,
                -3.0918764918810853
            ]
        },
        {
            "positions": [
                -2.9699715336097987,
                -0.9748119714176104,
                1.7544612755011009,
                -0.7652415373327701,
                1.7347812842167152,
                -3.080319147777894
            ]
        }
    ]
}