{
    "goal": {
        "global_pose": {
            "orientation": {
                "w": 0.7031023480610252,
                "x": -0.7110244013736278,
                "y": 0.0077485991402295624,
                "z": 0.005598929693374583
            },
            "position": {
                "x": -0.8841497679147869,
                "y": 0.44412534475326537,
                "z": 0.3711530566215515
            }
        },
        "name": "move_to_auspresseinheit_D"
    },
    "id": "FMT_move_to_auspresseinheit_D_148",
    "joint_names": [
        "shoulder_pan_joint",
        "shoulder_lift_joint",
        "elbow_joint",
        "wrist_1_joint",
        "wrist_2_joint",
        "wrist_3_joint"
    ],
    "metrics": {
        "cart_traj_len": 0.34259948631608783,
        "distance_elbow_joint": 0.6305747881052646,
        "distance_shoulder_lift_joint": 0.11779725252018602,
        "distance_shoulder_pan_joint": 0.13444889978887226,
        "distance_wrist_1_joint": 0.508030191899445,
        "distance_wrist_2_joint": 1.4331944210029748,
        "distance_wrist_3_joint": 0.018288110400376034,
        "smoothness": 1.381610878086344e-15,
        "time": 0.412255547,
        "traj_len": 1.6859221997818044,
        "weighted_distance": 2.1954804707444544
    },
    "planner": "FMT",
    "start": {
        "state": {
            "elbow_joint": -1.8275523626775212,
            "shoulder_lift_joint": -2.126789852344167,
            "shoulder_pan_joint": -0.03513704404078235,
            "wrist_1_joint": -2.347782403156801,
            "wrist_2_joint": -1.6058999987535132,
            "wrist_3_joint": -3.0880379163319196
        }
    },
    "waypoints": [
        {
            "positions": [
                -0.03513704404078235,
                -2.126789852344167,
                -1.8275523626775212,
                -2.347782403156801,
                -1.6058999987535132,
                -3.0880379163319196
            ]
        },
        {
            "positions": [
                -0.05194315651439138,
                -2.1415145089091903,
                -1.7487305141643632,
                -2.4112861771442313,
                -1.4267506961281413,
                -3.0903239301319667
            ]
        },
        {
            "positions": [
                -0.0687492689880004,
                -2.1562391654742132,
                -1.669908665651205,
                -2.4747899511316622,
                -1.2476013935027694,
                -3.092609943932014
            ]
        },
        {
            "positions": [
                -0.08555538146160944,
                -2.1709638220392367,
                -1.591086817138047,
                -2.5382937251190927,
                -1.0684520908773978,
                -3.0948959577320605
            ]
        },
        {
            "positions": [
                -0.10236149393521848,
                -2.18568847860426,
                -1.5122649686248888,
                -2.6017974991065236,
                -0.8893027882520258,
                -3.0971819715321076
            ]
        },
        {
            "positions": [
                -0.11916760640882751,
                -2.200413135169283,
                -1.4334431201117308,
                -2.665301273093954,
                -0.7101534856266539,
                -3.0994679853321547
            ]
        },
        {
            "positions": [
                -0.13597371888243653,
                -2.2151377917343065,
                -1.3546212715985728,
                -2.7288050470813845,
                -0.5310041830012822,
                -3.1017539991322014
            ]
        },
        {
            "positions": [
                -0.1527798313560456,
                -2.2298624482993294,
                -1.2757994230854148,
                -2.7923088210688154,
                -0.3518548803759103,
                -3.1040400129322485
            ]
        },
        {
            "positions": [
                -0.1695859438296546,
                -2.244587104864353,
                -1.1969775745722566,
                -2.855812595056246,
                -0.17270557775053838,
                -3.1063260267322956
            ]
        }
    ]
}