{
    "goal": {
        "global_pose": {
            "orientation": {
                "w": 0.005598929693374612,
                "x": 0.007748599140229565,
                "y": 0.7110244013736278,
                "z": -0.7031023480610252
            },
            "position": {
                "x": -0.8858502320852131,
                "y": -0.7141253447532654,
                "z": 0.3711530566215515
            }
        },
        "name": "move_to_auspresseinheit_C"
    },
    "id": "FMT_move_to_auspresseinheit_C_73",
    "joint_names": [
        "shoulder_pan_joint",
        "shoulder_lift_joint",
        "elbow_joint",
        "wrist_1_joint",
        "wrist_2_joint",
        "wrist_3_joint"
    ],
    "metrics": {
        "cart_traj_len": 0.4933962681600007,
        "distance_elbow_joint": 0.9940071938066771,
        "distance_shoulder_lift_joint": 0.3217498126435958,
        "distance_shoulder_pan_joint": 0.25618083167083094,
        "distance_wrist_1_joint": 0.6570956886965197,
        "distance_wrist_2_joint": 1.3146953968985606,
        "distance_wrist_3_joint": 0.03386550752607986,
        "smoothness": 4.844609600361787e-16,
        "time": 0.45556337900000005,
        "traj_len": 1.8914529947218524,
        "weighted_distance": 2.3700456813929778
    },
    "planner": "FMT",
    "start": {
        "state": {
            "elbow_joint": 1.7527959577737207,
            "shoulder_lift_joint": -0.9740617694225068,
            "shoulder_pan_joint": -2.967991417825858,
            "wrist_1_joint": -0.759517768980727,
            "wrist_2_joint": 1.7443932448377408,
            "wrist_3_joint": -3.0840537646736568
        }
    },
    "waypoints": [
        {
            "positions": [
                -2.967991417825858,
                -0.9740617694225068,
                1.7527959577737207,
                -0.759517768980727,
                1.7443932448377408,
                -3.0840537646736568
            ]
        },
        {
            "positions": [
                -2.942373334658775,
                -0.9418867881581472,
                1.653395238393053,
                -0.693808200111075,
                1.6129237051478849,
                -3.0874403154262646
            ]
        },
        {
            "positions": [
                -2.9167552514916917,
                -0.9097118068937876,
                1.5539945190123852,
                -0.6280986312414231,
                1.4814541654580287,
                -3.090826866178873
            ]
        },
        {
            "positions": [
                -2.8911371683246085,
                -0.877536825629428,
                1.4545937996317175,
                -0.5623890623717711,
                1.3499846257681727,
                -3.0942134169314808
            ]
        },
        {
            "positions": [
                -2.8655190851575254,
                -0.8453618443650684,
                1.3551930802510497,
                -0.4966794935021191,
                1.2185150860783165,
                -3.0975999676840886
            ]
        },
        {
            "positions": [
                -2.8399010019904427,
                -0.8131868631007089,
                1.255792360870382,
                -0.43096992463246714,
                1.0870455463884605,
                -3.100986518436697
            ]
        },
        {
            "positions": [
                -2.8142829188233596,
                -0.7810118818363493,
                1.1563916414897144,
                -0.3652603557628152,
                0.9555760066986044,
                -3.104373069189305
            ]
        },
        {
            "positions": [
                -2.7886648356562764,
                -0.7488369005719897,
                1.0569909221090468,
                -0.2995507868931632,
                0.8241064670087485,
                -3.1077596199419126
            ]
        },
        {
            "positions": [
                -2.7630467524891933,
                -0.7166619193076301,
                0.9575902027283789,
                -0.2338412180235112,
                0.6926369273188924,
                -3.1111461706945205
            ]
        },
        {
            "positions": [
                -2.73742866932211,
                -0.6844869380432705,
                0.8581894833477113,
                -0.16813164915385925,
                0.5611673876290362,
                -3.114532721447129
            ]
        },
        {
            "positions": [
                -2.711810586155027,
                -0.652311956778911,
                0.7587887639670435,
                -0.10242208028420732,
                0.4296978479391803,
                -3.1179192721997366
            ]
        }
    ]
}