{
    "goal": {
        "global_pose": {
            "orientation": {
                "w": 0.5084816217422485,
                "x": -0.49083608388900757,
                "y": 0.5182115435600281,
                "z": -0.4816462993621826
            },
            "position": {
                "x": 0.5540239810943604,
                "y": 0.030875300988554955,
                "z": 0.16403168439865112
            }
        },
        "name": "move_to_storage_A"
    },
    "id": "FMT_move_to_storage_A_56",
    "joint_names": [
        "shoulder_pan_joint",
        "shoulder_lift_joint",
        "elbow_joint",
        "wrist_1_joint",
        "wrist_2_joint",
        "wrist_3_joint"
    ],
    "metrics": {
        "cart_traj_len": 0.3531914054497263,
        "distance_elbow_joint": 0.44938593249882497,
        "distance_shoulder_lift_joint": 0.23451044875663696,
        "distance_shoulder_pan_joint": 0.462370770199463,
        "distance_wrist_1_joint": 0.2387039580377016,
        "distance_wrist_2_joint": 1.0969184428940009,
        "distance_wrist_3_joint": 0.09500387622593243,
        "smoothness": 8.881784197001252e-16,
        "time": 0.372973254,
        "traj_len": 1.605270515711467,
        "weighted_distance": 2.025468731428883
    },
    "planner": "FMT",
    "start": {
        "state": {
            "elbow_joint": 1.971548259319323,
            "shoulder_lift_joint": -1.1394851275133948,
            "shoulder_pan_joint": 0.1228115487234821,
            "wrist_1_joint": -0.7804723859257726,
            "wrist_2_joint": 0.12958671773740124,
            "wrist_3_joint": -3.192489227718131
        }
    },
    "waypoints": [
        {
            "positions": [
                0.1228115487234821,
                -1.1394851275133948,
                1.971548259319323,
                -0.7804723859257726,
                0.12958671773740124,
                -3.192489227718131
            ]
        },
        {
            "positions": [
                0.05675858155213025,
                -1.1729866201929144,
                2.035746249676298,
                -0.81457295135973,
                0.2862893524365442,
                -3.178917245400141
            ]
        },
        {
            "positions": [
                -0.009294385619221607,
                -1.2064881128724338,
                2.099944240033273,
                -0.8486735167936874,
                0.4429919871356872,
                -3.1653452630821506
            ]
        },
        {
            "positions": [
                -0.07534735279057345,
                -1.2399896055519535,
                2.164142230390248,
                -0.8827740822276448,
                0.5996946218348301,
                -3.1517732807641603
            ]
        },
        {
            "positions": [
                -0.1414003199619253,
                -1.273491098231473,
                2.228340220747223,
                -0.9168746476616021,
                0.7563972565339732,
                -3.1382012984461696
            ]
        },
        {
            "positions": [
                -0.2074532871332772,
                -1.3069925909109927,
                2.292538211104198,
                -0.9509752130955595,
                0.9130998912331162,
                -3.1246293161281793
            ]
        },
        {
            "positions": [
                -0.273506254304629,
                -1.3404940835905121,
                2.356736201461173,
                -0.9850757785295168,
                1.069802525932259,
                -3.111057333810189
            ]
        },
        {
            "positions": [
                -0.3395592214759809,
                -1.3739955762700318,
                2.420934191818148,
                -1.0191763439634742,
                1.2265051606314021,
                -3.0974853514921987
            ]
        }
    ]
}{
    "goal": {
        "global_pose": {
            "orientation": {
                "w": 0.5084816217422485,
                "x": -0.49083608388900757,
                "y": 0.5182115435600281,
                "z": -0.4816462993621826
            },
            "position": {
                "x": 0.5540239810943604,
                "y": 0.030875300988554955,
                "z": 0.16403168439865112
            }
        },
        "name": "move_to_storage_A"
    },
    "id": "FMT_move_to_storage_A_56",
    "joint_names": [
        "shoulder_pan_joint",
        "shoulder_lift_joint",
        "elbow_joint",
        "wrist_1_joint",
        "wrist_2_joint",
        "wrist_3_joint"
    ],
    "metrics": {
        "cart_traj_len": 0.35355087945270364,
        "distance_elbow_joint": 0.4481720041748911,
        "distance_shoulder_lift_joint": 0.23692011161474857,
        "distance_shoulder_pan_joint": 0.461123387039581,
        "distance_wrist_1_joint": 0.23230021375763932,
        "distance_wrist_2_joint": 1.1058309644808237,
        "distance_wrist_3_joint": 0.08776950155762675,
        "smoothness": 2.2204460668324854e-16,
        "time": 0.550108588,
        "traj_len": 1.603781837603017,
        "weighted_distance": 2.0213328187062682
    },
    "planner": "FMT",
    "start": {
        "state": {
            "elbow_joint": 1.97154746011099,
            "shoulder_lift_joint": -1.13948474672311,
            "shoulder_pan_joint": 0.12281154466712228,
            "wrist_1_joint": -0.7804688027058302,
            "wrist_2_joint": 0.12958655903071145,
            "wrist_3_joint": 3.0906928834467795
        }
    },
    "waypoints": [
        {
            "positions": [
                0.12281154466712228,
                -1.13948474672311,
                1.97154746011099,
                -0.7804688027058302,
                0.12958655903071145,
                3.0906928834467795
            ]
        },
        {
            "positions": [
                0.05693677509003929,
                -1.1733304769537882,
                2.0355720321359745,
                -0.8136545475283501,
                0.28756241109940056,
                3.1032313836692977
            ]
        },
        {
            "positions": [
                -0.008937994487043702,
                -1.2071762071844667,
                2.0995966041609586,
                -0.84684029235087,
                0.44553826316808964,
                3.1157698838918155
            ]
        },
        {
            "positions": [
                -0.0748127640641267,
                -1.241021937415145,
                2.163621176185943,
                -0.8800260371733899,
                0.6035141152367788,
                3.1283083841143338
            ]
        },
        {
            "positions": [
                -0.14068753364120967,
                -1.2748676676458235,
                2.2276457482109278,
                -0.9132117819959098,
                0.7614899673054679,
                3.140846884336852
            ]
        },
        {
            "positions": [
                -0.20656230321829272,
                -1.3087133978765018,
                2.2916703202359123,
                -0.9463975268184297,
                0.9194658193741571,
                3.1533853845593702
            ]
        },
        {
            "positions": [
                -0.27243707279537566,
                -1.34255912810718,
                2.3556948922608965,
                -0.9795832716409496,
                1.077441671442846,
                3.165923884781888
            ]
        },
        {
            "positions": [
                -0.3383118423724587,
                -1.3764048583378585,
                2.419719464285881,
                -1.0127690164634695,
                1.2354175235115352,
                3.1784623850044063
            ]
        }
    ]
}{
    "goal": {
        "global_pose": {
            "orientation": {
                "w": 0.5084816217422485,
                "x": -0.49083608388900757,
                "y": 0.5182115435600281,
                "z": -0.4816462993621826
            },
            "position": {
                "x": 0.5540239810943604,
                "y": 0.030875300988554955,
                "z": 0.16403168439865112
            }
        },
        "name": "move_to_storage_A"
    },
    "id": "FMT_move_to_storage_A_56",
    "joint_names": [
        "shoulder_pan_joint",
        "shoulder_lift_joint",
        "elbow_joint",
        "wrist_1_joint",
        "wrist_2_joint",
        "wrist_3_joint"
    ],
    "metrics": {
        "cart_traj_len": 0.3535189165576116,
        "distance_elbow_joint": 0.4484825738832705,
        "distance_shoulder_lift_joint": 0.2360166425353396,
        "distance_shoulder_pan_joint": 0.46390567948533146,
        "distance_wrist_1_joint": 0.23449098737732088,
        "distance_wrist_2_joint": 1.093207598812712,
        "distance_wrist_3_joint": 0.09230870477570718,
        "smoothness": 2.2204460668324854e-16,
        "time": 0.419611859,
        "traj_len": 1.6026266523646988,
        "weighted_distance": 2.0200812316862726
    },
    "planner": "FMT",
    "start": {
        "state": {
            "elbow_joint": 1.9715472970024885,
            "shoulder_lift_joint": -1.1394870060712896,
            "shoulder_pan_joint": 0.12281152778156021,
            "wrist_1_joint": -0.780463741449964,
            "wrist_2_joint": 0.12958659822042276,
            "wrist_3_joint": 3.090690232415272
        }
    },
    "waypoints": [
        {
            "positions": [
                0.12281152778156021,
                -1.1394870060712896,
                1.9715472970024885,
                -0.780463741449964,
                0.12958659822042276,
                3.090690232415272
            ]
        },
        {
            "positions": [
                0.05653928785508429,
                -1.1732036692906238,
                2.03561623612867,
                -0.8139624539324384,
                0.28575911233652446,
                3.103877190240373
            ]
        },
        {
            "positions": [
                -0.009732952071391632,
                -1.206920332509958,
                2.0996851752548515,
                -0.8474611664149128,
                0.4419316264526262,
                3.1170641480654737
            ]
        },
        {
            "positions": [
                -0.07600519199786754,
                -1.2406369957292922,
                2.163754114381033,
                -0.8809598788973872,
                0.5981041405687278,
                3.130251105890575
            ]
        },
        {
            "positions": [
                -0.14227743192434347,
                -1.2743536589486264,
                2.2278230535072145,
                -0.9144585913798616,
                0.7542766546848295,
                3.143438063715676
            ]
        },
        {
            "positions": [
                -0.20854967185081943,
                -1.3080703221679608,
                2.291891992633396,
                -0.9479573038623361,
                0.9104491688009313,
                3.156625021540777
            ]
        },
        {
            "positions": [
                -0.2748219117772953,
                -1.341786985387295,
                2.3559609317595775,
                -0.9814560163448105,
                1.066621682917033,
                3.169811979365878
            ]
        },
        {
            "positions": [
                -0.3410941517037712,
                -1.3755036486066292,
                2.420029870885759,
                -1.0149547288272849,
                1.2227941970331346,
                3.182998937190979
            ]
        }
    ]
}