{
    "goal": {
        "global_pose": {
            "orientation": {
                "w": 0.7031023502349854,
                "x": -0.7110244035720825,
                "y": 0.007748599164187908,
                "z": 0.005598929710686207
            },
            "position": {
                "x": 0.11585023208521307,
                "y": 0.44412534475326537,
                "z": 0.3711530566215515
            }
        },
        "name": "move_to_auspresseinheit_A"
    },
    "id": "FMT_move_to_auspresseinheit_A_28",
    "joint_names": [
        "shoulder_pan_joint",
        "shoulder_lift_joint",
        "elbow_joint",
        "wrist_1_joint",
        "wrist_2_joint",
        "wrist_3_joint"
    ],
    "metrics": {
        "cart_traj_len": 0.686375008565381,
        "distance_elbow_joint": 0.2888350999195719,
        "distance_shoulder_lift_joint": 0.5353818586302548,
        "distance_shoulder_pan_joint": 1.0432023859162993,
        "distance_wrist_1_joint": 2.0357918214109905,
        "distance_wrist_2_joint": 0.5244026102657136,
        "distance_wrist_3_joint": 0.13002796654438553,
        "smoothness": 1.2615124185966127,
        "time": 1.2365378550000001,
        "traj_len": 2.134863401411719,
        "weighted_distance": 2.7162275507498794
    },
    "planner": "FMT",
    "start": {
        "state": {
            "elbow_joint": 2.4225746658250005,
            "shoulder_lift_joint": -1.3736534386056498,
            "shoulder_pan_joint": -0.3378633547517467,
            "wrist_1_joint": -1.0288598680537169,
            "wrist_2_joint": 1.233022673432363,
            "wrist_3_joint": -3.0940220416140027
        }
    },
    "waypoints": [
        {
            "positions": [
                -0.3378633547517467,
                -1.3736534386056498,
                2.4225746658250005,
                -1.0288598680537169,
                1.233022673432363,
                -3.0940220416140027
            ]
        },
        {
            "positions": [
                -0.2754168481460652,
                -1.4326961216670293,
                2.4027161418455716,
                -0.8663736159718973,
                1.1953403544972443,
                -3.1046126951674595
            ]
        },
        {
            "positions": [
                -0.21297034154038372,
                -1.491738804728409,
                2.3828576178661427,
                -0.7038873638900777,
                1.1576580355621258,
                -3.1152033487209163
            ]
        },
        {
            "positions": [
                -0.15052383493470223,
                -1.5507814877897885,
                2.3629990938867134,
                -0.541401111808258,
                1.119975716627007,
                -3.1257940022743735
            ]
        },
        {
            "positions": [
                -0.08807732832902071,
                -1.609824170851168,
                2.3431405699072845,
                -0.37891485972643846,
                1.0822933976918883,
                -3.1363846558278303
            ]
        },
        {
            "positions": [
                -0.025630821723339192,
                -1.6688668539125477,
                2.3232820459278556,
                -0.2164286076446189,
                1.0446110787567697,
                -3.146975309381287
            ]
        },
        {
            "positions": [
                0.03681568488234227,
                -1.7279095369739272,
                2.3034235219484263,
                -0.05394235556279925,
                1.006928759821651,
                -3.1575659629347443
            ]
        },
        {
            "positions": [
                0.09926219148802379,
                -1.7869522200353067,
                2.2835649979689974,
                0.10854389651902041,
                0.9692464408865323,
                -3.168156616488201
            ]
        },
        {
            "positions": [
                0.1617086980937053,
                -1.8459949030966865,
                2.2637064739895685,
                0.27103014860083985,
                0.9315641219514137,
                -3.178747270041658
            ]
        },
        {
            "positions": [
                0.2704347647078748,
                -1.85860298192453,
                2.2896998556063966,
                0.12384978764955315,
                0.8869753101944609,
                -3.169686722418312
            ]
        },
        {
            "positions": [
                0.37916083132204426,
                -1.8712110607523738,
                2.3156932372232246,
                -0.023330573301733548,
                0.842386498437508,
                -3.1606261747949658
            ]
        },
        {
            "positions": [
                0.48788689793621376,
                -1.8838191395802173,
                2.3416866188400522,
                -0.17051093425302016,
                0.7977976866805552,
                -3.1515656271716197
            ]
        },
        {
            "positions": [
                0.5966129645503833,
                -1.896427218408061,
                2.3676800004568803,
                -0.31769129520430694,
                0.7532088749236023,
                -3.1425050795482736
            ]
        },
        {
            "positions": [
                0.7053390311645528,
                -1.9090352972359046,
                2.3936733820737084,
                -0.4648716561555935,
                0.7086200631666495,
                -3.1334445319249276
            ]
        }
    ]
}