{
    "goal": {
        "global_pose": {
            "orientation": {
                "w": -0.00223480608172531,
                "x": 0.0024358444001904467,
                "y": 0.7094548369677653,
                "z": -0.704743149386269
            },
            "position": {
                "x": -0.37947507619857795,
                "y": -0.6371506643295288,
                "z": 0.19426114857196808
            }
        },
        "name": "move_to_magneteinheit_C"
    },
    "id": "FMT_move_to_magneteinheit_C_1",
    "joint_names": [
        "shoulder_pan_joint",
        "shoulder_lift_joint",
        "elbow_joint",
        "wrist_1_joint",
        "wrist_2_joint",
        "wrist_3_joint"
    ],
    "metrics": {
        "cart_traj_len": 2.571068717050239,
        "distance_elbow_joint": 2.3485900044074564,
        "distance_shoulder_lift_joint": 1.2880183455083571,
        "distance_shoulder_pan_joint": 1.6767805010411745,
        "distance_wrist_1_joint": 2.4652023696608025,
        "distance_wrist_2_joint": 1.3009402498191522,
        "distance_wrist_3_joint": 5.98922915749586,
        "smoothness": 1.0260454984154062,
        "time": 1.321031856,
        "traj_len": 3.881850155265245,
        "weighted_distance": 5.55097843288951
    },
    "planner": "FMT",
    "start": {
        "state": {
            "elbow_joint": 1.9565354010623817,
            "shoulder_lift_joint": -1.4165861575791021,
            "shoulder_pan_joint": -1.6717766225146293,
            "wrist_1_joint": -0.5286633292919765,
            "wrist_2_joint": 1.472756589071564,
            "wrist_3_joint": -3.1238370188695823
        }
    },
    "waypoints": [
        {
            "positions": [
                -1.6717766225146293,
                -1.4165861575791021,
                1.9565354010623817,
                -0.5286633292919765,
                1.472756589071564,
                -3.1238370188695823
            ]
        },
        {
            "positions": [
                -1.7275192751380302,
                -1.4301163367279797,
                1.9642458749595546,
                -0.44533518596670096,
                1.5355716929971215,
                -2.971738091393567
            ]
        },
        {
            "positions": [
                -1.7832619277614308,
                -1.443646515876857,
                1.9719563488567278,
                -0.36200704264142547,
                1.598386796922679,
                -2.819639163917552
            ]
        },
        {
            "positions": [
                -1.8390045803848314,
                -1.4571766950257345,
                1.979666822753901,
                -0.2786788993161499,
                1.6612019008482366,
                -2.667540236441537
            ]
        },
        {
            "positions": [
                -1.8947472330082322,
                -1.470706874174612,
                1.9873772966510739,
                -0.19535075599087443,
                1.7240170047737942,
                -2.5154413089655216
            ]
        },
        {
            "positions": [
                -1.864596594316298,
                -1.572245038505345,
                1.9577312862045377,
                -0.1988597946779263,
                1.645112277446156,
                -2.389599198530873
            ]
        },
        {
            "positions": [
                -1.8344459556243642,
                -1.673783202836078,
                1.9280852757580016,
                -0.20236883336497816,
                1.5662075501185178,
                -2.2637570880962246
            ]
        },
        {
            "positions": [
                -1.8042953169324303,
                -1.7753213671668109,
                1.8984392653114655,
                -0.20587787205203,
                1.4873028227908793,
                -2.1379149776615756
            ]
        },
        {
            "positions": [
                -1.7741446782404962,
                -1.8768595314975438,
                1.8687932548649293,
                -0.2093869107390819,
                1.4083980954632411,
                -2.012072867226927
            ]
        },
        {
            "positions": [
                -1.8588661809549767,
                -1.8815988460984638,
                1.7828717290238512,
                -0.1464382117905907,
                1.407915778144209,
                -1.8563821743686564
            ]
        },
        {
            "positions": [
                -1.9435876836694574,
                -1.8863381606993839,
                1.6969502031827732,
                -0.08348951284209949,
                1.4074334608251773,
                -1.7006914815103857
            ]
        },
        {
            "positions": [
                -2.0283091863839378,
                -1.8910774753003041,
                1.611028677341695,
                -0.020540813893608262,
                1.4069511435061453,
                -1.545000788652115
            ]
        },
        {
            "positions": [
                -2.1130306890984185,
                -1.8958167899012242,
                1.5251071515006172,
                0.04240788505488291,
                1.4064688261871134,
                -1.3893100957938447
            ]
        },
        {
            "positions": [
                -2.1977521918128993,
                -1.9005561045021442,
                1.439185625659539,
                0.10535658400337417,
                1.4059865088680814,
                -1.2336194029355738
            ]
        },
        {
            "positions": [
                -2.2824736945273796,
                -1.9052954191030642,
                1.3532640998184609,
                0.16830528295186536,
                1.4055041915490496,
                -1.0779287100773034
            ]
        },
        {
            "positions": [
                -2.3671951972418603,
                -1.9100347337039842,
                1.2673425739773827,
                0.23125398190035662,
                1.4050218742300176,
                -0.9222380172190328
            ]
        },
        {
            "positions": [
                -2.4519166999563407,
                -1.9147740483049043,
                1.1814210481363048,
                0.2942026808488477,
                1.4045395569109855,
                -0.7665473243607623
            ]
        },
        {
            "positions": [
                -2.5366382026708214,
                -1.9195133629058243,
                1.0954995222952266,
                0.357151379797339,
                1.4040572395919537,
                -0.6108566315024917
            ]
        },
        {
            "positions": [
                -2.621359705385302,
                -1.9242526775067446,
                1.0095779964541485,
                0.4201000787458302,
                1.4035749222729217,
                -0.45516593864422084
            ]
        },
        {
            "positions": [
                -2.7060812080997825,
                -1.9289919921076646,
                0.9236564706130705,
                0.4830487776943214,
                1.4030926049538899,
                -0.2994752457859504
            ]
        },
        {
            "positions": [
                -2.7908027108142632,
                -1.9337313067085846,
                0.8377349447719924,
                0.5459974766428126,
                1.4026102876348578,
                -0.14378455292767978
            ]
        },
        {
            "positions": [
                -2.773432829008939,
                -1.8909391778919002,
                0.9061549550701227,
                0.47941710599215964,
                1.3734797544408381,
                -0.2967841034715317
            ]
        },
        {
            "positions": [
                -2.7560629472036142,
                -1.848147049075216,
                0.9745749653682528,
                0.41283673534150667,
                1.3443492212468184,
                -0.4497836540153837
            ]
        },
        {
            "positions": [
                -2.73869306539829,
                -1.8053549202585317,
                1.042994975666383,
                0.34625636469085375,
                1.3152186880527987,
                -0.6027832045592358
            ]
        },
        {
            "positions": [
                -2.7213231835929657,
                -1.7625627914418474,
                1.1114149859645133,
                0.27967599404020077,
                1.286088154858779,
                -0.7557827551030877
            ]
        },
        {
            "positions": [
                -2.7039533017876414,
                -1.7197706626251632,
                1.1798349962626435,
                0.2130956233895478,
                1.2569576216647593,
                -0.9087823056469397
            ]
        },
        {
            "positions": [
                -2.6865834199823166,
                -1.6769785338084788,
                1.2482550065607738,
                0.14651525273889482,
                1.2278270884707396,
                -1.061781856190792
            ]
        },
        {
            "positions": [
                -2.6692135381769924,
                -1.6341864049917945,
                1.316675016858904,
                0.0799348820882419,
                1.19869655527672,
                -1.2147814067346436
            ]
        },
        {
            "positions": [
                -2.651843656371668,
                -1.5913942761751103,
                1.3850950271570341,
                0.013354511437588923,
                1.1695660220827002,
                -1.3677809572784956
            ]
        },
        {
            "positions": [
                -2.6344737745663434,
                -1.548602147358426,
                1.4535150374551646,
                -0.053225859213064,
                1.1404354888886805,
                -1.5207805078223477
            ]
        },
        {
            "positions": [
                -2.617103892761019,
                -1.5058100185417418,
                1.5219350477532947,
                -0.11980622986371703,
                1.1113049556946608,
                -1.6737800583661997
            ]
        },
        {
            "positions": [
                -2.599734010955695,
                -1.4630178897250574,
                1.590355058051425,
                -0.18638660051436995,
                1.0821744225006409,
                -1.8267796089100516
            ]
        },
        {
            "positions": [
                -2.58236412915037,
                -1.420225760908373,
                1.6587750683495552,
                -0.252966971165023,
                1.0530438893066214,
                -1.9797791594539038
            ]
        },
        {
            "positions": [
                -2.5649942473450458,
                -1.377433632091689,
                1.7271950786476853,
                -0.3195473418156758,
                1.0239133561126017,
                -2.1327787099977558
            ]
        },
        {
            "positions": [
                -2.5476243655397215,
                -1.3346415032750045,
                1.7956150889458158,
                -0.3861277124663288,
                0.994782822918582,
                -2.2857782605416075
            ]
        },
        {
            "positions": [
                -2.530254483734397,
                -1.2918493744583204,
                1.8640350992439458,
                -0.45270808311698174,
                0.9656522897245622,
                -2.4387778110854597
            ]
        },
        {
            "positions": [
                -2.5128846019290725,
                -1.249057245641636,
                1.932455109542076,
                -0.5192884537676348,
                0.9365217565305425,
                -2.5917773616293114
            ]
        },
        {
            "positions": [
                -2.495514720123748,
                -1.2062651168249516,
                2.0008751198402064,
                -0.5858688244182877,
                0.9073912233365228,
                -2.7447769121731636
            ]
        },
        {
            "positions": [
                -2.488427615951897,
                -1.191796114659871,
                2.0025303137973625,
                -0.6627364754744541,
                0.8297065391099726,
                -2.8808383562759885
            ]
        },
        {
            "positions": [
                -2.4813405117800458,
                -1.1773271124947906,
                2.004185507754519,
                -0.7396041265306205,
                0.7520218548834223,
                -3.016899800378814
            ]
        },
        {
            "positions": [
                -2.474253407608195,
                -1.16285811032971,
                2.005840701711675,
                -0.8164717775867869,
                0.6743371706568722,
                -3.152961244481639
            ]
        }
    ]
}