{
    "goal": {
        "global_pose": {
            "orientation": {
                "w": 0.5084816217422485,
                "x": -0.49083608388900757,
                "y": 0.5182115435600281,
                "z": -0.4816462993621826
            },
            "position": {
                "x": 0.5540239810943604,
                "y": 0.030875300988554955,
                "z": 0.16403168439865112
            }
        },
        "name": "move_to_storage_A"
    },
    "id": "FMT_move_to_storage_A_77",
    "joint_names": [
        "shoulder_pan_joint",
        "shoulder_lift_joint",
        "elbow_joint",
        "wrist_1_joint",
        "wrist_2_joint",
        "wrist_3_joint"
    ],
    "metrics": {
        "cart_traj_len": 0.3534704430270479,
        "distance_elbow_joint": 0.4490963554602303,
        "distance_shoulder_lift_joint": 0.23588832905379853,
        "distance_shoulder_pan_joint": 0.4638586919598688,
        "distance_wrist_1_joint": 0.2395179278796299,
        "distance_wrist_2_joint": 1.0928101391203962,
        "distance_wrist_3_joint": 0.09015279730480596,
        "smoothness": 4.440892133664971e-16,
        "time": 0.41516479,
        "traj_len": 1.6035349203490175,
        "weighted_distance": 2.020880477016978
    },
    "planner": "FMT",
    "start": {
        "state": {
            "elbow_joint": 1.971548259319323,
            "shoulder_lift_joint": -1.1394851275133948,
            "shoulder_pan_joint": 0.1228115487234821,
            "wrist_1_joint": -0.7804723859257726,
            "wrist_2_joint": 0.12958671773740124,
            "wrist_3_joint": -3.192489227718131
        }
    },
    "waypoints": [
        {
            "positions": [
                0.1228115487234821,
                -1.1394851275133948,
                1.971548259319323,
                -0.7804723859257726,
                0.12958671773740124,
                -3.192489227718131
            ]
        },
        {
            "positions": [
                0.056546021300643706,
                -1.1731834602353661,
                2.0357048815279275,
                -0.8146892327657197,
                0.2857024518974578,
                -3.1796102566745876
            ]
        },
        {
            "positions": [
                -0.009719506122194688,
                -1.2068817929573372,
                2.099861503736532,
                -0.8489060796056669,
                0.44181818605751444,
                -3.1667312856310437
            ]
        },
        {
            "positions": [
                -0.07598503354503308,
                -1.2405801256793085,
                2.164018125945136,
                -0.883122926445614,
                0.597933920217571,
                -3.1538523145875
            ]
        },
        {
            "positions": [
                -0.14225056096787148,
                -1.2742784584012796,
                2.2281747481537404,
                -0.9173397732855612,
                0.7540496543776276,
                -3.140973343543956
            ]
        },
        {
            "positions": [
                -0.2085160883907099,
                -1.307976791123251,
                2.2923313703623447,
                -0.9515566201255082,
                0.9101653885376843,
                -3.1280943725004127
            ]
        },
        {
            "positions": [
                -0.27478161581354826,
                -1.341675123845222,
                2.356487992570949,
                -0.9857734669654554,
                1.0662811226977407,
                -3.1152154014568687
            ]
        },
        {
            "positions": [
                -0.3410471432363867,
                -1.3753734565671933,
                2.4206446147795533,
                -1.0199903138054025,
                1.2223968568577974,
                -3.102336430413325
            ]
        }
    ]
}{
    "goal": {
        "global_pose": {
            "orientation": {
                "w": 0.5084816217422485,
                "x": -0.49083608388900757,
                "y": 0.5182115435600281,
                "z": -0.4816462993621826
            },
            "position": {
                "x": 0.5540239810943604,
                "y": 0.030875300988554955,
                "z": 0.16403168439865112
            }
        },
        "name": "move_to_storage_A"
    },
    "id": "FMT_move_to_storage_A_77",
    "joint_names": [
        "shoulder_pan_joint",
        "shoulder_lift_joint",
        "elbow_joint",
        "wrist_1_joint",
        "wrist_2_joint",
        "wrist_3_joint"
    ],
    "metrics": {
        "cart_traj_len": 0.35357532306234196,
        "distance_elbow_joint": 0.4497726008540779,
        "distance_shoulder_lift_joint": 0.23263336614186914,
        "distance_shoulder_pan_joint": 0.461377712301792,
        "distance_wrist_1_joint": 0.24810718493702133,
        "distance_wrist_2_joint": 1.1027083798066886,
        "distance_wrist_3_joint": 0.09125961499259194,
        "smoothness": 4.440892098500626e-16,
        "time": 0.405245782,
        "traj_len": 1.6080605893541577,
        "weighted_distance": 2.0295796741598826
    },
    "planner": "FMT",
    "start": {
        "state": {
            "elbow_joint": 1.97154746011099,
            "shoulder_lift_joint": -1.13948474672311,
            "shoulder_pan_joint": 0.12281154466712228,
            "wrist_1_joint": -0.7804688027058302,
            "wrist_2_joint": 0.12958655903071145,
            "wrist_3_joint": 3.0906928834467795
        }
    },
    "waypoints": [
        {
            "positions": [
                0.12281154466712228,
                -1.13948474672311,
                1.97154746011099,
                -0.7804688027058302,
                0.12958655903071145,
                3.0906928834467795
            ]
        },
        {
            "positions": [
                0.05690044290972343,
                -1.172718084743377,
                2.0358006888044295,
                -0.8159126862682619,
                0.2871163275745241,
                3.103729971302864
            ]
        },
        {
            "positions": [
                -0.00901065884767542,
                -1.205951422763644,
                2.100053917497869,
                -0.8513565698306934,
                0.4446460961183367,
                3.1167670591589487
            ]
        },
        {
            "positions": [
                -0.07492176060507426,
                -1.239184760783911,
                2.164307146191309,
                -0.8868004533931251,
                0.6021758646621493,
                3.129804147015033
            ]
        },
        {
            "positions": [
                -0.1408328623624731,
                -1.272418098804178,
                2.228560374884749,
                -0.9222443369555566,
                0.7597056332059621,
                3.142841234871118
            ]
        },
        {
            "positions": [
                -0.206743964119872,
                -1.3056514368244452,
                2.2928136035781885,
                -0.9576882205179883,
                0.9172354017497748,
                3.1558783227272023
            ]
        },
        {
            "positions": [
                -0.2726550658772708,
                -1.3388847748447121,
                2.357066832271628,
                -0.9931321040804199,
                1.0747651702935872,
                3.168915410583287
            ]
        },
        {
            "positions": [
                -0.3385661676346697,
                -1.372118112864979,
                2.421320060965068,
                -1.0285759876428515,
                1.2322949388374,
                3.1819524984393714
            ]
        }
    ]
}{
    "goal": {
        "global_pose": {
            "orientation": {
                "w": 0.5084816217422485,
                "x": -0.49083608388900757,
                "y": 0.5182115435600281,
                "z": -0.4816462993621826
            },
            "position": {
                "x": 0.5540239810943604,
                "y": 0.030875300988554955,
                "z": 0.16403168439865112
            }
        },
        "name": "move_to_storage_A"
    },
    "id": "FMT_move_to_storage_A_77",
    "joint_names": [
        "shoulder_pan_joint",
        "shoulder_lift_joint",
        "elbow_joint",
        "wrist_1_joint",
        "wrist_2_joint",
        "wrist_3_joint"
    ],
    "metrics": {
        "cart_traj_len": 0.3533095903552862,
        "distance_elbow_joint": 0.4485259886556894,
        "distance_shoulder_lift_joint": 0.23462713939075064,
        "distance_shoulder_pan_joint": 0.4593596654078709,
        "distance_wrist_1_joint": 0.23639034791429037,
        "distance_wrist_2_joint": 1.1106297877663567,
        "distance_wrist_3_joint": 0.08765525785250627,
        "smoothness": 4.440892133664971e-16,
        "time": 0.40786290000000003,
        "traj_len": 1.6053623226510159,
        "weighted_distance": 2.0247268552506346
    },
    "planner": "FMT",
    "start": {
        "state": {
            "elbow_joint": 1.9715472970024885,
            "shoulder_lift_joint": -1.1394870060712896,
            "shoulder_pan_joint": 0.12281152778156021,
            "wrist_1_joint": -0.780463741449964,
            "wrist_2_joint": 0.12958659822042276,
            "wrist_3_joint": 3.090690232415272
        }
    },
    "waypoints": [
        {
            "positions": [
                0.12281152778156021,
                -1.1394870060712896,
                1.9715472970024885,
                -0.780463741449964,
                0.12958659822042276,
                3.090690232415272
            ]
        },
        {
            "positions": [
                0.05718871843757865,
                -1.173005168841397,
                2.035622438239016,
                -0.8142337911520054,
                0.28824799647275945,
                3.103212412108487
            ]
        },
        {
            "positions": [
                -0.008434090906402902,
                -1.206523331611504,
                2.0996975794755426,
                -0.8480038408540469,
                0.44690939472509605,
                3.115734591801702
            ]
        },
        {
            "positions": [
                -0.07405690025038444,
                -1.2400414943816114,
                2.16377272071207,
                -0.8817738905560885,
                0.6055707929774328,
                3.128256771494917
            ]
        },
        {
            "positions": [
                -0.13967970959436601,
                -1.2735596571517185,
                2.2278478619485966,
                -0.9155439402581299,
                0.7642321912297694,
                3.1407789511881328
            ]
        },
        {
            "positions": [
                -0.20530251893834758,
                -1.3070778199218258,
                2.291923003185124,
                -0.9493139899601715,
                0.9228935894821061,
                3.153301130881348
            ]
        },
        {
            "positions": [
                -0.27092532828232907,
                -1.340595982691933,
                2.3559981444216507,
                -0.9830840396622129,
                1.0815549877344428,
                3.165823310574563
            ]
        },
        {
            "positions": [
                -0.33654813762631064,
                -1.3741141454620402,
                2.420073285658178,
                -1.0168540893642544,
                1.2402163859867794,
                3.178345490267778
            ]
        }
    ]
}