{
    "goal": {
        "global_pose": {
            "orientation": {
                "w": 0.7031023502349854,
                "x": -0.7110244035720825,
                "y": 0.007748599164187908,
                "z": 0.005598929710686207
            },
            "position": {
                "x": 0.11585023208521307,
                "y": 0.44412534475326537,
                "z": 0.3711530566215515
            }
        },
        "name": "move_to_auspresseinheit_A"
    },
    "id": "FMT_move_to_auspresseinheit_A_67",
    "joint_names": [
        "shoulder_pan_joint",
        "shoulder_lift_joint",
        "elbow_joint",
        "wrist_1_joint",
        "wrist_2_joint",
        "wrist_3_joint"
    ],
    "metrics": {
        "cart_traj_len": 1.2184953675781858,
        "distance_elbow_joint": 0.25785778783833235,
        "distance_shoulder_lift_joint": 1.5526665767354373,
        "distance_shoulder_pan_joint": 1.9111484277068485,
        "distance_wrist_1_joint": 1.1353921041680168,
        "distance_wrist_2_joint": 0.8737572764830245,
        "distance_wrist_3_joint": 0.5927781151349287,
        "smoothness": 1.084461810181007,
        "time": 1.385766002,
        "traj_len": 2.5146769748949045,
        "weighted_distance": 3.085175181247815
    },
    "planner": "FMT",
    "start": {
        "state": {
            "elbow_joint": 2.4225746658250005,
            "shoulder_lift_joint": -1.3736534386056498,
            "shoulder_pan_joint": -0.3378633547517467,
            "wrist_1_joint": -1.0288598680537169,
            "wrist_2_joint": 1.233022673432363,
            "wrist_3_joint": -3.0940220416140027
        }
    },
    "waypoints": [
        {
            "positions": [
                -0.3378633547517467,
                -1.3736534386056498,
                2.4225746658250005,
                -1.0288598680537169,
                1.233022673432363,
                -3.0940220416140027
            ]
        },
        {
            "positions": [
                -0.22335071585872224,
                -1.5227119241478795,
                2.414601473028303,
                -1.0059555968114253,
                1.2587331466648994,
                -3.0551367258324382
            ]
        },
        {
            "positions": [
                -0.10883807696569778,
                -1.6717704096901091,
                2.4066282802316055,
                -0.9830513255691337,
                1.284443619897436,
                -3.0162514100508737
            ]
        },
        {
            "positions": [
                0.005674561927326682,
                -1.8208288952323386,
                2.398655087434908,
                -0.960147054326842,
                1.3101540931299724,
                -2.977366094269309
            ]
        },
        {
            "positions": [
                0.12018720082035117,
                -1.9698873807745683,
                2.39068189463821,
                -0.9372427830845504,
                1.3358645663625088,
                -2.938480778487745
            ]
        },
        {
            "positions": [
                0.23469983971337566,
                -2.118945866316798,
                2.3827087018415125,
                -0.9143385118422588,
                1.3615750395950452,
                -2.8995954627061806
            ]
        },
        {
            "positions": [
                0.3492124786064001,
                -2.2680043518590276,
                2.374735509044815,
                -0.8914342405999672,
                1.3872855128275818,
                -2.860710146924616
            ]
        },
        {
            "positions": [
                0.46372511749942463,
                -2.4170628374012573,
                2.3667623162481175,
                -0.8685299693576756,
                1.4129959860601182,
                -2.8218248311430516
            ]
        },
        {
            "positions": [
                0.5766473146063735,
                -2.3672045032776277,
                2.351960289769539,
                -0.7526775940530935,
                1.3863639920910777,
                -2.8405305056838523
            ]
        },
        {
            "positions": [
                0.6895695117133225,
                -2.317346169153998,
                2.3371582632909607,
                -0.6368252187485116,
                1.3597319981220373,
                -2.859236180224653
            ]
        },
        {
            "positions": [
                0.8024917088202714,
                -2.2674878350303684,
                2.3223562368123822,
                -0.5209728434439296,
                1.333100004152997,
                -2.877941854765454
            ]
        },
        {
            "positions": [
                0.9154139059272204,
                -2.217629500906739,
                2.3075542103338043,
                -0.4051204681393476,
                1.3064680101839565,
                -2.8966475293062546
            ]
        },
        {
            "positions": [
                1.0283361030341693,
                -2.167771166783109,
                2.292752183855226,
                -0.2892680928347655,
                1.279836016214916,
                -2.9153532038470553
            ]
        },
        {
            "positions": [
                1.1412583001411183,
                -2.1179128326594796,
                2.2779501573766474,
                -0.17341571753018364,
                1.2532040222458756,
                -2.934058878387856
            ]
        },
        {
            "positions": [
                1.067742091911458,
                -2.045125855302325,
                2.298097731348844,
                -0.2043293383860863,
                1.1361861686648487,
                -2.9853028538950968
            ]
        },
        {
            "positions": [
                0.9942258836817974,
                -1.9723388779451705,
                2.31824530532104,
                -0.23524295924198896,
                1.0191683150838218,
                -3.0365468294023374
            ]
        },
        {
            "positions": [
                0.8992277648969098,
                -1.950827805117256,
                2.3425580158029025,
                -0.30794986321954837,
                0.9191828841241642,
                -3.0718331315372347
            ]
        },
        {
            "positions": [
                0.8042296461120223,
                -1.9293167322893419,
                2.3668707262847644,
                -0.3806567671971078,
                0.8191974531645065,
                -3.107119433672132
            ]
        },
        {
            "positions": [
                0.7092315273271347,
                -1.9078056594614274,
                2.3911834367666267,
                -0.4533636711746672,
                0.7192120222048489,
                -3.142405735807029
            ]
        }
    ]
}