{
    "goal": {
        "global_pose": {
            "orientation": {
                "w": 0.005598929693374612,
                "x": 0.007748599140229565,
                "y": 0.7110244013736278,
                "z": -0.7031023480610252
            },
            "position": {
                "x": 0.1141497679147869,
                "y": -0.7141253447532654,
                "z": 0.3711530566215515
            }
        },
        "name": "move_to_auspresseinheit_B"
    },
    "id": "FMT_move_to_auspresseinheit_B_1",
    "joint_names": [
        "shoulder_pan_joint",
        "shoulder_lift_joint",
        "elbow_joint",
        "wrist_1_joint",
        "wrist_2_joint",
        "wrist_3_joint"
    ],
    "metrics": {
        "cart_traj_len": 0.565324450435575,
        "distance_elbow_joint": 0.06283019335308615,
        "distance_shoulder_lift_joint": 0.29451463690834156,
        "distance_shoulder_pan_joint": 0.5778194737415405,
        "distance_wrist_1_joint": 0.32222643957733466,
        "distance_wrist_2_joint": 0.9898743037728013,
        "distance_wrist_3_joint": 0.002358752865995406,
        "smoothness": 5.075305255429287e-16,
        "time": 0.524312805,
        "traj_len": 1.4998745948308811,
        "weighted_distance": 1.8885025944650504
    },
    "planner": "FMT",
    "start": {
        "state": {
            "elbow_joint": 2.0193083361928714,
            "shoulder_lift_joint": -1.1220246554650708,
            "shoulder_pan_joint": -1.0952077554168747,
            "wrist_1_joint": -0.8559753972642168,
            "wrist_2_joint": 0.4759566250798843,
            "wrist_3_joint": -3.1240929996934557
        }
    },
    "waypoints": [
        {
            "positions": [
                -1.0952077554168747,
                -1.1220246554650708,
                2.0193083361928714,
                -0.8559753972642168,
                0.4759566250798843,
                -3.1240929996934557
            ]
        },
        {
            "positions": [
                -1.1915110010404648,
                -1.1711104282831277,
                2.0088366373006905,
                -0.8022709906679943,
                0.6409356757086845,
                -3.1244861251711216
            ]
        },
        {
            "positions": [
                -1.2878142466640548,
                -1.2201962011011847,
                1.9983649384085094,
                -0.7485665840717719,
                0.8059147263374846,
                -3.1248792506487875
            ]
        },
        {
            "positions": [
                -1.384117492287645,
                -1.2692819739192416,
                1.9878932395163282,
                -0.6948621774755495,
                0.9708937769662849,
                -3.1252723761264534
            ]
        },
        {
            "positions": [
                -1.4804207379112349,
                -1.3183677467372985,
                1.9774215406241473,
                -0.641157770879327,
                1.1358728275950851,
                -3.1256655016041193
            ]
        },
        {
            "positions": [
                -1.576723983534825,
                -1.3674535195553554,
                1.9669498417319664,
                -0.5874533642831046,
                1.3008518782238854,
                -3.126058627081785
            ]
        },
        {
            "positions": [
                -1.6730272291584152,
                -1.4165392923734124,
                1.9564781428397853,
                -0.5337489576868821,
                1.4658309288526856,
                -3.126451752559451
            ]
        }
    ]
}