{
    "goal": {
        "global_pose": {
            "orientation": {
                "w": 0.7031023502349854,
                "x": -0.7110244035720825,
                "y": 0.007748599164187908,
                "z": 0.005598929710686207
            },
            "position": {
                "x": 0.11585023208521307,
                "y": 0.44412534475326537,
                "z": 0.3711530566215515
            }
        },
        "name": "move_to_auspresseinheit_A"
    },
    "id": "FMT_move_to_auspresseinheit_A_77",
    "joint_names": [
        "shoulder_pan_joint",
        "shoulder_lift_joint",
        "elbow_joint",
        "wrist_1_joint",
        "wrist_2_joint",
        "wrist_3_joint"
    ],
    "metrics": {
        "cart_traj_len": 0.6880536203615302,
        "distance_elbow_joint": 0.03388157296466865,
        "distance_shoulder_lift_joint": 0.5330628955258006,
        "distance_shoulder_pan_joint": 1.0417313204026954,
        "distance_wrist_1_joint": 0.5789889896888942,
        "distance_wrist_2_joint": 0.5321954933905922,
        "distance_wrist_3_joint": 0.0614503925619152,
        "smoothness": 4.93432458514678e-16,
        "time": 0.5635696830000001,
        "traj_len": 1.667726195913036,
        "weighted_distance": 2.0038452866271594
    },
    "planner": "FMT",
    "start": {
        "state": {
            "elbow_joint": 2.4225746658250005,
            "shoulder_lift_joint": -1.3736534386056498,
            "shoulder_pan_joint": -0.3378633547517467,
            "wrist_1_joint": -1.0288598680537169,
            "wrist_2_joint": 1.233022673432363,
            "wrist_3_joint": -3.0940220416140027
        }
    },
    "waypoints": [
        {
            "positions": [
                -0.3378633547517467,
                -1.3736534386056498,
                2.4225746658250005,
                -1.0288598680537169,
                1.233022673432363,
                -3.0940220416140027
            ]
        },
        {
            "positions": [
                -0.2076469397014098,
                -1.4402863005463749,
                2.418339469204417,
                -0.9564862443426051,
                1.166498236758539,
                -3.1017033406842422
            ]
        },
        {
            "positions": [
                -0.07743052465107286,
                -1.5069191624871,
                2.4141042725838333,
                -0.8841126206314933,
                1.099973800084715,
                -3.1093846397544818
            ]
        },
        {
            "positions": [
                0.05278589039926407,
                -1.573552024427825,
                2.4098690759632495,
                -0.8117389969203815,
                1.033449363410891,
                -3.117065938824721
            ]
        },
        {
            "positions": [
                0.183002305449601,
                -1.6401848863685502,
                2.405633879342666,
                -0.7393653732092698,
                0.966924926737067,
                -3.1247472378949603
            ]
        },
        {
            "positions": [
                0.3132187204999379,
                -1.706817748309275,
                2.401398682722083,
                -0.666991749498158,
                0.900400490063243,
                -3.1324285369652
            ]
        },
        {
            "positions": [
                0.44343513555027486,
                -1.7734506102500003,
                2.397163486101499,
                -0.5946181257870462,
                0.8338760533894188,
                -3.140109836035439
            ]
        },
        {
            "positions": [
                0.5736515506006119,
                -1.8400834721907253,
                2.392928289480915,
                -0.5222445020759344,
                0.7673516167155948,
                -3.1477911351056784
            ]
        },
        {
            "positions": [
                0.7038679656509487,
                -1.9067163341314504,
                2.388693092860332,
                -0.4498708783648227,
                0.7008271800417708,
                -3.155472434175918
            ]
        }
    ]
}