{
    "goal": {
        "global_pose": {
            "orientation": {
                "w": -0.4816463035849501,
                "x": 0.5182115481033762,
                "y": 0.4908360881923453,
                "z": -0.5084816262002911
            },
            "position": {
                "x": -0.8240239810943604,
                "y": 0.19912469901144506,
                "z": 0.16403168439865112
            }
        },
        "name": "move_to_storage_D"
    },
    "id": "FMT_move_to_storage_D_87",
    "joint_names": [
        "shoulder_pan_joint",
        "shoulder_lift_joint",
        "elbow_joint",
        "wrist_1_joint",
        "wrist_2_joint",
        "wrist_3_joint"
    ],
    "metrics": {
        "cart_traj_len": 3.179958171376068,
        "distance_elbow_joint": 4.206479207002037,
        "distance_shoulder_lift_joint": 1.4341738306752791,
        "distance_shoulder_pan_joint": 2.813678853239777,
        "distance_wrist_1_joint": 2.7948124645025154,
        "distance_wrist_2_joint": 1.80179525949675,
        "distance_wrist_3_joint": 3.1454164780972755,
        "smoothness": 0.2166929320341611,
        "time": 1.4131786849999999,
        "traj_len": 4.024469666057087,
        "weighted_distance": 5.204209524337722
    },
    "planner": "FMT",
    "start": {
        "state": {
            "elbow_joint": -2.384821988534728,
            "shoulder_lift_joint": -2.2788054721415256,
            "shoulder_pan_joint": -0.1854694642142757,
            "wrist_1_joint": 1.4845938289331202,
            "wrist_2_joint": 0.17898776772866878,
            "wrist_3_joint": 0.037105688729662994
        }
    },
    "waypoints": [
        {
            "positions": [
                -0.1854694642142757,
                -2.2788054721415256,
                -2.384821988534728,
                1.4845938289331202,
                0.17898776772866878,
                0.037105688729662994
            ]
        },
        {
            "positions": [
                -0.11259338609530968,
                -2.1455778209004417,
                -2.369633355899478,
                1.5228211363760558,
                0.11272803490383101,
                0.06677433051732273
            ]
        },
        {
            "positions": [
                -0.03971730797634365,
                -2.012350169659358,
                -2.3544447232642285,
                1.5610484438189913,
                0.046468302078993245,
                0.09644297230498249
            ]
        },
        {
            "positions": [
                0.03315877014262236,
                -1.8791225184182745,
                -2.3392560906289788,
                1.599275751261927,
                -0.019791430745844524,
                0.1261116140926422
            ]
        },
        {
            "positions": [
                0.1060348482615884,
                -1.7458948671771908,
                -2.3240674579937295,
                1.6375030587048625,
                -0.08605116357068229,
                0.15578025588030198
            ]
        },
        {
            "positions": [
                0.17891092638055447,
                -1.6126672159361068,
                -2.3088788253584798,
                1.675730366147798,
                -0.15231089639552006,
                0.18544889766796174
            ]
        },
        {
            "positions": [
                0.2517870044995204,
                -1.4794395646950234,
                -2.29369019272323,
                1.7139576735907336,
                -0.21857062922035783,
                0.21511753945562145
            ]
        },
        {
            "positions": [
                0.32466308261848653,
                -1.3462119134539394,
                -2.2785015600879803,
                1.7521849810336692,
                -0.28483036204519563,
                0.24478618124328122
            ]
        },
        {
            "positions": [
                0.41654994376513865,
                -1.3527180225543105,
                -2.1475547245127307,
                1.693956543031007,
                -0.23140250469832266,
                0.29957950552381857
            ]
        },
        {
            "positions": [
                0.5084368049117908,
                -1.3592241316546816,
                -2.016607888937481,
                1.635728105028345,
                -0.1779746473514497,
                0.3543728298043559
            ]
        },
        {
            "positions": [
                0.6003236660584428,
                -1.3657302407550527,
                -1.8856610533622313,
                1.577499667025683,
                -0.12454679000457675,
                0.4091661540848933
            ]
        },
        {
            "positions": [
                0.6922105272050949,
                -1.3722363498554235,
                -1.7547142177869817,
                1.5192712290230208,
                -0.07111893265770378,
                0.4639594783654306
            ]
        },
        {
            "positions": [
                0.784097388351747,
                -1.3787424589557946,
                -1.623767382211732,
                1.4610427910203587,
                -0.017691075310830806,
                0.518752802645968
            ]
        },
        {
            "positions": [
                0.8759842494983991,
                -1.3852485680561657,
                -1.4928205466364823,
                1.4028143530176966,
                0.035736782036042136,
                0.5735461269265054
            ]
        },
        {
            "positions": [
                0.9678711106450513,
                -1.3917546771565368,
                -1.3618737110612327,
                1.3445859150150345,
                0.08916463938291508,
                0.6283394512070426
            ]
        },
        {
            "positions": [
                1.0597579717917034,
                -1.3982607862569079,
                -1.230926875485983,
                1.2863574770123725,
                0.14259249672978808,
                0.68313277548758
            ]
        },
        {
            "positions": [
                1.1516448329383553,
                -1.404766895357279,
                -1.0999800399107336,
                1.2281290390097104,
                0.19602035407666102,
                0.7379260997681174
            ]
        },
        {
            "positions": [
                1.2435316940850076,
                -1.4112730044576498,
                -0.9690332043354837,
                1.1699006010070483,
                0.24944821142353402,
                0.7927194240486548
            ]
        },
        {
            "positions": [
                1.3354185552316595,
                -1.4177791135580209,
                -0.8380863687602342,
                1.1116721630043862,
                0.30287606877040696,
                0.8475127483291921
            ]
        },
        {
            "positions": [
                1.4273054163783119,
                -1.424285222658392,
                -0.7071395331849846,
                1.0534437250017241,
                0.3563039261172799,
                0.9023060726097295
            ]
        },
        {
            "positions": [
                1.5191922775249638,
                -1.430791331758763,
                -0.5761926976097349,
                0.995215286999062,
                0.40973178346415284,
                0.9570993968902668
            ]
        },
        {
            "positions": [
                1.5696021462295338,
                -1.4118367475004507,
                -0.46719951960623296,
                0.9147493043460002,
                0.4389779191102227,
                1.0582549773419336
            ]
        },
        {
            "positions": [
                1.6200120149341035,
                -1.3928821632421386,
                -0.35820634160273096,
                0.8342833216929384,
                0.4682240547562926,
                1.1594105577936007
            ]
        },
        {
            "positions": [
                1.6704218836386735,
                -1.3739275789838263,
                -0.24921316359922902,
                0.7538173390398767,
                0.49747019040236246,
                1.2605661382452675
            ]
        },
        {
            "positions": [
                1.7208317523432435,
                -1.354972994725514,
                -0.14021998559572701,
                0.6733513563868149,
                0.5267163260484323,
                1.3617217186969344
            ]
        },
        {
            "positions": [
                1.7712416210478132,
                -1.336018410467202,
                -0.03122680759222507,
                0.5928853737337532,
                0.5559624616945023,
                1.4628772991486012
            ]
        },
        {
            "positions": [
                1.8216514897523832,
                -1.3170638262088896,
                0.07776637041127687,
                0.5124193910806913,
                0.5852085973405721,
                1.5640328796002683
            ]
        },
        {
            "positions": [
                1.872061358456953,
                -1.2981092419505773,
                0.18675954841477893,
                0.4319534084276295,
                0.6144547329866419,
                1.665188460051935
            ]
        },
        {
            "positions": [
                1.922471227161523,
                -1.2791546576922652,
                0.2957527264182809,
                0.3514874257745677,
                0.6437008686327118,
                1.766344040503602
            ]
        },
        {
            "positions": [
                1.972881095866093,
                -1.260200073433953,
                0.40474590442178293,
                0.2710214431215059,
                0.6729470042787817,
                1.867499620955269
            ]
        },
        {
            "positions": [
                2.0232909645706627,
                -1.2412454891756406,
                0.5137390824252848,
                0.19055546046844418,
                0.7021931399248516,
                1.9686552014069358
            ]
        },
        {
            "positions": [
                2.0737008332752325,
                -1.2222909049173283,
                0.6227322604287868,
                0.11008947781538236,
                0.7314392755709214,
                2.0698107818586027
            ]
        },
        {
            "positions": [
                2.1241107019798027,
                -1.2033363206590162,
                0.7317254384322887,
                0.029623495162320657,
                0.7606854112169913,
                2.1709663623102697
            ]
        },
        {
            "positions": [
                2.1745205706843724,
                -1.1843817364007039,
                0.8407186164357909,
                -0.05084248749074116,
                0.7899315468630612,
                2.2721219427619364
            ]
        },
        {
            "positions": [
                2.2249304393889426,
                -1.1654271521423918,
                0.9497117944392928,
                -0.13130847014380298,
                0.819177682509131,
                2.3732775232136034
            ]
        },
        {
            "positions": [
                2.2753403080935124,
                -1.1464725678840795,
                1.0587049724427946,
                -0.2117744527968648,
                0.8484238181552008,
                2.4744331036652705
            ]
        },
        {
            "positions": [
                2.325750176798082,
                -1.1275179836257672,
                1.1676981504462967,
                -0.2922404354499266,
                0.8776699538012708,
                2.575588684116937
            ]
        },
        {
            "positions": [
                2.376160045502652,
                -1.1085633993674548,
                1.2766913284497987,
                -0.37270641810298843,
                0.9069160894473407,
                2.6767442645686037
            ]
        },
        {
            "positions": [
                2.426569914207222,
                -1.0896088151091428,
                1.3856845064533008,
                -0.45317240075605025,
                0.9361622250934105,
                2.777899845020271
            ]
        },
        {
            "positions": [
                2.476979782911792,
                -1.0706542308508304,
                1.4946776844568028,
                -0.5336383834091118,
                0.9654083607394804,
                2.879055425471938
            ]
        },
        {
            "positions": [
                2.527389651616362,
                -1.0516996465925184,
                1.6036708624603044,
                -0.6141043660621737,
                0.9946544963855503,
                2.980211005923605
            ]
        },
        {
            "positions": [
                2.577799520320932,
                -1.032745062334206,
                1.7126640404638065,
                -0.6945703487152355,
                1.0239006320316202,
                3.081366586375272
            ]
        },
        {
            "positions": [
                2.6282093890255016,
                -1.0137904780758937,
                1.8216572184673083,
                -0.7750363313682973,
                1.05314676767769,
                3.1825221668269386
            ]
        }
    ]
}