{
    "goal": {
        "global_pose": {
            "orientation": {
                "w": 0.5084816217422485,
                "x": -0.49083608388900757,
                "y": 0.5182115435600281,
                "z": -0.4816462993621826
            },
            "position": {
                "x": 0.5540239810943604,
                "y": 0.030875300988554955,
                "z": 0.16403168439865112
            }
        },
        "name": "move_to_storage_A"
    },
    "id": "FMT_move_to_storage_A_113",
    "joint_names": [
        "shoulder_pan_joint",
        "shoulder_lift_joint",
        "elbow_joint",
        "wrist_1_joint",
        "wrist_2_joint",
        "wrist_3_joint"
    ],
    "metrics": {
        "cart_traj_len": 0.3536392547097574,
        "distance_elbow_joint": 0.4474252029648673,
        "distance_shoulder_lift_joint": 0.23461952303370803,
        "distance_shoulder_pan_joint": 0.46110432112071287,
        "distance_wrist_1_joint": 0.23494528370841217,
        "distance_wrist_2_joint": 1.1051420262399962,
        "distance_wrist_3_joint": 0.09457271201118411,
        "smoothness": 2.2204460668324854e-16,
        "time": 0.399195815,
        "traj_len": 1.6055556885635829,
        "weighted_distance": 2.026583776469568
    },
    "planner": "FMT",
    "start": {
        "state": {
            "elbow_joint": 1.971548259319323,
            "shoulder_lift_joint": -1.1394851275133948,
            "shoulder_pan_joint": 0.1228115487234821,
            "wrist_1_joint": -0.7804723859257726,
            "wrist_2_joint": 0.12958671773740124,
            "wrist_3_joint": -3.192489227718131
        }
    },
    "waypoints": [
        {
            "positions": [
                0.1228115487234821,
                -1.1394851275133948,
                1.971548259319323,
                -0.7804723859257726,
                0.12958671773740124,
                -3.192489227718131
            ]
        },
        {
            "positions": [
                0.05693950284909455,
                -1.173002202232496,
                2.035466145457161,
                -0.8140359978841172,
                0.28746415005740067,
                -3.178978840287962
            ]
        },
        {
            "positions": [
                -0.008932543025293005,
                -1.206519276951597,
                2.099384031594999,
                -0.8475996098424619,
                0.4453415823774002,
                -3.1654684528577928
            ]
        },
        {
            "positions": [
                -0.07480458889968056,
                -1.2400363516706983,
                2.1633019177328374,
                -0.8811632218008064,
                0.6032190146973996,
                -3.151958065427624
            ]
        },
        {
            "positions": [
                -0.1406766347740681,
                -1.2735534263897994,
                2.2272198038706756,
                -0.914726833759151,
                0.7610964470173991,
                -3.1384476779974544
            ]
        },
        {
            "positions": [
                -0.20654868064845566,
                -1.3070705011089006,
                2.291137690008514,
                -0.9482904457174957,
                0.9189738793373986,
                -3.1249372905672854
            ]
        },
        {
            "positions": [
                -0.2724207265228432,
                -1.3405875758280017,
                2.355055576146352,
                -0.9818540576758401,
                1.076851311657398,
                -3.111426903137116
            ]
        },
        {
            "positions": [
                -0.33829277239723077,
                -1.3741046505471028,
                2.4189734622841903,
                -1.0154176696341848,
                1.2347287439773975,
                -3.097916515706947
            ]
        }
    ]
}{
    "goal": {
        "global_pose": {
            "orientation": {
                "w": 0.5084816217422485,
                "x": -0.49083608388900757,
                "y": 0.5182115435600281,
                "z": -0.4816462993621826
            },
            "position": {
                "x": 0.5540239810943604,
                "y": 0.030875300988554955,
                "z": 0.16403168439865112
            }
        },
        "name": "move_to_storage_A"
    },
    "id": "FMT_move_to_storage_A_113",
    "joint_names": [
        "shoulder_pan_joint",
        "shoulder_lift_joint",
        "elbow_joint",
        "wrist_1_joint",
        "wrist_2_joint",
        "wrist_3_joint"
    ],
    "metrics": {
        "cart_traj_len": 0.3537163321971311,
        "distance_elbow_joint": 0.44956583881867473,
        "distance_shoulder_lift_joint": 0.2345851328075248,
        "distance_shoulder_pan_joint": 0.46056588063859605,
        "distance_wrist_1_joint": 0.23710467515656708,
        "distance_wrist_2_joint": 1.1089329652709665,
        "distance_wrist_3_joint": 0.0863807567399335,
        "smoothness": 0.0,
        "time": 0.459841919,
        "traj_len": 1.6053458348381704,
        "weighted_distance": 2.0238414965949443
    },
    "planner": "FMT",
    "start": {
        "state": {
            "elbow_joint": 1.97154746011099,
            "shoulder_lift_joint": -1.13948474672311,
            "shoulder_pan_joint": 0.12281154466712228,
            "wrist_1_joint": -0.7804688027058302,
            "wrist_2_joint": 0.12958655903071145,
            "wrist_3_joint": 3.0906928834467795
        }
    },
    "waypoints": [
        {
            "positions": [
                0.12281154466712228,
                -1.13948474672311,
                1.97154746011099,
                -0.7804688027058302,
                0.12958655903071145,
                3.0906928834467795
            ]
        },
        {
            "positions": [
                0.05701641886160856,
                -1.1729969085527563,
                2.035771151370801,
                -0.8143408991567683,
                0.28800555406942097,
                3.1030329915524844
            ]
        },
        {
            "positions": [
                -0.00877870694390516,
                -1.2065090703824028,
                2.099994842630611,
                -0.8482129956077065,
                0.44642454910813045,
                3.115373099658189
            ]
        },
        {
            "positions": [
                -0.07457383274941888,
                -1.2400212322120492,
                2.164218533890422,
                -0.8820850920586446,
                0.6048435441468399,
                3.127713207763894
            ]
        },
        {
            "positions": [
                -0.1403689585549326,
                -1.2735333940416955,
                2.2284422251502325,
                -0.9159571885095827,
                0.7632625391855494,
                3.1400533158695985
            ]
        },
        {
            "positions": [
                -0.2061640843604463,
                -1.3070455558713419,
                2.2926659164100434,
                -0.949829284960521,
                0.921681534224259,
                3.1523934239753033
            ]
        },
        {
            "positions": [
                -0.27195921016596003,
                -1.3405577177009884,
                2.356889607669854,
                -0.9837013814114591,
                1.0801005292629684,
                3.164733532081008
            ]
        },
        {
            "positions": [
                -0.33775433597147375,
                -1.3740698795306348,
                2.4211132989296646,
                -1.0175734778623973,
                1.238519524301678,
                3.177073640186713
            ]
        }
    ]
}{
    "goal": {
        "global_pose": {
            "orientation": {
                "w": 0.5084816217422485,
                "x": -0.49083608388900757,
                "y": 0.5182115435600281,
                "z": -0.4816462993621826
            },
            "position": {
                "x": 0.5540239810943604,
                "y": 0.030875300988554955,
                "z": 0.16403168439865112
            }
        },
        "name": "move_to_storage_A"
    },
    "id": "FMT_move_to_storage_A_113",
    "joint_names": [
        "shoulder_pan_joint",
        "shoulder_lift_joint",
        "elbow_joint",
        "wrist_1_joint",
        "wrist_2_joint",
        "wrist_3_joint"
    ],
    "metrics": {
        "cart_traj_len": 0.35347645028159924,
        "distance_elbow_joint": 0.4500458344065619,
        "distance_shoulder_lift_joint": 0.2356888421376473,
        "distance_shoulder_pan_joint": 0.4632363444254792,
        "distance_wrist_1_joint": 0.2382381606442565,
        "distance_wrist_2_joint": 1.0961224420854057,
        "distance_wrist_3_joint": 0.08854887598137706,
        "smoothness": 4.440892098500626e-16,
        "time": 0.55489823,
        "traj_len": 1.6037083586739602,
        "weighted_distance": 2.0207273082662947
    },
    "planner": "FMT",
    "start": {
        "state": {
            "elbow_joint": 1.9715472970024885,
            "shoulder_lift_joint": -1.1394870060712896,
            "shoulder_pan_joint": 0.12281152778156021,
            "wrist_1_joint": -0.780463741449964,
            "wrist_2_joint": 0.12958659822042276,
            "wrist_3_joint": 3.090690232415272
        }
    },
    "waypoints": [
        {
            "positions": [
                0.12281152778156021,
                -1.1394870060712896,
                1.9715472970024885,
                -0.780463741449964,
                0.12958659822042276,
                3.090690232415272
            ]
        },
        {
            "positions": [
                0.056634907149348906,
                -1.173156840662382,
                2.0358395590605687,
                -0.8144977643991435,
                0.28617551851833783,
                3.103340071841183
            ]
        },
        {
            "positions": [
                -0.009541713482862396,
                -1.2068266752534746,
                2.1001318211186493,
                -0.848531787348323,
                0.44276443881625294,
                3.1159899112670937
            ]
        },
        {
            "positions": [
                -0.0757183341150737,
                -1.240496509844567,
                2.1644240831767294,
                -0.8825658102975025,
                0.599353359114168,
                3.128639750693005
            ]
        },
        {
            "positions": [
                -0.141894954747285,
                -1.2741663444356595,
                2.2287163452348095,
                -0.916599833246682,
                0.755942279412083,
                3.141289590118916
            ]
        },
        {
            "positions": [
                -0.2080715753794963,
                -1.307836179026752,
                2.29300860729289,
                -0.9506338561958615,
                0.9125311997099982,
                3.153939429544827
            ]
        },
        {
            "positions": [
                -0.2742481960117076,
                -1.3415060136178445,
                2.3573008693509703,
                -0.984667879145041,
                1.0691201200079132,
                3.166589268970738
            ]
        },
        {
            "positions": [
                -0.34042481664391894,
                -1.375175848208937,
                2.4215931314090504,
                -1.0187019020942205,
                1.2257090403058284,
                3.179239108396649
            ]
        }
    ]
}