{
    "goal": {
        "global_pose": {
            "orientation": {
                "w": 0.005598929693374612,
                "x": 0.007748599140229565,
                "y": 0.7110244013736278,
                "z": -0.7031023480610252
            },
            "position": {
                "x": -0.8858502320852131,
                "y": -0.7141253447532654,
                "z": 0.3711530566215515
            }
        },
        "name": "move_to_auspresseinheit_C"
    },
    "id": "FMT_move_to_auspresseinheit_C_18",
    "joint_names": [
        "shoulder_pan_joint",
        "shoulder_lift_joint",
        "elbow_joint",
        "wrist_1_joint",
        "wrist_2_joint",
        "wrist_3_joint"
    ],
    "metrics": {
        "cart_traj_len": 0.4924200648053101,
        "distance_elbow_joint": 0.9906691565989325,
        "distance_shoulder_lift_joint": 0.31959944977986754,
        "distance_shoulder_pan_joint": 0.25605800920813415,
        "distance_wrist_1_joint": 0.663034121065054,
        "distance_wrist_2_joint": 1.30587509109199,
        "distance_wrist_3_joint": 0.04507853890815161,
        "smoothness": 0.0,
        "time": 0.484241237,
        "traj_len": 1.8921718649879904,
        "weighted_distance": 2.3747380185244595
    },
    "planner": "FMT",
    "start": {
        "state": {
            "elbow_joint": 1.7527959577737207,
            "shoulder_lift_joint": -0.9740617694225068,
            "shoulder_pan_joint": -2.967991417825858,
            "wrist_1_joint": -0.759517768980727,
            "wrist_2_joint": 1.7443932448377408,
            "wrist_3_joint": -3.0840537646736568
        }
    },
    "waypoints": [
        {
            "positions": [
                -2.967991417825858,
                -0.9740617694225068,
                1.7527959577737207,
                -0.759517768980727,
                1.7443932448377408,
                -3.0840537646736568
            ]
        },
        {
            "positions": [
                -2.9423856169050446,
                -0.9421018244445201,
                1.6537290421138273,
                -0.6932143568742216,
                1.6138057357285418,
                -3.088561618564472
            ]
        },
        {
            "positions": [
                -2.9167798159842313,
                -0.9101418794665332,
                1.5546621264539342,
                -0.6269109447677161,
                1.4832182266193428,
                -3.093069472455287
            ]
        },
        {
            "positions": [
                -2.8911740150634175,
                -0.8781819344885465,
                1.4555952107940409,
                -0.5606075326612108,
                1.3526307175101437,
                -3.0975773263461024
            ]
        },
        {
            "positions": [
                -2.865568214142604,
                -0.8462219895105597,
                1.3565282951341477,
                -0.49430412055470535,
                1.2220432084009447,
                -3.1020851802369176
            ]
        },
        {
            "positions": [
                -2.839962413221791,
                -0.814262044532573,
                1.2574613794742544,
                -0.4280007084482,
                1.0914556992917457,
                -3.106593034127733
            ]
        },
        {
            "positions": [
                -2.8143566123009776,
                -0.7823020995545863,
                1.158394463814361,
                -0.3616972963416946,
                0.9608681901825468,
                -3.1111008880185476
            ]
        },
        {
            "positions": [
                -2.7887508113801642,
                -0.7503421545765995,
                1.059327548154468,
                -0.2953938842351892,
                0.8302806810733478,
                -3.1156087419093628
            ]
        },
        {
            "positions": [
                -2.7631450104593505,
                -0.7183822095986128,
                0.9602606324945746,
                -0.22909047212868372,
                0.6996931719641488,
                -3.120116595800178
            ]
        },
        {
            "positions": [
                -2.737539209538537,
                -0.6864222646206259,
                0.8611937168346814,
                -0.16278706002217835,
                0.5691056628549498,
                -3.124624449690993
            ]
        },
        {
            "positions": [
                -2.711933408617724,
                -0.6544623196426392,
                0.7621268011747881,
                -0.09648364791567296,
                0.4385181537457507,
                -3.1291323035818084
            ]
        }
    ]
}