{
    "goal": {
        "global_pose": {
            "orientation": {
                "w": -0.4816463035849501,
                "x": 0.5182115481033762,
                "y": 0.4908360881923453,
                "z": -0.5084816262002911
            },
            "position": {
                "x": -0.8240239810943604,
                "y": 0.19912469901144506,
                "z": 0.16403168439865112
            }
        },
        "name": "move_to_storage_D"
    },
    "id": "FMT_move_to_storage_D_53",
    "joint_names": [
        "shoulder_pan_joint",
        "shoulder_lift_joint",
        "elbow_joint",
        "wrist_1_joint",
        "wrist_2_joint",
        "wrist_3_joint"
    ],
    "metrics": {
        "cart_traj_len": 0.7953554649058434,
        "distance_elbow_joint": 0.6007638459482714,
        "distance_shoulder_lift_joint": 0.8526627314330435,
        "distance_shoulder_pan_joint": 0.47001915590406024,
        "distance_wrist_1_joint": 3.8316276580139155,
        "distance_wrist_2_joint": 1.7747173471288409,
        "distance_wrist_3_joint": 3.115550721405966,
        "smoothness": 0.08266236943576916,
        "time": 1.437466702,
        "traj_len": 3.2627199481160036,
        "weighted_distance": 4.741601829317681
    },
    "planner": "FMT",
    "start": {
        "state": {
            "elbow_joint": -2.384821988534728,
            "shoulder_lift_joint": -2.2788054721415256,
            "shoulder_pan_joint": -0.1854694642142757,
            "wrist_1_joint": 1.4845938289331202,
            "wrist_2_joint": 0.17898776772866878,
            "wrist_3_joint": 0.037105688729662994
        }
    },
    "waypoints": [
        {
            "positions": [
                -0.1854694642142757,
                -2.2788054721415256,
                -2.384821988534728,
                1.4845938289331202,
                0.17898776772866878,
                0.037105688729662994
            ]
        },
        {
            "positions": [
                -0.1466534915151746,
                -2.2160451322333063,
                -2.3875762104779463,
                1.3943600637066194,
                0.1158452070094958,
                -0.09141920387851651
            ]
        },
        {
            "positions": [
                -0.10783751881607351,
                -2.153284792325087,
                -2.390330432421165,
                1.3041262984801183,
                0.05270264629032281,
                -0.21994409648669602
            ]
        },
        {
            "positions": [
                -0.06902154611697241,
                -2.090524452416868,
                -2.3930846543643836,
                1.2138925332536175,
                -0.010439914428850172,
                -0.34846898909487556
            ]
        },
        {
            "positions": [
                -0.030205573417871306,
                -2.0277641125086485,
                -2.395838876307602,
                1.1236587680271164,
                -0.07358247514802316,
                -0.476993881703055
            ]
        },
        {
            "positions": [
                0.00861039928122978,
                -1.9650037726004292,
                -2.398593098250821,
                1.0334250028006156,
                -0.13672503586719617,
                -0.6055187743112345
            ]
        },
        {
            "positions": [
                0.047426371980330895,
                -1.90224343269221,
                -2.401347320194039,
                0.9431912375741147,
                -0.19986759658636913,
                -0.734043666919414
            ]
        },
        {
            "positions": [
                0.08624234467943201,
                -1.8394830927839907,
                -2.404101542137258,
                0.8529574723476138,
                -0.2630101573055421,
                -0.8625685595275936
            ]
        },
        {
            "positions": [
                0.12505831737853307,
                -1.7767227528757714,
                -2.4068557640804764,
                0.7627237071211128,
                -0.3261527180247151,
                -0.9910934521357732
            ]
        },
        {
            "positions": [
                0.11708374866297049,
                -1.7942517534841358,
                -2.37791926056035,
                0.6072358303110174,
                -0.38963156109348795,
                -1.0954610311627997
            ]
        },
        {
            "positions": [
                0.10910917994740789,
                -1.8117807540925004,
                -2.348982757040224,
                0.4517479535009219,
                -0.45311040416226084,
                -1.1998286101898261
            ]
        },
        {
            "positions": [
                0.1011346112318453,
                -1.8293097547008648,
                -2.320046253520098,
                0.29626007669082655,
                -0.5165892472310336,
                -1.3041961892168525
            ]
        },
        {
            "positions": [
                0.09316004251628271,
                -1.8468387553092294,
                -2.291109749999972,
                0.14077219988073097,
                -0.5800680902998065,
                -1.4085637682438792
            ]
        },
        {
            "positions": [
                0.08518547380072013,
                -1.8643677559175937,
                -2.2621732464798456,
                -0.014715676929364374,
                -0.6435469333685794,
                -1.5129313472709056
            ]
        },
        {
            "positions": [
                0.07721090508515754,
                -1.8818967565259581,
                -2.2332367429597197,
                -0.17020355373945972,
                -0.7070257764373522,
                -1.617298926297932
            ]
        },
        {
            "positions": [
                0.06923633636959495,
                -1.8994257571343227,
                -2.2043002394395934,
                -0.32569143054955507,
                -0.770504619506125,
                -1.7216665053249587
            ]
        },
        {
            "positions": [
                0.061261767654032365,
                -1.916954757742687,
                -2.175363735919467,
                -0.48117930735965087,
                -0.833983462574898,
                -1.826034084351985
            ]
        },
        {
            "positions": [
                0.05328719893846977,
                -1.9344837583510517,
                -2.146427232399341,
                -0.6366671841697462,
                -0.8974623056436708,
                -1.9304016633790115
            ]
        },
        {
            "positions": [
                0.045312630222907185,
                -1.952012758959416,
                -2.117490728879215,
                -0.7921550609798416,
                -0.9609411487124436,
                -2.034769242406038
            ]
        },
        {
            "positions": [
                0.03733806150734459,
                -1.9695417595677807,
                -2.088554225359089,
                -0.9476429377899371,
                -1.0244199917812167,
                -2.139136821433065
            ]
        },
        {
            "positions": [
                0.029363492791782006,
                -1.987070760176145,
                -2.0596177218389626,
                -1.1031308146000323,
                -1.0878988348499892,
                -2.243504400460091
            ]
        },
        {
            "positions": [
                0.021388924076219423,
                -2.0045997607845094,
                -2.0306812183188363,
                -1.2586186914101278,
                -1.151377677918762,
                -2.3478719794871177
            ]
        },
        {
            "positions": [
                0.01341435536065684,
                -2.022128761392874,
                -2.0017447147987104,
                -1.414106568220223,
                -1.214856520987535,
                -2.452239558514144
            ]
        },
        {
            "positions": [
                0.005439786645094244,
                -2.039657762001238,
                -1.9728082112785843,
                -1.569594445030319,
                -1.278335364056308,
                -2.5566071375411705
            ]
        },
        {
            "positions": [
                -0.002534782070468339,
                -2.0571867626096028,
                -1.9438717077584582,
                -1.7250823218404145,
                -1.341814207125081,
                -2.660974716568197
            ]
        },
        {
            "positions": [
                -0.010509350786030935,
                -2.0747157632179674,
                -1.9149352042383319,
                -1.8805701986505097,
                -1.4052930501938534,
                -2.7653422955952234
            ]
        },
        {
            "positions": [
                -0.018483919501593532,
                -2.092244763826332,
                -1.8859987007182057,
                -2.0360580754606055,
                -1.4687718932626264,
                -2.86970987462225
            ]
        },
        {
            "positions": [
                -0.0264584882171561,
                -2.109773764434696,
                -1.8570621971980796,
                -2.1915459522707,
                -1.5322507363313993,
                -2.9740774536492762
            ]
        },
        {
            "positions": [
                -0.03443305693271871,
                -2.1273027650430607,
                -1.8281256936779535,
                -2.3470338290807957,
                -1.595729579400172,
                -3.078445032676303
            ]
        }
    ]
}