{
    "goal": {
        "global_pose": {
            "orientation": {
                "w": 0.7031023502349854,
                "x": -0.7110244035720825,
                "y": 0.007748599164187908,
                "z": 0.005598929710686207
            },
            "position": {
                "x": 0.11585023208521307,
                "y": 0.44412534475326537,
                "z": 0.3711530566215515
            }
        },
        "name": "move_to_auspresseinheit_A"
    },
    "id": "FMT_move_to_auspresseinheit_A_130",
    "joint_names": [
        "shoulder_pan_joint",
        "shoulder_lift_joint",
        "elbow_joint",
        "wrist_1_joint",
        "wrist_2_joint",
        "wrist_3_joint"
    ],
    "metrics": {
        "cart_traj_len": 0.6636141646846911,
        "distance_elbow_joint": 0.028122389471983755,
        "distance_shoulder_lift_joint": 0.5346656187669871,
        "distance_shoulder_pan_joint": 1.0409203303052064,
        "distance_wrist_1_joint": 1.894518916110892,
        "distance_wrist_2_joint": 1.2900863579314992,
        "distance_wrist_3_joint": 0.40753804305679253,
        "smoothness": 1.4665208561315084,
        "time": 1.0651090529999998,
        "traj_len": 2.279441084047438,
        "weighted_distance": 3.0324137276762446
    },
    "planner": "FMT",
    "start": {
        "state": {
            "elbow_joint": 2.4225746658250005,
            "shoulder_lift_joint": -1.3736534386056498,
            "shoulder_pan_joint": -0.3378633547517467,
            "wrist_1_joint": -1.0288598680537169,
            "wrist_2_joint": 1.233022673432363,
            "wrist_3_joint": -3.0940220416140027
        }
    },
    "waypoints": [
        {
            "positions": [
                -0.3378633547517467,
                -1.3736534386056498,
                2.4225746658250005,
                -1.0288598680537169,
                1.233022673432363,
                -3.0940220416140027
            ]
        },
        {
            "positions": [
                -0.2880094355425052,
                -1.4232794722353554,
                2.4224063511583895,
                -0.8923999942703268,
                1.1315291205780094,
                -3.07322626807608
            ]
        },
        {
            "positions": [
                -0.23815551633326365,
                -1.4729055058650613,
                2.4222380364917786,
                -0.7559401204869367,
                1.030035567723656,
                -3.052430494538157
            ]
        },
        {
            "positions": [
                -0.1883015971240221,
                -1.522531539494767,
                2.4220697218251677,
                -0.6194802467035467,
                0.9285420148693023,
                -3.031634721000234
            ]
        },
        {
            "positions": [
                -0.13844767791478058,
                -1.5721575731244726,
                2.4219014071585567,
                -0.48302037292015665,
                0.8270484620149487,
                -3.0108389474623114
            ]
        },
        {
            "positions": [
                -0.08859375870553898,
                -1.6217836067541784,
                2.4217330924919462,
                -0.34656049913676645,
                0.7255549091605951,
                -2.9900431739243882
            ]
        },
        {
            "positions": [
                -0.0387398394962975,
                -1.671409640383884,
                2.4215647778253353,
                -0.21010062535337648,
                0.6240613563062416,
                -2.9692474003864655
            ]
        },
        {
            "positions": [
                0.011114079712944092,
                -1.7210356740135897,
                2.4213964631587244,
                -0.0736407515699864,
                0.5225678034518879,
                -2.948451626848543
            ]
        },
        {
            "positions": [
                0.06096799892218557,
                -1.7706617076432956,
                2.4212281484921134,
                0.06281912221340358,
                0.42107425059753445,
                -2.9276558533106196
            ]
        },
        {
            "positions": [
                0.11082191813142717,
                -1.8202877412730012,
                2.4210598338255025,
                0.19927899599679388,
                0.31958069774318076,
                -2.906860079772697
            ]
        },
        {
            "positions": [
                0.22926892961583367,
                -1.8378940044929284,
                2.415738322331005,
                0.06600298558471765,
                0.3949095741916441,
                -2.9509352960157944
            ]
        },
        {
            "positions": [
                0.3477159411002402,
                -1.8555002677128556,
                2.4104168108365083,
                -0.06727302482735859,
                0.4702384506401074,
                -2.9950105122588915
            ]
        },
        {
            "positions": [
                0.4661629525846467,
                -1.8731065309327826,
                2.405095299342011,
                -0.20054903523943485,
                0.5455673270885707,
                -3.039085728501989
            ]
        },
        {
            "positions": [
                0.5846099640690532,
                -1.8907127941527098,
                2.399773787847514,
                -0.33382504565151105,
                0.620896203537034,
                -3.083160944745086
            ]
        },
        {
            "positions": [
                0.7030569755534597,
                -1.908319057372637,
                2.3944522763530167,
                -0.4671010560635873,
                0.6962250799854973,
                -3.1272361609881836
            ]
        }
    ]
}