{
    "goal": {
        "global_pose": {
            "orientation": {
                "w": -0.4816463035849501,
                "x": 0.5182115481033762,
                "y": 0.4908360881923453,
                "z": -0.5084816262002911
            },
            "position": {
                "x": -0.8240239810943604,
                "y": -0.300875300988555,
                "z": 0.16403168439865112
            }
        },
        "name": "move_to_storage_C"
    },
    "id": "FMT_move_to_storage_C_46",
    "joint_names": [
        "shoulder_pan_joint",
        "shoulder_lift_joint",
        "elbow_joint",
        "wrist_1_joint",
        "wrist_2_joint",
        "wrist_3_joint"
    ],
    "metrics": {
        "cart_traj_len": 0.5764184687586901,
        "distance_elbow_joint": 0.2534853973476703,
        "distance_shoulder_lift_joint": 0.1880227508613881,
        "distance_shoulder_pan_joint": 0.4950615979564694,
        "distance_wrist_1_joint": 0.06493132147391167,
        "distance_wrist_2_joint": 1.0682659913601555,
        "distance_wrist_3_joint": 0.060351242170560315,
        "smoothness": 0.0,
        "time": 0.32668985,
        "traj_len": 1.4594924806829788,
        "weighted_distance": 1.839570085195273
    },
    "planner": "FMT",
    "start": {
        "state": {
            "elbow_joint": 2.010868314990456,
            "shoulder_lift_joint": -1.1634956873337592,
            "shoulder_pan_joint": -2.4736205022346125,
            "wrist_1_joint": -0.8367026794202681,
            "wrist_2_joint": 0.6746043897044499,
            "wrist_3_joint": -3.1496632123970403
        }
    },
    "waypoints": [
        {
            "positions": [
                -2.4736205022346125,
                -1.1634956873337592,
                2.010868314990456,
                -0.8367026794202681,
                0.6746043897044499,
                -3.1496632123970403
            ]
        },
        {
            "positions": [
                -2.5561307685606907,
                -1.1321585621901944,
                1.968620748765844,
                -0.8258807925079494,
                0.8526487215978091,
                -3.13960467203528
            ]
        },
        {
            "positions": [
                -2.638641034886769,
                -1.1008214370466298,
                1.9263731825412325,
                -0.8150589055956309,
                1.0306930534911685,
                -3.12954613167352
            ]
        },
        {
            "positions": [
                -2.7211513012128474,
                -1.0694843119030653,
                1.8841256163166207,
                -0.8042370186833123,
                1.2087373853845276,
                -3.11948759131176
            ]
        },
        {
            "positions": [
                -2.8036615675389256,
                -1.0381471867595005,
                1.841878050092009,
                -0.7934151317709937,
                1.386781717277887,
                -3.10942905095
            ]
        },
        {
            "positions": [
                -2.8861718338650038,
                -1.0068100616159357,
                1.7996304838673973,
                -0.782593244858675,
                1.5648260491712462,
                -3.09937051058824
            ]
        },
        {
            "positions": [
                -2.968682100191082,
                -0.9754729364723711,
                1.7573829176427855,
                -0.7717713579463564,
                1.7428703810646056,
                -3.08931197022648
            ]
        }
    ]
}