{
    "goal": {
        "global_pose": {
            "orientation": {
                "w": -0.4816463035849501,
                "x": 0.5182115481033762,
                "y": 0.4908360881923453,
                "z": -0.5084816262002911
            },
            "position": {
                "x": -0.8240239810943604,
                "y": 0.19912469901144506,
                "z": 0.16403168439865112
            }
        },
        "name": "move_to_storage_D"
    },
    "id": "FMT_move_to_storage_D_38",
    "joint_names": [
        "shoulder_pan_joint",
        "shoulder_lift_joint",
        "elbow_joint",
        "wrist_1_joint",
        "wrist_2_joint",
        "wrist_3_joint"
    ],
    "metrics": {
        "cart_traj_len": 0.6887137543510474,
        "distance_elbow_joint": 1.2679557836458781,
        "distance_shoulder_lift_joint": 0.5330541151844508,
        "distance_shoulder_pan_joint": 0.5415804803408812,
        "distance_wrist_1_joint": 3.8286980996472426,
        "distance_wrist_2_joint": 1.9678596103513248,
        "distance_wrist_3_joint": 3.122551181543222,
        "smoothness": 0.2118280233732312,
        "time": 1.393484181,
        "traj_len": 3.3558455373740017,
        "weighted_distance": 4.827355315677313
    },
    "planner": "FMT",
    "start": {
        "state": {
            "elbow_joint": -2.384821988534728,
            "shoulder_lift_joint": -2.2788054721415256,
            "shoulder_pan_joint": -0.1854694642142757,
            "wrist_1_joint": 1.4845938289331202,
            "wrist_2_joint": 0.17898776772866878,
            "wrist_3_joint": 0.037105688729662994
        }
    },
    "waypoints": [
        {
            "positions": [
                -0.1854694642142757,
                -2.2788054721415256,
                -2.384821988534728,
                1.4845938289331202,
                0.17898776772866878,
                0.037105688729662994
            ]
        },
        {
            "positions": [
                -0.12770962204915787,
                -2.2216927563693845,
                -2.4441871960695467,
                1.4502321778461857,
                0.1951422808019686,
                -0.0998882354261344
            ]
        },
        {
            "positions": [
                -0.06994977988404001,
                -2.1645800405972433,
                -2.5035524036043655,
                1.415870526759251,
                0.21129679387526842,
                -0.2368821595819318
            ]
        },
        {
            "positions": [
                -0.012189937718922156,
                -2.107467324825102,
                -2.5629176111391843,
                1.3815088756723166,
                0.22745130694856824,
                -0.3738760837377292
            ]
        },
        {
            "positions": [
                0.045569904446195686,
                -2.050354609052961,
                -2.6222828186740035,
                1.3471472245853822,
                0.2436058200218681,
                -0.5108700078935265
            ]
        },
        {
            "positions": [
                0.10332974661131358,
                -1.9932418932808198,
                -2.6816480262088223,
                1.3127855734984475,
                0.2597603330951679,
                -0.647863932049324
            ]
        },
        {
            "positions": [
                0.16108958877643142,
                -1.9361291775086786,
                -2.741013233743641,
                1.278423922411513,
                0.27591484616846773,
                -0.7848578562051214
            ]
        },
        {
            "positions": [
                0.1526103962829456,
                -1.9444064740544005,
                -2.70137129728986,
                1.120922696623442,
                0.19456995347666226,
                -0.8848834056228795
            ]
        },
        {
            "positions": [
                0.14413120378945976,
                -1.9526837706001225,
                -2.661729360836079,
                0.9634214708353708,
                0.11322506078485678,
                -0.9849089550406377
            ]
        },
        {
            "positions": [
                0.13565201129597393,
                -1.9609610671458444,
                -2.622087424382298,
                0.8059202450472998,
                0.0318801680930513,
                -1.0849345044583958
            ]
        },
        {
            "positions": [
                0.1271728188024881,
                -1.9692383636915662,
                -2.5824454879285166,
                0.6484190192592286,
                -0.04946472459875417,
                -1.184960053876154
            ]
        },
        {
            "positions": [
                0.11869362630900229,
                -1.977515660237288,
                -2.542803551474736,
                0.4909177934711575,
                -0.13080961729055962,
                -1.284985603293912
            ]
        },
        {
            "positions": [
                0.11021443381551646,
                -1.9857929567830102,
                -2.5031616150209546,
                0.3334165676830865,
                -0.21215450998236512,
                -1.3850111527116702
            ]
        },
        {
            "positions": [
                0.10173524132203063,
                -1.994070253328732,
                -2.4635196785671734,
                0.17591534189501523,
                -0.29349940267417063,
                -1.4850367021294284
            ]
        },
        {
            "positions": [
                0.0932560488285448,
                -2.002347549874454,
                -2.423877742113392,
                0.01841411610694421,
                -0.3748442953659761,
                -1.5850622515471864
            ]
        },
        {
            "positions": [
                0.08477685633505896,
                -2.0106248464201757,
                -2.3842358056596114,
                -0.13908710968112703,
                -0.45618918805778164,
                -1.6850878009649448
            ]
        },
        {
            "positions": [
                0.07629766384157315,
                -2.0189021429658975,
                -2.34459386920583,
                -0.29658833546919805,
                -0.537534080749587,
                -1.7851133503827028
            ]
        },
        {
            "positions": [
                0.06781847134808731,
                -2.0271794395116194,
                -2.304951932752049,
                -0.4540895612572693,
                -0.6188789734413925,
                -1.885138899800461
            ]
        },
        {
            "positions": [
                0.05933927885460148,
                -2.0354567360573417,
                -2.265309996298268,
                -0.6115907870453401,
                -0.700223866133198,
                -1.985164449218219
            ]
        },
        {
            "positions": [
                0.050860086361115664,
                -2.0437340326030635,
                -2.225668059844487,
                -0.7690920128334113,
                -0.7815687588250033,
                -2.085189998635977
            ]
        },
        {
            "positions": [
                0.04238089386762982,
                -2.0520113291487854,
                -2.1860261233907057,
                -0.9265932386214826,
                -0.862913651516809,
                -2.185215548053735
            ]
        },
        {
            "positions": [
                0.033901701374144,
                -2.060288625694507,
                -2.146384186936925,
                -1.0840944644095538,
                -0.9442585442086144,
                -2.2852410974714936
            ]
        },
        {
            "positions": [
                0.025422508880658168,
                -2.068565922240229,
                -2.1067422504831437,
                -1.2415956901976246,
                -1.0256034369004199,
                -2.3852666468892516
            ]
        },
        {
            "positions": [
                0.016943316387172364,
                -2.076843218785951,
                -2.0671003140293625,
                -1.3990969159856954,
                -1.1069483295922253,
                -2.4852921963070096
            ]
        },
        {
            "positions": [
                0.008464123893686504,
                -2.0851205153316728,
                -2.0274583775755817,
                -1.556598141773767,
                -1.188293222284031,
                -2.585317745724768
            ]
        },
        {
            "positions": [
                -1.5068599799328286e-05,
                -2.093397811877395,
                -1.9878164411218004,
                -1.714099367561838,
                -1.2696381149758365,
                -2.685343295142526
            ]
        },
        {
            "positions": [
                -0.008494261093285133,
                -2.101675108423117,
                -1.9481745046680192,
                -1.8716005933499091,
                -1.3509830076676417,
                -2.785368844560284
            ]
        },
        {
            "positions": [
                -0.016973453586770965,
                -2.1099524049688387,
                -1.9085325682142382,
                -2.02910181913798,
                -1.4323279003594471,
                -2.885394393978042
            ]
        },
        {
            "positions": [
                -0.025452646080256797,
                -2.1182297015145606,
                -1.8688906317604572,
                -2.1866030449260516,
                -1.5136727930512528,
                -2.985419943395801
            ]
        },
        {
            "positions": [
                -0.03393183857374263,
                -2.1265069980602824,
                -1.829248695306676,
                -2.3441042707141224,
                -1.5950176857430582,
                -3.085445492813559
            ]
        }
    ]
}