{
    "goal": {
        "global_pose": {
            "orientation": {
                "w": 0.005598929693374612,
                "x": 0.007748599140229565,
                "y": 0.7110244013736278,
                "z": -0.7031023480610252
            },
            "position": {
                "x": -0.8858502320852131,
                "y": -0.7141253447532654,
                "z": 0.3711530566215515
            }
        },
        "name": "move_to_auspresseinheit_C"
    },
    "id": "FMT_move_to_auspresseinheit_C_94",
    "joint_names": [
        "shoulder_pan_joint",
        "shoulder_lift_joint",
        "elbow_joint",
        "wrist_1_joint",
        "wrist_2_joint",
        "wrist_3_joint"
    ],
    "metrics": {
        "cart_traj_len": 0.4918465209058129,
        "distance_elbow_joint": 0.9892378885674531,
        "distance_shoulder_lift_joint": 0.31961896645849996,
        "distance_shoulder_pan_joint": 0.2558559162626528,
        "distance_wrist_1_joint": 0.6606776318272635,
        "distance_wrist_2_joint": 1.3079091536859568,
        "distance_wrist_3_joint": 0.038417039000657294,
        "smoothness": 0.0,
        "time": 0.44960515500000003,
        "traj_len": 1.8898985675962832,
        "weighted_distance": 2.3700500963728635
    },
    "planner": "FMT",
    "start": {
        "state": {
            "elbow_joint": 1.7527959577737207,
            "shoulder_lift_joint": -0.9740617694225068,
            "shoulder_pan_joint": -2.967991417825858,
            "wrist_1_joint": -0.759517768980727,
            "wrist_2_joint": 1.7443932448377408,
            "wrist_3_joint": -3.0840537646736568
        }
    },
    "waypoints": [
        {
            "positions": [
                -2.967991417825858,
                -0.9740617694225068,
                1.7527959577737207,
                -0.759517768980727,
                1.7443932448377408,
                -3.0840537646736568
            ]
        },
        {
            "positions": [
                -2.9424058261995927,
                -0.9420998727766567,
                1.6538721689169753,
                -0.6934500057980006,
                1.613602329469145,
                -3.0878954685737225
            ]
        },
        {
            "positions": [
                -2.9168202345733274,
                -0.9101379761308068,
                1.55494838006023,
                -0.6273822426152743,
                1.4828114141005495,
                -3.0917371724737883
            ]
        },
        {
            "positions": [
                -2.891234642947062,
                -0.8781760794849568,
                1.4560245912034848,
                -0.561314479432548,
                1.3520204987319537,
                -3.095578876373854
            ]
        },
        {
            "positions": [
                -2.865649051320797,
                -0.8462141828391068,
                1.3571008023467395,
                -0.4952467162498216,
                1.2212295833633582,
                -3.09942058027392
            ]
        },
        {
            "positions": [
                -2.8400634596945316,
                -0.8142522861932568,
                1.2581770134899941,
                -0.42917895306709525,
                1.0904386679947624,
                -3.1032622841739856
            ]
        },
        {
            "positions": [
                -2.8144778680682663,
                -0.7822903895474068,
                1.159253224633249,
                -0.3631111898843689,
                0.9596477526261668,
                -3.107103988074051
            ]
        },
        {
            "positions": [
                -2.788892276442001,
                -0.7503284929015568,
                1.0603294357765036,
                -0.2970434267016426,
                0.8288568372575711,
                -3.1109456919741167
            ]
        },
        {
            "positions": [
                -2.7633066848157357,
                -0.7183665962557069,
                0.9614056469197582,
                -0.23097566351891619,
                0.6980659218889753,
                -3.1147873958741825
            ]
        },
        {
            "positions": [
                -2.7377210931894704,
                -0.6864046996098567,
                0.8624818580630128,
                -0.16490790033618985,
                0.5672750065203795,
                -3.1186290997742483
            ]
        },
        {
            "positions": [
                -2.712135501563205,
                -0.6544428029640068,
                0.7635580692062676,
                -0.09884013715346354,
                0.436484091151784,
                -3.122470803674314
            ]
        }
    ]
}