{
    "goal": {
        "global_pose": {
            "orientation": {
                "w": -0.4816463035849501,
                "x": 0.5182115481033762,
                "y": 0.4908360881923453,
                "z": -0.5084816262002911
            },
            "position": {
                "x": -0.8240239810943604,
                "y": 0.19912469901144506,
                "z": 0.16403168439865112
            }
        },
        "name": "move_to_storage_D"
    },
    "id": "FMT_move_to_storage_D_133",
    "joint_names": [
        "shoulder_pan_joint",
        "shoulder_lift_joint",
        "elbow_joint",
        "wrist_1_joint",
        "wrist_2_joint",
        "wrist_3_joint"
    ],
    "metrics": {
        "cart_traj_len": 3.6996227217152398,
        "distance_elbow_joint": 4.207369699109194,
        "distance_shoulder_lift_joint": 1.2648033214799008,
        "distance_shoulder_pan_joint": 2.8127387669019197,
        "distance_wrist_1_joint": 2.2613271333149303,
        "distance_wrist_2_joint": 0.8754345776380582,
        "distance_wrist_3_joint": 3.1340410015576237,
        "smoothness": 2.2773805731397643e-16,
        "time": 1.503118444,
        "traj_len": 3.81519521125743,
        "weighted_distance": 4.894952319897493
    },
    "planner": "FMT",
    "start": {
        "state": {
            "elbow_joint": -2.384821988534728,
            "shoulder_lift_joint": -2.2788054721415256,
            "shoulder_pan_joint": -0.1854694642142757,
            "wrist_1_joint": 1.4845938289331202,
            "wrist_2_joint": 0.17898776772866878,
            "wrist_3_joint": 0.037105688729662994
        }
    },
    "waypoints": [
        {
            "positions": [
                -0.1854694642142757,
                -2.2788054721415256,
                -2.384821988534728,
                1.4845938289331202,
                0.17898776772866878,
                0.037105688729662994
            ]
        },
        {
            "positions": [
                -0.05088251091663176,
                -2.223566092040354,
                -2.264696250965732,
                1.482478688406737,
                0.19566458273911558,
                -0.027734063323254177
            ]
        },
        {
            "positions": [
                0.08370444238101218,
                -2.168326711939182,
                -2.1445705133967357,
                1.4803635478803536,
                0.2123413977495624,
                -0.09257381537617135
            ]
        },
        {
            "positions": [
                0.21829139567865616,
                -2.1130873318380097,
                -2.0244447758277397,
                1.4782484073539701,
                0.2290182127600092,
                -0.15741356742908852
            ]
        },
        {
            "positions": [
                0.3528783489763001,
                -2.057847951736838,
                -1.9043190382587436,
                1.4761332668275868,
                0.245695027770456,
                -0.22225331948200566
            ]
        },
        {
            "positions": [
                0.428764160635666,
                -2.0237851606281407,
                -1.7917412535508275,
                1.4163448522690205,
                0.2690235696714003,
                -0.305828214116434
            ]
        },
        {
            "positions": [
                0.504649972295032,
                -1.9897223695194433,
                -1.6791634688429113,
                1.356556437710454,
                0.29235211157234464,
                -0.38940310875086237
            ]
        },
        {
            "positions": [
                0.5805357839543979,
                -1.9556595784107458,
                -1.5665856841349952,
                1.2967680231518877,
                0.31568065347328894,
                -0.4729780033852907
            ]
        },
        {
            "positions": [
                0.6564215956137638,
                -1.9215967873020483,
                -1.4540078994270789,
                1.2369796085933213,
                0.33900919537423324,
                -0.5565528980197191
            ]
        },
        {
            "positions": [
                0.7323074072731297,
                -1.887533996193351,
                -1.3414301147191627,
                1.1771911940347548,
                0.3623377372751776,
                -0.6401277926541475
            ]
        },
        {
            "positions": [
                0.8081932189324956,
                -1.8534712050846536,
                -1.2288523300112466,
                1.1174027794761885,
                0.3856662791761219,
                -0.7237026872885758
            ]
        },
        {
            "positions": [
                0.8840790305918615,
                -1.819408413975956,
                -1.1162745453033303,
                1.0576143649176222,
                0.4089948210770662,
                -0.8072775819230041
            ]
        },
        {
            "positions": [
                0.9599648422512275,
                -1.7853456228672588,
                -1.0036967605954144,
                0.9978259503590557,
                0.43232336297801055,
                -0.8908524765574325
            ]
        },
        {
            "positions": [
                1.0358506539105934,
                -1.7512828317585614,
                -0.891118975887498,
                0.9380375358004893,
                0.45565190487895485,
                -0.9744273711918608
            ]
        },
        {
            "positions": [
                1.1117364655699593,
                -1.7172200406498639,
                -0.7785411911795819,
                0.8782491212419229,
                0.47898044677989915,
                -1.0580022658262893
            ]
        },
        {
            "positions": [
                1.1876222772293252,
                -1.6831572495411666,
                -0.6659634064716657,
                0.8184607066833566,
                0.5023089886808434,
                -1.1415771604607174
            ]
        },
        {
            "positions": [
                1.2635080888886911,
                -1.6490944584324692,
                -0.5533856217637496,
                0.7586722921247903,
                0.5256375305817877,
                -1.2251520550951458
            ]
        },
        {
            "positions": [
                1.339393900548057,
                -1.615031667323772,
                -0.4408078370558335,
                0.6988838775662238,
                0.5489660724827321,
                -1.3087269497295742
            ]
        },
        {
            "positions": [
                1.415279712207423,
                -1.5809688762150744,
                -0.32823005234791713,
                0.6390954630076574,
                0.5722946143836765,
                -1.3923018443640025
            ]
        },
        {
            "positions": [
                1.491165523866789,
                -1.546906085106377,
                -0.215652267640001,
                0.579307048449091,
                0.5956231562846208,
                -1.4758767389984309
            ]
        },
        {
            "positions": [
                1.5670513355261548,
                -1.5128432939976797,
                -0.10307448293208488,
                0.5195186338905247,
                0.6189516981855651,
                -1.5594516336328592
            ]
        },
        {
            "positions": [
                1.6429371471855208,
                -1.4787805028889822,
                0.00950330177583103,
                0.45973021933195835,
                0.6422802400865093,
                -1.6430265282672876
            ]
        },
        {
            "positions": [
                1.7188229588448867,
                -1.4447177117802847,
                0.1220810864837476,
                0.3999418047733918,
                0.6656087819874537,
                -1.726601422901716
            ]
        },
        {
            "positions": [
                1.7947087705042526,
                -1.4106549206715875,
                0.2346588711916635,
                0.3401533902148255,
                0.688937323888398,
                -1.8101763175361443
            ]
        },
        {
            "positions": [
                1.8705945821636185,
                -1.3765921295628898,
                0.34723665589957986,
                0.28036497565625895,
                0.7122658657893424,
                -1.893751212170573
            ]
        },
        {
            "positions": [
                1.9464803938229844,
                -1.3425293384541925,
                0.45981444060749577,
                0.22057656109769264,
                0.7355944076902867,
                -1.977326106805001
            ]
        },
        {
            "positions": [
                2.02236620548235,
                -1.3084665473454953,
                0.5723922253154121,
                0.16078814653912632,
                0.7589229495912309,
                -2.0609010014394293
            ]
        },
        {
            "positions": [
                2.098252017141716,
                -1.2744037562367978,
                0.6849700100233285,
                0.10099973198056,
                0.7822514914921752,
                -2.1444758960738577
            ]
        },
        {
            "positions": [
                2.174137828801082,
                -1.2403409651281003,
                0.7975477947312444,
                0.04121131742199369,
                0.8055800333931196,
                -2.228050790708286
            ]
        },
        {
            "positions": [
                2.250023640460448,
                -1.206278174019403,
                0.9101255794391603,
                -0.01857709713657263,
                0.8289085752940639,
                -2.3116256853427144
            ]
        },
        {
            "positions": [
                2.325909452119814,
                -1.1722153829107056,
                1.0227033641470766,
                -0.07836551169513917,
                0.8522371171950083,
                -2.3952005799771428
            ]
        },
        {
            "positions": [
                2.4017952637791797,
                -1.1381525918020081,
                1.135281148854993,
                -0.13815392625370548,
                0.8755656590959526,
                -2.478775474611571
            ]
        },
        {
            "positions": [
                2.4776810754385457,
                -1.1040898006933109,
                1.2478589335629093,
                -0.19794234081227202,
                0.898894200996897,
                -2.5623503692459995
            ]
        },
        {
            "positions": [
                2.5535668870979116,
                -1.0700270095846134,
                1.3604367182708255,
                -0.25773075537083834,
                0.9222227428978411,
                -2.645925263880428
            ]
        },
        {
            "positions": [
                2.5683073702158583,
                -1.0588220378000157,
                1.4528589167315533,
                -0.3615312651730326,
                0.9486626633916183,
                -2.7361272736699345
            ]
        },
        {
            "positions": [
                2.5830478533338046,
                -1.047617066015418,
                1.5452811151922814,
                -0.4653317749752268,
                0.9751025838853955,
                -2.826329283459441
            ]
        },
        {
            "positions": [
                2.5977883364517513,
                -1.0364120942308201,
                1.6377033136530093,
                -0.5691322847774211,
                1.0015425043791726,
                -2.9165312932489473
            ]
        },
        {
            "positions": [
                2.6125288195696976,
                -1.0252071224462225,
                1.7301255121137373,
                -0.6729327945796153,
                1.0279824248729499,
                -3.006733303038454
            ]
        },
        {
            "positions": [
                2.6272693026876444,
                -1.0140021506616248,
                1.8225477105744652,
                -0.7767333043818095,
                1.054422345366727,
                -3.0969353128279606
            ]
        }
    ]
}