{
    "goal": {
        "global_pose": {
            "orientation": {
                "w": 0.7031023480610252,
                "x": -0.7110244013736278,
                "y": 0.0077485991402295624,
                "z": 0.005598929693374583
            },
            "position": {
                "x": -0.8841497679147869,
                "y": 0.44412534475326537,
                "z": 0.3711530566215515
            }
        },
        "name": "move_to_auspresseinheit_D"
    },
    "id": "FMT_move_to_auspresseinheit_D_139",
    "joint_names": [
        "shoulder_pan_joint",
        "shoulder_lift_joint",
        "elbow_joint",
        "wrist_1_joint",
        "wrist_2_joint",
        "wrist_3_joint"
    ],
    "metrics": {
        "cart_traj_len": 0.3425710659129608,
        "distance_elbow_joint": 0.6327458634623551,
        "distance_shoulder_lift_joint": 0.11849067576026462,
        "distance_shoulder_pan_joint": 0.13353187771024622,
        "distance_wrist_1_joint": 0.5109158494212696,
        "distance_wrist_2_joint": 1.436670161679209,
        "distance_wrist_3_joint": 0.02552624829024852,
        "smoothness": 1.9737298371844314e-16,
        "time": 0.418333739,
        "traj_len": 1.6905267452257575,
        "weighted_distance": 2.2037511619973267
    },
    "planner": "FMT",
    "start": {
        "state": {
            "elbow_joint": -1.8275523626775212,
            "shoulder_lift_joint": -2.126789852344167,
            "shoulder_pan_joint": -0.03513704404078235,
            "wrist_1_joint": -2.347782403156801,
            "wrist_2_joint": -1.6058999987535132,
            "wrist_3_joint": -3.0880379163319196
        }
    },
    "waypoints": [
        {
            "positions": [
                -0.03513704404078235,
                -2.126789852344167,
                -1.8275523626775212,
                -2.347782403156801,
                -1.6058999987535132,
                -3.0880379163319196
            ]
        },
        {
            "positions": [
                -0.051828528754563126,
                -2.1416011868141998,
                -1.7484591297447267,
                -2.4116468843344596,
                -1.426316228543612,
                -3.0912286973682006
            ]
        },
        {
            "positions": [
                -0.06852001346834391,
                -2.156412521284233,
                -1.6693658968119325,
                -2.4755113655121184,
                -1.246732458333711,
                -3.0944194784044816
            ]
        },
        {
            "positions": [
                -0.08521149818212467,
                -2.171223855754266,
                -1.590272663879138,
                -2.539375846689777,
                -1.06714868812381,
                -3.0976102594407626
            ]
        },
        {
            "positions": [
                -0.10190298289590546,
                -2.186035190224299,
                -1.5111794309463438,
                -2.603240327867436,
                -0.8875649179139087,
                -3.1008010404770436
            ]
        },
        {
            "positions": [
                -0.11859446760968623,
                -2.2008465246943323,
                -1.4320861980135493,
                -2.667104809045094,
                -0.7079811477040076,
                -3.103991821513325
            ]
        },
        {
            "positions": [
                -0.13528595232346702,
                -2.215657859164365,
                -1.3529929650807548,
                -2.730969290222753,
                -0.5283973774941064,
                -3.107182602549606
            ]
        },
        {
            "positions": [
                -0.15197743703724778,
                -2.2304691936343986,
                -1.2738997321479606,
                -2.7948337714004117,
                -0.3488136072842054,
                -3.110373383585887
            ]
        },
        {
            "positions": [
                -0.16866892175102857,
                -2.2452805281044315,
                -1.1948064992151661,
                -2.8586982525780704,
                -0.16922983707430406,
                -3.113564164622168
            ]
        }
    ]
}