{
    "goal": {
        "global_pose": {
            "orientation": {
                "w": 0.5084816217422485,
                "x": -0.49083608388900757,
                "y": 0.5182115435600281,
                "z": -0.4816462993621826
            },
            "position": {
                "x": 0.5540239810943604,
                "y": 0.030875300988554955,
                "z": 0.16403168439865112
            }
        },
        "name": "move_to_storage_A"
    },
    "id": "FMT_move_to_storage_A_141",
    "joint_names": [
        "shoulder_pan_joint",
        "shoulder_lift_joint",
        "elbow_joint",
        "wrist_1_joint",
        "wrist_2_joint",
        "wrist_3_joint"
    ],
    "metrics": {
        "cart_traj_len": 0.35331888655355825,
        "distance_elbow_joint": 0.4481120733769679,
        "distance_shoulder_lift_joint": 0.23510922442406512,
        "distance_shoulder_pan_joint": 0.4631331671257717,
        "distance_wrist_1_joint": 0.238359013952525,
        "distance_wrist_2_joint": 1.0941356803932702,
        "distance_wrist_3_joint": 0.09385760272988808,
        "smoothness": 1.1102230244806396e-15,
        "time": 0.370817087,
        "traj_len": 1.6039659478936854,
        "weighted_distance": 2.023095811326804
    },
    "planner": "FMT",
    "start": {
        "state": {
            "elbow_joint": 1.971548259319323,
            "shoulder_lift_joint": -1.1394851275133948,
            "shoulder_pan_joint": 0.1228115487234821,
            "wrist_1_joint": -0.7804723859257726,
            "wrist_2_joint": 0.12958671773740124,
            "wrist_3_joint": -3.192489227718131
        }
    },
    "waypoints": [
        {
            "positions": [
                0.1228115487234821,
                -1.1394851275133948,
                1.971548259319323,
                -0.7804723859257726,
                0.12958671773740124,
                -3.192489227718131
            ]
        },
        {
            "positions": [
                0.05664966770551472,
                -1.1730721595739755,
                2.035564269801747,
                -0.8145236736332762,
                0.28589181493643984,
                -3.1790809987567186
            ]
        },
        {
            "positions": [
                -0.009512213312452666,
                -1.2066591916345564,
                2.099580280284171,
                -0.8485749613407798,
                0.4421969121354784,
                -3.165672769795306
            ]
        },
        {
            "positions": [
                -0.07567409433042005,
                -1.240246223695137,
                2.163596290766595,
                -0.8826262490482834,
                0.598502009334517,
                -3.1522645408338934
            ]
        },
        {
            "positions": [
                -0.14183597534838743,
                -1.2738332557557177,
                2.2276123012490188,
                -0.9166775367557869,
                0.7548071065335556,
                -3.138856311872481
            ]
        },
        {
            "positions": [
                -0.20799785636635482,
                -1.3074202878162984,
                2.291628311731443,
                -0.9507288244632905,
                0.9111122037325943,
                -3.1254480829110682
            ]
        },
        {
            "positions": [
                -0.2741597373843222,
                -1.3410073198768793,
                2.355644322213867,
                -0.984780112170794,
                1.0674173009316328,
                -3.1120398539496557
            ]
        },
        {
            "positions": [
                -0.3403216184022896,
                -1.37459435193746,
                2.419660332696291,
                -1.0188313998782976,
                1.2237223981306715,
                -3.098631624988243
            ]
        }
    ]
}{
    "goal": {
        "global_pose": {
            "orientation": {
                "w": 0.5084816217422485,
                "x": -0.49083608388900757,
                "y": 0.5182115435600281,
                "z": -0.4816462993621826
            },
            "position": {
                "x": 0.5540239810943604,
                "y": 0.030875300988554955,
                "z": 0.16403168439865112
            }
        },
        "name": "move_to_storage_A"
    },
    "id": "FMT_move_to_storage_A_141",
    "joint_names": [
        "shoulder_pan_joint",
        "shoulder_lift_joint",
        "elbow_joint",
        "wrist_1_joint",
        "wrist_2_joint",
        "wrist_3_joint"
    ],
    "metrics": {
        "cart_traj_len": 0.35353790868697826,
        "distance_elbow_joint": 0.44908236066440343,
        "distance_shoulder_lift_joint": 0.2344224522635261,
        "distance_shoulder_pan_joint": 0.4641463575811822,
        "distance_wrist_1_joint": 0.23592863283873045,
        "distance_wrist_2_joint": 1.0919386491156922,
        "distance_wrist_3_joint": 0.09161240757468692,
        "smoothness": 4.440892133664971e-16,
        "time": 0.415251765,
        "traj_len": 1.602226844126081,
        "weighted_distance": 2.0194610561092823
    },
    "planner": "FMT",
    "start": {
        "state": {
            "elbow_joint": 1.97154746011099,
            "shoulder_lift_joint": -1.13948474672311,
            "shoulder_pan_joint": 0.12281154466712228,
            "wrist_1_joint": -0.7804688027058302,
            "wrist_2_joint": 0.12958655903071145,
            "wrist_3_joint": 3.0906928834467795
        }
    },
    "waypoints": [
        {
            "positions": [
                0.12281154466712228,
                -1.13948474672311,
                1.97154746011099,
                -0.7804688027058302,
                0.12958655903071145,
                3.0906928834467795
            ]
        },
        {
            "positions": [
                0.05650492215552483,
                -1.1729736684750423,
                2.0357020830630477,
                -0.8141728931113631,
                0.2855777946186675,
                3.1037803702431632
            ]
        },
        {
            "positions": [
                -0.009801700356072626,
                -1.2064625902269746,
                2.099856706015105,
                -0.847876983516896,
                0.4415690302066235,
                3.1168678570395474
            ]
        },
        {
            "positions": [
                -0.0761083228676701,
                -1.2399515119789069,
                2.1640113289671628,
                -0.8815810739224289,
                0.5975602657945795,
                3.129955343835931
            ]
        },
        {
            "positions": [
                -0.14241494537926752,
                -1.2734404337308391,
                2.2281659519192205,
                -0.9152851643279618,
                0.7535515013825356,
                3.143042830632315
            ]
        },
        {
            "positions": [
                -0.208721567890865,
                -1.3069293554827714,
                2.2923205748712783,
                -0.9489892547334948,
                0.9095427369704916,
                3.1561303174286985
            ]
        },
        {
            "positions": [
                -0.27502819040246246,
                -1.3404182772347037,
                2.3564751978233356,
                -0.9826933451390277,
                1.0655339725584476,
                3.1692178042250827
            ]
        },
        {
            "positions": [
                -0.3413348129140599,
                -1.373907198986636,
                2.4206298207753933,
                -1.0163974355445606,
                1.2215252081464036,
                3.1823052910214664
            ]
        }
    ]
}{
    "goal": {
        "global_pose": {
            "orientation": {
                "w": 0.5084816217422485,
                "x": -0.49083608388900757,
                "y": 0.5182115435600281,
                "z": -0.4816462993621826
            },
            "position": {
                "x": 0.5540239810943604,
                "y": 0.030875300988554955,
                "z": 0.16403168439865112
            }
        },
        "name": "move_to_storage_A"
    },
    "id": "FMT_move_to_storage_A_141",
    "joint_names": [
        "shoulder_pan_joint",
        "shoulder_lift_joint",
        "elbow_joint",
        "wrist_1_joint",
        "wrist_2_joint",
        "wrist_3_joint"
    ],
    "metrics": {
        "cart_traj_len": 0.35229939916235387,
        "distance_elbow_joint": 0.448715270183365,
        "distance_shoulder_lift_joint": 0.23406423892368977,
        "distance_shoulder_pan_joint": 0.45916371556358854,
        "distance_wrist_1_joint": 0.23630872977662443,
        "distance_wrist_2_joint": 1.1037951247708668,
        "distance_wrist_3_joint": 0.08929189167401042,
        "smoothness": 8.881784197001252e-16,
        "time": 0.381059206,
        "traj_len": 1.6035395133554224,
        "weighted_distance": 2.0223814202043235
    },
    "planner": "FMT",
    "start": {
        "state": {
            "elbow_joint": 1.9715472970024885,
            "shoulder_lift_joint": -1.1394870060712896,
            "shoulder_pan_joint": 0.12281152778156021,
            "wrist_1_joint": -0.780463741449964,
            "wrist_2_joint": 0.12958659822042276,
            "wrist_3_joint": 3.090690232415272
        }
    },
    "waypoints": [
        {
            "positions": [
                0.12281152778156021,
                -1.1394870060712896,
                1.9715472970024885,
                -0.780463741449964,
                0.12958659822042276,
                3.090690232415272
            ]
        },
        {
            "positions": [
                0.05721671127247614,
                -1.1729247544889596,
                2.035649478457255,
                -0.8142221314180532,
                0.2872716160448323,
                3.1034462169401307
            ]
        },
        {
            "positions": [
                -0.008378105236607924,
                -1.2063625029066296,
                2.0997516599120214,
                -0.8479805213861424,
                0.4449566338692419,
                3.116202201464989
            ]
        },
        {
            "positions": [
                -0.07397292174569198,
                -1.2398002513242996,
                2.163853841366788,
                -0.8817389113542315,
                0.6026416516936514,
                3.128958185989848
            ]
        },
        {
            "positions": [
                -0.13956773825477606,
                -1.2732379997419694,
                2.2279560228215542,
                -0.9154973013223208,
                0.7603266695180609,
                3.1417141705147063
            ]
        },
        {
            "positions": [
                -0.20516255476386017,
                -1.3066757481596394,
                2.2920582042763207,
                -0.94925569129041,
                0.9180116873424705,
                3.154470155039565
            ]
        },
        {
            "positions": [
                -0.2707573712729442,
                -1.3401134965773094,
                2.356160385731087,
                -0.9830140812584992,
                1.07569670516688,
                3.1672261395644234
            ]
        },
        {
            "positions": [
                -0.3363521877820283,
                -1.3735512449949794,
                2.4202625671858535,
                -1.0167724712265884,
                1.2333817229912896,
                3.1799821240892823
            ]
        }
    ]
}