{
    "goal": {
        "global_pose": {
            "orientation": {
                "w": -0.00223480608172531,
                "x": 0.0024358444001904467,
                "y": 0.7094548369677653,
                "z": -0.704743149386269
            },
            "position": {
                "x": 0.6205249238014221,
                "y": -0.6371506643295288,
                "z": 0.19426114857196808
            }
        },
        "name": "move_to_magneteinheit_B"
    },
    "id": "FMT_move_to_magneteinheit_B_14",
    "joint_names": [
        "shoulder_pan_joint",
        "shoulder_lift_joint",
        "elbow_joint",
        "wrist_1_joint",
        "wrist_2_joint",
        "wrist_3_joint"
    ],
    "metrics": {
        "cart_traj_len": 2.1257066622749066,
        "distance_elbow_joint": 1.1802028770506148,
        "distance_shoulder_lift_joint": 1.3822863838425072,
        "distance_shoulder_pan_joint": 2.0084540721744224,
        "distance_wrist_1_joint": 0.7219711510945945,
        "distance_wrist_2_joint": 1.791332818505942,
        "distance_wrist_3_joint": 1.0102891709606077,
        "smoothness": 0.762511686197834,
        "time": 1.487010776,
        "traj_len": 2.8450898884971436,
        "weighted_distance": 3.5536486580907853
    },
    "planner": "FMT",
    "start": {
        "state": {
            "elbow_joint": 2.6216224122426386,
            "shoulder_lift_joint": -1.4174107377796124,
            "shoulder_pan_joint": 0.7066234856936794,
            "wrist_1_joint": 1.9546482284002225,
            "wrist_2_joint": -0.7096286983471962,
            "wrist_3_joint": 0.005740856962016249
        }
    },
    "waypoints": [
        {
            "positions": [
                0.7066234856936794,
                -1.4174107377796124,
                2.6216224122426386,
                1.9546482284002225,
                -0.7096286983471962,
                0.005740856962016249
            ]
        },
        {
            "positions": [
                0.7442874198882827,
                -1.420641408376012,
                2.678162367155407,
                1.9297679212238004,
                -0.6406548572312638,
                -0.007667896051055513
            ]
        },
        {
            "positions": [
                0.7819513540828861,
                -1.4238720789724117,
                2.734702322068175,
                1.9048876140473785,
                -0.5716810161153313,
                -0.021076649064127276
            ]
        },
        {
            "positions": [
                0.8409203970482908,
                -1.5021699061256784,
                2.669914195471291,
                1.9009424331509859,
                -0.5712226161381124,
                -0.02122143288578049
            ]
        },
        {
            "positions": [
                0.8998894400136955,
                -1.5804677332789452,
                2.6051260688744065,
                1.8969972522545935,
                -0.5707642161608937,
                -0.021366216707433702
            ]
        },
        {
            "positions": [
                0.8758104670348182,
                -1.6176964197224064,
                2.5083704607931394,
                1.853397244408254,
                -0.6154222402640636,
                -0.11551569888688201
            ]
        },
        {
            "positions": [
                0.8517314940559408,
                -1.6549251061658676,
                2.4116148527118724,
                1.8097972365619146,
                -0.6600802643672334,
                -0.2096651810663303
            ]
        },
        {
            "positions": [
                0.8276525210770636,
                -1.6921537926093289,
                2.3148592446306053,
                1.7661972287155752,
                -0.7047382884704033,
                -0.30381466324577866
            ]
        },
        {
            "positions": [
                0.8035735480981863,
                -1.72938247905279,
                2.2181036365493383,
                1.7225972208692357,
                -0.7493963125735732,
                -0.39796414542522696
            ]
        },
        {
            "positions": [
                0.7337466308775971,
                -1.7318241248343458,
                2.1179794087862236,
                1.6900541624709962,
                -0.8306825276645905,
                -0.5028902924593256
            ]
        },
        {
            "positions": [
                0.6159576802548609,
                -1.6555474822066476,
                2.0858079763617146,
                1.7227239542685224,
                -0.9301503865800149,
                -0.46705757663509234
            ]
        },
        {
            "positions": [
                0.49816872963212455,
                -1.5792708395789496,
                2.0536365439372055,
                1.7553937460660487,
                -1.0296182454954395,
                -0.4312248608108591
            ]
        },
        {
            "positions": [
                0.38037977900938835,
                -1.5029941969512515,
                2.0214651115126965,
                1.788063537863575,
                -1.129086104410864,
                -0.39539214498662584
            ]
        },
        {
            "positions": [
                0.2625908283866521,
                -1.4267175543235533,
                1.9892936790881874,
                1.8207333296611012,
                -1.2285539633262883,
                -0.3595594291623926
            ]
        },
        {
            "positions": [
                0.14480187776391584,
                -1.3504409116958551,
                1.9571222466636784,
                1.8534031214586277,
                -1.3280218222417128,
                -0.3237267133381593
            ]
        },
        {
            "positions": [
                0.027012927141179643,
                -1.274164269068157,
                1.9249508142391694,
                1.886072913256154,
                -1.4274896811571374,
                -0.2878939975139261
            ]
        },
        {
            "positions": [
                -0.09077602348155667,
                -1.1978876264404588,
                1.8927793818146603,
                1.9187427050536803,
                -1.5269575400725617,
                -0.2520612816896928
            ]
        },
        {
            "positions": [
                -0.20856497410429287,
                -1.1216109838127608,
                1.8606079493901513,
                1.9514124968512065,
                -1.6264253989879862,
                -0.21622856586545952
            ]
        },
        {
            "positions": [
                -0.3263539247270293,
                -1.0453343411850624,
                1.8284365169656422,
                1.9840822886487328,
                -1.7258932579034107,
                -0.1803958500412262
            ]
        },
        {
            "positions": [
                -0.4441428753497654,
                -0.9690576985573645,
                1.7962650845411332,
                2.0167520804462593,
                -1.825361116818835,
                -0.14456313421699296
            ]
        },
        {
            "positions": [
                -0.5619318259725017,
                -0.8927810559296664,
                1.7640936521166242,
                2.0494218722437854,
                -1.9248289757342598,
                -0.10873041839275976
            ]
        },
        {
            "positions": [
                -0.6797207765952378,
                -0.8165044133019683,
                1.7319222196921151,
                2.082091664041312,
                -2.024296834649684,
                -0.07289770256852651
            ]
        },
        {
            "positions": [
                -0.7975097272179743,
                -0.74022777067427,
                1.699750787267606,
                2.1147614558388383,
                -2.1237646935651084,
                -0.037064986744293205
            ]
        },
        {
            "positions": [
                -0.9152986778407105,
                -0.663951128046572,
                1.667579354843097,
                2.1474312476363644,
                -2.223232552480533,
                -0.0012322709200599377
            ]
        }
    ]
}