{
    "goal": {
        "global_pose": {
            "orientation": {
                "w": -0.00223480608172531,
                "x": 0.0024358444001904467,
                "y": 0.7094548369677653,
                "z": -0.704743149386269
            },
            "position": {
                "x": 0.6205249238014221,
                "y": -0.6371506643295288,
                "z": 0.19426114857196808
            }
        },
        "name": "move_to_magneteinheit_B"
    },
    "id": "FMT_move_to_magneteinheit_B_60",
    "joint_names": [
        "shoulder_pan_joint",
        "shoulder_lift_joint",
        "elbow_joint",
        "wrist_1_joint",
        "wrist_2_joint",
        "wrist_3_joint"
    ],
    "metrics": {
        "cart_traj_len": 1.7529969957570237,
        "distance_elbow_joint": 1.4972290716587364,
        "distance_shoulder_lift_joint": 1.2238281425381783,
        "distance_shoulder_pan_joint": 1.7157049798065849,
        "distance_wrist_1_joint": 0.7264997691058808,
        "distance_wrist_2_joint": 2.5355235227985404,
        "distance_wrist_3_joint": 0.8035714028640919,
        "smoothness": 1.7083949618852978,
        "time": 1.52778664,
        "traj_len": 2.91588012249681,
        "weighted_distance": 3.656709311170991
    },
    "planner": "FMT",
    "start": {
        "state": {
            "elbow_joint": 2.6216224122426386,
            "shoulder_lift_joint": -1.4174107377796124,
            "shoulder_pan_joint": 0.7066234856936794,
            "wrist_1_joint": 1.9546482284002225,
            "wrist_2_joint": -0.7096286983471962,
            "wrist_3_joint": 0.005740856962016249
        }
    },
    "waypoints": [
        {
            "positions": [
                0.7066234856936794,
                -1.4174107377796124,
                2.6216224122426386,
                1.9546482284002225,
                -0.7096286983471962,
                0.005740856962016249
            ]
        },
        {
            "positions": [
                0.6399538955695389,
                -1.3931084357779948,
                2.5768014880273094,
                2.0002869513232593,
                -0.6079288561835243,
                0.08077894048948459
            ]
        },
        {
            "positions": [
                0.5732843054453982,
                -1.3688061337763775,
                2.5319805638119797,
                2.045925674246296,
                -0.5062290140198524,
                0.15581702401695294
            ]
        },
        {
            "positions": [
                0.5066147153212577,
                -1.34450383177476,
                2.4871596395966504,
                2.091564397169333,
                -0.40452917185618054,
                0.23085510754442126
            ]
        },
        {
            "positions": [
                0.43994512519711715,
                -1.3202015297731426,
                2.4423387153813207,
                2.13720312009237,
                -0.30282932969250864,
                0.3058931910718896
            ]
        },
        {
            "positions": [
                0.3732755350729766,
                -1.295899227771525,
                2.3975177911659915,
                2.1828418430154066,
                -0.20112948752883675,
                0.38093127459935794
            ]
        },
        {
            "positions": [
                0.38512005403495775,
                -1.3547485899074792,
                2.4656205323122906,
                2.116775795083903,
                -0.2911021756008412,
                0.389245753592742
            ]
        },
        {
            "positions": [
                0.39696457299693894,
                -1.413597952043433,
                2.53372327345859,
                2.050709747152399,
                -0.3810748636728456,
                0.39756023258612605
            ]
        },
        {
            "positions": [
                0.4088090919589201,
                -1.4724473141793868,
                2.6018260146048893,
                1.9846436992208951,
                -0.47104755174485,
                0.40587471157951005
            ]
        },
        {
            "positions": [
                0.42065361092090126,
                -1.5312966763153408,
                2.6699287557511884,
                1.9185776512893913,
                -0.5610202398168544,
                0.4141891905728941
            ]
        },
        {
            "positions": [
                0.3252979713967614,
                -1.4693738774591782,
                2.5984492210371246,
                1.9352949343440113,
                -0.6801012083662947,
                0.3859661141976646
            ]
        },
        {
            "positions": [
                0.22994233187262164,
                -1.4074510786030159,
                2.526969686323061,
                1.9520122173986314,
                -0.799182176915735,
                0.357743037822435
            ]
        },
        {
            "positions": [
                0.1345866923484818,
                -1.3455282797468533,
                2.455490151608997,
                1.9687295004532515,
                -0.9182631454651753,
                0.32951996144720547
            ]
        },
        {
            "positions": [
                0.03923105282434203,
                -1.2836054808906907,
                2.3840106168949333,
                1.9854467835078717,
                -1.0373441140146156,
                0.30129688507197594
            ]
        },
        {
            "positions": [
                -0.05612458669979786,
                -1.2216826820345283,
                2.3125310821808696,
                2.0021640665624916,
                -1.1564250825640559,
                0.27307380869674636
            ]
        },
        {
            "positions": [
                -0.15148022622393764,
                -1.1597598831783658,
                2.241051547466806,
                2.0188813496171116,
                -1.2755060511134961,
                0.2448507323215168
            ]
        },
        {
            "positions": [
                -0.24683586574807748,
                -1.0978370843222032,
                2.169572012752742,
                2.035598632671732,
                -1.3945870196629364,
                0.21662765594628725
            ]
        },
        {
            "positions": [
                -0.3421915052722172,
                -1.0359142854660406,
                2.0980924780386783,
                2.052315915726352,
                -1.5136679882123767,
                0.18840457957105772
            ]
        },
        {
            "positions": [
                -0.43754714479635715,
                -0.9739914866098781,
                2.0266129433246145,
                2.0690331987809722,
                -1.632748956761817,
                0.16018150319582813
            ]
        },
        {
            "positions": [
                -0.532902784320497,
                -0.9120686877537156,
                1.9551334086105507,
                2.0857504818355923,
                -1.7518299253112573,
                0.1319584268205986
            ]
        },
        {
            "positions": [
                -0.6282584238446368,
                -0.850145888897553,
                1.8836538738964872,
                2.1024677648902124,
                -1.8709108938606975,
                0.10373535044536902
            ]
        },
        {
            "positions": [
                -0.7236140633687765,
                -0.7882230900413906,
                1.8121743391824234,
                2.1191850479448324,
                -1.9899918624101378,
                0.0755122740701395
            ]
        },
        {
            "positions": [
                -0.8189697028929165,
                -0.726300291185228,
                1.7406948044683597,
                2.1359023309994525,
                -2.109072830959578,
                0.04728919769490991
            ]
        },
        {
            "positions": [
                -0.9143253424170561,
                -0.6643774923290655,
                1.669215269754296,
                2.1526196140540725,
                -2.2281537995090184,
                0.01906612131968038
            ]
        }
    ]
}