{
    "goal": {
        "global_pose": {
            "orientation": {
                "w": 0.7047431493862688,
                "x": -0.7094548369677653,
                "y": 0.0024358444001904,
                "z": -0.0022348060817251984
            },
            "position": {
                "x": -0.39052492380142206,
                "y": 0.3671506643295288,
                "z": 0.19426114857196808
            }
        },
        "name": "move_to_magneteinheit_D"
    },
    "id": "FMT_move_to_magneteinheit_D_81",
    "joint_names": [
        "shoulder_pan_joint",
        "shoulder_lift_joint",
        "elbow_joint",
        "wrist_1_joint",
        "wrist_2_joint",
        "wrist_3_joint"
    ],
    "metrics": {
        "cart_traj_len": 6.580296324837843,
        "distance_elbow_joint": 3.13957101802636,
        "distance_shoulder_lift_joint": 1.629893739269492,
        "distance_shoulder_pan_joint": 9.103903494137413,
        "distance_wrist_1_joint": 1.5423992652089398,
        "distance_wrist_2_joint": 2.4398688828056745,
        "distance_wrist_3_joint": 3.1951192012083895,
        "smoothness": 0.285993382626475,
        "time": 1.498464154,
        "traj_len": 4.588110242862115,
        "weighted_distance": 5.605645560601177
    },
    "planner": "FMT",
    "start": {
        "state": {
            "elbow_joint": 0.749534889911806,
            "shoulder_lift_joint": -0.6476975780787326,
            "shoulder_pan_joint": -2.711696901376241,
            "wrist_1_joint": -0.07506478083263063,
            "wrist_2_joint": 0.43296659715538205,
            "wrist_3_joint": -3.14703540197715
        }
    },
    "waypoints": [
        {
            "positions": [
                -2.711696901376241,
                -0.6476975780787326,
                0.749534889911806,
                -0.07506478083263063,
                0.43296659715538205,
                -3.14703540197715
            ]
        },
        {
            "positions": [
                -2.7312595733858895,
                -0.6556633030746364,
                0.6357031793343572,
                -0.007297385705533607,
                0.353475711530297,
                -3.0662765006260075
            ]
        },
        {
            "positions": [
                -2.750822245395538,
                -0.66362902807054,
                0.5218714687569085,
                0.060470009421563414,
                0.2739848259052119,
                -2.985517599274865
            ]
        },
        {
            "positions": [
                -2.7703849174051864,
                -0.6715947530664438,
                0.4080397581794597,
                0.12823740454866045,
                0.19449394028012684,
                -2.9047586979237225
            ]
        },
        {
            "positions": [
                -2.7676280514776246,
                -0.6854375172586304,
                0.3147589438699331,
                0.17559610550068627,
                0.1368997927238617,
                -2.8363897586086795
            ]
        },
        {
            "positions": [
                -2.7648711855500623,
                -0.6992802814508171,
                0.22147812956040652,
                0.22295480645271212,
                0.07930564516759658,
                -2.7680208192936364
            ]
        },
        {
            "positions": [
                -2.7621143196225004,
                -0.7131230456430038,
                0.1281973152508799,
                0.270313507404738,
                0.021711497611331454,
                -2.6996518799785933
            ]
        },
        {
            "positions": [
                -2.5387780480092297,
                -0.7162113737992646,
                0.0792464202877799,
                0.28961157775609364,
                -0.014332026265919118,
                -2.6418770075301774
            ]
        },
        {
            "positions": [
                -2.315441776395959,
                -0.7192997019555254,
                0.030295525324679884,
                0.30890964810744925,
                -0.05037555014316969,
                -2.5841021350817615
            ]
        },
        {
            "positions": [
                -2.092105504782688,
                -0.7223880301117862,
                -0.018655369638420127,
                0.3282077184588049,
                -0.08641907402042026,
                -2.5263272626333455
            ]
        },
        {
            "positions": [
                -1.8687692331694172,
                -0.725476358268047,
                -0.06760626460152014,
                0.3475057888101606,
                -0.12246259789767083,
                -2.4685523901849296
            ]
        },
        {
            "positions": [
                -1.6454329615561465,
                -0.7285646864243078,
                -0.11655715956462015,
                0.36680385916151625,
                -0.1585061217749214,
                -2.4107775177365136
            ]
        },
        {
            "positions": [
                -1.4220966899428757,
                -0.7316530145805686,
                -0.16550805452772016,
                0.38610192951287187,
                -0.19454964565217198,
                -2.3530026452880977
            ]
        },
        {
            "positions": [
                -1.198760418329605,
                -0.7347413427368293,
                -0.21445894949082017,
                0.4053999998642275,
                -0.2305931695294225,
                -2.2952277728396817
            ]
        },
        {
            "positions": [
                -0.975424146716334,
                -0.7378296708930902,
                -0.2634098444539202,
                0.42469807021558315,
                -0.2666366934066731,
                -2.2374529003912658
            ]
        },
        {
            "positions": [
                -0.7520878751030633,
                -0.740917999049351,
                -0.3123607394170202,
                0.4439961405669388,
                -0.30268021728392364,
                -2.17967802794285
            ]
        },
        {
            "positions": [
                -0.5287516034897926,
                -0.7440063272056118,
                -0.3613116343801202,
                0.4632942109182945,
                -0.33872374116117426,
                -2.121903155494434
            ]
        },
        {
            "positions": [
                -0.3054153318765218,
                -0.7470946553618726,
                -0.4102625293432202,
                0.48259228126965015,
                -0.3747672650384248,
                -2.064128283046018
            ]
        },
        {
            "positions": [
                -0.08207906026325107,
                -0.7501829835181334,
                -0.45921342430632023,
                0.5018903516210058,
                -0.4108107889156754,
                -2.006353410597602
            ]
        },
        {
            "positions": [
                0.14125721135001967,
                -0.7532713116743942,
                -0.5081643192694203,
                0.5211884219723615,
                -0.4468543127929259,
                -1.9485785381491858
            ]
        },
        {
            "positions": [
                0.3645934829632904,
                -0.756359639830655,
                -0.5571152142325202,
                0.540486492323717,
                -0.48289783667017644,
                -1.8908036657007699
            ]
        },
        {
            "positions": [
                0.5879297545765607,
                -0.7594479679869158,
                -0.6060661091956201,
                0.5597845626750727,
                -0.5189413605474269,
                -1.833028793252354
            ]
        },
        {
            "positions": [
                0.8112660261898323,
                -0.7625362961431766,
                -0.6550170041587202,
                0.5790826330264284,
                -0.5549848844246776,
                -1.7752539208039377
            ]
        },
        {
            "positions": [
                1.0346022978031026,
                -0.7656246242994375,
                -0.7039678991218203,
                0.598380703377784,
                -0.5910284083019282,
                -1.7174790483555218
            ]
        },
        {
            "positions": [
                1.2579385694163738,
                -0.7687129524556983,
                -0.7529187940849202,
                0.6176787737291396,
                -0.6270719321791787,
                -1.659704175907106
            ]
        },
        {
            "positions": [
                1.4812748410296441,
                -0.771801280611959,
                -0.8018696890480204,
                0.6369768440804953,
                -0.6631154560564292,
                -1.6019293034586901
            ]
        },
        {
            "positions": [
                1.7046111126429153,
                -0.7748896087682198,
                -0.8508205840111203,
                0.6562749144318509,
                -0.6991589799336799,
                -1.544154431010274
            ]
        },
        {
            "positions": [
                1.9279473842561856,
                -0.7779779369244806,
                -0.8997714789742204,
                0.6755729847832066,
                -0.7352025038109304,
                -1.486379558561858
            ]
        },
        {
            "positions": [
                2.151283655869457,
                -0.7810662650807414,
                -0.9487223739373203,
                0.6948710551345623,
                -0.771246027688181,
                -1.428604686113442
            ]
        },
        {
            "positions": [
                2.374619927482727,
                -0.7841545932370022,
                -0.9976732689004202,
                0.7141691254859179,
                -0.8072895515654315,
                -1.370829813665026
            ]
        },
        {
            "positions": [
                2.5979561990959983,
                -0.787242921393263,
                -1.0466241638635203,
                0.7334671958372736,
                -0.8433330754426822,
                -1.3130549412166101
            ]
        },
        {
            "positions": [
                2.8212924707092695,
                -0.7903312495495238,
                -1.0955750588266204,
                0.7527652661886293,
                -0.8793765993199327,
                -1.2552800687681942
            ]
        },
        {
            "positions": [
                3.0446287423225398,
                -0.7934195777057846,
                -1.1445259537897203,
                0.7720633365399849,
                -0.9154201231971832,
                -1.1975051963197783
            ]
        },
        {
            "positions": [
                2.904185185001638,
                -0.8579487837771951,
                -1.1986785700647131,
                0.8022925168806947,
                -0.8679643770035698,
                -1.1433491530349513
            ]
        },
        {
            "positions": [
                2.763741627680736,
                -0.9224779898486055,
                -1.2528311863397057,
                0.8325216972214045,
                -0.8205086308099563,
                -1.0891931097501244
            ]
        },
        {
            "positions": [
                2.6232980703598336,
                -0.987007195920016,
                -1.3069838026146985,
                0.8627508775621142,
                -0.7730528846163427,
                -1.0350370664652977
            ]
        },
        {
            "positions": [
                2.482854513038932,
                -1.0515364019914264,
                -1.3611364188896913,
                0.892980057902824,
                -0.7255971384227292,
                -0.9808810231804708
            ]
        },
        {
            "positions": [
                2.34241095571803,
                -1.1160656080628368,
                -1.415289035164684,
                0.9232092382435337,
                -0.6781413922291157,
                -0.9267249798956438
            ]
        },
        {
            "positions": [
                2.201967398397128,
                -1.1805948141342473,
                -1.4694416514396766,
                0.9534384185842435,
                -0.6306856460355023,
                -0.8725689366108169
            ]
        },
        {
            "positions": [
                2.0615238410762258,
                -1.2451240202056577,
                -1.5235942677146694,
                0.9836675989249533,
                -0.5832298998418888,
                -0.8184128933259901
            ]
        },
        {
            "positions": [
                1.921080283755324,
                -1.3096532262770681,
                -1.5777468839896622,
                1.013896779265663,
                -0.5357741536482752,
                -0.7642568500411633
            ]
        },
        {
            "positions": [
                1.7806367264344218,
                -1.3741824323484786,
                -1.6318995002646548,
                1.0441259596063728,
                -0.4883184074546617,
                -0.7101008067563364
            ]
        },
        {
            "positions": [
                1.64019316911352,
                -1.438711638419889,
                -1.6860521165396476,
                1.0743551399470825,
                -0.4408626612610482,
                -0.6559447634715094
            ]
        },
        {
            "positions": [
                1.499749611792618,
                -1.5032408444912995,
                -1.7402047328146404,
                1.1045843202877923,
                -0.39340691506743464,
                -0.6017887201866826
            ]
        },
        {
            "positions": [
                1.3593060544717162,
                -1.56777005056271,
                -1.794357349089633,
                1.134813500628502,
                -0.34595116887382127,
                -0.5476326769018557
            ]
        },
        {
            "positions": [
                1.2188624971508142,
                -1.6322992566341203,
                -1.8485099653646258,
                1.1650426809692116,
                -0.2984954226802078,
                -0.49347663361702887
            ]
        },
        {
            "positions": [
                1.078418939829912,
                -1.6968284627055308,
                -1.9026625816396185,
                1.1952718613099216,
                -0.2510396764865942,
                -0.43932059033220194
            ]
        },
        {
            "positions": [
                0.93797538250901,
                -1.7613576687769412,
                -1.9568151979146111,
                1.2255010416506313,
                -0.20358393029298072,
                -0.385164547047375
            ]
        },
        {
            "positions": [
                0.7975318251881083,
                -1.8258868748483517,
                -2.0109678141896037,
                1.2557302219913409,
                -0.15612818409936724,
                -0.3310085037625482
            ]
        },
        {
            "positions": [
                0.6570882678672061,
                -1.890416080919762,
                -2.0651204304645967,
                1.2859594023320506,
                -0.10867243790575376,
                -0.2768524604777214
            ]
        },
        {
            "positions": [
                0.5166447105463039,
                -1.9549452869911725,
                -2.1192730467395893,
                1.3161885826727606,
                -0.06121669171214017,
                -0.22269641719289435
            ]
        },
        {
            "positions": [
                0.37620115322540215,
                -2.019474493062583,
                -2.173425663014582,
                1.3464177630134702,
                -0.01376094551852669,
                -0.16854037390806753
            ]
        },
        {
            "positions": [
                0.2357575959045004,
                -2.0840036991339934,
                -2.227578279289575,
                1.37664694335418,
                0.03369480067508679,
                -0.1143843306232406
            ]
        },
        {
            "positions": [
                0.09531403858359822,
                -2.148532905205404,
                -2.2817308955645674,
                1.4068761236948897,
                0.08115054686870027,
                -0.0602282873384139
            ]
        },
        {
            "positions": [
                -0.045129518737303975,
                -2.2130621112768143,
                -2.33588351183956,
                1.4371053040355994,
                0.12860629306231397,
                -0.006072244053586973
            ]
        },
        {
            "positions": [
                -0.1855730760582057,
                -2.2775913173482247,
                -2.390036128114553,
                1.4673344843763092,
                0.1760620392559274,
                0.04808379923124005
            ]
        }
    ]
}