{
    "goal": {
        "global_pose": {
            "orientation": {
                "w": 0.005598929693374612,
                "x": 0.007748599140229565,
                "y": 0.7110244013736278,
                "z": -0.7031023480610252
            },
            "position": {
                "x": -0.8858502320852131,
                "y": -0.7141253447532654,
                "z": 0.3711530566215515
            }
        },
        "name": "move_to_auspresseinheit_C"
    },
    "id": "FMT_move_to_auspresseinheit_C_139",
    "joint_names": [
        "shoulder_pan_joint",
        "shoulder_lift_joint",
        "elbow_joint",
        "wrist_1_joint",
        "wrist_2_joint",
        "wrist_3_joint"
    ],
    "metrics": {
        "cart_traj_len": 0.49263950765442616,
        "distance_elbow_joint": 0.9887231545421946,
        "distance_shoulder_lift_joint": 0.3196675922784761,
        "distance_shoulder_pan_joint": 0.2565161466080399,
        "distance_wrist_1_joint": 0.653140578008137,
        "distance_wrist_2_joint": 1.308607840928905,
        "distance_wrist_3_joint": 0.04666617208168189,
        "smoothness": 6.459479467149049e-16,
        "time": 0.46502039300000003,
        "traj_len": 1.8903231164135497,
        "weighted_distance": 2.372425393462952
    },
    "planner": "FMT",
    "start": {
        "state": {
            "elbow_joint": 1.7527959577737207,
            "shoulder_lift_joint": -0.9740617694225068,
            "shoulder_pan_joint": -2.967991417825858,
            "wrist_1_joint": -0.759517768980727,
            "wrist_2_joint": 1.7443932448377408,
            "wrist_3_joint": -3.0840537646736568
        }
    },
    "waypoints": [
        {
            "positions": [
                -2.967991417825858,
                -0.9740617694225068,
                1.7527959577737207,
                -0.759517768980727,
                1.7443932448377408,
                -3.0840537646736568
            ]
        },
        {
            "positions": [
                -2.942339803165054,
                -0.9420950101946591,
                1.6539236423195012,
                -0.6942037111799133,
                1.6135324607448502,
                -3.088720381881825
            ]
        },
        {
            "positions": [
                -2.91668818850425,
                -0.9101282509668116,
                1.5550513268652817,
                -0.6288896533790995,
                1.4826716766519599,
                -3.093386999089993
            ]
        },
        {
            "positions": [
                -2.891036573843446,
                -0.878161491738964,
                1.4561790114110622,
                -0.563575595578286,
                1.3518108925590693,
                -3.098053616298161
            ]
        },
        {
            "positions": [
                -2.865384959182642,
                -0.8461947325111163,
                1.3573066959568427,
                -0.4982615377774722,
                1.220950108466179,
                -3.1027202335063295
            ]
        },
        {
            "positions": [
                -2.839733344521838,
                -0.8142279732832687,
                1.2584343805026235,
                -0.4329474799766585,
                1.0900893243732883,
                -3.107386850714498
            ]
        },
        {
            "positions": [
                -2.814081729861034,
                -0.7822612140554212,
                1.1595620650484038,
                -0.3676334221758448,
                0.9592285402803978,
                -3.112053467922666
            ]
        },
        {
            "positions": [
                -2.78843011520023,
                -0.7502944548275735,
                1.0606897495941845,
                -0.30231936437503115,
                0.8283677561875074,
                -3.116720085130834
            ]
        },
        {
            "positions": [
                -2.762778500539426,
                -0.718327695599726,
                0.9618174341399649,
                -0.23700530657421737,
                0.6975069720946168,
                -3.1213867023390023
            ]
        },
        {
            "positions": [
                -2.737126885878622,
                -0.6863609363718783,
                0.8629451186857455,
                -0.1716912487734037,
                0.5666461880017262,
                -3.1260533195471707
            ]
        },
        {
            "positions": [
                -2.711475271217818,
                -0.6543941771440307,
                0.764072803231526,
                -0.10637719097259002,
                0.4357854039088358,
                -3.1307199367553387
            ]
        }
    ]
}