{
    "goal": {
        "global_pose": {
            "orientation": {
                "w": 0.5084816217422485,
                "x": -0.49083608388900757,
                "y": 0.5182115435600281,
                "z": -0.4816462993621826
            },
            "position": {
                "x": 0.5540239810943604,
                "y": 0.030875300988554955,
                "z": 0.16403168439865112
            }
        },
        "name": "move_to_storage_A"
    },
    "id": "FMT_move_to_storage_A_70",
    "joint_names": [
        "shoulder_pan_joint",
        "shoulder_lift_joint",
        "elbow_joint",
        "wrist_1_joint",
        "wrist_2_joint",
        "wrist_3_joint"
    ],
    "metrics": {
        "cart_traj_len": 0.3521494638863558,
        "distance_elbow_joint": 0.4497048684144034,
        "distance_shoulder_lift_joint": 0.2339579660371387,
        "distance_shoulder_pan_joint": 0.4598724533879184,
        "distance_wrist_1_joint": 0.24615218021834961,
        "distance_wrist_2_joint": 1.099106261923965,
        "distance_wrist_3_joint": 0.09287125464383772,
        "smoothness": 0.0,
        "time": 0.398164665,
        "traj_len": 1.606756043905114,
        "weighted_distance": 2.0279708913235424
    },
    "planner": "FMT",
    "start": {
        "state": {
            "elbow_joint": 1.971548259319323,
            "shoulder_lift_joint": -1.1394851275133948,
            "shoulder_pan_joint": 0.1228115487234821,
            "wrist_1_joint": -0.7804723859257726,
            "wrist_2_joint": 0.12958671773740124,
            "wrist_3_joint": -3.192489227718131
        }
    },
    "waypoints": [
        {
            "positions": [
                0.1228115487234821,
                -1.1394851275133948,
                1.971548259319323,
                -0.7804723859257726,
                0.12958671773740124,
                -3.192489227718131
            ]
        },
        {
            "positions": [
                0.05711548395377948,
                -1.1729076940901288,
                2.035791811949952,
                -0.8156369830998226,
                0.2866018980122534,
                -3.179221905626154
            ]
        },
        {
            "positions": [
                -0.008580580815923139,
                -1.206330260666863,
                2.100035364580581,
                -0.8508015802738725,
                0.4436170782871055,
                -3.1659545835341776
            ]
        },
        {
            "positions": [
                -0.07427664558562577,
                -1.2397528272435971,
                2.16427891721121,
                -0.8859661774479224,
                0.6006322585619577,
                -3.1526872614422006
            ]
        },
        {
            "positions": [
                -0.13997271035532838,
                -1.2731753938203312,
                2.228522469841839,
                -0.9211307746219723,
                0.7576474388368099,
                -3.139419939350224
            ]
        },
        {
            "positions": [
                -0.205668775125031,
                -1.3065979603970654,
                2.292766022472468,
                -0.9562953717960223,
                0.914662619111662,
                -3.126152617258247
            ]
        },
        {
            "positions": [
                -0.27136483989473364,
                -1.3400205269737995,
                2.3570095751030973,
                -0.9914599689700723,
                1.071677799386514,
                -3.1128852951662704
            ]
        },
        {
            "positions": [
                -0.3370609046644363,
                -1.3734430935505335,
                2.4212531277337264,
                -1.0266245661441222,
                1.2286929796613664,
                -3.0996179730742934
            ]
        }
    ]
}{
    "goal": {
        "global_pose": {
            "orientation": {
                "w": 0.5084816217422485,
                "x": -0.49083608388900757,
                "y": 0.5182115435600281,
                "z": -0.4816462993621826
            },
            "position": {
                "x": 0.5540239810943604,
                "y": 0.030875300988554955,
                "z": 0.16403168439865112
            }
        },
        "name": "move_to_storage_A"
    },
    "id": "FMT_move_to_storage_A_70",
    "joint_names": [
        "shoulder_pan_joint",
        "shoulder_lift_joint",
        "elbow_joint",
        "wrist_1_joint",
        "wrist_2_joint",
        "wrist_3_joint"
    ],
    "metrics": {
        "cart_traj_len": 0.35323261847283016,
        "distance_elbow_joint": 0.4471979939377353,
        "distance_shoulder_lift_joint": 0.23494548351798206,
        "distance_shoulder_pan_joint": 0.4594289135662964,
        "distance_wrist_1_joint": 0.2335803621711139,
        "distance_wrist_2_joint": 1.1094507668231681,
        "distance_wrist_3_joint": 0.08622546427631406,
        "smoothness": 8.881784197001252e-16,
        "time": 0.448471668,
        "traj_len": 1.6033804864387646,
        "weighted_distance": 2.021462599663798
    },
    "planner": "FMT",
    "start": {
        "state": {
            "elbow_joint": 1.97154746011099,
            "shoulder_lift_joint": -1.13948474672311,
            "shoulder_pan_joint": 0.12281154466712228,
            "wrist_1_joint": -0.7804688027058302,
            "wrist_2_joint": 0.12958655903071145,
            "wrist_3_joint": 3.0906928834467795
        }
    },
    "waypoints": [
        {
            "positions": [
                0.12281154466712228,
                -1.13948474672311,
                1.97154746011099,
                -0.7804688027058302,
                0.12958655903071145,
                3.0906928834467795
            ]
        },
        {
            "positions": [
                0.05717884272907994,
                -1.1730483872256787,
                2.0354328878163805,
                -0.8138374258731321,
                0.2880795257197355,
                3.1030108069148246
            ]
        },
        {
            "positions": [
                -0.008453859208962397,
                -1.2066120277282477,
                2.0993183155217716,
                -0.8472060490404342,
                0.4465724924087595,
                3.115328730382869
            ]
        },
        {
            "positions": [
                -0.07408656114700472,
                -1.2401756682308165,
                2.1632037432271622,
                -0.8805746722077361,
                0.6050654590977835,
                3.1276466538509142
            ]
        },
        {
            "positions": [
                -0.13971926308504706,
                -1.2737393087333855,
                2.227089170932553,
                -0.9139432953750382,
                0.7635584257868075,
                3.139964577318959
            ]
        },
        {
            "positions": [
                -0.20535196502308944,
                -1.3073029492359542,
                2.290974598637944,
                -0.9473119185423401,
                0.9220513924758316,
                3.152282500787004
            ]
        },
        {
            "positions": [
                -0.2709846669611317,
                -1.340866589738523,
                2.3548600263433346,
                -0.980680541709642,
                1.0805443591648556,
                3.1646004242550485
            ]
        },
        {
            "positions": [
                -0.3366173688991741,
                -1.374430230241092,
                2.418745454048725,
                -1.014049164876944,
                1.2390373258538796,
                3.1769183477230936
            ]
        }
    ]
}{
    "goal": {
        "global_pose": {
            "orientation": {
                "w": 0.5084816217422485,
                "x": -0.49083608388900757,
                "y": 0.5182115435600281,
                "z": -0.4816462993621826
            },
            "position": {
                "x": 0.5540239810943604,
                "y": 0.030875300988554955,
                "z": 0.16403168439865112
            }
        },
        "name": "move_to_storage_A"
    },
    "id": "FMT_move_to_storage_A_70",
    "joint_names": [
        "shoulder_pan_joint",
        "shoulder_lift_joint",
        "elbow_joint",
        "wrist_1_joint",
        "wrist_2_joint",
        "wrist_3_joint"
    ],
    "metrics": {
        "cart_traj_len": 0.3530374269796237,
        "distance_elbow_joint": 0.4480404409609178,
        "distance_shoulder_lift_joint": 0.23297666029446518,
        "distance_shoulder_pan_joint": 0.46077688363068037,
        "distance_wrist_1_joint": 0.2418458129315859,
        "distance_wrist_2_joint": 1.1010980369908192,
        "distance_wrist_3_joint": 0.08762172630085185,
        "smoothness": 1.3322676295501878e-15,
        "time": 0.402344331,
        "traj_len": 1.6038577122392497,
        "weighted_distance": 2.022510040428336
    },
    "planner": "FMT",
    "start": {
        "state": {
            "elbow_joint": 1.9715472970024885,
            "shoulder_lift_joint": -1.1394870060712896,
            "shoulder_pan_joint": 0.12281152778156021,
            "wrist_1_joint": -0.780463741449964,
            "wrist_2_joint": 0.12958659822042276,
            "wrist_3_joint": 3.090690232415272
        }
    },
    "waypoints": [
        {
            "positions": [
                0.12281152778156021,
                -1.1394870060712896,
                1.9715472970024885,
                -0.780463741449964,
                0.12958659822042276,
                3.090690232415272
            ]
        },
        {
            "positions": [
                0.056986258691463024,
                -1.1727693861133561,
                2.03555307428262,
                -0.8150131432973334,
                0.28688631779053975,
                3.1032076218868223
            ]
        },
        {
            "positions": [
                -0.008839010398634162,
                -1.2060517661554224,
                2.0995588515627506,
                -0.8495625451447029,
                0.44418603736065676,
                3.1157250113583723
            ]
        },
        {
            "positions": [
                -0.07466427948873136,
                -1.239334146197489,
                2.163564628842882,
                -0.8841119469920722,
                0.6014857569307738,
                3.1282424008299228
            ]
        },
        {
            "positions": [
                -0.14048954857882853,
                -1.2726165262395555,
                2.227570406123013,
                -0.9186613488394416,
                0.7587854765008908,
                3.140759790301473
            ]
        },
        {
            "positions": [
                -0.20631481766892576,
                -1.305898906281622,
                2.2915761834031443,
                -0.953210750686811,
                0.9160851960710079,
                3.1532771797730232
            ]
        },
        {
            "positions": [
                -0.2721400867590229,
                -1.3391812863236883,
                2.355581960683275,
                -0.9877601525341805,
                1.0733849156411248,
                3.1657945692445733
            ]
        },
        {
            "positions": [
                -0.33796535584912013,
                -1.3724636663657548,
                2.4195877379634063,
                -1.02230955438155,
                1.230684635211242,
                3.1783119587161237
            ]
        }
    ]
}