{
    "goal": {
        "global_pose": {
            "orientation": {
                "w": 0.7047431493862688,
                "x": -0.7094548369677653,
                "y": 0.0024358444001904,
                "z": -0.0022348060817251984
            },
            "position": {
                "x": -0.39052492380142206,
                "y": 0.3671506643295288,
                "z": 0.19426114857196808
            }
        },
        "name": "move_to_magneteinheit_D"
    },
    "id": "FMT_move_to_magneteinheit_D_144",
    "joint_names": [
        "shoulder_pan_joint",
        "shoulder_lift_joint",
        "elbow_joint",
        "wrist_1_joint",
        "wrist_2_joint",
        "wrist_3_joint"
    ],
    "metrics": {
        "cart_traj_len": 4.620378673133611,
        "distance_elbow_joint": 3.1438720004979643,
        "distance_shoulder_lift_joint": 1.6274781207047575,
        "distance_shoulder_pan_joint": 4.154696583792141,
        "distance_wrist_1_joint": 1.5173443148166388,
        "distance_wrist_2_joint": 1.8220770883539494,
        "distance_wrist_3_joint": 3.88314415916068,
        "smoothness": 0.26674098389405326,
        "time": 1.502471766,
        "traj_len": 4.018533596640214,
        "weighted_distance": 5.220567209491522
    },
    "planner": "FMT",
    "start": {
        "state": {
            "elbow_joint": 0.749534889911806,
            "shoulder_lift_joint": -0.6476975780787326,
            "shoulder_pan_joint": -2.711696901376241,
            "wrist_1_joint": -0.07506478083263063,
            "wrist_2_joint": 0.43296659715538205,
            "wrist_3_joint": -3.14703540197715
        }
    },
    "waypoints": [
        {
            "positions": [
                -2.711696901376241,
                -0.6476975780787326,
                0.749534889911806,
                -0.07506478083263063,
                0.43296659715538205,
                -3.14703540197715
            ]
        },
        {
            "positions": [
                -2.7114152967954377,
                -0.7343147722744678,
                0.6664204193554868,
                -0.05412949869761456,
                0.43738571277620125,
                -3.006793639910221
            ]
        },
        {
            "positions": [
                -2.711133692214634,
                -0.8209319664702031,
                0.5833059487991678,
                -0.03319421656259849,
                0.44180482839702045,
                -2.8665518778432917
            ]
        },
        {
            "positions": [
                -2.595981808889901,
                -0.844988759772288,
                0.5239622149029288,
                0.017550054427037762,
                0.4684722983612799,
                -2.753417949287782
            ]
        },
        {
            "positions": [
                -2.480829925565168,
                -0.8690455530743729,
                0.46461848100668995,
                0.06829432541667402,
                0.4951397683255394,
                -2.6402840207322726
            ]
        },
        {
            "positions": [
                -2.365678042240435,
                -0.8931023463764579,
                0.4052747471104511,
                0.11903859640631026,
                0.5218072382897989,
                -2.527150092176763
            ]
        },
        {
            "positions": [
                -2.250526158915702,
                -0.9171591396785429,
                0.34593101321421216,
                0.1697828673959465,
                0.5484747082540583,
                -2.414016163621253
            ]
        },
        {
            "positions": [
                -2.1353742755909693,
                -0.9412159329806279,
                0.28658727931797323,
                0.22052713838558277,
                0.5751421782183178,
                -2.3008822350657434
            ]
        },
        {
            "positions": [
                -2.0202223922662363,
                -0.9652727262827128,
                0.22724354542173436,
                0.27127140937521904,
                0.6018096481825772,
                -2.187748306510234
            ]
        },
        {
            "positions": [
                -1.9050705089415034,
                -0.9893295195847978,
                0.16789981152549543,
                0.3220156803648553,
                0.6284771181468367,
                -2.0746143779547244
            ]
        },
        {
            "positions": [
                -1.7899186256167705,
                -1.0133863128868827,
                0.10855607762925656,
                0.3727599513544915,
                0.6551445881110962,
                -1.9614804493992148
            ]
        },
        {
            "positions": [
                -1.6747667422920376,
                -1.0374431061889677,
                0.04921234373301764,
                0.42350422234412777,
                0.6818120580753557,
                -1.848346520843705
            ]
        },
        {
            "positions": [
                -1.5596148589673047,
                -1.0614998994910527,
                -0.010131390163221288,
                0.47424849333376407,
                0.7084795280396151,
                -1.7352125922881956
            ]
        },
        {
            "positions": [
                -1.444462975642572,
                -1.0855566927931375,
                -0.0694751240594601,
                0.5249927643234003,
                0.7351469980038745,
                -1.622078663732686
            ]
        },
        {
            "positions": [
                -1.329311092317839,
                -1.1096134860952225,
                -0.12881885795569903,
                0.5757370353130365,
                0.761814467968134,
                -1.5089447351771765
            ]
        },
        {
            "positions": [
                -1.2141592089931061,
                -1.1336702793973075,
                -0.18816259185193795,
                0.6264813063026727,
                0.7884819379323935,
                -1.3958108066216668
            ]
        },
        {
            "positions": [
                -1.0990073256683732,
                -1.1577270726993925,
                -0.24750632574817688,
                0.677225577292309,
                0.815149407896653,
                -1.282676878066157
            ]
        },
        {
            "positions": [
                -0.9838554423436403,
                -1.1817838660014774,
                -0.3068500596444158,
                0.7279698482819453,
                0.8418168778609125,
                -1.1695429495106475
            ]
        },
        {
            "positions": [
                -0.8687035590189074,
                -1.2058406593035624,
                -0.3661937935406546,
                0.7787141192715815,
                0.8684843478251719,
                -1.056409020955138
            ]
        },
        {
            "positions": [
                -0.7535516756941747,
                -1.2298974526056474,
                -0.42553752743689344,
                0.8294583902612177,
                0.8951518177894313,
                -0.9432750923996285
            ]
        },
        {
            "positions": [
                -0.6383997923694413,
                -1.2539542459077322,
                -0.4848812613331325,
                0.880202661250854,
                0.9218192877536908,
                -0.8301411638441185
            ]
        },
        {
            "positions": [
                -0.5232479090447089,
                -1.2780110392098172,
                -0.5442249952293713,
                0.9309469322404902,
                0.9484867577179503,
                -0.7170072352886092
            ]
        },
        {
            "positions": [
                -0.4080960257199755,
                -1.3020678325119022,
                -0.6035687291256103,
                0.9816912032301266,
                0.9751542276822098,
                -0.6038733067330995
            ]
        },
        {
            "positions": [
                -0.292944142395243,
                -1.3261246258139872,
                -0.6629124630218491,
                1.0324354742197628,
                1.0018216976464693,
                -0.4907393781775897
            ]
        },
        {
            "positions": [
                -0.1777922590705101,
                -1.3501814191160721,
                -0.722256196918088,
                1.083179745209399,
                1.0284891676107286,
                -0.3776054496220804
            ]
        },
        {
            "positions": [
                -0.06264037574577719,
                -1.3742382124181571,
                -0.781599930814327,
                1.1339240161990354,
                1.0551566375749881,
                -0.2644715210665707
            ]
        },
        {
            "positions": [
                0.05251150757895573,
                -1.3982950057202421,
                -0.8409436647105658,
                1.1846682871886716,
                1.0818241075392476,
                -0.15133759251106138
            ]
        },
        {
            "positions": [
                0.16766339090368865,
                -1.422351799022327,
                -0.9002873986068046,
                1.2354125581783078,
                1.1084915775035071,
                -0.03820366395555164
            ]
        },
        {
            "positions": [
                0.28281527422842156,
                -1.446408592324412,
                -0.9596311325030437,
                1.286156829167944,
                1.1351590474677666,
                0.07493026459995811
            ]
        },
        {
            "positions": [
                0.3979671575531545,
                -1.4704653856264969,
                -1.0189748663992826,
                1.3369011001575801,
                1.1618265174320261,
                0.1880641931554674
            ]
        },
        {
            "positions": [
                0.5131190408778874,
                -1.494522178928582,
                -1.0783186002955216,
                1.3876453711472165,
                1.1884939873962856,
                0.3011981217109776
            ]
        },
        {
            "positions": [
                0.6282709242026203,
                -1.5185789722306668,
                -1.1376623341917602,
                1.4383896421368527,
                1.215161457360545,
                0.4143320502664867
            ]
        },
        {
            "positions": [
                0.5542046734559586,
                -1.587360492826378,
                -1.25190549568216,
                1.4387432686684123,
                1.1206267093470188,
                0.3850796223649372
            ]
        },
        {
            "positions": [
                0.4801384227092969,
                -1.6561420134220892,
                -1.3661486571725598,
                1.4390968951999719,
                1.026091961333493,
                0.3558271944633877
            ]
        },
        {
            "positions": [
                0.40607217196263523,
                -1.7249235340178004,
                -1.4803918186629597,
                1.4394505217315314,
                0.9315572133199669,
                0.3265747665618382
            ]
        },
        {
            "positions": [
                0.3320059212159735,
                -1.7937050546135116,
                -1.5946349801533597,
                1.439804148263091,
                0.8370224653064409,
                0.2973223386602887
            ]
        },
        {
            "positions": [
                0.2579396704693118,
                -1.862486575209223,
                -1.7088781416437595,
                1.4401577747946506,
                0.7424877172929147,
                0.2680699107587392
            ]
        },
        {
            "positions": [
                0.18387341972265014,
                -1.931268095804934,
                -1.8231213031341593,
                1.4405114013262104,
                0.6479529692793888,
                0.2388174828571897
            ]
        },
        {
            "positions": [
                0.10980716897598841,
                -2.0000496164006454,
                -1.9373644646245591,
                1.44086502785777,
                0.5534182212658627,
                0.2095650549556402
            ]
        },
        {
            "positions": [
                0.03574091822932668,
                -2.068831136996357,
                -2.051607626114959,
                1.4412186543893295,
                0.4588834732523367,
                0.18031262705409068
            ]
        },
        {
            "positions": [
                -0.03832533251733505,
                -2.1376126575920678,
                -2.165850787605359,
                1.441572280920889,
                0.3643487252388107,
                0.1510601991525412
            ]
        },
        {
            "positions": [
                -0.11239158326399667,
                -2.2063941781877787,
                -2.280093949095759,
                1.4419259074524486,
                0.26981397722528466,
                0.12180777125099174
            ]
        },
        {
            "positions": [
                -0.18645783401065846,
                -2.27517569878349,
                -2.3943371105861586,
                1.4422795339840082,
                0.17527922921175867,
                0.09255534334944222
            ]
        }
    ]
}