{
    "goal": {
        "global_pose": {
            "orientation": {
                "w": 0.5084816217422485,
                "x": -0.49083608388900757,
                "y": 0.5182115435600281,
                "z": -0.4816462993621826
            },
            "position": {
                "x": 0.5540239810943604,
                "y": 0.030875300988554955,
                "z": 0.16403168439865112
            }
        },
        "name": "move_to_storage_A"
    },
    "id": "FMT_move_to_storage_A_138",
    "joint_names": [
        "shoulder_pan_joint",
        "shoulder_lift_joint",
        "elbow_joint",
        "wrist_1_joint",
        "wrist_2_joint",
        "wrist_3_joint"
    ],
    "metrics": {
        "cart_traj_len": 0.3526481078445269,
        "distance_elbow_joint": 0.44808376479283285,
        "distance_shoulder_lift_joint": 0.2339521356290375,
        "distance_shoulder_pan_joint": 0.459594388975299,
        "distance_wrist_1_joint": 0.23783952806836084,
        "distance_wrist_2_joint": 1.1040438918700157,
        "distance_wrist_3_joint": 0.0862542113548952,
        "smoothness": 4.440892098500626e-16,
        "time": 0.524966927,
        "traj_len": 1.6030495690060371,
        "weighted_distance": 2.020930420212088
    },
    "planner": "FMT",
    "start": {
        "state": {
            "elbow_joint": 1.971548259319323,
            "shoulder_lift_joint": -1.1394851275133948,
            "shoulder_pan_joint": 0.1228115487234821,
            "wrist_1_joint": -0.7804723859257726,
            "wrist_2_joint": 0.12958671773740124,
            "wrist_3_joint": -3.192489227718131
        }
    },
    "waypoints": [
        {
            "positions": [
                0.1228115487234821,
                -1.1394851275133948,
                1.971548259319323,
                -0.7804723859257726,
                0.12958671773740124,
                -3.192489227718131
            ]
        },
        {
            "positions": [
                0.05715520744129654,
                -1.1729068611746858,
                2.035560225718299,
                -0.8144494613641099,
                0.287307273718832,
                -3.180167197524575
            ]
        },
        {
            "positions": [
                -0.008501133840889019,
                -1.206328594835977,
                2.099572192117275,
                -0.8484265368024472,
                0.4450278297002629,
                -3.167845167331018
            ]
        },
        {
            "positions": [
                -0.07415747512307458,
                -1.239750328497268,
                2.1635841585162514,
                -0.8824036122407843,
                0.6027483856816936,
                -3.155523137137462
            ]
        },
        {
            "positions": [
                -0.13981381640526014,
                -1.2731720621585592,
                2.2275961249152276,
                -0.9163806876791216,
                0.7604689416631245,
                -3.143201106943905
            ]
        },
        {
            "positions": [
                -0.20547015768744575,
                -1.3065937958198501,
                2.2916080913142034,
                -0.9503577631174589,
                0.9181894976445554,
                -3.130879076750349
            ]
        },
        {
            "positions": [
                -0.27112649896963126,
                -1.3400155294811413,
                2.3556200577131796,
                -0.9843348385557962,
                1.075910053625986,
                -3.1185570465567922
            ]
        },
        {
            "positions": [
                -0.3367828402518169,
                -1.3734372631424323,
                2.419632024112156,
                -1.0183119139941335,
                1.233630609607417,
                -3.106235016363236
            ]
        }
    ]
}{
    "goal": {
        "global_pose": {
            "orientation": {
                "w": 0.5084816217422485,
                "x": -0.49083608388900757,
                "y": 0.5182115435600281,
                "z": -0.4816462993621826
            },
            "position": {
                "x": 0.5540239810943604,
                "y": 0.030875300988554955,
                "z": 0.16403168439865112
            }
        },
        "name": "move_to_storage_A"
    },
    "id": "FMT_move_to_storage_A_138",
    "joint_names": [
        "shoulder_pan_joint",
        "shoulder_lift_joint",
        "elbow_joint",
        "wrist_1_joint",
        "wrist_2_joint",
        "wrist_3_joint"
    ],
    "metrics": {
        "cart_traj_len": 0.3536447844485854,
        "distance_elbow_joint": 0.44837540481420257,
        "distance_shoulder_lift_joint": 0.2353619980411128,
        "distance_shoulder_pan_joint": 0.4647739514539096,
        "distance_wrist_1_joint": 0.2358601458057863,
        "distance_wrist_2_joint": 1.0899731480059147,
        "distance_wrist_3_joint": 0.09826876544697294,
        "smoothness": 0.0,
        "time": 0.42246277400000004,
        "traj_len": 1.6039368483727465,
        "weighted_distance": 2.0236067400247375
    },
    "planner": "FMT",
    "start": {
        "state": {
            "elbow_joint": 1.97154746011099,
            "shoulder_lift_joint": -1.13948474672311,
            "shoulder_pan_joint": 0.12281154466712228,
            "wrist_1_joint": -0.7804688027058302,
            "wrist_2_joint": 0.12958655903071145,
            "wrist_3_joint": 3.0906928834467795
        }
    },
    "waypoints": [
        {
            "positions": [
                0.12281154466712228,
                -1.13948474672311,
                1.97154746011099,
                -0.7804688027058302,
                0.12958655903071145,
                3.0906928834467795
            ]
        },
        {
            "positions": [
                0.05641526588799234,
                -1.1731078893004119,
                2.0356010893701617,
                -0.814163109249514,
                0.28529700874584213,
                3.104731278510633
            ]
        },
        {
            "positions": [
                -0.009981012891137606,
                -1.2067310318777136,
                2.0996547186293335,
                -0.8478574157931977,
                0.4410074584609728,
                3.118769673574486
            ]
        },
        {
            "positions": [
                -0.07637729167026754,
                -1.2403541744550155,
                2.1637083478885053,
                -0.8815517223368814,
                0.5967179081761035,
                3.1328080686383393
            ]
        },
        {
            "positions": [
                -0.14277357044939748,
                -1.2739773170323172,
                2.227761977147677,
                -0.9152460288805652,
                0.7524283578912342,
                3.1468464637021927
            ]
        },
        {
            "positions": [
                -0.20916984922852744,
                -1.3076004596096191,
                2.291815606406849,
                -0.9489403354242489,
                0.9081388076063649,
                3.160884858766046
            ]
        },
        {
            "positions": [
                -0.27556612800765734,
                -1.3412236021869208,
                2.3558692356660207,
                -0.9826346419679327,
                1.0638492573214955,
                3.174923253829899
            ]
        },
        {
            "positions": [
                -0.3419624067867873,
                -1.3748467447642228,
                2.4199228649251925,
                -1.0163289485116165,
                1.2195597070366262,
                3.1889616488937524
            ]
        }
    ]
}{
    "goal": {
        "global_pose": {
            "orientation": {
                "w": 0.5084816217422485,
                "x": -0.49083608388900757,
                "y": 0.5182115435600281,
                "z": -0.4816462993621826
            },
            "position": {
                "x": 0.5540239810943604,
                "y": 0.030875300988554955,
                "z": 0.16403168439865112
            }
        },
        "name": "move_to_storage_A"
    },
    "id": "FMT_move_to_storage_A_138",
    "joint_names": [
        "shoulder_pan_joint",
        "shoulder_lift_joint",
        "elbow_joint",
        "wrist_1_joint",
        "wrist_2_joint",
        "wrist_3_joint"
    ],
    "metrics": {
        "cart_traj_len": 0.35343451930379954,
        "distance_elbow_joint": 0.450070854772767,
        "distance_shoulder_lift_joint": 0.23497068098517526,
        "distance_shoulder_pan_joint": 0.46113615096604244,
        "distance_wrist_1_joint": 0.23694455325983466,
        "distance_wrist_2_joint": 1.1047663699902772,
        "distance_wrist_3_joint": 0.10106493908246961,
        "smoothness": 0.0,
        "time": 0.6248793730000001,
        "traj_len": 1.6090225446079263,
        "weighted_distance": 2.0329275320265645
    },
    "planner": "FMT",
    "start": {
        "state": {
            "elbow_joint": 1.9715472970024885,
            "shoulder_lift_joint": -1.1394870060712896,
            "shoulder_pan_joint": 0.12281152778156021,
            "wrist_1_joint": -0.780463741449964,
            "wrist_2_joint": 0.12958659822042276,
            "wrist_3_joint": 3.090690232415272
        }
    },
    "waypoints": [
        {
            "positions": [
                0.12281152778156021,
                -1.1394870060712896,
                1.9715472970024885,
                -0.780463741449964,
                0.12958659822042276,
                3.090690232415272
            ]
        },
        {
            "positions": [
                0.05693493478641129,
                -1.173054246212029,
                2.0358431333985982,
                -0.8143129633442261,
                0.2874103653618909,
                3.1051280808556245
            ]
        },
        {
            "positions": [
                -0.00894165820873763,
                -1.2066214863527682,
                2.1001389697947075,
                -0.8481621852384882,
                0.4452341325033591,
                3.1195659292959776
            ]
        },
        {
            "positions": [
                -0.07481825120388655,
                -1.2401887264935076,
                2.164434806190817,
                -0.8820114071327503,
                0.6030578996448273,
                3.1340037777363303
            ]
        },
        {
            "positions": [
                -0.14069484419903547,
                -1.2737559666342468,
                2.228730642586927,
                -0.9158606290270124,
                0.7608816667862954,
                3.148441626176683
            ]
        },
        {
            "positions": [
                -0.2065714371941844,
                -1.3073232067749863,
                2.2930264789830366,
                -0.9497098509212745,
                0.9187054339277636,
                3.1628794746170357
            ]
        },
        {
            "positions": [
                -0.2724480301893333,
                -1.3408904469157255,
                2.357322315379146,
                -0.9835590728155366,
                1.0765292010692318,
                3.177317323057389
            ]
        },
        {
            "positions": [
                -0.3383246231844822,
                -1.3744576870564649,
                2.4216181517752555,
                -1.0174082947097987,
                1.2343529682107,
                3.1917551714977415
            ]
        }
    ]
}