{
    "goal": {
        "global_pose": {
            "orientation": {
                "w": 0.7031023480610252,
                "x": -0.7110244013736278,
                "y": 0.0077485991402295624,
                "z": 0.005598929693374583
            },
            "position": {
                "x": -0.8841497679147869,
                "y": 0.44412534475326537,
                "z": 0.3711530566215515
            }
        },
        "name": "move_to_auspresseinheit_D"
    },
    "id": "FMT_move_to_auspresseinheit_D_50",
    "joint_names": [
        "shoulder_pan_joint",
        "shoulder_lift_joint",
        "elbow_joint",
        "wrist_1_joint",
        "wrist_2_joint",
        "wrist_3_joint"
    ],
    "metrics": {
        "cart_traj_len": 0.3429272202490091,
        "distance_elbow_joint": 0.6323472672752701,
        "distance_shoulder_lift_joint": 0.11809775750577156,
        "distance_shoulder_pan_joint": 0.1338258399446976,
        "distance_wrist_1_joint": 0.5066571586814255,
        "distance_wrist_2_joint": 1.4363129237834065,
        "distance_wrist_3_joint": 0.01497302303392889,
        "smoothness": 1.9737298371844314e-16,
        "time": 0.544754331,
        "traj_len": 1.6858867014792245,
        "weighted_distance": 2.1943404701087728
    },
    "planner": "FMT",
    "start": {
        "state": {
            "elbow_joint": -1.8275523626775212,
            "shoulder_lift_joint": -2.126789852344167,
            "shoulder_pan_joint": -0.03513704404078235,
            "wrist_1_joint": -2.347782403156801,
            "wrist_2_joint": -1.6058999987535132,
            "wrist_3_joint": -3.0880379163319196
        }
    },
    "waypoints": [
        {
            "positions": [
                -0.03513704404078235,
                -2.126789852344167,
                -1.8275523626775212,
                -2.347782403156801,
                -1.6058999987535132,
                -3.0880379163319196
            ]
        },
        {
            "positions": [
                -0.05186527403386955,
                -2.1415520720323884,
                -1.7485089542681125,
                -2.411114547991979,
                -1.4263608832805874,
                -3.0899095442111606
            ]
        },
        {
            "positions": [
                -0.06859350402695674,
                -2.1563142917206095,
                -1.6694655458587038,
                -2.4744466928271573,
                -1.2468217678076616,
                -3.0917811720904016
            ]
        },
        {
            "positions": [
                -0.08532173402004395,
                -2.171076511408831,
                -1.5904221374492948,
                -2.5377788376623354,
                -1.0672826523347356,
                -3.093652799969643
            ]
        },
        {
            "positions": [
                -0.10204996401313116,
                -2.1858387310970526,
                -1.5113787290398861,
                -2.601110982497514,
                -0.88774353686181,
                -3.095524427848884
            ]
        },
        {
            "positions": [
                -0.11877819400621836,
                -2.200600950785274,
                -1.4323353206304774,
                -2.664443127332692,
                -0.7082044213888842,
                -3.097396055728125
            ]
        },
        {
            "positions": [
                -0.13550642399930554,
                -2.2153631704734957,
                -1.3532919122210685,
                -2.72777527216787,
                -0.5286653059159583,
                -3.0992676836073665
            ]
        },
        {
            "positions": [
                -0.15223465399239275,
                -2.230125390161717,
                -1.2742485038116598,
                -2.7911074170030483,
                -0.3491261904430325,
                -3.1011393114866075
            ]
        },
        {
            "positions": [
                -0.16896288398547996,
                -2.2448876098499384,
                -1.195205095402251,
                -2.8544395618382263,
                -0.1695870749701068,
                -3.1030109393658485
            ]
        }
    ]
}