{
    "goal": {
        "global_pose": {
            "orientation": {
                "w": -0.4816463035849501,
                "x": 0.5182115481033762,
                "y": 0.4908360881923453,
                "z": -0.5084816262002911
            },
            "position": {
                "x": -0.8240239810943604,
                "y": -0.300875300988555,
                "z": 0.16403168439865112
            }
        },
        "name": "move_to_storage_C"
    },
    "id": "FMT_move_to_storage_C_68",
    "joint_names": [
        "shoulder_pan_joint",
        "shoulder_lift_joint",
        "elbow_joint",
        "wrist_1_joint",
        "wrist_2_joint",
        "wrist_3_joint"
    ],
    "metrics": {
        "cart_traj_len": 0.5770316825335113,
        "distance_elbow_joint": 0.25494107084404605,
        "distance_shoulder_lift_joint": 0.18802236536962968,
        "distance_shoulder_pan_joint": 0.49685651476943926,
        "distance_wrist_1_joint": 0.07091986579254705,
        "distance_wrist_2_joint": 1.059019164100237,
        "distance_wrist_3_joint": 0.06957765637999413,
        "smoothness": 0.0,
        "time": 0.31325036100000003,
        "traj_len": 1.462647133541065,
        "weighted_distance": 1.8461936463731714
    },
    "planner": "FMT",
    "start": {
        "state": {
            "elbow_joint": 2.010868314990456,
            "shoulder_lift_joint": -1.1634956873337592,
            "shoulder_pan_joint": -2.4736205022346125,
            "wrist_1_joint": -0.8367026794202681,
            "wrist_2_joint": 0.6746043897044499,
            "wrist_3_joint": -3.1496632123970403
        }
    },
    "waypoints": [
        {
            "positions": [
                -2.4736205022346125,
                -1.1634956873337592,
                2.010868314990456,
                -0.8367026794202681,
                0.6746043897044499,
                -3.1496632123970403
            ]
        },
        {
            "positions": [
                -2.5564299213628523,
                -1.1321586264388208,
                1.968378136516448,
                -0.8248827017881769,
                0.8511075837211561,
                -3.1380669363337077
            ]
        },
        {
            "positions": [
                -2.639239340491092,
                -1.1008215655438827,
                1.9258879580424404,
                -0.8130627241560857,
                1.0276107777378622,
                -3.1264706602703756
            ]
        },
        {
            "positions": [
                -2.722048759619332,
                -1.0694845046489443,
                1.883397779568433,
                -0.8012427465239946,
                1.2041139717545684,
                -3.1148743842070434
            ]
        },
        {
            "positions": [
                -2.804858178747572,
                -1.0381474437540061,
                1.8409076010944252,
                -0.7894227688919034,
                1.3806171657712745,
                -3.103278108143711
            ]
        },
        {
            "positions": [
                -2.887667597875812,
                -1.0068103828590678,
                1.7984174226204175,
                -0.7776027912598122,
                1.557120359787981,
                -3.0916818320803783
            ]
        },
        {
            "positions": [
                -2.9704770170040518,
                -0.9754733219641295,
                1.7559272441464098,
                -0.765782813627721,
                1.7336235538046871,
                -3.080085556017046
            ]
        }
    ]
}