{
    "goal": {
        "global_pose": {
            "orientation": {
                "w": 0.7031023480610252,
                "x": -0.7110244013736278,
                "y": 0.0077485991402295624,
                "z": 0.005598929693374583
            },
            "position": {
                "x": -0.8841497679147869,
                "y": 0.44412534475326537,
                "z": 0.3711530566215515
            }
        },
        "name": "move_to_auspresseinheit_D"
    },
    "id": "FMT_move_to_auspresseinheit_D_111",
    "joint_names": [
        "shoulder_pan_joint",
        "shoulder_lift_joint",
        "elbow_joint",
        "wrist_1_joint",
        "wrist_2_joint",
        "wrist_3_joint"
    ],
    "metrics": {
        "cart_traj_len": 0.34275983859657916,
        "distance_elbow_joint": 0.632254680773737,
        "distance_shoulder_lift_joint": 0.11843331330200657,
        "distance_shoulder_pan_joint": 0.13435477210904168,
        "distance_wrist_1_joint": 0.5140046280090433,
        "distance_wrist_2_joint": 1.4307032346466466,
        "distance_wrist_3_joint": 0.006161312170518851,
        "smoothness": 1.9737298371844314e-16,
        "time": 0.401397737,
        "traj_len": 1.6840166094819238,
        "weighted_distance": 2.189278974458879
    },
    "planner": "FMT",
    "start": {
        "state": {
            "elbow_joint": -1.8275523626775212,
            "shoulder_lift_joint": -2.126789852344167,
            "shoulder_pan_joint": -0.03513704404078235,
            "wrist_1_joint": -2.347782403156801,
            "wrist_2_joint": -1.6058999987535132,
            "wrist_3_joint": -3.0880379163319196
        }
    },
    "waypoints": [
        {
            "positions": [
                -0.03513704404078235,
                -2.126789852344167,
                -1.8275523626775212,
                -2.347782403156801,
                -1.6058999987535132,
                -3.0880379163319196
            ]
        },
        {
            "positions": [
                -0.05193139055441256,
                -2.1415940165069176,
                -1.748520527580804,
                -2.4120329816579313,
                -1.4270620944226824,
                -3.0888080803532345
            ]
        },
        {
            "positions": [
                -0.06872573706804277,
                -2.1563981806696684,
                -1.6694886924840868,
                -2.476283560159062,
                -1.2482241900918516,
                -3.0895782443745494
            ]
        },
        {
            "positions": [
                -0.08552008358167298,
                -2.171202344832419,
                -1.5904568573873699,
                -2.5405341386601923,
                -1.0693862857610208,
                -3.0903484083958643
            ]
        },
        {
            "positions": [
                -0.1023144300953032,
                -2.1860065089951703,
                -1.5114250222906527,
                -2.6047847171613228,
                -0.8905483814301899,
                -3.0911185724171792
            ]
        },
        {
            "positions": [
                -0.1191087766089334,
                -2.200810673157921,
                -1.4323931871939355,
                -2.669035295662453,
                -0.7117104770993591,
                -3.0918887364384937
            ]
        },
        {
            "positions": [
                -0.1359031231225636,
                -2.215614837320672,
                -1.3533613520972185,
                -2.7332858741635833,
                -0.5328725727685282,
                -3.0926589004598086
            ]
        },
        {
            "positions": [
                -0.15269746963619382,
                -2.2304190014834226,
                -1.2743295170005013,
                -2.7975364526647137,
                -0.3540346684376974,
                -3.0934290644811235
            ]
        },
        {
            "positions": [
                -0.16949181614982403,
                -2.2452231656461734,
                -1.1952976819037842,
                -2.861787031165844,
                -0.17519676410686658,
                -3.0941992285024384
            ]
        }
    ]
}