{
    "goal": {
        "global_pose": {
            "orientation": {
                "w": 0.005598929693374612,
                "x": 0.007748599140229565,
                "y": 0.7110244013736278,
                "z": -0.7031023480610252
            },
            "position": {
                "x": -0.8858502320852131,
                "y": -0.7141253447532654,
                "z": 0.3711530566215515
            }
        },
        "name": "move_to_auspresseinheit_C"
    },
    "id": "FMT_move_to_auspresseinheit_C_82",
    "joint_names": [
        "shoulder_pan_joint",
        "shoulder_lift_joint",
        "elbow_joint",
        "wrist_1_joint",
        "wrist_2_joint",
        "wrist_3_joint"
    ],
    "metrics": {
        "cart_traj_len": 0.4928902944617173,
        "distance_elbow_joint": 0.9896534420483177,
        "distance_shoulder_lift_joint": 0.3200887370189165,
        "distance_shoulder_pan_joint": 0.25692947254534815,
        "distance_wrist_1_joint": 0.6566873671740674,
        "distance_wrist_2_joint": 1.306521494784841,
        "distance_wrist_3_joint": 0.05430739240319049,
        "smoothness": 4.844609574787718e-16,
        "time": 0.5613249619999999,
        "traj_len": 1.8931951579207784,
        "weighted_distance": 2.378237068237725
    },
    "planner": "FMT",
    "start": {
        "state": {
            "elbow_joint": 1.7527959577737207,
            "shoulder_lift_joint": -0.9740617694225068,
            "shoulder_pan_joint": -2.967991417825858,
            "wrist_1_joint": -0.759517768980727,
            "wrist_2_joint": 1.7443932448377408,
            "wrist_3_joint": -3.0840537646736568
        }
    },
    "waypoints": [
        {
            "positions": [
                -2.967991417825858,
                -0.9740617694225068,
                1.7527959577737207,
                -0.759517768980727,
                1.7443932448377408,
                -3.0840537646736568
            ]
        },
        {
            "positions": [
                -2.9422984705713233,
                -0.9420528957206151,
                1.653830613568889,
                -0.6938490322633203,
                1.6137410953592568,
                -3.089484503913976
            ]
        },
        {
            "positions": [
                -2.9166055233167882,
                -0.9100440220187235,
                1.5548652693640572,
                -0.6281802955459135,
                1.4830889458807726,
                -3.094915243154295
            ]
        },
        {
            "positions": [
                -2.8909125760622536,
                -0.8780351483168318,
                1.4558999251592253,
                -0.5625115588285068,
                1.3524367964022885,
                -3.100345982394614
            ]
        },
        {
            "positions": [
                -2.8652196288077185,
                -0.8460262746149402,
                1.3569345809543936,
                -0.49684282211110004,
                1.2217846469238043,
                -3.105776721634933
            ]
        },
        {
            "positions": [
                -2.839526681553184,
                -0.8140174009130485,
                1.2579692367495618,
                -0.4311740853936933,
                1.0911324974453205,
                -3.111207460875252
            ]
        },
        {
            "positions": [
                -2.8138337342986492,
                -0.7820085272111569,
                1.15900389254473,
                -0.36550534867628653,
                0.9604803479668363,
                -3.1166382001155712
            ]
        },
        {
            "positions": [
                -2.788140787044114,
                -0.7499996535092652,
                1.0600385483398984,
                -0.29983661195887984,
                0.8298281984883522,
                -3.12206893935589
            ]
        },
        {
            "positions": [
                -2.7624478397895795,
                -0.7179907798073736,
                0.9610732041350665,
                -0.2341678752414731,
                0.699176049009868,
                -3.1274996785962093
            ]
        },
        {
            "positions": [
                -2.7367548925350444,
                -0.6859819061054819,
                0.8621078599302346,
                -0.16849913852406628,
                0.5685238995313839,
                -3.132930417836528
            ]
        },
        {
            "positions": [
                -2.71106194528051,
                -0.6539730324035903,
                0.7631425157254029,
                -0.10283040180665957,
                0.43787175005289997,
                -3.1383611570768473
            ]
        }
    ]
}