{
    "goal": {
        "global_pose": {
            "orientation": {
                "w": -0.00223480608172531,
                "x": 0.0024358444001904467,
                "y": 0.7094548369677653,
                "z": -0.704743149386269
            },
            "position": {
                "x": -0.37947507619857795,
                "y": -0.6371506643295288,
                "z": 0.19426114857196808
            }
        },
        "name": "move_to_magneteinheit_C"
    },
    "id": "FMT_move_to_magneteinheit_C_11",
    "joint_names": [
        "shoulder_pan_joint",
        "shoulder_lift_joint",
        "elbow_joint",
        "wrist_1_joint",
        "wrist_2_joint",
        "wrist_3_joint"
    ],
    "metrics": {
        "cart_traj_len": 1.0658666231227312,
        "distance_elbow_joint": 1.248302329792601,
        "distance_shoulder_lift_joint": 0.9700575284811879,
        "distance_shoulder_pan_joint": 2.1186403424945977,
        "distance_wrist_1_joint": 0.775827825775076,
        "distance_wrist_2_joint": 0.9193811603757687,
        "distance_wrist_3_joint": 0.8572736897502398,
        "smoothness": 1.3576203127819593,
        "time": 1.248391036,
        "traj_len": 2.6247824436835656,
        "weighted_distance": 3.209242783324564
    },
    "planner": "FMT",
    "start": {
        "state": {
            "elbow_joint": 1.9565354010623817,
            "shoulder_lift_joint": -1.4165861575791021,
            "shoulder_pan_joint": -1.6717766225146293,
            "wrist_1_joint": -0.5286633292919765,
            "wrist_2_joint": 1.472756589071564,
            "wrist_3_joint": -3.1238370188695823
        }
    },
    "waypoints": [
        {
            "positions": [
                -1.6717766225146293,
                -1.4165861575791021,
                1.9565354010623817,
                -0.5286633292919765,
                1.472756589071564,
                -3.1238370188695823
            ]
        },
        {
            "positions": [
                -1.7707406564583745,
                -1.4731189643440163,
                2.0015583160263564,
                -0.4836672516210496,
                1.3507863129706617,
                -3.10729903486121
            ]
        },
        {
            "positions": [
                -1.86970469040212,
                -1.5296517711089306,
                2.046581230990331,
                -0.43867117395012284,
                1.2288160368697594,
                -3.090761050852838
            ]
        },
        {
            "positions": [
                -1.9686687243458652,
                -1.5861845778738448,
                2.0916041459543058,
                -0.39367509627919606,
                1.1068457607688569,
                -3.0742230668444663
            ]
        },
        {
            "positions": [
                -2.0676327582896104,
                -1.642717384638759,
                2.1366270609182805,
                -0.3486790186082692,
                0.9848754846679546,
                -3.057685082836094
            ]
        },
        {
            "positions": [
                -2.20074633237346,
                -1.6592495920894097,
                2.195718107249433,
                -0.4174069577062846,
                0.9379752689130397,
                -3.0136196460365703
            ]
        },
        {
            "positions": [
                -2.33385990645731,
                -1.6757817995400603,
                2.254809153580586,
                -0.4861348968043,
                0.8910750531581249,
                -2.9695542092370464
            ]
        },
        {
            "positions": [
                -2.46697348054116,
                -1.692314006990711,
                2.3139001999117386,
                -0.5548628359023153,
                0.8441748374032101,
                -2.9254887724375225
            ]
        },
        {
            "positions": [
                -2.6000870546250097,
                -1.7088462144413616,
                2.372991246242891,
                -0.6235907750003307,
                0.7972746216482952,
                -2.881423335637999
            ]
        },
        {
            "positions": [
                -2.7332006287088593,
                -1.7253784218920123,
                2.4320822925740435,
                -0.6923187140983461,
                0.7503744058933803,
                -2.837357898838475
            ]
        },
        {
            "positions": [
                -2.8663142027927093,
                -1.741910629342663,
                2.491173338905196,
                -0.7610466531963614,
                0.7034741901384656,
                -2.793292462038951
            ]
        },
        {
            "positions": [
                -2.9994277768765594,
                -1.7584428367933136,
                2.550264385236349,
                -0.8297745922943769,
                0.6565739743835507,
                -2.7492270252394273
            ]
        },
        {
            "positions": [
                -3.132541350960409,
                -1.7749750442439642,
                2.6093554315675016,
                -0.8985025313923922,
                0.6096737586286358,
                -2.7051615884399034
            ]
        },
        {
            "positions": [
                -3.0385591203820064,
                -1.6875938096987748,
                2.52428653166929,
                -0.8919282453485,
                0.6177163771904702,
                -2.767818482628555
            ]
        },
        {
            "positions": [
                -2.9445768898036038,
                -1.6002125751535854,
                2.4392176317710783,
                -0.8853539593046077,
                0.6257589957523045,
                -2.8304753768172066
            ]
        },
        {
            "positions": [
                -2.8505946592252016,
                -1.512831340608396,
                2.3541487318728667,
                -0.8787796732607155,
                0.633801614314139,
                -2.8931322710058582
            ]
        },
        {
            "positions": [
                -2.756612428646799,
                -1.4254501060632068,
                2.2690798319746555,
                -0.8722053872168232,
                0.6418442328759733,
                -2.9557891651945094
            ]
        },
        {
            "positions": [
                -2.6626301980683964,
                -1.3380688715180173,
                2.184010932076444,
                -0.865631101172931,
                0.6498868514378077,
                -3.018446059383161
            ]
        },
        {
            "positions": [
                -2.568647967489994,
                -1.250687636972828,
                2.098942032178232,
                -0.8590568151290386,
                0.657929469999642,
                -3.0811029535718126
            ]
        },
        {
            "positions": [
                -2.474665736911591,
                -1.1633064024276385,
                2.0138731322800205,
                -0.8524825290851464,
                0.6659720885614764,
                -3.1437598477604642
            ]
        }
    ]
}