{
    "goal": {
        "global_pose": {
            "orientation": {
                "w": 0.7031023502349854,
                "x": -0.7110244035720825,
                "y": 0.007748599164187908,
                "z": 0.005598929710686207
            },
            "position": {
                "x": 0.11585023208521307,
                "y": 0.44412534475326537,
                "z": 0.3711530566215515
            }
        },
        "name": "move_to_auspresseinheit_A"
    },
    "id": "FMT_move_to_auspresseinheit_A_90",
    "joint_names": [
        "shoulder_pan_joint",
        "shoulder_lift_joint",
        "elbow_joint",
        "wrist_1_joint",
        "wrist_2_joint",
        "wrist_3_joint"
    ],
    "metrics": {
        "cart_traj_len": 1.0518380176275803,
        "distance_elbow_joint": 0.19809511575876737,
        "distance_shoulder_lift_joint": 0.7895746705742004,
        "distance_shoulder_pan_joint": 1.7577323805718343,
        "distance_wrist_1_joint": 1.770908196556033,
        "distance_wrist_2_joint": 0.5160172201741663,
        "distance_wrist_3_joint": 0.30187821524908065,
        "smoothness": 1.4889294668221413,
        "time": 1.225262087,
        "traj_len": 2.3095899633666757,
        "weighted_distance": 2.8679064918704102
    },
    "planner": "FMT",
    "start": {
        "state": {
            "elbow_joint": 2.4225746658250005,
            "shoulder_lift_joint": -1.3736534386056498,
            "shoulder_pan_joint": -0.3378633547517467,
            "wrist_1_joint": -1.0288598680537169,
            "wrist_2_joint": 1.233022673432363,
            "wrist_3_joint": -3.0940220416140027
        }
    },
    "waypoints": [
        {
            "positions": [
                -0.3378633547517467,
                -1.3736534386056498,
                2.4225746658250005,
                -1.0288598680537169,
                1.233022673432363,
                -3.0940220416140027
            ]
        },
        {
            "positions": [
                -0.3017642695024271,
                -1.3897220221976747,
                2.418307287205261,
                -0.9913972658927941,
                1.234608300121537,
                -3.0873788871522687
            ]
        },
        {
            "positions": [
                -0.16514596291950998,
                -1.4545078535835771,
                2.4075320833587153,
                -0.8791319235079565,
                1.2098990733405894,
                -3.074210919800624
            ]
        },
        {
            "positions": [
                -0.028527656336592877,
                -1.5192936849694794,
                2.396756879512169,
                -0.766866581123119,
                1.1851898465596418,
                -3.0610429524489797
            ]
        },
        {
            "positions": [
                0.1080906502463242,
                -1.5840795163553818,
                2.3859816756656236,
                -0.6546012387382814,
                1.1604806197786939,
                -3.0478749850973355
            ]
        },
        {
            "positions": [
                0.24470895682924132,
                -1.648865347741284,
                2.3752064718190775,
                -0.5423358963534438,
                1.1357713929977462,
                -3.0347070177456907
            ]
        },
        {
            "positions": [
                0.3813272634121584,
                -1.7136511791271865,
                2.364431267972532,
                -0.4300705539686063,
                1.1110621662167985,
                -3.021539050394046
            ]
        },
        {
            "positions": [
                0.5179455699950755,
                -1.778437010513089,
                2.3536560641259863,
                -0.31780521158376873,
                1.0863529394358509,
                -3.0083710830424018
            ]
        },
        {
            "positions": [
                0.6545638765779925,
                -1.843222841898991,
                2.34288086027944,
                -0.2055398691989312,
                1.0616437126549032,
                -2.9952031156907575
            ]
        },
        {
            "positions": [
                0.7911821831609097,
                -1.9080086732848935,
                2.3321056564328946,
                -0.09327452681409354,
                1.0369344858739553,
                -2.9820351483391128
            ]
        },
        {
            "positions": [
                0.9278004897438269,
                -1.9727945046707958,
                2.3213304525863485,
                0.018990815570744113,
                1.0122252590930076,
                -2.968867180987468
            ]
        },
        {
            "positions": [
                1.064418796326744,
                -2.037580336056698,
                2.310555248739803,
                0.1312561579555816,
                0.98751603231206,
                -2.9556992136358238
            ]
        },
        {
            "positions": [
                0.9933287504280751,
                -2.012450781432068,
                2.3277703884745167,
                0.009097723846234668,
                0.9340481671769569,
                -2.988410291090004
            ]
        },
        {
            "positions": [
                0.9222387045294063,
                -1.9873212268074374,
                2.344985528209231,
                -0.11306071026311226,
                0.8805803020418539,
                -3.0211213685441844
            ]
        },
        {
            "positions": [
                0.8511486586307374,
                -1.962191672182807,
                2.3622006679439447,
                -0.23521914437245917,
                0.827112436906751,
                -3.053832445998365
            ]
        },
        {
            "positions": [
                0.7800586127320686,
                -1.9370621175581766,
                2.379415807678659,
                -0.3573775784818061,
                0.7736445717716479,
                -3.086543523452545
            ]
        },
        {
            "positions": [
                0.7089685668333997,
                -1.9119325629335462,
                2.3966309474133727,
                -0.479536012591153,
                0.7201767066365449,
                -3.1192546009067255
            ]
        }
    ]
}