{
    "goal": {
        "global_pose": {
            "orientation": {
                "w": -0.4816463035849501,
                "x": 0.5182115481033762,
                "y": 0.4908360881923453,
                "z": -0.5084816262002911
            },
            "position": {
                "x": -0.8240239810943604,
                "y": 0.19912469901144506,
                "z": 0.16403168439865112
            }
        },
        "name": "move_to_storage_D"
    },
    "id": "FMT_move_to_storage_D_82",
    "joint_names": [
        "shoulder_pan_joint",
        "shoulder_lift_joint",
        "elbow_joint",
        "wrist_1_joint",
        "wrist_2_joint",
        "wrist_3_joint"
    ],
    "metrics": {
        "cart_traj_len": 3.9781725743058196,
        "distance_elbow_joint": 4.2082929852161275,
        "distance_shoulder_lift_joint": 1.2660237050993715,
        "distance_shoulder_pan_joint": 2.813455668993028,
        "distance_wrist_1_joint": 2.264851675864514,
        "distance_wrist_2_joint": 0.8719229989096545,
        "distance_wrist_3_joint": 3.1415425687412286,
        "smoothness": 5.921189486350065e-16,
        "time": 1.345664476,
        "traj_len": 3.8165546770384315,
        "weighted_distance": 4.897545243801282
    },
    "planner": "FMT",
    "start": {
        "state": {
            "elbow_joint": -2.384821988534728,
            "shoulder_lift_joint": -2.2788054721415256,
            "shoulder_pan_joint": -0.1854694642142757,
            "wrist_1_joint": 1.4845938289331202,
            "wrist_2_joint": 0.17898776772866878,
            "wrist_3_joint": 0.037105688729662994
        }
    },
    "waypoints": [
        {
            "positions": [
                -0.1854694642142757,
                -2.2788054721415256,
                -2.384821988534728,
                1.4845938289331202,
                0.17898776772866878,
                0.037105688729662994
            ]
        },
        {
            "positions": [
                -0.08163709314709895,
                -2.235650595996572,
                -2.3144576670008212,
                1.4379349901669387,
                0.21292222372970934,
                -0.04528647323383837
            ]
        },
        {
            "positions": [
                0.022195277920077805,
                -2.192495719851618,
                -2.244093345466915,
                1.3912761514007572,
                0.24685667973074987,
                -0.12767863519733974
            ]
        },
        {
            "positions": [
                0.12602764898725458,
                -2.149340843706664,
                -2.1737290239330083,
                1.3446173126345755,
                0.28079113573179043,
                -0.2100707971608411
            ]
        },
        {
            "positions": [
                0.22986002005443132,
                -2.1061859675617107,
                -2.103364702399102,
                1.297958473868394,
                0.314725591732831,
                -0.2924629591243425
            ]
        },
        {
            "positions": [
                0.3336923911216081,
                -2.063031091416757,
                -2.0330003808651953,
                1.2512996351022125,
                0.34866004773387155,
                -0.3748551210878438
            ]
        },
        {
            "positions": [
                0.4375247621887849,
                -2.019876215271803,
                -1.962636059331289,
                1.204640796336031,
                0.3825945037349121,
                -0.4572472830513452
            ]
        },
        {
            "positions": [
                0.5413571332559617,
                -1.9767213391268492,
                -1.8922717377973823,
                1.1579819575698496,
                0.41652895973595266,
                -0.5396394450148466
            ]
        },
        {
            "positions": [
                0.6451895043231384,
                -1.9335664629818954,
                -1.821907416263476,
                1.1113231188036679,
                0.4504634157369932,
                -0.6220316069783479
            ]
        },
        {
            "positions": [
                0.7490218753903153,
                -1.8904115868369415,
                -1.7515430947295694,
                1.0646642800374864,
                0.4843978717380337,
                -0.7044237689418493
            ]
        },
        {
            "positions": [
                0.8528542464574919,
                -1.847256710691988,
                -1.6811787731956631,
                1.0180054412713049,
                0.5183323277390743,
                -0.7868159309053506
            ]
        },
        {
            "positions": [
                0.9566866175246688,
                -1.804101834547034,
                -1.6108144516617564,
                0.9713466025051233,
                0.5522667837401148,
                -0.869208092868852
            ]
        },
        {
            "positions": [
                1.0605189885918453,
                -1.7609469584020803,
                -1.5404501301278501,
                0.9246877637389418,
                0.5862012397411553,
                -0.9516002548323533
            ]
        },
        {
            "positions": [
                1.164351359659022,
                -1.7177920822571267,
                -1.4700858085939437,
                0.8780289249727603,
                0.620135695742196,
                -1.0339924167958547
            ]
        },
        {
            "positions": [
                1.268183730726199,
                -1.6746372061121728,
                -1.399721487060037,
                0.8313700862065787,
                0.6540701517432366,
                -1.1163845787593563
            ]
        },
        {
            "positions": [
                1.3720161017933756,
                -1.631482329967219,
                -1.3293571655261305,
                0.7847112474403971,
                0.6880046077442771,
                -1.1987767407228576
            ]
        },
        {
            "positions": [
                1.4758484728605523,
                -1.5883274538222651,
                -1.258992843992224,
                0.7380524086742156,
                0.7219390637453176,
                -1.2811689026863589
            ]
        },
        {
            "positions": [
                1.579680843927729,
                -1.5451725776773113,
                -1.1886285224583177,
                0.6913935699080341,
                0.7558735197463581,
                -1.3635610646498602
            ]
        },
        {
            "positions": [
                1.6835132149949061,
                -1.5020177015323575,
                -1.118264200924411,
                0.6447347311418525,
                0.7898079757473987,
                -1.4459532266133617
            ]
        },
        {
            "positions": [
                1.7873455860620828,
                -1.4588628253874039,
                -1.0478998793905046,
                0.598075892375671,
                0.8237424317484392,
                -1.528345388576863
            ]
        },
        {
            "positions": [
                1.8911779571292593,
                -1.4157079492424502,
                -0.9775355578565981,
                0.5514170536094896,
                0.8576768877494798,
                -1.6107375505403643
            ]
        },
        {
            "positions": [
                1.995010328196436,
                -1.3725530730974964,
                -0.9071712363226916,
                0.504758214843308,
                0.8916113437505203,
                -1.6931297125038656
            ]
        },
        {
            "positions": [
                2.098842699263613,
                -1.3293981969525426,
                -0.8368069147887851,
                0.45809937607712636,
                0.9255457997515609,
                -1.775521874467367
            ]
        },
        {
            "positions": [
                2.20267507033079,
                -1.2862433208075887,
                -0.7664425932548786,
                0.4114405373109449,
                0.9594802557526014,
                -1.8579140364308684
            ]
        },
        {
            "positions": [
                2.231029145960654,
                -1.2680125505565598,
                -0.5937816872591268,
                0.3319939783614557,
                0.9655756231449829,
                -1.9410155593362481
            ]
        },
        {
            "positions": [
                2.259383221590518,
                -1.2497817803055309,
                -0.42112078126337493,
                0.2525474194119665,
                0.9716709905373644,
                -2.024117082241628
            ]
        },
        {
            "positions": [
                2.2877372972203824,
                -1.2315510100545017,
                -0.24845987526762303,
                0.17310086046247733,
                0.9777663579297458,
                -2.1072186051470077
            ]
        },
        {
            "positions": [
                2.3160913728502464,
                -1.2133202398034728,
                -0.07579896927187124,
                0.09365430151298815,
                0.9838617253221272,
                -2.1903201280523876
            ]
        },
        {
            "positions": [
                2.3444454484801107,
                -1.1950894695524439,
                0.09686193672388055,
                0.014207742563498993,
                0.9899570927145087,
                -2.2734216509577676
            ]
        },
        {
            "positions": [
                2.3727995241099746,
                -1.176858699301415,
                0.26952284271963256,
                -0.06523881638599022,
                0.9960524601068902,
                -2.356523173863147
            ]
        },
        {
            "positions": [
                2.401153599739839,
                -1.158627929050386,
                0.44218374871538435,
                -0.14468537533547932,
                1.0021478274992717,
                -2.439624696768527
            ]
        },
        {
            "positions": [
                2.429507675369703,
                -1.1403971587993569,
                0.6148446547111361,
                -0.22413193428496858,
                1.008243194891653,
                -2.522726219673907
            ]
        },
        {
            "positions": [
                2.4578617509995673,
                -1.122166388548328,
                0.7875055607068879,
                -0.30357849323445774,
                1.0143385622840346,
                -2.6058277425792866
            ]
        },
        {
            "positions": [
                2.486215826629431,
                -1.103935618297299,
                0.9601664667026397,
                -0.3830250521839469,
                1.020433929676416,
                -2.6889292654846666
            ]
        },
        {
            "positions": [
                2.5145699022592956,
                -1.08570484804627,
                1.1328273726983915,
                -0.46247161113343604,
                1.0265292970687974,
                -2.772030788390046
            ]
        },
        {
            "positions": [
                2.54292397788916,
                -1.0674740777952412,
                1.3054882786941437,
                -0.5419181700829253,
                1.032624664461179,
                -2.855132311295426
            ]
        },
        {
            "positions": [
                2.571278053519024,
                -1.049243307544212,
                1.4781491846898955,
                -0.6213647290324145,
                1.0387200318535603,
                -2.938233834200806
            ]
        },
        {
            "positions": [
                2.5996321291488877,
                -1.031012537293183,
                1.6508100906856473,
                -0.7008112879819035,
                1.044815399245942,
                -3.021335357106186
            ]
        },
        {
            "positions": [
                2.627986204778752,
                -1.0127817670421542,
                1.823470996681399,
                -0.7802578469313929,
                1.0509107666383233,
                -3.1044368800115656
            ]
        }
    ]
}