{
    "goal": {
        "global_pose": {
            "orientation": {
                "w": 0.5084816217422485,
                "x": -0.49083608388900757,
                "y": 0.5182115435600281,
                "z": -0.4816462993621826
            },
            "position": {
                "x": 0.5540239810943604,
                "y": 0.030875300988554955,
                "z": 0.16403168439865112
            }
        },
        "name": "move_to_storage_A"
    },
    "id": "FMT_move_to_storage_A_87",
    "joint_names": [
        "shoulder_pan_joint",
        "shoulder_lift_joint",
        "elbow_joint",
        "wrist_1_joint",
        "wrist_2_joint",
        "wrist_3_joint"
    ],
    "metrics": {
        "cart_traj_len": 0.3533882330986964,
        "distance_elbow_joint": 0.4511989248210371,
        "distance_shoulder_lift_joint": 0.23389643230887858,
        "distance_shoulder_pan_joint": 0.4630447659803195,
        "distance_wrist_1_joint": 0.2459868462147049,
        "distance_wrist_2_joint": 1.0954966896226996,
        "distance_wrist_3_joint": 0.09442634223773272,
        "smoothness": 1.5543122343307022e-15,
        "time": 0.396539842,
        "traj_len": 1.607498056355084,
        "weighted_distance": 2.028394986559137
    },
    "planner": "FMT",
    "start": {
        "state": {
            "elbow_joint": 1.971548259319323,
            "shoulder_lift_joint": -1.1394851275133948,
            "shoulder_pan_joint": 0.1228115487234821,
            "wrist_1_joint": -0.7804723859257726,
            "wrist_2_joint": 0.12958671773740124,
            "wrist_3_joint": -3.192489227718131
        }
    },
    "waypoints": [
        {
            "positions": [
                0.1228115487234821,
                -1.1394851275133948,
                1.971548259319323,
                -0.7804723859257726,
                0.12958671773740124,
                -3.192489227718131
            ]
        },
        {
            "positions": [
                0.05666229644057931,
                -1.1728989035575204,
                2.036005248579471,
                -0.8156133639564448,
                0.28608624482635836,
                -3.1789997502555978
            ]
        },
        {
            "positions": [
                -0.00948695584232348,
                -1.206312679601646,
                2.1004622378396194,
                -0.8507543419871169,
                0.44258577191531545,
                -3.165510272793065
            ]
        },
        {
            "positions": [
                -0.07563620812522626,
                -1.2397264556457714,
                2.1649192270997673,
                -0.885895320017789,
                0.5990852990042725,
                -3.1520207953305315
            ]
        },
        {
            "positions": [
                -0.14178546040812906,
                -1.2731402316898968,
                2.2293762163599156,
                -0.9210362980484611,
                0.7555848260932296,
                -3.138531317867998
            ]
        },
        {
            "positions": [
                -0.20793471269103186,
                -1.3065540077340223,
                2.293833205620064,
                -0.9561772760791333,
                0.9120843531821867,
                -3.1250418404054647
            ]
        },
        {
            "positions": [
                -0.2740839649739346,
                -1.3399677837781478,
                2.3582901948802117,
                -0.9913182541098053,
                1.0685838802711438,
                -3.111552362942932
            ]
        },
        {
            "positions": [
                -0.3402332172568374,
                -1.3733815598222734,
                2.42274718414036,
                -1.0264592321404775,
                1.225083407360101,
                -3.0980628854803984
            ]
        }
    ]
}{
    "goal": {
        "global_pose": {
            "orientation": {
                "w": 0.5084816217422485,
                "x": -0.49083608388900757,
                "y": 0.5182115435600281,
                "z": -0.4816462993621826
            },
            "position": {
                "x": 0.5540239810943604,
                "y": 0.030875300988554955,
                "z": 0.16403168439865112
            }
        },
        "name": "move_to_storage_A"
    },
    "id": "FMT_move_to_storage_A_87",
    "joint_names": [
        "shoulder_pan_joint",
        "shoulder_lift_joint",
        "elbow_joint",
        "wrist_1_joint",
        "wrist_2_joint",
        "wrist_3_joint"
    ],
    "metrics": {
        "cart_traj_len": 0.3524471594561134,
        "distance_elbow_joint": 0.4473302480150392,
        "distance_shoulder_lift_joint": 0.23430961022044983,
        "distance_shoulder_pan_joint": 0.4618601174324533,
        "distance_wrist_1_joint": 0.23545007725394185,
        "distance_wrist_2_joint": 1.092689730733964,
        "distance_wrist_3_joint": 0.08563491629253406,
        "smoothness": 1.3322676330666221e-15,
        "time": 0.549438173,
        "traj_len": 1.5991481169511417,
        "weighted_distance": 2.014121232826206
    },
    "planner": "FMT",
    "start": {
        "state": {
            "elbow_joint": 1.97154746011099,
            "shoulder_lift_joint": -1.13948474672311,
            "shoulder_pan_joint": 0.12281154466712228,
            "wrist_1_joint": -0.7804688027058302,
            "wrist_2_joint": 0.12958655903071145,
            "wrist_3_joint": 3.0906928834467795
        }
    },
    "waypoints": [
        {
            "positions": [
                0.12281154466712228,
                -1.13948474672311,
                1.97154746011099,
                -0.7804688027058302,
                0.12958655903071145,
                3.0906928834467795
            ]
        },
        {
            "positions": [
                0.056831527891057526,
                -1.1729575481831742,
                2.0354517812559956,
                -0.8141045280278218,
                0.2856850919927063,
                3.1029264429171417
            ]
        },
        {
            "positions": [
                -0.00914848888500723,
                -1.2064303496432385,
                2.0993561024010012,
                -0.8477402533498135,
                0.44178362495470114,
                3.1151600023875035
            ]
        },
        {
            "positions": [
                -0.07512850566107197,
                -1.2399031511033027,
                2.163260423546007,
                -0.8813759786718053,
                0.597882157916696,
                3.1273935618578657
            ]
        },
        {
            "positions": [
                -0.14110852243713673,
                -1.273375952563367,
                2.227164744691012,
                -0.9150117039937969,
                0.7539806908786909,
                3.1396271213282274
            ]
        },
        {
            "positions": [
                -0.20708853921320153,
                -1.3068487540234313,
                2.2910690658360178,
                -0.9486474293157887,
                0.9100792238406858,
                3.1518606807985896
            ]
        },
        {
            "positions": [
                -0.2730685559892662,
                -1.3403215554834955,
                2.3549733869810234,
                -0.9822831546377804,
                1.0661777568026805,
                3.1640942402689514
            ]
        },
        {
            "positions": [
                -0.339048572765331,
                -1.3737943569435598,
                2.418877708126029,
                -1.015918879959772,
                1.2222762897646755,
                3.1763277997393136
            ]
        }
    ]
}{
    "goal": {
        "global_pose": {
            "orientation": {
                "w": 0.5084816217422485,
                "x": -0.49083608388900757,
                "y": 0.5182115435600281,
                "z": -0.4816462993621826
            },
            "position": {
                "x": 0.5540239810943604,
                "y": 0.030875300988554955,
                "z": 0.16403168439865112
            }
        },
        "name": "move_to_storage_A"
    },
    "id": "FMT_move_to_storage_A_87",
    "joint_names": [
        "shoulder_pan_joint",
        "shoulder_lift_joint",
        "elbow_joint",
        "wrist_1_joint",
        "wrist_2_joint",
        "wrist_3_joint"
    ],
    "metrics": {
        "cart_traj_len": 0.3536121823518673,
        "distance_elbow_joint": 0.4504468539699493,
        "distance_shoulder_lift_joint": 0.23265680693570223,
        "distance_shoulder_pan_joint": 0.4599336386251814,
        "distance_wrist_1_joint": 0.2467863104408632,
        "distance_wrist_2_joint": 1.1097126560085224,
        "distance_wrist_3_joint": 0.08939295910990719,
        "smoothness": 5.551115138160447e-16,
        "time": 0.413491518,
        "traj_len": 1.6090149859743774,
        "weighted_distance": 2.030816119140117
    },
    "planner": "FMT",
    "start": {
        "state": {
            "elbow_joint": 1.9715472970024885,
            "shoulder_lift_joint": -1.1394870060712896,
            "shoulder_pan_joint": 0.12281152778156021,
            "wrist_1_joint": -0.780463741449964,
            "wrist_2_joint": 0.12958659822042276,
            "wrist_3_joint": 3.090690232415272
        }
    },
    "waypoints": [
        {
            "positions": [
                0.12281152778156021,
                -1.1394870060712896,
                1.9715472970024885,
                -0.780463741449964,
                0.12958659822042276,
                3.090690232415272
            ]
        },
        {
            "positions": [
                0.05710672226367716,
                -1.17272369277639,
                2.035896847569624,
                -0.8157189286558016,
                0.28811697765021166,
                3.1034606551452586
            ]
        },
        {
            "positions": [
                -0.008598083254205885,
                -1.2059603794814902,
                2.10024639813676,
                -0.8509741158616392,
                0.4466473570800006,
                3.1162310778752453
            ]
        },
        {
            "positions": [
                -0.07430288877208893,
                -1.2391970661865905,
                2.1645959487038953,
                -0.8862293030674768,
                0.6051777365097895,
                3.129001500605232
            ]
        },
        {
            "positions": [
                -0.14000769428997198,
                -1.272433752891691,
                2.228945499271031,
                -0.9214844902733144,
                0.7637081159395783,
                3.141771923335219
            ]
        },
        {
            "positions": [
                -0.20571249980785503,
                -1.3056704395967913,
                2.2932950498381666,
                -0.956739677479152,
                0.9222384953693673,
                3.1545423460652056
            ]
        },
        {
            "positions": [
                -0.27141730532573805,
                -1.3389071263018915,
                2.357644600405302,
                -0.9919948646849895,
                1.0807688747991562,
                3.1673127687951923
            ]
        },
        {
            "positions": [
                -0.33712211084362115,
                -1.3721438130069918,
                2.421994150972438,
                -1.0272500518908272,
                1.2392992542289452,
                3.180083191525179
            ]
        }
    ]
}