{
    "goal": {
        "global_pose": {
            "orientation": {
                "w": 0.7031023502349854,
                "x": -0.7110244035720825,
                "y": 0.007748599164187908,
                "z": 0.005598929710686207
            },
            "position": {
                "x": 0.11585023208521307,
                "y": 0.44412534475326537,
                "z": 0.3711530566215515
            }
        },
        "name": "move_to_auspresseinheit_A"
    },
    "id": "FMT_move_to_auspresseinheit_A_88",
    "joint_names": [
        "shoulder_pan_joint",
        "shoulder_lift_joint",
        "elbow_joint",
        "wrist_1_joint",
        "wrist_2_joint",
        "wrist_3_joint"
    ],
    "metrics": {
        "cart_traj_len": 1.0894409980662867,
        "distance_elbow_joint": 0.023715699411772206,
        "distance_shoulder_lift_joint": 0.5388675549666226,
        "distance_shoulder_pan_joint": 2.394310408410665,
        "distance_wrist_1_joint": 0.5447899221148608,
        "distance_wrist_2_joint": 1.827305558757874,
        "distance_wrist_3_joint": 0.1293835980561111,
        "smoothness": 1.125669445586376,
        "time": 1.177347546,
        "traj_len": 2.3363160620339674,
        "weighted_distance": 2.8441581212553677
    },
    "planner": "FMT",
    "start": {
        "state": {
            "elbow_joint": 2.4225746658250005,
            "shoulder_lift_joint": -1.3736534386056498,
            "shoulder_pan_joint": -0.3378633547517467,
            "wrist_1_joint": -1.0288598680537169,
            "wrist_2_joint": 1.233022673432363,
            "wrist_3_joint": -3.0940220416140027
        }
    },
    "waypoints": [
        {
            "positions": [
                -0.3378633547517467,
                -1.3736534386056498,
                2.4225746658250005,
                -1.0288598680537169,
                1.233022673432363,
                -3.0940220416140027
            ]
        },
        {
            "positions": [
                -0.43444950306672847,
                -1.4434012426062097,
                2.420889312649905,
                -1.0258245575225293,
                1.064588116588087,
                -3.0864052435458427
            ]
        },
        {
            "positions": [
                -0.5310356513817103,
                -1.5131490466067699,
                2.419203959474809,
                -1.0227892469913415,
                0.8961535597438111,
                -3.0787884454776826
            ]
        },
        {
            "positions": [
                -0.627621799696692,
                -1.5828968506073298,
                2.4175186062997134,
                -1.019753936460154,
                0.727719002899535,
                -3.0711716474095225
            ]
        },
        {
            "positions": [
                -0.7242079480116737,
                -1.65264465460789,
                2.415833253124618,
                -1.0167186259289664,
                0.559284446055259,
                -3.0635548493413625
            ]
        },
        {
            "positions": [
                -0.8207940963266556,
                -1.7223924586084498,
                2.4141478999495223,
                -1.013683315397779,
                0.39084988921098285,
                -3.0559380512732024
            ]
        },
        {
            "positions": [
                -0.9173802446416373,
                -1.79214026260901,
                2.4124625467744263,
                -1.0106480048665911,
                0.22241533236670685,
                -3.0483212532050423
            ]
        },
        {
            "positions": [
                -1.013966392956619,
                -1.8618880666095698,
                2.4107771935993307,
                -1.0076126943354036,
                0.0539807755224308,
                -3.0407044551368823
            ]
        },
        {
            "positions": [
                -0.7991904716808949,
                -1.8682171824799076,
                2.409287415201068,
                -0.9421698507858352,
                0.1350137331284235,
                -3.050212706584256
            ]
        },
        {
            "positions": [
                -0.5844145504051708,
                -1.8745462983502454,
                2.407797636802805,
                -0.8767270072362667,
                0.21604669073441618,
                -3.05972095803163
            ]
        },
        {
            "positions": [
                -0.36963862912944667,
                -1.8808754142205832,
                2.406307858404542,
                -0.8112841636866983,
                0.2970796483404089,
                -3.069229209479004
            ]
        },
        {
            "positions": [
                -0.15486270785372258,
                -1.887204530090921,
                2.4048180800062795,
                -0.7458413201371299,
                0.37811260594640156,
                -3.0787374609263773
            ]
        },
        {
            "positions": [
                0.05991321342200151,
                -1.893533645961259,
                2.403328301608017,
                -0.6803984765875615,
                0.4591455635523943,
                -3.0882457123737512
            ]
        },
        {
            "positions": [
                0.2746891346977256,
                -1.8998627618315969,
                2.401838523209754,
                -0.6149556330379929,
                0.5401785211583869,
                -3.097753963821125
            ]
        },
        {
            "positions": [
                0.4894650559734497,
                -1.9061918777019347,
                2.400348744811491,
                -0.5495127894884245,
                0.6212114787643797,
                -3.107262215268499
            ]
        },
        {
            "positions": [
                0.7042409772491737,
                -1.9125209935722725,
                2.3988589664132283,
                -0.4840699459388561,
                0.7022444363703724,
                -3.116770466715873
            ]
        }
    ]
}