{
    "goal": {
        "global_pose": {
            "orientation": {
                "w": -0.00223480608172531,
                "x": 0.0024358444001904467,
                "y": 0.7094548369677653,
                "z": -0.704743149386269
            },
            "position": {
                "x": -0.37947507619857795,
                "y": -0.6371506643295288,
                "z": 0.19426114857196808
            }
        },
        "name": "move_to_magneteinheit_C"
    },
    "id": "FMT_move_to_magneteinheit_C_126",
    "joint_names": [
        "shoulder_pan_joint",
        "shoulder_lift_joint",
        "elbow_joint",
        "wrist_1_joint",
        "wrist_2_joint",
        "wrist_3_joint"
    ],
    "metrics": {
        "cart_traj_len": 1.8564893814765735,
        "distance_elbow_joint": 0.30621050402867134,
        "distance_shoulder_lift_joint": 2.1349781631429456,
        "distance_shoulder_pan_joint": 2.0087108618819096,
        "distance_wrist_1_joint": 0.6285742106111649,
        "distance_wrist_2_joint": 0.7963126386528749,
        "distance_wrist_3_joint": 0.11512624849843878,
        "smoothness": 1.0239726095074162,
        "time": 1.29669733,
        "traj_len": 2.447429800181408,
        "weighted_distance": 2.764968711048449
    },
    "planner": "FMT",
    "start": {
        "state": {
            "elbow_joint": 1.9565354010623817,
            "shoulder_lift_joint": -1.4165861575791021,
            "shoulder_pan_joint": -1.6717766225146293,
            "wrist_1_joint": -0.5286633292919765,
            "wrist_2_joint": 1.472756589071564,
            "wrist_3_joint": -3.1238370188695823
        }
    },
    "waypoints": [
        {
            "positions": [
                -1.6717766225146293,
                -1.4165861575791021,
                1.9565354010623817,
                -0.5286633292919765,
                1.472756589071564,
                -3.1238370188695823
            ]
        },
        {
            "positions": [
                -1.8474614573924226,
                -1.5343277083001263,
                1.9410465357716724,
                -0.5164427583351204,
                1.4351684928021335,
                -3.1310911650450817
            ]
        },
        {
            "positions": [
                -2.0231462922702157,
                -1.6520692590211505,
                1.9255576704809632,
                -0.5042221873782643,
                1.3975803965327034,
                -3.138345311220581
            ]
        },
        {
            "positions": [
                -2.198831127148009,
                -1.7698108097421748,
                1.9100688051902541,
                -0.49200161642140827,
                1.359992300263273,
                -3.145599457396081
            ]
        },
        {
            "positions": [
                -2.3745159620258023,
                -1.8875523604631992,
                1.8945799398995449,
                -0.4797810454645522,
                1.3224042039938428,
                -3.15285360357158
            ]
        },
        {
            "positions": [
                -2.550200796903596,
                -2.005293911184223,
                1.8790910746088356,
                -0.4675604745076961,
                1.2848161077244125,
                -3.1601077497470795
            ]
        },
        {
            "positions": [
                -2.725885631781389,
                -2.1230354619052476,
                1.8636022093181266,
                -0.4553399035508401,
                1.247228011454982,
                -3.1673618959225793
            ]
        },
        {
            "positions": [
                -2.901570466659182,
                -2.240777012626272,
                1.8481133440274173,
                -0.443119332593984,
                1.209639915185552,
                -3.1746160420980787
            ]
        },
        {
            "positions": [
                -3.0772553015369755,
                -2.358518563347296,
                1.832624478736708,
                -0.4308987616371279,
                1.1720518189161215,
                -3.181870188273578
            ]
        },
        {
            "positions": [
                -3.048530356420675,
                -2.243740446163328,
                1.8661335568386572,
                -0.4169861209235936,
                1.0630234262159226,
                -3.184144027168069
            ]
        },
        {
            "positions": [
                -3.0198054113043753,
                -2.1289623289793598,
                1.8996426349406064,
                -0.4030734802100593,
                0.9539950335157237,
                -3.18641786606256
            ]
        },
        {
            "positions": [
                -2.991080466188075,
                -2.014184211795392,
                1.9331517130425553,
                -0.389160839496525,
                0.8449666408155247,
                -3.1886917049570505
            ]
        },
        {
            "positions": [
                -2.9623555210717747,
                -1.899406094611424,
                1.9666607911445044,
                -0.3752481987829907,
                0.7359382481153258,
                -3.1909655438515414
            ]
        },
        {
            "positions": [
                -2.864689040592902,
                -1.752619436883648,
                1.9763134450035447,
                -0.4702800148034265,
                0.7240393885759985,
                -3.1813659991482455
            ]
        },
        {
            "positions": [
                -2.7670225601140297,
                -1.6058327791558722,
                1.985966098862585,
                -0.5653118308238624,
                0.7121405290366711,
                -3.1717664544449495
            ]
        },
        {
            "positions": [
                -2.669356079635157,
                -1.4590461214280963,
                1.9956187527216254,
                -0.6603436468442982,
                0.7002416694973437,
                -3.1621669097416536
            ]
        },
        {
            "positions": [
                -2.5716895991562847,
                -1.3122594637003204,
                2.0052714065806656,
                -0.755375462864734,
                0.6883428099580163,
                -3.1525673650383577
            ]
        },
        {
            "positions": [
                -2.474023118677412,
                -1.1654728059725445,
                2.014924060439706,
                -0.8504072788851699,
                0.676443950418689,
                -3.1429678203350617
            ]
        }
    ]
}