{
    "goal": {
        "global_pose": {
            "orientation": {
                "w": 0.5084816262002911,
                "x": -0.4908360881923452,
                "y": 0.5182115481033761,
                "z": -0.48164630358495003
            },
            "position": {
                "x": 0.5540239810943604,
                "y": -0.46912469901144505,
                "z": 0.16403168439865112
            }
        },
        "name": "move_to_storage_B"
    },
    "id": "FMT_move_to_storage_B_133",
    "joint_names": [
        "shoulder_pan_joint",
        "shoulder_lift_joint",
        "elbow_joint",
        "wrist_1_joint",
        "wrist_2_joint",
        "wrist_3_joint"
    ],
    "metrics": {
        "cart_traj_len": 1.5613533275786218,
        "distance_elbow_joint": 1.0174633355308509,
        "distance_shoulder_lift_joint": 1.12501662381186,
        "distance_shoulder_pan_joint": 1.1405191236568222,
        "distance_wrist_1_joint": 3.0143245642266026,
        "distance_wrist_2_joint": 2.7064639014501064,
        "distance_wrist_3_joint": 3.117189054636232,
        "smoothness": 0.2258093198419169,
        "time": 1.4002277650000001,
        "traj_len": 3.481519295266432,
        "weighted_distance": 4.906744662019988
    },
    "planner": "FMT",
    "start": {
        "state": {
            "elbow_joint": 1.664937868594044,
            "shoulder_lift_joint": -0.661644460510453,
            "shoulder_pan_joint": -0.9139846352900073,
            "wrist_1_joint": 2.146753192139373,
            "wrist_2_joint": -2.2341966793290973,
            "wrist_3_joint": 0.005466555786416001
        }
    },
    "waypoints": [
        {
            "positions": [
                -0.9139846352900073,
                -0.661644460510453,
                1.664937868594044,
                2.146753192139373,
                -2.2341966793290973,
                0.005466555786416001
            ]
        },
        {
            "positions": [
                -0.8931284104368787,
                -0.6961406817378902,
                1.6948352714780561,
                2.055227418179239,
                -2.1515837408438587,
                -0.12499162051897142
            ]
        },
        {
            "positions": [
                -0.8722721855837501,
                -0.7306369029653274,
                1.7247326743620683,
                1.9637016442191049,
                -2.0689708023586197,
                -0.2554497968243588
            ]
        },
        {
            "positions": [
                -0.8514159607306215,
                -0.7651331241927646,
                1.7546300772460806,
                1.8721758702589706,
                -1.986357863873381,
                -0.38590797312974623
            ]
        },
        {
            "positions": [
                -0.830559735877493,
                -0.7996293454202017,
                1.7845274801300928,
                1.7806500962988365,
                -1.9037449253881422,
                -0.5163661494351337
            ]
        },
        {
            "positions": [
                -0.8097035110243643,
                -0.8341255666476389,
                1.814424883014105,
                1.6891243223387025,
                -1.8211319869029037,
                -0.6468243257405212
            ]
        },
        {
            "positions": [
                -0.7888472861712358,
                -0.8686217878750762,
                1.8443222858981172,
                1.5975985483785682,
                -1.738519048417665,
                -0.7772825020459085
            ]
        },
        {
            "positions": [
                -0.7679910613181071,
                -0.9031180091025133,
                1.8742196887821294,
                1.506072774418434,
                -1.6559061099324262,
                -0.9077406783512961
            ]
        },
        {
            "positions": [
                -0.7471348364649786,
                -0.9376142303299505,
                1.9041170916661416,
                1.4145470004582998,
                -1.5732931714471874,
                -1.0381988546566834
            ]
        },
        {
            "positions": [
                -0.72627861161185,
                -0.9721104515573877,
                1.934014494550154,
                1.3230212264981656,
                -1.4906802329619486,
                -1.168657030962071
            ]
        },
        {
            "positions": [
                -0.7054223867587214,
                -1.0066066727848249,
                1.963911897434166,
                1.2314954525380315,
                -1.40806729447671,
                -1.2991152072674583
            ]
        },
        {
            "positions": [
                -0.6845661619055928,
                -1.041102894012262,
                1.9938093003181785,
                1.1399696785778972,
                -1.325454355991471,
                -1.429573383572846
            ]
        },
        {
            "positions": [
                -0.6637099370524642,
                -1.075599115239699,
                2.0237067032021905,
                1.0484439046177632,
                -1.2428414175062326,
                -1.560031559878233
            ]
        },
        {
            "positions": [
                -0.6428537121993356,
                -1.1100953364671364,
                2.053604106086203,
                0.9569181306576291,
                -1.1602284790209938,
                -1.6904897361836204
            ]
        },
        {
            "positions": [
                -0.6219974873462071,
                -1.1445915576945738,
                2.083501508970215,
                0.8653923566974946,
                -1.0776155405357548,
                -1.8209479124890082
            ]
        },
        {
            "positions": [
                -0.6011412624930784,
                -1.1790877789220109,
                2.1133989118542273,
                0.7738665827373605,
                -0.9950026020505163,
                -1.9514060887943956
            ]
        },
        {
            "positions": [
                -0.5802850376399499,
                -1.213584000149448,
                2.1432963147382393,
                0.6823408087772265,
                -0.9123896635652775,
                -2.0818642650997825
            ]
        },
        {
            "positions": [
                -0.5594288127868212,
                -1.2480802213768851,
                2.1731937176222518,
                0.5908150348170924,
                -0.829776725080039,
                -2.21232244140517
            ]
        },
        {
            "positions": [
                -0.5385725879336927,
                -1.2825764426043222,
                2.203091120506264,
                0.4992892608569579,
                -0.7471637865948,
                -2.3427806177105577
            ]
        },
        {
            "positions": [
                -0.5177163630805641,
                -1.3170726638317596,
                2.232988523390276,
                0.40776348689682385,
                -0.6645508481095612,
                -2.473238794015945
            ]
        },
        {
            "positions": [
                -0.4968601382274355,
                -1.3515688850591967,
                2.262885926274288,
                0.3162377129366898,
                -0.5819379096243227,
                -2.6036969703213324
            ]
        },
        {
            "positions": [
                -0.4760039133743069,
                -1.3860651062866338,
                2.2927833291583006,
                0.22471193897655573,
                -0.4993249711390839,
                -2.7341551466267195
            ]
        },
        {
            "positions": [
                -0.4551476885211783,
                -1.4205613275140712,
                2.322680732042313,
                0.13318616501642122,
                -0.41671203265384515,
                -2.8646133229321076
            ]
        },
        {
            "positions": [
                -0.4342914636680497,
                -1.4550575487415083,
                2.352578134926325,
                0.04166039105628705,
                -0.3340990941686065,
                -2.9950714992374947
            ]
        },
        {
            "positions": [
                -0.5168947076724077,
                -1.4136071067939078,
                2.3113502512765036,
                -0.07199357933665233,
                -0.23330330463240467,
                -3.009652874189035
            ]
        },
        {
            "positions": [
                -0.5994979516767658,
                -1.372156664846307,
                2.2701223676266826,
                -0.18564754972959172,
                -0.13250751509620284,
                -3.024234249140575
            ]
        },
        {
            "positions": [
                -0.6821011956811239,
                -1.3307062228987065,
                2.2288944839768616,
                -0.2993015201225311,
                -0.031711725560001014,
                -3.0388156240921154
            ]
        },
        {
            "positions": [
                -0.764704439685482,
                -1.2892557809511058,
                2.18766660032704,
                -0.4129554905154705,
                0.06908406397620082,
                -3.053396999043655
            ]
        },
        {
            "positions": [
                -0.84730768368984,
                -1.2478053390035053,
                2.1464387166772187,
                -0.5266094609084099,
                0.16987985351240265,
                -3.0679783739951954
            ]
        },
        {
            "positions": [
                -0.9299109276941981,
                -1.2063548970559048,
                2.1052108330273978,
                -0.6402634313013492,
                0.2706756430486045,
                -3.0825597489467356
            ]
        },
        {
            "positions": [
                -1.0125141716985562,
                -1.1649044551083043,
                2.0639829493775768,
                -0.7539174016942887,
                0.3714714325848063,
                -3.097141123898276
            ]
        },
        {
            "positions": [
                -1.0951174157029142,
                -1.1234540131607036,
                2.0227550657277553,
                -0.867571372087228,
                0.4722672221210081,
                -3.111722498849816
            ]
        }
    ]
}