{
    "goal": {
        "global_pose": {
            "orientation": {
                "w": 0.7047431468963623,
                "x": -0.7094548344612122,
                "y": 0.0024358443915843964,
                "z": -0.0022348060738295317
            },
            "position": {
                "x": 0.6094750761985779,
                "y": 0.3671506643295288,
                "z": 0.19426114857196808
            }
        },
        "name": "move_to_magneteinheit_A"
    },
    "id": "FMT_move_to_magneteinheit_A_111",
    "joint_names": [
        "shoulder_pan_joint",
        "shoulder_lift_joint",
        "elbow_joint",
        "wrist_1_joint",
        "wrist_2_joint",
        "wrist_3_joint"
    ],
    "metrics": {
        "cart_traj_len": 3.384392611793448,
        "distance_elbow_joint": 3.913762872125954,
        "distance_shoulder_lift_joint": 0.4680993031087013,
        "distance_shoulder_pan_joint": 3.2625953097921405,
        "distance_wrist_1_joint": 3.4733384658766635,
        "distance_wrist_2_joint": 1.4437521590243043,
        "distance_wrist_3_joint": 0.4413270474929101,
        "smoothness": 0.10698659373289357,
        "time": 1.317466089,
        "traj_len": 3.6059499660173704,
        "weighted_distance": 4.336198782033345
    },
    "planner": "FMT",
    "start": {
        "state": {
            "elbow_joint": -1.9196185241190666,
            "shoulder_lift_joint": -1.2443396400964142,
            "shoulder_pan_joint": 2.6996025414629847,
            "wrist_1_joint": -1.5485510000780065,
            "wrist_2_joint": -1.5709468930060704,
            "wrist_3_joint": 0.4420197071253992
        }
    },
    "waypoints": [
        {
            "positions": [
                2.6996025414629847,
                -1.2443396400964142,
                -1.9196185241190666,
                -1.5485510000780065,
                -1.5709468930060704,
                0.4420197071253992
            ]
        },
        {
            "positions": [
                2.46677081843354,
                -1.2251813113480507,
                -1.904852966954585,
                -1.45671899290112,
                -1.5533751075750453,
                0.4260677603276626
            ]
        },
        {
            "positions": [
                2.2339390954040956,
                -1.2060229825996873,
                -1.8900874097901035,
                -1.3648869857242332,
                -1.5358033221440202,
                0.410115813529926
            ]
        },
        {
            "positions": [
                2.001107372374651,
                -1.1868646538513237,
                -1.8753218526256217,
                -1.2730549785473468,
                -1.518231536712995,
                0.39416386673218934
            ]
        },
        {
            "positions": [
                1.7682756493452063,
                -1.1677063251029602,
                -1.86055629546114,
                -1.18122297137046,
                -1.50065975128197,
                0.37821191993445274
            ]
        },
        {
            "positions": [
                1.5354439263157618,
                -1.1485479963545968,
                -1.8457907382966585,
                -1.0893909641935735,
                -1.4830879658509448,
                0.36225997313671615
            ]
        },
        {
            "positions": [
                1.4518266485981377,
                -1.1340838426036088,
                -1.6898918131655463,
                -0.9983738843224037,
                -1.4472759518125613,
                0.3536671515027281
            ]
        },
        {
            "positions": [
                1.3682093708805136,
                -1.1196196888526209,
                -1.5339928880344338,
                -0.9073568044512338,
                -1.4114639377741776,
                0.34507432986874004
            ]
        },
        {
            "positions": [
                1.2845920931628894,
                -1.105155535101633,
                -1.3780939629033213,
                -0.8163397245800639,
                -1.375651923735794,
                0.336481508234752
            ]
        },
        {
            "positions": [
                1.2009748154452653,
                -1.0906913813506447,
                -1.222195037772209,
                -0.7253226447088941,
                -1.3398399096974103,
                0.327888686600764
            ]
        },
        {
            "positions": [
                1.1173575377276412,
                -1.0762272275996567,
                -1.0662961126410968,
                -0.6343055648377243,
                -1.3040278956590268,
                0.3192958649667759
            ]
        },
        {
            "positions": [
                1.033740260010017,
                -1.0617630738486687,
                -0.9103971875099843,
                -0.5432884849665544,
                -1.2682158816206432,
                0.31070304333278786
            ]
        },
        {
            "positions": [
                0.950122982292393,
                -1.0472989200976808,
                -0.7544982623788719,
                -0.45227140509538444,
                -1.2324038675822595,
                0.3021102216987998
            ]
        },
        {
            "positions": [
                0.8665057045747689,
                -1.0328347663466928,
                -0.5985993372477596,
                -0.36125432522421463,
                -1.196591853543876,
                0.29351740006481175
            ]
        },
        {
            "positions": [
                0.7828884268571448,
                -1.0183706125957048,
                -0.4427004121166471,
                -0.2702372453530447,
                -1.1607798395054925,
                0.2849245784308237
            ]
        },
        {
            "positions": [
                0.6992711491395207,
                -1.0039064588447169,
                -0.28680148698553487,
                -0.17922016548187492,
                -1.1249678254671087,
                0.27633175679683564
            ]
        },
        {
            "positions": [
                0.6156538714218964,
                -0.9894423050937288,
                -0.13090256185442217,
                -0.088203085610705,
                -1.089155811428725,
                0.26773893516284764
            ]
        },
        {
            "positions": [
                0.5320365937042724,
                -0.9749781513427408,
                0.02499636327668986,
                0.0028139942604648027,
                -1.0533437973903415,
                0.2591461135288596
            ]
        },
        {
            "positions": [
                0.4484193159866483,
                -0.9605139975917527,
                0.18089528840780256,
                0.09383107413163483,
                -1.017531783351958,
                0.2505532918948715
            ]
        },
        {
            "positions": [
                0.36480203826902424,
                -0.9460498438407647,
                0.3367942135389148,
                0.18484815400280463,
                -0.9817197693135743,
                0.24196047026088346
            ]
        },
        {
            "positions": [
                0.28118476055139996,
                -0.9315856900897768,
                0.49269313867002706,
                0.27586523387397444,
                -0.9459077552751907,
                0.2333676486268954
            ]
        },
        {
            "positions": [
                0.19756748283377612,
                -0.9171215363387888,
                0.6485920638011393,
                0.36688231374514424,
                -0.910095741236807,
                0.22477482699290738
            ]
        },
        {
            "positions": [
                0.11395020511615184,
                -0.9026573825878007,
                0.804490988932252,
                0.45789939361631427,
                -0.8742837271984234,
                0.21618200535891932
            ]
        },
        {
            "positions": [
                0.030332927398527776,
                -0.8881932288368127,
                0.9603899140633643,
                0.5489164734874841,
                -0.8384717131600399,
                0.20758918372493126
            ]
        },
        {
            "positions": [
                -0.05328435031909651,
                -0.8737290750858246,
                1.1162888391944765,
                0.6399335533586539,
                -0.8026596991216562,
                0.1989963620909432
            ]
        },
        {
            "positions": [
                -0.13690162803672035,
                -0.8592649213348367,
                1.2721877643255888,
                0.7309506332298237,
                -0.7668476850832726,
                0.19040354045695518
            ]
        },
        {
            "positions": [
                -0.22051890575434452,
                -0.8448007675838487,
                1.4280866894567015,
                0.8219677131009937,
                -0.731035671044889,
                0.18181071882296712
            ]
        },
        {
            "positions": [
                -0.17770967293249307,
                -0.8362307137593317,
                1.498843896775475,
                0.9598201821882018,
                -0.6555555539119986,
                0.15917096142415738
            ]
        },
        {
            "positions": [
                -0.13490044011064165,
                -0.8276606599348147,
                1.5696011040942484,
                1.0976726512754098,
                -0.5800754367791081,
                0.1365312040253476
            ]
        },
        {
            "positions": [
                -0.09209120728879022,
                -0.8190906061102978,
                1.6403583114130216,
                1.2355251203626176,
                -0.5045953196462177,
                0.11389144662653786
            ]
        },
        {
            "positions": [
                -0.04928197446693877,
                -0.8105205522857808,
                1.711115518731795,
                1.3733775894498257,
                -0.42911520251332735,
                0.0912516892277281
            ]
        },
        {
            "positions": [
                -0.006472741645087321,
                -0.8019504984612638,
                1.7818727260505685,
                1.5112300585370337,
                -0.353635085380437,
                0.06861193182891834
            ]
        },
        {
            "positions": [
                0.036336491176764074,
                -0.7933804446367468,
                1.8526299333693417,
                1.6490825276242416,
                -0.27815496824754654,
                0.04597217443010859
            ]
        },
        {
            "positions": [
                0.07914572399861552,
                -0.7848103908122299,
                1.9233871406881151,
                1.7869349967114496,
                -0.2026748511146561,
                0.02333241703129882
            ]
        },
        {
            "positions": [
                0.12195495682046698,
                -0.7762403369877129,
                1.9941443480068886,
                1.9247874657986577,
                -0.12719473398176573,
                0.0006926596324890697
            ]
        }
    ]
}