{
    "goal": {
        "global_pose": {
            "orientation": {
                "w": 0.5084816262002911,
                "x": -0.4908360881923452,
                "y": 0.5182115481033761,
                "z": -0.48164630358495003
            },
            "position": {
                "x": 0.5540239810943604,
                "y": -0.46912469901144505,
                "z": 0.16403168439865112
            }
        },
        "name": "move_to_storage_B"
    },
    "id": "FMT_move_to_storage_B_95",
    "joint_names": [
        "shoulder_pan_joint",
        "shoulder_lift_joint",
        "elbow_joint",
        "wrist_1_joint",
        "wrist_2_joint",
        "wrist_3_joint"
    ],
    "metrics": {
        "cart_traj_len": 0.7609107381228433,
        "distance_elbow_joint": 0.45742273647678644,
        "distance_shoulder_lift_joint": 0.4598954252922285,
        "distance_shoulder_pan_joint": 0.18166890112236767,
        "distance_wrist_1_joint": 2.9868263721585944,
        "distance_wrist_2_joint": 2.7033667954634746,
        "distance_wrist_3_joint": 3.133835072123844,
        "smoothness": 0.010407880501124591,
        "time": 1.3199625309999998,
        "traj_len": 3.1500817930074922,
        "weighted_distance": 4.67770014157674
    },
    "planner": "FMT",
    "start": {
        "state": {
            "elbow_joint": 1.664937868594044,
            "shoulder_lift_joint": -0.661644460510453,
            "shoulder_pan_joint": -0.9139846352900073,
            "wrist_1_joint": 2.146753192139373,
            "wrist_2_joint": -2.2341966793290973,
            "wrist_3_joint": 0.005466555786416001
        }
    },
    "waypoints": [
        {
            "positions": [
                -0.9139846352900073,
                -0.661644460510453,
                1.664937868594044,
                2.146753192139373,
                -2.2341966793290973,
                0.005466555786416001
            ]
        },
        {
            "positions": [
                -0.9209257559049409,
                -0.6967436979135222,
                1.7053382334768115,
                2.064650086194355,
                -2.128078899045527,
                0.11181810780018511
            ]
        },
        {
            "positions": [
                -0.9278668765198743,
                -0.7318429353165914,
                1.745738598359579,
                1.982546980249337,
                -2.021961118761957,
                0.21816965981395423
            ]
        },
        {
            "positions": [
                -0.9348079971348078,
                -0.7669421727196605,
                1.7861389632423468,
                1.9004438743043188,
                -1.9158433384783864,
                0.32452121182772337
            ]
        },
        {
            "positions": [
                -0.9417491177497413,
                -0.8020414101227297,
                1.8265393281251143,
                1.8183407683593007,
                -1.8097255581948162,
                0.4308727638414925
            ]
        },
        {
            "positions": [
                -0.9486902383646749,
                -0.8371406475257989,
                1.8669396930078819,
                1.7362376624142826,
                -1.703607777911246,
                0.5372243158552615
            ]
        },
        {
            "positions": [
                -0.9556313589796084,
                -0.8722398849288681,
                1.9073400578906494,
                1.6541345564692647,
                -1.5974899976276757,
                0.6435758678690306
            ]
        },
        {
            "positions": [
                -0.9625724795945418,
                -0.9073391223319371,
                1.947740422773417,
                1.5720314505242465,
                -1.4913722173441055,
                0.7499274198827998
            ]
        },
        {
            "positions": [
                -0.9695136002094754,
                -0.9424383597350063,
                1.9881407876561847,
                1.4899283445792282,
                -1.385254437060535,
                0.8562789718965689
            ]
        },
        {
            "positions": [
                -0.976454720824409,
                -0.9775375971380755,
                2.0285411525389523,
                1.4078252386342103,
                -1.2791366567769649,
                0.962630523910338
            ]
        },
        {
            "positions": [
                -0.9833958414393424,
                -1.0126368345411447,
                2.06894151742172,
                1.3257221326891921,
                -1.1730188764933946,
                1.068982075924107
            ]
        },
        {
            "positions": [
                -0.9904119473751569,
                -1.0194432752449907,
                2.0656028244436504,
                1.1903599256449162,
                -1.0703820644541588,
                1.1983770479232416
            ]
        },
        {
            "positions": [
                -0.9974280533109715,
                -1.0262497159488368,
                2.062264131465581,
                1.0549977186006405,
                -0.9677452524149232,
                1.3277720199223761
            ]
        },
        {
            "positions": [
                -1.004444159246786,
                -1.0330561566526828,
                2.0589254384875115,
                0.9196355115563646,
                -0.8651084403756875,
                1.457166991921511
            ]
        },
        {
            "positions": [
                -1.0114602651826006,
                -1.039862597356529,
                2.055586745509442,
                0.7842733045120887,
                -0.7624716283364517,
                1.5865619639206454
            ]
        },
        {
            "positions": [
                -1.018476371118415,
                -1.046669038060375,
                2.0522480525313727,
                0.6489110974678127,
                -0.6598348162972159,
                1.71595693591978
            ]
        },
        {
            "positions": [
                -1.0254924770542297,
                -1.053475478764221,
                2.0489093595533032,
                0.5135488904235369,
                -0.5571980042579802,
                1.8453519079189147
            ]
        },
        {
            "positions": [
                -1.0325085829900442,
                -1.060281919468067,
                2.045570666575234,
                0.3781866833792611,
                -0.45456119221874447,
                1.9747468799180492
            ]
        },
        {
            "positions": [
                -1.0395246889258587,
                -1.0670883601719132,
                2.042231973597165,
                0.24282447633498516,
                -0.35192438017950867,
                2.1041418519171837
            ]
        },
        {
            "positions": [
                -1.0465407948616732,
                -1.0738948008757592,
                2.0388932806190954,
                0.10746226929070923,
                -0.24928756814027286,
                2.2335368239163182
            ]
        },
        {
            "positions": [
                -1.0535569007974876,
                -1.0807012415796051,
                2.035554587641026,
                -0.027899937753566695,
                -0.14665075610103706,
                2.3629317959154528
            ]
        },
        {
            "positions": [
                -1.0605730067333023,
                -1.0875076822834513,
                2.0322158946629565,
                -0.1632621447978424,
                -0.04401394406180148,
                2.4923267679145873
            ]
        },
        {
            "positions": [
                -1.0675891126691168,
                -1.0943141229872972,
                2.028877201684887,
                -0.29862435184211833,
                0.05862286797743432,
                2.6217217399137223
            ]
        },
        {
            "positions": [
                -1.0746052186049313,
                -1.1011205636911434,
                2.0255385087068176,
                -0.43398655888639426,
                0.16125968001667013,
                2.7511167119128563
            ]
        },
        {
            "positions": [
                -1.081621324540746,
                -1.1079270043949894,
                2.022199815728748,
                -0.56934876593067,
                0.2638964920559057,
                2.8805116839119913
            ]
        },
        {
            "positions": [
                -1.0886374304765605,
                -1.1147334450988355,
                2.0188611227506787,
                -0.7047109729749461,
                0.3665333040951415,
                3.009906655911126
            ]
        },
        {
            "positions": [
                -1.095653536412375,
                -1.1215398858026815,
                2.0155224297726093,
                -0.8400731800192216,
                0.46917011613437737,
                3.1393016279102604
            ]
        }
    ]
}