{
    "goal": {
        "global_pose": {
            "orientation": {
                "w": -0.4816463035849501,
                "x": 0.5182115481033762,
                "y": 0.4908360881923453,
                "z": -0.5084816262002911
            },
            "position": {
                "x": -0.8240239810943604,
                "y": -0.300875300988555,
                "z": 0.16403168439865112
            }
        },
        "name": "move_to_storage_C"
    },
    "id": "FMT_move_to_storage_C_143",
    "joint_names": [
        "shoulder_pan_joint",
        "shoulder_lift_joint",
        "elbow_joint",
        "wrist_1_joint",
        "wrist_2_joint",
        "wrist_3_joint"
    ],
    "metrics": {
        "cart_traj_len": 0.577232644946039,
        "distance_elbow_joint": 0.25564648662531364,
        "distance_shoulder_lift_joint": 0.1898710448837575,
        "distance_shoulder_pan_joint": 0.49559030686293104,
        "distance_wrist_1_joint": 0.06826147091569512,
        "distance_wrist_2_joint": 1.066542695571672,
        "distance_wrist_3_joint": 0.059389875653620194,
        "smoothness": 2.5376526478085547e-16,
        "time": 0.323061174,
        "traj_len": 1.4612672173538244,
        "weighted_distance": 1.8408926634401033
    },
    "planner": "FMT",
    "start": {
        "state": {
            "elbow_joint": 2.010868314990456,
            "shoulder_lift_joint": -1.1634956873337592,
            "shoulder_pan_joint": -2.4736205022346125,
            "wrist_1_joint": -0.8367026794202681,
            "wrist_2_joint": 0.6746043897044499,
            "wrist_3_joint": -3.1496632123970403
        }
    },
    "waypoints": [
        {
            "positions": [
                -2.4736205022346125,
                -1.1634956873337592,
                2.010868314990456,
                -0.8367026794202681,
                0.6746043897044499,
                -3.1496632123970403
            ]
        },
        {
            "positions": [
                -2.5562188867117674,
                -1.1318505131864662,
                1.9682605672195703,
                -0.8253257676009855,
                0.8523615056330619,
                -3.1397648997881036
            ]
        },
        {
            "positions": [
                -2.638817271188923,
                -1.1002053390391733,
                1.9256528194486846,
                -0.8139488557817031,
                1.030118621561674,
                -3.129866587179167
            ]
        },
        {
            "positions": [
                -2.7214156556660782,
                -1.0685601648918803,
                1.8830450716777989,
                -0.8025719439624206,
                1.2078757374902858,
                -3.11996827457023
            ]
        },
        {
            "positions": [
                -2.804014040143233,
                -1.0369149907445876,
                1.8404373239069134,
                -0.791195032143138,
                1.385632853418898,
                -3.1100699619612935
            ]
        },
        {
            "positions": [
                -2.886612424620388,
                -1.0052698165972946,
                1.797829576136028,
                -0.7798181203238554,
                1.5633899693475097,
                -3.100171649352357
            ]
        },
        {
            "positions": [
                -2.9692108090975435,
                -0.9736246424500017,
                1.7552218283651422,
                -0.768441208504573,
                1.7411470852761217,
                -3.09027333674342
            ]
        }
    ]
}