{
    "goal": {
        "global_pose": {
            "orientation": {
                "w": -0.00223480608172531,
                "x": 0.0024358444001904467,
                "y": 0.7094548369677653,
                "z": -0.704743149386269
            },
            "position": {
                "x": -0.37947507619857795,
                "y": -0.6371506643295288,
                "z": 0.19426114857196808
            }
        },
        "name": "move_to_magneteinheit_C"
    },
    "id": "FMT_move_to_magneteinheit_C_100",
    "joint_names": [
        "shoulder_pan_joint",
        "shoulder_lift_joint",
        "elbow_joint",
        "wrist_1_joint",
        "wrist_2_joint",
        "wrist_3_joint"
    ],
    "metrics": {
        "cart_traj_len": 1.466007361191236,
        "distance_elbow_joint": 0.48713825744272476,
        "distance_shoulder_lift_joint": 2.181969186829356,
        "distance_shoulder_pan_joint": 1.1549924100681566,
        "distance_wrist_1_joint": 1.2687091927887426,
        "distance_wrist_2_joint": 1.837923544285006,
        "distance_wrist_3_joint": 2.8237142719807142,
        "smoothness": 1.3193798418382128,
        "time": 1.418764402,
        "traj_len": 3.1232109860518062,
        "weighted_distance": 4.3021515715313745
    },
    "planner": "FMT",
    "start": {
        "state": {
            "elbow_joint": 1.9565354010623817,
            "shoulder_lift_joint": -1.4165861575791021,
            "shoulder_pan_joint": -1.6717766225146293,
            "wrist_1_joint": -0.5286633292919765,
            "wrist_2_joint": 1.472756589071564,
            "wrist_3_joint": -3.1238370188695823
        }
    },
    "waypoints": [
        {
            "positions": [
                -1.6717766225146293,
                -1.4165861575791021,
                1.9565354010623817,
                -0.5286633292919765,
                1.472756589071564,
                -3.1238370188695823
            ]
        },
        {
            "positions": [
                -1.6353239888305904,
                -1.5460066105605512,
                1.9847836519842388,
                -0.5054994745191073,
                1.5155507101451462,
                -3.0427478741215435
            ]
        },
        {
            "positions": [
                -1.5988713551465512,
                -1.6754270635420003,
                2.013031902906096,
                -0.482335619746238,
                1.5583448312187282,
                -2.961658729373504
            ]
        },
        {
            "positions": [
                -1.5624187214625123,
                -1.8048475165234494,
                2.041280153827953,
                -0.45917176497336876,
                1.6011389522923105,
                -2.8805695846254653
            ]
        },
        {
            "positions": [
                -1.6020498100852416,
                -1.8872441961973143,
                2.0500162892400375,
                -0.42655041085579687,
                1.6571515428063894,
                -2.7145400538105124
            ]
        },
        {
            "positions": [
                -1.641680898707971,
                -1.9696408758711792,
                2.058752424652122,
                -0.393929056738225,
                1.7131641333204686,
                -2.548510522995559
            ]
        },
        {
            "positions": [
                -1.6813119873307003,
                -2.052037555545044,
                2.0674885600642066,
                -0.3613077026206531,
                1.7691767238345475,
                -2.3824809921806063
            ]
        },
        {
            "positions": [
                -1.7209430759534294,
                -2.134434235218909,
                2.0762246954762906,
                -0.3286863485030812,
                1.8251893143486266,
                -2.2164514613656534
            ]
        },
        {
            "positions": [
                -1.7605741645761588,
                -2.2168309148927743,
                2.084960830888375,
                -0.29606499438550926,
                1.8812019048627056,
                -2.0504219305507005
            ]
        },
        {
            "positions": [
                -1.8002052531988881,
                -2.299227594566639,
                2.0936969663004596,
                -0.26344364026793743,
                1.9372144953767845,
                -1.8843923997357475
            ]
        },
        {
            "positions": [
                -1.8398363418216175,
                -2.381624274240504,
                2.102433101712544,
                -0.23082228615036549,
                1.9932270858908636,
                -1.7183628689207944
            ]
        },
        {
            "positions": [
                -1.898239509306394,
                -2.299785285768873,
                2.11302345997476,
                -0.2972827350492285,
                1.9368069353873953,
                -1.8182921968991497
            ]
        },
        {
            "positions": [
                -1.9566426767911704,
                -2.217946297297242,
                2.1236138182369766,
                -0.36374318394809146,
                1.8803867848839273,
                -1.918221524877505
            ]
        },
        {
            "positions": [
                -2.0150458442759467,
                -2.136107308825611,
                2.1342041764991926,
                -0.4302036328469545,
                1.823966634380459,
                -2.01815085285586
            ]
        },
        {
            "positions": [
                -2.073449011760723,
                -2.0542683203539798,
                2.1447945347614086,
                -0.4966640817458175,
                1.767546483876991,
                -2.1180801808342156
            ]
        },
        {
            "positions": [
                -2.1318521792454996,
                -1.9724293318823485,
                2.1553848930236246,
                -0.5631245306446806,
                1.7111263333735227,
                -2.2180095088125706
            ]
        },
        {
            "positions": [
                -2.190255346730276,
                -1.8905903434107174,
                2.1659752512858406,
                -0.6295849795435435,
                1.6547061828700547,
                -2.317938836790926
            ]
        },
        {
            "positions": [
                -2.2486585142150526,
                -1.8087513549390861,
                2.176565609548057,
                -0.6960454284424066,
                1.5982860323665864,
                -2.4178681647692812
            ]
        },
        {
            "positions": [
                -2.307061681699829,
                -1.7269123664674553,
                2.187155967810273,
                -0.7625058773412695,
                1.5418658818631181,
                -2.5177974927476363
            ]
        },
        {
            "positions": [
                -2.3654648491846055,
                -1.645073377995824,
                2.197746326072489,
                -0.8289663262401326,
                1.48544573135965,
                -2.617726820725992
            ]
        },
        {
            "positions": [
                -2.423868016669382,
                -1.563234389524193,
                2.2083366843347054,
                -0.8954267751389956,
                1.4290255808561818,
                -2.717656148704347
            ]
        },
        {
            "positions": [
                -2.4822711841541585,
                -1.4813954010525618,
                2.2189270425969214,
                -0.9618872240378585,
                1.3726054303527135,
                -2.8175854766827024
            ]
        },
        {
            "positions": [
                -2.540674351638935,
                -1.3995564125809308,
                2.2295174008591374,
                -1.0283476729367216,
                1.3161852798492455,
                -2.9175148046610575
            ]
        },
        {
            "positions": [
                -2.523829631929031,
                -1.3408406104538357,
                2.175978336447645,
                -0.9850119822215276,
                1.1560824694932235,
                -2.9722868512339735
            ]
        },
        {
            "positions": [
                -2.5069849122191266,
                -1.2821248083267407,
                2.1224392720361527,
                -0.9416762915063337,
                0.9959796591372014,
                -3.027058897806889
            ]
        },
        {
            "positions": [
                -2.490140192509222,
                -1.2234090061996454,
                2.0689002076246608,
                -0.8983406007911399,
                0.8358768487811794,
                -3.0818309443798046
            ]
        },
        {
            "positions": [
                -2.473295472799318,
                -1.1646932040725504,
                2.0153611432131684,
                -0.8550049100759459,
                0.6757740384251574,
                -3.1366029909527207
            ]
        }
    ]
}