{
    "goal": {
        "global_pose": {
            "orientation": {
                "w": 0.7031023480610252,
                "x": -0.7110244013736278,
                "y": 0.0077485991402295624,
                "z": 0.005598929693374583
            },
            "position": {
                "x": -0.8841497679147869,
                "y": 0.44412534475326537,
                "z": 0.3711530566215515
            }
        },
        "name": "move_to_auspresseinheit_D"
    },
    "id": "FMT_move_to_auspresseinheit_D_66",
    "joint_names": [
        "shoulder_pan_joint",
        "shoulder_lift_joint",
        "elbow_joint",
        "wrist_1_joint",
        "wrist_2_joint",
        "wrist_3_joint"
    ],
    "metrics": {
        "cart_traj_len": 0.342737625603441,
        "distance_elbow_joint": 0.6308918403263977,
        "distance_shoulder_lift_joint": 0.11792143907725405,
        "distance_shoulder_pan_joint": 0.1346909710272913,
        "distance_wrist_1_joint": 0.5104519846077333,
        "distance_wrist_2_joint": 1.4298756470277445,
        "distance_wrist_3_joint": 0.015701586077296437,
        "smoothness": 7.894919286223335e-16,
        "time": 0.515840469,
        "traj_len": 1.6850915310877677,
        "weighted_distance": 2.193459430200109
    },
    "planner": "FMT",
    "start": {
        "state": {
            "elbow_joint": -1.8275523626775212,
            "shoulder_lift_joint": -2.126789852344167,
            "shoulder_pan_joint": -0.03513704404078235,
            "wrist_1_joint": -2.347782403156801,
            "wrist_2_joint": -1.6058999987535132,
            "wrist_3_joint": -3.0880379163319196
        }
    },
    "waypoints": [
        {
            "positions": [
                -0.03513704404078235,
                -2.126789852344167,
                -1.8275523626775212,
                -2.347782403156801,
                -1.6058999987535132,
                -3.0880379163319196
            ]
        },
        {
            "positions": [
                -0.05197341541919376,
                -2.1415300322288235,
                -1.7486908826367216,
                -2.4115889012327676,
                -1.4271655428750452,
                -3.0900006145915815
            ]
        },
        {
            "positions": [
                -0.06880978679760517,
                -2.1562702121134802,
                -1.6698294025959217,
                -2.4753953993087343,
                -1.2484310869965771,
                -3.091963312851244
            ]
        },
        {
            "positions": [
                -0.08564615817601659,
                -2.171010391998137,
                -1.590967922555122,
                -2.539201897384701,
                -1.0696966311181089,
                -3.0939260111109057
            ]
        },
        {
            "positions": [
                -0.10248252955442799,
                -2.185750571882794,
                -1.5121064425143222,
                -2.6030083954606678,
                -0.8909621752396409,
                -3.095888709370568
            ]
        },
        {
            "positions": [
                -0.11931890093283942,
                -2.200490751767451,
                -1.4332449624735226,
                -2.666814893536634,
                -0.7122277193611729,
                -3.09785140763023
            ]
        },
        {
            "positions": [
                -0.13615527231125082,
                -2.2152309316521075,
                -1.354383482432723,
                -2.7306213916126008,
                -0.5334932634827048,
                -3.099814105889892
            ]
        },
        {
            "positions": [
                -0.15299164368966223,
                -2.229971111536764,
                -1.2755220023919231,
                -2.7944278896885675,
                -0.3547588076042367,
                -3.101776804149554
            ]
        },
        {
            "positions": [
                -0.16982801506807366,
                -2.244711291421421,
                -1.1966605223511235,
                -2.858234387764534,
                -0.17602435172576877,
                -3.103739502409216
            ]
        }
    ]
}