{
    "goal": {
        "global_pose": {
            "orientation": {
                "w": -0.00223480608172531,
                "x": 0.0024358444001904467,
                "y": 0.7094548369677653,
                "z": -0.704743149386269
            },
            "position": {
                "x": 0.6205249238014221,
                "y": -0.6371506643295288,
                "z": 0.19426114857196808
            }
        },
        "name": "move_to_magneteinheit_B"
    },
    "id": "FMT_move_to_magneteinheit_B_114",
    "joint_names": [
        "shoulder_pan_joint",
        "shoulder_lift_joint",
        "elbow_joint",
        "wrist_1_joint",
        "wrist_2_joint",
        "wrist_3_joint"
    ],
    "metrics": {
        "cart_traj_len": 3.3078014809261536,
        "distance_elbow_joint": 4.284883399523078,
        "distance_shoulder_lift_joint": 1.0643942925466772,
        "distance_shoulder_pan_joint": 2.5487403430756514,
        "distance_wrist_1_joint": 2.0395537190755264,
        "distance_wrist_2_joint": 2.1827650422599003,
        "distance_wrist_3_joint": 3.2499852192244854,
        "smoothness": 0.5437332524241666,
        "time": 1.664327931,
        "traj_len": 3.920500225188786,
        "weighted_distance": 5.108092717980921
    },
    "planner": "FMT",
    "start": {
        "state": {
            "elbow_joint": 2.6216224122426386,
            "shoulder_lift_joint": -1.4174107377796124,
            "shoulder_pan_joint": 0.7066234856936794,
            "wrist_1_joint": 1.9546482284002225,
            "wrist_2_joint": -0.7096286983471962,
            "wrist_3_joint": 0.005740856962016249
        }
    },
    "waypoints": [
        {
            "positions": [
                0.7066234856936794,
                -1.4174107377796124,
                2.6216224122426386,
                1.9546482284002225,
                -0.7096286983471962,
                0.005740856962016249
            ]
        },
        {
            "positions": [
                0.7829786762096655,
                -1.441997269435261,
                2.619695632867204,
                1.9243022699074517,
                -0.6478471081774417,
                0.06873724785659704
            ]
        },
        {
            "positions": [
                0.8871898081050416,
                -1.469826455415658,
                2.5929404957250473,
                1.8780846794465966,
                -0.5652742956082046,
                0.14386185072514376
            ]
        },
        {
            "positions": [
                0.9914009400004177,
                -1.4976556413960551,
                2.5661853585828904,
                1.8318670889857418,
                -0.48270148303896765,
                0.21898645359369048
            ]
        },
        {
            "positions": [
                1.0956120718957938,
                -1.525484827376452,
                2.539430221440734,
                1.7856494985248867,
                -0.40012867046973055,
                0.29411105646223723
            ]
        },
        {
            "positions": [
                1.1998232037911698,
                -1.5533140133568493,
                2.512675084298577,
                1.7394319080640317,
                -0.3175558579004935,
                0.36923565933078395
            ]
        },
        {
            "positions": [
                1.3040343356865458,
                -1.5811431993372462,
                2.4859199471564204,
                1.6932143176031769,
                -0.2349830453312565,
                0.44436026219933067
            ]
        },
        {
            "positions": [
                1.370183586989027,
                -1.6125421228083532,
                2.328498556613144,
                1.6439991333712647,
                -0.25476269562840576,
                0.378974947379913
            ]
        },
        {
            "positions": [
                1.4363328382915082,
                -1.6439410462794601,
                2.171077166069868,
                1.5947839491393525,
                -0.27454234592555504,
                0.3135896325604953
            ]
        },
        {
            "positions": [
                1.5024820895939892,
                -1.675339969750567,
                2.013655775526592,
                1.54556876490744,
                -0.2943219962227043,
                0.2482043177410776
            ]
        },
        {
            "positions": [
                1.5686313408964705,
                -1.7067388932216738,
                1.8562343849833156,
                1.496353580675528,
                -0.31410164651985356,
                0.18281900292165992
            ]
        },
        {
            "positions": [
                1.6347805921989518,
                -1.7381378166927808,
                1.6988129944400394,
                1.4471383964436157,
                -0.33388129681700285,
                0.1174336881022422
            ]
        },
        {
            "positions": [
                1.7009298435014328,
                -1.7695367401638877,
                1.5413916038967632,
                1.3979232122117033,
                -0.3536609471141521,
                0.05204837328282452
            ]
        },
        {
            "positions": [
                1.7670790948039141,
                -1.8009356636349947,
                1.383970213353487,
                1.3487080279797912,
                -0.3734405974113013,
                -0.013336941536593205
            ]
        },
        {
            "positions": [
                1.8332283461063952,
                -1.8323345871061016,
                1.226548822810211,
                1.299492843747879,
                -0.3932202477084506,
                -0.07872225635601082
            ]
        },
        {
            "positions": [
                1.8993775974088765,
                -1.8637335105772084,
                1.0691274322669349,
                1.2502776595159668,
                -0.4129998980055999,
                -0.1441075711754285
            ]
        },
        {
            "positions": [
                1.9655268487113577,
                -1.8951324340483153,
                0.9117060417236584,
                1.2010624752840546,
                -0.4327795483027491,
                -0.20949288599484628
            ]
        },
        {
            "positions": [
                2.0316761000138386,
                -1.9265313575194223,
                0.7542846511803825,
                1.1518472910521425,
                -0.45255919859989835,
                -0.27487820081426395
            ]
        },
        {
            "positions": [
                2.09782535131632,
                -1.9579302809905292,
                0.5968632606371063,
                1.10263210682023,
                -0.47233884889704764,
                -0.3402635156336816
            ]
        },
        {
            "positions": [
                2.163974602618801,
                -1.9893292044616362,
                0.43944187009382984,
                1.0534169225883179,
                -0.4921184991941969,
                -0.4056488304530993
            ]
        },
        {
            "positions": [
                2.2301238539212824,
                -2.020728127932743,
                0.28202047955055365,
                1.0042017383564055,
                -0.5118981494913462,
                -0.4710341452725171
            ]
        },
        {
            "positions": [
                2.2962731052237633,
                -2.05212705140385,
                0.1245990890072779,
                0.9549865541244934,
                -0.5316777997884954,
                -0.5364194600919346
            ]
        },
        {
            "positions": [
                2.3624223565262445,
                -2.083525974874957,
                -0.0328223015359983,
                0.9057713698925811,
                -0.5514574500856447,
                -0.6018047749113523
            ]
        },
        {
            "positions": [
                2.428571607828726,
                -2.114924898346064,
                -0.19024369207927494,
                0.8565561856606688,
                -0.571237100382794,
                -0.6671900897307702
            ]
        },
        {
            "positions": [
                2.494720859131207,
                -2.1463238218171705,
                -0.3476650826225507,
                0.8073410014287568,
                -0.5910167506799432,
                -0.7325754045501877
            ]
        },
        {
            "positions": [
                2.5608701104336884,
                -2.1777227452882775,
                -0.5050864731658269,
                0.7581258171968445,
                -0.6107964009770925,
                -0.7979607193696056
            ]
        },
        {
            "positions": [
                2.6270193617361697,
                -2.2091216687593844,
                -0.6625078637091035,
                0.7089106329649322,
                -0.6305760512742418,
                -0.8633460341890232
            ]
        },
        {
            "positions": [
                2.6931686130386505,
                -2.2405205922304914,
                -0.8199292542523793,
                0.65969544873302,
                -0.650355701571391,
                -0.9287313490084407
            ]
        },
        {
            "positions": [
                2.7593178643411314,
                -2.2719195157015983,
                -0.9773506447956555,
                0.6104802645011078,
                -0.6701353518685402,
                -0.9941166638278586
            ]
        },
        {
            "positions": [
                2.8254671156436126,
                -2.3033184391727053,
                -1.1347720353389317,
                0.5612650802691954,
                -0.6899150021656896,
                -1.0595019786472761
            ]
        },
        {
            "positions": [
                2.891616366946094,
                -2.3347173626438122,
                -1.2921934258822079,
                0.5120498960372832,
                -0.7096946524628388,
                -1.1248872934666938
            ]
        },
        {
            "positions": [
                2.957765618248575,
                -2.366116286114919,
                -1.449614816425484,
                0.46283471180537117,
                -0.729474302759988,
                -1.1902726082861115
            ]
        },
        {
            "positions": [
                2.924699150412936,
                -2.3789705910272936,
                -1.4733532798538127,
                0.5236947343032239,
                -0.5946267325582959,
                -1.0595245034525862
            ]
        },
        {
            "positions": [
                2.891632682577296,
                -2.391824895939668,
                -1.4970917432821411,
                0.5845547568010766,
                -0.45977916235660377,
                -0.9287763986190607
            ]
        },
        {
            "positions": [
                2.8585662147416566,
                -2.404679200852043,
                -1.5208302067104698,
                0.6454147792989293,
                -0.32493159215491163,
                -0.7980282937855354
            ]
        },
        {
            "positions": [
                2.8254997469060172,
                -2.417533505764417,
                -1.5445686701387982,
                0.706274801796782,
                -0.1900840219532195,
                -0.66728018895201
            ]
        },
        {
            "positions": [
                2.7924332790703774,
                -2.4303878106767915,
                -1.5683071335671268,
                0.7671348242946348,
                -0.05523645175152725,
                -0.5365320841184845
            ]
        },
        {
            "positions": [
                2.759366811234738,
                -2.443242115589166,
                -1.5920455969954552,
                0.8279948467924875,
                0.07961111845016478,
                -0.40578397928495924
            ]
        },
        {
            "positions": [
                2.7263003433990987,
                -2.4560964205015408,
                -1.6157840604237839,
                0.8888548692903402,
                0.21445868865185702,
                -0.27503587445143385
            ]
        },
        {
            "positions": [
                2.693233875563459,
                -2.468950725413915,
                -1.6395225238521123,
                0.9497148917881929,
                0.34930625885354905,
                -0.14428776961790857
            ]
        },
        {
            "positions": [
                2.6601674077278195,
                -2.4818050303262895,
                -1.663260987280441,
                1.0105749142860456,
                0.4841538290552412,
                -0.013539664784383112
            ]
        }
    ]
}