{
    "goal": {
        "global_pose": {
            "orientation": {
                "w": 0.7047431493862688,
                "x": -0.7094548369677653,
                "y": 0.0024358444001904,
                "z": -0.0022348060817251984
            },
            "position": {
                "x": -0.39052492380142206,
                "y": 0.3671506643295288,
                "z": 0.19426114857196808
            }
        },
        "name": "move_to_magneteinheit_D"
    },
    "id": "FMT_move_to_magneteinheit_D_99",
    "joint_names": [
        "shoulder_pan_joint",
        "shoulder_lift_joint",
        "elbow_joint",
        "wrist_1_joint",
        "wrist_2_joint",
        "wrist_3_joint"
    ],
    "metrics": {
        "cart_traj_len": 4.127061216443046,
        "distance_elbow_joint": 3.3076940114732682,
        "distance_shoulder_lift_joint": 1.6342402644918164,
        "distance_shoulder_pan_joint": 5.501844122982613,
        "distance_wrist_1_joint": 1.8233694894266013,
        "distance_wrist_2_joint": 3.4710187627671183,
        "distance_wrist_3_joint": 3.1495292363688137,
        "smoothness": 0.42222419356150054,
        "time": 1.626952561,
        "traj_len": 4.34599768609122,
        "weighted_distance": 5.520972976970778
    },
    "planner": "FMT",
    "start": {
        "state": {
            "elbow_joint": 0.749534889911806,
            "shoulder_lift_joint": -0.6476975780787326,
            "shoulder_pan_joint": -2.711696901376241,
            "wrist_1_joint": -0.07506478083263063,
            "wrist_2_joint": 0.43296659715538205,
            "wrist_3_joint": -3.14703540197715
        }
    },
    "waypoints": [
        {
            "positions": [
                -2.711696901376241,
                -0.6476975780787326,
                0.749534889911806,
                -0.07506478083263063,
                0.43296659715538205,
                -3.14703540197715
            ]
        },
        {
            "positions": [
                -2.6992851625949785,
                -0.6603415407641708,
                0.7232742341986144,
                0.09546500569046493,
                0.3873089848303816,
                -3.041946716711055
            ]
        },
        {
            "positions": [
                -2.6868734238137155,
                -0.6729855034496091,
                0.6970135784854228,
                0.2659947922135605,
                0.34165137250538113,
                -2.936858031444961
            ]
        },
        {
            "positions": [
                -2.674461685032453,
                -0.6856294661350473,
                0.6707529227722312,
                0.436524578736656,
                0.2959937601803807,
                -2.831769346178866
            ]
        },
        {
            "positions": [
                -2.66204994625119,
                -0.6982734288204855,
                0.6444922670590396,
                0.6070543652597515,
                0.2503361478553803,
                -2.7266806609127716
            ]
        },
        {
            "positions": [
                -2.6496382074699274,
                -0.7109173915059237,
                0.6182316113458481,
                0.777584151782847,
                0.20467853553037982,
                -2.621591975646677
            ]
        },
        {
            "positions": [
                -2.637226468688665,
                -0.723561354191362,
                0.5919709556326566,
                0.9481139383059427,
                0.15902092320537936,
                -2.516503290380582
            ]
        },
        {
            "positions": [
                -2.624814729907402,
                -0.7362053168768002,
                0.565710299919465,
                1.1186437248290382,
                0.11336331088037893,
                -2.4114146051144876
            ]
        },
        {
            "positions": [
                -2.6124029911261393,
                -0.7488492795622385,
                0.5394496442062734,
                1.2891735113521339,
                0.06770569855537845,
                -2.3063259198483927
            ]
        },
        {
            "positions": [
                -2.5999912523448763,
                -0.7614932422476767,
                0.5131889884930818,
                1.4597032978752293,
                0.022048086230378017,
                -2.2012372345822984
            ]
        },
        {
            "positions": [
                -2.5875795135636137,
                -0.7741372049331149,
                0.4869283327798902,
                1.6302330843983248,
                -0.02360952609462242,
                -2.0961485493162035
            ]
        },
        {
            "positions": [
                -2.507087761002561,
                -0.7870706845416404,
                0.38072997032363964,
                1.6329862557970263,
                -0.05745217394782919,
                -2.0740817260753985
            ]
        },
        {
            "positions": [
                -2.3660250811379857,
                -0.7978823550172871,
                0.27531437324900476,
                1.6296205647743474,
                0.002054844698755741,
                -2.0093726078210077
            ]
        },
        {
            "positions": [
                -2.22496240127341,
                -0.8086940254929338,
                0.16989877617436988,
                1.6262548737516687,
                0.061561863345340674,
                -1.9446634895666166
            ]
        },
        {
            "positions": [
                -2.083899721408835,
                -0.8195056959685805,
                0.064483179099735,
                1.6228891827289897,
                0.12106888199192559,
                -1.8799543713122258
            ]
        },
        {
            "positions": [
                -1.9428370415442597,
                -0.830317366444227,
                -0.04093241797489988,
                1.6195234917063108,
                0.18057590063851053,
                -1.8152452530578347
            ]
        },
        {
            "positions": [
                -1.8017743616796844,
                -0.8411290369198737,
                -0.14634801504953476,
                1.616157800683632,
                0.24008291928509545,
                -1.7505361348034438
            ]
        },
        {
            "positions": [
                -1.6607116818151093,
                -0.8519407073955204,
                -0.25176361212416964,
                1.6127921096609532,
                0.2995899379316804,
                -1.685827016549053
            ]
        },
        {
            "positions": [
                -1.5196490019505338,
                -0.8627523778711671,
                -0.3571792091988045,
                1.6094264186382743,
                0.35909695657826535,
                -1.621117898294662
            ]
        },
        {
            "positions": [
                -1.3785863220859587,
                -0.8735640483468138,
                -0.4625948062734394,
                1.6060607276155954,
                0.41860397522485027,
                -1.5564087800402708
            ]
        },
        {
            "positions": [
                -1.2375236422213833,
                -0.8843757188224605,
                -0.5680104033480743,
                1.6026950365929165,
                0.4781109938714352,
                -1.49169966178588
            ]
        },
        {
            "positions": [
                -1.096460962356808,
                -0.895187389298107,
                -0.6734260004227092,
                1.5993293455702378,
                0.5376180125180201,
                -1.4269905435314891
            ]
        },
        {
            "positions": [
                -0.9553982824922327,
                -0.9059990597737537,
                -0.778841597497344,
                1.5959636545475588,
                0.597125031164605,
                -1.3622814252770983
            ]
        },
        {
            "positions": [
                -0.8143356026276576,
                -0.9168107302494004,
                -0.8842571945719789,
                1.59259796352488,
                0.6566320498111899,
                -1.2975723070227072
            ]
        },
        {
            "positions": [
                -0.6732729227630823,
                -0.9276224007250471,
                -0.9896727916466138,
                1.589232272502201,
                0.716139068457775,
                -1.2328631887683161
            ]
        },
        {
            "positions": [
                -0.5322102428985069,
                -0.9384340712006938,
                -1.0950883887212486,
                1.5858665814795223,
                0.7756460871043599,
                -1.1681540705139253
            ]
        },
        {
            "positions": [
                -0.3911475630339316,
                -0.9492457416763405,
                -1.2005039857958835,
                1.5825008904568434,
                0.8351531057509449,
                -1.1034449522595342
            ]
        },
        {
            "positions": [
                -0.2500848831693565,
                -0.9600574121519871,
                -1.3059195828705183,
                1.5791351994341645,
                0.8946601243975297,
                -1.0387358340051434
            ]
        },
        {
            "positions": [
                -0.10902220330478096,
                -0.9708690826276338,
                -1.4113351799451532,
                1.5757695084114856,
                0.9541671430441147,
                -0.9740267157507523
            ]
        },
        {
            "positions": [
                0.03204047655979414,
                -0.9816807531032804,
                -1.516750777019788,
                1.5724038173888069,
                1.0136741616906997,
                -0.9093175974963614
            ]
        },
        {
            "positions": [
                0.1731031564243697,
                -0.9924924235789271,
                -1.622166374094423,
                1.569038126366128,
                1.0731811803372848,
                -0.8446084792419704
            ]
        },
        {
            "positions": [
                0.3141658362889448,
                -1.0033040940545739,
                -1.7275819711690579,
                1.565672435343449,
                1.1326881989838695,
                -0.7798993609875795
            ]
        },
        {
            "positions": [
                0.45522851615352034,
                -1.0141157645302203,
                -1.8329975682436928,
                1.56230674432077,
                1.1921952176304547,
                -0.7151902427331887
            ]
        },
        {
            "positions": [
                0.5962911960180954,
                -1.024927435005867,
                -1.9384131653183276,
                1.5589410532980914,
                1.2517022362770394,
                -0.6504811244787978
            ]
        },
        {
            "positions": [
                0.7373538758826705,
                -1.0357391054815137,
                -2.0438287623929625,
                1.5555753622754125,
                1.3112092549236245,
                -0.5857720062244067
            ]
        },
        {
            "positions": [
                0.8784165557472456,
                -1.0465507759571604,
                -2.1492443594675974,
                1.5522096712527336,
                1.3707162735702092,
                -0.5210628879700159
            ]
        },
        {
            "positions": [
                1.0194792356118212,
                -1.057362446432807,
                -2.2546599565422323,
                1.5488439802300547,
                1.4302232922167943,
                -0.4563537697156248
            ]
        },
        {
            "positions": [
                1.1605419154763963,
                -1.0681741169084538,
                -2.360075553616867,
                1.545478289207376,
                1.4897303108633793,
                -0.39164465146123395
            ]
        },
        {
            "positions": [
                1.3016045953409718,
                -1.0789857873841004,
                -2.465491150691502,
                1.542112598184697,
                1.5492373295099642,
                -0.3269355332068429
            ]
        },
        {
            "positions": [
                1.1775593764855223,
                -1.1792317919829711,
                -2.457768819785672,
                1.5400755319193125,
                1.434744788826121,
                -0.2994830859069672
            ]
        },
        {
            "positions": [
                1.0535141576300726,
                -1.2794777965818418,
                -2.450046488879842,
                1.5380384656539279,
                1.3202522481422783,
                -0.27203063860709153
            ]
        },
        {
            "positions": [
                0.929468938774623,
                -1.3797238011807127,
                -2.442324157974012,
                1.5360013993885433,
                1.2057597074584352,
                -0.24457819130721584
            ]
        },
        {
            "positions": [
                0.8054237199191734,
                -1.4799698057795831,
                -2.434601827068182,
                1.5339643331231587,
                1.0912671667745921,
                -0.21712574400734017
            ]
        },
        {
            "positions": [
                0.6813785010637238,
                -1.580215810378454,
                -2.426879496162352,
                1.5319272668577741,
                0.9767746260907492,
                -0.18967329670746447
            ]
        },
        {
            "positions": [
                0.5573332822082742,
                -1.6804618149773247,
                -2.419157165256522,
                1.5298902005923893,
                0.8622820854069062,
                -0.1622208494075888
            ]
        },
        {
            "positions": [
                0.43328806335282455,
                -1.7807078195761954,
                -2.411434834350692,
                1.5278531343270048,
                0.7477895447230631,
                -0.1347684021077131
            ]
        },
        {
            "positions": [
                0.30924284449737494,
                -1.880953824175066,
                -2.403712503444862,
                1.5258160680616202,
                0.6332970040392203,
                -0.10731595480783745
            ]
        },
        {
            "positions": [
                0.18519762564192543,
                -1.9811998287739367,
                -2.3959901725390322,
                1.5237790017962356,
                0.5188044633553772,
                -0.07986350750796176
            ]
        },
        {
            "positions": [
                0.06115240678647571,
                -2.0814458333728076,
                -2.388267841633202,
                1.521741935530851,
                0.40431192267153415,
                -0.05241106020808606
            ]
        },
        {
            "positions": [
                -0.06289281206897379,
                -2.1816918379716785,
                -2.380545510727372,
                1.5197048692654664,
                0.2898193819876913,
                -0.024958612908210387
            ]
        },
        {
            "positions": [
                -0.18693803092442346,
                -2.281937842570549,
                -2.372823179821542,
                1.5176678030000819,
                0.1753268413038482,
                0.0024938343916652704
            ]
        }
    ]
}