{
    "goal": {
        "global_pose": {
            "orientation": {
                "w": 0.7031023480610252,
                "x": -0.7110244013736278,
                "y": 0.0077485991402295624,
                "z": 0.005598929693374583
            },
            "position": {
                "x": -0.8841497679147869,
                "y": 0.44412534475326537,
                "z": 0.3711530566215515
            }
        },
        "name": "move_to_auspresseinheit_D"
    },
    "id": "FMT_move_to_auspresseinheit_D_19",
    "joint_names": [
        "shoulder_pan_joint",
        "shoulder_lift_joint",
        "elbow_joint",
        "wrist_1_joint",
        "wrist_2_joint",
        "wrist_3_joint"
    ],
    "metrics": {
        "cart_traj_len": 0.3426254680791231,
        "distance_elbow_joint": 0.6330293551110917,
        "distance_shoulder_lift_joint": 0.11864824033245913,
        "distance_shoulder_pan_joint": 0.13429538639519742,
        "distance_wrist_1_joint": 0.5243599909921364,
        "distance_wrist_2_joint": 1.432875748355924,
        "distance_wrist_3_joint": 0.0030251217867141023,
        "smoothness": 1.9737298371844314e-16,
        "time": 0.533158547,
        "traj_len": 1.6870784934239196,
        "weighted_distance": 2.1930617469407947
    },
    "planner": "FMT",
    "start": {
        "state": {
            "elbow_joint": -1.8275523626775212,
            "shoulder_lift_joint": -2.126789852344167,
            "shoulder_pan_joint": -0.03513704404078235,
            "wrist_1_joint": -2.347782403156801,
            "wrist_2_joint": -1.6058999987535132,
            "wrist_3_joint": -3.0880379163319196
        }
    },
    "waypoints": [
        {
            "positions": [
                -0.03513704404078235,
                -2.126789852344167,
                -1.8275523626775212,
                -2.347782403156801,
                -1.6058999987535132,
                -3.0880379163319196
            ]
        },
        {
            "positions": [
                -0.05192396734018202,
                -2.141620882385724,
                -1.7484236932886348,
                -2.4133274020308177,
                -1.4267905302090227,
                -3.0876597761085804
            ]
        },
        {
            "positions": [
                -0.0687108906395817,
                -2.156451912427282,
                -1.6692950238997484,
                -2.478872400904835,
                -1.2476810616645322,
                -3.0872816358852413
            ]
        },
        {
            "positions": [
                -0.08549781393898137,
                -2.171282942468839,
                -1.5901663545108617,
                -2.544417399778852,
                -1.0685715931200417,
                -3.0869034956619017
            ]
        },
        {
            "positions": [
                -0.10228473723838105,
                -2.1861139725103964,
                -1.5110376851219753,
                -2.6099623986528693,
                -0.8894621245755512,
                -3.0865253554385625
            ]
        },
        {
            "positions": [
                -0.11907166053778073,
                -2.2009450025519537,
                -1.431909015733089,
                -2.675507397526886,
                -0.7103526560310607,
                -3.0861472152152234
            ]
        },
        {
            "positions": [
                -0.1358585838371804,
                -2.215776032593511,
                -1.3527803463442023,
                -2.741052396400903,
                -0.5312431874865702,
                -3.085769074991884
            ]
        },
        {
            "positions": [
                -0.1526455071365801,
                -2.2306070626350687,
                -1.273651676955316,
                -2.8065973952749204,
                -0.3521337189420797,
                -3.0853909347685446
            ]
        },
        {
            "positions": [
                -0.16943243043597978,
                -2.245438092676626,
                -1.1945230075664295,
                -2.8721423941489372,
                -0.1730242503975892,
                -3.0850127945452055
            ]
        }
    ]
}