{
    "goal": {
        "global_pose": {
            "orientation": {
                "w": -0.4816463035849501,
                "x": 0.5182115481033762,
                "y": 0.4908360881923453,
                "z": -0.5084816262002911
            },
            "position": {
                "x": -0.8240239810943604,
                "y": 0.19912469901144506,
                "z": 0.16403168439865112
            }
        },
        "name": "move_to_storage_D"
    },
    "id": "FMT_move_to_storage_D_127",
    "joint_names": [
        "shoulder_pan_joint",
        "shoulder_lift_joint",
        "elbow_joint",
        "wrist_1_joint",
        "wrist_2_joint",
        "wrist_3_joint"
    ],
    "metrics": {
        "cart_traj_len": 3.9515905905032707,
        "distance_elbow_joint": 4.208738629585236,
        "distance_shoulder_lift_joint": 1.264914593855044,
        "distance_shoulder_pan_joint": 2.8135712909719772,
        "distance_wrist_1_joint": 2.264633967865188,
        "distance_wrist_2_joint": 0.885673758900187,
        "distance_wrist_3_joint": 3.13442655419588,
        "smoothness": 2.732856677579608e-16,
        "time": 1.38264855,
        "traj_len": 3.8173235120138185,
        "weighted_distance": 4.898073052796441
    },
    "planner": "FMT",
    "start": {
        "state": {
            "elbow_joint": -2.384821988534728,
            "shoulder_lift_joint": -2.2788054721415256,
            "shoulder_pan_joint": -0.1854694642142757,
            "wrist_1_joint": 1.4845938289331202,
            "wrist_2_joint": 0.17898776772866878,
            "wrist_3_joint": 0.037105688729662994
        }
    },
    "waypoints": [
        {
            "positions": [
                -0.1854694642142757,
                -2.2788054721415256,
                -2.384821988534728,
                1.4845938289331202,
                0.17898776772866878,
                0.037105688729662994
            ]
        },
        {
            "positions": [
                -0.05642968358515271,
                -2.2621729597371547,
                -2.213858102320597,
                1.4809136048606122,
                0.20083491138561468,
                0.06622753192429302
            ]
        },
        {
            "positions": [
                0.07261009704397028,
                -2.245540447332784,
                -2.042894216106466,
                1.4772333807881042,
                0.22268205504256058,
                0.09534937511892305
            ]
        },
        {
            "positions": [
                0.20164987767309325,
                -2.228907934928413,
                -1.871930329892335,
                1.473553156715596,
                0.24452919869950646,
                0.1244712183135531
            ]
        },
        {
            "positions": [
                0.3306896583022163,
                -2.212275422524042,
                -1.7009664436782042,
                1.469872932643088,
                0.26637634235645236,
                0.15359306150818314
            ]
        },
        {
            "positions": [
                0.45972943893133933,
                -2.1956429101196706,
                -1.5300025574640728,
                1.46619270857058,
                0.28822348601339826,
                0.18271490470281318
            ]
        },
        {
            "positions": [
                0.5887692195604622,
                -2.1790103977152997,
                -1.359038671249942,
                1.462512484498072,
                0.31007062967034416,
                0.2118367478974432
            ]
        },
        {
            "positions": [
                0.7178090001895854,
                -2.162377885310929,
                -1.1880747850358109,
                1.4588322604255637,
                0.33191777332729006,
                0.24095859109207324
            ]
        },
        {
            "positions": [
                0.8468487808187083,
                -2.145745372906558,
                -1.0171108988216802,
                1.4551520363530557,
                0.35376491698423596,
                0.27008043428670325
            ]
        },
        {
            "positions": [
                0.9758885614478312,
                -2.129112860502187,
                -0.846147012607549,
                1.4514718122805477,
                0.37561206064118186,
                0.29920227748133327
            ]
        },
        {
            "positions": [
                1.0328614326654129,
                -2.090656930080956,
                -0.7540758521365815,
                1.3745231243076987,
                0.3993723870545499,
                0.3982481383587198
            ]
        },
        {
            "positions": [
                1.0898343038829947,
                -2.0522009996597244,
                -0.6620046916656139,
                1.29757443633485,
                0.423132713467918,
                0.49729399923610634
            ]
        },
        {
            "positions": [
                1.1468071751005764,
                -2.0137450692384933,
                -0.5699335311946465,
                1.2206257483620013,
                0.44689303988128604,
                0.5963398601134928
            ]
        },
        {
            "positions": [
                1.203780046318158,
                -1.9752891388172622,
                -0.47786237072367893,
                1.1436770603891524,
                0.4706533662946541,
                0.6953857209908794
            ]
        },
        {
            "positions": [
                1.26075291753574,
                -1.936833208396031,
                -0.3857912102527114,
                1.0667283724163035,
                0.49441369270802216,
                0.794431581868266
            ]
        },
        {
            "positions": [
                1.3177257887533216,
                -1.8983772779747996,
                -0.29372004978174393,
                0.9897796844434548,
                0.5181740191213902,
                0.8934774427456524
            ]
        },
        {
            "positions": [
                1.3746986599709032,
                -1.8599213475535685,
                -0.2016488893107764,
                0.912830996470606,
                0.5419343455347583,
                0.992523303623039
            ]
        },
        {
            "positions": [
                1.4316715311884851,
                -1.8214654171323372,
                -0.10957772883980887,
                0.8358823084977571,
                0.5656946719481264,
                1.0915691645004255
            ]
        },
        {
            "positions": [
                1.4886444024060668,
                -1.783009486711106,
                -0.017506568368841346,
                0.7589336205249083,
                0.5894549983614944,
                1.190615025377812
            ]
        },
        {
            "positions": [
                1.5456172736236486,
                -1.7445535562898749,
                0.07456459210212618,
                0.6819849325520595,
                0.6132153247748625,
                1.2896608862551988
            ]
        },
        {
            "positions": [
                1.6025901448412303,
                -1.7060976258686436,
                0.1666357525730935,
                0.6050362445792108,
                0.6369756511882305,
                1.3887067471325851
            ]
        },
        {
            "positions": [
                1.659563016058812,
                -1.6676416954474123,
                0.2587069130440611,
                0.528087556606362,
                0.6607359776015986,
                1.4877526080099717
            ]
        },
        {
            "positions": [
                1.7165358872763936,
                -1.6291857650261812,
                0.35077807351502854,
                0.45113886863351316,
                0.6844963040149667,
                1.5867984688873582
            ]
        },
        {
            "positions": [
                1.7735087584939755,
                -1.5907298346049499,
                0.4428492339859962,
                0.37419018066066423,
                0.7082566304283348,
                1.6858443297647447
            ]
        },
        {
            "positions": [
                1.8304816297115574,
                -1.5522739041837186,
                0.5349203944569638,
                0.2972414926878153,
                0.7320169568417028,
                1.7848901906421313
            ]
        },
        {
            "positions": [
                1.887454500929139,
                -1.5138179737624875,
                0.6269915549279312,
                0.2202928047149666,
                0.7557772832550709,
                1.8839360515195178
            ]
        },
        {
            "positions": [
                1.9444273721467207,
                -1.4753620433412564,
                0.7190627153988984,
                0.1433441167421179,
                0.7795376096684389,
                1.9829819123969041
            ]
        },
        {
            "positions": [
                2.0014002433643023,
                -1.436906112920025,
                0.8111338758698663,
                0.06639542876926896,
                0.803297936081807,
                2.082027773274291
            ]
        },
        {
            "positions": [
                2.058373114581884,
                -1.3984501824987938,
                0.9032050363408337,
                -0.010553259203579746,
                0.827058262495175,
                2.1810736341516774
            ]
        },
        {
            "positions": [
                2.1153459857994656,
                -1.3599942520775627,
                0.9952761968118014,
                -0.08750194717642867,
                0.8508185889085431,
                2.2801194950290644
            ]
        },
        {
            "positions": [
                2.1723188570170473,
                -1.3215383216563314,
                1.0873473572827688,
                -0.16445063514927738,
                0.8745789153219112,
                2.3791653559064505
            ]
        },
        {
            "positions": [
                2.229291728234629,
                -1.2830823912351002,
                1.179418517753736,
                -0.24139932312212609,
                0.8983392417352791,
                2.478211216783837
            ]
        },
        {
            "positions": [
                2.286264599452211,
                -1.244626460813869,
                1.2714896782247038,
                -0.318348011094975,
                0.9220995681486472,
                2.5772570776612236
            ]
        },
        {
            "positions": [
                2.3432374706697927,
                -1.2061705303926378,
                1.3635608386956712,
                -0.3952966990678237,
                0.9458598945620154,
                2.67630293853861
            ]
        },
        {
            "positions": [
                2.4002103418873744,
                -1.1677145999714067,
                1.4556319991666387,
                -0.47224538704067265,
                0.9696202209753835,
                2.7753487994159967
            ]
        },
        {
            "positions": [
                2.4571832131049565,
                -1.1292586695501754,
                1.547703159637606,
                -0.5491940750135214,
                0.9933805473887516,
                2.874394660293383
            ]
        },
        {
            "positions": [
                2.514156084322538,
                -1.090802739128944,
                1.6397743201085735,
                -0.6261427629863701,
                1.0171408738021195,
                2.9734405211707697
            ]
        },
        {
            "positions": [
                2.5711289555401198,
                -1.0523468087077128,
                1.7318454805795414,
                -0.7030914509592192,
                1.0409012002154876,
                3.0724863820481563
            ]
        },
        {
            "positions": [
                2.6281018267577014,
                -1.0138908782864817,
                1.8239166410505088,
                -0.780040138932068,
                1.0646615266288557,
                3.171532242925543
            ]
        }
    ]
}