{
    "goal": {
        "global_pose": {
            "orientation": {
                "w": -0.00223480608172531,
                "x": 0.0024358444001904467,
                "y": 0.7094548369677653,
                "z": -0.704743149386269
            },
            "position": {
                "x": -0.37947507619857795,
                "y": -0.6371506643295288,
                "z": 0.19426114857196808
            }
        },
        "name": "move_to_magneteinheit_C"
    },
    "id": "FMT_move_to_magneteinheit_C_31",
    "joint_names": [
        "shoulder_pan_joint",
        "shoulder_lift_joint",
        "elbow_joint",
        "wrist_1_joint",
        "wrist_2_joint",
        "wrist_3_joint"
    ],
    "metrics": {
        "cart_traj_len": 1.1591484053303058,
        "distance_elbow_joint": 1.2191013982360084,
        "distance_shoulder_lift_joint": 0.4993669737138837,
        "distance_shoulder_pan_joint": 0.8006382181974014,
        "distance_wrist_1_joint": 4.18755026653086,
        "distance_wrist_2_joint": 0.7971911733424614,
        "distance_wrist_3_joint": 0.5881136337224788,
        "smoothness": 1.07474294349751,
        "time": 1.1914031059999999,
        "traj_len": 2.8446373518856656,
        "weighted_distance": 3.775305334812189
    },
    "planner": "FMT",
    "start": {
        "state": {
            "elbow_joint": 1.9565354010623817,
            "shoulder_lift_joint": -1.4165861575791021,
            "shoulder_pan_joint": -1.6717766225146293,
            "wrist_1_joint": -0.5286633292919765,
            "wrist_2_joint": 1.472756589071564,
            "wrist_3_joint": -3.1238370188695823
        }
    },
    "waypoints": [
        {
            "positions": [
                -1.6717766225146293,
                -1.4165861575791021,
                1.9565354010623817,
                -0.5286633292919765,
                1.472756589071564,
                -3.1238370188695823
            ]
        },
        {
            "positions": [
                -1.7321368435727325,
                -1.4288702648096394,
                1.8982834717259314,
                -0.33467937742939324,
                1.4401693494187895,
                -3.0953627177928174
            ]
        },
        {
            "positions": [
                -1.7924970646308354,
                -1.4411543720401767,
                1.8400315423894809,
                -0.14069542556681003,
                1.4075821097660153,
                -3.066888416716052
            ]
        },
        {
            "positions": [
                -1.8528572856889385,
                -1.4534384792707142,
                1.7817796130530306,
                0.053288526295773075,
                1.3749948701132408,
                -3.038414115639287
            ]
        },
        {
            "positions": [
                -1.9132175067470416,
                -1.4657225865012515,
                1.72352768371658,
                0.2472724781583564,
                1.3424076304604666,
                -3.0099398145625216
            ]
        },
        {
            "positions": [
                -1.9735777278051447,
                -1.4780066937317888,
                1.6652757543801298,
                0.4412564300209395,
                1.3098203908076922,
                -2.9814655134857566
            ]
        },
        {
            "positions": [
                -2.033937948863248,
                -1.4902908009623261,
                1.6070238250436795,
                0.6352403818835226,
                1.2772331511549178,
                -2.9529912124089917
            ]
        },
        {
            "positions": [
                -2.0942981699213505,
                -1.5025749081928634,
                1.548771895707229,
                0.8292243337461058,
                1.2446459115021435,
                -2.9245169113322262
            ]
        },
        {
            "positions": [
                -2.1546583909794537,
                -1.514859015423401,
                1.4905199663707787,
                1.0232082856086893,
                1.212058671849369,
                -2.8960426102554613
            ]
        },
        {
            "positions": [
                -2.215018612037557,
                -1.5271431226539383,
                1.4322680370343281,
                1.2171922374712723,
                1.179471432196595,
                -2.867568309178696
            ]
        },
        {
            "positions": [
                -2.27537883309566,
                -1.5394272298844756,
                1.3740161076978779,
                1.4111761893338555,
                1.1468841925438205,
                -2.839094008101931
            ]
        },
        {
            "positions": [
                -2.3057277454409566,
                -1.5077404303139608,
                1.4202850631451618,
                1.2449324829959263,
                1.0971833480567954,
                -2.8609720501448037
            ]
        },
        {
            "positions": [
                -2.3360766577862533,
                -1.476053630743446,
                1.4665540185924455,
                1.078688776657997,
                1.0474825035697704,
                -2.8828500921876765
            ]
        },
        {
            "positions": [
                -2.3664255701315495,
                -1.4443668311729312,
                1.5128229740397294,
                0.9124450703200677,
                0.9977816590827452,
                -2.9047281342305498
            ]
        },
        {
            "positions": [
                -2.396774482476846,
                -1.4126800316024164,
                1.5590919294870131,
                0.7462013639821383,
                0.94808081459572,
                -2.9266061762734226
            ]
        },
        {
            "positions": [
                -2.427123394822143,
                -1.3809932320319016,
                1.605360884934297,
                0.5799576576442091,
                0.898379970108695,
                -2.9484842183162954
            ]
        },
        {
            "positions": [
                -2.433593601377841,
                -1.349837245809625,
                1.6632519317393093,
                0.37760162675629744,
                0.8665493194830389,
                -2.9761957058506474
            ]
        },
        {
            "positions": [
                -2.4400638079335395,
                -1.3186812595873483,
                1.7211429785443215,
                0.17524559586838573,
                0.8347186688573829,
                -3.003907193384999
            ]
        },
        {
            "positions": [
                -2.4465340144892376,
                -1.2875252733650717,
                1.7790340253493335,
                -0.027110435019526036,
                0.8028880182317268,
                -3.031618680919351
            ]
        },
        {
            "positions": [
                -2.453004221044936,
                -1.2563692871427952,
                1.8369250721543458,
                -0.2294664659074377,
                0.7710573676060708,
                -3.0593301684537026
            ]
        },
        {
            "positions": [
                -2.459474427600634,
                -1.2252133009205184,
                1.894816118959358,
                -0.43182249679534945,
                0.7392267169804146,
                -3.0870416559880547
            ]
        },
        {
            "positions": [
                -2.4659446341563327,
                -1.1940573146982418,
                1.9527071657643702,
                -0.6341785276832612,
                0.7073960663547586,
                -3.1147531435224063
            ]
        },
        {
            "positions": [
                -2.4724148407120308,
                -1.1629013284759653,
                2.0105982125693824,
                -0.836534558571173,
                0.6755654157291026,
                -3.1424646310567583
            ]
        }
    ]
}