{
    "goal": {
        "global_pose": {
            "orientation": {
                "w": 0.005598929693374612,
                "x": 0.007748599140229565,
                "y": 0.7110244013736278,
                "z": -0.7031023480610252
            },
            "position": {
                "x": 0.1141497679147869,
                "y": -0.7141253447532654,
                "z": 0.3711530566215515
            }
        },
        "name": "move_to_auspresseinheit_B"
    },
    "id": "FMT_move_to_auspresseinheit_B_43",
    "joint_names": [
        "shoulder_pan_joint",
        "shoulder_lift_joint",
        "elbow_joint",
        "wrist_1_joint",
        "wrist_2_joint",
        "wrist_3_joint"
    ],
    "metrics": {
        "cart_traj_len": 0.5641154042214825,
        "distance_elbow_joint": 0.06054274053724118,
        "distance_shoulder_lift_joint": 0.29431717916915345,
        "distance_shoulder_pan_joint": 0.5752360298853849,
        "distance_wrist_1_joint": 0.3164522547920101,
        "distance_wrist_2_joint": 0.9987686204767217,
        "distance_wrist_3_joint": 0.0035858388267300256,
        "smoothness": 0.0,
        "time": 0.5082462600000001,
        "traj_len": 1.4996341766201655,
        "weighted_distance": 1.8897870823480178
    },
    "planner": "FMT",
    "start": {
        "state": {
            "elbow_joint": 2.0193083361928714,
            "shoulder_lift_joint": -1.1220246554650708,
            "shoulder_pan_joint": -1.0952077554168747,
            "wrist_1_joint": -0.8559753972642168,
            "wrist_2_joint": 0.4759566250798843,
            "wrist_3_joint": -3.1240929996934557
        }
    },
    "waypoints": [
        {
            "positions": [
                -1.0952077554168747,
                -1.1220246554650708,
                2.0193083361928714,
                -0.8559753972642168,
                0.4759566250798843,
                -3.1240929996934557
            ]
        },
        {
            "positions": [
                -1.1910804270644388,
                -1.1710775186599296,
                2.0092178794366644,
                -0.8032333547988818,
                0.6424180618260046,
                -3.124690639497911
            ]
        },
        {
            "positions": [
                -1.286953098712003,
                -1.2201303818547886,
                1.9991274226804576,
                -0.7504913123335467,
                0.8088794985721248,
                -3.1252882793023655
            ]
        },
        {
            "positions": [
                -1.3828257703595672,
                -1.2691832450496476,
                1.9890369659242508,
                -0.6977492698682117,
                0.9753409353182452,
                -3.1258859191068207
            ]
        },
        {
            "positions": [
                -1.4786984420071312,
                -1.3182361082445064,
                1.978946509168044,
                -0.6450072274028767,
                1.1418023720643653,
                -3.126483558911276
            ]
        },
        {
            "positions": [
                -1.5745711136546954,
                -1.3672889714393652,
                1.968856052411837,
                -0.5922651849375417,
                1.3082638088104857,
                -3.1270811987157305
            ]
        },
        {
            "positions": [
                -1.6704437853022596,
                -1.4163418346342243,
                1.9587655956556302,
                -0.5395231424722067,
                1.474725245556606,
                -3.1276788385201857
            ]
        }
    ]
}