{
    "goal": {
        "global_pose": {
            "orientation": {
                "w": -0.4816463035849501,
                "x": 0.5182115481033762,
                "y": 0.4908360881923453,
                "z": -0.5084816262002911
            },
            "position": {
                "x": -0.8240239810943604,
                "y": 0.19912469901144506,
                "z": 0.16403168439865112
            }
        },
        "name": "move_to_storage_D"
    },
    "id": "FMT_move_to_storage_D_144",
    "joint_names": [
        "shoulder_pan_joint",
        "shoulder_lift_joint",
        "elbow_joint",
        "wrist_1_joint",
        "wrist_2_joint",
        "wrist_3_joint"
    ],
    "metrics": {
        "cart_traj_len": 3.8755416757511245,
        "distance_elbow_joint": 4.207542801205806,
        "distance_shoulder_lift_joint": 1.2662059146610838,
        "distance_shoulder_pan_joint": 2.813684207570904,
        "distance_wrist_1_joint": 2.330412349854204,
        "distance_wrist_2_joint": 0.9833657998840921,
        "distance_wrist_3_joint": 3.132155752132572,
        "smoothness": 0.13595193812390688,
        "time": 1.3536087719999998,
        "traj_len": 3.8384068082094513,
        "weighted_distance": 4.930664912495282
    },
    "planner": "FMT",
    "start": {
        "state": {
            "elbow_joint": -2.384821988534728,
            "shoulder_lift_joint": -2.2788054721415256,
            "shoulder_pan_joint": -0.1854694642142757,
            "wrist_1_joint": 1.4845938289331202,
            "wrist_2_joint": 0.17898776772866878,
            "wrist_3_joint": 0.037105688729662994
        }
    },
    "waypoints": [
        {
            "positions": [
                -0.1854694642142757,
                -2.2788054721415256,
                -2.384821988534728,
                1.4845938289331202,
                0.17898776772866878,
                0.037105688729662994
            ]
        },
        {
            "positions": [
                -0.1287866738001951,
                -2.2791379289642792,
                -2.3540198803624586,
                1.5190366108649533,
                0.12383268573683032,
                -0.13022621771579734
            ]
        },
        {
            "positions": [
                -0.034897538011293916,
                -2.2422886602101477,
                -2.262516856990409,
                1.475528588440352,
                0.14760171708247108,
                -0.2247961393911484
            ]
        },
        {
            "positions": [
                0.05899159777760726,
                -2.2054393914560166,
                -2.1710138336183595,
                1.4320205660157508,
                0.17137074842811184,
                -0.31936606106649945
            ]
        },
        {
            "positions": [
                0.15288073356650844,
                -2.168590122701885,
                -2.0795108102463105,
                1.3885125435911494,
                0.19513977977375263,
                -0.4139359827418505
            ]
        },
        {
            "positions": [
                0.24676986935540962,
                -2.131740853947754,
                -1.988007786874261,
                1.3450045211665482,
                0.2189088111193934,
                -0.5085059044172016
            ]
        },
        {
            "positions": [
                0.3406590051443108,
                -2.0948915851936225,
                -1.8965047635022114,
                1.3014964987419468,
                0.24267784246503415,
                -0.6030758260925526
            ]
        },
        {
            "positions": [
                0.434548140933212,
                -2.058042316439491,
                -1.805001740130162,
                1.2579884763173457,
                0.2664468738106749,
                -0.6976457477679037
            ]
        },
        {
            "positions": [
                0.528437276722113,
                -2.02119304768536,
                -1.7134987167581124,
                1.2144804538927443,
                0.2902159051563157,
                -0.7922156694432547
            ]
        },
        {
            "positions": [
                0.6223264125110144,
                -1.9843437789312284,
                -1.621995693386063,
                1.1709724314681431,
                0.31398493650195647,
                -0.8867855911186058
            ]
        },
        {
            "positions": [
                0.7162155482999155,
                -1.947494510177097,
                -1.5304926700140138,
                1.1274644090435417,
                0.33775396784759726,
                -0.9813555127939568
            ]
        },
        {
            "positions": [
                0.8101046840888166,
                -1.9106452414229658,
                -1.4389896466419643,
                1.0839563866189406,
                0.361522999193238,
                -1.0759254344693079
            ]
        },
        {
            "positions": [
                0.903993819877718,
                -1.8737959726688342,
                -1.3474866232699148,
                1.0404483641943392,
                0.3852920305388788,
                -1.170495356144659
            ]
        },
        {
            "positions": [
                0.9978829556666191,
                -1.8369467039147032,
                -1.2559835998978655,
                0.9969403417697379,
                0.4090610618845195,
                -1.26506527782001
            ]
        },
        {
            "positions": [
                1.0917720914555205,
                -1.8000974351605716,
                -1.164480576525816,
                0.9534323193451366,
                0.4328300932301603,
                -1.359635199495361
            ]
        },
        {
            "positions": [
                1.1856612272444214,
                -1.7632481664064403,
                -1.0729775531537664,
                0.9099242969205353,
                0.4565991245758011,
                -1.454205121170712
            ]
        },
        {
            "positions": [
                1.2795503630333227,
                -1.726398897652309,
                -0.9814745297817169,
                0.866416274495934,
                0.4803681559214419,
                -1.5487750428460632
            ]
        },
        {
            "positions": [
                1.3734394988222238,
                -1.6895496288981777,
                -0.8899715064096676,
                0.8229082520713328,
                0.5041371872670826,
                -1.6433449645214142
            ]
        },
        {
            "positions": [
                1.4673286346111252,
                -1.6527003601440464,
                -0.7984684830376181,
                0.7794002296467314,
                0.5279062186127235,
                -1.7379148861967653
            ]
        },
        {
            "positions": [
                1.561217770400026,
                -1.615851091389915,
                -0.7069654596655688,
                0.7358922072221301,
                0.5516752499583641,
                -1.8324848078721163
            ]
        },
        {
            "positions": [
                1.6551069061889274,
                -1.5790018226357836,
                -0.6154624362935193,
                0.6923841847975288,
                0.5754442813040049,
                -1.9270547295474674
            ]
        },
        {
            "positions": [
                1.709168452698244,
                -1.5475719697741261,
                -0.48000781135104154,
                0.6107554546944762,
                0.6019220103220648,
                -1.991943359206103
            ]
        },
        {
            "positions": [
                1.7632299992075608,
                -1.5161421169124687,
                -0.3445531864085638,
                0.5291267245914236,
                0.6283997393401248,
                -2.056831988864739
            ]
        },
        {
            "positions": [
                1.8172915457168775,
                -1.4847122640508112,
                -0.20909856146608607,
                0.4474979944883711,
                0.6548774683581848,
                -2.121720618523374
            ]
        },
        {
            "positions": [
                1.871353092226194,
                -1.4532824111891538,
                -0.07364393652360834,
                0.36586926438531847,
                0.6813551973762447,
                -2.18660924818201
            ]
        },
        {
            "positions": [
                1.9254146387355109,
                -1.4218525583274961,
                0.061810688418869386,
                0.28424053428226587,
                0.7078329263943046,
                -2.2514978778406456
            ]
        },
        {
            "positions": [
                1.9794761852448275,
                -1.3904227054658387,
                0.19726531336134712,
                0.20261180417921332,
                0.7343106554123646,
                -2.3163865074992813
            ]
        },
        {
            "positions": [
                2.0335377317541443,
                -1.3589928526041812,
                0.33271993830382485,
                0.12098307407616071,
                0.7607883844304246,
                -2.3812751371579166
            ]
        },
        {
            "positions": [
                2.0875992782634607,
                -1.3275629997425238,
                0.4681745632463026,
                0.03935434397310811,
                0.7872661134484845,
                -2.4461637668165523
            ]
        },
        {
            "positions": [
                2.1416608247727775,
                -1.2961331468808663,
                0.6036291881887803,
                -0.0422743861299445,
                0.8137438424665444,
                -2.511052396475188
            ]
        },
        {
            "positions": [
                2.1957223712820944,
                -1.264703294019209,
                0.739083813131258,
                -0.1239031162329971,
                0.8402215714846044,
                -2.575941026133824
            ]
        },
        {
            "positions": [
                2.2497839177914107,
                -1.2332734411575514,
                0.874538438073736,
                -0.2055318463360497,
                0.8666993005026644,
                -2.6408296557924595
            ]
        },
        {
            "positions": [
                2.3038454643007276,
                -1.201843588295894,
                1.0099930630162135,
                -0.2871605764391022,
                0.8931770295207243,
                -2.705718285451095
            ]
        },
        {
            "positions": [
                2.3579070108100444,
                -1.1704137354342365,
                1.1454476879586912,
                -0.3687893065421549,
                0.9196547585387842,
                -2.7706069151097306
            ]
        },
        {
            "positions": [
                2.4119685573193608,
                -1.138983882572579,
                1.280902312901169,
                -0.4504180366452074,
                0.9461324875568442,
                -2.8354955447683663
            ]
        },
        {
            "positions": [
                2.4660301038286776,
                -1.1075540297109214,
                1.416356937843647,
                -0.5320467667482601,
                0.9726102165749042,
                -2.900384174427002
            ]
        },
        {
            "positions": [
                2.520091650337994,
                -1.0761241768492642,
                1.5518115627861244,
                -0.6136754968513126,
                0.9990879455929641,
                -2.9652728040856378
            ]
        },
        {
            "positions": [
                2.574153196847311,
                -1.0446943239876065,
                1.687266187728602,
                -0.6953042269543651,
                1.025565674611024,
                -3.030161433744273
            ]
        },
        {
            "positions": [
                2.6282147433566276,
                -1.013264471125949,
                1.8227208126710799,
                -0.7769329570574179,
                1.052043403629084,
                -3.095050063402909
            ]
        }
    ]
}