{
    "goal": {
        "global_pose": {
            "orientation": {
                "w": 0.5084816217422485,
                "x": -0.49083608388900757,
                "y": 0.5182115435600281,
                "z": -0.4816462993621826
            },
            "position": {
                "x": 0.5540239810943604,
                "y": 0.030875300988554955,
                "z": 0.16403168439865112
            }
        },
        "name": "move_to_storage_A"
    },
    "id": "FMT_move_to_storage_A_112",
    "joint_names": [
        "shoulder_pan_joint",
        "shoulder_lift_joint",
        "elbow_joint",
        "wrist_1_joint",
        "wrist_2_joint",
        "wrist_3_joint"
    ],
    "metrics": {
        "cart_traj_len": 0.35294009035050455,
        "distance_elbow_joint": 0.4472989464187618,
        "distance_shoulder_lift_joint": 0.23323646409465493,
        "distance_shoulder_pan_joint": 0.4589959422053026,
        "distance_wrist_1_joint": 0.23601233972570312,
        "distance_wrist_2_joint": 1.1083500934511787,
        "distance_wrist_3_joint": 0.08756107588697715,
        "smoothness": 0.0,
        "time": 0.390633501,
        "traj_len": 1.6035756489116997,
        "weighted_distance": 2.0226070915364196
    },
    "planner": "FMT",
    "start": {
        "state": {
            "elbow_joint": 1.971548259319323,
            "shoulder_lift_joint": -1.1394851275133948,
            "shoulder_pan_joint": 0.1228115487234821,
            "wrist_1_joint": -0.7804723859257726,
            "wrist_2_joint": 0.12958671773740124,
            "wrist_3_joint": -3.192489227718131
        }
    },
    "waypoints": [
        {
            "positions": [
                0.1228115487234821,
                -1.1394851275133948,
                1.971548259319323,
                -0.7804723859257726,
                0.12958671773740124,
                -3.192489227718131
            ]
        },
        {
            "positions": [
                0.0572406998370103,
                -1.1728046223840598,
                2.0354481088077176,
                -0.8141884344580159,
                0.28792244537328393,
                -3.17998050259142
            ]
        },
        {
            "positions": [
                -0.0083301490494615,
                -1.2061241172547248,
                2.099347958296112,
                -0.8479044829902592,
                0.4462581730091666,
                -3.167471777464709
            ]
        },
        {
            "positions": [
                -0.0739009979359333,
                -1.2394436121253898,
                2.1632478077845065,
                -0.8816205315225025,
                0.6045939006450493,
                -3.154963052337998
            ]
        },
        {
            "positions": [
                -0.1394718468224051,
                -1.2727631069960548,
                2.227147657272901,
                -0.9153365800547458,
                0.7629296282809319,
                -3.1424543272112873
            ]
        },
        {
            "positions": [
                -0.2050426957088769,
                -1.3060826018667198,
                2.291047506761296,
                -0.9490526285869891,
                0.9212653559168147,
                -3.129945602084576
            ]
        },
        {
            "positions": [
                -0.2706135445953487,
                -1.3394020967373848,
                2.3549473562496903,
                -0.9827686771192324,
                1.0796010835526972,
                -3.117436876957865
            ]
        },
        {
            "positions": [
                -0.3361843934818205,
                -1.3727215916080497,
                2.4188472057380848,
                -1.0164847256514757,
                1.23793681118858,
                -3.104928151831154
            ]
        }
    ]
}{
    "goal": {
        "global_pose": {
            "orientation": {
                "w": 0.5084816217422485,
                "x": -0.49083608388900757,
                "y": 0.5182115435600281,
                "z": -0.4816462993621826
            },
            "position": {
                "x": 0.5540239810943604,
                "y": 0.030875300988554955,
                "z": 0.16403168439865112
            }
        },
        "name": "move_to_storage_A"
    },
    "id": "FMT_move_to_storage_A_112",
    "joint_names": [
        "shoulder_pan_joint",
        "shoulder_lift_joint",
        "elbow_joint",
        "wrist_1_joint",
        "wrist_2_joint",
        "wrist_3_joint"
    ],
    "metrics": {
        "cart_traj_len": 0.3528726084328494,
        "distance_elbow_joint": 0.44778742254629433,
        "distance_shoulder_lift_joint": 0.2340120849197913,
        "distance_shoulder_pan_joint": 0.45967920634701726,
        "distance_wrist_1_joint": 0.2349253398227702,
        "distance_wrist_2_joint": 1.105521266109841,
        "distance_wrist_3_joint": 0.08880055184243263,
        "smoothness": 6.661338165333112e-16,
        "time": 0.521704206,
        "traj_len": 1.6033483313329473,
        "weighted_distance": 2.0220716063496917
    },
    "planner": "FMT",
    "start": {
        "state": {
            "elbow_joint": 1.97154746011099,
            "shoulder_lift_joint": -1.13948474672311,
            "shoulder_pan_joint": 0.12281154466712228,
            "wrist_1_joint": -0.7804688027058302,
            "wrist_2_joint": 0.12958655903071145,
            "wrist_3_joint": 3.0906928834467795
        }
    },
    "waypoints": [
        {
            "positions": [
                0.12281154466712228,
                -1.13948474672311,
                1.97154746011099,
                -0.7804688027058302,
                0.12958655903071145,
                3.0906928834467795
            ]
        },
        {
            "positions": [
                0.0571430866175484,
                -1.1729150445687944,
                2.035517091903318,
                -0.8140295655376545,
                0.28751816847497447,
                3.103378676567127
            ]
        },
        {
            "positions": [
                -0.008525371432025489,
                -1.206345342414479,
                2.0994867236956454,
                -0.8475903283694788,
                0.44544977791923746,
                3.1160644696874744
            ]
        },
        {
            "positions": [
                -0.07419382948159937,
                -1.2397756402601634,
                2.1634563554879733,
                -0.8811510912013031,
                0.6033813873635004,
                3.128750262807822
            ]
        },
        {
            "positions": [
                -0.13986228753117325,
                -1.2732059381058478,
                2.227425987280301,
                -0.9147118540331274,
                0.7613129968077634,
                3.1414360559281698
            ]
        },
        {
            "positions": [
                -0.2055307455807472,
                -1.3066362359515322,
                2.291395619072629,
                -0.9482726168649518,
                0.9192446062520265,
                3.1541218490485172
            ]
        },
        {
            "positions": [
                -0.271199203630321,
                -1.3400665337972169,
                2.3553652508649563,
                -0.9818333796967761,
                1.0771762156962894,
                3.1668076421688647
            ]
        },
        {
            "positions": [
                -0.33686766167989496,
                -1.3734968316429013,
                2.4193348826572842,
                -1.0153941425286004,
                1.2351078251405525,
                3.179493435289212
            ]
        }
    ]
}{
    "goal": {
        "global_pose": {
            "orientation": {
                "w": 0.5084816217422485,
                "x": -0.49083608388900757,
                "y": 0.5182115435600281,
                "z": -0.4816462993621826
            },
            "position": {
                "x": 0.5540239810943604,
                "y": 0.030875300988554955,
                "z": 0.16403168439865112
            }
        },
        "name": "move_to_storage_A"
    },
    "id": "FMT_move_to_storage_A_112",
    "joint_names": [
        "shoulder_pan_joint",
        "shoulder_lift_joint",
        "elbow_joint",
        "wrist_1_joint",
        "wrist_2_joint",
        "wrist_3_joint"
    ],
    "metrics": {
        "cart_traj_len": 0.35287870502322616,
        "distance_elbow_joint": 0.44901860002276184,
        "distance_shoulder_lift_joint": 0.234081028614596,
        "distance_shoulder_pan_joint": 0.45922636406414563,
        "distance_wrist_1_joint": 0.2357650631952133,
        "distance_wrist_2_joint": 1.1080922288836599,
        "distance_wrist_3_joint": 0.09833271607663718,
        "smoothness": 2.2204460668324854e-16,
        "time": 0.5212435990000001,
        "traj_len": 1.6076429954616833,
        "weighted_distance": 2.031019134594542
    },
    "planner": "FMT",
    "start": {
        "state": {
            "elbow_joint": 1.9715472970024885,
            "shoulder_lift_joint": -1.1394870060712896,
            "shoulder_pan_joint": 0.12281152778156021,
            "wrist_1_joint": -0.780463741449964,
            "wrist_2_joint": 0.12958659822042276,
            "wrist_3_joint": 3.090690232415272
        }
    },
    "waypoints": [
        {
            "positions": [
                0.12281152778156021,
                -1.1394870060712896,
                1.9715472970024885,
                -0.780463741449964,
                0.12958659822042276,
                3.090690232415272
            ]
        },
        {
            "positions": [
                0.05720776148668226,
                -1.172927153016232,
                2.0356928112914545,
                -0.814144464763566,
                0.2878854880609456,
                3.104737763283363
            ]
        },
        {
            "positions": [
                -0.00839600480819569,
                -1.206367299961174,
                2.0998383255804205,
                -0.8478251880771678,
                0.4461843779014685,
                3.118785294151454
            ]
        },
        {
            "positions": [
                -0.07399977110307362,
                -1.2398074469061164,
                2.1639838398693865,
                -0.8815059113907697,
                0.6044832677419912,
                3.1328328250195447
            ]
        },
        {
            "positions": [
                -0.1396035373979516,
                -1.2732475938510588,
                2.2281293541583524,
                -0.9151866347043716,
                0.7627821575825141,
                3.146880355887636
            ]
        },
        {
            "positions": [
                -0.20520730369282955,
                -1.3066877407960011,
                2.2922748684473184,
                -0.9488673580179735,
                0.921081047423037,
                3.160927886755727
            ]
        },
        {
            "positions": [
                -0.27081106998770743,
                -1.3401278877409433,
                2.3564203827362844,
                -0.9825480813315753,
                1.0793799372635597,
                3.174975417623818
            ]
        },
        {
            "positions": [
                -0.3364148362825854,
                -1.3735680346858856,
                2.4205658970252504,
                -1.0162288046451773,
                1.2376788271040826,
                3.189022948491909
            ]
        }
    ]
}