{
    "goal": {
        "global_pose": {
            "orientation": {
                "w": 0.005598929693374612,
                "x": 0.007748599140229565,
                "y": 0.7110244013736278,
                "z": -0.7031023480610252
            },
            "position": {
                "x": 0.1141497679147869,
                "y": -0.7141253447532654,
                "z": 0.3711530566215515
            }
        },
        "name": "move_to_auspresseinheit_B"
    },
    "id": "FMT_move_to_auspresseinheit_B_82",
    "joint_names": [
        "shoulder_pan_joint",
        "shoulder_lift_joint",
        "elbow_joint",
        "wrist_1_joint",
        "wrist_2_joint",
        "wrist_3_joint"
    ],
    "metrics": {
        "cart_traj_len": 0.564311300346707,
        "distance_elbow_joint": 0.061322831219936313,
        "distance_shoulder_lift_joint": 0.2939344449130017,
        "distance_shoulder_pan_joint": 0.5773408736745205,
        "distance_wrist_1_joint": 0.3177278086962704,
        "distance_wrist_2_joint": 0.9868522188831443,
        "distance_wrist_3_joint": 0.001103506404174226,
        "smoothness": 0.0,
        "time": 0.45938372,
        "traj_len": 1.496088795423269,
        "weighted_distance": 1.882835288648163
    },
    "planner": "FMT",
    "start": {
        "state": {
            "elbow_joint": 2.0193083361928714,
            "shoulder_lift_joint": -1.1220246554650708,
            "shoulder_pan_joint": -1.0952077554168747,
            "wrist_1_joint": -0.8559753972642168,
            "wrist_2_joint": 0.4759566250798843,
            "wrist_3_joint": -3.1240929996934557
        }
    },
    "waypoints": [
        {
            "positions": [
                -1.0952077554168747,
                -1.1220246554650708,
                2.0193083361928714,
                -0.8559753972642168,
                0.4759566250798843,
                -3.1240929996934557
            ]
        },
        {
            "positions": [
                -1.191431234362628,
                -1.1710137296172378,
                2.0090878643228822,
                -0.8030207624815051,
                0.6404319948937417,
                -3.1242769174274847
            ]
        },
        {
            "positions": [
                -1.2876547133083815,
                -1.2200028037694046,
                1.9988673924528926,
                -0.7500661276987933,
                0.804907364707599,
                -3.1244608351615137
            ]
        },
        {
            "positions": [
                -1.383878192254135,
                -1.2689918779215716,
                1.9886469205829034,
                -0.6971114929160815,
                0.9693827345214565,
                -3.1246447528955428
            ]
        },
        {
            "positions": [
                -1.4801016711998882,
                -1.3179809520737387,
                1.978426448712914,
                -0.6441568581333699,
                1.1338581043353138,
                -3.124828670629572
            ]
        },
        {
            "positions": [
                -1.5763251501456417,
                -1.3669700262259055,
                1.9682059768429245,
                -0.5912022233506582,
                1.2983334741491712,
                -3.125012588363601
            ]
        },
        {
            "positions": [
                -1.6725486290913951,
                -1.4159591003780725,
                1.957985504972935,
                -0.5382475885679464,
                1.4628088439630287,
                -3.12519650609763
            ]
        }
    ]
}