{
    "goal": {
        "global_pose": {
            "orientation": {
                "w": 0.005598929693374612,
                "x": 0.007748599140229565,
                "y": 0.7110244013736278,
                "z": -0.7031023480610252
            },
            "position": {
                "x": -0.8858502320852131,
                "y": -0.7141253447532654,
                "z": 0.3711530566215515
            }
        },
        "name": "move_to_auspresseinheit_C"
    },
    "id": "FMT_move_to_auspresseinheit_C_23",
    "joint_names": [
        "shoulder_pan_joint",
        "shoulder_lift_joint",
        "elbow_joint",
        "wrist_1_joint",
        "wrist_2_joint",
        "wrist_3_joint"
    ],
    "metrics": {
        "cart_traj_len": 0.4921048483185597,
        "distance_elbow_joint": 0.9884629233982155,
        "distance_shoulder_lift_joint": 0.3196101601241671,
        "distance_shoulder_pan_joint": 0.2564877305744364,
        "distance_wrist_1_joint": 0.6593096002691516,
        "distance_wrist_2_joint": 1.3098122354235837,
        "distance_wrist_3_joint": 0.04576079977136027,
        "smoothness": 3.2297397335745243e-16,
        "time": 0.394201431,
        "traj_len": 1.8919417141024495,
        "weighted_distance": 2.374886709886678
    },
    "planner": "FMT",
    "start": {
        "state": {
            "elbow_joint": 1.7527959577737207,
            "shoulder_lift_joint": -0.9740617694225068,
            "shoulder_pan_joint": -2.967991417825858,
            "wrist_1_joint": -0.759517768980727,
            "wrist_2_joint": 1.7443932448377408,
            "wrist_3_joint": -3.0840537646736568
        }
    },
    "waypoints": [
        {
            "positions": [
                -2.967991417825858,
                -0.9740617694225068,
                1.7527959577737207,
                -0.759517768980727,
                1.7443932448377408,
                -3.0840537646736568
            ]
        },
        {
            "positions": [
                -2.9423426447684142,
                -0.94210075341009,
                1.653949665433899,
                -0.6935868089538119,
                1.6134120212953824,
                -3.088629844650793
            ]
        },
        {
            "positions": [
                -2.9166938717109705,
                -0.9101397373976734,
                1.5551033730940775,
                -0.6276558489268966,
                1.482430797753024,
                -3.0932059246279286
            ]
        },
        {
            "positions": [
                -2.891045098653527,
                -0.8781787213852567,
                1.456257080754256,
                -0.5617248888999815,
                1.3514495742106658,
                -3.097782004605065
            ]
        },
        {
            "positions": [
                -2.8653963255960835,
                -0.8462177053728399,
                1.3574107884144344,
                -0.49579392887306634,
                1.2204683506683072,
                -3.102358084582201
            ]
        },
        {
            "positions": [
                -2.8397475525386398,
                -0.8142566893604233,
                1.258564496074613,
                -0.42986296884615116,
                1.089487127125949,
                -3.1069341645593367
            ]
        },
        {
            "positions": [
                -2.814098779481196,
                -0.7822956733480065,
                1.1597182037347915,
                -0.363932008819236,
                0.9585059035835907,
                -3.111510244536473
            ]
        },
        {
            "positions": [
                -2.7884500064237523,
                -0.7503346573355898,
                1.0608719113949698,
                -0.29800104879232087,
                0.8275246800412323,
                -3.116086324513609
            ]
        },
        {
            "positions": [
                -2.762801233366309,
                -0.7183736413231732,
                0.9620256190551482,
                -0.2320700887654057,
                0.6965434564988737,
                -3.120662404490745
            ]
        },
        {
            "positions": [
                -2.7371524603088653,
                -0.6864126253107563,
                0.8631793267153267,
                -0.16613912873849046,
                0.5655622329565155,
                -3.125238484467881
            ]
        },
        {
            "positions": [
                -2.7115036872514215,
                -0.6544516092983397,
                0.7643330343755051,
                -0.10020816871157534,
                0.4345810094141571,
                -3.129814564445017
            ]
        }
    ]
}