{
    "goal": {
        "global_pose": {
            "orientation": {
                "w": 0.7031023502349854,
                "x": -0.7110244035720825,
                "y": 0.007748599164187908,
                "z": 0.005598929710686207
            },
            "position": {
                "x": 0.11585023208521307,
                "y": 0.44412534475326537,
                "z": 0.3711530566215515
            }
        },
        "name": "move_to_auspresseinheit_A"
    },
    "id": "FMT_move_to_auspresseinheit_A_103",
    "joint_names": [
        "shoulder_pan_joint",
        "shoulder_lift_joint",
        "elbow_joint",
        "wrist_1_joint",
        "wrist_2_joint",
        "wrist_3_joint"
    ],
    "metrics": {
        "cart_traj_len": 0.6937859635887402,
        "distance_elbow_joint": 0.061787758231213186,
        "distance_shoulder_lift_joint": 0.5374263015453316,
        "distance_shoulder_pan_joint": 1.0433471442578242,
        "distance_wrist_1_joint": 0.5512543456163725,
        "distance_wrist_2_joint": 1.1028824196670168,
        "distance_wrist_3_joint": 0.8641859712622928,
        "smoothness": 0.8580223782406496,
        "time": 0.869479041,
        "traj_len": 2.0398244876900686,
        "weighted_distance": 2.746523738908518
    },
    "planner": "FMT",
    "start": {
        "state": {
            "elbow_joint": 2.4225746658250005,
            "shoulder_lift_joint": -1.3736534386056498,
            "shoulder_pan_joint": -0.3378633547517467,
            "wrist_1_joint": -1.0288598680537169,
            "wrist_2_joint": 1.233022673432363,
            "wrist_3_joint": -3.0940220416140027
        }
    },
    "waypoints": [
        {
            "positions": [
                -0.3378633547517467,
                -1.3736534386056498,
                2.4225746658250005,
                -1.0288598680537169,
                1.233022673432363,
                -3.0940220416140027
            ]
        },
        {
            "positions": [
                -0.32271236262239095,
                -1.4535566821143069,
                2.425448636140716,
                -0.9834972372780851,
                1.0969003584101875,
                -3.0245507921352286
            ]
        },
        {
            "positions": [
                -0.30756137049303517,
                -1.533459925622964,
                2.4283226064564314,
                -0.9381346065024534,
                0.9607780433880119,
                -2.955079542656454
            ]
        },
        {
            "positions": [
                -0.29241037836367934,
                -1.6133631691316208,
                2.431196576772147,
                -0.8927719757268217,
                0.8246557283658362,
                -2.88560829317768
            ]
        },
        {
            "positions": [
                -0.27725938623432356,
                -1.6932664126402779,
                2.4340705470878623,
                -0.8474093449511899,
                0.6885334133436607,
                -2.8161370436989057
            ]
        },
        {
            "positions": [
                -0.2621083941049678,
                -1.773169656148935,
                2.4369445174035778,
                -0.8020467141755582,
                0.5524110983214849,
                -2.746665794220131
            ]
        },
        {
            "positions": [
                -0.246957401975612,
                -1.853072899657592,
                2.439818487719293,
                -0.7566840833999264,
                0.4162887832993094,
                -2.677194544741357
            ]
        },
        {
            "positions": [
                -0.08049785398683329,
                -1.8667854328846096,
                2.432195621920074,
                -0.7060569633800597,
                0.4599325825727977,
                -2.7519137506021796
            ]
        },
        {
            "positions": [
                0.08596169400194542,
                -1.880497966111627,
                2.424572756120855,
                -0.6554298433601929,
                0.503576381846286,
                -2.826632956463002
            ]
        },
        {
            "positions": [
                0.25242124199072413,
                -1.8942104993386444,
                2.4169498903216367,
                -0.6048027233403261,
                0.5472201811197741,
                -2.901352162323825
            ]
        },
        {
            "positions": [
                0.41888078997950284,
                -1.907923032565662,
                2.4093270245224176,
                -0.5541756033204595,
                0.5908639803932624,
                -2.976071368184648
            ]
        },
        {
            "positions": [
                0.5621822897427902,
                -1.9095013863583217,
                2.402300787952395,
                -0.5158905628789019,
                0.6466506466132675,
                -3.0503121936578257
            ]
        },
        {
            "positions": [
                0.7054837895060776,
                -1.9110797401509814,
                2.3952745513823728,
                -0.4776055224373443,
                0.7024373128332726,
                -3.124553019131004
            ]
        }
    ]
}