{
    "goal": {
        "global_pose": {
            "orientation": {
                "w": -0.4816463035849501,
                "x": 0.5182115481033762,
                "y": 0.4908360881923453,
                "z": -0.5084816262002911
            },
            "position": {
                "x": -0.8240239810943604,
                "y": 0.19912469901144506,
                "z": 0.16403168439865112
            }
        },
        "name": "move_to_storage_D"
    },
    "id": "FMT_move_to_storage_D_29",
    "joint_names": [
        "shoulder_pan_joint",
        "shoulder_lift_joint",
        "elbow_joint",
        "wrist_1_joint",
        "wrist_2_joint",
        "wrist_3_joint"
    ],
    "metrics": {
        "cart_traj_len": 0.6755427702492395,
        "distance_elbow_joint": 1.1480522124115184,
        "distance_shoulder_lift_joint": 0.4563989470508054,
        "distance_shoulder_pan_joint": 0.35177520071130364,
        "distance_wrist_1_joint": 3.8284673267477256,
        "distance_wrist_2_joint": 1.7783466817009612,
        "distance_wrist_3_joint": 3.1572541878529377,
        "smoothness": 0.15160742164424323,
        "time": 1.392831387,
        "traj_len": 3.274186090691128,
        "weighted_distance": 4.758320811024601
    },
    "planner": "FMT",
    "start": {
        "state": {
            "elbow_joint": -2.384821988534728,
            "shoulder_lift_joint": -2.2788054721415256,
            "shoulder_pan_joint": -0.1854694642142757,
            "wrist_1_joint": 1.4845938289331202,
            "wrist_2_joint": 0.17898776772866878,
            "wrist_3_joint": 0.037105688729662994
        }
    },
    "waypoints": [
        {
            "positions": [
                -0.1854694642142757,
                -2.2788054721415256,
                -2.384821988534728,
                1.4845938289331202,
                0.17898776772866878,
                0.037105688729662994
            ]
        },
        {
            "positions": [
                -0.13510558782550908,
                -2.2179744367098695,
                -2.4441058928305326,
                1.4428796587240957,
                0.174681085412591,
                0.1473348182371818
            ]
        },
        {
            "positions": [
                -0.08474171143674245,
                -2.1571434012782134,
                -2.5033897971263372,
                1.4011654885150713,
                0.17037440309651322,
                0.2575639477447006
            ]
        },
        {
            "positions": [
                -0.03437783504797584,
                -2.096312365846557,
                -2.5626737014221415,
                1.3594513183060466,
                0.16606772078043547,
                0.3677930772522193
            ]
        },
        {
            "positions": [
                0.01598604134079082,
                -2.0354813304149006,
                -2.621957605717946,
                1.3177371480970221,
                0.1617610384643577,
                0.47802220675973817
            ]
        },
        {
            "positions": [
                0.06634991772955745,
                -1.9746502949832445,
                -2.6812415100137508,
                1.2760229778879977,
                0.1574543561482799,
                0.588251336267257
            ]
        },
        {
            "positions": [
                0.062004012565754385,
                -1.9812695893263979,
                -2.644214001712338,
                1.1186361745965803,
                0.08107117049086372,
                0.7015604032374894
            ]
        },
        {
            "positions": [
                0.05765810740195132,
                -1.987888883669551,
                -2.607186493410925,
                0.9612493713051626,
                0.004687984833447539,
                0.8148694702077217
            ]
        },
        {
            "positions": [
                0.053312202238148254,
                -1.9945081780127043,
                -2.5701589851095124,
                0.803862568013745,
                -0.07169520082396866,
                0.928178537177954
            ]
        },
        {
            "positions": [
                0.048966297074345196,
                -2.0011274723558574,
                -2.5331314768080992,
                0.6464757647223276,
                -0.14807838648138483,
                1.0414876041481862
            ]
        },
        {
            "positions": [
                0.04462039191054213,
                -2.0077467666990105,
                -2.4961039685066866,
                0.4890889614309101,
                -0.22446157213880102,
                1.1547966711184188
            ]
        },
        {
            "positions": [
                0.040274486746739065,
                -2.014366061042164,
                -2.4590764602052735,
                0.33170215813949244,
                -0.3008447577962172,
                1.268105738088651
            ]
        },
        {
            "positions": [
                0.035928581582936,
                -2.020985355385317,
                -2.422048951903861,
                0.17431535484807492,
                -0.3772279434536335,
                1.3814148050588835
            ]
        },
        {
            "positions": [
                0.03158267641913294,
                -2.0276046497284703,
                -2.385021443602448,
                0.016928551556657512,
                -0.45361112911104956,
                1.4947238720291156
            ]
        },
        {
            "positions": [
                0.027236771255329868,
                -2.0342239440716234,
                -2.347993935301035,
                -0.14045825173476012,
                -0.5299943147684658,
                1.608032938999348
            ]
        },
        {
            "positions": [
                0.02289086609152681,
                -2.040843238414777,
                -2.3109664269996224,
                -0.29784505502617753,
                -0.606377500425882,
                1.7213420059695803
            ]
        },
        {
            "positions": [
                0.018544960927723744,
                -2.04746253275793,
                -2.2739389186982093,
                -0.45523185831759516,
                -0.6827606860832982,
                1.8346510729398127
            ]
        },
        {
            "positions": [
                0.014199055763920679,
                -2.0540818271010832,
                -2.2369114103967966,
                -0.6126186616090128,
                -0.7591438717407144,
                1.9479601399100448
            ]
        },
        {
            "positions": [
                0.00985315060011762,
                -2.0607011214442363,
                -2.1998839020953835,
                -0.7700054649004302,
                -0.8355270573981304,
                2.061269206880277
            ]
        },
        {
            "positions": [
                0.005507245436314548,
                -2.06732041578739,
                -2.162856393793971,
                -0.9273922681918478,
                -0.9119102430555468,
                2.1745782738505097
            ]
        },
        {
            "positions": [
                0.0011613402725114824,
                -2.073939710130543,
                -2.1258288854925578,
                -1.0847790714832655,
                -0.9882934287129628,
                2.287887340820742
            ]
        },
        {
            "positions": [
                -0.003184564891291569,
                -2.080559004473696,
                -2.088801377191145,
                -1.2421658747746827,
                -1.064676614370379,
                2.401196407790974
            ]
        },
        {
            "positions": [
                -0.007530470055094635,
                -2.0871782988168492,
                -2.0517738688897325,
                -1.3995526780661003,
                -1.1410598000277952,
                2.514505474761206
            ]
        },
        {
            "positions": [
                -0.011876375218897714,
                -2.093797593160003,
                -2.0147463605883194,
                -1.556939481357518,
                -1.2174429856852114,
                2.627814541731439
            ]
        },
        {
            "positions": [
                -0.016222280382700766,
                -2.100416887503156,
                -1.9777188522869067,
                -1.7143262846489355,
                -1.2938261713426276,
                2.7411236087016713
            ]
        },
        {
            "positions": [
                -0.02056818554650383,
                -2.107036181846309,
                -1.9406913439854936,
                -1.8717130879403527,
                -1.3702093570000438,
                2.8544326756719034
            ]
        },
        {
            "positions": [
                -0.024914090710306896,
                -2.113655476189462,
                -1.903663835684081,
                -2.0290998912317706,
                -1.44659254265746,
                2.9677417426421355
            ]
        },
        {
            "positions": [
                -0.029259995874109962,
                -2.1202747705326157,
                -1.866636327382668,
                -2.186486694523188,
                -1.5229757283148762,
                3.0810508096123685
            ]
        },
        {
            "positions": [
                -0.03360590103791302,
                -2.126894064875769,
                -1.8296088190812552,
                -2.343873497814606,
                -1.5993589139722924,
                3.1943598765826007
            ]
        }
    ]
}