{
    "goal": {
        "global_pose": {
            "orientation": {
                "w": -0.4816463035849501,
                "x": 0.5182115481033762,
                "y": 0.4908360881923453,
                "z": -0.5084816262002911
            },
            "position": {
                "x": -0.8240239810943604,
                "y": -0.300875300988555,
                "z": 0.16403168439865112
            }
        },
        "name": "move_to_storage_C"
    },
    "id": "FMT_move_to_storage_C_45",
    "joint_names": [
        "shoulder_pan_joint",
        "shoulder_lift_joint",
        "elbow_joint",
        "wrist_1_joint",
        "wrist_2_joint",
        "wrist_3_joint"
    ],
    "metrics": {
        "cart_traj_len": 0.576785904061895,
        "distance_elbow_joint": 0.25633563122960523,
        "distance_shoulder_lift_joint": 0.18918588025308591,
        "distance_shoulder_pan_joint": 0.496026777376664,
        "distance_wrist_1_joint": 0.0723700211950673,
        "distance_wrist_2_joint": 1.0590374736243002,
        "distance_wrist_3_joint": 0.059112262838755036,
        "smoothness": 0.0,
        "time": 0.334530499,
        "traj_len": 1.4601602811052896,
        "weighted_distance": 1.8389399302354483
    },
    "planner": "FMT",
    "start": {
        "state": {
            "elbow_joint": 2.010868314990456,
            "shoulder_lift_joint": -1.1634956873337592,
            "shoulder_pan_joint": -2.4736205022346125,
            "wrist_1_joint": -0.8367026794202681,
            "wrist_2_joint": 0.6746043897044499,
            "wrist_3_joint": -3.1496632123970403
        }
    },
    "waypoints": [
        {
            "positions": [
                -2.4736205022346125,
                -1.1634956873337592,
                2.010868314990456,
                -0.8367026794202681,
                0.6746043897044499,
                -3.1496632123970403
            ]
        },
        {
            "positions": [
                -2.55629163179739,
                -1.1319647072915782,
                1.9681457097855217,
                -0.8246410092210902,
                0.8511106353085,
                -3.139811168590581
            ]
        },
        {
            "positions": [
                -2.638962761360167,
                -1.1004337272493971,
                1.9254231045805874,
                -0.8125793390219124,
                1.02761688091255,
                -3.129959124784122
            ]
        },
        {
            "positions": [
                -2.7216338909229445,
                -1.0689027472072161,
                1.882700499375653,
                -0.8005176688227345,
                1.2041231265166,
                -3.1201070809776628
            ]
        },
        {
            "positions": [
                -2.804305020485722,
                -1.0373717671650353,
                1.839977894170719,
                -0.7884559986235565,
                1.3806293721206502,
                -3.1102550371712034
            ]
        },
        {
            "positions": [
                -2.886976150048499,
                -1.0058407871228543,
                1.797255288965785,
                -0.7763943284243787,
                1.5571356177247,
                -3.1004029933647446
            ]
        },
        {
            "positions": [
                -2.9696472796112765,
                -0.9743098070806733,
                1.7545326837608506,
                -0.7643326582252008,
                1.7336418633287503,
                -3.0905509495582852
            ]
        }
    ]
}