{
    "goal": {
        "global_pose": {
            "orientation": {
                "w": 0.5084816262002911,
                "x": -0.4908360881923452,
                "y": 0.5182115481033761,
                "z": -0.48164630358495003
            },
            "position": {
                "x": 0.5540239810943604,
                "y": -0.46912469901144505,
                "z": 0.16403168439865112
            }
        },
        "name": "move_to_storage_B"
    },
    "id": "FMT_move_to_storage_B_74",
    "joint_names": [
        "shoulder_pan_joint",
        "shoulder_lift_joint",
        "elbow_joint",
        "wrist_1_joint",
        "wrist_2_joint",
        "wrist_3_joint"
    ],
    "metrics": {
        "cart_traj_len": 0.839329127422682,
        "distance_elbow_joint": 0.46797051456524574,
        "distance_shoulder_lift_joint": 0.45966240263835445,
        "distance_shoulder_pan_joint": 0.18045795710217838,
        "distance_wrist_1_joint": 3.838011425205736,
        "distance_wrist_2_joint": 2.8453245259645707,
        "distance_wrist_3_joint": 3.1154338951711935,
        "smoothness": 0.1880884534079383,
        "time": 1.449686014,
        "traj_len": 3.3025536665809505,
        "weighted_distance": 4.880682786471579
    },
    "planner": "FMT",
    "start": {
        "state": {
            "elbow_joint": 1.664937868594044,
            "shoulder_lift_joint": -0.661644460510453,
            "shoulder_pan_joint": -0.9139846352900073,
            "wrist_1_joint": 2.146753192139373,
            "wrist_2_joint": -2.2341966793290973,
            "wrist_3_joint": 0.005466555786416001
        }
    },
    "waypoints": [
        {
            "positions": [
                -0.9139846352900073,
                -0.661644460510453,
                1.664937868594044,
                2.146753192139373,
                -2.2341966793290973,
                0.005466555786416001
            ]
        },
        {
            "positions": [
                -0.9247040954720098,
                -0.7031189663663169,
                1.7164117957511102,
                2.198284130909943,
                -2.243032865384839,
                -0.18356520380035868
            ]
        },
        {
            "positions": [
                -0.9354235556540123,
                -0.7445934722221808,
                1.7678857229081766,
                2.249815069680513,
                -2.2518690514405804,
                -0.37259696338713333
            ]
        },
        {
            "positions": [
                -0.9461430158360148,
                -0.7860679780780446,
                1.819359650065243,
                2.301346008451083,
                -2.260705237496322,
                -0.5616287229739081
            ]
        },
        {
            "positions": [
                -0.9568624760180173,
                -0.8275424839339085,
                1.8708335772223093,
                2.352876947221653,
                -2.269541423552064,
                -0.7506604825606827
            ]
        },
        {
            "positions": [
                -0.9675819362000198,
                -0.8690169897897724,
                1.9223075043793756,
                2.4044078859922227,
                -2.2783776096078054,
                -0.9396922421474574
            ]
        },
        {
            "positions": [
                -0.9783013963820223,
                -0.9104914956456363,
                1.973781431536442,
                2.455938824762793,
                -2.287213795663547,
                -1.1287240017342322
            ]
        },
        {
            "positions": [
                -0.9890208565640247,
                -0.9519660015015001,
                2.0252553586935083,
                2.5074697635333627,
                -2.2960499817192885,
                -1.3177557613210067
            ]
        },
        {
            "positions": [
                -0.9997403167460273,
                -0.993440507357364,
                2.0767292858505746,
                2.5590007023039325,
                -2.30488616777503,
                -1.5067875209077815
            ]
        },
        {
            "positions": [
                -1.004249948919654,
                -0.9995293814426708,
                2.0740540907406357,
                2.3958690873019717,
                -2.172760689797952,
                -1.5831294170257337
            ]
        },
        {
            "positions": [
                -1.0087595810932803,
                -1.0056182555279776,
                2.071378895630697,
                2.232737472300011,
                -2.040635211820874,
                -1.6594713131436858
            ]
        },
        {
            "positions": [
                -1.013269213266907,
                -1.0117071296132845,
                2.068703700520758,
                2.06960585729805,
                -1.9085097338437962,
                -1.735813209261638
            ]
        },
        {
            "positions": [
                -1.0177788454405337,
                -1.0177960036985914,
                2.066028505410819,
                1.9064742422960894,
                -1.7763842558667182,
                -1.8121551053795901
            ]
        },
        {
            "positions": [
                -1.0222884776141603,
                -1.0238848777838983,
                2.0633533103008803,
                1.7433426272941286,
                -1.64425877788964,
                -1.8884970014975424
            ]
        },
        {
            "positions": [
                -1.0267981097877867,
                -1.029973751869205,
                2.060678115190942,
                1.580211012292168,
                -1.5121332999125623,
                -1.9648388976154945
            ]
        },
        {
            "positions": [
                -1.0313077419614134,
                -1.0360626259545118,
                2.058002920081003,
                1.4170793972902072,
                -1.380007821935484,
                -2.0411807937334467
            ]
        },
        {
            "positions": [
                -1.03581737413504,
                -1.0421515000398187,
                2.055327724971064,
                1.2539477822882463,
                -1.2478823439584061,
                -2.117522689851399
            ]
        },
        {
            "positions": [
                -1.0403270063086665,
                -1.0482403741251254,
                2.0526525298611253,
                1.0908161672862855,
                -1.1157568659813282,
                -2.193864585969351
            ]
        },
        {
            "positions": [
                -1.0448366384822931,
                -1.0543292482104323,
                2.0499773347511865,
                0.9276845522843247,
                -0.9836313880042502,
                -2.2702064820873034
            ]
        },
        {
            "positions": [
                -1.0493462706559198,
                -1.0604181222957392,
                2.0473021396412476,
                0.7645529372823638,
                -0.851505910027172,
                -2.3465483782052554
            ]
        },
        {
            "positions": [
                -1.0538559028295464,
                -1.066506996381046,
                2.0446269445313088,
                0.6014213222804032,
                -0.7193804320500943,
                -2.4228902743232075
            ]
        },
        {
            "positions": [
                -1.0583655350031729,
                -1.0725958704663527,
                2.04195174942137,
                0.4382897072784422,
                -0.5872549540730161,
                -2.49923217044116
            ]
        },
        {
            "positions": [
                -1.0628751671767995,
                -1.0786847445516596,
                2.039276554311431,
                0.2751580922764818,
                -0.4551294760959381,
                -2.575574066559112
            ]
        },
        {
            "positions": [
                -1.0673847993504262,
                -1.0847736186369665,
                2.036601359201492,
                0.11202647727452053,
                -0.32300399811886016,
                -2.651915962677064
            ]
        },
        {
            "positions": [
                -1.0718944315240526,
                -1.0908624927222732,
                2.033926164091554,
                -0.05110513772743985,
                -0.1908785201417822,
                -2.7282578587950166
            ]
        },
        {
            "positions": [
                -1.0764040636976793,
                -1.09695136680758,
                2.031250968981615,
                -0.21423675272940068,
                -0.058753042164704006,
                -2.8045997549129686
            ]
        },
        {
            "positions": [
                -1.080913695871306,
                -1.103040240892887,
                2.028575773871676,
                -0.3773683677313615,
                0.07337243581237374,
                -2.8809416510309207
            ]
        },
        {
            "positions": [
                -1.0854233280449326,
                -1.1091291149781939,
                2.0259005787617372,
                -0.5404999827333223,
                0.20549791378945192,
                -2.957283547148873
            ]
        },
        {
            "positions": [
                -1.089932960218559,
                -1.1152179890635006,
                2.0232253836517984,
                -0.7036315977352832,
                0.33762339176652967,
                -3.033625443266825
            ]
        },
        {
            "positions": [
                -1.0944425923921857,
                -1.1213068631488075,
                2.0205501885418595,
                -0.8667632127372439,
                0.46974886974360774,
                -3.1099673393847773
            ]
        }
    ]
}