{
    "goal": {
        "global_pose": {
            "orientation": {
                "w": 0.7047431468963623,
                "x": -0.7094548344612122,
                "y": 0.0024358443915843964,
                "z": -0.0022348060738295317
            },
            "position": {
                "x": 0.6094750761985779,
                "y": 0.3671506643295288,
                "z": 0.19426114857196808
            }
        },
        "name": "move_to_magneteinheit_A"
    },
    "id": "FMT_move_to_magneteinheit_A_73",
    "joint_names": [
        "shoulder_pan_joint",
        "shoulder_lift_joint",
        "elbow_joint",
        "wrist_1_joint",
        "wrist_2_joint",
        "wrist_3_joint"
    ],
    "metrics": {
        "cart_traj_len": 3.1379807342335955,
        "distance_elbow_joint": 3.9226869787744985,
        "distance_shoulder_lift_joint": 0.49240829326221636,
        "distance_shoulder_pan_joint": 2.6708553486385473,
        "distance_wrist_1_joint": 3.4929344057184304,
        "distance_wrist_2_joint": 1.438406383838812,
        "distance_wrist_3_joint": 0.459616686770003,
        "smoothness": 0.015436066025542176,
        "time": 1.348313559,
        "traj_len": 3.532266708078893,
        "weighted_distance": 4.2810608802141275
    },
    "planner": "FMT",
    "start": {
        "state": {
            "elbow_joint": -1.9196185241190666,
            "shoulder_lift_joint": -1.2443396400964142,
            "shoulder_pan_joint": 2.6996025414629847,
            "wrist_1_joint": -1.5485510000780065,
            "wrist_2_joint": -1.5709468930060704,
            "wrist_3_joint": 0.4420197071253992
        }
    },
    "waypoints": [
        {
            "positions": [
                2.6996025414629847,
                -1.2443396400964142,
                -1.9196185241190666,
                -1.5485510000780065,
                -1.5709468930060704,
                0.4420197071253992
            ]
        },
        {
            "positions": [
                2.5546717543562867,
                -1.240454109075646,
                -1.7918639115431554,
                -1.4719458897893785,
                -1.5478782518516416,
                0.4288828531391309
            ]
        },
        {
            "positions": [
                2.4097409672495886,
                -1.2365685780548779,
                -1.6641092989672441,
                -1.3953407795007502,
                -1.5248096106972127,
                0.41574599915286253
            ]
        },
        {
            "positions": [
                2.2648101801428906,
                -1.2326830470341097,
                -1.536354686391333,
                -1.3187356692121222,
                -1.501740969542784,
                0.40260914516659424
            ]
        },
        {
            "positions": [
                2.119879393036192,
                -1.2287975160133415,
                -1.4086000738154216,
                -1.242130558923494,
                -1.4786723283883552,
                0.3894722911803259
            ]
        },
        {
            "positions": [
                1.974948605929494,
                -1.2249119849925734,
                -1.2808454612395106,
                -1.165525448634866,
                -1.4556036872339262,
                0.3763354371940576
            ]
        },
        {
            "positions": [
                1.830017818822796,
                -1.2210264539718052,
                -1.1530908486635996,
                -1.088920338346238,
                -1.4325350460794974,
                0.3631985832077893
            ]
        },
        {
            "positions": [
                1.685087031716098,
                -1.217140922951037,
                -1.0253362360876883,
                -1.0123152280576098,
                -1.4094664049250687,
                0.350061729221521
            ]
        },
        {
            "positions": [
                1.5401562446093997,
                -1.2132553919302689,
                -0.8975816235117768,
                -0.9357101177689816,
                -1.3863977637706397,
                0.33692487523525266
            ]
        },
        {
            "positions": [
                1.3952254575027014,
                -1.2093698609095007,
                -0.7698270109358656,
                -0.8591050074803536,
                -1.363329122616211,
                0.3237880212489843
            ]
        },
        {
            "positions": [
                1.2502946703960036,
                -1.2054843298887326,
                -0.6420723983599546,
                -0.7824998971917255,
                -1.340260481461782,
                0.310651167262716
            ]
        },
        {
            "positions": [
                1.1053638832893053,
                -1.2015987988679644,
                -0.5143177857840434,
                -0.7058947869030974,
                -1.3171918403073533,
                0.29751431327644773
            ]
        },
        {
            "positions": [
                1.0340057299213399,
                -1.1751752339517618,
                -0.42034367348974155,
                -0.5838890197298308,
                -1.265434197888568,
                0.2849294843419655
            ]
        },
        {
            "positions": [
                0.9626475765533746,
                -1.1487516690355593,
                -0.3263695611954397,
                -0.46188325255656426,
                -1.2136765554697826,
                0.27234465540748326
            ]
        },
        {
            "positions": [
                0.8912894231854093,
                -1.1223281041193565,
                -0.2323954489011379,
                -0.3398774853832977,
                -1.161918913050997,
                0.259759826473001
            ]
        },
        {
            "positions": [
                0.8199312698174439,
                -1.095904539203154,
                -0.13842133660683603,
                -0.21787171821003115,
                -1.1101612706322117,
                0.2471749975385188
            ]
        },
        {
            "positions": [
                0.7485731164494784,
                -1.0694809742869513,
                -0.04444722431253417,
                -0.09586595103676465,
                -1.0584036282134264,
                0.23459016860403656
            ]
        },
        {
            "positions": [
                0.6772149630815132,
                -1.0430574093707488,
                0.04952688798176763,
                0.02613981613650196,
                -1.0066459857946408,
                0.22200533966955432
            ]
        },
        {
            "positions": [
                0.6058568097135477,
                -1.016633844454546,
                0.1435010002760695,
                0.14814558330976835,
                -0.9548883433758556,
                0.2094205107350721
            ]
        },
        {
            "positions": [
                0.5344986563455824,
                -0.9902102795383434,
                0.23747511257037135,
                0.27015135048303507,
                -0.9031307009570702,
                0.19683568180058986
            ]
        },
        {
            "positions": [
                0.463140502977617,
                -0.9637867146221408,
                0.3314492248646731,
                0.39215711765630146,
                -0.8513730585382848,
                0.18425085286610762
            ]
        },
        {
            "positions": [
                0.39178234960965164,
                -0.9373631497059383,
                0.42542333715897507,
                0.5141628848295681,
                -0.7996154161194994,
                0.1716660239316254
            ]
        },
        {
            "positions": [
                0.3204241962416863,
                -0.9109395847897356,
                0.5193974494532768,
                0.6361686520028347,
                -0.747857773700714,
                0.15908119499714315
            ]
        },
        {
            "positions": [
                0.24906604287372092,
                -0.8845160198735329,
                0.6133715617475787,
                0.7581744191761013,
                -0.6961001312819286,
                0.14649636606266092
            ]
        },
        {
            "positions": [
                0.17770788950575556,
                -0.8580924549573303,
                0.7073456740418806,
                0.8801801863493677,
                -0.6443424888631433,
                0.1339115371281787
            ]
        },
        {
            "positions": [
                0.15212262165363305,
                -0.8351483461995542,
                0.8021282764338362,
                0.9996800128289083,
                -0.5891648672997492,
                0.12112393039754099
            ]
        },
        {
            "positions": [
                0.12653735380151054,
                -0.8122042374417782,
                0.8969108788257918,
                1.1191798393084489,
                -0.533987245736355,
                0.1083363236669033
            ]
        },
        {
            "positions": [
                0.10095208594938807,
                -0.789260128684002,
                0.9916934812177474,
                1.2386796657879893,
                -0.4788096241729609,
                0.0955487169362656
            ]
        },
        {
            "positions": [
                0.07536681809726556,
                -0.7663160199262259,
                1.086476083609703,
                1.3581794922675299,
                -0.4236320026095668,
                0.0827611102056279
            ]
        },
        {
            "positions": [
                0.08100412272718792,
                -0.7664069928129464,
                1.248903961596376,
                1.4679364429156532,
                -0.36970720807762714,
                0.06432300879606806
            ]
        },
        {
            "positions": [
                0.08664142735711026,
                -0.7664979656996671,
                1.411331839583049,
                1.5776933935637767,
                -0.3157824135456875,
                0.045884907386508224
            ]
        },
        {
            "positions": [
                0.09227873198703263,
                -0.7665889385863877,
                1.5737597175697222,
                1.6874503442119,
                -0.2618576190137478,
                0.02744680597694838
            ]
        },
        {
            "positions": [
                0.09791603661695497,
                -0.7666799114731083,
                1.7361875955563952,
                1.7972072948600235,
                -0.2079328244818081,
                0.009008704567388545
            ]
        },
        {
            "positions": [
                0.10355334124687733,
                -0.7667708843598289,
                1.8986154735430683,
                1.9069642455081468,
                -0.15400802994986845,
                -0.009429396842171292
            ]
        },
        {
            "positions": [
                0.12198644337009262,
                -0.780700693018254,
                2.0030684546554323,
                1.9443834056404232,
                -0.1325405091672584,
                -0.01759697964460397
            ]
        }
    ]
}