{
    "goal": {
        "global_pose": {
            "orientation": {
                "w": 0.7047431493862688,
                "x": -0.7094548369677653,
                "y": 0.0024358444001904,
                "z": -0.0022348060817251984
            },
            "position": {
                "x": -0.39052492380142206,
                "y": 0.3671506643295288,
                "z": 0.19426114857196808
            }
        },
        "name": "move_to_magneteinheit_D"
    },
    "id": "FMT_move_to_magneteinheit_D_129",
    "joint_names": [
        "shoulder_pan_joint",
        "shoulder_lift_joint",
        "elbow_joint",
        "wrist_1_joint",
        "wrist_2_joint",
        "wrist_3_joint"
    ],
    "metrics": {
        "cart_traj_len": 4.766921046666172,
        "distance_elbow_joint": 3.1154061892946947,
        "distance_shoulder_lift_joint": 1.4507046186687953,
        "distance_shoulder_pan_joint": 3.822860231993106,
        "distance_wrist_1_joint": 2.1273802255766605,
        "distance_wrist_2_joint": 0.611829295684712,
        "distance_wrist_3_joint": 1.2027698254072878,
        "smoothness": 0.4005873266566901,
        "time": 1.421590924,
        "traj_len": 3.5115452989567504,
        "weighted_distance": 4.180394665423494
    },
    "planner": "FMT",
    "start": {
        "state": {
            "elbow_joint": 0.749534889911806,
            "shoulder_lift_joint": -0.6476975780787326,
            "shoulder_pan_joint": -2.711696901376241,
            "wrist_1_joint": -0.07506478083263063,
            "wrist_2_joint": 0.43296659715538205,
            "wrist_3_joint": -3.14703540197715
        }
    },
    "waypoints": [
        {
            "positions": [
                -2.711696901376241,
                -0.6476975780787326,
                0.749534889911806,
                -0.07506478083263063,
                0.43296659715538205,
                -3.14703540197715
            ]
        },
        {
            "positions": [
                -2.7929272318005243,
                -0.6121456404549768,
                0.6054874573299722,
                -0.07058518707835784,
                0.4265081261885367,
                -3.02841889696734
            ]
        },
        {
            "positions": [
                -2.874157562224807,
                -0.576593702831221,
                0.4614400247481384,
                -0.06610559332408504,
                0.4200496552216913,
                -2.90980239195753
            ]
        },
        {
            "positions": [
                -2.95538789264909,
                -0.5410417652074652,
                0.31739259216630467,
                -0.061625999569812254,
                0.413591184254846,
                -2.7911858869477197
            ]
        },
        {
            "positions": [
                -3.036618223073373,
                -0.5054898275837094,
                0.17334515958447083,
                -0.05714640581553945,
                0.4071327132880006,
                -2.67256938193791
            ]
        },
        {
            "positions": [
                -3.117848553497656,
                -0.46993788995995356,
                0.029297727002637164,
                -0.052666812061266666,
                0.4006742423211552,
                -2.5539528769280997
            ]
        },
        {
            "positions": [
                -2.9666773075501607,
                -0.5156150843669838,
                -0.067955253917353,
                -0.12398573767818692,
                0.3772210130895424,
                -2.559256811926963
            ]
        },
        {
            "positions": [
                -2.8155060616026653,
                -0.561292278774014,
                -0.16520823483734318,
                -0.19530466329510718,
                0.3537677838579296,
                -2.5645607469258263
            ]
        },
        {
            "positions": [
                -2.6643348156551703,
                -0.6069694731810443,
                -0.26246121575733333,
                -0.2666235889120274,
                0.33031455462631676,
                -2.5698646819246895
            ]
        },
        {
            "positions": [
                -2.513163569707675,
                -0.6526466675880745,
                -0.3597141966773235,
                -0.3379425145289477,
                0.30686132539470395,
                -2.575168616923553
            ]
        },
        {
            "positions": [
                -2.3619923237601794,
                -0.6983238619951048,
                -0.4569671775973137,
                -0.4092614401458679,
                0.28340809616309115,
                -2.580472551922416
            ]
        },
        {
            "positions": [
                -2.2108210778126844,
                -0.7440010564021351,
                -0.5542201585173039,
                -0.4805803657627882,
                0.25995486693147835,
                -2.5857764869212794
            ]
        },
        {
            "positions": [
                -2.059649831865189,
                -0.7896782508091653,
                -0.6514731394372941,
                -0.5518992913797085,
                0.23650163769986554,
                -2.5910804219201427
            ]
        },
        {
            "positions": [
                -1.9084785859176936,
                -0.8353554452161955,
                -0.7487261203572841,
                -0.6232182169966287,
                0.2130484084682527,
                -2.596384356919006
            ]
        },
        {
            "positions": [
                -1.7573073399701984,
                -0.8810326396232258,
                -0.8459791012772744,
                -0.6945371426135489,
                0.1895951792366399,
                -2.601688291917869
            ]
        },
        {
            "positions": [
                -1.606136094022703,
                -0.926709834030256,
                -0.9432320821972646,
                -0.7658560682304691,
                0.1661419500050271,
                -2.6069922269167325
            ]
        },
        {
            "positions": [
                -1.4549648480752075,
                -0.9723870284372863,
                -1.0404850631172549,
                -0.8371749938473896,
                0.14268872077341427,
                -2.612296161915596
            ]
        },
        {
            "positions": [
                -1.3037936021277123,
                -1.0180642228443166,
                -1.1377380440372449,
                -0.9084939194643097,
                0.11923549154180146,
                -2.6176000969144595
            ]
        },
        {
            "positions": [
                -1.152622356180217,
                -1.0637414172513469,
                -1.2349910249572351,
                -0.97981284508123,
                0.0957822623101886,
                -2.6229040319133228
            ]
        },
        {
            "positions": [
                -1.001451110232722,
                -1.109418611658377,
                -1.3322440058772254,
                -1.0511317706981502,
                0.07232903307857586,
                -2.628207966912186
            ]
        },
        {
            "positions": [
                -0.8502798642852261,
                -1.1550958060654073,
                -1.4294969867972156,
                -1.1224506963150707,
                0.048875803846962995,
                -2.6335119019110493
            ]
        },
        {
            "positions": [
                -0.6991086183377311,
                -1.2007730004724375,
                -1.5267499677172056,
                -1.1937696219319909,
                0.02542257461535019,
                -2.6388158369099126
            ]
        },
        {
            "positions": [
                -0.5479373723902357,
                -1.246450194879468,
                -1.6240029486371959,
                -1.265088547548911,
                0.0019693453837373864,
                -2.644119771908776
            ]
        },
        {
            "positions": [
                -0.3967661264427407,
                -1.292127389286498,
                -1.7212559295571859,
                -1.3364074731658313,
                -0.021483883847875418,
                -2.649423706907639
            ]
        },
        {
            "positions": [
                -0.2455948804952448,
                -1.3378045836935284,
                -1.8185089104771763,
                -1.4077263987827515,
                -0.04493711307948828,
                -2.6547276419065025
            ]
        },
        {
            "positions": [
                -0.09442363454774982,
                -1.3834817781005584,
                -1.9157618913971663,
                -1.4790453243996717,
                -0.06839034231110103,
                -2.6600315769053657
            ]
        },
        {
            "positions": [
                0.056747611399745504,
                -1.4291589725075888,
                -2.0130148723171564,
                -1.550364250016592,
                -0.09184357154271389,
                -2.665335511904229
            ]
        },
        {
            "positions": [
                0.030926090004649156,
                -1.480834556340948,
                -2.0763136835265583,
                -1.652379531724278,
                -0.10822256912606555,
                -2.7474905277967605
            ]
        },
        {
            "positions": [
                0.005104568609552808,
                -1.532510140174307,
                -2.1396124947359607,
                -1.754394813431964,
                -0.12460156670941722,
                -2.829645543689292
            ]
        },
        {
            "positions": [
                -0.02071695278554353,
                -1.5841857240076664,
                -2.2029113059453627,
                -1.8564100951396503,
                -0.14098056429276887,
                -2.911800559581823
            ]
        },
        {
            "positions": [
                -0.04653847418063989,
                -1.6358613078410256,
                -2.266210117154765,
                -1.9584253768473363,
                -0.15735956187612055,
                -2.9939555754743545
            ]
        },
        {
            "positions": [
                -0.07235999557573625,
                -1.6875368916743847,
                -2.329508928364167,
                -2.0604406585550223,
                -0.1737385594594722,
                -3.076110591366886
            ]
        },
        {
            "positions": [
                -0.18536480357454327,
                -1.7428828205099698,
                -2.3658712993828885,
                -2.1576490688665633,
                -0.17886269852932968,
                -3.163640177286337
            ]
        }
    ]
}