{
    "goal": {
        "global_pose": {
            "orientation": {
                "w": 0.7047431468963623,
                "x": -0.7094548344612122,
                "y": 0.0024358443915843964,
                "z": -0.0022348060738295317
            },
            "position": {
                "x": 0.6094750761985779,
                "y": 0.3671506643295288,
                "z": 0.19426114857196808
            }
        },
        "name": "move_to_magneteinheit_A"
    },
    "id": "FMT_move_to_magneteinheit_A_23",
    "joint_names": [
        "shoulder_pan_joint",
        "shoulder_lift_joint",
        "elbow_joint",
        "wrist_1_joint",
        "wrist_2_joint",
        "wrist_3_joint"
    ],
    "metrics": {
        "cart_traj_len": 4.963851214927756,
        "distance_elbow_joint": 4.300332945902231,
        "distance_shoulder_lift_joint": 0.4695142743192118,
        "distance_shoulder_pan_joint": 6.583837943211158,
        "distance_wrist_1_joint": 5.652627716015514,
        "distance_wrist_2_joint": 1.820653084974408,
        "distance_wrist_3_joint": 3.1893081471569955,
        "smoothness": 0.4140687691479332,
        "time": 1.3021966329999999,
        "traj_len": 4.6921502652386895,
        "weighted_distance": 5.9890041915900705
    },
    "planner": "FMT",
    "start": {
        "state": {
            "elbow_joint": -1.9196185241190666,
            "shoulder_lift_joint": -1.2443396400964142,
            "shoulder_pan_joint": 2.6996025414629847,
            "wrist_1_joint": -1.5485510000780065,
            "wrist_2_joint": -1.5709468930060704,
            "wrist_3_joint": 0.4420197071253992
        }
    },
    "waypoints": [
        {
            "positions": [
                2.6996025414629847,
                -1.2443396400964142,
                -1.9196185241190666,
                -1.5485510000780065,
                -1.5709468930060704,
                0.4420197071253992
            ]
        },
        {
            "positions": [
                2.5930694851605702,
                -1.2441460844706356,
                -1.8241623053020728,
                -1.4426385159695263,
                -1.532928163988903,
                0.4001241480396742
            ]
        },
        {
            "positions": [
                2.4865364288581557,
                -1.243952528844857,
                -1.728706086485079,
                -1.336726031861046,
                -1.4949094349717356,
                0.35822858895394927
            ]
        },
        {
            "positions": [
                2.3800033725557412,
                -1.2437589732190786,
                -1.633249867668085,
                -1.2308135477525661,
                -1.4568907059545682,
                0.3163330298682243
            ]
        },
        {
            "positions": [
                2.2734703162533267,
                -1.2435654175933,
                -1.5377936488510913,
                -1.124901063644086,
                -1.4188719769374005,
                0.27443747078249936
            ]
        },
        {
            "positions": [
                2.1669372599509122,
                -1.2433718619675214,
                -1.4423374300340974,
                -1.0189885795356057,
                -1.3808532479202331,
                0.23254191169677443
            ]
        },
        {
            "positions": [
                2.0604042036484977,
                -1.2431783063417428,
                -1.3468812112171036,
                -0.9130760954271256,
                -1.3428345189030657,
                0.19064635261104945
            ]
        },
        {
            "positions": [
                1.9538711473460832,
                -1.2429847507159644,
                -1.2514249924001097,
                -0.8071636113186453,
                -1.3048157898858983,
                0.1487507935253245
            ]
        },
        {
            "positions": [
                1.8473380910436688,
                -1.2427911950901858,
                -1.155968773583116,
                -0.7012511272101652,
                -1.266797060868731,
                0.10685523443959954
            ]
        },
        {
            "positions": [
                1.7408050347412543,
                -1.2425976394644072,
                -1.060512554766122,
                -0.595338643101685,
                -1.2287783318515635,
                0.06495967535387459
            ]
        },
        {
            "positions": [
                1.63427197843884,
                -1.2424040838386285,
                -0.9650563359491281,
                -0.48942615899320496,
                -1.190759602834396,
                0.023064116268149693
            ]
        },
        {
            "positions": [
                1.5277389221364253,
                -1.2422105282128502,
                -0.8696001171321341,
                -0.38351367488472476,
                -1.1527408738172285,
                -0.018831442817575317
            ]
        },
        {
            "positions": [
                1.421205865834011,
                -1.2420169725870716,
                -0.7741438983151405,
                -0.2776011907762448,
                -1.114722144800061,
                -0.06072700190330027
            ]
        },
        {
            "positions": [
                1.3146728095315965,
                -1.241823416961293,
                -0.6786876794981467,
                -0.1716887066677646,
                -1.0767034157828936,
                -0.10262256098902511
            ]
        },
        {
            "positions": [
                1.2081397532291818,
                -1.2416298613355143,
                -0.5832314606811526,
                -0.06577622255928417,
                -1.0386846867657262,
                -0.14451812007475018
            ]
        },
        {
            "positions": [
                1.1016066969267675,
                -1.2414363057097357,
                -0.48777524186415877,
                0.040136261549195806,
                -1.0006659577485588,
                -0.18641367916047513
            ]
        },
        {
            "positions": [
                0.995073640624353,
                -1.2412427500839573,
                -0.3923190230471649,
                0.146048745657676,
                -0.9626472287313914,
                -0.22830923824620009
            ]
        },
        {
            "positions": [
                0.8885405843219385,
                -1.2410491944581787,
                -0.2968628042301713,
                0.251961229766156,
                -0.924628499714224,
                -0.27020479733192493
            ]
        },
        {
            "positions": [
                0.7820075280195238,
                -1.2408556388324001,
                -0.20140658541317724,
                0.3578737138746364,
                -0.8866097706970565,
                -0.31210035641765
            ]
        },
        {
            "positions": [
                0.6754744717171093,
                -1.2406620832066215,
                -0.1059503665961834,
                0.4637861979831166,
                -0.8485910416798891,
                -0.35399591550337495
            ]
        },
        {
            "positions": [
                0.5689414154146952,
                -1.2404685275808431,
                -0.010494147779189555,
                0.5696986820915966,
                -0.8105723126627217,
                -0.3958914745890998
            ]
        },
        {
            "positions": [
                0.46240835911228073,
                -1.2402749719550645,
                0.08496207103780407,
                0.6756111662000766,
                -0.7725535836455542,
                -0.43778703367482474
            ]
        },
        {
            "positions": [
                0.3558753028098658,
                -1.240081416329286,
                0.18041828985479835,
                0.781523650308557,
                -0.7345348546283867,
                -0.4796825927605498
            ]
        },
        {
            "positions": [
                0.24934224650745174,
                -1.2398878607035073,
                0.27587450867179175,
                0.887436134417037,
                -0.6965161256112193,
                -0.5215781518462747
            ]
        },
        {
            "positions": [
                0.14280919020503724,
                -1.239694305077729,
                0.3713307274887856,
                0.9933486185255169,
                -0.6584973965940518,
                -0.5634737109319997
            ]
        },
        {
            "positions": [
                0.0362761339026223,
                -1.2395007494519503,
                0.4667869463057799,
                1.0992611026339973,
                -0.6204786675768844,
                -0.6053692700177246
            ]
        },
        {
            "positions": [
                -0.07025692239979175,
                -1.2393071938261717,
                0.5622431651227733,
                1.2051735867424773,
                -0.582459938559717,
                -0.6472648291034494
            ]
        },
        {
            "positions": [
                -0.17678997870220625,
                -1.239113638200393,
                0.6576993839397676,
                1.3110860708509577,
                -0.5444412095425495,
                -0.6891603881891745
            ]
        },
        {
            "positions": [
                -0.2833230350046212,
                -1.2389200825746147,
                0.7531556027567614,
                1.4169985549594382,
                -0.5064224805253821,
                -0.7310559472748995
            ]
        },
        {
            "positions": [
                -0.38985609130703525,
                -1.2387265269488361,
                0.8486118215737548,
                1.5229110390679177,
                -0.46840375150821467,
                -0.7729515063606244
            ]
        },
        {
            "positions": [
                -0.49638914760944974,
                -1.2385329713230575,
                0.9440680403907491,
                1.6288235231763981,
                -0.43038502249104726,
                -0.8148470654463494
            ]
        },
        {
            "positions": [
                -0.6029222039118642,
                -1.238339415697279,
                1.0395242592077425,
                1.734736007284878,
                -0.39236629347387986,
                -0.8567426245320743
            ]
        },
        {
            "positions": [
                -0.7094552602142787,
                -1.2381458600715003,
                1.1349804780247368,
                1.8406484913933585,
                -0.35434756445671245,
                -0.8986381836177993
            ]
        },
        {
            "positions": [
                -0.8159883165166937,
                -1.237952304445722,
                1.2304366968417306,
                1.9465609755018385,
                -0.3163288354395448,
                -0.9405337427035242
            ]
        },
        {
            "positions": [
                -0.9225213728191077,
                -1.2377587488199433,
                1.325892915658724,
                2.0524734596103187,
                -0.27831010642237763,
                -0.982429301789249
            ]
        },
        {
            "positions": [
                -1.0290544291215222,
                -1.2375651931941647,
                1.4213491344757183,
                2.158385943718799,
                -0.24029137740521,
                -1.024324860874974
            ]
        },
        {
            "positions": [
                -1.1355874854239372,
                -1.237371637568386,
                1.5168053532927122,
                2.2642984278272795,
                -0.2022726483880426,
                -1.066220419960699
            ]
        },
        {
            "positions": [
                -1.2421205417263512,
                -1.2371780819426077,
                1.612261572109706,
                2.370210911935759,
                -0.1642539193708752,
                -1.1081159790464241
            ]
        },
        {
            "positions": [
                -1.3486535980287662,
                -1.236984526316829,
                1.7077177909266998,
                2.4761233960442395,
                -0.12623519035370778,
                -1.1500115381321492
            ]
        },
        {
            "positions": [
                -1.4551866543311802,
                -1.2367909706910505,
                1.8031740097436932,
                2.582035880152719,
                -0.08821646133654037,
                -1.1919070972178738
            ]
        },
        {
            "positions": [
                -1.5617197106335943,
                -1.2365974150652719,
                1.8986302285606875,
                2.6879483642611994,
                -0.05019773231937297,
                -1.2338026563035989
            ]
        },
        {
            "positions": [
                -1.6682527669360092,
                -1.2364038594394935,
                1.9940864473776814,
                2.79386084836968,
                -0.012179003302205338,
                -1.275698215389324
            ]
        },
        {
            "positions": [
                -1.7747858232384233,
                -1.2362103038137149,
                2.0895426661946748,
                2.8997733324781594,
                0.02583972571496207,
                -1.3175937744750486
            ]
        },
        {
            "positions": [
                -1.8813188795408384,
                -1.2360167481879363,
                2.1849988850116686,
                3.0056858165866402,
                0.06385845473212948,
                -1.3594893335607736
            ]
        },
        {
            "positions": [
                -1.738253413668886,
                -1.2030745065871695,
                2.171019203813705,
                2.9272293237758635,
                0.05058361635811469,
                -1.2603608259557149
            ]
        },
        {
            "positions": [
                -1.5951879477969337,
                -1.1701322649864028,
                2.1570395226157406,
                2.8487728309650873,
                0.0373087779840999,
                -1.1612323183506563
            ]
        },
        {
            "positions": [
                -1.4521224819249814,
                -1.1371900233856362,
                2.143059841417777,
                2.7703163381543106,
                0.024033939610085105,
                -1.0621038107455976
            ]
        },
        {
            "positions": [
                -1.3090570160530288,
                -1.1042477817848695,
                2.129080160219813,
                2.6918598453435343,
                0.010759101236070316,
                -0.9629753031405389
            ]
        },
        {
            "positions": [
                -1.1659915501810765,
                -1.0713055401841027,
                2.115100479021849,
                2.6134033525327576,
                -0.0025157371379444793,
                -0.8638467955354803
            ]
        },
        {
            "positions": [
                -1.0229260843091241,
                -1.038363298583336,
                2.101120797823885,
                2.5349468597219813,
                -0.015790575511959268,
                -0.7647182879304216
            ]
        },
        {
            "positions": [
                -0.8798606184371718,
                -1.0054210569825694,
                2.0871411166259213,
                2.4564903669112046,
                -0.029065413885974056,
                -0.6655897803253629
            ]
        },
        {
            "positions": [
                -0.7367951525652194,
                -0.9724788153818027,
                2.073161435427957,
                2.3780338741004283,
                -0.042340252259988845,
                -0.5664612727203042
            ]
        },
        {
            "positions": [
                -0.5937296866932669,
                -0.9395365737810359,
                2.0591817542299933,
                2.2995773812896516,
                -0.05561509063400365,
                -0.46733276511524546
            ]
        },
        {
            "positions": [
                -0.4506642208213145,
                -0.9065943321802692,
                2.0452020730320295,
                2.2211208884788753,
                -0.06888992900801844,
                -0.3682042575101868
            ]
        },
        {
            "positions": [
                -0.3075987549493624,
                -0.8736520905795025,
                2.0312223918340653,
                2.1426643956680986,
                -0.08216476738203321,
                -0.26907574990512817
            ]
        },
        {
            "positions": [
                -0.16453328907741005,
                -0.8407098489787359,
                2.0172427106361015,
                2.0642079028573224,
                -0.09543960575604801,
                -0.16994724230006963
            ]
        },
        {
            "positions": [
                -0.02146782320545748,
                -0.8077676073779692,
                2.0032630294381377,
                1.9857514100465457,
                -0.10871444413006282,
                -0.07081873469501065
            ]
        },
        {
            "positions": [
                0.12159764266649487,
                -0.7748253657772024,
                1.9892833482401737,
                1.9072949172357692,
                -0.12198928250407758,
                0.028309772910047888
            ]
        }
    ]
}