{
    "goal": {
        "global_pose": {
            "orientation": {
                "w": 0.5084816217422485,
                "x": -0.49083608388900757,
                "y": 0.5182115435600281,
                "z": -0.4816462993621826
            },
            "position": {
                "x": 0.5540239810943604,
                "y": 0.030875300988554955,
                "z": 0.16403168439865112
            }
        },
        "name": "move_to_storage_A"
    },
    "id": "FMT_move_to_storage_A_127",
    "joint_names": [
        "shoulder_pan_joint",
        "shoulder_lift_joint",
        "elbow_joint",
        "wrist_1_joint",
        "wrist_2_joint",
        "wrist_3_joint"
    ],
    "metrics": {
        "cart_traj_len": 0.35275112651977825,
        "distance_elbow_joint": 0.4486427671701587,
        "distance_shoulder_lift_joint": 0.23284804536211956,
        "distance_shoulder_pan_joint": 0.46054405887475763,
        "distance_wrist_1_joint": 0.2446233439429003,
        "distance_wrist_2_joint": 1.099943673739869,
        "distance_wrist_3_joint": 0.09389099171169368,
        "smoothness": 2.2204460668324854e-16,
        "time": 0.49125311899999996,
        "traj_len": 1.6063912601858548,
        "weighted_distance": 2.028014270637082
    },
    "planner": "FMT",
    "start": {
        "state": {
            "elbow_joint": 1.971548259319323,
            "shoulder_lift_joint": -1.1394851275133948,
            "shoulder_pan_joint": 0.1228115487234821,
            "wrist_1_joint": -0.7804723859257726,
            "wrist_2_joint": 0.12958671773740124,
            "wrist_3_joint": -3.192489227718131
        }
    },
    "waypoints": [
        {
            "positions": [
                0.1228115487234821,
                -1.1394851275133948,
                1.971548259319323,
                -0.7804723859257726,
                0.12958671773740124,
                -3.192489227718131
            ]
        },
        {
            "positions": [
                0.057019540312802444,
                -1.1727491339936975,
                2.035640083200774,
                -0.8154185779176155,
                0.2867215282716682,
                -3.179076228902175
            ]
        },
        {
            "positions": [
                -0.008772468097877212,
                -1.2060131404740004,
                2.0997319070822256,
                -0.8503647699094584,
                0.4438563388059352,
                -3.165663230086219
            ]
        },
        {
            "positions": [
                -0.07456447650855688,
                -1.2392771469543031,
                2.1638237309636765,
                -0.8853109619013013,
                0.6009911493402021,
                -3.1522502312702625
            ]
        },
        {
            "positions": [
                -0.14035648491923652,
                -1.272541153434606,
                2.227915554845128,
                -0.9202571538931442,
                0.7581259598744692,
                -3.138837232454306
            ]
        },
        {
            "positions": [
                -0.2061484933299162,
                -1.3058051599149088,
                2.2920073787265793,
                -0.9552033458849871,
                0.9152607704087362,
                -3.1254242336383498
            ]
        },
        {
            "positions": [
                -0.27194050174059586,
                -1.3390691663952117,
                2.3560992026080303,
                -0.99014953787683,
                1.072395580943003,
                -3.112011234822394
            ]
        },
        {
            "positions": [
                -0.33773251015127553,
                -1.3723331728755144,
                2.4201910264894817,
                -1.025095729868673,
                1.2295303914772702,
                -3.0985982360064375
            ]
        }
    ]
}{
    "goal": {
        "global_pose": {
            "orientation": {
                "w": 0.5084816217422485,
                "x": -0.49083608388900757,
                "y": 0.5182115435600281,
                "z": -0.4816462993621826
            },
            "position": {
                "x": 0.5540239810943604,
                "y": 0.030875300988554955,
                "z": 0.16403168439865112
            }
        },
        "name": "move_to_storage_A"
    },
    "id": "FMT_move_to_storage_A_127",
    "joint_names": [
        "shoulder_pan_joint",
        "shoulder_lift_joint",
        "elbow_joint",
        "wrist_1_joint",
        "wrist_2_joint",
        "wrist_3_joint"
    ],
    "metrics": {
        "cart_traj_len": 0.35277603505327215,
        "distance_elbow_joint": 0.4490005895040725,
        "distance_shoulder_lift_joint": 0.2339333630258349,
        "distance_shoulder_pan_joint": 0.4615009870982107,
        "distance_wrist_1_joint": 0.23710355595293886,
        "distance_wrist_2_joint": 1.097308240920066,
        "distance_wrist_3_joint": 0.08703943708934547,
        "smoothness": 6.661338165333112e-16,
        "time": 0.42703592,
        "traj_len": 1.6018383731171097,
        "weighted_distance": 2.01850856937546
    },
    "planner": "FMT",
    "start": {
        "state": {
            "elbow_joint": 1.97154746011099,
            "shoulder_lift_joint": -1.13948474672311,
            "shoulder_pan_joint": 0.12281154466712228,
            "wrist_1_joint": -0.7804688027058302,
            "wrist_2_joint": 0.12958655903071145,
            "wrist_3_joint": 3.0906928834467795
        }
    },
    "waypoints": [
        {
            "positions": [
                0.12281154466712228,
                -1.13948474672311,
                1.97154746011099,
                -0.7804688027058302,
                0.12958655903071145,
                3.0906928834467795
            ]
        },
        {
            "positions": [
                0.05688283222452076,
                -1.1729037985839434,
                2.0356904014687145,
                -0.8143407392705357,
                0.28634487916214946,
                3.1031270887452576
            ]
        },
        {
            "positions": [
                -0.009045880218080768,
                -1.2063228504447772,
                2.099833342826439,
                -0.8482126758352413,
                0.44310319929358744,
                3.115561294043735
            ]
        },
        {
            "positions": [
                -0.07497459266068228,
                -1.2397419023056107,
                2.1639762841841637,
                -0.8820846123999468,
                0.5998615194250254,
                3.127995499342213
            ]
        },
        {
            "positions": [
                -0.1409033051032838,
                -1.2731609541664441,
                2.2281192255418887,
                -0.9159565489646524,
                0.7566198395564635,
                3.1404297046406913
            ]
        },
        {
            "positions": [
                -0.20683201754588537,
                -1.3065800060272776,
                2.2922621668996133,
                -0.949828485529358,
                0.9133781596879016,
                3.1528639099391693
            ]
        },
        {
            "positions": [
                -0.2727607299884868,
                -1.3399990578881114,
                2.356405108257338,
                -0.9837004220940635,
                1.0701364798193393,
                3.165298115237647
            ]
        },
        {
            "positions": [
                -0.3386894424310884,
                -1.3734181097489448,
                2.4205480496150624,
                -1.017572358658769,
                1.2268947999507775,
                3.177732320536125
            ]
        }
    ]
}{
    "goal": {
        "global_pose": {
            "orientation": {
                "w": 0.5084816217422485,
                "x": -0.49083608388900757,
                "y": 0.5182115435600281,
                "z": -0.4816462993621826
            },
            "position": {
                "x": 0.5540239810943604,
                "y": 0.030875300988554955,
                "z": 0.16403168439865112
            }
        },
        "name": "move_to_storage_A"
    },
    "id": "FMT_move_to_storage_A_127",
    "joint_names": [
        "shoulder_pan_joint",
        "shoulder_lift_joint",
        "elbow_joint",
        "wrist_1_joint",
        "wrist_2_joint",
        "wrist_3_joint"
    ],
    "metrics": {
        "cart_traj_len": 0.353572816169159,
        "distance_elbow_joint": 0.44851320778776627,
        "distance_shoulder_lift_joint": 0.23485679109556523,
        "distance_shoulder_pan_joint": 0.4644806090631005,
        "distance_wrist_1_joint": 0.2361839158935577,
        "distance_wrist_2_joint": 1.090572820039571,
        "distance_wrist_3_joint": 0.10528208901501745,
        "smoothness": 4.440892098500626e-16,
        "time": 0.388762111,
        "traj_len": 1.6062034220155859,
        "weighted_distance": 2.0290910149270633
    },
    "planner": "FMT",
    "start": {
        "state": {
            "elbow_joint": 1.9715472970024885,
            "shoulder_lift_joint": -1.1394870060712896,
            "shoulder_pan_joint": 0.12281152778156021,
            "wrist_1_joint": -0.780463741449964,
            "wrist_2_joint": 0.12958659822042276,
            "wrist_3_joint": 3.090690232415272
        }
    },
    "waypoints": [
        {
            "positions": [
                0.12281152778156021,
                -1.1394870060712896,
                1.9715472970024885,
                -0.780463741449964,
                0.12958659822042276,
                3.090690232415272
            ]
        },
        {
            "positions": [
                0.05645715505826014,
                -1.173037976227799,
                2.035620612400741,
                -0.8142043008633294,
                0.2853827153689329,
                3.105730530845989
            ]
        },
        {
            "positions": [
                -0.009897217665039926,
                -1.2065889463843082,
                2.099693927798993,
                -0.8479448602766948,
                0.44117883251744305,
                3.1207708292767053
            ]
        },
        {
            "positions": [
                -0.07625159038834001,
                -1.2401399165408176,
                2.1637672431972454,
                -0.8816854196900601,
                0.5969749496659532,
                3.1358111277074223
            ]
        },
        {
            "positions": [
                -0.14260596311164006,
                -1.2736908866973269,
                2.227840558595498,
                -0.9154259791034255,
                0.7527710668144633,
                3.150851426138139
            ]
        },
        {
            "positions": [
                -0.20896033583494014,
                -1.3072418568538362,
                2.2919138739937504,
                -0.9491665385167909,
                0.9085671839629734,
                3.165891724568856
            ]
        },
        {
            "positions": [
                -0.27531470855824025,
                -1.3407928270103455,
                2.3559871893920024,
                -0.9829070979301563,
                1.0643633011114837,
                3.1809320229995723
            ]
        },
        {
            "positions": [
                -0.3416690812815403,
                -1.3743437971668548,
                2.420060504790255,
                -1.0166476573435217,
                1.2201594182599937,
                3.1959723214302893
            ]
        }
    ]
}