{
    "goal": {
        "global_pose": {
            "orientation": {
                "w": -0.4816463035849501,
                "x": 0.5182115481033762,
                "y": 0.4908360881923453,
                "z": -0.5084816262002911
            },
            "position": {
                "x": -0.8240239810943604,
                "y": 0.19912469901144506,
                "z": 0.16403168439865112
            }
        },
        "name": "move_to_storage_D"
    },
    "id": "FMT_move_to_storage_D_36",
    "joint_names": [
        "shoulder_pan_joint",
        "shoulder_lift_joint",
        "elbow_joint",
        "wrist_1_joint",
        "wrist_2_joint",
        "wrist_3_joint"
    ],
    "metrics": {
        "cart_traj_len": 0.5383562956361746,
        "distance_elbow_joint": 0.555187210473834,
        "distance_shoulder_lift_joint": 0.15164757801492357,
        "distance_shoulder_pan_joint": 0.15220682880023914,
        "distance_wrist_1_joint": 3.8263049875669592,
        "distance_wrist_2_joint": 1.7765773734940005,
        "distance_wrist_3_joint": 3.1312187809520577,
        "smoothness": 9.539694148108474e-16,
        "time": 1.3244736179999999,
        "traj_len": 3.097279896829154,
        "weighted_distance": 4.632327998130864
    },
    "planner": "FMT",
    "start": {
        "state": {
            "elbow_joint": -2.384821988534728,
            "shoulder_lift_joint": -2.2788054721415256,
            "shoulder_pan_joint": -0.1854694642142757,
            "wrist_1_joint": 1.4845938289331202,
            "wrist_2_joint": 0.17898776772866878,
            "wrist_3_joint": 0.037105688729662994
        }
    },
    "waypoints": [
        {
            "positions": [
                -0.1854694642142757,
                -2.2788054721415256,
                -2.384821988534728,
                1.4845938289331202,
                0.17898776772866878,
                0.037105688729662994
            ]
        },
        {
            "positions": [
                -0.18303596970290786,
                -2.2727266682217455,
                -2.375112067575825,
                1.4144907992679925,
                0.09295928600873411,
                -0.11960785286595446
            ]
        },
        {
            "positions": [
                -0.18060247519154005,
                -2.2666478643019654,
                -2.3654021466169226,
                1.344387769602865,
                0.0069308042887994414,
                -0.2763213944615719
            ]
        },
        {
            "positions": [
                -0.1781689806801722,
                -2.260569060382185,
                -2.3556922256580197,
                1.2742847399377373,
                -0.07909767743113524,
                -0.43303493605718935
            ]
        },
        {
            "positions": [
                -0.17573548616880436,
                -2.2544902564624048,
                -2.345982304699117,
                1.2041817102726098,
                -0.1651261591510699,
                -0.5897484776528068
            ]
        },
        {
            "positions": [
                -0.17330199165743654,
                -2.2484114525426246,
                -2.3362723837402144,
                1.134078680607482,
                -0.2511546408710046,
                -0.7464620192484243
            ]
        },
        {
            "positions": [
                -0.1708684971460687,
                -2.2423326486228445,
                -2.3265624627813115,
                1.0639756509423544,
                -0.3371831225909393,
                -0.9031755608440417
            ]
        },
        {
            "positions": [
                -0.1639882040594671,
                -2.2365739108980325,
                -2.3017160785452906,
                0.8936913104635447,
                -0.4002034467496589,
                -1.0127224374129593
            ]
        },
        {
            "positions": [
                -0.15710791097286547,
                -2.2308151731732204,
                -2.2768696943092697,
                0.723406969984735,
                -0.4632237709083785,
                -1.1222693139818771
            ]
        },
        {
            "positions": [
                -0.15022761788626388,
                -2.2250564354484084,
                -2.2520233100732487,
                0.5531226295059253,
                -0.5262440950670981,
                -1.2318161905507945
            ]
        },
        {
            "positions": [
                -0.14334732479966228,
                -2.219297697723596,
                -2.227176925837228,
                0.3828382890271156,
                -0.5892644192258177,
                -1.3413630671197123
            ]
        },
        {
            "positions": [
                -0.13646703171306065,
                -2.213538959998784,
                -2.2023305416012073,
                0.2125539485483059,
                -0.6522847433845373,
                -1.45090994368863
            ]
        },
        {
            "positions": [
                -0.12958673862645906,
                -2.2077802222739717,
                -2.1774841573651864,
                0.0422696080694962,
                -0.715305067543257,
                -1.5604568202575475
            ]
        },
        {
            "positions": [
                -0.12270644553985746,
                -2.2020214845491597,
                -2.1526377731291655,
                -0.1280147324093135,
                -0.7783253917019766,
                -1.670003696826465
            ]
        },
        {
            "positions": [
                -0.11582615245325584,
                -2.1962627468243476,
                -2.1277913888931446,
                -0.2982990728881232,
                -0.8413457158606962,
                -1.779550573395383
            ]
        },
        {
            "positions": [
                -0.10894585936665424,
                -2.1905040090995356,
                -2.1029450046571236,
                -0.4685834133669329,
                -0.9043660400194158,
                -1.8890974499643005
            ]
        },
        {
            "positions": [
                -0.10206556628005263,
                -2.184745271374723,
                -2.0780986204211027,
                -0.6388677538457426,
                -0.9673863641781354,
                -1.998644326533218
            ]
        },
        {
            "positions": [
                -0.09518527319345102,
                -2.178986533649911,
                -2.053252236185082,
                -0.8091520943245525,
                -1.0304066883368552,
                -2.1081912031021357
            ]
        },
        {
            "positions": [
                -0.08830498010684942,
                -2.173227795925099,
                -2.028405851949061,
                -0.979436434803362,
                -1.0934270124955745,
                -2.2177380796710535
            ]
        },
        {
            "positions": [
                -0.08142468702024781,
                -2.167469058200287,
                -2.00355946771304,
                -1.1497207752821716,
                -1.1564473366542942,
                -2.3272849562399713
            ]
        },
        {
            "positions": [
                -0.07454439393364622,
                -2.161710320475475,
                -1.9787130834770192,
                -1.3200051157609813,
                -1.2194676608130137,
                -2.4368318328088883
            ]
        },
        {
            "positions": [
                -0.0676641008470446,
                -2.155951582750663,
                -1.9538666992409983,
                -1.490289456239791,
                -1.2824879849717334,
                -2.546378709377806
            ]
        },
        {
            "positions": [
                -0.06078380776044298,
                -2.1501928450258507,
                -1.9290203150049774,
                -1.6605737967186007,
                -1.345508309130453,
                -2.655925585946724
            ]
        },
        {
            "positions": [
                -0.053903514673841385,
                -2.1444341073010382,
                -1.9041739307689567,
                -1.8308581371974104,
                -1.4085286332891727,
                -2.7654724625156417
            ]
        },
        {
            "positions": [
                -0.047023221587239775,
                -2.138675369576226,
                -1.8793275465329358,
                -2.00114247767622,
                -1.4715489574478924,
                -2.8750193390845595
            ]
        },
        {
            "positions": [
                -0.04014292850063819,
                -2.132916631851414,
                -1.8544811622969148,
                -2.17142681815503,
                -1.5345692816066117,
                -2.9845662156534765
            ]
        },
        {
            "positions": [
                -0.03326263541403656,
                -2.127157894126602,
                -1.829634778060894,
                -2.3417111586338395,
                -1.5975896057653316,
                -3.0941130922223947
            ]
        }
    ]
}