{
    "goal": {
        "global_pose": {
            "orientation": {
                "w": 0.005598929693374612,
                "x": 0.007748599140229565,
                "y": 0.7110244013736278,
                "z": -0.7031023480610252
            },
            "position": {
                "x": 0.1141497679147869,
                "y": -0.7141253447532654,
                "z": 0.3711530566215515
            }
        },
        "name": "move_to_auspresseinheit_B"
    },
    "id": "FMT_move_to_auspresseinheit_B_71",
    "joint_names": [
        "shoulder_pan_joint",
        "shoulder_lift_joint",
        "elbow_joint",
        "wrist_1_joint",
        "wrist_2_joint",
        "wrist_3_joint"
    ],
    "metrics": {
        "cart_traj_len": 0.5637395490547772,
        "distance_elbow_joint": 0.06029747464607094,
        "distance_shoulder_lift_joint": 0.29466245488102305,
        "distance_shoulder_pan_joint": 0.5777368443091138,
        "distance_wrist_1_joint": 0.32174201997278107,
        "distance_wrist_2_joint": 0.9864371007894952,
        "distance_wrist_3_joint": 0.001981907131584304,
        "smoothness": 2.5376526478085547e-16,
        "time": 0.478679649,
        "traj_len": 1.497617374942635,
        "weighted_distance": 1.8854709588735419
    },
    "planner": "FMT",
    "start": {
        "state": {
            "elbow_joint": 2.0193083361928714,
            "shoulder_lift_joint": -1.1220246554650708,
            "shoulder_pan_joint": -1.0952077554168747,
            "wrist_1_joint": -0.8559753972642168,
            "wrist_2_joint": 0.4759566250798843,
            "wrist_3_joint": -3.1240929996934557
        }
    },
    "waypoints": [
        {
            "positions": [
                -1.0952077554168747,
                -1.1220246554650708,
                2.0193083361928714,
                -0.8559753972642168,
                0.4759566250798843,
                -3.1240929996934557
            ]
        },
        {
            "positions": [
                -1.1914972294683936,
                -1.1711350646119079,
                2.0092587570851927,
                -0.8023517272687533,
                0.6403628085448001,
                -3.12442331754872
            ]
        },
        {
            "positions": [
                -1.2877867035199126,
                -1.2202454737587451,
                1.9992091779775145,
                -0.7487280572732897,
                0.8047689920097161,
                -3.1247536354039838
            ]
        },
        {
            "positions": [
                -1.3840761775714316,
                -1.2693558829055824,
                1.9891595988698358,
                -0.6951043872778262,
                0.9691751754746318,
                -3.1250839532592476
            ]
        },
        {
            "positions": [
                -1.4803656516229504,
                -1.3184662920524195,
                1.9791100197621574,
                -0.6414807172823628,
                1.1335813589395478,
                -3.125414271114512
            ]
        },
        {
            "positions": [
                -1.5766551256744694,
                -1.3675767011992566,
                1.969060440654479,
                -0.5878570472868991,
                1.2979875424044636,
                -3.125744588969776
            ]
        },
        {
            "positions": [
                -1.6729445997259884,
                -1.4166871103460938,
                1.9590108615468005,
                -0.5342333772914357,
                1.4623937258693795,
                -3.12607490682504
            ]
        }
    ]
}