{
    "goal": {
        "global_pose": {
            "orientation": {
                "w": 0.5084816262002911,
                "x": -0.4908360881923452,
                "y": 0.5182115481033761,
                "z": -0.48164630358495003
            },
            "position": {
                "x": 0.5540239810943604,
                "y": -0.46912469901144505,
                "z": 0.16403168439865112
            }
        },
        "name": "move_to_storage_B"
    },
    "id": "FMT_move_to_storage_B_102",
    "joint_names": [
        "shoulder_pan_joint",
        "shoulder_lift_joint",
        "elbow_joint",
        "wrist_1_joint",
        "wrist_2_joint",
        "wrist_3_joint"
    ],
    "metrics": {
        "cart_traj_len": 0.7032697120120626,
        "distance_elbow_joint": 0.35110449041987213,
        "distance_shoulder_lift_joint": 0.45809138616934986,
        "distance_shoulder_pan_joint": 0.42302874734882556,
        "distance_wrist_1_joint": 2.9939895917380164,
        "distance_wrist_2_joint": 2.6998416206863936,
        "distance_wrist_3_joint": 3.1344536868165975,
        "smoothness": 0.04368916748690062,
        "time": 1.37604168,
        "traj_len": 3.1718306264961647,
        "weighted_distance": 4.692893362227258
    },
    "planner": "FMT",
    "start": {
        "state": {
            "elbow_joint": 1.664937868594044,
            "shoulder_lift_joint": -0.661644460510453,
            "shoulder_pan_joint": -0.9139846352900073,
            "wrist_1_joint": 2.146753192139373,
            "wrist_2_joint": -2.2341966793290973,
            "wrist_3_joint": 0.005466555786416001
        }
    },
    "waypoints": [
        {
            "positions": [
                -0.9139846352900073,
                -0.661644460510453,
                1.664937868594044,
                2.146753192139373,
                -2.2341966793290973,
                0.005466555786416001
            ]
        },
        {
            "positions": [
                -0.8536084291850672,
                -0.6955017112680417,
                1.6863754309111139,
                2.140359952780644,
                -2.184435050343404,
                -0.12792915358670817
            ]
        },
        {
            "positions": [
                -0.7932322230801272,
                -0.7293589620256303,
                1.7078129932281838,
                2.133966713421915,
                -2.13467342135771,
                -0.2613248629598323
            ]
        },
        {
            "positions": [
                -0.8058270703775833,
                -0.7456246655528875,
                1.720655883469256,
                2.0097499170460584,
                -2.026326822911251,
                -0.38081079079609687
            ]
        },
        {
            "positions": [
                -0.8184219176750394,
                -0.7618903690801447,
                1.7334987737103282,
                1.8855331206702017,
                -1.9179802244647928,
                -0.5002967186323615
            ]
        },
        {
            "positions": [
                -0.8310167649724953,
                -0.7781560726074019,
                1.7463416639514002,
                1.761316324294345,
                -1.809633626018334,
                -0.619782646468626
            ]
        },
        {
            "positions": [
                -0.8436116122699514,
                -0.794421776134659,
                1.7591845541924724,
                1.6370995279184886,
                -1.7012870275718757,
                -0.7392685743048906
            ]
        },
        {
            "positions": [
                -0.8562064595674075,
                -0.8106874796619162,
                1.7720274444335447,
                1.512882731542632,
                -1.592940429125417,
                -0.8587545021411551
            ]
        },
        {
            "positions": [
                -0.8688013068648636,
                -0.8269531831891734,
                1.7848703346746169,
                1.3886659351667754,
                -1.4845938306789583,
                -0.9782404299774197
            ]
        },
        {
            "positions": [
                -0.8813961541623196,
                -0.8432188867164306,
                1.797713224915689,
                1.2644491387909187,
                -1.3762472322324997,
                -1.0977263578136842
            ]
        },
        {
            "positions": [
                -0.8939910014597757,
                -0.8594845902436878,
                1.8105561151567613,
                1.1402323424150622,
                -1.2679006337860412,
                -1.2172122856499488
            ]
        },
        {
            "positions": [
                -0.9065858487572318,
                -0.875750293770945,
                1.8233990053978335,
                1.0160155460392057,
                -1.1595540353395826,
                -1.3366982134862133
            ]
        },
        {
            "positions": [
                -0.9191806960546878,
                -0.8920159972982022,
                1.8362418956389055,
                0.891798749663349,
                -1.051207436893124,
                -1.4561841413224779
            ]
        },
        {
            "positions": [
                -0.9317755433521439,
                -0.9082817008254593,
                1.8490847858799777,
                0.7675819532874926,
                -0.9428608384466655,
                -1.5756700691587424
            ]
        },
        {
            "positions": [
                -0.9443703906495999,
                -0.9245474043527167,
                1.86192767612105,
                0.6433651569116359,
                -0.8345142400002068,
                -1.695155996995007
            ]
        },
        {
            "positions": [
                -0.956965237947056,
                -0.9408131078799737,
                1.8747705663621221,
                0.5191483605357794,
                -0.7261676415537484,
                -1.8146419248312715
            ]
        },
        {
            "positions": [
                -0.9695600852445121,
                -0.9570788114072311,
                1.8876134566031944,
                0.3949315641599227,
                -0.6178210431072895,
                -1.934127852667536
            ]
        },
        {
            "positions": [
                -0.9821549325419681,
                -0.9733445149344881,
                1.9004563468442663,
                0.270714767784066,
                -0.509474444660831,
                -2.0536137805038006
            ]
        },
        {
            "positions": [
                -0.9947497798394241,
                -0.9896102184617454,
                1.9132992370853386,
                0.14649797140820953,
                -0.4011278462143726,
                -2.173099708340065
            ]
        },
        {
            "positions": [
                -1.0073446271368802,
                -1.0058759219890026,
                1.9261421273264108,
                0.02228117503235305,
                -0.2927812477679137,
                -2.2925856361763297
            ]
        },
        {
            "positions": [
                -1.0199394744343362,
                -1.0221416255162596,
                1.938985017567483,
                -0.10193562134350342,
                -0.18443464932145526,
                -2.412071564012594
            ]
        },
        {
            "positions": [
                -1.0325343217317924,
                -1.038407329043517,
                1.9518279078085552,
                -0.22615241771936034,
                -0.0760880508749966,
                -2.5315574918488584
            ]
        },
        {
            "positions": [
                -1.0451291690292486,
                -1.054673032570774,
                1.9646707980496274,
                -0.3503692140952168,
                0.03225854757146207,
                -2.651043419685123
            ]
        },
        {
            "positions": [
                -1.0577240163267045,
                -1.0709387360980314,
                1.9775136882906996,
                -0.4745860104710733,
                0.1406051460179203,
                -2.770529347521388
            ]
        },
        {
            "positions": [
                -1.0703188636241605,
                -1.0872044396252885,
                1.9903565785317716,
                -0.5988028068469298,
                0.24895174446437895,
                -2.8900152753576522
            ]
        },
        {
            "positions": [
                -1.0829137109216167,
                -1.1034701431525458,
                2.003199468772844,
                -0.7230196032227867,
                0.3572983429108376,
                -3.009501203193917
            ]
        },
        {
            "positions": [
                -1.0955085582190727,
                -1.1197358466798029,
                2.016042359013916,
                -0.8472363995986432,
                0.4656449413572961,
                -3.1289871310301813
            ]
        }
    ]
}