{
    "goal": {
        "global_pose": {
            "orientation": {
                "w": 0.005598929693374612,
                "x": 0.007748599140229565,
                "y": 0.7110244013736278,
                "z": -0.7031023480610252
            },
            "position": {
                "x": -0.8858502320852131,
                "y": -0.7141253447532654,
                "z": 0.3711530566215515
            }
        },
        "name": "move_to_auspresseinheit_C"
    },
    "id": "FMT_move_to_auspresseinheit_C_87",
    "joint_names": [
        "shoulder_pan_joint",
        "shoulder_lift_joint",
        "elbow_joint",
        "wrist_1_joint",
        "wrist_2_joint",
        "wrist_3_joint"
    ],
    "metrics": {
        "cart_traj_len": 0.4929472263641382,
        "distance_elbow_joint": 0.9911244876849293,
        "distance_shoulder_lift_joint": 0.3211877159685256,
        "distance_shoulder_pan_joint": 0.2571056229932349,
        "distance_wrist_1_joint": 0.6596044447778694,
        "distance_wrist_2_joint": 1.3070865284630553,
        "distance_wrist_3_joint": 0.043618430400070185,
        "smoothness": 6.459479416000911e-16,
        "time": 0.482316819,
        "traj_len": 1.8920167098331042,
        "weighted_distance": 2.3735321915509697
    },
    "planner": "FMT",
    "start": {
        "state": {
            "elbow_joint": 1.7527959577737207,
            "shoulder_lift_joint": -0.9740617694225068,
            "shoulder_pan_joint": -2.967991417825858,
            "wrist_1_joint": -0.759517768980727,
            "wrist_2_joint": 1.7443932448377408,
            "wrist_3_joint": -3.0840537646736568
        }
    },
    "waypoints": [
        {
            "positions": [
                -2.967991417825858,
                -0.9740617694225068,
                1.7527959577737207,
                -0.759517768980727,
                1.7443932448377408,
                -3.0840537646736568
            ]
        },
        {
            "positions": [
                -2.9422808555265343,
                -0.9419429978256542,
                1.6536835090052278,
                -0.69355732450294,
                1.6136845919914353,
                -3.0884156077136637
            ]
        },
        {
            "positions": [
                -2.916570293227211,
                -0.9098242262288017,
                1.5545710602367349,
                -0.6275968800251531,
                1.4829759391451298,
                -3.0927774507536707
            ]
        },
        {
            "positions": [
                -2.8908597309278874,
                -0.8777054546319492,
                1.455458611468242,
                -0.5616364355473662,
                1.3522672862988243,
                -3.0971392937936777
            ]
        },
        {
            "positions": [
                -2.865149168628564,
                -0.8455866830350965,
                1.3563461626997488,
                -0.4956759910695792,
                1.2215586334525188,
                -3.1015011368336847
            ]
        },
        {
            "positions": [
                -2.8394386063292405,
                -0.8134679114382439,
                1.257233713931256,
                -0.4297155465917923,
                1.090849980606213,
                -3.1058629798736916
            ]
        },
        {
            "positions": [
                -2.813728044029917,
                -0.7813491398413914,
                1.158121265162763,
                -0.36375510211400536,
                0.9601413277599077,
                -3.110224822913699
            ]
        },
        {
            "positions": [
                -2.7880174817305936,
                -0.7492303682445389,
                1.0590088163942701,
                -0.29779465763621843,
                0.8294326749136022,
                -3.114586665953706
            ]
        },
        {
            "positions": [
                -2.76230691943127,
                -0.7171115966476863,
                0.9598963676257771,
                -0.23183421315843145,
                0.6987240220672966,
                -3.118948508993713
            ]
        },
        {
            "positions": [
                -2.7365963571319467,
                -0.6849928250508337,
                0.8607839188572842,
                -0.16587376868064452,
                0.568015369220991,
                -3.12331035203372
            ]
        },
        {
            "positions": [
                -2.710885794832623,
                -0.6528740534539812,
                0.7616714700887913,
                -0.09991332420285756,
                0.43730671637468554,
                -3.127672195073727
            ]
        }
    ]
}