{
    "goal": {
        "global_pose": {
            "orientation": {
                "w": 0.005598929693374612,
                "x": 0.007748599140229565,
                "y": 0.7110244013736278,
                "z": -0.7031023480610252
            },
            "position": {
                "x": -0.8858502320852131,
                "y": -0.7141253447532654,
                "z": 0.3711530566215515
            }
        },
        "name": "move_to_auspresseinheit_C"
    },
    "id": "FMT_move_to_auspresseinheit_C_36",
    "joint_names": [
        "shoulder_pan_joint",
        "shoulder_lift_joint",
        "elbow_joint",
        "wrist_1_joint",
        "wrist_2_joint",
        "wrist_3_joint"
    ],
    "metrics": {
        "cart_traj_len": 0.4923118260843246,
        "distance_elbow_joint": 0.9950496162464307,
        "distance_shoulder_lift_joint": 0.32308124684865025,
        "distance_shoulder_pan_joint": 0.25548083520524445,
        "distance_wrist_1_joint": 0.66320625002961,
        "distance_wrist_2_joint": 1.3199043790062412,
        "distance_wrist_3_joint": 0.04799993504189537,
        "smoothness": 4.844609574787718e-16,
        "time": 0.5401124580000001,
        "traj_len": 1.8986106136799277,
        "weighted_distance": 2.3840790174609805
    },
    "planner": "FMT",
    "start": {
        "state": {
            "elbow_joint": 1.7527959577737207,
            "shoulder_lift_joint": -0.9740617694225068,
            "shoulder_pan_joint": -2.967991417825858,
            "wrist_1_joint": -0.759517768980727,
            "wrist_2_joint": 1.7443932448377408,
            "wrist_3_joint": -3.0840537646736568
        }
    },
    "waypoints": [
        {
            "positions": [
                -2.967991417825858,
                -0.9740617694225068,
                1.7527959577737207,
                -0.759517768980727,
                1.7443932448377408,
                -3.0840537646736568
            ]
        },
        {
            "positions": [
                -2.9424433343053336,
                -0.9417536447376418,
                1.6532909961490776,
                -0.693197143977766,
                1.6124028069371168,
                -3.088853758177846
            ]
        },
        {
            "positions": [
                -2.916895250784809,
                -0.9094455200527767,
                1.5537860345244345,
                -0.626876518974805,
                1.4804123690364925,
                -3.093653751682036
            ]
        },
        {
            "positions": [
                -2.8913471672642848,
                -0.8771373953679117,
                1.4542810728997915,
                -0.560555893971844,
                1.3484219311358685,
                -3.0984537451862253
            ]
        },
        {
            "positions": [
                -2.8657990837437604,
                -0.8448292706830467,
                1.3547761112751484,
                -0.494235268968883,
                1.2164314932352442,
                -3.103253738690415
            ]
        },
        {
            "positions": [
                -2.840251000223236,
                -0.8125211459981816,
                1.2552711496505053,
                -0.427914643965922,
                1.0844410553346202,
                -3.1080537321946045
            ]
        },
        {
            "positions": [
                -2.814702916702711,
                -0.7802130213133166,
                1.1557661880258623,
                -0.361594018962961,
                0.9524506174339961,
                -3.112853725698794
            ]
        },
        {
            "positions": [
                -2.7891548331821867,
                -0.7479048966284516,
                1.0562612264012192,
                -0.29527339396,
                0.820460179533372,
                -3.1176537192029836
            ]
        },
        {
            "positions": [
                -2.7636067496616623,
                -0.7155967719435865,
                0.956756264776576,
                -0.22895276895703898,
                0.6884697416327479,
                -3.122453712707173
            ]
        },
        {
            "positions": [
                -2.738058666141138,
                -0.6832886472587215,
                0.857251303151933,
                -0.162632143954078,
                0.5564793037321236,
                -3.127253706211363
            ]
        },
        {
            "positions": [
                -2.7125105826206135,
                -0.6509805225738565,
                0.7577463415272899,
                -0.09631151895111696,
                0.42448886583149953,
                -3.132053699715552
            ]
        }
    ]
}