{
    "goal": {
        "global_pose": {
            "orientation": {
                "w": -0.4816463035849501,
                "x": 0.5182115481033762,
                "y": 0.4908360881923453,
                "z": -0.5084816262002911
            },
            "position": {
                "x": -0.8240239810943604,
                "y": -0.300875300988555,
                "z": 0.16403168439865112
            }
        },
        "name": "move_to_storage_C"
    },
    "id": "FMT_move_to_storage_C_109",
    "joint_names": [
        "shoulder_pan_joint",
        "shoulder_lift_joint",
        "elbow_joint",
        "wrist_1_joint",
        "wrist_2_joint",
        "wrist_3_joint"
    ],
    "metrics": {
        "cart_traj_len": 0.5761649110645003,
        "distance_elbow_joint": 0.25744059040395406,
        "distance_shoulder_lift_joint": 0.1883045041985434,
        "distance_shoulder_pan_joint": 0.4955845762616726,
        "distance_wrist_1_joint": 0.08345075927882206,
        "distance_wrist_2_joint": 1.0619883975755857,
        "distance_wrist_3_joint": 0.059868329055094094,
        "smoothness": 0.0,
        "time": 0.324485878,
        "traj_len": 1.4651406610880993,
        "weighted_distance": 1.8471093556523037
    },
    "planner": "FMT",
    "start": {
        "state": {
            "elbow_joint": 2.010868314990456,
            "shoulder_lift_joint": -1.1634956873337592,
            "shoulder_pan_joint": -2.4736205022346125,
            "wrist_1_joint": -0.8367026794202681,
            "wrist_2_joint": 0.6746043897044499,
            "wrist_3_joint": -3.1496632123970403
        }
    },
    "waypoints": [
        {
            "positions": [
                -2.4736205022346125,
                -1.1634956873337592,
                2.010868314990456,
                -0.8367026794202681,
                0.6746043897044499,
                -3.1496632123970403
            ]
        },
        {
            "positions": [
                -2.556217931611558,
                -1.1321116033006686,
                1.9679615499231302,
                -0.8227942195404644,
                0.8516024559670475,
                -3.1396851575545246
            ]
        },
        {
            "positions": [
                -2.6388153609885032,
                -1.100727519267578,
                1.9250547848558044,
                -0.8088857596606608,
                1.0286005222296453,
                -3.129707102712009
            ]
        },
        {
            "positions": [
                -2.7214127903654486,
                -1.0693434352344875,
                1.8821480197884788,
                -0.7949772997808571,
                1.2055985884922427,
                -3.1197290478694932
            ]
        },
        {
            "positions": [
                -2.8040102197423944,
                -1.037959351201397,
                1.8392412547211532,
                -0.7810688399010534,
                1.3825966547548405,
                -3.1097509930269776
            ]
        },
        {
            "positions": [
                -2.8866076491193398,
                -1.0065752671683064,
                1.7963344896538274,
                -0.7671603800212498,
                1.559594721017438,
                -3.099772938184462
            ]
        },
        {
            "positions": [
                -2.969205078496285,
                -0.9751911831352158,
                1.7534277245865018,
                -0.753251920141446,
                1.7365927872800357,
                -3.089794883341946
            ]
        }
    ]
}