{
    "goal": {
        "global_pose": {
            "orientation": {
                "w": -0.4816463035849501,
                "x": 0.5182115481033762,
                "y": 0.4908360881923453,
                "z": -0.5084816262002911
            },
            "position": {
                "x": -0.8240239810943604,
                "y": 0.19912469901144506,
                "z": 0.16403168439865112
            }
        },
        "name": "move_to_storage_D"
    },
    "id": "FMT_move_to_storage_D_24",
    "joint_names": [
        "shoulder_pan_joint",
        "shoulder_lift_joint",
        "elbow_joint",
        "wrist_1_joint",
        "wrist_2_joint",
        "wrist_3_joint"
    ],
    "metrics": {
        "cart_traj_len": 3.9350879367499076,
        "distance_elbow_joint": 4.215085678774103,
        "distance_shoulder_lift_joint": 1.263667561915744,
        "distance_shoulder_pan_joint": 2.8144061316347804,
        "distance_wrist_1_joint": 2.2863600590748963,
        "distance_wrist_2_joint": 0.8893101825415176,
        "distance_wrist_3_joint": 3.137726947511988,
        "smoothness": 6.376665608257372e-16,
        "time": 1.40368497,
        "traj_len": 3.821852503885129,
        "weighted_distance": 4.9048629642522545
    },
    "planner": "FMT",
    "start": {
        "state": {
            "elbow_joint": -2.384821988534728,
            "shoulder_lift_joint": -2.2788054721415256,
            "shoulder_pan_joint": -0.1854694642142757,
            "wrist_1_joint": 1.4845938289331202,
            "wrist_2_joint": 0.17898776772866878,
            "wrist_3_joint": 0.037105688729662994
        }
    },
    "waypoints": [
        {
            "positions": [
                -0.1854694642142757,
                -2.2788054721415256,
                -2.384821988534728,
                1.4845938289331202,
                0.17898776772866878,
                0.037105688729662994
            ]
        },
        {
            "positions": [
                -0.05360522780517943,
                -2.217830700381127,
                -2.349543387596906,
                1.4366302747877162,
                0.20146417474405476,
                -0.038765108207680546
            ]
        },
        {
            "positions": [
                0.07825900860391685,
                -2.1568559286207285,
                -2.3142647866590833,
                1.3886667206423122,
                0.22394058175944076,
                -0.11463590514502409
            ]
        },
        {
            "positions": [
                0.21012324501301313,
                -2.09588115686033,
                -2.278986185721261,
                1.3407031664969082,
                0.24641698877482673,
                -0.1905067020823676
            ]
        },
        {
            "positions": [
                0.34198748142210944,
                -2.0349063850999314,
                -2.243707584783439,
                1.2927396123515045,
                0.2688933957902127,
                -0.2663774990197112
            ]
        },
        {
            "positions": [
                0.4738517178312057,
                -1.9739316133395326,
                -2.2084289838456166,
                1.2447760582061005,
                0.29136980280559865,
                -0.34224829595705475
            ]
        },
        {
            "positions": [
                0.605715954240302,
                -1.912956841579134,
                -2.1731503829077945,
                1.1968125040606965,
                0.31384620982098466,
                -0.4181190928943982
            ]
        },
        {
            "positions": [
                0.7375801906493983,
                -1.8519820698187355,
                -2.137871781969972,
                1.1488489499152925,
                0.33632261683637066,
                -0.49398988983174175
            ]
        },
        {
            "positions": [
                0.8694444270584946,
                -1.7910072980583367,
                -2.10259318103215,
                1.1008853957698885,
                0.35879902385175666,
                -0.5698606867690853
            ]
        },
        {
            "positions": [
                1.0013086634675907,
                -1.7300325262979381,
                -2.067314580094328,
                1.0529218416244848,
                0.3812754308671426,
                -0.6457314837064289
            ]
        },
        {
            "positions": [
                1.133172899876687,
                -1.6690577545375396,
                -2.0320359791565052,
                1.0049582874790808,
                0.40375183788252855,
                -0.7216022806437724
            ]
        },
        {
            "positions": [
                1.2650371362857833,
                -1.608082982777141,
                -1.9967573782186832,
                0.9569947333336767,
                0.42622824489791455,
                -0.797473077581116
            ]
        },
        {
            "positions": [
                1.3969013726948796,
                -1.5471082110167425,
                -1.9614787772808608,
                0.9090311791882728,
                0.44870465191330056,
                -0.8733438745184594
            ]
        },
        {
            "positions": [
                1.5287656091039759,
                -1.486133439256344,
                -1.9262001763430385,
                0.8610676250428688,
                0.47118105892868656,
                -0.949214671455803
            ]
        },
        {
            "positions": [
                1.6606298455130721,
                -1.4251586674959453,
                -1.8909215754052164,
                0.8131040708974648,
                0.49365746594407256,
                -1.0250854683931465
            ]
        },
        {
            "positions": [
                1.7924940819221684,
                -1.3641838957355465,
                -1.8556429744673941,
                0.765140516752061,
                0.5161338729594585,
                -1.10095626533049
            ]
        },
        {
            "positions": [
                1.9243583183312647,
                -1.303209123975148,
                -1.8203643735295718,
                0.717176962606657,
                0.5386102799748445,
                -1.1768270622678336
            ]
        },
        {
            "positions": [
                1.95638460692623,
                -1.2901149778956313,
                -1.6544267342673469,
                0.6481340902090009,
                0.5626869922609964,
                -1.2642722530184924
            ]
        },
        {
            "positions": [
                1.9884108955211957,
                -1.2770208318161147,
                -1.4884890950051222,
                0.5790912178113449,
                0.5867637045471482,
                -1.351717443769151
            ]
        },
        {
            "positions": [
                2.0204371841161612,
                -1.263926685736598,
                -1.3225514557428972,
                0.5100483454136888,
                0.6108404168333001,
                -1.4391626345198096
            ]
        },
        {
            "positions": [
                2.0524634727111266,
                -1.2508325396570814,
                -1.1566138164806725,
                0.4410054730160328,
                0.6349171291194521,
                -1.5266078252704685
            ]
        },
        {
            "positions": [
                2.084489761306092,
                -1.2377383935775648,
                -0.9906761772184476,
                0.37196260061837677,
                0.658993841405604,
                -1.6140530160211273
            ]
        },
        {
            "positions": [
                2.1165160499010574,
                -1.2246442474980481,
                -0.8247385379562228,
                0.3029197282207208,
                0.6830705536917558,
                -1.7014982067717859
            ]
        },
        {
            "positions": [
                2.1485423384960227,
                -1.2115501014185315,
                -0.6588008986939979,
                0.23387685582306467,
                0.7071472659779078,
                -1.7889433975224445
            ]
        },
        {
            "positions": [
                2.180568627090988,
                -1.1984559553390148,
                -0.492863259431773,
                0.16483398342540867,
                0.7312239782640597,
                -1.8763885882731033
            ]
        },
        {
            "positions": [
                2.212594915685954,
                -1.1853618092594982,
                -0.32692562016954807,
                0.0957911110277525,
                0.7553006905502117,
                -1.963833779023762
            ]
        },
        {
            "positions": [
                2.2446212042809193,
                -1.1722676631799815,
                -0.16098798090732336,
                0.026748238630096566,
                0.7793774028363635,
                -2.0512789697744207
            ]
        },
        {
            "positions": [
                2.2766474928758846,
                -1.1591735171004647,
                0.004949658354901576,
                -0.042294633767559486,
                0.8034541151225154,
                -2.1387241605250793
            ]
        },
        {
            "positions": [
                2.30867378147085,
                -1.146079371020948,
                0.1708872976171263,
                -0.11133750616521543,
                0.8275308274086672,
                -2.226169351275738
            ]
        },
        {
            "positions": [
                2.3407000700658154,
                -1.1329852249414314,
                0.33682493687935144,
                -0.1803803785628716,
                0.8516075396948193,
                -2.313614542026397
            ]
        },
        {
            "positions": [
                2.372726358660781,
                -1.1198910788619147,
                0.5027625761415759,
                -0.24942325096052764,
                0.8756842519809711,
                -2.4010597327770555
            ]
        },
        {
            "positions": [
                2.4047526472557466,
                -1.106796932782398,
                0.6687002154038009,
                -0.3184661233581835,
                0.8997609642671229,
                -2.488504923527714
            ]
        },
        {
            "positions": [
                2.436778935850712,
                -1.0937027867028815,
                0.8346378546660258,
                -0.38750899575583964,
                0.923837676553275,
                -2.575950114278373
            ]
        },
        {
            "positions": [
                2.4688052244456773,
                -1.0806086406233648,
                1.0005754939282507,
                -0.4565518681534958,
                0.9479143888394268,
                -2.6633953050290318
            ]
        },
        {
            "positions": [
                2.5008315130406427,
                -1.0675144945438482,
                1.1665131331904757,
                -0.525594740551152,
                0.9719911011255788,
                -2.7508404957796904
            ]
        },
        {
            "positions": [
                2.5328578016356085,
                -1.0544203484643315,
                1.3324507724527006,
                -0.5946376129488079,
                0.9960678134117307,
                -2.838285686530349
            ]
        },
        {
            "positions": [
                2.5648840902305734,
                -1.0413262023848149,
                1.498388411714925,
                -0.6636804853464638,
                1.0201445256978825,
                -2.9257308772810076
            ]
        },
        {
            "positions": [
                2.596910378825539,
                -1.0282320563052982,
                1.6643260509771505,
                -0.73272335774412,
                1.0442212379840345,
                -3.0131760680316666
            ]
        },
        {
            "positions": [
                2.6289366674205046,
                -1.0151379102257816,
                1.8302636902393747,
                -0.8017662301417758,
                1.0682979502701864,
                -3.100621258782325
            ]
        }
    ]
}