{
    "goal": {
        "global_pose": {
            "orientation": {
                "w": 0.7047431493862688,
                "x": -0.7094548369677653,
                "y": 0.0024358444001904,
                "z": -0.0022348060817251984
            },
            "position": {
                "x": -0.39052492380142206,
                "y": 0.3671506643295288,
                "z": 0.19426114857196808
            }
        },
        "name": "move_to_magneteinheit_D"
    },
    "id": "FMT_move_to_magneteinheit_D_128",
    "joint_names": [
        "shoulder_pan_joint",
        "shoulder_lift_joint",
        "elbow_joint",
        "wrist_1_joint",
        "wrist_2_joint",
        "wrist_3_joint"
    ],
    "metrics": {
        "cart_traj_len": 4.298829912275625,
        "distance_elbow_joint": 3.3761563968819486,
        "distance_shoulder_lift_joint": 1.6280109435340584,
        "distance_shoulder_pan_joint": 3.5440408102488443,
        "distance_wrist_1_joint": 1.8262855103532247,
        "distance_wrist_2_joint": 0.7103213824724468,
        "distance_wrist_3_joint": 4.947618707781484,
        "smoothness": 0.5936892357443694,
        "time": 1.480232965,
        "traj_len": 4.004052166402432,
        "weighted_distance": 5.335192410744026
    },
    "planner": "FMT",
    "start": {
        "state": {
            "elbow_joint": 0.749534889911806,
            "shoulder_lift_joint": -0.6476975780787326,
            "shoulder_pan_joint": -2.711696901376241,
            "wrist_1_joint": -0.07506478083263063,
            "wrist_2_joint": 0.43296659715538205,
            "wrist_3_joint": -3.14703540197715
        }
    },
    "waypoints": [
        {
            "positions": [
                -2.711696901376241,
                -0.6476975780787326,
                0.749534889911806,
                -0.07506478083263063,
                0.43296659715538205,
                -3.14703540197715
            ]
        },
        {
            "positions": [
                -2.753495581006312,
                -0.7464359984618918,
                0.7783704453353426,
                -0.036129464658467184,
                0.48287513932360177,
                -3.015086456860584
            ]
        },
        {
            "positions": [
                -2.795294260636383,
                -0.8451744188450508,
                0.8072060007588794,
                0.0028058515156962616,
                0.5327836814918214,
                -2.883137511744018
            ]
        },
        {
            "positions": [
                -2.8370929402664533,
                -0.9439128392282099,
                0.8360415561824162,
                0.04174116768985971,
                0.5826922236600411,
                -2.7511885666274516
            ]
        },
        {
            "positions": [
                -2.878891619896524,
                -1.042651259611369,
                0.8648771116059528,
                0.08067648386402315,
                0.6326007658282609,
                -2.6192396215108857
            ]
        },
        {
            "positions": [
                -2.777743679871767,
                -1.0666818362715715,
                0.7705736501041286,
                0.12026482124000541,
                0.6256189342044177,
                -2.5017011253511163
            ]
        },
        {
            "positions": [
                -2.67659573984701,
                -1.0907124129317742,
                0.6762701886023044,
                0.15985315861598767,
                0.6186371025805746,
                -2.384162629191347
            ]
        },
        {
            "positions": [
                -2.575447799822253,
                -1.1147429895919767,
                0.5819667271004801,
                0.19944149599196995,
                0.6116552709567314,
                -2.266624133031577
            ]
        },
        {
            "positions": [
                -2.4742998597974957,
                -1.1387735662521794,
                0.48766326559865597,
                0.2390298333679522,
                0.6046734393328883,
                -2.149085636871808
            ]
        },
        {
            "positions": [
                -2.373151919772739,
                -1.1628041429123819,
                0.39335980409683174,
                0.27861817074393447,
                0.5976916077090453,
                -2.0315471407120382
            ]
        },
        {
            "positions": [
                -2.2720039797479816,
                -1.1868347195725846,
                0.29905634259500746,
                0.31820650811991674,
                0.5907097760852021,
                -1.9140086445522688
            ]
        },
        {
            "positions": [
                -2.1708560397232244,
                -1.210865296232787,
                0.20475288109318324,
                0.357794845495899,
                0.583727944461359,
                -1.7964701483924994
            ]
        },
        {
            "positions": [
                -2.0697080996984676,
                -1.2348958728929897,
                0.11044941959135912,
                0.39738318287188124,
                0.5767461128375159,
                -1.67893165223273
            ]
        },
        {
            "positions": [
                -1.9685601596737103,
                -1.2589264495531922,
                0.016145958089534895,
                0.4369715202478635,
                0.5697642812136727,
                -1.5613931560729606
            ]
        },
        {
            "positions": [
                -1.8674122196489533,
                -1.282957026213395,
                -0.07815750341228933,
                0.4765598576238458,
                0.5627824495898296,
                -1.4438546599131912
            ]
        },
        {
            "positions": [
                -1.7662642796241963,
                -1.3069876028735974,
                -0.17246096491411356,
                0.516148194999828,
                0.5558006179659865,
                -1.3263161637534215
            ]
        },
        {
            "positions": [
                -1.665116339599439,
                -1.3310181795338,
                -0.2667644264159379,
                0.5557365323758103,
                0.5488187863421433,
                -1.208777667593652
            ]
        },
        {
            "positions": [
                -1.5639683995746818,
                -1.3550487561940026,
                -0.361067887917762,
                0.5953248697517926,
                0.5418369547183002,
                -1.0912391714338825
            ]
        },
        {
            "positions": [
                -1.4628204595499248,
                -1.379079332854205,
                -0.45537134941958635,
                0.6349132071277749,
                0.5348551230944572,
                -0.9737006752741131
            ]
        },
        {
            "positions": [
                -1.3616725195251678,
                -1.4031099095144077,
                -0.5496748109214105,
                0.6745015445037571,
                0.527873291470614,
                -0.8561621791143437
            ]
        },
        {
            "positions": [
                -1.2605245795004107,
                -1.4271404861746104,
                -0.6439782724232346,
                0.7140898818797393,
                0.5208914598467709,
                -0.7386236829545743
            ]
        },
        {
            "positions": [
                -1.1593766394756537,
                -1.451171062834813,
                -0.7382817339250589,
                0.7536782192557216,
                0.5139096282229277,
                -0.6210851867948048
            ]
        },
        {
            "positions": [
                -1.0582286994508965,
                -1.4752016394950154,
                -0.832585195426883,
                0.7932665566317039,
                0.5069277965990846,
                -0.5035466906350354
            ]
        },
        {
            "positions": [
                -0.9570807594261395,
                -1.499232216155218,
                -0.9268886569287071,
                0.8328548940076861,
                0.49994596497524146,
                -0.386008194475266
            ]
        },
        {
            "positions": [
                -0.8559328194013824,
                -1.5232627928154205,
                -1.0211921184305315,
                0.8724432313836684,
                0.4929641333513984,
                -0.2684696983154966
            ]
        },
        {
            "positions": [
                -0.7547848793766252,
                -1.5472933694756232,
                -1.1154955799323556,
                0.9120315687596506,
                0.48598230172755524,
                -0.1509312021557272
            ]
        },
        {
            "positions": [
                -0.6536369393518684,
                -1.5713239461358257,
                -1.20979904143418,
                0.9516199061356329,
                0.47900047010371216,
                -0.03339270599595734
            ]
        },
        {
            "positions": [
                -0.5524889993271107,
                -1.5953545227960284,
                -1.3041025029360043,
                0.9912082435116153,
                0.47201863847986897,
                0.08414579016381207
            ]
        },
        {
            "positions": [
                -0.4513410593023539,
                -1.619385099456231,
                -1.3984059644378286,
                1.0307965808875976,
                0.4650368068560259,
                0.20168428632358193
            ]
        },
        {
            "positions": [
                -0.35019311927759667,
                -1.6434156761164336,
                -1.492709425939653,
                1.0703849182635796,
                0.45805497523218275,
                0.31922278248335134
            ]
        },
        {
            "positions": [
                -0.24904517925283942,
                -1.667446252776636,
                -1.5870128874414768,
                1.109973255639562,
                0.4510731436083396,
                0.43676127864312075
            ]
        },
        {
            "positions": [
                -0.14789723922808262,
                -1.6914768294368385,
                -1.6813163489433012,
                1.1495615930155445,
                0.4440913119844965,
                0.5542997748028902
            ]
        },
        {
            "positions": [
                -0.04674929920332538,
                -1.7155074060970412,
                -1.7756198104451255,
                1.1891499303915265,
                0.43710948036065334,
                0.6718382709626596
            ]
        },
        {
            "positions": [
                0.05439864082143142,
                -1.739537982757244,
                -1.8699232719469494,
                1.228738267767509,
                0.4301276487368102,
                0.789376767122429
            ]
        },
        {
            "positions": [
                0.15554658084618855,
                -1.7635685594174464,
                -1.964226733448774,
                1.2683266051434912,
                0.4231458171129671,
                0.9069152632821985
            ]
        },
        {
            "positions": [
                0.1547515247013854,
                -1.8346195860714585,
                -1.9883708663713562,
                1.3340441839077972,
                0.42940149432954344,
                0.7396948973741083
            ]
        },
        {
            "positions": [
                0.15395646855658224,
                -1.9056706127254706,
                -2.0125149992939386,
                1.399761762672103,
                0.4356571715461197,
                0.572474531466018
            ]
        },
        {
            "positions": [
                0.1531614124117791,
                -1.9767216393794826,
                -2.036659132216521,
                1.4654793414364091,
                0.44191284876269604,
                0.4052541655579279
            ]
        },
        {
            "positions": [
                0.15236635626697595,
                -2.0477726660334947,
                -2.060803265139103,
                1.5311969202007152,
                0.4481685259792723,
                0.23803379964983762
            ]
        },
        {
            "positions": [
                0.1515713001221728,
                -2.118823692687507,
                -2.0849473980616855,
                1.596914498965021,
                0.45442420319584864,
                0.07081343374174742
            ]
        },
        {
            "positions": [
                0.05644132188891153,
                -2.1636414216726476,
                -2.1807287747204325,
                1.5509271679177177,
                0.36773663472609425,
                0.08209686578031637
            ]
        },
        {
            "positions": [
                -0.03868865634434973,
                -2.208459150657788,
                -2.2765101513791794,
                1.5049398368704143,
                0.28104906625633985,
                0.09338029781888532
            ]
        },
        {
            "positions": [
                -0.133818634577611,
                -2.2532768796429288,
                -2.3722915280379264,
                1.458952505823111,
                0.19436149778658546,
                0.10466372985745429
            ]
        },
        {
            "positions": [
                -0.1868613101396603,
                -2.275708521612791,
                -2.3959370635818487,
                1.4426082684094481,
                0.18447032419445575,
                0.08094781299147509
            ]
        }
    ]
}