{
    "goal": {
        "global_pose": {
            "orientation": {
                "w": 0.7031023502349854,
                "x": -0.7110244035720825,
                "y": 0.007748599164187908,
                "z": 0.005598929710686207
            },
            "position": {
                "x": 0.11585023208521307,
                "y": 0.44412534475326537,
                "z": 0.3711530566215515
            }
        },
        "name": "move_to_auspresseinheit_A"
    },
    "id": "FMT_move_to_auspresseinheit_A_48",
    "joint_names": [
        "shoulder_pan_joint",
        "shoulder_lift_joint",
        "elbow_joint",
        "wrist_1_joint",
        "wrist_2_joint",
        "wrist_3_joint"
    ],
    "metrics": {
        "cart_traj_len": 0.6944592205676562,
        "distance_elbow_joint": 0.13034515018203763,
        "distance_shoulder_lift_joint": 0.5866023350236325,
        "distance_shoulder_pan_joint": 1.0475075667015625,
        "distance_wrist_1_joint": 0.6041102701198593,
        "distance_wrist_2_joint": 0.5139531950051744,
        "distance_wrist_3_joint": 0.17498998183247227,
        "smoothness": 0.8181179868898034,
        "time": 0.8683480140000001,
        "traj_len": 1.7485732752346237,
        "weighted_distance": 2.127334465394362
    },
    "planner": "FMT",
    "start": {
        "state": {
            "elbow_joint": 2.4225746658250005,
            "shoulder_lift_joint": -1.3736534386056498,
            "shoulder_pan_joint": -0.3378633547517467,
            "wrist_1_joint": -1.0288598680537169,
            "wrist_2_joint": 1.233022673432363,
            "wrist_3_joint": -3.0940220416140027
        }
    },
    "waypoints": [
        {
            "positions": [
                -0.3378633547517467,
                -1.3736534386056498,
                2.4225746658250005,
                -1.0288598680537169,
                1.233022673432363,
                -3.0940220416140027
            ]
        },
        {
            "positions": [
                -0.3211500871906629,
                -1.4926675301005303,
                2.4392256824611436,
                -0.9249748238840482,
                1.2261357527052064,
                -3.131562354825419
            ]
        },
        {
            "positions": [
                -0.304436819629579,
                -1.6116816215954106,
                2.4558766990972867,
                -0.8210897797143796,
                1.21924883197805,
                -3.1691026680368357
            ]
        },
        {
            "positions": [
                -0.2877235520684952,
                -1.7306957130902911,
                2.4725277157334298,
                -0.7172047355447109,
                1.2123619112508932,
                -3.206642981248252
            ]
        },
        {
            "positions": [
                -0.1305900073500339,
                -1.7645802775168888,
                2.460791077578902,
                -0.6712371032999666,
                1.1347157498465,
                -3.1988084801546637
            ]
        },
        {
            "positions": [
                0.026543537368427406,
                -1.7984648419434865,
                2.449054439424374,
                -0.6252694710552222,
                1.0570695884421069,
                -3.190973979061076
            ]
        },
        {
            "positions": [
                0.1836770820868887,
                -1.8323494063700843,
                2.437317801269846,
                -0.5793018388104779,
                0.9794234270377137,
                -3.1831394779674875
            ]
        },
        {
            "positions": [
                0.34081062680535,
                -1.866233970796682,
                2.425581163115319,
                -0.5333342065657336,
                0.9017772656333205,
                -3.1753049768738992
            ]
        },
        {
            "positions": [
                0.4979441715238113,
                -1.9001185352232797,
                2.413844524960791,
                -0.4873665743209893,
                0.8241311042289273,
                -3.1674704757803114
            ]
        },
        {
            "positions": [
                0.6550777162422726,
                -1.9340030996498774,
                2.402107886806263,
                -0.44139894207624497,
                0.7464849428245341,
                -3.159635974686723
            ]
        },
        {
            "positions": [
                0.709644211949816,
                -1.9077504256704725,
                2.3921356154598215,
                -0.4580482862186324,
                0.7190694784271886,
                -3.144273939050029
            ]
        }
    ]
}