{
    "goal": {
        "global_pose": {
            "orientation": {
                "w": -0.00223480608172531,
                "x": 0.0024358444001904467,
                "y": 0.7094548369677653,
                "z": -0.704743149386269
            },
            "position": {
                "x": 0.6205249238014221,
                "y": -0.6371506643295288,
                "z": 0.19426114857196808
            }
        },
        "name": "move_to_magneteinheit_B"
    },
    "id": "FMT_move_to_magneteinheit_B_138",
    "joint_names": [
        "shoulder_pan_joint",
        "shoulder_lift_joint",
        "elbow_joint",
        "wrist_1_joint",
        "wrist_2_joint",
        "wrist_3_joint"
    ],
    "metrics": {
        "cart_traj_len": 3.4043853829442696,
        "distance_elbow_joint": 4.50765068459049,
        "distance_shoulder_lift_joint": 1.4712402680858538,
        "distance_shoulder_pan_joint": 3.4883358454709716,
        "distance_wrist_1_joint": 4.400995816030461,
        "distance_wrist_2_joint": 0.715646539303797,
        "distance_wrist_3_joint": 5.689316661675077,
        "smoothness": 0.36444247627040893,
        "time": 2.024697544,
        "traj_len": 4.502575464682035,
        "weighted_distance": 6.0637003136567555
    },
    "planner": "FMT",
    "start": {
        "state": {
            "elbow_joint": 2.6216224122426386,
            "shoulder_lift_joint": -1.4174107377796124,
            "shoulder_pan_joint": 0.7066234856936794,
            "wrist_1_joint": 1.9546482284002225,
            "wrist_2_joint": -0.7096286983471962,
            "wrist_3_joint": 0.005740856962016249
        }
    },
    "waypoints": [
        {
            "positions": [
                0.7066234856936794,
                -1.4174107377796124,
                2.6216224122426386,
                1.9546482284002225,
                -0.7096286983471962,
                0.005740856962016249
            ]
        },
        {
            "positions": [
                0.606405054093962,
                -1.4445895181448036,
                2.6234467547037092,
                1.8650745559954207,
                -0.6334967954409564,
                -0.04652106961616553
            ]
        },
        {
            "positions": [
                0.5061866224942445,
                -1.4717682985099951,
                2.62527109716478,
                1.775500883590619,
                -0.5573648925347165,
                -0.0987829961943473
            ]
        },
        {
            "positions": [
                0.40596819089452707,
                -1.4989470788751864,
                2.6270954396258506,
                1.6859272111858172,
                -0.4812329896284767,
                -0.15104492277252907
            ]
        },
        {
            "positions": [
                0.30574975929480963,
                -1.5261258592403777,
                2.6289197820869212,
                1.5963535387810155,
                -0.4051010867222369,
                -0.20330684935071083
            ]
        },
        {
            "positions": [
                0.2055313276950922,
                -1.5533046396055692,
                2.630744124547992,
                1.5067798663762135,
                -0.32896918381599705,
                -0.25556877592889266
            ]
        },
        {
            "positions": [
                0.10531289609537481,
                -1.5804834199707605,
                2.6325684670090626,
                1.4172061939714118,
                -0.2528372809097572,
                -0.3078307025070744
            ]
        },
        {
            "positions": [
                0.22018707420982275,
                -1.6192667720836846,
                2.5397354996231467,
                1.357223032754042,
                -0.2631668276344654,
                -0.36803853140409637
            ]
        },
        {
            "positions": [
                0.3350612523242707,
                -1.658050124196609,
                2.4469025322372313,
                1.2972398715366724,
                -0.27349637435917357,
                -0.4282463603011184
            ]
        },
        {
            "positions": [
                0.44993543043871864,
                -1.6968334763095334,
                2.3540695648513155,
                1.2372567103193026,
                -0.2838259210838817,
                -0.48845418919814043
            ]
        },
        {
            "positions": [
                0.5648096085531666,
                -1.7356168284224576,
                2.2612365974653996,
                1.1772735491019328,
                -0.2941554678085899,
                -0.5486620180951625
            ]
        },
        {
            "positions": [
                0.6796837866676146,
                -1.7744001805353817,
                2.168403630079484,
                1.1172903878845633,
                -0.3044850145332981,
                -0.6088698469921845
            ]
        },
        {
            "positions": [
                0.7945579647820624,
                -1.8131835326483061,
                2.0755706626935684,
                1.0573072266671935,
                -0.3148145612580063,
                -0.6690776758892064
            ]
        },
        {
            "positions": [
                0.9094321428965104,
                -1.8519668847612305,
                1.9827376953076525,
                0.9973240654498238,
                -0.3251441079827144,
                -0.7292855047862283
            ]
        },
        {
            "positions": [
                1.0243063210109584,
                -1.8907502368741547,
                1.8899047279217367,
                0.9373409042324541,
                -0.33547365470742263,
                -0.7894933336832504
            ]
        },
        {
            "positions": [
                1.1391804991254064,
                -1.9295335889870788,
                1.797071760535821,
                0.8773577430150844,
                -0.34580320143213084,
                -0.8497011625802724
            ]
        },
        {
            "positions": [
                1.2540546772398544,
                -1.9683169411000032,
                1.7042387931499055,
                0.8173745817977147,
                -0.356132748156839,
                -0.9099089914772944
            ]
        },
        {
            "positions": [
                1.3689288553543022,
                -2.0071002932129276,
                1.6114058257639896,
                0.7573914205803449,
                -0.36646229488154713,
                -0.9701168203743165
            ]
        },
        {
            "positions": [
                1.4838030334687502,
                -2.0458836453258518,
                1.518572858378074,
                0.6974082593629752,
                -0.37679184160625534,
                -1.0303246492713385
            ]
        },
        {
            "positions": [
                1.5986772115831982,
                -2.084666997438776,
                1.4257398909921581,
                0.6374250981456056,
                -0.38712138833096355,
                -1.0905324781683605
            ]
        },
        {
            "positions": [
                1.713551389697646,
                -2.1234503495517005,
                1.3329069236062425,
                0.5774419369282358,
                -0.3974509350556717,
                -1.1507403070653823
            ]
        },
        {
            "positions": [
                1.828425567812094,
                -2.1622337016646247,
                1.2400739562203267,
                0.5174587757108661,
                -0.40778048178037984,
                -1.2109481359624044
            ]
        },
        {
            "positions": [
                1.943299745926542,
                -2.201017053777549,
                1.147240988834411,
                0.45747561449349644,
                -0.41811002850508805,
                -1.2711559648594264
            ]
        },
        {
            "positions": [
                1.9874777406117217,
                -2.1834642666648745,
                1.001999275528362,
                0.34309601756374564,
                -0.416933909549999,
                -1.198635349457864
            ]
        },
        {
            "positions": [
                2.0316557352969014,
                -2.1659114795522,
                0.8567575622223127,
                0.2287164206339949,
                -0.4157577905949099,
                -1.1261147340563016
            ]
        },
        {
            "positions": [
                2.075833729982081,
                -2.1483586924395257,
                0.7115158489162636,
                0.11433682370424414,
                -0.4145816716398209,
                -1.0535941186547393
            ]
        },
        {
            "positions": [
                2.1200117246672607,
                -2.1308059053268518,
                0.5662741356102144,
                -4.277322550666485e-05,
                -0.41340555268473184,
                -0.9810735032531768
            ]
        },
        {
            "positions": [
                2.16418971935244,
                -2.1132531182141774,
                0.42103242230416527,
                -0.11442237015525741,
                -0.41222943372964277,
                -0.9085528878516145
            ]
        },
        {
            "positions": [
                2.20836771403762,
                -2.095700331101503,
                0.2757907089981161,
                -0.22880196708500816,
                -0.4110533147745537,
                -0.8360322724500522
            ]
        },
        {
            "positions": [
                2.2525457087227996,
                -2.0781475439888286,
                0.1305489956920669,
                -0.3431815640147589,
                -0.40987719581946463,
                -0.7635116570484898
            ]
        },
        {
            "positions": [
                2.2967237034079795,
                -2.0605947568761542,
                -0.014692717613982165,
                -0.45756116094450977,
                -0.4087010768643756,
                -0.6909910416469273
            ]
        },
        {
            "positions": [
                2.340901698093159,
                -2.04304196976348,
                -0.15993443092003146,
                -0.5719407578742606,
                -0.40752495790928656,
                -0.618470426245365
            ]
        },
        {
            "positions": [
                2.385079692778339,
                -2.025489182650806,
                -0.3051761442260805,
                -0.6863203548040113,
                -0.4063488389541975,
                -0.5459498108438026
            ]
        },
        {
            "positions": [
                2.4292576874635183,
                -2.0079363955381315,
                -0.4504178575321298,
                -0.8006999517337623,
                -0.4051727199991084,
                -0.47342919544224016
            ]
        },
        {
            "positions": [
                2.473435682148698,
                -1.9903836084254571,
                -0.5956595708381789,
                -0.9150795486635128,
                -0.40399660104401935,
                -0.40090858004067786
            ]
        },
        {
            "positions": [
                2.5176136768338777,
                -1.9728308213127828,
                -0.740901284144228,
                -1.0294591455932638,
                -0.40282048208893034,
                -0.32838796463911535
            ]
        },
        {
            "positions": [
                2.561791671519057,
                -1.9552780342001084,
                -0.8861429974502772,
                -1.1438387425230143,
                -0.4016443631338413,
                -0.25586734923755317
            ]
        },
        {
            "positions": [
                2.605969666204237,
                -1.937725247087434,
                -1.0313847107563265,
                -1.258218339452765,
                -0.4004682441787522,
                -0.18334673383599065
            ]
        },
        {
            "positions": [
                2.6501476608894166,
                -1.9201724599747598,
                -1.1766264240623754,
                -1.372597936382516,
                -0.39929212522366314,
                -0.11082611843442813
            ]
        },
        {
            "positions": [
                2.6943256555745965,
                -1.9026196728620854,
                -1.3218681373684247,
                -1.4869775333122666,
                -0.3981160062685741,
                -0.03830550303286584
            ]
        },
        {
            "positions": [
                2.738503650259776,
                -1.885066885749411,
                -1.467109850674474,
                -1.6013571302420175,
                -0.39693988731348506,
                0.034215112368696454
            ]
        },
        {
            "positions": [
                2.7826816449449554,
                -1.867514098636737,
                -1.6123515639805228,
                -1.715736727171768,
                -0.395763768358396,
                0.10673572777025875
            ]
        },
        {
            "positions": [
                2.8268596396301353,
                -1.8499613115240625,
                -1.7575932772865719,
                -1.830116324101519,
                -0.39458764940330693,
                0.17925634317182135
            ]
        },
        {
            "positions": [
                2.812842758102513,
                -1.8792306993468655,
                -1.7533594782368864,
                -1.8880366615924036,
                -0.40097438642525546,
                0.4461399088068875
            ]
        },
        {
            "positions": [
                2.798825876574891,
                -1.9085000871696687,
                -1.7491256791872007,
                -1.9459569990832883,
                -0.40736112344720404,
                0.7130234744419537
            ]
        },
        {
            "positions": [
                2.7848089950472685,
                -1.9377694749924717,
                -1.7448918801375153,
                -2.0038773365741727,
                -0.4137478604691526,
                0.9799070400770199
            ]
        },
        {
            "positions": [
                2.770792113519646,
                -1.9670388628152746,
                -1.7406580810878296,
                -2.0617976740650574,
                -0.42013459749110116,
                1.2467906057120859
            ]
        },
        {
            "positions": [
                2.7567752319920236,
                -1.9963082506380778,
                -1.7364242820381441,
                -2.119718011555942,
                -0.4265213345130497,
                1.5136741713471522
            ]
        },
        {
            "positions": [
                2.7427583504644013,
                -2.025577638460881,
                -1.7321904829884585,
                -2.1776383490468265,
                -0.4329080715349982,
                1.7805577369822183
            ]
        },
        {
            "positions": [
                2.728741468936779,
                -2.0548470262836838,
                -1.727956683938773,
                -2.2355586865377113,
                -0.4392948085569468,
                2.0474413026172846
            ]
        },
        {
            "positions": [
                2.717514745329354,
                -2.0767957754628186,
                -1.7151389685753344,
                -2.2706901700531326,
                -0.4435202812262144,
                2.229745064680105
            ]
        },
        {
            "positions": [
                2.7062880217219294,
                -2.098744524641954,
                -1.7023212532118956,
                -2.305821653568554,
                -0.44774575389548205,
                2.4120488267429256
            ]
        },
        {
            "positions": [
                2.6950612981145046,
                -2.1206932738210886,
                -1.689503537848457,
                -2.340953137083975,
                -0.45197122656474964,
                2.594352588805746
            ]
        },
        {
            "positions": [
                2.6838345745070797,
                -2.1426420230002234,
                -1.6766858224850185,
                -2.3760846205993964,
                -0.45619669923401723,
                2.7766563508685667
            ]
        },
        {
            "positions": [
                2.6726078508996545,
                -2.1645907721793587,
                -1.66386810712158,
                -2.4112161041148177,
                -0.4604221719032849,
                2.9589601129313867
            ]
        },
        {
            "positions": [
                2.6613811272922296,
                -2.1865395213584935,
                -1.6510503917581414,
                -2.446347587630239,
                -0.4646476445725525,
                3.1412638749942072
            ]
        }
    ]
}