{
    "goal": {
        "global_pose": {
            "orientation": {
                "w": 0.7047431468963623,
                "x": -0.7094548344612122,
                "y": 0.0024358443915843964,
                "z": -0.0022348060738295317
            },
            "position": {
                "x": 0.6094750761985779,
                "y": 0.3671506643295288,
                "z": 0.19426114857196808
            }
        },
        "name": "move_to_magneteinheit_A"
    },
    "id": "FMT_move_to_magneteinheit_A_22",
    "joint_names": [
        "shoulder_pan_joint",
        "shoulder_lift_joint",
        "elbow_joint",
        "wrist_1_joint",
        "wrist_2_joint",
        "wrist_3_joint"
    ],
    "metrics": {
        "cart_traj_len": 2.968651894627789,
        "distance_elbow_joint": 3.9173481386571067,
        "distance_shoulder_lift_joint": 0.46526552265612986,
        "distance_shoulder_pan_joint": 2.7102532431396424,
        "distance_wrist_1_joint": 3.4725990073428195,
        "distance_wrist_2_joint": 1.433947967323448,
        "distance_wrist_3_joint": 0.7604112416236948,
        "smoothness": 0.0951180641314525,
        "time": 1.2638861179999998,
        "traj_len": 3.5720897414178787,
        "weighted_distance": 4.3803190042115085
    },
    "planner": "FMT",
    "start": {
        "state": {
            "elbow_joint": -1.9196185241190666,
            "shoulder_lift_joint": -1.2443396400964142,
            "shoulder_pan_joint": 2.6996025414629847,
            "wrist_1_joint": -1.5485510000780065,
            "wrist_2_joint": -1.5709468930060704,
            "wrist_3_joint": 0.4420197071253992
        }
    },
    "waypoints": [
        {
            "positions": [
                2.6996025414629847,
                -1.2443396400964142,
                -1.9196185241190666,
                -1.5485510000780065,
                -1.5709468930060704,
                0.4420197071253992
            ]
        },
        {
            "positions": [
                2.592302318480312,
                -1.238085663156177,
                -1.8406123211455716,
                -1.4117220801696382,
                -1.5119260879450556,
                0.44939897505246085
            ]
        },
        {
            "positions": [
                2.4850020954976397,
                -1.2318316862159395,
                -1.7616061181720764,
                -1.27489316026127,
                -1.4529052828840407,
                0.4567782429795225
            ]
        },
        {
            "positions": [
                2.377701872514967,
                -1.2255777092757023,
                -1.6825999151985813,
                -1.138064240352902,
                -1.393884477823026,
                0.4641575109065842
            ]
        },
        {
            "positions": [
                2.2704016495322943,
                -1.219323732335465,
                -1.603593712225086,
                -1.0012353204445334,
                -1.334863672762011,
                0.47153677883364586
            ]
        },
        {
            "positions": [
                2.1631014265496216,
                -1.2130697553952277,
                -1.524587509251591,
                -0.8644064005361655,
                -1.275842867700996,
                0.47891604676070754
            ]
        },
        {
            "positions": [
                2.0558012035669493,
                -1.2068157784549904,
                -1.4455813062780958,
                -0.7275774806277973,
                -1.2168220626399813,
                0.4862953146877692
            ]
        },
        {
            "positions": [
                1.9485009805842766,
                -1.200561801514753,
                -1.3665751033046005,
                -0.590748560719429,
                -1.1578012575789665,
                0.49367458261483094
            ]
        },
        {
            "positions": [
                1.8412007576016038,
                -1.1943078245745158,
                -1.2875689003311055,
                -0.4539196408110606,
                -1.0987804525179516,
                0.5010538505418926
            ]
        },
        {
            "positions": [
                1.7339005346189311,
                -1.1880538476342786,
                -1.2085626973576105,
                -0.3170907209026925,
                -1.0397596474569366,
                0.5084331184689543
            ]
        },
        {
            "positions": [
                1.6266003116362588,
                -1.1817998706940411,
                -1.1295564943841152,
                -0.18026180099432443,
                -0.9807388423959219,
                0.5158123863960159
            ]
        },
        {
            "positions": [
                1.5193000886535861,
                -1.175545893753804,
                -1.05055029141062,
                -0.04343288108595611,
                -0.921718037334907,
                0.5231916543230777
            ]
        },
        {
            "positions": [
                1.4119998656709136,
                -1.1692919168135667,
                -0.971544088437125,
                0.09339603882241199,
                -0.8626972322738922,
                0.5305709222501394
            ]
        },
        {
            "positions": [
                1.304699642688241,
                -1.1630379398733293,
                -0.8925378854636297,
                0.23022495873078053,
                -0.8036764272128772,
                0.537950190177201
            ]
        },
        {
            "positions": [
                1.1973994197055684,
                -1.156783962933092,
                -0.8135316824901346,
                0.3670538786391484,
                -0.7446556221518624,
                0.5453294581042627
            ]
        },
        {
            "positions": [
                1.090099196722896,
                -1.1505299859928548,
                -0.7345254795166396,
                0.5038827985475167,
                -0.6856348170908476,
                0.5527087260313244
            ]
        },
        {
            "positions": [
                0.9827989737402232,
                -1.1442760090526174,
                -0.6555192765431443,
                0.6407117184558853,
                -0.6266140120298327,
                0.560087993958386
            ]
        },
        {
            "positions": [
                0.8754987507575505,
                -1.1380220321123802,
                -0.5765130735696493,
                0.7775406383642529,
                -0.5675932069688179,
                0.5674672618854477
            ]
        },
        {
            "positions": [
                0.7681985277748777,
                -1.1317680551721427,
                -0.49750687059615406,
                0.9143695582726215,
                -0.5085724019078028,
                0.5748465298125094
            ]
        },
        {
            "positions": [
                0.6608983047922052,
                -1.1255140782319055,
                -0.4185006676226588,
                1.0511984781809895,
                -0.449551596846788,
                0.5822257977395711
            ]
        },
        {
            "positions": [
                0.553598081809533,
                -1.1192601012916683,
                -0.3394944646491638,
                1.1880273980893576,
                -0.39053079178577343,
                0.5896050656666327
            ]
        },
        {
            "positions": [
                0.44629785882686024,
                -1.1130061243514309,
                -0.2604882616756685,
                1.3248563179977262,
                -0.3315099867247584,
                0.5969843335936944
            ]
        },
        {
            "positions": [
                0.3389976358441874,
                -1.1067521474111937,
                -0.18148205870217343,
                1.4616852379060945,
                -0.2724891816637437,
                0.6043636015207561
            ]
        },
        {
            "positions": [
                0.3107005787803787,
                -1.076923681026249,
                0.023086256308350872,
                1.504077844151863,
                -0.2589529473135928,
                0.55125896258339
            ]
        },
        {
            "positions": [
                0.28240352171656996,
                -1.0470952146413042,
                0.22765457131887518,
                1.5464704503976314,
                -0.24541671296344192,
                0.49815432364602386
            ]
        },
        {
            "positions": [
                0.2541064646527612,
                -1.0172667482563595,
                0.43222288632939937,
                1.5888630566433997,
                -0.23188047861329103,
                0.4450496847086578
            ]
        },
        {
            "positions": [
                0.22580940758895252,
                -0.9874382818714148,
                0.6367912013399237,
                1.6312556628891681,
                -0.21834424426314014,
                0.39194504577129163
            ]
        },
        {
            "positions": [
                0.1975123505251438,
                -0.9576098154864701,
                0.8413595163504479,
                1.6736482691349366,
                -0.20480800991298925,
                0.3388404068339256
            ]
        },
        {
            "positions": [
                0.16921529346133507,
                -0.9277813491015253,
                1.0459278313609721,
                1.716040875380705,
                -0.19127177556283836,
                0.28573576789655947
            ]
        },
        {
            "positions": [
                0.14091823639752635,
                -0.8979528827165806,
                1.2504961463714963,
                1.7584334816264735,
                -0.17773554121268748,
                0.2326311289591934
            ]
        },
        {
            "positions": [
                0.11262117933371762,
                -0.868124416331636,
                1.455064461382021,
                1.8008260878722417,
                -0.1641993068625366,
                0.17952649002182725
            ]
        },
        {
            "positions": [
                0.08432412226990887,
                -0.8382959499466911,
                1.6596327763925451,
                1.8432186941180102,
                -0.1506630725123857,
                0.1264218510844612
            ]
        },
        {
            "positions": [
                0.05602706520610018,
                -0.8084674835617465,
                1.8642010914030696,
                1.8856113003637787,
                -0.1371268381622348,
                0.07331721214709513
            ]
        },
        {
            "positions": [
                0.12270483208885936,
                -0.7790741174402843,
                1.9977296145380399,
                1.9240480072648123,
                -0.13725475064184778,
                0.006296254292418084
            ]
        }
    ]
}