{
    "goal": {
        "global_pose": {
            "orientation": {
                "w": 0.7047431468963623,
                "x": -0.7094548344612122,
                "y": 0.0024358443915843964,
                "z": -0.0022348060738295317
            },
            "position": {
                "x": 0.6094750761985779,
                "y": 0.3671506643295288,
                "z": 0.19426114857196808
            }
        },
        "name": "move_to_magneteinheit_A"
    },
    "id": "FMT_move_to_magneteinheit_A_60",
    "joint_names": [
        "shoulder_pan_joint",
        "shoulder_lift_joint",
        "elbow_joint",
        "wrist_1_joint",
        "wrist_2_joint",
        "wrist_3_joint"
    ],
    "metrics": {
        "cart_traj_len": 3.271291001659609,
        "distance_elbow_joint": 3.9061933735875094,
        "distance_shoulder_lift_joint": 0.45025748143051536,
        "distance_shoulder_pan_joint": 2.737829110621047,
        "distance_wrist_1_joint": 0.6882752245341035,
        "distance_wrist_2_joint": 1.6912599412415028,
        "distance_wrist_3_joint": 2.730505163195552,
        "smoothness": 0.028680289825251726,
        "time": 1.279068943,
        "traj_len": 3.4934682329470563,
        "weighted_distance": 4.477149292437873
    },
    "planner": "FMT",
    "start": {
        "state": {
            "elbow_joint": -1.9196185241190666,
            "shoulder_lift_joint": -1.2443396400964142,
            "shoulder_pan_joint": 2.6996025414629847,
            "wrist_1_joint": -1.5485510000780065,
            "wrist_2_joint": -1.5709468930060704,
            "wrist_3_joint": 0.4420197071253992
        }
    },
    "waypoints": [
        {
            "positions": [
                2.6996025414629847,
                -1.2443396400964142,
                -1.9196185241190666,
                -1.5485510000780065,
                -1.5709468930060704,
                0.4420197071253992
            ]
        },
        {
            "positions": [
                2.579847693567812,
                -1.2531849813972504,
                -1.7618015444378183,
                -1.5415642710060968,
                -1.552393060052209,
                0.5161015137902212
            ]
        },
        {
            "positions": [
                2.4600928456726394,
                -1.2620303226980867,
                -1.60398456475657,
                -1.5345775419341872,
                -1.5338392270983472,
                0.5901833204550432
            ]
        },
        {
            "positions": [
                2.3403379977774668,
                -1.2708756639989232,
                -1.4461675850753217,
                -1.5275908128622775,
                -1.5152853941444857,
                0.6642651271198651
            ]
        },
        {
            "positions": [
                2.2205831498822937,
                -1.2797210052997594,
                -1.2883506053940734,
                -1.5206040837903676,
                -1.4967315611906242,
                0.7383469337846871
            ]
        },
        {
            "positions": [
                2.1008283019871214,
                -1.2885663466005957,
                -1.1305336257128251,
                -1.513617354718458,
                -1.4781777282367627,
                0.8124287404495091
            ]
        },
        {
            "positions": [
                1.9810734540919486,
                -1.297411687901432,
                -0.9727166460315768,
                -1.5066306256465483,
                -1.4596238952829013,
                0.8865105471143311
            ]
        },
        {
            "positions": [
                1.861318606196776,
                -1.3062570292022682,
                -0.8148996663503285,
                -1.4996438965746386,
                -1.4410700623290396,
                0.960592353779153
            ]
        },
        {
            "positions": [
                1.741563758301603,
                -1.3151023705031046,
                -0.6570826866690802,
                -1.492657167502729,
                -1.422516229375178,
                1.034674160443975
            ]
        },
        {
            "positions": [
                1.6218089104064304,
                -1.3239477118039409,
                -0.4992657069878319,
                -1.4856704384308193,
                -1.4039623964213166,
                1.108755967108797
            ]
        },
        {
            "positions": [
                1.5020540625112577,
                -1.3327930531047771,
                -0.3414487273065836,
                -1.4786837093589096,
                -1.385408563467455,
                1.182837773773619
            ]
        },
        {
            "positions": [
                1.3822992146160848,
                -1.3416383944056134,
                -0.18363174762533507,
                -1.4716969802869997,
                -1.3668547305135934,
                1.256919580438441
            ]
        },
        {
            "positions": [
                1.2625443667209124,
                -1.3504837357064496,
                -0.02581476794408699,
                -1.46471025121509,
                -1.348300897559732,
                1.3310013871032629
            ]
        },
        {
            "positions": [
                1.1427895188257395,
                -1.3593290770072861,
                0.13200221173716153,
                -1.4577235221431804,
                -1.3297470646058704,
                1.405083193768085
            ]
        },
        {
            "positions": [
                1.023034670930567,
                -1.3681744183081224,
                0.2898191914184096,
                -1.4507367930712707,
                -1.311193231652009,
                1.4791650004329067
            ]
        },
        {
            "positions": [
                0.9032798230353942,
                -1.3770197596089586,
                0.4476361710996577,
                -1.443750063999361,
                -1.2926393986981473,
                1.5532468070977288
            ]
        },
        {
            "positions": [
                0.7835249751402213,
                -1.3858651009097949,
                0.6054531507809062,
                -1.4367633349274513,
                -1.2740855657442858,
                1.627328613762551
            ]
        },
        {
            "positions": [
                0.6637701272450487,
                -1.3947104422106311,
                0.7632701304621543,
                -1.4297766058555414,
                -1.2555317327904243,
                1.701410420427373
            ]
        },
        {
            "positions": [
                0.544015279349876,
                -1.4035557835114676,
                0.9210871101434028,
                -1.4227898767836318,
                -1.2369778998365626,
                1.7754922270921947
            ]
        },
        {
            "positions": [
                0.4242604314547034,
                -1.4124011248123038,
                1.078904089824651,
                -1.415803147711722,
                -1.218424066882701,
                1.8495740337570168
            ]
        },
        {
            "positions": [
                0.3045055835595306,
                -1.42124646611314,
                1.2367210695058994,
                -1.4088164186398124,
                -1.1998702339288396,
                1.9236558404218387
            ]
        },
        {
            "positions": [
                0.2534169202179318,
                -1.392164564730829,
                1.3096303682082535,
                -1.3945087882147245,
                -1.0830636401621574,
                2.0141829028925264
            ]
        },
        {
            "positions": [
                0.20232825687633293,
                -1.3630826633485178,
                1.3825396669106076,
                -1.3802011577896365,
                -0.9662570463954752,
                2.104709965363214
            ]
        },
        {
            "positions": [
                0.15123959353473412,
                -1.3340007619662066,
                1.4554489656129617,
                -1.3658935273645485,
                -0.8494504526287929,
                2.195237027833902
            ]
        },
        {
            "positions": [
                0.10015093019313528,
                -1.3049188605838955,
                1.5283582643153157,
                -1.3515858969394605,
                -0.7326438588621106,
                2.28576409030459
            ]
        },
        {
            "positions": [
                0.0490622668515365,
                -1.2758369592015844,
                1.6012675630176698,
                -1.3372782665143725,
                -0.6158372650954284,
                2.3762911527752775
            ]
        },
        {
            "positions": [
                0.046751144882854596,
                -1.2571417653863086,
                1.6535021674090071,
                -1.282556193510515,
                -0.5173644343453365,
                2.4695546447538845
            ]
        },
        {
            "positions": [
                0.044440022914172685,
                -1.2384465715710327,
                1.7057367718003444,
                -1.2278341205066572,
                -0.4188916035952448,
                2.5628181367324916
            ]
        },
        {
            "positions": [
                0.04212890094549078,
                -1.219751377755757,
                1.7579713761916818,
                -1.1731120475027996,
                -0.320418772845153,
                2.6560816287110987
            ]
        },
        {
            "positions": [
                0.058199994966201374,
                -1.2053802643444758,
                1.8036920708470339,
                -1.1105447931110204,
                -0.2322724086290359,
                2.759370277033069
            ]
        },
        {
            "positions": [
                0.07427108898691195,
                -1.1910091509331944,
                1.849412765502386,
                -1.047977538719241,
                -0.14412604441291876,
                2.86265892535504
            ]
        },
        {
            "positions": [
                0.09034218300762253,
                -1.1766380375219132,
                1.8951334601577383,
                -0.9854102843274617,
                -0.05597968019680166,
                2.9659475736770102
            ]
        },
        {
            "positions": [
                0.10641327702833314,
                -1.1622669241106318,
                1.9408541548130904,
                -0.9228430299356822,
                0.032166684019315495,
                3.069236221998981
            ]
        },
        {
            "positions": [
                0.12248437104904372,
                -1.1478958106993506,
                1.9865748494684425,
                -0.860275775543903,
                0.12031304823543258,
                3.1725248703209514
            ]
        }
    ]
}