{
    "goal": {
        "global_pose": {
            "orientation": {
                "w": 0.7031023480610252,
                "x": -0.7110244013736278,
                "y": 0.0077485991402295624,
                "z": 0.005598929693374583
            },
            "position": {
                "x": -0.8841497679147869,
                "y": 0.44412534475326537,
                "z": 0.3711530566215515
            }
        },
        "name": "move_to_auspresseinheit_D"
    },
    "id": "FMT_move_to_auspresseinheit_D_86",
    "joint_names": [
        "shoulder_pan_joint",
        "shoulder_lift_joint",
        "elbow_joint",
        "wrist_1_joint",
        "wrist_2_joint",
        "wrist_3_joint"
    ],
    "metrics": {
        "cart_traj_len": 0.3426508634367004,
        "distance_elbow_joint": 0.6341116589980942,
        "distance_shoulder_lift_joint": 0.11846172382339049,
        "distance_shoulder_pan_joint": 0.13339618462367805,
        "distance_wrist_1_joint": 0.5260368536959992,
        "distance_wrist_2_joint": 1.435388130372623,
        "distance_wrist_3_joint": 0.007040475518617306,
        "smoothness": 5.921189480296099e-16,
        "time": 0.438027227,
        "traj_len": 1.6895073326364707,
        "weighted_distance": 2.197712665963924
    },
    "planner": "FMT",
    "start": {
        "state": {
            "elbow_joint": -1.8275523626775212,
            "shoulder_lift_joint": -2.126789852344167,
            "shoulder_pan_joint": -0.03513704404078235,
            "wrist_1_joint": -2.347782403156801,
            "wrist_2_joint": -1.6058999987535132,
            "wrist_3_joint": -3.0880379163319196
        }
    },
    "waypoints": [
        {
            "positions": [
                -0.03513704404078235,
                -2.126789852344167,
                -1.8275523626775212,
                -2.347782403156801,
                -1.6058999987535132,
                -3.0880379163319196
            ]
        },
        {
            "positions": [
                -0.0518115671187421,
                -2.1415975678220907,
                -1.7482884053027594,
                -2.4135370098688007,
                -1.4264764824569354,
                -3.088917975771747
            ]
        },
        {
            "positions": [
                -0.06848609019670186,
                -2.1564052833000145,
                -1.6690244479279976,
                -2.4792916165808006,
                -1.2470529661603575,
                -3.089798035211574
            ]
        },
        {
            "positions": [
                -0.08516061327466162,
                -2.1712129987779383,
                -1.5897604905532359,
                -2.5450462232928004,
                -1.0676294498637795,
                -3.090678094651401
            ]
        },
        {
            "positions": [
                -0.10183513635262137,
                -2.186020714255862,
                -1.510496533178474,
                -2.6108008300048002,
                -0.8882059335672017,
                -3.0915581540912282
            ]
        },
        {
            "positions": [
                -0.11850965943058114,
                -2.200828429733786,
                -1.4312325758037123,
                -2.6765554367168005,
                -0.7087824172706239,
                -3.0924382135310555
            ]
        },
        {
            "positions": [
                -0.1351841825085409,
                -2.2156361452117097,
                -1.3519686184289506,
                -2.7423100434288004,
                -0.5293589009740458,
                -3.0933182729708824
            ]
        },
        {
            "positions": [
                -0.15185870558650064,
                -2.2304438606896335,
                -1.2727046610541888,
                -2.8080646501408,
                -0.349935384677468,
                -3.0941983324107096
            ]
        },
        {
            "positions": [
                -0.1685332286644604,
                -2.2452515761675573,
                -1.193440703679427,
                -2.8738192568528,
                -0.17051186838089016,
                -3.095078391850537
            ]
        }
    ]
}