{
    "goal": {
        "global_pose": {
            "orientation": {
                "w": 0.5084816217422485,
                "x": -0.49083608388900757,
                "y": 0.5182115435600281,
                "z": -0.4816462993621826
            },
            "position": {
                "x": 0.5540239810943604,
                "y": 0.030875300988554955,
                "z": 0.16403168439865112
            }
        },
        "name": "move_to_storage_A"
    },
    "id": "FMT_move_to_storage_A_101",
    "joint_names": [
        "shoulder_pan_joint",
        "shoulder_lift_joint",
        "elbow_joint",
        "wrist_1_joint",
        "wrist_2_joint",
        "wrist_3_joint"
    ],
    "metrics": {
        "cart_traj_len": 0.3533278354230119,
        "distance_elbow_joint": 0.45173307348077985,
        "distance_shoulder_lift_joint": 0.23453620004632114,
        "distance_shoulder_pan_joint": 0.46241510615254666,
        "distance_wrist_1_joint": 0.2455543093965341,
        "distance_wrist_2_joint": 1.0983049066494825,
        "distance_wrist_3_joint": 0.08792038537792202,
        "smoothness": 6.661338165333112e-16,
        "time": 0.385372044,
        "traj_len": 1.606382264936832,
        "weighted_distance": 2.0248861617151337
    },
    "planner": "FMT",
    "start": {
        "state": {
            "elbow_joint": 1.971548259319323,
            "shoulder_lift_joint": -1.1394851275133948,
            "shoulder_pan_joint": 0.1228115487234821,
            "wrist_1_joint": -0.7804723859257726,
            "wrist_2_joint": 0.12958671773740124,
            "wrist_3_joint": -3.192489227718131
        }
    },
    "waypoints": [
        {
            "positions": [
                0.1228115487234821,
                -1.1394851275133948,
                1.971548259319323,
                -0.7804723859257726,
                0.12958671773740124,
                -3.192489227718131
            ]
        },
        {
            "positions": [
                0.05675224784454687,
                -1.1729902989485836,
                2.036081555530863,
                -0.8155515729824203,
                0.2864874186873273,
                -3.179929172664142
            ]
        },
        {
            "positions": [
                -0.009307053034388363,
                -1.2064954703837723,
                2.100614851742403,
                -0.8506307600390681,
                0.44338811963725333,
                -3.1673691176101535
            ]
        },
        {
            "positions": [
                -0.07536635391332361,
                -1.240000641818961,
                2.1651481479539427,
                -0.8857099470957158,
                0.6002888205871795,
                -3.1548090625561644
            ]
        },
        {
            "positions": [
                -0.14142565479225883,
                -1.2735058132541497,
                2.229681444165483,
                -0.9207891341523635,
                0.7571895215371055,
                -3.142249007502176
            ]
        },
        {
            "positions": [
                -0.20748495567119407,
                -1.3070109846893385,
                2.294214740377023,
                -0.9558683212090113,
                0.9140902224870316,
                -3.129688952448187
            ]
        },
        {
            "positions": [
                -0.2735442565501293,
                -1.3405161561245271,
                2.3587480365885627,
                -0.9909475082656589,
                1.0709909234369577,
                -3.117128897394198
            ]
        },
        {
            "positions": [
                -0.33960355742906456,
                -1.374021327559716,
                2.423281332800103,
                -1.0260266953223067,
                1.2278916243868838,
                -3.104568842340209
            ]
        }
    ]
}{
    "goal": {
        "global_pose": {
            "orientation": {
                "w": 0.5084816217422485,
                "x": -0.49083608388900757,
                "y": 0.5182115435600281,
                "z": -0.4816462993621826
            },
            "position": {
                "x": 0.5540239810943604,
                "y": 0.030875300988554955,
                "z": 0.16403168439865112
            }
        },
        "name": "move_to_storage_A"
    },
    "id": "FMT_move_to_storage_A_101",
    "joint_names": [
        "shoulder_pan_joint",
        "shoulder_lift_joint",
        "elbow_joint",
        "wrist_1_joint",
        "wrist_2_joint",
        "wrist_3_joint"
    ],
    "metrics": {
        "cart_traj_len": 0.3538007191952694,
        "distance_elbow_joint": 0.4496747323901116,
        "distance_shoulder_lift_joint": 0.23478762475763904,
        "distance_shoulder_pan_joint": 0.46093363583009445,
        "distance_wrist_1_joint": 0.23732367985452973,
        "distance_wrist_2_joint": 1.1080864172623976,
        "distance_wrist_3_joint": 0.09077845996996636,
        "smoothness": 2.2204460668324854e-16,
        "time": 0.422370084,
        "traj_len": 1.606731013600204,
        "weighted_distance": 2.0269562321672363
    },
    "planner": "FMT",
    "start": {
        "state": {
            "elbow_joint": 1.97154746011099,
            "shoulder_lift_joint": -1.13948474672311,
            "shoulder_pan_joint": 0.12281154466712228,
            "wrist_1_joint": -0.7804688027058302,
            "wrist_2_joint": 0.12958655903071145,
            "wrist_3_joint": 3.0906928834467795
        }
    },
    "waypoints": [
        {
            "positions": [
                0.12281154466712228,
                -1.13948474672311,
                1.97154746011099,
                -0.7804688027058302,
                0.12958655903071145,
                3.0906928834467795
            ]
        },
        {
            "positions": [
                0.05696388240568022,
                -1.1730258359742012,
                2.0357867075952916,
                -0.8143721855421916,
                0.2878846186396254,
                3.1036612348710606
            ]
        },
        {
            "positions": [
                -0.008883779855761845,
                -1.2065669252252926,
                2.100025955079593,
                -0.848275568378553,
                0.4461826782485393,
                3.1166295862953413
            ]
        },
        {
            "positions": [
                -0.07473144211720391,
                -1.2401080144763839,
                2.164265202563895,
                -0.8821789512149143,
                0.6044807378574533,
                3.1295979377196224
            ]
        },
        {
            "positions": [
                -0.14057910437864596,
                -1.273649103727475,
                2.2285044500481965,
                -0.9160823340512757,
                0.7627787974663672,
                3.142566289143903
            ]
        },
        {
            "positions": [
                -0.20642676664008802,
                -1.3071901929785663,
                2.292743697532498,
                -0.9499857168876371,
                0.9210768570752812,
                3.155534640568184
            ]
        },
        {
            "positions": [
                -0.2722744289015301,
                -1.3407312822296578,
                2.3569829450168,
                -0.9838890997239985,
                1.079374916684195,
                3.1685029919924648
            ]
        },
        {
            "positions": [
                -0.33812209116297215,
                -1.374272371480749,
                2.4212221925011015,
                -1.01779248256036,
                1.2376729762931091,
                3.181471343416746
            ]
        }
    ]
}{
    "goal": {
        "global_pose": {
            "orientation": {
                "w": 0.5084816217422485,
                "x": -0.49083608388900757,
                "y": 0.5182115435600281,
                "z": -0.4816462993621826
            },
            "position": {
                "x": 0.5540239810943604,
                "y": 0.030875300988554955,
                "z": 0.16403168439865112
            }
        },
        "name": "move_to_storage_A"
    },
    "id": "FMT_move_to_storage_A_101",
    "joint_names": [
        "shoulder_pan_joint",
        "shoulder_lift_joint",
        "elbow_joint",
        "wrist_1_joint",
        "wrist_2_joint",
        "wrist_3_joint"
    ],
    "metrics": {
        "cart_traj_len": 0.3525212886031575,
        "distance_elbow_joint": 0.44997042698425904,
        "distance_shoulder_lift_joint": 0.23631806262304567,
        "distance_shoulder_pan_joint": 0.4595648390945268,
        "distance_wrist_1_joint": 0.23949975250293498,
        "distance_wrist_2_joint": 1.1048323632114392,
        "distance_wrist_3_joint": 0.09716441643344886,
        "smoothness": 4.440892098500626e-16,
        "time": 0.442340207,
        "traj_len": 1.6085241250443383,
        "weighted_distance": 2.0312584299962735
    },
    "planner": "FMT",
    "start": {
        "state": {
            "elbow_joint": 1.9715472970024885,
            "shoulder_lift_joint": -1.1394870060712896,
            "shoulder_pan_joint": 0.12281152778156021,
            "wrist_1_joint": -0.780463741449964,
            "wrist_2_joint": 0.12958659822042276,
            "wrist_3_joint": 3.090690232415272
        }
    },
    "waypoints": [
        {
            "positions": [
                0.12281152778156021,
                -1.1394870060712896,
                1.9715472970024885,
                -0.780463741449964,
                0.12958659822042276,
                3.090690232415272
            ]
        },
        {
            "positions": [
                0.057159407910913534,
                -1.1732467293031532,
                2.035828786571668,
                -0.8146779918075261,
                0.28741979296491404,
                3.104570863334336
            ]
        },
        {
            "positions": [
                -0.00849271195973314,
                -1.207006452535017,
                2.1001102761408483,
                -0.8488922421650883,
                0.44525298770940536,
                3.1184514942534003
            ]
        },
        {
            "positions": [
                -0.07414483183037981,
                -1.2407661757668806,
                2.164391765710028,
                -0.8831064925226504,
                0.6030861824538967,
                3.1323321251724643
            ]
        },
        {
            "positions": [
                -0.1397969517010265,
                -1.2745258989987442,
                2.228673255279208,
                -0.9173207428802126,
                0.760919377198388,
                3.1462127560915283
            ]
        },
        {
            "positions": [
                -0.20544907157167316,
                -1.308285622230608,
                2.292954744848388,
                -0.9515349932377747,
                0.9187525719428793,
                3.1600933870105923
            ]
        },
        {
            "positions": [
                -0.2711011914423198,
                -1.3420453454624717,
                2.3572362344175675,
                -0.9857492435953368,
                1.0765857666873706,
                3.1739740179296567
            ]
        },
        {
            "positions": [
                -0.33675331131296654,
                -1.3758050686943353,
                2.4215177239867476,
                -1.019963493952899,
                1.234418961431862,
                3.1878546488487207
            ]
        }
    ]
}