{
    "goal": {
        "global_pose": {
            "orientation": {
                "w": 0.005598929693374612,
                "x": 0.007748599140229565,
                "y": 0.7110244013736278,
                "z": -0.7031023480610252
            },
            "position": {
                "x": 0.1141497679147869,
                "y": -0.7141253447532654,
                "z": 0.3711530566215515
            }
        },
        "name": "move_to_auspresseinheit_B"
    },
    "id": "FMT_move_to_auspresseinheit_B_101",
    "joint_names": [
        "shoulder_pan_joint",
        "shoulder_lift_joint",
        "elbow_joint",
        "wrist_1_joint",
        "wrist_2_joint",
        "wrist_3_joint"
    ],
    "metrics": {
        "cart_traj_len": 0.5650292344330529,
        "distance_elbow_joint": 0.06056913687888721,
        "distance_shoulder_lift_joint": 0.2942478843056382,
        "distance_shoulder_pan_joint": 0.5788319561755981,
        "distance_wrist_1_joint": 0.31947473256908265,
        "distance_wrist_2_joint": 0.9884791654073526,
        "distance_wrist_3_joint": 0.00554228579465299,
        "smoothness": 1.0150610551046396e-15,
        "time": 0.46227450800000003,
        "traj_len": 1.499048084996346,
        "weighted_distance": 1.8884341743086925
    },
    "planner": "FMT",
    "start": {
        "state": {
            "elbow_joint": 2.0193083361928714,
            "shoulder_lift_joint": -1.1220246554650708,
            "shoulder_pan_joint": -1.0952077554168747,
            "wrist_1_joint": -0.8559753972642168,
            "wrist_2_joint": 0.4759566250798843,
            "wrist_3_joint": -3.1240929996934557
        }
    },
    "waypoints": [
        {
            "positions": [
                -1.0952077554168747,
                -1.1220246554650708,
                2.0193083361928714,
                -0.8559753972642168,
                0.4759566250798843,
                -3.1240929996934557
            ]
        },
        {
            "positions": [
                -1.1916797481128076,
                -1.1710659695160106,
                2.00921348004639,
                -0.802729608502703,
                0.6407031526477764,
                -3.1231692853943467
            ]
        },
        {
            "positions": [
                -1.2881517408087406,
                -1.2201072835669502,
                1.999118623899909,
                -0.7494838197411893,
                0.8054496802156685,
                -3.122245571095238
            ]
        },
        {
            "positions": [
                -1.3846237335046738,
                -1.2691485976178898,
                1.989023767753428,
                -0.6962380309796754,
                0.9701962077835606,
                -3.121321856796129
            ]
        },
        {
            "positions": [
                -1.4810957262006066,
                -1.3181899116688296,
                1.9789289116069466,
                -0.6429922422181618,
                1.1349427353514527,
                -3.12039814249702
            ]
        },
        {
            "positions": [
                -1.5775677188965398,
                -1.3672312257197694,
                1.9688340554604653,
                -0.5897464534566479,
                1.2996892629193448,
                -3.1194744281979117
            ]
        },
        {
            "positions": [
                -1.6740397115924728,
                -1.416272539770709,
                1.9587391993139842,
                -0.5365006646951341,
                1.464435790487237,
                -3.1185507138988027
            ]
        }
    ]
}