{
    "goal": {
        "global_pose": {
            "orientation": {
                "w": 0.005598929693374612,
                "x": 0.007748599140229565,
                "y": 0.7110244013736278,
                "z": -0.7031023480610252
            },
            "position": {
                "x": 0.1141497679147869,
                "y": -0.7141253447532654,
                "z": 0.3711530566215515
            }
        },
        "name": "move_to_auspresseinheit_B"
    },
    "id": "FMT_move_to_auspresseinheit_B_133",
    "joint_names": [
        "shoulder_pan_joint",
        "shoulder_lift_joint",
        "elbow_joint",
        "wrist_1_joint",
        "wrist_2_joint",
        "wrist_3_joint"
    ],
    "metrics": {
        "cart_traj_len": 0.5643585954771473,
        "distance_elbow_joint": 0.061490196198093594,
        "distance_shoulder_lift_joint": 0.2938136205063029,
        "distance_shoulder_pan_joint": 0.5778007206972395,
        "distance_wrist_1_joint": 0.32245775340721783,
        "distance_wrist_2_joint": 0.9884816974113473,
        "distance_wrist_3_joint": 0.007710525736227769,
        "smoothness": 1.0150610551046396e-15,
        "time": 0.47944922700000003,
        "traj_len": 1.5005847240180838,
        "weighted_distance": 1.8915906048210986
    },
    "planner": "FMT",
    "start": {
        "state": {
            "elbow_joint": 2.0193083361928714,
            "shoulder_lift_joint": -1.1220246554650708,
            "shoulder_pan_joint": -1.0952077554168747,
            "wrist_1_joint": -0.8559753972642168,
            "wrist_2_joint": 0.4759566250798843,
            "wrist_3_joint": -3.1240929996934557
        }
    },
    "waypoints": [
        {
            "positions": [
                -1.0952077554168747,
                -1.1220246554650708,
                2.0193083361928714,
                -0.8559753972642168,
                0.4759566250798843,
                -3.1240929996934557
            ]
        },
        {
            "positions": [
                -1.1915078755330812,
                -1.1709935922161212,
                2.0090599701598557,
                -0.8022324383630138,
                0.6407035746484422,
                -3.12537808731616
            ]
        },
        {
            "positions": [
                -1.2878079956492878,
                -1.2199625289671718,
                1.9988116041268402,
                -0.7484894794618109,
                0.805450524217,
                -3.126663174938865
            ]
        },
        {
            "positions": [
                -1.3841081157654944,
                -1.2689314657182222,
                1.9885632380938247,
                -0.6947465205606078,
                0.9701974737855579,
                -3.1279482625615698
            ]
        },
        {
            "positions": [
                -1.480408235881701,
                -1.3179004024692726,
                1.978314872060809,
                -0.641003561659405,
                1.1349444233541157,
                -3.129233350184274
            ]
        },
        {
            "positions": [
                -1.5767083559979076,
                -1.3668693392203233,
                1.9680665060277933,
                -0.5872606027582019,
                1.2996913729226738,
                -3.1305184378069786
            ]
        },
        {
            "positions": [
                -1.6730084761141142,
                -1.4158382759713737,
                1.9578181399947778,
                -0.533517643856999,
                1.4644383224912316,
                -3.1318035254296834
            ]
        }
    ]
}