{
    "goal": {
        "global_pose": {
            "orientation": {
                "w": 0.7031023480610252,
                "x": -0.7110244013736278,
                "y": 0.0077485991402295624,
                "z": 0.005598929693374583
            },
            "position": {
                "x": -0.8841497679147869,
                "y": 0.44412534475326537,
                "z": 0.3711530566215515
            }
        },
        "name": "move_to_auspresseinheit_D"
    },
    "id": "FMT_move_to_auspresseinheit_D_53",
    "joint_names": [
        "shoulder_pan_joint",
        "shoulder_lift_joint",
        "elbow_joint",
        "wrist_1_joint",
        "wrist_2_joint",
        "wrist_3_joint"
    ],
    "metrics": {
        "cart_traj_len": 0.34272551861445927,
        "distance_elbow_joint": 0.6368537339079534,
        "distance_shoulder_lift_joint": 0.12123601589463107,
        "distance_shoulder_pan_joint": 0.1342931615473492,
        "distance_wrist_1_joint": 0.5301580665850101,
        "distance_wrist_2_joint": 1.4294187952366735,
        "distance_wrist_3_joint": 0.0029573025879017223,
        "smoothness": 1.9737298371844314e-16,
        "time": 0.416031757,
        "traj_len": 1.6896499861685907,
        "weighted_distance": 2.1955428811018485
    },
    "planner": "FMT",
    "start": {
        "state": {
            "elbow_joint": -1.8275523626775212,
            "shoulder_lift_joint": -2.126789852344167,
            "shoulder_pan_joint": -0.03513704404078235,
            "wrist_1_joint": -2.347782403156801,
            "wrist_2_joint": -1.6058999987535132,
            "wrist_3_joint": -3.0880379163319196
        }
    },
    "waypoints": [
        {
            "positions": [
                -0.03513704404078235,
                -2.126789852344167,
                -1.8275523626775212,
                -2.347782403156801,
                -1.6058999987535132,
                -3.0880379163319196
            ]
        },
        {
            "positions": [
                -0.051923689234201,
                -2.1419443543309957,
                -1.747945645939027,
                -2.414052161479927,
                -1.427222649348929,
                -3.087668253508432
            ]
        },
        {
            "positions": [
                -0.06871033442761965,
                -2.1570988563178246,
                -1.6683389292005328,
                -2.4803219198030533,
                -1.248545299944345,
                -3.087298590684944
            ]
        },
        {
            "positions": [
                -0.0854969796210383,
                -2.1722533583046535,
                -1.5887322124620387,
                -2.5465916781261795,
                -1.0698679505397606,
                -3.0869289278614565
            ]
        },
        {
            "positions": [
                -0.10228362481445694,
                -2.1874078602914824,
                -1.5091254957235445,
                -2.6128614364493057,
                -0.8911906011351765,
                -3.0865592650379687
            ]
        },
        {
            "positions": [
                -0.1190702700078756,
                -2.2025623622783113,
                -1.4295187789850503,
                -2.6791311947724323,
                -0.7125132517305923,
                -3.086189602214481
            ]
        },
        {
            "positions": [
                -0.13585691520129425,
                -2.21771686426514,
                -1.3499120622465561,
                -2.7454009530955585,
                -0.533835902326008,
                -3.0858199393909933
            ]
        },
        {
            "positions": [
                -0.15264356039471288,
                -2.232871366251969,
                -1.270305345508062,
                -2.8116707114186847,
                -0.35515855292142384,
                -3.0854502765675056
            ]
        },
        {
            "positions": [
                -0.16943020558813154,
                -2.248025868238798,
                -1.1906986287695678,
                -2.877940469741811,
                -0.17648120351683982,
                -3.085080613744018
            ]
        }
    ]
}