{
    "goal": {
        "global_pose": {
            "orientation": {
                "w": -0.4816463035849501,
                "x": 0.5182115481033762,
                "y": 0.4908360881923453,
                "z": -0.5084816262002911
            },
            "position": {
                "x": -0.8240239810943604,
                "y": -0.300875300988555,
                "z": 0.16403168439865112
            }
        },
        "name": "move_to_storage_C"
    },
    "id": "FMT_move_to_storage_C_139",
    "joint_names": [
        "shoulder_pan_joint",
        "shoulder_lift_joint",
        "elbow_joint",
        "wrist_1_joint",
        "wrist_2_joint",
        "wrist_3_joint"
    ],
    "metrics": {
        "cart_traj_len": 0.5768444617124461,
        "distance_elbow_joint": 0.25633029690066533,
        "distance_shoulder_lift_joint": 0.18940785963388773,
        "distance_shoulder_pan_joint": 0.4958001185435976,
        "distance_wrist_1_joint": 0.07516787651884549,
        "distance_wrist_2_joint": 1.0640618667775676,
        "distance_wrist_3_joint": 0.05686742846839854,
        "smoothness": 0.0,
        "time": 0.338728424,
        "traj_len": 1.4620654728304618,
        "weighted_distance": 1.8413582071601855
    },
    "planner": "FMT",
    "start": {
        "state": {
            "elbow_joint": 2.010868314990456,
            "shoulder_lift_joint": -1.1634956873337592,
            "shoulder_pan_joint": -2.4736205022346125,
            "wrist_1_joint": -0.8367026794202681,
            "wrist_2_joint": 0.6746043897044499,
            "wrist_3_joint": -3.1496632123970403
        }
    },
    "waypoints": [
        {
            "positions": [
                -2.4736205022346125,
                -1.1634956873337592,
                2.010868314990456,
                -0.8367026794202681,
                0.6746043897044499,
                -3.1496632123970403
            ]
        },
        {
            "positions": [
                -2.5562538553252123,
                -1.1319277107281112,
                1.9681465988403448,
                -0.8241747000004606,
                0.8519480341673779,
                -3.140185307652307
            ]
        },
        {
            "positions": [
                -2.6388872084158117,
                -1.1003597341224634,
                1.925424882690234,
                -0.8116467205806529,
                1.029291678630306,
                -3.130707402907574
            ]
        },
        {
            "positions": [
                -2.721520561506411,
                -1.0687917575168153,
                1.8827031665401233,
                -0.7991187411608454,
                1.2066353230932338,
                -3.1212294981628412
            ]
        },
        {
            "positions": [
                -2.804153914597011,
                -1.0372237809111673,
                1.8399814503900123,
                -0.7865907617410378,
                1.3839789675561618,
                -3.111751593418108
            ]
        },
        {
            "positions": [
                -2.8867872676876107,
                -1.0056558043055195,
                1.7972597342399013,
                -0.7740627823212302,
                1.5613226120190897,
                -3.1022736886733746
            ]
        },
        {
            "positions": [
                -2.96942062077821,
                -0.9740878276998715,
                1.7545380180897905,
                -0.7615348029014226,
                1.7386662564820174,
                -3.0927957839286417
            ]
        }
    ]
}