{
    "goal": {
        "global_pose": {
            "orientation": {
                "w": 0.5084816262002911,
                "x": -0.4908360881923452,
                "y": 0.5182115481033761,
                "z": -0.48164630358495003
            },
            "position": {
                "x": 0.5540239810943604,
                "y": -0.46912469901144505,
                "z": 0.16403168439865112
            }
        },
        "name": "move_to_storage_B"
    },
    "id": "FMT_move_to_storage_B_57",
    "joint_names": [
        "shoulder_pan_joint",
        "shoulder_lift_joint",
        "elbow_joint",
        "wrist_1_joint",
        "wrist_2_joint",
        "wrist_3_joint"
    ],
    "metrics": {
        "cart_traj_len": 0.9733406783065938,
        "distance_elbow_joint": 0.46134804890652203,
        "distance_shoulder_lift_joint": 1.0169135525930364,
        "distance_shoulder_pan_joint": 0.37123095037027387,
        "distance_wrist_1_joint": 2.977857882503095,
        "distance_wrist_2_joint": 2.7045464671663932,
        "distance_wrist_3_joint": 3.1269637368184857,
        "smoothness": 0.10051286663886666,
        "time": 1.357142037,
        "traj_len": 3.2647910558499462,
        "weighted_distance": 4.753440066064183
    },
    "planner": "FMT",
    "start": {
        "state": {
            "elbow_joint": 1.664937868594044,
            "shoulder_lift_joint": -0.661644460510453,
            "shoulder_pan_joint": -0.9139846352900073,
            "wrist_1_joint": 2.146753192139373,
            "wrist_2_joint": -2.2341966793290973,
            "wrist_3_joint": 0.005466555786416001
        }
    },
    "waypoints": [
        {
            "positions": [
                -0.9139846352900073,
                -0.661644460510453,
                1.664937868594044,
                2.146753192139373,
                -2.2341966793290973,
                0.005466555786416001
            ]
        },
        {
            "positions": [
                -0.9080785671431476,
                -0.7077188789812221,
                1.6902184918647678,
                2.0013164891997444,
                -2.099455959462197,
                0.03935860690891966
            ]
        },
        {
            "positions": [
                -0.9021724989962879,
                -0.7537932974519912,
                1.7154991151354917,
                1.8558797862601155,
                -1.964715239595297,
                0.07325065803142332
            ]
        },
        {
            "positions": [
                -0.8962664308494283,
                -0.7998677159227603,
                1.7407797384062156,
                1.710443083320487,
                -1.8299745197283968,
                0.10714270915392698
            ]
        },
        {
            "positions": [
                -0.8903603627025686,
                -0.8459421343935294,
                1.7660603616769395,
                1.565006380380858,
                -1.6952337998614966,
                0.14103476027643064
            ]
        },
        {
            "positions": [
                -0.8844542945557089,
                -0.8920165528642985,
                1.7913409849476634,
                1.4195696774412292,
                -1.5604930799945964,
                0.1749268113989343
            ]
        },
        {
            "positions": [
                -0.8785482264088492,
                -0.9380909713350676,
                1.8166216082183873,
                1.2741329745016006,
                -1.4257523601276962,
                0.20881886252143797
            ]
        },
        {
            "positions": [
                -0.8726421582619895,
                -0.9841653898058367,
                1.8419022314891111,
                1.1286962715619717,
                -1.291011640260796,
                0.24271091364394162
            ]
        },
        {
            "positions": [
                -0.86673609011513,
                -1.0302398082766058,
                1.867182854759835,
                0.9832595686223429,
                -1.156270920393896,
                0.2766029647664453
            ]
        },
        {
            "positions": [
                -0.8608300219682703,
                -1.0763142267473749,
                1.892463478030559,
                0.837822865682714,
                -1.0215302005269957,
                0.31049501588894896
            ]
        },
        {
            "positions": [
                -0.8549239538214106,
                -1.122388645218144,
                1.9177441013012828,
                0.6923861627430852,
                -0.8867894806600956,
                0.3443870670114526
            ]
        },
        {
            "positions": [
                -0.8490178856745509,
                -1.168463063688913,
                1.9430247245720067,
                0.5469494598034566,
                -0.7520487607931954,
                0.37827911813395626
            ]
        },
        {
            "positions": [
                -0.8431118175276913,
                -1.2145374821596822,
                1.9683053478427306,
                0.4015127568638277,
                -0.6173080409262952,
                0.41217116925645997
            ]
        },
        {
            "positions": [
                -0.8372057493808316,
                -1.2606119006304513,
                1.9935859711134545,
                0.25607605392419885,
                -0.48256732105939504,
                0.4460632203789636
            ]
        },
        {
            "positions": [
                -0.8312996812339719,
                -1.3066863191012204,
                2.0188665943841784,
                0.11063935098457023,
                -0.34782660119249487,
                0.4799552715014673
            ]
        },
        {
            "positions": [
                -0.8253936130871122,
                -1.3527607375719894,
                2.0441472176549023,
                -0.03479735195505862,
                -0.2130858813255947,
                0.5138473226239708
            ]
        },
        {
            "positions": [
                -0.8194875449402526,
                -1.3988351560427585,
                2.069427840925626,
                -0.1802340548946875,
                -0.07834516145869475,
                0.5477393737464745
            ]
        },
        {
            "positions": [
                -0.8425486999419625,
                -1.3755249179543643,
                2.0646896678777145,
                -0.23447327451710698,
                -0.03262058235069541,
                0.7631302836513434
            ]
        },
        {
            "positions": [
                -0.8656098549436724,
                -1.35221467986597,
                2.0599514948298028,
                -0.2887124941395265,
                0.01310399675730392,
                0.9785211935562124
            ]
        },
        {
            "positions": [
                -0.8886710099453823,
                -1.328904441777576,
                2.055213321781891,
                -0.342951713761946,
                0.05882857586530327,
                1.1939121034610811
            ]
        },
        {
            "positions": [
                -0.9117321649470923,
                -1.3055942036891817,
                2.0504751487339794,
                -0.39719093338436545,
                0.10455315497330259,
                1.40930301336595
            ]
        },
        {
            "positions": [
                -0.9347933199488022,
                -1.2822839656007874,
                2.0457369756860677,
                -0.451430153006785,
                0.15027773408130196,
                1.624693923270819
            ]
        },
        {
            "positions": [
                -0.9578544749505121,
                -1.2589737275123931,
                2.040998802638156,
                -0.5056693726292044,
                0.19600231318930128,
                1.840084833175688
            ]
        },
        {
            "positions": [
                -0.980915629952222,
                -1.2356634894239988,
                2.036260629590245,
                -0.5599085922516239,
                0.24172689229730066,
                2.055475743080557
            ]
        },
        {
            "positions": [
                -1.003976784953932,
                -1.2123532513356046,
                2.031522456542333,
                -0.6141478118740434,
                0.2874514714052999,
                2.2708666529854256
            ]
        },
        {
            "positions": [
                -1.027037939955642,
                -1.1890430132472103,
                2.0267842834944214,
                -0.668387031496463,
                0.3331760505132993,
                2.4862575628902945
            ]
        },
        {
            "positions": [
                -1.0500990949573519,
                -1.1657327751588162,
                2.0220461104465097,
                -0.7226262511188825,
                0.37890062962129867,
                2.701648472795164
            ]
        },
        {
            "positions": [
                -1.0731602499590618,
                -1.142422537070422,
                2.017307937398598,
                -0.7768654707413019,
                0.424625208729298,
                2.9170393827000325
            ]
        },
        {
            "positions": [
                -1.0962214049607717,
                -1.1191122989820277,
                2.0125697643506864,
                -0.8311046903637214,
                0.47034978783729736,
                3.1324302926049015
            ]
        }
    ]
}