{
    "goal": {
        "global_pose": {
            "orientation": {
                "w": -0.4816463035849501,
                "x": 0.5182115481033762,
                "y": 0.4908360881923453,
                "z": -0.5084816262002911
            },
            "position": {
                "x": -0.8240239810943604,
                "y": -0.300875300988555,
                "z": 0.16403168439865112
            }
        },
        "name": "move_to_storage_C"
    },
    "id": "FMT_move_to_storage_C_24",
    "joint_names": [
        "shoulder_pan_joint",
        "shoulder_lift_joint",
        "elbow_joint",
        "wrist_1_joint",
        "wrist_2_joint",
        "wrist_3_joint"
    ],
    "metrics": {
        "cart_traj_len": 0.5771815044431191,
        "distance_elbow_joint": 0.2544517910366968,
        "distance_shoulder_lift_joint": 0.18826950283111954,
        "distance_shoulder_pan_joint": 0.49692454524716334,
        "distance_wrist_1_joint": 0.06714825005514102,
        "distance_wrist_2_joint": 1.058530251196435,
        "distance_wrist_3_joint": 0.06623334953862248,
        "smoothness": 0.0,
        "time": 0.304899899,
        "traj_len": 1.4599855101695969,
        "weighted_distance": 1.8411145782471003
    },
    "planner": "FMT",
    "start": {
        "state": {
            "elbow_joint": 2.010868314990456,
            "shoulder_lift_joint": -1.1634956873337592,
            "shoulder_pan_joint": -2.4736205022346125,
            "wrist_1_joint": -0.8367026794202681,
            "wrist_2_joint": 0.6746043897044499,
            "wrist_3_joint": -3.1496632123970403
        }
    },
    "waypoints": [
        {
            "positions": [
                -2.4736205022346125,
                -1.1634956873337592,
                2.010868314990456,
                -0.8367026794202681,
                0.6746043897044499,
                -3.1496632123970403
            ]
        },
        {
            "positions": [
                -2.5564412597758066,
                -1.132117436861906,
                1.9684596831510064,
                -0.8255113044110779,
                0.8510260982371891,
                -3.1386243208072697
            ]
        },
        {
            "positions": [
                -2.6392620173170003,
                -1.1007391863900526,
                1.926051051311557,
                -0.8143199294018878,
                1.0274478067699282,
                -3.1275854292174996
            ]
        },
        {
            "positions": [
                -2.722082774858194,
                -1.0693609359181995,
                1.8836424194721073,
                -0.8031285543926976,
                1.2038695153026673,
                -3.116546537627729
            ]
        },
        {
            "positions": [
                -2.804903532399388,
                -1.037982685446346,
                1.8412337876326579,
                -0.7919371793835074,
                1.3802912238354064,
                -3.1055076460379585
            ]
        },
        {
            "positions": [
                -2.887724289940582,
                -1.006604434974493,
                1.7988251557932085,
                -0.7807458043743173,
                1.556712932368146,
                -3.0944687544481884
            ]
        },
        {
            "positions": [
                -2.970545047481776,
                -0.9752261845026396,
                1.756416523953759,
                -0.7695544293651271,
                1.7331346409008848,
                -3.083429862858418
            ]
        }
    ]
}