{
    "goal": {
        "global_pose": {
            "orientation": {
                "w": 0.5084816217422485,
                "x": -0.49083608388900757,
                "y": 0.5182115435600281,
                "z": -0.4816462993621826
            },
            "position": {
                "x": 0.5540239810943604,
                "y": 0.030875300988554955,
                "z": 0.16403168439865112
            }
        },
        "name": "move_to_storage_A"
    },
    "id": "FMT_move_to_storage_A_146",
    "joint_names": [
        "shoulder_pan_joint",
        "shoulder_lift_joint",
        "elbow_joint",
        "wrist_1_joint",
        "wrist_2_joint",
        "wrist_3_joint"
    ],
    "metrics": {
        "cart_traj_len": 0.3521983996597826,
        "distance_elbow_joint": 0.4495642385998908,
        "distance_shoulder_lift_joint": 0.2332864885084125,
        "distance_shoulder_pan_joint": 0.4610752154521077,
        "distance_wrist_1_joint": 0.24650266873621762,
        "distance_wrist_2_joint": 1.0939267793246792,
        "distance_wrist_3_joint": 0.09354202266568556,
        "smoothness": 1.5543122362334363e-15,
        "time": 0.38114083899999995,
        "traj_len": 1.6055832003627197,
        "weighted_distance": 2.0261813607570427
    },
    "planner": "FMT",
    "start": {
        "state": {
            "elbow_joint": 1.971548259319323,
            "shoulder_lift_joint": -1.1394851275133948,
            "shoulder_pan_joint": 0.1228115487234821,
            "wrist_1_joint": -0.7804723859257726,
            "wrist_2_joint": 0.12958671773740124,
            "wrist_3_joint": -3.192489227718131
        }
    },
    "waypoints": [
        {
            "positions": [
                0.1228115487234821,
                -1.1394851275133948,
                1.971548259319323,
                -0.7804723859257726,
                0.12958671773740124,
                -3.192489227718131
            ]
        },
        {
            "positions": [
                0.056943660801752435,
                -1.1728117687288824,
                2.03577172197645,
                -0.8156870528880894,
                0.2858619719266411,
                -3.1791260816230333
            ]
        },
        {
            "positions": [
                -0.00892422711997723,
                -1.2061384099443697,
                2.0999951846335776,
                -0.8509017198504062,
                0.442137226115881,
                -3.165762935527935
            ]
        },
        {
            "positions": [
                -0.07479211504170691,
                -1.2394650511598573,
                2.1642186472907046,
                -0.886116386812723,
                0.5984124803051208,
                -3.1523997894328373
            ]
        },
        {
            "positions": [
                -0.14066000296343656,
                -1.2727916923753448,
                2.228442109947832,
                -0.9213310537750399,
                0.7546877344943608,
                -3.1390366433377395
            ]
        },
        {
            "positions": [
                -0.20652789088516627,
                -1.3061183335908324,
                2.2926655726049594,
                -0.9565457207373567,
                0.9109629886836007,
                -3.1256734972426417
            ]
        },
        {
            "positions": [
                -0.2723957788068959,
                -1.3394449748063197,
                2.3568890352620864,
                -0.9917603876996735,
                1.0672382428728404,
                -3.1123103511475434
            ]
        },
        {
            "positions": [
                -0.3382636667286256,
                -1.3727716160218073,
                2.421112497919214,
                -1.0269750546619902,
                1.2235134970620805,
                -3.0989472050524456
            ]
        }
    ]
}{
    "goal": {
        "global_pose": {
            "orientation": {
                "w": 0.5084816217422485,
                "x": -0.49083608388900757,
                "y": 0.5182115435600281,
                "z": -0.4816462993621826
            },
            "position": {
                "x": 0.5540239810943604,
                "y": 0.030875300988554955,
                "z": 0.16403168439865112
            }
        },
        "name": "move_to_storage_A"
    },
    "id": "FMT_move_to_storage_A_146",
    "joint_names": [
        "shoulder_pan_joint",
        "shoulder_lift_joint",
        "elbow_joint",
        "wrist_1_joint",
        "wrist_2_joint",
        "wrist_3_joint"
    ],
    "metrics": {
        "cart_traj_len": 0.35253736036755645,
        "distance_elbow_joint": 0.4495648636656946,
        "distance_shoulder_lift_joint": 0.23423729075939703,
        "distance_shoulder_pan_joint": 0.45944458153667705,
        "distance_wrist_1_joint": 0.24102461927353147,
        "distance_wrist_2_joint": 1.1044057929689985,
        "distance_wrist_3_joint": 0.09511971564795507,
        "smoothness": 4.440892133664971e-16,
        "time": 0.38559192,
        "traj_len": 1.6074193179914984,
        "weighted_distance": 2.0296469415616833
    },
    "planner": "FMT",
    "start": {
        "state": {
            "elbow_joint": 1.97154746011099,
            "shoulder_lift_joint": -1.13948474672311,
            "shoulder_pan_joint": 0.12281154466712228,
            "wrist_1_joint": -0.7804688027058302,
            "wrist_2_joint": 0.12958655903071145,
            "wrist_3_joint": 3.0906928834467795
        }
    },
    "waypoints": [
        {
            "positions": [
                0.12281154466712228,
                -1.13948474672311,
                1.97154746011099,
                -0.7804688027058302,
                0.12958655903071145,
                3.0906928834467795
            ]
        },
        {
            "positions": [
                0.05717660444759699,
                -1.1729472168315953,
                2.035771012063232,
                -0.8149008911734775,
                0.2873588151691398,
                3.1042814142536304
            ]
        },
        {
            "positions": [
                -0.008458335771928296,
                -1.2064096869400804,
                2.099994564015474,
                -0.8493329796411249,
                0.4451310713075681,
                3.1178699450604808
            ]
        },
        {
            "positions": [
                -0.07409327599145359,
                -1.2398721570485658,
                2.1642181159677163,
                -0.8837650681087722,
                0.6029033274459965,
                3.1314584758673316
            ]
        },
        {
            "positions": [
                -0.13972821621097886,
                -1.2733346271570511,
                2.228441667919958,
                -0.9181971565764195,
                0.7606755835844249,
                3.1450470066741825
            ]
        },
        {
            "positions": [
                -0.20536315643050418,
                -1.3067970972655365,
                2.2926652198722004,
                -0.952629245044067,
                0.9184478397228533,
                3.1586355374810333
            ]
        },
        {
            "positions": [
                -0.27099809665002944,
                -1.3402595673740216,
                2.3568887718244422,
                -0.9870613335117143,
                1.0762200958612815,
                3.1722240682878837
            ]
        },
        {
            "positions": [
                -0.33663303686955476,
                -1.373722037482507,
                2.4211123237766845,
                -1.0214934219793617,
                1.23399235199971,
                3.1858125990947346
            ]
        }
    ]
}{
    "goal": {
        "global_pose": {
            "orientation": {
                "w": 0.5084816217422485,
                "x": -0.49083608388900757,
                "y": 0.5182115435600281,
                "z": -0.4816462993621826
            },
            "position": {
                "x": 0.5540239810943604,
                "y": 0.030875300988554955,
                "z": 0.16403168439865112
            }
        },
        "name": "move_to_storage_A"
    },
    "id": "FMT_move_to_storage_A_146",
    "joint_names": [
        "shoulder_pan_joint",
        "shoulder_lift_joint",
        "elbow_joint",
        "wrist_1_joint",
        "wrist_2_joint",
        "wrist_3_joint"
    ],
    "metrics": {
        "cart_traj_len": 0.3532291357614915,
        "distance_elbow_joint": 0.4485554790233479,
        "distance_shoulder_lift_joint": 0.23486294330946222,
        "distance_shoulder_pan_joint": 0.4629086058390322,
        "distance_wrist_1_joint": 0.23659862429855072,
        "distance_wrist_2_joint": 1.0947713843933358,
        "distance_wrist_3_joint": 0.08734278912886584,
        "smoothness": 8.881784197001252e-16,
        "time": 0.497315395,
        "traj_len": 1.6015741712429665,
        "weighted_distance": 2.017695569936707
    },
    "planner": "FMT",
    "start": {
        "state": {
            "elbow_joint": 1.9715472970024885,
            "shoulder_lift_joint": -1.1394870060712896,
            "shoulder_pan_joint": 0.12281152778156021,
            "wrist_1_joint": -0.780463741449964,
            "wrist_2_joint": 0.12958659822042276,
            "wrist_3_joint": 3.090690232415272
        }
    },
    "waypoints": [
        {
            "positions": [
                0.12281152778156021,
                -1.1394870060712896,
                1.9715472970024885,
                -0.780463741449964,
                0.12958659822042276,
                3.090690232415272
            ]
        },
        {
            "positions": [
                0.05668172694741276,
                -1.1730388551154984,
                2.035626651148681,
                -0.8142635449211856,
                0.2859825102766136,
                3.1031677737193957
            ]
        },
        {
            "positions": [
                -0.009448073886734687,
                -1.2065907041597075,
                2.0997060052948737,
                -0.848063348392407,
                0.44237842233280444,
                3.115645315023519
            ]
        },
        {
            "positions": [
                -0.07557787472088212,
                -1.2401425532039163,
                2.163785359441066,
                -0.8818631518636286,
                0.5987743343889952,
                3.128122856327643
            ]
        },
        {
            "positions": [
                -0.14170767555502958,
                -1.2736944022481251,
                2.227864713587259,
                -0.9156629553348501,
                0.755170246445186,
                3.1406003976317667
            ]
        },
        {
            "positions": [
                -0.20783747638917707,
                -1.3072462512923342,
                2.2919440677334513,
                -0.9494627588060717,
                0.9115661585013769,
                3.1530779389358905
            ]
        },
        {
            "positions": [
                -0.2739672772233245,
                -1.340798100336543,
                2.3560234218796436,
                -0.9832625622772931,
                1.0679620705575676,
                3.165555480240014
            ]
        },
        {
            "positions": [
                -0.34009707805747197,
                -1.3743499493807518,
                2.4201027760258365,
                -1.0170623657485147,
                1.2243579826137585,
                3.1780330215441377
            ]
        }
    ]
}