{
    "goal": {
        "global_pose": {
            "orientation": {
                "w": 0.7031023480610252,
                "x": -0.7110244013736278,
                "y": 0.0077485991402295624,
                "z": 0.005598929693374583
            },
            "position": {
                "x": -0.8841497679147869,
                "y": 0.44412534475326537,
                "z": 0.3711530566215515
            }
        },
        "name": "move_to_auspresseinheit_D"
    },
    "id": "FMT_move_to_auspresseinheit_D_115",
    "joint_names": [
        "shoulder_pan_joint",
        "shoulder_lift_joint",
        "elbow_joint",
        "wrist_1_joint",
        "wrist_2_joint",
        "wrist_3_joint"
    ],
    "metrics": {
        "cart_traj_len": 0.3423691507471481,
        "distance_elbow_joint": 0.6311748879975987,
        "distance_shoulder_lift_joint": 0.11822878470953269,
        "distance_shoulder_pan_joint": 0.1337775622829721,
        "distance_wrist_1_joint": 0.5037098548428043,
        "distance_wrist_2_joint": 1.447422424000004,
        "distance_wrist_3_joint": 0.022301141730991514,
        "smoothness": 2.3684757858670005e-15,
        "time": 0.483633003,
        "traj_len": 1.6901522581009982,
        "weighted_distance": 2.202804852425356
    },
    "planner": "FMT",
    "start": {
        "state": {
            "elbow_joint": -1.8275523626775212,
            "shoulder_lift_joint": -2.126789852344167,
            "shoulder_pan_joint": -0.03513704404078235,
            "wrist_1_joint": -2.347782403156801,
            "wrist_2_joint": -1.6058999987535132,
            "wrist_3_joint": -3.0880379163319196
        }
    },
    "waypoints": [
        {
            "positions": [
                -0.03513704404078235,
                -2.126789852344167,
                -1.8275523626775212,
                -2.347782403156801,
                -1.6058999987535132,
                -3.0880379163319196
            ]
        },
        {
            "positions": [
                -0.05185923932615386,
                -2.1415684504328585,
                -1.7486555016778214,
                -2.4107461350121513,
                -1.4249721957535126,
                -3.0908255590482936
            ]
        },
        {
            "positions": [
                -0.06858143461152538,
                -2.15634704852155,
                -1.6697586406781215,
                -2.4737098668675017,
                -1.244044392753512,
                -3.0936132017646676
            ]
        },
        {
            "positions": [
                -0.08530362989689688,
                -2.1711256466102418,
                -1.5908617796784217,
                -2.5366735987228526,
                -1.0631165897535118,
                -3.0964008444810416
            ]
        },
        {
            "positions": [
                -0.10202582518226841,
                -2.185904244698933,
                -1.5119649186787218,
                -2.599637330578203,
                -0.8821887867535112,
                -3.0991884871974156
            ]
        },
        {
            "positions": [
                -0.11874802046763991,
                -2.2006828427876246,
                -1.433068057679022,
                -2.6626010624335534,
                -0.7012609837535106,
                -3.101976129913789
            ]
        },
        {
            "positions": [
                -0.13547021575301144,
                -2.2154614408763162,
                -1.3541711966793222,
                -2.7255647942889043,
                -0.5203331807535103,
                -3.104763772630163
            ]
        },
        {
            "positions": [
                -0.15219241103838294,
                -2.230240038965008,
                -1.2752743356796223,
                -2.7885285261442547,
                -0.33940537775350976,
                -3.107551415346537
            ]
        },
        {
            "positions": [
                -0.16891460632375446,
                -2.2450186370536995,
                -1.1963774746799225,
                -2.851492257999605,
                -0.15847757475350913,
                -3.110339058062911
            ]
        }
    ]
}