{
    "goal": {
        "global_pose": {
            "orientation": {
                "w": 0.5084816262002911,
                "x": -0.4908360881923452,
                "y": 0.5182115481033761,
                "z": -0.48164630358495003
            },
            "position": {
                "x": 0.5540239810943604,
                "y": -0.46912469901144505,
                "z": 0.16403168439865112
            }
        },
        "name": "move_to_storage_B"
    },
    "id": "FMT_move_to_storage_B_24",
    "joint_names": [
        "shoulder_pan_joint",
        "shoulder_lift_joint",
        "elbow_joint",
        "wrist_1_joint",
        "wrist_2_joint",
        "wrist_3_joint"
    ],
    "metrics": {
        "cart_traj_len": 0.7524615605427861,
        "distance_elbow_joint": 0.3556875470005121,
        "distance_shoulder_lift_joint": 0.4595885666314623,
        "distance_shoulder_pan_joint": 0.20439013537170247,
        "distance_wrist_1_joint": 3.0154533831663675,
        "distance_wrist_2_joint": 2.700626332620499,
        "distance_wrist_3_joint": 3.114014153606264,
        "smoothness": 0.013106976099297337,
        "time": 1.334727441,
        "traj_len": 3.1384327487452723,
        "weighted_distance": 4.668390315879362
    },
    "planner": "FMT",
    "start": {
        "state": {
            "elbow_joint": 1.664937868594044,
            "shoulder_lift_joint": -0.661644460510453,
            "shoulder_pan_joint": -0.9139846352900073,
            "wrist_1_joint": 2.146753192139373,
            "wrist_2_joint": -2.2341966793290973,
            "wrist_3_joint": 0.005466555786416001
        }
    },
    "waypoints": [
        {
            "positions": [
                -0.9139846352900073,
                -0.661644460510453,
                1.664937868594044,
                2.146753192139373,
                -2.2341966793290973,
                0.005466555786416001
            ]
        },
        {
            "positions": [
                -0.9101563608268773,
                -0.7439218731735832,
                1.7163083067125167,
                2.1181688665492997,
                -2.1963898316387382,
                -0.10468562877259212
            ]
        },
        {
            "positions": [
                -0.9063280863637475,
                -0.8261992858367133,
                1.7676787448309894,
                2.089584540959226,
                -2.158582983948379,
                -0.21483781333160024
            ]
        },
        {
            "positions": [
                -0.9024998119006176,
                -0.9084766984998435,
                1.8190491829494622,
                2.0610002153691527,
                -2.12077613625802,
                -0.32498999789060834
            ]
        },
        {
            "positions": [
                -0.9108869993781095,
                -0.9177269736581944,
                1.8278133669775096,
                1.9336219368301897,
                -2.008288928016741,
                -0.44601424136579265
            ]
        },
        {
            "positions": [
                -0.9192741868556012,
                -0.9269772488165454,
                1.8365775510055573,
                1.806243658291227,
                -1.8958017197754617,
                -0.567038484840977
            ]
        },
        {
            "positions": [
                -0.9276613743330931,
                -0.9362275239748963,
                1.8453417350336048,
                1.678865379752264,
                -1.7833145115341824,
                -0.6880627283161613
            ]
        },
        {
            "positions": [
                -0.936048561810585,
                -0.9454777991332473,
                1.8541059190616525,
                1.5514871012133011,
                -1.6708273032929033,
                -0.8090869717913456
            ]
        },
        {
            "positions": [
                -0.9444357492880768,
                -0.9547280742915982,
                1.8628701030897,
                1.4241088226743381,
                -1.5583400950516242,
                -0.93011121526653
            ]
        },
        {
            "positions": [
                -0.9528229367655687,
                -0.9639783494499492,
                1.8716342871177476,
                1.2967305441353751,
                -1.4458528868103449,
                -1.0511354587417143
            ]
        },
        {
            "positions": [
                -0.9612101242430606,
                -0.9732286246083002,
                1.880398471145795,
                1.1693522655964124,
                -1.3333656785690655,
                -1.1721597022168986
            ]
        },
        {
            "positions": [
                -0.9695973117205524,
                -0.982478899766651,
                1.8891626551738425,
                1.0419739870574494,
                -1.2208784703277864,
                -1.2931839456920828
            ]
        },
        {
            "positions": [
                -0.9779844991980443,
                -0.991729174925002,
                1.8979268392018902,
                0.9145957085184864,
                -1.108391262086507,
                -1.4142081891672673
            ]
        },
        {
            "positions": [
                -0.9863716866755361,
                -1.0009794500833529,
                1.9066910232299377,
                0.7872174299795236,
                -0.995904053845228,
                -1.5352324326424516
            ]
        },
        {
            "positions": [
                -0.994758874153028,
                -1.0102297252417038,
                1.9154552072579853,
                0.6598391514405606,
                -0.8834168456039486,
                -1.656256676117636
            ]
        },
        {
            "positions": [
                -1.00314606163052,
                -1.0194800004000548,
                1.9242193912860328,
                0.5324608729015978,
                -0.7709296373626695,
                -1.7772809195928203
            ]
        },
        {
            "positions": [
                -1.0115332491080118,
                -1.0287302755584058,
                1.9329835753140805,
                0.40508259436263505,
                -0.6584424291213904,
                -1.8983051630680046
            ]
        },
        {
            "positions": [
                -1.0199204365855037,
                -1.0379805507167568,
                1.941747759342128,
                0.27770431582367183,
                -0.5459552208801108,
                -2.0193294065431893
            ]
        },
        {
            "positions": [
                -1.0283076240629954,
                -1.0472308258751077,
                1.9505119433701754,
                0.15032603728470906,
                -0.4334680126388317,
                -2.1403536500183735
            ]
        },
        {
            "positions": [
                -1.0366948115404873,
                -1.0564811010334587,
                1.959276127398223,
                0.02294775874574606,
                -0.3209808043975526,
                -2.2613778934935578
            ]
        },
        {
            "positions": [
                -1.0450819990179792,
                -1.0657313761918097,
                1.9680403114262706,
                -0.10443051979321671,
                -0.2084935961562735,
                -2.382402136968742
            ]
        },
        {
            "positions": [
                -1.053469186495471,
                -1.0749816513501607,
                1.9768044954543182,
                -0.23180879833217993,
                -0.09600638791499394,
                -2.5034263804439263
            ]
        },
        {
            "positions": [
                -1.061856373972963,
                -1.0842319265085116,
                1.9855686794823657,
                -0.3591870768711427,
                0.016480820326285173,
                -2.6244506239191105
            ]
        },
        {
            "positions": [
                -1.0702435614504546,
                -1.0934822016668624,
                1.9943328635104134,
                -0.4865653554101055,
                0.12896802856756429,
                -2.745474867394295
            ]
        },
        {
            "positions": [
                -1.0786307489279465,
                -1.1027324768252134,
                2.003097047538461,
                -0.6139436339490683,
                0.2414552368088434,
                -2.866499110869479
            ]
        },
        {
            "positions": [
                -1.0870179364054384,
                -1.1119827519835643,
                2.0118612315665083,
                -0.7413219124880315,
                0.35394244505012296,
                -2.9875233543446638
            ]
        },
        {
            "positions": [
                -1.0954051238829303,
                -1.1212330271419153,
                2.020625415594556,
                -0.8687001910269944,
                0.46642965329140185,
                -3.108547597819848
            ]
        }
    ]
}