{
    "goal": {
        "global_pose": {
            "orientation": {
                "w": 0.7047431468963623,
                "x": -0.7094548344612122,
                "y": 0.0024358443915843964,
                "z": -0.0022348060738295317
            },
            "position": {
                "x": 0.6094750761985779,
                "y": 0.3671506643295288,
                "z": 0.19426114857196808
            }
        },
        "name": "move_to_magneteinheit_A"
    },
    "id": "FMT_move_to_magneteinheit_A_57",
    "joint_names": [
        "shoulder_pan_joint",
        "shoulder_lift_joint",
        "elbow_joint",
        "wrist_1_joint",
        "wrist_2_joint",
        "wrist_3_joint"
    ],
    "metrics": {
        "cart_traj_len": 3.5672143091336794,
        "distance_elbow_joint": 3.889419454990044,
        "distance_shoulder_lift_joint": 0.26738121647661806,
        "distance_shoulder_pan_joint": 2.5860072748107523,
        "distance_wrist_1_joint": 0.7686704551718758,
        "distance_wrist_2_joint": 1.6930472266359868,
        "distance_wrist_3_joint": 2.654180620859611,
        "smoothness": 0.022619037461854945,
        "time": 1.287646577,
        "traj_len": 3.443647230618272,
        "weighted_distance": 4.430438485350177
    },
    "planner": "FMT",
    "start": {
        "state": {
            "elbow_joint": -1.9196185241190666,
            "shoulder_lift_joint": -1.2443396400964142,
            "shoulder_pan_joint": 2.6996025414629847,
            "wrist_1_joint": -1.5485510000780065,
            "wrist_2_joint": -1.5709468930060704,
            "wrist_3_joint": 0.4420197071253992
        }
    },
    "waypoints": [
        {
            "positions": [
                2.6996025414629847,
                -1.2443396400964142,
                -1.9196185241190666,
                -1.5485510000780065,
                -1.5709468930060704,
                0.4420197071253992
            ]
        },
        {
            "positions": [
                2.592885012355633,
                -1.234979344909137,
                -1.7886551705495344,
                -1.5398252325102346,
                -1.502802127484309,
                0.4948794193707909
            ]
        },
        {
            "positions": [
                2.486167483248281,
                -1.2256190497218598,
                -1.6576918169800021,
                -1.531099464942463,
                -1.434657361962548,
                0.5477391316161826
            ]
        },
        {
            "positions": [
                2.379449954140929,
                -1.2162587545345827,
                -1.5267284634104699,
                -1.522373697374691,
                -1.3665125964407867,
                0.6005988438615742
            ]
        },
        {
            "positions": [
                2.2727324250335768,
                -1.2068984593473053,
                -1.3957651098409374,
                -1.5136479298069192,
                -1.2983678309190254,
                0.653458556106966
            ]
        },
        {
            "positions": [
                2.166014895926225,
                -1.1975381641600282,
                -1.2648017562714051,
                -1.5049221622391473,
                -1.2302230653972641,
                0.7063182683523577
            ]
        },
        {
            "positions": [
                2.059297366818873,
                -1.1881778689727511,
                -1.1338384027018729,
                -1.4961963946713754,
                -1.162078299875503,
                0.7591779805977494
            ]
        },
        {
            "positions": [
                1.952579837711521,
                -1.1788175737854738,
                -1.0028750491323406,
                -1.4874706271036038,
                -1.0939335343537417,
                0.812037692843141
            ]
        },
        {
            "positions": [
                1.8458623086041692,
                -1.1694572785981967,
                -0.8719116955628081,
                -1.478744859535832,
                -1.0257887688319807,
                0.8648974050885327
            ]
        },
        {
            "positions": [
                1.7391447794968171,
                -1.1600969834109194,
                -0.7409483419932759,
                -1.47001909196806,
                -0.9576440033102193,
                0.9177571173339245
            ]
        },
        {
            "positions": [
                1.6324272503894652,
                -1.1507366882236423,
                -0.6099849884237436,
                -1.4612933244002884,
                -0.8894992377884581,
                0.9706168295793162
            ]
        },
        {
            "positions": [
                1.5257097212821131,
                -1.1413763930363652,
                -0.4790216348542111,
                -1.4525675568325165,
                -0.8213544722666968,
                1.0234765418247078
            ]
        },
        {
            "positions": [
                1.4189921921747615,
                -1.1320160978490879,
                -0.3480582812846791,
                -1.4438417892647446,
                -0.7532097067449356,
                1.0763362540700996
            ]
        },
        {
            "positions": [
                1.3122746630674094,
                -1.1226558026618108,
                -0.2170949277151466,
                -1.4351160216969727,
                -0.6850649412231744,
                1.1291959663154914
            ]
        },
        {
            "positions": [
                1.2055571339600575,
                -1.1132955074745334,
                -0.08613157414561456,
                -1.426390254129201,
                -0.6169201757014132,
                1.182055678560883
            ]
        },
        {
            "positions": [
                1.0988396048527056,
                -1.1039352122872563,
                0.04483177942391792,
                -1.4176644865614292,
                -0.5487754101796518,
                1.2349153908062747
            ]
        },
        {
            "positions": [
                0.9921220757453535,
                -1.0945749170999792,
                0.1757951329934504,
                -1.4089387189936573,
                -0.48063064465789074,
                1.2877751030516664
            ]
        },
        {
            "positions": [
                0.8854045466380016,
                -1.085214621912702,
                0.30675848656298266,
                -1.4002129514258854,
                -0.41248587913612944,
                1.340634815297058
            ]
        },
        {
            "positions": [
                0.7786870175306495,
                -1.0758543267254248,
                0.4377218401325149,
                -1.3914871838581138,
                -0.34434111361436814,
                1.3934945275424497
            ]
        },
        {
            "positions": [
                0.6719694884232976,
                -1.0664940315381475,
                0.5686851937020472,
                -1.3827614162903419,
                -0.27619634809260707,
                1.4463542397878415
            ]
        },
        {
            "positions": [
                0.5652519593159457,
                -1.0571337363508704,
                0.6996485472715797,
                -1.37403564872257,
                -0.20805158257084572,
                1.499213952033233
            ]
        },
        {
            "positions": [
                0.49667475188796784,
                -1.059759808907721,
                0.8196593835503321,
                -1.3523696713692483,
                -0.1703855495222092,
                1.6102725030319878
            ]
        },
        {
            "positions": [
                0.4280975444599899,
                -1.0623858814645717,
                0.9396702198290845,
                -1.3307036940159267,
                -0.13271951647357266,
                1.7213310540307427
            ]
        },
        {
            "positions": [
                0.3677908303159912,
                -1.0667079385142775,
                1.0604172267727432,
                -1.2967580388870255,
                -0.09731762983896682,
                1.8455731890916387
            ]
        },
        {
            "positions": [
                0.30748411617199245,
                -1.071029995563983,
                1.1811642337164021,
                -1.2628123837581242,
                -0.06191574320436097,
                1.969815324152535
            ]
        },
        {
            "positions": [
                0.24717740202799376,
                -1.0753520526136886,
                1.3019112406600608,
                -1.228866728629223,
                -0.02651385656975512,
                2.094057459213431
            ]
        },
        {
            "positions": [
                0.18687068788399508,
                -1.0796741096633944,
                1.4226582476037195,
                -1.1949210735003217,
                0.00888803006485072,
                2.218299594274327
            ]
        },
        {
            "positions": [
                0.1731528277332888,
                -1.0896938254614597,
                1.520737001198843,
                -1.1217436220084502,
                0.030401782934632894,
                2.370827554558425
            ]
        },
        {
            "positions": [
                0.15943496758258252,
                -1.099713541259525,
                1.6188157547939666,
                -1.0485661705165787,
                0.05191553580441507,
                2.5233555148425233
            ]
        },
        {
            "positions": [
                0.14571710743187627,
                -1.1097332570575902,
                1.7168945083890899,
                -0.9753887190247074,
                0.07342928867419724,
                2.6758834751266214
            ]
        },
        {
            "positions": [
                0.13199924728117,
                -1.1197529728556554,
                1.8149732619842134,
                -0.902211267532836,
                0.09494304154397942,
                2.8284114354107195
            ]
        },
        {
            "positions": [
                0.11828138713046371,
                -1.1297726886537207,
                1.913052015579337,
                -0.8290338160409645,
                0.11645679441376158,
                2.9809393956948176
            ]
        },
        {
            "positions": [
                0.12296750760869422,
                -1.1373090490819446,
                1.969800930870978,
                -0.7798805449061307,
                0.12210033362991694,
                3.0962003279850103
            ]
        }
    ]
}