{
    "goal": {
        "global_pose": {
            "orientation": {
                "w": -0.4816463035849501,
                "x": 0.5182115481033762,
                "y": 0.4908360881923453,
                "z": -0.5084816262002911
            },
            "position": {
                "x": -0.8240239810943604,
                "y": 0.19912469901144506,
                "z": 0.16403168439865112
            }
        },
        "name": "move_to_storage_D"
    },
    "id": "FMT_move_to_storage_D_104",
    "joint_names": [
        "shoulder_pan_joint",
        "shoulder_lift_joint",
        "elbow_joint",
        "wrist_1_joint",
        "wrist_2_joint",
        "wrist_3_joint"
    ],
    "metrics": {
        "cart_traj_len": 3.8580479057616204,
        "distance_elbow_joint": 4.208050910125421,
        "distance_shoulder_lift_joint": 1.2647236314141295,
        "distance_shoulder_pan_joint": 2.8127937400915464,
        "distance_wrist_1_joint": 2.2658131623436457,
        "distance_wrist_2_joint": 0.8698774401431647,
        "distance_wrist_3_joint": 3.138193910318643,
        "smoothness": 3.973429785804094e-16,
        "time": 1.435645807,
        "traj_len": 3.815685101582225,
        "weighted_distance": 4.89607304046423
    },
    "planner": "FMT",
    "start": {
        "state": {
            "elbow_joint": -2.384821988534728,
            "shoulder_lift_joint": -2.2788054721415256,
            "shoulder_pan_joint": -0.1854694642142757,
            "wrist_1_joint": 1.4845938289331202,
            "wrist_2_joint": 0.17898776772866878,
            "wrist_3_joint": 0.037105688729662994
        }
    },
    "waypoints": [
        {
            "positions": [
                -0.1854694642142757,
                -2.2788054721415256,
                -2.384821988534728,
                1.4845938289331202,
                0.17898776772866878,
                0.037105688729662994
            ]
        },
        {
            "positions": [
                -0.062178151241333114,
                -2.228335401390156,
                -2.3769172775213017,
                1.452409381620217,
                0.19927178228619757,
                0.1404278256785263
            ]
        },
        {
            "positions": [
                0.022511803622350855,
                -2.190962553658479,
                -2.2753360949554855,
                1.39373971115054,
                0.22292386576616527,
                0.23004470525430704
            ]
        },
        {
            "positions": [
                0.10720175848603483,
                -2.153589705926801,
                -2.1737549123896693,
                1.335070040680863,
                0.246575949246133,
                0.3196615848300878
            ]
        },
        {
            "positions": [
                0.1918917133497188,
                -2.116216858195124,
                -2.072173729823853,
                1.276400370211186,
                0.2702280327261007,
                0.40927846440586846
            ]
        },
        {
            "positions": [
                0.27658166821340274,
                -2.0788440104634467,
                -1.9705925472580372,
                1.217730699741509,
                0.2938801162060684,
                0.4988953439816492
            ]
        },
        {
            "positions": [
                0.3612716230770867,
                -2.041471162731769,
                -1.8690113646922213,
                1.159061029271832,
                0.3175321996860361,
                0.5885122235574298
            ]
        },
        {
            "positions": [
                0.4459615779407707,
                -2.0040983150000917,
                -1.7674301821264051,
                1.1003913588021548,
                0.3411842831660038,
                0.6781291031332106
            ]
        },
        {
            "positions": [
                0.5306515328044548,
                -1.9667254672684145,
                -1.665848999560589,
                1.0417216883324778,
                0.3648363666459715,
                0.7677459827089913
            ]
        },
        {
            "positions": [
                0.6153414876681387,
                -1.929352619536737,
                -1.5642678169947728,
                0.9830520178628008,
                0.38848845012593924,
                0.8573628622847721
            ]
        },
        {
            "positions": [
                0.7000314425318227,
                -1.8919797718050597,
                -1.4626866344289566,
                0.9243823473931239,
                0.4121405336059069,
                0.9469797418605528
            ]
        },
        {
            "positions": [
                0.7847213973955066,
                -1.8546069240733822,
                -1.3611054518631407,
                0.8657126769234469,
                0.4357926170858746,
                1.0365966214363334
            ]
        },
        {
            "positions": [
                0.8694113522591905,
                -1.817234076341705,
                -1.2595242692973245,
                0.8070430064537698,
                0.4594447005658423,
                1.1262135010121141
            ]
        },
        {
            "positions": [
                0.9541013071228746,
                -1.7798612286100275,
                -1.1579430867315084,
                0.7483733359840927,
                0.48309678404581,
                1.215830380587895
            ]
        },
        {
            "positions": [
                1.0387912619865587,
                -1.74248838087835,
                -1.0563619041656922,
                0.6897036655144158,
                0.5067488675257777,
                1.3054472601636757
            ]
        },
        {
            "positions": [
                1.1234812168502426,
                -1.7051155331466727,
                -0.9547807215998763,
                0.6310339950447387,
                0.5304009510057455,
                1.3950641397394563
            ]
        },
        {
            "positions": [
                1.2081711717139265,
                -1.6677426854149953,
                -0.8531995390340601,
                0.5723643245750617,
                0.5540530344857131,
                1.484681019315237
            ]
        },
        {
            "positions": [
                1.2928611265776104,
                -1.6303698376833178,
                -0.7516183564682439,
                0.5136946541053847,
                0.5777051179656809,
                1.574297898891018
            ]
        },
        {
            "positions": [
                1.3775510814412943,
                -1.5929969899516405,
                -0.650037173902428,
                0.45502498363570765,
                0.6013572014456485,
                1.6639147784667985
            ]
        },
        {
            "positions": [
                1.4622410363049785,
                -1.5556241422199633,
                -0.5484559913366118,
                0.3963553131660307,
                0.6250092849256162,
                1.7535316580425793
            ]
        },
        {
            "positions": [
                1.5469309911686624,
                -1.5182512944882856,
                -0.44687480877079566,
                0.3376856426963537,
                0.648661368405584,
                1.8431485376183598
            ]
        },
        {
            "positions": [
                1.6316209460323463,
                -1.4808784467566083,
                -0.3452936262049797,
                0.27901597222667673,
                0.6723134518855516,
                1.9327654171941406
            ]
        },
        {
            "positions": [
                1.7163109008960302,
                -1.443505599024931,
                -0.24371244363916356,
                0.22034630175699954,
                0.6959655353655193,
                2.022382296769921
            ]
        },
        {
            "positions": [
                1.8010008557597141,
                -1.4061327512932535,
                -0.1421312610733474,
                0.16167663128732257,
                0.719617618845487,
                2.111999176345702
            ]
        },
        {
            "positions": [
                1.8856908106233985,
                -1.368759903561576,
                -0.04055007850753123,
                0.10300696081764538,
                0.7432697023254548,
                2.201616055921483
            ]
        },
        {
            "positions": [
                1.9703807654870822,
                -1.3313870558298988,
                0.061031104058284935,
                0.044337290347968406,
                0.7669217858054225,
                2.2912329354972636
            ]
        },
        {
            "positions": [
                2.0550707203507663,
                -1.2940142080982213,
                0.1626122866241011,
                -0.014332380121708566,
                0.7905738692853902,
                2.3808498150730446
            ]
        },
        {
            "positions": [
                2.1397606752144505,
                -1.2566413603665438,
                0.26419346918991726,
                -0.07300205059138554,
                0.8142259527653579,
                2.470466694648825
            ]
        },
        {
            "positions": [
                2.224450630078134,
                -1.2192685126348666,
                0.3657746517557334,
                -0.1316717210610625,
                0.8378780362453256,
                2.5600835742246058
            ]
        },
        {
            "positions": [
                2.3091405849418183,
                -1.181895664903189,
                0.46735583432154915,
                -0.1903413915307397,
                0.8615301197252933,
                2.6497004538003863
            ]
        },
        {
            "positions": [
                2.393830539805502,
                -1.1445228171715118,
                0.5689370168873653,
                -0.24901106200041667,
                0.885182203205261,
                2.7393173333761673
            ]
        },
        {
            "positions": [
                2.478520494669186,
                -1.1071499694398343,
                0.6705181994531813,
                -0.30768073247009364,
                0.9088342866852287,
                2.828934212951948
            ]
        },
        {
            "positions": [
                2.5033211248705336,
                -1.091638614654428,
                0.8626366531427667,
                -0.3866038326268324,
                0.9321727735496628,
                2.8866617773013408
            ]
        },
        {
            "positions": [
                2.528121755071881,
                -1.0761272598690217,
                1.054755106832352,
                -0.46552693278357116,
                0.955511260414097,
                2.944389341650734
            ]
        },
        {
            "positions": [
                2.552922385273228,
                -1.0606159050836153,
                1.2468735605219377,
                -0.5444500329403099,
                0.9788497472785311,
                3.002116906000127
            ]
        },
        {
            "positions": [
                2.5777230154745756,
                -1.0451045502982088,
                1.438992014211523,
                -0.6233731330970487,
                1.0021882341429653,
                3.05984447034952
            ]
        },
        {
            "positions": [
                2.602523645675923,
                -1.0295931955128026,
                1.6311104679011086,
                -0.7022962332537874,
                1.0255267210073993,
                3.117572034698913
            ]
        },
        {
            "positions": [
                2.6273242758772706,
                -1.0140818407273962,
                1.8232289215906938,
                -0.7812193334105262,
                1.0488652078718335,
                3.175299599048306
            ]
        }
    ]
}