{
    "goal": {
        "global_pose": {
            "orientation": {
                "w": 0.005598929693374612,
                "x": 0.007748599140229565,
                "y": 0.7110244013736278,
                "z": -0.7031023480610252
            },
            "position": {
                "x": 0.1141497679147869,
                "y": -0.7141253447532654,
                "z": 0.3711530566215515
            }
        },
        "name": "move_to_auspresseinheit_B"
    },
    "id": "FMT_move_to_auspresseinheit_B_18",
    "joint_names": [
        "shoulder_pan_joint",
        "shoulder_lift_joint",
        "elbow_joint",
        "wrist_1_joint",
        "wrist_2_joint",
        "wrist_3_joint"
    ],
    "metrics": {
        "cart_traj_len": 0.5641496240638715,
        "distance_elbow_joint": 0.05950646759063871,
        "distance_shoulder_lift_joint": 0.29681385512724745,
        "distance_shoulder_pan_joint": 0.5782150898685978,
        "distance_wrist_1_joint": 0.3215495985916689,
        "distance_wrist_2_joint": 0.986845779490972,
        "distance_wrist_3_joint": 0.008996301002848206,
        "smoothness": 5.075305295617109e-16,
        "time": 0.522091494,
        "traj_len": 1.5006422264057389,
        "weighted_distance": 1.8916434843173568
    },
    "planner": "FMT",
    "start": {
        "state": {
            "elbow_joint": 2.0193083361928714,
            "shoulder_lift_joint": -1.1220246554650708,
            "shoulder_pan_joint": -1.0952077554168747,
            "wrist_1_joint": -0.8559753972642168,
            "wrist_2_joint": 0.4759566250798843,
            "wrist_3_joint": -3.1240929996934557
        }
    },
    "waypoints": [
        {
            "positions": [
                -1.0952077554168747,
                -1.1220246554650708,
                2.0193083361928714,
                -0.8559753972642168,
                0.4759566250798843,
                -3.1240929996934557
            ]
        },
        {
            "positions": [
                -1.191576937061641,
                -1.171493631319612,
                2.0093905915944315,
                -0.8023837974989386,
                0.640430921661713,
                -3.122593616192981
            ]
        },
        {
            "positions": [
                -1.2879461187064072,
                -1.2209626071741533,
                1.999472846995992,
                -0.7487921977336605,
                0.8049052182435417,
                -3.1210942326925064
            ]
        },
        {
            "positions": [
                -1.3843153003511737,
                -1.2704315830286945,
                1.989555102397552,
                -0.6952005979683824,
                0.9693795148253703,
                -3.1195948491920316
            ]
        },
        {
            "positions": [
                -1.4806844819959397,
                -1.3199005588832358,
                1.9796373577991122,
                -0.6416089982031042,
                1.133853811407199,
                -3.1180954656915567
            ]
        },
        {
            "positions": [
                -1.5770536636407062,
                -1.369369534737777,
                1.9697196132006725,
                -0.5880173984378261,
                1.2983281079890276,
                -3.1165960821910823
            ]
        },
        {
            "positions": [
                -1.6734228452854725,
                -1.4188385105923182,
                1.9598018686022327,
                -0.5344257986725479,
                1.4628024045708563,
                -3.1150966986906075
            ]
        }
    ]
}