{
    "goal": {
        "global_pose": {
            "orientation": {
                "w": 0.7031023480610252,
                "x": -0.7110244013736278,
                "y": 0.0077485991402295624,
                "z": 0.005598929693374583
            },
            "position": {
                "x": -0.8841497679147869,
                "y": 0.44412534475326537,
                "z": 0.3711530566215515
            }
        },
        "name": "move_to_auspresseinheit_D"
    },
    "id": "FMT_move_to_auspresseinheit_D_31",
    "joint_names": [
        "shoulder_pan_joint",
        "shoulder_lift_joint",
        "elbow_joint",
        "wrist_1_joint",
        "wrist_2_joint",
        "wrist_3_joint"
    ],
    "metrics": {
        "cart_traj_len": 0.34290307252317925,
        "distance_elbow_joint": 0.6348616686648665,
        "distance_shoulder_lift_joint": 0.11940400106814764,
        "distance_shoulder_pan_joint": 0.1333195696950253,
        "distance_wrist_1_joint": 0.5109128025118475,
        "distance_wrist_2_joint": 1.4492989476583933,
        "distance_wrist_3_joint": 0.015599163293968044,
        "smoothness": 9.868649123407766e-16,
        "time": 0.40982474999999996,
        "traj_len": 1.6921572482757767,
        "weighted_distance": 2.203362482582116
    },
    "planner": "FMT",
    "start": {
        "state": {
            "elbow_joint": -1.8275523626775212,
            "shoulder_lift_joint": -2.126789852344167,
            "shoulder_pan_joint": -0.03513704404078235,
            "wrist_1_joint": -2.347782403156801,
            "wrist_2_joint": -1.6058999987535132,
            "wrist_3_joint": -3.0880379163319196
        }
    },
    "waypoints": [
        {
            "positions": [
                -0.03513704404078235,
                -2.126789852344167,
                -1.8275523626775212,
                -2.347782403156801,
                -1.6058999987535132,
                -3.0880379163319196
            ]
        },
        {
            "positions": [
                -0.05180199025266051,
                -2.1417153524776853,
                -1.7481946540944129,
                -2.4116465034707817,
                -1.424737630296214,
                -3.0899878117436654
            ]
        },
        {
            "positions": [
                -0.06846693646453866,
                -2.1566408526112038,
                -1.6688369455113046,
                -2.4755106037847625,
                -1.2435752618389149,
                -3.0919377071554117
            ]
        },
        {
            "positions": [
                -0.08513188267641683,
                -2.171566352744722,
                -1.5894792369281963,
                -2.5393747040987438,
                -1.0624128933816157,
                -3.0938876025671576
            ]
        },
        {
            "positions": [
                -0.101796828888295,
                -2.1864918528782407,
                -1.510121528345088,
                -2.6032388044127246,
                -0.8812505249243165,
                -3.095837497978904
            ]
        },
        {
            "positions": [
                -0.11846177510017317,
                -2.201417353011759,
                -1.4307638197619796,
                -2.6671029047267054,
                -0.7000881564670174,
                -3.0977873933906497
            ]
        },
        {
            "positions": [
                -0.1351267213120513,
                -2.2163428531452776,
                -1.3514061111788713,
                -2.7309670050406867,
                -0.5189257880097182,
                -3.0997372888023955
            ]
        },
        {
            "positions": [
                -0.15179166752392947,
                -2.231268353278796,
                -1.272048402595763,
                -2.7948311053546675,
                -0.33776341955241906,
                -3.101687184214142
            ]
        },
        {
            "positions": [
                -0.16845661373580764,
                -2.2461938534123145,
                -1.1926906940126547,
                -2.8586952056686483,
                -0.15660105109511996,
                -3.1036370796258876
            ]
        }
    ]
}