{
    "goal": {
        "global_pose": {
            "orientation": {
                "w": -0.4816463035849501,
                "x": 0.5182115481033762,
                "y": 0.4908360881923453,
                "z": -0.5084816262002911
            },
            "position": {
                "x": -0.8240239810943604,
                "y": -0.300875300988555,
                "z": 0.16403168439865112
            }
        },
        "name": "move_to_storage_C"
    },
    "id": "FMT_move_to_storage_C_67",
    "joint_names": [
        "shoulder_pan_joint",
        "shoulder_lift_joint",
        "elbow_joint",
        "wrist_1_joint",
        "wrist_2_joint",
        "wrist_3_joint"
    ],
    "metrics": {
        "cart_traj_len": 0.5770829978495933,
        "distance_elbow_joint": 0.25597982234646866,
        "distance_shoulder_lift_joint": 0.19028083202307444,
        "distance_shoulder_pan_joint": 0.49533718949388295,
        "distance_wrist_1_joint": 0.0673601735925966,
        "distance_wrist_2_joint": 1.06486459531253,
        "distance_wrist_3_joint": 0.06654049915595639,
        "smoothness": 2.5376526478085547e-16,
        "time": 0.317585026,
        "traj_len": 1.4629979876693302,
        "weighted_distance": 1.8454454419303619
    },
    "planner": "FMT",
    "start": {
        "state": {
            "elbow_joint": 2.010868314990456,
            "shoulder_lift_joint": -1.1634956873337592,
            "shoulder_pan_joint": -2.4736205022346125,
            "wrist_1_joint": -0.8367026794202681,
            "wrist_2_joint": 0.6746043897044499,
            "wrist_3_joint": -3.1496632123970403
        }
    },
    "waypoints": [
        {
            "positions": [
                -2.4736205022346125,
                -1.1634956873337592,
                2.010868314990456,
                -0.8367026794202681,
                0.6746043897044499,
                -3.1496632123970403
            ]
        },
        {
            "positions": [
                -2.556176700483593,
                -1.1317822153299135,
                1.9682050112660443,
                -0.825475983821502,
                0.8520818222565383,
                -3.138573129204381
            ]
        },
        {
            "positions": [
                -2.6387328987325733,
                -1.1000687433260676,
                1.925541707541633,
                -0.8142492882227359,
                1.0295592548086265,
                -3.1274830460117213
            ]
        },
        {
            "positions": [
                -2.721289096981554,
                -1.068355271322222,
                1.8828784038172215,
                -0.8030225926239698,
                1.207036687360715,
                -3.116392962819062
            ]
        },
        {
            "positions": [
                -2.8038452952305346,
                -1.0366417993183763,
                1.84021510009281,
                -0.7917958970252037,
                1.384514119912803,
                -3.105302879626403
            ]
        },
        {
            "positions": [
                -2.886401493479515,
                -1.0049283273145304,
                1.7975517963683987,
                -0.7805692014264376,
                1.5619915524648915,
                -3.094212796433743
            ]
        },
        {
            "positions": [
                -2.9689576917284954,
                -0.9732148553106847,
                1.7548884926439872,
                -0.7693425058276715,
                1.73946898501698,
                -3.083122713241084
            ]
        }
    ]
}