{
    "goal": {
        "global_pose": {
            "orientation": {
                "w": 0.7047431493862688,
                "x": -0.7094548369677653,
                "y": 0.0024358444001904,
                "z": -0.0022348060817251984
            },
            "position": {
                "x": -0.39052492380142206,
                "y": 0.3671506643295288,
                "z": 0.19426114857196808
            }
        },
        "name": "move_to_magneteinheit_D"
    },
    "id": "FMT_move_to_magneteinheit_D_85",
    "joint_names": [
        "shoulder_pan_joint",
        "shoulder_lift_joint",
        "elbow_joint",
        "wrist_1_joint",
        "wrist_2_joint",
        "wrist_3_joint"
    ],
    "metrics": {
        "cart_traj_len": 6.465383213246318,
        "distance_elbow_joint": 4.838978854746214,
        "distance_shoulder_lift_joint": 3.5621469242625396,
        "distance_shoulder_pan_joint": 6.743563331621079,
        "distance_wrist_1_joint": 2.087579193414171,
        "distance_wrist_2_joint": 3.231584372166961,
        "distance_wrist_3_joint": 1.0028459064283486,
        "smoothness": 0.4113973481844268,
        "time": 1.3906602609999998,
        "traj_len": 4.633216871962646,
        "weighted_distance": 5.365776175081958
    },
    "planner": "FMT",
    "start": {
        "state": {
            "elbow_joint": 0.749534889911806,
            "shoulder_lift_joint": -0.6476975780787326,
            "shoulder_pan_joint": -2.711696901376241,
            "wrist_1_joint": -0.07506478083263063,
            "wrist_2_joint": 0.43296659715538205,
            "wrist_3_joint": -3.14703540197715
        }
    },
    "waypoints": [
        {
            "positions": [
                -2.711696901376241,
                -0.6476975780787326,
                0.749534889911806,
                -0.07506478083263063,
                0.43296659715538205,
                -3.14703540197715
            ]
        },
        {
            "positions": [
                -2.7355311334620214,
                -0.7072793200327573,
                0.7374955093553832,
                -0.10097169818914872,
                0.4342300383822466,
                -3.004123967994756
            ]
        },
        {
            "positions": [
                -2.7619003115103853,
                -0.7828997652910551,
                0.7201338214819469,
                -0.13425823629901973,
                0.43478971503648156,
                -2.8239109709297123
            ]
        },
        {
            "positions": [
                -2.788269489558749,
                -0.8585202105493529,
                0.7027721336085107,
                -0.1675447744088907,
                0.43534939169071657,
                -2.6436979738646693
            ]
        },
        {
            "positions": [
                -2.616624793180976,
                -0.9369613457557433,
                0.7346734375587225,
                -0.1912172751874074,
                0.364036869173372,
                -2.64825270689302
            ]
        },
        {
            "positions": [
                -2.4449800968032025,
                -1.0154024809621336,
                0.7665747415089343,
                -0.21488977596592407,
                0.2927243466560275,
                -2.652807439921371
            ]
        },
        {
            "positions": [
                -2.273335400425429,
                -1.093843616168524,
                0.7984760454591462,
                -0.23856227674444075,
                0.22141182413868293,
                -2.6573621729497217
            ]
        },
        {
            "positions": [
                -2.101690704047656,
                -1.1722847513749146,
                0.8303773494093579,
                -0.26223477752295743,
                0.1500993016213384,
                -2.6619169059780723
            ]
        },
        {
            "positions": [
                -1.9300460076698822,
                -1.250725886581305,
                0.8622786533595698,
                -0.2859072783014741,
                0.07878677910399384,
                -2.666471639006423
            ]
        },
        {
            "positions": [
                -1.7584013112921089,
                -1.3291670217876952,
                0.8941799573097816,
                -0.3095797790799908,
                0.007474256586649297,
                -2.671026372034774
            ]
        },
        {
            "positions": [
                -1.5867566149143355,
                -1.4076081569940857,
                0.9260812612599935,
                -0.33325227985850747,
                -0.0638382659306953,
                -2.6755811050631246
            ]
        },
        {
            "positions": [
                -1.4151119185365622,
                -1.4860492922004762,
                0.9579825652102052,
                -0.3569247806370241,
                -0.1351507884480398,
                -2.6801358380914753
            ]
        },
        {
            "positions": [
                -1.2434672221587886,
                -1.5644904274068665,
                0.989883869160417,
                -0.3805972814155408,
                -0.20646331096538434,
                -2.6846905711198263
            ]
        },
        {
            "positions": [
                -1.0718225257810152,
                -1.6429315626132568,
                1.0217851731106289,
                -0.40426978219405746,
                -0.2777758334827289,
                -2.689245304148177
            ]
        },
        {
            "positions": [
                -0.9001778294032419,
                -1.7213726978196473,
                1.0536864770608407,
                -0.42794228297257414,
                -0.34908835600007343,
                -2.6938000371765276
            ]
        },
        {
            "positions": [
                -0.7285331330254685,
                -1.7998138330260378,
                1.0855877810110526,
                -0.4516147837510908,
                -0.420400878517418,
                -2.6983547702048787
            ]
        },
        {
            "positions": [
                -0.5568884366476952,
                -1.878254968232428,
                1.1174890849612644,
                -0.4752872845296075,
                -0.4917134010347625,
                -2.7029095032332293
            ]
        },
        {
            "positions": [
                -0.3852437402699218,
                -1.9566961034388184,
                1.1493903889114763,
                -0.4989597853081242,
                -0.5630259235521071,
                -2.70746423626158
            ]
        },
        {
            "positions": [
                -0.213599043892148,
                -2.035137238645209,
                1.1812916928616881,
                -0.5226322860866408,
                -0.6343384460694519,
                -2.7120189692899306
            ]
        },
        {
            "positions": [
                -0.0419543475143751,
                -2.1135783738515994,
                1.2131929968119,
                -0.5463047868651575,
                -0.7056509685867962,
                -2.7165737023182817
            ]
        },
        {
            "positions": [
                0.1296903488633987,
                -2.1920195090579897,
                1.2450943007621118,
                -0.5699772876436742,
                -0.776963491104141,
                -2.7211284353466323
            ]
        },
        {
            "positions": [
                0.30133504524117205,
                -2.27046064426438,
                1.2769956047123237,
                -0.5936497884221908,
                -0.8482760136214853,
                -2.725683168374983
            ]
        },
        {
            "positions": [
                0.4729797416189454,
                -2.3489017794707707,
                1.3088969086625353,
                -0.6173222892007075,
                -0.9195885361388301,
                -2.730237901403334
            ]
        },
        {
            "positions": [
                0.6446244379967188,
                -2.427342914677161,
                1.3407982126127473,
                -0.6409947899792242,
                -0.9909010586561744,
                -2.7347926344316846
            ]
        },
        {
            "positions": [
                0.8162691343744921,
                -2.5057840498835513,
                1.372699516562959,
                -0.6646672907577409,
                -1.0622135811735192,
                -2.7393473674600353
            ]
        },
        {
            "positions": [
                0.9879138307522655,
                -2.5842251850899416,
                1.4046008205131708,
                -0.6883397915362576,
                -1.1335261036908635,
                -2.743902100488386
            ]
        },
        {
            "positions": [
                1.1595585271300393,
                -2.6626663202963323,
                1.4365021244633827,
                -0.7120122923147743,
                -1.2048386262082083,
                -2.748456833516737
            ]
        },
        {
            "positions": [
                1.3312032235078122,
                -2.7411074555027226,
                1.4684034284135945,
                -0.7356847930932909,
                -1.2761511487255526,
                -2.7530115665450876
            ]
        },
        {
            "positions": [
                1.502847919885586,
                -2.819548590709113,
                1.5003047323638063,
                -0.7593572938718076,
                -1.3474636712428973,
                -2.7575662995734382
            ]
        },
        {
            "positions": [
                1.6744926162633589,
                -2.897989725915503,
                1.5322060363140182,
                -0.7830297946503243,
                -1.4187761937602417,
                -2.7621210326017893
            ]
        },
        {
            "positions": [
                1.8461373126411331,
                -2.976430861121894,
                1.56410734026423,
                -0.806702295428841,
                -1.4900887162775864,
                -2.76667576563014
            ]
        },
        {
            "positions": [
                1.7679610072088756,
                -2.9289918749211488,
                1.4129196136570301,
                -0.858853898460301,
                -1.4399439674443817,
                -2.7811577151128475
            ]
        },
        {
            "positions": [
                1.689784701776618,
                -2.881552888720403,
                1.26173188704983,
                -0.9110055014917611,
                -1.3897992186111767,
                -2.795639664595555
            ]
        },
        {
            "positions": [
                1.6116083963443606,
                -2.834113902519658,
                1.11054416044263,
                -0.9631571045232211,
                -1.339654469777972,
                -2.8101216140782626
            ]
        },
        {
            "positions": [
                1.533432090912103,
                -2.786674916318913,
                0.95935643383543,
                -1.0153087075546812,
                -1.289509720944767,
                -2.82460356356097
            ]
        },
        {
            "positions": [
                1.4552557854798456,
                -2.7392359301181672,
                0.8081687072282301,
                -1.067460310586141,
                -1.2393649721115623,
                -2.839085513043678
            ]
        },
        {
            "positions": [
                1.377079480047588,
                -2.691796943917422,
                0.65698098062103,
                -1.1196119136176013,
                -1.1892202232783573,
                -2.8535674625263856
            ]
        },
        {
            "positions": [
                1.2989031746153308,
                -2.644357957716677,
                0.5057932540138301,
                -1.1717635166490612,
                -1.1390754744451526,
                -2.868049412009093
            ]
        },
        {
            "positions": [
                1.220726869183073,
                -2.5969189715159313,
                0.35460552740663,
                -1.2239151196805214,
                -1.0889307256119478,
                -2.8825313614918007
            ]
        },
        {
            "positions": [
                1.1425505637508158,
                -2.549479985315186,
                0.20341780079943006,
                -1.2760667227119813,
                -1.038785976778743,
                -2.897013310974508
            ]
        },
        {
            "positions": [
                1.064374258318558,
                -2.502040999114441,
                0.052230074192230136,
                -1.3282183257434412,
                -0.9886412279455381,
                -2.9114952604572157
            ]
        },
        {
            "positions": [
                0.9861979528863007,
                -2.4546020129136954,
                -0.09895765241496979,
                -1.3803699287749014,
                -0.9384964791123334,
                -2.9259772099399233
            ]
        },
        {
            "positions": [
                0.9080216474540431,
                -2.4071630267129502,
                -0.25014537902216993,
                -1.4325215318063615,
                -0.8883517302791284,
                -2.940459159422631
            ]
        },
        {
            "positions": [
                0.8298453420217857,
                -2.359724040512205,
                -0.40133310562936986,
                -1.4846731348378215,
                -0.8382069814459236,
                -2.954941108905339
            ]
        },
        {
            "positions": [
                0.7516690365895282,
                -2.3122850543114595,
                -0.5525208322365698,
                -1.5368247378692814,
                -0.7880622326127189,
                -2.9694230583880463
            ]
        },
        {
            "positions": [
                0.6734927311572709,
                -2.2648460681107143,
                -0.7037085588437697,
                -1.5889763409007416,
                -0.737917483779514,
                -2.983905007870754
            ]
        },
        {
            "positions": [
                0.5953164257250132,
                -2.217407081909969,
                -0.8548962854509701,
                -1.6411279439322017,
                -0.6877727349463091,
                -2.9983869573534614
            ]
        },
        {
            "positions": [
                0.5171401202927557,
                -2.1699680957092236,
                -1.00608401205817,
                -1.6932795469636617,
                -0.6376279861131043,
                -3.012868906836169
            ]
        },
        {
            "positions": [
                0.4389638148604984,
                -2.1225291095084784,
                -1.15727173866537,
                -1.7454311499951216,
                -0.5874832372798995,
                -3.0273508563188765
            ]
        },
        {
            "positions": [
                0.3607875094282409,
                -2.0750901233077332,
                -1.3084594652725698,
                -1.7975827530265818,
                -0.5373384884466947,
                -3.041832805801584
            ]
        },
        {
            "positions": [
                0.28261120399598316,
                -2.0276511371069876,
                -1.4596471918797698,
                -1.8497343560580417,
                -0.4871937396134898,
                -3.0563147552842915
            ]
        },
        {
            "positions": [
                0.20443489856372565,
                -1.9802121509062425,
                -1.6108349184869697,
                -1.9018859590895019,
                -0.43704899078028503,
                -3.070796704766999
            ]
        },
        {
            "positions": [
                0.12625859313146837,
                -1.9327731647054973,
                -1.7620226450941696,
                -1.9540375621209618,
                -0.3869042419470803,
                -3.0852786542497066
            ]
        },
        {
            "positions": [
                0.04808228769921086,
                -1.885334178504752,
                -1.9132103717013695,
                -2.0061891651524215,
                -0.3367594931138753,
                -3.0997606037324146
            ]
        },
        {
            "positions": [
                -0.030094017733046874,
                -1.8378951923040066,
                -2.06439809830857,
                -2.058340768183882,
                -0.28661474428067035,
                -3.114242553215122
            ]
        },
        {
            "positions": [
                -0.10827032316530416,
                -1.7904562061032614,
                -2.21558582491577,
                -2.110492371215342,
                -0.2364699954474656,
                -3.1287245026978296
            ]
        },
        {
            "positions": [
                -0.18644662859756173,
                -1.743017219902516,
                -2.3667735515229698,
                -2.162643974246802,
                -0.1863252466142608,
                -3.143206452180537
            ]
        }
    ]
}