{
    "goal": {
        "global_pose": {
            "orientation": {
                "w": -0.4816463035849501,
                "x": 0.5182115481033762,
                "y": 0.4908360881923453,
                "z": -0.5084816262002911
            },
            "position": {
                "x": -0.8240239810943604,
                "y": -0.300875300988555,
                "z": 0.16403168439865112
            }
        },
        "name": "move_to_storage_C"
    },
    "id": "FMT_move_to_storage_C_54",
    "joint_names": [
        "shoulder_pan_joint",
        "shoulder_lift_joint",
        "elbow_joint",
        "wrist_1_joint",
        "wrist_2_joint",
        "wrist_3_joint"
    ],
    "metrics": {
        "cart_traj_len": 0.5763941254220145,
        "distance_elbow_joint": 0.2534434954126328,
        "distance_shoulder_lift_joint": 0.18787098841645422,
        "distance_shoulder_pan_joint": 0.49591699110249765,
        "distance_wrist_1_joint": 0.06407596199850718,
        "distance_wrist_2_joint": 1.0599624267406065,
        "distance_wrist_3_joint": 0.06952762470261442,
        "smoothness": 0.0,
        "time": 0.31219486,
        "traj_len": 1.4597251413787846,
        "weighted_distance": 1.8422516458175997
    },
    "planner": "FMT",
    "start": {
        "state": {
            "elbow_joint": 2.010868314990456,
            "shoulder_lift_joint": -1.1634956873337592,
            "shoulder_pan_joint": -2.4736205022346125,
            "wrist_1_joint": -0.8367026794202681,
            "wrist_2_joint": 0.6746043897044499,
            "wrist_3_joint": -3.1496632123970403
        }
    },
    "waypoints": [
        {
            "positions": [
                -2.4736205022346125,
                -1.1634956873337592,
                2.010868314990456,
                -0.8367026794202681,
                0.6746043897044499,
                -3.1496632123970403
            ]
        },
        {
            "positions": [
                -2.556273334085029,
                -1.132183855931017,
                1.9686277324216837,
                -0.8260233524205169,
                0.8512647941612177,
                -3.1380752749466048
            ]
        },
        {
            "positions": [
                -2.638926165935445,
                -1.1008720245282744,
                1.9263871498529115,
                -0.8153440254207657,
                1.0279251986179854,
                -3.126487337496169
            ]
        },
        {
            "positions": [
                -2.721578997785861,
                -1.069560193125532,
                1.8841465672841395,
                -0.8046646984210145,
                1.204585603074753,
                -3.114899400045733
            ]
        },
        {
            "positions": [
                -2.8042318296362776,
                -1.0382483617227898,
                1.8419059847153674,
                -0.7939853714212634,
                1.3812460075315207,
                -3.1033114625952973
            ]
        },
        {
            "positions": [
                -2.886884661486694,
                -1.0069365303200473,
                1.7996654021465952,
                -0.7833060444215121,
                1.5579064119882888,
                -3.091723525144862
            ]
        },
        {
            "positions": [
                -2.96953749333711,
                -0.975624698917305,
                1.757424819577823,
                -0.7726267174217609,
                1.7345668164450565,
                -3.080135587694426
            ]
        }
    ]
}