{
    "goal": {
        "global_pose": {
            "orientation": {
                "w": 0.7031023502349854,
                "x": -0.7110244035720825,
                "y": 0.007748599164187908,
                "z": 0.005598929710686207
            },
            "position": {
                "x": 0.11585023208521307,
                "y": 0.44412534475326537,
                "z": 0.3711530566215515
            }
        },
        "name": "move_to_auspresseinheit_A"
    },
    "id": "FMT_move_to_auspresseinheit_A_45",
    "joint_names": [
        "shoulder_pan_joint",
        "shoulder_lift_joint",
        "elbow_joint",
        "wrist_1_joint",
        "wrist_2_joint",
        "wrist_3_joint"
    ],
    "metrics": {
        "cart_traj_len": 0.6640241188342062,
        "distance_elbow_joint": 0.25915827100911093,
        "distance_shoulder_lift_joint": 0.5331158756666619,
        "distance_shoulder_pan_joint": 1.0448768790990695,
        "distance_wrist_1_joint": 2.4388324655174682,
        "distance_wrist_2_joint": 0.5208978847531965,
        "distance_wrist_3_joint": 0.093266303194814,
        "smoothness": 1.2614361212413276,
        "time": 1.317106031,
        "traj_len": 2.211367829927966,
        "weighted_distance": 2.8348563695363143
    },
    "planner": "FMT",
    "start": {
        "state": {
            "elbow_joint": 2.4225746658250005,
            "shoulder_lift_joint": -1.3736534386056498,
            "shoulder_pan_joint": -0.3378633547517467,
            "wrist_1_joint": -1.0288598680537169,
            "wrist_2_joint": 1.233022673432363,
            "wrist_3_joint": -3.0940220416140027
        }
    },
    "waypoints": [
        {
            "positions": [
                -0.3378633547517467,
                -1.3736534386056498,
                2.4225746658250005,
                -1.0288598680537169,
                1.233022673432363,
                -3.0940220416140027
            ]
        },
        {
            "positions": [
                -0.2691918630349215,
                -1.4128886638279896,
                2.4044504103565343,
                -0.8405998262867787,
                1.1916932416184312,
                -3.103218639834889
            ]
        },
        {
            "positions": [
                -0.2005203713180962,
                -1.4521238890503292,
                2.3863261548880685,
                -0.6523397845198405,
                1.1503638098044995,
                -3.1124152380557755
            ]
        },
        {
            "positions": [
                -0.13184887960127092,
                -1.491359114272669,
                2.368201899419603,
                -0.4640797427529024,
                1.1090343779905676,
                -3.1216118362766623
            ]
        },
        {
            "positions": [
                -0.06317738788444566,
                -1.5305943394950088,
                2.3500776439511366,
                -0.2758197009859642,
                1.0677049461766357,
                -3.1308084344975486
            ]
        },
        {
            "positions": [
                0.005494103832379638,
                -1.5698295647173484,
                2.3319533884826704,
                -0.08755965921902598,
                1.026375514362704,
                -3.140005032718435
            ]
        },
        {
            "positions": [
                0.07416559554920488,
                -1.6090647899396882,
                2.3138291330142047,
                0.10070038254791203,
                0.9850460825487721,
                -3.149201630939322
            ]
        },
        {
            "positions": [
                0.14283708726603012,
                -1.648300015162028,
                2.295704877545739,
                0.28896042431485025,
                0.9437166507348403,
                -3.158398229160208
            ]
        },
        {
            "positions": [
                0.21150857898285547,
                -1.6875352403843675,
                2.2775806220772727,
                0.4772204660817885,
                0.9023872189209086,
                -3.1675948273810945
            ]
        },
        {
            "positions": [
                0.3037913478973546,
                -1.7281214999688774,
                2.299156342997981,
                0.30463331395906773,
                0.8652587452993348,
                -3.1632782575562834
            ]
        },
        {
            "positions": [
                0.3960741168118538,
                -1.7687077595533873,
                2.32073206391869,
                0.132046161836347,
                0.828130271677761,
                -3.1589616877314723
            ]
        },
        {
            "positions": [
                0.48835688572635294,
                -1.8092940191378972,
                2.3423077848393987,
                -0.04054099028637381,
                0.7910017980561873,
                -3.154645117906661
            ]
        },
        {
            "positions": [
                0.5806396546408521,
                -1.8498802787224071,
                2.363883505760107,
                -0.21312814240909445,
                0.7538733244346135,
                -3.1503285480818497
            ]
        },
        {
            "positions": [
                0.6438265894940873,
                -1.8783247964973593,
                2.3778141775493813,
                -0.3343299038546344,
                0.73299905655689,
                -3.151542167146088
            ]
        },
        {
            "positions": [
                0.7070135243473227,
                -1.9067693142723117,
                2.391744849338656,
                -0.45553166530017436,
                0.7121247886791665,
                -3.152755786210327
            ]
        }
    ]
}