{
    "goal": {
        "global_pose": {
            "orientation": {
                "w": 0.7031023480610252,
                "x": -0.7110244013736278,
                "y": 0.0077485991402295624,
                "z": 0.005598929693374583
            },
            "position": {
                "x": -0.8841497679147869,
                "y": 0.44412534475326537,
                "z": 0.3711530566215515
            }
        },
        "name": "move_to_auspresseinheit_D"
    },
    "id": "FMT_move_to_auspresseinheit_D_15",
    "joint_names": [
        "shoulder_pan_joint",
        "shoulder_lift_joint",
        "elbow_joint",
        "wrist_1_joint",
        "wrist_2_joint",
        "wrist_3_joint"
    ],
    "metrics": {
        "cart_traj_len": 0.3427325414394549,
        "distance_elbow_joint": 0.643713406729379,
        "distance_shoulder_lift_joint": 0.12442151467606788,
        "distance_shoulder_pan_joint": 0.13320771105100931,
        "distance_wrist_1_joint": 0.5534852319633083,
        "distance_wrist_2_joint": 1.4364858577756898,
        "distance_wrist_3_joint": 0.025091207481741318,
        "smoothness": 1.9737298371844314e-16,
        "time": 0.401079487,
        "traj_len": 1.7077484971965853,
        "weighted_distance": 2.2263329567653796
    },
    "planner": "FMT",
    "start": {
        "state": {
            "elbow_joint": -1.8275523626775212,
            "shoulder_lift_joint": -2.126789852344167,
            "shoulder_pan_joint": -0.03513704404078235,
            "wrist_1_joint": -2.347782403156801,
            "wrist_2_joint": -1.6058999987535132,
            "wrist_3_joint": -3.0880379163319196
        }
    },
    "waypoints": [
        {
            "positions": [
                -0.03513704404078235,
                -2.126789852344167,
                -1.8275523626775212,
                -2.347782403156801,
                -1.6058999987535132,
                -3.0880379163319196
            ]
        },
        {
            "positions": [
                -0.05178800792215851,
                -2.1423425416786754,
                -1.7470881868363488,
                -2.4169680571522143,
                -1.426339266531552,
                -3.084901515396702
            ]
        },
        {
            "positions": [
                -0.06843897180353467,
                -2.1578952310131836,
                -1.6666240109951764,
                -2.4861537111476277,
                -1.2467785343095907,
                -3.081765114461484
            ]
        },
        {
            "positions": [
                -0.08508993568491084,
                -2.173447920347692,
                -1.586159835154004,
                -2.5553393651430416,
                -1.0672178020876295,
                -3.0786287135262667
            ]
        },
        {
            "positions": [
                -0.10174089956628701,
                -2.189000609682201,
                -1.5056956593128317,
                -2.624525019138455,
                -0.8876570698656683,
                -3.0754923125910487
            ]
        },
        {
            "positions": [
                -0.11839186344766317,
                -2.2045532990167094,
                -1.4252314834716593,
                -2.6937106731338685,
                -0.708096337643707,
                -3.072355911655831
            ]
        },
        {
            "positions": [
                -0.13504282732903933,
                -2.220105988351218,
                -1.344767307630487,
                -2.7628963271292823,
                -0.5285356054217458,
                -3.0692195107206137
            ]
        },
        {
            "positions": [
                -0.1516937912104155,
                -2.235658677685726,
                -1.2643031317893145,
                -2.832081981124696,
                -0.3489748731997846,
                -3.0660831097853958
            ]
        },
        {
            "positions": [
                -0.16834475509179167,
                -2.2512113670202347,
                -1.1838389559481421,
                -2.901267635120109,
                -0.1694141409778234,
                -3.0629467088501783
            ]
        }
    ]
}