{
    "goal": {
        "global_pose": {
            "orientation": {
                "w": 0.005598929693374612,
                "x": 0.007748599140229565,
                "y": 0.7110244013736278,
                "z": -0.7031023480610252
            },
            "position": {
                "x": -0.8858502320852131,
                "y": -0.7141253447532654,
                "z": 0.3711530566215515
            }
        },
        "name": "move_to_auspresseinheit_C"
    },
    "id": "FMT_move_to_auspresseinheit_C_9",
    "joint_names": [
        "shoulder_pan_joint",
        "shoulder_lift_joint",
        "elbow_joint",
        "wrist_1_joint",
        "wrist_2_joint",
        "wrist_3_joint"
    ],
    "metrics": {
        "cart_traj_len": 0.49359645098718513,
        "distance_elbow_joint": 0.9934629754681956,
        "distance_shoulder_lift_joint": 0.3212461627932576,
        "distance_shoulder_pan_joint": 0.25692685204976273,
        "distance_wrist_1_joint": 0.6618412619021682,
        "distance_wrist_2_joint": 1.3091266720245613,
        "distance_wrist_3_joint": 0.04206241363269214,
        "smoothness": 6.45947944157498e-16,
        "time": 0.509689592,
        "traj_len": 1.8933215093772737,
        "weighted_distance": 2.374817698069212
    },
    "planner": "FMT",
    "start": {
        "state": {
            "elbow_joint": 1.7527959577737207,
            "shoulder_lift_joint": -0.9740617694225068,
            "shoulder_pan_joint": -2.967991417825858,
            "wrist_1_joint": -0.759517768980727,
            "wrist_2_joint": 1.7443932448377408,
            "wrist_3_joint": -3.0840537646736568
        }
    },
    "waypoints": [
        {
            "positions": [
                -2.967991417825858,
                -0.9740617694225068,
                1.7527959577737207,
                -0.759517768980727,
                1.7443932448377408,
                -3.0840537646736568
            ]
        },
        {
            "positions": [
                -2.942298732620882,
                -0.941937153143181,
                1.653449660226901,
                -0.6933336427905101,
                1.6134805776352847,
                -3.088260006036926
            ]
        },
        {
            "positions": [
                -2.9166060474159052,
                -0.9098125368638552,
                1.5541033626800815,
                -0.6271495166002934,
                1.4825679104328287,
                -3.0924662474001954
            ]
        },
        {
            "positions": [
                -2.890913362210929,
                -0.8776879205845295,
                1.454757065133262,
                -0.5609653904100765,
                1.3516552432303723,
                -3.0966724887634642
            ]
        },
        {
            "positions": [
                -2.865220677005953,
                -0.8455633043052038,
                1.3554107675864424,
                -0.4947812642198597,
                1.2207425760279162,
                -3.1008787301267335
            ]
        },
        {
            "positions": [
                -2.839527991800977,
                -0.8134386880258779,
                1.2560644700396228,
                -0.4285971380296429,
                1.0898299088254602,
                -3.105084971490003
            ]
        },
        {
            "positions": [
                -2.8138353065960002,
                -0.7813140717465522,
                1.1567181724928033,
                -0.3624130118394261,
                0.9589172416230041,
                -3.109291212853272
            ]
        },
        {
            "positions": [
                -2.788142621391024,
                -0.7491894554672265,
                1.0573718749459837,
                -0.2962288856492093,
                0.828004574420548,
                -3.1134974542165414
            ]
        },
        {
            "positions": [
                -2.762449936186048,
                -0.7170648391879006,
                0.9580255773991642,
                -0.2300447594589924,
                0.6970919072180917,
                -3.1177036955798103
            ]
        },
        {
            "positions": [
                -2.7367572509810714,
                -0.6849402229085749,
                0.8586792798523446,
                -0.16386063326877565,
                0.5661792400156356,
                -3.1219099369430796
            ]
        },
        {
            "positions": [
                -2.7110645657760952,
                -0.6528156066292492,
                0.759332982305525,
                -0.09767650707855881,
                0.4352665728131795,
                -3.126116178306349
            ]
        }
    ]
}