{
    "goal": {
        "global_pose": {
            "orientation": {
                "w": 0.7031023480610252,
                "x": -0.7110244013736278,
                "y": 0.0077485991402295624,
                "z": 0.005598929693374583
            },
            "position": {
                "x": -0.8841497679147869,
                "y": 0.44412534475326537,
                "z": 0.3711530566215515
            }
        },
        "name": "move_to_auspresseinheit_D"
    },
    "id": "FMT_move_to_auspresseinheit_D_98",
    "joint_names": [
        "shoulder_pan_joint",
        "shoulder_lift_joint",
        "elbow_joint",
        "wrist_1_joint",
        "wrist_2_joint",
        "wrist_3_joint"
    ],
    "metrics": {
        "cart_traj_len": 0.34384899422011933,
        "distance_elbow_joint": 0.6410182141333065,
        "distance_shoulder_lift_joint": 0.12234410039876531,
        "distance_shoulder_pan_joint": 0.1343383342329539,
        "distance_wrist_1_joint": 0.5368579463351959,
        "distance_wrist_2_joint": 1.4343504511643954,
        "distance_wrist_3_joint": 0.0002532912094777018,
        "smoothness": 0.0,
        "time": 0.534553578,
        "traj_len": 1.6938601882900768,
        "weighted_distance": 2.2001993812817604
    },
    "planner": "FMT",
    "start": {
        "state": {
            "elbow_joint": -1.8275523626775212,
            "shoulder_lift_joint": -2.126789852344167,
            "shoulder_pan_joint": -0.03513704404078235,
            "wrist_1_joint": -2.347782403156801,
            "wrist_2_joint": -1.6058999987535132,
            "wrist_3_joint": -3.0880379163319196
        }
    },
    "waypoints": [
        {
            "positions": [
                -0.03513704404078235,
                -2.126789852344167,
                -1.8275523626775212,
                -2.347782403156801,
                -1.6058999987535132,
                -3.0880379163319196
            ]
        },
        {
            "positions": [
                -0.051929335819901584,
                -2.1420828648940127,
                -1.7474250859108578,
                -2.4148896464487004,
                -1.4266061923579638,
                -3.0880695777331044
            ]
        },
        {
            "positions": [
                -0.06872162759902083,
                -2.157375877443858,
                -1.6672978091441946,
                -2.4819968897406,
                -1.2473123859624144,
                -3.0881012391342892
            ]
        },
        {
            "positions": [
                -0.08551391937814007,
                -2.172668889993704,
                -1.5871705323775314,
                -2.5491041330324995,
                -1.0680185795668649,
                -3.0881329005354736
            ]
        },
        {
            "positions": [
                -0.1023062111572593,
                -2.1879619025435497,
                -1.507043255610868,
                -2.616211376324399,
                -0.8887247731713155,
                -3.0881645619366584
            ]
        },
        {
            "positions": [
                -0.11909850293637855,
                -2.203254915093395,
                -1.4269159788442045,
                -2.683318619616298,
                -0.7094309667757661,
                -3.0881962233378433
            ]
        },
        {
            "positions": [
                -0.13589079471549778,
                -2.218547927643241,
                -1.3467887020775413,
                -2.7504258629081977,
                -0.5301371603802165,
                -3.0882278847390277
            ]
        },
        {
            "positions": [
                -0.152683086494617,
                -2.2338409401930863,
                -1.266661425310878,
                -2.8175331062000972,
                -0.35084335398466715,
                -3.0882595461402125
            ]
        },
        {
            "positions": [
                -0.16947537827373627,
                -2.249133952742932,
                -1.1865341485442147,
                -2.8846403494919968,
                -0.17154954758911767,
                -3.0882912075413973
            ]
        }
    ]
}