{
    "goal": {
        "global_pose": {
            "orientation": {
                "w": 0.7031023502349854,
                "x": -0.7110244035720825,
                "y": 0.007748599164187908,
                "z": 0.005598929710686207
            },
            "position": {
                "x": 0.11585023208521307,
                "y": 0.44412534475326537,
                "z": 0.3711530566215515
            }
        },
        "name": "move_to_auspresseinheit_A"
    },
    "id": "FMT_move_to_auspresseinheit_A_23",
    "joint_names": [
        "shoulder_pan_joint",
        "shoulder_lift_joint",
        "elbow_joint",
        "wrist_1_joint",
        "wrist_2_joint",
        "wrist_3_joint"
    ],
    "metrics": {
        "cart_traj_len": 0.687686912756337,
        "distance_elbow_joint": 0.03269930842256841,
        "distance_shoulder_lift_joint": 0.5335379566447598,
        "distance_shoulder_pan_joint": 1.039862441014934,
        "distance_wrist_1_joint": 0.5766158304441691,
        "distance_wrist_2_joint": 0.5378186209093491,
        "distance_wrist_3_joint": 0.05404382931757645,
        "smoothness": 8.881784183823303e-16,
        "time": 0.519507691,
        "traj_len": 1.6657064527561143,
        "weighted_distance": 1.9992748927403725
    },
    "planner": "FMT",
    "start": {
        "state": {
            "elbow_joint": 2.4225746658250005,
            "shoulder_lift_joint": -1.3736534386056498,
            "shoulder_pan_joint": -0.3378633547517467,
            "wrist_1_joint": -1.0288598680537169,
            "wrist_2_joint": 1.233022673432363,
            "wrist_3_joint": -3.0940220416140027
        }
    },
    "waypoints": [
        {
            "positions": [
                -0.3378633547517467,
                -1.3736534386056498,
                2.4225746658250005,
                -1.0288598680537169,
                1.233022673432363,
                -3.0940220416140027
            ]
        },
        {
            "positions": [
                -0.20788054962487998,
                -1.4403456831862447,
                2.4184872522721794,
                -0.9567828892481958,
                1.1657953458186945,
                -3.1007775202787
            ]
        },
        {
            "positions": [
                -0.07789774449801323,
                -1.5070379277668398,
                2.4143998387193584,
                -0.8847059104426747,
                1.0985680182050257,
                -3.107532998943397
            ]
        },
        {
            "positions": [
                0.052085060628853486,
                -1.5737301723474348,
                2.4103124251665373,
                -0.8126289316371534,
                1.0313406905913571,
                -3.1142884776080937
            ]
        },
        {
            "positions": [
                0.18206786575572026,
                -1.6404224169280297,
                2.4062250116137163,
                -0.7405519528316323,
                0.9641133629776886,
                -3.121043956272791
            ]
        },
        {
            "positions": [
                0.31205067088258703,
                -1.7071146615086246,
                2.402137598060895,
                -0.6684749740261112,
                0.8968860353640199,
                -3.1277994349374882
            ]
        },
        {
            "positions": [
                0.4420334760094537,
                -1.7738069060892196,
                2.398050184508074,
                -0.59639799522059,
                0.8296587077503512,
                -3.134554913602185
            ]
        },
        {
            "positions": [
                0.5720162811363205,
                -1.8404991506698147,
                2.393962770955253,
                -0.5243210164150689,
                0.7624313801366827,
                -3.141310392266882
            ]
        },
        {
            "positions": [
                0.7019990862631873,
                -1.9071913952504096,
                2.389875357402432,
                -0.45224403760954773,
                0.695204052523014,
                -3.148065870931579
            ]
        }
    ]
}