{
    "goal": {
        "global_pose": {
            "orientation": {
                "w": 0.7047431468963623,
                "x": -0.7094548344612122,
                "y": 0.0024358443915843964,
                "z": -0.0022348060738295317
            },
            "position": {
                "x": 0.6094750761985779,
                "y": 0.3671506643295288,
                "z": 0.19426114857196808
            }
        },
        "name": "move_to_magneteinheit_A"
    },
    "id": "FMT_move_to_magneteinheit_A_69",
    "joint_names": [
        "shoulder_pan_joint",
        "shoulder_lift_joint",
        "elbow_joint",
        "wrist_1_joint",
        "wrist_2_joint",
        "wrist_3_joint"
    ],
    "metrics": {
        "cart_traj_len": 3.6114208118732676,
        "distance_elbow_joint": 3.9072994864603112,
        "distance_shoulder_lift_joint": 0.46950630408344785,
        "distance_shoulder_pan_joint": 3.6399351241820144,
        "distance_wrist_1_joint": 3.4563493107541894,
        "distance_wrist_2_joint": 2.0440991135805886,
        "distance_wrist_3_joint": 1.0792020347406017,
        "smoothness": 0.39855062758734544,
        "time": 1.315041944,
        "traj_len": 3.820522395406308,
        "weighted_distance": 4.717546382137343
    },
    "planner": "FMT",
    "start": {
        "state": {
            "elbow_joint": -1.9196185241190666,
            "shoulder_lift_joint": -1.2443396400964142,
            "shoulder_pan_joint": 2.6996025414629847,
            "wrist_1_joint": -1.5485510000780065,
            "wrist_2_joint": -1.5709468930060704,
            "wrist_3_joint": 0.4420197071253992
        }
    },
    "waypoints": [
        {
            "positions": [
                2.6996025414629847,
                -1.2443396400964142,
                -1.9196185241190666,
                -1.5485510000780065,
                -1.5709468930060704,
                0.4420197071253992
            ]
        },
        {
            "positions": [
                2.6024740669712836,
                -1.2356451481188657,
                -1.8169532052999853,
                -1.4422189181278509,
                -1.5164786621084885,
                0.4185532333927696
            ]
        },
        {
            "positions": [
                2.5053455924795824,
                -1.226950656141317,
                -1.714287886480904,
                -1.3358868361776954,
                -1.4620104312109063,
                0.39508675966014
            ]
        },
        {
            "positions": [
                2.4082171179878813,
                -1.2182561641637686,
                -1.6116225676618228,
                -1.2295547542275398,
                -1.4075422003133244,
                0.37162028592751045
            ]
        },
        {
            "positions": [
                2.3110886434961806,
                -1.20956167218622,
                -1.5089572488427414,
                -1.1232226722773841,
                -1.3530739694157423,
                0.3481538121948809
            ]
        },
        {
            "positions": [
                2.2139601690044795,
                -1.2008671802086714,
                -1.40629193002366,
                -1.0168905903272285,
                -1.2986057385181604,
                0.3246873384622513
            ]
        },
        {
            "positions": [
                2.1168316945127783,
                -1.1921726882311228,
                -1.303626611204579,
                -0.910558508377073,
                -1.2441375076205783,
                0.30122086472962173
            ]
        },
        {
            "positions": [
                2.019703220021077,
                -1.1834781962535743,
                -1.2009612923854975,
                -0.8042264264269174,
                -1.1896692767229964,
                0.2777543909969922
            ]
        },
        {
            "positions": [
                1.9225747455293762,
                -1.1747837042760256,
                -1.0982959735664162,
                -0.6978943444767618,
                -1.1352010458254145,
                0.2542879172643626
            ]
        },
        {
            "positions": [
                1.8254462710376753,
                -1.1660892122984772,
                -0.9956306547473348,
                -0.5915622625266062,
                -1.0807328149278324,
                0.230821443531733
            ]
        },
        {
            "positions": [
                1.7283177965459742,
                -1.1573947203209285,
                -0.8929653359282534,
                -0.4852301805764505,
                -1.0262645840302502,
                0.20735496979910345
            ]
        },
        {
            "positions": [
                1.631189322054273,
                -1.14870022834338,
                -0.7903000171091723,
                -0.3788980986262951,
                -0.9717963531326683,
                0.1838884960664739
            ]
        },
        {
            "positions": [
                1.5340608475625719,
                -1.1400057363658314,
                -0.6876346982900909,
                -0.27256601667613944,
                -0.9173281222350864,
                0.16042202233384428
            ]
        },
        {
            "positions": [
                1.436932373070871,
                -1.131311244388283,
                -0.5849693794710096,
                -0.1662339347259838,
                -0.8628598913375044,
                0.13695554860121473
            ]
        },
        {
            "positions": [
                1.3398038985791698,
                -1.1226167524107342,
                -0.48230406065192843,
                -0.05990185277582838,
                -0.8083916604399224,
                0.11348907486858517
            ]
        },
        {
            "positions": [
                1.242675424087469,
                -1.1139222604331858,
                -0.37963874183284707,
                0.046430229174327264,
                -0.7539234295423404,
                0.09002260113595556
            ]
        },
        {
            "positions": [
                1.1455469495957677,
                -1.105227768455637,
                -0.2769734230137657,
                0.1527623111244829,
                -0.6994551986447584,
                0.066556127403326
            ]
        },
        {
            "positions": [
                1.0484184751040666,
                -1.0965332764780886,
                -0.17430810419468434,
                0.25909439307463855,
                -0.6449869677471763,
                0.04308965367069645
            ]
        },
        {
            "positions": [
                0.9512900006123657,
                -1.0878387845005402,
                -0.07164278537560298,
                0.3654264750247942,
                -0.5905187368495943,
                0.019623179938066837
            ]
        },
        {
            "positions": [
                0.8541615261206645,
                -1.0791442925229915,
                0.031022533443478162,
                0.47175855697494984,
                -0.5360505059520124,
                -0.003843293794562719
            ]
        },
        {
            "positions": [
                0.7570330516289636,
                -1.070449800545443,
                0.13368785226255975,
                0.5780906389251055,
                -0.4815822750544303,
                -0.027309767527192275
            ]
        },
        {
            "positions": [
                0.6599045771372625,
                -1.0617553085678944,
                0.23635317108164067,
                0.6844227208752607,
                -0.4271140441568484,
                -0.050776241259821886
            ]
        },
        {
            "positions": [
                0.5627761026455613,
                -1.053060816590346,
                0.33901848990072203,
                0.7907548028254163,
                -0.37264581325926627,
                -0.07424271499245139
            ]
        },
        {
            "positions": [
                0.4656476281538602,
                -1.0443663246127972,
                0.4416838087198034,
                0.897086884775572,
                -0.31817758236168436,
                -0.09770918872508105
            ]
        },
        {
            "positions": [
                0.36851915366215904,
                -1.0356718326352488,
                0.5443491275388848,
                1.0034189667257276,
                -0.26370935146410246,
                -0.12117566245771061
            ]
        },
        {
            "positions": [
                0.27139067917045834,
                -1.0269773406577,
                0.6470144463579661,
                1.1097510486758833,
                -0.20924112056652033,
                -0.14464213619034016
            ]
        },
        {
            "positions": [
                0.1742622046787572,
                -1.0182828486801516,
                0.7496797651770475,
                1.216083130626039,
                -0.15477288966893843,
                -0.16810860992296972
            ]
        },
        {
            "positions": [
                0.07713373018705605,
                -1.009588356702603,
                0.8523450839961288,
                1.3224152125761945,
                -0.1003046587713563,
                -0.19157508365559928
            ]
        },
        {
            "positions": [
                -0.019994744304645096,
                -1.0008938647250545,
                0.9550104028152098,
                1.4287472945263497,
                -0.0458364278737744,
                -0.21504155738822883
            ]
        },
        {
            "positions": [
                -0.11712321879634624,
                -0.9921993727475059,
                1.0576757216342911,
                1.5350793764765054,
                0.008631803023807727,
                -0.2385080311208585
            ]
        },
        {
            "positions": [
                -0.21425169328804694,
                -0.9835048807699573,
                1.1603410404533725,
                1.641411458426661,
                0.06310003392138963,
                -0.26197450485348805
            ]
        },
        {
            "positions": [
                -0.3113801677797481,
                -0.9748103887924088,
                1.2630063592724539,
                1.7477435403768167,
                0.11756826481897176,
                -0.2854409785861176
            ]
        },
        {
            "positions": [
                -0.4085086422714492,
                -0.9661158968148602,
                1.3656716780915352,
                1.854075622326972,
                0.17203649571655377,
                -0.30890745231874717
            ]
        },
        {
            "positions": [
                -0.3198713188635192,
                -0.9342354700145445,
                1.4693398921331535,
                1.8630294037185071,
                0.12185054157355965,
                -0.25419497310267125
            ]
        },
        {
            "positions": [
                -0.23123399545558926,
                -0.9023550432142289,
                1.5730081061747718,
                1.8719831851100424,
                0.07166458743056553,
                -0.1994824938865954
            ]
        },
        {
            "positions": [
                -0.1425966720476593,
                -0.8704746164139132,
                1.6766763202163903,
                1.8809369665015774,
                0.021478633287571408,
                -0.14477001467051948
            ]
        },
        {
            "positions": [
                -0.05395934863972934,
                -0.8385941896135977,
                1.7803445342580084,
                1.8898907478931124,
                -0.028707320855422713,
                -0.09005753545444359
            ]
        },
        {
            "positions": [
                0.034677974768200615,
                -0.806713762813282,
                1.884012748299627,
                1.8988445292846476,
                -0.07889327499841686,
                -0.035345056238367645
            ]
        },
        {
            "positions": [
                0.1233152981761306,
                -0.7748333360129663,
                1.9876809623412452,
                1.9077983106761827,
                -0.12907922914141096,
                0.019367422977708233
            ]
        }
    ]
}