{
    "goal": {
        "global_pose": {
            "orientation": {
                "w": -0.4816463035849501,
                "x": 0.5182115481033762,
                "y": 0.4908360881923453,
                "z": -0.5084816262002911
            },
            "position": {
                "x": -0.8240239810943604,
                "y": 0.19912469901144506,
                "z": 0.16403168439865112
            }
        },
        "name": "move_to_storage_D"
    },
    "id": "FMT_move_to_storage_D_2",
    "joint_names": [
        "shoulder_pan_joint",
        "shoulder_lift_joint",
        "elbow_joint",
        "wrist_1_joint",
        "wrist_2_joint",
        "wrist_3_joint"
    ],
    "metrics": {
        "cart_traj_len": 3.890593528851438,
        "distance_elbow_joint": 4.213639078153787,
        "distance_shoulder_lift_joint": 1.2646178815138727,
        "distance_shoulder_pan_joint": 2.8114654355619497,
        "distance_wrist_1_joint": 2.2889798966263357,
        "distance_wrist_2_joint": 0.8672750293998348,
        "distance_wrist_3_joint": 3.1221249234999586,
        "smoothness": 5.010237245085395e-16,
        "time": 1.412396297,
        "traj_len": 3.816818340549592,
        "weighted_distance": 4.895774404298245
    },
    "planner": "FMT",
    "start": {
        "state": {
            "elbow_joint": -2.384821988534728,
            "shoulder_lift_joint": -2.2788054721415256,
            "shoulder_pan_joint": -0.1854694642142757,
            "wrist_1_joint": 1.4845938289331202,
            "wrist_2_joint": 0.17898776772866878,
            "wrist_3_joint": 0.037105688729662994
        }
    },
    "waypoints": [
        {
            "positions": [
                -0.1854694642142757,
                -2.2788054721415256,
                -2.384821988534728,
                1.4845938289331202,
                0.17898776772866878,
                0.037105688729662994
            ]
        },
        {
            "positions": [
                -0.15455863907667872,
                -2.271730983968503,
                -2.359089194405872,
                1.4614142645240822,
                0.186138165434874,
                0.023429718229705174
            ]
        },
        {
            "positions": [
                -0.07644254972978554,
                -2.238253790923513,
                -2.2459042782427443,
                1.3985631686317979,
                0.21003184285418172,
                -0.06083319879150535
            ]
        },
        {
            "positions": [
                0.0016735396171076444,
                -2.2047765978785234,
                -2.132719362079617,
                1.3357120727395135,
                0.23392552027348942,
                -0.14509611581271586
            ]
        },
        {
            "positions": [
                0.07978962896400082,
                -2.1712994048335337,
                -2.0195344459164897,
                1.2728609768472292,
                0.25781919769279715,
                -0.2293590328339264
            ]
        },
        {
            "positions": [
                0.157905718310894,
                -2.137822211788544,
                -1.9063495297533621,
                1.2100098809549449,
                0.28171287511210485,
                -0.3136219498551369
            ]
        },
        {
            "positions": [
                0.23602180765778719,
                -2.104345018743554,
                -1.7931646135902348,
                1.1471587850626606,
                0.30560655253141256,
                -0.3978848668763474
            ]
        },
        {
            "positions": [
                0.31413789700468037,
                -2.0708678256985644,
                -1.6799796974271075,
                1.0843076891703762,
                0.3295002299507203,
                -0.48214778389755797
            ]
        },
        {
            "positions": [
                0.39225398635157355,
                -2.0373906326535747,
                -1.56679478126398,
                1.021456593278092,
                0.35339390737002807,
                -0.5664107009187686
            ]
        },
        {
            "positions": [
                0.4703700756984667,
                -2.003913439608585,
                -1.4536098651008524,
                0.9586054973858077,
                0.3772875847893358,
                -0.650673617939979
            ]
        },
        {
            "positions": [
                0.5484861650453599,
                -1.9704362465635952,
                -1.3404249489377253,
                0.8957544014935234,
                0.4011812622086435,
                -0.7349365349611895
            ]
        },
        {
            "positions": [
                0.6266022543922531,
                -1.9369590535186054,
                -1.2272400327745978,
                0.832903305601239,
                0.4250749396279512,
                -0.8191994519824
            ]
        },
        {
            "positions": [
                0.7047183437391462,
                -1.9034818604736157,
                -1.1140551166114703,
                0.7700522097089547,
                0.44896861704725893,
                -0.9034623690036105
            ]
        },
        {
            "positions": [
                0.7828344330860395,
                -1.8700046674286257,
                -1.000870200448343,
                0.7072011138166704,
                0.47286229446656663,
                -0.9877252860248211
            ]
        },
        {
            "positions": [
                0.8609505224329328,
                -1.836527474383636,
                -0.8876852842852154,
                0.644350017924386,
                0.4967559718858744,
                -1.0719882030460317
            ]
        },
        {
            "positions": [
                0.9390666117798259,
                -1.8030502813386462,
                -0.7745003681220881,
                0.5814989220321016,
                0.5206496493051821,
                -1.1562511200672423
            ]
        },
        {
            "positions": [
                1.017182701126719,
                -1.7695730882936567,
                -0.6613154519589608,
                0.5186478261398174,
                0.5445433267244898,
                -1.2405140370884526
            ]
        },
        {
            "positions": [
                1.0952987904736122,
                -1.7360958952486667,
                -0.5481305357958333,
                0.4557967302475332,
                0.5684370041437975,
                -1.3247769541096632
            ]
        },
        {
            "positions": [
                1.1734148798205055,
                -1.702618702203677,
                -0.43494561963270595,
                0.3929456343552489,
                0.5923306815631053,
                -1.4090398711308738
            ]
        },
        {
            "positions": [
                1.2515309691673986,
                -1.6691415091586872,
                -0.32176070346957886,
                0.33009453846296455,
                0.6162243589824129,
                -1.4933027881520842
            ]
        },
        {
            "positions": [
                1.3296470585142917,
                -1.6356643161136974,
                -0.20857578730645132,
                0.2672434425706802,
                0.6401180364017207,
                -1.5775657051732948
            ]
        },
        {
            "positions": [
                1.407763147861185,
                -1.6021871230687077,
                -0.09539087114332379,
                0.2043923466783959,
                0.6640117138210284,
                -1.6618286221945051
            ]
        },
        {
            "positions": [
                1.4858792372080782,
                -1.568709930023718,
                0.01779404501980375,
                0.14154125078611157,
                0.6879053912403361,
                -1.7460915392157157
            ]
        },
        {
            "positions": [
                1.5639953265549713,
                -1.5352327369787282,
                0.13097896118293129,
                0.07869015489382725,
                0.7117990686596438,
                -1.8303544562369263
            ]
        },
        {
            "positions": [
                1.6421114159018646,
                -1.5017555439337382,
                0.24416387734605838,
                0.01583905900154292,
                0.7356927460789515,
                -1.9146173732581369
            ]
        },
        {
            "positions": [
                1.7202275052487577,
                -1.4682783508887485,
                0.3573487935091859,
                -0.047012036890741404,
                0.7595864234982592,
                -1.9988802902793474
            ]
        },
        {
            "positions": [
                1.798343594595651,
                -1.4348011578437587,
                0.47053370967231345,
                -0.10986313278302573,
                0.7834801009175669,
                -2.083143207300558
            ]
        },
        {
            "positions": [
                1.8764596839425443,
                -1.401323964798769,
                0.583718625835441,
                -0.17271422867531028,
                0.8073737783368748,
                -2.1674061243217686
            ]
        },
        {
            "positions": [
                1.9545757732894373,
                -1.3678467717537792,
                0.6969035419985685,
                -0.2355653245675946,
                0.8312674557561825,
                -2.251669041342979
            ]
        },
        {
            "positions": [
                2.03269186263633,
                -1.3343695787087895,
                0.8100884581616956,
                -0.29841642045987893,
                0.8551611331754903,
                -2.3359319583641898
            ]
        },
        {
            "positions": [
                2.1108079519832237,
                -1.3008923856637997,
                0.9232733743248231,
                -0.36126751635216325,
                0.879054810594798,
                -2.4201948753854
            ]
        },
        {
            "positions": [
                2.1889240413301163,
                -1.2674151926188102,
                1.0364582904879502,
                -0.42411861224444736,
                0.9029484880141057,
                -2.5044577924066105
            ]
        },
        {
            "positions": [
                2.26704013067701,
                -1.2339379995738202,
                1.1496432066510778,
                -0.4869697081367317,
                0.9268421654334134,
                -2.588720709427821
            ]
        },
        {
            "positions": [
                2.345156220023903,
                -1.2004608065288305,
                1.2628281228142053,
                -0.5498208040290158,
                0.9507358428527211,
                -2.6729836264490316
            ]
        },
        {
            "positions": [
                2.423272309370796,
                -1.1669836134838407,
                1.3760130389773324,
                -0.6126718999213003,
                0.9746295202720288,
                -2.757246543470242
            ]
        },
        {
            "positions": [
                2.5013883987176895,
                -1.133506420438851,
                1.48919795514046,
                -0.6755229958135844,
                0.9985231976913365,
                -2.841509460491453
            ]
        },
        {
            "positions": [
                2.5795044880645825,
                -1.1000292273938612,
                1.6023828713035875,
                -0.738374091705869,
                1.0224168751106442,
                -2.925772377512663
            ]
        },
        {
            "positions": [
                2.6027502297061282,
                -1.0571084090107572,
                1.7155999804613231,
                -0.771380079699542,
                1.034339836119574,
                -3.00539580614148
            ]
        },
        {
            "positions": [
                2.6259959713476735,
                -1.014187590627653,
                1.8288170896190588,
                -0.8043860676932152,
                1.0462627971285037,
                -3.085019234770296
            ]
        }
    ]
}