{
    "goal": {
        "global_pose": {
            "orientation": {
                "w": -0.00223480608172531,
                "x": 0.0024358444001904467,
                "y": 0.7094548369677653,
                "z": -0.704743149386269
            },
            "position": {
                "x": -0.37947507619857795,
                "y": -0.6371506643295288,
                "z": 0.19426114857196808
            }
        },
        "name": "move_to_magneteinheit_C"
    },
    "id": "FMT_move_to_magneteinheit_C_35",
    "joint_names": [
        "shoulder_pan_joint",
        "shoulder_lift_joint",
        "elbow_joint",
        "wrist_1_joint",
        "wrist_2_joint",
        "wrist_3_joint"
    ],
    "metrics": {
        "cart_traj_len": 0.6943194608472314,
        "distance_elbow_joint": 1.2211531664574622,
        "distance_shoulder_lift_joint": 0.6787784385840592,
        "distance_shoulder_pan_joint": 0.819166409277422,
        "distance_wrist_1_joint": 2.5000245410064865,
        "distance_wrist_2_joint": 0.801650602380516,
        "distance_wrist_3_joint": 0.45256218341479393,
        "smoothness": 1.2775933518620755,
        "time": 1.2814658399999999,
        "traj_len": 2.544275012871199,
        "weighted_distance": 3.268047559528063
    },
    "planner": "FMT",
    "start": {
        "state": {
            "elbow_joint": 1.9565354010623817,
            "shoulder_lift_joint": -1.4165861575791021,
            "shoulder_pan_joint": -1.6717766225146293,
            "wrist_1_joint": -0.5286633292919765,
            "wrist_2_joint": 1.472756589071564,
            "wrist_3_joint": -3.1238370188695823
        }
    },
    "waypoints": [
        {
            "positions": [
                -1.6717766225146293,
                -1.4165861575791021,
                1.9565354010623817,
                -0.5286633292919765,
                1.472756589071564,
                -3.1238370188695823
            ]
        },
        {
            "positions": [
                -1.7342646258886418,
                -1.4378626953490883,
                2.020506789078287,
                -0.669989094178134,
                1.4029635070561945,
                -3.1016447131306903
            ]
        },
        {
            "positions": [
                -1.7967526292626546,
                -1.4591392331190747,
                2.084478177094192,
                -0.8113148590642916,
                1.3331704250408254,
                -3.0794524073917984
            ]
        },
        {
            "positions": [
                -1.8592406326366673,
                -1.4804157708890608,
                2.148449565110097,
                -0.9526406239504491,
                1.263377343025456,
                -3.057260101652907
            ]
        },
        {
            "positions": [
                -1.9217286360106798,
                -1.501692308659047,
                2.2124209531260024,
                -1.0939663888366067,
                1.1935842610100866,
                -3.035067795914015
            ]
        },
        {
            "positions": [
                -1.9842166393846923,
                -1.5229688464290332,
                2.276392341141907,
                -1.2352921537227641,
                1.1237911789947175,
                -3.012875490175123
            ]
        },
        {
            "positions": [
                -2.046704642758705,
                -1.5442453841990196,
                2.3403637291578123,
                -1.3766179186089218,
                1.053998096979348,
                -2.990683184436231
            ]
        },
        {
            "positions": [
                -2.1091926461327177,
                -1.5655219219690057,
                2.4043351171737175,
                -1.5179436834950792,
                0.9842050149639787,
                -2.968490878697339
            ]
        },
        {
            "positions": [
                -2.1716806495067305,
                -1.5867984597389921,
                2.4683065051896227,
                -1.659269448381237,
                0.9144119329486095,
                -2.9462985729584474
            ]
        },
        {
            "positions": [
                -2.2341686528807427,
                -1.6080749975089783,
                2.532277893205528,
                -1.8005952132673946,
                0.8446188509332401,
                -2.9241062672195555
            ]
        },
        {
            "positions": [
                -2.2966566562547555,
                -1.6293515352789645,
                2.596249281221433,
                -1.941920978153552,
                0.7748257689178708,
                -2.9019139614806635
            ]
        },
        {
            "positions": [
                -2.3431387228695657,
                -1.60102602222706,
                2.5386187978712362,
                -1.8103784965979715,
                0.7589216809949347,
                -2.9192893949018046
            ]
        },
        {
            "positions": [
                -2.3896207894843764,
                -1.5727005091751556,
                2.4809883145210394,
                -1.6788360150423909,
                0.7430175930719987,
                -2.936664828322946
            ]
        },
        {
            "positions": [
                -2.4361028560991866,
                -1.5443749961232511,
                2.4233578311708426,
                -1.5472935334868105,
                0.7271135051490626,
                -2.9540402617440877
            ]
        },
        {
            "positions": [
                -2.482584922713997,
                -1.5160494830713467,
                2.3657273478206458,
                -1.41575105193123,
                0.7112094172261265,
                -2.971415695165229
            ]
        },
        {
            "positions": [
                -2.4809630481818696,
                -1.4478123395305793,
                2.2977079430741285,
                -1.3067272049819136,
                0.7034456936930027,
                -3.003167651803646
            ]
        },
        {
            "positions": [
                -2.479341173649742,
                -1.3795751959898117,
                2.229688538327611,
                -1.197703358032597,
                0.6956819701598789,
                -3.034919608442063
            ]
        },
        {
            "positions": [
                -2.4777192991176147,
                -1.3113380524490443,
                2.1616691335810936,
                -1.0886795110832808,
                0.687918246626755,
                -3.06667156508048
            ]
        },
        {
            "positions": [
                -2.4759730563767786,
                -1.237338263421906,
                2.088239564252058,
                -0.9719167985459609,
                0.6795121166589015,
                -3.099612326293509
            ]
        },
        {
            "positions": [
                -2.4742268136359424,
                -1.1633384743947677,
                2.0148099949230223,
                -0.8551540860086412,
                0.6711059866910479,
                -3.1325530875065386
            ]
        }
    ]
}