{
    "goal": {
        "global_pose": {
            "orientation": {
                "w": 0.7031023502349854,
                "x": -0.7110244035720825,
                "y": 0.007748599164187908,
                "z": 0.005598929710686207
            },
            "position": {
                "x": 0.11585023208521307,
                "y": 0.44412534475326537,
                "z": 0.3711530566215515
            }
        },
        "name": "move_to_auspresseinheit_A"
    },
    "id": "FMT_move_to_auspresseinheit_A_101",
    "joint_names": [
        "shoulder_pan_joint",
        "shoulder_lift_joint",
        "elbow_joint",
        "wrist_1_joint",
        "wrist_2_joint",
        "wrist_3_joint"
    ],
    "metrics": {
        "cart_traj_len": 2.065656984444625,
        "distance_elbow_joint": 0.8754107129116022,
        "distance_shoulder_lift_joint": 0.5354535289258167,
        "distance_shoulder_pan_joint": 3.069795867887874,
        "distance_wrist_1_joint": 2.960480567668428,
        "distance_wrist_2_joint": 5.464969106435672,
        "distance_wrist_3_joint": 4.211413607451181,
        "smoothness": 1.1302046115297366,
        "time": 1.047677419,
        "traj_len": 4.137332883788852,
        "weighted_distance": 5.828018555245602
    },
    "planner": "FMT",
    "start": {
        "state": {
            "elbow_joint": 2.4225746658250005,
            "shoulder_lift_joint": -1.3736534386056498,
            "shoulder_pan_joint": -0.3378633547517467,
            "wrist_1_joint": -1.0288598680537169,
            "wrist_2_joint": 1.233022673432363,
            "wrist_3_joint": -3.0940220416140027
        }
    },
    "waypoints": [
        {
            "positions": [
                -0.3378633547517467,
                -1.3736534386056498,
                2.4225746658250005,
                -1.0288598680537169,
                1.233022673432363,
                -3.0940220416140027
            ]
        },
        {
            "positions": [
                -0.3279941375317775,
                -1.4195956971905368,
                2.38301470013757,
                -0.9567894564168634,
                1.1361463688557263,
                -3.0114835796879715
            ]
        },
        {
            "positions": [
                -0.3181249203118082,
                -1.4655379557754238,
                2.3434547344501393,
                -0.88471904478001,
                1.0392700642790897,
                -2.92894511776194
            ]
        },
        {
            "positions": [
                -0.3082557030918389,
                -1.5114802143603105,
                2.3038947687627087,
                -0.8126486331431566,
                0.942393759702453,
                -2.8464066558359082
            ]
        },
        {
            "positions": [
                -0.29838648587186967,
                -1.5574224729451975,
                2.264334803075278,
                -0.7405782215063031,
                0.8455174551258164,
                -2.763868193909877
            ]
        },
        {
            "positions": [
                -0.2885172686519004,
                -1.6033647315300845,
                2.2247748373878475,
                -0.6685078098694497,
                0.7486411505491797,
                -2.681329731983846
            ]
        },
        {
            "positions": [
                -0.27864805143193117,
                -1.6493069901149715,
                2.185214871700417,
                -0.5964373982325962,
                0.651764845972543,
                -2.598791270057814
            ]
        },
        {
            "positions": [
                -0.3347843240795708,
                -1.6623689393658998,
                2.2088006326914456,
                -0.6634529682835086,
                0.7893406087542381,
                -2.5101737294162216
            ]
        },
        {
            "positions": [
                -0.39092059672721047,
                -1.6754308886168283,
                2.2323863936824737,
                -0.7304685383344212,
                0.9269163715359331,
                -2.421556188774629
            ]
        },
        {
            "positions": [
                -0.44705686937485006,
                -1.6884928378677566,
                2.2559721546735023,
                -0.7974841083853336,
                1.0644921343176281,
                -2.3329386481330365
            ]
        },
        {
            "positions": [
                -0.5031931420224898,
                -1.7015547871186851,
                2.279557915664531,
                -0.864499678436246,
                1.2020678970993233,
                -2.244321107491444
            ]
        },
        {
            "positions": [
                -0.5593294146701293,
                -1.7146167363696134,
                2.303143676655559,
                -0.9315152484871585,
                1.3396436598810184,
                -2.1557035668498514
            ]
        },
        {
            "positions": [
                -0.615465687317769,
                -1.7276786856205417,
                2.3267294376465877,
                -0.9985308185380709,
                1.477219422662713,
                -2.0670860262082593
            ]
        },
        {
            "positions": [
                -0.6716019599654086,
                -1.7407406348714702,
                2.3503151986376163,
                -1.0655463885889833,
                1.6147951854444083,
                -1.9784684855666663
            ]
        },
        {
            "positions": [
                -0.7277382326130483,
                -1.7538025841223985,
                2.3739009596286444,
                -1.1325619586398958,
                1.7523709482261034,
                -1.889850944925074
            ]
        },
        {
            "positions": [
                -0.7838745052606879,
                -1.7668645333733268,
                2.397486720619673,
                -1.1995775286908081,
                1.8899467110077985,
                -1.8012334042834814
            ]
        },
        {
            "positions": [
                -0.8400107779083276,
                -1.7799264826242553,
                2.4210724816107017,
                -1.2665930987417209,
                2.0275224737894937,
                -1.712615863641889
            ]
        },
        {
            "positions": [
                -0.8961470505559672,
                -1.7929884318751836,
                2.44465824260173,
                -1.3336086687926332,
                2.165098236571189,
                -1.6239983230002963
            ]
        },
        {
            "positions": [
                -0.9522833232036068,
                -1.8060503811261122,
                2.4682440035927584,
                -1.4006242388435455,
                2.3026739993528835,
                -1.535380782358704
            ]
        },
        {
            "positions": [
                -1.0084195958512465,
                -1.8191123303770405,
                2.491829764583787,
                -1.467639808894458,
                2.4402497621345787,
                -1.4467632417171115
            ]
        },
        {
            "positions": [
                -1.064555868498886,
                -1.832174279627969,
                2.515415525574815,
                -1.5346553789453705,
                2.577825524916274,
                -1.3581457010755187
            ]
        },
        {
            "positions": [
                -1.1206921411465258,
                -1.8452362288788973,
                2.539001286565844,
                -1.6016709489962828,
                2.715401287697969,
                -1.2695281604339261
            ]
        },
        {
            "positions": [
                -1.1768284137941654,
                -1.8582981781298256,
                2.5625870475568724,
                -1.6686865190471951,
                2.8529770504796637,
                -1.1809106197923338
            ]
        },
        {
            "positions": [
                -1.2329646864418051,
                -1.871360127380754,
                2.5861728085479005,
                -1.7357020890981079,
                2.990552813261359,
                -1.0922930791507413
            ]
        },
        {
            "positions": [
                -1.2891009590894447,
                -1.8844220766316824,
                2.609758569538929,
                -1.8027176591490202,
                3.128128576043054,
                -1.0036755385091487
            ]
        },
        {
            "positions": [
                -1.1938567849508472,
                -1.8855975476269102,
                2.5995915590175716,
                -1.7397758573904067,
                3.013492978476133,
                -1.104678733954212
            ]
        },
        {
            "positions": [
                -1.09861261081225,
                -1.886773018622138,
                2.5894245484962144,
                -1.6768340556317933,
                2.898857380909212,
                -1.205681929399275
            ]
        },
        {
            "positions": [
                -1.0033684366736526,
                -1.8879484896173657,
                2.579257537974857,
                -1.61389225387318,
                2.784221783342291,
                -1.3066851248443385
            ]
        },
        {
            "positions": [
                -0.9081242625350552,
                -1.8891239606125936,
                2.569090527453499,
                -1.5509504521145665,
                2.6695861857753704,
                -1.4076883202894017
            ]
        },
        {
            "positions": [
                -0.8128800883964579,
                -1.8902994316078214,
                2.558923516932142,
                -1.488008650355953,
                2.5549505882084493,
                -1.5086915157344651
            ]
        },
        {
            "positions": [
                -0.7176359142578606,
                -1.8914749026030493,
                2.5487565064107844,
                -1.4250668485973397,
                2.4403149906415287,
                -1.6096947111795283
            ]
        },
        {
            "positions": [
                -0.6223917401192631,
                -1.8926503735982771,
                2.538589495889427,
                -1.3621250468387263,
                2.3256793930746076,
                -1.7106979066245915
            ]
        },
        {
            "positions": [
                -0.5271475659806658,
                -1.8938258445935048,
                2.5284224853680697,
                -1.2991832450801128,
                2.2110437955076865,
                -1.8117011020696547
            ]
        },
        {
            "positions": [
                -0.4319033918420685,
                -1.8950013155887326,
                2.518255474846712,
                -1.2362414433214992,
                2.096408197940766,
                -1.912704297514718
            ]
        },
        {
            "positions": [
                -0.33665921770347107,
                -1.8961767865839605,
                2.5080884643253545,
                -1.173299641562886,
                1.981772600373845,
                -2.0137074929597816
            ]
        },
        {
            "positions": [
                -0.24141504356487364,
                -1.8973522575791884,
                2.4979214538039973,
                -1.1103578398042724,
                1.8671370028069239,
                -2.1147106884048448
            ]
        },
        {
            "positions": [
                -0.14617086942627644,
                -1.8985277285744162,
                2.4877544432826397,
                -1.0474160380456592,
                1.7525014052400032,
                -2.215713883849908
            ]
        },
        {
            "positions": [
                -0.050926695287679014,
                -1.899703199569644,
                2.477587432761282,
                -0.9844742362870457,
                1.637865807673082,
                -2.316717079294971
            ]
        },
        {
            "positions": [
                0.04431747885091841,
                -1.9008786705648717,
                2.467420422239925,
                -0.9215324345284323,
                1.5232302101061612,
                -2.4177202747400344
            ]
        },
        {
            "positions": [
                0.13956165298951584,
                -1.9020541415600996,
                2.4572534117185674,
                -0.8585906327698187,
                1.4085946125392403,
                -2.5187234701850976
            ]
        },
        {
            "positions": [
                0.23480582712811304,
                -1.9032296125553274,
                2.4470864011972098,
                -0.7956488310112053,
                1.2939590149723195,
                -2.6197266656301608
            ]
        },
        {
            "positions": [
                0.33005000126671047,
                -1.9044050835505553,
                2.4369193906758526,
                -0.7327070292525919,
                1.1793234174053984,
                -2.720729861075224
            ]
        },
        {
            "positions": [
                0.4252941754053077,
                -1.9055805545457831,
                2.426752380154495,
                -0.6697652274939785,
                1.0646878198384777,
                -2.821733056520287
            ]
        },
        {
            "positions": [
                0.5205383495439053,
                -1.9067560255410108,
                2.4165853696331374,
                -0.6068234257353651,
                0.9500522222715566,
                -2.9227362519653504
            ]
        },
        {
            "positions": [
                0.6157825236825025,
                -1.9079314965362386,
                2.4064183591117803,
                -0.5438816239767517,
                0.835416624704636,
                -3.023739447410414
            ]
        },
        {
            "positions": [
                0.7110266978211,
                -1.9091069675314665,
                2.3962513485904227,
                -0.4809398222181383,
                0.7207810271377147,
                -3.124742642855477
            ]
        }
    ]
}