{
    "goal": {
        "global_pose": {
            "orientation": {
                "w": 0.7047431468963623,
                "x": -0.7094548344612122,
                "y": 0.0024358443915843964,
                "z": -0.0022348060738295317
            },
            "position": {
                "x": 0.6094750761985779,
                "y": 0.3671506643295288,
                "z": 0.19426114857196808
            }
        },
        "name": "move_to_magneteinheit_A"
    },
    "id": "FMT_move_to_magneteinheit_A_115",
    "joint_names": [
        "shoulder_pan_joint",
        "shoulder_lift_joint",
        "elbow_joint",
        "wrist_1_joint",
        "wrist_2_joint",
        "wrist_3_joint"
    ],
    "metrics": {
        "cart_traj_len": 3.587388839540652,
        "distance_elbow_joint": 3.886195974794866,
        "distance_shoulder_lift_joint": 0.3331043946763801,
        "distance_shoulder_pan_joint": 2.6486798695266076,
        "distance_wrist_1_joint": 0.9050230894215539,
        "distance_wrist_2_joint": 1.999399907528409,
        "distance_wrist_3_joint": 3.0407734572084375,
        "smoothness": 0.9325999711822743,
        "time": 1.260173988,
        "traj_len": 3.579549789171294,
        "weighted_distance": 4.6689556224623825
    },
    "planner": "FMT",
    "start": {
        "state": {
            "elbow_joint": -1.9196185241190666,
            "shoulder_lift_joint": -1.2443396400964142,
            "shoulder_pan_joint": 2.6996025414629847,
            "wrist_1_joint": -1.5485510000780065,
            "wrist_2_joint": -1.5709468930060704,
            "wrist_3_joint": 0.4420197071253992
        }
    },
    "waypoints": [
        {
            "positions": [
                2.6996025414629847,
                -1.2443396400964142,
                -1.9196185241190666,
                -1.5485510000780065,
                -1.5709468930060704,
                0.4420197071253992
            ]
        },
        {
            "positions": [
                2.5994810893194003,
                -1.23687751320527,
                -1.7974390587588307,
                -1.5420987207086692,
                -1.524826411489773,
                0.5450438710349192
            ]
        },
        {
            "positions": [
                2.4993596371758153,
                -1.229415386314126,
                -1.6752595933985945,
                -1.5356464413393316,
                -1.4787059299734753,
                0.6480680349444393
            ]
        },
        {
            "positions": [
                2.399238185032231,
                -1.2219532594229818,
                -1.5530801280383586,
                -1.5291941619699942,
                -1.4325854484571778,
                0.7510921988539594
            ]
        },
        {
            "positions": [
                2.299116732888646,
                -1.2144911325318377,
                -1.4309006626781227,
                -1.522741882600657,
                -1.3864649669408804,
                0.8541163627634795
            ]
        },
        {
            "positions": [
                2.1989952807450615,
                -1.2070290056406936,
                -1.3087211973178865,
                -1.5162896032313193,
                -1.340344485424583,
                0.9571405266729995
            ]
        },
        {
            "positions": [
                2.0988738286014765,
                -1.1995668787495495,
                -1.1865417319576506,
                -1.509837323861982,
                -1.2942240039082855,
                1.0601646905825195
            ]
        },
        {
            "positions": [
                1.998752376457892,
                -1.1921047518584054,
                -1.0643622665974144,
                -1.5033850444926444,
                -1.2481035223919879,
                1.1631888544920397
            ]
        },
        {
            "positions": [
                1.8986309243143074,
                -1.1846426249672612,
                -0.9421828012371786,
                -1.496932765123307,
                -1.2019830408756904,
                1.2662130184015599
            ]
        },
        {
            "positions": [
                1.7985094721707227,
                -1.1771804980761171,
                -0.8200033358769425,
                -1.4904804857539697,
                -1.155862559359393,
                1.3692371823110798
            ]
        },
        {
            "positions": [
                1.698388020027138,
                -1.169718371184973,
                -0.6978238705167064,
                -1.4840282063846322,
                -1.1097420778430953,
                1.4722613462205998
            ]
        },
        {
            "positions": [
                1.5982665678835533,
                -1.162256244293829,
                -0.5756444051564706,
                -1.4775759270152948,
                -1.063621596326798,
                1.57528551013012
            ]
        },
        {
            "positions": [
                1.4981451157399686,
                -1.1547941174026848,
                -0.4534649397962345,
                -1.4711236476459573,
                -1.0175011148105004,
                1.6783096740396402
            ]
        },
        {
            "positions": [
                1.3980236635963839,
                -1.1473319905115407,
                -0.33128547443599854,
                -1.46467136827662,
                -0.971380633294203,
                1.78133383794916
            ]
        },
        {
            "positions": [
                1.2979022114527992,
                -1.1398698636203966,
                -0.20910600907576238,
                -1.4582190889072826,
                -0.9252601517779054,
                1.88435800185868
            ]
        },
        {
            "positions": [
                1.1977807593092145,
                -1.1324077367292524,
                -0.08692654371552644,
                -1.451766809537945,
                -0.8791396702616079,
                1.9873821657682003
            ]
        },
        {
            "positions": [
                1.09765930716563,
                -1.1249456098381083,
                0.0352529216447095,
                -1.4453145301686077,
                -0.8330191887453104,
                2.0904063296777204
            ]
        },
        {
            "positions": [
                0.9975378550220451,
                -1.1174834829469642,
                0.15743238700494588,
                -1.4388622507992703,
                -0.7868987072290129,
                2.1934304935872406
            ]
        },
        {
            "positions": [
                0.8974164028784606,
                -1.11002135605582,
                0.2796118523651816,
                -1.4324099714299328,
                -0.7407782257127155,
                2.2964546574967604
            ]
        },
        {
            "positions": [
                0.7972949507348759,
                -1.102559229164676,
                0.4017913177254173,
                -1.4259576920605954,
                -0.694657744196418,
                2.3994788214062805
            ]
        },
        {
            "positions": [
                0.6971734985912912,
                -1.0950971022735319,
                0.5239707830856539,
                -1.419505412691258,
                -0.6485372626801205,
                2.5025029853158007
            ]
        },
        {
            "positions": [
                0.5970520464477063,
                -1.0876349753823877,
                0.6461502484458896,
                -1.4130531333219205,
                -0.602416781163823,
                2.605527149225321
            ]
        },
        {
            "positions": [
                0.4969305943041218,
                -1.0801728484912436,
                0.7683297138061254,
                -1.4066008539525832,
                -0.5562962996475256,
                2.7085513131348407
            ]
        },
        {
            "positions": [
                0.39680914216053687,
                -1.0727107216000995,
                0.890509179166362,
                -1.4001485745832456,
                -0.5101758181312279,
                2.811575477044361
            ]
        },
        {
            "positions": [
                0.29668769001695255,
                -1.0652485947089554,
                1.012688644526598,
                -1.3936962952139083,
                -0.4640553366149306,
                2.914599640953881
            ]
        },
        {
            "positions": [
                0.25215679345408465,
                -1.07000283498718,
                1.0987461102535379,
                -1.3535422432917843,
                -0.40306887206006414,
                2.94160449955608
            ]
        },
        {
            "positions": [
                0.20762589689121672,
                -1.0747570752654048,
                1.1848035759804778,
                -1.3133881913696603,
                -0.34208240750519764,
                2.9686093581582784
            ]
        },
        {
            "positions": [
                0.1833517420505631,
                -1.0837254315087013,
                1.3009649507438823,
                -1.237107881003668,
                -0.26681727108471437,
                2.9877639057119594
            ]
        },
        {
            "positions": [
                0.15907758720990947,
                -1.0926937877519975,
                1.4171263255072868,
                -1.1608275706376756,
                -0.1915521346642311,
                3.00691845326564
            ]
        },
        {
            "positions": [
                0.13480343236925585,
                -1.101662143995294,
                1.5332877002706913,
                -1.0845472602716835,
                -0.11628699824374789,
                3.026073000819321
            ]
        },
        {
            "positions": [
                0.11052927752860223,
                -1.1106305002385903,
                1.6494490750340958,
                -1.008266949905691,
                -0.04102186182326456,
                3.0452275483730014
            ]
        },
        {
            "positions": [
                0.0862551226879486,
                -1.1195988564818868,
                1.7656104497975003,
                -0.9319866395396987,
                0.03424327459721864,
                3.0643820959266823
            ]
        },
        {
            "positions": [
                0.0871675769928058,
                -1.0989347270865752,
                1.83881598516294,
                -0.8162407383896353,
                -0.041103316291048006,
                2.962515895306005
            ]
        },
        {
            "positions": [
                0.08808003129766301,
                -1.0782705976912634,
                1.9120215205283797,
                -0.7004948372395718,
                -0.11644990717931464,
                2.860649694685328
            ]
        },
        {
            "positions": [
                0.10483380236859108,
                -1.1074380120539467,
                1.9392994856020902,
                -0.7289783005311314,
                0.005308371894978528,
                2.967989028268228
            ]
        },
        {
            "positions": [
                0.12158757343951915,
                -1.1366054264166299,
                1.9665774506758005,
                -0.757461763822691,
                0.1270666509692717,
                3.075328361851128
            ]
        }
    ]
}