{
    "goal": {
        "global_pose": {
            "orientation": {
                "w": 0.7031023480610252,
                "x": -0.7110244013736278,
                "y": 0.0077485991402295624,
                "z": 0.005598929693374583
            },
            "position": {
                "x": -0.8841497679147869,
                "y": 0.44412534475326537,
                "z": 0.3711530566215515
            }
        },
        "name": "move_to_auspresseinheit_D"
    },
    "id": "FMT_move_to_auspresseinheit_D_77",
    "joint_names": [
        "shoulder_pan_joint",
        "shoulder_lift_joint",
        "elbow_joint",
        "wrist_1_joint",
        "wrist_2_joint",
        "wrist_3_joint"
    ],
    "metrics": {
        "cart_traj_len": 0.3434649247857485,
        "distance_elbow_joint": 0.632379119119431,
        "distance_shoulder_lift_joint": 0.11787822675750315,
        "distance_shoulder_pan_joint": 0.1344673555896578,
        "distance_wrist_1_joint": 0.5060984733710567,
        "distance_wrist_2_joint": 1.4449199559827144,
        "distance_wrist_3_joint": 0.01951159363991506,
        "smoothness": 3.9474596431116675e-16,
        "time": 0.516688753,
        "traj_len": 1.6897498999734482,
        "weighted_distance": 2.201203384763407
    },
    "planner": "FMT",
    "start": {
        "state": {
            "elbow_joint": -1.8275523626775212,
            "shoulder_lift_joint": -2.126789852344167,
            "shoulder_pan_joint": -0.03513704404078235,
            "wrist_1_joint": -2.347782403156801,
            "wrist_2_joint": -1.6058999987535132,
            "wrist_3_joint": -3.0880379163319196
        }
    },
    "waypoints": [
        {
            "positions": [
                -0.03513704404078235,
                -2.126789852344167,
                -1.8275523626775212,
                -2.347782403156801,
                -1.6058999987535132,
                -3.0880379163319196
            ]
        },
        {
            "positions": [
                -0.05194546348948957,
                -2.141524630688855,
                -1.7485049727875923,
                -2.411044712328183,
                -1.425285004255674,
                -3.090476865536909
            ]
        },
        {
            "positions": [
                -0.0687538829381968,
                -2.1562594090335425,
                -1.6694575828976634,
                -2.4743070214995653,
                -1.2446700097578347,
                -3.0929158147418985
            ]
        },
        {
            "positions": [
                -0.08556230238690402,
                -2.1709941873782306,
                -1.5904101930077346,
                -2.537569330670947,
                -1.0640550152599952,
                -3.095354763946888
            ]
        },
        {
            "positions": [
                -0.10237072183561124,
                -2.1857289657229186,
                -1.5113628031178057,
                -2.6008316398423292,
                -0.883440020762156,
                -3.0977937131518773
            ]
        },
        {
            "positions": [
                -0.11917914128431847,
                -2.2004637440676063,
                -1.4323154132278768,
                -2.6640939490137114,
                -0.7028250262643168,
                -3.1002326623568663
            ]
        },
        {
            "positions": [
                -0.1359875607330257,
                -2.2151985224122943,
                -1.353268023337948,
                -2.727356258185093,
                -0.5222100317664773,
                -3.102671611561856
            ]
        },
        {
            "positions": [
                -0.15279598018173293,
                -2.229933300756982,
                -1.274220633448019,
                -2.7906185673564754,
                -0.34159503726863805,
                -3.105110560766845
            ]
        },
        {
            "positions": [
                -0.16960439963044016,
                -2.24466807910167,
                -1.1951732435580902,
                -2.8538808765278576,
                -0.1609800427707987,
                -3.1075495099718347
            ]
        }
    ]
}