{
    "goal": {
        "global_pose": {
            "orientation": {
                "w": 0.005598929693374612,
                "x": 0.007748599140229565,
                "y": 0.7110244013736278,
                "z": -0.7031023480610252
            },
            "position": {
                "x": -0.8858502320852131,
                "y": -0.7141253447532654,
                "z": 0.3711530566215515
            }
        },
        "name": "move_to_auspresseinheit_C"
    },
    "id": "FMT_move_to_auspresseinheit_C_85",
    "joint_names": [
        "shoulder_pan_joint",
        "shoulder_lift_joint",
        "elbow_joint",
        "wrist_1_joint",
        "wrist_2_joint",
        "wrist_3_joint"
    ],
    "metrics": {
        "cart_traj_len": 0.49260406551378844,
        "distance_elbow_joint": 0.9921634362593043,
        "distance_shoulder_lift_joint": 0.3215462581041103,
        "distance_shoulder_pan_joint": 0.25654500703810657,
        "distance_wrist_1_joint": 0.662554197816493,
        "distance_wrist_2_joint": 1.31046948934887,
        "distance_wrist_3_joint": 0.04311646204098274,
        "smoothness": 0.0,
        "time": 0.422943482,
        "traj_len": 1.89377793064759,
        "weighted_distance": 2.3760579668550164
    },
    "planner": "FMT",
    "start": {
        "state": {
            "elbow_joint": 1.7527959577737207,
            "shoulder_lift_joint": -0.9740617694225068,
            "shoulder_pan_joint": -2.967991417825858,
            "wrist_1_joint": -0.759517768980727,
            "wrist_2_joint": 1.7443932448377408,
            "wrist_3_joint": -3.0840537646736568
        }
    },
    "waypoints": [
        {
            "positions": [
                -2.967991417825858,
                -0.9740617694225068,
                1.7527959577737207,
                -0.759517768980727,
                1.7443932448377408,
                -3.0840537646736568
            ]
        },
        {
            "positions": [
                -2.9423369171220473,
                -0.9419071436120957,
                1.6535796141477903,
                -0.6932623491990777,
                1.6133462959028537,
                -3.088365410877755
            ]
        },
        {
            "positions": [
                -2.9166824164182366,
                -0.9097525178016848,
                1.5543632705218597,
                -0.6270069294174283,
                1.4822993469679668,
                -3.092677057081853
            ]
        },
        {
            "positions": [
                -2.891027915714426,
                -0.8775978919912737,
                1.4551469268959294,
                -0.5607515096357791,
                1.35125239803308,
                -3.0969887032859518
            ]
        },
        {
            "positions": [
                -2.865373415010615,
                -0.8454432661808626,
                1.3559305832699988,
                -0.49449608985412974,
                1.2202054490981928,
                -3.10130034949005
            ]
        },
        {
            "positions": [
                -2.839718914306805,
                -0.8132886403704516,
                1.2567142396440685,
                -0.42824067007248046,
                1.0891585001633057,
                -3.105611995694148
            ]
        },
        {
            "positions": [
                -2.814064413602994,
                -0.7811340145600406,
                1.1574978960181381,
                -0.3619852502908312,
                0.9581115512284188,
                -3.1099236418982463
            ]
        },
        {
            "positions": [
                -2.7884099128991835,
                -0.7489793887496295,
                1.0582815523922076,
                -0.2957298305091819,
                0.827064602293532,
                -3.1142352881023445
            ]
        },
        {
            "positions": [
                -2.762755412195373,
                -0.7168247629392186,
                0.9590652087662772,
                -0.2294744107275325,
                0.6960176533586448,
                -3.118546934306443
            ]
        },
        {
            "positions": [
                -2.737100911491562,
                -0.6846701371288075,
                0.8598488651403469,
                -0.1632189909458832,
                0.5649707044237577,
                -3.1228585805105413
            ]
        },
        {
            "positions": [
                -2.7114464107877514,
                -0.6525155113183965,
                0.7606325215144164,
                -0.09696357116423394,
                0.4339237554888708,
                -3.1271702267146395
            ]
        }
    ]
}