{
    "goal": {
        "global_pose": {
            "orientation": {
                "w": 0.005598929693374612,
                "x": 0.007748599140229565,
                "y": 0.7110244013736278,
                "z": -0.7031023480610252
            },
            "position": {
                "x": 0.1141497679147869,
                "y": -0.7141253447532654,
                "z": 0.3711530566215515
            }
        },
        "name": "move_to_auspresseinheit_B"
    },
    "id": "FMT_move_to_auspresseinheit_B_84",
    "joint_names": [
        "shoulder_pan_joint",
        "shoulder_lift_joint",
        "elbow_joint",
        "wrist_1_joint",
        "wrist_2_joint",
        "wrist_3_joint"
    ],
    "metrics": {
        "cart_traj_len": 0.5640394651775301,
        "distance_elbow_joint": 0.05930808487410366,
        "distance_shoulder_lift_joint": 0.2951527647704597,
        "distance_shoulder_pan_joint": 0.5755604854364134,
        "distance_wrist_1_joint": 0.31882015712018497,
        "distance_wrist_2_joint": 1.0021173224001028,
        "distance_wrist_3_joint": 0.000258171676761787,
        "smoothness": 2.5376526478085547e-16,
        "time": 0.476670632,
        "traj_len": 1.500405607253594,
        "weighted_distance": 1.8901510016799816
    },
    "planner": "FMT",
    "start": {
        "state": {
            "elbow_joint": 2.0193083361928714,
            "shoulder_lift_joint": -1.1220246554650708,
            "shoulder_pan_joint": -1.0952077554168747,
            "wrist_1_joint": -0.8559753972642168,
            "wrist_2_joint": 0.4759566250798843,
            "wrist_3_joint": -3.1240929996934557
        }
    },
    "waypoints": [
        {
            "positions": [
                -1.0952077554168747,
                -1.1220246554650708,
                2.0193083361928714,
                -0.8559753972642168,
                0.4759566250798843,
                -3.1240929996934557
            ]
        },
        {
            "positions": [
                -1.1911345029896103,
                -1.171216782926814,
                2.009423655380521,
                -0.8028387044108526,
                0.6429761788132348,
                -3.1241360283062494
            ]
        },
        {
            "positions": [
                -1.2870612505623458,
                -1.2204089103885574,
                1.9995389745681702,
                -0.7497020115574885,
                0.8099957325465852,
                -3.124179056919043
            ]
        },
        {
            "positions": [
                -1.3829879981350812,
                -1.2696010378503007,
                1.9896542937558195,
                -0.6965653187041243,
                0.9770152862799357,
                -3.1242220855318363
            ]
        },
        {
            "positions": [
                -1.478914745707817,
                -1.318793165312044,
                1.979769612943469,
                -0.6434286258507602,
                1.144034840013286,
                -3.12426511414463
            ]
        },
        {
            "positions": [
                -1.5748414932805526,
                -1.3679852927737872,
                1.9698849321311185,
                -0.5902919329973959,
                1.3110543937466366,
                -3.1243081427574237
            ]
        },
        {
            "positions": [
                -1.670768240853288,
                -1.4171774202355305,
                1.9600002513187678,
                -0.5371552401440318,
                1.478073947479987,
                -3.1243511713702175
            ]
        }
    ]
}