{
    "goal": {
        "global_pose": {
            "orientation": {
                "w": 0.7031023502349854,
                "x": -0.7110244035720825,
                "y": 0.007748599164187908,
                "z": 0.005598929710686207
            },
            "position": {
                "x": 0.11585023208521307,
                "y": 0.44412534475326537,
                "z": 0.3711530566215515
            }
        },
        "name": "move_to_auspresseinheit_A"
    },
    "id": "FMT_move_to_auspresseinheit_A_22",
    "joint_names": [
        "shoulder_pan_joint",
        "shoulder_lift_joint",
        "elbow_joint",
        "wrist_1_joint",
        "wrist_2_joint",
        "wrist_3_joint"
    ],
    "metrics": {
        "cart_traj_len": 0.6748494240476917,
        "distance_elbow_joint": 0.2208894845019289,
        "distance_shoulder_lift_joint": 0.5376153670281096,
        "distance_shoulder_pan_joint": 1.0462844165743648,
        "distance_wrist_1_joint": 0.5515723964155779,
        "distance_wrist_2_joint": 0.5201179933906047,
        "distance_wrist_3_joint": 1.052763500506845,
        "smoothness": 0.7995422071078679,
        "time": 1.008196865,
        "traj_len": 1.9822318629306288,
        "weighted_distance": 2.665794543703116
    },
    "planner": "FMT",
    "start": {
        "state": {
            "elbow_joint": 2.4225746658250005,
            "shoulder_lift_joint": -1.3736534386056498,
            "shoulder_pan_joint": -0.3378633547517467,
            "wrist_1_joint": -1.0288598680537169,
            "wrist_2_joint": 1.233022673432363,
            "wrist_3_joint": -3.0940220416140027
        }
    },
    "waypoints": [
        {
            "positions": [
                -0.3378633547517467,
                -1.3736534386056498,
                2.4225746658250005,
                -1.0288598680537169,
                1.233022673432363,
                -3.0940220416140027
            ]
        },
        {
            "positions": [
                -0.2288128466791981,
                -1.4280619347193242,
                2.4387222762683813,
                -0.9918182025945431,
                1.2037495879066598,
                -3.0083386497871847
            ]
        },
        {
            "positions": [
                -0.11976233860664945,
                -1.4824704308329983,
                2.454869886711762,
                -0.9547765371353694,
                1.1744765023809562,
                -2.922655257960366
            ]
        },
        {
            "positions": [
                -0.010711830534100797,
                -1.5368789269466725,
                2.4710174971551435,
                -0.9177348716761955,
                1.145203416855253,
                -2.836971866133548
            ]
        },
        {
            "positions": [
                0.09833867753844783,
                -1.5912874230603469,
                2.4871651075985244,
                -0.8806932062170219,
                1.1159303313295497,
                -2.75128847430673
            ]
        },
        {
            "positions": [
                0.20738918561099656,
                -1.6456959191740212,
                2.5033127180419052,
                -0.843651540757848,
                1.0866572458038462,
                -2.6656050824799116
            ]
        },
        {
            "positions": [
                0.31643969368354513,
                -1.7001044152876954,
                2.519460328485286,
                -0.8066098752986742,
                1.0573841602781429,
                -2.5799216906530935
            ]
        },
        {
            "positions": [
                0.3948359673113597,
                -1.7423372933569081,
                2.4946595641169576,
                -0.7407453945665672,
                0.988488264230866,
                -2.6876543205622805
            ]
        },
        {
            "positions": [
                0.4732322409391744,
                -1.784570171426121,
                2.469858799748629,
                -0.6748809138344601,
                0.919592368183589,
                -2.795386950471468
            ]
        },
        {
            "positions": [
                0.551628514566989,
                -1.8268030494953338,
                2.4450580353803,
                -0.6090164331023531,
                0.8506964721363122,
                -2.903119580380655
            ]
        },
        {
            "positions": [
                0.6300247881948036,
                -1.8690359275645467,
                2.4202572710119714,
                -0.543151952370246,
                0.7818005760890352,
                -3.0108522102898423
            ]
        },
        {
            "positions": [
                0.7084210618226182,
                -1.9112688056337594,
                2.395456506643643,
                -0.477287471638139,
                0.7129046800417583,
                -3.1185848401990293
            ]
        }
    ]
}