{
    "goal": {
        "global_pose": {
            "orientation": {
                "w": 0.5084816262002911,
                "x": -0.4908360881923452,
                "y": 0.5182115481033761,
                "z": -0.48164630358495003
            },
            "position": {
                "x": 0.5540239810943604,
                "y": -0.46912469901144505,
                "z": 0.16403168439865112
            }
        },
        "name": "move_to_storage_B"
    },
    "id": "FMT_move_to_storage_B_122",
    "joint_names": [
        "shoulder_pan_joint",
        "shoulder_lift_joint",
        "elbow_joint",
        "wrist_1_joint",
        "wrist_2_joint",
        "wrist_3_joint"
    ],
    "metrics": {
        "cart_traj_len": 0.7444406242120736,
        "distance_elbow_joint": 0.34918288647780393,
        "distance_shoulder_lift_joint": 0.4593944262753431,
        "distance_shoulder_pan_joint": 0.4954863429465034,
        "distance_wrist_1_joint": 2.9796256694780134,
        "distance_wrist_2_joint": 2.7053163430397147,
        "distance_wrist_3_joint": 3.6734619023037673,
        "smoothness": 0.3221061145522024,
        "time": 1.4480142169999999,
        "traj_len": 3.265343407747667,
        "weighted_distance": 4.86768254795302
    },
    "planner": "FMT",
    "start": {
        "state": {
            "elbow_joint": 1.664937868594044,
            "shoulder_lift_joint": -0.661644460510453,
            "shoulder_pan_joint": -0.9139846352900073,
            "wrist_1_joint": 2.146753192139373,
            "wrist_2_joint": -2.2341966793290973,
            "wrist_3_joint": 0.005466555786416001
        }
    },
    "waypoints": [
        {
            "positions": [
                -0.9139846352900073,
                -0.661644460510453,
                1.664937868594044,
                2.146753192139373,
                -2.2341966793290973,
                0.005466555786416001
            ]
        },
        {
            "positions": [
                -0.8618608010232468,
                -0.6861124396320076,
                1.6817371565875665,
                2.1070665208464834,
                -2.090966520911284,
                -0.08506217471799503
            ]
        },
        {
            "positions": [
                -0.8097369667564864,
                -0.7105804187535624,
                1.6985364445810893,
                2.067379849553594,
                -1.9477363624934712,
                -0.17559090522240606
            ]
        },
        {
            "positions": [
                -0.757613132489726,
                -0.735048397875117,
                1.715335732574612,
                2.027693178260704,
                -1.8045062040756579,
                -0.26611963572681707
            ]
        },
        {
            "positions": [
                -0.7711777260955748,
                -0.7504880174315441,
                1.7272871334745012,
                1.9132705520367304,
                -1.713481169364207,
                -0.13004460729519568
            ]
        },
        {
            "positions": [
                -0.7847423197014237,
                -0.7659276369879713,
                1.7392385343743908,
                1.7988479258127565,
                -1.622456134652756,
                0.006030421136425712
            ]
        },
        {
            "positions": [
                -0.7983069133072725,
                -0.7813672565443985,
                1.7511899352742801,
                1.6844252995887827,
                -1.531431099941305,
                0.14210544956804705
            ]
        },
        {
            "positions": [
                -0.8118715069131215,
                -0.7968068761008257,
                1.7631413361741697,
                1.570002673364809,
                -1.4404060652298538,
                0.2781804779996685
            ]
        },
        {
            "positions": [
                -0.8254361005189703,
                -0.8122464956572528,
                1.775092737074059,
                1.455580047140835,
                -1.3493810305184029,
                0.41425550643128983
            ]
        },
        {
            "positions": [
                -0.8390006941248193,
                -0.82768611521368,
                1.7870441379739486,
                1.3411574209168613,
                -1.258355995806952,
                0.5503305348629112
            ]
        },
        {
            "positions": [
                -0.8525652877306682,
                -0.8431257347701071,
                1.798995538873838,
                1.2267347946928875,
                -1.1673309610955007,
                0.6864055632945326
            ]
        },
        {
            "positions": [
                -0.866129881336517,
                -0.8585653543265344,
                1.8109469397737274,
                1.1123121684689137,
                -1.07630592638405,
                0.8224805917261541
            ]
        },
        {
            "positions": [
                -0.8796944749423659,
                -0.8740049738829615,
                1.8228983406736168,
                0.9978895422449401,
                -0.9852808916725989,
                0.9585556201577753
            ]
        },
        {
            "positions": [
                -0.8932590685482148,
                -0.8894445934393886,
                1.8348497415735063,
                0.8834669160209663,
                -0.8942558569611478,
                1.0946306485893968
            ]
        },
        {
            "positions": [
                -0.9068236621540636,
                -0.9048842129958158,
                1.8468011424733957,
                0.7690442897969925,
                -0.8032308222496969,
                1.2307056770210183
            ]
        },
        {
            "positions": [
                -0.9203882557599126,
                -0.9203238325522429,
                1.8587525433732852,
                0.6546216635730187,
                -0.7122057875382459,
                1.3667807054526393
            ]
        },
        {
            "positions": [
                -0.9339528493657614,
                -0.9357634521086702,
                1.8707039442731745,
                0.5401990373490448,
                -0.6211807528267947,
                1.5028557338842607
            ]
        },
        {
            "positions": [
                -0.9475174429716103,
                -0.9512030716650973,
                1.882655345173064,
                0.4257764111250708,
                -0.5301557181153438,
                1.6389307623158822
            ]
        },
        {
            "positions": [
                -0.9610820365774592,
                -0.9666426912215245,
                1.8946067460729534,
                0.3113537849010972,
                -0.43913068340389283,
                1.7750057907475032
            ]
        },
        {
            "positions": [
                -0.9746466301833081,
                -0.9820823107779516,
                1.906558146972843,
                0.1969311586771234,
                -0.34810564869244187,
                1.911080819179125
            ]
        },
        {
            "positions": [
                -0.9882112237891569,
                -0.9975219303343787,
                1.9185095478727323,
                0.0825085324531496,
                -0.2570806139809907,
                2.0471558476107465
            ]
        },
        {
            "positions": [
                -1.0017758173950058,
                -1.012961549890806,
                1.9304609487726219,
                -0.03191409377082399,
                -0.16605557926953995,
                2.1832308760423675
            ]
        },
        {
            "positions": [
                -1.0153404110008548,
                -1.0284011694472333,
                1.9424123496725112,
                -0.1463367199947978,
                -0.07503054455808877,
                2.319305904473989
            ]
        },
        {
            "positions": [
                -1.0289050046067036,
                -1.0438407890036603,
                1.9543637505724007,
                -0.2607593462187716,
                0.015994490153362184,
                2.4553809329056104
            ]
        },
        {
            "positions": [
                -1.0424695982125525,
                -1.0592804085600873,
                1.96631515147229,
                -0.3751819724427454,
                0.10701952486481314,
                2.5914559613372314
            ]
        },
        {
            "positions": [
                -1.0560341918184013,
                -1.0747200281165146,
                1.9782665523721796,
                -0.48960459866671924,
                0.1980445595762641,
                2.7275309897688533
            ]
        },
        {
            "positions": [
                -1.0695987854242501,
                -1.0901596476729418,
                1.990217953272069,
                -0.604027224890693,
                0.2890695942877153,
                2.863606018200475
            ]
        },
        {
            "positions": [
                -1.0831633790300992,
                -1.1055992672293689,
                2.0021693541719583,
                -0.7184498511146669,
                0.380094628999166,
                2.999681046632096
            ]
        },
        {
            "positions": [
                -1.096727972635948,
                -1.121038886785796,
                2.014120755071848,
                -0.8328724773386408,
                0.47111966371061736,
                3.1357560750637172
            ]
        }
    ]
}