{
    "goal": {
        "global_pose": {
            "orientation": {
                "w": 0.7047431468963623,
                "x": -0.7094548344612122,
                "y": 0.0024358443915843964,
                "z": -0.0022348060738295317
            },
            "position": {
                "x": 0.6094750761985779,
                "y": 0.3671506643295288,
                "z": 0.19426114857196808
            }
        },
        "name": "move_to_magneteinheit_A"
    },
    "id": "FMT_move_to_magneteinheit_A_110",
    "joint_names": [
        "shoulder_pan_joint",
        "shoulder_lift_joint",
        "elbow_joint",
        "wrist_1_joint",
        "wrist_2_joint",
        "wrist_3_joint"
    ],
    "metrics": {
        "cart_traj_len": 4.017165352421409,
        "distance_elbow_joint": 3.874421008190258,
        "distance_shoulder_lift_joint": 0.8828183758884447,
        "distance_shoulder_pan_joint": 2.794656703887793,
        "distance_wrist_1_joint": 1.336934182192791,
        "distance_wrist_2_joint": 1.699051172646203,
        "distance_wrist_3_joint": 2.5749979421744875,
        "smoothness": 0.10795097515274128,
        "time": 1.2887558499999998,
        "traj_len": 3.628068271819038,
        "weighted_distance": 4.620482726314204
    },
    "planner": "FMT",
    "start": {
        "state": {
            "elbow_joint": -1.9196185241190666,
            "shoulder_lift_joint": -1.2443396400964142,
            "shoulder_pan_joint": 2.6996025414629847,
            "wrist_1_joint": -1.5485510000780065,
            "wrist_2_joint": -1.5709468930060704,
            "wrist_3_joint": 0.4420197071253992
        }
    },
    "waypoints": [
        {
            "positions": [
                2.6996025414629847,
                -1.2443396400964142,
                -1.9196185241190666,
                -1.5485510000780065,
                -1.5709468930060704,
                0.4420197071253992
            ]
        },
        {
            "positions": [
                2.5652847053145718,
                -1.2194195255640836,
                -1.7769750783257523,
                -1.5607834891735797,
                -1.5537524199021502,
                0.4948541451099037
            ]
        },
        {
            "positions": [
                2.430966869166159,
                -1.1944994110317533,
                -1.634331632532438,
                -1.573015978269153,
                -1.53655794679823,
                0.5476885830944083
            ]
        },
        {
            "positions": [
                2.2966490330177454,
                -1.1695792964994227,
                -1.4916881867391236,
                -1.5852484673647262,
                -1.5193634736943098,
                0.6005230210789129
            ]
        },
        {
            "positions": [
                2.1623311968693324,
                -1.1446591819670924,
                -1.349044740945809,
                -1.5974809564602996,
                -1.5021690005903896,
                0.6533574590634175
            ]
        },
        {
            "positions": [
                2.0280133607209194,
                -1.1197390674347618,
                -1.2064012951524947,
                -1.6097134455558728,
                -1.4849745274864694,
                0.706191897047922
            ]
        },
        {
            "positions": [
                1.8936955245725065,
                -1.0948189529024313,
                -1.0637578493591804,
                -1.621945934651446,
                -1.4677800543825492,
                0.7590263350324264
            ]
        },
        {
            "positions": [
                1.7593776884240935,
                -1.069898838370101,
                -0.921114403565866,
                -1.6341784237470194,
                -1.450585581278629,
                0.811860773016931
            ]
        },
        {
            "positions": [
                1.6250598522756803,
                -1.0449787238377704,
                -0.7784709577725515,
                -1.6464109128425926,
                -1.4333911081747088,
                0.8646952110014356
            ]
        },
        {
            "positions": [
                1.490742016127267,
                -1.0200586093054398,
                -0.6358275119792371,
                -1.658643401938166,
                -1.4161966350707886,
                0.9175296489859401
            ]
        },
        {
            "positions": [
                1.3564241799788541,
                -0.9951384947731094,
                -0.4931840661859228,
                -1.6708758910337391,
                -1.3990021619668682,
                0.9703640869704447
            ]
        },
        {
            "positions": [
                1.222106343830441,
                -0.9702183802407789,
                -0.35054062039260825,
                -1.6831083801293123,
                -1.381807688862948,
                1.0231985249549493
            ]
        },
        {
            "positions": [
                1.087788507682028,
                -0.9452982657084484,
                -0.20789717459929413,
                -1.6953408692248857,
                -1.3646132157590278,
                1.0760329629394538
            ]
        },
        {
            "positions": [
                0.953470671533615,
                -0.920378151176118,
                -0.06525372880597957,
                -1.7075733583204589,
                -1.3474187426551076,
                1.1288674009239585
            ]
        },
        {
            "positions": [
                0.819152835385202,
                -0.8954580366437874,
                0.07738971698733454,
                -1.719805847416032,
                -1.3302242695511874,
                1.181701838908463
            ]
        },
        {
            "positions": [
                0.6848349992367888,
                -0.870537922111457,
                0.22003316278064888,
                -1.7320383365116054,
                -1.3130297964472673,
                1.2345362768929675
            ]
        },
        {
            "positions": [
                0.5505171630883758,
                -0.8456178075791265,
                0.36267660857396367,
                -1.7442708256071788,
                -1.295835323343347,
                1.287370714877472
            ]
        },
        {
            "positions": [
                0.41619932693996287,
                -0.8206976930467961,
                0.505320054367278,
                -1.756503314702752,
                -1.2786408502394269,
                1.3402051528619765
            ]
        },
        {
            "positions": [
                0.28188149079154945,
                -0.7957775785144656,
                0.6479635001605923,
                -1.7687358037983252,
                -1.2614463771355067,
                1.3930395908464812
            ]
        },
        {
            "positions": [
                0.14756365464313648,
                -0.7708574639821351,
                0.7906069459539067,
                -1.7809682928938986,
                -1.2442519040315865,
                1.4458740288309855
            ]
        },
        {
            "positions": [
                0.013245818494723408,
                -0.7459373494498046,
                0.9332503917472212,
                -1.7932007819894717,
                -1.2270574309276663,
                1.4987084668154904
            ]
        },
        {
            "positions": [
                0.020981531417547022,
                -0.7733956412527928,
                1.0062183983417907,
                -1.7151804676836628,
                -1.1302601658871092,
                1.607159122707233
            ]
        },
        {
            "positions": [
                0.028717244340370637,
                -0.800853933055781,
                1.07918640493636,
                -1.6371601533778537,
                -1.0334629008465521,
                1.7156097785989757
            ]
        },
        {
            "positions": [
                0.03645295726319425,
                -0.8283122248587693,
                1.1521544115309295,
                -1.5591398390720448,
                -0.936665635805995,
                1.8240604344907183
            ]
        },
        {
            "positions": [
                0.04418867018601787,
                -0.8557705166617575,
                1.2251224181254987,
                -1.4811195247662357,
                -0.8398683707654381,
                1.9325110903824607
            ]
        },
        {
            "positions": [
                0.05192438310884148,
                -0.8832288084647457,
                1.2980904247200682,
                -1.4030992104604267,
                -0.7430711057248809,
                2.0409617462742036
            ]
        },
        {
            "positions": [
                0.0596600960316651,
                -0.9106871002677339,
                1.3710584313146374,
                -1.3250788961546176,
                -0.6462738406843239,
                2.1494124021659458
            ]
        },
        {
            "positions": [
                0.06739580895448871,
                -0.9381453920707221,
                1.444026437909207,
                -1.2470585818488087,
                -0.5494765756437668,
                2.257863058057689
            ]
        },
        {
            "positions": [
                0.07513152187731233,
                -0.9656036838737103,
                1.5169944445037764,
                -1.1690382675429998,
                -0.4526793106032099,
                2.366313713949431
            ]
        },
        {
            "positions": [
                0.08286723480013594,
                -0.9930619756766986,
                1.5899624510983457,
                -1.0910179532371906,
                -0.3558820455626527,
                2.474764369841174
            ]
        },
        {
            "positions": [
                0.09060294772295956,
                -1.0205202674796867,
                1.6629304576929151,
                -1.0129976389313815,
                -0.2590847805220956,
                2.5832150257329163
            ]
        },
        {
            "positions": [
                0.09833866064578317,
                -1.0479785592826751,
                1.7358984642874844,
                -0.9349773246255727,
                -0.16228751548153864,
                2.691665681624659
            ]
        },
        {
            "positions": [
                0.10607437356860679,
                -1.0754368510856633,
                1.8088664708820539,
                -0.8569570103197637,
                -0.06549025044098156,
                2.8001163375164015
            ]
        },
        {
            "positions": [
                0.1138100864914304,
                -1.1028951428886515,
                1.8818344774766231,
                -0.7789366960139545,
                0.03130701459957552,
                2.908566993408144
            ]
        },
        {
            "positions": [
                0.12154579941425402,
                -1.1303534346916397,
                1.9548024840711926,
                -0.7009163817081457,
                0.12810427964013252,
                3.017017649299887
            ]
        }
    ]
}