{
    "goal": {
        "global_pose": {
            "orientation": {
                "w": -0.4816463035849501,
                "x": 0.5182115481033762,
                "y": 0.4908360881923453,
                "z": -0.5084816262002911
            },
            "position": {
                "x": -0.8240239810943604,
                "y": -0.300875300988555,
                "z": 0.16403168439865112
            }
        },
        "name": "move_to_storage_C"
    },
    "id": "FMT_move_to_storage_C_146",
    "joint_names": [
        "shoulder_pan_joint",
        "shoulder_lift_joint",
        "elbow_joint",
        "wrist_1_joint",
        "wrist_2_joint",
        "wrist_3_joint"
    ],
    "metrics": {
        "cart_traj_len": 0.5765253180845746,
        "distance_elbow_joint": 0.2539995079991024,
        "distance_shoulder_lift_joint": 0.18863447792133892,
        "distance_shoulder_pan_joint": 0.4956420281300562,
        "distance_wrist_1_joint": 0.06353442129323095,
        "distance_wrist_2_joint": 1.060908780312412,
        "distance_wrist_3_joint": 0.06685283447815715,
        "smoothness": 0.0,
        "time": 0.339066516,
        "traj_len": 1.4593053313595128,
        "weighted_distance": 1.840576246911889
    },
    "planner": "FMT",
    "start": {
        "state": {
            "elbow_joint": 2.010868314990456,
            "shoulder_lift_joint": -1.1634956873337592,
            "shoulder_pan_joint": -2.4736205022346125,
            "wrist_1_joint": -0.8367026794202681,
            "wrist_2_joint": 0.6746043897044499,
            "wrist_3_joint": -3.1496632123970403
        }
    },
    "waypoints": [
        {
            "positions": [
                -2.4736205022346125,
                -1.1634956873337592,
                2.010868314990456,
                -0.8367026794202681,
                0.6746043897044499,
                -3.1496632123970403
            ]
        },
        {
            "positions": [
                -2.556227506922955,
                -1.1320566076802028,
                1.968535063657272,
                -0.8261136092047296,
                0.8514225197565186,
                -3.1385210733173476
            ]
        },
        {
            "positions": [
                -2.638834511611298,
                -1.1006175280266461,
                1.9262018123240883,
                -0.8155245389891911,
                1.0282406498085872,
                -3.1273789342376546
            ]
        },
        {
            "positions": [
                -2.721441516299641,
                -1.0691784483730897,
                1.8838685609909045,
                -0.8049354687736526,
                1.2050587798606558,
                -3.1162367951579615
            ]
        },
        {
            "positions": [
                -2.8040485209879833,
                -1.0377393687195333,
                1.841535309657721,
                -0.7943463985581142,
                1.3818769099127244,
                -3.105094656078269
            ]
        },
        {
            "positions": [
                -2.8866555256763258,
                -1.0063002890659767,
                1.7992020583245372,
                -0.7837573283425756,
                1.5586950399647934,
                -3.093952516998576
            ]
        },
        {
            "positions": [
                -2.9692625303646687,
                -0.9748612094124203,
                1.7568688069913534,
                -0.7731682581270372,
                1.7355131700168618,
                -3.082810377918883
            ]
        }
    ]
}