{
    "goal": {
        "global_pose": {
            "orientation": {
                "w": 0.005598929693374612,
                "x": 0.007748599140229565,
                "y": 0.7110244013736278,
                "z": -0.7031023480610252
            },
            "position": {
                "x": 0.1141497679147869,
                "y": -0.7141253447532654,
                "z": 0.3711530566215515
            }
        },
        "name": "move_to_auspresseinheit_B"
    },
    "id": "FMT_move_to_auspresseinheit_B_22",
    "joint_names": [
        "shoulder_pan_joint",
        "shoulder_lift_joint",
        "elbow_joint",
        "wrist_1_joint",
        "wrist_2_joint",
        "wrist_3_joint"
    ],
    "metrics": {
        "cart_traj_len": 0.5637044821881171,
        "distance_elbow_joint": 0.05901723653746793,
        "distance_shoulder_lift_joint": 0.29555535612942596,
        "distance_shoulder_pan_joint": 0.5763741543857386,
        "distance_wrist_1_joint": 0.3155997856185683,
        "distance_wrist_2_joint": 0.99212660887223,
        "distance_wrist_3_joint": 0.006751968243449813,
        "smoothness": 0.0,
        "time": 0.45461807899999995,
        "traj_len": 1.498474260635424,
        "weighted_distance": 1.8885590911498054
    },
    "planner": "FMT",
    "start": {
        "state": {
            "elbow_joint": 2.0193083361928714,
            "shoulder_lift_joint": -1.1220246554650708,
            "shoulder_pan_joint": -1.0952077554168747,
            "wrist_1_joint": -0.8559753972642168,
            "wrist_2_joint": 0.4759566250798843,
            "wrist_3_joint": -3.1240929996934557
        }
    },
    "waypoints": [
        {
            "positions": [
                -1.0952077554168747,
                -1.1220246554650708,
                2.0193083361928714,
                -0.8559753972642168,
                0.4759566250798843,
                -3.1240929996934557
            ]
        },
        {
            "positions": [
                -1.1912701144811644,
                -1.1712838814866418,
                2.0094721301032936,
                -0.8033754329944554,
                0.6413110598919226,
                -3.1252183277340304
            ]
        },
        {
            "positions": [
                -1.287332473545454,
                -1.2205431075082127,
                1.9996359240137154,
                -0.750775468724694,
                0.8066654947039609,
                -3.1263436557746056
            ]
        },
        {
            "positions": [
                -1.3833948326097438,
                -1.2698023335297837,
                1.9897997179241376,
                -0.6981755044549327,
                0.9720199295159992,
                -3.127468983815181
            ]
        },
        {
            "positions": [
                -1.4794571916740336,
                -1.3190615595513548,
                1.9799635118345595,
                -0.6455755401851713,
                1.1373743643280376,
                -3.1285943118557555
            ]
        },
        {
            "positions": [
                -1.5755195507383235,
                -1.3683207855729258,
                1.9701273057449815,
                -0.5929755759154098,
                1.302728799140076,
                -3.1297196398963303
            ]
        },
        {
            "positions": [
                -1.6715819098026132,
                -1.4175800115944968,
                1.9602910996554035,
                -0.5403756116456485,
                1.4680832339521144,
                -3.1308449679369055
            ]
        }
    ]
}