{
    "goal": {
        "global_pose": {
            "orientation": {
                "w": 0.5084816217422485,
                "x": -0.49083608388900757,
                "y": 0.5182115435600281,
                "z": -0.4816462993621826
            },
            "position": {
                "x": 0.5540239810943604,
                "y": 0.030875300988554955,
                "z": 0.16403168439865112
            }
        },
        "name": "move_to_storage_A"
    },
    "id": "FMT_move_to_storage_A_88",
    "joint_names": [
        "shoulder_pan_joint",
        "shoulder_lift_joint",
        "elbow_joint",
        "wrist_1_joint",
        "wrist_2_joint",
        "wrist_3_joint"
    ],
    "metrics": {
        "cart_traj_len": 0.35353904697399013,
        "distance_elbow_joint": 0.4499157706870085,
        "distance_shoulder_lift_joint": 0.23523728796139398,
        "distance_shoulder_pan_joint": 0.4626990338292209,
        "distance_wrist_1_joint": 0.23708958451590367,
        "distance_wrist_2_joint": 1.0988068799090314,
        "distance_wrist_3_joint": 0.09189736136199755,
        "smoothness": 4.440892098500626e-16,
        "time": 0.38979593300000004,
        "traj_len": 1.6048819016564912,
        "weighted_distance": 2.0236939258231437
    },
    "planner": "FMT",
    "start": {
        "state": {
            "elbow_joint": 1.971548259319323,
            "shoulder_lift_joint": -1.1394851275133948,
            "shoulder_pan_joint": 0.1228115487234821,
            "wrist_1_joint": -0.7804723859257726,
            "wrist_2_joint": 0.12958671773740124,
            "wrist_3_joint": -3.192489227718131
        }
    },
    "waypoints": [
        {
            "positions": [
                0.1228115487234821,
                -1.1394851275133948,
                1.971548259319323,
                -0.7804723859257726,
                0.12958671773740124,
                -3.192489227718131
            ]
        },
        {
            "positions": [
                0.05671168674787912,
                -1.1730904543650225,
                2.0358219408460383,
                -0.8143423265709017,
                0.28655912915297715,
                -3.179361033237846
            ]
        },
        {
            "positions": [
                -0.009388175227723866,
                -1.2066957812166503,
                2.100095622372754,
                -0.8482122672160308,
                0.44353154056855304,
                -3.1662328387575602
            ]
        },
        {
            "positions": [
                -0.07548803720332684,
                -1.240301108068278,
                2.1643693038994694,
                -0.8820822078611599,
                0.600503951984129,
                -3.153104644277275
            ]
        },
        {
            "positions": [
                -0.14158789917892983,
                -1.2739064349199056,
                2.228642985426185,
                -0.915952148506289,
                0.7574763633997049,
                -3.1399764497969898
            ]
        },
        {
            "positions": [
                -0.20768776115453286,
                -1.3075117617715333,
                2.2929166669529004,
                -0.9498220891514181,
                0.9144487748152809,
                -3.1268482553167045
            ]
        },
        {
            "positions": [
                -0.27378762313013577,
                -1.3411170886231611,
                2.357190348479616,
                -0.9836920297965472,
                1.0714211862308567,
                -3.113720060836419
            ]
        },
        {
            "positions": [
                -0.3398874851057388,
                -1.3747224154747888,
                2.4214640300063315,
                -1.0175619704416763,
                1.2283935976464326,
                -3.1005918663561336
            ]
        }
    ]
}{
    "goal": {
        "global_pose": {
            "orientation": {
                "w": 0.5084816217422485,
                "x": -0.49083608388900757,
                "y": 0.5182115435600281,
                "z": -0.4816462993621826
            },
            "position": {
                "x": 0.5540239810943604,
                "y": 0.030875300988554955,
                "z": 0.16403168439865112
            }
        },
        "name": "move_to_storage_A"
    },
    "id": "FMT_move_to_storage_A_88",
    "joint_names": [
        "shoulder_pan_joint",
        "shoulder_lift_joint",
        "elbow_joint",
        "wrist_1_joint",
        "wrist_2_joint",
        "wrist_3_joint"
    ],
    "metrics": {
        "cart_traj_len": 0.35299549359164195,
        "distance_elbow_joint": 0.44990332242308684,
        "distance_shoulder_lift_joint": 0.234505024778765,
        "distance_shoulder_pan_joint": 0.4633278734272959,
        "distance_wrist_1_joint": 0.2408093390968995,
        "distance_wrist_2_joint": 1.0913577673492405,
        "distance_wrist_3_joint": 0.08639348014586856,
        "smoothness": 0.0,
        "time": 0.448796517,
        "traj_len": 1.6019665437271642,
        "weighted_distance": 2.0177340939675457
    },
    "planner": "FMT",
    "start": {
        "state": {
            "elbow_joint": 1.97154746011099,
            "shoulder_lift_joint": -1.13948474672311,
            "shoulder_pan_joint": 0.12281154466712228,
            "wrist_1_joint": -0.7804688027058302,
            "wrist_2_joint": 0.12958655903071145,
            "wrist_3_joint": 3.0906928834467795
        }
    },
    "waypoints": [
        {
            "positions": [
                0.12281154466712228,
                -1.13948474672311,
                1.97154746011099,
                -0.7804688027058302,
                0.12958655903071145,
                3.0906928834467795
            ]
        },
        {
            "positions": [
                0.056621848463222865,
                -1.1729854645486477,
                2.035819363314288,
                -0.8148701368625301,
                0.2854948115091744,
                3.1030348091819038
            ]
        },
        {
            "positions": [
                -0.009567847740676552,
                -1.2064861823741857,
                2.100091266517586,
                -0.8492714710192301,
                0.4414030639876373,
                3.1153767349170276
            ]
        },
        {
            "positions": [
                -0.07575754394457597,
                -1.2399869001997235,
                2.1643631697208843,
                -0.8836728051759299,
                0.5973113164661003,
                3.127718660652152
            ]
        },
        {
            "positions": [
                -0.14194724014847537,
                -1.2734876180252614,
                2.2286350729241824,
                -0.9180741393326299,
                0.7532195689445632,
                3.1400605863872757
            ]
        },
        {
            "positions": [
                -0.2081369363523748,
                -1.3069883358507992,
                2.2929069761274805,
                -0.9524754734893298,
                0.9091278214230262,
                3.1524025121224
            ]
        },
        {
            "positions": [
                -0.2743266325562742,
                -1.340489053676337,
                2.3571788793307786,
                -0.9868768076460297,
                1.065036073901489,
                3.164744437857524
            ]
        },
        {
            "positions": [
                -0.3405163287601736,
                -1.373989771501875,
                2.4214507825340768,
                -1.0212781418027297,
                1.220944326379952,
                3.177086363592648
            ]
        }
    ]
}{
    "goal": {
        "global_pose": {
            "orientation": {
                "w": 0.5084816217422485,
                "x": -0.49083608388900757,
                "y": 0.5182115435600281,
                "z": -0.4816462993621826
            },
            "position": {
                "x": 0.5540239810943604,
                "y": 0.030875300988554955,
                "z": 0.16403168439865112
            }
        },
        "name": "move_to_storage_A"
    },
    "id": "FMT_move_to_storage_A_88",
    "joint_names": [
        "shoulder_pan_joint",
        "shoulder_lift_joint",
        "elbow_joint",
        "wrist_1_joint",
        "wrist_2_joint",
        "wrist_3_joint"
    ],
    "metrics": {
        "cart_traj_len": 0.3529980790359158,
        "distance_elbow_joint": 0.449971491174884,
        "distance_shoulder_lift_joint": 0.2365383931629419,
        "distance_shoulder_pan_joint": 0.46376268730826914,
        "distance_wrist_1_joint": 0.23742205571511832,
        "distance_wrist_2_joint": 1.09056788910721,
        "distance_wrist_3_joint": 0.09530124833582665,
        "smoothness": 4.440892098500626e-16,
        "time": 0.405775554,
        "traj_len": 1.604233076832743,
        "weighted_distance": 2.022907859072734
    },
    "planner": "FMT",
    "start": {
        "state": {
            "elbow_joint": 1.9715472970024885,
            "shoulder_lift_joint": -1.1394870060712896,
            "shoulder_pan_joint": 0.12281152778156021,
            "wrist_1_joint": -0.780463741449964,
            "wrist_2_joint": 0.12958659822042276,
            "wrist_3_joint": 3.090690232415272
        }
    },
    "waypoints": [
        {
            "positions": [
                0.12281152778156021,
                -1.1394870060712896,
                1.9715472970024885,
                -0.780463741449964,
                0.12958659822042276,
                3.090690232415272
            ]
        },
        {
            "positions": [
                0.05655971530895035,
                -1.173278205094567,
                2.0358289385989004,
                -0.8143811779806952,
                0.28538201095002413,
                3.104304696463247
            ]
        },
        {
            "positions": [
                -0.009692097163659513,
                -1.2070694041178445,
                2.1001105801953126,
                -0.8482986145114264,
                0.44117742367962554,
                3.117919160511222
            ]
        },
        {
            "positions": [
                -0.07594390963626937,
                -1.2408606031411218,
                2.1643922217917244,
                -0.8822160510421575,
                0.5969728364092269,
                3.1315336245591974
            ]
        },
        {
            "positions": [
                -0.14219572210887924,
                -1.2746518021643993,
                2.2286738633881367,
                -0.9161334875728887,
                0.7527682491388283,
                3.145148088607173
            ]
        },
        {
            "positions": [
                -0.20844753458148915,
                -1.3084430011876766,
                2.2929555049845485,
                -0.9500509241036199,
                0.9085636618684299,
                3.158762552655148
            ]
        },
        {
            "positions": [
                -0.27469934705409893,
                -1.342234200210954,
                2.3572371465809603,
                -0.9839683606343511,
                1.0643590745980311,
                3.1723770167031233
            ]
        },
        {
            "positions": [
                -0.3409511595267089,
                -1.3760253992342315,
                2.4215187881773725,
                -1.0178857971650823,
                1.2201544873276327,
                3.1859914807510985
            ]
        }
    ]
}