{
    "goal": {
        "global_pose": {
            "orientation": {
                "w": -0.00223480608172531,
                "x": 0.0024358444001904467,
                "y": 0.7094548369677653,
                "z": -0.704743149386269
            },
            "position": {
                "x": 0.6205249238014221,
                "y": -0.6371506643295288,
                "z": 0.19426114857196808
            }
        },
        "name": "move_to_magneteinheit_B"
    },
    "id": "FMT_move_to_magneteinheit_B_146",
    "joint_names": [
        "shoulder_pan_joint",
        "shoulder_lift_joint",
        "elbow_joint",
        "wrist_1_joint",
        "wrist_2_joint",
        "wrist_3_joint"
    ],
    "metrics": {
        "cart_traj_len": 3.6912863741561743,
        "distance_elbow_joint": 5.03561417550052,
        "distance_shoulder_lift_joint": 1.2837705020097943,
        "distance_shoulder_pan_joint": 2.6559526561022064,
        "distance_wrist_1_joint": 4.437456413821072,
        "distance_wrist_2_joint": 1.74688795509368,
        "distance_wrist_3_joint": 3.1640194766527245,
        "smoothness": 0.16737932977192724,
        "time": 1.5882001570000002,
        "traj_len": 4.280619251834948,
        "weighted_distance": 5.553024806481617
    },
    "planner": "FMT",
    "start": {
        "state": {
            "elbow_joint": 2.6216224122426386,
            "shoulder_lift_joint": -1.4174107377796124,
            "shoulder_pan_joint": 0.7066234856936794,
            "wrist_1_joint": 1.9546482284002225,
            "wrist_2_joint": -0.7096286983471962,
            "wrist_3_joint": 0.005740856962016249
        }
    },
    "waypoints": [
        {
            "positions": [
                0.7066234856936794,
                -1.4174107377796124,
                2.6216224122426386,
                1.9546482284002225,
                -0.7096286983471962,
                0.005740856962016249
            ]
        },
        {
            "positions": [
                0.6398712888013467,
                -1.396266289084417,
                2.6077624912444377,
                1.9559665796860164,
                -0.606489202431739,
                0.1168972479519763
            ]
        },
        {
            "positions": [
                0.5731190919090141,
                -1.3751218403892216,
                2.5939025702462373,
                1.9572849309718103,
                -0.5033497065162819,
                0.22805363894193637
            ]
        },
        {
            "positions": [
                0.5063668950166814,
                -1.3539773916940263,
                2.5800426492480364,
                1.9586032822576045,
                -0.4002102106008247,
                0.33921002993189636
            ]
        },
        {
            "positions": [
                0.4396146981243487,
                -1.3328329429988308,
                2.566182728249836,
                1.9599216335433984,
                -0.29707071468536744,
                0.45036642092185647
            ]
        },
        {
            "positions": [
                0.3728625012320161,
                -1.3116884943036355,
                2.552322807251635,
                1.9612399848291924,
                -0.19393121876991026,
                0.5615228119118164
            ]
        },
        {
            "positions": [
                0.38445846522418897,
                -1.3219372190949268,
                2.4295591797194973,
                1.8794288453381545,
                -0.1430124167455185,
                0.6398718139903676
            ]
        },
        {
            "positions": [
                0.3960544292163619,
                -1.3321859438862182,
                2.3067955521873595,
                1.7976177058471166,
                -0.09209361472112679,
                0.7182208160689189
            ]
        },
        {
            "positions": [
                0.4076503932085348,
                -1.3424346686775095,
                2.184031924655222,
                1.7158065663560786,
                -0.041174812696735036,
                0.7965698181474701
            ]
        },
        {
            "positions": [
                0.41924635720070774,
                -1.352683393468801,
                2.0612682971230836,
                1.6339954268650407,
                0.009743989327656688,
                0.8749188202260213
            ]
        },
        {
            "positions": [
                0.43084232119288063,
                -1.3629321182600922,
                1.9385046695909458,
                1.5521842873740028,
                0.06066279135204844,
                0.9532678223045725
            ]
        },
        {
            "positions": [
                0.44243828518505357,
                -1.3731808430513837,
                1.815741042058808,
                1.470373147882965,
                0.11158159337644019,
                1.0316168243831236
            ]
        },
        {
            "positions": [
                0.45403424917722646,
                -1.383429567842675,
                1.6929774145266703,
                1.388562008391927,
                0.16250039540083194,
                1.109965826461675
            ]
        },
        {
            "positions": [
                0.4939733744411552,
                -1.4023615215236023,
                1.5694848752839423,
                1.302023918501098,
                0.17410770671928721,
                1.1477275795661894
            ]
        },
        {
            "positions": [
                0.5339124997050839,
                -1.4212934752045296,
                1.4459923360412141,
                1.215485828610269,
                0.18571501803774249,
                1.1854893326707037
            ]
        },
        {
            "positions": [
                0.5738516249690127,
                -1.440225428885457,
                1.3224997967984862,
                1.12894773871944,
                0.19732232935619776,
                1.2232510857752181
            ]
        },
        {
            "positions": [
                0.6547572948796622,
                -1.4343975285109398,
                1.193521928938098,
                1.0238863838606784,
                0.16818593720649774,
                1.267417733082395
            ]
        },
        {
            "positions": [
                0.7356629647903117,
                -1.4285696281364224,
                1.06454406107771,
                0.918825029001917,
                0.13904954505679773,
                1.311584380389572
            ]
        },
        {
            "positions": [
                0.8165686347009611,
                -1.4227417277619052,
                0.9355661932173218,
                0.8137636741431555,
                0.1099131529070977,
                1.3557510276967488
            ]
        },
        {
            "positions": [
                0.8974743046116106,
                -1.416913827387388,
                0.8065883253569336,
                0.708702319284394,
                0.08077676075739769,
                1.3999176750039257
            ]
        },
        {
            "positions": [
                0.9783799745222601,
                -1.4110859270128708,
                0.6776104574965455,
                0.6036409644256325,
                0.05164036860769766,
                1.4440843223111026
            ]
        },
        {
            "positions": [
                1.0592856444329097,
                -1.4052580266383534,
                0.5486325896361574,
                0.498579609566871,
                0.02250397645799765,
                1.4882509696182795
            ]
        },
        {
            "positions": [
                1.140191314343559,
                -1.3994301262638362,
                0.41965472177576923,
                0.39351825470810964,
                -0.006632415691702337,
                1.5324176169254564
            ]
        },
        {
            "positions": [
                1.2210969842542085,
                -1.393602225889319,
                0.290676853915381,
                0.2884568998493481,
                -0.03576880784140238,
                1.5765842642326335
            ]
        },
        {
            "positions": [
                1.3020026541648582,
                -1.3877743255148018,
                0.1616989860549929,
                0.18339554499058663,
                -0.06490519999110239,
                1.6207509115398102
            ]
        },
        {
            "positions": [
                1.3829083240755076,
                -1.3819464251402844,
                0.03272111819460477,
                0.07833419013182508,
                -0.09404159214080243,
                1.6649175588469873
            ]
        },
        {
            "positions": [
                1.463813993986157,
                -1.3761185247657672,
                -0.09625674966578335,
                -0.02672716472693648,
                -0.12317798429050242,
                1.7090842061541642
            ]
        },
        {
            "positions": [
                1.5447196638968066,
                -1.37029062439125,
                -0.22523461752617147,
                -0.13178851958569804,
                -0.15231437644020246,
                1.7532508534613411
            ]
        },
        {
            "positions": [
                1.625625333807456,
                -1.3644627240167329,
                -0.3542124853865596,
                -0.23684987444445937,
                -0.18145076858990244,
                1.797417500768518
            ]
        },
        {
            "positions": [
                1.7065310037181054,
                -1.3586348236422154,
                -0.4831903532469477,
                -0.3419112293032207,
                -0.21058716073960243,
                1.841584148075695
            ]
        },
        {
            "positions": [
                1.7874366736287548,
                -1.3528069232676982,
                -0.6121682211073356,
                -0.44697258416198227,
                -0.23972355288930242,
                1.8857507953828718
            ]
        },
        {
            "positions": [
                1.8683423435394044,
                -1.346979022893181,
                -0.7411460889677242,
                -0.5520339390207438,
                -0.2688599450390025,
                1.9299174426900487
            ]
        },
        {
            "positions": [
                1.949248013450054,
                -1.3411511225186636,
                -0.870123956828112,
                -0.6570952938795054,
                -0.2979963371887025,
                1.9740840899972256
            ]
        },
        {
            "positions": [
                2.0301536833607035,
                -1.3353232221441464,
                -0.9991018246885004,
                -0.7621566487382667,
                -0.32713272933840254,
                2.0182507373044025
            ]
        },
        {
            "positions": [
                2.1110593532713526,
                -1.3294953217696293,
                -1.1280796925488883,
                -0.8672180035970283,
                -0.3562691214881025,
                2.0624173846115794
            ]
        },
        {
            "positions": [
                2.1919650231820027,
                -1.323667421395112,
                -1.2570575604092766,
                -0.9722793584557898,
                -0.3854055136378026,
                2.1065840319187563
            ]
        },
        {
            "positions": [
                2.272870693092652,
                -1.3178395210205947,
                -1.3860354282696645,
                -1.0773407133145514,
                -0.4145419057875026,
                2.150750679225933
            ]
        },
        {
            "positions": [
                2.353776363003301,
                -1.3120116206460775,
                -1.5150132961300529,
                -1.182402068173313,
                -0.4436782979372026,
                2.19491732653311
            ]
        },
        {
            "positions": [
                2.434682032913951,
                -1.3061837202715603,
                -1.6439911639904408,
                -1.287463423032074,
                -0.4728146900869026,
                2.239083973840287
            ]
        },
        {
            "positions": [
                2.5155877028246003,
                -1.3003558198970429,
                -1.772969031850829,
                -1.392524777890836,
                -0.5019510822366027,
                2.283250621147464
            ]
        },
        {
            "positions": [
                2.5964933727352495,
                -1.2945279195225257,
                -1.9019468997112174,
                -1.4975861327495972,
                -0.5310874743863027,
                2.327417268454641
            ]
        },
        {
            "positions": [
                2.6773990426458996,
                -1.2887000191480085,
                -2.030924767571605,
                -1.6026474876083587,
                -0.5602238665360026,
                2.3715839157618177
            ]
        },
        {
            "positions": [
                2.6775183707871246,
                -1.387599854844731,
                -1.9943022543243252,
                -1.7050809800444113,
                -0.5504135190405044,
                2.464483058400665
            ]
        },
        {
            "positions": [
                2.6776376989283497,
                -1.4864996905414536,
                -1.957679741077045,
                -1.807514472480464,
                -0.540603171545006,
                2.557382201039512
            ]
        },
        {
            "positions": [
                2.6777570270695747,
                -1.585399526238176,
                -1.921057227829765,
                -1.9099479649165165,
                -0.5307928240495078,
                2.6502813436783597
            ]
        },
        {
            "positions": [
                2.6778763552108003,
                -1.6842993619348985,
                -1.8844347145824851,
                -2.012381457352569,
                -0.5209824765540095,
                2.743180486317207
            ]
        },
        {
            "positions": [
                2.6779956833520253,
                -1.783199197631621,
                -1.847812201335205,
                -2.114814949788622,
                -0.5111721290585112,
                2.836079628956054
            ]
        },
        {
            "positions": [
                2.6781150114932504,
                -1.8820990333283436,
                -1.811189688087925,
                -2.2172484422246743,
                -0.5013617815630129,
                2.9289787715949016
            ]
        },
        {
            "positions": [
                2.672468624366814,
                -1.9836280000064144,
                -1.7567457160203923,
                -2.301373852337419,
                -0.4935188993879816,
                3.009239292268181
            ]
        },
        {
            "positions": [
                2.666822237240378,
                -2.085156966684485,
                -1.7023017439528598,
                -2.385499262450164,
                -0.4856760172129503,
                3.0894998129414613
            ]
        },
        {
            "positions": [
                2.6611758501139415,
                -2.186685933362556,
                -1.6478577718853271,
                -2.469624672562909,
                -0.47783313503791897,
                3.169760333614741
            ]
        }
    ]
}