{
    "goal": {
        "global_pose": {
            "orientation": {
                "w": 0.005598929693374612,
                "x": 0.007748599140229565,
                "y": 0.7110244013736278,
                "z": -0.7031023480610252
            },
            "position": {
                "x": -0.8858502320852131,
                "y": -0.7141253447532654,
                "z": 0.3711530566215515
            }
        },
        "name": "move_to_auspresseinheit_C"
    },
    "id": "FMT_move_to_auspresseinheit_C_75",
    "joint_names": [
        "shoulder_pan_joint",
        "shoulder_lift_joint",
        "elbow_joint",
        "wrist_1_joint",
        "wrist_2_joint",
        "wrist_3_joint"
    ],
    "metrics": {
        "cart_traj_len": 0.4922721721650742,
        "distance_elbow_joint": 0.9894624354467616,
        "distance_shoulder_lift_joint": 0.320048315225845,
        "distance_shoulder_pan_joint": 0.25582322945083114,
        "distance_wrist_1_joint": 0.6532640939531575,
        "distance_wrist_2_joint": 1.3159438389104843,
        "distance_wrist_3_joint": 0.03374263669622701,
        "smoothness": 4.844609574787718e-16,
        "time": 0.459229372,
        "traj_len": 1.888990351929651,
        "weighted_distance": 2.3674834225268406
    },
    "planner": "FMT",
    "start": {
        "state": {
            "elbow_joint": 1.7527959577737207,
            "shoulder_lift_joint": -0.9740617694225068,
            "shoulder_pan_joint": -2.967991417825858,
            "wrist_1_joint": -0.759517768980727,
            "wrist_2_joint": 1.7443932448377408,
            "wrist_3_joint": -3.0840537646736568
        }
    },
    "waypoints": [
        {
            "positions": [
                -2.967991417825858,
                -0.9740617694225068,
                1.7527959577737207,
                -0.759517768980727,
                1.7443932448377408,
                -3.0840537646736568
            ]
        },
        {
            "positions": [
                -2.942409094880775,
                -0.9420569378999223,
                1.6538497142290445,
                -0.6941913595854112,
                1.6127988609466923,
                -3.0874280283432793
            ]
        },
        {
            "positions": [
                -2.9168267719356917,
                -0.9100521063773378,
                1.5549034706843683,
                -0.6288649501900955,
                1.4812044770556438,
                -3.0908022920129024
            ]
        },
        {
            "positions": [
                -2.8912444489906086,
                -0.8780472748547533,
                1.4559572271396921,
                -0.5635385407947797,
                1.3496100931645956,
                -3.094176555682525
            ]
        },
        {
            "positions": [
                -2.8656621260455255,
                -0.8460424433321687,
                1.357010983595016,
                -0.49821213139946396,
                1.218015709273547,
                -3.0975508193521475
            ]
        },
        {
            "positions": [
                -2.8400798031004424,
                -0.8140376118095842,
                1.2580647400503397,
                -0.4328857220041482,
                1.0864213253824988,
                -3.10092508302177
            ]
        },
        {
            "positions": [
                -2.8144974801553593,
                -0.7820327802869997,
                1.1591184965056636,
                -0.36755931260883246,
                0.9548269414914503,
                -3.104299346691393
            ]
        },
        {
            "positions": [
                -2.788915157210276,
                -0.7500279487644153,
                1.0601722529609876,
                -0.30223290321351676,
                0.8232325576004019,
                -3.1076736103610156
            ]
        },
        {
            "positions": [
                -2.763332834265193,
                -0.7180231172418308,
                0.9612260094163113,
                -0.23690649381820095,
                0.6916381737093533,
                -3.111047874030638
            ]
        },
        {
            "positions": [
                -2.73775051132011,
                -0.6860182857192463,
                0.8622797658716352,
                -0.1715800844228852,
                0.560043789818305,
                -3.114422137700261
            ]
        },
        {
            "positions": [
                -2.712168188375027,
                -0.6540134541966618,
                0.7633335223269591,
                -0.10625367502756945,
                0.4284494059272566,
                -3.117796401369884
            ]
        }
    ]
}