{
    "goal": {
        "global_pose": {
            "orientation": {
                "w": -0.4816463035849501,
                "x": 0.5182115481033762,
                "y": 0.4908360881923453,
                "z": -0.5084816262002911
            },
            "position": {
                "x": -0.8240239810943604,
                "y": -0.300875300988555,
                "z": 0.16403168439865112
            }
        },
        "name": "move_to_storage_C"
    },
    "id": "FMT_move_to_storage_C_78",
    "joint_names": [
        "shoulder_pan_joint",
        "shoulder_lift_joint",
        "elbow_joint",
        "wrist_1_joint",
        "wrist_2_joint",
        "wrist_3_joint"
    ],
    "metrics": {
        "cart_traj_len": 0.576106719134994,
        "distance_elbow_joint": 0.2552134601878777,
        "distance_shoulder_lift_joint": 0.1897708482171402,
        "distance_shoulder_pan_joint": 0.4938245767575329,
        "distance_wrist_1_joint": 0.06548115534560128,
        "distance_wrist_2_joint": 1.0688252420654116,
        "distance_wrist_3_joint": 0.054410010704904366,
        "smoothness": 5.075305295617109e-16,
        "time": 0.322862399,
        "traj_len": 1.4586038849799035,
        "weighted_distance": 1.8359334715885784
    },
    "planner": "FMT",
    "start": {
        "state": {
            "elbow_joint": 2.010868314990456,
            "shoulder_lift_joint": -1.1634956873337592,
            "shoulder_pan_joint": -2.4736205022346125,
            "wrist_1_joint": -0.8367026794202681,
            "wrist_2_joint": 0.6746043897044499,
            "wrist_3_joint": -3.1496632123970403
        }
    },
    "waypoints": [
        {
            "positions": [
                -2.4736205022346125,
                -1.1634956873337592,
                2.010868314990456,
                -0.8367026794202681,
                0.6746043897044499,
                -3.1496632123970403
            ]
        },
        {
            "positions": [
                -2.555924598360868,
                -1.1318672126309024,
                1.9683327382924762,
                -0.8257891535293346,
                0.8527419300486851,
                -3.140594877279556
            ]
        },
        {
            "positions": [
                -2.6382286944871236,
                -1.1002387379280458,
                1.9257971615944967,
                -0.814875627638401,
                1.0308794703929205,
                -3.131526542162072
            ]
        },
        {
            "positions": [
                -2.7205327906133787,
                -1.068610263225189,
                1.883261584896517,
                -0.8039621017474674,
                1.2090170107371558,
                -3.122458207044588
            ]
        },
        {
            "positions": [
                -2.8028368867396343,
                -1.0369817885223325,
                1.8407260081985373,
                -0.7930485758565339,
                1.387154551081391,
                -3.113389871927104
            ]
        },
        {
            "positions": [
                -2.88514098286589,
                -1.0053533138194757,
                1.7981904315005577,
                -0.7821350499656003,
                1.5652920914256263,
                -3.10432153680962
            ]
        },
        {
            "positions": [
                -2.9674450789921454,
                -0.973724839116619,
                1.755654854802578,
                -0.7712215240746668,
                1.7434296317698614,
                -3.095253201692136
            ]
        }
    ]
}