{
    "goal": {
        "global_pose": {
            "orientation": {
                "w": -0.4816463035849501,
                "x": 0.5182115481033762,
                "y": 0.4908360881923453,
                "z": -0.5084816262002911
            },
            "position": {
                "x": -0.8240239810943604,
                "y": 0.19912469901144506,
                "z": 0.16403168439865112
            }
        },
        "name": "move_to_storage_D"
    },
    "id": "FMT_move_to_storage_D_23",
    "joint_names": [
        "shoulder_pan_joint",
        "shoulder_lift_joint",
        "elbow_joint",
        "wrist_1_joint",
        "wrist_2_joint",
        "wrist_3_joint"
    ],
    "metrics": {
        "cart_traj_len": 3.689943005819173,
        "distance_elbow_joint": 4.210869792762775,
        "distance_shoulder_lift_joint": 1.378749048938432,
        "distance_shoulder_pan_joint": 2.812173873332038,
        "distance_wrist_1_joint": 2.268038639706821,
        "distance_wrist_2_joint": 0.9625137788605059,
        "distance_wrist_3_joint": 3.13878813440089,
        "smoothness": 0.038032180817497416,
        "time": 1.452406943,
        "traj_len": 3.8433232062892477,
        "weighted_distance": 4.92739910656429
    },
    "planner": "FMT",
    "start": {
        "state": {
            "elbow_joint": -2.384821988534728,
            "shoulder_lift_joint": -2.2788054721415256,
            "shoulder_pan_joint": -0.1854694642142757,
            "wrist_1_joint": 1.4845938289331202,
            "wrist_2_joint": 0.17898776772866878,
            "wrist_3_joint": 0.037105688729662994
        }
    },
    "waypoints": [
        {
            "positions": [
                -0.1854694642142757,
                -2.2788054721415256,
                -2.384821988534728,
                1.4845938289331202,
                0.17898776772866878,
                0.037105688729662994
            ]
        },
        {
            "positions": [
                -0.06376126510100041,
                -2.2007224946809525,
                -2.370436370675863,
                1.4827209683290616,
                0.23414144679419255,
                0.1422202217438649
            ]
        },
        {
            "positions": [
                0.05794693401227488,
                -2.1226395172203794,
                -2.356050752816998,
                1.480848107725003,
                0.28929512585971634,
                0.2473347547580668
            ]
        },
        {
            "positions": [
                0.17965513312555018,
                -2.0445565397598062,
                -2.341665134958133,
                1.4789752471209445,
                0.3444488049252401,
                0.3524492877722687
            ]
        },
        {
            "positions": [
                0.3013633322388255,
                -1.966473562299233,
                -2.327279517099268,
                1.4771023865168862,
                0.39960248399076387,
                0.4575638207864706
            ]
        },
        {
            "positions": [
                0.42307153135210085,
                -1.88839058483866,
                -2.3128938992404033,
                1.4752295259128276,
                0.45475616305628763,
                0.5626783538006725
            ]
        },
        {
            "positions": [
                0.5447797304653761,
                -1.8103076073780868,
                -2.298508281381538,
                1.473356665308769,
                0.5099098421218115,
                0.6677928868148745
            ]
        },
        {
            "positions": [
                0.6664879295786514,
                -1.7322246299175137,
                -2.2841226635226732,
                1.4714838047047105,
                0.5650635211873352,
                0.7729074198290764
            ]
        },
        {
            "positions": [
                0.7370477553717294,
                -1.7024237768834407,
                -2.1647142188304023,
                1.4066871633411981,
                0.5854480824907112,
                0.8541802203038579
            ]
        },
        {
            "positions": [
                0.8076075811648075,
                -1.672622923849368,
                -2.045305774138131,
                1.3418905219776855,
                0.6058326437940873,
                0.9354530207786395
            ]
        },
        {
            "positions": [
                0.8781674069578855,
                -1.642822070815295,
                -1.92589732944586,
                1.2770938806141732,
                0.6262172050974634,
                1.016725821253421
            ]
        },
        {
            "positions": [
                0.9487272327509635,
                -1.613021217781222,
                -1.8064888847535887,
                1.2122972392506606,
                0.6466017664008394,
                1.0979986217282025
            ]
        },
        {
            "positions": [
                1.0192870585440414,
                -1.5832203647471492,
                -1.6870804400613175,
                1.1475005978871482,
                0.6669863277042155,
                1.179271422202984
            ]
        },
        {
            "positions": [
                1.0898468843371196,
                -1.5534195117130762,
                -1.5676719953690463,
                1.0827039565236358,
                0.6873708890075916,
                1.2605442226777654
            ]
        },
        {
            "positions": [
                1.1604067101301974,
                -1.5236186586790033,
                -1.4482635506767754,
                1.0179073151601234,
                0.7077554503109678,
                1.3418170231525468
            ]
        },
        {
            "positions": [
                1.2309665359232755,
                -1.4938178056449303,
                -1.3288551059845042,
                0.9531106737966109,
                0.7281400116143438,
                1.4230898236273286
            ]
        },
        {
            "positions": [
                1.3015263617163535,
                -1.4640169526108575,
                -1.209446661292233,
                0.8883140324330984,
                0.7485245729177199,
                1.50436262410211
            ]
        },
        {
            "positions": [
                1.3720861875094315,
                -1.4342160995767845,
                -1.0900382165999618,
                0.8235173910695859,
                0.768909134221096,
                1.5856354245768916
            ]
        },
        {
            "positions": [
                1.4426460133025096,
                -1.4044152465427118,
                -0.9706297719076908,
                0.7587207497060735,
                0.789293695524472,
                1.6669082250516731
            ]
        },
        {
            "positions": [
                1.5132058390955876,
                -1.3746143935086388,
                -0.8512213272154194,
                0.6939241083425609,
                0.8096782568278481,
                1.7481810255264545
            ]
        },
        {
            "positions": [
                1.5837656648886655,
                -1.3448135404745658,
                -0.7318128825231485,
                0.6291274669790485,
                0.8300628181312242,
                1.829453826001236
            ]
        },
        {
            "positions": [
                1.6543254906817435,
                -1.315012687440493,
                -0.6124044378308775,
                0.5643308256155362,
                0.8504473794346002,
                1.9107266264760174
            ]
        },
        {
            "positions": [
                1.7248853164748215,
                -1.28521183440642,
                -0.4929959931386063,
                0.49953418425202367,
                0.8708319407379763,
                1.991999426950799
            ]
        },
        {
            "positions": [
                1.7954451422678996,
                -1.255410981372347,
                -0.3735875484463349,
                0.4347375428885112,
                0.8912165020413525,
                2.073272227425581
            ]
        },
        {
            "positions": [
                1.8660049680609776,
                -1.2256101283382743,
                -0.2541791037540637,
                0.3699409015249986,
                0.9116010633447285,
                2.154545027900362
            ]
        },
        {
            "positions": [
                1.9365647938540556,
                -1.1958092753042013,
                -0.13477065906179275,
                0.3051442601614862,
                0.9319856246481046,
                2.2358178283751435
            ]
        },
        {
            "positions": [
                2.0071246196471337,
                -1.1660084222701284,
                -0.015362214369521787,
                0.24034761879797384,
                0.9523701859514806,
                2.3170906288499253
            ]
        },
        {
            "positions": [
                2.0776844454402115,
                -1.1362075692360554,
                0.10404623032274962,
                0.17555097743446124,
                0.9727547472548568,
                2.3983634293247067
            ]
        },
        {
            "positions": [
                2.1482442712332896,
                -1.1064067162019826,
                0.2234546750150206,
                0.11075433607094887,
                0.9931393085582327,
                2.479636229799488
            ]
        },
        {
            "positions": [
                2.218804097026368,
                -1.0766058631679096,
                0.34286311970729155,
                0.04595769470743649,
                1.013523869861609,
                2.56090903027427
            ]
        },
        {
            "positions": [
                2.2893639228194456,
                -1.0468050101338369,
                0.46227156439956296,
                -0.018838946656076105,
                1.0339084311649849,
                2.642181830749051
            ]
        },
        {
            "positions": [
                2.3599237486125237,
                -1.0170041570997639,
                0.5816800090918344,
                -0.0836355880195887,
                1.054292992468361,
                2.7234546312238326
            ]
        },
        {
            "positions": [
                2.430483574405602,
                -0.9872033040656909,
                0.7010884537841053,
                -0.14843222938310108,
                1.0746775537717372,
                2.8047274316986144
            ]
        },
        {
            "positions": [
                2.5010434001986797,
                -0.957402451031618,
                0.8204968984763763,
                -0.21322887074661345,
                1.0950621150751132,
                2.8860002321733957
            ]
        },
        {
            "positions": [
                2.5219869016851932,
                -0.9669601223363722,
                0.9880887161016547,
                -0.30826486075112813,
                1.0873222098227697,
                2.934315830666255
            ]
        },
        {
            "positions": [
                2.5429304031717073,
                -0.9765177936411262,
                1.1556805337269331,
                -0.40330085075564276,
                1.079582304570426,
                2.982631429159115
            ]
        },
        {
            "positions": [
                2.563873904658221,
                -0.9860754649458803,
                1.3232723513522116,
                -0.49833684076015744,
                1.0718423993180823,
                3.0309470276519743
            ]
        },
        {
            "positions": [
                2.5848174061447344,
                -0.9956331362506344,
                1.49086416897749,
                -0.5933728307646721,
                1.0641024940657389,
                3.0792626261448337
            ]
        },
        {
            "positions": [
                2.6057609076312485,
                -1.0051908075553886,
                1.6584559866027686,
                -0.6884088207691867,
                1.0563625888133954,
                3.1275782246376935
            ]
        },
        {
            "positions": [
                2.626704409117762,
                -1.0147484788601426,
                1.826047804228047,
                -0.7834448107737014,
                1.0486226835610517,
                3.175893823130553
            ]
        }
    ]
}