{
    "goal": {
        "global_pose": {
            "orientation": {
                "w": 0.005598929693374612,
                "x": 0.007748599140229565,
                "y": 0.7110244013736278,
                "z": -0.7031023480610252
            },
            "position": {
                "x": 0.1141497679147869,
                "y": -0.7141253447532654,
                "z": 0.3711530566215515
            }
        },
        "name": "move_to_auspresseinheit_B"
    },
    "id": "FMT_move_to_auspresseinheit_B_6",
    "joint_names": [
        "shoulder_pan_joint",
        "shoulder_lift_joint",
        "elbow_joint",
        "wrist_1_joint",
        "wrist_2_joint",
        "wrist_3_joint"
    ],
    "metrics": {
        "cart_traj_len": 0.5653264871469765,
        "distance_elbow_joint": 0.06220069139276019,
        "distance_shoulder_lift_joint": 0.29398988702971574,
        "distance_shoulder_pan_joint": 0.5779361021426643,
        "distance_wrist_1_joint": 0.3208455231238734,
        "distance_wrist_2_joint": 0.9912840178467606,
        "distance_wrist_3_joint": 0.0009167526555025063,
        "smoothness": 0.0,
        "time": 0.460164008,
        "traj_len": 1.4990573618748806,
        "weighted_distance": 1.8870972472220175
    },
    "planner": "FMT",
    "start": {
        "state": {
            "elbow_joint": 2.0193083361928714,
            "shoulder_lift_joint": -1.1220246554650708,
            "shoulder_pan_joint": -1.0952077554168747,
            "wrist_1_joint": -0.8559753972642168,
            "wrist_2_joint": 0.4759566250798843,
            "wrist_3_joint": -3.1240929996934557
        }
    },
    "waypoints": [
        {
            "positions": [
                -1.0952077554168747,
                -1.1220246554650708,
                2.0193083361928714,
                -0.8559753972642168,
                0.4759566250798843,
                -3.1240929996934557
            ]
        },
        {
            "positions": [
                -1.1915304391073187,
                -1.1710229699700234,
                2.0089415542940783,
                -0.8025011434102379,
                0.6411706280543443,
                -3.1242457918027062
            ]
        },
        {
            "positions": [
                -1.2878531227977628,
                -1.220021284474976,
                1.9985747723952847,
                -0.749026889556259,
                0.8063846310288045,
                -3.1243985839119564
            ]
        },
        {
            "positions": [
                -1.3841758064882068,
                -1.2690195989799287,
                1.9882079904964913,
                -0.6955526357022801,
                0.9715986340032645,
                -3.124551376021207
            ]
        },
        {
            "positions": [
                -1.4804984901786509,
                -1.3180179134848813,
                1.977841208597698,
                -0.6420783818483012,
                1.1368126369777247,
                -3.1247041681304575
            ]
        },
        {
            "positions": [
                -1.576821173869095,
                -1.367016227989834,
                1.9674744266989046,
                -0.5886041279943223,
                1.3020266399521847,
                -3.1248569602397076
            ]
        },
        {
            "positions": [
                -1.673143857559539,
                -1.4160145424947865,
                1.9571076448001112,
                -0.5351298741403434,
                1.467240642926645,
                -3.125009752348958
            ]
        }
    ]
}