{
    "goal": {
        "global_pose": {
            "orientation": {
                "w": -0.00223480608172531,
                "x": 0.0024358444001904467,
                "y": 0.7094548369677653,
                "z": -0.704743149386269
            },
            "position": {
                "x": 0.6205249238014221,
                "y": -0.6371506643295288,
                "z": 0.19426114857196808
            }
        },
        "name": "move_to_magneteinheit_B"
    },
    "id": "FMT_move_to_magneteinheit_B_72",
    "joint_names": [
        "shoulder_pan_joint",
        "shoulder_lift_joint",
        "elbow_joint",
        "wrist_1_joint",
        "wrist_2_joint",
        "wrist_3_joint"
    ],
    "metrics": {
        "cart_traj_len": 3.2039601061045433,
        "distance_elbow_joint": 4.426030779263142,
        "distance_shoulder_lift_joint": 1.0779698974610255,
        "distance_shoulder_pan_joint": 2.0099830638625273,
        "distance_wrist_1_joint": 1.1847667997726736,
        "distance_wrist_2_joint": 1.3428805278649523,
        "distance_wrist_3_joint": 1.5304176622497228,
        "smoothness": 0.43469433768006566,
        "time": 1.424902793,
        "traj_len": 3.401771410673275,
        "weighted_distance": 4.142527173430625
    },
    "planner": "FMT",
    "start": {
        "state": {
            "elbow_joint": 2.6216224122426386,
            "shoulder_lift_joint": -1.4174107377796124,
            "shoulder_pan_joint": 0.7066234856936794,
            "wrist_1_joint": 1.9546482284002225,
            "wrist_2_joint": -0.7096286983471962,
            "wrist_3_joint": 0.005740856962016249
        }
    },
    "waypoints": [
        {
            "positions": [
                0.7066234856936794,
                -1.4174107377796124,
                2.6216224122426386,
                1.9546482284002225,
                -0.7096286983471962,
                0.005740856962016249
            ]
        },
        {
            "positions": [
                0.8394847517316282,
                -1.4084401269623763,
                2.6662937498053547,
                1.9009630490350697,
                -0.7106267542990921,
                -0.016199827793669963
            ]
        },
        {
            "positions": [
                0.9616392372075767,
                -1.4310034419356337,
                2.6053421023484544,
                1.8229504813136301,
                -0.6639000975299689,
                -0.03979626953719595
            ]
        },
        {
            "positions": [
                1.0837937226835253,
                -1.453566756908891,
                2.5443904548915546,
                1.7449379135921905,
                -0.6171734407608458,
                -0.06339271128072194
            ]
        },
        {
            "positions": [
                1.205948208159474,
                -1.4761300718821484,
                2.4834388074346543,
                1.666925345870751,
                -0.5704467839917227,
                -0.08698915302424792
            ]
        },
        {
            "positions": [
                1.3281026936354223,
                -1.4986933868554058,
                2.422487159977754,
                1.5889127781493113,
                -0.5237201272225995,
                -0.11058559476777391
            ]
        },
        {
            "positions": [
                1.450257179111371,
                -1.5212567018286631,
                2.3615355125208537,
                1.5109002104278715,
                -0.4769934704534763,
                -0.1341820365112999
            ]
        },
        {
            "positions": [
                1.5724116645873194,
                -1.5438200168019205,
                2.300583865063954,
                1.4328876427064319,
                -0.4302668136843532,
                -0.15777847825482588
            ]
        },
        {
            "positions": [
                1.694566150063268,
                -1.5663833317751779,
                2.2396322176070536,
                1.3548750749849923,
                -0.38354015691523,
                -0.18137491999835187
            ]
        },
        {
            "positions": [
                1.7469039563350726,
                -1.5921344392302643,
                2.0327080973435105,
                1.3296541907750197,
                -0.33451864055056624,
                -0.21129452562984444
            ]
        },
        {
            "positions": [
                1.799241762606877,
                -1.617885546685351,
                1.825783977079967,
                1.3044333065650469,
                -0.28549712418590245,
                -0.241214131261337
            ]
        },
        {
            "positions": [
                1.8515795688786814,
                -1.6436366541404375,
                1.6188598568164239,
                1.2792124223550743,
                -0.23647560782123872,
                -0.27113373689282955
            ]
        },
        {
            "positions": [
                1.9039173751504859,
                -1.6693877615955242,
                1.4119357365528806,
                1.2539915381451014,
                -0.18745409145657493,
                -0.30105334252432214
            ]
        },
        {
            "positions": [
                1.9562551814222904,
                -1.6951388690506106,
                1.2050116162893374,
                1.2287706539351289,
                -0.13843257509191118,
                -0.3309729481558147
            ]
        },
        {
            "positions": [
                2.0085929876940947,
                -1.7208899765056973,
                0.9980874960257942,
                1.2035497697251563,
                -0.08941105872724742,
                -0.3608925537873072
            ]
        },
        {
            "positions": [
                2.060930793965899,
                -1.7466410839607838,
                0.7911633757622509,
                1.1783288855151834,
                -0.04038954236258363,
                -0.39081215941879976
            ]
        },
        {
            "positions": [
                2.1132686002377037,
                -1.7723921914158702,
                0.5842392554987077,
                1.1531080013052109,
                0.008631974002080156,
                -0.42073176505029236
            ]
        },
        {
            "positions": [
                2.165606406509508,
                -1.798143298870957,
                0.37731513523516447,
                1.1278871170952383,
                0.05765349036674394,
                -0.45065137068178496
            ]
        },
        {
            "positions": [
                2.2179442127813127,
                -1.8238944063260434,
                0.17039101497162124,
                1.1026662328852654,
                0.10667500673140767,
                -0.4805709763132775
            ]
        },
        {
            "positions": [
                2.270282019053117,
                -1.84964551378113,
                -0.03653310529192222,
                1.0774453486752926,
                0.15569652309607152,
                -0.51049058194477
            ]
        },
        {
            "positions": [
                2.3226198253249217,
                -1.8753966212362165,
                -0.24345722555546523,
                1.05222446446532,
                0.2047180394607352,
                -0.5404101875762626
            ]
        },
        {
            "positions": [
                2.3749576315967262,
                -1.9011477286913032,
                -0.4503813458190087,
                1.0270035802553474,
                0.2537395558253991,
                -0.5703297932077552
            ]
        },
        {
            "positions": [
                2.4272954378685307,
                -1.9268988361463897,
                -0.6573054660825517,
                1.0017826960453746,
                0.30276107219006276,
                -0.6002493988392477
            ]
        },
        {
            "positions": [
                2.4796332441403353,
                -1.9526499436014761,
                -0.8642295863460951,
                0.976561811835402,
                0.35178258855472666,
                -0.6301690044707403
            ]
        },
        {
            "positions": [
                2.5319710504121393,
                -1.9784010510565628,
                -1.0711537066096382,
                0.9513409276254294,
                0.40080410491939034,
                -0.6600886101022329
            ]
        },
        {
            "positions": [
                2.584308856683944,
                -2.0041521585116495,
                -1.2780778268731816,
                0.9261200434154566,
                0.4498256212840541,
                -0.6900082157337255
            ]
        },
        {
            "positions": [
                2.6366466629557483,
                -2.0299032659667358,
                -1.4850019471367246,
                0.900899159205484,
                0.4988471376487179,
                -0.719927821365218
            ]
        },
        {
            "positions": [
                2.688984469227553,
                -2.0556543734218224,
                -1.6919260674002683,
                0.8756782749955113,
                0.5478686540133817,
                -0.7498474269967106
            ]
        },
        {
            "positions": [
                2.6820789491453896,
                -2.161100633467908,
                -1.686141161276567,
                0.902127486587502,
                0.5270218881132359,
                -0.5561400824239615
            ]
        },
        {
            "positions": [
                2.675173429063226,
                -2.2665468935139943,
                -1.680356255152866,
                0.9285766981794927,
                0.5061751222130901,
                -0.36243273785121255
            ]
        },
        {
            "positions": [
                2.668267908981062,
                -2.37199315356008,
                -1.6745713490291647,
                0.9550259097714835,
                0.48532835631294435,
                -0.1687253932784636
            ]
        },
        {
            "positions": [
                2.661362388898899,
                -2.4774394136061657,
                -1.6687864429054635,
                0.9814751213634741,
                0.4644815904127986,
                0.02498195129428554
            ]
        }
    ]
}