{
    "goal": {
        "global_pose": {
            "orientation": {
                "w": -0.00223480608172531,
                "x": 0.0024358444001904467,
                "y": 0.7094548369677653,
                "z": -0.704743149386269
            },
            "position": {
                "x": -0.37947507619857795,
                "y": -0.6371506643295288,
                "z": 0.19426114857196808
            }
        },
        "name": "move_to_magneteinheit_C"
    },
    "id": "FMT_move_to_magneteinheit_C_107",
    "joint_names": [
        "shoulder_pan_joint",
        "shoulder_lift_joint",
        "elbow_joint",
        "wrist_1_joint",
        "wrist_2_joint",
        "wrist_3_joint"
    ],
    "metrics": {
        "cart_traj_len": 0.8974990569449492,
        "distance_elbow_joint": 0.7403691376336239,
        "distance_shoulder_lift_joint": 1.5480054657386628,
        "distance_shoulder_pan_joint": 0.8726045508407763,
        "distance_wrist_1_joint": 0.6494973617087354,
        "distance_wrist_2_joint": 0.9298122337700048,
        "distance_wrist_3_joint": 1.1779875707400556,
        "smoothness": 1.1647998591802156,
        "time": 1.50878206,
        "traj_len": 2.432750772362812,
        "weighted_distance": 3.13903823764393
    },
    "planner": "FMT",
    "start": {
        "state": {
            "elbow_joint": 1.9565354010623817,
            "shoulder_lift_joint": -1.4165861575791021,
            "shoulder_pan_joint": -1.6717766225146293,
            "wrist_1_joint": -0.5286633292919765,
            "wrist_2_joint": 1.472756589071564,
            "wrist_3_joint": -3.1238370188695823
        }
    },
    "waypoints": [
        {
            "positions": [
                -1.6717766225146293,
                -1.4165861575791021,
                1.9565354010623817,
                -0.5286633292919765,
                1.472756589071564,
                -3.1238370188695823
            ]
        },
        {
            "positions": [
                -1.7223067305371027,
                -1.4975216402896967,
                2.0062464394319717,
                -0.5877453481864797,
                1.402793894287201,
                -3.050650313146317
            ]
        },
        {
            "positions": [
                -1.7728368385595759,
                -1.5784571230002913,
                2.0559574778015612,
                -0.646827367080983,
                1.3328311995028377,
                -2.977463607423051
            ]
        },
        {
            "positions": [
                -1.8233669465820492,
                -1.6593926057108859,
                2.105668516171151,
                -0.7059093859754861,
                1.2628685047184747,
                -2.9042769016997854
            ]
        },
        {
            "positions": [
                -1.8738970546045226,
                -1.7403280884214807,
                2.155379554540741,
                -0.7649914048699894,
                1.1929058099341114,
                -2.83109019597652
            ]
        },
        {
            "positions": [
                -1.9244271626269958,
                -1.821263571132075,
                2.205090592910331,
                -0.8240734237644927,
                1.1229431151497484,
                -2.7579034902532547
            ]
        },
        {
            "positions": [
                -1.9749572706494691,
                -1.9021990538426699,
                2.2548016312799204,
                -0.8831554426589958,
                1.0529804203653854,
                -2.684716784529989
            ]
        },
        {
            "positions": [
                -2.0254873786719423,
                -1.9831345365532644,
                2.30451266964951,
                -0.9422374615534991,
                0.9830177255810222,
                -2.611530078806723
            ]
        },
        {
            "positions": [
                -2.0760174866944157,
                -2.064070019263859,
                2.3542237080191,
                -1.0013194804480023,
                0.9130550307966591,
                -2.5383433730834577
            ]
        },
        {
            "positions": [
                -2.1626261695649283,
                -1.9670056104266194,
                2.3225991459830184,
                -1.0038769584473133,
                0.8513504119931066,
                -2.596846602154337
            ]
        },
        {
            "positions": [
                -2.249234852435441,
                -1.86994120158938,
                2.290974583946937,
                -1.0064344364466242,
                0.789645793189554,
                -2.6553498312252164
            ]
        },
        {
            "positions": [
                -2.335843535305954,
                -1.7728767927521403,
                2.2593500219108558,
                -1.0089919144459354,
                0.7279411743860015,
                -2.7138530602960955
            ]
        },
        {
            "positions": [
                -2.4224522181764665,
                -1.6758123839149008,
                2.227725459874774,
                -1.0115493924452463,
                0.6662365555824489,
                -2.772356289366975
            ]
        },
        {
            "positions": [
                -2.509060901046979,
                -1.5787479750776612,
                2.1961008978386927,
                -1.0141068704445573,
                0.6045319367788964,
                -2.830859518437854
            ]
        },
        {
            "positions": [
                -2.4972874769441704,
                -1.440348121788425,
                2.1345815576731932,
                -0.9594222635925057,
                0.6250611306046755,
                -2.930852111637699
            ]
        },
        {
            "positions": [
                -2.4855140528413613,
                -1.3019482684991892,
                2.073062217507694,
                -0.9047376567404543,
                0.6455903244304545,
                -3.030844704837544
            ]
        },
        {
            "positions": [
                -2.4737406287385526,
                -1.1635484152099531,
                2.0115428773421944,
                -0.8500530498884027,
                0.6661195182562336,
                -3.1308372980373886
            ]
        }
    ]
}