{
    "goal": {
        "global_pose": {
            "orientation": {
                "w": 0.7031023480610252,
                "x": -0.7110244013736278,
                "y": 0.0077485991402295624,
                "z": 0.005598929693374583
            },
            "position": {
                "x": -0.8841497679147869,
                "y": 0.44412534475326537,
                "z": 0.3711530566215515
            }
        },
        "name": "move_to_auspresseinheit_D"
    },
    "id": "FMT_move_to_auspresseinheit_D_131",
    "joint_names": [
        "shoulder_pan_joint",
        "shoulder_lift_joint",
        "elbow_joint",
        "wrist_1_joint",
        "wrist_2_joint",
        "wrist_3_joint"
    ],
    "metrics": {
        "cart_traj_len": 0.3428311893937051,
        "distance_elbow_joint": 0.6338800559671833,
        "distance_shoulder_lift_joint": 0.11878489199097508,
        "distance_shoulder_pan_joint": 0.13405369181156546,
        "distance_wrist_1_joint": 0.5235119236469439,
        "distance_wrist_2_joint": 1.4362178966977517,
        "distance_wrist_3_joint": 0.0047271026869877275,
        "smoothness": 0.0,
        "time": 0.403845782,
        "traj_len": 1.6885424373705882,
        "weighted_distance": 2.195531732524055
    },
    "planner": "FMT",
    "start": {
        "state": {
            "elbow_joint": -1.8275523626775212,
            "shoulder_lift_joint": -2.126789852344167,
            "shoulder_pan_joint": -0.03513704404078235,
            "wrist_1_joint": -2.347782403156801,
            "wrist_2_joint": -1.6058999987535132,
            "wrist_3_joint": -3.0880379163319196
        }
    },
    "waypoints": [
        {
            "positions": [
                -0.03513704404078235,
                -2.126789852344167,
                -1.8275523626775212,
                -2.347782403156801,
                -1.6058999987535132,
                -3.0880379163319196
            ]
        },
        {
            "positions": [
                -0.05189375551722803,
                -2.1416379638430385,
                -1.7483173556816234,
                -2.4132213936126687,
                -1.4263727616662942,
                -3.088628804167793
            ]
        },
        {
            "positions": [
                -0.06865046699367372,
                -2.1564860753419106,
                -1.6690823486857254,
                -2.4786603840685366,
                -1.2468455245790753,
                -3.0892196920036668
            ]
        },
        {
            "positions": [
                -0.08540717847011939,
                -2.1713341868407827,
                -1.5898473416898273,
                -2.544099374524405,
                -1.0673182874918563,
                -3.08981057983954
            ]
        },
        {
            "positions": [
                -0.10216388994656508,
                -2.1861822983396544,
                -1.5106123346939295,
                -2.609538364980273,
                -0.8877910504046373,
                -3.0904014676754135
            ]
        },
        {
            "positions": [
                -0.11892060142301075,
                -2.201030409838526,
                -1.4313773276980317,
                -2.6749773554361407,
                -0.7082638133174184,
                -3.090992355511287
            ]
        },
        {
            "positions": [
                -0.13567731289945645,
                -2.215878521337398,
                -1.3521423207021337,
                -2.740416345892009,
                -0.5287365762301994,
                -3.09158324334716
            ]
        },
        {
            "positions": [
                -0.15243402437590212,
                -2.2307266328362703,
                -1.2729073137062357,
                -2.805855336347877,
                -0.34920933914298047,
                -3.0921741311830337
            ]
        },
        {
            "positions": [
                -0.1691907358523478,
                -2.245574744335142,
                -1.1936723067103379,
                -2.8712943268037447,
                -0.16968210205576145,
                -3.0927650190189073
            ]
        }
    ]
}