{
    "goal": {
        "global_pose": {
            "orientation": {
                "w": -0.4816463035849501,
                "x": 0.5182115481033762,
                "y": 0.4908360881923453,
                "z": -0.5084816262002911
            },
            "position": {
                "x": -0.8240239810943604,
                "y": 0.19912469901144506,
                "z": 0.16403168439865112
            }
        },
        "name": "move_to_storage_D"
    },
    "id": "FMT_move_to_storage_D_86",
    "joint_names": [
        "shoulder_pan_joint",
        "shoulder_lift_joint",
        "elbow_joint",
        "wrist_1_joint",
        "wrist_2_joint",
        "wrist_3_joint"
    ],
    "metrics": {
        "cart_traj_len": 0.5178734475604958,
        "distance_elbow_joint": 0.5970108136783139,
        "distance_shoulder_lift_joint": 0.15302592348535926,
        "distance_shoulder_pan_joint": 0.15085631517478698,
        "distance_wrist_1_joint": 3.8324527312872063,
        "distance_wrist_2_joint": 1.7806008867087497,
        "distance_wrist_3_joint": 3.1175371072933498,
        "smoothness": 0.013251361162309957,
        "time": 1.404902082,
        "traj_len": 3.103463190957445,
        "weighted_distance": 4.63461018967188
    },
    "planner": "FMT",
    "start": {
        "state": {
            "elbow_joint": -2.384821988534728,
            "shoulder_lift_joint": -2.2788054721415256,
            "shoulder_pan_joint": -0.1854694642142757,
            "wrist_1_joint": 1.4845938289331202,
            "wrist_2_joint": 0.17898776772866878,
            "wrist_3_joint": 0.037105688729662994
        }
    },
    "waypoints": [
        {
            "positions": [
                -0.1854694642142757,
                -2.2788054721415256,
                -2.384821988534728,
                1.4845938289331202,
                0.17898776772866878,
                0.037105688729662994
            ]
        },
        {
            "positions": [
                -0.16850917962054107,
                -2.268277152313024,
                -2.3888263706041912,
                1.390892738833357,
                0.0998641121216641,
                -0.1127582435768808
            ]
        },
        {
            "positions": [
                -0.15154889502680646,
                -2.2577488324845225,
                -2.3928307526736545,
                1.2971916487335937,
                0.020740456514659417,
                -0.2626221758834246
            ]
        },
        {
            "positions": [
                -0.13458861043307183,
                -2.2472205126560207,
                -2.3968351347431183,
                1.2034905586338305,
                -0.05838319909234521,
                -0.41248610818996834
            ]
        },
        {
            "positions": [
                -0.1176283258393372,
                -2.2366921928275194,
                -2.4008395168125816,
                1.1097894685340672,
                -0.13750685469934995,
                -0.5623500404965122
            ]
        },
        {
            "positions": [
                -0.10066804124560258,
                -2.2261638729990176,
                -2.404843898882045,
                1.016088378434304,
                -0.2166305103063546,
                -0.7122139728030559
            ]
        },
        {
            "positions": [
                -0.09736529663529689,
                -2.221144656781875,
                -2.375994453715495,
                0.8478910143948845,
                -0.28587964074004096,
                -0.8306248450910874
            ]
        },
        {
            "positions": [
                -0.0940625520249912,
                -2.2161254405647326,
                -2.3471450085489454,
                0.6796936503554649,
                -0.3551287711737273,
                -0.949035717379119
            ]
        },
        {
            "positions": [
                -0.09075980741468549,
                -2.21110622434759,
                -2.3182955633823954,
                0.5114962863160455,
                -0.4243779016074136,
                -1.0674465896671506
            ]
        },
        {
            "positions": [
                -0.0874570628043798,
                -2.2060870081304476,
                -2.2894461182158454,
                0.34329892227662584,
                -0.4936270320411,
                -1.185857461955182
            ]
        },
        {
            "positions": [
                -0.08415431819407411,
                -2.201067791913305,
                -2.2605966730492955,
                0.1751015582372064,
                -0.5628761624747862,
                -1.3042683342432135
            ]
        },
        {
            "positions": [
                -0.08085157358376842,
                -2.196048575696162,
                -2.231747227882746,
                0.006904194197786984,
                -0.6321252929084726,
                -1.422679206531245
            ]
        },
        {
            "positions": [
                -0.07754882897346273,
                -2.1910293594790198,
                -2.202897782716196,
                -0.16129316984163244,
                -0.7013744233421589,
                -1.5410900788192765
            ]
        },
        {
            "positions": [
                -0.07424608436315702,
                -2.186010143261877,
                -2.174048337549646,
                -0.3294905338810523,
                -0.7706235537758453,
                -1.6595009511073082
            ]
        },
        {
            "positions": [
                -0.07094333975285133,
                -2.1809909270447347,
                -2.145198892383096,
                -0.49768789792047174,
                -0.8398726842095317,
                -1.7779118233953397
            ]
        },
        {
            "positions": [
                -0.06764059514254564,
                -2.175971710827592,
                -2.1163494472165465,
                -0.6658852619598912,
                -0.909121814643218,
                -1.8963226956833712
            ]
        },
        {
            "positions": [
                -0.06433785053223995,
                -2.1709524946104493,
                -2.0875000020499965,
                -0.8340826259993108,
                -0.9783709450769044,
                -2.014733567971403
            ]
        },
        {
            "positions": [
                -0.06103510592193425,
                -2.165933278393307,
                -2.0586505568834466,
                -1.00227999003873,
                -1.0476200755105904,
                -2.133144440259434
            ]
        },
        {
            "positions": [
                -0.05773236131162856,
                -2.160914062176164,
                -2.029801111716897,
                -1.1704773540781497,
                -1.116869205944277,
                -2.251555312547466
            ]
        },
        {
            "positions": [
                -0.05442961670132287,
                -2.155894845959022,
                -2.000951666550347,
                -1.3386747181175689,
                -1.1861183363779633,
                -2.369966184835497
            ]
        },
        {
            "positions": [
                -0.05112687209101717,
                -2.150875629741879,
                -1.972102221383797,
                -1.5068720821569885,
                -1.2553674668116497,
                -2.488377057123529
            ]
        },
        {
            "positions": [
                -0.04782412748071147,
                -2.1458564135247364,
                -1.9432527762172473,
                -1.6750694461964086,
                -1.324616597245336,
                -2.606787929411561
            ]
        },
        {
            "positions": [
                -0.04452138287040578,
                -2.140837197307594,
                -1.9144033310506976,
                -1.8432668102358278,
                -1.3938657276790223,
                -2.725198801699592
            ]
        },
        {
            "positions": [
                -0.04121863826010009,
                -2.1358179810904514,
                -1.8855538858841476,
                -2.0114641742752477,
                -1.4631148581127087,
                -2.8436096739876238
            ]
        },
        {
            "positions": [
                -0.03791589364979439,
                -2.130798764873309,
                -1.8567044407175977,
                -2.179661538314667,
                -1.5323639885463949,
                -2.962020546275655
            ]
        },
        {
            "positions": [
                -0.03461314903948871,
                -2.1257795486561664,
                -1.827854995551048,
                -2.3478589023540866,
                -1.6016131189800813,
                -3.0804314185636867
            ]
        }
    ]
}