{
    "goal": {
        "global_pose": {
            "orientation": {
                "w": 0.7047431493862688,
                "x": -0.7094548369677653,
                "y": 0.0024358444001904,
                "z": -0.0022348060817251984
            },
            "position": {
                "x": -0.39052492380142206,
                "y": 0.3671506643295288,
                "z": 0.19426114857196808
            }
        },
        "name": "move_to_magneteinheit_D"
    },
    "id": "FMT_move_to_magneteinheit_D_17",
    "joint_names": [
        "shoulder_pan_joint",
        "shoulder_lift_joint",
        "elbow_joint",
        "wrist_1_joint",
        "wrist_2_joint",
        "wrist_3_joint"
    ],
    "metrics": {
        "cart_traj_len": 4.970611239738037,
        "distance_elbow_joint": 3.7161731209032833,
        "distance_shoulder_lift_joint": 1.6297546805011651,
        "distance_shoulder_pan_joint": 3.930648343199535,
        "distance_wrist_1_joint": 1.9619499839923524,
        "distance_wrist_2_joint": 1.2005941216310765,
        "distance_wrist_3_joint": 4.239912020787421,
        "smoothness": 0.5558740419659151,
        "time": 1.475645499,
        "traj_len": 4.083997094883251,
        "weighted_distance": 5.321785453981879
    },
    "planner": "FMT",
    "start": {
        "state": {
            "elbow_joint": 0.749534889911806,
            "shoulder_lift_joint": -0.6476975780787326,
            "shoulder_pan_joint": -2.711696901376241,
            "wrist_1_joint": -0.07506478083263063,
            "wrist_2_joint": 0.43296659715538205,
            "wrist_3_joint": -3.14703540197715
        }
    },
    "waypoints": [
        {
            "positions": [
                -2.711696901376241,
                -0.6476975780787326,
                0.749534889911806,
                -0.07506478083263063,
                0.43296659715538205,
                -3.14703540197715
            ]
        },
        {
            "positions": [
                -2.789625075280999,
                -0.6757905869342766,
                0.6582644788975178,
                -0.06037734399995757,
                0.5277054029419224,
                -3.0680262015069895
            ]
        },
        {
            "positions": [
                -2.8675532491857565,
                -0.7038835957898207,
                0.5669940678832296,
                -0.04568990716728451,
                0.6224442087284627,
                -2.989017001036829
            ]
        },
        {
            "positions": [
                -2.945481423090514,
                -0.7319766046453647,
                0.4757236568689414,
                -0.031002470334611447,
                0.7171830145150031,
                -2.9100078005666683
            ]
        },
        {
            "positions": [
                -3.023409596995272,
                -0.7600696135009088,
                0.38445324585465324,
                -0.01631503350193838,
                0.8119218203015435,
                -2.8309986000965077
            ]
        },
        {
            "positions": [
                -3.1013377709000296,
                -0.7881626223564528,
                0.29318283484036506,
                -0.0016275966692653188,
                0.9066606260880838,
                -2.751989399626347
            ]
        },
        {
            "positions": [
                -2.9787666756928526,
                -0.8279912847072203,
                0.2189280452103941,
                0.023499823500732975,
                0.895989668874814,
                -2.632558130864536
            ]
        },
        {
            "positions": [
                -2.8561955804856756,
                -0.8678199470579877,
                0.14467325558042318,
                0.04862724367073127,
                0.8853187116615443,
                -2.5131268621027245
            ]
        },
        {
            "positions": [
                -2.733624485278498,
                -0.9076486094087551,
                0.07041846595045226,
                0.07375466384072955,
                0.8746477544482745,
                -2.3936955933409134
            ]
        },
        {
            "positions": [
                -2.611053390071321,
                -0.9474772717595226,
                -0.003836323679518694,
                0.09888208401072786,
                0.8639767972350046,
                -2.274264324579102
            ]
        },
        {
            "positions": [
                -2.488482294864144,
                -0.98730593411029,
                -0.07809111330948965,
                0.12400950418072615,
                0.8533058400217349,
                -2.154833055817291
            ]
        },
        {
            "positions": [
                -2.365911199656967,
                -1.0271345964610574,
                -0.15234590293946054,
                0.14913692435072443,
                0.8426348828084651,
                -2.0354017870554797
            ]
        },
        {
            "positions": [
                -2.24334010444979,
                -1.0669632588118247,
                -0.22660069256943155,
                0.17426434452072276,
                0.8319639255951953,
                -1.9159705182936682
            ]
        },
        {
            "positions": [
                -2.1207690092426126,
                -1.1067919211625923,
                -0.30085548219940245,
                0.19939176469072104,
                0.8212929683819254,
                -1.796539249531857
            ]
        },
        {
            "positions": [
                -1.9981979140354358,
                -1.1466205835133596,
                -0.37511027182937334,
                0.2245191848607193,
                0.8106220111686557,
                -1.677107980770046
            ]
        },
        {
            "positions": [
                -1.8756268188282585,
                -1.1864492458641271,
                -0.44936506145934435,
                0.24964660503071762,
                0.7999510539553859,
                -1.5576767120082347
            ]
        },
        {
            "positions": [
                -1.7530557236210815,
                -1.2262779082148945,
                -0.5236198510893153,
                0.2747740252007159,
                0.7892800967421161,
                -1.4382454432464233
            ]
        },
        {
            "positions": [
                -1.6304846284139043,
                -1.266106570565662,
                -0.5978746407192861,
                0.29990144537071417,
                0.7786091395288464,
                -1.3188141744846122
            ]
        },
        {
            "positions": [
                -1.5079135332067273,
                -1.3059352329164295,
                -0.6721294303492571,
                0.32502886554071253,
                0.7679381823155765,
                -1.1993829057228007
            ]
        },
        {
            "positions": [
                -1.38534243799955,
                -1.3457638952671969,
                -0.7463842199792281,
                0.35015628571071084,
                0.7572672251023067,
                -1.0799516369609894
            ]
        },
        {
            "positions": [
                -1.262771342792373,
                -1.3855925576179642,
                -0.8206390096091989,
                0.3752837058807091,
                0.746596267889037,
                -0.9605203681991783
            ]
        },
        {
            "positions": [
                -1.1402002475851958,
                -1.4254212199687317,
                -0.8948937992391699,
                0.4004111260507074,
                0.7359253106757672,
                -0.841089099437367
            ]
        },
        {
            "positions": [
                -1.0176291523780185,
                -1.4652498823194993,
                -0.9691485888691409,
                0.4255385462207057,
                0.7252543534624973,
                -0.7216578306755559
            ]
        },
        {
            "positions": [
                -0.895058057170842,
                -1.5050785446702664,
                -1.0434033784991117,
                0.45066596639070394,
                0.7145833962492276,
                -0.6022265619137448
            ]
        },
        {
            "positions": [
                -0.7724869619636645,
                -1.544907207021034,
                -1.1176581681290827,
                0.47579338656070225,
                0.7039124390359578,
                -0.48279529315193326
            ]
        },
        {
            "positions": [
                -0.6499158667564875,
                -1.5847358693718014,
                -1.1919129577590537,
                0.5009208067307005,
                0.693241481822688,
                -0.36336402439012216
            ]
        },
        {
            "positions": [
                -0.5273447715493105,
                -1.6245645317225688,
                -1.2661677473890245,
                0.5260482269006987,
                0.6825705246094182,
                -0.24393275562831107
            ]
        },
        {
            "positions": [
                -0.40477367634213346,
                -1.664393194073336,
                -1.3404225370189955,
                0.5511756470706972,
                0.6718995673961484,
                -0.12450148686649953
            ]
        },
        {
            "positions": [
                -0.282202581134956,
                -1.7042218564241036,
                -1.4146773266489665,
                0.5763030672406955,
                0.6612286101828786,
                -0.005070218104687996
            ]
        },
        {
            "positions": [
                -0.15963148592777898,
                -1.7440505187748712,
                -1.4889321162789373,
                0.6014304874106937,
                0.6505576529696089,
                0.11436105065712265
            ]
        },
        {
            "positions": [
                -0.037060390720601966,
                -1.7838791811256385,
                -1.5631869059089083,
                0.626557907580692,
                0.639886695756339,
                0.2337923194189344
            ]
        },
        {
            "positions": [
                -0.018870054515985803,
                -1.8368008277157222,
                -1.6872374495892584,
                0.7424606906680501,
                0.6085198693708438,
                0.27315407250012436
            ]
        },
        {
            "positions": [
                -0.0006797183113696412,
                -1.889722474305806,
                -1.8112879932696082,
                0.8583634737554082,
                0.5771530429853485,
                0.3125158255813143
            ]
        },
        {
            "positions": [
                0.017510617893246518,
                -1.9426441208958898,
                -1.935338536949958,
                0.9742662568427662,
                0.5457862165998533,
                0.3518775786625042
            ]
        },
        {
            "positions": [
                0.03570095409786268,
                -1.9955657674859735,
                -2.059389080630308,
                1.0901690399301245,
                0.514419390214358,
                0.39123933174369413
            ]
        },
        {
            "positions": [
                0.05389129030247884,
                -2.048487414076057,
                -2.183439624310658,
                1.2060718230174827,
                0.48305256382886275,
                0.4306010848248841
            ]
        },
        {
            "positions": [
                0.072081626507095,
                -2.101409060666141,
                -2.3074901679910083,
                1.3219746061048405,
                0.4516857374433675,
                0.46996283790607396
            ]
        },
        {
            "positions": [
                0.09027196271171117,
                -2.154330707256225,
                -2.4315407116713583,
                1.4378773891921988,
                0.4203189110578722,
                0.5093245909872639
            ]
        },
        {
            "positions": [
                0.10846229891632733,
                -2.2072523538463087,
                -2.555591255351708,
                1.553780172279557,
                0.38895208467237696,
                0.5486863440684538
            ]
        },
        {
            "positions": [
                0.1266526351209435,
                -2.2601740004363924,
                -2.679641799032058,
                1.669682955366915,
                0.3575852582868817,
                0.5880480971496438
            ]
        },
        {
            "positions": [
                0.04839836820725041,
                -2.264493564972269,
                -2.607892691042203,
                1.6153823934187133,
                0.3131290770625886,
                0.4618409667344865
            ]
        },
        {
            "positions": [
                -0.029855898706442674,
                -2.2688131295081453,
                -2.5361435830523487,
                1.5610818314705117,
                0.2686728958382955,
                0.33563383631932925
            ]
        },
        {
            "positions": [
                -0.10811016562013576,
                -2.2731326940440213,
                -2.4643944750624938,
                1.50678126952231,
                0.2242167146140024,
                0.209426705904172
            ]
        },
        {
            "positions": [
                -0.18636443253382884,
                -2.2774522585798977,
                -2.392645367072639,
                1.4524807075741082,
                0.1797605333897093,
                0.08321957548901475
            ]
        }
    ]
}