{
    "goal": {
        "global_pose": {
            "orientation": {
                "w": 0.7031023480610252,
                "x": -0.7110244013736278,
                "y": 0.0077485991402295624,
                "z": 0.005598929693374583
            },
            "position": {
                "x": -0.8841497679147869,
                "y": 0.44412534475326537,
                "z": 0.3711530566215515
            }
        },
        "name": "move_to_auspresseinheit_D"
    },
    "id": "FMT_move_to_auspresseinheit_D_91",
    "joint_names": [
        "shoulder_pan_joint",
        "shoulder_lift_joint",
        "elbow_joint",
        "wrist_1_joint",
        "wrist_2_joint",
        "wrist_3_joint"
    ],
    "metrics": {
        "cart_traj_len": 0.34224118448747054,
        "distance_elbow_joint": 0.6378232828784443,
        "distance_shoulder_lift_joint": 0.12130968413369203,
        "distance_shoulder_pan_joint": 0.13317182289645693,
        "distance_wrist_1_joint": 0.5373407143849458,
        "distance_wrist_2_joint": 1.4313430525774518,
        "distance_wrist_3_joint": 0.0010825744093132528,
        "smoothness": 0.0,
        "time": 0.47300311100000003,
        "traj_len": 1.6917656845084381,
        "weighted_distance": 2.1983903309151738
    },
    "planner": "FMT",
    "start": {
        "state": {
            "elbow_joint": -1.8275523626775212,
            "shoulder_lift_joint": -2.126789852344167,
            "shoulder_pan_joint": -0.03513704404078235,
            "wrist_1_joint": -2.347782403156801,
            "wrist_2_joint": -1.6058999987535132,
            "wrist_3_joint": -3.0880379163319196
        }
    },
    "waypoints": [
        {
            "positions": [
                -0.03513704404078235,
                -2.126789852344167,
                -1.8275523626775212,
                -2.347782403156801,
                -1.6058999987535132,
                -3.0880379163319196
            ]
        },
        {
            "positions": [
                -0.05178352190283947,
                -2.1419535628608783,
                -1.7478244523177158,
                -2.414949992454919,
                -1.4269821171813317,
                -3.0881732381330838
            ]
        },
        {
            "positions": [
                -0.06842999976489658,
                -2.15711727337759,
                -1.6680965419579101,
                -2.4821175817530374,
                -1.2480642356091503,
                -3.088308559934248
            ]
        },
        {
            "positions": [
                -0.0850764776269537,
                -2.1722809838943014,
                -1.5883686315981045,
                -2.5492851710511557,
                -1.0691463540369688,
                -3.088443881735412
            ]
        },
        {
            "positions": [
                -0.10172295548901081,
                -2.187444694411013,
                -1.508640721238299,
                -2.616452760349274,
                -0.8902284724647873,
                -3.0885792035365762
            ]
        },
        {
            "positions": [
                -0.11836943335106792,
                -2.2026084049277244,
                -1.4289128108784936,
                -2.683620349647392,
                -0.7113105908926058,
                -3.0887145253377404
            ]
        },
        {
            "positions": [
                -0.13501591121312506,
                -2.217772115444436,
                -1.349184900518688,
                -2.75078793894551,
                -0.5323927093204244,
                -3.0888498471389045
            ]
        },
        {
            "positions": [
                -0.15166238907518217,
                -2.2329358259611474,
                -1.2694569901588824,
                -2.8179555282436284,
                -0.3534748277482429,
                -3.0889851689400687
            ]
        },
        {
            "positions": [
                -0.1683088669372393,
                -2.248099536477859,
                -1.189729079799077,
                -2.8851231175417467,
                -0.17455694617606135,
                -3.089120490741233
            ]
        }
    ]
}