{
    "goal": {
        "global_pose": {
            "orientation": {
                "w": 0.7047431468963623,
                "x": -0.7094548344612122,
                "y": 0.0024358443915843964,
                "z": -0.0022348060738295317
            },
            "position": {
                "x": 0.6094750761985779,
                "y": 0.3671506643295288,
                "z": 0.19426114857196808
            }
        },
        "name": "move_to_magneteinheit_A"
    },
    "id": "FMT_move_to_magneteinheit_A_145",
    "joint_names": [
        "shoulder_pan_joint",
        "shoulder_lift_joint",
        "elbow_joint",
        "wrist_1_joint",
        "wrist_2_joint",
        "wrist_3_joint"
    ],
    "metrics": {
        "cart_traj_len": 3.3473705666423905,
        "distance_elbow_joint": 3.8766472245129657,
        "distance_shoulder_lift_joint": 0.11279377163172666,
        "distance_shoulder_pan_joint": 2.7180160119496177,
        "distance_wrist_1_joint": 0.9948608145951027,
        "distance_wrist_2_joint": 1.6932326482468179,
        "distance_wrist_3_joint": 2.584881533287988,
        "smoothness": 0.048971322266888453,
        "time": 1.252560741,
        "traj_len": 3.4612760658786255,
        "weighted_distance": 4.454019368350583
    },
    "planner": "FMT",
    "start": {
        "state": {
            "elbow_joint": -1.9196185241190666,
            "shoulder_lift_joint": -1.2443396400964142,
            "shoulder_pan_joint": 2.6996025414629847,
            "wrist_1_joint": -1.5485510000780065,
            "wrist_2_joint": -1.5709468930060704,
            "wrist_3_joint": 0.4420197071253992
        }
    },
    "waypoints": [
        {
            "positions": [
                2.6996025414629847,
                -1.2443396400964142,
                -1.9196185241190666,
                -1.5485510000780065,
                -1.5709468930060704,
                0.4420197071253992
            ]
        },
        {
            "positions": [
                2.5818821826953826,
                -1.2414645188044997,
                -1.7877785764983423,
                -1.5069557277265633,
                -1.5249717561952842,
                0.4961473868306297
            ]
        },
        {
            "positions": [
                2.464161823927781,
                -1.2385893975125852,
                -1.655938628877618,
                -1.46536045537512,
                -1.478996619384498,
                0.5502750665358602
            ]
        },
        {
            "positions": [
                2.346441465160179,
                -1.2357142762206705,
                -1.5240986812568935,
                -1.4237651830236768,
                -1.4330214825737118,
                0.6044027462410908
            ]
        },
        {
            "positions": [
                2.2287211063925767,
                -1.232839154928756,
                -1.392258733636169,
                -1.3821699106722338,
                -1.3870463457629256,
                0.6585304259463214
            ]
        },
        {
            "positions": [
                2.111000747624975,
                -1.2299640336368416,
                -1.2604187860154445,
                -1.3405746383207906,
                -1.3410712089521393,
                0.7126581056515519
            ]
        },
        {
            "positions": [
                1.993280388857373,
                -1.2270889123449271,
                -1.1285788383947202,
                -1.2989793659693474,
                -1.2950960721413531,
                0.7667857853567823
            ]
        },
        {
            "positions": [
                1.8755600300897708,
                -1.2242137910530124,
                -0.9967388907739958,
                -1.2573840936179042,
                -1.2491209353305668,
                0.8209134650620129
            ]
        },
        {
            "positions": [
                1.757839671322169,
                -1.221338669761098,
                -0.8648989431532712,
                -1.215788821266461,
                -1.2031457985197807,
                0.8750411447672435
            ]
        },
        {
            "positions": [
                1.6401193125545668,
                -1.2184635484691835,
                -0.7330589955325468,
                -1.1741935489150177,
                -1.1571706617089945,
                0.9291688244724741
            ]
        },
        {
            "positions": [
                1.522398953786965,
                -1.215588427177269,
                -0.6012190479118225,
                -1.1325982765635745,
                -1.1111955248982084,
                0.9832965041777045
            ]
        },
        {
            "positions": [
                1.404678595019363,
                -1.2127133058853543,
                -0.4693791002910981,
                -1.0910030042121313,
                -1.065220388087422,
                1.0374241838829352
            ]
        },
        {
            "positions": [
                1.286958236251761,
                -1.2098381845934398,
                -0.3375391526703737,
                -1.0494077318606883,
                -1.019245251276636,
                1.0915518635881656
            ]
        },
        {
            "positions": [
                1.169237877484159,
                -1.2069630633015254,
                -0.20569920504964911,
                -1.0078124595092448,
                -0.9732701144658495,
                1.1456795432933964
            ]
        },
        {
            "positions": [
                1.051517518716557,
                -1.204087942009611,
                -0.07385925742892496,
                -0.9662171871578018,
                -0.9272949776550634,
                1.1998072229986267
            ]
        },
        {
            "positions": [
                0.9337971599489552,
                -1.2012128207176964,
                0.05798069019179941,
                -0.9246219148063587,
                -0.8813198408442773,
                1.253934902703857
            ]
        },
        {
            "positions": [
                0.8160768011813531,
                -1.1983376994257817,
                0.18982063781252423,
                -0.8830266424549154,
                -0.8353447040334909,
                1.3080625824090877
            ]
        },
        {
            "positions": [
                0.6983564424137514,
                -1.1954625781338672,
                0.32166058543324816,
                -0.8414313701034722,
                -0.7893695672227048,
                1.3621902621143183
            ]
        },
        {
            "positions": [
                0.5806360836461488,
                -1.1925874568419528,
                0.453500533053973,
                -0.7998360977520289,
                -0.7433944304119184,
                1.4163179418195488
            ]
        },
        {
            "positions": [
                0.46291572487854715,
                -1.1897123355500383,
                0.5853404806746973,
                -0.7582408254005858,
                -0.6974192936011323,
                1.4704456215247794
            ]
        },
        {
            "positions": [
                0.3451953661109455,
                -1.1868372142581236,
                0.7171804282954217,
                -0.7166455530491427,
                -0.6514441567903462,
                1.52457330123001
            ]
        },
        {
            "positions": [
                0.22747500734334292,
                -1.1839620929662091,
                0.8490203759161461,
                -0.6750502806976993,
                -0.6054690199795598,
                1.5787009809352406
            ]
        },
        {
            "positions": [
                0.10975464857574115,
                -1.1810869716742947,
                0.9808603235368702,
                -0.6334550083462562,
                -0.5594938831687737,
                1.632828660640471
            ]
        },
        {
            "positions": [
                0.09527847141603021,
                -1.1785721234209352,
                1.12740556870961,
                -0.6375662759561951,
                -0.49371118138973474,
                1.7816067833010951
            ]
        },
        {
            "positions": [
                0.0808022942563193,
                -1.1760572751675755,
                1.27395081388235,
                -0.641677543566134,
                -0.4279284796106958,
                1.930384905961719
            ]
        },
        {
            "positions": [
                0.06632611709660836,
                -1.173542426914216,
                1.42049605905509,
                -0.645788811176073,
                -0.36214577783165686,
                2.0791630286223435
            ]
        },
        {
            "positions": [
                0.05184993993689744,
                -1.1710275786608566,
                1.5670413042278297,
                -0.6499000787860119,
                -0.2963630760526179,
                2.2279411512829674
            ]
        },
        {
            "positions": [
                0.06590262202160335,
                -1.1631312366216229,
                1.6450387834610438,
                -0.6625640292707312,
                -0.2126333097939448,
                2.3877331691090515
            ]
        },
        {
            "positions": [
                0.07995530410630927,
                -1.155234894582389,
                1.723036262694258,
                -0.6752279797554506,
                -0.12890354353527164,
                2.5475251869351356
            ]
        },
        {
            "positions": [
                0.09400798619101518,
                -1.1473385525431552,
                1.801033741927472,
                -0.6878919302401699,
                -0.04517377727659855,
                2.7073172047612193
            ]
        },
        {
            "positions": [
                0.1080606682757211,
                -1.1394422105039212,
                1.879031221160686,
                -0.7005558807248893,
                0.03855598898207463,
                2.8671092225873034
            ]
        },
        {
            "positions": [
                0.12211335036042702,
                -1.1315458684646875,
                1.9570287003939002,
                -0.7132198312096086,
                0.12228575524074774,
                3.0269012404133875
            ]
        }
    ]
}