{
    "goal": {
        "global_pose": {
            "orientation": {
                "w": 0.5084816262002911,
                "x": -0.4908360881923452,
                "y": 0.5182115481033761,
                "z": -0.48164630358495003
            },
            "position": {
                "x": 0.5540239810943604,
                "y": -0.46912469901144505,
                "z": 0.16403168439865112
            }
        },
        "name": "move_to_storage_B"
    },
    "id": "FMT_move_to_storage_B_4",
    "joint_names": [
        "shoulder_pan_joint",
        "shoulder_lift_joint",
        "elbow_joint",
        "wrist_1_joint",
        "wrist_2_joint",
        "wrist_3_joint"
    ],
    "metrics": {
        "cart_traj_len": 0.9621930610126382,
        "distance_elbow_joint": 0.3502868930766563,
        "distance_shoulder_lift_joint": 0.4598713913190329,
        "distance_shoulder_pan_joint": 0.6525167777020803,
        "distance_wrist_1_joint": 2.9788794413573583,
        "distance_wrist_2_joint": 2.7105284589215533,
        "distance_wrist_3_joint": 3.140371412559147,
        "smoothness": 0.060609254475558545,
        "time": 1.344358093,
        "traj_len": 3.2081855268883417,
        "weighted_distance": 4.71832651480724
    },
    "planner": "FMT",
    "start": {
        "state": {
            "elbow_joint": 1.664937868594044,
            "shoulder_lift_joint": -0.661644460510453,
            "shoulder_pan_joint": -0.9139846352900073,
            "wrist_1_joint": 2.146753192139373,
            "wrist_2_joint": -2.2341966793290973,
            "wrist_3_joint": 0.005466555786416001
        }
    },
    "waypoints": [
        {
            "positions": [
                -0.9139846352900073,
                -0.661644460510453,
                1.664937868594044,
                2.146753192139373,
                -2.2341966793290973,
                0.005466555786416001
            ]
        },
        {
            "positions": [
                -0.8747484167252959,
                -0.7324107195837075,
                1.7232237954633913,
                2.1137439715926347,
                -2.139503098148479,
                0.08154439509465691
            ]
        },
        {
            "positions": [
                -0.8355121981605845,
                -0.8031769786569619,
                1.781509722332739,
                2.0807347510458962,
                -2.044809516967861,
                0.15762223440289783
            ]
        },
        {
            "positions": [
                -0.7962759795958732,
                -0.8739432377302164,
                1.8397956492020864,
                2.0477255304991573,
                -1.9501159357872426,
                0.23370007371113874
            ]
        },
        {
            "positions": [
                -0.7570397610311617,
                -0.9447094968034708,
                1.8980815760714338,
                2.014716309952419,
                -1.8554223546066244,
                0.3097779130193797
            ]
        },
        {
            "positions": [
                -0.7178035424664503,
                -1.0154757558767253,
                1.9563675029407814,
                1.9817070894056803,
                -1.760728773426006,
                0.3858557523276206
            ]
        },
        {
            "positions": [
                -0.6785673239017389,
                -1.0862420149499799,
                2.014653429810129,
                1.9486978688589416,
                -1.6660351922453878,
                0.4619335916358615
            ]
        },
        {
            "positions": [
                -0.6984292032500157,
                -1.0879217214680517,
                2.014680636089204,
                1.8162776727600403,
                -1.5640177173959666,
                0.5897385619553711
            ]
        },
        {
            "positions": [
                -0.7182910825982924,
                -1.0896014279861232,
                2.0147078423682787,
                1.6838574766611392,
                -1.4620002425465455,
                0.7175435322748807
            ]
        },
        {
            "positions": [
                -0.7381529619465692,
                -1.091281134504195,
                2.014735048647353,
                1.5514372805622378,
                -1.3599827676971243,
                0.8453485025943903
            ]
        },
        {
            "positions": [
                -0.758014841294846,
                -1.0929608410222666,
                2.014762254926428,
                1.4190170844633365,
                -1.2579652928477032,
                0.9731534729139
            ]
        },
        {
            "positions": [
                -0.7778767206431227,
                -1.0946405475403385,
                2.014789461205503,
                1.2865968883644352,
                -1.155947817998282,
                1.1009584432334094
            ]
        },
        {
            "positions": [
                -0.7977385999913994,
                -1.09632025405841,
                2.014816667484578,
                1.154176692265534,
                -1.053930343148861,
                1.228763413552919
            ]
        },
        {
            "positions": [
                -0.8176004793396762,
                -1.0979999605764819,
                2.0148438737636525,
                1.0217564961666328,
                -0.9519128682994398,
                1.3565683838724287
            ]
        },
        {
            "positions": [
                -0.8374623586879529,
                -1.0996796670945537,
                2.0148710800427274,
                0.8893363000677317,
                -0.8498953934500186,
                1.4843733541919384
            ]
        },
        {
            "positions": [
                -0.8573242380362297,
                -1.1013593736126253,
                2.0148982863218023,
                0.7569161039688304,
                -0.7478779186005975,
                1.612178324511448
            ]
        },
        {
            "positions": [
                -0.8771861173845065,
                -1.103039080130697,
                2.0149254926008773,
                0.624495907869929,
                -0.6458604437511763,
                1.7399832948309575
            ]
        },
        {
            "positions": [
                -0.8970479967327832,
                -1.1047187866487687,
                2.0149526988799518,
                0.4920757117710277,
                -0.5438429689017552,
                1.8677882651504674
            ]
        },
        {
            "positions": [
                -0.91690987608106,
                -1.1063984931668405,
                2.0149799051590267,
                0.3596555156721266,
                -0.44182549405233407,
                1.9955932354699768
            ]
        },
        {
            "positions": [
                -0.9367717554293368,
                -1.108078199684912,
                2.0150071114381016,
                0.22723531957322507,
                -0.3398080192029129,
                2.1233982057894862
            ]
        },
        {
            "positions": [
                -0.9566336347776134,
                -1.1097579062029839,
                2.0150343177171766,
                0.09481512347432397,
                -0.23779054435349178,
                2.2512031761089957
            ]
        },
        {
            "positions": [
                -0.9764955141258902,
                -1.1114376127210557,
                2.015061523996251,
                -0.03760507262457735,
                -0.13577306950407064,
                2.3790081464285056
            ]
        },
        {
            "positions": [
                -0.996357393474167,
                -1.1131173192391273,
                2.015088730275326,
                -0.17002526872347823,
                -0.0337555946546495,
                2.506813116748015
            ]
        },
        {
            "positions": [
                -1.0162192728224437,
                -1.114797025757199,
                2.015115936554401,
                -0.30244546482238,
                0.06826188019477164,
                2.634618087067525
            ]
        },
        {
            "positions": [
                -1.0360811521707205,
                -1.1164767322752707,
                2.015143142833476,
                -0.43486566092128087,
                0.17027935504419278,
                2.7624230573870343
            ]
        },
        {
            "positions": [
                -1.0559430315189973,
                -1.1181564387933425,
                2.0151703491125503,
                -0.5672858570201822,
                0.2722968298936139,
                2.8902280277065437
            ]
        },
        {
            "positions": [
                -1.075804910867274,
                -1.119836145311414,
                2.0151975553916253,
                -0.6997060531190835,
                0.37431430474303506,
                3.018032998026053
            ]
        },
        {
            "positions": [
                -1.0956667902155508,
                -1.1215158518294859,
                2.0152247616707,
                -0.8321262492179847,
                0.476331779592456,
                3.145837968345563
            ]
        }
    ]
}