{
    "goal": {
        "global_pose": {
            "orientation": {
                "w": 0.005598929693374612,
                "x": 0.007748599140229565,
                "y": 0.7110244013736278,
                "z": -0.7031023480610252
            },
            "position": {
                "x": -0.8858502320852131,
                "y": -0.7141253447532654,
                "z": 0.3711530566215515
            }
        },
        "name": "move_to_auspresseinheit_C"
    },
    "id": "FMT_move_to_auspresseinheit_C_67",
    "joint_names": [
        "shoulder_pan_joint",
        "shoulder_lift_joint",
        "elbow_joint",
        "wrist_1_joint",
        "wrist_2_joint",
        "wrist_3_joint"
    ],
    "metrics": {
        "cart_traj_len": 0.49238394577276523,
        "distance_elbow_joint": 0.9896605221774479,
        "distance_shoulder_lift_joint": 0.3200056135270808,
        "distance_shoulder_pan_joint": 0.2566134582983324,
        "distance_wrist_1_joint": 0.6608937018310875,
        "distance_wrist_2_joint": 1.3029488267257585,
        "distance_wrist_3_joint": 0.050528966360840144,
        "smoothness": 0.0,
        "time": 0.38334064500000004,
        "traj_len": 1.8922608406138273,
        "weighted_distance": 2.3760369420947716
    },
    "planner": "FMT",
    "start": {
        "state": {
            "elbow_joint": 1.7527959577737207,
            "shoulder_lift_joint": -0.9740617694225068,
            "shoulder_pan_joint": -2.967991417825858,
            "wrist_1_joint": -0.759517768980727,
            "wrist_2_joint": 1.7443932448377408,
            "wrist_3_joint": -3.0840537646736568
        }
    },
    "waypoints": [
        {
            "positions": [
                -2.967991417825858,
                -0.9740617694225068,
                1.7527959577737207,
                -0.759517768980727,
                1.7443932448377408,
                -3.0840537646736568
            ]
        },
        {
            "positions": [
                -2.942330071996025,
                -0.9420612080697987,
                1.653829905555976,
                -0.6934283987976182,
                1.614098362165165,
                -3.089106661309741
            ]
        },
        {
            "positions": [
                -2.9166687261661917,
                -0.9100606467170906,
                1.554863853338231,
                -0.6273390286145095,
                1.4838034794925892,
                -3.094159557945825
            ]
        },
        {
            "positions": [
                -2.891007380336358,
                -0.8780600853643825,
                1.4558978011204862,
                -0.5612496584314007,
                1.3535085968200133,
                -3.0992124545819086
            ]
        },
        {
            "positions": [
                -2.865346034506525,
                -0.8460595240116744,
                1.3569317489027415,
                -0.49516028824829195,
                1.2232137141474375,
                -3.1042653512179927
            ]
        },
        {
            "positions": [
                -2.8396846886766918,
                -0.8140589626589664,
                1.2579656966849968,
                -0.4290709180651832,
                1.0929188314748615,
                -3.109318247854077
            ]
        },
        {
            "positions": [
                -2.8140233428468586,
                -0.7820584013062584,
                1.158999644467252,
                -0.3629815478820745,
                0.9626239488022857,
                -3.114371144490161
            ]
        },
        {
            "positions": [
                -2.7883619970170255,
                -0.7500578399535502,
                1.060033592249507,
                -0.29689217769896575,
                0.8323290661297099,
                -3.119424041126245
            ]
        },
        {
            "positions": [
                -2.762700651187192,
                -0.7180572786008421,
                0.9610675400317623,
                -0.2308028075158569,
                0.702034183457134,
                -3.1244769377623287
            ]
        },
        {
            "positions": [
                -2.7370393053573587,
                -0.686056717248134,
                0.8621014878140175,
                -0.16471343733274824,
                0.5717393007845581,
                -3.129529834398413
            ]
        },
        {
            "positions": [
                -2.7113779595275256,
                -0.654056155895426,
                0.7631354355962727,
                -0.09862406714963942,
                0.4414444181119824,
                -3.134582731034497
            ]
        }
    ]
}