{
    "goal": {
        "global_pose": {
            "orientation": {
                "w": 0.7031023480610252,
                "x": -0.7110244013736278,
                "y": 0.0077485991402295624,
                "z": 0.005598929693374583
            },
            "position": {
                "x": -0.8841497679147869,
                "y": 0.44412534475326537,
                "z": 0.3711530566215515
            }
        },
        "name": "move_to_auspresseinheit_D"
    },
    "id": "FMT_move_to_auspresseinheit_D_40",
    "joint_names": [
        "shoulder_pan_joint",
        "shoulder_lift_joint",
        "elbow_joint",
        "wrist_1_joint",
        "wrist_2_joint",
        "wrist_3_joint"
    ],
    "metrics": {
        "cart_traj_len": 0.3441890497124958,
        "distance_elbow_joint": 0.643060071807499,
        "distance_shoulder_lift_joint": 0.12372776829460896,
        "distance_shoulder_pan_joint": 0.13446419557427672,
        "distance_wrist_1_joint": 0.5338884390308629,
        "distance_wrist_2_joint": 1.4437858091948759,
        "distance_wrist_3_joint": 0.002175186748955227,
        "smoothness": 5.921189480296099e-16,
        "time": 0.503757862,
        "traj_len": 1.6973807677274653,
        "weighted_distance": 2.205249666676027
    },
    "planner": "FMT",
    "start": {
        "state": {
            "elbow_joint": -1.8275523626775212,
            "shoulder_lift_joint": -2.126789852344167,
            "shoulder_pan_joint": -0.03513704404078235,
            "wrist_1_joint": -2.347782403156801,
            "wrist_2_joint": -1.6058999987535132,
            "wrist_3_joint": -3.0880379163319196
        }
    },
    "waypoints": [
        {
            "positions": [
                -0.03513704404078235,
                -2.126789852344167,
                -1.8275523626775212,
                -2.347782403156801,
                -1.6058999987535132,
                -3.0880379163319196
            ]
        },
        {
            "positions": [
                -0.05194506848756694,
                -2.142255823380993,
                -1.7471698537015838,
                -2.414518458035659,
                -1.4254267726041536,
                -3.0883098146755392
            ]
        },
        {
            "positions": [
                -0.06875309293435153,
                -2.157721794417819,
                -1.6667873447256465,
                -2.4812545129145165,
                -1.2449535464547943,
                -3.0885817130191584
            ]
        },
        {
            "positions": [
                -0.08556111738113611,
                -2.173187765454645,
                -1.5864048357497091,
                -2.5479905677933745,
                -1.0644803203054347,
                -3.0888536113627776
            ]
        },
        {
            "positions": [
                -0.1023691418279207,
                -2.1886537364914713,
                -1.5060223267737718,
                -2.614726622672232,
                -0.8840070941560753,
                -3.089125509706397
            ]
        },
        {
            "positions": [
                -0.11917716627470529,
                -2.2041197075282977,
                -1.4256398177978342,
                -2.68146267755109,
                -0.7035338680067158,
                -3.089397408050017
            ]
        },
        {
            "positions": [
                -0.1359851907214899,
                -2.2195856785651236,
                -1.3452573088218969,
                -2.748198732429948,
                -0.5230606418573562,
                -3.089669306393636
            ]
        },
        {
            "positions": [
                -0.1527932151682745,
                -2.2350516496019495,
                -1.2648747998459595,
                -2.8149347873088058,
                -0.3425874157079969,
                -3.089941204737255
            ]
        },
        {
            "positions": [
                -0.16960123961505907,
                -2.250517620638776,
                -1.1844922908700222,
                -2.881670842187664,
                -0.16211418955863735,
                -3.090213103080875
            ]
        }
    ]
}