{
    "goal": {
        "global_pose": {
            "orientation": {
                "w": 0.5084816262002911,
                "x": -0.4908360881923452,
                "y": 0.5182115481033761,
                "z": -0.48164630358495003
            },
            "position": {
                "x": 0.5540239810943604,
                "y": -0.46912469901144505,
                "z": 0.16403168439865112
            }
        },
        "name": "move_to_storage_B"
    },
    "id": "FMT_move_to_storage_B_124",
    "joint_names": [
        "shoulder_pan_joint",
        "shoulder_lift_joint",
        "elbow_joint",
        "wrist_1_joint",
        "wrist_2_joint",
        "wrist_3_joint"
    ],
    "metrics": {
        "cart_traj_len": 0.9004077193498992,
        "distance_elbow_joint": 0.34838273476511183,
        "distance_shoulder_lift_joint": 0.6380344143422552,
        "distance_shoulder_pan_joint": 0.18326225313119793,
        "distance_wrist_1_joint": 2.9767851411212614,
        "distance_wrist_2_joint": 2.6989108886708095,
        "distance_wrist_3_joint": 4.028962215895859,
        "smoothness": 0.12731485513689933,
        "time": 1.408287414,
        "traj_len": 3.2976260624768376,
        "weighted_distance": 4.960640897052545
    },
    "planner": "FMT",
    "start": {
        "state": {
            "elbow_joint": 1.664937868594044,
            "shoulder_lift_joint": -0.661644460510453,
            "shoulder_pan_joint": -0.9139846352900073,
            "wrist_1_joint": 2.146753192139373,
            "wrist_2_joint": -2.2341966793290973,
            "wrist_3_joint": 0.005466555786416001
        }
    },
    "waypoints": [
        {
            "positions": [
                -0.9139846352900073,
                -0.661644460510453,
                1.664937868594044,
                2.146753192139373,
                -2.2341966793290973,
                0.005466555786416001
            ]
        },
        {
            "positions": [
                -0.9246630840626119,
                -0.7020756547641634,
                1.6875157673142367,
                2.0731170157448706,
                -2.1544588136885174,
                -0.038088155414546056
            ]
        },
        {
            "positions": [
                -0.9353415328352166,
                -0.7425068490178739,
                1.7100936660344292,
                1.9994808393503678,
                -2.0747209480479376,
                -0.08164286661550811
            ]
        },
        {
            "positions": [
                -0.9460199816078212,
                -0.7829380432715843,
                1.732671564754622,
                1.925844662955865,
                -1.9949830824073576,
                -0.12519757781647017
            ]
        },
        {
            "positions": [
                -0.9604297285560162,
                -0.8363507461409793,
                1.7629478053944612,
                1.8181137935096914,
                -1.8808865703824107,
                -0.16503734049972907
            ]
        },
        {
            "positions": [
                -0.9748394755042111,
                -0.8897634490103742,
                1.7932240460343005,
                1.7103829240635178,
                -1.7667900583574638,
                -0.20487710318298796
            ]
        },
        {
            "positions": [
                -0.989249222452406,
                -0.943176151879769,
                1.8235002866741397,
                1.6026520546173442,
                -1.6526935463325167,
                -0.24471686586624686
            ]
        },
        {
            "positions": [
                -1.0036589694006008,
                -0.9965888547491639,
                1.853776527313979,
                1.4949211851711706,
                -1.5385970343075699,
                -0.28455662854950575
            ]
        },
        {
            "positions": [
                -1.0180687163487958,
                -1.0500015576185588,
                1.8840527679538182,
                1.387190315724997,
                -1.424500522282623,
                -0.32439639123276465
            ]
        },
        {
            "positions": [
                -1.0324784632969908,
                -1.1034142604879538,
                1.9143290085936573,
                1.2794594462788234,
                -1.3104040102576762,
                -0.36423615391602354
            ]
        },
        {
            "positions": [
                -1.0468882102451857,
                -1.1568269633573487,
                1.9446052492334966,
                1.1717285768326497,
                -1.1963074982327293,
                -0.40407591659928244
            ]
        },
        {
            "positions": [
                -1.0612979571933807,
                -1.2102396662267436,
                1.9748814898733358,
                1.0639977073864761,
                -1.0822109862077824,
                -0.44391567928254133
            ]
        },
        {
            "positions": [
                -1.0631900062053714,
                -1.205532339456956,
                1.9769046011094316,
                0.9643119359986676,
                -1.0007938706525459,
                -0.25551673292323074
            ]
        },
        {
            "positions": [
                -1.0650820552173623,
                -1.2008250126871685,
                1.9789277123455273,
                0.8646261646108591,
                -0.9193767550973093,
                -0.06711778656392009
            ]
        },
        {
            "positions": [
                -1.066974104229353,
                -1.1961176859173808,
                1.980950823581623,
                0.7649403932230504,
                -0.8379596395420728,
                0.1212811597953905
            ]
        },
        {
            "positions": [
                -1.0688661532413437,
                -1.191410359147593,
                1.9829739348177189,
                0.6652546218352419,
                -0.7565425239868362,
                0.30968010615470115
            ]
        },
        {
            "positions": [
                -1.0707582022533346,
                -1.1867030323778056,
                1.9849970460538147,
                0.5655688504474332,
                -0.6751254084315996,
                0.4980790525140117
            ]
        },
        {
            "positions": [
                -1.0726502512653253,
                -1.181995705608018,
                1.9870201572899104,
                0.46588307905962467,
                -0.5937082928763632,
                0.6864779988733223
            ]
        },
        {
            "positions": [
                -1.074542300277316,
                -1.1772883788382305,
                1.9890432685260062,
                0.36619730767181613,
                -0.5122911773211266,
                0.8748769452326328
            ]
        },
        {
            "positions": [
                -1.076434349289307,
                -1.1725810520684428,
                1.991066379762102,
                0.2665115362840076,
                -0.43087406176589005,
                1.0632758915919436
            ]
        },
        {
            "positions": [
                -1.0783263983012976,
                -1.167873725298655,
                1.9930894909981978,
                0.16682576489619905,
                -0.3494569462106535,
                1.2516748379512541
            ]
        },
        {
            "positions": [
                -1.0802184473132883,
                -1.1631663985288676,
                1.9951126022342938,
                0.0671399935083904,
                -0.2680398306554169,
                1.4400737843105647
            ]
        },
        {
            "positions": [
                -1.082110496325279,
                -1.15845907175908,
                1.9971357134703895,
                -0.03254577787941826,
                -0.18662271510018036,
                1.6284727306698756
            ]
        },
        {
            "positions": [
                -1.08400254533727,
                -1.1537517449892922,
                1.9991588247064853,
                -0.1322315492672268,
                -0.1052055995449439,
                1.816871677029186
            ]
        },
        {
            "positions": [
                -1.0858945943492606,
                -1.1490444182195048,
                2.001181935942581,
                -0.23191732065503534,
                -0.023788483989707343,
                2.0052706233884967
            ]
        },
        {
            "positions": [
                -1.0877866433612513,
                -1.144337091449717,
                2.003205047178677,
                -0.3316030920428439,
                0.05762863156552922,
                2.193669569747807
            ]
        },
        {
            "positions": [
                -1.0896786923732422,
                -1.1396297646799294,
                2.0052281584147726,
                -0.4312888634306524,
                0.13904574712076578,
                2.382068516107118
            ]
        },
        {
            "positions": [
                -1.091570741385233,
                -1.134922437910142,
                2.0072512696508684,
                -0.530974634818461,
                0.22046286267600235,
                2.5704674624664285
            ]
        },
        {
            "positions": [
                -1.0934627903972236,
                -1.1302151111403542,
                2.009274380886964,
                -0.6306604062062697,
                0.3018799782312389,
                2.7588664088257393
            ]
        },
        {
            "positions": [
                -1.0953548394092145,
                -1.1255077843705668,
                2.01129749212306,
                -0.730346177594078,
                0.3832970937864755,
                2.9472653551850496
            ]
        },
        {
            "positions": [
                -1.0972468884212052,
                -1.120800457600779,
                2.0133206033591557,
                -0.8300319489818869,
                0.46471420934171204,
                3.1356643015443604
            ]
        }
    ]
}