{
    "goal": {
        "global_pose": {
            "orientation": {
                "w": 0.7047431493862688,
                "x": -0.7094548369677653,
                "y": 0.0024358444001904,
                "z": -0.0022348060817251984
            },
            "position": {
                "x": -0.39052492380142206,
                "y": 0.3671506643295288,
                "z": 0.19426114857196808
            }
        },
        "name": "move_to_magneteinheit_D"
    },
    "id": "FMT_move_to_magneteinheit_D_16",
    "joint_names": [
        "shoulder_pan_joint",
        "shoulder_lift_joint",
        "elbow_joint",
        "wrist_1_joint",
        "wrist_2_joint",
        "wrist_3_joint"
    ],
    "metrics": {
        "cart_traj_len": 5.9342150822633695,
        "distance_elbow_joint": 3.2124490705474984,
        "distance_shoulder_lift_joint": 4.64610404889863,
        "distance_shoulder_pan_joint": 10.271833830541198,
        "distance_wrist_1_joint": 9.863917138440549,
        "distance_wrist_2_joint": 4.360018057112456,
        "distance_wrist_3_joint": 3.670424006637353,
        "smoothness": 0.5547097522773257,
        "time": 1.542722795,
        "traj_len": 6.0020618250879165,
        "weighted_distance": 7.588776539140243
    },
    "planner": "FMT",
    "start": {
        "state": {
            "elbow_joint": 0.749534889911806,
            "shoulder_lift_joint": -0.6476975780787326,
            "shoulder_pan_joint": -2.711696901376241,
            "wrist_1_joint": -0.07506478083263063,
            "wrist_2_joint": 0.43296659715538205,
            "wrist_3_joint": -3.14703540197715
        }
    },
    "waypoints": [
        {
            "positions": [
                -2.711696901376241,
                -0.6476975780787326,
                0.749534889911806,
                -0.07506478083263063,
                0.43296659715538205,
                -3.14703540197715
            ]
        },
        {
            "positions": [
                -2.780954060318519,
                -0.6659700005097835,
                0.7502252664446302,
                0.03136623246101235,
                0.5341033110549622,
                -3.05678202996139
            ]
        },
        {
            "positions": [
                -2.850211219260797,
                -0.6842424229408344,
                0.7509156429774543,
                0.13779724575465532,
                0.6352400249545425,
                -2.9665286579456294
            ]
        },
        {
            "positions": [
                -2.919468378203075,
                -0.7025148453718852,
                0.7516060195102785,
                0.2442282590482983,
                0.7363767388541227,
                -2.8762752859298693
            ]
        },
        {
            "positions": [
                -2.9887255371453527,
                -0.720787267802936,
                0.7522963960431026,
                0.3506592723419413,
                0.8375134527537028,
                -2.786021913914109
            ]
        },
        {
            "positions": [
                -3.0579826960876306,
                -0.7390596902339869,
                0.7529867725759268,
                0.45709028563558435,
                0.9386501666532832,
                -2.6957685418983486
            ]
        },
        {
            "positions": [
                -3.1272398550299085,
                -0.7573321126650377,
                0.7536771491087509,
                0.5635212989292273,
                1.0397868805528632,
                -2.6055151698825885
            ]
        },
        {
            "positions": [
                -3.1964970139721864,
                -0.7756045350960886,
                0.7543675256415752,
                0.6699523122228703,
                1.1409235944524434,
                -2.5152617978668284
            ]
        },
        {
            "positions": [
                -3.0791765195158276,
                -0.810399236402399,
                0.6982977288585173,
                0.7047201286623471,
                1.0637567072600727,
                -2.4513698993437325
            ]
        },
        {
            "positions": [
                -2.9618560250594688,
                -0.8451939377087092,
                0.6422279320754594,
                0.739487945101824,
                0.9865898200677017,
                -2.3874780008206367
            ]
        },
        {
            "positions": [
                -2.8445355306031095,
                -0.8799886390150196,
                0.5861581352924015,
                0.7742557615413008,
                0.9094229328753309,
                -2.3235861022975413
            ]
        },
        {
            "positions": [
                -2.7272150361467506,
                -0.9147833403213299,
                0.5300883385093436,
                0.8090235779807776,
                0.8322560456829601,
                -2.2596942037744454
            ]
        },
        {
            "positions": [
                -2.609894541690392,
                -0.9495780416276403,
                0.4740185417262857,
                0.8437913944202544,
                0.7550891584905892,
                -2.1958023052513496
            ]
        },
        {
            "positions": [
                -2.492574047234033,
                -0.9843727429339506,
                0.4179487449432278,
                0.8785592108597313,
                0.6779222712982185,
                -2.131910406728254
            ]
        },
        {
            "positions": [
                -2.375253552777674,
                -1.019167444240261,
                0.36187894816016997,
                0.9133270272992081,
                0.6007553841058476,
                -2.0680185082051583
            ]
        },
        {
            "positions": [
                -2.257933058321315,
                -1.053962145546571,
                0.305809151377112,
                0.9480948437386849,
                0.5235884969134768,
                -2.0041266096820625
            ]
        },
        {
            "positions": [
                -2.140612563864956,
                -1.0887568468528817,
                0.24973935459405416,
                0.9828626601781618,
                0.446421609721106,
                -1.9402347111589666
            ]
        },
        {
            "positions": [
                -2.023292069408597,
                -1.1235515481591918,
                0.19366955781099626,
                1.0176304766176387,
                0.36925472252873515,
                -1.876342812635871
            ]
        },
        {
            "positions": [
                -1.9059715749522381,
                -1.1583462494655021,
                0.13759976102793836,
                1.0523982930571154,
                0.2920878353363643,
                -1.8124509141127751
            ]
        },
        {
            "positions": [
                -1.7886510804958793,
                -1.1931409507718125,
                0.08152996424488046,
                1.0871661094965923,
                0.21492094814399354,
                -1.7485590155896795
            ]
        },
        {
            "positions": [
                -1.6713305860395204,
                -1.2279356520781228,
                0.025460167461822558,
                1.121933925936069,
                0.13775406095162257,
                -1.6846671170665837
            ]
        },
        {
            "positions": [
                -1.5540100915831616,
                -1.2627303533844332,
                -0.030609629321235232,
                1.156701742375546,
                0.06058717375925182,
                -1.6207752185434883
            ]
        },
        {
            "positions": [
                -1.4366895971268026,
                -1.2975250546907433,
                -0.08667942610429313,
                1.1914695588150228,
                -0.016579713433118926,
                -1.5568833200203924
            ]
        },
        {
            "positions": [
                -1.3193691026704435,
                -1.3323197559970539,
                -0.14274922288735115,
                1.2262373752544997,
                -0.0937466006254899,
                -1.4929914214972966
            ]
        },
        {
            "positions": [
                -1.2020486082140847,
                -1.367114457303364,
                -0.19881901967040894,
                1.2610051916939764,
                -0.17091348781786064,
                -1.429099522974201
            ]
        },
        {
            "positions": [
                -1.0847281137577256,
                -1.4019091586096746,
                -0.25488881645346684,
                1.2957730081334533,
                -0.2480803750102314,
                -1.365207624451105
            ]
        },
        {
            "positions": [
                -0.9674076193013668,
                -1.4367038599159847,
                -0.31095861323652474,
                1.33054082457293,
                -0.32524726220260214,
                -1.3013157259280095
            ]
        },
        {
            "positions": [
                -0.8500871248450079,
                -1.471498561222295,
                -0.36702841001958264,
                1.365308641012407,
                -0.4024141493949731,
                -1.2374238274049136
            ]
        },
        {
            "positions": [
                -0.7375181535458737,
                -1.4296004444454549,
                -0.42002826810501337,
                1.2496542527242918,
                -0.42313625647471587,
                -1.1953683349526816
            ]
        },
        {
            "positions": [
                -0.6249491822467395,
                -1.3877023276686145,
                -0.4730281261904441,
                1.1339998644361768,
                -0.44385836355445857,
                -1.1533128425004493
            ]
        },
        {
            "positions": [
                -0.5123802109476053,
                -1.3458042108917743,
                -0.5260279842758748,
                1.0183454761480617,
                -0.4645804706342013,
                -1.1112573500482172
            ]
        },
        {
            "positions": [
                -0.3998112396484711,
                -1.303906094114934,
                -0.5790278423613056,
                0.9026910878599467,
                -0.48530257771394403,
                -1.069201857595985
            ]
        },
        {
            "positions": [
                -0.28724226834933686,
                -1.2620079773380937,
                -0.6320277004467363,
                0.7870366995718315,
                -0.5060246847936868,
                -1.027146365143753
            ]
        },
        {
            "positions": [
                -0.17467329705020274,
                -1.2201098605612535,
                -0.685027558532167,
                0.6713823112837165,
                -0.5267467918734295,
                -0.9850908726915207
            ]
        },
        {
            "positions": [
                -0.06210432575106839,
                -1.1782117437844133,
                -0.7380274166175979,
                0.5557279229956015,
                -0.5474688989531722,
                -0.9430353802392886
            ]
        },
        {
            "positions": [
                0.050464645548065734,
                -1.136313627007573,
                -0.7910272747030285,
                0.44007353470748645,
                -0.568191006032915,
                -0.9009798877870564
            ]
        },
        {
            "positions": [
                0.16303361684719997,
                -1.0944155102307327,
                -0.8440271327884593,
                0.3244191464193713,
                -0.5889131131126577,
                -0.8589243953348242
            ]
        },
        {
            "positions": [
                0.2756025881463342,
                -1.0525173934538925,
                -0.89702699087389,
                0.20876475813125617,
                -0.6096352201924005,
                -0.8168689028825921
            ]
        },
        {
            "positions": [
                0.38817155944546844,
                -1.010619276677052,
                -0.9500268489593209,
                0.09311036984314103,
                -0.6303573272721432,
                -0.7748134104303599
            ]
        },
        {
            "positions": [
                0.5007405307446025,
                -0.968721159900212,
                -1.0030267070447514,
                -0.02254401844497389,
                -0.6510794343518859,
                -0.7327579179781278
            ]
        },
        {
            "positions": [
                0.6133095020437367,
                -0.9268230431233717,
                -1.0560265651301823,
                -0.13819840673308903,
                -0.6718015414316286,
                -0.6907024255258957
            ]
        },
        {
            "positions": [
                0.7258784733428711,
                -0.8849249263465314,
                -1.109026423215613,
                -0.25385279502120395,
                -0.6925236485113714,
                -0.6486469330736634
            ]
        },
        {
            "positions": [
                0.8384474446420054,
                -0.8430268095696912,
                -1.1620262813010438,
                -0.3695071833093191,
                -0.7132457555911141,
                -0.6065914406214312
            ]
        },
        {
            "positions": [
                0.9510164159411394,
                -0.801128692792851,
                -1.2150261393864743,
                -0.485161571597434,
                -0.7339678626708568,
                -0.5645359481691992
            ]
        },
        {
            "positions": [
                1.0635853872402736,
                -0.7592305760160107,
                -1.2680259974719053,
                -0.6008159598855491,
                -0.7546899697505995,
                -0.522480455716967
            ]
        },
        {
            "positions": [
                1.1761543585394079,
                -0.7173324592391704,
                -1.321025855557336,
                -0.7164703481736643,
                -0.7754120768303423,
                -0.48042496326473483
            ]
        },
        {
            "positions": [
                1.2887233298385423,
                -0.6754343424623301,
                -1.3740257136427667,
                -0.8321247364617794,
                -0.7961341839100851,
                -0.43836947081250266
            ]
        },
        {
            "positions": [
                1.4012923011376763,
                -0.6335362256854898,
                -1.4270255717281974,
                -0.9477791247498946,
                -0.8168562909898278,
                -0.3963139783602705
            ]
        },
        {
            "positions": [
                1.5138612724368108,
                -0.5916381089086497,
                -1.4800254298136282,
                -1.0634335130380097,
                -0.8375783980695706,
                -0.3542584859080383
            ]
        },
        {
            "positions": [
                1.6264302437359448,
                -0.5497399921318094,
                -1.5330252878990591,
                -1.1790879013261248,
                -0.8583005051493133,
                -0.31220299345580615
            ]
        },
        {
            "positions": [
                1.7389992150350788,
                -0.5078418753549693,
                -1.5860251459844896,
                -1.2947422896142395,
                -0.8790226122290559,
                -0.2701475010035741
            ]
        },
        {
            "positions": [
                1.8515681863342128,
                -0.465943758578129,
                -1.6390250040699204,
                -1.4103966779023547,
                -0.8997447193087986,
                -0.22809200855134204
            ]
        },
        {
            "positions": [
                1.9641371576333473,
                -0.4240456418012888,
                -1.692024862155351,
                -1.5260510661904698,
                -0.9204668263885414,
                -0.18603651609910976
            ]
        },
        {
            "positions": [
                2.0767061289324813,
                -0.3821475250244484,
                -1.7450247202407818,
                -1.641705454478585,
                -0.9411889334682841,
                -0.1439810236468777
            ]
        },
        {
            "positions": [
                2.1892751002316158,
                -0.3402494082476082,
                -1.7980245783262125,
                -1.7573598427666997,
                -0.9619110405480269,
                -0.10192553119464542
            ]
        },
        {
            "positions": [
                2.30184407153075,
                -0.2983512914707678,
                -1.8510244364116435,
                -1.8730142310548148,
                -0.9826331476277697,
                -0.059870038742413145
            ]
        },
        {
            "positions": [
                2.4144130428298842,
                -0.2564531746939276,
                -1.9040242944970742,
                -1.98866861934293,
                -1.0033552547075124,
                -0.017814546290181088
            ]
        },
        {
            "positions": [
                2.5269820141290187,
                -0.2145550579170874,
                -1.957024152582505,
                -2.104323007631045,
                -1.0240773617872552,
                0.02424094616205119
            ]
        },
        {
            "positions": [
                2.6395509854281527,
                -0.172656941140247,
                -2.0100240106679355,
                -2.21997739591916,
                -1.044799468866998,
                0.06629643861428325
            ]
        },
        {
            "positions": [
                2.7521199567272867,
                -0.13075882436340702,
                -2.0630238687533664,
                -2.335631784207275,
                -1.0655215759467405,
                0.1083519310665153
            ]
        },
        {
            "positions": [
                2.8646889280264207,
                -0.08886070758656661,
                -2.1160237268387974,
                -2.45128617249539,
                -1.0862436830264832,
                0.15040742351874736
            ]
        },
        {
            "positions": [
                2.977257899325555,
                -0.04696259080972642,
                -2.169023584924228,
                -2.566940560783505,
                -1.106965790106226,
                0.19246291597097964
            ]
        },
        {
            "positions": [
                3.089826870624689,
                -0.005064474032886013,
                -2.2220234430096584,
                -2.6825949490716208,
                -1.1276878971859687,
                0.2345184084232117
            ]
        },
        {
            "positions": [
                3.202395841923823,
                0.036833642743954176,
                -2.2750233010950893,
                -2.7982493373597355,
                -1.1484100042657115,
                0.276573900875444
            ]
        },
        {
            "positions": [
                3.0895907627739505,
                -0.039046270490494944,
                -2.2799056956586856,
                -2.6576969102978403,
                -1.1035940072845538,
                0.26877412830155367
            ]
        },
        {
            "positions": [
                2.976785683624078,
                -0.11492618372494406,
                -2.284788090222282,
                -2.5171444832359455,
                -1.058778010303396,
                0.26097435572766337
            ]
        },
        {
            "positions": [
                2.8639806044742055,
                -0.19080609695939318,
                -2.289670484785878,
                -2.3765920561740503,
                -1.0139620133222382,
                0.25317458315377306
            ]
        },
        {
            "positions": [
                2.751175525324333,
                -0.2666860101938423,
                -2.2945528793494745,
                -2.236039629112155,
                -0.9691460163410804,
                0.24537481057988278
            ]
        },
        {
            "positions": [
                2.63837044617446,
                -0.3425659234282914,
                -2.299435273913071,
                -2.0954872020502604,
                -0.9243300193599226,
                0.2375750380059925
            ]
        },
        {
            "positions": [
                2.5255653670245874,
                -0.41844583666274054,
                -2.304317668476667,
                -1.9549347749883652,
                -0.879514022378765,
                0.2297752654321022
            ]
        },
        {
            "positions": [
                2.4127602878747147,
                -0.4943257498971896,
                -2.3092000630402634,
                -1.81438234792647,
                -0.8346980253976072,
                0.2219754928582119
            ]
        },
        {
            "positions": [
                2.2999552087248425,
                -0.5702056631316388,
                -2.3140824576038592,
                -1.673829920864575,
                -0.7898820284164494,
                0.21417572028432158
            ]
        },
        {
            "positions": [
                2.18715012957497,
                -0.6460855763660879,
                -2.3189648521674555,
                -1.53327749380268,
                -0.7450660314352917,
                0.20637594771043127
            ]
        },
        {
            "positions": [
                2.074345050425097,
                -0.721965489600537,
                -2.323847246731052,
                -1.3927250667407851,
                -0.7002500344541339,
                0.198576175136541
            ]
        },
        {
            "positions": [
                1.9615399712752248,
                -0.7978454028349861,
                -2.328729641294648,
                -1.2521726396788901,
                -0.6554340374729761,
                0.1907764025626507
            ]
        },
        {
            "positions": [
                1.848734892125352,
                -0.8737253160694353,
                -2.3336120358582444,
                -1.111620212616995,
                -0.6106180404918183,
                0.18297662998876038
            ]
        },
        {
            "positions": [
                1.7359298129754794,
                -0.9496052293038844,
                -2.3384944304218407,
                -0.9710677855550998,
                -0.5658020435106605,
                0.1751768574148701
            ]
        },
        {
            "positions": [
                1.6231247338256067,
                -1.0254851425383333,
                -2.343376824985437,
                -0.8305153584932048,
                -0.5209860465295029,
                0.1673770848409798
            ]
        },
        {
            "positions": [
                1.5103196546757343,
                -1.1013650557727825,
                -2.3482592195490333,
                -0.6899629314313098,
                -0.4761700495483451,
                0.1595773122670895
            ]
        },
        {
            "positions": [
                1.3975145755258618,
                -1.1772449690072317,
                -2.3531416141126296,
                -0.5494105043694146,
                -0.4313540525671873,
                0.15177753969319918
            ]
        },
        {
            "positions": [
                1.284709496375989,
                -1.2531248822416807,
                -2.358024008676226,
                -0.4088580773075199,
                -0.3865380555860296,
                0.1439777671193089
            ]
        },
        {
            "positions": [
                1.1719044172261164,
                -1.32900479547613,
                -2.362906403239822,
                -0.2683056502456247,
                -0.3417220586048718,
                0.1361779945454186
            ]
        },
        {
            "positions": [
                1.0590993380762441,
                -1.404884708710579,
                -2.3677887978034184,
                -0.12775322318372995,
                -0.296906061623714,
                0.1283782219715283
            ]
        },
        {
            "positions": [
                0.9462942589263714,
                -1.4807646219450281,
                -2.3726711923670147,
                0.012799203878165244,
                -0.25209006464255634,
                0.12057844939763801
            ]
        },
        {
            "positions": [
                0.8334891797764987,
                -1.556644535179477,
                -2.377553586930611,
                0.15335163094006043,
                -0.20727406766139855,
                0.1127786768237477
            ]
        },
        {
            "positions": [
                0.7206841006266265,
                -1.6325244484139263,
                -2.3824359814942073,
                0.2939040580019552,
                -0.16245807068024076,
                0.1049789042498574
            ]
        },
        {
            "positions": [
                0.6078790214767533,
                -1.7084043616483755,
                -2.387318376057803,
                0.4344564850638508,
                -0.11764207369908286,
                0.09717913167596709
            ]
        },
        {
            "positions": [
                0.4950739423268806,
                -1.7842842748828247,
                -2.3922007706213995,
                0.5750089121257456,
                -0.07282607671792518,
                0.08937935910207678
            ]
        },
        {
            "positions": [
                0.38226886317700837,
                -1.8601641881172737,
                -2.3970831651849958,
                0.7155613391876408,
                -0.0280100797367675,
                0.08157958652818648
            ]
        },
        {
            "positions": [
                0.26946378402713567,
                -1.936044101351723,
                -2.401965559748592,
                0.856113766249536,
                0.0168059172443904,
                0.0737798139542962
            ]
        },
        {
            "positions": [
                0.15665870487726297,
                -2.011924014586172,
                -2.4068479543121883,
                0.9966661933114307,
                0.06162191422554808,
                0.06598004138040589
            ]
        },
        {
            "positions": [
                0.043853625727390266,
                -2.087803927820621,
                -2.4117303488757846,
                1.1372186203733259,
                0.10643791120670576,
                0.058180268806515584
            ]
        },
        {
            "positions": [
                -0.06895145342248199,
                -2.1636838410550703,
                -2.416612743439381,
                1.277771047435221,
                0.15125390818786366,
                0.050380496232625305
            ]
        },
        {
            "positions": [
                -0.18175653257235477,
                -2.2395637542895193,
                -2.421495138002977,
                1.4183234744971163,
                0.1960699051690213,
                0.042580723658735005
            ]
        },
        {
            "positions": [
                -0.18574502012543137,
                -2.2771372190448647,
                -2.389741366829802,
                1.4617364008636373,
                0.17782235350651043,
                0.05540225022678054
            ]
        }
    ]
}