{
    "goal": {
        "global_pose": {
            "orientation": {
                "w": 0.7047431493862688,
                "x": -0.7094548369677653,
                "y": 0.0024358444001904,
                "z": -0.0022348060817251984
            },
            "position": {
                "x": -0.39052492380142206,
                "y": 0.3671506643295288,
                "z": 0.19426114857196808
            }
        },
        "name": "move_to_magneteinheit_D"
    },
    "id": "FMT_move_to_magneteinheit_D_6",
    "joint_names": [
        "shoulder_pan_joint",
        "shoulder_lift_joint",
        "elbow_joint",
        "wrist_1_joint",
        "wrist_2_joint",
        "wrist_3_joint"
    ],
    "metrics": {
        "cart_traj_len": 4.747549878203334,
        "distance_elbow_joint": 3.1243352383020935,
        "distance_shoulder_lift_joint": 1.6327942619842208,
        "distance_shoulder_pan_joint": 3.861084669569087,
        "distance_wrist_1_joint": 1.5921440430161158,
        "distance_wrist_2_joint": 0.3465192421937965,
        "distance_wrist_3_joint": 3.144046015129948,
        "smoothness": 0.22929261048915323,
        "time": 1.463117349,
        "traj_len": 3.701475850278543,
        "weighted_distance": 4.682699946149128
    },
    "planner": "FMT",
    "start": {
        "state": {
            "elbow_joint": 0.749534889911806,
            "shoulder_lift_joint": -0.6476975780787326,
            "shoulder_pan_joint": -2.711696901376241,
            "wrist_1_joint": -0.07506478083263063,
            "wrist_2_joint": 0.43296659715538205,
            "wrist_3_joint": -3.14703540197715
        }
    },
    "waypoints": [
        {
            "positions": [
                -2.711696901376241,
                -0.6476975780787326,
                0.749534889911806,
                -0.07506478083263063,
                0.43296659715538205,
                -3.14703540197715
            ]
        },
        {
            "positions": [
                -2.739950126795458,
                -0.7312280202915837,
                0.6889277244125016,
                -0.019065236829115664,
                0.44300264722107324,
                -3.099525374196058
            ]
        },
        {
            "positions": [
                -2.728991000552106,
                -0.8530233616292864,
                0.6459679538739393,
                0.07443053113317395,
                0.3930149852911796,
                -3.0237284622112828
            ]
        },
        {
            "positions": [
                -2.718031874308754,
                -0.9748187029669889,
                0.6030081833353771,
                0.16792629909546355,
                0.34302732336128594,
                -2.947931550226507
            ]
        },
        {
            "positions": [
                -2.5858864245080624,
                -1.0216359298030446,
                0.5615590223749074,
                0.21774847452996904,
                0.344477838994114,
                -2.8336412984499733
            ]
        },
        {
            "positions": [
                -2.4537409747073706,
                -1.0684531566391002,
                0.5201098614144377,
                0.26757064996447455,
                0.34592835462694205,
                -2.71935104667344
            ]
        },
        {
            "positions": [
                -2.3215955249066784,
                -1.1152703834751558,
                0.4786607004539679,
                0.31739282539898,
                0.3473788702597701,
                -2.605060794896906
            ]
        },
        {
            "positions": [
                -2.1894500751059867,
                -1.1620876103112114,
                0.4372115394934982,
                0.36721500083348546,
                0.3488293858925981,
                -2.4907705431203726
            ]
        },
        {
            "positions": [
                -2.057304625305295,
                -1.2089048371472673,
                0.39576237853302854,
                0.41703717626799097,
                0.35027990152542615,
                -2.3764802913438388
            ]
        },
        {
            "positions": [
                -1.9251591755046031,
                -1.2557220639833229,
                0.3543132175725588,
                0.4668593517024965,
                0.3517304171582542,
                -2.2621900395673054
            ]
        },
        {
            "positions": [
                -1.7930137257039112,
                -1.3025392908193785,
                0.31286405661208905,
                0.516681527137002,
                0.35318093279108226,
                -2.1478997877907715
            ]
        },
        {
            "positions": [
                -1.6608682759032194,
                -1.3493565176554343,
                0.27141489565161936,
                0.5665037025715074,
                0.3546314484239103,
                -2.033609536014238
            ]
        },
        {
            "positions": [
                -1.5287228261025274,
                -1.39617374449149,
                0.22996573469114967,
                0.6163258780060129,
                0.3560819640567383,
                -1.9193192842377043
            ]
        },
        {
            "positions": [
                -1.3965773763018356,
                -1.4429909713275455,
                0.18851657373067993,
                0.6661480534405184,
                0.35753247968956636,
                -1.8050290324611706
            ]
        },
        {
            "positions": [
                -1.2644319265011439,
                -1.489808198163601,
                0.14706741277021024,
                0.7159702288750238,
                0.3589829953223944,
                -1.690738780684637
            ]
        },
        {
            "positions": [
                -1.132286476700452,
                -1.5366254249996567,
                0.1056182518097405,
                0.7657924043095293,
                0.36043351095522247,
                -1.5764485289081034
            ]
        },
        {
            "positions": [
                -1.0001410268997601,
                -1.5834426518357123,
                0.0641690908492708,
                0.8156145797440347,
                0.3618840265880505,
                -1.4621582771315698
            ]
        },
        {
            "positions": [
                -0.8679955770990682,
                -1.6302598786717681,
                0.022719929888801005,
                0.8654367551785404,
                0.3633345422208786,
                -1.347868025355036
            ]
        },
        {
            "positions": [
                -0.7358501272983764,
                -1.677077105507824,
                -0.018729231071668684,
                0.9152589306130458,
                0.36478505785370663,
                -1.2335777735785025
            ]
        },
        {
            "positions": [
                -0.6037046774976846,
                -1.7238943323438796,
                -0.06017839203213837,
                0.9650811060475513,
                0.3662355734865346,
                -1.1192875218019689
            ]
        },
        {
            "positions": [
                -0.47155922769699243,
                -1.7707115591799352,
                -0.10162755299260817,
                1.0149032814820569,
                0.3676860891193627,
                -1.004997270025435
            ]
        },
        {
            "positions": [
                -0.3394137778963007,
                -1.8175287860159908,
                -0.14307671395307775,
                1.0647254569165623,
                0.36913660475219073,
                -0.8907070182489014
            ]
        },
        {
            "positions": [
                -0.2072683280956089,
                -1.8643460128520464,
                -0.18452587491354744,
                1.1145476323510677,
                0.3705871203850188,
                -0.776416766472368
            ]
        },
        {
            "positions": [
                -0.07512287829491715,
                -1.911163239688102,
                -0.22597503587401724,
                1.1643698077855733,
                0.37203763601784684,
                -0.6621265146958342
            ]
        },
        {
            "positions": [
                0.05702257150577461,
                -1.9579804665241576,
                -0.2674241968344869,
                1.2141919832200787,
                0.37348815165067484,
                -0.5478362629193008
            ]
        },
        {
            "positions": [
                0.18916802130646637,
                -2.004797693360213,
                -0.3088733577949566,
                1.264014158654584,
                0.3749386672835029,
                -0.4335460111427669
            ]
        },
        {
            "positions": [
                0.3213134711071586,
                -2.0516149201962692,
                -0.3503225187554264,
                1.3138363340890897,
                0.37638918291633094,
                -0.31925575936623307
            ]
        },
        {
            "positions": [
                0.45345892090785034,
                -2.098432147032325,
                -0.3917716797158961,
                1.3636585095235951,
                0.377839698549159,
                -0.20496550758969967
            ]
        },
        {
            "positions": [
                0.3824119879693434,
                -2.1186610018135057,
                -0.6121081984574951,
                1.3807052598191385,
                0.35542908820688734,
                -0.18252371639608894
            ]
        },
        {
            "positions": [
                0.31136505503083645,
                -2.1388898565946866,
                -0.8324447171990941,
                1.3977520101146819,
                0.3330184778646157,
                -0.16008192520247821
            ]
        },
        {
            "positions": [
                0.24031812209232947,
                -2.159118711375868,
                -1.0527812359406932,
                1.4147987604102252,
                0.31060786752234404,
                -0.1376401340088675
            ]
        },
        {
            "positions": [
                0.1692711891538225,
                -2.1793475661570487,
                -1.2731177546822923,
                1.4318455107057686,
                0.2881972571800724,
                -0.11519834281525675
            ]
        },
        {
            "positions": [
                0.09822425621531555,
                -2.1995764209382296,
                -1.4934542734238914,
                1.4488922610013117,
                0.2657866468378007,
                -0.09275655162164599
            ]
        },
        {
            "positions": [
                0.027177323276808607,
                -2.2198052757194104,
                -1.7137907921654902,
                1.465939011296855,
                0.24337603649552905,
                -0.07031476042803528
            ]
        },
        {
            "positions": [
                -0.043869609661698394,
                -2.2400341305005917,
                -1.9341273109070893,
                1.4829857615923985,
                0.22096542615325737,
                -0.04787296923442452
            ]
        },
        {
            "positions": [
                -0.11491654260020534,
                -2.2602629852817726,
                -2.154463829648688,
                1.5000325118879418,
                0.19855481581098575,
                -0.025431178040813823
            ]
        },
        {
            "positions": [
                -0.18596347553871223,
                -2.2804918400629535,
                -2.3748003483902873,
                1.5170792621834852,
                0.17614420546871407,
                -0.0029893868472030795
            ]
        }
    ]
}