{
    "goal": {
        "global_pose": {
            "orientation": {
                "w": 0.7031023480610252,
                "x": -0.7110244013736278,
                "y": 0.0077485991402295624,
                "z": 0.005598929693374583
            },
            "position": {
                "x": -0.8841497679147869,
                "y": 0.44412534475326537,
                "z": 0.3711530566215515
            }
        },
        "name": "move_to_auspresseinheit_D"
    },
    "id": "FMT_move_to_auspresseinheit_D_36",
    "joint_names": [
        "shoulder_pan_joint",
        "shoulder_lift_joint",
        "elbow_joint",
        "wrist_1_joint",
        "wrist_2_joint",
        "wrist_3_joint"
    ],
    "metrics": {
        "cart_traj_len": 0.3433319513210979,
        "distance_elbow_joint": 0.6331135054899835,
        "distance_shoulder_lift_joint": 0.1180879529180574,
        "distance_shoulder_pan_joint": 0.13464586566542222,
        "distance_wrist_1_joint": 0.5199782519715748,
        "distance_wrist_2_joint": 1.430373951603515,
        "distance_wrist_3_joint": 0.01563864083602029,
        "smoothness": 3.9474596431116675e-16,
        "time": 0.445320064,
        "traj_len": 1.6887386323776017,
        "weighted_distance": 2.1985148745759497
    },
    "planner": "FMT",
    "start": {
        "state": {
            "elbow_joint": -1.8275523626775212,
            "shoulder_lift_joint": -2.126789852344167,
            "shoulder_pan_joint": -0.03513704404078235,
            "wrist_1_joint": -2.347782403156801,
            "wrist_2_joint": -1.6058999987535132,
            "wrist_3_joint": -3.0880379163319196
        }
    },
    "waypoints": [
        {
            "positions": [
                -0.03513704404078235,
                -2.126789852344167,
                -1.8275523626775212,
                -2.347782403156801,
                -1.6058999987535132,
                -3.0880379163319196
            ]
        },
        {
            "positions": [
                -0.05196777724896012,
                -2.141550846458924,
                -1.7484131744912732,
                -2.412779684653248,
                -1.4271032548030738,
                -3.089992746436422
            ]
        },
        {
            "positions": [
                -0.0687985104571379,
                -2.1563118405736814,
                -1.6692739863050252,
                -2.4777769661496944,
                -1.2483065108526343,
                -3.0919475765409246
            ]
        },
        {
            "positions": [
                -0.08562924366531569,
                -2.1710728346884385,
                -1.5901347981187774,
                -2.5427742476461415,
                -1.0695097669021951,
                -3.093902406645427
            ]
        },
        {
            "positions": [
                -0.10245997687349345,
                -2.1858338288031955,
                -1.5109956099325295,
                -2.607771529142588,
                -0.8907130229517557,
                -3.0958572367499295
            ]
        },
        {
            "positions": [
                -0.11929071008167125,
                -2.2005948229179526,
                -1.4318564217462815,
                -2.672768810639035,
                -0.7119162790013163,
                -3.0978120668544324
            ]
        },
        {
            "positions": [
                -0.13612144328984901,
                -2.2153558170327097,
                -1.3527172335600337,
                -2.737766092135482,
                -0.5331195350508771,
                -3.099766896958935
            ]
        },
        {
            "positions": [
                -0.15295217649802678,
                -2.230116811147467,
                -1.2735780453737857,
                -2.8027633736319286,
                -0.35432279110043763,
                -3.1017217270634374
            ]
        },
        {
            "positions": [
                -0.16978290970620458,
                -2.2448778052622242,
                -1.1944388571875377,
                -2.8677606551283756,
                -0.17552604714999817,
                -3.10367655716794
            ]
        }
    ]
}