{
    "goal": {
        "global_pose": {
            "orientation": {
                "w": 0.005598929693374612,
                "x": 0.007748599140229565,
                "y": 0.7110244013736278,
                "z": -0.7031023480610252
            },
            "position": {
                "x": -0.8858502320852131,
                "y": -0.7141253447532654,
                "z": 0.3711530566215515
            }
        },
        "name": "move_to_auspresseinheit_C"
    },
    "id": "FMT_move_to_auspresseinheit_C_28",
    "joint_names": [
        "shoulder_pan_joint",
        "shoulder_lift_joint",
        "elbow_joint",
        "wrist_1_joint",
        "wrist_2_joint",
        "wrist_3_joint"
    ],
    "metrics": {
        "cart_traj_len": 0.4933568892420273,
        "distance_elbow_joint": 0.9905878962145102,
        "distance_shoulder_lift_joint": 0.32026793984026947,
        "distance_shoulder_pan_joint": 0.2568878142111686,
        "distance_wrist_1_joint": 0.6541186031523973,
        "distance_wrist_2_joint": 1.3099165692473915,
        "distance_wrist_3_joint": 0.04611279291220871,
        "smoothness": 0.0,
        "time": 0.470101205,
        "traj_len": 1.8915315528898653,
        "weighted_distance": 2.373636950715537
    },
    "planner": "FMT",
    "start": {
        "state": {
            "elbow_joint": 1.7527959577737207,
            "shoulder_lift_joint": -0.9740617694225068,
            "shoulder_pan_joint": -2.967991417825858,
            "wrist_1_joint": -0.759517768980727,
            "wrist_2_joint": 1.7443932448377408,
            "wrist_3_joint": -3.0840537646736568
        }
    },
    "waypoints": [
        {
            "positions": [
                -2.967991417825858,
                -0.9740617694225068,
                1.7527959577737207,
                -0.759517768980727,
                1.7443932448377408,
                -3.0840537646736568
            ]
        },
        {
            "positions": [
                -2.942302636404741,
                -0.9420349754384798,
                1.6537371681522697,
                -0.6941059086654873,
                1.6134015879130017,
                -3.0886650439648777
            ]
        },
        {
            "positions": [
                -2.9166138549836242,
                -0.9100081814544528,
                1.5546783785308187,
                -0.6286940483502474,
                1.4824099309882626,
                -3.0932763232560987
            ]
        },
        {
            "positions": [
                -2.8909250735625074,
                -0.877981387470426,
                1.4556195889093675,
                -0.5632821880350078,
                1.3514182740635234,
                -3.097887602547319
            ]
        },
        {
            "positions": [
                -2.8652362921413905,
                -0.845954593486399,
                1.3565607992879165,
                -0.497870327719768,
                1.2204266171387843,
                -3.10249888183854
            ]
        },
        {
            "positions": [
                -2.8395475107202737,
                -0.813927799502372,
                1.2575020096664655,
                -0.4324584674045283,
                1.089434960214045,
                -3.107110161129761
            ]
        },
        {
            "positions": [
                -2.813858729299157,
                -0.7819010055183451,
                1.1584432200450145,
                -0.3670466070892886,
                0.9584433032893059,
                -3.111721440420982
            ]
        },
        {
            "positions": [
                -2.78816994787804,
                -0.7498742115343182,
                1.0593844304235636,
                -0.3016347467740489,
                0.8274516463645668,
                -3.116332719712203
            ]
        },
        {
            "positions": [
                -2.762481166456923,
                -0.7178474175502911,
                0.9603256408021125,
                -0.23622288645880907,
                0.6964599894398276,
                -3.1209439990034236
            ]
        },
        {
            "positions": [
                -2.7367923850358062,
                -0.6858206235662643,
                0.8612668511806615,
                -0.17081102614356936,
                0.5654683325150884,
                -3.1255552782946445
            ]
        },
        {
            "positions": [
                -2.7111036036146894,
                -0.6537938295822373,
                0.7622080615592105,
                -0.10539916582832962,
                0.4344766755903493,
                -3.1301665575858655
            ]
        }
    ]
}