{
    "goal": {
        "global_pose": {
            "orientation": {
                "w": 0.005598929693374612,
                "x": 0.007748599140229565,
                "y": 0.7110244013736278,
                "z": -0.7031023480610252
            },
            "position": {
                "x": 0.1141497679147869,
                "y": -0.7141253447532654,
                "z": 0.3711530566215515
            }
        },
        "name": "move_to_auspresseinheit_B"
    },
    "id": "FMT_move_to_auspresseinheit_B_40",
    "joint_names": [
        "shoulder_pan_joint",
        "shoulder_lift_joint",
        "elbow_joint",
        "wrist_1_joint",
        "wrist_2_joint",
        "wrist_3_joint"
    ],
    "metrics": {
        "cart_traj_len": 0.5648027932875531,
        "distance_elbow_joint": 0.06016581620545214,
        "distance_shoulder_lift_joint": 0.2964140912124451,
        "distance_shoulder_pan_joint": 0.5787669038398722,
        "distance_wrist_1_joint": 0.32047198140738187,
        "distance_wrist_2_joint": 0.9861564704698782,
        "distance_wrist_3_joint": 0.0015651275413666177,
        "smoothness": 5.075305255429287e-16,
        "time": 0.468491116,
        "traj_len": 1.4978452492418555,
        "weighted_distance": 1.8850196544429954
    },
    "planner": "FMT",
    "start": {
        "state": {
            "elbow_joint": 2.0193083361928714,
            "shoulder_lift_joint": -1.1220246554650708,
            "shoulder_pan_joint": -1.0952077554168747,
            "wrist_1_joint": -0.8559753972642168,
            "wrist_2_joint": 0.4759566250798843,
            "wrist_3_joint": -3.1240929996934557
        }
    },
    "waypoints": [
        {
            "positions": [
                -1.0952077554168747,
                -1.1220246554650708,
                2.0193083361928714,
                -0.8559753972642168,
                0.4759566250798843,
                -3.1240929996934557
            ]
        },
        {
            "positions": [
                -1.1916689060568533,
                -1.1714270040004784,
                2.0092807001586293,
                -0.8025634003629865,
                0.6403160368248639,
                -3.123832145103228
            ]
        },
        {
            "positions": [
                -1.2881300566968321,
                -1.2208293525358858,
                1.9992530641243873,
                -0.7491514034617561,
                0.8046754485698437,
                -3.123571290513
            ]
        },
        {
            "positions": [
                -1.3845912073368107,
                -1.2702317010712934,
                1.9892254280901454,
                -0.6957394065605258,
                0.9690348603148233,
                -3.1233104359227726
            ]
        },
        {
            "positions": [
                -1.4810523579767894,
                -1.319634049606701,
                1.9791977920559034,
                -0.6423274096592956,
                1.1333942720598031,
                -3.1230495813325447
            ]
        },
        {
            "positions": [
                -1.5775135086167682,
                -1.3690363981421083,
                1.9691701560216612,
                -0.5889154127580651,
                1.2977536838047827,
                -3.122788726742317
            ]
        },
        {
            "positions": [
                -1.6739746592567468,
                -1.418438746677516,
                1.9591425199874193,
                -0.5355034158568349,
                1.4621130955497625,
                -3.122527872152089
            ]
        }
    ]
}