{
    "goal": {
        "global_pose": {
            "orientation": {
                "w": 0.5084816262002911,
                "x": -0.4908360881923452,
                "y": 0.5182115481033761,
                "z": -0.48164630358495003
            },
            "position": {
                "x": 0.5540239810943604,
                "y": -0.46912469901144505,
                "z": 0.16403168439865112
            }
        },
        "name": "move_to_storage_B"
    },
    "id": "FMT_move_to_storage_B_62",
    "joint_names": [
        "shoulder_pan_joint",
        "shoulder_lift_joint",
        "elbow_joint",
        "wrist_1_joint",
        "wrist_2_joint",
        "wrist_3_joint"
    ],
    "metrics": {
        "cart_traj_len": 0.7490711406967665,
        "distance_elbow_joint": 0.4682124995124024,
        "distance_shoulder_lift_joint": 0.4592810078785965,
        "distance_shoulder_pan_joint": 0.18288020583574316,
        "distance_wrist_1_joint": 2.983079086469148,
        "distance_wrist_2_joint": 2.7057276638664787,
        "distance_wrist_3_joint": 3.136290322184539,
        "smoothness": 0.009080265048445087,
        "time": 1.3434396050000001,
        "traj_len": 3.1520581824812353,
        "weighted_distance": 4.679407887804996
    },
    "planner": "FMT",
    "start": {
        "state": {
            "elbow_joint": 1.664937868594044,
            "shoulder_lift_joint": -0.661644460510453,
            "shoulder_pan_joint": -0.9139846352900073,
            "wrist_1_joint": 2.146753192139373,
            "wrist_2_joint": -2.2341966793290973,
            "wrist_3_joint": 0.005466555786416001
        }
    },
    "waypoints": [
        {
            "positions": [
                -0.9139846352900073,
                -0.661644460510453,
                1.664937868594044,
                2.146753192139373,
                -2.2341966793290973,
                0.005466555786416001
            ]
        },
        {
            "positions": [
                -0.9378156581164436,
                -0.7169972741685201,
                1.7331402500631865,
                2.047970172589957,
                -2.100508144047717,
                -0.006809957190966407
            ]
        },
        {
            "positions": [
                -0.9616466809428801,
                -0.7723500878265871,
                1.8013426315323293,
                1.9491871530405407,
                -1.9668196087663365,
                -0.019086470168348815
            ]
        },
        {
            "positions": [
                -0.9854777037693165,
                -0.8277029014846542,
                1.869545013001472,
                1.8504041334911243,
                -1.8331310734849562,
                -0.03136298314573122
            ]
        },
        {
            "positions": [
                -1.0093087265957528,
                -0.8830557151427212,
                1.9377473944706145,
                1.7516211139417082,
                -1.6994425382035758,
                -0.04363949612311363
            ]
        },
        {
            "positions": [
                -1.0331397494221892,
                -0.9384085288007884,
                2.005949775939757,
                1.6528380943922918,
                -1.5657540029221955,
                -0.05591600910049604
            ]
        },
        {
            "positions": [
                -1.0569707722486257,
                -0.9937613424588554,
                2.0741521574089,
                1.5540550748428754,
                -1.432065467640815,
                -0.06819252207787845
            ]
        },
        {
            "positions": [
                -1.058965475692482,
                -1.0001195487553651,
                2.0712022468740225,
                1.4345360263842428,
                -1.3368856450319053,
                -0.22132408429389067
            ]
        },
        {
            "positions": [
                -1.060960179136338,
                -1.0064777550518749,
                2.068252336339145,
                1.3150169779256105,
                -1.2417058224229953,
                -0.3744556465099029
            ]
        },
        {
            "positions": [
                -1.0629548825801944,
                -1.0128359613483846,
                2.065302425804268,
                1.1954979294669779,
                -1.1465259998140855,
                -0.527587208725915
            ]
        },
        {
            "positions": [
                -1.0649495860240505,
                -1.0191941676448941,
                2.0623525152693905,
                1.0759788810083455,
                -1.0513461772051758,
                -0.6807187709419272
            ]
        },
        {
            "positions": [
                -1.0669442894679069,
                -1.0255523739414039,
                2.0594026047345135,
                0.9564598325497129,
                -0.9561663545962659,
                -0.8338503331579394
            ]
        },
        {
            "positions": [
                -1.0689389929117632,
                -1.0319105802379136,
                2.056452694199636,
                0.8369407840910804,
                -0.8609865319873561,
                -0.9869818953739516
            ]
        },
        {
            "positions": [
                -1.0709336963556193,
                -1.0382687865344233,
                2.053502783664759,
                0.7174217356324479,
                -0.7658067093784462,
                -1.1401134575899639
            ]
        },
        {
            "positions": [
                -1.0729283997994756,
                -1.044626992830933,
                2.0505528731298814,
                0.5979026871738153,
                -0.6706268867695363,
                -1.2932450198059762
            ]
        },
        {
            "positions": [
                -1.0749231032433317,
                -1.0509851991274428,
                2.047602962595004,
                0.47838363871518275,
                -0.5754470641606264,
                -1.4463765820219885
            ]
        },
        {
            "positions": [
                -1.076917806687188,
                -1.0573434054239526,
                2.0446530520601267,
                0.3588645902565504,
                -0.48026724155171663,
                -1.5995081442380006
            ]
        },
        {
            "positions": [
                -1.0789125101310444,
                -1.063701611720462,
                2.0417031415252493,
                0.23934554179791778,
                -0.3850874189428066,
                -1.752639706454013
            ]
        },
        {
            "positions": [
                -1.0809072135749005,
                -1.0700598180169718,
                2.038753230990372,
                0.11982649333928541,
                -0.28990759633389707,
                -1.905771268670025
            ]
        },
        {
            "positions": [
                -1.0829019170187568,
                -1.0764180243134815,
                2.0358033204554946,
                0.0003074448806528185,
                -0.19472777372498706,
                -2.058902830886037
            ]
        },
        {
            "positions": [
                -1.084896620462613,
                -1.0827762306099913,
                2.0328534099206172,
                -0.11921160357797955,
                -0.09954795111607728,
                -2.212034393102049
            ]
        },
        {
            "positions": [
                -1.0868913239064693,
                -1.089134436906501,
                2.02990349938574,
                -0.23873065203661215,
                -0.004368128507167501,
                -2.3651659553180617
            ]
        },
        {
            "positions": [
                -1.0888860273503256,
                -1.0954926432030108,
                2.026953588850863,
                -0.35824970049524474,
                0.0908116941017425,
                -2.518297517534074
            ]
        },
        {
            "positions": [
                -1.0908807307941817,
                -1.1018508494995203,
                2.0240036783159856,
                -0.4777687489538769,
                0.18599151671065228,
                -2.671429079750086
            ]
        },
        {
            "positions": [
                -1.092875434238038,
                -1.10820905579603,
                2.0210537677811082,
                -0.5972877974125099,
                0.2811713393195623,
                -2.8245606419660985
            ]
        },
        {
            "positions": [
                -1.0948701376818941,
                -1.1145672620925398,
                2.018103857246231,
                -0.7168068458711421,
                0.37635116192847184,
                -2.97769220418211
            ]
        },
        {
            "positions": [
                -1.0968648411257504,
                -1.1209254683890495,
                2.0151539467113535,
                -0.8363258943297748,
                0.47153098453738174,
                -3.1308237663981227
            ]
        }
    ]
}