{
    "goal": {
        "global_pose": {
            "orientation": {
                "w": -0.4816463035849501,
                "x": 0.5182115481033762,
                "y": 0.4908360881923453,
                "z": -0.5084816262002911
            },
            "position": {
                "x": -0.8240239810943604,
                "y": -0.300875300988555,
                "z": 0.16403168439865112
            }
        },
        "name": "move_to_storage_C"
    },
    "id": "FMT_move_to_storage_C_96",
    "joint_names": [
        "shoulder_pan_joint",
        "shoulder_lift_joint",
        "elbow_joint",
        "wrist_1_joint",
        "wrist_2_joint",
        "wrist_3_joint"
    ],
    "metrics": {
        "cart_traj_len": 0.5757939562156127,
        "distance_elbow_joint": 0.25542479314778177,
        "distance_shoulder_lift_joint": 0.1886881590743903,
        "distance_shoulder_pan_joint": 0.49461739107019387,
        "distance_wrist_1_joint": 0.06986277481400194,
        "distance_wrist_2_joint": 1.061886371354405,
        "distance_wrist_3_joint": 0.06376167043927339,
        "smoothness": 0.0,
        "time": 0.336767622,
        "traj_len": 1.4609042268061403,
        "weighted_distance": 1.842149192369337
    },
    "planner": "FMT",
    "start": {
        "state": {
            "elbow_joint": 2.010868314990456,
            "shoulder_lift_joint": -1.1634956873337592,
            "shoulder_pan_joint": -2.4736205022346125,
            "wrist_1_joint": -0.8367026794202681,
            "wrist_2_joint": 0.6746043897044499,
            "wrist_3_joint": -3.1496632123970403
        }
    },
    "waypoints": [
        {
            "positions": [
                -2.4736205022346125,
                -1.1634956873337592,
                2.010868314990456,
                -0.8367026794202681,
                0.6746043897044499,
                -3.1496632123970403
            ]
        },
        {
            "positions": [
                -2.556056734079645,
                -1.1320476608213608,
                1.9682975161324923,
                -0.8250588836179344,
                0.8515854515968507,
                -3.139036267323828
            ]
        },
        {
            "positions": [
                -2.638492965924677,
                -1.1005996343089623,
                1.9257267172745285,
                -0.8134150878156008,
                1.0285665134892517,
                -3.128409322250616
            ]
        },
        {
            "positions": [
                -2.7209291977697094,
                -1.069151607796564,
                1.883155918416565,
                -0.8017712920132671,
                1.2055475753816522,
                -3.1177823771774036
            ]
        },
        {
            "positions": [
                -2.803365429614742,
                -1.0377035812841657,
                1.8405851195586014,
                -0.7901274962109335,
                1.3825286372740533,
                -3.107155432104191
            ]
        },
        {
            "positions": [
                -2.885801661459774,
                -1.0062555547717673,
                1.7980143207006376,
                -0.7784837004085998,
                1.5595096991664539,
                -3.0965284870309793
            ]
        },
        {
            "positions": [
                -2.9682378933048064,
                -0.9748075282593689,
                1.755443521842674,
                -0.7668399046062662,
                1.736490761058855,
                -3.085901541957767
            ]
        }
    ]
}