{
    "goal": {
        "global_pose": {
            "orientation": {
                "w": 0.005598929693374612,
                "x": 0.007748599140229565,
                "y": 0.7110244013736278,
                "z": -0.7031023480610252
            },
            "position": {
                "x": 0.1141497679147869,
                "y": -0.7141253447532654,
                "z": 0.3711530566215515
            }
        },
        "name": "move_to_auspresseinheit_B"
    },
    "id": "FMT_move_to_auspresseinheit_B_95",
    "joint_names": [
        "shoulder_pan_joint",
        "shoulder_lift_joint",
        "elbow_joint",
        "wrist_1_joint",
        "wrist_2_joint",
        "wrist_3_joint"
    ],
    "metrics": {
        "cart_traj_len": 0.563984363573518,
        "distance_elbow_joint": 0.05837302237198405,
        "distance_shoulder_lift_joint": 0.29588436720890887,
        "distance_shoulder_pan_joint": 0.5788270113476905,
        "distance_wrist_1_joint": 0.3180491337259318,
        "distance_wrist_2_joint": 0.9846615804398373,
        "distance_wrist_3_joint": 0.0007780674749420236,
        "smoothness": 0.0,
        "time": 0.506843047,
        "traj_len": 1.4955176971768989,
        "weighted_distance": 1.8817119948825718
    },
    "planner": "FMT",
    "start": {
        "state": {
            "elbow_joint": 2.0193083361928714,
            "shoulder_lift_joint": -1.1220246554650708,
            "shoulder_pan_joint": -1.0952077554168747,
            "wrist_1_joint": -0.8559753972642168,
            "wrist_2_joint": 0.4759566250798843,
            "wrist_3_joint": -3.1240929996934557
        }
    },
    "waypoints": [
        {
            "positions": [
                -1.0952077554168747,
                -1.1220246554650708,
                2.0193083361928714,
                -0.8559753972642168,
                0.4759566250798843,
                -3.1240929996934557
            ]
        },
        {
            "positions": [
                -1.1916789239748231,
                -1.1713387166665556,
                2.009579499130874,
                -0.8029672083098949,
                0.6400668884865238,
                -3.124222677605946
            ]
        },
        {
            "positions": [
                -1.2881500925327716,
                -1.2206527778680405,
                1.9998506620688767,
                -0.7499590193555729,
                0.8041771518931633,
                -3.1243523555184365
            ]
        },
        {
            "positions": [
                -1.3846212610907198,
                -1.2699668390695251,
                1.9901218250068795,
                -0.6969508304012508,
                0.9682874152998029,
                -3.124482033430927
            ]
        },
        {
            "positions": [
                -1.4810924296486683,
                -1.31928090027101,
                1.980392987944882,
                -0.6439426414469289,
                1.1323976787064425,
                -3.124611711343417
            ]
        },
        {
            "positions": [
                -1.5775635982066167,
                -1.3685949614724948,
                1.9706641508828846,
                -0.590934452492607,
                1.296507942113082,
                -3.1247413892559073
            ]
        },
        {
            "positions": [
                -1.6740347667645652,
                -1.4179090226739797,
                1.9609353138208874,
                -0.537926263538285,
                1.4606182055197217,
                -3.1248710671683977
            ]
        }
    ]
}