{
    "goal": {
        "global_pose": {
            "orientation": {
                "w": 0.5084816217422485,
                "x": -0.49083608388900757,
                "y": 0.5182115435600281,
                "z": -0.4816462993621826
            },
            "position": {
                "x": 0.5540239810943604,
                "y": 0.030875300988554955,
                "z": 0.16403168439865112
            }
        },
        "name": "move_to_storage_A"
    },
    "id": "FMT_move_to_storage_A_52",
    "joint_names": [
        "shoulder_pan_joint",
        "shoulder_lift_joint",
        "elbow_joint",
        "wrist_1_joint",
        "wrist_2_joint",
        "wrist_3_joint"
    ],
    "metrics": {
        "cart_traj_len": 0.35323041464770394,
        "distance_elbow_joint": 0.4481774928567501,
        "distance_shoulder_lift_joint": 0.23321629794917698,
        "distance_shoulder_pan_joint": 0.4583033133388449,
        "distance_wrist_1_joint": 0.23881885117856505,
        "distance_wrist_2_joint": 1.1136849899062278,
        "distance_wrist_3_joint": 0.09467673707970237,
        "smoothness": 1.998401446083499e-15,
        "time": 0.372896026,
        "traj_len": 1.60837734450261,
        "weighted_distance": 2.031928885948882
    },
    "planner": "FMT",
    "start": {
        "state": {
            "elbow_joint": 1.971548259319323,
            "shoulder_lift_joint": -1.1394851275133948,
            "shoulder_pan_joint": 0.1228115487234821,
            "wrist_1_joint": -0.7804723859257726,
            "wrist_2_joint": 0.12958671773740124,
            "wrist_3_joint": -3.192489227718131
        }
    },
    "waypoints": [
        {
            "positions": [
                0.1228115487234821,
                -1.1394851275133948,
                1.971548259319323,
                -0.7804723859257726,
                0.12958671773740124,
                -3.192489227718131
            ]
        },
        {
            "positions": [
                0.05733964681793284,
                -1.1728017415061345,
                2.0355736154417157,
                -0.8145893646655676,
                0.2886845734382909,
                -3.1789639795638878
            ]
        },
        {
            "positions": [
                -0.008132255087616419,
                -1.206118355498874,
                2.0995989715641086,
                -0.8487063434053627,
                0.44778242913918054,
                -3.165438731409645
            ]
        },
        {
            "positions": [
                -0.07360415699316569,
                -1.2394349694916136,
                2.1636243276865015,
                -0.8828233221451576,
                0.6068802848400703,
                -3.1519134832554014
            ]
        },
        {
            "positions": [
                -0.13907605889871494,
                -1.272751583484353,
                2.2276496838088944,
                -0.9169403008849526,
                0.7659781405409599,
                -3.1383882351011585
            ]
        },
        {
            "positions": [
                -0.20454796080426424,
                -1.3060681974770927,
                2.2916750399312873,
                -0.9510572796247476,
                0.9250759962418497,
                -3.124862986946915
            ]
        },
        {
            "positions": [
                -0.2700198627098135,
                -1.3393848114698321,
                2.35570039605368,
                -0.9851742583645426,
                1.0841738519427393,
                -3.111337738792672
            ]
        },
        {
            "positions": [
                -0.3354917646153628,
                -1.3727014254625718,
                2.419725752176073,
                -1.0192912371043377,
                1.243271707643629,
                -3.097812490638429
            ]
        }
    ]
}{
    "goal": {
        "global_pose": {
            "orientation": {
                "w": 0.5084816217422485,
                "x": -0.49083608388900757,
                "y": 0.5182115435600281,
                "z": -0.4816462993621826
            },
            "position": {
                "x": 0.5540239810943604,
                "y": 0.030875300988554955,
                "z": 0.16403168439865112
            }
        },
        "name": "move_to_storage_A"
    },
    "id": "FMT_move_to_storage_A_52",
    "joint_names": [
        "shoulder_pan_joint",
        "shoulder_lift_joint",
        "elbow_joint",
        "wrist_1_joint",
        "wrist_2_joint",
        "wrist_3_joint"
    ],
    "metrics": {
        "cart_traj_len": 0.3527232656545146,
        "distance_elbow_joint": 0.44966704177372785,
        "distance_shoulder_lift_joint": 0.23673983713774804,
        "distance_shoulder_pan_joint": 0.4630731824788233,
        "distance_wrist_1_joint": 0.23605032987044283,
        "distance_wrist_2_joint": 1.0915219529106055,
        "distance_wrist_3_joint": 0.09396960985900371,
        "smoothness": 1.1102230263833737e-15,
        "time": 0.409133335,
        "traj_len": 1.6034406612127408,
        "weighted_distance": 2.021517612223403
    },
    "planner": "FMT",
    "start": {
        "state": {
            "elbow_joint": 1.97154746011099,
            "shoulder_lift_joint": -1.13948474672311,
            "shoulder_pan_joint": 0.12281154466712228,
            "wrist_1_joint": -0.7804688027058302,
            "wrist_2_joint": 0.12958655903071145,
            "wrist_3_joint": 3.0906928834467795
        }
    },
    "waypoints": [
        {
            "positions": [
                0.12281154466712228,
                -1.13948474672311,
                1.97154746011099,
                -0.7804688027058302,
                0.12958655903071145,
                3.0906928834467795
            ]
        },
        {
            "positions": [
                0.05665823288443325,
                -1.173304723457074,
                2.035785608935808,
                -0.8141902784016077,
                0.2855182665893694,
                3.104117113426637
            ]
        },
        {
            "positions": [
                -0.00949507889825578,
                -1.207124700191038,
                2.1000237577606264,
                -0.8479117540973853,
                0.44144997414802734,
                3.117541343406495
            ]
        },
        {
            "positions": [
                -0.07564839068094482,
                -1.2409446769250019,
                2.1642619065854447,
                -0.8816332297931628,
                0.5973816817066853,
                3.1309655733863524
            ]
        },
        {
            "positions": [
                -0.14180170246363383,
                -1.2747646536589659,
                2.228500055410263,
                -0.9153547054889404,
                0.7533133892653432,
                3.1443898033662103
            ]
        },
        {
            "positions": [
                -0.2079550142463229,
                -1.30858463039293,
                2.2927382042350812,
                -0.9490761811847179,
                0.9092450968240011,
                3.157814033346068
            ]
        },
        {
            "positions": [
                -0.2741083260290119,
                -1.342404607126894,
                2.3569763530598995,
                -0.9827976568804955,
                1.065176804382659,
                3.1712382633259257
            ]
        },
        {
            "positions": [
                -0.340261637811701,
                -1.376224583860858,
                2.4212145018847178,
                -1.016519132576273,
                1.221108511941317,
                3.184662493305783
            ]
        }
    ]
}{
    "goal": {
        "global_pose": {
            "orientation": {
                "w": 0.5084816217422485,
                "x": -0.49083608388900757,
                "y": 0.5182115435600281,
                "z": -0.4816462993621826
            },
            "position": {
                "x": 0.5540239810943604,
                "y": 0.030875300988554955,
                "z": 0.16403168439865112
            }
        },
        "name": "move_to_storage_A"
    },
    "id": "FMT_move_to_storage_A_52",
    "joint_names": [
        "shoulder_pan_joint",
        "shoulder_lift_joint",
        "elbow_joint",
        "wrist_1_joint",
        "wrist_2_joint",
        "wrist_3_joint"
    ],
    "metrics": {
        "cart_traj_len": 0.35347312420631877,
        "distance_elbow_joint": 0.45011185036997636,
        "distance_shoulder_lift_joint": 0.236281577524611,
        "distance_shoulder_pan_joint": 0.45974748312151703,
        "distance_wrist_1_joint": 0.23607973639753133,
        "distance_wrist_2_joint": 1.1115889703964246,
        "distance_wrist_3_joint": 0.08912468403466711,
        "smoothness": 0.0,
        "time": 0.402177587,
        "traj_len": 1.6071509891247702,
        "weighted_distance": 2.0270304330986293
    },
    "planner": "FMT",
    "start": {
        "state": {
            "elbow_joint": 1.9715472970024885,
            "shoulder_lift_joint": -1.1394870060712896,
            "shoulder_pan_joint": 0.12281152778156021,
            "wrist_1_joint": -0.780463741449964,
            "wrist_2_joint": 0.12958659822042276,
            "wrist_3_joint": 3.090690232415272
        }
    },
    "waypoints": [
        {
            "positions": [
                0.12281152778156021,
                -1.1394870060712896,
                1.9715472970024885,
                -0.780463741449964,
                0.12958659822042276,
                3.090690232415272
            ]
        },
        {
            "positions": [
                0.05713331590705778,
                -1.173241517146234,
                2.035848989912485,
                -0.8141894180781828,
                0.2883850225627691,
                3.10342233013451
            ]
        },
        {
            "positions": [
                -0.008544895967444649,
                -1.2069960282211785,
                2.100150682822482,
                -0.8479150947064015,
                0.44718344690511547,
                3.1161544278537483
            ]
        },
        {
            "positions": [
                -0.07422310784194708,
                -1.240750539296123,
                2.1644523757324783,
                -0.8816407713346203,
                0.6059818712474618,
                3.1288865255729865
            ]
        },
        {
            "positions": [
                -0.1399013197164495,
                -1.2745050503710673,
                2.228754068642475,
                -0.9153664479628391,
                0.7647802955898082,
                3.1416186232922243
            ]
        },
        {
            "positions": [
                -0.20557953159095196,
                -1.3082595614460117,
                2.2930557615524716,
                -0.9490921245910577,
                0.9235787199321546,
                3.1543507210114625
            ]
        },
        {
            "positions": [
                -0.2712577434654544,
                -1.3420140725209562,
                2.357357454462468,
                -0.9828178012192765,
                1.082377144274501,
                3.1670828187307007
            ]
        },
        {
            "positions": [
                -0.3369359553399568,
                -1.3757685835959006,
                2.421659147372465,
                -1.0165434778474953,
                1.2411755686168473,
                3.179814916449939
            ]
        }
    ]
}