{
    "goal": {
        "global_pose": {
            "orientation": {
                "w": 0.005598929693374612,
                "x": 0.007748599140229565,
                "y": 0.7110244013736278,
                "z": -0.7031023480610252
            },
            "position": {
                "x": 0.1141497679147869,
                "y": -0.7141253447532654,
                "z": 0.3711530566215515
            }
        },
        "name": "move_to_auspresseinheit_B"
    },
    "id": "FMT_move_to_auspresseinheit_B_89",
    "joint_names": [
        "shoulder_pan_joint",
        "shoulder_lift_joint",
        "elbow_joint",
        "wrist_1_joint",
        "wrist_2_joint",
        "wrist_3_joint"
    ],
    "metrics": {
        "cart_traj_len": 0.5651429209365051,
        "distance_elbow_joint": 0.060691134751476916,
        "distance_shoulder_lift_joint": 0.295451463805982,
        "distance_shoulder_pan_joint": 0.5786777314863838,
        "distance_wrist_1_joint": 0.31974799428295175,
        "distance_wrist_2_joint": 0.9882507285343807,
        "distance_wrist_3_joint": 0.003456081778020259,
        "smoothness": 2.5376526478085547e-16,
        "time": 0.545387655,
        "traj_len": 1.4987578639123784,
        "weighted_distance": 1.8871104951784272
    },
    "planner": "FMT",
    "start": {
        "state": {
            "elbow_joint": 2.0193083361928714,
            "shoulder_lift_joint": -1.1220246554650708,
            "shoulder_pan_joint": -1.0952077554168747,
            "wrist_1_joint": -0.8559753972642168,
            "wrist_2_joint": 0.4759566250798843,
            "wrist_3_joint": -3.1240929996934557
        }
    },
    "waypoints": [
        {
            "positions": [
                -1.0952077554168747,
                -1.1220246554650708,
                2.0193083361928714,
                -0.8559753972642168,
                0.4759566250798843,
                -3.1240929996934557
            ]
        },
        {
            "positions": [
                -1.1916540439979386,
                -1.171266566099401,
                2.0091931470676254,
                -0.8026840648837248,
                0.6406650798356144,
                -3.1235169860637857
            ]
        },
        {
            "positions": [
                -1.2881003325790026,
                -1.2205084767337315,
                1.9990779579423792,
                -0.7493927325032329,
                0.8053735345913444,
                -3.1229409724341157
            ]
        },
        {
            "positions": [
                -1.3845466211600665,
                -1.2697503873680618,
                1.988962768817133,
                -0.6961014001227409,
                0.9700819893470747,
                -3.1223649588044458
            ]
        },
        {
            "positions": [
                -1.4809929097411305,
                -1.318992298002392,
                1.9788475796918867,
                -0.642810067742249,
                1.1347904441028047,
                -3.1217889451747753
            ]
        },
        {
            "positions": [
                -1.5774391983221945,
                -1.3682342086367225,
                1.9687323905666407,
                -0.589518735361757,
                1.299498898858535,
                -3.1212129315451054
            ]
        },
        {
            "positions": [
                -1.6738854869032584,
                -1.4174761192710528,
                1.9586172014413945,
                -0.536227402981265,
                1.464207353614265,
                -3.1206369179154354
            ]
        }
    ]
}