{
    "goal": {
        "global_pose": {
            "orientation": {
                "w": -0.00223480608172531,
                "x": 0.0024358444001904467,
                "y": 0.7094548369677653,
                "z": -0.704743149386269
            },
            "position": {
                "x": -0.37947507619857795,
                "y": -0.6371506643295288,
                "z": 0.19426114857196808
            }
        },
        "name": "move_to_magneteinheit_C"
    },
    "id": "FMT_move_to_magneteinheit_C_80",
    "joint_names": [
        "shoulder_pan_joint",
        "shoulder_lift_joint",
        "elbow_joint",
        "wrist_1_joint",
        "wrist_2_joint",
        "wrist_3_joint"
    ],
    "metrics": {
        "cart_traj_len": 1.676175262286316,
        "distance_elbow_joint": 1.3219355702884723,
        "distance_shoulder_lift_joint": 2.9991160632610487,
        "distance_shoulder_pan_joint": 1.8092026341367264,
        "distance_wrist_1_joint": 3.1039317520167975,
        "distance_wrist_2_joint": 2.35364390827882,
        "distance_wrist_3_joint": 13.054651607578123,
        "smoothness": 0.5638914528910656,
        "time": 1.5237310210000001,
        "traj_len": 4.964119411895727,
        "weighted_distance": 7.497290204534692
    },
    "planner": "FMT",
    "start": {
        "state": {
            "elbow_joint": 1.9565354010623817,
            "shoulder_lift_joint": -1.4165861575791021,
            "shoulder_pan_joint": -1.6717766225146293,
            "wrist_1_joint": -0.5286633292919765,
            "wrist_2_joint": 1.472756589071564,
            "wrist_3_joint": -3.1238370188695823
        }
    },
    "waypoints": [
        {
            "positions": [
                -1.6717766225146293,
                -1.4165861575791021,
                1.9565354010623817,
                -0.5286633292919765,
                1.472756589071564,
                -3.1238370188695823
            ]
        },
        {
            "positions": [
                -1.6764126757194757,
                -1.4693799950909727,
                1.945557410416928,
                -0.5200125982210836,
                1.459404801874093,
                -3.0944137822396507
            ]
        },
        {
            "positions": [
                -1.724058221338045,
                -1.5996497642154366,
                1.9284568882020172,
                -0.4876477454456611,
                1.402390928059885,
                -3.0358784520959152
            ]
        },
        {
            "positions": [
                -1.7717037669566147,
                -1.7299195333399005,
                1.9113563659871065,
                -0.45528289267023864,
                1.345377054245677,
                -2.9773431219521798
            ]
        },
        {
            "positions": [
                -1.819349312575184,
                -1.8601893024643645,
                1.8942558437721957,
                -0.42291803989481613,
                1.288363180431469,
                -2.9188077918084447
            ]
        },
        {
            "positions": [
                -1.8669948581937534,
                -1.9904590715888284,
                1.877155321557285,
                -0.3905531871193937,
                1.231349306617261,
                -2.8602724616647093
            ]
        },
        {
            "positions": [
                -1.914640403812323,
                -2.1207288407132925,
                1.8600547993423742,
                -0.3581883343439711,
                1.174335432803053,
                -2.801737131520974
            ]
        },
        {
            "positions": [
                -1.9622859494308924,
                -2.2509986098377563,
                1.8429542771274634,
                -0.3258234815685487,
                1.117321558988845,
                -2.7432018013772383
            ]
        },
        {
            "positions": [
                -1.997317473055521,
                -2.269569413280083,
                1.866649662408661,
                -0.3845401448544138,
                1.0750338624293032,
                -2.531622948004036
            ]
        },
        {
            "positions": [
                -2.03234899668015,
                -2.28814021672241,
                1.8903450476898584,
                -0.4432568081402789,
                1.0327461658697616,
                -2.3200440946308336
            ]
        },
        {
            "positions": [
                -2.0673805203047784,
                -2.306711020164737,
                1.914040432971056,
                -0.501973471426144,
                0.9904584693102199,
                -2.1084652412576315
            ]
        },
        {
            "positions": [
                -2.102412043929407,
                -2.325281823607064,
                1.9377358182522537,
                -0.5606901347120091,
                0.9481707727506781,
                -1.8968863878844289
            ]
        },
        {
            "positions": [
                -2.137443567554036,
                -2.3438526270493907,
                1.9614312035334514,
                -0.6194067979978742,
                0.9058830761911364,
                -1.6853075345112265
            ]
        },
        {
            "positions": [
                -2.1724750911786646,
                -2.3624234304917175,
                1.9851265888146488,
                -0.6781234612837392,
                0.8635953796315947,
                -1.4737286811380244
            ]
        },
        {
            "positions": [
                -2.207506614803293,
                -2.3809942339340444,
                2.0088219740958464,
                -0.7368401245696043,
                0.8213076830720529,
                -1.2621498277648218
            ]
        },
        {
            "positions": [
                -2.2425381384279217,
                -2.3995650373763713,
                2.032517359377044,
                -0.7955567878554695,
                0.7790199865125113,
                -1.0505709743916196
            ]
        },
        {
            "positions": [
                -2.2775696620525503,
                -2.418135840818698,
                2.0562127446582417,
                -0.8542734511413347,
                0.7367322899529696,
                -0.8389921210184172
            ]
        },
        {
            "positions": [
                -2.3126011856771793,
                -2.436706644261025,
                2.0799081299394393,
                -0.9129901144271998,
                0.6944445933934278,
                -0.6274132676452147
            ]
        },
        {
            "positions": [
                -2.3476327093018075,
                -2.455277447703352,
                2.1036035152206365,
                -0.9717067777130648,
                0.6521568968338861,
                -0.4158344142720125
            ]
        },
        {
            "positions": [
                -2.3826642329264365,
                -2.4738482511456787,
                2.127298900501834,
                -1.03042344099893,
                0.6098692002743444,
                -0.20425556089881036
            ]
        },
        {
            "positions": [
                -2.417695756551065,
                -2.4924190545880056,
                2.1509942857830318,
                -1.089140104284795,
                0.5675815037148026,
                0.007323292474392229
            ]
        },
        {
            "positions": [
                -2.4527272801756936,
                -2.5109898580303325,
                2.1746896710642294,
                -1.1478567675706601,
                0.5252938071552609,
                0.21890214584759482
            ]
        },
        {
            "positions": [
                -2.4877588038003227,
                -2.52956066147266,
                2.198385056345427,
                -1.2065734308565252,
                0.4830061105957192,
                0.43048099922079697
            ]
        },
        {
            "positions": [
                -2.522790327424951,
                -2.548131464914986,
                2.2220804416266247,
                -1.2652900941423904,
                0.4407184140361775,
                0.6420598525939991
            ]
        },
        {
            "positions": [
                -2.55782185104958,
                -2.5667022683573135,
                2.2457758269078223,
                -1.3240067574282555,
                0.39843071747663583,
                0.8536387059672013
            ]
        },
        {
            "positions": [
                -2.5928533746742084,
                -2.5852730717996404,
                2.2694712121890195,
                -1.3827234207141208,
                0.35614302091709404,
                1.0652175593404039
            ]
        },
        {
            "positions": [
                -2.627884898298837,
                -2.6038438752419673,
                2.293166597470217,
                -1.4414400839999857,
                0.31385532435755237,
                1.2767964127136064
            ]
        },
        {
            "positions": [
                -2.662916421923466,
                -2.622414678684294,
                2.3168619827514148,
                -1.500156747285851,
                0.2715676277980106,
                1.488375266086809
            ]
        },
        {
            "positions": [
                -2.697947945548094,
                -2.640985482126621,
                2.3405573680326124,
                -1.558873410571716,
                0.2292799312384689,
                1.6999541194600107
            ]
        },
        {
            "positions": [
                -2.732979469172723,
                -2.659556285568948,
                2.36425275331381,
                -1.6175900738575808,
                0.18699223467892723,
                1.9115329728332133
            ]
        },
        {
            "positions": [
                -2.7680109927973517,
                -2.6781270890112747,
                2.3879481385950077,
                -1.6763067371434461,
                0.14470453811938544,
                2.123111826206416
            ]
        },
        {
            "positions": [
                -2.8030425164219803,
                -2.6966978924536016,
                2.4116435238762053,
                -1.735023400429311,
                0.10241684155984387,
                2.3346906795796176
            ]
        },
        {
            "positions": [
                -2.838074040046609,
                -2.7152686958959285,
                2.4353389091574025,
                -1.7937400637151764,
                0.06012914500030209,
                2.54626953295282
            ]
        },
        {
            "positions": [
                -2.8731055636712375,
                -2.7338394993382553,
                2.4590342944386006,
                -1.8524567270010412,
                0.0178414484407603,
                2.757848386326023
            ]
        },
        {
            "positions": [
                -2.9081370872958665,
                -2.752410302780582,
                2.4827296797197977,
                -1.9111733902869066,
                -0.024446248118781266,
                2.9694272396992245
            ]
        },
        {
            "positions": [
                -2.943168610920495,
                -2.770981106222909,
                2.5064250650009954,
                -1.9698900535727715,
                -0.06673394467832328,
                3.181006093072428
            ]
        },
        {
            "positions": [
                -2.9782001345451237,
                -2.789551909665236,
                2.530120450282193,
                -2.028606716858637,
                -0.10902164123786484,
                3.39258494644563
            ]
        },
        {
            "positions": [
                -2.9608629234380124,
                -2.733477761004032,
                2.512148440861544,
                -1.9872857282723169,
                -0.08240558337685144,
                3.16712875188484
            ]
        },
        {
            "positions": [
                -2.9435257123309007,
                -2.677403612342828,
                2.494176431440895,
                -1.945964739685997,
                -0.05578952551583804,
                2.9416725573240505
            ]
        },
        {
            "positions": [
                -2.9261885012237894,
                -2.621329463681624,
                2.4762044220202455,
                -1.904643751099677,
                -0.029173467654824634,
                2.7162163627632605
            ]
        },
        {
            "positions": [
                -2.9088512901166776,
                -2.56525531502042,
                2.4582324125995965,
                -1.863322762513357,
                -0.0025574097938112356,
                2.490760168202471
            ]
        },
        {
            "positions": [
                -2.8915140790095664,
                -2.509181166359216,
                2.4402604031789474,
                -1.822001773927037,
                0.024058648067202176,
                2.265303973641681
            ]
        },
        {
            "positions": [
                -2.874176867902455,
                -2.453107017698012,
                2.4222883937582984,
                -1.7806807853407172,
                0.050674705928215574,
                2.0398477790808913
            ]
        },
        {
            "positions": [
                -2.8568396567953434,
                -2.397032869036808,
                2.4043163843376494,
                -1.7393597967543972,
                0.07729076378922897,
                1.814391584520101
            ]
        },
        {
            "positions": [
                -2.839502445688232,
                -2.340958720375604,
                2.386344374917,
                -1.6980388081680773,
                0.10390682165024237,
                1.5889353899593115
            ]
        },
        {
            "positions": [
                -2.822165234581121,
                -2.2848845717144,
                2.368372365496351,
                -1.6567178195817573,
                0.1305228795112558,
                1.3634791953985217
            ]
        },
        {
            "positions": [
                -2.804828023474009,
                -2.228810423053196,
                2.350400356075702,
                -1.6153968309954374,
                0.1571389373722692,
                1.1380230008377317
            ]
        },
        {
            "positions": [
                -2.7874908123668978,
                -2.1727362743919922,
                2.332428346655053,
                -1.5740758424091175,
                0.18375499523328254,
                0.9125668062769421
            ]
        },
        {
            "positions": [
                -2.770153601259786,
                -2.1166621257307883,
                2.314456337234404,
                -1.5327548538227975,
                0.210371053094296,
                0.6871106117161521
            ]
        },
        {
            "positions": [
                -2.7528163901526748,
                -2.0605879770695843,
                2.2964843278137543,
                -1.4914338652364774,
                0.2369871109553094,
                0.46165441715536204
            ]
        },
        {
            "positions": [
                -2.7354791790455635,
                -2.0045138284083803,
                2.2785123183931053,
                -1.4501128766501576,
                0.2636031688163228,
                0.23619822259457202
            ]
        },
        {
            "positions": [
                -2.7181419679384518,
                -1.9484396797471764,
                2.2605403089724563,
                -1.4087918880638375,
                0.29021922667733624,
                0.010742028033782436
            ]
        },
        {
            "positions": [
                -2.7008047568313405,
                -1.8923655310859724,
                2.2425682995518073,
                -1.3674708994775178,
                0.3168352845383496,
                -0.21471416652700714
            ]
        },
        {
            "positions": [
                -2.683467545724229,
                -1.8362913824247686,
                2.2245962901311582,
                -1.3261499108911976,
                0.3434513423993629,
                -0.4401703610877967
            ]
        },
        {
            "positions": [
                -2.6661303346171175,
                -1.7802172337635644,
                2.2066242807105088,
                -1.2848289223048779,
                0.37006740026037643,
                -0.6656265556485867
            ]
        },
        {
            "positions": [
                -2.648793123510006,
                -1.7241430851023607,
                2.1886522712898597,
                -1.2435079337185577,
                0.3966834581213897,
                -0.8910827502093768
            ]
        },
        {
            "positions": [
                -2.6314559124028944,
                -1.6680689364411565,
                2.1706802618692107,
                -1.2021869451322378,
                0.42329951598240323,
                -1.1165389447701668
            ]
        },
        {
            "positions": [
                -2.614118701295783,
                -1.6119947877799528,
                2.1527082524485617,
                -1.1608659565459178,
                0.4499155738434166,
                -1.3419951393309568
            ]
        },
        {
            "positions": [
                -2.596781490188672,
                -1.5559206391187488,
                2.1347362430279126,
                -1.1195449679595981,
                0.4765316317044299,
                -1.567451333891746
            ]
        },
        {
            "positions": [
                -2.57944427908156,
                -1.4998464904575448,
                2.116764233607263,
                -1.078223979373278,
                0.5031476895654434,
                -1.792907528452536
            ]
        },
        {
            "positions": [
                -2.562107067974449,
                -1.4437723417963408,
                2.098792224186614,
                -1.036902990786958,
                0.5297637474264568,
                -2.018363723013326
            ]
        },
        {
            "positions": [
                -2.5447698568673376,
                -1.3876981931351369,
                2.080820214765965,
                -0.9955820022006381,
                0.5563798052874701,
                -2.243819917574115
            ]
        },
        {
            "positions": [
                -2.527432645760226,
                -1.331624044473933,
                2.062848205345316,
                -0.9542610136143181,
                0.5829958631484836,
                -2.469276112134906
            ]
        },
        {
            "positions": [
                -2.5100954346531146,
                -1.275549895812729,
                2.044876195924667,
                -0.9129400250279982,
                0.609611921009497,
                -2.694732306695695
            ]
        },
        {
            "positions": [
                -2.492758223546003,
                -1.219475747151525,
                2.0269041865040176,
                -0.8716190364416783,
                0.6362279788705104,
                -2.920188501256486
            ]
        },
        {
            "positions": [
                -2.4754210124388916,
                -1.163401598490321,
                2.0089321770833686,
                -0.8302980478553583,
                0.6628440367315238,
                -3.1456446958172752
            ]
        }
    ]
}