{
    "goal": {
        "global_pose": {
            "orientation": {
                "w": 0.5084816217422485,
                "x": -0.49083608388900757,
                "y": 0.5182115435600281,
                "z": -0.4816462993621826
            },
            "position": {
                "x": 0.5540239810943604,
                "y": 0.030875300988554955,
                "z": 0.16403168439865112
            }
        },
        "name": "move_to_storage_A"
    },
    "id": "FMT_move_to_storage_A_16",
    "joint_names": [
        "shoulder_pan_joint",
        "shoulder_lift_joint",
        "elbow_joint",
        "wrist_1_joint",
        "wrist_2_joint",
        "wrist_3_joint"
    ],
    "metrics": {
        "cart_traj_len": 0.35302255311876285,
        "distance_elbow_joint": 0.44745061172772416,
        "distance_shoulder_lift_joint": 0.23246525647924288,
        "distance_shoulder_pan_joint": 0.45875859031539057,
        "distance_wrist_1_joint": 0.23701414333811732,
        "distance_wrist_2_joint": 1.1097051627424024,
        "distance_wrist_3_joint": 0.09150790075191617,
        "smoothness": 2.2204460668324854e-16,
        "time": 0.374737907,
        "traj_len": 1.6052730812403206,
        "weighted_distance": 2.0264838447269065
    },
    "planner": "FMT",
    "start": {
        "state": {
            "elbow_joint": 1.971548259319323,
            "shoulder_lift_joint": -1.1394851275133948,
            "shoulder_pan_joint": 0.1228115487234821,
            "wrist_1_joint": -0.7804723859257726,
            "wrist_2_joint": 0.12958671773740124,
            "wrist_3_joint": -3.192489227718131
        }
    },
    "waypoints": [
        {
            "positions": [
                0.1228115487234821,
                -1.1394851275133948,
                1.971548259319323,
                -0.7804723859257726,
                0.12958671773740124,
                -3.192489227718131
            ]
        },
        {
            "positions": [
                0.05727460724985488,
                -1.1726944498675724,
                2.0354697752804265,
                -0.8143315492597893,
                0.28811602670060155,
                -3.1794166704678575
            ]
        },
        {
            "positions": [
                -0.008262334223772344,
                -1.2059037722217498,
                2.09939129124153,
                -0.8481907125938062,
                0.44664533566380193,
                -3.166344113217584
            ]
        },
        {
            "positions": [
                -0.07379927569739955,
                -1.2391130945759274,
                2.1633128072026335,
                -0.8820498759278229,
                0.6051746446270022,
                -3.15327155596731
            ]
        },
        {
            "positions": [
                -0.1393362171710268,
                -1.272322416930105,
                2.227234323163737,
                -0.9159090392618396,
                0.7637039535902026,
                -3.140198998717036
            ]
        },
        {
            "positions": [
                -0.20487315864465405,
                -1.3055317392842827,
                2.29115583912484,
                -0.9497682025958565,
                0.922233262553403,
                -3.1271264414667623
            ]
        },
        {
            "positions": [
                -0.2704101001182812,
                -1.33874106163846,
                2.355077355085944,
                -0.9836273659298731,
                1.0807625715166032,
                -3.1140538842164887
            ]
        },
        {
            "positions": [
                -0.33594704159190847,
                -1.3719503839926377,
                2.418998871047047,
                -1.01748652926389,
                1.2392918804798037,
                -3.100981326966215
            ]
        }
    ]
}{
    "goal": {
        "global_pose": {
            "orientation": {
                "w": 0.5084816217422485,
                "x": -0.49083608388900757,
                "y": 0.5182115435600281,
                "z": -0.4816462993621826
            },
            "position": {
                "x": 0.5540239810943604,
                "y": 0.030875300988554955,
                "z": 0.16403168439865112
            }
        },
        "name": "move_to_storage_A"
    },
    "id": "FMT_move_to_storage_A_16",
    "joint_names": [
        "shoulder_pan_joint",
        "shoulder_lift_joint",
        "elbow_joint",
        "wrist_1_joint",
        "wrist_2_joint",
        "wrist_3_joint"
    ],
    "metrics": {
        "cart_traj_len": 0.35257274514945147,
        "distance_elbow_joint": 0.4492514596394499,
        "distance_shoulder_lift_joint": 0.23432375639235703,
        "distance_shoulder_pan_joint": 0.4591544139909795,
        "distance_wrist_1_joint": 0.2413400708353881,
        "distance_wrist_2_joint": 1.1057623647374994,
        "distance_wrist_3_joint": 0.087988130411365,
        "smoothness": 6.661338146305771e-16,
        "time": 0.422337956,
        "traj_len": 1.605559153692893,
        "weighted_distance": 2.0250676266245176
    },
    "planner": "FMT",
    "start": {
        "state": {
            "elbow_joint": 1.97154746011099,
            "shoulder_lift_joint": -1.13948474672311,
            "shoulder_pan_joint": 0.12281154466712228,
            "wrist_1_joint": -0.7804688027058302,
            "wrist_2_joint": 0.12958655903071145,
            "wrist_3_joint": 3.0906928834467795
        }
    },
    "waypoints": [
        {
            "positions": [
                0.12281154466712228,
                -1.13948474672311,
                1.97154746011099,
                -0.7804688027058302,
                0.12958655903071145,
                3.0906928834467795
            ]
        },
        {
            "positions": [
                0.05721805695412521,
                -1.1729595690648753,
                2.035726240059483,
                -0.8149459556823142,
                0.2875526111360685,
                3.103262616362689
            ]
        },
        {
            "positions": [
                -0.008375430758871857,
                -1.2064343914066404,
                2.0999050200079754,
                -0.8494231086587982,
                0.4455186632414255,
                3.115832349278598
            ]
        },
        {
            "positions": [
                -0.07396891847186891,
                -1.2399092137484058,
                2.1640837999564684,
                -0.8839002616352822,
                0.6034847153467826,
                3.1284020821945075
            ]
        },
        {
            "positions": [
                -0.13956240618486598,
                -1.2733840360901711,
                2.2282625799049613,
                -0.9183774146117663,
                0.7614507674521397,
                3.1409718151104165
            ]
        },
        {
            "positions": [
                -0.2051558938978631,
                -1.3068588584319365,
                2.2924413598534543,
                -0.9528545675882503,
                0.9194168195574968,
                3.153541548026326
            ]
        },
        {
            "positions": [
                -0.2707493816108601,
                -1.3403336807737016,
                2.356620139801947,
                -0.9873317205647343,
                1.0773828716628537,
                3.166111280942235
            ]
        },
        {
            "positions": [
                -0.3363428693238572,
                -1.373808503115467,
                2.42079891975044,
                -1.0218088735412183,
                1.235348923768211,
                3.1786810138581445
            ]
        }
    ]
}{
    "goal": {
        "global_pose": {
            "orientation": {
                "w": 0.5084816217422485,
                "x": -0.49083608388900757,
                "y": 0.5182115435600281,
                "z": -0.4816462993621826
            },
            "position": {
                "x": 0.5540239810943604,
                "y": 0.030875300988554955,
                "z": 0.16403168439865112
            }
        },
        "name": "move_to_storage_A"
    },
    "id": "FMT_move_to_storage_A_16",
    "joint_names": [
        "shoulder_pan_joint",
        "shoulder_lift_joint",
        "elbow_joint",
        "wrist_1_joint",
        "wrist_2_joint",
        "wrist_3_joint"
    ],
    "metrics": {
        "cart_traj_len": 0.35333051347112854,
        "distance_elbow_joint": 0.44901025112688986,
        "distance_shoulder_lift_joint": 0.23655348997767134,
        "distance_shoulder_pan_joint": 0.46170858754146327,
        "distance_wrist_1_joint": 0.2366643806091544,
        "distance_wrist_2_joint": 1.1015275146706975,
        "distance_wrist_3_joint": 0.10135985310558615,
        "smoothness": 0.0,
        "time": 0.555479353,
        "traj_len": 1.608360680019088,
        "weighted_distance": 2.031682967030655
    },
    "planner": "FMT",
    "start": {
        "state": {
            "elbow_joint": 1.9715472970024885,
            "shoulder_lift_joint": -1.1394870060712896,
            "shoulder_pan_joint": 0.12281152778156021,
            "wrist_1_joint": -0.780463741449964,
            "wrist_2_joint": 0.12958659822042276,
            "wrist_3_joint": 3.090690232415272
        }
    },
    "waypoints": [
        {
            "positions": [
                0.12281152778156021,
                -1.1394870060712896,
                1.9715472970024885,
                -0.780463741449964,
                0.12958659822042276,
                3.090690232415272
            ]
        },
        {
            "positions": [
                0.056853158132779746,
                -1.1732803617823855,
                2.035691618592044,
                -0.8142729386798432,
                0.2869476717448081,
                3.1051702114303557
            ]
        },
        {
            "positions": [
                -0.009105211516000716,
                -1.2070737174934814,
                2.0998359401816,
                -0.8480821359097224,
                0.4443087452691935,
                3.1196501904454395
            ]
        },
        {
            "positions": [
                -0.07506358116478118,
                -1.2408670732045772,
                2.1639802617711554,
                -0.8818913331396016,
                0.6016698187935788,
                3.1341301694605233
            ]
        },
        {
            "positions": [
                -0.14102195081356164,
                -1.274660428915673,
                2.228124583360711,
                -0.9157005303694807,
                0.7590308923179642,
                3.1486101484756066
            ]
        },
        {
            "positions": [
                -0.20698032046234213,
                -1.3084537846267692,
                2.292268904950267,
                -0.94950972759936,
                0.9163919658423496,
                3.1630901274906904
            ]
        },
        {
            "positions": [
                -0.2729386901111226,
                -1.342247140337865,
                2.3564132265398228,
                -0.9833189248292392,
                1.073753039366735,
                3.177570106505774
            ]
        },
        {
            "positions": [
                -0.33889705975990303,
                -1.376040496048961,
                2.4205575481293784,
                -1.0171281220591184,
                1.2311141128911203,
                3.192050085520858
            ]
        }
    ]
}