{
    "goal": {
        "global_pose": {
            "orientation": {
                "w": 0.7031023480610252,
                "x": -0.7110244013736278,
                "y": 0.0077485991402295624,
                "z": 0.005598929693374583
            },
            "position": {
                "x": -0.8841497679147869,
                "y": 0.44412534475326537,
                "z": 0.3711530566215515
            }
        },
        "name": "move_to_auspresseinheit_D"
    },
    "id": "FMT_move_to_auspresseinheit_D_118",
    "joint_names": [
        "shoulder_pan_joint",
        "shoulder_lift_joint",
        "elbow_joint",
        "wrist_1_joint",
        "wrist_2_joint",
        "wrist_3_joint"
    ],
    "metrics": {
        "cart_traj_len": 0.3438115565661786,
        "distance_elbow_joint": 0.6373659547037291,
        "distance_shoulder_lift_joint": 0.11983357442953091,
        "distance_shoulder_pan_joint": 0.1342054992442036,
        "distance_wrist_1_joint": 0.5275363244390476,
        "distance_wrist_2_joint": 1.4363003592636772,
        "distance_wrist_3_joint": 0.008529939134323428,
        "smoothness": 1.1842378929335002e-15,
        "time": 0.5419059589999999,
        "traj_len": 1.692268197188174,
        "weighted_distance": 2.2010607018403383
    },
    "planner": "FMT",
    "start": {
        "state": {
            "elbow_joint": -1.8275523626775212,
            "shoulder_lift_joint": -2.126789852344167,
            "shoulder_pan_joint": -0.03513704404078235,
            "wrist_1_joint": -2.347782403156801,
            "wrist_2_joint": -1.6058999987535132,
            "wrist_3_joint": -3.0880379163319196
        }
    },
    "waypoints": [
        {
            "positions": [
                -0.03513704404078235,
                -2.126789852344167,
                -1.8275523626775212,
                -2.347782403156801,
                -1.6058999987535132,
                -3.0880379163319196
            ]
        },
        {
            "positions": [
                -0.0519127314463078,
                -2.1417690491478583,
                -1.7478816183395551,
                -2.413724443711682,
                -1.4263624538455535,
                -3.08910415872371
            ]
        },
        {
            "positions": [
                -0.06868841885183324,
                -2.1567482459515497,
                -1.6682108740015889,
                -2.4796664842665628,
                -1.2468249089375938,
                -3.0901704011155005
            ]
        },
        {
            "positions": [
                -0.0854641062573587,
                -2.171727442755241,
                -1.5885401296636228,
                -2.5456085248214437,
                -1.0672873640296343,
                -3.091236643507291
            ]
        },
        {
            "positions": [
                -0.10223979366288416,
                -2.186706639558932,
                -1.5088693853256565,
                -2.6115505653763247,
                -0.8877498191216746,
                -3.0923028858990813
            ]
        },
        {
            "positions": [
                -0.11901548106840962,
                -2.2016858363626235,
                -1.4291986409876904,
                -2.6774926059312056,
                -0.7082122742137149,
                -3.0933691282908717
            ]
        },
        {
            "positions": [
                -0.13579116847393505,
                -2.216665033166315,
                -1.3495278966497244,
                -2.7434346464860866,
                -0.5286747293057554,
                -3.094435370682662
            ]
        },
        {
            "positions": [
                -0.1525668558794605,
                -2.2316442299700063,
                -1.2698571523117583,
                -2.8093766870409675,
                -0.34913718439779573,
                -3.0955016130744526
            ]
        },
        {
            "positions": [
                -0.16934254328498596,
                -2.2466234267736978,
                -1.190186407973792,
                -2.8753187275958485,
                -0.16959963948983597,
                -3.096567855466243
            ]
        }
    ]
}