{
    "goal": {
        "global_pose": {
            "orientation": {
                "w": 0.005598929693374612,
                "x": 0.007748599140229565,
                "y": 0.7110244013736278,
                "z": -0.7031023480610252
            },
            "position": {
                "x": 0.1141497679147869,
                "y": -0.7141253447532654,
                "z": 0.3711530566215515
            }
        },
        "name": "move_to_auspresseinheit_B"
    },
    "id": "FMT_move_to_auspresseinheit_B_138",
    "joint_names": [
        "shoulder_pan_joint",
        "shoulder_lift_joint",
        "elbow_joint",
        "wrist_1_joint",
        "wrist_2_joint",
        "wrist_3_joint"
    ],
    "metrics": {
        "cart_traj_len": 0.5641622450507306,
        "distance_elbow_joint": 0.0582772551204076,
        "distance_shoulder_lift_joint": 0.29569696525930067,
        "distance_shoulder_pan_joint": 0.5757625229351151,
        "distance_wrist_1_joint": 0.31542207714935777,
        "distance_wrist_2_joint": 1.0021572114906714,
        "distance_wrist_3_joint": 0.004746392142541911,
        "smoothness": 5.075305295617109e-16,
        "time": 0.464936275,
        "traj_len": 1.5006873172308062,
        "weighted_distance": 1.8918600627484337
    },
    "planner": "FMT",
    "start": {
        "state": {
            "elbow_joint": 2.0193083361928714,
            "shoulder_lift_joint": -1.1220246554650708,
            "shoulder_pan_joint": -1.0952077554168747,
            "wrist_1_joint": -0.8559753972642168,
            "wrist_2_joint": 0.4759566250798843,
            "wrist_3_joint": -3.1240929996934557
        }
    },
    "waypoints": [
        {
            "positions": [
                -1.0952077554168747,
                -1.1220246554650708,
                2.0193083361928714,
                -0.8559753972642168,
                0.4759566250798843,
                -3.1240929996934557
            ]
        },
        {
            "positions": [
                -1.1911681759060606,
                -1.1713074830082877,
                2.00959546033947,
                -0.8034050510726571,
                0.6429828269949962,
                -3.124884065050546
            ]
        },
        {
            "positions": [
                -1.2871285963952463,
                -1.2205903105515044,
                1.9998825844860688,
                -0.7508347048810975,
                0.8100090289101081,
                -3.1256751304076364
            ]
        },
        {
            "positions": [
                -1.383089016884432,
                -1.269873138094721,
                1.9901697086326675,
                -0.6982643586895378,
                0.9770352308252199,
                -3.126466195764727
            ]
        },
        {
            "positions": [
                -1.479049437373618,
                -1.319155965637938,
                1.9804568327792664,
                -0.6456940124979783,
                1.1440614327403318,
                -3.127257261121817
            ]
        },
        {
            "positions": [
                -1.575009857862804,
                -1.3684387931811548,
                1.9707439569258651,
                -0.5931236663064186,
                1.3110876346554439,
                -3.128048326478907
            ]
        },
        {
            "positions": [
                -1.6709702783519897,
                -1.4177216207243715,
                1.9610310810724638,
                -0.540553320114859,
                1.4781138365705557,
                -3.1288393918359976
            ]
        }
    ]
}