{
    "goal": {
        "global_pose": {
            "orientation": {
                "w": -0.4816463035849501,
                "x": 0.5182115481033762,
                "y": 0.4908360881923453,
                "z": -0.5084816262002911
            },
            "position": {
                "x": -0.8240239810943604,
                "y": -0.300875300988555,
                "z": 0.16403168439865112
            }
        },
        "name": "move_to_storage_C"
    },
    "id": "FMT_move_to_storage_C_22",
    "joint_names": [
        "shoulder_pan_joint",
        "shoulder_lift_joint",
        "elbow_joint",
        "wrist_1_joint",
        "wrist_2_joint",
        "wrist_3_joint"
    ],
    "metrics": {
        "cart_traj_len": 0.576740314053769,
        "distance_elbow_joint": 0.25466105114515836,
        "distance_shoulder_lift_joint": 0.18993925627712682,
        "distance_shoulder_pan_joint": 0.4957767501725545,
        "distance_wrist_1_joint": 0.0647836293192735,
        "distance_wrist_2_joint": 1.0601224703408545,
        "distance_wrist_3_joint": 0.06416692434561355,
        "smoothness": 0.0,
        "time": 0.317470563,
        "traj_len": 1.4592635408316694,
        "weighted_distance": 1.8392090772807577
    },
    "planner": "FMT",
    "start": {
        "state": {
            "elbow_joint": 2.010868314990456,
            "shoulder_lift_joint": -1.1634956873337592,
            "shoulder_pan_joint": -2.4736205022346125,
            "wrist_1_joint": -0.8367026794202681,
            "wrist_2_joint": 0.6746043897044499,
            "wrist_3_joint": -3.1496632123970403
        }
    },
    "waypoints": [
        {
            "positions": [
                -2.4736205022346125,
                -1.1634956873337592,
                2.010868314990456,
                -0.8367026794202681,
                0.6746043897044499,
                -3.1496632123970403
            ]
        },
        {
            "positions": [
                -2.556249960596705,
                -1.1318391446209046,
                1.9684248064662628,
                -0.8259054078670558,
                0.8512914680945923,
                -3.1389687250061047
            ]
        },
        {
            "positions": [
                -2.638879418958797,
                -1.1001826019080503,
                1.9259812979420696,
                -0.8151081363138436,
                1.0279785464847349,
                -3.128274237615169
            ]
        },
        {
            "positions": [
                -2.7215088773208898,
                -1.0685260591951957,
                1.8835377894178766,
                -0.8043108647606314,
                1.204665624874877,
                -3.1175797502242335
            ]
        },
        {
            "positions": [
                -2.8041383356829823,
                -1.0368695164823414,
                1.8410942808936837,
                -0.7935135932074191,
                1.3813527032650197,
                -3.106885262833298
            ]
        },
        {
            "positions": [
                -2.8867677940450744,
                -1.0052129737694868,
                1.7986507723694904,
                -0.7827163216542068,
                1.5580397816551619,
                -3.0961907754423623
            ]
        },
        {
            "positions": [
                -2.969397252407167,
                -0.9735564310566324,
                1.7562072638452975,
                -0.7719190501009946,
                1.7347268600453045,
                -3.0854962880514267
            ]
        }
    ]
}