{
    "goal": {
        "global_pose": {
            "orientation": {
                "w": 0.7047431468963623,
                "x": -0.7094548344612122,
                "y": 0.0024358443915843964,
                "z": -0.0022348060738295317
            },
            "position": {
                "x": 0.6094750761985779,
                "y": 0.3671506643295288,
                "z": 0.19426114857196808
            }
        },
        "name": "move_to_magneteinheit_A"
    },
    "id": "FMT_move_to_magneteinheit_A_80",
    "joint_names": [
        "shoulder_pan_joint",
        "shoulder_lift_joint",
        "elbow_joint",
        "wrist_1_joint",
        "wrist_2_joint",
        "wrist_3_joint"
    ],
    "metrics": {
        "cart_traj_len": 3.0399421626482366,
        "distance_elbow_joint": 3.8779412302728473,
        "distance_shoulder_lift_joint": 0.6973596598585068,
        "distance_shoulder_pan_joint": 2.78268733270316,
        "distance_wrist_1_joint": 2.852213936532404,
        "distance_wrist_2_joint": 1.706832312443531,
        "distance_wrist_3_joint": 2.592615869745989,
        "smoothness": 0.19622470114277257,
        "time": 1.292187211,
        "traj_len": 3.809153494092412,
        "weighted_distance": 4.92482774622873
    },
    "planner": "FMT",
    "start": {
        "state": {
            "elbow_joint": -1.9196185241190666,
            "shoulder_lift_joint": -1.2443396400964142,
            "shoulder_pan_joint": 2.6996025414629847,
            "wrist_1_joint": -1.5485510000780065,
            "wrist_2_joint": -1.5709468930060704,
            "wrist_3_joint": 0.4420197071253992
        }
    },
    "waypoints": [
        {
            "positions": [
                2.6996025414629847,
                -1.2443396400964142,
                -1.9196185241190666,
                -1.5485510000780065,
                -1.5709468930060704,
                0.4420197071253992
            ]
        },
        {
            "positions": [
                2.6120945222200858,
                -1.254096609751178,
                -1.803628522174145,
                -1.487097215894692,
                -1.5162596181455856,
                0.49798377540042144
            ]
        },
        {
            "positions": [
                2.5245865029771872,
                -1.2638535794059418,
                -1.6876385202292237,
                -1.4256434317113778,
                -1.4615723432851009,
                0.5539478436754437
            ]
        },
        {
            "positions": [
                2.4370784837342883,
                -1.2736105490607057,
                -1.571648518284302,
                -1.3641896475280633,
                -1.4068850684246161,
                0.609911911950466
            ]
        },
        {
            "positions": [
                2.3495704644913893,
                -1.2833675187154696,
                -1.4556585163393807,
                -1.3027358633447488,
                -1.3521977935641316,
                0.6658759802254883
            ]
        },
        {
            "positions": [
                2.2620624452484903,
                -1.2931244883702333,
                -1.339668514394459,
                -1.2412820791614345,
                -1.2975105187036469,
                0.7218400485005105
            ]
        },
        {
            "positions": [
                2.1745544260055913,
                -1.3028814580249972,
                -1.2236785124495375,
                -1.17982829497812,
                -1.2428232438431621,
                0.7778041167755328
            ]
        },
        {
            "positions": [
                2.087046406762693,
                -1.312638427679761,
                -1.107688510504616,
                -1.1183745107948055,
                -1.1881359689826774,
                0.8337681850505552
            ]
        },
        {
            "positions": [
                1.9995383875197938,
                -1.3223953973345248,
                -0.9916985085596947,
                -1.0569207266114913,
                -1.1334486941221926,
                0.8897322533255774
            ]
        },
        {
            "positions": [
                1.9120303682768949,
                -1.3321523669892887,
                -0.8757085066147732,
                -0.9954669424281768,
                -1.078761419261708,
                0.9456963216005997
            ]
        },
        {
            "positions": [
                1.8245223490339961,
                -1.3419093366440524,
                -0.7597185046698516,
                -0.9340131582448624,
                -1.0240741444012234,
                1.0016603898756218
            ]
        },
        {
            "positions": [
                1.7370143297910974,
                -1.3516663062988163,
                -0.6437285027249302,
                -0.872559374061548,
                -0.9693868695407386,
                1.0576244581506442
            ]
        },
        {
            "positions": [
                1.6495063105481982,
                -1.3614232759535803,
                -0.5277385007800084,
                -0.8111055898782336,
                -0.9146995946802539,
                1.1135885264256666
            ]
        },
        {
            "positions": [
                1.5619982913052994,
                -1.371180245608344,
                -0.411748498835087,
                -0.7496518056949191,
                -0.8600123198197691,
                1.1695525947006888
            ]
        },
        {
            "positions": [
                1.4744902720624005,
                -1.3809372152631079,
                -0.2957584968901654,
                -0.6881980215116047,
                -0.8053250449592845,
                1.225516662975711
            ]
        },
        {
            "positions": [
                1.3869822528195017,
                -1.3906941849178716,
                -0.17976849494524405,
                -0.6267442373282903,
                -0.7506377700987997,
                1.2814807312507335
            ]
        },
        {
            "positions": [
                1.299474233576603,
                -1.4004511545726355,
                -0.06377849300032268,
                -0.565290453144976,
                -0.695950495238315,
                1.3374447995257557
            ]
        },
        {
            "positions": [
                1.211966214333704,
                -1.4102081242273994,
                0.05221150894459892,
                -0.5038366689616616,
                -0.6412632203778303,
                1.3934088678007779
            ]
        },
        {
            "positions": [
                1.1244581950908052,
                -1.419965093882163,
                0.1682015108895203,
                -0.4423828847783471,
                -0.5865759455173456,
                1.4493729360758003
            ]
        },
        {
            "positions": [
                1.0369501758479063,
                -1.429722063536927,
                0.2841915128344419,
                -0.3809291005950328,
                -0.5318886706568609,
                1.5053370043508223
            ]
        },
        {
            "positions": [
                0.9494421566050075,
                -1.439479033191691,
                0.4001815147793635,
                -0.31947531641171834,
                -0.4772013957963763,
                1.5613010726258447
            ]
        },
        {
            "positions": [
                0.8619341373621086,
                -1.4492360028464546,
                0.5161715167242846,
                -0.25802153222840385,
                -0.4225141209358916,
                1.6172651409008671
            ]
        },
        {
            "positions": [
                0.7744261181192098,
                -1.4589929725012185,
                0.6321615186692062,
                -0.19656774804508959,
                -0.36782684607540683,
                1.6732292091758891
            ]
        },
        {
            "positions": [
                0.6869180988763106,
                -1.4687499421559824,
                0.7481515206141283,
                -0.13511396386177488,
                -0.31313957121492186,
                1.7291932774509116
            ]
        },
        {
            "positions": [
                0.5994100796334116,
                -1.4785069118107461,
                0.8641415225590499,
                -0.07366017967846061,
                -0.25845229635443734,
                1.785157345725934
            ]
        },
        {
            "positions": [
                0.5119020603905131,
                -1.48826388146551,
                0.980131524503971,
                -0.012206395495146127,
                -0.2037650214939526,
                1.8411214140009564
            ]
        },
        {
            "positions": [
                0.42439404114761414,
                -1.4980208511202737,
                1.0961215264488926,
                0.04924738868816836,
                -0.14907774663346784,
                1.8970854822759784
            ]
        },
        {
            "positions": [
                0.33688602190471517,
                -1.5077778207750376,
                1.2121115283938142,
                0.11070117287148262,
                -0.0943904717729831,
                1.9530495505510008
            ]
        },
        {
            "positions": [
                0.2493780026618162,
                -1.5175347904298016,
                1.3281015303387358,
                0.1721549570547971,
                -0.03970319691249857,
                2.009013618826023
            ]
        },
        {
            "positions": [
                0.16186998341891767,
                -1.5272917600845655,
                1.444091532283657,
                0.23360874123811137,
                0.014984077947986174,
                2.0649776871010452
            ]
        },
        {
            "positions": [
                0.07436196417601877,
                -1.5370487297393292,
                1.5600815342285783,
                0.2950625254214259,
                0.069671352808471,
                2.1209417553760677
            ]
        },
        {
            "positions": [
                0.04683597892923262,
                -1.4971464193996833,
                1.6501950628748256,
                0.2009918317541353,
                0.0740646626347359,
                2.2423795286187747
            ]
        },
        {
            "positions": [
                0.01930999368244648,
                -1.4572441090600372,
                1.740308591521073,
                0.10692113808684467,
                0.07845797246100081,
                2.3638173018614816
            ]
        },
        {
            "positions": [
                0.03637579116955006,
                -1.4031031174706539,
                1.776644277293191,
                -0.02982203252955362,
                0.08802921362374404,
                2.475620347696466
            ]
        },
        {
            "positions": [
                0.05344158865665363,
                -1.3489621258812705,
                1.812979963065309,
                -0.1665652031459519,
                0.09760045478648725,
                2.5874233935314503
            ]
        },
        {
            "positions": [
                0.0705073861437572,
                -1.2948211342918872,
                1.8493156488374267,
                -0.30330837376235026,
                0.10717169594923048,
                2.699226439366435
            ]
        },
        {
            "positions": [
                0.08757318363086078,
                -1.240680142702504,
                1.8856513346095447,
                -0.4400515443787485,
                0.1167429371119737,
                2.8110294852014195
            ]
        },
        {
            "positions": [
                0.10463898111796438,
                -1.1865391511131207,
                1.9219870203816627,
                -0.5767947149951469,
                0.12631417827471694,
                2.922832531036404
            ]
        },
        {
            "positions": [
                0.12170477860506795,
                -1.1323981595237373,
                1.9583227061537807,
                -0.7135378856115452,
                0.13588541943746016,
                3.034635576871388
            ]
        }
    ]
}