{
    "goal": {
        "global_pose": {
            "orientation": {
                "w": 0.7031023502349854,
                "x": -0.7110244035720825,
                "y": 0.007748599164187908,
                "z": 0.005598929710686207
            },
            "position": {
                "x": 0.11585023208521307,
                "y": 0.44412534475326537,
                "z": 0.3711530566215515
            }
        },
        "name": "move_to_auspresseinheit_A"
    },
    "id": "FMT_move_to_auspresseinheit_A_132",
    "joint_names": [
        "shoulder_pan_joint",
        "shoulder_lift_joint",
        "elbow_joint",
        "wrist_1_joint",
        "wrist_2_joint",
        "wrist_3_joint"
    ],
    "metrics": {
        "cart_traj_len": 1.1235513618650226,
        "distance_elbow_joint": 0.35077643363589095,
        "distance_shoulder_lift_joint": 1.2115850209236745,
        "distance_shoulder_pan_joint": 1.2872874156130494,
        "distance_wrist_1_joint": 2.5942073458791923,
        "distance_wrist_2_joint": 0.5217067345890173,
        "distance_wrist_3_joint": 0.4721315441751277,
        "smoothness": 1.335295772029742,
        "time": 1.322335633,
        "traj_len": 2.53726121927088,
        "weighted_distance": 3.2400419231291466
    },
    "planner": "FMT",
    "start": {
        "state": {
            "elbow_joint": 2.4225746658250005,
            "shoulder_lift_joint": -1.3736534386056498,
            "shoulder_pan_joint": -0.3378633547517467,
            "wrist_1_joint": -1.0288598680537169,
            "wrist_2_joint": 1.233022673432363,
            "wrist_3_joint": -3.0940220416140027
        }
    },
    "waypoints": [
        {
            "positions": [
                -0.3378633547517467,
                -1.3736534386056498,
                2.4225746658250005,
                -1.0288598680537169,
                1.233022673432363,
                -3.0940220416140027
            ]
        },
        {
            "positions": [
                -0.2407650454148498,
                -1.4464325017214221,
                2.4066271577521103,
                -0.8966973873908242,
                1.1996883049006402,
                -3.0761167492982047
            ]
        },
        {
            "positions": [
                -0.14366673607795288,
                -1.5192115648371944,
                2.39067964967922,
                -0.7645349067279315,
                1.1663539363689173,
                -3.058211456982406
            ]
        },
        {
            "positions": [
                -0.046568426741055935,
                -1.5919906279529668,
                2.37473214160633,
                -0.6323724260650387,
                1.1330195678371944,
                -3.0403061646666076
            ]
        },
        {
            "positions": [
                0.05052988259584096,
                -1.6647696910687388,
                2.3587846335334404,
                -0.500209945402146,
                1.0996851993054715,
                -3.0224008723508096
            ]
        },
        {
            "positions": [
                0.14762819193273796,
                -1.7375487541845114,
                2.3428371254605502,
                -0.3680474647392532,
                1.0663508307737486,
                -3.0044955800350115
            ]
        },
        {
            "positions": [
                0.24472650126963486,
                -1.8103278173002835,
                2.32688961738766,
                -0.2358849840763605,
                1.0330164622420257,
                -2.986590287719213
            ]
        },
        {
            "positions": [
                0.34182481060653186,
                -1.8831068804160558,
                2.31094210931477,
                -0.10372250341346767,
                0.9996820937103027,
                -2.9686849954034145
            ]
        },
        {
            "positions": [
                0.43892311994342864,
                -1.955885943531828,
                2.29499460124188,
                0.02843997724942482,
                0.9663477251785799,
                -2.9507797030876164
            ]
        },
        {
            "positions": [
                0.5360214292803256,
                -2.0286650066476004,
                2.27904709316899,
                0.16060245791231775,
                0.9330133566468569,
                -2.9328744107718183
            ]
        },
        {
            "positions": [
                0.6331197386172227,
                -2.1014440697633727,
                2.2630995850961,
                0.29276493857521046,
                0.899678988115134,
                -2.91496911845602
            ]
        },
        {
            "positions": [
                0.7302180479541196,
                -2.174223132879145,
                2.24715207702321,
                0.4249274192381032,
                0.8663446195834111,
                -2.8970638261402213
            ]
        },
        {
            "positions": [
                0.8273163572910165,
                -2.2470021959949174,
                2.2312045689503197,
                0.5570898999009959,
                0.8330102510516882,
                -2.879158533824423
            ]
        },
        {
            "positions": [
                0.8069650733626353,
                -2.1906294854058497,
                2.257772291743855,
                0.38904697024691587,
                0.8127278656836312,
                -2.922036539888681
            ]
        },
        {
            "positions": [
                0.7866137894342543,
                -2.1342567748167816,
                2.2843400145373898,
                0.22100404059283585,
                0.792445480315574,
                -2.964914545952939
            ]
        },
        {
            "positions": [
                0.7662625055058732,
                -2.077884064227714,
                2.3109077373309246,
                0.05296111093875577,
                0.772163094947517,
                -3.0077925520171975
            ]
        },
        {
            "positions": [
                0.745911221577492,
                -2.021511353638646,
                2.33747546012446,
                -0.11508181871532419,
                0.75188070957946,
                -3.0506705580814555
            ]
        },
        {
            "positions": [
                0.725559937649111,
                -1.965138643049578,
                2.364043182917995,
                -0.2831247483694044,
                0.7315983242114028,
                -3.0935485641457134
            ]
        },
        {
            "positions": [
                0.7052086537207298,
                -1.9087659324605104,
                2.39061090571153,
                -0.45116767802348423,
                0.7113159388433458,
                -3.1364265702099714
            ]
        }
    ]
}