{
    "goal": {
        "global_pose": {
            "orientation": {
                "w": -0.00223480608172531,
                "x": 0.0024358444001904467,
                "y": 0.7094548369677653,
                "z": -0.704743149386269
            },
            "position": {
                "x": -0.37947507619857795,
                "y": -0.6371506643295288,
                "z": 0.19426114857196808
            }
        },
        "name": "move_to_magneteinheit_C"
    },
    "id": "FMT_move_to_magneteinheit_C_142",
    "joint_names": [
        "shoulder_pan_joint",
        "shoulder_lift_joint",
        "elbow_joint",
        "wrist_1_joint",
        "wrist_2_joint",
        "wrist_3_joint"
    ],
    "metrics": {
        "cart_traj_len": 1.0066165348053866,
        "distance_elbow_joint": 0.9733314544961171,
        "distance_shoulder_lift_joint": 0.5104272130838039,
        "distance_shoulder_pan_joint": 0.8027085866893227,
        "distance_wrist_1_joint": 0.32628060635915557,
        "distance_wrist_2_joint": 1.3070233209314308,
        "distance_wrist_3_joint": 0.02132104970775206,
        "smoothness": 1.1579622476402074,
        "time": 1.2887331110000002,
        "traj_len": 1.9852184341446113,
        "weighted_distance": 2.370029168169386
    },
    "planner": "FMT",
    "start": {
        "state": {
            "elbow_joint": 1.9565354010623817,
            "shoulder_lift_joint": -1.4165861575791021,
            "shoulder_pan_joint": -1.6717766225146293,
            "wrist_1_joint": -0.5286633292919765,
            "wrist_2_joint": 1.472756589071564,
            "wrist_3_joint": -3.1238370188695823
        }
    },
    "waypoints": [
        {
            "positions": [
                -1.6717766225146293,
                -1.4165861575791021,
                1.9565354010623817,
                -0.5286633292919765,
                1.472756589071564,
                -3.1238370188695823
            ]
        },
        {
            "positions": [
                -1.689193775412109,
                -1.4422809248737756,
                2.0596173159219267,
                -0.5548620938403211,
                1.261958255793294,
                -3.1276412358756858
            ]
        },
        {
            "positions": [
                -1.7066109283095885,
                -1.467975692168449,
                2.1626992307814716,
                -0.5810608583886658,
                1.051159922515024,
                -3.131445452881789
            ]
        },
        {
            "positions": [
                -1.724028081207068,
                -1.4936704594631225,
                2.265781145641017,
                -0.6072596229370106,
                0.8403615892367542,
                -3.135249669887892
            ]
        },
        {
            "positions": [
                -1.7414452341045477,
                -1.519365226757796,
                2.368863060500562,
                -0.6334583874853553,
                0.6295632559584843,
                -3.1390538868939957
            ]
        },
        {
            "positions": [
                -1.7588623870020272,
                -1.5450599940524694,
                2.471944975360107,
                -0.6596571520337,
                0.4187649226802144,
                -3.142858103900099
            ]
        },
        {
            "positions": [
                -1.8781328573690148,
                -1.48140109795073,
                2.3956246619937085,
                -0.692204949303272,
                0.4609368651035613,
                -3.142474776453893
            ]
        },
        {
            "positions": [
                -1.9974033277360022,
                -1.4177422018489905,
                2.31930434862731,
                -0.724752746572844,
                0.5031088075269081,
                -3.142091449007687
            ]
        },
        {
            "positions": [
                -2.1166737981029895,
                -1.3540833057472512,
                2.2429840352609114,
                -0.7573005438424161,
                0.545280749950255,
                -3.1417081215614813
            ]
        },
        {
            "positions": [
                -2.235944268469977,
                -1.2904244096455117,
                2.1666637218945124,
                -0.789848341111988,
                0.5874526923736019,
                -3.1413247941152758
            ]
        },
        {
            "positions": [
                -2.3552147388369646,
                -1.2267655135437723,
                2.090343408528114,
                -0.82239613838156,
                0.6296246347969487,
                -3.14094146666907
            ]
        },
        {
            "positions": [
                -2.474485209203952,
                -1.1631066174420328,
                2.0140230951617153,
                -0.854943935651132,
                0.6717965772202956,
                -3.140558139222864
            ]
        }
    ]
}