{
    "goal": {
        "global_pose": {
            "orientation": {
                "w": 0.7031023502349854,
                "x": -0.7110244035720825,
                "y": 0.007748599164187908,
                "z": 0.005598929710686207
            },
            "position": {
                "x": 0.11585023208521307,
                "y": 0.44412534475326537,
                "z": 0.3711530566215515
            }
        },
        "name": "move_to_auspresseinheit_A"
    },
    "id": "FMT_move_to_auspresseinheit_A_84",
    "joint_names": [
        "shoulder_pan_joint",
        "shoulder_lift_joint",
        "elbow_joint",
        "wrist_1_joint",
        "wrist_2_joint",
        "wrist_3_joint"
    ],
    "metrics": {
        "cart_traj_len": 0.893468628331872,
        "distance_elbow_joint": 0.23764286824569547,
        "distance_shoulder_lift_joint": 0.9553089566839394,
        "distance_shoulder_pan_joint": 1.212809223012007,
        "distance_wrist_1_joint": 2.0110890918602684,
        "distance_wrist_2_joint": 0.6461581423280521,
        "distance_wrist_3_joint": 0.11168018670388413,
        "smoothness": 1.2968525909628488,
        "time": 1.252154088,
        "traj_len": 2.27479415966233,
        "weighted_distance": 2.838185349202891
    },
    "planner": "FMT",
    "start": {
        "state": {
            "elbow_joint": 2.4225746658250005,
            "shoulder_lift_joint": -1.3736534386056498,
            "shoulder_pan_joint": -0.3378633547517467,
            "wrist_1_joint": -1.0288598680537169,
            "wrist_2_joint": 1.233022673432363,
            "wrist_3_joint": -3.0940220416140027
        }
    },
    "waypoints": [
        {
            "positions": [
                -0.3378633547517467,
                -1.3736534386056498,
                2.4225746658250005,
                -1.0288598680537169,
                1.233022673432363,
                -3.0940220416140027
            ]
        },
        {
            "positions": [
                -0.2566272026775453,
                -1.4443728268689295,
                2.402603580655648,
                -0.8670651378415006,
                1.2498876833567212,
                -3.0850976821960154
            ]
        },
        {
            "positions": [
                -0.17539105060334387,
                -1.5150922151322095,
                2.3826324954862956,
                -0.7052704076292844,
                1.2667526932810795,
                -3.0761733227780277
            ]
        },
        {
            "positions": [
                -0.09415489852914244,
                -1.5858116033954892,
                2.3626614103169437,
                -0.5434756774170681,
                1.2836177032054377,
                -3.06724896336004
            ]
        },
        {
            "positions": [
                -0.01291874645494101,
                -1.656530991658769,
                2.3426903251475912,
                -0.3816809472048519,
                1.3004827131297958,
                -3.0583246039420526
            ]
        },
        {
            "positions": [
                0.12139312832578902,
                -1.7335541236480785,
                2.3336987268131493,
                -0.27475343889294424,
                1.2514820349077491,
                -3.0599705072109713
            ]
        },
        {
            "positions": [
                0.25570500310651906,
                -1.8105772556373878,
                2.3247071284787078,
                -0.16782593058103656,
                1.2024813566857022,
                -3.06161641047989
            ]
        },
        {
            "positions": [
                0.3900168778872491,
                -1.8876003876266974,
                2.315715530144266,
                -0.06089842226912889,
                1.1534806784636555,
                -3.063262313748808
            ]
        },
        {
            "positions": [
                0.5243287526679792,
                -1.9646235196160067,
                2.306723931809824,
                0.04602908604277878,
                1.1044800002416089,
                -3.064908217017727
            ]
        },
        {
            "positions": [
                0.6586406274487091,
                -2.0416466516053164,
                2.2977323334753823,
                0.15295659435468645,
                1.055479322019562,
                -3.0665541202866455
            ]
        },
        {
            "positions": [
                0.7929525022294392,
                -2.1186697835946258,
                2.2887407351409403,
                0.2598841026665941,
                1.0064786437975153,
                -3.068200023555564
            ]
        },
        {
            "positions": [
                0.772454160721734,
                -2.066096630670885,
                2.3146929695313494,
                0.07929782238160488,
                0.9353051354729306,
                -3.0847268559101697
            ]
        },
        {
            "positions": [
                0.7519558192140288,
                -2.0135234777471442,
                2.340645203921758,
                -0.10128845790338437,
                0.8641316271483459,
                -3.1012536882647757
            ]
        },
        {
            "positions": [
                0.7314574777063234,
                -1.9609503248234033,
                2.3665974383121666,
                -0.2818747381883736,
                0.7929581188237611,
                -3.117780520619381
            ]
        },
        {
            "positions": [
                0.7109591361986182,
                -1.9083771718996623,
                2.3925496727025757,
                -0.46246101847336285,
                0.7217846104991764,
                -3.1343073529739867
            ]
        }
    ]
}