{
    "goal": {
        "global_pose": {
            "orientation": {
                "w": -0.00223480608172531,
                "x": 0.0024358444001904467,
                "y": 0.7094548369677653,
                "z": -0.704743149386269
            },
            "position": {
                "x": -0.37947507619857795,
                "y": -0.6371506643295288,
                "z": 0.19426114857196808
            }
        },
        "name": "move_to_magneteinheit_C"
    },
    "id": "FMT_move_to_magneteinheit_C_12",
    "joint_names": [
        "shoulder_pan_joint",
        "shoulder_lift_joint",
        "elbow_joint",
        "wrist_1_joint",
        "wrist_2_joint",
        "wrist_3_joint"
    ],
    "metrics": {
        "cart_traj_len": 3.2593172522725644,
        "distance_elbow_joint": 0.6083231985000999,
        "distance_shoulder_lift_joint": 1.333459397277575,
        "distance_shoulder_pan_joint": 4.414193532901265,
        "distance_wrist_1_joint": 2.125191318498605,
        "distance_wrist_2_joint": 1.165254468983598,
        "distance_wrist_3_joint": 1.6175509310314502,
        "smoothness": 0.9685950395786124,
        "time": 1.301685812,
        "traj_len": 3.356184268956726,
        "weighted_distance": 4.217762498853829
    },
    "planner": "FMT",
    "start": {
        "state": {
            "elbow_joint": 1.9565354010623817,
            "shoulder_lift_joint": -1.4165861575791021,
            "shoulder_pan_joint": -1.6717766225146293,
            "wrist_1_joint": -0.5286633292919765,
            "wrist_2_joint": 1.472756589071564,
            "wrist_3_joint": -3.1238370188695823
        }
    },
    "waypoints": [
        {
            "positions": [
                -1.6717766225146293,
                -1.4165861575791021,
                1.9565354010623817,
                -0.5286633292919765,
                1.472756589071564,
                -3.1238370188695823
            ]
        },
        {
            "positions": [
                -1.5513233930586405,
                -1.4526369949038165,
                1.9788112400640174,
                -0.610387377246722,
                1.4075449392011115,
                -3.0705802001524174
            ]
        },
        {
            "positions": [
                -1.4308701636026515,
                -1.4886878322285308,
                2.001087079065653,
                -0.6921114252014675,
                1.3423332893306588,
                -3.017323381435252
            ]
        },
        {
            "positions": [
                -1.3104169341466627,
                -1.5247386695532452,
                2.0233629180672894,
                -0.7738354731562131,
                1.2771216394602063,
                -2.964066562718087
            ]
        },
        {
            "positions": [
                -1.189963704690674,
                -1.5607895068779596,
                2.045638757068925,
                -0.8555595211109587,
                1.2119099895897538,
                -2.9108097440009217
            ]
        },
        {
            "positions": [
                -1.0695104752346851,
                -1.596840344202674,
                2.067914596070561,
                -0.9372835690657042,
                1.1466983397193014,
                -2.857552925283757
            ]
        },
        {
            "positions": [
                -0.9490572457786961,
                -1.6328911815273883,
                2.0901904350721967,
                -1.0190076170204498,
                1.0814866898488487,
                -2.8042961065665915
            ]
        },
        {
            "positions": [
                -0.8286040163227072,
                -1.6689420188521025,
                2.1124662740738325,
                -1.1007316649751953,
                1.0162750399783962,
                -2.7510392878494265
            ]
        },
        {
            "positions": [
                -0.7081507868667184,
                -1.7049928561768168,
                2.1347421130754687,
                -1.182455712929941,
                0.9510633901079436,
                -2.697782469132261
            ]
        },
        {
            "positions": [
                -0.5876975574107295,
                -1.7410436935015312,
                2.1570179520771045,
                -1.2641797608846863,
                0.885851740237491,
                -2.6445256504150962
            ]
        },
        {
            "positions": [
                -0.4672443279547407,
                -1.7770945308262456,
                2.17929379107874,
                -1.345903808839432,
                0.8206400903670386,
                -2.5912688316979313
            ]
        },
        {
            "positions": [
                -0.3467910984987519,
                -1.81314536815096,
                2.201569630080376,
                -1.4276278567941776,
                0.755428440496586,
                -2.538012012980766
            ]
        },
        {
            "positions": [
                -0.22633786904276287,
                -1.8491962054756743,
                2.2238454690820117,
                -1.509351904748923,
                0.6902167906261334,
                -2.4847551942636006
            ]
        },
        {
            "positions": [
                -0.10588463958677385,
                -1.8852470428003887,
                2.246121308083648,
                -1.5910759527036686,
                0.6250051407556808,
                -2.4314983755464357
            ]
        },
        {
            "positions": [
                0.014568589869214943,
                -1.921297880125103,
                2.2683971470852837,
                -1.672800000658414,
                0.5597934908852283,
                -2.3782415568292707
            ]
        },
        {
            "positions": [
                0.13502181932520374,
                -1.9573487174498174,
                2.2906729860869195,
                -1.7545240486131597,
                0.49458184101477576,
                -2.3249847381121054
            ]
        },
        {
            "positions": [
                -0.03880452007889171,
                -1.9045022616226934,
                2.272393945188549,
                -1.694568675334665,
                0.5070538224098964,
                -2.37956464813037
            ]
        },
        {
            "positions": [
                -0.21263085948298716,
                -1.8516558057955694,
                2.254114904290178,
                -1.6346133020561702,
                0.5195258038050171,
                -2.434144558148635
            ]
        },
        {
            "positions": [
                -0.38645719888708263,
                -1.7988093499684454,
                2.235835863391807,
                -1.5746579287776754,
                0.5319977852001377,
                -2.4887244681669
            ]
        },
        {
            "positions": [
                -0.560283538291178,
                -1.7459628941413214,
                2.217556822493436,
                -1.5147025554991806,
                0.5444697665952585,
                -2.543304378185165
            ]
        },
        {
            "positions": [
                -0.7341098776952735,
                -1.6931164383141977,
                2.1992777815950655,
                -1.4547471822206859,
                0.5569417479903791,
                -2.5978842882034296
            ]
        },
        {
            "positions": [
                -0.907936217099369,
                -1.6402699824870735,
                2.180998740696695,
                -1.394791808942191,
                0.5694137293854997,
                -2.6524641982216948
            ]
        },
        {
            "positions": [
                -1.0817625565034643,
                -1.5874235266599497,
                2.162719699798324,
                -1.3348364356636961,
                0.5818857107806205,
                -2.7070441082399594
            ]
        },
        {
            "positions": [
                -1.2555888959075598,
                -1.5345770708328255,
                2.144440658899953,
                -1.2748810623852014,
                0.5943576921757411,
                -2.7616240182582246
            ]
        },
        {
            "positions": [
                -1.4294152353116552,
                -1.4817306150057017,
                2.126161618001582,
                -1.2149256891067066,
                0.6068296735708618,
                -2.8162039282764892
            ]
        },
        {
            "positions": [
                -1.6032415747157507,
                -1.4288841591785777,
                2.1078825771032115,
                -1.1549703158282119,
                0.6193016549659824,
                -2.870783838294754
            ]
        },
        {
            "positions": [
                -1.777067914119846,
                -1.3760377033514537,
                2.089603536204841,
                -1.095014942549717,
                0.6317736363611031,
                -2.925363748313019
            ]
        },
        {
            "positions": [
                -1.9508942535239417,
                -1.3231912475243295,
                2.07132449530647,
                -1.0350595692712221,
                0.6442456177562238,
                -2.979943658331284
            ]
        },
        {
            "positions": [
                -2.1247205929280373,
                -1.2703447916972057,
                2.053045454408099,
                -0.9751041959927275,
                0.6567175991513444,
                -3.034523568349549
            ]
        },
        {
            "positions": [
                -2.2985469323321324,
                -1.2174983358700817,
                2.034766413509728,
                -0.9151488227142327,
                0.6691895805464652,
                -3.0891034783678135
            ]
        },
        {
            "positions": [
                -2.472373271736228,
                -1.1646518800429577,
                2.0164873726113575,
                -0.8551934494357379,
                0.6816615619415858,
                -3.1436833883860786
            ]
        }
    ]
}