{
    "goal": {
        "global_pose": {
            "orientation": {
                "w": 0.7031023502349854,
                "x": -0.7110244035720825,
                "y": 0.007748599164187908,
                "z": 0.005598929710686207
            },
            "position": {
                "x": 0.11585023208521307,
                "y": 0.44412534475326537,
                "z": 0.3711530566215515
            }
        },
        "name": "move_to_auspresseinheit_A"
    },
    "id": "FMT_move_to_auspresseinheit_A_135",
    "joint_names": [
        "shoulder_pan_joint",
        "shoulder_lift_joint",
        "elbow_joint",
        "wrist_1_joint",
        "wrist_2_joint",
        "wrist_3_joint"
    ],
    "metrics": {
        "cart_traj_len": 0.7211943468806499,
        "distance_elbow_joint": 0.17536886677453145,
        "distance_shoulder_lift_joint": 0.5344926240187029,
        "distance_shoulder_pan_joint": 1.0392967020162427,
        "distance_wrist_1_joint": 0.5652437434592292,
        "distance_wrist_2_joint": 1.6714234766649811,
        "distance_wrist_3_joint": 0.37993161251294616,
        "smoothness": 1.1517220425753043,
        "time": 1.022466235,
        "traj_len": 2.0894394045883775,
        "weighted_distance": 2.713353546922468
    },
    "planner": "FMT",
    "start": {
        "state": {
            "elbow_joint": 2.4225746658250005,
            "shoulder_lift_joint": -1.3736534386056498,
            "shoulder_pan_joint": -0.3378633547517467,
            "wrist_1_joint": -1.0288598680537169,
            "wrist_2_joint": 1.233022673432363,
            "wrist_3_joint": -3.0940220416140027
        }
    },
    "waypoints": [
        {
            "positions": [
                -0.3378633547517467,
                -1.3736534386056498,
                2.4225746658250005,
                -1.0288598680537169,
                1.233022673432363,
                -3.0940220416140027
            ]
        },
        {
            "positions": [
                -0.3265175466882317,
                -1.4335561847092089,
                2.407891113071872,
                -0.9608623337150151,
                1.0752831615707006,
                -3.12418808180625
            ]
        },
        {
            "positions": [
                -0.3151717386247167,
                -1.493458930812768,
                2.3932075603187437,
                -0.8928647993763132,
                0.9175436497090381,
                -3.1543541219984967
            ]
        },
        {
            "positions": [
                -0.30382593056120166,
                -1.553361676916327,
                2.3785240075656153,
                -0.8248672650376113,
                0.7598041378473758,
                -3.184520162190744
            ]
        },
        {
            "positions": [
                -0.2924801224976867,
                -1.6132644230198863,
                2.363840454812487,
                -0.7568697306989095,
                0.6020646259857133,
                -3.214686202382991
            ]
        },
        {
            "positions": [
                -0.28113431443417164,
                -1.6731671691234453,
                2.3491569020593586,
                -0.6888721963602076,
                0.44432511412405085,
                -3.2448522425752384
            ]
        },
        {
            "positions": [
                -0.26978850637065666,
                -1.7330699152270044,
                2.33447334930623,
                -0.6208746620215058,
                0.2865856022623885,
                -3.275018282767485
            ]
        },
        {
            "positions": [
                -0.2584426983071416,
                -1.7929726613305634,
                2.319789796553102,
                -0.552877127682804,
                0.12884609040072614,
                -3.3051843229597324
            ]
        },
        {
            "positions": [
                -0.06646748919281409,
                -1.8160073415893212,
                2.3343065960536284,
                -0.5350249270651407,
                0.24229546912739502,
                -3.2714304567262893
            ]
        },
        {
            "positions": [
                0.12550771992151344,
                -1.8390420218480792,
                2.348823395554155,
                -0.5171727264474775,
                0.3557448478540639,
                -3.2376765904928457
            ]
        },
        {
            "positions": [
                0.31748292903584086,
                -1.862076702106837,
                2.3633401950546813,
                -0.4993205258298142,
                0.46919422658073273,
                -3.2039227242594026
            ]
        },
        {
            "positions": [
                0.5094581381501685,
                -1.885111382365595,
                2.377856994555208,
                -0.48146832521215094,
                0.5826436053074017,
                -3.170168858025959
            ]
        },
        {
            "positions": [
                0.7014333472644959,
                -1.9081460626243527,
                2.3923737940557346,
                -0.4636161245944877,
                0.6960929840340705,
                -3.136414991792516
            ]
        }
    ]
}