{
    "goal": {
        "global_pose": {
            "orientation": {
                "w": -0.00223480608172531,
                "x": 0.0024358444001904467,
                "y": 0.7094548369677653,
                "z": -0.704743149386269
            },
            "position": {
                "x": 0.6205249238014221,
                "y": -0.6371506643295288,
                "z": 0.19426114857196808
            }
        },
        "name": "move_to_magneteinheit_B"
    },
    "id": "FMT_move_to_magneteinheit_B_92",
    "joint_names": [
        "shoulder_pan_joint",
        "shoulder_lift_joint",
        "elbow_joint",
        "wrist_1_joint",
        "wrist_2_joint",
        "wrist_3_joint"
    ],
    "metrics": {
        "cart_traj_len": 1.436682067048389,
        "distance_elbow_joint": 0.9528894611355028,
        "distance_shoulder_lift_joint": 0.7529775312352738,
        "distance_shoulder_pan_joint": 1.6206303490361655,
        "distance_wrist_1_joint": 0.39865738539757745,
        "distance_wrist_2_joint": 1.516650252716316,
        "distance_wrist_3_joint": 0.16154349564534462,
        "smoothness": 0.20348419334991188,
        "time": 1.340046791,
        "traj_len": 2.324510373211137,
        "weighted_distance": 2.7643702907842798
    },
    "planner": "FMT",
    "start": {
        "state": {
            "elbow_joint": 2.6216224122426386,
            "shoulder_lift_joint": -1.4174107377796124,
            "shoulder_pan_joint": 0.7066234856936794,
            "wrist_1_joint": 1.9546482284002225,
            "wrist_2_joint": -0.7096286983471962,
            "wrist_3_joint": 0.005740856962016249
        }
    },
    "waypoints": [
        {
            "positions": [
                0.7066234856936794,
                -1.4174107377796124,
                2.6216224122426386,
                1.9546482284002225,
                -0.7096286983471962,
                0.005740856962016249
            ]
        },
        {
            "positions": [
                0.553630672465334,
                -1.3912304454273192,
                2.6067181124342693,
                1.920890691252678,
                -0.729252891820018,
                -0.019975716003756
            ]
        },
        {
            "positions": [
                0.40063785923698864,
                -1.365050153075026,
                2.5918138126258996,
                1.8871331541051335,
                -0.7488770852928398,
                -0.04569228896952825
            ]
        },
        {
            "positions": [
                0.24764504600864326,
                -1.338869860722733,
                2.5769095128175303,
                1.853375616957589,
                -0.7685012787656615,
                -0.0714088619353005
            ]
        },
        {
            "positions": [
                0.15084072022938244,
                -1.2826668062078668,
                2.5012281326749974,
                1.8781576814538343,
                -0.8899827514571491,
                -0.06437604720629816
            ]
        },
        {
            "positions": [
                0.05403639445012165,
                -1.2264637516930006,
                2.4255467525324645,
                1.9029397459500796,
                -1.0114642241486367,
                -0.05734323247729585
            ]
        },
        {
            "positions": [
                -0.04276793132913917,
                -1.1702606971781344,
                2.3498653723899317,
                1.927721810446325,
                -1.1329456968401241,
                -0.05031041774829353
            ]
        },
        {
            "positions": [
                -0.13957225710839996,
                -1.1140576426632682,
                2.2741839922473988,
                1.9525038749425703,
                -1.2544271695316116,
                -0.043277603019291205
            ]
        },
        {
            "positions": [
                -0.2363765828876608,
                -1.0578545881484018,
                2.198502612104866,
                1.9772859394388156,
                -1.3759086422230993,
                -0.03624478829028888
            ]
        },
        {
            "positions": [
                -0.3331809086669216,
                -1.0016515336335359,
                2.122821231962333,
                2.002068003935061,
                -1.497390114914587,
                -0.02921197356128656
            ]
        },
        {
            "positions": [
                -0.42998523444618253,
                -0.9454484791186695,
                2.0471398518198,
                2.0268500684313064,
                -1.6188715876060744,
                -0.02217915883228424
            ]
        },
        {
            "positions": [
                -0.5267895602254432,
                -0.8892454246038034,
                1.9714584716772674,
                2.0516321329275518,
                -1.7403530602975619,
                -0.015146344103281917
            ]
        },
        {
            "positions": [
                -0.6235938860047041,
                -0.8330423700889371,
                1.8957770915347345,
                2.076414197423797,
                -1.8618345329890496,
                -0.008113529374279588
            ]
        },
        {
            "positions": [
                -0.7203982117839649,
                -0.7768393155740709,
                1.8200957113922014,
                2.1011962619200424,
                -1.983316005680537,
                -0.0010807146452772726
            ]
        },
        {
            "positions": [
                -0.8172025375632257,
                -0.7206362610592048,
                1.7444143312496687,
                2.1259783264162877,
                -2.1047974783720242,
                0.005952100083725043
            ]
        },
        {
            "positions": [
                -0.9140068633424864,
                -0.6644332065443386,
                1.6687329511071358,
                2.150760390912533,
                -2.226278951063512,
                0.012984914812727366
            ]
        }
    ]
}