{
    "goal": {
        "global_pose": {
            "orientation": {
                "w": 0.7031023502349854,
                "x": -0.7110244035720825,
                "y": 0.007748599164187908,
                "z": 0.005598929710686207
            },
            "position": {
                "x": 0.11585023208521307,
                "y": 0.44412534475326537,
                "z": 0.3711530566215515
            }
        },
        "name": "move_to_auspresseinheit_A"
    },
    "id": "FMT_move_to_auspresseinheit_A_31",
    "joint_names": [
        "shoulder_pan_joint",
        "shoulder_lift_joint",
        "elbow_joint",
        "wrist_1_joint",
        "wrist_2_joint",
        "wrist_3_joint"
    ],
    "metrics": {
        "cart_traj_len": 1.731103738705597,
        "distance_elbow_joint": 0.2608891408760141,
        "distance_shoulder_lift_joint": 1.9010881215652933,
        "distance_shoulder_pan_joint": 1.04382974015286,
        "distance_wrist_1_joint": 6.0539981513280114,
        "distance_wrist_2_joint": 4.841071451580101,
        "distance_wrist_3_joint": 0.8409719522103205,
        "smoothness": 0.8447276627636107,
        "time": 1.403297235,
        "traj_len": 3.8654687371278267,
        "weighted_distance": 5.245842359911452
    },
    "planner": "FMT",
    "start": {
        "state": {
            "elbow_joint": 2.4225746658250005,
            "shoulder_lift_joint": -1.3736534386056498,
            "shoulder_pan_joint": -0.3378633547517467,
            "wrist_1_joint": -1.0288598680537169,
            "wrist_2_joint": 1.233022673432363,
            "wrist_3_joint": -3.0940220416140027
        }
    },
    "waypoints": [
        {
            "positions": [
                -0.3378633547517467,
                -1.3736534386056498,
                2.4225746658250005,
                -1.0288598680537169,
                1.233022673432363,
                -3.0940220416140027
            ]
        },
        {
            "positions": [
                -0.3020379568464459,
                -1.4289902067785327,
                2.416010682452877,
                -0.8786747761877124,
                1.1108830530446274,
                -3.075956341765579
            ]
        },
        {
            "positions": [
                -0.26621255894114504,
                -1.4843269749514156,
                2.4094466990807533,
                -0.7284896843217079,
                0.988743432656892,
                -3.0578906419171554
            ]
        },
        {
            "positions": [
                -0.23038716103584425,
                -1.5396637431242988,
                2.4028827157086297,
                -0.5783045924557035,
                0.8666038122691564,
                -3.039824942068732
            ]
        },
        {
            "positions": [
                -0.1945617631305434,
                -1.5950005112971817,
                2.396318732336506,
                -0.42811950058969894,
                0.7444641918814209,
                -3.0217592422203086
            ]
        },
        {
            "positions": [
                -0.1587363652252426,
                -1.6503372794700646,
                2.3897547489643824,
                -0.27793440872369457,
                0.6223245714936854,
                -3.003693542371885
            ]
        },
        {
            "positions": [
                -0.12291096731994178,
                -1.7056740476429475,
                2.3831907655922593,
                -0.1277493168576901,
                0.5001849511059498,
                -2.9856278425234613
            ]
        },
        {
            "positions": [
                -0.08708556941464096,
                -1.7610108158158306,
                2.3766267822201357,
                0.022435775008314396,
                0.3780453307182142,
                -2.9675621426750376
            ]
        },
        {
            "positions": [
                -0.05126017150934009,
                -1.8163475839887135,
                2.370062798848012,
                0.172620866874319,
                0.2559057103304787,
                -2.949496442826614
            ]
        },
        {
            "positions": [
                -0.015434773604039276,
                -1.8716843521615965,
                2.3634988154758885,
                0.32280595874032336,
                0.13376608994274308,
                -2.9314307429781907
            ]
        },
        {
            "positions": [
                0.02039062430126154,
                -1.9270211203344794,
                2.356934832103765,
                0.47299105060632773,
                0.011626469555007679,
                -2.913365043129767
            ]
        },
        {
            "positions": [
                0.056216022206562355,
                -1.9823578885073623,
                2.3503708487316413,
                0.6231761424723323,
                -0.11051315083272795,
                -2.8952993432813434
            ]
        },
        {
            "positions": [
                0.09204142011186317,
                -2.0376946566802454,
                2.3438068653595177,
                0.7733612343383367,
                -0.23265277122046335,
                -2.8772336434329198
            ]
        },
        {
            "positions": [
                0.12786681801716404,
                -2.0930314248531285,
                2.337242881987394,
                0.9235463262043413,
                -0.3547923916081992,
                -2.859167943584496
            ]
        },
        {
            "positions": [
                0.1636922159224648,
                -2.1483681930260112,
                2.3306788986152704,
                1.0737314180703457,
                -0.4769320119959346,
                -2.8411022437360725
            ]
        },
        {
            "positions": [
                0.19951761382776562,
                -2.203704961198894,
                2.324114915243147,
                1.2239165099363503,
                -0.59907163238367,
                -2.8230365438876492
            ]
        },
        {
            "positions": [
                0.23534301173306654,
                -2.259041729371777,
                2.3175509318710232,
                1.3741016018023549,
                -0.7212112527714056,
                -2.8049708440392256
            ]
        },
        {
            "positions": [
                0.27116840963836725,
                -2.31437849754466,
                2.3109869484989,
                1.524286693668359,
                -0.8433508731591413,
                -2.786905144190802
            ]
        },
        {
            "positions": [
                0.3069938075436682,
                -2.3697152657175433,
                2.3044229651267765,
                1.6744717855343636,
                -0.9654904935468769,
                -2.7688394443423783
            ]
        },
        {
            "positions": [
                0.342819205448969,
                -2.425052033890426,
                2.297858981754653,
                1.8246568774003682,
                -1.0876301139346125,
                -2.750773744493955
            ]
        },
        {
            "positions": [
                0.3786446033542698,
                -2.4803888020633087,
                2.2912949983825293,
                1.9748419692663723,
                -1.2097697343223477,
                -2.7327080446455314
            ]
        },
        {
            "positions": [
                0.4144700012595706,
                -2.535725570236192,
                2.2847310150104057,
                2.1250270611323776,
                -1.3319093547100833,
                -2.7146423447971078
            ]
        },
        {
            "positions": [
                0.4502953991648715,
                -2.591062338409075,
                2.278167031638282,
                2.2752121529983813,
                -1.4540489750978192,
                -2.696576644948684
            ]
        },
        {
            "positions": [
                0.465334868943474,
                -2.550845913599553,
                2.2850188849729465,
                2.113451792393916,
                -1.3273431043301769,
                -2.722666442333684
            ]
        },
        {
            "positions": [
                0.4803743387220764,
                -2.510629488790032,
                2.291870738307611,
                1.9516914317894505,
                -1.2006372335625348,
                -2.748756239718684
            ]
        },
        {
            "positions": [
                0.4954138085006789,
                -2.47041306398051,
                2.2987225916422753,
                1.7899310711849852,
                -1.0739313627948925,
                -2.7748460371036843
            ]
        },
        {
            "positions": [
                0.5104532782792813,
                -2.430196639170988,
                2.3055744449769398,
                1.6281707105805197,
                -0.9472254920272504,
                -2.8009358344886843
            ]
        },
        {
            "positions": [
                0.5254927480578838,
                -2.389980214361467,
                2.312426298311604,
                1.4664103499760544,
                -0.8205196212596081,
                -2.827025631873685
            ]
        },
        {
            "positions": [
                0.5405322178364863,
                -2.349763789551945,
                2.3192781516462686,
                1.3046499893715888,
                -0.6938137504919659,
                -2.853115429258685
            ]
        },
        {
            "positions": [
                0.5555716876150887,
                -2.309547364742423,
                2.326130004980933,
                1.1428896287671235,
                -0.5671078797243237,
                -2.879205226643685
            ]
        },
        {
            "positions": [
                0.5706111573936912,
                -2.269330939932902,
                2.3329818583155975,
                0.9811292681626582,
                -0.4404020089566816,
                -2.905295024028685
            ]
        },
        {
            "positions": [
                0.5856506271722937,
                -2.22911451512338,
                2.3398337116502623,
                0.8193689075581927,
                -0.3136961381890393,
                -2.931384821413685
            ]
        },
        {
            "positions": [
                0.6006900969508961,
                -2.1888980903138586,
                2.3466855649849268,
                0.6576085469537274,
                -0.18699026742139702,
                -2.957474618798685
            ]
        },
        {
            "positions": [
                0.6157295667294986,
                -2.148681665504337,
                2.353537418319591,
                0.49584818634926187,
                -0.06028439665375496,
                -2.983564416183685
            ]
        },
        {
            "positions": [
                0.630769036508101,
                -2.108465240694815,
                2.3603892716542556,
                0.33408782574479634,
                0.06642147411388732,
                -3.0096542135686857
            ]
        },
        {
            "positions": [
                0.6458085062867035,
                -2.0682488158852936,
                2.36724112498892,
                0.17232746514033126,
                0.19312734488152938,
                -3.0357440109536853
            ]
        },
        {
            "positions": [
                0.6608479760653059,
                -2.028032391075772,
                2.3740929783235845,
                0.010567104535865735,
                0.31983321564917166,
                -3.061833808338686
            ]
        },
        {
            "positions": [
                0.6758874458439084,
                -1.98781596626625,
                2.380944831658249,
                -0.15119325606859935,
                0.4465390864168137,
                -3.087923605723686
            ]
        },
        {
            "positions": [
                0.6909269156225109,
                -1.9475995414567286,
                2.3877966849929133,
                -0.31295361667306487,
                0.573244957184456,
                -3.114013403108686
            ]
        },
        {
            "positions": [
                0.7059663854011133,
                -1.9073831166472068,
                2.3946485383275777,
                -0.4747139772775305,
                0.6999508279520983,
                -3.140103200493686
            ]
        }
    ]
}