{
    "goal": {
        "global_pose": {
            "orientation": {
                "w": -0.4816463035849501,
                "x": 0.5182115481033762,
                "y": 0.4908360881923453,
                "z": -0.5084816262002911
            },
            "position": {
                "x": -0.8240239810943604,
                "y": 0.19912469901144506,
                "z": 0.16403168439865112
            }
        },
        "name": "move_to_storage_D"
    },
    "id": "FMT_move_to_storage_D_30",
    "joint_names": [
        "shoulder_pan_joint",
        "shoulder_lift_joint",
        "elbow_joint",
        "wrist_1_joint",
        "wrist_2_joint",
        "wrist_3_joint"
    ],
    "metrics": {
        "cart_traj_len": 4.0005948648767475,
        "distance_elbow_joint": 4.209145503666455,
        "distance_shoulder_lift_joint": 1.3019371803663757,
        "distance_shoulder_pan_joint": 2.9925928602523015,
        "distance_wrist_1_joint": 2.2634551476773535,
        "distance_wrist_2_joint": 0.8864899348983257,
        "distance_wrist_3_joint": 3.137850173202031,
        "smoothness": 0.038873982439788735,
        "time": 1.4324175609999998,
        "traj_len": 3.845968122600972,
        "weighted_distance": 4.921088927162625
    },
    "planner": "FMT",
    "start": {
        "state": {
            "elbow_joint": -2.384821988534728,
            "shoulder_lift_joint": -2.2788054721415256,
            "shoulder_pan_joint": -0.1854694642142757,
            "wrist_1_joint": 1.4845938289331202,
            "wrist_2_joint": 0.17898776772866878,
            "wrist_3_joint": 0.037105688729662994
        }
    },
    "waypoints": [
        {
            "positions": [
                -0.1854694642142757,
                -2.2788054721415256,
                -2.384821988534728,
                1.4845938289331202,
                0.17898776772866878,
                0.037105688729662994
            ]
        },
        {
            "positions": [
                -0.06377247979851265,
                -2.2264953321091654,
                -2.355842412434617,
                1.4063461181694674,
                0.1917030364253344,
                0.11098006986133735
            ]
        },
        {
            "positions": [
                0.057924504617250405,
                -2.174185192076805,
                -2.3268628363345063,
                1.3280984074058146,
                0.20441830512200002,
                0.1848544509930117
            ]
        },
        {
            "positions": [
                0.17962148903301348,
                -2.1218750520444454,
                -2.2978832602343955,
                1.2498506966421619,
                0.21713357381866566,
                0.2587288321246861
            ]
        },
        {
            "positions": [
                0.3013184734487765,
                -2.069564912012085,
                -2.268903684134285,
                1.171602985878509,
                0.22984884251533128,
                0.33260321325636044
            ]
        },
        {
            "positions": [
                0.42301545786453965,
                -2.017254771979725,
                -2.2399241080341743,
                1.0933552751148563,
                0.2425641112119969,
                0.4064775943880349
            ]
        },
        {
            "positions": [
                0.5447124422803027,
                -1.9649446319473647,
                -2.2109445319340635,
                1.0151075643512035,
                0.2552793799086625,
                0.4803519755197092
            ]
        },
        {
            "positions": [
                0.625220558923509,
                -1.929026549105181,
                -2.1077411880832306,
                0.952577676937131,
                0.2777571112201148,
                0.563154582290551
            ]
        },
        {
            "positions": [
                0.7057286755667154,
                -1.8931084662629973,
                -2.004537844232398,
                0.8900477895230586,
                0.30023484253156707,
                0.6459571890613928
            ]
        },
        {
            "positions": [
                0.7862367922099216,
                -1.8571903834208137,
                -1.9013345003815647,
                0.8275179021089861,
                0.3227125738430193,
                0.7287597958322346
            ]
        },
        {
            "positions": [
                0.866744908853128,
                -1.82127230057863,
                -1.7981311565307316,
                0.7649880146949137,
                0.34519030515447163,
                0.8115624026030763
            ]
        },
        {
            "positions": [
                0.9472530254963343,
                -1.7853542177364463,
                -1.6949278126798988,
                0.7024581272808412,
                0.36766803646592394,
                0.8943650093739182
            ]
        },
        {
            "positions": [
                1.0277611421395405,
                -1.7494361348942626,
                -1.591724468829066,
                0.6399282398667687,
                0.3901457677773762,
                0.97716761614476
            ]
        },
        {
            "positions": [
                1.108269258782747,
                -1.713518052052079,
                -1.488521124978233,
                0.5773983524526962,
                0.41262349908882845,
                1.0599702229156018
            ]
        },
        {
            "positions": [
                1.1887773754259534,
                -1.6775999692098953,
                -1.3853177811274,
                0.5148684650386238,
                0.43510123040028076,
                1.1427728296864434
            ]
        },
        {
            "positions": [
                1.2692854920691596,
                -1.6416818863677116,
                -1.2821144372765672,
                0.4523385776245513,
                0.45757896171173307,
                1.2255754364572853
            ]
        },
        {
            "positions": [
                1.3497936087123659,
                -1.605763803525528,
                -1.1789110934257343,
                0.3898086902104788,
                0.4800566930231853,
                1.3083780432281271
            ]
        },
        {
            "positions": [
                1.430301725355572,
                -1.5698457206833443,
                -1.0757077495749012,
                0.3272788027964064,
                0.5025344243346376,
                1.3911806499989687
            ]
        },
        {
            "positions": [
                1.5108098419987785,
                -1.5339276378411606,
                -0.9725044057240684,
                0.2647489153823339,
                0.5250121556460898,
                1.4739832567698108
            ]
        },
        {
            "positions": [
                1.591317958641985,
                -1.498009554998977,
                -0.8693010618732355,
                0.2022190279682614,
                0.5474898869575422,
                1.5567858635406524
            ]
        },
        {
            "positions": [
                1.6718260752851912,
                -1.4620914721567932,
                -0.7660977180224025,
                0.13968914055418902,
                0.5699676182689944,
                1.6395884703114942
            ]
        },
        {
            "positions": [
                1.7523341919283977,
                -1.4261733893146094,
                -0.6628943741715694,
                0.0771592531401164,
                0.5924453495804467,
                1.722391077082336
            ]
        },
        {
            "positions": [
                1.832842308571604,
                -1.390255306472426,
                -0.5596910303207365,
                0.014629365726044119,
                0.6149230808918991,
                1.805193683853178
            ]
        },
        {
            "positions": [
                1.9133504252148104,
                -1.354337223630242,
                -0.45648768646990345,
                -0.04790052168802861,
                0.6374008122033513,
                1.8879962906240197
            ]
        },
        {
            "positions": [
                1.9938585418580166,
                -1.3184191407880586,
                -0.3532843426190708,
                -0.11043040910210089,
                0.6598785435148036,
                1.9707988973948614
            ]
        },
        {
            "positions": [
                2.074366658501223,
                -1.2825010579458747,
                -0.25008099876823775,
                -0.1729602965161734,
                0.6823562748262559,
                2.0536015041657034
            ]
        },
        {
            "positions": [
                2.154874775144429,
                -1.2465829751036912,
                -0.14687765491740512,
                -0.2354901839302459,
                0.7048340061377081,
                2.136404110936545
            ]
        },
        {
            "positions": [
                2.2353828917876353,
                -1.2106648922615073,
                -0.043674311066571825,
                -0.2980200713443184,
                0.7273117374491604,
                2.2192067177073866
            ]
        },
        {
            "positions": [
                2.3158910084308415,
                -1.1747468094193239,
                0.05952903278426103,
                -0.3605499587583907,
                0.7497894687606127,
                2.3020093244782283
            ]
        },
        {
            "positions": [
                2.396399125074048,
                -1.13882872657714,
                0.16273237663509388,
                -0.4230798461724634,
                0.772267200072065,
                2.3848119312490708
            ]
        },
        {
            "positions": [
                2.4769072417172544,
                -1.1029106437349565,
                0.26593572048592673,
                -0.4856097335865357,
                0.7947449313835173,
                2.4676145380199124
            ]
        },
        {
            "positions": [
                2.557415358360461,
                -1.0669925608927726,
                0.36913906433676,
                -0.5481396210006082,
                0.8172226626949697,
                2.550417144790754
            ]
        },
        {
            "positions": [
                2.6379234750036673,
                -1.0310744780505892,
                0.47234240818759243,
                -0.6106695084146807,
                0.8397003940064218,
                2.6332197515615956
            ]
        },
        {
            "positions": [
                2.7184315916468735,
                -0.9951563952084053,
                0.5755457520384257,
                -0.6731993958287532,
                0.8621781253178742,
                2.7160223583324377
            ]
        },
        {
            "positions": [
                2.703649624248348,
                -0.9982044124472812,
                0.7836753792206426,
                -0.6908097163146667,
                0.8960613882027276,
                2.7925112755989803
            ]
        },
        {
            "positions": [
                2.6888676568498227,
                -1.0012524296861571,
                0.9918050064028594,
                -0.7084200368005801,
                0.929944651087581,
                2.8690001928655233
            ]
        },
        {
            "positions": [
                2.674085689451297,
                -1.0043004469250332,
                1.1999346335850762,
                -0.7260303572864936,
                0.9638279139724344,
                2.945489110132066
            ]
        },
        {
            "positions": [
                2.6593037220527718,
                -1.007348464163909,
                1.408064260767293,
                -0.743640677772407,
                0.9977111768572877,
                3.0219780273986085
            ]
        },
        {
            "positions": [
                2.6445217546542463,
                -1.0103964814027848,
                1.6161938879495101,
                -0.7612509982583204,
                1.0315944397421413,
                3.0984669446651516
            ]
        },
        {
            "positions": [
                2.629739787255721,
                -1.0134444986416609,
                1.824323515131727,
                -0.7788613187442339,
                1.0654777026269946,
                3.174955861931694
            ]
        }
    ]
}