{
    "goal": {
        "global_pose": {
            "orientation": {
                "w": -0.4816463035849501,
                "x": 0.5182115481033762,
                "y": 0.4908360881923453,
                "z": -0.5084816262002911
            },
            "position": {
                "x": -0.8240239810943604,
                "y": 0.19912469901144506,
                "z": 0.16403168439865112
            }
        },
        "name": "move_to_storage_D"
    },
    "id": "FMT_move_to_storage_D_99",
    "joint_names": [
        "shoulder_pan_joint",
        "shoulder_lift_joint",
        "elbow_joint",
        "wrist_1_joint",
        "wrist_2_joint",
        "wrist_3_joint"
    ],
    "metrics": {
        "cart_traj_len": 0.7723026639100155,
        "distance_elbow_joint": 0.6053744214555803,
        "distance_shoulder_lift_joint": 0.684016804653997,
        "distance_shoulder_pan_joint": 0.33422724111332197,
        "distance_wrist_1_joint": 3.836753523741961,
        "distance_wrist_2_joint": 1.792621257409857,
        "distance_wrist_3_joint": 3.1167301928443045,
        "smoothness": 0.06596467684991011,
        "time": 1.377288569,
        "traj_len": 3.2202054967375955,
        "weighted_distance": 4.715141419730637
    },
    "planner": "FMT",
    "start": {
        "state": {
            "elbow_joint": -2.384821988534728,
            "shoulder_lift_joint": -2.2788054721415256,
            "shoulder_pan_joint": -0.1854694642142757,
            "wrist_1_joint": 1.4845938289331202,
            "wrist_2_joint": 0.17898776772866878,
            "wrist_3_joint": 0.037105688729662994
        }
    },
    "waypoints": [
        {
            "positions": [
                -0.1854694642142757,
                -2.2788054721415256,
                -2.384821988534728,
                1.4845938289331202,
                0.17898776772866878,
                0.037105688729662994
            ]
        },
        {
            "positions": [
                -0.12507916043097264,
                -2.174271721388152,
                -2.3907709739197522,
                1.4185640075033263,
                0.07556357489281412,
                0.010384798197213566
            ]
        },
        {
            "positions": [
                -0.06468885664766957,
                -2.0697379706347787,
                -2.396719959304776,
                1.3525341860735327,
                -0.02786061794304054,
                -0.016336092335235863
            ]
        },
        {
            "positions": [
                -0.004298552864366506,
                -1.965204219881405,
                -2.4026689446898004,
                1.286504364643739,
                -0.13128481077889517,
                -0.04305698286768529
            ]
        },
        {
            "positions": [
                0.056091750918936575,
                -1.8606704691280314,
                -2.4086179300748247,
                1.2204745432139452,
                -0.23470900361474986,
                -0.06977787340013472
            ]
        },
        {
            "positions": [
                0.052062793267627465,
                -1.8722305474602272,
                -2.383331909208934,
                1.0651426198216503,
                -0.29466224213937764,
                -0.20064077038772196
            ]
        },
        {
            "positions": [
                0.048033835616318354,
                -1.8837906257924228,
                -2.3580458883430437,
                0.9098106964293551,
                -0.3546154806640054,
                -0.33150366737530923
            ]
        },
        {
            "positions": [
                0.04400487796500925,
                -1.8953507041246187,
                -2.332759867477153,
                0.7544787730370601,
                -0.41456871918863314,
                -0.46236656436289647
            ]
        },
        {
            "positions": [
                0.03997592031370014,
                -1.9069107824568143,
                -2.3074738466112623,
                0.5991468496447651,
                -0.4745219577132609,
                -0.5932294613504837
            ]
        },
        {
            "positions": [
                0.03594696266239103,
                -1.9184708607890102,
                -2.2821878257453716,
                0.44381492625247,
                -0.5344751962378886,
                -0.724092358338071
            ]
        },
        {
            "positions": [
                0.031918005011081926,
                -1.930030939121206,
                -2.2569018048794813,
                0.2884830028601749,
                -0.5944284347625164,
                -0.8549552553256583
            ]
        },
        {
            "positions": [
                0.027889047359772812,
                -1.9415910174534017,
                -2.2316157840135906,
                0.13315107946787985,
                -0.6543816732871441,
                -0.9858181523132455
            ]
        },
        {
            "positions": [
                0.023860089708463705,
                -1.9531510957855975,
                -2.2063297631477,
                -0.022180843924415106,
                -0.7143349118117719,
                -1.1166810493008326
            ]
        },
        {
            "positions": [
                0.019831132057154595,
                -1.9647111741177934,
                -2.181043742281809,
                -0.17751276731671028,
                -0.7742881503363996,
                -1.24754394628842
            ]
        },
        {
            "positions": [
                0.015802174405845484,
                -1.976271252449989,
                -2.155757721415919,
                -0.33284469070900524,
                -0.8342413888610274,
                -1.378406843276007
            ]
        },
        {
            "positions": [
                0.011773216754536374,
                -1.9878313307821849,
                -2.130471700550028,
                -0.4881766141013004,
                -0.8941946273856551,
                -1.5092697402635944
            ]
        },
        {
            "positions": [
                0.00774425910322727,
                -1.9993914091143805,
                -2.1051856796841375,
                -0.6435085374935954,
                -0.9541478659102829,
                -1.6401326372511817
            ]
        },
        {
            "positions": [
                0.00371530145191816,
                -2.0109514874465764,
                -2.0798996588182472,
                -0.7988404608858901,
                -1.0141011044349104,
                -1.7709955342387689
            ]
        },
        {
            "positions": [
                -0.00031365619939095063,
                -2.022511565778772,
                -2.0546136379523565,
                -0.9541723842781855,
                -1.0740543429595384,
                -1.9018584312263562
            ]
        },
        {
            "positions": [
                -0.004342613850700061,
                -2.034071644110968,
                -2.029327617086466,
                -1.1095043076704805,
                -1.1340075814841661,
                -2.0327213282139436
            ]
        },
        {
            "positions": [
                -0.008371571502009165,
                -2.0456317224431637,
                -2.004041596220575,
                -1.2648362310627754,
                -1.1939608200087939,
                -2.1635842252015305
            ]
        },
        {
            "positions": [
                -0.012400529153318268,
                -2.0571918007753593,
                -1.9787555753546848,
                -1.4201681544550704,
                -1.2539140585334216,
                -2.294447122189118
            ]
        },
        {
            "positions": [
                -0.016429486804627386,
                -2.0687518791075554,
                -1.9534695544887941,
                -1.5755000778473658,
                -1.3138672970580494,
                -2.425310019176705
            ]
        },
        {
            "positions": [
                -0.02045844445593649,
                -2.080311957439751,
                -1.9281835336229036,
                -1.7308320012396607,
                -1.3738205355826771,
                -2.5561729161642925
            ]
        },
        {
            "positions": [
                -0.024487402107245607,
                -2.0918720357719467,
                -1.9028975127570131,
                -1.8861639246319557,
                -1.4337737741073049,
                -2.6870358131518794
            ]
        },
        {
            "positions": [
                -0.02851635975855471,
                -2.1034321141041423,
                -1.8776114918911224,
                -2.0414958480242507,
                -1.4937270126319326,
                -2.817898710139467
            ]
        },
        {
            "positions": [
                -0.03254531740986383,
                -2.1149921924363384,
                -1.8523254710252317,
                -2.196827771416546,
                -1.5536802511565604,
                -2.948761607127054
            ]
        },
        {
            "positions": [
                -0.03657427506117293,
                -2.126552270768534,
                -1.8270394501593412,
                -2.352159694808841,
                -1.6136334896811881,
                -3.0796245041146415
            ]
        }
    ]
}