{
    "goal": {
        "global_pose": {
            "orientation": {
                "w": 0.005598929693374612,
                "x": 0.007748599140229565,
                "y": 0.7110244013736278,
                "z": -0.7031023480610252
            },
            "position": {
                "x": -0.8858502320852131,
                "y": -0.7141253447532654,
                "z": 0.3711530566215515
            }
        },
        "name": "move_to_auspresseinheit_C"
    },
    "id": "FMT_move_to_auspresseinheit_C_95",
    "joint_names": [
        "shoulder_pan_joint",
        "shoulder_lift_joint",
        "elbow_joint",
        "wrist_1_joint",
        "wrist_2_joint",
        "wrist_3_joint"
    ],
    "metrics": {
        "cart_traj_len": 0.4939106711646883,
        "distance_elbow_joint": 1.0003890449874608,
        "distance_shoulder_lift_joint": 0.3242711537999805,
        "distance_shoulder_pan_joint": 0.25742544152826774,
        "distance_wrist_1_joint": 0.6840944739131163,
        "distance_wrist_2_joint": 1.3025034785959848,
        "distance_wrist_3_joint": 0.06857030499474348,
        "smoothness": 1.6148698667872622e-16,
        "time": 0.5269302490000001,
        "traj_len": 1.9071585927288675,
        "weighted_distance": 2.4002067536606386
    },
    "planner": "FMT",
    "start": {
        "state": {
            "elbow_joint": 1.7527959577737207,
            "shoulder_lift_joint": -0.9740617694225068,
            "shoulder_pan_joint": -2.967991417825858,
            "wrist_1_joint": -0.759517768980727,
            "wrist_2_joint": 1.7443932448377408,
            "wrist_3_joint": -3.0840537646736568
        }
    },
    "waypoints": [
        {
            "positions": [
                -2.967991417825858,
                -0.9740617694225068,
                1.7527959577737207,
                -0.759517768980727,
                1.7443932448377408,
                -3.0840537646736568
            ]
        },
        {
            "positions": [
                -2.942248873673031,
                -0.9416346540425087,
                1.6527570532749745,
                -0.6911083215894154,
                1.6141428969781424,
                -3.090910795173131
            ]
        },
        {
            "positions": [
                -2.9165063295202045,
                -0.9092075386625107,
                1.5527181487762285,
                -0.6226988741981037,
                1.483892549118544,
                -3.0977678256726056
            ]
        },
        {
            "positions": [
                -2.8907637853673775,
                -0.8767804232825126,
                1.4526792442774825,
                -0.5542894268067922,
                1.3536422012589453,
                -3.1046248561720797
            ]
        },
        {
            "positions": [
                -2.865021241214551,
                -0.8443533079025145,
                1.3526403397787363,
                -0.48587997941548045,
                1.2233918533993469,
                -3.1114818866715543
            ]
        },
        {
            "positions": [
                -2.839278697061724,
                -0.8119261925225165,
                1.2526014352799901,
                -0.41747053202416884,
                1.0931415055397484,
                -3.1183389171710285
            ]
        },
        {
            "positions": [
                -2.813536152908897,
                -0.7794990771425185,
                1.1525625307812442,
                -0.34906108463285723,
                0.96289115768015,
                -3.1251959476705027
            ]
        },
        {
            "positions": [
                -2.7877936087560706,
                -0.7470719617625204,
                1.0525236262824982,
                -0.2806516372415456,
                0.8326408098205516,
                -3.1320529781699773
            ]
        },
        {
            "positions": [
                -2.7620510646032437,
                -0.7146448463825223,
                0.952484721783752,
                -0.2122421898502339,
                0.7023904619609529,
                -3.1389100086694515
            ]
        },
        {
            "positions": [
                -2.736308520450417,
                -0.6822177310025244,
                0.8524458172850059,
                -0.1438327424589223,
                0.5721401141013545,
                -3.145767039168926
            ]
        },
        {
            "positions": [
                -2.71056597629759,
                -0.6497906156225263,
                0.7524069127862598,
                -0.07542329506761065,
                0.4418897662417559,
                -3.1526240696684003
            ]
        }
    ]
}