{
    "goal": {
        "global_pose": {
            "orientation": {
                "w": 0.7031023502349854,
                "x": -0.7110244035720825,
                "y": 0.007748599164187908,
                "z": 0.005598929710686207
            },
            "position": {
                "x": 0.11585023208521307,
                "y": 0.44412534475326537,
                "z": 0.3711530566215515
            }
        },
        "name": "move_to_auspresseinheit_A"
    },
    "id": "FMT_move_to_auspresseinheit_A_127",
    "joint_names": [
        "shoulder_pan_joint",
        "shoulder_lift_joint",
        "elbow_joint",
        "wrist_1_joint",
        "wrist_2_joint",
        "wrist_3_joint"
    ],
    "metrics": {
        "cart_traj_len": 0.6787925257597591,
        "distance_elbow_joint": 0.1283527373712814,
        "distance_shoulder_lift_joint": 0.535239208708264,
        "distance_shoulder_pan_joint": 1.0450896021475158,
        "distance_wrist_1_joint": 0.6816708147113969,
        "distance_wrist_2_joint": 0.5177497540194975,
        "distance_wrist_3_joint": 0.16487476617543395,
        "smoothness": 0.3700719332721927,
        "time": 0.731215957,
        "traj_len": 1.7529908394322513,
        "weighted_distance": 2.145261518839871
    },
    "planner": "FMT",
    "start": {
        "state": {
            "elbow_joint": 2.4225746658250005,
            "shoulder_lift_joint": -1.3736534386056498,
            "shoulder_pan_joint": -0.3378633547517467,
            "wrist_1_joint": -1.0288598680537169,
            "wrist_2_joint": 1.233022673432363,
            "wrist_3_joint": -3.0940220416140027
        }
    },
    "waypoints": [
        {
            "positions": [
                -0.3378633547517467,
                -1.3736534386056498,
                2.4225746658250005,
                -1.0288598680537169,
                1.233022673432363,
                -3.0940220416140027
            ]
        },
        {
            "positions": [
                -0.28663912258125607,
                -1.4287695832972105,
                2.406802517541911,
                -0.9036541931123033,
                1.1747427457866697,
                -3.081484390521239
            ]
        },
        {
            "positions": [
                -0.23541489041076538,
                -1.4838857279887712,
                2.3910303692588215,
                -0.7784485181708898,
                1.1164628181409764,
                -3.0689467394284757
            ]
        },
        {
            "positions": [
                -0.18419065824027472,
                -1.5390018726803316,
                2.3752582209757325,
                -0.6532428432294762,
                1.058182890495283,
                -3.056409088335712
            ]
        },
        {
            "positions": [
                -0.13296642606978404,
                -1.5941180173718923,
                2.359486072692643,
                -0.5280371682880627,
                0.9999029628495896,
                -3.0438714372429487
            ]
        },
        {
            "positions": [
                -0.08174219389929337,
                -1.649234162063453,
                2.3437139244095535,
                -0.40283149334664914,
                0.9416230352038962,
                -3.031333786150185
            ]
        },
        {
            "positions": [
                0.11549991642447223,
                -1.7141487833760682,
                2.3560869233985122,
                -0.41674210334773143,
                0.8850355062561386,
                -3.056880413828089
            ]
        },
        {
            "positions": [
                0.3127420267482378,
                -1.7790634046886833,
                2.368459922387471,
                -0.4306527133488137,
                0.8284479773083808,
                -3.0824270415059933
            ]
        },
        {
            "positions": [
                0.5099841370720034,
                -1.8439780260012986,
                2.380832921376429,
                -0.444563323349896,
                0.7718604483606232,
                -3.107973669183897
            ]
        },
        {
            "positions": [
                0.707226247395769,
                -1.9088926473139138,
                2.393205920365388,
                -0.4584739333509783,
                0.7152729194128655,
                -3.1335202968618012
            ]
        }
    ]
}