{
    "goal": {
        "global_pose": {
            "orientation": {
                "w": 0.7031023480610252,
                "x": -0.7110244013736278,
                "y": 0.0077485991402295624,
                "z": 0.005598929693374583
            },
            "position": {
                "x": -0.8841497679147869,
                "y": 0.44412534475326537,
                "z": 0.3711530566215515
            }
        },
        "name": "move_to_auspresseinheit_D"
    },
    "id": "FMT_move_to_auspresseinheit_D_8",
    "joint_names": [
        "shoulder_pan_joint",
        "shoulder_lift_joint",
        "elbow_joint",
        "wrist_1_joint",
        "wrist_2_joint",
        "wrist_3_joint"
    ],
    "metrics": {
        "cart_traj_len": 0.34345754550095386,
        "distance_elbow_joint": 0.6319433441024733,
        "distance_shoulder_lift_joint": 0.11720836929525147,
        "distance_shoulder_pan_joint": 0.13435035959891942,
        "distance_wrist_1_joint": 0.5097394419583527,
        "distance_wrist_2_joint": 1.433174924244915,
        "distance_wrist_3_joint": 0.029953395117271686,
        "smoothness": 0.0,
        "time": 0.54848098,
        "traj_len": 1.690079830752732,
        "weighted_distance": 2.2043572738453707
    },
    "planner": "FMT",
    "start": {
        "state": {
            "elbow_joint": -1.8275523626775212,
            "shoulder_lift_joint": -2.126789852344167,
            "shoulder_pan_joint": -0.03513704404078235,
            "wrist_1_joint": -2.347782403156801,
            "wrist_2_joint": -1.6058999987535132,
            "wrist_3_joint": -3.0880379163319196
        }
    },
    "waypoints": [
        {
            "positions": [
                -0.03513704404078235,
                -2.126789852344167,
                -1.8275523626775212,
                -2.347782403156801,
                -1.6058999987535132,
                -3.0880379163319196
            ]
        },
        {
            "positions": [
                -0.05193083899064728,
                -2.1414408985060733,
                -1.748559444664712,
                -2.411499833401595,
                -1.4267531332228989,
                -3.0917820907215785
            ]
        },
        {
            "positions": [
                -0.0687246339405122,
                -2.15609194466798,
                -1.6695665266519029,
                -2.475217263646389,
                -1.2476062676922846,
                -3.0955262651112374
            ]
        },
        {
            "positions": [
                -0.08551842889037714,
                -2.1707429908298863,
                -1.5905736086390938,
                -2.538934693891183,
                -1.06845940216167,
                -3.0992704395008963
            ]
        },
        {
            "positions": [
                -0.10231222384024205,
                -2.1853940369917924,
                -1.5115806906262845,
                -2.602652124135977,
                -0.8893125366310557,
                -3.103014613890555
            ]
        },
        {
            "positions": [
                -0.11910601879010699,
                -2.200045083153699,
                -1.4325877726134753,
                -2.6663695543807715,
                -0.7101656711004414,
                -3.1067587882802146
            ]
        },
        {
            "positions": [
                -0.13589981373997193,
                -2.2146961293156053,
                -1.3535948546006662,
                -2.7300869846255655,
                -0.5310188055698268,
                -3.1105029626698735
            ]
        },
        {
            "positions": [
                -0.15269360868983683,
                -2.229347175477512,
                -1.2746019365878571,
                -2.7938044148703596,
                -0.3518719400392125,
                -3.1142471370595324
            ]
        },
        {
            "positions": [
                -0.16948740363970177,
                -2.2439982216394183,
                -1.1956090185750479,
                -2.8575218451151536,
                -0.17272507450859811,
                -3.1179913114491913
            ]
        }
    ]
}