{
    "goal": {
        "global_pose": {
            "orientation": {
                "w": 0.7047431493862688,
                "x": -0.7094548369677653,
                "y": 0.0024358444001904,
                "z": -0.0022348060817251984
            },
            "position": {
                "x": -0.39052492380142206,
                "y": 0.3671506643295288,
                "z": 0.19426114857196808
            }
        },
        "name": "move_to_magneteinheit_D"
    },
    "id": "FMT_move_to_magneteinheit_D_103",
    "joint_names": [
        "shoulder_pan_joint",
        "shoulder_lift_joint",
        "elbow_joint",
        "wrist_1_joint",
        "wrist_2_joint",
        "wrist_3_joint"
    ],
    "metrics": {
        "cart_traj_len": 4.664457023526564,
        "distance_elbow_joint": 3.5007899995984966,
        "distance_shoulder_lift_joint": 1.4146697037434113,
        "distance_shoulder_pan_joint": 3.2014687324879763,
        "distance_wrist_1_joint": 2.988708791730539,
        "distance_wrist_2_joint": 1.0492160983385974,
        "distance_wrist_3_joint": 6.344150387733203,
        "smoothness": 0.11113719314684214,
        "time": 1.4313303030000002,
        "traj_len": 4.301046816024237,
        "weighted_distance": 5.935084614322509
    },
    "planner": "FMT",
    "start": {
        "state": {
            "elbow_joint": 0.749534889911806,
            "shoulder_lift_joint": -0.6476975780787326,
            "shoulder_pan_joint": -2.711696901376241,
            "wrist_1_joint": -0.07506478083263063,
            "wrist_2_joint": 0.43296659715538205,
            "wrist_3_joint": -3.14703540197715
        }
    },
    "waypoints": [
        {
            "positions": [
                -2.711696901376241,
                -0.6476975780787326,
                0.749534889911806,
                -0.07506478083263063,
                0.43296659715538205,
                -3.14703540197715
            ]
        },
        {
            "positions": [
                -2.7265800336577684,
                -0.6428407531914618,
                0.776648023507236,
                -0.3099983913470431,
                0.44033196599823504,
                -3.1004260800975207
            ]
        },
        {
            "positions": [
                -2.7414631659392956,
                -0.6379839283041912,
                0.8037611571026663,
                -0.5449320018614555,
                0.44769733484108803,
                -3.0538167582178914
            ]
        },
        {
            "positions": [
                -2.756346298220823,
                -0.6331271034169204,
                0.8308742906980964,
                -0.779865612375868,
                0.45506270368394097,
                -3.007207436338262
            ]
        },
        {
            "positions": [
                -2.77122943050235,
                -0.6282702785296496,
                0.8579874242935265,
                -1.0147992228902805,
                0.46242807252679397,
                -2.960598114458633
            ]
        },
        {
            "positions": [
                -2.7861125627838774,
                -0.6234134536423789,
                0.8851005578889567,
                -1.2497328334046929,
                0.46979344136964696,
                -2.9139887925790036
            ]
        },
        {
            "positions": [
                -2.8009956950654047,
                -0.6185566287551081,
                0.9122136914843868,
                -1.4846664439191053,
                0.47715881021249995,
                -2.8673794706993743
            ]
        },
        {
            "positions": [
                -2.7817333223043788,
                -0.6375109424998552,
                0.9253083388666417,
                -1.6199564061320786,
                0.48324011010983264,
                -2.753590781671525
            ]
        },
        {
            "positions": [
                -2.762470949543353,
                -0.6564652562446023,
                0.9384029862488965,
                -1.7552463683450517,
                0.48932141000716534,
                -2.6398020926436754
            ]
        },
        {
            "positions": [
                -2.743208576782327,
                -0.6754195699893494,
                0.9514976336311514,
                -1.890536330558025,
                0.49540270990449803,
                -2.526013403615826
            ]
        },
        {
            "positions": [
                -2.668270771810179,
                -0.7216667006174402,
                0.9167965741601563,
                -1.9287915936183777,
                0.50274144890743,
                -2.339600508736447
            ]
        },
        {
            "positions": [
                -2.593332966838031,
                -0.767913831245531,
                0.8820955146891611,
                -1.9670468566787302,
                0.5100801879103619,
                -2.1531876138570682
            ]
        },
        {
            "positions": [
                -2.5183951618658833,
                -0.8141609618736219,
                0.847394455218166,
                -2.005302119739083,
                0.5174189269132939,
                -1.9667747189776894
            ]
        },
        {
            "positions": [
                -2.4434573568937354,
                -0.8604080925017127,
                0.8126933957471709,
                -2.0435573827994356,
                0.5247576659162259,
                -1.7803618240983106
            ]
        },
        {
            "positions": [
                -2.3685195519215876,
                -0.9066552231298035,
                0.7779923362761758,
                -2.0818126458597885,
                0.5320964049191579,
                -1.5939489292189317
            ]
        },
        {
            "positions": [
                -2.2935817469494397,
                -0.9529023537578942,
                0.7432912768051807,
                -2.120067908920141,
                0.5394351439220898,
                -1.407536034339553
            ]
        },
        {
            "positions": [
                -2.218643941977292,
                -0.9991494843859852,
                0.7085902173341856,
                -2.1583231719804936,
                0.5467738829250218,
                -1.2211231394601743
            ]
        },
        {
            "positions": [
                -2.143706137005144,
                -1.0453966150140759,
                0.6738891578631905,
                -2.1965784350408466,
                0.5541126219279537,
                -1.0347102445807952
            ]
        },
        {
            "positions": [
                -2.0687683320329966,
                -1.0916437456421668,
                0.6391880983921954,
                -2.234833698101199,
                0.5614513609308858,
                -0.8482973497014166
            ]
        },
        {
            "positions": [
                -1.9938305270608487,
                -1.1378908762702575,
                0.6044870389212003,
                -2.2730889611615517,
                0.5687900999338177,
                -0.6618844548220377
            ]
        },
        {
            "positions": [
                -1.9188927220887009,
                -1.1841380068983485,
                0.5697859794502051,
                -2.3113442242219047,
                0.5761288389367497,
                -0.47547155994265866
            ]
        },
        {
            "positions": [
                -1.843954917116553,
                -1.2303851375264392,
                0.53508491997921,
                -2.349599487282257,
                0.5834675779396816,
                -0.28905866506328026
            ]
        },
        {
            "positions": [
                -1.7690171121444052,
                -1.2766322681545301,
                0.5003838605082149,
                -2.38785475034261,
                0.5908063169426137,
                -0.10264577018390098
            ]
        },
        {
            "positions": [
                -1.6940793071722573,
                -1.3228793987826208,
                0.4656828010372199,
                -2.4261100134029627,
                0.5981450559455456,
                0.08376712469547742
            ]
        },
        {
            "positions": [
                -1.6191415022001094,
                -1.3691265294107118,
                0.4309817415662247,
                -2.4643652764633153,
                0.6054837949484776,
                0.27018001957485627
            ]
        },
        {
            "positions": [
                -1.5442036972279616,
                -1.4153736600388025,
                0.3962806820952296,
                -2.5026205395236683,
                0.6128225339514095,
                0.45659291445423555
            ]
        },
        {
            "positions": [
                -1.469265892255814,
                -1.4616207906668932,
                0.3615796226242345,
                -2.540875802584021,
                0.6201612729543415,
                0.643005809333614
            ]
        },
        {
            "positions": [
                -1.394328087283666,
                -1.5078679212949841,
                0.3268785631532394,
                -2.5791310656443733,
                0.6275000119572735,
                0.8294187042129928
            ]
        },
        {
            "positions": [
                -1.3193902823115182,
                -1.554115051923075,
                0.29217750368224427,
                -2.6173863287047263,
                0.6348387509602054,
                1.0158315990923716
            ]
        },
        {
            "positions": [
                -1.2444524773393704,
                -1.6003621825511658,
                0.25747644421124916,
                -2.655641591765079,
                0.6421774899631374,
                1.2022444939717505
            ]
        },
        {
            "positions": [
                -1.1354602448184248,
                -1.626803930367255,
                0.09717312671834777,
                -2.647896250227122,
                0.6435223871348892,
                1.2870336847998225
            ]
        },
        {
            "positions": [
                -1.0264680122974794,
                -1.6532456781833444,
                -0.06313019077455362,
                -2.640150908689165,
                0.644867284306641,
                1.3718228756278943
            ]
        },
        {
            "positions": [
                -0.9174757797765339,
                -1.6796874259994339,
                -0.223433508267455,
                -2.6324055671512085,
                0.6462121814783928,
                1.4566120664559663
            ]
        },
        {
            "positions": [
                -0.8084835472555885,
                -1.706129173815523,
                -0.3837368257603564,
                -2.6246602256132516,
                0.6475570786501446,
                1.541401257284038
            ]
        },
        {
            "positions": [
                -0.699491314734643,
                -1.7325709216316123,
                -0.5440401432532578,
                -2.6169148840752947,
                0.6489019758218963,
                1.62619044811211
            ]
        },
        {
            "positions": [
                -0.5904990822136975,
                -1.7590126694477017,
                -0.7043434607461592,
                -2.609169542537338,
                0.6502468729936481,
                1.7109796389401821
            ]
        },
        {
            "positions": [
                -0.48150684969275204,
                -1.7854544172637912,
                -0.8646467782390606,
                -2.601424200999381,
                0.6515917701653999,
                1.795768829768254
            ]
        },
        {
            "positions": [
                -0.37251461717180656,
                -1.8118961650798804,
                -1.024950095731962,
                -2.5936788594614244,
                0.6529366673371517,
                1.880558020596326
            ]
        },
        {
            "positions": [
                -0.2635223846508611,
                -1.8383379128959696,
                -1.1852534132248633,
                -2.5859335179234675,
                0.6542815645089035,
                1.965347211424398
            ]
        },
        {
            "positions": [
                -0.1545301521299157,
                -1.864779660712059,
                -1.3455567307177647,
                -2.5781881763855106,
                0.6556264616806553,
                2.0501364022524697
            ]
        },
        {
            "positions": [
                -0.10006510077653581,
                -1.868153581580445,
                -1.48973428169207,
                -2.5516496504993387,
                0.6145294718471515,
                2.1292033296464163
            ]
        },
        {
            "positions": [
                -0.04560004942315593,
                -1.8715275024488314,
                -1.633911832666375,
                -2.525111124613167,
                0.5734324820136475,
                2.2082702570403625
            ]
        },
        {
            "positions": [
                0.008865001930223965,
                -1.8749014233172174,
                -1.7780893836406801,
                -2.4985725987269944,
                0.5323354921801435,
                2.2873371844343087
            ]
        },
        {
            "positions": [
                0.06333005328360382,
                -1.8782753441856035,
                -1.9222669346149854,
                -2.4720340728408225,
                0.4912385023466397,
                2.3664041118282553
            ]
        },
        {
            "positions": [
                0.047339895663334255,
                -1.862966315685032,
                -2.0200869277449853,
                -2.4350657830760896,
                0.39322498829680225,
                2.4975160924911757
            ]
        },
        {
            "positions": [
                0.031349738043064686,
                -1.8476572871844605,
                -2.1179069208749848,
                -2.398097493311356,
                0.2952114742469648,
                2.6286280731540965
            ]
        },
        {
            "positions": [
                0.015359580422795116,
                -1.832348258683889,
                -2.2157269140049847,
                -2.361129203546623,
                0.19719796019712735,
                2.759740053817017
            ]
        },
        {
            "positions": [
                -0.03460884897445394,
                -1.812377520311995,
                -2.2486275910657385,
                -2.3327243054017144,
                0.10516602711467833,
                2.8690837868017756
            ]
        },
        {
            "positions": [
                -0.084577278371703,
                -1.7924067819401006,
                -2.2815282681264923,
                -2.3043194072568056,
                0.013134094032229315,
                2.9784275197865338
            ]
        },
        {
            "positions": [
                -0.13454570776895206,
                -1.7724360435682063,
                -2.3144289451872457,
                -2.2759145091118973,
                -0.07889783905021971,
                3.087771252771292
            ]
        },
        {
            "positions": [
                -0.1845141371662011,
                -1.7524653051963122,
                -2.3473296222479996,
                -2.2475096109669885,
                -0.17092977213266872,
                3.1971149857560506
            ]
        }
    ]
}