{
    "goal": {
        "global_pose": {
            "orientation": {
                "w": 0.7031023502349854,
                "x": -0.7110244035720825,
                "y": 0.007748599164187908,
                "z": 0.005598929710686207
            },
            "position": {
                "x": 0.11585023208521307,
                "y": 0.44412534475326537,
                "z": 0.3711530566215515
            }
        },
        "name": "move_to_auspresseinheit_A"
    },
    "id": "FMT_move_to_auspresseinheit_A_60",
    "joint_names": [
        "shoulder_pan_joint",
        "shoulder_lift_joint",
        "elbow_joint",
        "wrist_1_joint",
        "wrist_2_joint",
        "wrist_3_joint"
    ],
    "metrics": {
        "cart_traj_len": 1.7072900085565605,
        "distance_elbow_joint": 0.4810399082272494,
        "distance_shoulder_lift_joint": 1.4898353539307334,
        "distance_shoulder_pan_joint": 2.7379860693452933,
        "distance_wrist_1_joint": 1.6261412985795496,
        "distance_wrist_2_joint": 2.1453576475501452,
        "distance_wrist_3_joint": 0.7542025521284703,
        "smoothness": 1.7613921458774038,
        "time": 1.297294983,
        "traj_len": 3.0388423502645616,
        "weighted_distance": 3.809785673781149
    },
    "planner": "FMT",
    "start": {
        "state": {
            "elbow_joint": 2.4225746658250005,
            "shoulder_lift_joint": -1.3736534386056498,
            "shoulder_pan_joint": -0.3378633547517467,
            "wrist_1_joint": -1.0288598680537169,
            "wrist_2_joint": 1.233022673432363,
            "wrist_3_joint": -3.0940220416140027
        }
    },
    "waypoints": [
        {
            "positions": [
                -0.3378633547517467,
                -1.3736534386056498,
                2.4225746658250005,
                -1.0288598680537169,
                1.233022673432363,
                -3.0940220416140027
            ]
        },
        {
            "positions": [
                -0.20687887739224853,
                -1.396509964021285,
                2.4676704245586776,
                -1.122906009175048,
                1.2730322236210232,
                -3.0575612935626952
            ]
        },
        {
            "positions": [
                -0.07589440003275033,
                -1.4193664894369202,
                2.5127661832923547,
                -1.2169521502963794,
                1.3130417738096836,
                -3.0211005455113877
            ]
        },
        {
            "positions": [
                0.05509007732674781,
                -1.4422230148525557,
                2.557861942026032,
                -1.3109982914177105,
                1.3530513239983437,
                -2.98463979746008
            ]
        },
        {
            "positions": [
                0.18607455468624606,
                -1.4650795402681909,
                2.602957700759709,
                -1.4050444325390419,
                1.393060874187004,
                -2.9481790494087723
            ]
        },
        {
            "positions": [
                0.31705903204574426,
                -1.487936065683826,
                2.648053459493386,
                -1.499090573660373,
                1.4330704243756642,
                -2.911718301357465
            ]
        },
        {
            "positions": [
                0.4121313213525096,
                -1.556992000273495,
                2.6404902620848048,
                -1.4145830641448756,
                1.3302547130543292,
                -2.942910933066268
            ]
        },
        {
            "positions": [
                0.507203610659275,
                -1.6260479348631638,
                2.632927064676224,
                -1.3300755546293783,
                1.2274390017329941,
                -2.974103564775072
            ]
        },
        {
            "positions": [
                0.6022758999660405,
                -1.6951038694528324,
                2.6253638672676427,
                -1.2455680451138809,
                1.124623290411659,
                -3.0052961964838754
            ]
        },
        {
            "positions": [
                0.6973481892728058,
                -1.7641598040425013,
                2.617800669859062,
                -1.1610605355983836,
                1.021807579090324,
                -3.036488828192679
            ]
        },
        {
            "positions": [
                0.7924204785795712,
                -1.8332157386321701,
                2.6102374724504807,
                -1.0765530260828862,
                0.918991867768989,
                -3.0676814599014826
            ]
        },
        {
            "positions": [
                0.8874927678863367,
                -1.902271673221839,
                2.6026742750418994,
                -0.9920455165673888,
                0.816176156447654,
                -3.0988740916102864
            ]
        },
        {
            "positions": [
                0.9825650571931019,
                -1.9713276078115076,
                2.5951110776333186,
                -0.9075380070518916,
                0.7133604451263189,
                -3.1300667233190897
            ]
        },
        {
            "positions": [
                1.0776373464998674,
                -2.0403835424011767,
                2.5875478802247374,
                -0.8230304975363941,
                0.6105447338049839,
                -3.1612593550278936
            ]
        },
        {
            "positions": [
                1.172709635806633,
                -2.109439476990845,
                2.579984682816156,
                -0.7385229880208968,
                0.5077290224836488,
                -3.192451986736697
            ]
        },
        {
            "positions": [
                1.2677819251133982,
                -2.1784954115805144,
                2.5724214854075753,
                -0.6540154785053994,
                0.40491331116231377,
                -3.2236446184455008
            ]
        },
        {
            "positions": [
                1.3628542144201636,
                -2.247551346170183,
                2.564858287998994,
                -0.5695079689899021,
                0.3020975998409787,
                -3.254837250154304
            ]
        },
        {
            "positions": [
                1.4579265037269291,
                -2.3166072807598517,
                2.5572950905904133,
                -0.4850004594744046,
                0.19928188851964368,
                -3.286029881863108
            ]
        },
        {
            "positions": [
                1.5529987930336944,
                -2.3856632153495205,
                2.549731893181832,
                -0.40049294995890744,
                0.09646617719830854,
                -3.3172225135719113
            ]
        },
        {
            "positions": [
                1.411811472773719,
                -2.30602561915171,
                2.5235253018072803,
                -0.4100451115041454,
                0.19791711876988985,
                -3.2894900802956637
            ]
        },
        {
            "positions": [
                1.2706241525137434,
                -2.2263880229538997,
                2.4973187104327286,
                -0.4195972730493834,
                0.2993680603414712,
                -3.261757647019416
            ]
        },
        {
            "positions": [
                1.1294368322537678,
                -2.146750426756089,
                2.4711121190581773,
                -0.4291494345946214,
                0.4008190019130525,
                -3.2340252137431684
            ]
        },
        {
            "positions": [
                0.9882495119937924,
                -2.067112830558279,
                2.4449055276836256,
                -0.4387015961398594,
                0.5022699434846338,
                -3.206292780466921
            ]
        },
        {
            "positions": [
                0.8470621917338169,
                -1.9874752343604682,
                2.418698936309074,
                -0.44825375768509734,
                0.6037208850562151,
                -3.178560347190673
            ]
        },
        {
            "positions": [
                0.7058748714738414,
                -1.9078376381626578,
                2.392492344934522,
                -0.4578059192303353,
                0.7051718266277964,
                -3.1508279139144255
            ]
        }
    ]
}