{
    "goal": {
        "global_pose": {
            "orientation": {
                "w": 0.5084816217422485,
                "x": -0.49083608388900757,
                "y": 0.5182115435600281,
                "z": -0.4816462993621826
            },
            "position": {
                "x": 0.5540239810943604,
                "y": 0.030875300988554955,
                "z": 0.16403168439865112
            }
        },
        "name": "move_to_storage_A"
    },
    "id": "FMT_move_to_storage_A_50",
    "joint_names": [
        "shoulder_pan_joint",
        "shoulder_lift_joint",
        "elbow_joint",
        "wrist_1_joint",
        "wrist_2_joint",
        "wrist_3_joint"
    ],
    "metrics": {
        "cart_traj_len": 0.35401793933888887,
        "distance_elbow_joint": 0.44975037665810214,
        "distance_shoulder_lift_joint": 0.23505686997708186,
        "distance_shoulder_pan_joint": 0.46135801708690566,
        "distance_wrist_1_joint": 0.23761292281924484,
        "distance_wrist_2_joint": 1.1079918410989786,
        "distance_wrist_3_joint": 0.0929017733182258,
        "smoothness": 2.2204460668324854e-16,
        "time": 0.377622554,
        "traj_len": 1.6076914507947533,
        "weighted_distance": 2.028812488011944
    },
    "planner": "FMT",
    "start": {
        "state": {
            "elbow_joint": 1.971548259319323,
            "shoulder_lift_joint": -1.1394851275133948,
            "shoulder_pan_joint": 0.1228115487234821,
            "wrist_1_joint": -0.7804723859257726,
            "wrist_2_joint": 0.12958671773740124,
            "wrist_3_joint": -3.192489227718131
        }
    },
    "waypoints": [
        {
            "positions": [
                0.1228115487234821,
                -1.1394851275133948,
                1.971548259319323,
                -0.7804723859257726,
                0.12958671773740124,
                -3.192489227718131
            ]
        },
        {
            "positions": [
                0.056903260568209865,
                -1.1730646803672637,
                2.035798313127623,
                -0.8144170891856647,
                0.2878712664658267,
                -3.1792175458155274
            ]
        },
        {
            "positions": [
                -0.00900502758706237,
                -1.2066442332211325,
                2.1000483669359236,
                -0.8483617924455569,
                0.4461558151942523,
                -3.1659458639129237
            ]
        },
        {
            "positions": [
                -0.07491331574233459,
                -1.2402237860750014,
                2.164298420744224,
                -0.882306495705449,
                0.6044403639226777,
                -3.15267418201032
            ]
        },
        {
            "positions": [
                -0.14082160389760684,
                -1.27380333892887,
                2.2285484745525244,
                -0.9162511989653411,
                0.7627249126511033,
                -3.1394025001077166
            ]
        },
        {
            "positions": [
                -0.20672989205287912,
                -1.307382891782739,
                2.2927985283608248,
                -0.9501959022252332,
                0.9210094613795289,
                -3.126130818205113
            ]
        },
        {
            "positions": [
                -0.2726381802081513,
                -1.3409624446366077,
                2.3570485821691247,
                -0.9841406054851254,
                1.0792940101079542,
                -3.112859136302509
            ]
        },
        {
            "positions": [
                -0.33854646836342356,
                -1.3745419974904767,
                2.421298635977425,
                -1.0180853087450175,
                1.23757855883638,
                -3.0995874543999054
            ]
        }
    ]
}{
    "goal": {
        "global_pose": {
            "orientation": {
                "w": 0.5084816217422485,
                "x": -0.49083608388900757,
                "y": 0.5182115435600281,
                "z": -0.4816462993621826
            },
            "position": {
                "x": 0.5540239810943604,
                "y": 0.030875300988554955,
                "z": 0.16403168439865112
            }
        },
        "name": "move_to_storage_A"
    },
    "id": "FMT_move_to_storage_A_50",
    "joint_names": [
        "shoulder_pan_joint",
        "shoulder_lift_joint",
        "elbow_joint",
        "wrist_1_joint",
        "wrist_2_joint",
        "wrist_3_joint"
    ],
    "metrics": {
        "cart_traj_len": 0.35351428384553757,
        "distance_elbow_joint": 0.4489720310988865,
        "distance_shoulder_lift_joint": 0.23378334969289138,
        "distance_shoulder_pan_joint": 0.46264333786018935,
        "distance_wrist_1_joint": 0.23665420651963154,
        "distance_wrist_2_joint": 1.0979091572453747,
        "distance_wrist_3_joint": 0.08820249781423461,
        "smoothness": 4.440892098500626e-16,
        "time": 0.449094323,
        "traj_len": 1.6025494002467469,
        "weighted_distance": 2.0196863468431636
    },
    "planner": "FMT",
    "start": {
        "state": {
            "elbow_joint": 1.97154746011099,
            "shoulder_lift_joint": -1.13948474672311,
            "shoulder_pan_joint": 0.12281154466712228,
            "wrist_1_joint": -0.7804688027058302,
            "wrist_2_joint": 0.12958655903071145,
            "wrist_3_joint": 3.0906928834467795
        }
    },
    "waypoints": [
        {
            "positions": [
                0.12281154466712228,
                -1.13948474672311,
                1.97154746011099,
                -0.7804688027058302,
                0.12958655903071145,
                3.0906928834467795
            ]
        },
        {
            "positions": [
                0.0567196392585238,
                -1.1728823681078087,
                2.035686321696545,
                -0.814276546494349,
                0.28643072435147926,
                3.1032932402773845
            ]
        },
        {
            "positions": [
                -0.009372266150074679,
                -1.2062799894925076,
                2.0998251832821,
                -0.8480842902828678,
                0.44327488967224704,
                3.1158935971079895
            ]
        },
        {
            "positions": [
                -0.07546417155867315,
                -1.2396776108772063,
                2.1639640448676554,
                -0.8818920340713865,
                0.6001190549930149,
                3.1284939539385945
            ]
        },
        {
            "positions": [
                -0.14155607696727163,
                -1.273075232261905,
                2.228102906453211,
                -0.9156997778599053,
                0.7569632203137827,
                3.141094310769199
            ]
        },
        {
            "positions": [
                -0.20764798237587012,
                -1.306472853646604,
                2.292241768038766,
                -0.9495075216484241,
                0.9138073856345506,
                3.153694667599804
            ]
        },
        {
            "positions": [
                -0.27373988778446856,
                -1.3398704750313026,
                2.3563806296243213,
                -0.9833152654369429,
                1.0706515509553183,
                3.166295024430409
            ]
        },
        {
            "positions": [
                -0.33983179319306706,
                -1.3732680964160013,
                2.4205194912098764,
                -1.0171230092254617,
                1.2274957162760862,
                3.178895381261014
            ]
        }
    ]
}{
    "goal": {
        "global_pose": {
            "orientation": {
                "w": 0.5084816217422485,
                "x": -0.49083608388900757,
                "y": 0.5182115435600281,
                "z": -0.4816462993621826
            },
            "position": {
                "x": 0.5540239810943604,
                "y": 0.030875300988554955,
                "z": 0.16403168439865112
            }
        },
        "name": "move_to_storage_A"
    },
    "id": "FMT_move_to_storage_A_50",
    "joint_names": [
        "shoulder_pan_joint",
        "shoulder_lift_joint",
        "elbow_joint",
        "wrist_1_joint",
        "wrist_2_joint",
        "wrist_3_joint"
    ],
    "metrics": {
        "cart_traj_len": 0.35286760988532023,
        "distance_elbow_joint": 0.4471879653096753,
        "distance_shoulder_lift_joint": 0.23310223597252588,
        "distance_shoulder_pan_joint": 0.46224066891539467,
        "distance_wrist_1_joint": 0.23594096621072014,
        "distance_wrist_2_joint": 1.0936711682030695,
        "distance_wrist_3_joint": 0.104012037241755,
        "smoothness": 4.440892098500626e-16,
        "time": 0.39723128500000005,
        "traj_len": 1.6050405109694712,
        "weighted_distance": 2.0282483207808752
    },
    "planner": "FMT",
    "start": {
        "state": {
            "elbow_joint": 1.9715472970024885,
            "shoulder_lift_joint": -1.1394870060712896,
            "shoulder_pan_joint": 0.12281152778156021,
            "wrist_1_joint": -0.780463741449964,
            "wrist_2_joint": 0.12958659822042276,
            "wrist_3_joint": 3.090690232415272
        }
    },
    "waypoints": [
        {
            "positions": [
                0.12281152778156021,
                -1.1394870060712896,
                1.9715472970024885,
                -0.780463741449964,
                0.12958659822042276,
                3.090690232415272
            ]
        },
        {
            "positions": [
                0.056777146507932405,
                -1.1727873254959362,
                2.0354312920467277,
                -0.8141695937657811,
                0.28582533653514697,
                3.1055490948783797
            ]
        },
        {
            "positions": [
                -0.009257234765695399,
                -1.2060876449205826,
                2.0993152870909673,
                -0.8478754460815983,
                0.4420640748498712,
                3.1204079573414876
            ]
        },
        {
            "positions": [
                -0.07529161603932319,
                -1.2393879643452292,
                2.1631992821352064,
                -0.8815812983974155,
                0.5983028131645954,
                3.1352668198045954
            ]
        },
        {
            "positions": [
                -0.141325997312951,
                -1.2726882837698759,
                2.227083277179446,
                -0.9152871507132326,
                0.7545415514793196,
                3.1501256822677033
            ]
        },
        {
            "positions": [
                -0.20736037858657883,
                -1.3059886031945225,
                2.290967272223685,
                -0.9489930030290499,
                0.9107802897940438,
                3.164984544730811
            ]
        },
        {
            "positions": [
                -0.27339475986020656,
                -1.3392889226191689,
                2.3548512672679243,
                -0.982698855344867,
                1.0670190281087681,
                3.179843407193919
            ]
        },
        {
            "positions": [
                -0.33942914113383443,
                -1.3725892420438155,
                2.418735262312164,
                -1.0164047076606841,
                1.2232577664234923,
                3.194702269657027
            ]
        }
    ]
}