{
    "goal": {
        "global_pose": {
            "orientation": {
                "w": 0.7047431493862688,
                "x": -0.7094548369677653,
                "y": 0.0024358444001904,
                "z": -0.0022348060817251984
            },
            "position": {
                "x": -0.39052492380142206,
                "y": 0.3671506643295288,
                "z": 0.19426114857196808
            }
        },
        "name": "move_to_magneteinheit_D"
    },
    "id": "FMT_move_to_magneteinheit_D_87",
    "joint_names": [
        "shoulder_pan_joint",
        "shoulder_lift_joint",
        "elbow_joint",
        "wrist_1_joint",
        "wrist_2_joint",
        "wrist_3_joint"
    ],
    "metrics": {
        "cart_traj_len": 7.407146518595533,
        "distance_elbow_joint": 3.18146260884297,
        "distance_shoulder_lift_joint": 1.1620220446066094,
        "distance_shoulder_pan_joint": 9.270594379191044,
        "distance_wrist_1_joint": 2.2088176231260763,
        "distance_wrist_2_joint": 4.4678472841629775,
        "distance_wrist_3_joint": 6.31446872758309,
        "smoothness": 0.29861983453759683,
        "time": 1.5857004909999999,
        "traj_len": 5.15802410497593,
        "weighted_distance": 6.775751989998451
    },
    "planner": "FMT",
    "start": {
        "state": {
            "elbow_joint": 0.749534889911806,
            "shoulder_lift_joint": -0.6476975780787326,
            "shoulder_pan_joint": -2.711696901376241,
            "wrist_1_joint": -0.07506478083263063,
            "wrist_2_joint": 0.43296659715538205,
            "wrist_3_joint": -3.14703540197715
        }
    },
    "waypoints": [
        {
            "positions": [
                -2.711696901376241,
                -0.6476975780787326,
                0.749534889911806,
                -0.07506478083263063,
                0.43296659715538205,
                -3.14703540197715
            ]
        },
        {
            "positions": [
                -2.7363340432115466,
                -0.7127156597253866,
                0.762192016764777,
                -0.15514216651384516,
                0.4517988822744779,
                -2.9990606183953865
            ]
        },
        {
            "positions": [
                -2.760971185046852,
                -0.7777337413720405,
                0.7748491436177481,
                -0.2352195521950597,
                0.4706311673935737,
                -2.851085834813623
            ]
        },
        {
            "positions": [
                -2.7856083268821576,
                -0.8427518230186946,
                0.7875062704707192,
                -0.3152969378762742,
                0.48946345251266954,
                -2.7031110512318595
            ]
        },
        {
            "positions": [
                -2.76183420095005,
                -0.837555006566287,
                0.7135351409525974,
                -0.35905619013860907,
                0.5258901924312903,
                -2.5313527485028176
            ]
        },
        {
            "positions": [
                -2.738060075017942,
                -0.8323581901138795,
                0.6395640114344756,
                -0.4028154424009439,
                0.5623169323499111,
                -2.3595944457737756
            ]
        },
        {
            "positions": [
                -2.714285949085834,
                -0.827161373661472,
                0.5655928819163538,
                -0.4465746946632788,
                0.5987436722685318,
                -2.1878361430447333
            ]
        },
        {
            "positions": [
                -2.690511823153726,
                -0.8219645572090645,
                0.4916217523982321,
                -0.49033394692561366,
                0.6351704121871525,
                -2.0160778403156914
            ]
        },
        {
            "positions": [
                -2.666737697221618,
                -0.8167677407566569,
                0.4176506228801103,
                -0.5340931991879485,
                0.6715971521057733,
                -1.8443195375866495
            ]
        },
        {
            "positions": [
                -2.6429635712895103,
                -0.8115709243042494,
                0.3436794933619885,
                -0.5778524514502834,
                0.7080238920243941,
                -1.6725612348576073
            ]
        },
        {
            "positions": [
                -2.4830719127043013,
                -0.833651757700372,
                0.2980529228171164,
                -0.6241032676830335,
                0.7540827282455445,
                -1.5987647691370783
            ]
        },
        {
            "positions": [
                -2.3231802541190927,
                -0.8557325910964948,
                0.2524263522722442,
                -0.6703540839157835,
                0.8001415644666948,
                -1.5249683034165493
            ]
        },
        {
            "positions": [
                -2.1632885955338836,
                -0.8778134244926175,
                0.20679978172737204,
                -0.7166049001485335,
                0.8462004006878452,
                -1.45117183769602
            ]
        },
        {
            "positions": [
                -2.0033969369486746,
                -0.8998942578887402,
                0.1611732111824999,
                -0.7628557163812837,
                0.8922592369089954,
                -1.377375371975491
            ]
        },
        {
            "positions": [
                -1.8435052783634656,
                -0.9219750912848629,
                0.1155466406376277,
                -0.8091065326140336,
                0.9383180731301459,
                -1.303578906254962
            ]
        },
        {
            "positions": [
                -1.6836136197782567,
                -0.9440559246809856,
                0.06992007009275558,
                -0.8553573488467837,
                0.9843769093512962,
                -1.229782440534433
            ]
        },
        {
            "positions": [
                -1.5237219611930477,
                -0.9661367580771083,
                0.0242934995478834,
                -0.9016081650795338,
                1.0304357455724467,
                -1.155985974813904
            ]
        },
        {
            "positions": [
                -1.3638303026078389,
                -0.988217591473231,
                -0.021333070996988723,
                -0.9478589813122839,
                1.076494581793597,
                -1.082189509093375
            ]
        },
        {
            "positions": [
                -1.2039386440226298,
                -1.0102984248693536,
                -0.0669596415418609,
                -0.9941097975450339,
                1.1225534180147472,
                -1.0083930433728459
            ]
        },
        {
            "positions": [
                -1.0440469854374208,
                -1.0323792582654765,
                -0.11258621208673308,
                -1.0403606137777839,
                1.1686122542358977,
                -0.9345965776523167
            ]
        },
        {
            "positions": [
                -0.8841553268522118,
                -1.0544600916615992,
                -0.15821278263160526,
                -1.086611430010534,
                1.2146710904570481,
                -0.8608001119317877
            ]
        },
        {
            "positions": [
                -0.7242636682670032,
                -1.0765409250577218,
                -0.20383935317647733,
                -1.132862246243284,
                1.2607299266781982,
                -0.7870036462112587
            ]
        },
        {
            "positions": [
                -0.5643720096817941,
                -1.0986217584538445,
                -0.24946592372134951,
                -1.1791130624760342,
                1.3067887628993486,
                -0.7132071804907296
            ]
        },
        {
            "positions": [
                -0.4044803510965851,
                -1.1207025918499673,
                -0.2950924942662217,
                -1.2253638787087842,
                1.3528475991204991,
                -0.6394107147702006
            ]
        },
        {
            "positions": [
                -0.24458869251137605,
                -1.14278342524609,
                -0.3407190648110939,
                -1.2716146949415343,
                1.3989064353416496,
                -0.5656142490496714
            ]
        },
        {
            "positions": [
                -0.08469703392616745,
                -1.1648642586422127,
                -0.38634563535596594,
                -1.3178655111742843,
                1.4449652715627996,
                -0.4918177833291426
            ]
        },
        {
            "positions": [
                0.07519462465904159,
                -1.1869450920383353,
                -0.4319722059008381,
                -1.3641163274070345,
                1.4910241077839501,
                -0.4180213176086134
            ]
        },
        {
            "positions": [
                0.23508628324425063,
                -1.209025925434458,
                -0.4775987764457103,
                -1.4103671436397844,
                1.5370829440051006,
                -0.3442248518880844
            ]
        },
        {
            "positions": [
                0.39497794182945967,
                -1.2311067588305806,
                -0.5232253469905825,
                -1.4566179598725344,
                1.5831417802262508,
                -0.2704283861675554
            ]
        },
        {
            "positions": [
                0.5548696004146687,
                -1.2531875922267035,
                -0.5688519175354547,
                -1.5028687761052846,
                1.629200616447401,
                -0.19663192044702615
            ]
        },
        {
            "positions": [
                0.7147612589998777,
                -1.2752684256228262,
                -0.6144784880803269,
                -1.5491195923380348,
                1.6752594526685516,
                -0.12283545472649715
            ]
        },
        {
            "positions": [
                0.8746529175850868,
                -1.2973492590189488,
                -0.6601050586251991,
                -1.5953704085707847,
                1.721318288889702,
                -0.04903898900596815
            ]
        },
        {
            "positions": [
                1.034544576170295,
                -1.3194300924150715,
                -0.705731629170071,
                -1.6416212248035347,
                1.767377125110852,
                0.024757476714560855
            ]
        },
        {
            "positions": [
                1.194436234755504,
                -1.3415109258111944,
                -0.7513581997149432,
                -1.6878720410362846,
                1.8134359613320026,
                0.09855394243508986
            ]
        },
        {
            "positions": [
                1.354327893340713,
                -1.363591759207317,
                -0.7969847702598154,
                -1.7341228572690348,
                1.859494797553153,
                0.17235040815561886
            ]
        },
        {
            "positions": [
                1.514219551925922,
                -1.3856725926034397,
                -0.8426113408046876,
                -1.7803736735017848,
                1.905553633774303,
                0.2461468738761481
            ]
        },
        {
            "positions": [
                1.6741112105111315,
                -1.4077534259995623,
                -0.8882379113495598,
                -1.826624489734535,
                1.9516124699954536,
                0.3199433395966771
            ]
        },
        {
            "positions": [
                1.8340028690963401,
                -1.429834259395685,
                -0.9338644818944319,
                -1.8728753059672851,
                1.997671306216604,
                0.3937398053172061
            ]
        },
        {
            "positions": [
                1.9938945276815487,
                -1.4519150927918076,
                -0.9794910524393041,
                -1.919126122200035,
                2.0437301424377545,
                0.4675362710377351
            ]
        },
        {
            "positions": [
                2.153786186266758,
                -1.4739959261879305,
                -1.0251176229841763,
                -1.9653769384327853,
                2.089788978658905,
                0.5413327367582645
            ]
        },
        {
            "positions": [
                2.313677844851967,
                -1.4960767595840532,
                -1.0707441935290485,
                -2.0116277546655352,
                2.135847814880055,
                0.6151292024787935
            ]
        },
        {
            "positions": [
                2.4735695034371754,
                -1.5181575929801758,
                -1.1163707640739204,
                -2.057878570898285,
                2.1819066511012055,
                0.6889256681993221
            ]
        },
        {
            "positions": [
                2.633461162022385,
                -1.5402384263762985,
                -1.1619973346187926,
                -2.104129387131035,
                2.2279654873223556,
                0.7627221339198511
            ]
        },
        {
            "positions": [
                2.7933528206075935,
                -1.5623192597724214,
                -1.2076239051636648,
                -2.1503802033637855,
                2.274024323543506,
                0.8365185996403806
            ]
        },
        {
            "positions": [
                2.953244479192803,
                -1.584400093168544,
                -1.253250475708537,
                -2.196631019596535,
                2.3200831597646565,
                0.9103150653609096
            ]
        },
        {
            "positions": [
                3.113136137778012,
                -1.6064809265646667,
                -1.2988770462534092,
                -2.2428818358292855,
                2.366141995985807,
                0.9841115310814383
            ]
        },
        {
            "positions": [
                2.975722034068639,
                -1.612350797343491,
                -1.342923209235073,
                -2.241173478823893,
                2.2605306674302836,
                1.0750832725199593
            ]
        },
        {
            "positions": [
                2.8383079303592664,
                -1.6182206681223155,
                -1.3869693722167367,
                -2.2394651218185,
                2.1549193388747607,
                1.16605501395848
            ]
        },
        {
            "positions": [
                2.700893826649893,
                -1.6240905389011397,
                -1.4310155351984002,
                -2.2377567648131076,
                2.049308010319238,
                1.2570267553970007
            ]
        },
        {
            "positions": [
                2.5634797229405204,
                -1.6299604096799643,
                -1.475061698180064,
                -2.236048407807715,
                1.9436966817637145,
                1.3479984968355216
            ]
        },
        {
            "positions": [
                2.4260656192311476,
                -1.6358302804587885,
                -1.5191078611617277,
                -2.234340050802323,
                1.8380853532081913,
                1.4389702382740426
            ]
        },
        {
            "positions": [
                2.2886515155217744,
                -1.6417001512376128,
                -1.5631540241433914,
                -2.23263169379693,
                1.7324740246526682,
                1.5299419797125633
            ]
        },
        {
            "positions": [
                2.1512374118124016,
                -1.6475700220164373,
                -1.6072001871250552,
                -2.2309233367915375,
                1.626862696097145,
                1.620913721151084
            ]
        },
        {
            "positions": [
                2.013823308103029,
                -1.6534398927952616,
                -1.6512463501067187,
                -2.229214979786145,
                1.521251367541622,
                1.711885462589605
            ]
        },
        {
            "positions": [
                1.8764092043936558,
                -1.659309763574086,
                -1.6952925130883827,
                -2.2275066227807523,
                1.4156400389860988,
                1.8028572040281259
            ]
        },
        {
            "positions": [
                1.7389951006842828,
                -1.6651796343529104,
                -1.7393386760700462,
                -2.2257982657753597,
                1.3100287104305757,
                1.8938289454666466
            ]
        },
        {
            "positions": [
                1.60158099697491,
                -1.671049505131735,
                -1.78338483905171,
                -2.224089908769967,
                1.2044173818750525,
                1.9848006869051673
            ]
        },
        {
            "positions": [
                1.464166893265537,
                -1.6769193759105592,
                -1.8274310020333737,
                -2.222381551764575,
                1.0988060533195294,
                2.0757724283436882
            ]
        },
        {
            "positions": [
                1.3267527895561642,
                -1.6827892466893835,
                -1.8714771650150372,
                -2.2206731947591822,
                0.9931947247640063,
                2.166744169782209
            ]
        },
        {
            "positions": [
                1.189338685846791,
                -1.688659117468208,
                -1.9155233279967012,
                -2.2189648377537896,
                0.8875833962084831,
                2.25771591122073
            ]
        },
        {
            "positions": [
                1.0519245821374184,
                -1.6945289882470322,
                -1.9595694909783647,
                -2.217256480748397,
                0.78197206765296,
                2.3486876526592506
            ]
        },
        {
            "positions": [
                0.9145104784280456,
                -1.7003988590258567,
                -2.0036156539600283,
                -2.2155481237430044,
                0.6763607390974369,
                2.4396593940977715
            ]
        },
        {
            "positions": [
                0.7770963747186723,
                -1.706268729804681,
                -2.0476618169416922,
                -2.2138397667376117,
                0.5707494105419137,
                2.5306311355362925
            ]
        },
        {
            "positions": [
                0.6396822710092995,
                -1.7121386005835055,
                -2.091707979923356,
                -2.212131409732219,
                0.4651380819863906,
                2.621602876974813
            ]
        },
        {
            "positions": [
                0.5022681672999267,
                -1.7180084713623298,
                -2.1357541429050197,
                -2.2104230527268265,
                0.3595267534308677,
                2.712574618413334
            ]
        },
        {
            "positions": [
                0.3648540635905535,
                -1.723878342141154,
                -2.1798003058866833,
                -2.208714695721434,
                0.25391542487534435,
                2.803546359851855
            ]
        },
        {
            "positions": [
                0.2274399598811807,
                -1.7297482129199786,
                -2.2238464688683472,
                -2.2070063387160417,
                0.14830409631982144,
                2.894518101290376
            ]
        },
        {
            "positions": [
                0.09002585617180792,
                -1.7356180836988029,
                -2.2678926318500108,
                -2.205297981710649,
                0.04269276776429809,
                2.9854898427288963
            ]
        },
        {
            "positions": [
                -0.04738824753756532,
                -1.7414879544776274,
                -2.3119387948316747,
                -2.2035896247052564,
                -0.06291856079122526,
                3.076461584167417
            ]
        },
        {
            "positions": [
                -0.1848023512469383,
                -1.7473578252564517,
                -2.3559849578133383,
                -2.201881267699864,
                -0.16852988934674815,
                3.167433325605938
            ]
        }
    ]
}