{
    "goal": {
        "global_pose": {
            "orientation": {
                "w": 0.7047431493862688,
                "x": -0.7094548369677653,
                "y": 0.0024358444001904,
                "z": -0.0022348060817251984
            },
            "position": {
                "x": -0.39052492380142206,
                "y": 0.3671506643295288,
                "z": 0.19426114857196808
            }
        },
        "name": "move_to_magneteinheit_D"
    },
    "id": "FMT_move_to_magneteinheit_D_67",
    "joint_names": [
        "shoulder_pan_joint",
        "shoulder_lift_joint",
        "elbow_joint",
        "wrist_1_joint",
        "wrist_2_joint",
        "wrist_3_joint"
    ],
    "metrics": {
        "cart_traj_len": 3.955712593573168,
        "distance_elbow_joint": 3.125210325164935,
        "distance_shoulder_lift_joint": 1.6322136451485718,
        "distance_shoulder_pan_joint": 3.376034600372488,
        "distance_wrist_1_joint": 1.8493930615713525,
        "distance_wrist_2_joint": 2.1666214697174655,
        "distance_wrist_3_joint": 3.133107776684269,
        "smoothness": 0.44151620364712485,
        "time": 1.537738567,
        "traj_len": 3.9092941662989595,
        "weighted_distance": 5.056165638437534
    },
    "planner": "FMT",
    "start": {
        "state": {
            "elbow_joint": 0.749534889911806,
            "shoulder_lift_joint": -0.6476975780787326,
            "shoulder_pan_joint": -2.711696901376241,
            "wrist_1_joint": -0.07506478083263063,
            "wrist_2_joint": 0.43296659715538205,
            "wrist_3_joint": -3.14703540197715
        }
    },
    "waypoints": [
        {
            "positions": [
                -2.711696901376241,
                -0.6476975780787326,
                0.749534889911806,
                -0.07506478083263063,
                0.43296659715538205,
                -3.14703540197715
            ]
        },
        {
            "positions": [
                -2.7063866881170853,
                -0.697999822097314,
                0.5987890190878413,
                -0.021280727983504836,
                0.4343897129721653,
                -3.0937108811298657
            ]
        },
        {
            "positions": [
                -2.7632848333438296,
                -0.7079416075348678,
                0.5475954617080661,
                0.0428093969590629,
                0.49354423965720295,
                -3.0121854552332383
            ]
        },
        {
            "positions": [
                -2.820182978570574,
                -0.7178833929724215,
                0.49640190432829073,
                0.10689952190163063,
                0.5526987663422407,
                -2.9306600293366114
            ]
        },
        {
            "positions": [
                -2.877081123797318,
                -0.7278251784099753,
                0.4452083469485154,
                0.17098964684419837,
                0.6118532930272784,
                -2.8491346034399845
            ]
        },
        {
            "positions": [
                -2.9339792690240625,
                -0.737766963847529,
                0.39401478956874014,
                0.2350797717867661,
                0.671007819712316,
                -2.767609177543357
            ]
        },
        {
            "positions": [
                -2.8339211394458355,
                -0.7686626787230305,
                0.3042757639852365,
                0.28435201612739064,
                0.6263246642203101,
                -2.6943103337735526
            ]
        },
        {
            "positions": [
                -2.733863009867608,
                -0.7995583935985321,
                0.21453673840173285,
                0.3336242604680152,
                0.5816415087283041,
                -2.6210114900037484
            ]
        },
        {
            "positions": [
                -2.633804880289381,
                -0.8304541084740336,
                0.12479771281822921,
                0.38289650480863974,
                0.5369583532362981,
                -2.547712646233944
            ]
        },
        {
            "positions": [
                -2.533746750711154,
                -0.8613498233495351,
                0.03505868723472555,
                0.4321687491492643,
                0.4922751977442922,
                -2.4744138024641398
            ]
        },
        {
            "positions": [
                -2.4336886211329265,
                -0.8922455382250366,
                -0.05468033834877806,
                0.4814409934898889,
                0.4475920422522862,
                -2.4011149586943352
            ]
        },
        {
            "positions": [
                -2.3336304915546995,
                -0.9231412531005382,
                -0.14441936393228172,
                0.5307132378305134,
                0.40290888676028025,
                -2.3278161149245307
            ]
        },
        {
            "positions": [
                -2.2335723619764725,
                -0.9540369679760397,
                -0.23415838951578538,
                0.5799854821711379,
                0.3582257312682743,
                -2.2545172711547266
            ]
        },
        {
            "positions": [
                -2.1335142323982454,
                -0.9849326828515412,
                -0.32389741509928904,
                0.6292577265117625,
                0.3135425757762683,
                -2.181218427384922
            ]
        },
        {
            "positions": [
                -2.0334561028200184,
                -1.0158283977270428,
                -0.4136364406827927,
                0.6785299708523871,
                0.26885942028426235,
                -2.107919583615118
            ]
        },
        {
            "positions": [
                -1.933397973241791,
                -1.0467241126025442,
                -0.5033754662662963,
                0.7278022151930117,
                0.22417626479225639,
                -2.0346207398453133
            ]
        },
        {
            "positions": [
                -1.833339843663564,
                -1.0776198274780457,
                -0.5931144918497999,
                0.7770744595336362,
                0.17949310930025042,
                -1.9613218960755088
            ]
        },
        {
            "positions": [
                -1.7332817140853367,
                -1.1085155423535473,
                -0.6828535174333036,
                0.8263467038742607,
                0.13480995380824445,
                -1.8880230523057044
            ]
        },
        {
            "positions": [
                -1.6332235845071097,
                -1.1394112572290487,
                -0.7725925430168071,
                0.8756189482148853,
                0.09012679831623849,
                -1.8147242085359
            ]
        },
        {
            "positions": [
                -1.5331654549288825,
                -1.1703069721045503,
                -0.8623315686003109,
                0.9248911925555098,
                0.04544364282423252,
                -1.7414253647660958
            ]
        },
        {
            "positions": [
                -1.4331073253506552,
                -1.2012026869800518,
                -0.9520705941838147,
                0.9741634368961345,
                0.000760487332226556,
                -1.6681265209962912
            ]
        },
        {
            "positions": [
                -1.3330491957724282,
                -1.2320984018555534,
                -1.0418096197673181,
                1.0234356812367589,
                -0.04392266815977941,
                -1.5948276772264869
            ]
        },
        {
            "positions": [
                -1.232991066194201,
                -1.262994116731055,
                -1.1315486453508221,
                1.0727079255773835,
                -0.08860582365178538,
                -1.5215288334566823
            ]
        },
        {
            "positions": [
                -1.132932936615974,
                -1.2938898316065564,
                -1.2212876709343257,
                1.121980169918008,
                -0.13328897914379134,
                -1.4482299896868782
            ]
        },
        {
            "positions": [
                -1.0328748070377467,
                -1.324785546482058,
                -1.3110266965178292,
                1.1712524142586327,
                -0.1779721346357973,
                -1.3749311459170737
            ]
        },
        {
            "positions": [
                -0.9328166774595195,
                -1.3556812613575593,
                -1.4007657221013328,
                1.220524658599257,
                -0.22265529012780327,
                -1.3016323021472693
            ]
        },
        {
            "positions": [
                -0.8327585478812924,
                -1.3865769762330609,
                -1.4905047476848363,
                1.2697969029398817,
                -0.26733844561980924,
                -1.2283334583774648
            ]
        },
        {
            "positions": [
                -0.7327004183030654,
                -1.4174726911085624,
                -1.5802437732683399,
                1.3190691472805063,
                -0.3120216011118152,
                -1.1550346146076607
            ]
        },
        {
            "positions": [
                -0.632642288724838,
                -1.448368405984064,
                -1.6699827988518439,
                1.3683413916211309,
                -0.35670475660382117,
                -1.081735770837856
            ]
        },
        {
            "positions": [
                -0.532584159146611,
                -1.4792641208595656,
                -1.7597218244353474,
                1.4176136359617553,
                -0.40138791209582714,
                -1.0084369270680518
            ]
        },
        {
            "positions": [
                -0.43252602956838393,
                -1.5101598357350672,
                -1.8494608500188514,
                1.4668858803023799,
                -0.4460710675878331,
                -0.9351380832982472
            ]
        },
        {
            "positions": [
                -0.3324678999901569,
                -1.5410555506105685,
                -1.9391998756023545,
                1.5161581246430045,
                -0.49075422307983907,
                -0.8618392395284431
            ]
        },
        {
            "positions": [
                -0.23240977041192942,
                -1.5719512654860701,
                -2.0289389011858585,
                1.565430368983629,
                -0.5354373785718449,
                -0.7885403957586387
            ]
        },
        {
            "positions": [
                -0.1509821194966362,
                -1.616694261590352,
                -2.049345455106708,
                1.5938187598816058,
                -0.49475124074044247,
                -0.7283822300450532
            ]
        },
        {
            "positions": [
                -0.06955446858134295,
                -1.661437257694634,
                -2.069752009027558,
                1.6222071507795826,
                -0.45406510290904006,
                -0.6682240643314676
            ]
        },
        {
            "positions": [
                0.011873182333950284,
                -1.7061802537989157,
                -2.0901585629484076,
                1.6505955416775593,
                -0.4133789650776376,
                -0.6080658986178822
            ]
        },
        {
            "positions": [
                -0.012423313551949863,
                -1.7980848356911046,
                -2.1359115201691306,
                1.6303906185513983,
                -0.3203465526905348,
                -0.5073649778747846
            ]
        },
        {
            "positions": [
                -0.03671980943785001,
                -1.8899894175832936,
                -2.181664477389854,
                1.6101856954252372,
                -0.22731414030343194,
                -0.4066640571316872
            ]
        },
        {
            "positions": [
                -0.06101630532375016,
                -1.9818939994754825,
                -2.227417434610577,
                1.5899807722990762,
                -0.13428172791632909,
                -0.30596313638858963
            ]
        },
        {
            "positions": [
                -0.09211377212141048,
                -2.056398305413438,
                -2.264481934771215,
                1.5742012798784062,
                -0.05403687836111555,
                -0.23295425861466273
            ]
        },
        {
            "positions": [
                -0.12321123891907078,
                -2.1309026113513934,
                -2.3015464349318533,
                1.5584217874577364,
                0.026207971194097984,
                -0.15994538084073584
            ]
        },
        {
            "positions": [
                -0.15430870571673108,
                -2.205406917289349,
                -2.338610935092491,
                1.5426422950370666,
                0.1064528207493115,
                -0.08693650306680895
            ]
        },
        {
            "positions": [
                -0.1854061725143914,
                -2.2799112232273044,
                -2.3756754352531293,
                1.5268628026163966,
                0.18669767030452505,
                -0.013927625292882079
            ]
        }
    ]
}