{
    "goal": {
        "global_pose": {
            "orientation": {
                "w": -0.4816463035849501,
                "x": 0.5182115481033762,
                "y": 0.4908360881923453,
                "z": -0.5084816262002911
            },
            "position": {
                "x": -0.8240239810943604,
                "y": 0.19912469901144506,
                "z": 0.16403168439865112
            }
        },
        "name": "move_to_storage_D"
    },
    "id": "FMT_move_to_storage_D_146",
    "joint_names": [
        "shoulder_pan_joint",
        "shoulder_lift_joint",
        "elbow_joint",
        "wrist_1_joint",
        "wrist_2_joint",
        "wrist_3_joint"
    ],
    "metrics": {
        "cart_traj_len": 3.849695121403396,
        "distance_elbow_joint": 4.209282778608971,
        "distance_shoulder_lift_joint": 1.2653354019238499,
        "distance_shoulder_pan_joint": 2.8128000123249413,
        "distance_wrist_1_joint": 2.2693845889967936,
        "distance_wrist_2_joint": 0.8710723990311856,
        "distance_wrist_3_joint": 3.1452551876804034,
        "smoothness": 4.44089211458495e-16,
        "time": 1.3469574439999998,
        "traj_len": 3.817476963724358,
        "weighted_distance": 4.899397690732497
    },
    "planner": "FMT",
    "start": {
        "state": {
            "elbow_joint": -2.384821988534728,
            "shoulder_lift_joint": -2.2788054721415256,
            "shoulder_pan_joint": -0.1854694642142757,
            "wrist_1_joint": 1.4845938289331202,
            "wrist_2_joint": 0.17898776772866878,
            "wrist_3_joint": 0.037105688729662994
        }
    },
    "waypoints": [
        {
            "positions": [
                -0.1854694642142757,
                -2.2788054721415256,
                -2.384821988534728,
                1.4845938289331202,
                0.17898776772866878,
                0.037105688729662994
            ]
        },
        {
            "positions": [
                -0.08290002064667304,
                -2.2654324461531274,
                -2.2460876307183755,
                1.4316341209839023,
                0.19460324478528565,
                0.049959469401174524
            ]
        },
        {
            "positions": [
                0.01966942292092963,
                -2.2520594201647293,
                -2.107353272902023,
                1.3786744130346844,
                0.21021872184190252,
                0.06281325007268605
            ]
        },
        {
            "positions": [
                0.1222388664885323,
                -2.238686394176331,
                -1.9686189150856706,
                1.3257147050854665,
                0.22583419889851936,
                0.07566703074419759
            ]
        },
        {
            "positions": [
                0.22480831005613497,
                -2.2253133681879325,
                -1.8298845572693183,
                1.2727549971362488,
                0.24144967595513622,
                0.08852081141570911
            ]
        },
        {
            "positions": [
                0.32737775362373767,
                -2.2119403421995343,
                -1.6911501994529656,
                1.219795289187031,
                0.2570651530117531,
                0.10137459208722066
            ]
        },
        {
            "positions": [
                0.42994719719134034,
                -2.198567316211136,
                -1.5524158416366134,
                1.166835581237813,
                0.27268063006836996,
                0.11422837275873218
            ]
        },
        {
            "positions": [
                0.5077226623279986,
                -2.166082010449595,
                -1.4371536908256568,
                1.1063607070813866,
                0.295533283231679,
                0.19342072109416727
            ]
        },
        {
            "positions": [
                0.5854981274646569,
                -2.1335967046880535,
                -1.3218915400147,
                1.04588583292496,
                0.318385936394988,
                0.2726130694296024
            ]
        },
        {
            "positions": [
                0.6632735926013151,
                -2.1011113989265118,
                -1.2066293892037434,
                0.9854109587685337,
                0.34123858955829706,
                0.3518054177650375
            ]
        },
        {
            "positions": [
                0.7410490577379734,
                -2.0686260931649705,
                -1.0913672383927868,
                0.9249360846121072,
                0.3640912427216061,
                0.4309977661004726
            ]
        },
        {
            "positions": [
                0.8188245228746316,
                -2.036140787403429,
                -0.9761050875818301,
                0.8644612104556808,
                0.3869438958849152,
                0.5101901144359077
            ]
        },
        {
            "positions": [
                0.8965999880112899,
                -2.003655481641888,
                -0.8608429367708734,
                0.8039863362992543,
                0.40979654904822416,
                0.5893824627713428
            ]
        },
        {
            "positions": [
                0.9743754531479482,
                -1.9711701758803466,
                -0.7455807859599167,
                0.7435114621428278,
                0.43264920221153325,
                0.6685748111067779
            ]
        },
        {
            "positions": [
                1.0521509182846065,
                -1.938684870118805,
                -0.6303186351489601,
                0.6830365879864013,
                0.4555018553748422,
                0.747767159442213
            ]
        },
        {
            "positions": [
                1.1299263834212647,
                -1.9061995643572638,
                -0.5150564843380034,
                0.6225617138299749,
                0.4783545085381513,
                0.826959507777648
            ]
        },
        {
            "positions": [
                1.207701848557923,
                -1.8737142585957223,
                -0.39979433352704685,
                0.5620868396735484,
                0.5012071617014604,
                0.9061518561130831
            ]
        },
        {
            "positions": [
                1.2854773136945812,
                -1.841228952834181,
                -0.28453218271609004,
                0.5016119655171221,
                0.5240598148647694,
                0.9853442044485182
            ]
        },
        {
            "positions": [
                1.3632527788312396,
                -1.8087436470726397,
                -0.16927003190513346,
                0.44113709136069557,
                0.5469124680280784,
                1.0645365527839532
            ]
        },
        {
            "positions": [
                1.4410282439678976,
                -1.7762583413110982,
                -0.05400788109417687,
                0.38066221720426907,
                0.5697651211913874,
                1.1437289011193883
            ]
        },
        {
            "positions": [
                1.518803709104556,
                -1.7437730355495569,
                0.06125426971677994,
                0.3201873430478427,
                0.5926177743546965,
                1.2229212494548234
            ]
        },
        {
            "positions": [
                1.5965791742412145,
                -1.7112877297880154,
                0.17651642052773675,
                0.2597124688914161,
                0.6154704275180056,
                1.3021135977902585
            ]
        },
        {
            "positions": [
                1.6743546393778725,
                -1.678802424026474,
                0.2917785713386931,
                0.1992375947349897,
                0.6383230806813145,
                1.3813059461256936
            ]
        },
        {
            "positions": [
                1.752130104514531,
                -1.6463171182649328,
                0.40704072214965015,
                0.1387627205785631,
                0.6611757338446236,
                1.4604982944611287
            ]
        },
        {
            "positions": [
                1.829905569651189,
                -1.6138318125033915,
                0.5223028729606065,
                0.07828784642213682,
                0.6840283870079327,
                1.5396906427965638
            ]
        },
        {
            "positions": [
                1.9076810347878475,
                -1.58134650674185,
                0.6375650237715635,
                0.017812972265710325,
                0.7068810401712418,
                1.6188829911319988
            ]
        },
        {
            "positions": [
                1.9854564999245055,
                -1.5488612009803087,
                0.7528271745825197,
                -0.04266190189071617,
                0.7297336933345507,
                1.698075339467434
            ]
        },
        {
            "positions": [
                2.063231965061164,
                -1.5163758952187671,
                0.8680893253934767,
                -0.10313677604714266,
                0.7525863464978597,
                1.777267687802869
            ]
        },
        {
            "positions": [
                2.1410074301978224,
                -1.4838905894572259,
                0.9833514762044333,
                -0.16361165020356894,
                0.7754389996611688,
                1.8564600361383041
            ]
        },
        {
            "positions": [
                2.2187828953344804,
                -1.4514052836956846,
                1.09861362701539,
                -0.22408652435999565,
                0.7982916528244779,
                1.9356523844737392
            ]
        },
        {
            "positions": [
                2.296558360471139,
                -1.4189199779341433,
                1.2138757778263465,
                -0.2845613985164219,
                0.8211443059877869,
                2.0148447328091743
            ]
        },
        {
            "positions": [
                2.3743338256077973,
                -1.3864346721726015,
                1.3291379286373035,
                -0.3450362726728484,
                0.843996959151096,
                2.0940370811446094
            ]
        },
        {
            "positions": [
                2.4521092907444553,
                -1.3539493664110602,
                1.4444000794482597,
                -0.4055111468292749,
                0.8668496123144049,
                2.1732294294800445
            ]
        },
        {
            "positions": [
                2.5298847558811137,
                -1.321464060649519,
                1.5596622302592165,
                -0.46598602098570147,
                0.889702265477714,
                2.2524217778154796
            ]
        },
        {
            "positions": [
                2.5461257212527055,
                -1.2701317289108784,
                1.6037953235617208,
                -0.5191201441653636,
                0.9164285823580708,
                2.407411627581244
            ]
        },
        {
            "positions": [
                2.562366686624298,
                -1.218799397172238,
                1.6479284168642252,
                -0.5722542673450257,
                0.9431548992384274,
                2.5624014773470085
            ]
        },
        {
            "positions": [
                2.5786076519958896,
                -1.1674670654335975,
                1.6920615101667296,
                -0.6253883905246879,
                0.9698812161187842,
                2.717391327112773
            ]
        },
        {
            "positions": [
                2.5948486173674814,
                -1.1161347336949567,
                1.7361946034692342,
                -0.67852251370435,
                0.996607532999141,
                2.8723811768785374
            ]
        },
        {
            "positions": [
                2.6110895827390737,
                -1.0648024019563163,
                1.7803276967717385,
                -0.7316566368840122,
                1.0233338498794977,
                3.027371026644302
            ]
        },
        {
            "positions": [
                2.6273305481106655,
                -1.0134700702176758,
                1.8244607900742429,
                -0.7847907600636743,
                1.0500601667598544,
                3.1823608764100664
            ]
        }
    ]
}