{
    "goal": {
        "global_pose": {
            "orientation": {
                "w": 0.5084816217422485,
                "x": -0.49083608388900757,
                "y": 0.5182115435600281,
                "z": -0.4816462993621826
            },
            "position": {
                "x": 0.5540239810943604,
                "y": 0.030875300988554955,
                "z": 0.16403168439865112
            }
        },
        "name": "move_to_storage_A"
    },
    "id": "FMT_move_to_storage_A_26",
    "joint_names": [
        "shoulder_pan_joint",
        "shoulder_lift_joint",
        "elbow_joint",
        "wrist_1_joint",
        "wrist_2_joint",
        "wrist_3_joint"
    ],
    "metrics": {
        "cart_traj_len": 0.3521215172374843,
        "distance_elbow_joint": 0.4488329303787306,
        "distance_shoulder_lift_joint": 0.23532101939924588,
        "distance_shoulder_pan_joint": 0.4611113973721436,
        "distance_wrist_1_joint": 0.23801445520652187,
        "distance_wrist_2_joint": 1.0943566558452555,
        "distance_wrist_3_joint": 0.08967624551485232,
        "smoothness": 2.2204460668324854e-16,
        "time": 0.562990868,
        "traj_len": 1.602283590291291,
        "weighted_distance": 2.019662423722893
    },
    "planner": "FMT",
    "start": {
        "state": {
            "elbow_joint": 1.971548259319323,
            "shoulder_lift_joint": -1.1394851275133948,
            "shoulder_pan_joint": 0.1228115487234821,
            "wrist_1_joint": -0.7804723859257726,
            "wrist_2_joint": 0.12958671773740124,
            "wrist_3_joint": -3.192489227718131
        }
    },
    "waypoints": [
        {
            "positions": [
                0.1228115487234821,
                -1.1394851275133948,
                1.971548259319323,
                -0.7804723859257726,
                0.12958671773740124,
                -3.192489227718131
            ]
        },
        {
            "positions": [
                0.05693849195603301,
                -1.1731024159990013,
                2.0356672493734274,
                -0.8144744509552757,
                0.285923382858152,
                -3.1796783355017237
            ]
        },
        {
            "positions": [
                -0.00893456481141608,
                -1.2067197044846079,
                2.099786239427532,
                -0.8484765159847789,
                0.44226004797890284,
                -3.1668674432853163
            ]
        },
        {
            "positions": [
                -0.07480762157886517,
                -1.2403369929702144,
                2.163905229481636,
                -0.882478581014282,
                0.5985967130996536,
                -3.154056551068909
            ]
        },
        {
            "positions": [
                -0.14068067834631426,
                -1.2739542814558211,
                2.2280242195357403,
                -0.9164806460437851,
                0.7549333782204044,
                -3.141245658852501
            ]
        },
        {
            "positions": [
                -0.20655373511376335,
                -1.3075715699414276,
                2.292143209589845,
                -0.9504827110732883,
                0.9112700433411552,
                -3.1284347666360937
            ]
        },
        {
            "positions": [
                -0.27242679188121244,
                -1.3411888584270342,
                2.3562621996439495,
                -0.9844847761027913,
                1.0676067084619059,
                -3.1156238744196862
            ]
        },
        {
            "positions": [
                -0.3382998486486615,
                -1.3748061469126407,
                2.4203811896980536,
                -1.0184868411322945,
                1.2239433735826568,
                -3.102812982203279
            ]
        }
    ]
}{
    "goal": {
        "global_pose": {
            "orientation": {
                "w": 0.5084816217422485,
                "x": -0.49083608388900757,
                "y": 0.5182115435600281,
                "z": -0.4816462993621826
            },
            "position": {
                "x": 0.5540239810943604,
                "y": 0.030875300988554955,
                "z": 0.16403168439865112
            }
        },
        "name": "move_to_storage_A"
    },
    "id": "FMT_move_to_storage_A_26",
    "joint_names": [
        "shoulder_pan_joint",
        "shoulder_lift_joint",
        "elbow_joint",
        "wrist_1_joint",
        "wrist_2_joint",
        "wrist_3_joint"
    ],
    "metrics": {
        "cart_traj_len": 0.35326307118633427,
        "distance_elbow_joint": 0.44737311435591565,
        "distance_shoulder_lift_joint": 0.2343633116013275,
        "distance_shoulder_pan_joint": 0.46122487140398566,
        "distance_wrist_1_joint": 0.2370749766666087,
        "distance_wrist_2_joint": 1.1014604951887512,
        "distance_wrist_3_joint": 0.09056361224949772,
        "smoothness": 6.661338165333112e-16,
        "time": 0.411961473,
        "traj_len": 1.6037644407661888,
        "weighted_distance": 2.022800800331175
    },
    "planner": "FMT",
    "start": {
        "state": {
            "elbow_joint": 1.97154746011099,
            "shoulder_lift_joint": -1.13948474672311,
            "shoulder_pan_joint": 0.12281154466712228,
            "wrist_1_joint": -0.7804688027058302,
            "wrist_2_joint": 0.12958655903071145,
            "wrist_3_joint": 3.0906928834467795
        }
    },
    "waypoints": [
        {
            "positions": [
                0.12281154466712228,
                -1.13948474672311,
                1.97154746011099,
                -0.7804688027058302,
                0.12958655903071145,
                3.0906928834467795
            ]
        },
        {
            "positions": [
                0.05692227732369576,
                -1.172965219809014,
                2.035457905018978,
                -0.8143366565153457,
                0.2869380583433902,
                3.1036305423395647
            ]
        },
        {
            "positions": [
                -0.008966990019730767,
                -1.2064456928949179,
                2.0993683499269657,
                -0.8482045103248612,
                0.4442895576560689,
                3.1165682012323503
            ]
        },
        {
            "positions": [
                -0.07485625736315728,
                -1.2399261659808218,
                2.163278794834954,
                -0.8820723641343767,
                0.6016410569687477,
                3.1295058601251355
            ]
        },
        {
            "positions": [
                -0.1407455247065838,
                -1.2734066390667256,
                2.2271892397429416,
                -0.9159402179438922,
                0.7589925562814265,
                3.142443519017921
            ]
        },
        {
            "positions": [
                -0.20663479205001034,
                -1.3068871121526295,
                2.2910996846509297,
                -0.9498080717534079,
                0.9163440555941053,
                3.1553811779107064
            ]
        },
        {
            "positions": [
                -0.2725240593934368,
                -1.3403675852385335,
                2.3550101295589174,
                -0.9836759255629234,
                1.073695554906784,
                3.168318836803492
            ]
        },
        {
            "positions": [
                -0.33841332673686336,
                -1.3738480583244375,
                2.4189205744669056,
                -1.017543779372439,
                1.2310470542194627,
                3.181256495696277
            ]
        }
    ]
}{
    "goal": {
        "global_pose": {
            "orientation": {
                "w": 0.5084816217422485,
                "x": -0.49083608388900757,
                "y": 0.5182115435600281,
                "z": -0.4816462993621826
            },
            "position": {
                "x": 0.5540239810943604,
                "y": 0.030875300988554955,
                "z": 0.16403168439865112
            }
        },
        "name": "move_to_storage_A"
    },
    "id": "FMT_move_to_storage_A_26",
    "joint_names": [
        "shoulder_pan_joint",
        "shoulder_lift_joint",
        "elbow_joint",
        "wrist_1_joint",
        "wrist_2_joint",
        "wrist_3_joint"
    ],
    "metrics": {
        "cart_traj_len": 0.3525673938641908,
        "distance_elbow_joint": 0.44773743396802645,
        "distance_shoulder_lift_joint": 0.23480662485254133,
        "distance_shoulder_pan_joint": 0.46144493455367525,
        "distance_wrist_1_joint": 0.23687315421819521,
        "distance_wrist_2_joint": 1.0956374027461586,
        "distance_wrist_3_joint": 0.09715818963922684,
        "smoothness": 6.661338165333112e-16,
        "time": 0.402357827,
        "traj_len": 1.6042623663160036,
        "weighted_distance": 2.024965351856824
    },
    "planner": "FMT",
    "start": {
        "state": {
            "elbow_joint": 1.9715472970024885,
            "shoulder_lift_joint": -1.1394870060712896,
            "shoulder_pan_joint": 0.12281152778156021,
            "wrist_1_joint": -0.780463741449964,
            "wrist_2_joint": 0.12958659822042276,
            "wrist_3_joint": 3.090690232415272
        }
    },
    "waypoints": [
        {
            "positions": [
                0.12281152778156021,
                -1.1394870060712896,
                1.9715472970024885,
                -0.780463741449964,
                0.12958659822042276,
                3.090690232415272
            ]
        },
        {
            "positions": [
                0.056890822845320904,
                -1.1730308096216526,
                2.0355097875693495,
                -0.8143027634811347,
                0.2861062271841597,
                3.1045699737923043
            ]
        },
        {
            "positions": [
                -0.0090298820909184,
                -1.2065746131720156,
                2.0994722781362105,
                -0.8481417855123055,
                0.4426258561478966,
                3.1184497151693367
            ]
        },
        {
            "positions": [
                -0.0749505870271577,
                -1.2401184167223787,
                2.1634347687030715,
                -0.8819808075434762,
                0.5991454851116336,
                3.132329456546369
            ]
        },
        {
            "positions": [
                -0.140871291963397,
                -1.2736622202727417,
                2.227397259269932,
                -0.9158198295746469,
                0.7556651140753705,
                3.1462091979234015
            ]
        },
        {
            "positions": [
                -0.20679199689963637,
                -1.307206023823105,
                2.291359749836793,
                -0.9496588516058178,
                0.9121847430391075,
                3.160088939300434
            ]
        },
        {
            "positions": [
                -0.2727127018358756,
                -1.340749827373468,
                2.355322240403654,
                -0.9834978736369885,
                1.0687043720028444,
                3.1739686806774663
            ]
        },
        {
            "positions": [
                -0.338633406772115,
                -1.374293630923831,
                2.419284730970515,
                -1.0173368956681592,
                1.2252240009665814,
                3.1878484220544987
            ]
        }
    ]
}