{
    "goal": {
        "global_pose": {
            "orientation": {
                "w": 0.7047431468963623,
                "x": -0.7094548344612122,
                "y": 0.0024358443915843964,
                "z": -0.0022348060738295317
            },
            "position": {
                "x": 0.6094750761985779,
                "y": 0.3671506643295288,
                "z": 0.19426114857196808
            }
        },
        "name": "move_to_magneteinheit_A"
    },
    "id": "FMT_move_to_magneteinheit_A_5",
    "joint_names": [
        "shoulder_pan_joint",
        "shoulder_lift_joint",
        "elbow_joint",
        "wrist_1_joint",
        "wrist_2_joint",
        "wrist_3_joint"
    ],
    "metrics": {
        "cart_traj_len": 3.0227309064928334,
        "distance_elbow_joint": 3.9162704391663548,
        "distance_shoulder_lift_joint": 0.5118139153362541,
        "distance_shoulder_pan_joint": 2.7360733311338836,
        "distance_wrist_1_joint": 3.491975756271116,
        "distance_wrist_2_joint": 1.452038536471029,
        "distance_wrist_3_joint": 0.4894601000777905,
        "smoothness": 0.1276596468359083,
        "time": 1.2785957719999999,
        "traj_len": 3.5493143110263463,
        "weighted_distance": 4.3035527847761035
    },
    "planner": "FMT",
    "start": {
        "state": {
            "elbow_joint": -1.9196185241190666,
            "shoulder_lift_joint": -1.2443396400964142,
            "shoulder_pan_joint": 2.6996025414629847,
            "wrist_1_joint": -1.5485510000780065,
            "wrist_2_joint": -1.5709468930060704,
            "wrist_3_joint": 0.4420197071253992
        }
    },
    "waypoints": [
        {
            "positions": [
                2.6996025414629847,
                -1.2443396400964142,
                -1.9196185241190666,
                -1.5485510000780065,
                -1.5709468930060704,
                0.4420197071253992
            ]
        },
        {
            "positions": [
                2.5300641263873294,
                -1.228266198047935,
                -1.8486007585478381,
                -1.4579361502743593,
                -1.5338992522866328,
                0.44012982784014976
            ]
        },
        {
            "positions": [
                2.360525711311674,
                -1.2121927559994556,
                -1.7775829929766096,
                -1.367321300470712,
                -1.4968516115671955,
                0.43823994855490034
            ]
        },
        {
            "positions": [
                2.1909872962360186,
                -1.1961193139509763,
                -1.706565227405381,
                -1.276706450667065,
                -1.459803970847758,
                0.4363500692696509
            ]
        },
        {
            "positions": [
                2.0214488811603633,
                -1.180045871902497,
                -1.6355474618341526,
                -1.1860916008634177,
                -1.4227563301283206,
                0.43446018998440145
            ]
        },
        {
            "positions": [
                1.8519104660847079,
                -1.163972429854018,
                -1.5645296962629238,
                -1.0954767510597705,
                -1.385708689408883,
                0.432570310699152
            ]
        },
        {
            "positions": [
                1.6823720510090525,
                -1.1478989878055386,
                -1.4935119306916953,
                -1.004861901256123,
                -1.3486610486894457,
                0.4306804314139026
            ]
        },
        {
            "positions": [
                1.5128336359333971,
                -1.1318255457570592,
                -1.4224941651204668,
                -0.9142470514524759,
                -1.3116134079700081,
                0.4287905521286532
            ]
        },
        {
            "positions": [
                1.3432952208577418,
                -1.11575210370858,
                -1.3514763995492383,
                -0.8236322016488288,
                -1.2745657672505706,
                0.4269006728434038
            ]
        },
        {
            "positions": [
                1.1737568057820864,
                -1.0996786616601009,
                -1.2804586339780095,
                -0.7330173518451815,
                -1.2375181265311332,
                0.4250107935581543
            ]
        },
        {
            "positions": [
                1.004218390706431,
                -1.0836052196116215,
                -1.209440868406781,
                -0.6424025020415343,
                -1.2004704858116957,
                0.4231209142729049
            ]
        },
        {
            "positions": [
                0.8346799756307757,
                -1.067531777563142,
                -1.1384231028355525,
                -0.5517876522378872,
                -1.1634228450922584,
                0.42123103498765546
            ]
        },
        {
            "positions": [
                0.6651415605551204,
                -1.051458335514663,
                -1.067405337264324,
                -0.4611728024342398,
                -1.1263752043728208,
                0.41934115570240604
            ]
        },
        {
            "positions": [
                0.6262413050028884,
                -1.0329854872225852,
                -0.9289327865804099,
                -0.3365540893231095,
                -1.0712997327102074,
                0.4008919218885932
            ]
        },
        {
            "positions": [
                0.5873410494506563,
                -1.0145126389305072,
                -0.7904602358964958,
                -0.2119353762119791,
                -1.016224261047594,
                0.38244268807478027
            ]
        },
        {
            "positions": [
                0.5484407938984244,
                -0.9960397906384295,
                -0.6519876852125819,
                -0.08731666310084879,
                -0.9611487893849805,
                0.3639934542609674
            ]
        },
        {
            "positions": [
                0.5095405383461923,
                -0.9775669423463517,
                -0.5135151345286678,
                0.037302050010281584,
                -0.906073317722367,
                0.3455442204471545
            ]
        },
        {
            "positions": [
                0.4706402827939603,
                -0.9590940940542738,
                -0.37504258384475375,
                0.16192076312141196,
                -0.8509978460597536,
                0.32709498663334163
            ]
        },
        {
            "positions": [
                0.4317400272417283,
                -0.9406212457621961,
                -0.2365700331608398,
                0.2865394762325422,
                -0.7959223743971402,
                0.3086457528195288
            ]
        },
        {
            "positions": [
                0.39283977168949624,
                -0.9221483974701182,
                -0.09809748247692573,
                0.4111581893436726,
                -0.7408469027345268,
                0.29019651900571586
            ]
        },
        {
            "positions": [
                0.3539395161372642,
                -0.9036755491780404,
                0.04037506820698833,
                0.5357769024548029,
                -0.6857714310719133,
                0.27174728519190294
            ]
        },
        {
            "positions": [
                0.3150392605850322,
                -0.8852027008859626,
                0.17884761889090228,
                0.6603956155659332,
                -0.6306959594092998,
                0.2532980513780901
            ]
        },
        {
            "positions": [
                0.27613900503280014,
                -0.8667298525938848,
                0.31732016957481646,
                0.7850143286770637,
                -0.5756204877466864,
                0.2348488175642772
            ]
        },
        {
            "positions": [
                0.2372387494805681,
                -0.848257004301807,
                0.4557927202587304,
                0.9096330417881939,
                -0.520545016084073,
                0.2163995837504643
            ]
        },
        {
            "positions": [
                0.19833849392833613,
                -0.8297841560097292,
                0.5942652709426444,
                1.0342517548993242,
                -0.4654695444214596,
                0.19795034993665145
            ]
        },
        {
            "positions": [
                0.15943823837610405,
                -0.8113113077176514,
                0.7327378216265585,
                1.1588704680104547,
                -0.4103940727588461,
                0.17950111612283856
            ]
        },
        {
            "positions": [
                0.12053798282387207,
                -0.7928384594255735,
                0.8712103723104725,
                1.283489181121585,
                -0.3553186010962327,
                0.16105188230902567
            ]
        },
        {
            "positions": [
                0.08163772727163998,
                -0.7743656111334958,
                1.0096829229943864,
                1.4081078942327154,
                -0.3002431294336192,
                0.14260264849521276
            ]
        },
        {
            "positions": [
                0.04273747171940801,
                -0.7558927628414179,
                1.1481554736783006,
                1.5327266073438457,
                -0.24516765777100574,
                0.1241534146813999
            ]
        },
        {
            "positions": [
                0.05750643016821245,
                -0.7598509649604491,
                1.3374565972243513,
                1.6348928297673004,
                -0.21437348184628807,
                0.08506664147983273
            ]
        },
        {
            "positions": [
                0.07227538861701688,
                -0.7638091670794804,
                1.526757720770402,
                1.7370590521907552,
                -0.1835793059215704,
                0.04597986827826554
            ]
        },
        {
            "positions": [
                0.08704434706582131,
                -0.7677673691985116,
                1.7160588443164524,
                1.83922527461421,
                -0.15278512999685276,
                0.006893095076698358
            ]
        },
        {
            "positions": [
                0.10181330551462575,
                -0.7717255713175428,
                1.905359967862503,
                1.9413914970376647,
                -0.12199095407213509,
                -0.032193678124868806
            ]
        },
        {
            "positions": [
                0.12194573310971352,
                -0.7792598009226758,
                1.9966519150472877,
                1.9393582378822198,
                -0.11890835653504125,
                -0.016946963297346285
            ]
        }
    ]
}