{
    "goal": {
        "global_pose": {
            "orientation": {
                "w": -0.4816463035849501,
                "x": 0.5182115481033762,
                "y": 0.4908360881923453,
                "z": -0.5084816262002911
            },
            "position": {
                "x": -0.8240239810943604,
                "y": 0.19912469901144506,
                "z": 0.16403168439865112
            }
        },
        "name": "move_to_storage_D"
    },
    "id": "FMT_move_to_storage_D_55",
    "joint_names": [
        "shoulder_pan_joint",
        "shoulder_lift_joint",
        "elbow_joint",
        "wrist_1_joint",
        "wrist_2_joint",
        "wrist_3_joint"
    ],
    "metrics": {
        "cart_traj_len": 3.7370733437992305,
        "distance_elbow_joint": 4.812870041242876,
        "distance_shoulder_lift_joint": 1.2646341894984958,
        "distance_shoulder_pan_joint": 2.8112057613305828,
        "distance_wrist_1_joint": 2.271614326238093,
        "distance_wrist_2_joint": 1.358670807252018,
        "distance_wrist_3_joint": 3.133654360296283,
        "smoothness": 0.14258798300233652,
        "time": 1.388159423,
        "traj_len": 3.956342943408514,
        "weighted_distance": 5.054724853040076
    },
    "planner": "FMT",
    "start": {
        "state": {
            "elbow_joint": -2.384821988534728,
            "shoulder_lift_joint": -2.2788054721415256,
            "shoulder_pan_joint": -0.1854694642142757,
            "wrist_1_joint": 1.4845938289331202,
            "wrist_2_joint": 0.17898776772866878,
            "wrist_3_joint": 0.037105688729662994
        }
    },
    "waypoints": [
        {
            "positions": [
                -0.1854694642142757,
                -2.2788054721415256,
                -2.384821988534728,
                1.4845938289331202,
                0.17898776772866878,
                0.037105688729662994
            ]
        },
        {
            "positions": [
                -0.09966410302558497,
                -2.23643811807876,
                -2.4224648718280593,
                1.454909037414105,
                0.14828880733840016,
                -0.13087246481776893
            ]
        },
        {
            "positions": [
                -0.013858741836894228,
                -2.1940707640159935,
                -2.46010775512139,
                1.4252242458950897,
                0.11758984694813154,
                -0.2988506183652009
            ]
        },
        {
            "positions": [
                0.0719466193517965,
                -2.1517034099532277,
                -2.4977506384147214,
                1.3955394543760744,
                0.08689088655786291,
                -0.4668287719126327
            ]
        },
        {
            "positions": [
                0.15775198054048725,
                -2.1093360558904615,
                -2.5353935217080528,
                1.3658546628570591,
                0.05619192616759429,
                -0.6348069254600647
            ]
        },
        {
            "positions": [
                0.243557341729178,
                -2.0669687018276957,
                -2.5730364050013836,
                1.3361698713380437,
                0.025492965777325655,
                -0.8027850790074966
            ]
        },
        {
            "positions": [
                0.32936270291786873,
                -2.0246013477649294,
                -2.610679288294715,
                1.3064850798190284,
                -0.005205994612942966,
                -0.9707632325549285
            ]
        },
        {
            "positions": [
                0.4151680641065595,
                -1.9822339937021636,
                -2.648322171588046,
                1.2768002883000131,
                -0.035904955003211586,
                -1.1387413861023605
            ]
        },
        {
            "positions": [
                0.5009734252952502,
                -1.9398666396393975,
                -2.685965054881377,
                1.2471154967809979,
                -0.0666039153934802,
                -1.3067195396497924
            ]
        },
        {
            "positions": [
                0.5934394690625374,
                -1.8986745879587277,
                -2.5786959960299938,
                1.219488251817501,
                -0.028226022078200172,
                -1.3607966115758658
            ]
        },
        {
            "positions": [
                0.6859055128298246,
                -1.8574825362780578,
                -2.4714269371786104,
                1.191861006854004,
                0.010151871237079862,
                -1.4148736835019393
            ]
        },
        {
            "positions": [
                0.7783715565971117,
                -1.816290484597388,
                -2.3641578783272275,
                1.1642337618905072,
                0.04852976455235991,
                -1.4689507554280128
            ]
        },
        {
            "positions": [
                0.870837600364399,
                -1.775098432916718,
                -2.256888819475844,
                1.1366065169270103,
                0.08690765786763993,
                -1.523027827354086
            ]
        },
        {
            "positions": [
                0.963303644131686,
                -1.733906381236048,
                -2.1496197606244607,
                1.1089792719635132,
                0.12528555118292,
                -1.5771048992801595
            ]
        },
        {
            "positions": [
                1.055769687898973,
                -1.6927143295553781,
                -2.0423507017730778,
                1.0813520270000163,
                0.16366344449820003,
                -1.631181971206233
            ]
        },
        {
            "positions": [
                1.1482357316662604,
                -1.6515222778747083,
                -1.9350816429216942,
                1.0537247820365194,
                0.20204133781348005,
                -1.6852590431323065
            ]
        },
        {
            "positions": [
                1.2407017754335476,
                -1.6103302261940384,
                -1.827812584070311,
                1.0260975370730225,
                0.24041923112876007,
                -1.73933611505838
            ]
        },
        {
            "positions": [
                1.3331678192008347,
                -1.5691381745133686,
                -1.7205435252189276,
                0.9984702921095256,
                0.27879712444404015,
                -1.7934131869844534
            ]
        },
        {
            "positions": [
                1.3870248391139794,
                -1.546014554018771,
                -1.572780798334187,
                0.9240748425505882,
                0.3107837112895547,
                -1.8477104988420436
            ]
        },
        {
            "positions": [
                1.440881859027124,
                -1.5228909335241736,
                -1.4250180714494463,
                0.8496793929916509,
                0.34277029813506915,
                -1.9020078106996339
            ]
        },
        {
            "positions": [
                1.4947388789402687,
                -1.4997673130295763,
                -1.2772553445647057,
                0.7752839434327135,
                0.3747568849805837,
                -1.9563051225572243
            ]
        },
        {
            "positions": [
                1.5485958988534134,
                -1.4766436925349788,
                -1.129492617679965,
                0.700888493873776,
                0.40674347182609816,
                -2.0106024344148143
            ]
        },
        {
            "positions": [
                1.602452918766558,
                -1.4535200720403814,
                -0.9817298907952243,
                0.6264930443148385,
                0.43873005867161274,
                -2.064899746272405
            ]
        },
        {
            "positions": [
                1.6563099386797027,
                -1.4303964515457839,
                -0.8339671639104836,
                0.5520975947559011,
                0.4707166455171272,
                -2.119197058129995
            ]
        },
        {
            "positions": [
                1.7101669585928474,
                -1.4072728310511864,
                -0.686204437025743,
                0.47770214519696375,
                0.5027032323626417,
                -2.1734943699875853
            ]
        },
        {
            "positions": [
                1.764023978505992,
                -1.384149210556589,
                -0.5384417101410024,
                0.40330669563802635,
                0.5346898192081562,
                -2.2277916818451757
            ]
        },
        {
            "positions": [
                1.8178809984191366,
                -1.3610255900619914,
                -0.3906789832562616,
                0.32891124607908884,
                0.5666764060536708,
                -2.2820889937027657
            ]
        },
        {
            "positions": [
                1.8717380183322814,
                -1.3379019695673942,
                -0.24291625637152103,
                0.25451579652015144,
                0.5986629928991853,
                -2.336386305560356
            ]
        },
        {
            "positions": [
                1.9255950382454259,
                -1.3147783490727967,
                -0.09515352948678046,
                0.18012034696121404,
                0.6306495797446998,
                -2.390683617417946
            ]
        },
        {
            "positions": [
                1.9794520581585706,
                -1.2916547285781992,
                0.05260919739796033,
                0.10572489740227664,
                0.6626361665902143,
                -2.4449809292755367
            ]
        },
        {
            "positions": [
                2.0333090780717153,
                -1.2685311080836017,
                0.2003719242827009,
                0.03132944784333924,
                0.6946227534357288,
                -2.499278241133127
            ]
        },
        {
            "positions": [
                2.08716609798486,
                -1.2454074875890042,
                0.3481346511674417,
                -0.04306600171559816,
                0.7266093402812434,
                -2.553575552990717
            ]
        },
        {
            "positions": [
                2.141023117898005,
                -1.222283867094407,
                0.49589737805218226,
                -0.11746145127453556,
                0.7585959271267578,
                -2.6078728648483076
            ]
        },
        {
            "positions": [
                2.194880137811149,
                -1.1991602465998095,
                0.6436601049369228,
                -0.19185690083347295,
                0.7905825139722723,
                -2.6621701767058976
            ]
        },
        {
            "positions": [
                2.248737157724294,
                -1.176036626105212,
                0.7914228318216638,
                -0.2662523503924106,
                0.8225691008177869,
                -2.716467488563488
            ]
        },
        {
            "positions": [
                2.3025941776374386,
                -1.1529130056106145,
                0.9391855587064044,
                -0.340647799951348,
                0.8545556876633014,
                -2.7707648004210785
            ]
        },
        {
            "positions": [
                2.356451197550583,
                -1.129789385116017,
                1.086948285591145,
                -0.41504324951028515,
                0.8865422745088158,
                -2.8250621122786685
            ]
        },
        {
            "positions": [
                2.410308217463728,
                -1.1066657646214195,
                1.2347110124758855,
                -0.48943869906922277,
                0.9185288613543304,
                -2.879359424136259
            ]
        },
        {
            "positions": [
                2.4641652373768723,
                -1.083542144126822,
                1.3824737393606261,
                -0.5638341486281602,
                0.9505154481998449,
                -2.933656735993849
            ]
        },
        {
            "positions": [
                2.518022257290017,
                -1.0604185236322248,
                1.5302364662453667,
                -0.6382295981870976,
                0.9825020350453594,
                -2.9879540478514395
            ]
        },
        {
            "positions": [
                2.571879277203162,
                -1.037294903137627,
                1.6779991931301077,
                -0.712625047746035,
                1.014488621890874,
                -3.04225135970903
            ]
        },
        {
            "positions": [
                2.6257362971163065,
                -1.0141712826430298,
                1.8257619200148483,
                -0.7870204973049724,
                1.0464752087363884,
                -3.09654867156662
            ]
        }
    ]
}