{
    "goal": {
        "global_pose": {
            "orientation": {
                "w": -0.4816463035849501,
                "x": 0.5182115481033762,
                "y": 0.4908360881923453,
                "z": -0.5084816262002911
            },
            "position": {
                "x": -0.8240239810943604,
                "y": -0.300875300988555,
                "z": 0.16403168439865112
            }
        },
        "name": "move_to_storage_C"
    },
    "id": "FMT_move_to_storage_C_112",
    "joint_names": [
        "shoulder_pan_joint",
        "shoulder_lift_joint",
        "elbow_joint",
        "wrist_1_joint",
        "wrist_2_joint",
        "wrist_3_joint"
    ],
    "metrics": {
        "cart_traj_len": 0.5769868014255298,
        "distance_elbow_joint": 0.2536967798679346,
        "distance_shoulder_lift_joint": 0.18930297821443132,
        "distance_shoulder_pan_joint": 0.4965605072163264,
        "distance_wrist_1_joint": 0.06420031851975838,
        "distance_wrist_2_joint": 1.059418539314494,
        "distance_wrist_3_joint": 0.06782716343603923,
        "smoothness": 0.0,
        "time": 0.31643683699999997,
        "traj_len": 1.4597966593224496,
        "weighted_distance": 1.8412711563686959
    },
    "planner": "FMT",
    "start": {
        "state": {
            "elbow_joint": 2.010868314990456,
            "shoulder_lift_joint": -1.1634956873337592,
            "shoulder_pan_joint": -2.4736205022346125,
            "wrist_1_joint": -0.8367026794202681,
            "wrist_2_joint": 0.6746043897044499,
            "wrist_3_joint": -3.1496632123970403
        }
    },
    "waypoints": [
        {
            "positions": [
                -2.4736205022346125,
                -1.1634956873337592,
                2.010868314990456,
                -0.8367026794202681,
                0.6746043897044499,
                -3.1496632123970403
            ]
        },
        {
            "positions": [
                -2.556380586770667,
                -1.1319451909646874,
                1.9685855183458,
                -0.8260026263336417,
                0.8511741462568656,
                -3.1383586851577006
            ]
        },
        {
            "positions": [
                -2.639140671306721,
                -1.1003946945956153,
                1.9263027217011444,
                -0.8153025732470153,
                1.0277439028092812,
                -3.1270541579183604
            ]
        },
        {
            "positions": [
                -2.7219007558427757,
                -1.0688441982265435,
                1.8840199250564886,
                -0.8046025201603889,
                1.2043136593616968,
                -3.1157496306790207
            ]
        },
        {
            "positions": [
                -2.8046608403788302,
                -1.0372937018574717,
                1.8417371284118327,
                -0.7939024670737626,
                1.3808834159141123,
                -3.104445103439681
            ]
        },
        {
            "positions": [
                -2.8874209249148843,
                -1.0057432054883997,
                1.799454331767177,
                -0.7832024139871361,
                1.5574531724665284,
                -3.0931405762003408
            ]
        },
        {
            "positions": [
                -2.970181009450939,
                -0.9741927091193279,
                1.7571715351225212,
                -0.7725023609005097,
                1.734022929018944,
                -3.081836048961001
            ]
        }
    ]
}