{
    "goal": {
        "global_pose": {
            "orientation": {
                "w": -0.4816463035849501,
                "x": 0.5182115481033762,
                "y": 0.4908360881923453,
                "z": -0.5084816262002911
            },
            "position": {
                "x": -0.8240239810943604,
                "y": -0.300875300988555,
                "z": 0.16403168439865112
            }
        },
        "name": "move_to_storage_C"
    },
    "id": "FMT_move_to_storage_C_125",
    "joint_names": [
        "shoulder_pan_joint",
        "shoulder_lift_joint",
        "elbow_joint",
        "wrist_1_joint",
        "wrist_2_joint",
        "wrist_3_joint"
    ],
    "metrics": {
        "cart_traj_len": 0.576586201251647,
        "distance_elbow_joint": 0.25597464685032656,
        "distance_shoulder_lift_joint": 0.18959250724232624,
        "distance_shoulder_pan_joint": 0.493417494385477,
        "distance_wrist_1_joint": 0.06533206415042137,
        "distance_wrist_2_joint": 1.074804916341129,
        "distance_wrist_3_joint": 0.05808323769410251,
        "smoothness": 0.0,
        "time": 0.318949273,
        "traj_len": 1.4619182147657175,
        "weighted_distance": 1.842147747208008
    },
    "planner": "FMT",
    "start": {
        "state": {
            "elbow_joint": 2.010868314990456,
            "shoulder_lift_joint": -1.1634956873337592,
            "shoulder_pan_joint": -2.4736205022346125,
            "wrist_1_joint": -0.8367026794202681,
            "wrist_2_joint": 0.6746043897044499,
            "wrist_3_joint": -3.1496632123970403
        }
    },
    "waypoints": [
        {
            "positions": [
                -2.4736205022346125,
                -1.1634956873337592,
                2.010868314990456,
                -0.8367026794202681,
                0.6746043897044499,
                -3.1496632123970403
            ]
        },
        {
            "positions": [
                -2.5558567512988586,
                -1.1318969361267048,
                1.9682058738487347,
                -0.8258140020618645,
                0.8537385424279714,
                -3.1399826727813567
            ]
        },
        {
            "positions": [
                -2.6380930003631047,
                -1.1002981849196505,
                1.9255434327070136,
                -0.814925324703461,
                1.032872695151493,
                -3.1303021331656726
            ]
        },
        {
            "positions": [
                -2.720329249427351,
                -1.0686994337125961,
                1.8828809915652926,
                -0.8040366473450574,
                1.2120068478750143,
                -3.120621593549989
            ]
        },
        {
            "positions": [
                -2.8025654984915973,
                -1.0371006825055418,
                1.8402185504235715,
                -0.7931479699866538,
                1.391141000598536,
                -3.1109410539343054
            ]
        },
        {
            "positions": [
                -2.8848017475558434,
                -1.0055019312984874,
                1.7975561092818504,
                -0.7822592926282503,
                1.5702751533220574,
                -3.1012605143186214
            ]
        },
        {
            "positions": [
                -2.9670379966200895,
                -0.973903180091433,
                1.7548936681401293,
                -0.7713706152698467,
                1.7494093060455789,
                -3.0915799747029378
            ]
        }
    ]
}