{
    "goal": {
        "global_pose": {
            "orientation": {
                "w": 0.7047431468963623,
                "x": -0.7094548344612122,
                "y": 0.0024358443915843964,
                "z": -0.0022348060738295317
            },
            "position": {
                "x": 0.6094750761985779,
                "y": 0.3671506643295288,
                "z": 0.19426114857196808
            }
        },
        "name": "move_to_magneteinheit_A"
    },
    "id": "FMT_move_to_magneteinheit_A_143",
    "joint_names": [
        "shoulder_pan_joint",
        "shoulder_lift_joint",
        "elbow_joint",
        "wrist_1_joint",
        "wrist_2_joint",
        "wrist_3_joint"
    ],
    "metrics": {
        "cart_traj_len": 3.6410285905103668,
        "distance_elbow_joint": 3.8768698777383066,
        "distance_shoulder_lift_joint": 0.6167126236711864,
        "distance_shoulder_pan_joint": 3.1325484423871575,
        "distance_wrist_1_joint": 2.10645678714189,
        "distance_wrist_2_joint": 2.6274621989418225,
        "distance_wrist_3_joint": 3.3800392811882003,
        "smoothness": 0.47503570984012605,
        "time": 1.237929776,
        "traj_len": 3.967378128067522,
        "weighted_distance": 5.218628819865298
    },
    "planner": "FMT",
    "start": {
        "state": {
            "elbow_joint": -1.9196185241190666,
            "shoulder_lift_joint": -1.2443396400964142,
            "shoulder_pan_joint": 2.6996025414629847,
            "wrist_1_joint": -1.5485510000780065,
            "wrist_2_joint": -1.5709468930060704,
            "wrist_3_joint": 0.4420197071253992
        }
    },
    "waypoints": [
        {
            "positions": [
                2.6996025414629847,
                -1.2443396400964142,
                -1.9196185241190666,
                -1.5485510000780065,
                -1.5709468930060704,
                0.4420197071253992
            ]
        },
        {
            "positions": [
                2.5837217872287956,
                -1.2228555031011947,
                -1.8808049864959417,
                -1.5180433803035254,
                -1.4912736823203891,
                0.547697646383865
            ]
        },
        {
            "positions": [
                2.467841032994607,
                -1.2013713661059753,
                -1.8419914488728166,
                -1.4875357605290442,
                -1.411600471634708,
                0.6533755856423307
            ]
        },
        {
            "positions": [
                2.351960278760418,
                -1.179887229110756,
                -1.8031779112496917,
                -1.457028140754563,
                -1.3319272609490267,
                0.7590535249007964
            ]
        },
        {
            "positions": [
                2.236079524526229,
                -1.1584030921155366,
                -1.7643643736265668,
                -1.426520520980082,
                -1.2522540502633455,
                0.8647314641592622
            ]
        },
        {
            "positions": [
                2.12019877029204,
                -1.1369189551203172,
                -1.7255508360034417,
                -1.3960129012056008,
                -1.1725808395776642,
                0.970409403417728
            ]
        },
        {
            "positions": [
                2.004318016057851,
                -1.1154348181250977,
                -1.6867372983803168,
                -1.3655052814311197,
                -1.092907628891983,
                1.0760873426761937
            ]
        },
        {
            "positions": [
                1.888437261823662,
                -1.0939506811298783,
                -1.647923760757192,
                -1.3349976616566388,
                -1.0132344182063018,
                1.1817652819346594
            ]
        },
        {
            "positions": [
                1.7725565075894731,
                -1.072466544134659,
                -1.6091102231340668,
                -1.3044900418821577,
                -0.9335612075206207,
                1.2874432211931253
            ]
        },
        {
            "positions": [
                1.656675753355284,
                -1.0509824071394396,
                -1.570296685510942,
                -1.2739824221076765,
                -0.8538879968349394,
                1.393121160451591
            ]
        },
        {
            "positions": [
                1.5407949991210952,
                -1.0294982701442201,
                -1.5314831478878168,
                -1.2434748023331954,
                -0.7742147861492582,
                1.4987990997100566
            ]
        },
        {
            "positions": [
                1.424914244886906,
                -1.0080141331490007,
                -1.492669610264692,
                -1.2129671825587143,
                -0.694541575463577,
                1.6044770389685223
            ]
        },
        {
            "positions": [
                1.3090334906527172,
                -0.9865299961537813,
                -1.453856072641567,
                -1.1824595627842331,
                -0.6148683647778957,
                1.710154978226988
            ]
        },
        {
            "positions": [
                1.1931527364185284,
                -0.965045859158562,
                -1.4150425350184421,
                -1.151951943009752,
                -0.5351951540922146,
                1.8158329174854537
            ]
        },
        {
            "positions": [
                1.0772719821843395,
                -0.9435617221633426,
                -1.376228997395317,
                -1.1214443232352709,
                -0.4555219434065334,
                1.9215108567439194
            ]
        },
        {
            "positions": [
                0.9613912279501504,
                -0.9220775851681231,
                -1.3374154597721921,
                -1.0909367034607897,
                -0.3758487327208522,
                2.027188796002385
            ]
        },
        {
            "positions": [
                0.8455104737159616,
                -0.9005934481729037,
                -1.298601922149067,
                -1.0604290836863086,
                -0.29617552203517095,
                2.1328667352608512
            ]
        },
        {
            "positions": [
                0.7296297194817726,
                -0.8791093111776843,
                -1.259788384525942,
                -1.0299214639118275,
                -0.21650231134948963,
                2.238544674519317
            ]
        },
        {
            "positions": [
                0.6830911281886751,
                -0.8913332579913485,
                -1.0945720941487755,
                -0.9797984295373852,
                -0.1737259345267764,
                2.300832568922818
            ]
        },
        {
            "positions": [
                0.6365525368955778,
                -0.9035572048050129,
                -0.9293558037716088,
                -0.9296753951629428,
                -0.13094955770406314,
                2.363120463326319
            ]
        },
        {
            "positions": [
                0.5900139456024803,
                -0.9157811516186771,
                -0.7641395133944422,
                -0.8795523607885005,
                -0.0881731808813499,
                2.4254083577298204
            ]
        },
        {
            "positions": [
                0.543475354309383,
                -0.9280050984323414,
                -0.5989232230172755,
                -0.8294293264140582,
                -0.045396804058636664,
                2.4876962521333215
            ]
        },
        {
            "positions": [
                0.49693676301628553,
                -0.9402290452460057,
                -0.43370693264010884,
                -0.7793062920396159,
                -0.002620427235923428,
                2.5499841465368225
            ]
        },
        {
            "positions": [
                0.45039817172318813,
                -0.9524529920596699,
                -0.26849064226294217,
                -0.7291832576651736,
                0.040155949586789835,
                2.6122720409403235
            ]
        },
        {
            "positions": [
                0.40385958043009074,
                -0.9646769388733343,
                -0.1032743518857755,
                -0.6790602232907312,
                0.08293232640950307,
                2.6745599353438245
            ]
        },
        {
            "positions": [
                0.35732098913699334,
                -0.9769008856869985,
                0.06194193849139107,
                -0.6289371889162889,
                0.1257087032322163,
                2.736847829747326
            ]
        },
        {
            "positions": [
                0.31078239784389594,
                -0.9891248325006627,
                0.22715822886855785,
                -0.5788141545418466,
                0.16848508005492954,
                2.799135724150827
            ]
        },
        {
            "positions": [
                0.26424380655079854,
                -1.001348779314327,
                0.3923745192457244,
                -0.5286911201674042,
                0.21126145687764278,
                2.861423618554328
            ]
        },
        {
            "positions": [
                0.21770521525770103,
                -1.0135727261279914,
                0.5575908096228914,
                -0.47856808579296184,
                0.25403783370035604,
                2.923711512957829
            ]
        },
        {
            "positions": [
                0.1711666239646037,
                -1.0257966729416557,
                0.7228071000000578,
                -0.4284450514185195,
                0.29681421052306933,
                2.98599940736133
            ]
        },
        {
            "positions": [
                0.12462803267150624,
                -1.03802061975532,
                0.8880233903772248,
                -0.3783220170440771,
                0.3395905873457826,
                3.0482873017648315
            ]
        },
        {
            "positions": [
                0.0780894413784089,
                -1.0502445665689841,
                1.0532396807543911,
                -0.3281989826696349,
                0.3823669641684958,
                3.1105751961683326
            ]
        },
        {
            "positions": [
                0.031550850085311444,
                -1.0624685133826484,
                1.218455971131558,
                -0.27807594829519244,
                0.4251433409912091,
                3.1728630905718336
            ]
        },
        {
            "positions": [
                -0.014987741207785898,
                -1.0746924601963126,
                1.3836722615087242,
                -0.22795291392075023,
                0.4679197178139223,
                3.2351509849753346
            ]
        },
        {
            "positions": [
                -0.06152633250088335,
                -1.086916407009977,
                1.5488885518858915,
                -0.1778298795463078,
                0.5106960946366356,
                3.297438879378836
            ]
        },
        {
            "positions": [
                -0.1080649237939807,
                -1.0991403538236413,
                1.7141048422630578,
                -0.1277068451718656,
                0.5534724714593487,
                3.359726773782337
            ]
        },
        {
            "positions": [
                -0.15460351508707815,
                -1.1113643006373055,
                1.8793211326402246,
                -0.07758381079742316,
                0.596248848282062,
                3.422014668185838
            ]
        },
        {
            "positions": [
                -0.09893503791965969,
                -1.1152097616958725,
                1.8949071768360275,
                -0.20468173036968448,
                0.504195556751324,
                3.342005804160286
            ]
        },
        {
            "positions": [
                -0.04326656075224122,
                -1.1190552227544397,
                1.9104932210318302,
                -0.3317796499419458,
                0.41214226522058595,
                3.2619969401347335
            ]
        },
        {
            "positions": [
                0.012401916415177239,
                -1.1229006838130067,
                1.926079265227633,
                -0.45887756951420716,
                0.32008897368984796,
                3.181988076109181
            ]
        },
        {
            "positions": [
                0.0680703935825957,
                -1.1267461448715739,
                1.9416653094234357,
                -0.5859754890864685,
                0.22803568215910985,
                3.101979212083629
            ]
        },
        {
            "positions": [
                0.12373887075001418,
                -1.1305916059301409,
                1.9572513536192386,
                -0.7130734086587298,
                0.13598239062837186,
                3.0219703480580766
            ]
        }
    ]
}