{
    "goal": {
        "global_pose": {
            "orientation": {
                "w": 0.7047431493862688,
                "x": -0.7094548369677653,
                "y": 0.0024358444001904,
                "z": -0.0022348060817251984
            },
            "position": {
                "x": -0.39052492380142206,
                "y": 0.3671506643295288,
                "z": 0.19426114857196808
            }
        },
        "name": "move_to_magneteinheit_D"
    },
    "id": "FMT_move_to_magneteinheit_D_49",
    "joint_names": [
        "shoulder_pan_joint",
        "shoulder_lift_joint",
        "elbow_joint",
        "wrist_1_joint",
        "wrist_2_joint",
        "wrist_3_joint"
    ],
    "metrics": {
        "cart_traj_len": 4.262280660152672,
        "distance_elbow_joint": 3.4331930645822717,
        "distance_shoulder_lift_joint": 1.6332796903528235,
        "distance_shoulder_pan_joint": 4.094897061605033,
        "distance_wrist_1_joint": 2.217951878825336,
        "distance_wrist_2_joint": 0.5765538657295384,
        "distance_wrist_3_joint": 3.1488466952237633,
        "smoothness": 0.48428723651413463,
        "time": 1.5164762790000001,
        "traj_len": 3.8864794166853334,
        "weighted_distance": 4.9190366324435075
    },
    "planner": "FMT",
    "start": {
        "state": {
            "elbow_joint": 0.749534889911806,
            "shoulder_lift_joint": -0.6476975780787326,
            "shoulder_pan_joint": -2.711696901376241,
            "wrist_1_joint": -0.07506478083263063,
            "wrist_2_joint": 0.43296659715538205,
            "wrist_3_joint": -3.14703540197715
        }
    },
    "waypoints": [
        {
            "positions": [
                -2.711696901376241,
                -0.6476975780787326,
                0.749534889911806,
                -0.07506478083263063,
                0.43296659715538205,
                -3.14703540197715
            ]
        },
        {
            "positions": [
                -2.788404548251096,
                -0.6794185956993023,
                0.6427003304785533,
                0.06061875548323514,
                0.4652040469470536,
                -3.1457429855250694
            ]
        },
        {
            "positions": [
                -2.865112195125951,
                -0.711139613319872,
                0.5358657710453009,
                0.19630229179910091,
                0.4974414967387252,
                -3.1444505690729887
            ]
        },
        {
            "positions": [
                -2.9418198420008057,
                -0.7428606309404415,
                0.4290312116120483,
                0.33198582811496663,
                0.5296789465303967,
                -3.143158152620908
            ]
        },
        {
            "positions": [
                -3.0185274888756606,
                -0.7745816485610112,
                0.32219665217879573,
                0.46766936443083246,
                0.5619163963220682,
                -3.1418657361688274
            ]
        },
        {
            "positions": [
                -3.0952351357505155,
                -0.8063026661815809,
                0.2153620927455432,
                0.6033529007466981,
                0.5941538461137398,
                -3.1405733197167467
            ]
        },
        {
            "positions": [
                -2.9726477688081805,
                -0.837943329720157,
                0.13762345299992196,
                0.6489030304276435,
                0.5858678883899964,
                -3.0324862074947068
            ]
        },
        {
            "positions": [
                -2.8500604018658455,
                -0.869583993258733,
                0.0598848132543007,
                0.6944531601085889,
                0.577581930666253,
                -2.9243990952726664
            ]
        },
        {
            "positions": [
                -2.72747303492351,
                -0.9012246567973092,
                -0.017853826491320557,
                0.7400032897895343,
                0.5692959729425094,
                -2.8163119830506265
            ]
        },
        {
            "positions": [
                -2.604885667981175,
                -0.9328653203358853,
                -0.09559246623694179,
                0.7855534194704796,
                0.561010015218766,
                -2.708224870828586
            ]
        },
        {
            "positions": [
                -2.48229830103884,
                -0.9645059838744614,
                -0.17333110598256307,
                0.831103549151425,
                0.5527240574950226,
                -2.600137758606546
            ]
        },
        {
            "positions": [
                -2.359710934096505,
                -0.9961466474130375,
                -0.2510697457281843,
                0.8766536788323704,
                0.5444380997712792,
                -2.492050646384506
            ]
        },
        {
            "positions": [
                -2.23712356715417,
                -1.0277873109516136,
                -0.32880838547380553,
                0.9222038085133157,
                0.5361521420475357,
                -2.383963534162466
            ]
        },
        {
            "positions": [
                -2.114536200211835,
                -1.0594279744901898,
                -0.40654702521942676,
                0.9677539381942613,
                0.5278661843237923,
                -2.275876421940426
            ]
        },
        {
            "positions": [
                -1.9919488332695,
                -1.0910686380287657,
                -0.4842856649650481,
                1.0133040678752065,
                0.5195802266000489,
                -2.1677893097183856
            ]
        },
        {
            "positions": [
                -1.8693614663271647,
                -1.122709301567342,
                -0.5620243047106693,
                1.058854197556152,
                0.5112942688763055,
                -2.059702197496345
            ]
        },
        {
            "positions": [
                -1.7467740993848297,
                -1.1543499651059181,
                -0.6397629444562906,
                1.1044043272370974,
                0.5030083111525621,
                -1.9516150852743055
            ]
        },
        {
            "positions": [
                -1.6241867324424946,
                -1.1859906286444941,
                -0.7175015842019118,
                1.1499544569180427,
                0.4947223534288186,
                -1.8435279730522653
            ]
        },
        {
            "positions": [
                -1.5015993655001596,
                -1.21763129218307,
                -0.795240223947533,
                1.1955045865989882,
                0.48643639570507513,
                -1.7354408608302252
            ]
        },
        {
            "positions": [
                -1.3790119985578244,
                -1.2492719557216463,
                -0.8729788636931543,
                1.2410547162799335,
                0.4781504379813317,
                -1.627353748608185
            ]
        },
        {
            "positions": [
                -1.2564246316154892,
                -1.2809126192602225,
                -0.9507175034387757,
                1.2866048459608788,
                0.46986448025758826,
                -1.5192666363861447
            ]
        },
        {
            "positions": [
                -1.1338372646731543,
                -1.3125532827987985,
                -1.0284561431843966,
                1.3321549756418243,
                0.46157852253384485,
                -1.4111795241641047
            ]
        },
        {
            "positions": [
                -1.0112498977308189,
                -1.3441939463373747,
                -1.106194782930018,
                1.3777051053227698,
                0.4532925648101014,
                -1.3030924119420646
            ]
        },
        {
            "positions": [
                -0.8886625307884843,
                -1.3758346098759509,
                -1.1839334226756395,
                1.4232552350037149,
                0.445006607086358,
                -1.1950052997200244
            ]
        },
        {
            "positions": [
                -0.7660751638461489,
                -1.4074752734145268,
                -1.2616720624212605,
                1.4688053646846604,
                0.43672064936261457,
                -1.086918187497984
            ]
        },
        {
            "positions": [
                -0.643487796903814,
                -1.4391159369531028,
                -1.339410702166882,
                1.514355494365606,
                0.42843469163887116,
                -0.9788310752759442
            ]
        },
        {
            "positions": [
                -0.5209004299614786,
                -1.4707566004916792,
                -1.417149341912503,
                1.5599056240465512,
                0.42014873391512764,
                -0.8707439630539042
            ]
        },
        {
            "positions": [
                -0.39831306301914404,
                -1.5023972640302552,
                -1.4948879816581244,
                1.6054557537274965,
                0.41186277619138423,
                -0.7626568508318643
            ]
        },
        {
            "positions": [
                -0.27572569607680864,
                -1.5340379275688312,
                -1.5726266214037459,
                1.651005883408442,
                0.4035768184676408,
                -0.6545697386098239
            ]
        },
        {
            "positions": [
                -0.15313832913447367,
                -1.5656785911074074,
                -1.6503652611493669,
                1.6965560130893875,
                0.3952908607438974,
                -0.546482626387784
            ]
        },
        {
            "positions": [
                -0.030550962192138265,
                -1.5973192546459836,
                -1.7281039008949883,
                1.7421061427703326,
                0.38700490302015395,
                -0.4383955141657436
            ]
        },
        {
            "positions": [
                0.09203640475019625,
                -1.6289599181845595,
                -1.8058425406406093,
                1.7876562724512781,
                0.3787189452964105,
                -0.3303084019437037
            ]
        },
        {
            "positions": [
                0.21462377169253177,
                -1.6606005817231357,
                -1.8835811803862308,
                1.8332064021322236,
                0.37043298757266707,
                -0.22222128972166316
            ]
        },
        {
            "positions": [
                0.15301535048120327,
                -1.7627743614202918,
                -2.0127165480959586,
                1.8189265010677373,
                0.3544810530568951,
                -0.2229251618013263
            ]
        },
        {
            "positions": [
                0.09140692926987476,
                -1.8649481411174476,
                -2.1418519158056863,
                1.804646600003251,
                0.3385291185411231,
                -0.22362903388098945
            ]
        },
        {
            "positions": [
                0.02979850805854628,
                -1.9671219208146036,
                -2.2709872835154146,
                1.7903666989387645,
                0.3225771840253511,
                -0.22433290596065258
            ]
        },
        {
            "positions": [
                -0.031809913152782254,
                -2.0692957005117596,
                -2.4001226512251423,
                1.7760867978742783,
                0.30662524950957915,
                -0.22503677804031574
            ]
        },
        {
            "positions": [
                -0.09341833436411076,
                -2.1714694802089154,
                -2.52925801893487,
                1.761806896809792,
                0.29067331499380716,
                -0.22574065011997888
            ]
        },
        {
            "positions": [
                -0.12457093894113373,
                -2.207972076283129,
                -2.4777913003563383,
                1.6823798332971085,
                0.25337795311005784,
                -0.1522362425966589
            ]
        },
        {
            "positions": [
                -0.1557235435181567,
                -2.2444746723573425,
                -2.426324581777806,
                1.6029527697844252,
                0.2160825912263085,
                -0.07873183507333892
            ]
        },
        {
            "positions": [
                -0.1868761480951797,
                -2.280977268431556,
                -2.3748578631992743,
                1.5235257062717418,
                0.17878722934255914,
                -0.005227427550018913
            ]
        }
    ]
}