{
    "goal": {
        "global_pose": {
            "orientation": {
                "w": 0.005598929693374612,
                "x": 0.007748599140229565,
                "y": 0.7110244013736278,
                "z": -0.7031023480610252
            },
            "position": {
                "x": 0.1141497679147869,
                "y": -0.7141253447532654,
                "z": 0.3711530566215515
            }
        },
        "name": "move_to_auspresseinheit_B"
    },
    "id": "FMT_move_to_auspresseinheit_B_83",
    "joint_names": [
        "shoulder_pan_joint",
        "shoulder_lift_joint",
        "elbow_joint",
        "wrist_1_joint",
        "wrist_2_joint",
        "wrist_3_joint"
    ],
    "metrics": {
        "cart_traj_len": 0.5653435211709649,
        "distance_elbow_joint": 0.060544674751388694,
        "distance_shoulder_lift_joint": 0.2953848925533633,
        "distance_shoulder_pan_joint": 0.5787652628416589,
        "distance_wrist_1_joint": 0.3189145404213457,
        "distance_wrist_2_joint": 0.9893665359545276,
        "distance_wrist_3_joint": 0.005491494952898801,
        "smoothness": 5.075305255429287e-16,
        "time": 0.47839525699999996,
        "traj_len": 1.4994890468006703,
        "weighted_distance": 1.8888439500808039
    },
    "planner": "FMT",
    "start": {
        "state": {
            "elbow_joint": 2.0193083361928714,
            "shoulder_lift_joint": -1.1220246554650708,
            "shoulder_pan_joint": -1.0952077554168747,
            "wrist_1_joint": -0.8559753972642168,
            "wrist_2_joint": 0.4759566250798843,
            "wrist_3_joint": -3.1240929996934557
        }
    },
    "waypoints": [
        {
            "positions": [
                -1.0952077554168747,
                -1.1220246554650708,
                2.0193083361928714,
                -0.8559753972642168,
                0.4759566250798843,
                -3.1240929996934557
            ]
        },
        {
            "positions": [
                -1.191668632557151,
                -1.1712554708906313,
                2.00921755706764,
                -0.8028229738606592,
                0.6408510477389722,
                -3.1250082488522724
            ]
        },
        {
            "positions": [
                -1.2881295096974277,
                -1.2204862863161918,
                1.9991267779424085,
                -0.7496705504571015,
                0.8057454703980602,
                -3.1259234980110886
            ]
        },
        {
            "positions": [
                -1.384590386837704,
                -1.2697171017417523,
                1.989035998817177,
                -0.6965181270535439,
                0.970639893057148,
                -3.126838747169905
            ]
        },
        {
            "positions": [
                -1.4810512639779805,
                -1.318947917167313,
                1.9789452196919457,
                -0.6433657036499864,
                1.135534315716236,
                -3.1277539963287215
            ]
        },
        {
            "positions": [
                -1.577512141118257,
                -1.3681787325928736,
                1.968854440566714,
                -0.5902132802464286,
                1.300428738375324,
                -3.128669245487538
            ]
        },
        {
            "positions": [
                -1.6739730182585335,
                -1.417409548018434,
                1.9587636614414827,
                -0.5370608568428711,
                1.465323161034412,
                -3.1295844946463545
            ]
        }
    ]
}