{
    "goal": {
        "global_pose": {
            "orientation": {
                "w": -0.00223480608172531,
                "x": 0.0024358444001904467,
                "y": 0.7094548369677653,
                "z": -0.704743149386269
            },
            "position": {
                "x": -0.37947507619857795,
                "y": -0.6371506643295288,
                "z": 0.19426114857196808
            }
        },
        "name": "move_to_magneteinheit_C"
    },
    "id": "FMT_move_to_magneteinheit_C_49",
    "joint_names": [
        "shoulder_pan_joint",
        "shoulder_lift_joint",
        "elbow_joint",
        "wrist_1_joint",
        "wrist_2_joint",
        "wrist_3_joint"
    ],
    "metrics": {
        "cart_traj_len": 4.6251230369825365,
        "distance_elbow_joint": 1.1322688795754732,
        "distance_shoulder_lift_joint": 2.9729740074716973,
        "distance_shoulder_pan_joint": 7.447419760637642,
        "distance_wrist_1_joint": 1.3019564812438775,
        "distance_wrist_2_joint": 3.304129852253276,
        "distance_wrist_3_joint": 5.273374294428141,
        "smoothness": 0.6080441811105443,
        "time": 1.330702552,
        "traj_len": 4.629484126294214,
        "weighted_distance": 6.04855009055588
    },
    "planner": "FMT",
    "start": {
        "state": {
            "elbow_joint": 1.9565354010623817,
            "shoulder_lift_joint": -1.4165861575791021,
            "shoulder_pan_joint": -1.6717766225146293,
            "wrist_1_joint": -0.5286633292919765,
            "wrist_2_joint": 1.472756589071564,
            "wrist_3_joint": -3.1238370188695823
        }
    },
    "waypoints": [
        {
            "positions": [
                -1.6717766225146293,
                -1.4165861575791021,
                1.9565354010623817,
                -0.5286633292919765,
                1.472756589071564,
                -3.1238370188695823
            ]
        },
        {
            "positions": [
                -1.5531134688811972,
                -1.4651410920445191,
                1.977639885320317,
                -0.5570876881591584,
                1.3993234748168941,
                -3.0302505363305916
            ]
        },
        {
            "positions": [
                -1.4344503152477652,
                -1.5136960265099362,
                1.9987443695782523,
                -0.5855120470263403,
                1.3258903605622243,
                -2.936664053791601
            ]
        },
        {
            "positions": [
                -1.315787161614333,
                -1.5622509609753532,
                2.0198488538361876,
                -0.6139364058935222,
                1.2524572463075545,
                -2.8430775712526097
            ]
        },
        {
            "positions": [
                -1.197124007980901,
                -1.6108058954407702,
                2.040953338094123,
                -0.6423607647607041,
                1.1790241320528847,
                -2.749491088713619
            ]
        },
        {
            "positions": [
                -1.078460854347469,
                -1.6593608299061873,
                2.0620578223520583,
                -0.6707851236278861,
                1.105591017798215,
                -2.6559046061746283
            ]
        },
        {
            "positions": [
                -0.9597977007140368,
                -1.7079157643716043,
                2.0831623066099936,
                -0.699209482495068,
                1.032157903543545,
                -2.5623181236356376
            ]
        },
        {
            "positions": [
                -0.8411345470806046,
                -1.7564706988370213,
                2.104266790867929,
                -0.7276338413622498,
                0.9587247892888752,
                -2.468731641096647
            ]
        },
        {
            "positions": [
                -0.7224713934471726,
                -1.8050256333024381,
                2.125371275125864,
                -0.7560582002294318,
                0.8852916750342054,
                -2.375145158557656
            ]
        },
        {
            "positions": [
                -0.6038082398137403,
                -1.8535805677678554,
                2.1464757593837995,
                -0.7844825590966138,
                0.8118585607795354,
                -2.281558676018665
            ]
        },
        {
            "positions": [
                -0.4851450861803084,
                -1.9021355022332724,
                2.167580243641735,
                -0.8129069179637957,
                0.7384254465248656,
                -2.1879721934796743
            ]
        },
        {
            "positions": [
                -0.3664819325468762,
                -1.9506904366986895,
                2.18868472789967,
                -0.8413312768309775,
                0.6649923322701959,
                -2.0943857109406836
            ]
        },
        {
            "positions": [
                -0.24781877891344428,
                -1.9992453711641063,
                2.209789212157605,
                -0.8697556356981595,
                0.5915592180155261,
                -2.000799228401693
            ]
        },
        {
            "positions": [
                -0.1291556252800119,
                -2.0478003056295235,
                2.2308936964155404,
                -0.8981799945653415,
                0.5181261037608562,
                -1.907212745862702
            ]
        },
        {
            "positions": [
                -0.01049247164657996,
                -2.0963552400949403,
                2.2519981806734757,
                -0.9266043534325233,
                0.4446929895061864,
                -1.8136262633237112
            ]
        },
        {
            "positions": [
                0.10817068198685198,
                -2.1449101745603576,
                2.273102664931411,
                -0.9550287122997052,
                0.3712598752515166,
                -1.7200397807847205
            ]
        },
        {
            "positions": [
                0.22683383562028414,
                -2.1934651090257744,
                2.2942071491893463,
                -0.9834530711668872,
                0.2978267609968468,
                -1.6264532982457298
            ]
        },
        {
            "positions": [
                0.3454969892537163,
                -2.242020043491191,
                2.3153116334472816,
                -1.011877430034069,
                0.224393646742177,
                -1.5328668157067389
            ]
        },
        {
            "positions": [
                0.4641601428871487,
                -2.2905749779566085,
                2.336416117705217,
                -1.040301788901251,
                0.15096053248750696,
                -1.439280333167748
            ]
        },
        {
            "positions": [
                0.5828232965205806,
                -2.3391299124220257,
                2.3575206019631523,
                -1.0687261477684329,
                0.07752741823283715,
                -1.3456938506287572
            ]
        },
        {
            "positions": [
                0.7014864501540126,
                -2.3876848468874425,
                2.3786250862210876,
                -1.0971505066356149,
                0.004094303978167346,
                -1.2521073680897665
            ]
        },
        {
            "positions": [
                0.820149603787445,
                -2.4362397813528593,
                2.399729570479023,
                -1.1255748655027968,
                -0.06933881027650246,
                -1.1585208855507756
            ]
        },
        {
            "positions": [
                0.9388127574208769,
                -2.4847947158182766,
                2.4208340547369582,
                -1.1539992243699788,
                -0.14277192453117205,
                -1.0649344030117849
            ]
        },
        {
            "positions": [
                1.0574759110543088,
                -2.533349650283694,
                2.4419385389948935,
                -1.1824235832371606,
                -0.21620503878584185,
                -0.9713479204727942
            ]
        },
        {
            "positions": [
                1.1761390646877408,
                -2.5819045847491107,
                2.463043023252829,
                -1.2108479421043425,
                -0.28963815304051166,
                -0.8777614379338035
            ]
        },
        {
            "positions": [
                1.2948022183211731,
                -2.6304595192145275,
                2.484147507510764,
                -1.2392723009715245,
                -0.3630712672951817,
                -0.7841749553948123
            ]
        },
        {
            "positions": [
                1.4134653719546055,
                -2.6790144536799447,
                2.5052519917686995,
                -1.2676966598387063,
                -0.4365043815498515,
                -0.6905884728558216
            ]
        },
        {
            "positions": [
                1.5321285255880375,
                -2.727569388145362,
                2.526356476026635,
                -1.2961210187058883,
                -0.5099374958045213,
                -0.5970019903168309
            ]
        },
        {
            "positions": [
                1.6507916792214692,
                -2.776124322610779,
                2.54746096028457,
                -1.3245453775730702,
                -0.5833706100591911,
                -0.5034155077778402
            ]
        },
        {
            "positions": [
                1.4980194029658567,
                -2.7163674395574446,
                2.527411207678893,
                -1.3058018800559301,
                -0.5371482895731717,
                -0.6016730182717808
            ]
        },
        {
            "positions": [
                1.3452471267102442,
                -2.6566105565041105,
                2.5073614550732155,
                -1.28705838253879,
                -0.49092596908715236,
                -0.6999305287657215
            ]
        },
        {
            "positions": [
                1.1924748504546319,
                -2.5968536734507763,
                2.4873117024675384,
                -1.2683148850216497,
                -0.44470364860113304,
                -0.7981880392596621
            ]
        },
        {
            "positions": [
                1.0397025741990193,
                -2.5370967903974426,
                2.4672619498618613,
                -1.2495713875045096,
                -0.39848132811511366,
                -0.8964455497536028
            ]
        },
        {
            "positions": [
                0.8869302979434068,
                -2.4773399073441085,
                2.447212197256184,
                -1.2308278899873695,
                -0.35225900762909435,
                -0.9947030602475434
            ]
        },
        {
            "positions": [
                0.7341580216877944,
                -2.4175830242907743,
                2.4271624446505067,
                -1.2120843924702294,
                -0.30603668714307497,
                -1.092960570741484
            ]
        },
        {
            "positions": [
                0.581385745432182,
                -2.35782614123744,
                2.4071126920448296,
                -1.1933408949530893,
                -0.2598143666570556,
                -1.1912180812354247
            ]
        },
        {
            "positions": [
                0.4286134691765695,
                -2.298069258184106,
                2.3870629394391525,
                -1.174597397435949,
                -0.21359204617103622,
                -1.2894755917293654
            ]
        },
        {
            "positions": [
                0.275841192920957,
                -2.2383123751307723,
                2.3670131868334754,
                -1.1558538999188088,
                -0.16736972568501685,
                -1.387733102223306
            ]
        },
        {
            "positions": [
                0.12306891666534447,
                -2.1785554920774377,
                2.346963434227798,
                -1.1371104024016687,
                -0.12114740519899753,
                -1.4859906127172466
            ]
        },
        {
            "positions": [
                -0.02970335959026804,
                -2.118798609024104,
                2.3269136816221208,
                -1.1183669048845286,
                -0.0749250847129781,
                -1.5842481232111871
            ]
        },
        {
            "positions": [
                -0.18247563584588034,
                -2.05904172597077,
                2.3068639290164437,
                -1.0996234073673885,
                -0.028702764226958832,
                -1.6825056337051278
            ]
        },
        {
            "positions": [
                -0.33524791210149285,
                -1.9992848429174357,
                2.2868141764107666,
                -1.0808799098502484,
                0.017519556259060542,
                -1.7807631441990686
            ]
        },
        {
            "positions": [
                -0.48802018835710514,
                -1.9395279598641015,
                2.266764423805089,
                -1.0621364123331083,
                0.06374187674507992,
                -1.8790206546930093
            ]
        },
        {
            "positions": [
                -0.6407924646127179,
                -1.8797710768107674,
                2.246714671199412,
                -1.043392914815968,
                0.1099641972310994,
                -1.97727816518695
            ]
        },
        {
            "positions": [
                -0.7935647408683302,
                -1.8200141937574335,
                2.226664918593735,
                -1.0246494172988279,
                0.15618651771711867,
                -2.0755356756808903
            ]
        },
        {
            "positions": [
                -0.9463370171239429,
                -1.7602573107040993,
                2.2066151659880577,
                -1.0059059197816878,
                0.20240883820313804,
                -2.173793186174831
            ]
        },
        {
            "positions": [
                -1.0991092933795552,
                -1.7005004276507654,
                2.18656541338238,
                -0.9871624222645476,
                0.24863115868915742,
                -2.2720506966687717
            ]
        },
        {
            "positions": [
                -1.251881569635168,
                -1.6407435445974312,
                2.166515660776703,
                -0.9684189247474074,
                0.2948534791751768,
                -2.3703082071627124
            ]
        },
        {
            "positions": [
                -1.4046538458907802,
                -1.580986661544097,
                2.146465908171026,
                -0.9496754272302673,
                0.34107579966119606,
                -2.468565717656653
            ]
        },
        {
            "positions": [
                -1.557426122146393,
                -1.521229778490763,
                2.126416155565349,
                -0.9309319297131271,
                0.38729812014721554,
                -2.566823228150594
            ]
        },
        {
            "positions": [
                -1.7101983984020053,
                -1.461472895437429,
                2.1063664029596714,
                -0.912188432195987,
                0.4335204406332349,
                -2.665080738644534
            ]
        },
        {
            "positions": [
                -1.8629706746576176,
                -1.4017160123840948,
                2.0863166503539943,
                -0.8934449346788469,
                0.4797427611192542,
                -2.7633382491384753
            ]
        },
        {
            "positions": [
                -2.01574295091323,
                -1.3419591293307607,
                2.066266897748317,
                -0.8747014371617068,
                0.5259650816052734,
                -2.8615957596324155
            ]
        },
        {
            "positions": [
                -2.1685152271688426,
                -1.2822022462774265,
                2.0462171451426396,
                -0.8559579396445665,
                0.5721874020912929,
                -2.9598532701263562
            ]
        },
        {
            "positions": [
                -2.321287503424455,
                -1.2224453632240926,
                2.0261673925369625,
                -0.8372144421274264,
                0.6184097225773122,
                -3.058110780620297
            ]
        },
        {
            "positions": [
                -2.474059779680067,
                -1.1626884801707584,
                2.0061176399312854,
                -0.8184709446102862,
                0.6646320430633318,
                -3.1563682911142377
            ]
        }
    ]
}