{
    "goal": {
        "global_pose": {
            "orientation": {
                "w": 0.005598929693374612,
                "x": 0.007748599140229565,
                "y": 0.7110244013736278,
                "z": -0.7031023480610252
            },
            "position": {
                "x": -0.8858502320852131,
                "y": -0.7141253447532654,
                "z": 0.3711530566215515
            }
        },
        "name": "move_to_auspresseinheit_C"
    },
    "id": "FMT_move_to_auspresseinheit_C_60",
    "joint_names": [
        "shoulder_pan_joint",
        "shoulder_lift_joint",
        "elbow_joint",
        "wrist_1_joint",
        "wrist_2_joint",
        "wrist_3_joint"
    ],
    "metrics": {
        "cart_traj_len": 0.4933982963454161,
        "distance_elbow_joint": 0.9914603593026572,
        "distance_shoulder_lift_joint": 0.32035612434172844,
        "distance_shoulder_pan_joint": 0.2574734973619819,
        "distance_wrist_1_joint": 0.6638086524092645,
        "distance_wrist_2_joint": 1.3012453594310285,
        "distance_wrist_3_joint": 0.04749416021315778,
        "smoothness": 3.2297397335745243e-16,
        "time": 0.472710539,
        "traj_len": 1.8925744775463444,
        "weighted_distance": 2.375264297994315
    },
    "planner": "FMT",
    "start": {
        "state": {
            "elbow_joint": 1.7527959577737207,
            "shoulder_lift_joint": -0.9740617694225068,
            "shoulder_pan_joint": -2.967991417825858,
            "wrist_1_joint": -0.759517768980727,
            "wrist_2_joint": 1.7443932448377408,
            "wrist_3_joint": -3.0840537646736568
        }
    },
    "waypoints": [
        {
            "positions": [
                -2.967991417825858,
                -0.9740617694225068,
                1.7527959577737207,
                -0.759517768980727,
                1.7443932448377408,
                -3.0840537646736568
            ]
        },
        {
            "positions": [
                -2.9422440680896598,
                -0.9420261569883339,
                1.653649921843455,
                -0.6931369037398005,
                1.614268708894638,
                -3.0888031806949727
            ]
        },
        {
            "positions": [
                -2.9164967183534616,
                -0.9099905445541611,
                1.5545038859131892,
                -0.6267560384988741,
                1.484144172951535,
                -3.0935525967162882
            ]
        },
        {
            "positions": [
                -2.8907493686172634,
                -0.8779549321199882,
                1.4553578499829234,
                -0.5603751732579476,
                1.3540196370084323,
                -3.098302012737604
            ]
        },
        {
            "positions": [
                -2.865002018881065,
                -0.8459193196858154,
                1.3562118140526578,
                -0.4939943080170212,
                1.2238951010653294,
                -3.1030514287589197
            ]
        },
        {
            "positions": [
                -2.839254669144867,
                -0.8138837072516425,
                1.2570657781223922,
                -0.42761344277609475,
                1.0937705651222265,
                -3.1078008447802357
            ]
        },
        {
            "positions": [
                -2.813507319408669,
                -0.7818480948174698,
                1.1579197421921263,
                -0.3612325775351683,
                0.9636460291791238,
                -3.1125502608015516
            ]
        },
        {
            "positions": [
                -2.7877599696724706,
                -0.7498124823832969,
                1.0587737062618605,
                -0.2948517122942419,
                0.833521493236021,
                -3.117299676822867
            ]
        },
        {
            "positions": [
                -2.7620126199362725,
                -0.717776869949124,
                0.9596276703315949,
                -0.22847084705331544,
                0.703396957292918,
                -3.122049092844183
            ]
        },
        {
            "positions": [
                -2.7362652702000743,
                -0.6857412575149512,
                0.8604816344013292,
                -0.16208998181238898,
                0.5732724213498153,
                -3.1267985088654986
            ]
        },
        {
            "positions": [
                -2.710517920463876,
                -0.6537056450807783,
                0.7613355984710635,
                -0.0957091165714625,
                0.44314788540671235,
                -3.1315479248868145
            ]
        }
    ]
}