{
    "goal": {
        "global_pose": {
            "orientation": {
                "w": 0.5084816262002911,
                "x": -0.4908360881923452,
                "y": 0.5182115481033761,
                "z": -0.48164630358495003
            },
            "position": {
                "x": 0.5540239810943604,
                "y": -0.46912469901144505,
                "z": 0.16403168439865112
            }
        },
        "name": "move_to_storage_B"
    },
    "id": "FMT_move_to_storage_B_51",
    "joint_names": [
        "shoulder_pan_joint",
        "shoulder_lift_joint",
        "elbow_joint",
        "wrist_1_joint",
        "wrist_2_joint",
        "wrist_3_joint"
    ],
    "metrics": {
        "cart_traj_len": 1.3227388812858418,
        "distance_elbow_joint": 0.7086081426071176,
        "distance_shoulder_lift_joint": 0.460195945015623,
        "distance_shoulder_pan_joint": 1.3921896167170342,
        "distance_wrist_1_joint": 2.989761901299144,
        "distance_wrist_2_joint": 2.702538854607945,
        "distance_wrist_3_joint": 3.130379876877151,
        "smoothness": 0.15342071949732228,
        "time": 1.453479482,
        "traj_len": 3.3739701150312538,
        "weighted_distance": 4.830810992658004
    },
    "planner": "FMT",
    "start": {
        "state": {
            "elbow_joint": 1.664937868594044,
            "shoulder_lift_joint": -0.661644460510453,
            "shoulder_pan_joint": -0.9139846352900073,
            "wrist_1_joint": 2.146753192139373,
            "wrist_2_joint": -2.2341966793290973,
            "wrist_3_joint": 0.005466555786416001
        }
    },
    "waypoints": [
        {
            "positions": [
                -0.9139846352900073,
                -0.661644460510453,
                1.664937868594044,
                2.146753192139373,
                -2.2341966793290973,
                0.005466555786416001
            ]
        },
        {
            "positions": [
                -0.8707898943119103,
                -0.6883576240861122,
                1.7027967992586033,
                2.097886855016488,
                -2.162423373609051,
                -0.15541779772172115
            ]
        },
        {
            "positions": [
                -0.8275951533338135,
                -0.7150707876617713,
                1.7406557299231624,
                2.049020517893603,
                -2.0906500678890048,
                -0.3163021512298583
            ]
        },
        {
            "positions": [
                -0.7844004123557166,
                -0.7417839512374306,
                1.7785146605877218,
                2.0001541807707186,
                -2.0188767621689583,
                -0.47718650473799545
            ]
        },
        {
            "positions": [
                -0.7412056713776196,
                -0.7684971148130897,
                1.816373591252281,
                1.9512878436478336,
                -1.9471034564489123,
                -0.6380708582461326
            ]
        },
        {
            "positions": [
                -0.6980109303995228,
                -0.7952102783887489,
                1.8542325219168403,
                1.9024215065249486,
                -1.8753301507288658,
                -0.7989552117542699
            ]
        },
        {
            "positions": [
                -0.6548161894214258,
                -0.821923441964408,
                1.8920914525813994,
                1.8535551694020638,
                -1.8035568450088197,
                -0.959839565262407
            ]
        },
        {
            "positions": [
                -0.6116214484433289,
                -0.8486366055400673,
                1.9299503832459588,
                1.804688832279179,
                -1.7317835392887733,
                -1.1207239187705442
            ]
        },
        {
            "positions": [
                -0.568426707465232,
                -0.8753497691157264,
                1.967809313910518,
                1.755822495156294,
                -1.6600102335687272,
                -1.2816082722786812
            ]
        },
        {
            "positions": [
                -0.525231966487135,
                -0.9020629326913856,
                2.0056682445750775,
                1.706956158033409,
                -1.5882369278486808,
                -1.4424926257868187
            ]
        },
        {
            "positions": [
                -0.48203722550903816,
                -0.9287760962670448,
                2.0435271752396367,
                1.6580898209105241,
                -1.5164636221286345,
                -1.6033769792949557
            ]
        },
        {
            "positions": [
                -0.4388424845309412,
                -0.9554892598427039,
                2.081386105904196,
                1.6092234837876394,
                -1.4446903164085882,
                -1.764261332803093
            ]
        },
        {
            "positions": [
                -0.3956477435528444,
                -0.9822024234183631,
                2.119245036568755,
                1.5603571466647543,
                -1.3729170106885422,
                -1.92514568631123
            ]
        },
        {
            "positions": [
                -0.35245300257474743,
                -1.0089155869940223,
                2.1571039672333145,
                1.5114908095418693,
                -1.3011437049684957,
                -2.086030039819367
            ]
        },
        {
            "positions": [
                -0.3092582615966505,
                -1.0356287505696815,
                2.1949628978978737,
                1.4626244724189845,
                -1.2293703992484495,
                -2.246914393327504
            ]
        },
        {
            "positions": [
                -0.3617558111315623,
                -1.0413761942334412,
                2.1830573570109877,
                1.3089155936470676,
                -1.1161895609466297,
                -2.3054476551783862
            ]
        },
        {
            "positions": [
                -0.4142533606664741,
                -1.0471236378972009,
                2.171151816124102,
                1.1552067148751506,
                -1.00300872264481,
                -2.3639809170292683
            ]
        },
        {
            "positions": [
                -0.4667509102013859,
                -1.0528710815609603,
                2.159246275237216,
                1.0014978361032336,
                -0.88982788434299,
                -2.4225141788801503
            ]
        },
        {
            "positions": [
                -0.5192484597362977,
                -1.05861852522472,
                2.14734073435033,
                0.8477889573313167,
                -0.7766470460411702,
                -2.4810474407310323
            ]
        },
        {
            "positions": [
                -0.5717460092712096,
                -1.0643659688884797,
                2.1354351934634446,
                0.6940800785593997,
                -0.6634662077393504,
                -2.5395807025819144
            ]
        },
        {
            "positions": [
                -0.6242435588061215,
                -1.0701134125522394,
                2.1235296525765586,
                0.5403711997874827,
                -0.5502853694375305,
                -2.5981139644327964
            ]
        },
        {
            "positions": [
                -0.6767411083410333,
                -1.075860856215999,
                2.1116241116896726,
                0.38666232101556575,
                -0.4371045311357107,
                -2.6566472262836784
            ]
        },
        {
            "positions": [
                -0.7292386578759451,
                -1.0816082998797585,
                2.099718570802787,
                0.23295344224364878,
                -0.3239236928338909,
                -2.7151804881345605
            ]
        },
        {
            "positions": [
                -0.7817362074108569,
                -1.0873557435435182,
                2.087813029915901,
                0.07924456347173181,
                -0.2107428545320711,
                -2.7737137499854425
            ]
        },
        {
            "positions": [
                -0.8342337569457686,
                -1.0931031872072778,
                2.075907489029015,
                -0.07446431530018516,
                -0.09756201623025129,
                -2.8322470118363245
            ]
        },
        {
            "positions": [
                -0.8867313064806804,
                -1.0988506308710375,
                2.0640019481421295,
                -0.2281731940721019,
                0.015618822071568506,
                -2.890780273687207
            ]
        },
        {
            "positions": [
                -0.9392288560155924,
                -1.1045980745347972,
                2.0520964072552434,
                -0.3818820728440191,
                0.12879966037338852,
                -2.949313535538089
            ]
        },
        {
            "positions": [
                -0.9917264055505042,
                -1.1103455181985566,
                2.0401908663683574,
                -0.5355909516159361,
                0.24198049867520832,
                -3.007846797388971
            ]
        },
        {
            "positions": [
                -1.044223955085416,
                -1.1160929618623163,
                2.028285325481472,
                -0.689299830387853,
                0.3551613369770281,
                -3.066380059239853
            ]
        },
        {
            "positions": [
                -1.0967215046203278,
                -1.121840405526076,
                2.016379784594586,
                -0.84300870915977,
                0.4683421752788478,
                -3.124913321090735
            ]
        }
    ]
}