{
    "goal": {
        "global_pose": {
            "orientation": {
                "w": 0.005598929693374612,
                "x": 0.007748599140229565,
                "y": 0.7110244013736278,
                "z": -0.7031023480610252
            },
            "position": {
                "x": -0.8858502320852131,
                "y": -0.7141253447532654,
                "z": 0.3711530566215515
            }
        },
        "name": "move_to_auspresseinheit_C"
    },
    "id": "FMT_move_to_auspresseinheit_C_79",
    "joint_names": [
        "shoulder_pan_joint",
        "shoulder_lift_joint",
        "elbow_joint",
        "wrist_1_joint",
        "wrist_2_joint",
        "wrist_3_joint"
    ],
    "metrics": {
        "cart_traj_len": 0.49336022066275426,
        "distance_elbow_joint": 0.9965018065633755,
        "distance_shoulder_lift_joint": 0.3231538370139534,
        "distance_shoulder_pan_joint": 0.256689014977038,
        "distance_wrist_1_joint": 0.6683622008953337,
        "distance_wrist_2_joint": 1.3026262360487577,
        "distance_wrist_3_joint": 0.05535091393971925,
        "smoothness": 4.844609574787718e-16,
        "time": 0.523298107,
        "traj_len": 1.89807376290759,
        "weighted_distance": 2.3841925832997863
    },
    "planner": "FMT",
    "start": {
        "state": {
            "elbow_joint": 1.7527959577737207,
            "shoulder_lift_joint": -0.9740617694225068,
            "shoulder_pan_joint": -2.967991417825858,
            "wrist_1_joint": -0.759517768980727,
            "wrist_2_joint": 1.7443932448377408,
            "wrist_3_joint": -3.0840537646736568
        }
    },
    "waypoints": [
        {
            "positions": [
                -2.967991417825858,
                -0.9740617694225068,
                1.7527959577737207,
                -0.759517768980727,
                1.7443932448377408,
                -3.0840537646736568
            ]
        },
        {
            "positions": [
                -2.9423225163281543,
                -0.9417463857211115,
                1.6531457771173832,
                -0.6926815488911936,
                1.614130621232865,
                -3.089588856067629
            ]
        },
        {
            "positions": [
                -2.9166536148304503,
                -0.909431002019716,
                1.5534955964610455,
                -0.6258453288016602,
                1.4838679976279892,
                -3.095123947461601
            ]
        },
        {
            "positions": [
                -2.8909847133327466,
                -0.8771156183183207,
                1.453845415804708,
                -0.5590091087121268,
                1.3536053740231135,
                -3.1006590388555724
            ]
        },
        {
            "positions": [
                -2.8653158118350426,
                -0.8448002346169254,
                1.3541952351483704,
                -0.4921728886225935,
                1.2233427504182377,
                -3.1061941302495444
            ]
        },
        {
            "positions": [
                -2.839646910337339,
                -0.81248485091553,
                1.254545054492033,
                -0.4253366685330601,
                1.093080126813362,
                -3.1117292216435164
            ]
        },
        {
            "positions": [
                -2.8139780088396353,
                -0.7801694672141347,
                1.1548948738356954,
                -0.35850044844352674,
                0.9628175032084862,
                -3.1172643130374884
            ]
        },
        {
            "positions": [
                -2.7883091073419313,
                -0.7478540835127394,
                1.055244693179358,
                -0.2916642283539934,
                0.8325548796036105,
                -3.1227994044314604
            ]
        },
        {
            "positions": [
                -2.7626402058442276,
                -0.715538699811344,
                0.9555945125230202,
                -0.22482800826446003,
                0.7022922559987346,
                -3.128334495825432
            ]
        },
        {
            "positions": [
                -2.7369713043465236,
                -0.6832233161099487,
                0.8559443318666827,
                -0.15799178817492665,
                0.572029632393859,
                -3.133869587219404
            ]
        },
        {
            "positions": [
                -2.71130240284882,
                -0.6509079324085534,
                0.7562941512103452,
                -0.09115556808539323,
                0.4417670087889832,
                -3.139404678613376
            ]
        }
    ]
}