{
    "goal": {
        "global_pose": {
            "orientation": {
                "w": -0.4816463035849501,
                "x": 0.5182115481033762,
                "y": 0.4908360881923453,
                "z": -0.5084816262002911
            },
            "position": {
                "x": -0.8240239810943604,
                "y": 0.19912469901144506,
                "z": 0.16403168439865112
            }
        },
        "name": "move_to_storage_D"
    },
    "id": "FMT_move_to_storage_D_116",
    "joint_names": [
        "shoulder_pan_joint",
        "shoulder_lift_joint",
        "elbow_joint",
        "wrist_1_joint",
        "wrist_2_joint",
        "wrist_3_joint"
    ],
    "metrics": {
        "cart_traj_len": 3.9090605993611702,
        "distance_elbow_joint": 4.371995197001267,
        "distance_shoulder_lift_joint": 1.2646775116161615,
        "distance_shoulder_pan_joint": 2.811283002967288,
        "distance_wrist_1_joint": 2.268792295341032,
        "distance_wrist_2_joint": 0.8680968454422199,
        "distance_wrist_3_joint": 3.155028793139807,
        "smoothness": 0.09979560354325392,
        "time": 1.421169167,
        "traj_len": 3.839254308522396,
        "weighted_distance": 4.918009797933576
    },
    "planner": "FMT",
    "start": {
        "state": {
            "elbow_joint": -2.384821988534728,
            "shoulder_lift_joint": -2.2788054721415256,
            "shoulder_pan_joint": -0.1854694642142757,
            "wrist_1_joint": 1.4845938289331202,
            "wrist_2_joint": 0.17898776772866878,
            "wrist_3_joint": 0.037105688729662994
        }
    },
    "waypoints": [
        {
            "positions": [
                -0.1854694642142757,
                -2.2788054721415256,
                -2.384821988534728,
                1.4845938289331202,
                0.17898776772866878,
                0.037105688729662994
            ]
        },
        {
            "positions": [
                -0.12613754057848287,
                -2.2444689367195068,
                -2.425464486186122,
                1.419868721464369,
                0.2137437015741917,
                0.09522752776253401
            ]
        },
        {
            "positions": [
                -0.06680561694269005,
                -2.210132401297488,
                -2.466106983837516,
                1.355143613995618,
                0.24849963541971462,
                0.15334936679540503
            ]
        },
        {
            "positions": [
                0.009866408025268322,
                -2.1771402894899827,
                -2.3484794228997137,
                1.2949552235461144,
                0.2704093038675271,
                0.23184653999252075
            ]
        },
        {
            "positions": [
                0.0865384329932267,
                -2.144148177682477,
                -2.230851861961911,
                1.2347668330966106,
                0.2923189723153396,
                0.3103437131896365
            ]
        },
        {
            "positions": [
                0.16321045796118505,
                -2.111156065874972,
                -2.113224301024109,
                1.174578442647107,
                0.31422864076315205,
                0.3888408863867522
            ]
        },
        {
            "positions": [
                0.23988248292914344,
                -2.0781639540674663,
                -1.9955967400863066,
                1.1143900521976036,
                0.33613830921096455,
                0.46733805958386787
            ]
        },
        {
            "positions": [
                0.3165545078971018,
                -2.045171842259961,
                -1.8779691791485043,
                1.0542016617480998,
                0.35804797765877705,
                0.5458352327809837
            ]
        },
        {
            "positions": [
                0.39322653286506015,
                -2.012179730452456,
                -1.760341618210702,
                0.9940132712985963,
                0.37995764610658955,
                0.6243324059780994
            ]
        },
        {
            "positions": [
                0.4698985578330185,
                -1.9791876186449504,
                -1.6427140572728995,
                0.9338248808490928,
                0.401867314554402,
                0.702829579175215
            ]
        },
        {
            "positions": [
                0.5465705828009769,
                -1.9461955068374452,
                -1.5250864963350974,
                0.8736364903995892,
                0.42377698300221445,
                0.7813267523723307
            ]
        },
        {
            "positions": [
                0.6232426077689353,
                -1.9132033950299399,
                -1.407458935397295,
                0.8134480999500856,
                0.44568665145002695,
                0.8598239255694464
            ]
        },
        {
            "positions": [
                0.6999146327368937,
                -1.8802112832224345,
                -1.2898313744594927,
                0.753259709500582,
                0.46759631989783945,
                0.9383210987665622
            ]
        },
        {
            "positions": [
                0.7765866577048519,
                -1.8472191714149293,
                -1.1722038135216906,
                0.6930713190510784,
                0.48950598834565195,
                1.016818271963678
            ]
        },
        {
            "positions": [
                0.8532586826728104,
                -1.8142270596074237,
                -1.054576252583888,
                0.6328829286015748,
                0.5114156567934645,
                1.0953154451607938
            ]
        },
        {
            "positions": [
                0.9299307076407687,
                -1.7812349477999185,
                -0.9369486916460859,
                0.5726945381520713,
                0.5333253252412768,
                1.1738126183579094
            ]
        },
        {
            "positions": [
                1.006602732608727,
                -1.7482428359924131,
                -0.8193211307082835,
                0.5125061477025676,
                0.5552349936890894,
                1.2523097915550252
            ]
        },
        {
            "positions": [
                1.0832747575766855,
                -1.7152507241849078,
                -0.7016935697704811,
                0.4523177572530641,
                0.5771446621369019,
                1.3308069647521408
            ]
        },
        {
            "positions": [
                1.159946782544644,
                -1.6822586123774026,
                -0.5840660088326788,
                0.3921293668035605,
                0.5990543305847144,
                1.4093041379492566
            ]
        },
        {
            "positions": [
                1.2366188075126021,
                -1.649266500569897,
                -0.46643844789487665,
                0.33194097635405684,
                0.6209639990325269,
                1.4878013111463724
            ]
        },
        {
            "positions": [
                1.3132908324805606,
                -1.6162743887623918,
                -0.3488108869570743,
                0.2717525859045533,
                0.6428736674803393,
                1.566298484343488
            ]
        },
        {
            "positions": [
                1.389962857448519,
                -1.5832822769548864,
                -0.23118332601927172,
                0.21156419545504956,
                0.6647833359281519,
                1.644795657540604
            ]
        },
        {
            "positions": [
                1.4666348824164774,
                -1.550290165147381,
                -0.11355576508146958,
                0.15137580500554604,
                0.6866930043759643,
                1.7232928307377195
            ]
        },
        {
            "positions": [
                1.5433069073844357,
                -1.5172980533398759,
                0.00407179585633255,
                0.09118741455604251,
                0.7086026728237768,
                1.8017900039348351
            ]
        },
        {
            "positions": [
                1.6199789323523939,
                -1.4843059415323705,
                0.12169935679413468,
                0.030999024106538986,
                0.7305123412715893,
                1.880287177131951
            ]
        },
        {
            "positions": [
                1.6966509573203525,
                -1.4513138297248651,
                0.23932691773193726,
                -0.029189366342964762,
                0.7524220097194018,
                1.9587843503290667
            ]
        },
        {
            "positions": [
                1.7733229822883108,
                -1.4183217179173597,
                0.35695447866973984,
                -0.08937775679246829,
                0.7743316781672143,
                2.0372815235261825
            ]
        },
        {
            "positions": [
                1.8499950072562692,
                -1.3853296061098543,
                0.47458203960754197,
                -0.14956614724197181,
                0.7962413466150267,
                2.115778696723298
            ]
        },
        {
            "positions": [
                1.9266670322242274,
                -1.3523374943023492,
                0.5922096005453441,
                -0.20975453769147534,
                0.8181510150628392,
                2.1942758699204137
            ]
        },
        {
            "positions": [
                2.0033390571921856,
                -1.3193453824948436,
                0.7098371614831467,
                -0.2699429281409791,
                0.8400606835106517,
                2.2727730431175295
            ]
        },
        {
            "positions": [
                2.0800110821601443,
                -1.2863532706873384,
                0.8274647224209488,
                -0.3301313185904826,
                0.8619703519584642,
                2.3512702163146453
            ]
        },
        {
            "positions": [
                2.156683107128103,
                -1.253361158879833,
                0.945092283358751,
                -0.39031970903998614,
                0.8838800204062767,
                2.429767389511761
            ]
        },
        {
            "positions": [
                2.2333551320960607,
                -1.2203690470723276,
                1.0627198442965535,
                -0.45050809948948967,
                0.9057896888540891,
                2.5082645627088764
            ]
        },
        {
            "positions": [
                2.3100271570640194,
                -1.1873769352648222,
                1.180347405234356,
                -0.5106964899389934,
                0.9276993573019017,
                2.5867617359059927
            ]
        },
        {
            "positions": [
                2.386699182031978,
                -1.154384823457317,
                1.2979749661721582,
                -0.5708848803884969,
                0.9496090257497141,
                2.665258909103108
            ]
        },
        {
            "positions": [
                2.4633712069999363,
                -1.1213927116498117,
                1.4156025271099604,
                -0.6310732708380005,
                0.9715186941975266,
                2.743756082300224
            ]
        },
        {
            "positions": [
                2.5039817899382055,
                -1.0945765238686997,
                1.5178526997977109,
                -0.6693545697304784,
                0.9904101739408671,
                2.8558506821925356
            ]
        },
        {
            "positions": [
                2.5445923728764743,
                -1.0677603360875878,
                1.6201028724854616,
                -0.7076358686229564,
                1.0093016536842077,
                2.967945282084847
            ]
        },
        {
            "positions": [
                2.5852029558147436,
                -1.040944148306476,
                1.7223530451732123,
                -0.7459171675154344,
                1.028193133427548,
                3.080039881977158
            ]
        },
        {
            "positions": [
                2.625813538753013,
                -1.0141279605253641,
                1.8246032178609628,
                -0.7841984664079122,
                1.0470846131708886,
                3.19213448186947
            ]
        }
    ]
}