{
    "goal": {
        "global_pose": {
            "orientation": {
                "w": 0.005598929693374612,
                "x": 0.007748599140229565,
                "y": 0.7110244013736278,
                "z": -0.7031023480610252
            },
            "position": {
                "x": 0.1141497679147869,
                "y": -0.7141253447532654,
                "z": 0.3711530566215515
            }
        },
        "name": "move_to_auspresseinheit_B"
    },
    "id": "FMT_move_to_auspresseinheit_B_94",
    "joint_names": [
        "shoulder_pan_joint",
        "shoulder_lift_joint",
        "elbow_joint",
        "wrist_1_joint",
        "wrist_2_joint",
        "wrist_3_joint"
    ],
    "metrics": {
        "cart_traj_len": 0.5642994948172312,
        "distance_elbow_joint": 0.05993117216611954,
        "distance_shoulder_lift_joint": 0.2958471663758928,
        "distance_shoulder_pan_joint": 0.578988871061062,
        "distance_wrist_1_joint": 0.3229910532152406,
        "distance_wrist_2_joint": 0.9847531330457708,
        "distance_wrist_3_joint": 0.006973401237113652,
        "smoothness": 5.075305255429287e-16,
        "time": 0.467208868,
        "traj_len": 1.4998282558683842,
        "weighted_distance": 1.889755483081459
    },
    "planner": "FMT",
    "start": {
        "state": {
            "elbow_joint": 2.0193083361928714,
            "shoulder_lift_joint": -1.1220246554650708,
            "shoulder_pan_joint": -1.0952077554168747,
            "wrist_1_joint": -0.8559753972642168,
            "wrist_2_joint": 0.4759566250798843,
            "wrist_3_joint": -3.1240929996934557
        }
    },
    "waypoints": [
        {
            "positions": [
                -1.0952077554168747,
                -1.1220246554650708,
                2.0193083361928714,
                -0.8559753972642168,
                0.4759566250798843,
                -3.1240929996934557
            ]
        },
        {
            "positions": [
                -1.1917059005937183,
                -1.1713325165277195,
                2.0093198074985184,
                -0.8021435550616767,
                0.6400821472541794,
                -3.1252552332329744
            ]
        },
        {
            "positions": [
                -1.288204045770562,
                -1.2206403775903685,
                1.9993312788041648,
                -0.7483117128591366,
                0.8042076694284745,
                -3.1264174667724935
            ]
        },
        {
            "positions": [
                -1.3847021909474058,
                -1.2699482386530172,
                1.9893427501098118,
                -0.6944798706565964,
                0.9683331916027698,
                -3.1275797003120127
            ]
        },
        {
            "positions": [
                -1.4812003361242492,
                -1.319256099715666,
                1.9793542214154585,
                -0.6406480284540564,
                1.1324587137770648,
                -3.1287419338515314
            ]
        },
        {
            "positions": [
                -1.577698481301093,
                -1.3685639607783149,
                1.9693656927211052,
                -0.5868161862515162,
                1.29658423595136,
                -3.12990416739105
            ]
        },
        {
            "positions": [
                -1.6741966264779367,
                -1.4178718218409636,
                1.9593771640267519,
                -0.5329843440489762,
                1.4607097581256552,
                -3.1310664009305693
            ]
        }
    ]
}