{
    "goal": {
        "global_pose": {
            "orientation": {
                "w": 0.7047431493862688,
                "x": -0.7094548369677653,
                "y": 0.0024358444001904,
                "z": -0.0022348060817251984
            },
            "position": {
                "x": -0.39052492380142206,
                "y": 0.3671506643295288,
                "z": 0.19426114857196808
            }
        },
        "name": "move_to_magneteinheit_D"
    },
    "id": "FMT_move_to_magneteinheit_D_141",
    "joint_names": [
        "shoulder_pan_joint",
        "shoulder_lift_joint",
        "elbow_joint",
        "wrist_1_joint",
        "wrist_2_joint",
        "wrist_3_joint"
    ],
    "metrics": {
        "cart_traj_len": 4.0502621915343395,
        "distance_elbow_joint": 3.380019017031123,
        "distance_shoulder_lift_joint": 1.6214756360914229,
        "distance_shoulder_pan_joint": 3.9976613500128266,
        "distance_wrist_1_joint": 3.8973749139698803,
        "distance_wrist_2_joint": 1.3546361940160705,
        "distance_wrist_3_joint": 6.329982598571185,
        "smoothness": 0.29306070641939236,
        "time": 1.484675193,
        "traj_len": 4.536645204299375,
        "weighted_distance": 6.204282876757057
    },
    "planner": "FMT",
    "start": {
        "state": {
            "elbow_joint": 0.749534889911806,
            "shoulder_lift_joint": -0.6476975780787326,
            "shoulder_pan_joint": -2.711696901376241,
            "wrist_1_joint": -0.07506478083263063,
            "wrist_2_joint": 0.43296659715538205,
            "wrist_3_joint": -3.14703540197715
        }
    },
    "waypoints": [
        {
            "positions": [
                -2.711696901376241,
                -0.6476975780787326,
                0.749534889911806,
                -0.07506478083263063,
                0.43296659715538205,
                -3.14703540197715
            ]
        },
        {
            "positions": [
                -2.7134643659658404,
                -0.6448644778336261,
                0.7573398710395794,
                -0.1351679173878283,
                0.29508565954382915,
                -3.026202463535389
            ]
        },
        {
            "positions": [
                -2.7152318305554397,
                -0.6420313775885196,
                0.765144852167353,
                -0.195271053943026,
                0.1572047219322763,
                -2.9053695250936276
            ]
        },
        {
            "positions": [
                -2.7169992951450395,
                -0.6391982773434131,
                0.7729498332951265,
                -0.2553741904982237,
                0.019323784320723403,
                -2.7845365866518668
            ]
        },
        {
            "positions": [
                -2.7187667597346388,
                -0.6363651770983065,
                0.7807548144229,
                -0.31547732705342135,
                -0.11855715329082944,
                -2.6637036482101055
            ]
        },
        {
            "positions": [
                -2.676585483838972,
                -0.671304400511319,
                0.7414181545611918,
                -0.39329426327754674,
                -0.13970741060740038,
                -2.5158170533400916
            ]
        },
        {
            "positions": [
                -2.6344042079433057,
                -0.7062436239243315,
                0.7020814946994836,
                -0.47111119950167213,
                -0.1608576679239713,
                -2.367930458470078
            ]
        },
        {
            "positions": [
                -2.5922229320476395,
                -0.741182847337344,
                0.6627448348377754,
                -0.5489281357257976,
                -0.1820079252405422,
                -2.220043863600065
            ]
        },
        {
            "positions": [
                -2.550041656151973,
                -0.7761220707503564,
                0.6234081749760672,
                -0.6267450719499229,
                -0.20315818255711315,
                -2.072157268730051
            ]
        },
        {
            "positions": [
                -2.5078603802563064,
                -0.8110612941633689,
                0.584071515114359,
                -0.7045620081740482,
                -0.2243084398736841,
                -1.9242706738600373
            ]
        },
        {
            "positions": [
                -2.46567910436064,
                -0.8460005175763814,
                0.5447348552526508,
                -0.7823789443981737,
                -0.245458697190255,
                -1.7763840789900236
            ]
        },
        {
            "positions": [
                -2.4234978284649733,
                -0.8809397409893939,
                0.5053981953909426,
                -0.860195880622299,
                -0.266608954506826,
                -1.62849748412001
            ]
        },
        {
            "positions": [
                -2.3813165525693067,
                -0.9158789644024063,
                0.46606153552923424,
                -0.9380128168464245,
                -0.2877592118233969,
                -1.4806108892499963
            ]
        },
        {
            "positions": [
                -2.3391352766736406,
                -0.9508181878154188,
                0.42672487566752604,
                -1.01582975307055,
                -0.30890946913996786,
                -1.3327242943799826
            ]
        },
        {
            "positions": [
                -2.296954000777974,
                -0.9857574112284313,
                0.38738821580581784,
                -1.0936466892946752,
                -0.33005972645653875,
                -1.184837699509969
            ]
        },
        {
            "positions": [
                -2.2022783120569764,
                -0.977441423043379,
                0.2924372615120935,
                -1.1604955280124662,
                -0.33746399028490903,
                -1.0709630153480587
            ]
        },
        {
            "positions": [
                -2.107602623335979,
                -0.9691254348583267,
                0.19748630721836907,
                -1.227344366730257,
                -0.3448682541132793,
                -0.9570883311861484
            ]
        },
        {
            "positions": [
                -2.0129269346149807,
                -0.9608094466732744,
                0.10253535292464466,
                -1.294193205448048,
                -0.3522725179416496,
                -0.8432136470242382
            ]
        },
        {
            "positions": [
                -1.918251245893983,
                -0.9524934584882222,
                0.007584398630920308,
                -1.3610420441658388,
                -0.35967678177001994,
                -0.7293389628623279
            ]
        },
        {
            "positions": [
                -1.8235755571729855,
                -0.9441774703031699,
                -0.08736655566280405,
                -1.4278908828836299,
                -0.3670810455983902,
                -0.6154642787004176
            ]
        },
        {
            "positions": [
                -1.7288998684519876,
                -0.9358614821181176,
                -0.1823175099565285,
                -1.4947397216014207,
                -0.3744853094267605,
                -0.5015895945385074
            ]
        },
        {
            "positions": [
                -1.6342241797309898,
                -0.9275454939330653,
                -0.27726846425025287,
                -1.5615885603192117,
                -0.3818895732551308,
                -0.3877149103765971
            ]
        },
        {
            "positions": [
                -1.5395484910099921,
                -0.919229505748013,
                -0.3722194185439772,
                -1.6284373990370025,
                -0.38929383708350107,
                -0.27384022621468684
            ]
        },
        {
            "positions": [
                -1.4448728022889945,
                -0.9109135175629607,
                -0.4671703728377016,
                -1.6952862377547935,
                -0.3966981009118714,
                -0.15996554205277658
            ]
        },
        {
            "positions": [
                -1.3501971135679969,
                -0.9025975293779084,
                -0.5621213271314259,
                -1.7621350764725843,
                -0.40410236474024164,
                -0.04609085789086631
            ]
        },
        {
            "positions": [
                -1.255521424846999,
                -0.8942815411928562,
                -0.6570722814251503,
                -1.828983915190375,
                -0.411506628568612,
                0.06778382627104396
            ]
        },
        {
            "positions": [
                -1.1608457361260012,
                -0.8859655530078039,
                -0.7520232357188749,
                -1.895832753908166,
                -0.41891089239698226,
                0.18165851043295422
            ]
        },
        {
            "positions": [
                -1.0661700474050035,
                -0.8776495648227516,
                -0.8469741900125992,
                -1.962681592625957,
                -0.42631515622535254,
                0.2955331945948645
            ]
        },
        {
            "positions": [
                -0.9714943586840057,
                -0.8693335766376993,
                -0.9419251443063236,
                -2.029530431343748,
                -0.4337194200537228,
                0.40940787875677476
            ]
        },
        {
            "positions": [
                -0.8768186699630081,
                -0.861017588452647,
                -1.036876098600048,
                -2.096379270061539,
                -0.4411236838820931,
                0.523282562918685
            ]
        },
        {
            "positions": [
                -0.7821429812420104,
                -0.8527016002675947,
                -1.1318270528937724,
                -2.1632281087793297,
                -0.44852794771046345,
                0.6371572470805953
            ]
        },
        {
            "positions": [
                -0.6874672925210126,
                -0.8443856120825424,
                -1.2267780071874967,
                -2.2300769474971207,
                -0.45593221153883373,
                0.7510319312425056
            ]
        },
        {
            "positions": [
                -0.5927916038000149,
                -0.8360696238974901,
                -1.321728961481221,
                -2.2969257862149117,
                -0.463336475367204,
                0.8649066154044158
            ]
        },
        {
            "positions": [
                -0.4981159150790173,
                -0.8277536357124378,
                -1.4166799157749455,
                -2.3637746249327023,
                -0.4707407391955743,
                0.9787812995663261
            ]
        },
        {
            "positions": [
                -0.40344022635801946,
                -0.8194376475273856,
                -1.5116308700686698,
                -2.4306234636504933,
                -0.4781450030239446,
                1.0926559837282364
            ]
        },
        {
            "positions": [
                -0.30876453763702183,
                -0.8111216593423333,
                -1.6065818243623942,
                -2.4974723023682843,
                -0.4855492668523149,
                1.2065306678901466
            ]
        },
        {
            "positions": [
                -0.21408884891602398,
                -0.802805671157281,
                -1.7015327786561185,
                -2.564321141086075,
                -0.49295353068068515,
                1.320405352052057
            ]
        },
        {
            "positions": [
                -0.1194131601950259,
                -0.7944896829722287,
                -1.7964837329498433,
                -2.6311699798038664,
                -0.5003577945090555,
                1.4342800362139672
            ]
        },
        {
            "positions": [
                -0.024737471474028272,
                -0.7861736947871764,
                -1.8914346872435677,
                -2.698018818521657,
                -0.5077620583374258,
                1.5481547203758774
            ]
        },
        {
            "positions": [
                0.06993821724696936,
                -0.777857706602124,
                -1.986385641537292,
                -2.7648676572394484,
                -0.515166322165796,
                1.6620294045377877
            ]
        },
        {
            "positions": [
                0.164613905967967,
                -0.7695417184170719,
                -2.0813365958310164,
                -2.831716495957239,
                -0.5225705859941664,
                1.775904088699698
            ]
        },
        {
            "positions": [
                0.2592895946889646,
                -0.7612257302320196,
                -2.1762875501247407,
                -2.89856533467503,
                -0.5299748498225366,
                1.8897787728616082
            ]
        },
        {
            "positions": [
                0.3539652834099627,
                -0.7529097420469673,
                -2.271238504418465,
                -2.965414173392821,
                -0.537379113650907,
                2.0036534570235185
            ]
        },
        {
            "positions": [
                0.4486409721309603,
                -0.744593753861915,
                -2.3661894587121894,
                -3.0322630121106116,
                -0.5447833774792772,
                2.1175281411854288
            ]
        },
        {
            "positions": [
                0.543316660851958,
                -0.7362777656768626,
                -2.461140413005914,
                -3.0991118508284026,
                -0.5521876413076475,
                2.231402825347339
            ]
        },
        {
            "positions": [
                0.47708865439124604,
                -0.8282115252613448,
                -2.451421879815803,
                -3.01971841046712,
                -0.5185983726210074,
                2.3179068590970386
            ]
        },
        {
            "positions": [
                0.41086064793053406,
                -0.9201452848458269,
                -2.441703346625693,
                -2.9403249701058374,
                -0.48500910393436736,
                2.4044108928467383
            ]
        },
        {
            "positions": [
                0.3446326414698221,
                -1.012079044430309,
                -2.4319848134355824,
                -2.860931529744555,
                -0.4514198352477272,
                2.4909149265964374
            ]
        },
        {
            "positions": [
                0.27840463500911017,
                -1.1040128040147912,
                -2.4222662802454717,
                -2.781538089383272,
                -0.41783056656108714,
                2.577418960346137
            ]
        },
        {
            "positions": [
                0.2121766285483982,
                -1.1959465635992732,
                -2.4125477470553616,
                -2.7021446490219896,
                -0.38424129787444705,
                2.6639229940958367
            ]
        },
        {
            "positions": [
                0.14594862208768627,
                -1.2878803231837552,
                -2.402829213865251,
                -2.622751208660707,
                -0.35065202918780697,
                2.7504270278455363
            ]
        },
        {
            "positions": [
                0.0797206156269743,
                -1.3798140827682375,
                -2.3931106806751408,
                -2.5433577682994244,
                -0.3170627605011669,
                2.836931061595236
            ]
        },
        {
            "positions": [
                0.013492609166262381,
                -1.4717478423527197,
                -2.38339214748503,
                -2.463964327938142,
                -0.28347349181452675,
                2.923435095344935
            ]
        },
        {
            "positions": [
                -0.05273539729444965,
                -1.5636816019372017,
                -2.3736736142949195,
                -2.384570887576859,
                -0.24988422312788666,
                3.0099391290946347
            ]
        },
        {
            "positions": [
                -0.11896340375516157,
                -1.6556153615216838,
                -2.3639550811048093,
                -2.3051774472155766,
                -0.21629495444124658,
                3.0964431628443343
            ]
        },
        {
            "positions": [
                -0.1851914102158735,
                -1.747549121106166,
                -2.3542365479146987,
                -2.225784006854294,
                -0.1827056857546065,
                3.182947196594034
            ]
        }
    ]
}