{
    "goal": {
        "global_pose": {
            "orientation": {
                "w": 0.5084816262002911,
                "x": -0.4908360881923452,
                "y": 0.5182115481033761,
                "z": -0.48164630358495003
            },
            "position": {
                "x": 0.5540239810943604,
                "y": -0.46912469901144505,
                "z": 0.16403168439865112
            }
        },
        "name": "move_to_storage_B"
    },
    "id": "FMT_move_to_storage_B_8",
    "joint_names": [
        "shoulder_pan_joint",
        "shoulder_lift_joint",
        "elbow_joint",
        "wrist_1_joint",
        "wrist_2_joint",
        "wrist_3_joint"
    ],
    "metrics": {
        "cart_traj_len": 1.0819608893809762,
        "distance_elbow_joint": 0.4755022362194157,
        "distance_shoulder_lift_joint": 0.6429394194854376,
        "distance_shoulder_pan_joint": 0.7921409496826474,
        "distance_wrist_1_joint": 2.990964738429637,
        "distance_wrist_2_joint": 2.7032349823277007,
        "distance_wrist_3_joint": 3.90459292596686,
        "smoothness": 0.2412361480246876,
        "time": 1.324529908,
        "traj_len": 3.392547015460758,
        "weighted_distance": 5.001275919683171
    },
    "planner": "FMT",
    "start": {
        "state": {
            "elbow_joint": 1.664937868594044,
            "shoulder_lift_joint": -0.661644460510453,
            "shoulder_pan_joint": -0.9139846352900073,
            "wrist_1_joint": 2.146753192139373,
            "wrist_2_joint": -2.2341966793290973,
            "wrist_3_joint": 0.005466555786416001
        }
    },
    "waypoints": [
        {
            "positions": [
                -0.9139846352900073,
                -0.661644460510453,
                1.664937868594044,
                2.146753192139373,
                -2.2341966793290973,
                0.005466555786416001
            ]
        },
        {
            "positions": [
                -0.8704043784971697,
                -0.7404569064062992,
                1.7239660770925944,
                2.105776388755788,
                -2.1683265990069858,
                0.06016179848359027
            ]
        },
        {
            "positions": [
                -0.826824121704332,
                -0.8192693523021456,
                1.7829942855911447,
                2.064799585372203,
                -2.102456518684874,
                0.11485704118076454
            ]
        },
        {
            "positions": [
                -0.7832438649114943,
                -0.8980817981979918,
                1.8420224940896952,
                2.023822781988618,
                -2.0365864383627623,
                0.1695522838779388
            ]
        },
        {
            "positions": [
                -0.7396636081186566,
                -0.9768942440938382,
                1.9010507025882457,
                1.9828459786050325,
                -1.9707163580406506,
                0.22424752657511307
            ]
        },
        {
            "positions": [
                -0.696083351325819,
                -1.0557066899896843,
                1.960078911086796,
                1.9418691752214472,
                -1.9048462777185389,
                0.2789427692722874
            ]
        },
        {
            "positions": [
                -0.6525030945329813,
                -1.1345191358855307,
                2.0191071195853465,
                1.900892371837862,
                -1.8389761973964271,
                0.33363801196946163
            ]
        },
        {
            "positions": [
                -0.6089228377401437,
                -1.213331581781377,
                2.078135328083897,
                1.859915568454277,
                -1.7731061170743154,
                0.38833325466663593
            ]
        },
        {
            "positions": [
                -0.6301001921806995,
                -1.209364090554659,
                2.075426424747829,
                1.742344824334949,
                -1.6756215770711451,
                0.23521472305417332
            ]
        },
        {
            "positions": [
                -0.6512775466212553,
                -1.205396599327941,
                2.0727175214117612,
                1.6247740802156212,
                -1.5781370370679746,
                0.08209619144171071
            ]
        },
        {
            "positions": [
                -0.672454901061811,
                -1.2014291081012232,
                2.0700086180756934,
                1.5072033360962935,
                -1.4806524970648043,
                -0.07102234017075193
            ]
        },
        {
            "positions": [
                -0.693632255502367,
                -1.1974616168745051,
                2.067299714739625,
                1.3896325919769654,
                -1.383167957061634,
                -0.2241408717832145
            ]
        },
        {
            "positions": [
                -0.7148096099429228,
                -1.1934941256477871,
                2.064590811403557,
                1.2720618478576378,
                -1.2856834170584635,
                -0.3772594033956772
            ]
        },
        {
            "positions": [
                -0.7359869643834785,
                -1.189526634421069,
                2.0618819080674893,
                1.1544911037383099,
                -1.1881988770552931,
                -0.5303779350081398
            ]
        },
        {
            "positions": [
                -0.7571643188240343,
                -1.185559143194351,
                2.0591730047314214,
                1.036920359618982,
                -1.0907143370521228,
                -0.6834964666206026
            ]
        },
        {
            "positions": [
                -0.7783416732645901,
                -1.181591651967633,
                2.0564641013953535,
                0.9193496154996541,
                -0.9932297970489524,
                -0.836614998233065
            ]
        },
        {
            "positions": [
                -0.799519027705146,
                -1.1776241607409152,
                2.0537551980592856,
                0.8017788713803262,
                -0.8957452570457819,
                -0.9897335298455278
            ]
        },
        {
            "positions": [
                -0.8206963821457018,
                -1.1736566695141972,
                2.0510462947232178,
                0.6842081272609983,
                -0.7982607170426116,
                -1.1428520614579902
            ]
        },
        {
            "positions": [
                -0.8418737365862576,
                -1.1696891782874792,
                2.04833739138715,
                0.5666373831416704,
                -0.7007761770394412,
                -1.2959705930704528
            ]
        },
        {
            "positions": [
                -0.8630510910268134,
                -1.1657216870607612,
                2.0456284880510816,
                0.4490666390223428,
                -0.6032916370362709,
                -1.4490891246829154
            ]
        },
        {
            "positions": [
                -0.8842284454673692,
                -1.1617541958340432,
                2.0429195847150137,
                0.3314958949030149,
                -0.5058070970331006,
                -1.602207656295378
            ]
        },
        {
            "positions": [
                -0.905405799907925,
                -1.1577867046073251,
                2.040210681378946,
                0.2139251507836868,
                -0.40832255702993003,
                -1.755326187907841
            ]
        },
        {
            "positions": [
                -0.9265831543484808,
                -1.1538192133806073,
                2.037501778042878,
                0.09635440666435913,
                -0.3108380170267597,
                -1.9084447195203031
            ]
        },
        {
            "positions": [
                -0.9477605087890366,
                -1.1498517221538893,
                2.03479287470681,
                -0.02121633745496876,
                -0.21335347702358942,
                -2.0615632511327657
            ]
        },
        {
            "positions": [
                -0.9689378632295924,
                -1.1458842309271713,
                2.032083971370742,
                -0.13878708157429642,
                -0.11586893702041912,
                -2.2146817827452283
            ]
        },
        {
            "positions": [
                -0.9901152176701484,
                -1.1419167397004533,
                2.0293750680346743,
                -0.25635782569362453,
                -0.018384397017248366,
                -2.3678003143576913
            ]
        },
        {
            "positions": [
                -1.0112925721107042,
                -1.1379492484737352,
                2.0266661646986064,
                -0.3739285698129522,
                0.07910014298592194,
                -2.520918845970154
            ]
        },
        {
            "positions": [
                -1.03246992655126,
                -1.1339817572470174,
                2.023957261362538,
                -0.4914993139322803,
                0.17658468298909225,
                -2.6740373775826165
            ]
        },
        {
            "positions": [
                -1.0536472809918158,
                -1.1300142660202994,
                2.02124835802647,
                -0.609070058051608,
                0.27406922299226233,
                -2.8271559091950786
            ]
        },
        {
            "positions": [
                -1.0748246354323716,
                -1.1260467747935814,
                2.0185394546904023,
                -0.7266408021709361,
                0.3715537629954331,
                -2.9802744408075417
            ]
        },
        {
            "positions": [
                -1.0960019898729274,
                -1.1220792835668634,
                2.0158305513543344,
                -0.8442115462902637,
                0.4690383029986032,
                -3.1333929724200043
            ]
        }
    ]
}