{
    "goal": {
        "global_pose": {
            "orientation": {
                "w": 0.7047431493862688,
                "x": -0.7094548369677653,
                "y": 0.0024358444001904,
                "z": -0.0022348060817251984
            },
            "position": {
                "x": -0.39052492380142206,
                "y": 0.3671506643295288,
                "z": 0.19426114857196808
            }
        },
        "name": "move_to_magneteinheit_D"
    },
    "id": "FMT_move_to_magneteinheit_D_9",
    "joint_names": [
        "shoulder_pan_joint",
        "shoulder_lift_joint",
        "elbow_joint",
        "wrist_1_joint",
        "wrist_2_joint",
        "wrist_3_joint"
    ],
    "metrics": {
        "cart_traj_len": 3.6599907599543497,
        "distance_elbow_joint": 3.247349947319206,
        "distance_shoulder_lift_joint": 1.6281365154242093,
        "distance_shoulder_pan_joint": 2.873172203719638,
        "distance_wrist_1_joint": 1.5427155908791719,
        "distance_wrist_2_joint": 0.3845404522931627,
        "distance_wrist_3_joint": 3.1923912080694716,
        "smoothness": 0.1654299262726894,
        "time": 1.514603503,
        "traj_len": 3.5872421046961493,
        "weighted_distance": 4.6022108140562334
    },
    "planner": "FMT",
    "start": {
        "state": {
            "elbow_joint": 0.749534889911806,
            "shoulder_lift_joint": -0.6476975780787326,
            "shoulder_pan_joint": -2.711696901376241,
            "wrist_1_joint": -0.07506478083263063,
            "wrist_2_joint": 0.43296659715538205,
            "wrist_3_joint": -3.14703540197715
        }
    },
    "waypoints": [
        {
            "positions": [
                -2.711696901376241,
                -0.6476975780787326,
                0.749534889911806,
                -0.07506478083263063,
                0.43296659715538205,
                -3.14703540197715
            ]
        },
        {
            "positions": [
                -2.7245523627067794,
                -0.7049511505892923,
                0.5671997241681379,
                -0.0401651059026596,
                0.4140635095814861,
                -3.0825057516986227
            ]
        },
        {
            "positions": [
                -2.7374078240373176,
                -0.7622047230998518,
                0.38486455842446987,
                -0.005265430972688567,
                0.39516042200759016,
                -3.017976101420095
            ]
        },
        {
            "positions": [
                -2.637489807896649,
                -0.7879612028228482,
                0.2760847347833061,
                0.04590238370201914,
                0.3843991039380187,
                -2.928148523321853
            ]
        },
        {
            "positions": [
                -2.53757179175598,
                -0.8137176825458448,
                0.16730491114214233,
                0.09707019837672684,
                0.37363778586844726,
                -2.8383209452236113
            ]
        },
        {
            "positions": [
                -2.4376537756153116,
                -0.8394741622688412,
                0.05852508750097857,
                0.14823801305143455,
                0.36287646779887583,
                -2.7484933671253695
            ]
        },
        {
            "positions": [
                -2.337735759474643,
                -0.8652306419918376,
                -0.05025473614018522,
                0.19940582772614227,
                0.35211514972930436,
                -2.6586657890271277
            ]
        },
        {
            "positions": [
                -2.237817743333974,
                -0.8909871217148342,
                -0.15903455978134895,
                0.25057364240084995,
                0.3413538316597329,
                -2.568838210928886
            ]
        },
        {
            "positions": [
                -2.1378997271933056,
                -0.9167436014378306,
                -0.26781438342251274,
                0.30174145707555766,
                0.33059251359016145,
                -2.479010632830644
            ]
        },
        {
            "positions": [
                -2.037981711052637,
                -0.9425000811608271,
                -0.3765942070636764,
                0.3529092717502653,
                0.31983119552059003,
                -2.3891830547324022
            ]
        },
        {
            "positions": [
                -1.9380636949119683,
                -0.9682565608838236,
                -0.4853740307048403,
                0.4040770864249731,
                0.30906987745101855,
                -2.2993554766341604
            ]
        },
        {
            "positions": [
                -1.8381456787712995,
                -0.99401304060682,
                -0.594153854346004,
                0.45524490109968074,
                0.29830855938144707,
                -2.2095278985359186
            ]
        },
        {
            "positions": [
                -1.738227662630631,
                -1.0197695203298165,
                -0.7029336779871678,
                0.5064127157743884,
                0.28754724131187565,
                -2.1197003204376768
            ]
        },
        {
            "positions": [
                -1.6383096464899622,
                -1.045526000052813,
                -0.8117135016283314,
                0.5575805304490961,
                0.2767859232423042,
                -2.029872742339435
            ]
        },
        {
            "positions": [
                -1.5383916303492935,
                -1.0712824797758096,
                -0.9204933252694953,
                0.6087483451238038,
                0.26602460517273274,
                -1.940045164241193
            ]
        },
        {
            "positions": [
                -1.438473614208625,
                -1.097038959498806,
                -1.029273148910659,
                0.6599161597985115,
                0.25526328710316126,
                -1.8502175861429513
            ]
        },
        {
            "positions": [
                -1.3385555980679564,
                -1.1227954392218025,
                -1.1380529725518227,
                0.7110839744732191,
                0.24450196903358984,
                -1.7603900080447095
            ]
        },
        {
            "positions": [
                -1.2386375819272877,
                -1.1485519189447988,
                -1.2468327961929864,
                0.7622517891479268,
                0.23374065096401841,
                -1.6705624299464679
            ]
        },
        {
            "positions": [
                -1.138719565786619,
                -1.1743083986677954,
                -1.3556126198341505,
                0.8134196038226347,
                0.22297933289444694,
                -1.5807348518482258
            ]
        },
        {
            "positions": [
                -1.0388015496459502,
                -1.200064878390792,
                -1.4643924434753142,
                0.8645874184973423,
                0.21221801482487548,
                -1.490907273749984
            ]
        },
        {
            "positions": [
                -0.9388835335052816,
                -1.2258213581137882,
                -1.5731722671164778,
                0.91575523317205,
                0.20145669675530403,
                -1.4010796956517422
            ]
        },
        {
            "positions": [
                -0.8389655173646131,
                -1.2515778378367848,
                -1.6819520907576415,
                0.9669230478467576,
                0.19069537868573258,
                -1.3112521175535004
            ]
        },
        {
            "positions": [
                -0.7390475012239441,
                -1.2773343175597813,
                -1.7907319143988054,
                1.0180908625214655,
                0.17993406061616113,
                -1.2214245394552585
            ]
        },
        {
            "positions": [
                -0.6391294850832754,
                -1.3030907972827777,
                -1.8995117380399693,
                1.0692586771961732,
                0.16917274254658968,
                -1.1315969613570167
            ]
        },
        {
            "positions": [
                -0.5392114689426069,
                -1.3288472770057744,
                -2.0082915616811325,
                1.1204264918708808,
                0.15841142447701823,
                -1.0417693832587749
            ]
        },
        {
            "positions": [
                -0.4392934528019383,
                -1.3546037567287708,
                -2.117071385322297,
                1.1715943065455885,
                0.14765010640744677,
                -0.9519418051605331
            ]
        },
        {
            "positions": [
                -0.33937543666126935,
                -1.3803602364517673,
                -2.2258512089634603,
                1.2227621212202964,
                0.13688878833787532,
                -0.8621142270622912
            ]
        },
        {
            "positions": [
                -0.23945742052060082,
                -1.4061167161747639,
                -2.334631032604624,
                1.273929935895004,
                0.12612747026830384,
                -0.7722866489640494
            ]
        },
        {
            "positions": [
                -0.1395394043799325,
                -1.4318731958977602,
                -2.443410856245788,
                1.3250977505697117,
                0.11536615219873243,
                -0.6824590708658077
            ]
        },
        {
            "positions": [
                -0.08898287182644486,
                -1.5440817798554045,
                -2.438206629031148,
                1.3671790235853458,
                0.12363838474076569,
                -0.5598572291139765
            ]
        },
        {
            "positions": [
                -0.038426339272957216,
                -1.656290363813049,
                -2.433002401816508,
                1.4092602966009797,
                0.13191061728279896,
                -0.4372553873621454
            ]
        },
        {
            "positions": [
                -0.07554628834650727,
                -1.8111762962355222,
                -2.4220034651334252,
                1.4238579249623702,
                0.14450950284591058,
                -0.3166025889985287
            ]
        },
        {
            "positions": [
                -0.11266623742005732,
                -1.9660622286579956,
                -2.411004528450342,
                1.4384555533237604,
                0.15710838840902222,
                -0.19594979063491202
            ]
        },
        {
            "positions": [
                -0.14978618649360737,
                -2.120948161080469,
                -2.4000055917672585,
                1.4530531816851506,
                0.16970727397213387,
                -0.07529699227129533
            ]
        },
        {
            "positions": [
                -0.18690613556715743,
                -2.275834093502942,
                -2.3890066550841755,
                1.467650810046541,
                0.18230615953524548,
                0.04535580609232135
            ]
        }
    ]
}