{
    "goal": {
        "global_pose": {
            "orientation": {
                "w": 0.7047431493862688,
                "x": -0.7094548369677653,
                "y": 0.0024358444001904,
                "z": -0.0022348060817251984
            },
            "position": {
                "x": -0.39052492380142206,
                "y": 0.3671506643295288,
                "z": 0.19426114857196808
            }
        },
        "name": "move_to_magneteinheit_D"
    },
    "id": "FMT_move_to_magneteinheit_D_44",
    "joint_names": [
        "shoulder_pan_joint",
        "shoulder_lift_joint",
        "elbow_joint",
        "wrist_1_joint",
        "wrist_2_joint",
        "wrist_3_joint"
    ],
    "metrics": {
        "cart_traj_len": 4.374834034654798,
        "distance_elbow_joint": 3.147237830431489,
        "distance_shoulder_lift_joint": 1.6747369411736484,
        "distance_shoulder_pan_joint": 2.8362291294664295,
        "distance_wrist_1_joint": 1.5556644028116846,
        "distance_wrist_2_joint": 0.6171955699875127,
        "distance_wrist_3_joint": 3.6698094045068506,
        "smoothness": 0.22094543296874017,
        "time": 1.533506876,
        "traj_len": 3.67435345038792,
        "weighted_distance": 4.797223369845364
    },
    "planner": "FMT",
    "start": {
        "state": {
            "elbow_joint": 0.749534889911806,
            "shoulder_lift_joint": -0.6476975780787326,
            "shoulder_pan_joint": -2.711696901376241,
            "wrist_1_joint": -0.07506478083263063,
            "wrist_2_joint": 0.43296659715538205,
            "wrist_3_joint": -3.14703540197715
        }
    },
    "waypoints": [
        {
            "positions": [
                -2.711696901376241,
                -0.6476975780787326,
                0.749534889911806,
                -0.07506478083263063,
                0.43296659715538205,
                -3.14703540197715
            ]
        },
        {
            "positions": [
                -2.707589136303442,
                -0.8339787813041952,
                0.6984179152244312,
                -0.09464775542656874,
                0.5280274561354473,
                -3.134310716969324
            ]
        },
        {
            "positions": [
                -2.6065362546473865,
                -0.8760605625930791,
                0.6088552583908429,
                -0.06697417982313744,
                0.523629423950078,
                -3.0147797190714662
            ]
        },
        {
            "positions": [
                -2.5054833729913315,
                -0.9181423438819629,
                0.5192926015572545,
                -0.03930060421970613,
                0.5192313917647088,
                -2.895248721173608
            ]
        },
        {
            "positions": [
                -2.404430491335276,
                -0.9602241251708468,
                0.4297299447236663,
                -0.011627028616274834,
                0.5148333595793395,
                -2.77571772327575
            ]
        },
        {
            "positions": [
                -2.303377609679221,
                -1.0023059064597306,
                0.340167287890078,
                0.016046546987156476,
                0.5104353273939702,
                -2.656186725377892
            ]
        },
        {
            "positions": [
                -2.2023247280231657,
                -1.0443876877486145,
                0.2506046310564897,
                0.04372012259058779,
                0.506037295208601,
                -2.536655727480034
            ]
        },
        {
            "positions": [
                -2.1012718463671103,
                -1.0864694690374983,
                0.16104197422290145,
                0.07139369819401907,
                0.5016392630232317,
                -2.417124729582176
            ]
        },
        {
            "positions": [
                -2.0002189647110553,
                -1.1285512503263821,
                0.07147931738931312,
                0.09906727379745038,
                0.49724123083786237,
                -2.297593731684318
            ]
        },
        {
            "positions": [
                -1.899166083055,
                -1.170633031615266,
                -0.018083339444275204,
                0.1267408494008817,
                0.4928431986524931,
                -2.1780627337864598
            ]
        },
        {
            "positions": [
                -1.798113201398945,
                -1.2127148129041498,
                -0.10764599627786342,
                0.15441442500431296,
                0.4884451664671238,
                -2.058531735888602
            ]
        },
        {
            "positions": [
                -1.6970603197428895,
                -1.2547965941930337,
                -0.19720865311145175,
                0.18208800060774433,
                0.4840471342817545,
                -1.9390007379907437
            ]
        },
        {
            "positions": [
                -1.5960074380868343,
                -1.2968783754819175,
                -0.2867713099450401,
                0.20976157621117558,
                0.4796491020963852,
                -1.8194697400928859
            ]
        },
        {
            "positions": [
                -1.4949545564307791,
                -1.3389601567708014,
                -0.3763339667786283,
                0.2374351518146069,
                0.47525106991101596,
                -1.6999387421950278
            ]
        },
        {
            "positions": [
                -1.393901674774724,
                -1.3810419380596852,
                -0.4658966236122166,
                0.2651087274180382,
                0.4708530377256467,
                -1.5804077442971698
            ]
        },
        {
            "positions": [
                -1.2928487931186687,
                -1.423123719348569,
                -0.555459280445805,
                0.2927823030214695,
                0.4664550055402774,
                -1.4608767463993118
            ]
        },
        {
            "positions": [
                -1.1917959114626135,
                -1.4652055006374527,
                -0.645021937279393,
                0.32045587862490077,
                0.46205697335490814,
                -1.341345748501454
            ]
        },
        {
            "positions": [
                -1.0907430298065581,
                -1.5072872819263368,
                -0.7345845941129816,
                0.34812945422833214,
                0.45765894116953887,
                -1.2218147506035957
            ]
        },
        {
            "positions": [
                -0.9896901481505029,
                -1.5493690632152206,
                -0.8241472509465697,
                0.3758030298317634,
                0.45326090898416954,
                -1.1022837527057376
            ]
        },
        {
            "positions": [
                -0.8886372664944477,
                -1.5914508445041042,
                -0.913709907780158,
                0.4034766054351947,
                0.44886287679880027,
                -0.9827527548078798
            ]
        },
        {
            "positions": [
                -0.7875843848383928,
                -1.633532625792988,
                -1.0032725646137464,
                0.43115018103862596,
                0.444464844613431,
                -0.863221756910022
            ]
        },
        {
            "positions": [
                -0.6865315031823371,
                -1.6756144070818721,
                -1.0928352214473347,
                0.4588237566420574,
                0.4400668124280617,
                -0.7436907590121633
            ]
        },
        {
            "positions": [
                -0.5854786215262822,
                -1.717696188370756,
                -1.182397878280923,
                0.4864973322454886,
                0.43566878024269245,
                -0.6241597611143055
            ]
        },
        {
            "positions": [
                -0.48442573987022675,
                -1.7597779696596396,
                -1.2719605351145113,
                0.5141709078489198,
                0.4312707480573232,
                -0.5046287632164477
            ]
        },
        {
            "positions": [
                -0.3833728582141718,
                -1.8018597509485235,
                -1.3615231919480995,
                0.5418444834523511,
                0.42687271587195386,
                -0.38509776531858986
            ]
        },
        {
            "positions": [
                -0.28231997655811636,
                -1.8439415322374073,
                -1.4510858487816878,
                0.5695180590557825,
                0.4224746836865846,
                -0.2655667674207316
            ]
        },
        {
            "positions": [
                -0.18126709490206094,
                -1.8860233135262912,
                -1.540648505615276,
                0.5971916346592138,
                0.4180766515012153,
                -0.14603576952287334
            ]
        },
        {
            "positions": [
                -0.08021421324600617,
                -1.928105094815175,
                -1.6302111624488647,
                0.6248652102626451,
                0.41367861931584604,
                -0.026504771625015654
            ]
        },
        {
            "positions": [
                -0.0702236330766374,
                -1.9231465342921534,
                -1.7617991654758138,
                0.7147791804540324,
                0.3496471685247742,
                0.03985039686396479
            ]
        },
        {
            "positions": [
                -0.06023305290726862,
                -1.9181879737691319,
                -1.8933871685027632,
                0.8046931506454199,
                0.28561571773370237,
                0.10620556535294523
            ]
        },
        {
            "positions": [
                -0.05024247273789985,
                -1.9132294132461105,
                -2.0249751715297126,
                0.8946071208368073,
                0.22158426694263056,
                0.17256073384192566
            ]
        },
        {
            "positions": [
                -0.04025189256853107,
                -1.908270852723089,
                -2.156563174556662,
                0.9845210910281947,
                0.1575528161515587,
                0.23891590233090612
            ]
        },
        {
            "positions": [
                -0.0302613123991623,
                -1.9033122922000674,
                -2.288151177583611,
                1.074435061219582,
                0.09352136536048687,
                0.3052710708198866
            ]
        },
        {
            "positions": [
                -0.06098845164530183,
                -1.9800725576506075,
                -2.3348332183502323,
                1.1677651610524669,
                0.10040811170591266,
                0.27146872761813934
            ]
        },
        {
            "positions": [
                -0.09171559089144136,
                -2.0568328231011477,
                -2.3815152591168536,
                1.2610952608853516,
                0.10729485805133844,
                0.23766638441639204
            ]
        },
        {
            "positions": [
                -0.13838522188997715,
                -2.1648408685616567,
                -2.3896090998182684,
                1.3512644668382647,
                0.14422242182215622,
                0.16271726176323198
            ]
        },
        {
            "positions": [
                -0.18505485288851292,
                -2.2728489140221657,
                -2.3977029405196837,
                1.4414336727911778,
                0.181149985592974,
                0.08776813911007193
            ]
        }
    ]
}