{
    "goal": {
        "global_pose": {
            "orientation": {
                "w": -0.00223480608172531,
                "x": 0.0024358444001904467,
                "y": 0.7094548369677653,
                "z": -0.704743149386269
            },
            "position": {
                "x": -0.37947507619857795,
                "y": -0.6371506643295288,
                "z": 0.19426114857196808
            }
        },
        "name": "move_to_magneteinheit_C"
    },
    "id": "FMT_move_to_magneteinheit_C_82",
    "joint_names": [
        "shoulder_pan_joint",
        "shoulder_lift_joint",
        "elbow_joint",
        "wrist_1_joint",
        "wrist_2_joint",
        "wrist_3_joint"
    ],
    "metrics": {
        "cart_traj_len": 1.3069671696307854,
        "distance_elbow_joint": 1.015979627317591,
        "distance_shoulder_lift_joint": 0.6741430250099889,
        "distance_shoulder_pan_joint": 1.5882806248110277,
        "distance_wrist_1_joint": 2.5749068700934172,
        "distance_wrist_2_joint": 2.271356986673781,
        "distance_wrist_3_joint": 2.900958505216593,
        "smoothness": 0.6309584417076141,
        "time": 1.4923127749999998,
        "traj_len": 3.3204857534888474,
        "weighted_distance": 4.655513559890336
    },
    "planner": "FMT",
    "start": {
        "state": {
            "elbow_joint": 1.9565354010623817,
            "shoulder_lift_joint": -1.4165861575791021,
            "shoulder_pan_joint": -1.6717766225146293,
            "wrist_1_joint": -0.5286633292919765,
            "wrist_2_joint": 1.472756589071564,
            "wrist_3_joint": -3.1238370188695823
        }
    },
    "waypoints": [
        {
            "positions": [
                -1.6717766225146293,
                -1.4165861575791021,
                1.9565354010623817,
                -0.5286633292919765,
                1.472756589071564,
                -3.1238370188695823
            ]
        },
        {
            "positions": [
                -1.6958861864530907,
                -1.4376293535810207,
                1.9530185568262854,
                -0.41614137387588185,
                1.5462012716567333,
                -2.979218308856972
            ]
        },
        {
            "positions": [
                -1.7199957503915522,
                -1.4586725495829396,
                1.9495017125901892,
                -0.30361941845978724,
                1.6196459542419028,
                -2.8345995988443615
            ]
        },
        {
            "positions": [
                -1.7441053143300136,
                -1.4797157455848582,
                1.945984868354093,
                -0.19109746304369263,
                1.6930906368270722,
                -2.6899808888317516
            ]
        },
        {
            "positions": [
                -1.768214878268475,
                -1.5007589415867768,
                1.9424680241179968,
                -0.07857550762759796,
                1.7665353194122417,
                -2.545362178819141
            ]
        },
        {
            "positions": [
                -1.7923244422069362,
                -1.5218021375886956,
                1.9389511798819004,
                0.03394644778849665,
                1.839980001997411,
                -2.4007434688065308
            ]
        },
        {
            "positions": [
                -1.8164340061453976,
                -1.5428453335906143,
                1.9354343356458041,
                0.1464684032045912,
                1.9134246845825804,
                -2.256124758793921
            ]
        },
        {
            "positions": [
                -1.840543570083859,
                -1.5638885295925329,
                1.931917491409708,
                0.25899035862068587,
                1.98686936716775,
                -2.1115060487813104
            ]
        },
        {
            "positions": [
                -1.8646531340223205,
                -1.5849317255944517,
                1.9284006471736117,
                0.37151231403678053,
                2.0603140497529195,
                -1.9668873387687
            ]
        },
        {
            "positions": [
                -1.8887626979607819,
                -1.6059749215963703,
                1.9248838029375155,
                0.4840342694528752,
                2.1337587323380887,
                -1.8222686287560896
            ]
        },
        {
            "positions": [
                -1.9128722618992433,
                -1.627018117598289,
                1.9213669587014193,
                0.5965562248689698,
                2.2072034149232582,
                -1.6776499187434795
            ]
        },
        {
            "positions": [
                -2.049103454070848,
                -1.6081363191420157,
                1.9980288665779538,
                0.4445814114066515,
                2.2081091965489827,
                -1.6877577853693642
            ]
        },
        {
            "positions": [
                -2.1853346462424534,
                -1.5892545206857422,
                2.0746907744544885,
                0.29260659794433325,
                2.209014978174707,
                -1.6978656519952489
            ]
        },
        {
            "positions": [
                -2.3215658384140583,
                -1.570372722229469,
                2.151352682331023,
                0.14063178448201502,
                2.2099207598004313,
                -1.7079735186211336
            ]
        },
        {
            "positions": [
                -2.457797030585663,
                -1.5514909237731955,
                2.2280145902075574,
                -0.01134302898030326,
                2.210826541426156,
                -1.7180813852470185
            ]
        },
        {
            "positions": [
                -2.5940282227572684,
                -1.5326091253169223,
                2.304676498084092,
                -0.1633178424426216,
                2.2117323230518804,
                -1.7281892518729032
            ]
        },
        {
            "positions": [
                -2.730259414928873,
                -1.5137273268606488,
                2.3813384059606264,
                -0.3152926559049397,
                2.2126381046776045,
                -1.7382971184987879
            ]
        },
        {
            "positions": [
                -2.866490607100478,
                -1.4948455284043756,
                2.458000313837161,
                -0.46726746936725805,
                2.213543886303329,
                -1.7484049851246726
            ]
        },
        {
            "positions": [
                -2.833693387081713,
                -1.467217322087968,
                2.42098549468542,
                -0.4994227711752782,
                2.085996412183161,
                -1.863739680017114
            ]
        },
        {
            "positions": [
                -2.800896167062948,
                -1.4395891157715608,
                2.38397067553368,
                -0.5315780729832984,
                1.958448938062993,
                -1.9790743749095554
            ]
        },
        {
            "positions": [
                -2.7680989470441832,
                -1.4119609094551535,
                2.346955856381939,
                -0.5637333747913186,
                1.830901463942825,
                -2.094409069801997
            ]
        },
        {
            "positions": [
                -2.7353017270254183,
                -1.384332703138746,
                2.3099410372301987,
                -0.5958886765993388,
                1.703353989822657,
                -2.2097437646944385
            ]
        },
        {
            "positions": [
                -2.7025045070066533,
                -1.3567044968223385,
                2.272926218078458,
                -0.6280439784073589,
                1.5758065157024888,
                -2.3250784595868796
            ]
        },
        {
            "positions": [
                -2.6697072869878884,
                -1.3290762905059312,
                2.235911398926717,
                -0.6601992802153791,
                1.4482590415823209,
                -2.4404131544793213
            ]
        },
        {
            "positions": [
                -2.636910066969124,
                -1.301448084189524,
                2.198896579774977,
                -0.6923545820233993,
                1.3207115674621528,
                -2.5557478493717625
            ]
        },
        {
            "positions": [
                -2.604112846950359,
                -1.2738198778731165,
                2.161881760623236,
                -0.7245098838314195,
                1.193164093341985,
                -2.671082544264204
            ]
        },
        {
            "positions": [
                -2.571315626931594,
                -1.246191671556709,
                2.124866941471496,
                -0.7566651856394396,
                1.0656166192218168,
                -2.7864172391566457
            ]
        },
        {
            "positions": [
                -2.538518406912829,
                -1.2185634652403017,
                2.087852122319755,
                -0.7888204874474598,
                0.9380691451016487,
                -2.901751934049087
            ]
        },
        {
            "positions": [
                -2.505721186894064,
                -1.1909352589238944,
                2.0508373031680147,
                -0.82097578925548,
                0.8105216709814809,
                -3.017086628941528
            ]
        },
        {
            "positions": [
                -2.472923966875299,
                -1.163307052607487,
                2.013822484016274,
                -0.8531310910635002,
                0.6829741968613129,
                -3.1324213238339698
            ]
        }
    ]
}