{
    "goal": {
        "global_pose": {
            "orientation": {
                "w": 0.005598929693374612,
                "x": 0.007748599140229565,
                "y": 0.7110244013736278,
                "z": -0.7031023480610252
            },
            "position": {
                "x": 0.1141497679147869,
                "y": -0.7141253447532654,
                "z": 0.3711530566215515
            }
        },
        "name": "move_to_auspresseinheit_B"
    },
    "id": "FMT_move_to_auspresseinheit_B_65",
    "joint_names": [
        "shoulder_pan_joint",
        "shoulder_lift_joint",
        "elbow_joint",
        "wrist_1_joint",
        "wrist_2_joint",
        "wrist_3_joint"
    ],
    "metrics": {
        "cart_traj_len": 0.5643518290359676,
        "distance_elbow_joint": 0.06043984435196781,
        "distance_shoulder_lift_joint": 0.2959248599654203,
        "distance_shoulder_pan_joint": 0.5774326506851881,
        "distance_wrist_1_joint": 0.31980825072027497,
        "distance_wrist_2_joint": 0.9890846925864405,
        "distance_wrist_3_joint": 0.005496313820418486,
        "smoothness": 5.075305255429287e-16,
        "time": 0.45043452,
        "traj_len": 1.4993954155357787,
        "weighted_distance": 1.8889341394228816
    },
    "planner": "FMT",
    "start": {
        "state": {
            "elbow_joint": 2.0193083361928714,
            "shoulder_lift_joint": -1.1220246554650708,
            "shoulder_pan_joint": -1.0952077554168747,
            "wrist_1_joint": -0.8559753972642168,
            "wrist_2_joint": 0.4759566250798843,
            "wrist_3_joint": -3.1240929996934557
        }
    },
    "waypoints": [
        {
            "positions": [
                -1.0952077554168747,
                -1.1220246554650708,
                2.0193083361928714,
                -0.8559753972642168,
                0.4759566250798843,
                -3.1240929996934557
            ]
        },
        {
            "positions": [
                -1.1914465305310726,
                -1.1713454654593076,
                2.0092350288008767,
                -0.8026740221441709,
                0.6408040738442911,
                -3.1250090519968587
            ]
        },
        {
            "positions": [
                -1.2876853056452706,
                -1.2206662754535442,
                1.9991617214088822,
                -0.7493726470241251,
                0.8056515226086978,
                -3.125925104300262
            ]
        },
        {
            "positions": [
                -1.3839240807594688,
                -1.2699870854477808,
                1.9890884140168876,
                -0.6960712719040794,
                0.9704989713731045,
                -3.126841156603665
            ]
        },
        {
            "positions": [
                -1.4801628558736666,
                -1.3193078954420177,
                1.9790151066248929,
                -0.6427698967840335,
                1.1353464201375112,
                -3.127757208907068
            ]
        },
        {
            "positions": [
                -1.5764016309878648,
                -1.3686287054362545,
                1.9689417992328981,
                -0.5894685216639877,
                1.3001938689019181,
                -3.128673261210471
            ]
        },
        {
            "positions": [
                -1.6726404061020628,
                -1.417949515430491,
                1.9588684918409036,
                -0.5361671465439418,
                1.4650413176663248,
                -3.129589313513874
            ]
        }
    ]
}