{
    "goal": {
        "global_pose": {
            "orientation": {
                "w": 0.5084816217422485,
                "x": -0.49083608388900757,
                "y": 0.5182115435600281,
                "z": -0.4816462993621826
            },
            "position": {
                "x": 0.5540239810943604,
                "y": 0.030875300988554955,
                "z": 0.16403168439865112
            }
        },
        "name": "move_to_storage_A"
    },
    "id": "FMT_move_to_storage_A_18",
    "joint_names": [
        "shoulder_pan_joint",
        "shoulder_lift_joint",
        "elbow_joint",
        "wrist_1_joint",
        "wrist_2_joint",
        "wrist_3_joint"
    ],
    "metrics": {
        "cart_traj_len": 0.35276913369377766,
        "distance_elbow_joint": 0.44797946294151036,
        "distance_shoulder_lift_joint": 0.2341752886363313,
        "distance_shoulder_pan_joint": 0.4608647055585875,
        "distance_wrist_1_joint": 0.2398983619503373,
        "distance_wrist_2_joint": 1.0992737571939515,
        "distance_wrist_3_joint": 0.0893521236726671,
        "smoothness": 1.1102230263833737e-15,
        "time": 0.41417638900000003,
        "traj_len": 1.6036033486973595,
        "weighted_distance": 2.0222314571885702
    },
    "planner": "FMT",
    "start": {
        "state": {
            "elbow_joint": 1.971548259319323,
            "shoulder_lift_joint": -1.1394851275133948,
            "shoulder_pan_joint": 0.1228115487234821,
            "wrist_1_joint": -0.7804723859257726,
            "wrist_2_joint": 0.12958671773740124,
            "wrist_3_joint": -3.192489227718131
        }
    },
    "waypoints": [
        {
            "positions": [
                0.1228115487234821,
                -1.1394851275133948,
                1.971548259319323,
                -0.7804723859257726,
                0.12958671773740124,
                -3.192489227718131
            ]
        },
        {
            "positions": [
                0.056973733643683896,
                -1.1729387401757279,
                2.0355453254538243,
                -0.8147435804901065,
                0.2866258259079657,
                -3.179724638622036
            ]
        },
        {
            "positions": [
                -0.008864081436114307,
                -1.206392352838061,
                2.099542391588326,
                -0.8490147750544405,
                0.44366493407853025,
                -3.1669600495259407
            ]
        },
        {
            "positions": [
                -0.07470189651591252,
                -1.239845965500394,
                2.1635394577228273,
                -0.8832859696187743,
                0.6007040422490947,
                -3.1541954604298454
            ]
        },
        {
            "positions": [
                -0.14053971159571071,
                -1.273299578162727,
                2.227536523857329,
                -0.9175571641831082,
                0.7577431504196592,
                -3.1414308713337498
            ]
        },
        {
            "positions": [
                -0.20637752667550896,
                -1.30675319082506,
                2.2915335899918303,
                -0.9518283587474421,
                0.9147822585902238,
                -3.1286662822376545
            ]
        },
        {
            "positions": [
                -0.27221534175530715,
                -1.340206803487393,
                2.355530656126332,
                -0.986099553311776,
                1.071821366760788,
                -3.1159016931415593
            ]
        },
        {
            "positions": [
                -0.3380531568351054,
                -1.3736604161497261,
                2.4195277222608333,
                -1.02037074787611,
                1.2288604749313528,
                -3.103137104045464
            ]
        }
    ]
}{
    "goal": {
        "global_pose": {
            "orientation": {
                "w": 0.5084816217422485,
                "x": -0.49083608388900757,
                "y": 0.5182115435600281,
                "z": -0.4816462993621826
            },
            "position": {
                "x": 0.5540239810943604,
                "y": 0.030875300988554955,
                "z": 0.16403168439865112
            }
        },
        "name": "move_to_storage_A"
    },
    "id": "FMT_move_to_storage_A_18",
    "joint_names": [
        "shoulder_pan_joint",
        "shoulder_lift_joint",
        "elbow_joint",
        "wrist_1_joint",
        "wrist_2_joint",
        "wrist_3_joint"
    ],
    "metrics": {
        "cart_traj_len": 0.35353980588725104,
        "distance_elbow_joint": 0.450831854177848,
        "distance_shoulder_lift_joint": 0.23528292751037938,
        "distance_shoulder_pan_joint": 0.4623501671528079,
        "distance_wrist_1_joint": 0.2401885616665056,
        "distance_wrist_2_joint": 1.1005021014817793,
        "distance_wrist_3_joint": 0.08757776591883015,
        "smoothness": 2.2204460668324854e-16,
        "time": 0.401137107,
        "traj_len": 1.60522066330712,
        "weighted_distance": 2.0230124994408945
    },
    "planner": "FMT",
    "start": {
        "state": {
            "elbow_joint": 1.97154746011099,
            "shoulder_lift_joint": -1.13948474672311,
            "shoulder_pan_joint": 0.12281154466712228,
            "wrist_1_joint": -0.7804688027058302,
            "wrist_2_joint": 0.12958655903071145,
            "wrist_3_joint": 3.0906928834467795
        }
    },
    "waypoints": [
        {
            "positions": [
                0.12281154466712228,
                -1.13948474672311,
                1.97154746011099,
                -0.7804688027058302,
                0.12958655903071145,
                3.0906928834467795
            ]
        },
        {
            "positions": [
                0.05676152078814972,
                -1.173096593510307,
                2.0359520107078253,
                -0.8147814543724738,
                0.2868011449566799,
                3.1032039928637554
            ]
        },
        {
            "positions": [
                -0.009288503090822839,
                -1.2067084402975041,
                2.1003565613046606,
                -0.8490941060391175,
                0.44401573088264834,
                3.115715102280731
            ]
        },
        {
            "positions": [
                -0.07533852696979539,
                -1.2403202870847012,
                2.164761111901496,
                -0.8834067577057612,
                0.6012303168086168,
                3.1282262116977066
            ]
        },
        {
            "positions": [
                -0.14138855084876795,
                -1.273932133871898,
                2.229165662498332,
                -0.9177194093724048,
                0.7584449027345853,
                3.1407373211146825
            ]
        },
        {
            "positions": [
                -0.20743857472774052,
                -1.3075439806590952,
                2.293570213095167,
                -0.9520320610390485,
                0.9156594886605538,
                3.1532484305316584
            ]
        },
        {
            "positions": [
                -0.27348859860671304,
                -1.3411558274462922,
                2.3579747636920025,
                -0.9863447127056921,
                1.0728740745865222,
                3.165759539948634
            ]
        },
        {
            "positions": [
                -0.3395386224856856,
                -1.3747676742334893,
                2.422379314288838,
                -1.0206573643723358,
                1.2300886605124908,
                3.1782706493656097
            ]
        }
    ]
}{
    "goal": {
        "global_pose": {
            "orientation": {
                "w": 0.5084816217422485,
                "x": -0.49083608388900757,
                "y": 0.5182115435600281,
                "z": -0.4816462993621826
            },
            "position": {
                "x": 0.5540239810943604,
                "y": 0.030875300988554955,
                "z": 0.16403168439865112
            }
        },
        "name": "move_to_storage_A"
    },
    "id": "FMT_move_to_storage_A_18",
    "joint_names": [
        "shoulder_pan_joint",
        "shoulder_lift_joint",
        "elbow_joint",
        "wrist_1_joint",
        "wrist_2_joint",
        "wrist_3_joint"
    ],
    "metrics": {
        "cart_traj_len": 0.3530183202585779,
        "distance_elbow_joint": 0.44932628420690746,
        "distance_shoulder_lift_joint": 0.23483672148727797,
        "distance_shoulder_pan_joint": 0.4631092022707634,
        "distance_wrist_1_joint": 0.2368777100155619,
        "distance_wrist_2_joint": 1.0926845197110897,
        "distance_wrist_3_joint": 0.09881023584561799,
        "smoothness": 4.440892133664971e-16,
        "time": 0.388620319,
        "traj_len": 1.6048815138623844,
        "weighted_distance": 2.0255437232889113
    },
    "planner": "FMT",
    "start": {
        "state": {
            "elbow_joint": 1.9715472970024885,
            "shoulder_lift_joint": -1.1394870060712896,
            "shoulder_pan_joint": 0.12281152778156021,
            "wrist_1_joint": -0.780463741449964,
            "wrist_2_joint": 0.12958659822042276,
            "wrist_3_joint": 3.090690232415272
        }
    },
    "waypoints": [
        {
            "positions": [
                0.12281152778156021,
                -1.1394870060712896,
                1.9715472970024885,
                -0.780463741449964,
                0.12958659822042276,
                3.090690232415272
            ]
        },
        {
            "positions": [
                0.0566530703143083,
                -1.1730351091409008,
                2.035736766174904,
                -0.81430341430933,
                0.2856843867505784,
                3.104805980393217
            ]
        },
        {
            "positions": [
                -0.009505387152943606,
                -1.2065832122105118,
                2.0999262353473194,
                -0.8481430871686959,
                0.44178217528073405,
                3.1189217283711628
            ]
        },
        {
            "positions": [
                -0.07566384462019551,
                -1.240131315280123,
                2.164115704519735,
                -0.881982760028062,
                0.5978799638108897,
                3.133037476349108
            ]
        },
        {
            "positions": [
                -0.14182230208744742,
                -1.2736794183497342,
                2.2283051736921498,
                -0.9158224328874279,
                0.7539777523410454,
                3.1471532243270537
            ]
        },
        {
            "positions": [
                -0.20798075955469933,
                -1.3072275214193454,
                2.292494642864565,
                -0.949662105746794,
                0.9100755408712011,
                3.161268972304999
            ]
        },
        {
            "positions": [
                -0.2741392170219512,
                -1.3407756244889564,
                2.3566841120369806,
                -0.98350177860616,
                1.0661733294013567,
                3.1753847202829446
            ]
        },
        {
            "positions": [
                -0.3402976744892032,
                -1.3743237275585676,
                2.420873581209396,
                -1.017341451465526,
                1.2222711179315124,
                3.18950046826089
            ]
        }
    ]
}