{
    "goal": {
        "global_pose": {
            "orientation": {
                "w": -0.00223480608172531,
                "x": 0.0024358444001904467,
                "y": 0.7094548369677653,
                "z": -0.704743149386269
            },
            "position": {
                "x": 0.6205249238014221,
                "y": -0.6371506643295288,
                "z": 0.19426114857196808
            }
        },
        "name": "move_to_magneteinheit_B"
    },
    "id": "FMT_move_to_magneteinheit_B_132",
    "joint_names": [
        "shoulder_pan_joint",
        "shoulder_lift_joint",
        "elbow_joint",
        "wrist_1_joint",
        "wrist_2_joint",
        "wrist_3_joint"
    ],
    "metrics": {
        "cart_traj_len": 3.4234024006696693,
        "distance_elbow_joint": 4.691734281169264,
        "distance_shoulder_lift_joint": 0.9463875121655065,
        "distance_shoulder_pan_joint": 2.181430994294897,
        "distance_wrist_1_joint": 4.393806606137492,
        "distance_wrist_2_joint": 0.9108811407925513,
        "distance_wrist_3_joint": 3.152873369992356,
        "smoothness": 0.18994105730388666,
        "time": 1.611103642,
        "traj_len": 4.034490538413997,
        "weighted_distance": 5.280866253889301
    },
    "planner": "FMT",
    "start": {
        "state": {
            "elbow_joint": 2.6216224122426386,
            "shoulder_lift_joint": -1.4174107377796124,
            "shoulder_pan_joint": 0.7066234856936794,
            "wrist_1_joint": 1.9546482284002225,
            "wrist_2_joint": -0.7096286983471962,
            "wrist_3_joint": 0.005740856962016249
        }
    },
    "waypoints": [
        {
            "positions": [
                0.7066234856936794,
                -1.4174107377796124,
                2.6216224122426386,
                1.9546482284002225,
                -0.7096286983471962,
                0.005740856962016249
            ]
        },
        {
            "positions": [
                0.7095035545648296,
                -1.4683135008923673,
                2.5901505218810366,
                1.8174934813455974,
                -0.7394301850032259,
                -0.0003269996329865127
            ]
        },
        {
            "positions": [
                0.7123836234359797,
                -1.5192162640051223,
                2.5586786315194345,
                1.6803387342909726,
                -0.7692316716592555,
                -0.006394856227989274
            ]
        },
        {
            "positions": [
                0.7402599979567565,
                -1.5463650881545534,
                2.48435374177208,
                1.5322814432073062,
                -0.7940767719732001,
                -0.07201015794513943
            ]
        },
        {
            "positions": [
                0.7681363724775333,
                -1.5735139123039845,
                2.4100288520247255,
                1.3842241521236398,
                -0.8189218722871447,
                -0.1376254596622896
            ]
        },
        {
            "positions": [
                0.79601274699831,
                -1.6006627364534156,
                2.3357039622773708,
                1.2361668610399734,
                -0.8437669726010893,
                -0.20324076137943975
            ]
        },
        {
            "positions": [
                0.8238891215190869,
                -1.6278115606028467,
                2.2613790725300165,
                1.088109569956307,
                -0.868612072915034,
                -0.26885606309658994
            ]
        },
        {
            "positions": [
                0.8517654960398636,
                -1.6549603847522778,
                2.1870541827826617,
                0.9400522788726406,
                -0.8934571732289786,
                -0.3344713648137401
            ]
        },
        {
            "positions": [
                0.8796418705606404,
                -1.682109208901709,
                2.112729293035307,
                0.7919949877889744,
                -0.9183022735429232,
                -0.40008666653089026
            ]
        },
        {
            "positions": [
                0.9075182450814172,
                -1.7092580330511402,
                2.0384044032879527,
                0.6439376967053079,
                -0.9431473738568679,
                -0.46570196824804044
            ]
        },
        {
            "positions": [
                0.935394619602194,
                -1.7364068572005713,
                1.964079513540598,
                0.4958804056216415,
                -0.9679924741708125,
                -0.5313172699651906
            ]
        },
        {
            "positions": [
                0.9632709941229708,
                -1.7635556813500024,
                1.8897546237932434,
                0.3478231145379751,
                -0.9928375744847571,
                -0.5969325716823408
            ]
        },
        {
            "positions": [
                0.9911473686437475,
                -1.7907045054994335,
                1.815429734045889,
                0.1997658234543087,
                -1.0176826747987016,
                -0.662547873399491
            ]
        },
        {
            "positions": [
                1.0190237431645244,
                -1.8178533296488646,
                1.7411048442985344,
                0.051708532370642324,
                -1.0425277751126463,
                -0.7281631751166411
            ]
        },
        {
            "positions": [
                1.0865514883238574,
                -1.8144334761811711,
                1.6025601108095422,
                -0.040459105602355966,
                -1.03518215899056,
                -0.8147622241714496
            ]
        },
        {
            "positions": [
                1.1540792334831904,
                -1.8110136227134777,
                1.46401537732055,
                -0.13262674357535426,
                -1.027836542868474,
                -0.9013612732262581
            ]
        },
        {
            "positions": [
                1.2216069786425234,
                -1.807593769245784,
                1.3254706438315578,
                -0.22479438154835252,
                -1.020490926746388,
                -0.9879603222810667
            ]
        },
        {
            "positions": [
                1.2891347238018565,
                -1.8041739157780905,
                1.1869259103425658,
                -0.31696201952135084,
                -1.0131453106243018,
                -1.0745593713358752
            ]
        },
        {
            "positions": [
                1.3566624689611895,
                -1.800754062310397,
                1.0483811768535736,
                -0.4091296574943491,
                -1.0057996945022156,
                -1.161158420390684
            ]
        },
        {
            "positions": [
                1.4241902141205225,
                -1.7973342088427036,
                0.9098364433645812,
                -0.5012972954673474,
                -0.9984540783801296,
                -1.2477574694454923
            ]
        },
        {
            "positions": [
                1.4917179592798555,
                -1.79391435537501,
                0.7712917098755893,
                -0.5934649334403457,
                -0.9911084622580435,
                -1.334356518500301
            ]
        },
        {
            "positions": [
                1.5592457044391885,
                -1.7904945019073164,
                0.6327469763865969,
                -0.685632571413344,
                -0.9837628461359573,
                -1.4209555675551095
            ]
        },
        {
            "positions": [
                1.6267734495985215,
                -1.787074648439623,
                0.49420224289760495,
                -0.7778002093863422,
                -0.9764172300138712,
                -1.507554616609918
            ]
        },
        {
            "positions": [
                1.6943011947578546,
                -1.7836547949719295,
                0.3556575094086125,
                -0.8699678473593405,
                -0.9690716138917851,
                -1.5941536656647266
            ]
        },
        {
            "positions": [
                1.7618289399171876,
                -1.780234941504236,
                0.21711277591962053,
                -0.9621354853323387,
                -0.961725997769699,
                -1.6807527147195351
            ]
        },
        {
            "positions": [
                1.8293566850765206,
                -1.7768150880365425,
                0.0785680424306281,
                -1.054303123305337,
                -0.9543803816476129,
                -1.7673517637743437
            ]
        },
        {
            "positions": [
                1.8968844302358536,
                -1.773395234568849,
                -0.059976691058363896,
                -1.1464707612783354,
                -0.9470347655255267,
                -1.8539508128291522
            ]
        },
        {
            "positions": [
                1.9644121753951866,
                -1.7699753811011554,
                -0.19852142454735588,
                -1.2386383992513337,
                -0.9396891494034406,
                -1.9405498618839607
            ]
        },
        {
            "positions": [
                2.0319399205545197,
                -1.766555527633462,
                -0.3370661580363479,
                -1.3308060372243318,
                -0.9323435332813546,
                -2.0271489109387693
            ]
        },
        {
            "positions": [
                2.0994676657138527,
                -1.7631356741657684,
                -0.47561089152534053,
                -1.4229736751973303,
                -0.9249979171592684,
                -2.113747959993578
            ]
        },
        {
            "positions": [
                2.1669954108731857,
                -1.759715820698075,
                -0.6141556250143327,
                -1.5151413131703284,
                -0.9176523010371822,
                -2.2003470090483863
            ]
        },
        {
            "positions": [
                2.2345231560325187,
                -1.7562959672303815,
                -0.7527003585033245,
                -1.6073089511433267,
                -0.9103066849150961,
                -2.2869460581031946
            ]
        },
        {
            "positions": [
                2.3020509011918517,
                -1.7528761137626878,
                -0.8912450919923167,
                -1.699476589116325,
                -0.9029610687930101,
                -2.3735451071580034
            ]
        },
        {
            "positions": [
                2.3695786463511848,
                -1.7494562602949943,
                -1.0297898254813094,
                -1.7916442270893234,
                -0.8956154526709239,
                -2.460144156212812
            ]
        },
        {
            "positions": [
                2.4371063915105178,
                -1.7460364068273009,
                -1.1683345589703016,
                -1.8838118650623217,
                -0.8882698365488377,
                -2.546743205267621
            ]
        },
        {
            "positions": [
                2.504634136669851,
                -1.7426165533596074,
                -1.3068792924592934,
                -1.9759795030353198,
                -0.8809242204267517,
                -2.633342254322429
            ]
        },
        {
            "positions": [
                2.572161881829184,
                -1.739196699891914,
                -1.4454240259482856,
                -2.068147141008318,
                -0.8735786043046656,
                -2.7199413033772375
            ]
        },
        {
            "positions": [
                2.639689626988517,
                -1.7357768464242203,
                -1.5839687594372782,
                -2.1603147789813164,
                -0.8662329881825794,
                -2.8065403524320462
            ]
        },
        {
            "positions": [
                2.70721737214785,
                -1.7323569929565268,
                -1.72251349292627,
                -2.2524824169543147,
                -0.8588873720604933,
                -2.893139401486855
            ]
        },
        {
            "positions": [
                2.774745117307183,
                -1.7289371394888333,
                -1.8610582264152624,
                -2.344650054927313,
                -0.8515417559384072,
                -2.9797384505416633
            ]
        },
        {
            "positions": [
                2.7464177766368345,
                -1.843194322022889,
                -1.8087948157874219,
                -2.3682771356298016,
                -0.7547927447251916,
                -3.0215869661638326
            ]
        },
        {
            "positions": [
                2.718090435966486,
                -1.957451504556945,
                -1.756531405159581,
                -2.39190421633229,
                -0.6580437335119761,
                -3.0634354817860014
            ]
        },
        {
            "positions": [
                2.6897630952961378,
                -2.0717086870910006,
                -1.7042679945317403,
                -2.4155312970347786,
                -0.5612947222987605,
                -3.1052839974081703
            ]
        },
        {
            "positions": [
                2.6614357546257894,
                -2.1859658696250563,
                -1.6520045839038997,
                -2.439158377737267,
                -0.464545711085545,
                -3.1471325130303396
            ]
        }
    ]
}