{
    "goal": {
        "global_pose": {
            "orientation": {
                "w": 0.7047431493862688,
                "x": -0.7094548369677653,
                "y": 0.0024358444001904,
                "z": -0.0022348060817251984
            },
            "position": {
                "x": -0.39052492380142206,
                "y": 0.3671506643295288,
                "z": 0.19426114857196808
            }
        },
        "name": "move_to_magneteinheit_D"
    },
    "id": "FMT_move_to_magneteinheit_D_125",
    "joint_names": [
        "shoulder_pan_joint",
        "shoulder_lift_joint",
        "elbow_joint",
        "wrist_1_joint",
        "wrist_2_joint",
        "wrist_3_joint"
    ],
    "metrics": {
        "cart_traj_len": 5.021612149357149,
        "distance_elbow_joint": 3.7400836707165546,
        "distance_shoulder_lift_joint": 1.1492146580701175,
        "distance_shoulder_pan_joint": 3.5751925880100353,
        "distance_wrist_1_joint": 2.089979388901755,
        "distance_wrist_2_joint": 2.012593085960573,
        "distance_wrist_3_joint": 6.288097928226517,
        "smoothness": 0.19790052706753328,
        "time": 1.476095755,
        "traj_len": 4.342253023475895,
        "weighted_distance": 5.961034276969133
    },
    "planner": "FMT",
    "start": {
        "state": {
            "elbow_joint": 0.749534889911806,
            "shoulder_lift_joint": -0.6476975780787326,
            "shoulder_pan_joint": -2.711696901376241,
            "wrist_1_joint": -0.07506478083263063,
            "wrist_2_joint": 0.43296659715538205,
            "wrist_3_joint": -3.14703540197715
        }
    },
    "waypoints": [
        {
            "positions": [
                -2.711696901376241,
                -0.6476975780787326,
                0.749534889911806,
                -0.07506478083263063,
                0.43296659715538205,
                -3.14703540197715
            ]
        },
        {
            "positions": [
                -2.7752874021632623,
                -0.644314348621838,
                0.7886659662995621,
                -0.14773173413172916,
                0.5202686302817078,
                -3.0416268991115567
            ]
        },
        {
            "positions": [
                -2.838877902950283,
                -0.6409311191649434,
                0.8277970426873182,
                -0.2203986874308277,
                0.6075706634080336,
                -2.9362183962459634
            ]
        },
        {
            "positions": [
                -2.902468403737304,
                -0.6375478897080488,
                0.8669281190750744,
                -0.29306564072992625,
                0.6948726965343592,
                -2.83080989338037
            ]
        },
        {
            "positions": [
                -2.966058904524325,
                -0.6341646602511541,
                0.9060591954628305,
                -0.36573259402902475,
                0.7821747296606849,
                -2.7254013905147767
            ]
        },
        {
            "positions": [
                -3.0296494053113463,
                -0.6307814307942595,
                0.9451902718505867,
                -0.4383995473281233,
                0.8694767627870107,
                -2.6199928876491834
            ]
        },
        {
            "positions": [
                -3.093239906098367,
                -0.6273982013373649,
                0.9843213482383428,
                -0.5110665006272218,
                0.9567787959133365,
                -2.51458438478359
            ]
        },
        {
            "positions": [
                -3.156830406885388,
                -0.6240149718804703,
                1.023452424626099,
                -0.5837334539263204,
                1.0440808290396622,
                -2.4091758819179967
            ]
        },
        {
            "positions": [
                -3.220420907672409,
                -0.6206317424235757,
                1.0625835010138551,
                -0.6564004072254188,
                1.1313828621659878,
                -2.3037673790524034
            ]
        },
        {
            "positions": [
                -3.095601934149771,
                -0.6548875605803635,
                0.9174179224552509,
                -0.7131354539686101,
                1.12779719297298,
                -2.2825661784890516
            ]
        },
        {
            "positions": [
                -2.970782960627133,
                -0.6891433787371514,
                0.7722523438966467,
                -0.7698705007118014,
                1.1242115237799724,
                -2.2613649779256995
            ]
        },
        {
            "positions": [
                -2.8459639871044953,
                -0.7233991968939392,
                0.6270867653380423,
                -0.8266055474549926,
                1.1206258545869645,
                -2.2401637773623477
            ]
        },
        {
            "positions": [
                -2.7211450135818573,
                -0.7576550150507271,
                0.48192118677943807,
                -0.8833405941981839,
                1.1170401853939569,
                -2.2189625767989956
            ]
        },
        {
            "positions": [
                -2.5963260400592194,
                -0.7919108332075149,
                0.33675560822083384,
                -0.9400756409413752,
                1.113454516200949,
                -2.197761376235644
            ]
        },
        {
            "positions": [
                -2.471507066536582,
                -0.8261666513643027,
                0.1915900296622296,
                -0.9968106876845664,
                1.1098688470079414,
                -2.176560175672292
            ]
        },
        {
            "positions": [
                -2.346688093013944,
                -0.8604224695210906,
                0.046424451103625364,
                -1.0535457344277577,
                1.1062831778149336,
                -2.15535897510894
            ]
        },
        {
            "positions": [
                -2.221869119491306,
                -0.8946782876778784,
                -0.09874112745497898,
                -1.110280781170949,
                1.1026975086219257,
                -2.134157774545588
            ]
        },
        {
            "positions": [
                -2.097050145968668,
                -0.9289341058346663,
                -0.2439067060135831,
                -1.1670158279141403,
                1.099111839428918,
                -2.112956573982236
            ]
        },
        {
            "positions": [
                -1.9722311724460302,
                -0.9631899239914541,
                -0.38907228457218745,
                -1.2237508746573316,
                1.0955261702359103,
                -2.0917553734188843
            ]
        },
        {
            "positions": [
                -1.8474121989233923,
                -0.997445742148242,
                -0.5342378631307918,
                -1.2804859214005229,
                1.0919405010429026,
                -2.070554172855532
            ]
        },
        {
            "positions": [
                -1.7225932254007545,
                -1.03170156030503,
                -0.6794034416893959,
                -1.337220968143714,
                1.0883548318498948,
                -2.0493529722921804
            ]
        },
        {
            "positions": [
                -1.5977742518781166,
                -1.0659573784618177,
                -0.8245690202480003,
                -1.3939560148869052,
                1.084769162656887,
                -2.0281517717288287
            ]
        },
        {
            "positions": [
                -1.4729552783554787,
                -1.1002131966186055,
                -0.9697345988066044,
                -1.4506910616300965,
                1.0811834934638793,
                -2.0069505711654765
            ]
        },
        {
            "positions": [
                -1.3481363048328407,
                -1.1344690147753933,
                -1.114900177365209,
                -1.5074261083732878,
                1.0775978242708715,
                -1.9857493706021245
            ]
        },
        {
            "positions": [
                -1.223317331310203,
                -1.168724832932181,
                -1.260065755923813,
                -1.5641611551164791,
                1.0740121550778639,
                -1.9645481700387726
            ]
        },
        {
            "positions": [
                -1.098498357787565,
                -1.2029806510889691,
                -1.4052313344824172,
                -1.6208962018596704,
                1.070426485884856,
                -1.9433469694754208
            ]
        },
        {
            "positions": [
                -0.9736793842649272,
                -1.2372364692457567,
                -1.5503969130410213,
                -1.6776312486028617,
                1.0668408166918484,
                -1.922145768912069
            ]
        },
        {
            "positions": [
                -0.8488604107422895,
                -1.2714922874025447,
                -1.6955624915996261,
                -1.734366295346053,
                1.0632551474988405,
                -1.900944568348717
            ]
        },
        {
            "positions": [
                -0.7654716017081937,
                -1.291401971214239,
                -1.743516155507841,
                -1.7754894596121285,
                1.0430000864953026,
                -1.7435294621562327
            ]
        },
        {
            "positions": [
                -0.682082792674098,
                -1.3113116550259334,
                -1.7914698194160554,
                -1.816612623878204,
                1.0227450254917647,
                -1.5861143559637485
            ]
        },
        {
            "positions": [
                -0.5986939836400023,
                -1.3312213388376277,
                -1.8394234833242702,
                -1.8577357881442795,
                1.0024899644882268,
                -1.428699249771264
            ]
        },
        {
            "positions": [
                -0.5153051746059065,
                -1.351131022649322,
                -1.887377147232485,
                -1.898858952410355,
                0.982234903484689,
                -1.2712841435787798
            ]
        },
        {
            "positions": [
                -0.4319163655718107,
                -1.3710407064610164,
                -1.9353308111406995,
                -1.9399821166764306,
                0.9619798424811512,
                -1.1138690373862954
            ]
        },
        {
            "positions": [
                -0.34852755653771494,
                -1.3909503902727107,
                -1.9832844750489143,
                -1.981105280942506,
                0.9417247814776133,
                -0.9564539311938112
            ]
        },
        {
            "positions": [
                -0.318840376789538,
                -1.4082192162696692,
                -2.006352110766439,
                -1.998288728018476,
                0.8960343982494294,
                -0.7678313414000323
            ]
        },
        {
            "positions": [
                -0.2891531970413611,
                -1.4254880422666276,
                -2.0294197464839634,
                -2.015472175094446,
                0.8503440150212456,
                -0.5792087516062534
            ]
        },
        {
            "positions": [
                -0.25946601729318425,
                -1.442756868263586,
                -2.052487382201488,
                -2.0326556221704157,
                0.8046536317930617,
                -0.3905861618124744
            ]
        },
        {
            "positions": [
                -0.22977883754500733,
                -1.4600256942605445,
                -2.0755550179190125,
                -2.049839069246386,
                0.7589632485648778,
                -0.20196357201869553
            ]
        },
        {
            "positions": [
                -0.2231274502777019,
                -1.4820785284785798,
                -2.098390579224247,
                -2.0604519193544792,
                0.687104525581548,
                0.056764393292629556
            ]
        },
        {
            "positions": [
                -0.21647606301039649,
                -1.5041313626966153,
                -2.1212261405294814,
                -2.071064769462573,
                0.6152458025982181,
                0.31549235860395464
            ]
        },
        {
            "positions": [
                -0.20982467574309105,
                -1.5261841969146506,
                -2.144061701834716,
                -2.0816776195706663,
                0.5433870796148883,
                0.5742203239152797
            ]
        },
        {
            "positions": [
                -0.2031732884757856,
                -1.5482370311326858,
                -2.1668972631399503,
                -2.0922904696787596,
                0.4715283566315584,
                0.8329482892266048
            ]
        },
        {
            "positions": [
                -0.19652190120848018,
                -1.5702898653507213,
                -2.1897328244451852,
                -2.1029033197868534,
                0.39966963364822844,
                1.09167625453793
            ]
        },
        {
            "positions": [
                -0.18987051394117477,
                -1.5923426995687566,
                -2.2125683857504197,
                -2.1135161698949467,
                0.32781091066489865,
                1.350404219849255
            ]
        },
        {
            "positions": [
                -0.18321912667386933,
                -1.614395533786792,
                -2.235403947055654,
                -2.12412902000304,
                0.2559521876815687,
                1.60913218516058
            ]
        },
        {
            "positions": [
                -0.17656773940656392,
                -1.6364483680048274,
                -2.2582395083608886,
                -2.134741870111134,
                0.18409346469823895,
                1.867860150471905
            ]
        },
        {
            "positions": [
                -0.1699163521392585,
                -1.6585012022228627,
                -2.281075069666123,
                -2.145354720219227,
                0.11223474171490899,
                2.12658811578323
            ]
        },
        {
            "positions": [
                -0.17390735868443713,
                -1.679571042876781,
                -2.301919191899755,
                -2.1502770825980164,
                0.038477566590186835,
                2.3802067183997644
            ]
        },
        {
            "positions": [
                -0.1778983652296158,
                -1.7006408835306994,
                -2.322763314133387,
                -2.155199444976806,
                -0.03527960853453532,
                2.6338253210162987
            ]
        },
        {
            "positions": [
                -0.18188937177479447,
                -1.721710724184618,
                -2.3436074363670185,
                -2.160121807355596,
                -0.10903678365925748,
                2.8874439236328335
            ]
        },
        {
            "positions": [
                -0.18588037831997312,
                -1.7427805648385362,
                -2.3644515586006505,
                -2.165044169734385,
                -0.18279395878397967,
                3.141062526249368
            ]
        }
    ]
}