{
    "goal": {
        "global_pose": {
            "orientation": {
                "w": 0.7031023502349854,
                "x": -0.7110244035720825,
                "y": 0.007748599164187908,
                "z": 0.005598929710686207
            },
            "position": {
                "x": 0.11585023208521307,
                "y": 0.44412534475326537,
                "z": 0.3711530566215515
            }
        },
        "name": "move_to_auspresseinheit_A"
    },
    "id": "FMT_move_to_auspresseinheit_A_104",
    "joint_names": [
        "shoulder_pan_joint",
        "shoulder_lift_joint",
        "elbow_joint",
        "wrist_1_joint",
        "wrist_2_joint",
        "wrist_3_joint"
    ],
    "metrics": {
        "cart_traj_len": 1.0657355924892347,
        "distance_elbow_joint": 0.13007317915171823,
        "distance_shoulder_lift_joint": 1.0371801295501388,
        "distance_shoulder_pan_joint": 1.1496694838589034,
        "distance_wrist_1_joint": 3.1152424892860964,
        "distance_wrist_2_joint": 0.5240111554753124,
        "distance_wrist_3_joint": 0.2359260102093339,
        "smoothness": 1.3013964633810833,
        "time": 1.3242064450000002,
        "traj_len": 2.488393547558646,
        "weighted_distance": 3.2098610737400426
    },
    "planner": "FMT",
    "start": {
        "state": {
            "elbow_joint": 2.4225746658250005,
            "shoulder_lift_joint": -1.3736534386056498,
            "shoulder_pan_joint": -0.3378633547517467,
            "wrist_1_joint": -1.0288598680537169,
            "wrist_2_joint": 1.233022673432363,
            "wrist_3_joint": -3.0940220416140027
        }
    },
    "waypoints": [
        {
            "positions": [
                -0.3378633547517467,
                -1.3736534386056498,
                2.4225746658250005,
                -1.0288598680537169,
                1.233022673432363,
                -3.0940220416140027
            ]
        },
        {
            "positions": [
                -0.24640513017583057,
                -1.4391218381107436,
                2.415804425085301,
                -0.8752197653786565,
                1.1918755691418468,
                -3.1055655637989026
            ]
        },
        {
            "positions": [
                -0.15494690559991442,
                -1.504590237615837,
                2.409034184345601,
                -0.7215796627035962,
                1.1507284648513303,
                -3.117109085983802
            ]
        },
        {
            "positions": [
                -0.06348868102399824,
                -1.5700586371209309,
                2.4022639436059015,
                -0.5679395600285359,
                1.109581360560814,
                -3.128652608168702
            ]
        },
        {
            "positions": [
                0.027969543551917886,
                -1.6355270366260244,
                2.3954937028662022,
                -0.4142994573534755,
                1.0684342562702978,
                -3.1401961303536012
            ]
        },
        {
            "positions": [
                0.11942776812783412,
                -1.7009954361311181,
                2.3887234621265026,
                -0.26065935467841517,
                1.0272871519797813,
                -3.151739652538501
            ]
        },
        {
            "positions": [
                0.21088599270375025,
                -1.7664638356362117,
                2.381953221386803,
                -0.10701925200335483,
                0.986140047689265,
                -3.163283174723401
            ]
        },
        {
            "positions": [
                0.3023442172796665,
                -1.8319322351413054,
                2.375182980647103,
                0.04662085067170563,
                0.9449929433987486,
                -3.1748266969083003
            ]
        },
        {
            "positions": [
                0.3938024418555825,
                -1.8974006346463992,
                2.3684127399074035,
                0.20026095334676586,
                0.9038458391082324,
                -3.1863702190932
            ]
        },
        {
            "positions": [
                0.48526066643149873,
                -1.9628690341514927,
                2.3616424991677043,
                0.3539010560218261,
                0.862698734817716,
                -3.1979137412780996
            ]
        },
        {
            "positions": [
                0.576718891007415,
                -2.0283374336565867,
                2.3548722584280046,
                0.5075411586968865,
                0.8215516305271996,
                -3.2094572634629994
            ]
        },
        {
            "positions": [
                0.6681771155833311,
                -2.0938058331616802,
                2.348102017688305,
                0.6611812613719468,
                0.7804045262366833,
                -3.221000785647899
            ]
        },
        {
            "positions": [
                0.7596353401592473,
                -2.1592742326667738,
                2.3413317769486053,
                0.8148213640470073,
                0.739257421946167,
                -3.2325443078327987
            ]
        },
        {
            "positions": [
                0.7492011823696655,
                -2.1089623655689707,
                2.35109783500367,
                0.5605091126099327,
                0.7332082411483437,
                -3.213063559034691
            ]
        },
        {
            "positions": [
                0.7387670245800837,
                -2.058650498471168,
                2.3608638930587347,
                0.30619686117285816,
                0.7271590603505205,
                -3.1935828102365833
            ]
        },
        {
            "positions": [
                0.7283328667905018,
                -2.008338631373365,
                2.370629951113799,
                0.05188460973578357,
                0.7211098795526971,
                -3.174102061438476
            ]
        },
        {
            "positions": [
                0.71789870900092,
                -1.9580267642755618,
                2.3803960091688636,
                -0.20242764170129102,
                0.7150606987548739,
                -3.1546213126403684
            ]
        },
        {
            "positions": [
                0.7074645512113382,
                -1.9077148971777589,
                2.3901620672239283,
                -0.4567398931383656,
                0.7090115179570506,
                -3.1351405638422607
            ]
        }
    ]
}