{
    "goal": {
        "global_pose": {
            "orientation": {
                "w": 0.7031023502349854,
                "x": -0.7110244035720825,
                "y": 0.007748599164187908,
                "z": 0.005598929710686207
            },
            "position": {
                "x": 0.11585023208521307,
                "y": 0.44412534475326537,
                "z": 0.3711530566215515
            }
        },
        "name": "move_to_auspresseinheit_A"
    },
    "id": "FMT_move_to_auspresseinheit_A_116",
    "joint_names": [
        "shoulder_pan_joint",
        "shoulder_lift_joint",
        "elbow_joint",
        "wrist_1_joint",
        "wrist_2_joint",
        "wrist_3_joint"
    ],
    "metrics": {
        "cart_traj_len": 0.781722827028444,
        "distance_elbow_joint": 0.43019374946250766,
        "distance_shoulder_lift_joint": 0.896919440352417,
        "distance_shoulder_pan_joint": 1.11665424384217,
        "distance_wrist_1_joint": 0.5438917151562594,
        "distance_wrist_2_joint": 0.6697987737227541,
        "distance_wrist_3_joint": 3.329122847963236,
        "smoothness": 1.0217383944302878,
        "time": 1.3435331080000001,
        "traj_len": 2.6432140984981416,
        "weighted_distance": 3.8546746886481658
    },
    "planner": "FMT",
    "start": {
        "state": {
            "elbow_joint": 2.4225746658250005,
            "shoulder_lift_joint": -1.3736534386056498,
            "shoulder_pan_joint": -0.3378633547517467,
            "wrist_1_joint": -1.0288598680537169,
            "wrist_2_joint": 1.233022673432363,
            "wrist_3_joint": -3.0940220416140027
        }
    },
    "waypoints": [
        {
            "positions": [
                -0.3378633547517467,
                -1.3736534386056498,
                2.4225746658250005,
                -1.0288598680537169,
                1.233022673432363,
                -3.0940220416140027
            ]
        },
        {
            "positions": [
                -0.2663811752670907,
                -1.4425227192244403,
                2.442815616245625,
                -1.025451927859266,
                1.1864159993624612,
                -2.928771676934342
            ]
        },
        {
            "positions": [
                -0.19489899578243466,
                -1.5113919998432308,
                2.46305656666625,
                -1.0220439876648153,
                1.1398093252925594,
                -2.7635213122546816
            ]
        },
        {
            "positions": [
                -0.12341681629777865,
                -1.5802612804620213,
                2.483297517086875,
                -1.0186360474703644,
                1.0932026512226576,
                -2.5982709475750214
            ]
        },
        {
            "positions": [
                -0.0519346368131226,
                -1.649130561080812,
                2.5035384675074996,
                -1.0152281072759137,
                1.0465959771527555,
                -2.4330205828953604
            ]
        },
        {
            "positions": [
                0.019547542671533413,
                -1.7179998416996023,
                2.5237794179281243,
                -1.0118201670814628,
                0.9999893030828537,
                -2.2677702182157002
            ]
        },
        {
            "positions": [
                0.09102972215618943,
                -1.786869122318393,
                2.544020368348749,
                -1.008412226887012,
                0.9533826290129519,
                -2.1025198535360397
            ]
        },
        {
            "positions": [
                0.16251190164084545,
                -1.8557384029371833,
                2.5642613187693737,
                -1.0050042866925613,
                0.9067759549430501,
                -1.937269488856379
            ]
        },
        {
            "positions": [
                0.23399408112550152,
                -1.924607683555974,
                2.584502269189999,
                -1.0015963464981104,
                0.8601692808731483,
                -1.7720191241767185
            ]
        },
        {
            "positions": [
                0.3054762606101576,
                -1.9934769641747645,
                2.6047432196106235,
                -0.9981884063036596,
                0.8135626068032463,
                -1.606768759497058
            ]
        },
        {
            "positions": [
                0.37695844009481355,
                -2.062346244793555,
                2.624984170031248,
                -0.9947804661092088,
                0.7669559327333445,
                -1.4415183948173975
            ]
        },
        {
            "positions": [
                0.45014758601816174,
                -2.0678261155869855,
                2.6013919800207366,
                -0.9231319304179672,
                0.7404145759170909,
                -1.6088768607364554
            ]
        },
        {
            "positions": [
                0.5233367319415099,
                -2.0733059863804164,
                2.577799790010225,
                -0.8514833947267255,
                0.7138732191008373,
                -1.776235326655513
            ]
        },
        {
            "positions": [
                0.596525877864858,
                -2.078785857173847,
                2.554207599999713,
                -0.7798348590354838,
                0.6873318622845837,
                -1.9435937925745708
            ]
        },
        {
            "positions": [
                0.6697150237882062,
                -2.084265727967278,
                2.5306154099892013,
                -0.7081863233442421,
                0.6607905054683301,
                -2.110952258493629
            ]
        },
        {
            "positions": [
                0.7429041697115544,
                -2.0897455987607083,
                2.5070232199786897,
                -0.6365377876530005,
                0.6342491486520765,
                -2.2783107244126866
            ]
        },
        {
            "positions": [
                0.7339324898668372,
                -2.0445387787113685,
                2.4795673961777642,
                -0.5986453789641147,
                0.6520054608876934,
                -2.488267442305522
            ]
        },
        {
            "positions": [
                0.7249608100221201,
                -1.999331958662029,
                2.4521115723768387,
                -0.560752970275229,
                0.6697617731233103,
                -2.6982241601983574
            ]
        },
        {
            "positions": [
                0.715989130177403,
                -1.9541251386126894,
                2.4246557485759137,
                -0.5228605615863432,
                0.6875180853589271,
                -2.908180878091193
            ]
        },
        {
            "positions": [
                0.7070174503326858,
                -1.9089183185633498,
                2.3971999247749882,
                -0.48496815289745737,
                0.705274397594544,
                -3.1181375959840283
            ]
        }
    ]
}