{
    "goal": {
        "global_pose": {
            "orientation": {
                "w": 0.005598929693374612,
                "x": 0.007748599140229565,
                "y": 0.7110244013736278,
                "z": -0.7031023480610252
            },
            "position": {
                "x": 0.1141497679147869,
                "y": -0.7141253447532654,
                "z": 0.3711530566215515
            }
        },
        "name": "move_to_auspresseinheit_B"
    },
    "id": "FMT_move_to_auspresseinheit_B_47",
    "joint_names": [
        "shoulder_pan_joint",
        "shoulder_lift_joint",
        "elbow_joint",
        "wrist_1_joint",
        "wrist_2_joint",
        "wrist_3_joint"
    ],
    "metrics": {
        "cart_traj_len": 0.5651909583399676,
        "distance_elbow_joint": 0.06100767877157853,
        "distance_shoulder_lift_joint": 0.29586742748481054,
        "distance_shoulder_pan_joint": 0.5788128696862416,
        "distance_wrist_1_joint": 0.3192879764774176,
        "distance_wrist_2_joint": 0.9855328177752143,
        "distance_wrist_3_joint": 0.00127393014399102,
        "smoothness": 0.0,
        "time": 0.470361596,
        "traj_len": 1.4972583946464462,
        "weighted_distance": 1.8839191476493538
    },
    "planner": "FMT",
    "start": {
        "state": {
            "elbow_joint": 2.0193083361928714,
            "shoulder_lift_joint": -1.1220246554650708,
            "shoulder_pan_joint": -1.0952077554168747,
            "wrist_1_joint": -0.8559753972642168,
            "wrist_2_joint": 0.4759566250798843,
            "wrist_3_joint": -3.1240929996934557
        }
    },
    "waypoints": [
        {
            "positions": [
                -1.0952077554168747,
                -1.1220246554650708,
                2.0193083361928714,
                -0.8559753972642168,
                0.4759566250798843,
                -3.1240929996934557
            ]
        },
        {
            "positions": [
                -1.1916765670312484,
                -1.171335893379206,
                2.0091403897309417,
                -0.8027607345179806,
                0.6402120947090867,
                -3.1238806780027906
            ]
        },
        {
            "positions": [
                -1.2881453786456218,
                -1.220647131293341,
                1.998972443269012,
                -0.7495460717717443,
                0.804467564338289,
                -3.1236683563121255
            ]
        },
        {
            "positions": [
                -1.3846141902599953,
                -1.269958369207476,
                1.9888044968070822,
                -0.6963314090255079,
                0.9687230339674915,
                -3.1234560346214604
            ]
        },
        {
            "positions": [
                -1.481083001874369,
                -1.3192696071216112,
                1.9786365503451524,
                -0.6431167462792717,
                1.1329785035966937,
                -3.123243712930795
            ]
        },
        {
            "positions": [
                -1.5775518134887427,
                -1.3685808450357462,
                1.9684686038832226,
                -0.5899020835330355,
                1.2972339732258962,
                -3.1230313912401297
            ]
        },
        {
            "positions": [
                -1.6740206251031162,
                -1.4178920829498813,
                1.958300657421293,
                -0.5366874207867992,
                1.4614894428550986,
                -3.1228190695494646
            ]
        }
    ]
}