{
    "goal": {
        "global_pose": {
            "orientation": {
                "w": 0.5084816217422485,
                "x": -0.49083608388900757,
                "y": 0.5182115435600281,
                "z": -0.4816462993621826
            },
            "position": {
                "x": 0.5540239810943604,
                "y": 0.030875300988554955,
                "z": 0.16403168439865112
            }
        },
        "name": "move_to_storage_A"
    },
    "id": "FMT_move_to_storage_A_39",
    "joint_names": [
        "shoulder_pan_joint",
        "shoulder_lift_joint",
        "elbow_joint",
        "wrist_1_joint",
        "wrist_2_joint",
        "wrist_3_joint"
    ],
    "metrics": {
        "cart_traj_len": 0.3526662141370406,
        "distance_elbow_joint": 0.4472321914339814,
        "distance_shoulder_lift_joint": 0.2345721985208158,
        "distance_shoulder_pan_joint": 0.4586038579488697,
        "distance_wrist_1_joint": 0.23469405319272496,
        "distance_wrist_2_joint": 1.1085400469601232,
        "distance_wrist_3_joint": 0.09113562803679587,
        "smoothness": 1.3322676295501878e-15,
        "time": 0.41234867599999997,
        "traj_len": 1.6046114720060152,
        "weighted_distance": 2.0249156358524547
    },
    "planner": "FMT",
    "start": {
        "state": {
            "elbow_joint": 1.971548259319323,
            "shoulder_lift_joint": -1.1394851275133948,
            "shoulder_pan_joint": 0.1228115487234821,
            "wrist_1_joint": -0.7804723859257726,
            "wrist_2_joint": 0.12958671773740124,
            "wrist_3_joint": -3.192489227718131
        }
    },
    "waypoints": [
        {
            "positions": [
                0.1228115487234821,
                -1.1394851275133948,
                1.971548259319323,
                -0.7804723859257726,
                0.12958671773740124,
                -3.192489227718131
            ]
        },
        {
            "positions": [
                0.057296711873643574,
                -1.172995441587797,
                2.03543857238132,
                -0.8140001078104476,
                0.2879495815888474,
                -3.1794698522843032
            ]
        },
        {
            "positions": [
                -0.008218124976194952,
                -1.2065057556621994,
                2.0993288854433176,
                -0.8475278296951226,
                0.4463124454402936,
                -3.1664504768504753
            ]
        },
        {
            "positions": [
                -0.07373296182603348,
                -1.2400160697366016,
                2.163219198505315,
                -0.8810555515797975,
                0.6046753092917397,
                -3.1534311014166474
            ]
        },
        {
            "positions": [
                -0.139247798675872,
                -1.2735263838110038,
                2.2271095115673125,
                -0.9145832734644725,
                0.7630381731431859,
                -3.140411725982819
            ]
        },
        {
            "positions": [
                -0.20476263552571056,
                -1.307036697885406,
                2.29099982462931,
                -0.9481109953491476,
                0.9214010369946322,
                -3.127392350548991
            ]
        },
        {
            "positions": [
                -0.27027747237554905,
                -1.3405470119598084,
                2.354890137691307,
                -0.9816387172338226,
                1.0797639008460782,
                -3.114372975115163
            ]
        },
        {
            "positions": [
                -0.3357923092253876,
                -1.3740573260342106,
                2.4187804507533044,
                -1.0151664391184976,
                1.2381267646975245,
                -3.1013535996813353
            ]
        }
    ]
}{
    "goal": {
        "global_pose": {
            "orientation": {
                "w": 0.5084816217422485,
                "x": -0.49083608388900757,
                "y": 0.5182115435600281,
                "z": -0.4816462993621826
            },
            "position": {
                "x": 0.5540239810943604,
                "y": 0.030875300988554955,
                "z": 0.16403168439865112
            }
        },
        "name": "move_to_storage_A"
    },
    "id": "FMT_move_to_storage_A_39",
    "joint_names": [
        "shoulder_pan_joint",
        "shoulder_lift_joint",
        "elbow_joint",
        "wrist_1_joint",
        "wrist_2_joint",
        "wrist_3_joint"
    ],
    "metrics": {
        "cart_traj_len": 0.35343301082700873,
        "distance_elbow_joint": 0.45021852644177063,
        "distance_shoulder_lift_joint": 0.2345473589513558,
        "distance_shoulder_pan_joint": 0.46343620017305726,
        "distance_wrist_1_joint": 0.24814164581324394,
        "distance_wrist_2_joint": 1.0936171979876679,
        "distance_wrist_3_joint": 0.0979507486856992,
        "smoothness": 4.440892098500626e-16,
        "time": 0.500099054,
        "traj_len": 1.608698753046323,
        "weighted_distance": 2.03115041767593
    },
    "planner": "FMT",
    "start": {
        "state": {
            "elbow_joint": 1.97154746011099,
            "shoulder_lift_joint": -1.13948474672311,
            "shoulder_pan_joint": 0.12281154466712228,
            "wrist_1_joint": -0.7804688027058302,
            "wrist_2_joint": 0.12958655903071145,
            "wrist_3_joint": 3.0906928834467795
        }
    },
    "waypoints": [
        {
            "positions": [
                0.12281154466712228,
                -1.13948474672311,
                1.97154746011099,
                -0.7804688027058302,
                0.12958655903071145,
                3.0906928834467795
            ]
        },
        {
            "positions": [
                0.05660637321382839,
                -1.1729915122875894,
                2.035864392459814,
                -0.8159176092505793,
                0.285817587314664,
                3.1046858475447365
            ]
        },
        {
            "positions": [
                -0.009598798239465509,
                -1.2064982778520688,
                2.1001813248086387,
                -0.8513664157953285,
                0.4420486155986165,
                3.1186788116426936
            ]
        },
        {
            "positions": [
                -0.07580396969275939,
                -1.2400050434165482,
                2.164498257157463,
                -0.8868152223400776,
                0.598279643882569,
                3.1326717757406506
            ]
        },
        {
            "positions": [
                -0.14200914114605329,
                -1.2735118089810276,
                2.2288151895062875,
                -0.9222640288848267,
                0.7545106721665217,
                3.1466647398386076
            ]
        },
        {
            "positions": [
                -0.2082143125993472,
                -1.307018574545507,
                2.2931321218551117,
                -0.9577128354295759,
                0.9107417004504743,
                3.1606577039365646
            ]
        },
        {
            "positions": [
                -0.27441948405264105,
                -1.3405253401099864,
                2.3574490542039364,
                -0.993161641974325,
                1.0669727287344266,
                3.1746506680345217
            ]
        },
        {
            "positions": [
                -0.34062465550593496,
                -1.3740321056744658,
                2.4217659865527605,
                -1.0286104485190741,
                1.2232037570183794,
                3.1886436321324787
            ]
        }
    ]
}{
    "goal": {
        "global_pose": {
            "orientation": {
                "w": 0.5084816217422485,
                "x": -0.49083608388900757,
                "y": 0.5182115435600281,
                "z": -0.4816462993621826
            },
            "position": {
                "x": 0.5540239810943604,
                "y": 0.030875300988554955,
                "z": 0.16403168439865112
            }
        },
        "name": "move_to_storage_A"
    },
    "id": "FMT_move_to_storage_A_39",
    "joint_names": [
        "shoulder_pan_joint",
        "shoulder_lift_joint",
        "elbow_joint",
        "wrist_1_joint",
        "wrist_2_joint",
        "wrist_3_joint"
    ],
    "metrics": {
        "cart_traj_len": 0.35283852615096245,
        "distance_elbow_joint": 0.44981671996572725,
        "distance_shoulder_lift_joint": 0.2349930811960954,
        "distance_shoulder_pan_joint": 0.459438352133173,
        "distance_wrist_1_joint": 0.24333630770861792,
        "distance_wrist_2_joint": 1.1068579591138021,
        "distance_wrist_3_joint": 0.089092511016442,
        "smoothness": 0.0,
        "time": 0.525801456,
        "traj_len": 1.6073378397629596,
        "weighted_distance": 2.027785545857639
    },
    "planner": "FMT",
    "start": {
        "state": {
            "elbow_joint": 1.9715472970024885,
            "shoulder_lift_joint": -1.1394870060712896,
            "shoulder_pan_joint": 0.12281152778156021,
            "wrist_1_joint": -0.780463741449964,
            "wrist_2_joint": 0.12958659822042276,
            "wrist_3_joint": 3.090690232415272
        }
    },
    "waypoints": [
        {
            "positions": [
                0.12281152778156021,
                -1.1394870060712896,
                1.9715472970024885,
                -0.780463741449964,
                0.12958659822042276,
                3.090690232415272
            ]
        },
        {
            "positions": [
                0.05717747747682121,
                -1.1730574462421604,
                2.0358068284261637,
                -0.8152260711226237,
                0.28770916380810874,
                3.1034177339890494
            ]
        },
        {
            "positions": [
                -0.008456572827917785,
                -1.206627886413031,
                2.1000663598498392,
                -0.8499884007952834,
                0.44583172939579474,
                3.1161452355628265
            ]
        },
        {
            "positions": [
                -0.07409062313265677,
                -1.2401983265839018,
                2.1643258912735144,
                -0.8847507304679431,
                0.6039542949834807,
                3.128872737136604
            ]
        },
        {
            "positions": [
                -0.13972467343739578,
                -1.2737687667547726,
                2.22858542269719,
                -0.9195130601406027,
                0.7620768605711667,
                3.1416002387103816
            ]
        },
        {
            "positions": [
                -0.2053587237421348,
                -1.3073392069256435,
                2.292844954120865,
                -0.9542753898132625,
                0.9201994261588529,
                3.154327740284159
            ]
        },
        {
            "positions": [
                -0.2709927740468737,
                -1.3409096470965143,
                2.35710448554454,
                -0.9890377194859222,
                1.0783219917465388,
                3.1670552418579363
            ]
        },
        {
            "positions": [
                -0.3366268243516128,
                -1.374480087267385,
                2.421364016968216,
                -1.023800049158582,
                1.2364445573342249,
                3.179782743431714
            ]
        }
    ]
}