{
    "goal": {
        "global_pose": {
            "orientation": {
                "w": 0.7031023502349854,
                "x": -0.7110244035720825,
                "y": 0.007748599164187908,
                "z": 0.005598929710686207
            },
            "position": {
                "x": 0.11585023208521307,
                "y": 0.44412534475326537,
                "z": 0.3711530566215515
            }
        },
        "name": "move_to_auspresseinheit_A"
    },
    "id": "FMT_move_to_auspresseinheit_A_136",
    "joint_names": [
        "shoulder_pan_joint",
        "shoulder_lift_joint",
        "elbow_joint",
        "wrist_1_joint",
        "wrist_2_joint",
        "wrist_3_joint"
    ],
    "metrics": {
        "cart_traj_len": 1.0314741067025404,
        "distance_elbow_joint": 0.1535239260575496,
        "distance_shoulder_lift_joint": 1.6966677123021254,
        "distance_shoulder_pan_joint": 1.1669956171707536,
        "distance_wrist_1_joint": 0.5466056074250409,
        "distance_wrist_2_joint": 0.5285291824202047,
        "distance_wrist_3_joint": 0.05694768230460312,
        "smoothness": 1.2303155089650237,
        "time": 1.3205731,
        "traj_len": 2.036975632569098,
        "weighted_distance": 2.310476115897918
    },
    "planner": "FMT",
    "start": {
        "state": {
            "elbow_joint": 2.4225746658250005,
            "shoulder_lift_joint": -1.3736534386056498,
            "shoulder_pan_joint": -0.3378633547517467,
            "wrist_1_joint": -1.0288598680537169,
            "wrist_2_joint": 1.233022673432363,
            "wrist_3_joint": -3.0940220416140027
        }
    },
    "waypoints": [
        {
            "positions": [
                -0.3378633547517467,
                -1.3736534386056498,
                2.4225746658250005,
                -1.0288598680537169,
                1.233022673432363,
                -3.0940220416140027
            ]
        },
        {
            "positions": [
                -0.19374494823616453,
                -1.5331992863230388,
                2.4316155553003527,
                -1.0076361485578131,
                1.2240678287150313,
                -3.0930513952503462
            ]
        },
        {
            "positions": [
                -0.04962654172058234,
                -1.692745134040428,
                2.440656444775705,
                -0.9864124290619095,
                1.2151129839976997,
                -3.09208074888669
            ]
        },
        {
            "positions": [
                0.09449186479499988,
                -1.852290981757817,
                2.449697334251057,
                -0.9651887095660058,
                1.206158139280368,
                -3.0911101025230336
            ]
        },
        {
            "positions": [
                0.23861027131058204,
                -2.011836829475206,
                2.458738223726409,
                -0.943964990070102,
                1.1972032945630364,
                -3.090139456159377
            ]
        },
        {
            "positions": [
                0.3827286778261643,
                -2.1713826771925953,
                2.467779113201761,
                -0.9227412705741983,
                1.1882484498457047,
                -3.0891688097957206
            ]
        },
        {
            "positions": [
                0.5268470843417465,
                -2.330928524909984,
                2.476820002677113,
                -0.9015175510782947,
                1.1792936051283731,
                -3.0881981634320645
            ]
        },
        {
            "positions": [
                0.6709654908573287,
                -2.4904743726273733,
                2.4858608921524654,
                -0.8802938315823909,
                1.1703387604110413,
                -3.087227517068408
            ]
        },
        {
            "positions": [
                0.6904106013177944,
                -2.3808306907196095,
                2.468866794053092,
                -0.801175398056158,
                1.0779783296436425,
                -3.096225414182191
            ]
        },
        {
            "positions": [
                0.7098557117782601,
                -2.2711870088118458,
                2.4518726959537185,
                -0.7220569645299251,
                0.9856178988762436,
                -3.1052233112959744
            ]
        },
        {
            "positions": [
                0.7293008222387258,
                -2.1615433269040825,
                2.434878597854345,
                -0.6429385310036922,
                0.8932574681088448,
                -3.1142212084097576
            ]
        },
        {
            "positions": [
                0.7487459326991915,
                -2.0518996449963187,
                2.4178844997549716,
                -0.5638200974774592,
                0.8008970373414459,
                -3.1232191055235408
            ]
        },
        {
            "positions": [
                0.7681910431596572,
                -1.942255963088555,
                2.400890401655598,
                -0.4847016639512264,
                0.708536606574047,
                -3.132217002637324
            ]
        },
        {
            "positions": [
                0.7072498239003081,
                -1.9106275943469713,
                2.3956231924223808,
                -0.4822542606286759,
                0.7044934910121583,
                -3.1270533304472314
            ]
        }
    ]
}