{
    "goal": {
        "global_pose": {
            "orientation": {
                "w": 0.7031023502349854,
                "x": -0.7110244035720825,
                "y": 0.007748599164187908,
                "z": 0.005598929710686207
            },
            "position": {
                "x": 0.11585023208521307,
                "y": 0.44412534475326537,
                "z": 0.3711530566215515
            }
        },
        "name": "move_to_auspresseinheit_A"
    },
    "id": "FMT_move_to_auspresseinheit_A_123",
    "joint_names": [
        "shoulder_pan_joint",
        "shoulder_lift_joint",
        "elbow_joint",
        "wrist_1_joint",
        "wrist_2_joint",
        "wrist_3_joint"
    ],
    "metrics": {
        "cart_traj_len": 1.2494779975965846,
        "distance_elbow_joint": 0.3448021994176589,
        "distance_shoulder_lift_joint": 0.7823118060588674,
        "distance_shoulder_pan_joint": 1.9747799427418906,
        "distance_wrist_1_joint": 0.5475852926523118,
        "distance_wrist_2_joint": 0.5097299704170576,
        "distance_wrist_3_joint": 0.2198990919290944,
        "smoothness": 1.0532990090201824,
        "time": 1.062043584,
        "traj_len": 2.0926319082000253,
        "weighted_distance": 2.424091943418079
    },
    "planner": "FMT",
    "start": {
        "state": {
            "elbow_joint": 2.4225746658250005,
            "shoulder_lift_joint": -1.3736534386056498,
            "shoulder_pan_joint": -0.3378633547517467,
            "wrist_1_joint": -1.0288598680537169,
            "wrist_2_joint": 1.233022673432363,
            "wrist_3_joint": -3.0940220416140027
        }
    },
    "waypoints": [
        {
            "positions": [
                -0.3378633547517467,
                -1.3736534386056498,
                2.4225746658250005,
                -1.0288598680537169,
                1.233022673432363,
                -3.0940220416140027
            ]
        },
        {
            "positions": [
                -0.4303721680449003,
                -1.5056373574105606,
                2.3855359310543314,
                -0.9535987193422351,
                1.2021060565014063,
                -3.119380021945824
            ]
        },
        {
            "positions": [
                -0.5228809813380538,
                -1.6376212762154716,
                2.3484971962836627,
                -0.8783375706307532,
                1.1711894395704499,
                -3.144738002277645
            ]
        },
        {
            "positions": [
                -0.6153897946312075,
                -1.7696051950203824,
                2.3114584615129936,
                -0.8030764219192714,
                1.1402728226394931,
                -3.1700959826094657
            ]
        },
        {
            "positions": [
                -0.707898607924361,
                -1.9015891138252932,
                2.274419726742325,
                -0.7278152732077895,
                1.1093562057085367,
                -3.195453962941287
            ]
        },
        {
            "positions": [
                -0.8004074212175145,
                -2.033573032630204,
                2.237380991971656,
                -0.6525541244963077,
                1.07843958877758,
                -3.220811943273108
            ]
        },
        {
            "positions": [
                -0.5843737246066398,
                -2.0160884309110165,
                2.260182209909415,
                -0.6280856174827502,
                1.0277043193829694,
                -3.2075106303773953
            ]
        },
        {
            "positions": [
                -0.36834002799576515,
                -1.9986038291918287,
                2.2829834278471743,
                -0.6036171104691926,
                0.9769690499883587,
                -3.1942093174816826
            ]
        },
        {
            "positions": [
                -0.15230633138489047,
                -1.981119227472641,
                2.3057846457849336,
                -0.5791486034556351,
                0.9262337805937481,
                -3.18090800458597
            ]
        },
        {
            "positions": [
                0.06372736522598421,
                -1.9636346257534536,
                2.3285858637226924,
                -0.5546800964420776,
                0.8754985111991374,
                -3.1676066916902568
            ]
        },
        {
            "positions": [
                0.2797610618368589,
                -1.946150024034266,
                2.3513870816604516,
                -0.5302115894285201,
                0.8247632418045268,
                -3.154305378794544
            ]
        },
        {
            "positions": [
                0.4957947584477336,
                -1.9286654223150783,
                2.374188299598211,
                -0.5057430824149626,
                0.7740279724099162,
                -3.1410040658988314
            ]
        },
        {
            "positions": [
                0.7118284550586083,
                -1.9111808205958907,
                2.39698951753597,
                -0.48127457540140506,
                0.7232927030153055,
                -3.1277027530031187
            ]
        }
    ]
}