{
    "goal": {
        "global_pose": {
            "orientation": {
                "w": 0.005598929693374612,
                "x": 0.007748599140229565,
                "y": 0.7110244013736278,
                "z": -0.7031023480610252
            },
            "position": {
                "x": -0.8858502320852131,
                "y": -0.7141253447532654,
                "z": 0.3711530566215515
            }
        },
        "name": "move_to_auspresseinheit_C"
    },
    "id": "FMT_move_to_auspresseinheit_C_24",
    "joint_names": [
        "shoulder_pan_joint",
        "shoulder_lift_joint",
        "elbow_joint",
        "wrist_1_joint",
        "wrist_2_joint",
        "wrist_3_joint"
    ],
    "metrics": {
        "cart_traj_len": 0.49227687957701016,
        "distance_elbow_joint": 0.9916624260495337,
        "distance_shoulder_lift_joint": 0.3208380309890162,
        "distance_shoulder_pan_joint": 0.2553705488735116,
        "distance_wrist_1_joint": 0.6563552120641734,
        "distance_wrist_2_joint": 1.3143751494463114,
        "distance_wrist_3_joint": 0.052962535149508216,
        "smoothness": 8.074349282788172e-16,
        "time": 0.36507087699999996,
        "traj_len": 1.8951421853180448,
        "weighted_distance": 2.380802245962809
    },
    "planner": "FMT",
    "start": {
        "state": {
            "elbow_joint": 1.7527959577737207,
            "shoulder_lift_joint": -0.9740617694225068,
            "shoulder_pan_joint": -2.967991417825858,
            "wrist_1_joint": -0.759517768980727,
            "wrist_2_joint": 1.7443932448377408,
            "wrist_3_joint": -3.0840537646736568
        }
    },
    "waypoints": [
        {
            "positions": [
                -2.967991417825858,
                -0.9740617694225068,
                1.7527959577737207,
                -0.759517768980727,
                1.7443932448377408,
                -3.0840537646736568
            ]
        },
        {
            "positions": [
                -2.942454362938507,
                -0.9419779663236052,
                1.6536297151687673,
                -0.6938822477743096,
                1.6129557298931096,
                -3.0893500181886075
            ]
        },
        {
            "positions": [
                -2.9169173080511555,
                -0.9098941632247035,
                1.554463472563814,
                -0.6282467265678923,
                1.4815182149484785,
                -3.0946462717035583
            ]
        },
        {
            "positions": [
                -2.8913802531638044,
                -0.8778103601258019,
                1.4552972299588607,
                -0.562611205361475,
                1.3500807000038475,
                -3.099942525218509
            ]
        },
        {
            "positions": [
                -2.8658431982764534,
                -0.8457265570269002,
                1.3561309873539071,
                -0.4969756841550576,
                1.218643185059216,
                -3.10523877873346
            ]
        },
        {
            "positions": [
                -2.8403061433891024,
                -0.8136427539279987,
                1.2569647447489538,
                -0.4313401629486403,
                1.0872056701145851,
                -3.1105350322484107
            ]
        },
        {
            "positions": [
                -2.814769088501751,
                -0.7815589508290971,
                1.1577985021440005,
                -0.365704641742223,
                0.9557681551699541,
                -3.115831285763362
            ]
        },
        {
            "positions": [
                -2.7892320336144,
                -0.7494751477301954,
                1.0586322595390472,
                -0.30006912053580564,
                0.8243306402253229,
                -3.1211275392783127
            ]
        },
        {
            "positions": [
                -2.763694978727049,
                -0.7173913446312938,
                0.9594660169340936,
                -0.23443359932938823,
                0.6928931252806916,
                -3.1264237927932634
            ]
        },
        {
            "positions": [
                -2.7381579238396974,
                -0.6853075415323922,
                0.8602997743291403,
                -0.16879807812297098,
                0.5614556103360606,
                -3.131720046308214
            ]
        },
        {
            "positions": [
                -2.7126208689523463,
                -0.6532237384334906,
                0.761133531724187,
                -0.10316255691655363,
                0.4300180953914295,
                -3.137016299823165
            ]
        }
    ]
}