{
    "goal": {
        "global_pose": {
            "orientation": {
                "w": -0.00223480608172531,
                "x": 0.0024358444001904467,
                "y": 0.7094548369677653,
                "z": -0.704743149386269
            },
            "position": {
                "x": -0.37947507619857795,
                "y": -0.6371506643295288,
                "z": 0.19426114857196808
            }
        },
        "name": "move_to_magneteinheit_C"
    },
    "id": "FMT_move_to_magneteinheit_C_56",
    "joint_names": [
        "shoulder_pan_joint",
        "shoulder_lift_joint",
        "elbow_joint",
        "wrist_1_joint",
        "wrist_2_joint",
        "wrist_3_joint"
    ],
    "metrics": {
        "cart_traj_len": 0.784840255915376,
        "distance_elbow_joint": 0.1814061261416291,
        "distance_shoulder_lift_joint": 0.787607235068084,
        "distance_shoulder_pan_joint": 0.7992777113229981,
        "distance_wrist_1_joint": 1.8172602029750777,
        "distance_wrist_2_joint": 0.9572314604020914,
        "distance_wrist_3_joint": 0.08253596576337419,
        "smoothness": 1.4289652252091904,
        "time": 0.91715027,
        "traj_len": 2.1506554121181884,
        "weighted_distance": 2.7504331107258677
    },
    "planner": "FMT",
    "start": {
        "state": {
            "elbow_joint": 1.9565354010623817,
            "shoulder_lift_joint": -1.4165861575791021,
            "shoulder_pan_joint": -1.6717766225146293,
            "wrist_1_joint": -0.5286633292919765,
            "wrist_2_joint": 1.472756589071564,
            "wrist_3_joint": -3.1238370188695823
        }
    },
    "waypoints": [
        {
            "positions": [
                -1.6717766225146293,
                -1.4165861575791021,
                1.9565354010623817,
                -0.5286633292919765,
                1.472756589071564,
                -3.1238370188695823
            ]
        },
        {
            "positions": [
                -1.7977407321265855,
                -1.4611547664416706,
                1.9759474111530988,
                -0.4013694496960349,
                1.4870421718982374,
                -3.13329017369867
            ]
        },
        {
            "positions": [
                -1.9237048417385416,
                -1.5057233753042394,
                1.9953594212438157,
                -0.2740755701000933,
                1.5013277547249106,
                -3.142743328527757
            ]
        },
        {
            "positions": [
                -2.049668951350498,
                -1.5502919841668081,
                2.014771431334533,
                -0.14678169050415169,
                1.5156133375515841,
                -3.1521964833568443
            ]
        },
        {
            "positions": [
                -2.175633060962454,
                -1.5948605930293767,
                2.0341834414252498,
                -0.019487810908210168,
                1.5298989203782576,
                -3.161649638185932
            ]
        },
        {
            "positions": [
                -2.3015971705744103,
                -1.6394292018919452,
                2.053595451515967,
                0.10780606868773157,
                1.5441845032049308,
                -3.171102793015019
            ]
        },
        {
            "positions": [
                -2.4275612801863664,
                -1.683997810754514,
                2.073007461606684,
                0.23509994828367312,
                1.5584700860316043,
                -3.1805559478441063
            ]
        },
        {
            "positions": [
                -2.433774573565118,
                -1.6096841561984179,
                2.0637311665213516,
                0.08460038751232621,
                1.433967519825597,
                -3.1768677997314136
            ]
        },
        {
            "positions": [
                -2.4399878669438695,
                -1.5353705016423218,
                2.054454871436019,
                -0.0658991732590207,
                1.3094649536195897,
                -3.1731796516187205
            ]
        },
        {
            "positions": [
                -2.4462011603226212,
                -1.4610568470862257,
                2.0451785763506867,
                -0.2163987340303676,
                1.1849623874135824,
                -3.169491503506028
            ]
        },
        {
            "positions": [
                -2.4524144537013726,
                -1.38674319253013,
                2.0359022812653547,
                -0.36689829480171454,
                1.060459821207575,
                -3.1658033553933347
            ]
        },
        {
            "positions": [
                -2.4586277470801243,
                -1.3124295379740338,
                2.026625986180022,
                -0.5173978555730615,
                0.9359572550015679,
                -3.162115207280642
            ]
        },
        {
            "positions": [
                -2.4648410404588756,
                -1.2381158834179378,
                2.0173496910946898,
                -0.6678974163444084,
                0.8114546887955606,
                -3.158427059167949
            ]
        },
        {
            "positions": [
                -2.4710543338376274,
                -1.1638022288618417,
                2.0080733960093573,
                -0.8183969771157553,
                0.6869521225895533,
                -3.154738911055256
            ]
        }
    ]
}