{
    "goal": {
        "global_pose": {
            "orientation": {
                "w": 0.5084816217422485,
                "x": -0.49083608388900757,
                "y": 0.5182115435600281,
                "z": -0.4816462993621826
            },
            "position": {
                "x": 0.5540239810943604,
                "y": 0.030875300988554955,
                "z": 0.16403168439865112
            }
        },
        "name": "move_to_storage_A"
    },
    "id": "FMT_move_to_storage_A_57",
    "joint_names": [
        "shoulder_pan_joint",
        "shoulder_lift_joint",
        "elbow_joint",
        "wrist_1_joint",
        "wrist_2_joint",
        "wrist_3_joint"
    ],
    "metrics": {
        "cart_traj_len": 0.3535277981992883,
        "distance_elbow_joint": 0.4494305029784138,
        "distance_shoulder_lift_joint": 0.23706839097072852,
        "distance_shoulder_pan_joint": 0.4614542926340101,
        "distance_wrist_1_joint": 0.23408822263070028,
        "distance_wrist_2_joint": 1.1047591304473907,
        "distance_wrist_3_joint": 0.09752468739936981,
        "smoothness": 1.2212453191034883e-15,
        "time": 0.37074502299999995,
        "traj_len": 1.6075836609833447,
        "weighted_distance": 2.0293402757885244
    },
    "planner": "FMT",
    "start": {
        "state": {
            "elbow_joint": 1.971548259319323,
            "shoulder_lift_joint": -1.1394851275133948,
            "shoulder_pan_joint": 0.1228115487234821,
            "wrist_1_joint": -0.7804723859257726,
            "wrist_2_joint": 0.12958671773740124,
            "wrist_3_joint": -3.192489227718131
        }
    },
    "waypoints": [
        {
            "positions": [
                0.1228115487234821,
                -1.1394851275133948,
                1.971548259319323,
                -0.7804723859257726,
                0.12958671773740124,
                -3.192489227718131
            ]
        },
        {
            "positions": [
                0.05688950691862352,
                -1.1733520405092133,
                2.0357526168876676,
                -0.8139135605873012,
                0.287409450658457,
                -3.178557129518221
            ]
        },
        {
            "positions": [
                -0.009032534886235066,
                -1.2072189535050315,
                2.0999569744560125,
                -0.8473547352488299,
                0.4452321835795129,
                -3.164625031318311
            ]
        },
        {
            "positions": [
                -0.07495457669109365,
                -1.24108586650085,
                2.1641613320243573,
                -0.8807959099103584,
                0.6030549165005686,
                -3.150692933118401
            ]
        },
        {
            "positions": [
                -0.14087661849595223,
                -1.2749527794966682,
                2.228365689592702,
                -0.914237084571887,
                0.7608776494216245,
                -3.1367608349184914
            ]
        },
        {
            "positions": [
                -0.20679866030081084,
                -1.3088196924924866,
                2.292570047161047,
                -0.9476782592334156,
                0.9187003823426804,
                -3.1228287367185814
            ]
        },
        {
            "positions": [
                -0.2727207021056694,
                -1.3426866054883049,
                2.356774404729392,
                -0.9811194338949443,
                1.076523115263736,
                -3.1088966385186714
            ]
        },
        {
            "positions": [
                -0.338642743910528,
                -1.3765535184841233,
                2.420978762297737,
                -1.014560608556473,
                1.234345848184792,
                -3.0949645403187613
            ]
        }
    ]
}{
    "goal": {
        "global_pose": {
            "orientation": {
                "w": 0.5084816217422485,
                "x": -0.49083608388900757,
                "y": 0.5182115435600281,
                "z": -0.4816462993621826
            },
            "position": {
                "x": 0.5540239810943604,
                "y": 0.030875300988554955,
                "z": 0.16403168439865112
            }
        },
        "name": "move_to_storage_A"
    },
    "id": "FMT_move_to_storage_A_57",
    "joint_names": [
        "shoulder_pan_joint",
        "shoulder_lift_joint",
        "elbow_joint",
        "wrist_1_joint",
        "wrist_2_joint",
        "wrist_3_joint"
    ],
    "metrics": {
        "cart_traj_len": 0.35303421300294496,
        "distance_elbow_joint": 0.4500697504905631,
        "distance_shoulder_lift_joint": 0.23588105326318143,
        "distance_shoulder_pan_joint": 0.462496793560494,
        "distance_wrist_1_joint": 0.23930150839784692,
        "distance_wrist_2_joint": 1.095955385981226,
        "distance_wrist_3_joint": 0.08742580900507058,
        "smoothness": 1.1102230298998083e-15,
        "time": 0.40725829,
        "traj_len": 1.6034744465373878,
        "weighted_distance": 2.0202076163324394
    },
    "planner": "FMT",
    "start": {
        "state": {
            "elbow_joint": 1.97154746011099,
            "shoulder_lift_joint": -1.13948474672311,
            "shoulder_pan_joint": 0.12281154466712228,
            "wrist_1_joint": -0.7804688027058302,
            "wrist_2_joint": 0.12958655903071145,
            "wrist_3_joint": 3.0906928834467795
        }
    },
    "waypoints": [
        {
            "positions": [
                0.12281154466712228,
                -1.13948474672311,
                1.97154746011099,
                -0.7804688027058302,
                0.12958655903071145,
                3.0906928834467795
            ]
        },
        {
            "positions": [
                0.056740574158480286,
                -1.1731820400464217,
                2.035843138752499,
                -0.8146547324769512,
                0.28615161417088664,
                3.103182284733218
            ]
        },
        {
            "positions": [
                -0.00933039635016171,
                -1.2068793333697332,
                2.100138817394008,
                -0.8488406622480722,
                0.4427166693110618,
                3.115671686019657
            ]
        },
        {
            "positions": [
                -0.0754013668588037,
                -1.240576626693045,
                2.164434496035517,
                -0.8830265920191931,
                0.599281724451237,
                3.1281610873060957
            ]
        },
        {
            "positions": [
                -0.1414723373674457,
                -1.2742739200163564,
                2.228730174677026,
                -0.9172125217903141,
                0.7558467795914121,
                3.140650488592534
            ]
        },
        {
            "positions": [
                -0.2075433078760877,
                -1.3079712133396681,
                2.293025853318535,
                -0.9513984515614351,
                0.9124118347315873,
                3.1531398898789726
            ]
        },
        {
            "positions": [
                -0.2736142783847297,
                -1.3416685066629797,
                2.357321531960044,
                -0.9855843813325561,
                1.0689768898717624,
                3.1656292911654114
            ]
        },
        {
            "positions": [
                -0.3396852488933717,
                -1.3753657999862914,
                2.421617210601553,
                -1.019770311103677,
                1.2255419450119376,
                3.17811869245185
            ]
        }
    ]
}{
    "goal": {
        "global_pose": {
            "orientation": {
                "w": 0.5084816217422485,
                "x": -0.49083608388900757,
                "y": 0.5182115435600281,
                "z": -0.4816462993621826
            },
            "position": {
                "x": 0.5540239810943604,
                "y": 0.030875300988554955,
                "z": 0.16403168439865112
            }
        },
        "name": "move_to_storage_A"
    },
    "id": "FMT_move_to_storage_A_57",
    "joint_names": [
        "shoulder_pan_joint",
        "shoulder_lift_joint",
        "elbow_joint",
        "wrist_1_joint",
        "wrist_2_joint",
        "wrist_3_joint"
    ],
    "metrics": {
        "cart_traj_len": 0.35271646593288586,
        "distance_elbow_joint": 0.449312897832467,
        "distance_shoulder_lift_joint": 0.23651015212837567,
        "distance_shoulder_pan_joint": 0.45918013419820763,
        "distance_wrist_1_joint": 0.23857747669268203,
        "distance_wrist_2_joint": 1.1077755120902153,
        "distance_wrist_3_joint": 0.09406126441739548,
        "smoothness": 0.0,
        "time": 0.407311713,
        "traj_len": 1.60792333068444,
        "weighted_distance": 2.0297519441983622
    },
    "planner": "FMT",
    "start": {
        "state": {
            "elbow_joint": 1.9715472970024885,
            "shoulder_lift_joint": -1.1394870060712896,
            "shoulder_pan_joint": 0.12281152778156021,
            "wrist_1_joint": -0.780463741449964,
            "wrist_2_joint": 0.12958659822042276,
            "wrist_3_joint": 3.090690232415272
        }
    },
    "waypoints": [
        {
            "positions": [
                0.12281152778156021,
                -1.1394870060712896,
                1.9715472970024885,
                -0.780463741449964,
                0.12958659822042276,
                3.090690232415272
            ]
        },
        {
            "positions": [
                0.057214365753244845,
                -1.1732741706610577,
                2.0357348538356983,
                -0.8145462381203471,
                0.2878402428047392,
                3.1041275559034713
            ]
        },
        {
            "positions": [
                -0.00838279627507052,
                -1.2070613352508255,
                2.0999224106689076,
                -0.8486287347907303,
                0.44609388738905564,
                3.1175648793916704
            ]
        },
        {
            "positions": [
                -0.07397995830338588,
                -1.2408484998405935,
                2.1641099675021174,
                -0.8827112314611134,
                0.6043475319733721,
                3.13100220287987
            ]
        },
        {
            "positions": [
                -0.13957712033170125,
                -1.2746356644303614,
                2.2282975243353267,
                -0.9167937281314966,
                0.7626011765576886,
                3.1444395263680693
            ]
        },
        {
            "positions": [
                -0.20517428236001664,
                -1.3084228290201294,
                2.2924850811685364,
                -0.9508762248018797,
                0.9208548211420051,
                3.157876849856269
            ]
        },
        {
            "positions": [
                -0.270771444388332,
                -1.3422099936098972,
                2.3566726380017458,
                -0.9849587214722628,
                1.0791084657263215,
                3.171314173344468
            ]
        },
        {
            "positions": [
                -0.3363686064166474,
                -1.3759971581996653,
                2.4208601948349555,
                -1.019041218142646,
                1.237362110310638,
                3.1847514968326673
            ]
        }
    ]
}