{
    "goal": {
        "global_pose": {
            "orientation": {
                "w": 0.005598929693374612,
                "x": 0.007748599140229565,
                "y": 0.7110244013736278,
                "z": -0.7031023480610252
            },
            "position": {
                "x": 0.1141497679147869,
                "y": -0.7141253447532654,
                "z": 0.3711530566215515
            }
        },
        "name": "move_to_auspresseinheit_B"
    },
    "id": "FMT_move_to_auspresseinheit_B_62",
    "joint_names": [
        "shoulder_pan_joint",
        "shoulder_lift_joint",
        "elbow_joint",
        "wrist_1_joint",
        "wrist_2_joint",
        "wrist_3_joint"
    ],
    "metrics": {
        "cart_traj_len": 0.5648470047630517,
        "distance_elbow_joint": 0.058953664357016766,
        "distance_shoulder_lift_joint": 0.29491423551113405,
        "distance_shoulder_pan_joint": 0.5792600701996797,
        "distance_wrist_1_joint": 0.31543845896868294,
        "distance_wrist_2_joint": 0.9862040735088764,
        "distance_wrist_3_joint": 0.010779505466448125,
        "smoothness": 5.075305255429287e-16,
        "time": 0.468317246,
        "traj_len": 1.4985159351878237,
        "weighted_distance": 1.8891139593529804
    },
    "planner": "FMT",
    "start": {
        "state": {
            "elbow_joint": 2.0193083361928714,
            "shoulder_lift_joint": -1.1220246554650708,
            "shoulder_pan_joint": -1.0952077554168747,
            "wrist_1_joint": -0.8559753972642168,
            "wrist_2_joint": 0.4759566250798843,
            "wrist_3_joint": -3.1240929996934557
        }
    },
    "waypoints": [
        {
            "positions": [
                -1.0952077554168747,
                -1.1220246554650708,
                2.0193083361928714,
                -0.8559753972642168,
                0.4759566250798843,
                -3.1240929996934557
            ]
        },
        {
            "positions": [
                -1.1917511004501546,
                -1.1711770280502598,
                2.009482725466702,
                -0.8034023207694363,
                0.640323970664697,
                -3.1222964154490476
            ]
        },
        {
            "positions": [
                -1.2882944454834346,
                -1.2203294006354488,
                1.9996571147405324,
                -0.7508292442746558,
                0.8046913162495097,
                -3.1204998312046395
            ]
        },
        {
            "positions": [
                -1.3848377905167144,
                -1.2694817732206378,
                1.989831504014363,
                -0.6982561677798753,
                0.9690586618343224,
                -3.118703246960232
            ]
        },
        {
            "positions": [
                -1.4813811355499944,
                -1.3186341458058268,
                1.9800058932881937,
                -0.6456830912850948,
                1.1334260074191351,
                -3.1169066627158237
            ]
        },
        {
            "positions": [
                -1.5779244805832744,
                -1.3677865183910158,
                1.970180282562024,
                -0.5931100147903143,
                1.297793353003948,
                -3.1151100784714156
            ]
        },
        {
            "positions": [
                -1.6744678256165544,
                -1.4169388909762048,
                1.9603546718358547,
                -0.5405369382955338,
                1.4621606985887607,
                -3.1133134942270075
            ]
        }
    ]
}