{
    "goal": {
        "global_pose": {
            "orientation": {
                "w": -0.00223480608172531,
                "x": 0.0024358444001904467,
                "y": 0.7094548369677653,
                "z": -0.704743149386269
            },
            "position": {
                "x": 0.6205249238014221,
                "y": -0.6371506643295288,
                "z": 0.19426114857196808
            }
        },
        "name": "move_to_magneteinheit_B"
    },
    "id": "FMT_move_to_magneteinheit_B_34",
    "joint_names": [
        "shoulder_pan_joint",
        "shoulder_lift_joint",
        "elbow_joint",
        "wrist_1_joint",
        "wrist_2_joint",
        "wrist_3_joint"
    ],
    "metrics": {
        "cart_traj_len": 3.2841511399130923,
        "distance_elbow_joint": 4.558448215402938,
        "distance_shoulder_lift_joint": 1.057642268349622,
        "distance_shoulder_pan_joint": 3.2941859532297313,
        "distance_wrist_1_joint": 2.9188421435743774,
        "distance_wrist_2_joint": 1.1864963174181,
        "distance_wrist_3_joint": 0.3254307969871035,
        "smoothness": 0.7095291365650671,
        "time": 1.628596671,
        "traj_len": 3.65253962264092,
        "weighted_distance": 4.254085771341307
    },
    "planner": "FMT",
    "start": {
        "state": {
            "elbow_joint": 2.6216224122426386,
            "shoulder_lift_joint": -1.4174107377796124,
            "shoulder_pan_joint": 0.7066234856936794,
            "wrist_1_joint": 1.9546482284002225,
            "wrist_2_joint": -0.7096286983471962,
            "wrist_3_joint": 0.005740856962016249
        }
    },
    "waypoints": [
        {
            "positions": [
                0.7066234856936794,
                -1.4174107377796124,
                2.6216224122426386,
                1.9546482284002225,
                -0.7096286983471962,
                0.005740856962016249
            ]
        },
        {
            "positions": [
                0.6298832881685259,
                -1.460332054575627,
                2.6221787976764577,
                2.045645563194597,
                -0.5739539593011255,
                0.031217178687052094
            ]
        },
        {
            "positions": [
                0.5531430906433723,
                -1.503253371371642,
                2.622735183110277,
                2.1366428979889722,
                -0.43827922025505467,
                0.05669350041208794
            ]
        },
        {
            "positions": [
                0.4764028931182188,
                -1.5461746881676568,
                2.6232915685440963,
                2.227640232783347,
                -0.30260448120898387,
                0.08216982213712379
            ]
        },
        {
            "positions": [
                0.39966269559306533,
                -1.5890960049636718,
                2.623847953977916,
                2.3186375675777215,
                -0.16692974216291312,
                0.10764614386215964
            ]
        },
        {
            "positions": [
                0.3229224980679118,
                -1.6320173217596865,
                2.624404339411735,
                2.4096349023720967,
                -0.03125500311684226,
                0.1331224655871955
            ]
        },
        {
            "positions": [
                0.2461823005427583,
                -1.6749386385557012,
                2.6249607248455544,
                2.5006322371664713,
                0.10441973592922849,
                0.15859878731223134
            ]
        },
        {
            "positions": [
                0.16944210301760476,
                -1.7178599553517162,
                2.6255171102793735,
                2.591629571960846,
                0.24009447497529934,
                0.1840751090372672
            ]
        },
        {
            "positions": [
                0.2787867391198091,
                -1.719555683575138,
                2.4410891597986626,
                2.5103138305493524,
                0.24267505906965786,
                0.18291244821970176
            ]
        },
        {
            "positions": [
                0.3881313752220134,
                -1.72125141179856,
                2.2566612093179517,
                2.428998089137859,
                0.2452556431640164,
                0.18174978740213635
            ]
        },
        {
            "positions": [
                0.49747601132421776,
                -1.7229471400219818,
                2.0722332588372407,
                2.347682347726365,
                0.24783622725837495,
                0.18058712658457093
            ]
        },
        {
            "positions": [
                0.606820647426422,
                -1.7246428682454036,
                1.8878053083565298,
                2.2663666063148713,
                0.25041681135273347,
                0.1794244657670055
            ]
        },
        {
            "positions": [
                0.7161652835286264,
                -1.7263385964688254,
                1.7033773578758187,
                2.1850508649033777,
                0.252997395447092,
                0.17826180494944005
            ]
        },
        {
            "positions": [
                0.8255099196308308,
                -1.7280343246922474,
                1.5189494073951078,
                2.1037351234918837,
                0.25557797954145056,
                0.17709914413187464
            ]
        },
        {
            "positions": [
                0.9348545557330351,
                -1.7297300529156692,
                1.3345214569143966,
                2.02241938208039,
                0.2581585636358091,
                0.17593648331430922
            ]
        },
        {
            "positions": [
                1.0441991918352393,
                -1.731425781139091,
                1.150093506433686,
                1.9411036406688966,
                0.2607391477301676,
                0.17477382249674378
            ]
        },
        {
            "positions": [
                1.1535438279374437,
                -1.733121509362513,
                0.9656655559529748,
                1.8597878992574028,
                0.2633197318245261,
                0.17361116167917834
            ]
        },
        {
            "positions": [
                1.262888464039648,
                -1.7348172375859348,
                0.7812376054722638,
                1.778472157845909,
                0.26590031591888463,
                0.17244850086161292
            ]
        },
        {
            "positions": [
                1.3722331001418524,
                -1.7365129658093565,
                0.5968096549915529,
                1.6971564164344155,
                0.2684809000132432,
                0.1712858400440475
            ]
        },
        {
            "positions": [
                1.4815777362440568,
                -1.7382086940327786,
                0.412381704510842,
                1.615840675022922,
                0.2710614841076017,
                0.17012317922648207
            ]
        },
        {
            "positions": [
                1.5909223723462609,
                -1.7399044222562003,
                0.22795375403013107,
                1.5345249336114282,
                0.27364206820196024,
                0.16896051840891665
            ]
        },
        {
            "positions": [
                1.7002670084484655,
                -1.7416001504796221,
                0.043525803549419706,
                1.4532091921999344,
                0.2762226522963188,
                0.1677978575913512
            ]
        },
        {
            "positions": [
                1.8096116445506698,
                -1.743295878703044,
                -0.14090214693129077,
                1.3718934507884408,
                0.27880323639067733,
                0.1666351967737858
            ]
        },
        {
            "positions": [
                1.918956280652874,
                -1.744991606926466,
                -0.3253300974120017,
                1.2905777093769473,
                0.28138382048503585,
                0.16547253595622036
            ]
        },
        {
            "positions": [
                2.0283009167550787,
                -1.7466873351498877,
                -0.5097580478927131,
                1.2092619679654533,
                0.28396440457939437,
                0.16430987513865492
            ]
        },
        {
            "positions": [
                2.1376455528572826,
                -1.7483830633733095,
                -0.694185998373424,
                1.1279462265539597,
                0.2865449886737529,
                0.1631472143210895
            ]
        },
        {
            "positions": [
                2.246990188959487,
                -1.7500787915967315,
                -0.8786139488541345,
                1.0466304851424661,
                0.28912557276811146,
                0.1619845535035241
            ]
        },
        {
            "positions": [
                2.3563348250616913,
                -1.7517745198201533,
                -1.0630418993348458,
                0.9653147437309724,
                0.29170615686247,
                0.16082189268595865
            ]
        },
        {
            "positions": [
                2.4656794611638957,
                -1.753470248043575,
                -1.2474698498155568,
                0.8839990023194788,
                0.2942867409568285,
                0.1596592318683932
            ]
        },
        {
            "positions": [
                2.5750240972661,
                -1.7551659762669969,
                -1.4318978002962677,
                0.802683260907985,
                0.29686732505118707,
                0.1584965710508278
            ]
        },
        {
            "positions": [
                2.6843687333683044,
                -1.756861704490419,
                -1.616325750776979,
                0.7213675194964912,
                0.2994479091455456,
                0.15733391023326238
            ]
        },
        {
            "positions": [
                2.7937133694705087,
                -1.7585574327138407,
                -1.8007537012576897,
                0.6400517780849977,
                0.3020284932399041,
                0.15617124941569693
            ]
        },
        {
            "positions": [
                2.7671667086503584,
                -1.9018565473969193,
                -1.775097160091862,
                0.7061083793125787,
                0.33699631840610406,
                0.1323327123576405
            ]
        },
        {
            "positions": [
                2.7406200478302076,
                -2.045155662079998,
                -1.7494406189260339,
                0.7721649805401599,
                0.371964143572304,
                0.10849417529958402
            ]
        },
        {
            "positions": [
                2.7140733870100573,
                -2.188454776763077,
                -1.723784077760206,
                0.838221581767741,
                0.406931968738504,
                0.08465563824152758
            ]
        },
        {
            "positions": [
                2.6875267261899065,
                -2.3317538914461555,
                -1.698127536594378,
                0.9042781829953221,
                0.44189979390470396,
                0.06081710118347111
            ]
        },
        {
            "positions": [
                2.660980065369756,
                -2.4750530061292344,
                -1.6724709954285502,
                0.9703347842229032,
                0.4768676190709039,
                0.03697856412541466
            ]
        }
    ]
}