{
    "goal": {
        "global_pose": {
            "orientation": {
                "w": -0.4816463035849501,
                "x": 0.5182115481033762,
                "y": 0.4908360881923453,
                "z": -0.5084816262002911
            },
            "position": {
                "x": -0.8240239810943604,
                "y": -0.300875300988555,
                "z": 0.16403168439865112
            }
        },
        "name": "move_to_storage_C"
    },
    "id": "FMT_move_to_storage_C_56",
    "joint_names": [
        "shoulder_pan_joint",
        "shoulder_lift_joint",
        "elbow_joint",
        "wrist_1_joint",
        "wrist_2_joint",
        "wrist_3_joint"
    ],
    "metrics": {
        "cart_traj_len": 0.5774918416669739,
        "distance_elbow_joint": 0.2590215679222283,
        "distance_shoulder_lift_joint": 0.18972385737817865,
        "distance_shoulder_pan_joint": 0.4964449896842331,
        "distance_wrist_1_joint": 0.0792872322452467,
        "distance_wrist_2_joint": 1.0588221371509285,
        "distance_wrist_3_joint": 0.05731596669193184,
        "smoothness": 0.0,
        "time": 0.32308637,
        "traj_len": 1.4630843280798094,
        "weighted_distance": 1.8421066890527231
    },
    "planner": "FMT",
    "start": {
        "state": {
            "elbow_joint": 2.010868314990456,
            "shoulder_lift_joint": -1.1634956873337592,
            "shoulder_pan_joint": -2.4736205022346125,
            "wrist_1_joint": -0.8367026794202681,
            "wrist_2_joint": 0.6746043897044499,
            "wrist_3_joint": -3.1496632123970403
        }
    },
    "waypoints": [
        {
            "positions": [
                -2.4736205022346125,
                -1.1634956873337592,
                2.010868314990456,
                -0.8367026794202681,
                0.6746043897044499,
                -3.1496632123970403
            ]
        },
        {
            "positions": [
                -2.5563613338486513,
                -1.1318750444373962,
                1.9676980536700843,
                -0.823488140712727,
                0.8510747458962713,
                -3.1401105512817185
            ]
        },
        {
            "positions": [
                -2.63910216546269,
                -1.100254401541033,
                1.924527792349713,
                -0.8102736020051858,
                1.0275451020880928,
                -3.130557890166396
            ]
        },
        {
            "positions": [
                -2.7218429970767293,
                -1.06863375864467,
                1.8813575310293418,
                -0.7970590632976448,
                1.204015458279914,
                -3.1210052290510744
            ]
        },
        {
            "positions": [
                -2.804583828690768,
                -1.0370131157483067,
                1.8381872697089703,
                -0.7838445245901037,
                1.3804858144717356,
                -3.1114525679357525
            ]
        },
        {
            "positions": [
                -2.887324660304807,
                -1.0053924728519437,
                1.7950170083885988,
                -0.7706299858825625,
                1.556956170663557,
                -3.1018999068204303
            ]
        },
        {
            "positions": [
                -2.9700654919188456,
                -0.9737718299555805,
                1.7518467470682275,
                -0.7574154471750214,
                1.7334265268553786,
                -3.0923472457051084
            ]
        }
    ]
}