{
    "goal": {
        "global_pose": {
            "orientation": {
                "w": 0.7031023480610252,
                "x": -0.7110244013736278,
                "y": 0.0077485991402295624,
                "z": 0.005598929693374583
            },
            "position": {
                "x": -0.8841497679147869,
                "y": 0.44412534475326537,
                "z": 0.3711530566215515
            }
        },
        "name": "move_to_auspresseinheit_D"
    },
    "id": "FMT_move_to_auspresseinheit_D_97",
    "joint_names": [
        "shoulder_pan_joint",
        "shoulder_lift_joint",
        "elbow_joint",
        "wrist_1_joint",
        "wrist_2_joint",
        "wrist_3_joint"
    ],
    "metrics": {
        "cart_traj_len": 0.34309318406348666,
        "distance_elbow_joint": 0.6305013593313302,
        "distance_shoulder_lift_joint": 0.11638097670794068,
        "distance_shoulder_pan_joint": 0.1339705106463754,
        "distance_wrist_1_joint": 0.5079784530016433,
        "distance_wrist_2_joint": 1.434925533393223,
        "distance_wrist_3_joint": 0.01422496881681612,
        "smoothness": 1.7763568201913918e-15,
        "time": 0.563905931,
        "traj_len": 1.684631058094718,
        "weighted_distance": 2.1930197732637584
    },
    "planner": "FMT",
    "start": {
        "state": {
            "elbow_joint": -1.8275523626775212,
            "shoulder_lift_joint": -2.126789852344167,
            "shoulder_pan_joint": -0.03513704404078235,
            "wrist_1_joint": -2.347782403156801,
            "wrist_2_joint": -1.6058999987535132,
            "wrist_3_joint": -3.0880379163319196
        }
    },
    "waypoints": [
        {
            "positions": [
                -0.03513704404078235,
                -2.126789852344167,
                -1.8275523626775212,
                -2.347782403156801,
                -1.6058999987535132,
                -3.0880379163319196
            ]
        },
        {
            "positions": [
                -0.05188335787157927,
                -2.1413374744326594,
                -1.748739692761105,
                -2.4112797097820065,
                -1.4265343070793604,
                -3.0898160374340216
            ]
        },
        {
            "positions": [
                -0.0686296717023762,
                -2.155885096521152,
                -1.6699270228446887,
                -2.4747770164072116,
                -1.2471686154052075,
                -3.0915941585361235
            ]
        },
        {
            "positions": [
                -0.08537598553317313,
                -2.1704327186096446,
                -1.5911143529282723,
                -2.538274323032417,
                -1.0678029237310547,
                -3.0933722796382255
            ]
        },
        {
            "positions": [
                -0.10212229936397005,
                -2.184980340698137,
                -1.512301683011856,
                -2.6017716296576223,
                -0.8884372320569017,
                -3.0951504007403274
            ]
        },
        {
            "positions": [
                -0.11886861319476699,
                -2.1995279627866298,
                -1.4334890130954399,
                -2.665268936282828,
                -0.7090715403827489,
                -3.09692852184243
            ]
        },
        {
            "positions": [
                -0.1356149270255639,
                -2.2140755848751223,
                -1.3546763431790234,
                -2.7287662429080335,
                -0.5297058487085959,
                -3.098706642944532
            ]
        },
        {
            "positions": [
                -0.15236124085636082,
                -2.228623206963615,
                -1.2758636732626072,
                -2.7922635495332386,
                -0.3503401570344431,
                -3.1004847640466338
            ]
        },
        {
            "positions": [
                -0.16910755468715777,
                -2.2431708290521075,
                -1.197051003346191,
                -2.855760856158444,
                -0.17097446536029032,
                -3.1022628851487357
            ]
        }
    ]
}