{
    "goal": {
        "global_pose": {
            "orientation": {
                "w": -0.00223480608172531,
                "x": 0.0024358444001904467,
                "y": 0.7094548369677653,
                "z": -0.704743149386269
            },
            "position": {
                "x": -0.37947507619857795,
                "y": -0.6371506643295288,
                "z": 0.19426114857196808
            }
        },
        "name": "move_to_magneteinheit_C"
    },
    "id": "FMT_move_to_magneteinheit_C_39",
    "joint_names": [
        "shoulder_pan_joint",
        "shoulder_lift_joint",
        "elbow_joint",
        "wrist_1_joint",
        "wrist_2_joint",
        "wrist_3_joint"
    ],
    "metrics": {
        "cart_traj_len": 1.0592627348014227,
        "distance_elbow_joint": 0.6802027779330588,
        "distance_shoulder_lift_joint": 0.6329016898631963,
        "distance_shoulder_pan_joint": 1.3834106145935656,
        "distance_wrist_1_joint": 2.0185840354970352,
        "distance_wrist_2_joint": 2.076332312183374,
        "distance_wrist_3_joint": 0.5013320798684506,
        "smoothness": 1.501681431067289,
        "time": 1.274480157,
        "traj_len": 2.700511712609053,
        "weighted_distance": 3.5199920479109026
    },
    "planner": "FMT",
    "start": {
        "state": {
            "elbow_joint": 1.9565354010623817,
            "shoulder_lift_joint": -1.4165861575791021,
            "shoulder_pan_joint": -1.6717766225146293,
            "wrist_1_joint": -0.5286633292919765,
            "wrist_2_joint": 1.472756589071564,
            "wrist_3_joint": -3.1238370188695823
        }
    },
    "waypoints": [
        {
            "positions": [
                -1.6717766225146293,
                -1.4165861575791021,
                1.9565354010623817,
                -0.5286633292919765,
                1.472756589071564,
                -3.1238370188695823
            ]
        },
        {
            "positions": [
                -1.6686919355772776,
                -1.4017638504104921,
                2.00700381219271,
                -0.6368392160558961,
                1.3512276307651654,
                -3.099039367850701
            ]
        },
        {
            "positions": [
                -1.6656072486399256,
                -1.386941543241882,
                2.057472223323038,
                -0.7450151028198158,
                1.2296986724587669,
                -3.0742417168318195
            ]
        },
        {
            "positions": [
                -1.6625225617025738,
                -1.3721192360732717,
                2.1079406344533664,
                -0.8531909895837354,
                1.1081697141523685,
                -3.0494440658129385
            ]
        },
        {
            "positions": [
                -1.659437874765222,
                -1.3572969289046617,
                2.158409045583695,
                -0.961366876347655,
                0.98664075584597,
                -3.024646414794057
            ]
        },
        {
            "positions": [
                -1.7186362986522783,
                -1.3186892777455081,
                2.191182891561831,
                -0.9008294233002593,
                0.8093339479613086,
                -2.997320915428787
            ]
        },
        {
            "positions": [
                -1.7778347225393345,
                -1.2800816265863544,
                2.2239567375399676,
                -0.8402919702528635,
                0.6320271400766472,
                -2.969995416063517
            ]
        },
        {
            "positions": [
                -1.837033146426391,
                -1.2414739754272008,
                2.2567305835181037,
                -0.7797545172054676,
                0.4547203321919858,
                -2.942669916698247
            ]
        },
        {
            "positions": [
                -1.8962315703134471,
                -1.202866324268047,
                2.2895044294962403,
                -0.7192170641580719,
                0.27741352430732436,
                -2.915344417332977
            ]
        },
        {
            "positions": [
                -1.9554299942005033,
                -1.1642586731088935,
                2.3222782754743765,
                -0.6586796111106761,
                0.10010671642266301,
                -2.888018917967707
            ]
        },
        {
            "positions": [
                -2.023766502398743,
                -1.1439187551027914,
                2.290572673006086,
                -0.4724371695867092,
                0.07755335783345532,
                -2.89377629826861
            ]
        },
        {
            "positions": [
                -2.092103010596982,
                -1.1235788370966893,
                2.258867070537795,
                -0.2861947280627424,
                0.05499999924424762,
                -2.899533678569513
            ]
        },
        {
            "positions": [
                -2.1604395187952212,
                -1.1032389190905871,
                2.2271614680695047,
                -0.09995228653877553,
                0.03244664065503992,
                -2.905291058870416
            ]
        },
        {
            "positions": [
                -2.278933840432137,
                -1.1410856592224228,
                2.220199596845864,
                -0.18639604808979837,
                0.09155143623308704,
                -2.9191056904982364
            ]
        },
        {
            "positions": [
                -2.397428162069053,
                -1.1789323993542584,
                2.213237725622223,
                -0.2728398096408212,
                0.15065623181113416,
                -2.9329203221260562
            ]
        },
        {
            "positions": [
                -2.5159224837059693,
                -1.2167791394860943,
                2.2062758543985823,
                -0.35928357119184406,
                0.20976102738918126,
                -2.9467349537538765
            ]
        },
        {
            "positions": [
                -2.634416805342885,
                -1.25462587961793,
                2.1993139831749415,
                -0.4457273327428669,
                0.26886582296722844,
                -2.9605495853816963
            ]
        },
        {
            "positions": [
                -2.752911126979801,
                -1.2924726197497656,
                2.1923521119513008,
                -0.5321710942938898,
                0.32797061854527554,
                -2.9743642170095166
            ]
        },
        {
            "positions": [
                -2.6835114733224064,
                -1.25989243207089,
                2.1462186769518037,
                -0.6052328670132305,
                0.41309521501442914,
                -3.019156386990708
            ]
        },
        {
            "positions": [
                -2.6141118196650113,
                -1.2273122443920141,
                2.1000852419523066,
                -0.6782946397325714,
                0.49821981148358274,
                -3.0639485569718996
            ]
        },
        {
            "positions": [
                -2.544712166007616,
                -1.1947320567131383,
                2.0539518069528095,
                -0.7513564124519123,
                0.5833444079527363,
                -3.1087407269530907
            ]
        },
        {
            "positions": [
                -2.4753125123502215,
                -1.1621518690342627,
                2.0078183719533125,
                -0.8244181851712531,
                0.66846900442189,
                -3.153532896934282
            ]
        }
    ]
}