{
    "goal": {
        "global_pose": {
            "orientation": {
                "w": -0.4816463035849501,
                "x": 0.5182115481033762,
                "y": 0.4908360881923453,
                "z": -0.5084816262002911
            },
            "position": {
                "x": -0.8240239810943604,
                "y": -0.300875300988555,
                "z": 0.16403168439865112
            }
        },
        "name": "move_to_storage_C"
    },
    "id": "FMT_move_to_storage_C_60",
    "joint_names": [
        "shoulder_pan_joint",
        "shoulder_lift_joint",
        "elbow_joint",
        "wrist_1_joint",
        "wrist_2_joint",
        "wrist_3_joint"
    ],
    "metrics": {
        "cart_traj_len": 0.5770506933272107,
        "distance_elbow_joint": 0.2572408669188617,
        "distance_shoulder_lift_joint": 0.19038868401203257,
        "distance_shoulder_pan_joint": 0.4948109676385415,
        "distance_wrist_1_joint": 0.0714350493201682,
        "distance_wrist_2_joint": 1.0678631800349714,
        "distance_wrist_3_joint": 0.055496239247310175,
        "smoothness": 2.5376526478085547e-16,
        "time": 0.315019302,
        "traj_len": 1.4619285164370677,
        "weighted_distance": 1.8405232123017752
    },
    "planner": "FMT",
    "start": {
        "state": {
            "elbow_joint": 2.010868314990456,
            "shoulder_lift_joint": -1.1634956873337592,
            "shoulder_pan_joint": -2.4736205022346125,
            "wrist_1_joint": -0.8367026794202681,
            "wrist_2_joint": 0.6746043897044499,
            "wrist_3_joint": -3.1496632123970403
        }
    },
    "waypoints": [
        {
            "positions": [
                -2.4736205022346125,
                -1.1634956873337592,
                2.010868314990456,
                -0.8367026794202681,
                0.6746043897044499,
                -3.1496632123970403
            ]
        },
        {
            "positions": [
                -2.5560889968410363,
                -1.1317642399984205,
                1.9679948371706455,
                -0.8247968378669067,
                0.8525815863769451,
                -3.140413839189155
            ]
        },
        {
            "positions": [
                -2.6385574914474597,
                -1.1000327926630817,
                1.9251213593508352,
                -0.8128909963135453,
                1.0305587830494405,
                -3.13116446598127
            ]
        },
        {
            "positions": [
                -2.721025986053883,
                -1.0683013453277428,
                1.882247881531025,
                -0.8009851547601841,
                1.2085359797219355,
                -3.121915092773385
            ]
        },
        {
            "positions": [
                -2.803494480660307,
                -1.036569897992404,
                1.8393744037112147,
                -0.7890793132068227,
                1.386513176394431,
                -3.1126657195655003
            ]
        },
        {
            "positions": [
                -2.8859629752667306,
                -1.0048384506570653,
                1.7965009258914044,
                -0.7771734716534613,
                1.564490373066926,
                -3.103416346357615
            ]
        },
        {
            "positions": [
                -2.968431469873154,
                -0.9731070033217266,
                1.753627448071594,
                -0.7652676301000999,
                1.7424675697394212,
                -3.09416697314973
            ]
        }
    ]
}