{
    "goal": {
        "global_pose": {
            "orientation": {
                "w": 0.005598929693374612,
                "x": 0.007748599140229565,
                "y": 0.7110244013736278,
                "z": -0.7031023480610252
            },
            "position": {
                "x": 0.1141497679147869,
                "y": -0.7141253447532654,
                "z": 0.3711530566215515
            }
        },
        "name": "move_to_auspresseinheit_B"
    },
    "id": "FMT_move_to_auspresseinheit_B_103",
    "joint_names": [
        "shoulder_pan_joint",
        "shoulder_lift_joint",
        "elbow_joint",
        "wrist_1_joint",
        "wrist_2_joint",
        "wrist_3_joint"
    ],
    "metrics": {
        "cart_traj_len": 0.5644465495506127,
        "distance_elbow_joint": 0.06284804789963427,
        "distance_shoulder_lift_joint": 0.29407824444707154,
        "distance_shoulder_pan_joint": 0.5780119043016863,
        "distance_wrist_1_joint": 0.3286772145436633,
        "distance_wrist_2_joint": 0.9878872193119494,
        "distance_wrist_3_joint": 0.0013705947685629383,
        "smoothness": 5.075305255429287e-16,
        "time": 0.44402466399999996,
        "traj_len": 1.500957436196166,
        "weighted_distance": 1.8900208593201573
    },
    "planner": "FMT",
    "start": {
        "state": {
            "elbow_joint": 2.0193083361928714,
            "shoulder_lift_joint": -1.1220246554650708,
            "shoulder_pan_joint": -1.0952077554168747,
            "wrist_1_joint": -0.8559753972642168,
            "wrist_2_joint": 0.4759566250798843,
            "wrist_3_joint": -3.1240929996934557
        }
    },
    "waypoints": [
        {
            "positions": [
                -1.0952077554168747,
                -1.1220246554650708,
                2.0193083361928714,
                -0.8559753972642168,
                0.4759566250798843,
                -3.1240929996934557
            ]
        },
        {
            "positions": [
                -1.191543072800489,
                -1.1710376962062494,
                2.0088336615429325,
                -0.8011958615069396,
                0.6406044949652092,
                -3.1243214321548827
            ]
        },
        {
            "positions": [
                -1.2878783901841033,
                -1.220050736947428,
                1.9983589868929934,
                -0.7464163257496623,
                0.8052523648505341,
                -3.12454986461631
            ]
        },
        {
            "positions": [
                -1.3842137075677177,
                -1.2690637776886065,
                1.9878843122430543,
                -0.6916367899923852,
                0.969900234735859,
                -3.124778297077737
            ]
        },
        {
            "positions": [
                -1.480549024951332,
                -1.318076818429785,
                1.9774096375931152,
                -0.636857254235108,
                1.1345481046211838,
                -3.125006729539164
            ]
        },
        {
            "positions": [
                -1.5768843423349466,
                -1.3670898591709637,
                1.9669349629431763,
                -0.5820777184778307,
                1.299195974506509,
                -3.1252351620005916
            ]
        },
        {
            "positions": [
                -1.673219659718561,
                -1.4161028999121423,
                1.9564602882932371,
                -0.5272981827205535,
                1.4638438443918338,
                -3.1254635944620186
            ]
        }
    ]
}