{
    "goal": {
        "global_pose": {
            "orientation": {
                "w": 0.7031023502349854,
                "x": -0.7110244035720825,
                "y": 0.007748599164187908,
                "z": 0.005598929710686207
            },
            "position": {
                "x": 0.11585023208521307,
                "y": 0.44412534475326537,
                "z": 0.3711530566215515
            }
        },
        "name": "move_to_auspresseinheit_A"
    },
    "id": "FMT_move_to_auspresseinheit_A_20",
    "joint_names": [
        "shoulder_pan_joint",
        "shoulder_lift_joint",
        "elbow_joint",
        "wrist_1_joint",
        "wrist_2_joint",
        "wrist_3_joint"
    ],
    "metrics": {
        "cart_traj_len": 0.7509208303226459,
        "distance_elbow_joint": 0.5048536348525863,
        "distance_shoulder_lift_joint": 0.5340085904157064,
        "distance_shoulder_pan_joint": 1.0414879803709567,
        "distance_wrist_1_joint": 2.9310351876900778,
        "distance_wrist_2_joint": 0.5361536001528899,
        "distance_wrist_3_joint": 1.0634407811441995,
        "smoothness": 1.1628938112953022,
        "time": 1.20027434,
        "traj_len": 2.5711825634572154,
        "weighted_distance": 3.4935726877736184
    },
    "planner": "FMT",
    "start": {
        "state": {
            "elbow_joint": 2.4225746658250005,
            "shoulder_lift_joint": -1.3736534386056498,
            "shoulder_pan_joint": -0.3378633547517467,
            "wrist_1_joint": -1.0288598680537169,
            "wrist_2_joint": 1.233022673432363,
            "wrist_3_joint": -3.0940220416140027
        }
    },
    "waypoints": [
        {
            "positions": [
                -0.3378633547517467,
                -1.3736534386056498,
                2.4225746658250005,
                -1.0288598680537169,
                1.233022673432363,
                -3.0940220416140027
            ]
        },
        {
            "positions": [
                -0.3151989088741752,
                -1.4145456447471116,
                2.395792789267106,
                -0.8540632703537272,
                1.1802545792774735,
                -3.043095482124798
            ]
        },
        {
            "positions": [
                -0.29253446299660363,
                -1.4554378508885737,
                2.369010912709212,
                -0.6792666726537375,
                1.1274864851225839,
                -2.9921689226355928
            ]
        },
        {
            "positions": [
                -0.26987001711903214,
                -1.4963300570300357,
                2.3422290361513176,
                -0.504470074953748,
                1.0747183909676945,
                -2.941242363146388
            ]
        },
        {
            "positions": [
                -0.2472055712414606,
                -1.5372222631714976,
                2.315447159593423,
                -0.3296734772537583,
                1.021950296812805,
                -2.8903158036571828
            ]
        },
        {
            "positions": [
                -0.22454112536388904,
                -1.5781144693129594,
                2.288665283035529,
                -0.15487687955376872,
                0.9691822026579153,
                -2.839389244167978
            ]
        },
        {
            "positions": [
                -0.20187667948631752,
                -1.6190066754544215,
                2.2618834064776348,
                0.019919718146220955,
                0.9164141085030257,
                -2.7884626846787732
            ]
        },
        {
            "positions": [
                -0.17921223360874597,
                -1.6598988815958835,
                2.2351015299197403,
                0.1947163158462104,
                0.8636460143481361,
                -2.737536125189568
            ]
        },
        {
            "positions": [
                -0.15654778773117442,
                -1.7007910877373453,
                2.208319653361846,
                0.3695129135462003,
                0.8108779201932466,
                -2.6866095657003632
            ]
        },
        {
            "positions": [
                -0.13388334185360287,
                -1.7416832938788072,
                2.181537776803952,
                0.5443095112461898,
                0.758109826038357,
                -2.635683006211158
            ]
        },
        {
            "positions": [
                -0.11121889597603135,
                -1.7825755000202692,
                2.1547559002460575,
                0.7191061089461794,
                0.7053417318834675,
                -2.5847564467219533
            ]
        },
        {
            "positions": [
                -0.009363455776626173,
                -1.7982113161454052,
                2.184385258905263,
                0.5712224576099066,
                0.7042826495579682,
                -2.654028345003472
            ]
        },
        {
            "positions": [
                0.092491984422779,
                -1.813847132270541,
                2.214014617564468,
                0.42333880627363385,
                0.7032235672324689,
                -2.723300243284991
            ]
        },
        {
            "positions": [
                0.19434742462218418,
                -1.8294829483956767,
                2.2436439762236735,
                0.27545515493736106,
                0.7021644849069696,
                -2.7925721415665095
            ]
        },
        {
            "positions": [
                0.29620286482158936,
                -1.8451187645208127,
                2.2732733348828793,
                0.12757150360108827,
                0.7011054025814702,
                -2.8618440398480285
            ]
        },
        {
            "positions": [
                0.39805830502099454,
                -1.8607545806459487,
                2.3029026935420847,
                -0.020312147735184527,
                0.700046320255971,
                -2.931115938129547
            ]
        },
        {
            "positions": [
                0.4999137452203997,
                -1.8763903967710844,
                2.33253205220129,
                -0.16819579907145732,
                0.6989872379304717,
                -3.0003878364110657
            ]
        },
        {
            "positions": [
                0.6017691854198048,
                -1.8920262128962202,
                2.3621614108604954,
                -0.3160794504077302,
                0.6979281556049725,
                -3.0696597346925847
            ]
        },
        {
            "positions": [
                0.70362462561921,
                -1.9076620290213562,
                2.3917907695197007,
                -0.46396310174400285,
                0.6968690732794731,
                -3.1389316329741033
            ]
        }
    ]
}