{
    "goal": {
        "global_pose": {
            "orientation": {
                "w": -0.4816463035849501,
                "x": 0.5182115481033762,
                "y": 0.4908360881923453,
                "z": -0.5084816262002911
            },
            "position": {
                "x": -0.8240239810943604,
                "y": 0.19912469901144506,
                "z": 0.16403168439865112
            }
        },
        "name": "move_to_storage_D"
    },
    "id": "FMT_move_to_storage_D_88",
    "joint_names": [
        "shoulder_pan_joint",
        "shoulder_lift_joint",
        "elbow_joint",
        "wrist_1_joint",
        "wrist_2_joint",
        "wrist_3_joint"
    ],
    "metrics": {
        "cart_traj_len": 3.8686299365541155,
        "distance_elbow_joint": 4.208933860578309,
        "distance_shoulder_lift_joint": 1.263725854208086,
        "distance_shoulder_pan_joint": 2.8124635178373953,
        "distance_wrist_1_joint": 2.2623893551488607,
        "distance_wrist_2_joint": 0.9548129100918682,
        "distance_wrist_3_joint": 3.1419034123959975,
        "smoothness": 0.01755169702282555,
        "time": 1.47104208,
        "traj_len": 3.8267778757409627,
        "weighted_distance": 4.91378041840427
    },
    "planner": "FMT",
    "start": {
        "state": {
            "elbow_joint": -2.384821988534728,
            "shoulder_lift_joint": -2.2788054721415256,
            "shoulder_pan_joint": -0.1854694642142757,
            "wrist_1_joint": 1.4845938289331202,
            "wrist_2_joint": 0.17898776772866878,
            "wrist_3_joint": 0.037105688729662994
        }
    },
    "waypoints": [
        {
            "positions": [
                -0.1854694642142757,
                -2.2788054721415256,
                -2.384821988534728,
                1.4845938289331202,
                0.17898776772866878,
                0.037105688729662994
            ]
        },
        {
            "positions": [
                -0.03186883448540015,
                -2.2170340816196337,
                -2.3366320099356375,
                1.4193667751346113,
                0.17102656965515414,
                0.057453901129910764
            ]
        },
        {
            "positions": [
                0.12173179524347541,
                -2.1552626910977417,
                -2.288442031336547,
                1.3541397213361026,
                0.16306537158163947,
                0.07780211353015853
            ]
        },
        {
            "positions": [
                0.275332424972351,
                -2.0934913005758498,
                -2.240252052737457,
                1.2889126675375937,
                0.15510417350812483,
                0.09815032593040632
            ]
        },
        {
            "positions": [
                0.42893305470122656,
                -2.031719910053958,
                -2.1920620741383665,
                1.223685613739085,
                0.14714297543461016,
                0.11849853833065409
            ]
        },
        {
            "positions": [
                0.5825336844301021,
                -1.9699485195320658,
                -2.143872095539276,
                1.1584585599405761,
                0.13918177736109552,
                0.13884675073090186
            ]
        },
        {
            "positions": [
                0.6528259212233934,
                -1.9379255648557794,
                -2.0276832847480475,
                1.0983843903104786,
                0.16443013211253768,
                0.22652543818737791
            ]
        },
        {
            "positions": [
                0.7231181580166848,
                -1.9059026101794931,
                -1.9114944739568194,
                1.038310220680381,
                0.18967848686397984,
                0.314204125643854
            ]
        },
        {
            "positions": [
                0.7934103948099762,
                -1.8738796555032067,
                -1.795305663165591,
                0.9782360510502834,
                0.21492684161542203,
                0.40188281310033
            ]
        },
        {
            "positions": [
                0.8637026316032674,
                -1.8418567008269202,
                -1.6791168523743627,
                0.918161881420186,
                0.24017519636686419,
                0.48956150055680614
            ]
        },
        {
            "positions": [
                0.9339948683965589,
                -1.809833746150634,
                -1.5629280415831341,
                0.8580877117900882,
                0.26542355111830634,
                0.5772401880132823
            ]
        },
        {
            "positions": [
                1.0042871051898503,
                -1.7778107914743475,
                -1.446739230791906,
                0.7980135421599908,
                0.2906719058697485,
                0.6649188754697581
            ]
        },
        {
            "positions": [
                1.0745793419831415,
                -1.745787836798061,
                -1.3305504200006775,
                0.7379393725298933,
                0.31592026062119066,
                0.7525975629262343
            ]
        },
        {
            "positions": [
                1.1448715787764328,
                -1.7137648821217748,
                -1.2143616092094491,
                0.6778652028997957,
                0.3411686153726328,
                0.8402762503827104
            ]
        },
        {
            "positions": [
                1.2151638155697242,
                -1.6817419274454883,
                -1.0981727984182208,
                0.6177910332696981,
                0.366416970124075,
                0.9279549378391865
            ]
        },
        {
            "positions": [
                1.2854560523630156,
                -1.6497189727692019,
                -0.9819839876269925,
                0.5577168636396005,
                0.3916653248755172,
                1.0156336252956626
            ]
        },
        {
            "positions": [
                1.355748289156307,
                -1.6176960180929156,
                -0.8657951768357641,
                0.497642694009503,
                0.41691367962695935,
                1.1033123127521385
            ]
        },
        {
            "positions": [
                1.4260405259495983,
                -1.5856730634166292,
                -0.7496063660445358,
                0.4375685243794055,
                0.4421620343784015,
                1.1909910002086146
            ]
        },
        {
            "positions": [
                1.4963327627428895,
                -1.5536501087403427,
                -0.6334175552533075,
                0.3774943547493079,
                0.4674103891298437,
                1.2786696876650907
            ]
        },
        {
            "positions": [
                1.566624999536181,
                -1.5216271540640565,
                -0.5172287444620789,
                0.31742018511921033,
                0.49265874388128583,
                1.3663483751215668
            ]
        },
        {
            "positions": [
                1.6369172363294724,
                -1.48960419938777,
                -0.40103993367085056,
                0.25734601548911273,
                0.517907098632728,
                1.454027062578043
            ]
        },
        {
            "positions": [
                1.7072094731227636,
                -1.4575812447114838,
                -0.2848511228796222,
                0.19727184585901525,
                0.5431554533841702,
                1.541705750034519
            ]
        },
        {
            "positions": [
                1.777501709916055,
                -1.4255582900351973,
                -0.1686623120883941,
                0.13719767622891776,
                0.5684038081356123,
                1.629384437490995
            ]
        },
        {
            "positions": [
                1.8477939467093465,
                -1.3935353353589108,
                -0.05247350129716555,
                0.07712350659882006,
                0.5936521628870545,
                1.717063124947471
            ]
        },
        {
            "positions": [
                1.9180861835026377,
                -1.3615123806826244,
                0.06371530949406257,
                0.017049336968722573,
                0.6189005176384966,
                1.8047418124039472
            ]
        },
        {
            "positions": [
                1.9883784202959291,
                -1.329489426006338,
                0.17990412028529112,
                -0.043024832661375134,
                0.6441488723899388,
                1.8924204998604233
            ]
        },
        {
            "positions": [
                2.0586706570892206,
                -1.2974664713300517,
                0.2960929310765197,
                -0.10309900229147262,
                0.669397227141381,
                1.9800991873168994
            ]
        },
        {
            "positions": [
                2.1289628938825116,
                -1.2654435166537654,
                0.4122817418677478,
                -0.1631731719215701,
                0.6946455818928231,
                2.067777874773375
            ]
        },
        {
            "positions": [
                2.1992551306758035,
                -1.233420561977479,
                0.5284705526589764,
                -0.2232473415516676,
                0.7198939366442653,
                2.1554565622298516
            ]
        },
        {
            "positions": [
                2.2695473674690945,
                -1.2013976073011925,
                0.6446593634502045,
                -0.2833215111817651,
                0.7451422913957074,
                2.2431352496863273
            ]
        },
        {
            "positions": [
                2.3398396042623855,
                -1.1693746526249063,
                0.7608481742414326,
                -0.34339568081186256,
                0.7703906461471496,
                2.3308139371428034
            ]
        },
        {
            "positions": [
                2.4101318410556773,
                -1.1373516979486198,
                0.8770369850326611,
                -0.40346985044196026,
                0.7956390008985917,
                2.4184926245992795
            ]
        },
        {
            "positions": [
                2.4804240778489683,
                -1.1053287432723335,
                0.9932257958238897,
                -0.46354402007205775,
                0.8208873556500339,
                2.5061713120557556
            ]
        },
        {
            "positions": [
                2.5507163146422602,
                -1.073305788596047,
                1.1094146066151183,
                -0.5236181897021555,
                0.8461357104014761,
                2.5938499995122317
            ]
        },
        {
            "positions": [
                2.6210085514355512,
                -1.0412828339197606,
                1.2256034174063464,
                -0.5836923593322528,
                0.8713840651529182,
                2.681528686968708
            ]
        },
        {
            "positions": [
                2.6225049269824434,
                -1.0347320299231804,
                1.3752305310656552,
                -0.6322181510531248,
                0.9170852231360362,
                2.805898790507946
            ]
        },
        {
            "positions": [
                2.6240013025293356,
                -1.0281812259266,
                1.524857644724964,
                -0.6807439427739967,
                0.9627863811191544,
                2.930268894047184
            ]
        },
        {
            "positions": [
                2.625497678076228,
                -1.0216304219300198,
                1.6744847583842726,
                -0.7292697344948686,
                1.0084875391022723,
                3.054638997586422
            ]
        },
        {
            "positions": [
                2.62699405362312,
                -1.0150796179334396,
                1.8241118720435814,
                -0.7777955262157407,
                1.0541886970853904,
                3.1790091011256605
            ]
        }
    ]
}