{
    "goal": {
        "global_pose": {
            "orientation": {
                "w": -0.00223480608172531,
                "x": 0.0024358444001904467,
                "y": 0.7094548369677653,
                "z": -0.704743149386269
            },
            "position": {
                "x": -0.37947507619857795,
                "y": -0.6371506643295288,
                "z": 0.19426114857196808
            }
        },
        "name": "move_to_magneteinheit_C"
    },
    "id": "FMT_move_to_magneteinheit_C_77",
    "joint_names": [
        "shoulder_pan_joint",
        "shoulder_lift_joint",
        "elbow_joint",
        "wrist_1_joint",
        "wrist_2_joint",
        "wrist_3_joint"
    ],
    "metrics": {
        "cart_traj_len": 0.9193948689775138,
        "distance_elbow_joint": 0.33400760417431563,
        "distance_shoulder_lift_joint": 1.0313764816914668,
        "distance_shoulder_pan_joint": 1.1071695952300546,
        "distance_wrist_1_joint": 1.1646337578596175,
        "distance_wrist_2_joint": 1.5802993540714034,
        "distance_wrist_3_joint": 0.5688356420090348,
        "smoothness": 1.3199122369755287,
        "time": 1.3140339460000001,
        "traj_len": 2.405477589801221,
        "weighted_distance": 3.1094898023606676
    },
    "planner": "FMT",
    "start": {
        "state": {
            "elbow_joint": 1.9565354010623817,
            "shoulder_lift_joint": -1.4165861575791021,
            "shoulder_pan_joint": -1.6717766225146293,
            "wrist_1_joint": -0.5286633292919765,
            "wrist_2_joint": 1.472756589071564,
            "wrist_3_joint": -3.1238370188695823
        }
    },
    "waypoints": [
        {
            "positions": [
                -1.6717766225146293,
                -1.4165861575791021,
                1.9565354010623817,
                -0.5286633292919765,
                1.472756589071564,
                -3.1238370188695823
            ]
        },
        {
            "positions": [
                -1.7303720354271215,
                -1.4943504473013607,
                1.9871556062668703,
                -0.6083775822911572,
                1.362337682931995,
                -3.089287147090228
            ]
        },
        {
            "positions": [
                -1.7889674483396136,
                -1.572114737023619,
                2.017775811471359,
                -0.688091835290338,
                1.251918776792426,
                -3.054737275310874
            ]
        },
        {
            "positions": [
                -1.8475628612521056,
                -1.6498790267458776,
                2.0483960166758473,
                -0.7678060882895188,
                1.1414998706528572,
                -3.0201874035315193
            ]
        },
        {
            "positions": [
                -1.9061582741645977,
                -1.7276433164681362,
                2.079016221880336,
                -0.8475203412886997,
                1.0310809645132881,
                -2.985637531752165
            ]
        },
        {
            "positions": [
                -1.9647536870770899,
                -1.8054076061903945,
                2.1096364270848245,
                -0.9272345942878805,
                0.9206620583737193,
                -2.951087659972811
            ]
        },
        {
            "positions": [
                -2.074971850749619,
                -1.7731313872438963,
                2.116735219262924,
                -0.9846602020857584,
                0.8147367074254525,
                -2.9331718815516368
            ]
        },
        {
            "positions": [
                -2.1851900144221474,
                -1.7408551682973978,
                2.123834011441024,
                -1.0420858098836363,
                0.7088113564771856,
                -2.9152561031304627
            ]
        },
        {
            "positions": [
                -2.2954081780946765,
                -1.7085789493508996,
                2.1309328036191237,
                -1.0995114176815142,
                0.6028860055289188,
                -2.8973403247092886
            ]
        },
        {
            "positions": [
                -2.4056263417672055,
                -1.6763027304044014,
                2.1380315957972233,
                -1.156937025479392,
                0.496960654580652,
                -2.8794245462881145
            ]
        },
        {
            "positions": [
                -2.515844505439734,
                -1.644026511457903,
                2.1451303879753234,
                -1.2143626332772701,
                0.39103530363238515,
                -2.8615087678669404
            ]
        },
        {
            "positions": [
                -2.626062669112263,
                -1.6117502925114047,
                2.152229180153423,
                -1.271788241075148,
                0.28510995268411826,
                -2.8435929894457663
            ]
        },
        {
            "positions": [
                -2.595485959385779,
                -1.5219707486311678,
                2.1245664151367682,
                -1.1874864718598588,
                0.36364049622090977,
                -2.90131131196281
            ]
        },
        {
            "positions": [
                -2.5649092496592947,
                -1.4321912047509309,
                2.0969036501201135,
                -1.1031847026445696,
                0.44217103975770133,
                -2.9590296344798537
            ]
        },
        {
            "positions": [
                -2.5343325399328105,
                -1.342411660870694,
                2.0692408851034583,
                -1.0188829334292804,
                0.5207015832944928,
                -3.016747956996898
            ]
        },
        {
            "positions": [
                -2.5037558302063263,
                -1.252632116990457,
                2.0415781200868035,
                -0.9345811642139911,
                0.5992321268312844,
                -3.0744662795139415
            ]
        },
        {
            "positions": [
                -2.473179120479842,
                -1.1628525731102202,
                2.0139153550701487,
                -0.8502793949987019,
                0.6777626703680759,
                -3.132184602030985
            ]
        }
    ]
}