{
    "goal": {
        "global_pose": {
            "orientation": {
                "w": 0.5084816217422485,
                "x": -0.49083608388900757,
                "y": 0.5182115435600281,
                "z": -0.4816462993621826
            },
            "position": {
                "x": 0.5540239810943604,
                "y": 0.030875300988554955,
                "z": 0.16403168439865112
            }
        },
        "name": "move_to_storage_A"
    },
    "id": "FMT_move_to_storage_A_27",
    "joint_names": [
        "shoulder_pan_joint",
        "shoulder_lift_joint",
        "elbow_joint",
        "wrist_1_joint",
        "wrist_2_joint",
        "wrist_3_joint"
    ],
    "metrics": {
        "cart_traj_len": 0.35319556347776176,
        "distance_elbow_joint": 0.4481976778781649,
        "distance_shoulder_lift_joint": 0.23269748243823218,
        "distance_shoulder_pan_joint": 0.46279345494240337,
        "distance_wrist_1_joint": 0.23742315428642968,
        "distance_wrist_2_joint": 1.0939935346273788,
        "distance_wrist_3_joint": 0.08735501919899491,
        "smoothness": 6.661338165333112e-16,
        "time": 0.385911891,
        "traj_len": 1.600768666413609,
        "weighted_distance": 2.017073883298131
    },
    "planner": "FMT",
    "start": {
        "state": {
            "elbow_joint": 1.971548259319323,
            "shoulder_lift_joint": -1.1394851275133948,
            "shoulder_pan_joint": 0.1228115487234821,
            "wrist_1_joint": -0.7804723859257726,
            "wrist_2_joint": 0.12958671773740124,
            "wrist_3_joint": -3.192489227718131
        }
    },
    "waypoints": [
        {
            "positions": [
                0.1228115487234821,
                -1.1394851275133948,
                1.971548259319323,
                -0.7804723859257726,
                0.12958671773740124,
                -3.192489227718131
            ]
        },
        {
            "positions": [
                0.056698198017424484,
                -1.1727276250045708,
                2.0355764990162037,
                -0.8143899793952626,
                0.2858715083984553,
                -3.180009939261132
            ]
        },
        {
            "positions": [
                -0.009415152688633133,
                -1.2059701224957469,
                2.0996047387130843,
                -0.8483075728647526,
                0.4421562990595095,
                -3.1675306508041325
            ]
        },
        {
            "positions": [
                -0.07552850339469075,
                -1.239212619986923,
                2.1636329784099653,
                -0.8822251663342424,
                0.5984410897205635,
                -3.1550513623471335
            ]
        },
        {
            "positions": [
                -0.14164185410074837,
                -1.272455117478099,
                2.227661218106846,
                -0.9161427598037324,
                0.7547258803816177,
                -3.142572073890134
            ]
        },
        {
            "positions": [
                -0.20775520480680604,
                -1.305697614969275,
                2.2916894578037263,
                -0.9500603532732224,
                0.9110106710426719,
                -3.130092785433135
            ]
        },
        {
            "positions": [
                -0.2738685555128636,
                -1.338940112460451,
                2.3557176975006073,
                -0.9839779467427123,
                1.0672954617037258,
                -3.1176134969761353
            ]
        },
        {
            "positions": [
                -0.33998190621892127,
                -1.372182609951627,
                2.419745937197488,
                -1.0178955402122023,
                1.22358025236478,
                -3.1051342085191362
            ]
        }
    ]
}{
    "goal": {
        "global_pose": {
            "orientation": {
                "w": 0.5084816217422485,
                "x": -0.49083608388900757,
                "y": 0.5182115435600281,
                "z": -0.4816462993621826
            },
            "position": {
                "x": 0.5540239810943604,
                "y": 0.030875300988554955,
                "z": 0.16403168439865112
            }
        },
        "name": "move_to_storage_A"
    },
    "id": "FMT_move_to_storage_A_27",
    "joint_names": [
        "shoulder_pan_joint",
        "shoulder_lift_joint",
        "elbow_joint",
        "wrist_1_joint",
        "wrist_2_joint",
        "wrist_3_joint"
    ],
    "metrics": {
        "cart_traj_len": 0.3525700398260878,
        "distance_elbow_joint": 0.4486293885782877,
        "distance_shoulder_lift_joint": 0.2336843146838088,
        "distance_shoulder_pan_joint": 0.4593288785196191,
        "distance_wrist_1_joint": 0.23701730280680544,
        "distance_wrist_2_joint": 1.1048724709688147,
        "distance_wrist_3_joint": 0.09149061304088102,
        "smoothness": 0.0,
        "time": 0.398304384,
        "traj_len": 1.604687810322686,
        "weighted_distance": 2.0248194903387313
    },
    "planner": "FMT",
    "start": {
        "state": {
            "elbow_joint": 1.97154746011099,
            "shoulder_lift_joint": -1.13948474672311,
            "shoulder_pan_joint": 0.12281154466712228,
            "wrist_1_joint": -0.7804688027058302,
            "wrist_2_joint": 0.12958655903071145,
            "wrist_3_joint": 3.0906928834467795
        }
    },
    "waypoints": [
        {
            "positions": [
                0.12281154466712228,
                -1.13948474672311,
                1.97154746011099,
                -0.7804688027058302,
                0.12958655903071145,
                3.0906928834467795
            ]
        },
        {
            "positions": [
                0.05719313345003384,
                -1.1728682202493683,
                2.035637372765031,
                -0.8143284173925167,
                0.2874254834548278,
                3.1037629710240484
            ]
        },
        {
            "positions": [
                -0.00842527776705461,
                -1.2062516937756267,
                2.099727285419072,
                -0.8481880320792031,
                0.44526440787894417,
                3.116833058601317
            ]
        },
        {
            "positions": [
                -0.07404368898414306,
                -1.239635167301885,
                2.1638171980731133,
                -0.8820476467658896,
                0.6031033323030606,
                3.129903146178586
            ]
        },
        {
            "positions": [
                -0.1396621002012315,
                -1.2730186408281434,
                2.227907110727154,
                -0.9159072614525762,
                0.760942256727177,
                3.1429732337558542
            ]
        },
        {
            "positions": [
                -0.20528051141831993,
                -1.306402114354402,
                2.2919970233811955,
                -0.9497668761392626,
                0.9187811811512934,
                3.156043321333123
            ]
        },
        {
            "positions": [
                -0.2708989226354084,
                -1.3397855878806604,
                2.3560869360352363,
                -0.9836264908259491,
                1.0766201055754097,
                3.1691134089103916
            ]
        },
        {
            "positions": [
                -0.3365173338524968,
                -1.3731690614069187,
                2.4201768486892776,
                -1.0174861055126356,
                1.2344590299995262,
                3.1821834964876605
            ]
        }
    ]
}{
    "goal": {
        "global_pose": {
            "orientation": {
                "w": 0.5084816217422485,
                "x": -0.49083608388900757,
                "y": 0.5182115435600281,
                "z": -0.4816462993621826
            },
            "position": {
                "x": 0.5540239810943604,
                "y": 0.030875300988554955,
                "z": 0.16403168439865112
            }
        },
        "name": "move_to_storage_A"
    },
    "id": "FMT_move_to_storage_A_27",
    "joint_names": [
        "shoulder_pan_joint",
        "shoulder_lift_joint",
        "elbow_joint",
        "wrist_1_joint",
        "wrist_2_joint",
        "wrist_3_joint"
    ],
    "metrics": {
        "cart_traj_len": 0.3531770228539901,
        "distance_elbow_joint": 0.4486991201989081,
        "distance_shoulder_lift_joint": 0.2360251722009412,
        "distance_shoulder_pan_joint": 0.46228598159522705,
        "distance_wrist_1_joint": 0.23586746005426273,
        "distance_wrist_2_joint": 1.097616505402508,
        "distance_wrist_3_joint": 0.09400379309789297,
        "smoothness": 0.0,
        "time": 0.397424987,
        "traj_len": 1.6045242386918745,
        "weighted_distance": 2.023855129252659
    },
    "planner": "FMT",
    "start": {
        "state": {
            "elbow_joint": 1.9715472970024885,
            "shoulder_lift_joint": -1.1394870060712896,
            "shoulder_pan_joint": 0.12281152778156021,
            "wrist_1_joint": -0.780463741449964,
            "wrist_2_joint": 0.12958659822042276,
            "wrist_3_joint": 3.090690232415272
        }
    },
    "waypoints": [
        {
            "positions": [
                0.12281152778156021,
                -1.1394870060712896,
                1.9715472970024885,
                -0.780463741449964,
                0.12958659822042276,
                3.090690232415272
            ]
        },
        {
            "positions": [
                0.056770673267956345,
                -1.1732048878142811,
                2.035647171316618,
                -0.8141590928862873,
                0.28638895613506676,
                3.1041193457149707
            ]
        },
        {
            "positions": [
                -0.009270181245647519,
                -1.2069227695572728,
                2.099747045630748,
                -0.8478544443226105,
                0.4431913140497108,
                3.11754845901467
            ]
        },
        {
            "positions": [
                -0.07531103575925138,
                -1.2406406513002644,
                2.1638469199448775,
                -0.8815497957589338,
                0.5999936719643547,
                3.130977572314369
            ]
        },
        {
            "positions": [
                -0.14135189027285525,
                -1.274358533043256,
                2.227946794259007,
                -0.915245147195257,
                0.7567960298789987,
                3.1444066856140678
            ]
        },
        {
            "positions": [
                -0.2073927447864591,
                -1.3080764147862476,
                2.2920466685731373,
                -0.9489404986315803,
                0.9135983877936428,
                3.1578357989137666
            ]
        },
        {
            "positions": [
                -0.27343359930006295,
                -1.341794296529239,
                2.356146542887267,
                -0.9826358500679034,
                1.0704007457082867,
                3.171264912213466
            ]
        },
        {
            "positions": [
                -0.3394744538136668,
                -1.3755121782722308,
                2.4202464172013967,
                -1.0163312015042267,
                1.2272031036229307,
                3.184694025513165
            ]
        }
    ]
}