{
    "goal": {
        "global_pose": {
            "orientation": {
                "w": 0.5084816217422485,
                "x": -0.49083608388900757,
                "y": 0.5182115435600281,
                "z": -0.4816462993621826
            },
            "position": {
                "x": 0.5540239810943604,
                "y": 0.030875300988554955,
                "z": 0.16403168439865112
            }
        },
        "name": "move_to_storage_A"
    },
    "id": "FMT_move_to_storage_A_23",
    "joint_names": [
        "shoulder_pan_joint",
        "shoulder_lift_joint",
        "elbow_joint",
        "wrist_1_joint",
        "wrist_2_joint",
        "wrist_3_joint"
    ],
    "metrics": {
        "cart_traj_len": 0.3526178655383809,
        "distance_elbow_joint": 0.4488229760904743,
        "distance_shoulder_lift_joint": 0.23530981210823465,
        "distance_shoulder_pan_joint": 0.4607217525956101,
        "distance_wrist_1_joint": 0.2357439321861513,
        "distance_wrist_2_joint": 1.1000013806565714,
        "distance_wrist_3_joint": 0.09077140689317753,
        "smoothness": 8.881784197001252e-16,
        "time": 0.524874972,
        "traj_len": 1.6035495815627963,
        "weighted_distance": 2.0220433692577657
    },
    "planner": "FMT",
    "start": {
        "state": {
            "elbow_joint": 1.971548259319323,
            "shoulder_lift_joint": -1.1394851275133948,
            "shoulder_pan_joint": 0.1228115487234821,
            "wrist_1_joint": -0.7804723859257726,
            "wrist_2_joint": 0.12958671773740124,
            "wrist_3_joint": -3.192489227718131
        }
    },
    "waypoints": [
        {
            "positions": [
                0.1228115487234821,
                -1.1394851275133948,
                1.971548259319323,
                -0.7804723859257726,
                0.12958671773740124,
                -3.192489227718131
            ]
        },
        {
            "positions": [
                0.05699415549553781,
                -1.1731008149574282,
                2.035665827332248,
                -0.8141500905237943,
                0.2867297721169114,
                -3.1795218838762485
            ]
        },
        {
            "positions": [
                -0.00882323773240648,
                -1.2067165024014619,
                2.099783395345173,
                -0.8478277951218158,
                0.44387282649642157,
                -3.166554540034366
            ]
        },
        {
            "positions": [
                -0.07464063096035078,
                -1.2403321898454953,
                2.1639009633580977,
                -0.8815054997198375,
                0.6010158808759318,
                -3.1535871961924835
            ]
        },
        {
            "positions": [
                -0.14045802418829506,
                -1.273947877289529,
                2.2280185313710223,
                -0.915183204317859,
                0.758158935255442,
                -3.1406198523506013
            ]
        },
        {
            "positions": [
                -0.2062754174162394,
                -1.3075635647335624,
                2.2921360993839475,
                -0.9488609089158807,
                0.9153019896349522,
                -3.1276525085087186
            ]
        },
        {
            "positions": [
                -0.27209281064418367,
                -1.341179252177596,
                2.3562536673968726,
                -0.9825386135139023,
                1.0724450440144624,
                -3.1146851646668363
            ]
        },
        {
            "positions": [
                -0.337910203872128,
                -1.3747949396216295,
                2.4203712354097973,
                -1.016216318111924,
                1.2295880983939727,
                -3.1017178208249536
            ]
        }
    ]
}{
    "goal": {
        "global_pose": {
            "orientation": {
                "w": 0.5084816217422485,
                "x": -0.49083608388900757,
                "y": 0.5182115435600281,
                "z": -0.4816462993621826
            },
            "position": {
                "x": 0.5540239810943604,
                "y": 0.030875300988554955,
                "z": 0.16403168439865112
            }
        },
        "name": "move_to_storage_A"
    },
    "id": "FMT_move_to_storage_A_23",
    "joint_names": [
        "shoulder_pan_joint",
        "shoulder_lift_joint",
        "elbow_joint",
        "wrist_1_joint",
        "wrist_2_joint",
        "wrist_3_joint"
    ],
    "metrics": {
        "cart_traj_len": 0.35266562799122025,
        "distance_elbow_joint": 0.44774419944445754,
        "distance_shoulder_lift_joint": 0.23337650580745284,
        "distance_shoulder_pan_joint": 0.45872191885252783,
        "distance_wrist_1_joint": 0.2365360211112173,
        "distance_wrist_2_joint": 1.107698281406479,
        "distance_wrist_3_joint": 0.09130622509950559,
        "smoothness": 6.661338200497456e-16,
        "time": 0.537402853,
        "traj_len": 1.6048000348085865,
        "weighted_distance": 2.0253962339350657
    },
    "planner": "FMT",
    "start": {
        "state": {
            "elbow_joint": 1.97154746011099,
            "shoulder_lift_joint": -1.13948474672311,
            "shoulder_pan_joint": 0.12281154466712228,
            "wrist_1_joint": -0.7804688027058302,
            "wrist_2_joint": 0.12958655903071145,
            "wrist_3_joint": 3.0906928834467795
        }
    },
    "waypoints": [
        {
            "positions": [
                0.12281154466712228,
                -1.13948474672311,
                1.97154746011099,
                -0.7804688027058302,
                0.12958655903071145,
                3.0906928834467795
            ]
        },
        {
            "positions": [
                0.057279841973904025,
                -1.1728242475527462,
                2.035510917174484,
                -0.8142596628645755,
                0.28782917066020847,
                3.103736629889566
            ]
        },
        {
            "positions": [
                -0.008251860719314233,
                -1.2061637483823822,
                2.099474374237978,
                -0.8480505230233208,
                0.44607178228970545,
                3.1167803763323527
            ]
        },
        {
            "positions": [
                -0.07378356341253249,
                -1.2395032492120184,
                2.1634378313014717,
                -0.8818413831820662,
                0.6043143939192025,
                3.129824122775139
            ]
        },
        {
            "positions": [
                -0.13931526610575073,
                -1.2728427500416544,
                2.2274012883649656,
                -0.9156322433408115,
                0.7625570055486995,
                3.1428678692179255
            ]
        },
        {
            "positions": [
                -0.20484696879896902,
                -1.3061822508712906,
                2.2913647454284596,
                -0.9494231034995568,
                0.9207996171781966,
                3.155911615660712
            ]
        },
        {
            "positions": [
                -0.27037867149218725,
                -1.3395217517009266,
                2.3553282024919535,
                -0.9832139636583022,
                1.0790422288076935,
                3.1689553621034987
            ]
        },
        {
            "positions": [
                -0.33591037418540554,
                -1.3728612525305628,
                2.4192916595554474,
                -1.0170048238170475,
                1.2372848404371906,
                3.181999108546285
            ]
        }
    ]
}{
    "goal": {
        "global_pose": {
            "orientation": {
                "w": 0.5084816217422485,
                "x": -0.49083608388900757,
                "y": 0.5182115435600281,
                "z": -0.4816462993621826
            },
            "position": {
                "x": 0.5540239810943604,
                "y": 0.030875300988554955,
                "z": 0.16403168439865112
            }
        },
        "name": "move_to_storage_A"
    },
    "id": "FMT_move_to_storage_A_23",
    "joint_names": [
        "shoulder_pan_joint",
        "shoulder_lift_joint",
        "elbow_joint",
        "wrist_1_joint",
        "wrist_2_joint",
        "wrist_3_joint"
    ],
    "metrics": {
        "cart_traj_len": 0.35367860592393036,
        "distance_elbow_joint": 0.4484432147298114,
        "distance_shoulder_lift_joint": 0.23412740288620215,
        "distance_shoulder_pan_joint": 0.4626655320314058,
        "distance_wrist_1_joint": 0.23745591023839197,
        "distance_wrist_2_joint": 1.0988096492803185,
        "distance_wrist_3_joint": 0.09334930548667675,
        "smoothness": 8.881784197001252e-16,
        "time": 0.405458606,
        "traj_len": 1.6046342307992831,
        "weighted_distance": 2.0243060996659747
    },
    "planner": "FMT",
    "start": {
        "state": {
            "elbow_joint": 1.9715472970024885,
            "shoulder_lift_joint": -1.1394870060712896,
            "shoulder_pan_joint": 0.12281152778156021,
            "wrist_1_joint": -0.780463741449964,
            "wrist_2_joint": 0.12958659822042276,
            "wrist_3_joint": 3.090690232415272
        }
    },
    "waypoints": [
        {
            "positions": [
                0.12281152778156021,
                -1.1394870060712896,
                1.9715472970024885,
                -0.780463741449964,
                0.12958659822042276,
                3.090690232415272
            ]
        },
        {
            "positions": [
                0.05671645177707367,
                -1.1729337779121756,
                2.0356106133924614,
                -0.8143860143411629,
                0.28655940526046825,
                3.104025847484797
            ]
        },
        {
            "positions": [
                -0.009378624227412868,
                -1.2063805497530617,
                2.0996739297824347,
                -0.8483082872323617,
                0.44353221230051376,
                3.1173614625543222
            ]
        },
        {
            "positions": [
                -0.07547370023189942,
                -1.2398273215939477,
                2.1637372461724076,
                -0.8822305601235605,
                0.6005050193405592,
                3.1306970776238474
            ]
        },
        {
            "positions": [
                -0.14156877623638595,
                -1.2732740934348337,
                2.227800562562381,
                -0.9161528330147594,
                0.7574778263806047,
                3.144032692693373
            ]
        },
        {
            "positions": [
                -0.2076638522408725,
                -1.3067208652757198,
                2.2918638789523538,
                -0.9500751059059582,
                0.9144506334206502,
                3.1573683077628982
            ]
        },
        {
            "positions": [
                -0.2737589282453591,
                -1.3401676371166058,
                2.3559271953423266,
                -0.9839973787971571,
                1.0714234404606957,
                3.1707039228324234
            ]
        },
        {
            "positions": [
                -0.3398540042498456,
                -1.3736144089574918,
                2.4199905117323,
                -1.017919651688356,
                1.2283962475007413,
                3.1840395379019486
            ]
        }
    ]
}