{
    "goal": {
        "global_pose": {
            "orientation": {
                "w": -0.4816463035849501,
                "x": 0.5182115481033762,
                "y": 0.4908360881923453,
                "z": -0.5084816262002911
            },
            "position": {
                "x": -0.8240239810943604,
                "y": 0.19912469901144506,
                "z": 0.16403168439865112
            }
        },
        "name": "move_to_storage_D"
    },
    "id": "FMT_move_to_storage_D_91",
    "joint_names": [
        "shoulder_pan_joint",
        "shoulder_lift_joint",
        "elbow_joint",
        "wrist_1_joint",
        "wrist_2_joint",
        "wrist_3_joint"
    ],
    "metrics": {
        "cart_traj_len": 0.9892213902039061,
        "distance_elbow_joint": 0.5530470411688713,
        "distance_shoulder_lift_joint": 0.729372604491934,
        "distance_shoulder_pan_joint": 0.1529459003384025,
        "distance_wrist_1_joint": 3.8208663180468183,
        "distance_wrist_2_joint": 1.7768361825177967,
        "distance_wrist_3_joint": 3.1336296545059277,
        "smoothness": 0.04890813434497941,
        "time": 1.370554121,
        "traj_len": 3.1885259448638252,
        "weighted_distance": 4.693789461687244
    },
    "planner": "FMT",
    "start": {
        "state": {
            "elbow_joint": -2.384821988534728,
            "shoulder_lift_joint": -2.2788054721415256,
            "shoulder_pan_joint": -0.1854694642142757,
            "wrist_1_joint": 1.4845938289331202,
            "wrist_2_joint": 0.17898776772866878,
            "wrist_3_joint": 0.037105688729662994
        }
    },
    "waypoints": [
        {
            "positions": [
                -0.1854694642142757,
                -2.2788054721415256,
                -2.384821988534728,
                1.4845938289331202,
                0.17898776772866878,
                0.037105688729662994
            ]
        },
        {
            "positions": [
                -0.16645552200903907,
                -2.223610463056925,
                -2.333813728564468,
                1.4357842519403925,
                0.06610482288284715,
                -0.06792972802198352
            ]
        },
        {
            "positions": [
                -0.14744157980380246,
                -2.168415453972324,
                -2.2828054685942085,
                1.3869746749476646,
                -0.046778121962974484,
                -0.17296514477363004
            ]
        },
        {
            "positions": [
                -0.12842763759856585,
                -2.113220444887723,
                -2.2317972086239486,
                1.3381650979549369,
                -0.15966106680879613,
                -0.2780005615252765
            ]
        },
        {
            "positions": [
                -0.10941369539332921,
                -2.0580254358031227,
                -2.1807889486536887,
                1.289355520962209,
                -0.2725440116546177,
                -0.38303597827692304
            ]
        },
        {
            "positions": [
                -0.09039975318809258,
                -2.002830426718522,
                -2.129780688683429,
                1.2405459439694813,
                -0.38542695650043945,
                -0.48807139502856955
            ]
        },
        {
            "positions": [
                -0.07138581098285596,
                -1.9476354176339212,
                -2.0787724287131693,
                1.1917363669767536,
                -0.4983099013462611,
                -0.5931068117802161
            ]
        },
        {
            "positions": [
                -0.05237186877761932,
                -1.8924404085493205,
                -2.0277641687429098,
                1.1429267899840259,
                -0.6111928461920827,
                -0.6981422285318626
            ]
        },
        {
            "positions": [
                -0.03335792657238272,
                -1.8372453994647198,
                -1.9767559087726498,
                1.094117212991298,
                -0.7240757910379043,
                -0.8031776452835091
            ]
        },
        {
            "positions": [
                -0.033404280055522144,
                -1.8532349845655602,
                -1.968701410916717,
                0.9035400073187981,
                -0.7726187145796389,
                -0.9305857741997733
            ]
        },
        {
            "positions": [
                -0.03345063353866156,
                -1.8692245696664007,
                -1.960646913060784,
                0.7129628016462983,
                -0.8211616381213737,
                -1.0579939031160375
            ]
        },
        {
            "positions": [
                -0.033496987021800984,
                -1.8852141547672412,
                -1.952592415204851,
                0.5223855959737986,
                -0.8697045616631083,
                -1.1854020320323015
            ]
        },
        {
            "positions": [
                -0.0335433405049404,
                -1.9012037398680817,
                -1.9445379173489181,
                0.33180839030129883,
                -0.9182474852048429,
                -1.3128101609485658
            ]
        },
        {
            "positions": [
                -0.03358969398807982,
                -1.917193324968922,
                -1.936483419492985,
                0.1412311846287989,
                -0.9667904087465776,
                -1.4402182898648301
            ]
        },
        {
            "positions": [
                -0.03363604747121924,
                -1.9331829100697624,
                -1.928428921637052,
                -0.04934602104370067,
                -1.0153333322883122,
                -1.5676264187810942
            ]
        },
        {
            "positions": [
                -0.03368240095435866,
                -1.9491724951706029,
                -1.9203744237811191,
                -0.2399232267162006,
                -1.063876255830047,
                -1.6950345476973585
            ]
        },
        {
            "positions": [
                -0.03372875443749808,
                -1.9651620802714433,
                -1.9123199259251862,
                -0.4305004323887003,
                -1.1124191793717815,
                -1.8224426766136226
            ]
        },
        {
            "positions": [
                -0.0337751079206375,
                -1.9811516653722838,
                -1.9042654280692533,
                -0.6210776380612002,
                -1.1609621029135162,
                -1.9498508055298869
            ]
        },
        {
            "positions": [
                -0.033821461403776926,
                -1.9971412504731243,
                -1.8962109302133203,
                -0.8116548437337001,
                -1.209505026455251,
                -2.077258934446151
            ]
        },
        {
            "positions": [
                -0.03386781488691634,
                -2.0131308355739645,
                -1.8881564323573874,
                -1.0022320494062,
                -1.2580479499969854,
                -2.2046670633624155
            ]
        },
        {
            "positions": [
                -0.033914168370055765,
                -2.029120420674805,
                -1.8801019345014545,
                -1.1928092550786993,
                -1.3065908735387202,
                -2.3320751922786793
            ]
        },
        {
            "positions": [
                -0.03396052185319518,
                -2.0451100057756455,
                -1.8720474366455215,
                -1.3833864607511994,
                -1.355133797080455,
                -2.4594833211949436
            ]
        },
        {
            "positions": [
                -0.034006875336334605,
                -2.061099590876486,
                -1.8639929387895884,
                -1.5739636664236991,
                -1.4036767206221894,
                -2.586891450111208
            ]
        },
        {
            "positions": [
                -0.03405322881947402,
                -2.0770891759773265,
                -1.8559384409336555,
                -1.7645408720961993,
                -1.4522196441639241,
                -2.714299579027472
            ]
        },
        {
            "positions": [
                -0.034099582302613445,
                -2.093078761078167,
                -1.8478839430777225,
                -1.9551180777686985,
                -1.5007625677056589,
                -2.841707707943736
            ]
        },
        {
            "positions": [
                -0.03414593578575286,
                -2.1090683461790074,
                -1.8398294452217896,
                -2.1456952834411984,
                -1.5493054912473934,
                -2.9691158368600004
            ]
        },
        {
            "positions": [
                -0.034192289268892284,
                -2.125057931279848,
                -1.8317749473658567,
                -2.3362724891136986,
                -1.597848414789128,
                -3.0965239657762647
            ]
        }
    ]
}