{
    "goal": {
        "global_pose": {
            "orientation": {
                "w": 0.7031023502349854,
                "x": -0.7110244035720825,
                "y": 0.007748599164187908,
                "z": 0.005598929710686207
            },
            "position": {
                "x": 0.11585023208521307,
                "y": 0.44412534475326537,
                "z": 0.3711530566215515
            }
        },
        "name": "move_to_auspresseinheit_A"
    },
    "id": "FMT_move_to_auspresseinheit_A_117",
    "joint_names": [
        "shoulder_pan_joint",
        "shoulder_lift_joint",
        "elbow_joint",
        "wrist_1_joint",
        "wrist_2_joint",
        "wrist_3_joint"
    ],
    "metrics": {
        "cart_traj_len": 0.6621590611783325,
        "distance_elbow_joint": 0.16587815344645085,
        "distance_shoulder_lift_joint": 0.5330420859710319,
        "distance_shoulder_pan_joint": 1.0459329788798089,
        "distance_wrist_1_joint": 0.9228798583410183,
        "distance_wrist_2_joint": 0.5221908271054365,
        "distance_wrist_3_joint": 0.3947741323652285,
        "smoothness": 0.7121514162718443,
        "time": 1.171138897,
        "traj_len": 1.893329880424691,
        "weighted_distance": 2.4123260530628707
    },
    "planner": "FMT",
    "start": {
        "state": {
            "elbow_joint": 2.4225746658250005,
            "shoulder_lift_joint": -1.3736534386056498,
            "shoulder_pan_joint": -0.3378633547517467,
            "wrist_1_joint": -1.0288598680537169,
            "wrist_2_joint": 1.233022673432363,
            "wrist_3_joint": -3.0940220416140027
        }
    },
    "waypoints": [
        {
            "positions": [
                -0.3378633547517467,
                -1.3736534386056498,
                2.4225746658250005,
                -1.0288598680537169,
                1.233022673432363,
                -3.0940220416140027
            ]
        },
        {
            "positions": [
                -0.31423482222900023,
                -1.4152998555789955,
                2.4362520459976045,
                -0.8802611473159929,
                1.1525189400822142,
                -3.059639295397684
            ]
        },
        {
            "positions": [
                -0.29060628970625374,
                -1.4569462725523412,
                2.449929426170209,
                -0.7316624265782689,
                1.0720152067320654,
                -3.0252565491813654
            ]
        },
        {
            "positions": [
                -0.2669777571835073,
                -1.4985926895256871,
                2.463606806342813,
                -0.5830637058405449,
                0.9915114733819167,
                -2.9908738029650466
            ]
        },
        {
            "positions": [
                -0.2433492246607608,
                -1.5402391064990328,
                2.4772841865154174,
                -0.43446498510282083,
                0.911007740031768,
                -2.956491056748728
            ]
        },
        {
            "positions": [
                -0.21972069213801432,
                -1.5818855234723785,
                2.4909615666880214,
                -0.2858662643650968,
                0.8305040066816192,
                -2.9221083105324093
            ]
        },
        {
            "positions": [
                -0.034162628884798985,
                -1.6468475236932392,
                2.4714633161713353,
                -0.3218435152955765,
                0.8065695746106807,
                -2.9666803907891364
            ]
        },
        {
            "positions": [
                0.15139543436841635,
                -1.7118095239140998,
                2.4519650656546492,
                -0.3578207662260562,
                0.7826351425397421,
                -3.0112524710458635
            ]
        },
        {
            "positions": [
                0.33695349762163157,
                -1.7767715241349604,
                2.4324668151379636,
                -0.39379801715653584,
                0.7587007104688036,
                -3.05582455130259
            ]
        },
        {
            "positions": [
                0.522511560874847,
                -1.841733524355821,
                2.4129685646212775,
                -0.4297752680870155,
                0.734766278397865,
                -3.100396631559317
            ]
        },
        {
            "positions": [
                0.7080696241280623,
                -1.9066955245766817,
                2.3934703141045914,
                -0.4657525190174952,
                0.7108318463269265,
                -3.1449687118160443
            ]
        }
    ]
}