{
    "goal": {
        "global_pose": {
            "orientation": {
                "w": -0.4816463035849501,
                "x": 0.5182115481033762,
                "y": 0.4908360881923453,
                "z": -0.5084816262002911
            },
            "position": {
                "x": -0.8240239810943604,
                "y": 0.19912469901144506,
                "z": 0.16403168439865112
            }
        },
        "name": "move_to_storage_D"
    },
    "id": "FMT_move_to_storage_D_20",
    "joint_names": [
        "shoulder_pan_joint",
        "shoulder_lift_joint",
        "elbow_joint",
        "wrist_1_joint",
        "wrist_2_joint",
        "wrist_3_joint"
    ],
    "metrics": {
        "cart_traj_len": 0.809159998703304,
        "distance_elbow_joint": 1.2135088973955044,
        "distance_shoulder_lift_joint": 1.082042180410712,
        "distance_shoulder_pan_joint": 0.8184146027468577,
        "distance_wrist_1_joint": 3.8236818342913725,
        "distance_wrist_2_joint": 1.7764724422815037,
        "distance_wrist_3_joint": 3.9334890162350176,
        "smoothness": 0.3254064571993971,
        "time": 1.431957311,
        "traj_len": 3.556347701415171,
        "weighted_distance": 5.11025843597013
    },
    "planner": "FMT",
    "start": {
        "state": {
            "elbow_joint": -2.384821988534728,
            "shoulder_lift_joint": -2.2788054721415256,
            "shoulder_pan_joint": -0.1854694642142757,
            "wrist_1_joint": 1.4845938289331202,
            "wrist_2_joint": 0.17898776772866878,
            "wrist_3_joint": 0.037105688729662994
        }
    },
    "waypoints": [
        {
            "positions": [
                -0.1854694642142757,
                -2.2788054721415256,
                -2.384821988534728,
                1.4845938289331202,
                0.17898776772866878,
                0.037105688729662994
            ]
        },
        {
            "positions": [
                -0.11615108938329612,
                -2.1905878209457907,
                -2.4319152278478087,
                1.4048207928385585,
                0.1577416822609073,
                0.09495275827290778
            ]
        },
        {
            "positions": [
                -0.04683271455231652,
                -2.1023701697500554,
                -2.47900846716089,
                1.3250477567439969,
                0.13649559679314577,
                0.1527998278161526
            ]
        },
        {
            "positions": [
                0.022485660278663056,
                -2.0141525185543205,
                -2.5261017064739706,
                1.2452747206494352,
                0.11524951132538426,
                0.21064689735939737
            ]
        },
        {
            "positions": [
                0.09180403510964266,
                -1.9259348673585857,
                -2.5731949457870518,
                1.1655016845548736,
                0.09400342585762275,
                0.26849396690264216
            ]
        },
        {
            "positions": [
                0.1611224099406223,
                -1.8377172161628506,
                -2.6202881851001325,
                1.0857286484603117,
                0.07275734038986123,
                0.32634103644588697
            ]
        },
        {
            "positions": [
                0.23044078477160182,
                -1.7494995649671155,
                -2.6673814244132137,
                1.0059556123657503,
                0.051511254922099736,
                0.3841881059891318
            ]
        },
        {
            "positions": [
                0.2997591596025815,
                -1.6612819137713806,
                -2.7144746637262944,
                0.9261825762711885,
                0.030265169454338214,
                0.4420351755323766
            ]
        },
        {
            "positions": [
                0.2869443142591199,
                -1.6791480146190947,
                -2.6804801936415275,
                0.8005952462085177,
                -0.03234059377670692,
                0.306321347477288
            ]
        },
        {
            "positions": [
                0.27412946891565837,
                -1.6970141154668088,
                -2.646485723556761,
                0.6750079161458469,
                -0.09494635700775206,
                0.17060751942219937
            ]
        },
        {
            "positions": [
                0.26131462357219676,
                -1.714880216314523,
                -2.612491253471994,
                0.5494205860831762,
                -0.15755212023879722,
                0.034893691367110735
            ]
        },
        {
            "positions": [
                0.2484997782287352,
                -1.732746317162237,
                -2.578496783387227,
                0.42383325602050537,
                -0.22015788346984233,
                -0.10082013668797785
            ]
        },
        {
            "positions": [
                0.23568493288527365,
                -1.7506124180099512,
                -2.54450231330246,
                0.2982459259578346,
                -0.2827636467008875,
                -0.23653396474306643
            ]
        },
        {
            "positions": [
                0.2228700875418121,
                -1.7684785188576653,
                -2.5105078432176935,
                0.17265859589516386,
                -0.34536940993193266,
                -0.3722477927981551
            ]
        },
        {
            "positions": [
                0.21005524219835053,
                -1.7863446197053794,
                -2.4765133731329265,
                0.047071265832493214,
                -0.4079751731629777,
                -0.5079616208532436
            ]
        },
        {
            "positions": [
                0.19724039685488892,
                -1.8042107205530935,
                -2.4425189030481596,
                -0.07851606423017776,
                -0.4705809363940229,
                -0.6436754489083323
            ]
        },
        {
            "positions": [
                0.18442555151142737,
                -1.8220768214008076,
                -2.408524432963393,
                -0.2041033942928484,
                -0.533186699625068,
                -0.7793892769634208
            ]
        },
        {
            "positions": [
                0.1716107061679658,
                -1.8399429222485217,
                -2.374529962878626,
                -0.32969072435551927,
                -0.5957924628561132,
                -0.9151031050185094
            ]
        },
        {
            "positions": [
                0.15879586082450425,
                -1.8578090230962359,
                -2.340535492793859,
                -0.4552780544181899,
                -0.6583982260871583,
                -1.0508169330735981
            ]
        },
        {
            "positions": [
                0.14598101548104267,
                -1.87567512394395,
                -2.306541022709092,
                -0.5808653844808608,
                -0.7210039893182035,
                -1.1865307611286868
            ]
        },
        {
            "positions": [
                0.1331661701375811,
                -1.893541224791664,
                -2.2725465526243256,
                -0.7064527145435314,
                -0.7836097525492486,
                -1.3222445891837753
            ]
        },
        {
            "positions": [
                0.12035132479411956,
                -1.9114073256393782,
                -2.2385520825395586,
                -0.8320400446062021,
                -0.8462155157802936,
                -1.4579584172388638
            ]
        },
        {
            "positions": [
                0.107536479450658,
                -1.9292734264870923,
                -2.204557612454792,
                -0.9576273746688727,
                -0.9088212790113388,
                -1.5936722452939522
            ]
        },
        {
            "positions": [
                0.09472163410719639,
                -1.9471395273348064,
                -2.1705631423700247,
                -1.0832147047315441,
                -0.971427042242384,
                -1.7293860733490412
            ]
        },
        {
            "positions": [
                0.08190678876373483,
                -1.9650056281825206,
                -2.136568672285258,
                -1.2088020347942146,
                -1.0340328054734291,
                -1.8650999014041296
            ]
        },
        {
            "positions": [
                0.06909194342027328,
                -1.9828717290302347,
                -2.102574202200491,
                -1.3343893648568854,
                -1.0966385687044742,
                -2.0008137294592183
            ]
        },
        {
            "positions": [
                0.05627709807681172,
                -2.0007378298779486,
                -2.068579732115724,
                -1.4599766949195558,
                -1.1592443319355192,
                -2.136527557514307
            ]
        },
        {
            "positions": [
                0.04346225273335014,
                -2.018603930725663,
                -2.0345852620309577,
                -1.5855640249822271,
                -1.2218500951665647,
                -2.2722413855693953
            ]
        },
        {
            "positions": [
                0.03064740738988858,
                -2.0364700315733772,
                -2.0005907919461907,
                -1.7111513550448976,
                -1.2844558583976098,
                -2.4079552136244846
            ]
        },
        {
            "positions": [
                0.017832562046427025,
                -2.054336132421091,
                -1.9665963218614237,
                -1.8367386851075684,
                -1.3470616216286548,
                -2.543669041679573
            ]
        },
        {
            "positions": [
                0.005017716702965469,
                -2.072202233268805,
                -1.9326018517766572,
                -1.9623260151702389,
                -1.4096673848597,
                -2.6793828697346616
            ]
        },
        {
            "positions": [
                -0.007797128640496143,
                -2.0900683341165194,
                -1.8986073816918903,
                -2.08791334523291,
                -1.4722731480907454,
                -2.81509669778975
            ]
        },
        {
            "positions": [
                -0.0206119739839577,
                -2.1079344349642337,
                -1.8646129116071233,
                -2.2135006752955806,
                -1.5348789113217904,
                -2.9508105258448385
            ]
        },
        {
            "positions": [
                -0.03342681932741924,
                -2.1258005358119476,
                -1.8306184415223565,
                -2.3390880053582515,
                -1.5974846745528353,
                -3.086524353899927
            ]
        }
    ]
}