{
    "goal": {
        "global_pose": {
            "orientation": {
                "w": 0.7047431468963623,
                "x": -0.7094548344612122,
                "y": 0.0024358443915843964,
                "z": -0.0022348060738295317
            },
            "position": {
                "x": 0.6094750761985779,
                "y": 0.3671506643295288,
                "z": 0.19426114857196808
            }
        },
        "name": "move_to_magneteinheit_A"
    },
    "id": "FMT_move_to_magneteinheit_A_49",
    "joint_names": [
        "shoulder_pan_joint",
        "shoulder_lift_joint",
        "elbow_joint",
        "wrist_1_joint",
        "wrist_2_joint",
        "wrist_3_joint"
    ],
    "metrics": {
        "cart_traj_len": 3.0590876809985175,
        "distance_elbow_joint": 3.917543150425275,
        "distance_shoulder_lift_joint": 0.4994815149431866,
        "distance_shoulder_pan_joint": 2.80984293741308,
        "distance_wrist_1_joint": 3.473691816506588,
        "distance_wrist_2_joint": 1.4311369193343346,
        "distance_wrist_3_joint": 0.5490995541050769,
        "smoothness": 0.037699992022380606,
        "time": 1.282373007,
        "traj_len": 3.561010515672137,
        "weighted_distance": 4.322478887950595
    },
    "planner": "FMT",
    "start": {
        "state": {
            "elbow_joint": -1.9196185241190666,
            "shoulder_lift_joint": -1.2443396400964142,
            "shoulder_pan_joint": 2.6996025414629847,
            "wrist_1_joint": -1.5485510000780065,
            "wrist_2_joint": -1.5709468930060704,
            "wrist_3_joint": 0.4420197071253992
        }
    },
    "waypoints": [
        {
            "positions": [
                2.6996025414629847,
                -1.2443396400964142,
                -1.9196185241190666,
                -1.5485510000780065,
                -1.5709468930060704,
                0.4420197071253992
            ]
        },
        {
            "positions": [
                2.593514940911069,
                -1.2450275309510412,
                -1.7947710965470214,
                -1.461801477191781,
                -1.5264400226736983,
                0.42305286388594593
            ]
        },
        {
            "positions": [
                2.487427340359153,
                -1.2457154218056683,
                -1.6699236689749763,
                -1.3750519543055557,
                -1.4819331523413262,
                0.4040860206464927
            ]
        },
        {
            "positions": [
                2.3813397398072373,
                -1.2464033126602954,
                -1.545076241402931,
                -1.2883024314193303,
                -1.4374262820089543,
                0.38511917740703944
            ]
        },
        {
            "positions": [
                2.2752521392553215,
                -1.2470912035149224,
                -1.420228813830886,
                -1.2015529085331051,
                -1.3929194116765822,
                0.3661523341675862
            ]
        },
        {
            "positions": [
                2.1691645387034058,
                -1.2477790943695497,
                -1.2953813862588408,
                -1.1148033856468795,
                -1.34841254134421,
                0.34718549092813294
            ]
        },
        {
            "positions": [
                2.0630769381514895,
                -1.2484669852241768,
                -1.1705339586867956,
                -1.0280538627606544,
                -1.303905671011838,
                0.3282186476886797
            ]
        },
        {
            "positions": [
                1.9569893375995737,
                -1.2491548760788038,
                -1.0456865311147503,
                -0.9413043398744289,
                -1.2593988006794659,
                0.3092518044492264
            ]
        },
        {
            "positions": [
                1.850901737047658,
                -1.2498427669334309,
                -0.9208391035427053,
                -0.8545548169882036,
                -1.2148919303470938,
                0.2902849612097732
            ]
        },
        {
            "positions": [
                1.7448141364957421,
                -1.250530657788058,
                -0.7959916759706602,
                -0.7678052941019782,
                -1.1703850600147216,
                0.27131811797031996
            ]
        },
        {
            "positions": [
                1.6387265359438263,
                -1.251218548642685,
                -0.671144248398615,
                -0.6810557712157528,
                -1.1258781896823495,
                0.2523512747308667
            ]
        },
        {
            "positions": [
                1.5326389353919105,
                -1.251906439497312,
                -0.5462968208265697,
                -0.5943062483295275,
                -1.0813713193499777,
                0.23338443149141344
            ]
        },
        {
            "positions": [
                1.4265513348399947,
                -1.2525943303519391,
                -0.4214493932545247,
                -0.5075567254433022,
                -1.0368644490176055,
                0.2144175882519602
            ]
        },
        {
            "positions": [
                1.320463734288079,
                -1.2532822212065664,
                -0.29660196568247943,
                -0.4208072025570766,
                -0.9923575786852334,
                0.19545074501250695
            ]
        },
        {
            "positions": [
                1.214376133736163,
                -1.2539701120611935,
                -0.17175453811043417,
                -0.3340576796708512,
                -0.9478507083528613,
                0.17648390177305368
            ]
        },
        {
            "positions": [
                1.1082885331842474,
                -1.2546580029158205,
                -0.04690711053838914,
                -0.24730815678462603,
                -0.9033438380204893,
                0.15751705853360048
            ]
        },
        {
            "positions": [
                1.0022009326323313,
                -1.2553458937704476,
                0.07794031703365611,
                -0.16055863389840064,
                -0.8588369676881172,
                0.13855021529414718
            ]
        },
        {
            "positions": [
                0.8961133320804155,
                -1.2560337846250746,
                0.20278774460570137,
                -0.07380911101217524,
                -0.8143300973557451,
                0.11958337205469394
            ]
        },
        {
            "positions": [
                0.7900257315284998,
                -1.2567216754797017,
                0.3276351721777462,
                0.01294041187405015,
                -0.7698232270233731,
                0.10061652881524075
            ]
        },
        {
            "positions": [
                0.6839381309765837,
                -1.2574095663343288,
                0.45248259974979144,
                0.09968993476027554,
                -0.725316356691001,
                0.08164968557578745
            ]
        },
        {
            "positions": [
                0.5778505304246679,
                -1.2580974571889558,
                0.5773300273218367,
                0.18643945764650094,
                -0.6808094863586289,
                0.0626828423363342
            ]
        },
        {
            "positions": [
                0.4717629298727526,
                -1.258785348043583,
                0.702177454893882,
                0.2731889805327261,
                -0.6363026160262569,
                0.04371599909688095
            ]
        },
        {
            "positions": [
                0.36567532932083635,
                -1.2594732388982102,
                0.8270248824659272,
                0.3599385034189515,
                -0.5917957456938848,
                0.024749155857427707
            ]
        },
        {
            "positions": [
                0.25958772876892056,
                -1.2601611297528372,
                0.9518723100379725,
                0.4466880263051771,
                -0.5472888753615126,
                0.005782312617974461
            ]
        },
        {
            "positions": [
                0.15350012821700476,
                -1.2608490206074643,
                1.0767197376100173,
                0.5334375491914021,
                -0.5027820050291407,
                -0.013184530621478785
            ]
        },
        {
            "positions": [
                0.04741252766508912,
                -1.2615369114620913,
                1.2015671651820625,
                0.6201870720776276,
                -0.4582751346967687,
                -0.03215137386093203
            ]
        },
        {
            "positions": [
                0.03926354601404601,
                -1.2168407729973207,
                1.3314398864458183,
                0.7770983381143522,
                -0.40728497186112733,
                -0.037095239450128305
            ]
        },
        {
            "positions": [
                0.031114564363002906,
                -1.1721446345325501,
                1.4613126077095742,
                0.9340096041510769,
                -0.35629480902548594,
                -0.04203910503932457
            ]
        },
        {
            "positions": [
                0.022965582711959805,
                -1.1274484960677795,
                1.5911853289733302,
                1.0909208701878015,
                -0.30530464618984454,
                -0.046982970628520845
            ]
        },
        {
            "positions": [
                0.014816601060916694,
                -1.082752357603009,
                1.721058050237086,
                1.2478321362245262,
                -0.25431448335420315,
                -0.05192683621771711
            ]
        },
        {
            "positions": [
                0.006667619409873593,
                -1.0380562191382383,
                1.8509307715008418,
                1.4047434022612508,
                -0.2033243205185618,
                -0.056870701806913386
            ]
        },
        {
            "positions": [
                0.03589462324986602,
                -0.9733553313248242,
                1.8876792352021834,
                1.5348427558030833,
                -0.1874457338068554,
                -0.044318415513722315
            ]
        },
        {
            "positions": [
                0.06512162708985844,
                -0.9086544435114101,
                1.924427698903525,
                1.6649421093449157,
                -0.17156714709514898,
                -0.031766129220531236
            ]
        },
        {
            "positions": [
                0.09434863092985087,
                -0.843953555697996,
                1.9611761626048665,
                1.7950414628867484,
                -0.15568856038344256,
                -0.01921384292734016
            ]
        },
        {
            "positions": [
                0.12357563476984329,
                -0.7792526678845819,
                1.9979246263062083,
                1.925140816428581,
                -0.13980997367173614,
                -0.006661556634149088
            ]
        }
    ]
}