{
    "goal": {
        "global_pose": {
            "orientation": {
                "w": 0.005598929693374612,
                "x": 0.007748599140229565,
                "y": 0.7110244013736278,
                "z": -0.7031023480610252
            },
            "position": {
                "x": 0.1141497679147869,
                "y": -0.7141253447532654,
                "z": 0.3711530566215515
            }
        },
        "name": "move_to_auspresseinheit_B"
    },
    "id": "FMT_move_to_auspresseinheit_B_129",
    "joint_names": [
        "shoulder_pan_joint",
        "shoulder_lift_joint",
        "elbow_joint",
        "wrist_1_joint",
        "wrist_2_joint",
        "wrist_3_joint"
    ],
    "metrics": {
        "cart_traj_len": 0.5641929226153153,
        "distance_elbow_joint": 0.05916902140184699,
        "distance_shoulder_lift_joint": 0.295701763773325,
        "distance_shoulder_pan_joint": 0.5776812973651233,
        "distance_wrist_1_joint": 0.3179156275284397,
        "distance_wrist_2_joint": 0.9900097905893361,
        "distance_wrist_3_joint": 0.007669433783211055,
        "smoothness": 5.075305255429287e-16,
        "time": 0.509167337,
        "traj_len": 1.4993821842483264,
        "weighted_distance": 1.88981777431727
    },
    "planner": "FMT",
    "start": {
        "state": {
            "elbow_joint": 2.0193083361928714,
            "shoulder_lift_joint": -1.1220246554650708,
            "shoulder_pan_joint": -1.0952077554168747,
            "wrist_1_joint": -0.8559753972642168,
            "wrist_2_joint": 0.4759566250798843,
            "wrist_3_joint": -3.1240929996934557
        }
    },
    "waypoints": [
        {
            "positions": [
                -1.0952077554168747,
                -1.1220246554650708,
                2.0193083361928714,
                -0.8559753972642168,
                0.4759566250798843,
                -3.1240929996934557
            ]
        },
        {
            "positions": [
                -1.1914879716443951,
                -1.171308282760625,
                2.0094468326258967,
                -0.8029894593428102,
                0.6409582568447736,
                -3.1228147607295873
            ]
        },
        {
            "positions": [
                -1.2877681878719158,
                -1.220591910056179,
                1.9995853290589225,
                -0.7500035214214036,
                0.8059598886096631,
                -3.1215365217657185
            ]
        },
        {
            "positions": [
                -1.3840484040994363,
                -1.2698755373517332,
                1.9897238254919478,
                -0.697017583499997,
                0.9709615203745523,
                -3.12025828280185
            ]
        },
        {
            "positions": [
                -1.4803286203269568,
                -1.3191591646472876,
                1.9798623219249734,
                -0.6440316455785904,
                1.1359631521394418,
                -3.1189800438379818
            ]
        },
        {
            "positions": [
                -1.5766088365544775,
                -1.3684427919428417,
                1.970000818357999,
                -0.5910457076571837,
                1.300964783904331,
                -3.117701804874113
            ]
        },
        {
            "positions": [
                -1.672889052781998,
                -1.4177264192383958,
                1.9601393147910244,
                -0.5380597697357771,
                1.4659664156692205,
                -3.1164235659102446
            ]
        }
    ]
}