{
    "goal": {
        "global_pose": {
            "orientation": {
                "w": 0.005598929693374612,
                "x": 0.007748599140229565,
                "y": 0.7110244013736278,
                "z": -0.7031023480610252
            },
            "position": {
                "x": -0.8858502320852131,
                "y": -0.7141253447532654,
                "z": 0.3711530566215515
            }
        },
        "name": "move_to_auspresseinheit_C"
    },
    "id": "FMT_move_to_auspresseinheit_C_104",
    "joint_names": [
        "shoulder_pan_joint",
        "shoulder_lift_joint",
        "elbow_joint",
        "wrist_1_joint",
        "wrist_2_joint",
        "wrist_3_joint"
    ],
    "metrics": {
        "cart_traj_len": 0.49198243931635866,
        "distance_elbow_joint": 0.9879786251172681,
        "distance_shoulder_lift_joint": 0.31892345565792535,
        "distance_shoulder_pan_joint": 0.25643385406660935,
        "distance_wrist_1_joint": 0.6616221276126307,
        "distance_wrist_2_joint": 1.304940359314467,
        "distance_wrist_3_joint": 0.046552083881428175,
        "smoothness": 3.2297397080004555e-16,
        "time": 0.526865489,
        "traj_len": 1.8911505772017017,
        "weighted_distance": 2.3740507914407143
    },
    "planner": "FMT",
    "start": {
        "state": {
            "elbow_joint": 1.7527959577737207,
            "shoulder_lift_joint": -0.9740617694225068,
            "shoulder_pan_joint": -2.967991417825858,
            "wrist_1_joint": -0.759517768980727,
            "wrist_2_joint": 1.7443932448377408,
            "wrist_3_joint": -3.0840537646736568
        }
    },
    "waypoints": [
        {
            "positions": [
                -2.967991417825858,
                -0.9740617694225068,
                1.7527959577737207,
                -0.759517768980727,
                1.7443932448377408,
                -3.0840537646736568
            ]
        },
        {
            "positions": [
                -2.942348032419197,
                -0.9421694238567142,
                1.653998095261994,
                -0.6933555562194639,
                1.613899208906294,
                -3.0887089730617996
            ]
        },
        {
            "positions": [
                -2.916704647012536,
                -0.9102770782909217,
                1.555200232750267,
                -0.6271933434582009,
                1.4834051729748474,
                -3.0933641814499424
            ]
        },
        {
            "positions": [
                -2.8910612616058753,
                -0.8783847327251292,
                1.4564023702385402,
                -0.5610311306969378,
                1.3529111370434008,
                -3.0980193898380852
            ]
        },
        {
            "positions": [
                -2.8654178761992144,
                -0.8464923871593366,
                1.3576045077268133,
                -0.49486891793567467,
                1.222417101111954,
                -3.102674598226228
            ]
        },
        {
            "positions": [
                -2.8397744907925535,
                -0.8146000415935442,
                1.2588066452150866,
                -0.4287067051744116,
                1.0919230651805072,
                -3.107329806614371
            ]
        },
        {
            "positions": [
                -2.814131105385892,
                -0.7827076960277516,
                1.1600087827033598,
                -0.36254449241314857,
                0.9614290292490606,
                -3.1119850150025137
            ]
        },
        {
            "positions": [
                -2.7884877199792313,
                -0.750815350461959,
                1.061210920191633,
                -0.2963822796518855,
                0.830934993317614,
                -3.1166402233906565
            ]
        },
        {
            "positions": [
                -2.7628443345725704,
                -0.7189230048961666,
                0.9624130576799061,
                -0.23022006689062235,
                0.7004409573861672,
                -3.1212954317787993
            ]
        },
        {
            "positions": [
                -2.7372009491659095,
                -0.6870306593303739,
                0.8636151951681794,
                -0.16405785412935936,
                0.5699469214547204,
                -3.125950640166942
            ]
        },
        {
            "positions": [
                -2.7115575637592486,
                -0.6551383137645814,
                0.7648173326564526,
                -0.09789564136809627,
                0.43945288552327383,
                -3.130605848555085
            ]
        }
    ]
}