{
    "goal": {
        "global_pose": {
            "orientation": {
                "w": 0.005598929693374612,
                "x": 0.007748599140229565,
                "y": 0.7110244013736278,
                "z": -0.7031023480610252
            },
            "position": {
                "x": -0.8858502320852131,
                "y": -0.7141253447532654,
                "z": 0.3711530566215515
            }
        },
        "name": "move_to_auspresseinheit_C"
    },
    "id": "FMT_move_to_auspresseinheit_C_150",
    "joint_names": [
        "shoulder_pan_joint",
        "shoulder_lift_joint",
        "elbow_joint",
        "wrist_1_joint",
        "wrist_2_joint",
        "wrist_3_joint"
    ],
    "metrics": {
        "cart_traj_len": 0.49190026829161676,
        "distance_elbow_joint": 0.9922742389160787,
        "distance_shoulder_lift_joint": 0.32145729993133376,
        "distance_shoulder_pan_joint": 0.2559675809297035,
        "distance_wrist_1_joint": 0.6674217443625106,
        "distance_wrist_2_joint": 1.3058978672123869,
        "distance_wrist_3_joint": 0.05264967273035781,
        "smoothness": 6.45947944157498e-16,
        "time": 0.442835704,
        "traj_len": 1.8962247767821123,
        "weighted_distance": 2.3820762710538856
    },
    "planner": "FMT",
    "start": {
        "state": {
            "elbow_joint": 1.7527959577737207,
            "shoulder_lift_joint": -0.9740617694225068,
            "shoulder_pan_joint": -2.967991417825858,
            "wrist_1_joint": -0.759517768980727,
            "wrist_2_joint": 1.7443932448377408,
            "wrist_3_joint": -3.0840537646736568
        }
    },
    "waypoints": [
        {
            "positions": [
                -2.967991417825858,
                -0.9740617694225068,
                1.7527959577737207,
                -0.759517768980727,
                1.7443932448377408,
                -3.0840537646736568
            ]
        },
        {
            "positions": [
                -2.9423946597328876,
                -0.9419160394293734,
                1.6535685338821127,
                -0.6927755945444759,
                1.6138034581165022,
                -3.0893187319466926
            ]
        },
        {
            "positions": [
                -2.9167979016399173,
                -0.90977030943624,
                1.554341109990505,
                -0.6260334201082248,
                1.4832136713952635,
                -3.0945836992197284
            ]
        },
        {
            "positions": [
                -2.891201143546947,
                -0.8776245794431067,
                1.4551136860988971,
                -0.5592912456719739,
                1.3526238846740248,
                -3.0998486664927642
            ]
        },
        {
            "positions": [
                -2.8656043854539766,
                -0.8454788494499732,
                1.3558862622072891,
                -0.4925490712357227,
                1.2220340979527862,
                -3.1051136337658
            ]
        },
        {
            "positions": [
                -2.840007627361006,
                -0.8133331194568398,
                1.2566588383156814,
                -0.4258068967994717,
                1.0914443112315473,
                -3.1103786010388355
            ]
        },
        {
            "positions": [
                -2.814410869268036,
                -0.7811873894637065,
                1.1574314144240736,
                -0.3590647223632207,
                0.9608545245103087,
                -3.1156435683118713
            ]
        },
        {
            "positions": [
                -2.7888141111750655,
                -0.7490416594705731,
                1.0582039905324656,
                -0.2923225479269696,
                0.8302647377890701,
                -3.120908535584907
            ]
        },
        {
            "positions": [
                -2.763217353082095,
                -0.7168959294774397,
                0.9589765666408576,
                -0.22558037349071847,
                0.6996749510678313,
                -3.126173502857943
            ]
        },
        {
            "positions": [
                -2.737620594989125,
                -0.6847501994843064,
                0.8597491427492499,
                -0.1588381990544675,
                0.5690851643465926,
                -3.1314384701309788
            ]
        },
        {
            "positions": [
                -2.7120238368961544,
                -0.652604469491173,
                0.760521718857642,
                -0.09209602461821638,
                0.438495377625354,
                -3.1367034374040146
            ]
        }
    ]
}