{
    "goal": {
        "global_pose": {
            "orientation": {
                "w": 0.7047431493862688,
                "x": -0.7094548369677653,
                "y": 0.0024358444001904,
                "z": -0.0022348060817251984
            },
            "position": {
                "x": -0.39052492380142206,
                "y": 0.3671506643295288,
                "z": 0.19426114857196808
            }
        },
        "name": "move_to_magneteinheit_D"
    },
    "id": "FMT_move_to_magneteinheit_D_96",
    "joint_names": [
        "shoulder_pan_joint",
        "shoulder_lift_joint",
        "elbow_joint",
        "wrist_1_joint",
        "wrist_2_joint",
        "wrist_3_joint"
    ],
    "metrics": {
        "cart_traj_len": 4.196924766107746,
        "distance_elbow_joint": 3.741030500804164,
        "distance_shoulder_lift_joint": 1.2533022263416012,
        "distance_shoulder_pan_joint": 4.17216131689129,
        "distance_wrist_1_joint": 2.831140846165908,
        "distance_wrist_2_joint": 1.8768611033364393,
        "distance_wrist_3_joint": 0.44870097762492067,
        "smoothness": 0.6989228287489896,
        "time": 1.441202088,
        "traj_len": 3.7845999750520956,
        "weighted_distance": 4.4641461530640445
    },
    "planner": "FMT",
    "start": {
        "state": {
            "elbow_joint": 0.749534889911806,
            "shoulder_lift_joint": -0.6476975780787326,
            "shoulder_pan_joint": -2.711696901376241,
            "wrist_1_joint": -0.07506478083263063,
            "wrist_2_joint": 0.43296659715538205,
            "wrist_3_joint": -3.14703540197715
        }
    },
    "waypoints": [
        {
            "positions": [
                -2.711696901376241,
                -0.6476975780787326,
                0.749534889911806,
                -0.07506478083263063,
                0.43296659715538205,
                -3.14703540197715
            ]
        },
        {
            "positions": [
                -2.766164719908249,
                -0.7603703304701352,
                0.7120076820317682,
                -0.05581654354421131,
                0.421664940062075,
                -3.079232057076242
            ]
        },
        {
            "positions": [
                -2.8206325384402566,
                -0.8730430828615379,
                0.6744804741517304,
                -0.036568306255791994,
                0.4103632829687679,
                -3.0114287121753343
            ]
        },
        {
            "positions": [
                -2.8751003569722644,
                -0.9857158352529405,
                0.6369532662716926,
                -0.017320068967372676,
                0.3990616258754608,
                -2.943625367274427
            ]
        },
        {
            "positions": [
                -2.929568175504272,
                -1.098388587644343,
                0.5994260583916549,
                0.0019281683210466416,
                0.38775996878215374,
                -2.875822022373519
            ]
        },
        {
            "positions": [
                -2.805521455208113,
                -1.0956301768524201,
                0.47837071908509654,
                -0.09109048336604693,
                0.34319924586587847,
                -2.8758693212717548
            ]
        },
        {
            "positions": [
                -2.681474734911954,
                -1.0928717660604972,
                0.3573153797785382,
                -0.1841091350531405,
                0.2986385229496032,
                -2.875916620169991
            ]
        },
        {
            "positions": [
                -2.557428014615795,
                -1.0901133552685742,
                0.2362600404719799,
                -0.2771277867402341,
                0.2540778000333279,
                -2.875963919068227
            ]
        },
        {
            "positions": [
                -2.433381294319636,
                -1.0873549444766513,
                0.11520470116542159,
                -0.37014643842732764,
                0.20951707711705267,
                -2.876011217966463
            ]
        },
        {
            "positions": [
                -2.3093345740234765,
                -1.0845965336847283,
                -0.0058506381411367325,
                -0.4631650901144212,
                0.16495635420077742,
                -2.876058516864699
            ]
        },
        {
            "positions": [
                -2.185287853727318,
                -1.0818381228928053,
                -0.12690597744769505,
                -0.5561837418015148,
                0.12039563128450215,
                -2.8761058157629353
            ]
        },
        {
            "positions": [
                -2.0612411334311584,
                -1.0790797121008826,
                -0.24796131675425337,
                -0.6492023934886084,
                0.07583490836822687,
                -2.876153114661171
            ]
        },
        {
            "positions": [
                -1.9371944131349994,
                -1.0763213013089596,
                -0.3690166560608117,
                -0.7422210451757019,
                0.0312741854519516,
                -2.8762004135594075
            ]
        },
        {
            "positions": [
                -1.8131476928388404,
                -1.0735628905170367,
                -0.49007199536737,
                -0.8352396968627955,
                -0.013286537464323678,
                -2.8762477124576433
            ]
        },
        {
            "positions": [
                -1.6891009725426813,
                -1.0708044797251137,
                -0.6111273346739283,
                -0.928258348549889,
                -0.0578472603805989,
                -2.876295011355879
            ]
        },
        {
            "positions": [
                -1.5650542522465223,
                -1.0680460689331908,
                -0.7321826739804866,
                -1.0212770002369826,
                -0.10240798329687417,
                -2.8763423102541155
            ]
        },
        {
            "positions": [
                -1.4410075319503632,
                -1.0652876581412678,
                -0.853238013287045,
                -1.1142956519240763,
                -0.14696870621314945,
                -2.8763896091523513
            ]
        },
        {
            "positions": [
                -1.3169608116542042,
                -1.0625292473493448,
                -0.9742933525936033,
                -1.2073143036111698,
                -0.19152942912942467,
                -2.8764369080505876
            ]
        },
        {
            "positions": [
                -1.192914091358045,
                -1.0597708365574219,
                -1.0953486919001616,
                -1.3003329552982634,
                -0.2360901520457,
                -2.8764842069488235
            ]
        },
        {
            "positions": [
                -1.0688673710618857,
                -1.057012425765499,
                -1.2164040312067201,
                -1.393351606985357,
                -0.2806508749619753,
                -2.8765315058470597
            ]
        },
        {
            "positions": [
                -0.9448206507657269,
                -1.054254014973576,
                -1.3374593705132782,
                -1.4863702586724505,
                -0.32521159787825055,
                -2.8765788047452956
            ]
        },
        {
            "positions": [
                -0.8207739304695676,
                -1.051495604181653,
                -1.4585147098198368,
                -1.5793889103595442,
                -0.3697723207945259,
                -2.876626103643532
            ]
        },
        {
            "positions": [
                -0.6967272101734086,
                -1.04873719338973,
                -1.5795700491263949,
                -1.6724075620466377,
                -0.4143330437108011,
                -2.8766734025417677
            ]
        },
        {
            "positions": [
                -0.5726804898772495,
                -1.045978782597807,
                -1.7006253884329534,
                -1.7654262137337313,
                -0.4588937666270764,
                -2.8767207014400036
            ]
        },
        {
            "positions": [
                -0.44863376958109047,
                -1.0432203718058841,
                -1.8216807277395115,
                -1.8584448654208248,
                -0.5034544895433515,
                -2.87676800033824
            ]
        },
        {
            "positions": [
                -0.32458704928493143,
                -1.0404619610139614,
                -1.94273606704607,
                -1.9514635171079187,
                -0.5480152124596269,
                -2.8768152992364757
            ]
        },
        {
            "positions": [
                -0.2005403289887724,
                -1.0377035502220384,
                -2.063791406352628,
                -2.0444821687950117,
                -0.5925759353759021,
                -2.876862598134712
            ]
        },
        {
            "positions": [
                -0.0764936086926129,
                -1.0349451394301155,
                -2.1848467456591867,
                -2.1375008204821055,
                -0.6371366582921774,
                -2.876909897032948
            ]
        },
        {
            "positions": [
                0.047553111603545695,
                -1.0321867286381925,
                -2.305902084965745,
                -2.230519472169199,
                -0.6816973812084526,
                -2.876957195931184
            ]
        },
        {
            "positions": [
                0.17159983189970518,
                -1.0294283178462695,
                -2.4269574242723033,
                -2.3235381238562924,
                -0.726258104124728,
                -2.87700449482942
            ]
        },
        {
            "positions": [
                0.2956465521958638,
                -1.0266699070543466,
                -2.5480127635788614,
                -2.416556775543386,
                -0.770818827041003,
                -2.8770517937276563
            ]
        },
        {
            "positions": [
                0.41969327249202315,
                -1.0239114962624236,
                -2.66906810288542,
                -2.5095754272304798,
                -0.8153795499572786,
                -2.877099092625892
            ]
        },
        {
            "positions": [
                0.33326061609674273,
                -1.1279306570330052,
                -2.623007030313,
                -2.474911955593236,
                -0.7255916990681672,
                -2.902272025164309
            ]
        },
        {
            "positions": [
                0.24682795970146235,
                -1.2319498178035868,
                -2.5769459577405804,
                -2.440248483955993,
                -0.635803848179056,
                -2.9274449577027255
            ]
        },
        {
            "positions": [
                0.16039530330618196,
                -1.3359689785741684,
                -2.5308848851681605,
                -2.4055850123187494,
                -0.5460159972899447,
                -2.952617890241142
            ]
        },
        {
            "positions": [
                0.07396264691090154,
                -1.43998813934475,
                -2.484823812595741,
                -2.370921540681506,
                -0.45622814640083337,
                -2.9777908227795584
            ]
        },
        {
            "positions": [
                -0.012470009484378874,
                -1.5440073001153316,
                -2.438762740023321,
                -2.3362580690442623,
                -0.366440295511722,
                -3.002963755317975
            ]
        },
        {
            "positions": [
                -0.09890266587965924,
                -1.6480264608859132,
                -2.3927016674509014,
                -2.301594597407019,
                -0.27665244462261074,
                -3.028136687856392
            ]
        },
        {
            "positions": [
                -0.18533532227493962,
                -1.7520456216564948,
                -2.3466405948784814,
                -2.2669311257697755,
                -0.1868645937334994,
                -3.0533096203948085
            ]
        }
    ]
}