{
    "goal": {
        "global_pose": {
            "orientation": {
                "w": 0.7031023480610252,
                "x": -0.7110244013736278,
                "y": 0.0077485991402295624,
                "z": 0.005598929693374583
            },
            "position": {
                "x": -0.8841497679147869,
                "y": 0.44412534475326537,
                "z": 0.3711530566215515
            }
        },
        "name": "move_to_auspresseinheit_D"
    },
    "id": "FMT_move_to_auspresseinheit_D_29",
    "joint_names": [
        "shoulder_pan_joint",
        "shoulder_lift_joint",
        "elbow_joint",
        "wrist_1_joint",
        "wrist_2_joint",
        "wrist_3_joint"
    ],
    "metrics": {
        "cart_traj_len": 0.34235484039864283,
        "distance_elbow_joint": 0.6315757949515393,
        "distance_shoulder_lift_joint": 0.11767608292479181,
        "distance_shoulder_pan_joint": 0.1331600653849466,
        "distance_wrist_1_joint": 0.5084096787026131,
        "distance_wrist_2_joint": 1.438409864409003,
        "distance_wrist_3_joint": 0.02156250166931528,
        "smoothness": 0.0,
        "time": 0.463983903,
        "traj_len": 1.688429444200204,
        "weighted_distance": 2.200167842345773
    },
    "planner": "FMT",
    "start": {
        "state": {
            "elbow_joint": -1.8275523626775212,
            "shoulder_lift_joint": -2.126789852344167,
            "shoulder_pan_joint": -0.03513704404078235,
            "wrist_1_joint": -2.347782403156801,
            "wrist_2_joint": -1.6058999987535132,
            "wrist_3_joint": -3.0880379163319196
        }
    },
    "waypoints": [
        {
            "positions": [
                -0.03513704404078235,
                -2.126789852344167,
                -1.8275523626775212,
                -2.347782403156801,
                -1.6058999987535132,
                -3.0880379163319196
            ]
        },
        {
            "positions": [
                -0.05178205221390067,
                -2.141499362709766,
                -1.7486053883085788,
                -2.4113336129946275,
                -1.4260987657023878,
                -3.090733229040584
            ]
        },
        {
            "positions": [
                -0.068427060387019,
                -2.156208873075365,
                -1.6696584139396364,
                -2.474884822832454,
                -1.2462975326512624,
                -3.0934285417492484
            ]
        },
        {
            "positions": [
                -0.08507206856013733,
                -2.1709183834409638,
                -1.590711439570694,
                -2.5384360326702806,
                -1.066496299600137,
                -3.096123854457913
            ]
        },
        {
            "positions": [
                -0.10171707673325564,
                -2.1856278938065627,
                -1.5117644652017517,
                -2.601987242508107,
                -0.8866950665490116,
                -3.0988191671665772
            ]
        },
        {
            "positions": [
                -0.11836208490637398,
                -2.2003374041721617,
                -1.432817490832809,
                -2.6655384523459342,
                -0.7068938334978863,
                -3.1015144798752416
            ]
        },
        {
            "positions": [
                -0.1350070930794923,
                -2.2150469145377607,
                -1.3538705164638667,
                -2.729089662183761,
                -0.5270926004467609,
                -3.104209792583906
            ]
        },
        {
            "positions": [
                -0.1516521012526106,
                -2.2297564249033597,
                -1.2749235420949243,
                -2.7926408720215874,
                -0.3472913673956355,
                -3.1069051052925705
            ]
        },
        {
            "positions": [
                -0.16829710942572895,
                -2.2444659352689587,
                -1.195976567725982,
                -2.856192081859414,
                -0.1674901343445102,
                -3.109600418001235
            ]
        }
    ]
}