{
    "goal": {
        "global_pose": {
            "orientation": {
                "w": 0.7047431493862688,
                "x": -0.7094548369677653,
                "y": 0.0024358444001904,
                "z": -0.0022348060817251984
            },
            "position": {
                "x": -0.39052492380142206,
                "y": 0.3671506643295288,
                "z": 0.19426114857196808
            }
        },
        "name": "move_to_magneteinheit_D"
    },
    "id": "FMT_move_to_magneteinheit_D_112",
    "joint_names": [
        "shoulder_pan_joint",
        "shoulder_lift_joint",
        "elbow_joint",
        "wrist_1_joint",
        "wrist_2_joint",
        "wrist_3_joint"
    ],
    "metrics": {
        "cart_traj_len": 4.574984256728349,
        "distance_elbow_joint": 3.131136356871433,
        "distance_shoulder_lift_joint": 1.632054014050851,
        "distance_shoulder_pan_joint": 3.6857709706699255,
        "distance_wrist_1_joint": 1.7629595625809156,
        "distance_wrist_2_joint": 0.6555425897652244,
        "distance_wrist_3_joint": 3.1693838367871465,
        "smoothness": 0.25256586998816466,
        "time": 1.4982718369999999,
        "traj_len": 3.746578082827782,
        "weighted_distance": 4.77431850180169
    },
    "planner": "FMT",
    "start": {
        "state": {
            "elbow_joint": 0.749534889911806,
            "shoulder_lift_joint": -0.6476975780787326,
            "shoulder_pan_joint": -2.711696901376241,
            "wrist_1_joint": -0.07506478083263063,
            "wrist_2_joint": 0.43296659715538205,
            "wrist_3_joint": -3.14703540197715
        }
    },
    "waypoints": [
        {
            "positions": [
                -2.711696901376241,
                -0.6476975780787326,
                0.749534889911806,
                -0.07506478083263063,
                0.43296659715538205,
                -3.14703540197715
            ]
        },
        {
            "positions": [
                -2.728142442418239,
                -0.7056828653000959,
                0.7332064025291154,
                -0.09642847991582298,
                0.4166859176733614,
                -3.038242907021622
            ]
        },
        {
            "positions": [
                -2.7445879834602374,
                -0.7636681525214594,
                0.7168779151464248,
                -0.11779217899901534,
                0.40040523819134066,
                -2.9294504120660942
            ]
        },
        {
            "positions": [
                -2.743585776884316,
                -0.8462518924578272,
                0.6858005733104946,
                -0.14585530307424388,
                0.3707775217162474,
                -2.7747347211001965
            ]
        },
        {
            "positions": [
                -2.7425835703083945,
                -0.928835632394195,
                0.6547232314745645,
                -0.17391842714947245,
                0.3411498052411541,
                -2.6200190301342987
            ]
        },
        {
            "positions": [
                -2.624612514090524,
                -0.9711830042857146,
                0.5898434754745111,
                -0.17217882270748336,
                0.3027033231043758,
                -2.5370004197081215
            ]
        },
        {
            "positions": [
                -2.5066414578726532,
                -1.013530376177234,
                0.5249637194744579,
                -0.17043921826549427,
                0.26425684096759755,
                -2.453981809281944
            ]
        },
        {
            "positions": [
                -2.3886704016547826,
                -1.0558777480687538,
                0.4600839634744045,
                -0.16869961382350518,
                0.22581035883081924,
                -2.3709631988557662
            ]
        },
        {
            "positions": [
                -2.2706993454369115,
                -1.0982251199602733,
                0.3952042074743512,
                -0.16696000938151612,
                0.18736387669404095,
                -2.287944588429589
            ]
        },
        {
            "positions": [
                -2.152728289219041,
                -1.140572491851793,
                0.33032445147429784,
                -0.16522040493952703,
                0.14891739455726263,
                -2.204925978003412
            ]
        },
        {
            "positions": [
                -2.0347572330011703,
                -1.1829198637433125,
                0.26544469547424454,
                -0.16348080049753794,
                0.11047091242048435,
                -2.121907367577234
            ]
        },
        {
            "positions": [
                -1.9306061832733434,
                -1.2222626221348556,
                0.15818883382834314,
                -0.11357266121116963,
                0.10472676404497731,
                -2.0381512951409886
            ]
        },
        {
            "positions": [
                -1.8264551335455166,
                -1.261605380526399,
                0.05093297218244175,
                -0.0636645219248013,
                0.09898261566947028,
                -1.954395222704743
            ]
        },
        {
            "positions": [
                -1.72230408381769,
                -1.300948138917942,
                -0.05632288946345965,
                -0.013756382638432985,
                0.09323846729396326,
                -1.8706391502684971
            ]
        },
        {
            "positions": [
                -1.6181530340898629,
                -1.3402908973094854,
                -0.16357875110936104,
                0.036151756647935324,
                0.08749431891845623,
                -1.7868830778322515
            ]
        },
        {
            "positions": [
                -1.5140019843620363,
                -1.3796336557010285,
                -0.27083461275526244,
                0.08605989593430366,
                0.0817501705429492,
                -1.703127005396006
            ]
        },
        {
            "positions": [
                -1.4098509346342094,
                -1.4189764140925716,
                -0.37809047440116383,
                0.13596803522067197,
                0.07600602216744218,
                -1.61937093295976
            ]
        },
        {
            "positions": [
                -1.3056998849063826,
                -1.458319172484115,
                -0.48534633604706534,
                0.1858761745070403,
                0.07026187379193513,
                -1.5356148605235145
            ]
        },
        {
            "positions": [
                -1.2015488351785557,
                -1.497661930875658,
                -0.5926021976929666,
                0.23578431379340858,
                0.06451772541642811,
                -1.4518587880872689
            ]
        },
        {
            "positions": [
                -1.0973977854507289,
                -1.5370046892672011,
                -0.6998580593388681,
                0.285692453079777,
                0.05877357704092108,
                -1.3681027156510233
            ]
        },
        {
            "positions": [
                -0.993246735722902,
                -1.5763474476587445,
                -0.8071139209847694,
                0.33560059236614526,
                0.053029428665414054,
                -1.2843466432147777
            ]
        },
        {
            "positions": [
                -0.8890956859950752,
                -1.6156902060502876,
                -0.914369782630671,
                0.3855087316525136,
                0.047285280289907014,
                -1.2005905707785318
            ]
        },
        {
            "positions": [
                -0.7849446362672485,
                -1.655032964441831,
                -1.0216256442765723,
                0.4354168709388819,
                0.041541131914399995,
                -1.1168344983422862
            ]
        },
        {
            "positions": [
                -0.6807935865394217,
                -1.694375722833374,
                -1.1288815059224735,
                0.48532501022525015,
                0.03579698353889296,
                -1.0330784259060406
            ]
        },
        {
            "positions": [
                -0.5766425368115946,
                -1.7337184812249173,
                -1.2361373675683751,
                0.5352331495116185,
                0.03005283516338593,
                -0.9493223534697948
            ]
        },
        {
            "positions": [
                -0.472491487083768,
                -1.7730612396164604,
                -1.3433932292142767,
                0.5851412887979868,
                0.024308686787878897,
                -0.8655662810335492
            ]
        },
        {
            "positions": [
                -0.36834043735594113,
                -1.8124039980080036,
                -1.450649090860178,
                0.635049428084355,
                0.018564538412371878,
                -0.7818102085973035
            ]
        },
        {
            "positions": [
                -0.2641893876281145,
                -1.851746756399547,
                -1.557904952506079,
                0.6849575673707233,
                0.012820390036864845,
                -0.6980541361610579
            ]
        },
        {
            "positions": [
                -0.16003833790028743,
                -1.89108951479109,
                -1.6651608141519807,
                0.7348657066570918,
                0.007076241661357813,
                -0.6142980637248121
            ]
        },
        {
            "positions": [
                -0.05588728817246058,
                -1.930432273182633,
                -1.7724166757978823,
                0.7847738459434601,
                0.00133209328585078,
                -0.5305419912885665
            ]
        },
        {
            "positions": [
                0.04826376155536627,
                -1.9697750315741764,
                -1.8796725374437835,
                0.8346819852298284,
                -0.004412055089656239,
                -0.4467859188523209
            ]
        },
        {
            "positions": [
                0.1524148112831929,
                -2.0091177899657193,
                -1.986928399089685,
                0.8845901245161967,
                -0.010156203465163272,
                -0.3630298464160753
            ]
        },
        {
            "positions": [
                0.25656586101101997,
                -2.0484605483572627,
                -2.0941842607355867,
                0.9344982638025652,
                -0.015900351840670318,
                -0.27927377397982944
            ]
        },
        {
            "positions": [
                0.36071691073884643,
                -2.087803306748806,
                -2.201440122381488,
                0.9844064030889333,
                -0.02164450021617734,
                -0.19551770154358372
            ]
        },
        {
            "positions": [
                0.25950949254130246,
                -2.124067908873048,
                -2.2362116595866417,
                1.080171951095439,
                0.016476091477264972,
                -0.1549633401797236
            ]
        },
        {
            "positions": [
                0.15830207434375848,
                -2.1603325109972897,
                -2.2709831967917955,
                1.175937499101945,
                0.05459668317070729,
                -0.11440897881586348
            ]
        },
        {
            "positions": [
                0.057094656146214506,
                -2.196597113121532,
                -2.3057547339969493,
                1.2717030471084507,
                0.0927172748641496,
                -0.07385461745200336
            ]
        },
        {
            "positions": [
                -0.04411276205132947,
                -2.2328617152457735,
                -2.340526271202103,
                1.3674685951149566,
                0.13083786655759191,
                -0.03330025608814324
            ]
        },
        {
            "positions": [
                -0.14532018024887342,
                -2.2691263173700156,
                -2.375297808407257,
                1.4632341431214624,
                0.16895845825103423,
                0.007254105275716887
            ]
        },
        {
            "positions": [
                -0.1868580836480002,
                -2.2797515921295837,
                -2.3816014669596273,
                1.4901874891146012,
                0.17928699217748792,
                0.022348434809998305
            ]
        }
    ]
}