{
    "goal": {
        "global_pose": {
            "orientation": {
                "w": 0.7031023480610252,
                "x": -0.7110244013736278,
                "y": 0.0077485991402295624,
                "z": 0.005598929693374583
            },
            "position": {
                "x": -0.8841497679147869,
                "y": 0.44412534475326537,
                "z": 0.3711530566215515
            }
        },
        "name": "move_to_auspresseinheit_D"
    },
    "id": "FMT_move_to_auspresseinheit_D_88",
    "joint_names": [
        "shoulder_pan_joint",
        "shoulder_lift_joint",
        "elbow_joint",
        "wrist_1_joint",
        "wrist_2_joint",
        "wrist_3_joint"
    ],
    "metrics": {
        "cart_traj_len": 0.3426774919483845,
        "distance_elbow_joint": 0.6308134068416276,
        "distance_shoulder_lift_joint": 0.11662950235263114,
        "distance_shoulder_pan_joint": 0.13364990498692045,
        "distance_wrist_1_joint": 0.5149031630500569,
        "distance_wrist_2_joint": 1.4353923655394998,
        "distance_wrist_3_joint": 0.008967787866748456,
        "smoothness": 0.0,
        "time": 0.490469477,
        "traj_len": 1.6853356136501372,
        "weighted_distance": 2.192849113587284
    },
    "planner": "FMT",
    "start": {
        "state": {
            "elbow_joint": -1.8275523626775212,
            "shoulder_lift_joint": -2.126789852344167,
            "shoulder_pan_joint": -0.03513704404078235,
            "wrist_1_joint": -2.347782403156801,
            "wrist_2_joint": -1.6058999987535132,
            "wrist_3_joint": -3.0880379163319196
        }
    },
    "waypoints": [
        {
            "positions": [
                -0.03513704404078235,
                -2.126789852344167,
                -1.8275523626775212,
                -2.347782403156801,
                -1.6058999987535132,
                -3.0880379163319196
            ]
        },
        {
            "positions": [
                -0.05184328216414741,
                -2.1413685401382456,
                -1.7487006868223178,
                -2.412145298538058,
                -1.4264759530610758,
                -3.089158889815263
            ]
        },
        {
            "positions": [
                -0.06854952028751246,
                -2.155947227932325,
                -1.6698490109671142,
                -2.476508193919315,
                -1.2470519073686384,
                -3.0902798632986066
            ]
        },
        {
            "positions": [
                -0.08525575841087751,
                -2.1705259157264036,
                -1.5909973351119109,
                -2.5408710893005724,
                -1.0676278616762007,
                -3.09140083678195
            ]
        },
        {
            "positions": [
                -0.10196199653424257,
                -2.1851046035204824,
                -1.5121456592567073,
                -2.6052339846818295,
                -0.8882038159837633,
                -3.0925218102652936
            ]
        },
        {
            "positions": [
                -0.11866823465760762,
                -2.199683291314561,
                -1.433293983401504,
                -2.6695968800630863,
                -0.7087797702913259,
                -3.0936427837486375
            ]
        },
        {
            "positions": [
                -0.1353744727809727,
                -2.21426197910864,
                -1.3544423075463006,
                -2.7339597754443434,
                -0.5293557245988882,
                -3.094763757231981
            ]
        },
        {
            "positions": [
                -0.15208071090433775,
                -2.228840666902719,
                -1.275590631691097,
                -2.7983226708256006,
                -0.3499316789064508,
                -3.0958847307153246
            ]
        },
        {
            "positions": [
                -0.1687869490277028,
                -2.243419354696798,
                -1.1967389558358936,
                -2.8626855662068578,
                -0.17050763321401347,
                -3.097005704198668
            ]
        }
    ]
}