{
    "goal": {
        "global_pose": {
            "orientation": {
                "w": 0.005598929693374612,
                "x": 0.007748599140229565,
                "y": 0.7110244013736278,
                "z": -0.7031023480610252
            },
            "position": {
                "x": -0.8858502320852131,
                "y": -0.7141253447532654,
                "z": 0.3711530566215515
            }
        },
        "name": "move_to_auspresseinheit_C"
    },
    "id": "FMT_move_to_auspresseinheit_C_53",
    "joint_names": [
        "shoulder_pan_joint",
        "shoulder_lift_joint",
        "elbow_joint",
        "wrist_1_joint",
        "wrist_2_joint",
        "wrist_3_joint"
    ],
    "metrics": {
        "cart_traj_len": 0.4932166255929467,
        "distance_elbow_joint": 0.9947735099146546,
        "distance_shoulder_lift_joint": 0.32273640078557075,
        "distance_shoulder_pan_joint": 0.2567839840338064,
        "distance_wrist_1_joint": 0.6639944797621369,
        "distance_wrist_2_joint": 1.3041141765554518,
        "distance_wrist_3_joint": 0.048525552540716,
        "smoothness": 4.844609600361787e-16,
        "time": 0.536062144,
        "traj_len": 1.894974433493058,
        "weighted_distance": 2.378253112053332
    },
    "planner": "FMT",
    "start": {
        "state": {
            "elbow_joint": 1.7527959577737207,
            "shoulder_lift_joint": -0.9740617694225068,
            "shoulder_pan_joint": -2.967991417825858,
            "wrist_1_joint": -0.759517768980727,
            "wrist_2_joint": 1.7443932448377408,
            "wrist_3_joint": -3.0840537646736568
        }
    },
    "waypoints": [
        {
            "positions": [
                -2.967991417825858,
                -0.9740617694225068,
                1.7527959577737207,
                -0.759517768980727,
                1.7443932448377408,
                -3.0840537646736568
            ]
        },
        {
            "positions": [
                -2.9423130194224774,
                -0.9417881293439497,
                1.6533186067822552,
                -0.6931183210045133,
                1.6139818271821957,
                -3.0889063199277285
            ]
        },
        {
            "positions": [
                -2.9166346210190968,
                -0.9095144892653926,
                1.5538412557907897,
                -0.6267188730282995,
                1.4835704095266504,
                -3.0937588751818
            ]
        },
        {
            "positions": [
                -2.890956222615716,
                -0.8772408491868355,
                1.4543639047993242,
                -0.560319425052086,
                1.3531589918711053,
                -3.0986114304358714
            ]
        },
        {
            "positions": [
                -2.8652778242123356,
                -0.8449672091082785,
                1.3548865538078587,
                -0.4939199770758722,
                1.22274757421556,
                -3.103463985689943
            ]
        },
        {
            "positions": [
                -2.839599425808955,
                -0.8126935690297215,
                1.2554092028163932,
                -0.42752052909965854,
                1.092336156560015,
                -3.1083165409440148
            ]
        },
        {
            "positions": [
                -2.813921027405574,
                -0.7804199289511643,
                1.1559318518249277,
                -0.3611210811234449,
                0.9619247389044697,
                -3.1131690961980865
            ]
        },
        {
            "positions": [
                -2.7882426290021933,
                -0.7481462888726073,
                1.0564545008334625,
                -0.2947216331472312,
                0.8315133212489246,
                -3.118021651452158
            ]
        },
        {
            "positions": [
                -2.7625642305988127,
                -0.7158726487940501,
                0.9569771498419969,
                -0.22832218517101743,
                0.7011019035933794,
                -3.1228742067062294
            ]
        },
        {
            "positions": [
                -2.736885832195432,
                -0.6835990087154931,
                0.8574997988505315,
                -0.16192273719480377,
                0.5706904859378341,
                -3.127726761960301
            ]
        },
        {
            "positions": [
                -2.7112074337920515,
                -0.651325368636936,
                0.758022447859066,
                -0.09552328921859012,
                0.440279068282289,
                -3.1325793172143728
            ]
        }
    ]
}