{
    "goal": {
        "global_pose": {
            "orientation": {
                "w": 0.7031023502349854,
                "x": -0.7110244035720825,
                "y": 0.007748599164187908,
                "z": 0.005598929710686207
            },
            "position": {
                "x": 0.11585023208521307,
                "y": 0.44412534475326537,
                "z": 0.3711530566215515
            }
        },
        "name": "move_to_auspresseinheit_A"
    },
    "id": "FMT_move_to_auspresseinheit_A_114",
    "joint_names": [
        "shoulder_pan_joint",
        "shoulder_lift_joint",
        "elbow_joint",
        "wrist_1_joint",
        "wrist_2_joint",
        "wrist_3_joint"
    ],
    "metrics": {
        "cart_traj_len": 0.7965795982882645,
        "distance_elbow_joint": 0.42022054640087747,
        "distance_shoulder_lift_joint": 0.5355724193781048,
        "distance_shoulder_pan_joint": 1.0417497368566515,
        "distance_wrist_1_joint": 3.579181002952665,
        "distance_wrist_2_joint": 1.8725560142976045,
        "distance_wrist_3_joint": 0.2974939918709576,
        "smoothness": 1.1216525822677188,
        "time": 1.2417023729999999,
        "traj_len": 2.783302662621667,
        "weighted_distance": 3.71395997726807
    },
    "planner": "FMT",
    "start": {
        "state": {
            "elbow_joint": 2.4225746658250005,
            "shoulder_lift_joint": -1.3736534386056498,
            "shoulder_pan_joint": -0.3378633547517467,
            "wrist_1_joint": -1.0288598680537169,
            "wrist_2_joint": 1.233022673432363,
            "wrist_3_joint": -3.0940220416140027
        }
    },
    "waypoints": [
        {
            "positions": [
                -0.3378633547517467,
                -1.3736534386056498,
                2.4225746658250005,
                -1.0288598680537169,
                1.233022673432363,
                -3.0940220416140027
            ]
        },
        {
            "positions": [
                -0.3167000385069679,
                -1.3836781263504587,
                2.4022034938473245,
                -0.8408894602864742,
                1.123621960816743,
                -3.081956223919888
            ]
        },
        {
            "positions": [
                -0.29553672226218897,
                -1.3937028140952679,
                2.3818323218696484,
                -0.6529190525192314,
                1.014221248201123,
                -3.0698904062257735
            ]
        },
        {
            "positions": [
                -0.2743734060174101,
                -1.4037275018400768,
                2.361461149891972,
                -0.4649486447519887,
                0.904820535585503,
                -3.0578245885316586
            ]
        },
        {
            "positions": [
                -0.25321008977263126,
                -1.4137521895848857,
                2.341089977914296,
                -0.2769782369847459,
                0.795419822969883,
                -3.045758770837544
            ]
        },
        {
            "positions": [
                -0.2320467735278524,
                -1.4237768773296948,
                2.32071880593662,
                -0.08900782921750328,
                0.686019110354263,
                -3.0336929531434293
            ]
        },
        {
            "positions": [
                -0.21088345728307353,
                -1.4338015650745037,
                2.300347633958944,
                0.09896257854973944,
                0.576618397738643,
                -3.021627135449315
            ]
        },
        {
            "positions": [
                -0.18972014103829465,
                -1.4438262528193129,
                2.279976461981268,
                0.2869329863169823,
                0.467217685123023,
                -3.0095613177552
            ]
        },
        {
            "positions": [
                -0.16855682479351577,
                -1.4538509405641218,
                2.259605290003592,
                0.4749033940842251,
                0.35781697250740296,
                -2.9974955000610857
            ]
        },
        {
            "positions": [
                -0.14739350854873692,
                -1.4638756283089307,
                2.2392341180259154,
                0.6628738018514677,
                0.24841625989178284,
                -2.985429682366971
            ]
        },
        {
            "positions": [
                -0.12623019230395807,
                -1.4739003160537398,
                2.2188629460482394,
                0.8508442096187103,
                0.13901554727616294,
                -2.9733638646728564
            ]
        },
        {
            "positions": [
                -0.10506687605917919,
                -1.4839250037985487,
                2.1984917740705634,
                1.038814617385953,
                0.02961483466054296,
                -2.9612980469787415
            ]
        },
        {
            "positions": [
                -0.02417155024277079,
                -1.5264550892170694,
                2.2181055395352076,
                0.8876639656346533,
                0.09652965221312139,
                -2.977775046702311
            ]
        },
        {
            "positions": [
                0.056723775573637614,
                -1.5689851746355898,
                2.2377193049998514,
                0.7365133138833537,
                0.16344446976569982,
                -2.994252046425881
            ]
        },
        {
            "positions": [
                0.13761910139004596,
                -1.6115152600541105,
                2.2573330704644956,
                0.585362662132054,
                0.2303592873182782,
                -3.0107290461494505
            ]
        },
        {
            "positions": [
                0.21851442720645442,
                -1.6540453454726312,
                2.2769468359291394,
                0.4342120103807544,
                0.2972741048708567,
                -3.02720604587302
            ]
        },
        {
            "positions": [
                0.29940975302286277,
                -1.6965754308911518,
                2.2965606013937836,
                0.2830613586294548,
                0.36418892242343504,
                -3.0436830455965898
            ]
        },
        {
            "positions": [
                0.3803050788392711,
                -1.7391055163096723,
                2.316174366858428,
                0.1319107068781552,
                0.4311037399760135,
                -3.0601600453201594
            ]
        },
        {
            "positions": [
                0.46120040465567946,
                -1.781635601728193,
                2.3357881323230716,
                -0.0192399448731444,
                0.4980185575285919,
                -3.076637045043729
            ]
        },
        {
            "positions": [
                0.542095730472088,
                -1.8241656871467136,
                2.355401897787716,
                -0.1703905966244441,
                0.5649333750811704,
                -3.0931140447672987
            ]
        },
        {
            "positions": [
                0.6229910562884964,
                -1.866695772565234,
                2.3750156632523596,
                -0.3215412483757438,
                0.6318481926337487,
                -3.1095910444908683
            ]
        },
        {
            "positions": [
                0.7038863821049047,
                -1.9092258579837547,
                2.394629428717004,
                -0.47269190012704343,
                0.6987630101863271,
                -3.126068044214438
            ]
        }
    ]
}