{
    "goal": {
        "global_pose": {
            "orientation": {
                "w": -0.00223480608172531,
                "x": 0.0024358444001904467,
                "y": 0.7094548369677653,
                "z": -0.704743149386269
            },
            "position": {
                "x": 0.6205249238014221,
                "y": -0.6371506643295288,
                "z": 0.19426114857196808
            }
        },
        "name": "move_to_magneteinheit_B"
    },
    "id": "FMT_move_to_magneteinheit_B_41",
    "joint_names": [
        "shoulder_pan_joint",
        "shoulder_lift_joint",
        "elbow_joint",
        "wrist_1_joint",
        "wrist_2_joint",
        "wrist_3_joint"
    ],
    "metrics": {
        "cart_traj_len": 3.467338190512795,
        "distance_elbow_joint": 4.6097808775957905,
        "distance_shoulder_lift_joint": 0.7686262487090065,
        "distance_shoulder_pan_joint": 2.113424967752247,
        "distance_wrist_1_joint": 4.774750545016081,
        "distance_wrist_2_joint": 0.8357314938104139,
        "distance_wrist_3_joint": 3.3340077343992145,
        "smoothness": 0.31279073291362847,
        "time": 1.643830867,
        "traj_len": 4.054173388902201,
        "weighted_distance": 5.3586210329624615
    },
    "planner": "FMT",
    "start": {
        "state": {
            "elbow_joint": 2.6216224122426386,
            "shoulder_lift_joint": -1.4174107377796124,
            "shoulder_pan_joint": 0.7066234856936794,
            "wrist_1_joint": 1.9546482284002225,
            "wrist_2_joint": -0.7096286983471962,
            "wrist_3_joint": 0.005740856962016249
        }
    },
    "waypoints": [
        {
            "positions": [
                0.7066234856936794,
                -1.4174107377796124,
                2.6216224122426386,
                1.9546482284002225,
                -0.7096286983471962,
                0.005740856962016249
            ]
        },
        {
            "positions": [
                0.7274477148393819,
                -1.4533311492341208,
                2.6245986901815876,
                1.9795619814169636,
                -0.6576743519719405,
                0.2025749404928233
            ]
        },
        {
            "positions": [
                0.7482719439850842,
                -1.4892515606886292,
                2.6275749681205367,
                2.0044757344337047,
                -0.6057200055966847,
                0.3994090240236303
            ]
        },
        {
            "positions": [
                0.7669187401492266,
                -1.518707564881917,
                2.6040766004410636,
                2.013715768334238,
                -0.5601908193148424,
                0.5690009178696726
            ]
        },
        {
            "positions": [
                0.785565536313369,
                -1.548163569075205,
                2.580578232761591,
                2.0229558022347707,
                -0.5146616330330002,
                0.7385928117157148
            ]
        },
        {
            "positions": [
                0.8042123324775113,
                -1.5776195732684928,
                2.557079865082118,
                2.032195836135304,
                -0.46913244675115784,
                0.9081847055617571
            ]
        },
        {
            "positions": [
                0.83333544520887,
                -1.5854653169426833,
                2.4437264343987035,
                1.973028735482842,
                -0.4344699868098566,
                1.0243581996809725
            ]
        },
        {
            "positions": [
                0.8624585579402289,
                -1.593311060616874,
                2.330373003715289,
                1.9138616348303799,
                -0.3998075268685553,
                1.1405316938001882
            ]
        },
        {
            "positions": [
                0.8915816706715876,
                -1.6011568042910647,
                2.2170195730318754,
                1.854694534177918,
                -0.365145066927254,
                1.2567051879194036
            ]
        },
        {
            "positions": [
                0.9207047834029464,
                -1.6090025479652552,
                2.103666142348461,
                1.795527433525456,
                -0.3304826069859528,
                1.372878682038619
            ]
        },
        {
            "positions": [
                0.9498278961343051,
                -1.6168482916394458,
                1.9903127116650468,
                1.736360332872994,
                -0.29582014704465154,
                1.4890521761578346
            ]
        },
        {
            "positions": [
                0.9789510088656639,
                -1.6246940353136365,
                1.8769592809816324,
                1.677193232220532,
                -0.26115768710335024,
                1.6052256702770498
            ]
        },
        {
            "positions": [
                1.0080741215970226,
                -1.632539778987827,
                1.7636058502982184,
                1.6180261315680702,
                -0.22649522716204898,
                1.7213991643962654
            ]
        },
        {
            "positions": [
                1.0699381799888505,
                -1.6364923838292675,
                1.6430019488876069,
                1.4778471811974048,
                -0.22451045493978547,
                1.7750883193396916
            ]
        },
        {
            "positions": [
                1.1318022383806785,
                -1.640444988670708,
                1.5223980474769954,
                1.3376682308267396,
                -0.222525682717522,
                1.8287774742831178
            ]
        },
        {
            "positions": [
                1.1936662967725065,
                -1.6443975935121484,
                1.401794146066384,
                1.1974892804560744,
                -0.22054091049525848,
                1.8824666292265437
            ]
        },
        {
            "positions": [
                1.2555303551643346,
                -1.648350198353589,
                1.2811902446557726,
                1.057310330085409,
                -0.218556138272995,
                1.93615578416997
            ]
        },
        {
            "positions": [
                1.3173944135561626,
                -1.6523028031950295,
                1.160586343245161,
                0.9171313797147437,
                -0.2165713660507315,
                1.989844939113396
            ]
        },
        {
            "positions": [
                1.3792584719479906,
                -1.65625540803647,
                1.0399824418345496,
                0.7769524293440784,
                -0.214586593828468,
                2.043534094056822
            ]
        },
        {
            "positions": [
                1.4411225303398185,
                -1.6602080128779104,
                0.9193785404239381,
                0.6367734789734131,
                -0.2126018216062045,
                2.0972232490002485
            ]
        },
        {
            "positions": [
                1.5029865887316465,
                -1.6641606177193509,
                0.7987746390133267,
                0.4965945286027478,
                -0.210617049383941,
                2.1509124039436744
            ]
        },
        {
            "positions": [
                1.5648506471234747,
                -1.6681132225607913,
                0.6781707376027151,
                0.35641557823208236,
                -0.2086322771616775,
                2.204601558887101
            ]
        },
        {
            "positions": [
                1.6267147055153026,
                -1.6720658274022318,
                0.5575668361921036,
                0.21623662786141717,
                -0.206647504939414,
                2.258290713830527
            ]
        },
        {
            "positions": [
                1.6885787639071306,
                -1.6760184322436724,
                0.4369629347814923,
                0.07605767749075198,
                -0.20466273271715052,
                2.3119798687739532
            ]
        },
        {
            "positions": [
                1.7504428222989585,
                -1.6799710370851129,
                0.3163590333708808,
                -0.06412127287991343,
                -0.202677960494887,
                2.365669023717379
            ]
        },
        {
            "positions": [
                1.8123068806907865,
                -1.6839236419265533,
                0.19575513196026928,
                -0.20430022325057884,
                -0.2006931882726235,
                2.4193581786608056
            ]
        },
        {
            "positions": [
                1.8741709390826147,
                -1.6878762467679937,
                0.07515123054965778,
                -0.34447917362124403,
                -0.19870841605036002,
                2.4730473336042316
            ]
        },
        {
            "positions": [
                1.9360349974744424,
                -1.6918288516094342,
                -0.045452670860953726,
                -0.4846581239919092,
                -0.19672364382809654,
                2.5267364885476575
            ]
        },
        {
            "positions": [
                1.9978990558662706,
                -1.6957814564508746,
                -0.166056572271565,
                -0.6248370743625746,
                -0.19473887160583303,
                2.580425643491084
            ]
        },
        {
            "positions": [
                2.0597631142580983,
                -1.699734061292315,
                -0.2866604736821763,
                -0.7650160247332396,
                -0.19275409938356952,
                2.63411479843451
            ]
        },
        {
            "positions": [
                2.1216271726499265,
                -1.7036866661337557,
                -0.40726437509278823,
                -0.9051949751039055,
                -0.190769327161306,
                2.6878039533779363
            ]
        },
        {
            "positions": [
                2.1834912310417547,
                -1.7076392709751962,
                -0.5278682765033997,
                -1.0453739254745709,
                -0.18878455493904253,
                2.7414931083213627
            ]
        },
        {
            "positions": [
                2.245355289433583,
                -1.7115918758166366,
                -0.6484721779140112,
                -1.1855528758452358,
                -0.18679978271677905,
                2.7951822632647882
            ]
        },
        {
            "positions": [
                2.3072193478254106,
                -1.715544480658077,
                -0.7690760793246227,
                -1.3257318262159012,
                -0.18481501049451554,
                2.8488714182082147
            ]
        },
        {
            "positions": [
                2.3690834062172383,
                -1.7194970854995175,
                -0.8896799807352338,
                -1.4659107765865662,
                -0.18283023827225203,
                2.902560573151641
            ]
        },
        {
            "positions": [
                2.4309474646090665,
                -1.723449690340958,
                -1.0102838821458453,
                -1.6060897269572316,
                -0.18084546604998855,
                2.9562497280950666
            ]
        },
        {
            "positions": [
                2.4928115230008947,
                -1.7274022951823984,
                -1.1308877835564568,
                -1.746268677327897,
                -0.17886069382772507,
                3.009938883038493
            ]
        },
        {
            "positions": [
                2.554675581392723,
                -1.731354900023839,
                -1.2514916849670688,
                -1.8864476276985624,
                -0.17687592160546156,
                3.0636280379819194
            ]
        },
        {
            "positions": [
                2.6165396397845506,
                -1.7353075048652795,
                -1.3720955863776798,
                -2.026626578069228,
                -0.17489114938319805,
                3.117317192925346
            ]
        },
        {
            "positions": [
                2.6784036981763784,
                -1.73926010970672,
                -1.4926994877882913,
                -2.166805528439893,
                -0.17290637716093454,
                3.1710063478687713
            ]
        },
        {
            "positions": [
                2.7402677565682065,
                -1.7432127145481604,
                -1.613303389198903,
                -2.3069844788105582,
                -0.17092160493867106,
                3.2246955028121977
            ]
        },
        {
            "positions": [
                2.7279518955262394,
                -1.7923500244626474,
                -1.6805899268131594,
                -2.388192251595739,
                -0.23929960054017851,
                3.230440347579184
            ]
        },
        {
            "positions": [
                2.7156360344842723,
                -1.8414873343771343,
                -1.747876464427416,
                -2.46940002438092,
                -0.307677596141686,
                3.23618519234617
            ]
        },
        {
            "positions": [
                2.703320173442305,
                -1.8906246442916212,
                -1.8151630020416725,
                -2.550607797166101,
                -0.3760555917431935,
                3.241930037113156
            ]
        },
        {
            "positions": [
                2.6890424688583656,
                -1.9890954250239539,
                -1.7614662181897776,
                -2.51247469583957,
                -0.40668572960898247,
                3.2093238523637977
            ]
        },
        {
            "positions": [
                2.674764764274426,
                -2.0875662057562865,
                -1.7077694343378829,
                -2.474341594513039,
                -0.4373158674747714,
                3.1767176676144397
            ]
        },
        {
            "positions": [
                2.6604870596904866,
                -2.186036986488619,
                -1.654072650485988,
                -2.4362084931865082,
                -0.4679460053405604,
                3.1441114828650814
            ]
        }
    ]
}