{
    "goal": {
        "global_pose": {
            "orientation": {
                "w": 0.7031023480610252,
                "x": -0.7110244013736278,
                "y": 0.0077485991402295624,
                "z": 0.005598929693374583
            },
            "position": {
                "x": -0.8841497679147869,
                "y": 0.44412534475326537,
                "z": 0.3711530566215515
            }
        },
        "name": "move_to_auspresseinheit_D"
    },
    "id": "FMT_move_to_auspresseinheit_D_70",
    "joint_names": [
        "shoulder_pan_joint",
        "shoulder_lift_joint",
        "elbow_joint",
        "wrist_1_joint",
        "wrist_2_joint",
        "wrist_3_joint"
    ],
    "metrics": {
        "cart_traj_len": 0.34223258089983777,
        "distance_elbow_joint": 0.6302314906520563,
        "distance_shoulder_lift_joint": 0.11685826195495874,
        "distance_shoulder_pan_joint": 0.13320361258568494,
        "distance_wrist_1_joint": 0.5081571933439331,
        "distance_wrist_2_joint": 1.4406650416327889,
        "distance_wrist_3_joint": 0.012929550531356249,
        "smoothness": 1.77635684096311e-15,
        "time": 0.512162797,
        "traj_len": 1.685836632269206,
        "weighted_distance": 2.194704191170239
    },
    "planner": "FMT",
    "start": {
        "state": {
            "elbow_joint": -1.8275523626775212,
            "shoulder_lift_joint": -2.126789852344167,
            "shoulder_pan_joint": -0.03513704404078235,
            "wrist_1_joint": -2.347782403156801,
            "wrist_2_joint": -1.6058999987535132,
            "wrist_3_joint": -3.0880379163319196
        }
    },
    "waypoints": [
        {
            "positions": [
                -0.03513704404078235,
                -2.126789852344167,
                -1.8275523626775212,
                -2.347782403156801,
                -1.6058999987535132,
                -3.0880379163319196
            ]
        },
        {
            "positions": [
                -0.05178749561399297,
                -2.141397135088537,
                -1.7487734263460142,
                -2.4113020523247926,
                -1.4258168685494146,
                -3.0896541101483392
            ]
        },
        {
            "positions": [
                -0.06843794718720358,
                -2.1560044178329063,
                -1.6699944900145072,
                -2.4748217014927842,
                -1.245733738345316,
                -3.091270303964759
            ]
        },
        {
            "positions": [
                -0.08508839876041421,
                -2.1706117005772763,
                -1.5912155536830002,
                -2.538341350660776,
                -1.0656506081412174,
                -3.092886497781178
            ]
        },
        {
            "positions": [
                -0.10173885033362481,
                -2.185218983321646,
                -1.5124366173514932,
                -2.6018609998287676,
                -0.8855674779371188,
                -3.0945026915975977
            ]
        },
        {
            "positions": [
                -0.11838930190683544,
                -2.199826266066016,
                -1.433657681019986,
                -2.665380648996759,
                -0.7054843477330202,
                -3.0961188854140174
            ]
        },
        {
            "positions": [
                -0.13503975348004607,
                -2.214433548810386,
                -1.354878744688479,
                -2.7289002981647505,
                -0.5254012175289215,
                -3.0977350792304366
            ]
        },
        {
            "positions": [
                -0.15169020505325667,
                -2.2290408315547556,
                -1.276099808356972,
                -2.7924199473327422,
                -0.34531808732482294,
                -3.099351273046856
            ]
        },
        {
            "positions": [
                -0.1683406566264673,
                -2.2436481142991256,
                -1.1973208720254649,
                -2.855939596500734,
                -0.16523495712072422,
                -3.100967466863276
            ]
        }
    ]
}