{
    "goal": {
        "global_pose": {
            "orientation": {
                "w": 0.5084816217422485,
                "x": -0.49083608388900757,
                "y": 0.5182115435600281,
                "z": -0.4816462993621826
            },
            "position": {
                "x": 0.5540239810943604,
                "y": 0.030875300988554955,
                "z": 0.16403168439865112
            }
        },
        "name": "move_to_storage_A"
    },
    "id": "FMT_move_to_storage_A_36",
    "joint_names": [
        "shoulder_pan_joint",
        "shoulder_lift_joint",
        "elbow_joint",
        "wrist_1_joint",
        "wrist_2_joint",
        "wrist_3_joint"
    ],
    "metrics": {
        "cart_traj_len": 0.35335116227944385,
        "distance_elbow_joint": 0.4486374215095099,
        "distance_shoulder_lift_joint": 0.23595877721850567,
        "distance_shoulder_pan_joint": 0.4630793053102782,
        "distance_wrist_1_joint": 0.23615204205769735,
        "distance_wrist_2_joint": 1.0954108505288578,
        "distance_wrist_3_joint": 0.08648654584454496,
        "smoothness": 6.661338165333112e-16,
        "time": 0.376773551,
        "traj_len": 1.6017880454259215,
        "weighted_distance": 2.0174887674396205
    },
    "planner": "FMT",
    "start": {
        "state": {
            "elbow_joint": 1.971548259319323,
            "shoulder_lift_joint": -1.1394851275133948,
            "shoulder_pan_joint": 0.1228115487234821,
            "wrist_1_joint": -0.7804723859257726,
            "wrist_2_joint": 0.12958671773740124,
            "wrist_3_joint": -3.192489227718131
        }
    },
    "waypoints": [
        {
            "positions": [
                0.1228115487234821,
                -1.1394851275133948,
                1.971548259319323,
                -0.7804723859257726,
                0.12958671773740124,
                -3.192489227718131
            ]
        },
        {
            "positions": [
                0.05665736225058522,
                -1.1731935242588956,
                2.035639319534967,
                -0.8142083919340151,
                0.28607398209866663,
                -3.180134006883196
            ]
        },
        {
            "positions": [
                -0.009496824222311656,
                -1.2069019210043965,
                2.0997303797506115,
                -0.8479443979422576,
                0.442561246459932,
                -3.1677787860482614
            ]
        },
        {
            "positions": [
                -0.07565101069520855,
                -1.2406103177498973,
                2.163821439966256,
                -0.8816804039505001,
                0.5990485108211974,
                -3.1554235652133262
            ]
        },
        {
            "positions": [
                -0.1418051971681054,
                -1.274318714495398,
                2.2279125001819002,
                -0.9154164099587425,
                0.7555357751824628,
                -3.143068344378391
            ]
        },
        {
            "positions": [
                -0.2079593836410023,
                -1.3080271112408988,
                2.2920035603975446,
                -0.9491524159669851,
                0.9120230395437283,
                -3.130713123543456
            ]
        },
        {
            "positions": [
                -0.2741135701138992,
                -1.3417355079863997,
                2.3560946206131885,
                -0.9828884219752274,
                1.0685103039049935,
                -3.1183579027085213
            ]
        },
        {
            "positions": [
                -0.3402677565867961,
                -1.3754439047319005,
                2.420185680828833,
                -1.01662442798347,
                1.224997568266259,
                -3.106002681873586
            ]
        }
    ]
}{
    "goal": {
        "global_pose": {
            "orientation": {
                "w": 0.5084816217422485,
                "x": -0.49083608388900757,
                "y": 0.5182115435600281,
                "z": -0.4816462993621826
            },
            "position": {
                "x": 0.5540239810943604,
                "y": 0.030875300988554955,
                "z": 0.16403168439865112
            }
        },
        "name": "move_to_storage_A"
    },
    "id": "FMT_move_to_storage_A_36",
    "joint_names": [
        "shoulder_pan_joint",
        "shoulder_lift_joint",
        "elbow_joint",
        "wrist_1_joint",
        "wrist_2_joint",
        "wrist_3_joint"
    ],
    "metrics": {
        "cart_traj_len": 0.35294428836900055,
        "distance_elbow_joint": 0.4487040951233081,
        "distance_shoulder_lift_joint": 0.23360827711247723,
        "distance_shoulder_pan_joint": 0.46327869833050167,
        "distance_wrist_1_joint": 0.2372926047071433,
        "distance_wrist_2_joint": 1.090595023542581,
        "distance_wrist_3_joint": 0.09097767458012829,
        "smoothness": 1.1102230263833737e-15,
        "time": 0.420427061,
        "traj_len": 1.6013920111565874,
        "weighted_distance": 2.018489373468714
    },
    "planner": "FMT",
    "start": {
        "state": {
            "elbow_joint": 1.97154746011099,
            "shoulder_lift_joint": -1.13948474672311,
            "shoulder_pan_joint": 0.12281154466712228,
            "wrist_1_joint": -0.7804688027058302,
            "wrist_2_joint": 0.12958655903071145,
            "wrist_3_joint": 3.0906928834467795
        }
    },
    "waypoints": [
        {
            "positions": [
                0.12281154466712228,
                -1.13948474672311,
                1.97154746011099,
                -0.7804688027058302,
                0.12958655903071145,
                3.0906928834467795
            ]
        },
        {
            "positions": [
                0.05662887347705062,
                -1.172857357739178,
                2.0356480451286054,
                -0.8143677462354221,
                0.285385848108223,
                3.1036896941010834
            ]
        },
        {
            "positions": [
                -0.009553797713021048,
                -1.2062299687552462,
                2.099748630146221,
                -0.848266689765014,
                0.4411851371857346,
                3.1166865047553878
            ]
        },
        {
            "positions": [
                -0.0757364689030927,
                -1.2396025797713144,
                2.1638492151638364,
                -0.8821656332946058,
                0.5969844262632461,
                3.1296833154096917
            ]
        },
        {
            "positions": [
                -0.14191914009316436,
                -1.2729751907873825,
                2.2279498001814515,
                -0.9160645768241977,
                0.7527837153407577,
                3.1426801260639956
            ]
        },
        {
            "positions": [
                -0.20810181128323607,
                -1.306347801803451,
                2.292050385199067,
                -0.9499635203537897,
                0.9085830044182693,
                3.1556769367182995
            ]
        },
        {
            "positions": [
                -0.27428448247330767,
                -1.339720412819519,
                2.3561509702166825,
                -0.9838624638833816,
                1.0643822934957807,
                3.168673747372604
            ]
        },
        {
            "positions": [
                -0.3404671536633794,
                -1.3730930238355872,
                2.420251555234298,
                -1.0177614074129735,
                1.2201815825732925,
                3.181670558026908
            ]
        }
    ]
}{
    "goal": {
        "global_pose": {
            "orientation": {
                "w": 0.5084816217422485,
                "x": -0.49083608388900757,
                "y": 0.5182115435600281,
                "z": -0.4816462993621826
            },
            "position": {
                "x": 0.5540239810943604,
                "y": 0.030875300988554955,
                "z": 0.16403168439865112
            }
        },
        "name": "move_to_storage_A"
    },
    "id": "FMT_move_to_storage_A_36",
    "joint_names": [
        "shoulder_pan_joint",
        "shoulder_lift_joint",
        "elbow_joint",
        "wrist_1_joint",
        "wrist_2_joint",
        "wrist_3_joint"
    ],
    "metrics": {
        "cart_traj_len": 0.3523782198163419,
        "distance_elbow_joint": 0.44904629922705475,
        "distance_shoulder_lift_joint": 0.23485116523023875,
        "distance_shoulder_pan_joint": 0.46217474958329824,
        "distance_wrist_1_joint": 0.23717633422559725,
        "distance_wrist_2_joint": 1.0917264108180615,
        "distance_wrist_3_joint": 0.10039499628811299,
        "smoothness": 0.0,
        "time": 0.404414567,
        "traj_len": 1.6047959232788334,
        "weighted_distance": 2.0260954303764294
    },
    "planner": "FMT",
    "start": {
        "state": {
            "elbow_joint": 1.9715472970024885,
            "shoulder_lift_joint": -1.1394870060712896,
            "shoulder_pan_joint": 0.12281152778156021,
            "wrist_1_joint": -0.780463741449964,
            "wrist_2_joint": 0.12958659822042276,
            "wrist_3_joint": 3.090690232415272
        }
    },
    "waypoints": [
        {
            "positions": [
                0.12281152778156021,
                -1.1394870060712896,
                1.9715472970024885,
                -0.780463741449964,
                0.12958659822042276,
                3.090690232415272
            ]
        },
        {
            "positions": [
                0.05678656355537476,
                -1.1730371725327522,
                2.0356967683206393,
                -0.8143460749107636,
                0.2855475140515744,
                3.1050323747421453
            ]
        },
        {
            "positions": [
                -0.009238400670810692,
                -1.206587338994215,
                2.09984623963879,
                -0.8482284083715632,
                0.4415084298827261,
                3.1193745170690184
            ]
        },
        {
            "positions": [
                -0.07526336489699614,
                -1.2401375054556776,
                2.1639957109569408,
                -0.8821107418323628,
                0.5974693457138777,
                3.133716659395892
            ]
        },
        {
            "positions": [
                -0.1412883291231816,
                -1.2736876719171404,
                2.228145182275091,
                -0.9159930752931624,
                0.7534302615450293,
                3.148058801722765
            ]
        },
        {
            "positions": [
                -0.20731329334936707,
                -1.307237838378603,
                2.292294653593242,
                -0.949875408753962,
                0.909391177376181,
                3.1624009440496383
            ]
        },
        {
            "positions": [
                -0.2733382575755525,
                -1.3407880048400656,
                2.3564441249113925,
                -0.9837577422147616,
                1.0653520932073326,
                3.1767430863765114
            ]
        },
        {
            "positions": [
                -0.339363221801738,
                -1.3743381713015284,
                2.4205935962295433,
                -1.0176400756755613,
                1.2213130090384843,
                3.191085228703385
            ]
        }
    ]
}