{
    "goal": {
        "global_pose": {
            "orientation": {
                "w": 0.7031023480610252,
                "x": -0.7110244013736278,
                "y": 0.0077485991402295624,
                "z": 0.005598929693374583
            },
            "position": {
                "x": -0.8841497679147869,
                "y": 0.44412534475326537,
                "z": 0.3711530566215515
            }
        },
        "name": "move_to_auspresseinheit_D"
    },
    "id": "FMT_move_to_auspresseinheit_D_65",
    "joint_names": [
        "shoulder_pan_joint",
        "shoulder_lift_joint",
        "elbow_joint",
        "wrist_1_joint",
        "wrist_2_joint",
        "wrist_3_joint"
    ],
    "metrics": {
        "cart_traj_len": 0.34318553767796073,
        "distance_elbow_joint": 0.6330390373106578,
        "distance_shoulder_lift_joint": 0.11757221587150557,
        "distance_shoulder_pan_joint": 0.13385722188321156,
        "distance_wrist_1_joint": 0.5183120290544503,
        "distance_wrist_2_joint": 1.4361041326177555,
        "distance_wrist_3_joint": 0.006281164977485876,
        "smoothness": 0.0,
        "time": 0.430176172,
        "traj_len": 1.6867619279895625,
        "weighted_distance": 2.1936600222783484
    },
    "planner": "FMT",
    "start": {
        "state": {
            "elbow_joint": -1.8275523626775212,
            "shoulder_lift_joint": -2.126789852344167,
            "shoulder_pan_joint": -0.03513704404078235,
            "wrist_1_joint": -2.347782403156801,
            "wrist_2_joint": -1.6058999987535132,
            "wrist_3_joint": -3.0880379163319196
        }
    },
    "waypoints": [
        {
            "positions": [
                -0.03513704404078235,
                -2.126789852344167,
                -1.8275523626775212,
                -2.347782403156801,
                -1.6058999987535132,
                -3.0880379163319196
            ]
        },
        {
            "positions": [
                -0.05186919677618379,
                -2.141486379328105,
                -1.748422483013689,
                -2.412571406788607,
                -1.4263869821762938,
                -3.0888230619541055
            ]
        },
        {
            "positions": [
                -0.06860134951158524,
                -2.1561829063120435,
                -1.6692926033498567,
                -2.477360410420413,
                -1.2468739655990744,
                -3.089608207576291
            ]
        },
        {
            "positions": [
                -0.08533350224698669,
                -2.1708794332959815,
                -1.5901627236860245,
                -2.54214941405222,
                -1.0673609490218547,
                -3.090393353198477
            ]
        },
        {
            "positions": [
                -0.10206565498238812,
                -2.1855759602799196,
                -1.5110328440221923,
                -2.606938417684026,
                -0.8878479324446354,
                -3.0911784988206623
            ]
        },
        {
            "positions": [
                -0.11879780771778958,
                -2.2002724872638577,
                -1.43190296435836,
                -2.671727421315832,
                -0.708334915867416,
                -3.091963644442848
            ]
        },
        {
            "positions": [
                -0.13552996045319102,
                -2.214969014247796,
                -1.3527730846945278,
                -2.736516424947639,
                -0.5288218992901965,
                -3.092748790065034
            ]
        },
        {
            "positions": [
                -0.15226211318859245,
                -2.2296655412317343,
                -1.2736432050306956,
                -2.801305428579445,
                -0.3493088827129771,
                -3.0935339356872196
            ]
        },
        {
            "positions": [
                -0.1689942659239939,
                -2.2443620682156724,
                -1.1945133253668634,
                -2.866094432211251,
                -0.16979586613575776,
                -3.0943190813094055
            ]
        }
    ]
}