{
    "goal": {
        "global_pose": {
            "orientation": {
                "w": 0.005598929693374612,
                "x": 0.007748599140229565,
                "y": 0.7110244013736278,
                "z": -0.7031023480610252
            },
            "position": {
                "x": -0.8858502320852131,
                "y": -0.7141253447532654,
                "z": 0.3711530566215515
            }
        },
        "name": "move_to_auspresseinheit_C"
    },
    "id": "FMT_move_to_auspresseinheit_C_129",
    "joint_names": [
        "shoulder_pan_joint",
        "shoulder_lift_joint",
        "elbow_joint",
        "wrist_1_joint",
        "wrist_2_joint",
        "wrist_3_joint"
    ],
    "metrics": {
        "cart_traj_len": 0.4931259755770711,
        "distance_elbow_joint": 0.9999115697074648,
        "distance_shoulder_lift_joint": 0.3244359380449421,
        "distance_shoulder_pan_joint": 0.2563030974100289,
        "distance_wrist_1_joint": 0.6800796122891114,
        "distance_wrist_2_joint": 1.3106876044854328,
        "distance_wrist_3_joint": 0.05087760498952987,
        "smoothness": 1.6148698667872622e-16,
        "time": 0.403939006,
        "traj_len": 1.9032328882526464,
        "weighted_distance": 2.390568521017566
    },
    "planner": "FMT",
    "start": {
        "state": {
            "elbow_joint": 1.7527959577737207,
            "shoulder_lift_joint": -0.9740617694225068,
            "shoulder_pan_joint": -2.967991417825858,
            "wrist_1_joint": -0.759517768980727,
            "wrist_2_joint": 1.7443932448377408,
            "wrist_3_joint": -3.0840537646736568
        }
    },
    "waypoints": [
        {
            "positions": [
                -2.967991417825858,
                -0.9740617694225068,
                1.7527959577737207,
                -0.759517768980727,
                1.7443932448377408,
                -3.0840537646736568
            ]
        },
        {
            "positions": [
                -2.942361108084855,
                -0.9416181756180125,
                1.652804800802974,
                -0.6915098077518158,
                1.6133244843891976,
                -3.08914152517261
            ]
        },
        {
            "positions": [
                -2.916730798343852,
                -0.9091745818135184,
                1.5528136438322278,
                -0.6235018465229047,
                1.4822557239406542,
                -3.0942292856715627
            ]
        },
        {
            "positions": [
                -2.8911004886028495,
                -0.8767309880090242,
                1.4528224868614812,
                -0.5554938852939936,
                1.351186963492111,
                -3.0993170461705155
            ]
        },
        {
            "positions": [
                -2.8654701788618464,
                -0.8442873942045299,
                1.3528313298907348,
                -0.4874859240650824,
                1.2201182030435676,
                -3.1044048066694687
            ]
        },
        {
            "positions": [
                -2.8398398691208433,
                -0.8118438004000357,
                1.2528401729199883,
                -0.4194779628361713,
                1.0890494425950243,
                -3.109492567168422
            ]
        },
        {
            "positions": [
                -2.8142095593798406,
                -0.7794002065955415,
                1.1528490159492417,
                -0.35147000160726016,
                0.9579806821464812,
                -3.1145803276673747
            ]
        },
        {
            "positions": [
                -2.788579249638838,
                -0.7469566127910473,
                1.0528578589784954,
                -0.28346204037834904,
                0.8269119216979379,
                -3.1196680881663275
            ]
        },
        {
            "positions": [
                -2.762948939897835,
                -0.7145130189865532,
                0.9528667020077488,
                -0.21545407914943782,
                0.6958431612493945,
                -3.1247558486652807
            ]
        },
        {
            "positions": [
                -2.7373186301568317,
                -0.6820694251820589,
                0.8528755450370024,
                -0.14744611792052675,
                0.5647744008008513,
                -3.129843609164234
            ]
        },
        {
            "positions": [
                -2.711688320415829,
                -0.6496258313775647,
                0.7528843880662559,
                -0.07943815669161562,
                0.43370564035230813,
                -3.1349313696631866
            ]
        }
    ]
}