{
    "goal": {
        "global_pose": {
            "orientation": {
                "w": 0.7047431468963623,
                "x": -0.7094548344612122,
                "y": 0.0024358443915843964,
                "z": -0.0022348060738295317
            },
            "position": {
                "x": 0.6094750761985779,
                "y": 0.3671506643295288,
                "z": 0.19426114857196808
            }
        },
        "name": "move_to_magneteinheit_A"
    },
    "id": "FMT_move_to_magneteinheit_A_19",
    "joint_names": [
        "shoulder_pan_joint",
        "shoulder_lift_joint",
        "elbow_joint",
        "wrist_1_joint",
        "wrist_2_joint",
        "wrist_3_joint"
    ],
    "metrics": {
        "cart_traj_len": 3.827228910255361,
        "distance_elbow_joint": 3.87851499619111,
        "distance_shoulder_lift_joint": 0.2873237282925434,
        "distance_shoulder_pan_joint": 3.1094971861585057,
        "distance_wrist_1_joint": 1.7756926096814238,
        "distance_wrist_2_joint": 2.380237460649836,
        "distance_wrist_3_joint": 2.578871002622453,
        "smoothness": 0.4915349948970484,
        "time": 1.333178685,
        "traj_len": 3.7430117530667557,
        "weighted_distance": 4.829472958737013
    },
    "planner": "FMT",
    "start": {
        "state": {
            "elbow_joint": -1.9196185241190666,
            "shoulder_lift_joint": -1.2443396400964142,
            "shoulder_pan_joint": 2.6996025414629847,
            "wrist_1_joint": -1.5485510000780065,
            "wrist_2_joint": -1.5709468930060704,
            "wrist_3_joint": 0.4420197071253992
        }
    },
    "waypoints": [
        {
            "positions": [
                2.6996025414629847,
                -1.2443396400964142,
                -1.9196185241190666,
                -1.5485510000780065,
                -1.5709468930060704,
                0.4420197071253992
            ]
        },
        {
            "positions": [
                2.6125018158049675,
                -1.235673167184342,
                -1.8111220303161815,
                -1.5622809182439743,
                -1.4925282626348317,
                0.5257105362579845
            ]
        },
        {
            "positions": [
                2.525401090146951,
                -1.2270066942722695,
                -1.702625536513296,
                -1.576010836409942,
                -1.414109632263593,
                0.6094013653905697
            ]
        },
        {
            "positions": [
                2.438300364488934,
                -1.2183402213601973,
                -1.594129042710411,
                -1.5897407545759097,
                -1.3356910018923545,
                0.693092194523155
            ]
        },
        {
            "positions": [
                2.351199638830917,
                -1.2096737484481248,
                -1.4856325489075257,
                -1.6034706727418775,
                -1.257272371521116,
                0.7767830236557403
            ]
        },
        {
            "positions": [
                2.2640989131728997,
                -1.2010072755360526,
                -1.3771360551046405,
                -1.6172005909078453,
                -1.1788537411498772,
                0.8604738527883256
            ]
        },
        {
            "positions": [
                2.176998187514883,
                -1.1923408026239803,
                -1.2686395613017551,
                -1.630930509073813,
                -1.1004351107786388,
                0.9441646819209107
            ]
        },
        {
            "positions": [
                2.0898974618568658,
                -1.183674329711908,
                -1.1601430674988698,
                -1.644660427239781,
                -1.0220164804074,
                1.0278555110534962
            ]
        },
        {
            "positions": [
                2.002796736198849,
                -1.1750078567998357,
                -1.0516465736959848,
                -1.6583903454057485,
                -0.9435978500361615,
                1.1115463401860812
            ]
        },
        {
            "positions": [
                1.9156960105408318,
                -1.1663413838877632,
                -0.9431500798930994,
                -1.6721202635717163,
                -0.8651792196649227,
                1.1952371693186667
            ]
        },
        {
            "positions": [
                1.828595284882815,
                -1.157674910975691,
                -0.8346535860902142,
                -1.685850181737684,
                -0.7867605892936842,
                1.2789279984512518
            ]
        },
        {
            "positions": [
                1.741494559224798,
                -1.1490084380636187,
                -0.7261570922873288,
                -1.6995800999036519,
                -0.7083419589224456,
                1.3626188275838371
            ]
        },
        {
            "positions": [
                1.6543938335667812,
                -1.1403419651515463,
                -0.6176605984844439,
                -1.7133100180696195,
                -0.6299233285512069,
                1.4463096567164224
            ]
        },
        {
            "positions": [
                1.5672931079087642,
                -1.131675492239474,
                -0.5091641046815587,
                -1.7270399362355873,
                -0.5515046981799683,
                1.5300004858490075
            ]
        },
        {
            "positions": [
                1.480192382250747,
                -1.1230090193274016,
                -0.4006676108786731,
                -1.740769854401555,
                -0.47308606780872964,
                1.613691314981593
            ]
        },
        {
            "positions": [
                1.39309165659273,
                -1.1143425464153294,
                -0.2921711170757879,
                -1.7544997725675229,
                -0.394667437437491,
                1.697382144114178
            ]
        },
        {
            "positions": [
                1.305990930934713,
                -1.1056760735032571,
                -0.18367462327290274,
                -1.7682296907334907,
                -0.3162488070662526,
                1.7810729732467636
            ]
        },
        {
            "positions": [
                1.2188902052766963,
                -1.0970096005911847,
                -0.07517812947001756,
                -1.7819596088994583,
                -0.23783017669501394,
                1.8647638023793487
            ]
        },
        {
            "positions": [
                1.1317894796186792,
                -1.0883431276791125,
                0.033318364332867834,
                -1.795689527065426,
                -0.15941154632377508,
                1.9484546315119342
            ]
        },
        {
            "positions": [
                1.0446887539606622,
                -1.0796766547670402,
                0.14181485813575279,
                -1.8094194452313939,
                -0.08099291595253666,
                2.0321454606445193
            ]
        },
        {
            "positions": [
                0.9575880283026452,
                -1.0710101818549678,
                0.2503113519386382,
                -1.8231493633973614,
                -0.002574285581298019,
                2.1158362897771044
            ]
        },
        {
            "positions": [
                0.8704873026446285,
                -1.0623437089428955,
                0.35880784574152313,
                -1.8368792815633292,
                0.07584434478994062,
                2.19952711890969
            ]
        },
        {
            "positions": [
                0.7833865769866113,
                -1.053677236030823,
                0.467304339544409,
                -1.850609199729297,
                0.15426297516117926,
                2.283217948042275
            ]
        },
        {
            "positions": [
                0.6962858513285942,
                -1.0450107631187509,
                0.5758008333472937,
                -1.8643391178952649,
                0.23268160553241787,
                2.3669087771748605
            ]
        },
        {
            "positions": [
                0.6199227391040969,
                -1.0518765157575682,
                0.6802357473914837,
                -1.7455011868495596,
                0.20216920855763262,
                2.401120165306905
            ]
        },
        {
            "positions": [
                0.5435596268795995,
                -1.0587422683963856,
                0.7846706614356737,
                -1.6266632558038543,
                0.17165681158284735,
                2.4353315534389495
            ]
        },
        {
            "positions": [
                0.46719651465510215,
                -1.065608021035203,
                0.8891055754798636,
                -1.5078253247581488,
                0.1411444146080621,
                2.469542941570994
            ]
        },
        {
            "positions": [
                0.3908334024306048,
                -1.0724737736740204,
                0.9935404895240536,
                -1.3889873937124435,
                0.11063201763327685,
                2.503754329703039
            ]
        },
        {
            "positions": [
                0.3144702902061075,
                -1.0793395263128378,
                1.0979754035682436,
                -1.2701494626667382,
                0.0801196206584916,
                2.537965717835083
            ]
        },
        {
            "positions": [
                0.23810717798161013,
                -1.0862052789516552,
                1.2024103176124334,
                -1.151311531621033,
                0.04960722368370635,
                2.572177105967128
            ]
        },
        {
            "positions": [
                0.16174406575711275,
                -1.0930710315904726,
                1.3068452316566235,
                -1.0324736005753277,
                0.019094826708921098,
                2.606388494099172
            ]
        },
        {
            "positions": [
                0.08538095353261543,
                -1.09993678422929,
                1.4112801457008135,
                -0.9136356695296223,
                -0.01141757026586418,
                2.640599882231217
            ]
        },
        {
            "positions": [
                0.009017841308118002,
                -1.1068025368681074,
                1.5157150597450035,
                -0.7947977384839169,
                -0.04192996724064943,
                2.6748112703632616
            ]
        },
        {
            "positions": [
                -0.06734527091637921,
                -1.1136682895069248,
                1.6201499737891933,
                -0.6759598074382116,
                -0.07244236421543468,
                2.709022658495306
            ]
        },
        {
            "positions": [
                -0.1437083831408767,
                -1.1205340421457421,
                1.7245848878333834,
                -0.5571218763925063,
                -0.10295476119021993,
                2.7432340466273506
            ]
        },
        {
            "positions": [
                -0.054979629289328924,
                -1.1246912329083718,
                1.80268874924627,
                -0.6080176265129754,
                -0.022630562727316866,
                2.8357862676675176
            ]
        },
        {
            "positions": [
                0.033749124562218846,
                -1.1288484236710012,
                1.8807926106591566,
                -0.6589133766334445,
                0.057693635735586196,
                2.928338488707685
            ]
        },
        {
            "positions": [
                0.12247787841376662,
                -1.133005614433631,
                1.9588964720720432,
                -0.7098091267539136,
                0.1380178341984893,
                3.020890709747852
            ]
        }
    ]
}