{
    "goal": {
        "global_pose": {
            "orientation": {
                "w": -0.4816463035849501,
                "x": 0.5182115481033762,
                "y": 0.4908360881923453,
                "z": -0.5084816262002911
            },
            "position": {
                "x": -0.8240239810943604,
                "y": 0.19912469901144506,
                "z": 0.16403168439865112
            }
        },
        "name": "move_to_storage_D"
    },
    "id": "FMT_move_to_storage_D_64",
    "joint_names": [
        "shoulder_pan_joint",
        "shoulder_lift_joint",
        "elbow_joint",
        "wrist_1_joint",
        "wrist_2_joint",
        "wrist_3_joint"
    ],
    "metrics": {
        "cart_traj_len": 3.7328194940331185,
        "distance_elbow_joint": 4.21183236807701,
        "distance_shoulder_lift_joint": 1.264874929419682,
        "distance_shoulder_pan_joint": 2.811518094356057,
        "distance_wrist_1_joint": 2.2800157424967233,
        "distance_wrist_2_joint": 0.8672569280569024,
        "distance_wrist_3_joint": 3.132424914226962,
        "smoothness": 4.0992850392467733e-16,
        "time": 1.403394107,
        "traj_len": 3.8167948565037313,
        "weighted_distance": 4.896942461949179
    },
    "planner": "FMT",
    "start": {
        "state": {
            "elbow_joint": -2.384821988534728,
            "shoulder_lift_joint": -2.2788054721415256,
            "shoulder_pan_joint": -0.1854694642142757,
            "wrist_1_joint": 1.4845938289331202,
            "wrist_2_joint": 0.17898776772866878,
            "wrist_3_joint": 0.037105688729662994
        }
    },
    "waypoints": [
        {
            "positions": [
                -0.1854694642142757,
                -2.2788054721415256,
                -2.384821988534728,
                1.4845938289331202,
                0.17898776772866878,
                0.037105688729662994
            ]
        },
        {
            "positions": [
                -0.09401895765870275,
                -2.2579314131283343,
                -2.2512724972719718,
                1.4548564837627593,
                0.17904297014323733,
                -0.06479651080153094
            ]
        },
        {
            "positions": [
                -0.002568451103129782,
                -2.237057354115143,
                -2.1177230060092156,
                1.4251191385923985,
                0.1790981725578059,
                -0.16669871033272488
            ]
        },
        {
            "positions": [
                0.08888205545244324,
                -2.2161832951019518,
                -1.9841735147464592,
                1.3953817934220378,
                0.17915337497237446,
                -0.2686009098639188
            ]
        },
        {
            "positions": [
                0.18033256200801615,
                -2.1953092360887605,
                -1.850624023483703,
                1.365644448251677,
                0.179208577386943,
                -0.3705031093951128
            ]
        },
        {
            "positions": [
                0.27178306856358914,
                -2.1744351770755688,
                -1.7170745322209466,
                1.335907103081316,
                0.1792637798015116,
                -0.4724053089263067
            ]
        },
        {
            "positions": [
                0.3632335751191622,
                -2.1535611180623775,
                -1.5835250409581905,
                1.3061697579109552,
                0.17931898221608014,
                -0.5743075084575007
            ]
        },
        {
            "positions": [
                0.45468408167473506,
                -2.132687059049186,
                -1.4499755496954343,
                1.2764324127405944,
                0.1793741846306487,
                -0.6762097079886945
            ]
        },
        {
            "positions": [
                0.546134588230308,
                -2.111813000035995,
                -1.3164260584326781,
                1.2466950675702335,
                0.17942938704521727,
                -0.7781119075198885
            ]
        },
        {
            "positions": [
                0.6375850947858811,
                -2.0909389410228036,
                -1.182876567169922,
                1.2169577223998727,
                0.17948458945978582,
                -0.8800141070510824
            ]
        },
        {
            "positions": [
                0.7290356013414541,
                -2.0700648820096124,
                -1.0493270759071656,
                1.187220377229512,
                0.1795397918743544,
                -0.9819163065822765
            ]
        },
        {
            "positions": [
                0.820486107897027,
                -2.049190822996421,
                -0.9157775846444094,
                1.1574830320591512,
                0.17959499428892295,
                -1.0838185061134704
            ]
        },
        {
            "positions": [
                0.9119366144526001,
                -2.02831676398323,
                -0.7822280933816532,
                1.1277456868887903,
                0.1796501967034915,
                -1.1857207056446644
            ]
        },
        {
            "positions": [
                1.0033871210081728,
                -2.007442704970038,
                -0.648678602118897,
                1.0980083417184296,
                0.17970539911806008,
                -1.287622905175858
            ]
        },
        {
            "positions": [
                1.0948376275637457,
                -1.986568645956847,
                -0.5151291108561409,
                1.0682709965480686,
                0.17976060153262863,
                -1.389525104707052
            ]
        },
        {
            "positions": [
                1.1862881341193188,
                -1.9656945869436555,
                -0.3815796195933845,
                1.038533651377708,
                0.17981580394719718,
                -1.491427304238246
            ]
        },
        {
            "positions": [
                1.2777386406748916,
                -1.9448205279304642,
                -0.24803012833062832,
                1.008796306207347,
                0.17987100636176576,
                -1.59332950376944
            ]
        },
        {
            "positions": [
                1.3691891472304647,
                -1.923946468917273,
                -0.11448063706787215,
                0.9790589610369862,
                0.1799262087763343,
                -1.6952317033006339
            ]
        },
        {
            "positions": [
                1.4290395987976703,
                -1.8806123771936811,
                -0.02202868389596009,
                0.8945598717702915,
                0.22117947006248845,
                -1.7619025376909512
            ]
        },
        {
            "positions": [
                1.4888900503648759,
                -1.8372782854700893,
                0.07042326927595197,
                0.8100607825035968,
                0.2624327313486426,
                -1.8285733720812687
            ]
        },
        {
            "positions": [
                1.5487405019320812,
                -1.7939441937464973,
                0.162875222447864,
                0.725561693236902,
                0.3036859926347967,
                -1.895244206471586
            ]
        },
        {
            "positions": [
                1.6085909534992868,
                -1.7506101020229055,
                0.2553271756197761,
                0.6410626039702073,
                0.3449392539209508,
                -1.9619150408619035
            ]
        },
        {
            "positions": [
                1.6684414050664924,
                -1.7072760102993136,
                0.34777912879168815,
                0.5565635147035126,
                0.38619251520710496,
                -2.0285858752522206
            ]
        },
        {
            "positions": [
                1.728291856633698,
                -1.6639419185757218,
                0.44023108196360017,
                0.4720644254368178,
                0.4274457764932591,
                -2.095256709642538
            ]
        },
        {
            "positions": [
                1.7881423082009036,
                -1.62060782685213,
                0.5326830351355123,
                0.3875653361701231,
                0.46869903777941324,
                -2.1619275440328556
            ]
        },
        {
            "positions": [
                1.8479927597681092,
                -1.577273735128538,
                0.6251349883074243,
                0.3030662469034284,
                0.5099522990655674,
                -2.228598378423173
            ]
        },
        {
            "positions": [
                1.9078432113353148,
                -1.5339396434049462,
                0.7175869414793363,
                0.21856715763673362,
                0.5512055603517215,
                -2.29526921281349
            ]
        },
        {
            "positions": [
                1.9676936629025201,
                -1.4906055516813543,
                0.8100388946512485,
                0.13406806837003893,
                0.5924588216378757,
                -2.3619400472038077
            ]
        },
        {
            "positions": [
                2.027544114469726,
                -1.4472714599577623,
                0.9024908478231606,
                0.049568979103344124,
                0.6337120829240298,
                -2.428610881594125
            ]
        },
        {
            "positions": [
                2.0873945660369313,
                -1.4039373682341707,
                0.9949428009950725,
                -0.03493011016335057,
                0.674965344210184,
                -2.4952817159844427
            ]
        },
        {
            "positions": [
                2.147245017604137,
                -1.3606032765105787,
                1.0873947541669846,
                -0.11942919943004537,
                0.7162186054963382,
                -2.5619525503747598
            ]
        },
        {
            "positions": [
                2.2070954691713425,
                -1.3172691847869868,
                1.1798467073388967,
                -0.20392828869673996,
                0.7574718667824922,
                -2.6286233847650773
            ]
        },
        {
            "positions": [
                2.2669459207385483,
                -1.273935093063395,
                1.2722986605108089,
                -0.28842737796343476,
                0.7987251280686463,
                -2.695294219155395
            ]
        },
        {
            "positions": [
                2.3267963723057536,
                -1.230601001339803,
                1.3647506136827208,
                -0.37292646723012934,
                0.8399783893548005,
                -2.761965053545712
            ]
        },
        {
            "positions": [
                2.386646823872959,
                -1.1872669096162112,
                1.457202566854633,
                -0.45742555649682415,
                0.8812316506409545,
                -2.8286358879360294
            ]
        },
        {
            "positions": [
                2.446497275440165,
                -1.1439328178926194,
                1.5496545200265448,
                -0.541924645763519,
                0.9224849119271088,
                -2.895306722326347
            ]
        },
        {
            "positions": [
                2.50634772700737,
                -1.1005987261690273,
                1.6421064731984572,
                -0.6264237350302138,
                0.9637381732132628,
                -2.961977556716664
            ]
        },
        {
            "positions": [
                2.5661981785745756,
                -1.0572646344454357,
                1.734558426370369,
                -0.7109228242969083,
                1.004991434499417,
                -3.0286483911069815
            ]
        },
        {
            "positions": [
                2.6260486301417814,
                -1.0139305427218437,
                1.8270103795422812,
                -0.7954219135636031,
                1.046244695785571,
                -3.095319225497299
            ]
        }
    ]
}