{
    "goal": {
        "global_pose": {
            "orientation": {
                "w": 0.005598929693374612,
                "x": 0.007748599140229565,
                "y": 0.7110244013736278,
                "z": -0.7031023480610252
            },
            "position": {
                "x": 0.1141497679147869,
                "y": -0.7141253447532654,
                "z": 0.3711530566215515
            }
        },
        "name": "move_to_auspresseinheit_B"
    },
    "id": "FMT_move_to_auspresseinheit_B_51",
    "joint_names": [
        "shoulder_pan_joint",
        "shoulder_lift_joint",
        "elbow_joint",
        "wrist_1_joint",
        "wrist_2_joint",
        "wrist_3_joint"
    ],
    "metrics": {
        "cart_traj_len": 0.5643353150770227,
        "distance_elbow_joint": 0.060127264941702396,
        "distance_shoulder_lift_joint": 0.29514581352338753,
        "distance_shoulder_pan_joint": 0.5778720551907202,
        "distance_wrist_1_joint": 0.32022272710814936,
        "distance_wrist_2_joint": 0.9892445351144319,
        "distance_wrist_3_joint": 0.007543968810801438,
        "smoothness": 7.612957903237841e-16,
        "time": 0.553261304,
        "traj_len": 1.5000521206575432,
        "weighted_distance": 1.8906907638567911
    },
    "planner": "FMT",
    "start": {
        "state": {
            "elbow_joint": 2.0193083361928714,
            "shoulder_lift_joint": -1.1220246554650708,
            "shoulder_pan_joint": -1.0952077554168747,
            "wrist_1_joint": -0.8559753972642168,
            "wrist_2_joint": 0.4759566250798843,
            "wrist_3_joint": -3.1240929996934557
        }
    },
    "waypoints": [
        {
            "positions": [
                -1.0952077554168747,
                -1.1220246554650708,
                2.0193083361928714,
                -0.8559753972642168,
                0.4759566250798843,
                -3.1240929996934557
            ]
        },
        {
            "positions": [
                -1.191519764615328,
                -1.1712156243856353,
                2.009287125369254,
                -0.8026049427461919,
                0.6408307142656229,
                -3.1253503278285892
            ]
        },
        {
            "positions": [
                -1.2878317738137814,
                -1.2204065933062,
                1.9992659145456373,
                -0.749234488228167,
                0.8057048034513616,
                -3.126607655963723
            ]
        },
        {
            "positions": [
                -1.3841437830122347,
                -1.2695975622267646,
                1.9892447037220202,
                -0.695864033710142,
                0.9705788926371002,
                -3.1278649840988564
            ]
        },
        {
            "positions": [
                -1.480455792210688,
                -1.318788531147329,
                1.9792234928984032,
                -0.6424935791921172,
                1.135452981822839,
                -3.12912231223399
            ]
        },
        {
            "positions": [
                -1.5767678014091415,
                -1.3679795000678938,
                1.969202282074786,
                -0.5891231246740922,
                1.3003270710085775,
                -3.1303796403691235
            ]
        },
        {
            "positions": [
                -1.6730798106075948,
                -1.4171704689884583,
                1.959181071251169,
                -0.5357526701560674,
                1.4652011601943162,
                -3.131636968504257
            ]
        }
    ]
}