{
    "goal": {
        "global_pose": {
            "orientation": {
                "w": 0.5084816217422485,
                "x": -0.49083608388900757,
                "y": 0.5182115435600281,
                "z": -0.4816462993621826
            },
            "position": {
                "x": 0.5540239810943604,
                "y": 0.030875300988554955,
                "z": 0.16403168439865112
            }
        },
        "name": "move_to_storage_A"
    },
    "id": "FMT_move_to_storage_A_43",
    "joint_names": [
        "shoulder_pan_joint",
        "shoulder_lift_joint",
        "elbow_joint",
        "wrist_1_joint",
        "wrist_2_joint",
        "wrist_3_joint"
    ],
    "metrics": {
        "cart_traj_len": 0.35255834525036894,
        "distance_elbow_joint": 0.4489726448127167,
        "distance_shoulder_lift_joint": 0.23488139263310925,
        "distance_shoulder_pan_joint": 0.4573770879727169,
        "distance_wrist_1_joint": 0.23840295503694275,
        "distance_wrist_2_joint": 1.113651977022535,
        "distance_wrist_3_joint": 0.09652750399536769,
        "smoothness": 1.1102230263833737e-15,
        "time": 0.379052251,
        "traj_len": 1.60928976926885,
        "weighted_distance": 2.033451130842244
    },
    "planner": "FMT",
    "start": {
        "state": {
            "elbow_joint": 1.971548259319323,
            "shoulder_lift_joint": -1.1394851275133948,
            "shoulder_pan_joint": 0.1228115487234821,
            "wrist_1_joint": -0.7804723859257726,
            "wrist_2_joint": 0.12958671773740124,
            "wrist_3_joint": -3.192489227718131
        }
    },
    "waypoints": [
        {
            "positions": [
                0.1228115487234821,
                -1.1394851275133948,
                1.971548259319323,
                -0.7804723859257726,
                0.12958671773740124,
                -3.192489227718131
            ]
        },
        {
            "positions": [
                0.057471964727379685,
                -1.1730396121752675,
                2.0356872085782824,
                -0.8145299509310502,
                0.2886798573120491,
                -3.1786995842902215
            ]
        },
        {
            "positions": [
                -0.007867619268722731,
                -1.2065940968371403,
                2.099826157837242,
                -0.8485875159363276,
                0.4477729968866969,
                -3.164909940862312
            ]
        },
        {
            "positions": [
                -0.07320720326482513,
                -1.240148581499013,
                2.1639651070962014,
                -0.8826450809416052,
                0.6068661364613448,
                -3.151120297434402
            ]
        },
        {
            "positions": [
                -0.13854678726092756,
                -1.273703066160886,
                2.228104056355161,
                -0.9167026459468828,
                0.7659592760359927,
                -3.1373306540064925
            ]
        },
        {
            "positions": [
                -0.20388637125703002,
                -1.3072575508227586,
                2.2922430056141208,
                -0.9507602109521602,
                0.9250524156106406,
                -3.123541010578583
            ]
        },
        {
            "positions": [
                -0.26922595525313237,
                -1.3408120354846313,
                2.35638195487308,
                -0.9848177759574378,
                1.0841455551852883,
                -3.109751367150673
            ]
        },
        {
            "positions": [
                -0.3345655392492348,
                -1.374366520146504,
                2.4205209041320397,
                -1.0188753409627154,
                1.2432386947599363,
                -3.0959617237227635
            ]
        }
    ]
}{
    "goal": {
        "global_pose": {
            "orientation": {
                "w": 0.5084816217422485,
                "x": -0.49083608388900757,
                "y": 0.5182115435600281,
                "z": -0.4816462993621826
            },
            "position": {
                "x": 0.5540239810943604,
                "y": 0.030875300988554955,
                "z": 0.16403168439865112
            }
        },
        "name": "move_to_storage_A"
    },
    "id": "FMT_move_to_storage_A_43",
    "joint_names": [
        "shoulder_pan_joint",
        "shoulder_lift_joint",
        "elbow_joint",
        "wrist_1_joint",
        "wrist_2_joint",
        "wrist_3_joint"
    ],
    "metrics": {
        "cart_traj_len": 0.35353278000237404,
        "distance_elbow_joint": 0.44807322518949055,
        "distance_shoulder_lift_joint": 0.23304259100264235,
        "distance_shoulder_pan_joint": 0.4586421362841706,
        "distance_wrist_1_joint": 0.24178060310647953,
        "distance_wrist_2_joint": 1.1140833003609547,
        "distance_wrist_3_joint": 0.09035261797447669,
        "smoothness": 1.3322676330666221e-15,
        "time": 0.417459841,
        "traj_len": 1.6080965374996037,
        "weighted_distance": 2.030404790512129
    },
    "planner": "FMT",
    "start": {
        "state": {
            "elbow_joint": 1.97154746011099,
            "shoulder_lift_joint": -1.13948474672311,
            "shoulder_pan_joint": 0.12281154466712228,
            "wrist_1_joint": -0.7804688027058302,
            "wrist_2_joint": 0.12958655903071145,
            "wrist_3_joint": 3.0906928834467795
        }
    },
    "waypoints": [
        {
            "positions": [
                0.12281154466712228,
                -1.13948474672311,
                1.97154746011099,
                -0.7804688027058302,
                0.12958655903071145,
                3.0906928834467795
            ]
        },
        {
            "positions": [
                0.05729123948366935,
                -1.1727765454377732,
                2.0355579208523458,
                -0.8150088888638987,
                0.28874131622513355,
                3.103600400300276
            ]
        },
        {
            "positions": [
                -0.008229065699783586,
                -1.2060683441524362,
                2.0995683815937016,
                -0.8495489750219671,
                0.4478960734195556,
                3.116507917153773
            ]
        },
        {
            "positions": [
                -0.07374937088323653,
                -1.2393601428670995,
                2.1635788423350575,
                -0.8840890611800357,
                0.6070508306139777,
                3.1294154340072695
            ]
        },
        {
            "positions": [
                -0.13926967606668944,
                -1.2726519415817628,
                2.227589303076413,
                -0.9186291473381042,
                0.7662055878083999,
                3.142322950860766
            ]
        },
        {
            "positions": [
                -0.20478998125014242,
                -1.305943740296426,
                2.2915997638177688,
                -0.9531692334961728,
                0.925360345002822,
                3.155230467714263
            ]
        },
        {
            "positions": [
                -0.27031028643359534,
                -1.339235539011089,
                2.3556102245591246,
                -0.9877093196542412,
                1.084515102197244,
                3.1681379845677595
            ]
        },
        {
            "positions": [
                -0.3358305916170483,
                -1.3725273377257523,
                2.4196206853004805,
                -1.0222494058123097,
                1.2436698593916662,
                3.181045501421256
            ]
        }
    ]
}{
    "goal": {
        "global_pose": {
            "orientation": {
                "w": 0.5084816217422485,
                "x": -0.49083608388900757,
                "y": 0.5182115435600281,
                "z": -0.4816462993621826
            },
            "position": {
                "x": 0.5540239810943604,
                "y": 0.030875300988554955,
                "z": 0.16403168439865112
            }
        },
        "name": "move_to_storage_A"
    },
    "id": "FMT_move_to_storage_A_43",
    "joint_names": [
        "shoulder_pan_joint",
        "shoulder_lift_joint",
        "elbow_joint",
        "wrist_1_joint",
        "wrist_2_joint",
        "wrist_3_joint"
    ],
    "metrics": {
        "cart_traj_len": 0.35261552779734134,
        "distance_elbow_joint": 0.4473371958338248,
        "distance_shoulder_lift_joint": 0.23386375200824383,
        "distance_shoulder_pan_joint": 0.45860807868280973,
        "distance_wrist_1_joint": 0.23829844007136858,
        "distance_wrist_2_joint": 1.1075960098180817,
        "distance_wrist_3_joint": 0.09520809912079953,
        "smoothness": 4.440892098500626e-16,
        "time": 0.531035712,
        "traj_len": 1.6065215764299987,
        "weighted_distance": 2.0290939415577034
    },
    "planner": "FMT",
    "start": {
        "state": {
            "elbow_joint": 1.9715472970024885,
            "shoulder_lift_joint": -1.1394870060712896,
            "shoulder_pan_joint": 0.12281152778156021,
            "wrist_1_joint": -0.780463741449964,
            "wrist_2_joint": 0.12958659822042276,
            "wrist_3_joint": 3.090690232415272
        }
    },
    "waypoints": [
        {
            "positions": [
                0.12281152778156021,
                -1.1394870060712896,
                1.9715472970024885,
                -0.780463741449964,
                0.12958659822042276,
                3.090690232415272
            ]
        },
        {
            "positions": [
                0.05729608796973025,
                -1.1728961135010387,
                2.035452610693035,
                -0.8145063757458738,
                0.2878145996230058,
                3.104291389432529
            ]
        },
        {
            "positions": [
                -0.00821935184209971,
                -1.2063052209307878,
                2.099357924383581,
                -0.8485490100417836,
                0.4460426010255889,
                3.117892546449786
            ]
        },
        {
            "positions": [
                -0.07373479165392965,
                -1.239714328360537,
                2.1632632380741277,
                -0.8825916443376933,
                0.604270602428172,
                3.131493703467043
            ]
        },
        {
            "positions": [
                -0.13925023146575963,
                -1.273123435790286,
                2.227168551764674,
                -0.9166342786336031,
                0.7624986038307551,
                3.1450948604843
            ]
        },
        {
            "positions": [
                -0.20476567127758963,
                -1.3065325432200352,
                2.2910738654552207,
                -0.950676912929513,
                0.9207266052333383,
                3.158696017501557
            ]
        },
        {
            "positions": [
                -0.27028111108941955,
                -1.3399416506497843,
                2.354979179145767,
                -0.9847195472254228,
                1.0789546066359212,
                3.1722971745188144
            ]
        },
        {
            "positions": [
                -0.3357965509012495,
                -1.3733507580795334,
                2.4188844928363133,
                -1.0187621815213326,
                1.2371826080385044,
                3.1858983315360714
            ]
        }
    ]
}