{
    "goal": {
        "global_pose": {
            "orientation": {
                "w": 0.005598929693374612,
                "x": 0.007748599140229565,
                "y": 0.7110244013736278,
                "z": -0.7031023480610252
            },
            "position": {
                "x": 0.1141497679147869,
                "y": -0.7141253447532654,
                "z": 0.3711530566215515
            }
        },
        "name": "move_to_auspresseinheit_B"
    },
    "id": "FMT_move_to_auspresseinheit_B_13",
    "joint_names": [
        "shoulder_pan_joint",
        "shoulder_lift_joint",
        "elbow_joint",
        "wrist_1_joint",
        "wrist_2_joint",
        "wrist_3_joint"
    ],
    "metrics": {
        "cart_traj_len": 0.5654146320196067,
        "distance_elbow_joint": 0.05999881632029891,
        "distance_shoulder_lift_joint": 0.29565708784515277,
        "distance_shoulder_pan_joint": 0.5789903833945962,
        "distance_wrist_1_joint": 0.31745638625956274,
        "distance_wrist_2_joint": 0.9890976525687418,
        "distance_wrist_3_joint": 0.0033987529094061664,
        "smoothness": 2.5376526478085547e-16,
        "time": 0.480640324,
        "traj_len": 1.498198611432329,
        "weighted_distance": 1.8862530646614932
    },
    "planner": "FMT",
    "start": {
        "state": {
            "elbow_joint": 2.0193083361928714,
            "shoulder_lift_joint": -1.1220246554650708,
            "shoulder_pan_joint": -1.0952077554168747,
            "wrist_1_joint": -0.8559753972642168,
            "wrist_2_joint": 0.4759566250798843,
            "wrist_3_joint": -3.1240929996934557
        }
    },
    "waypoints": [
        {
            "positions": [
                -1.0952077554168747,
                -1.1220246554650708,
                2.0193083361928714,
                -0.8559753972642168,
                0.4759566250798843,
                -3.1240929996934557
            ]
        },
        {
            "positions": [
                -1.1917061526493073,
                -1.1713008367725963,
                2.009308533472822,
                -0.8030659995542897,
                0.6408062338413413,
                -3.1246594585116902
            ]
        },
        {
            "positions": [
                -1.28820454988174,
                -1.2205770180801216,
                1.9993087307527717,
                -0.7501566018443625,
                0.8056558426027982,
                -3.1252259173299244
            ]
        },
        {
            "positions": [
                -1.3847029471141727,
                -1.2698531993876472,
                1.989308928032722,
                -0.6972472041344354,
                0.9705054513642553,
                -3.1257923761481585
            ]
        },
        {
            "positions": [
                -1.4812013443466054,
                -1.3191293806951727,
                1.9793091253126722,
                -0.6443378064245083,
                1.135355060125712,
                -3.126358834966393
            ]
        },
        {
            "positions": [
                -1.5776997415790381,
                -1.368405562002698,
                1.9693093225926224,
                -0.5914284087145811,
                1.3002046688871691,
                -3.1269252937846277
            ]
        },
        {
            "positions": [
                -1.6741981388114708,
                -1.4176817433102236,
                1.9593095198725725,
                -0.538519011004654,
                1.4650542776486262,
                -3.127491752602862
            ]
        }
    ]
}