{
    "goal": {
        "global_pose": {
            "orientation": {
                "w": 0.5084816262002911,
                "x": -0.4908360881923452,
                "y": 0.5182115481033761,
                "z": -0.48164630358495003
            },
            "position": {
                "x": 0.5540239810943604,
                "y": -0.46912469901144505,
                "z": 0.16403168439865112
            }
        },
        "name": "move_to_storage_B"
    },
    "id": "FMT_move_to_storage_B_88",
    "joint_names": [
        "shoulder_pan_joint",
        "shoulder_lift_joint",
        "elbow_joint",
        "wrist_1_joint",
        "wrist_2_joint",
        "wrist_3_joint"
    ],
    "metrics": {
        "cart_traj_len": 0.7777733864203289,
        "distance_elbow_joint": 0.35238644167634803,
        "distance_shoulder_lift_joint": 0.4608149609202641,
        "distance_shoulder_pan_joint": 0.43845456660172266,
        "distance_wrist_1_joint": 3.0729367627863446,
        "distance_wrist_2_joint": 2.7048754362195573,
        "distance_wrist_3_joint": 3.145758747485345,
        "smoothness": 0.07363777289754378,
        "time": 1.432976593,
        "traj_len": 3.189863149993991,
        "weighted_distance": 4.716413532512409
    },
    "planner": "FMT",
    "start": {
        "state": {
            "elbow_joint": 1.664937868594044,
            "shoulder_lift_joint": -0.661644460510453,
            "shoulder_pan_joint": -0.9139846352900073,
            "wrist_1_joint": 2.146753192139373,
            "wrist_2_joint": -2.2341966793290973,
            "wrist_3_joint": 0.005466555786416001
        }
    },
    "waypoints": [
        {
            "positions": [
                -0.9139846352900073,
                -0.661644460510453,
                1.664937868594044,
                2.146753192139373,
                -2.2341966793290973,
                0.005466555786416001
            ]
        },
        {
            "positions": [
                -0.8939839866472583,
                -0.6907824494200061,
                1.6877360043293346,
                2.155251679308189,
                -2.173034508915996,
                0.04526712754826957
            ]
        },
        {
            "positions": [
                -0.857850392353931,
                -0.7448512944383419,
                1.7300244668452496,
                2.1648570863040653,
                -2.0561219365015293,
                0.1240731738259996
            ]
        },
        {
            "positions": [
                -0.8217167980606038,
                -0.7989201394566776,
                1.7723129293611646,
                2.174462493299941,
                -1.939209364087063,
                0.2028792201037296
            ]
        },
        {
            "positions": [
                -0.7855832037672765,
                -0.8529889844750134,
                1.8146013918770796,
                2.184067900295817,
                -1.8222967916725965,
                0.28168526638145963
            ]
        },
        {
            "positions": [
                -0.7990637748576674,
                -0.8647050904296092,
                1.8234154318072235,
                2.0520843327032128,
                -1.7226022026046375,
                0.406447876681038
            ]
        },
        {
            "positions": [
                -0.8125443459480585,
                -0.876421196384205,
                1.8322294717373677,
                1.9201007651106083,
                -1.6229076135366785,
                0.5312104869806162
            ]
        },
        {
            "positions": [
                -0.8260249170384494,
                -0.8881373023388008,
                1.8410435116675117,
                1.7881171975180041,
                -1.5232130244687196,
                0.6559730972801947
            ]
        },
        {
            "positions": [
                -0.8395054881288403,
                -0.8998534082933967,
                1.8498575515976556,
                1.6561336299253997,
                -1.4235184354007604,
                0.780735707579773
            ]
        },
        {
            "positions": [
                -0.8529860592192313,
                -0.9115695142479925,
                1.8586715915277996,
                1.5241500623327955,
                -1.3238238463328016,
                0.9054983178793513
            ]
        },
        {
            "positions": [
                -0.8664666303096222,
                -0.9232856202025883,
                1.8674856314579438,
                1.392166494740191,
                -1.2241292572648426,
                1.0302609281789297
            ]
        },
        {
            "positions": [
                -0.8799472014000131,
                -0.9350017261571841,
                1.8762996713880877,
                1.2601829271475866,
                -1.1244346681968835,
                1.155023538478508
            ]
        },
        {
            "positions": [
                -0.8934277724904042,
                -0.9467178321117798,
                1.8851137113182317,
                1.1281993595549822,
                -1.0247400791289245,
                1.2797861487780864
            ]
        },
        {
            "positions": [
                -0.9069083435807951,
                -0.9584339380663757,
                1.8939277512483756,
                0.9962157919623778,
                -0.9250454900609655,
                1.4045487590776649
            ]
        },
        {
            "positions": [
                -0.9203889146711861,
                -0.9701500440209715,
                1.9027417911785198,
                0.8642322243697735,
                -0.8253509009930066,
                1.5293113693772429
            ]
        },
        {
            "positions": [
                -0.933869485761577,
                -0.9818661499755673,
                1.9115558311086638,
                0.7322486567771691,
                -0.7256563119250474,
                1.6540739796768213
            ]
        },
        {
            "positions": [
                -0.9473500568519679,
                -0.9935822559301631,
                1.9203698710388077,
                0.6002650891845647,
                -0.6259617228570886,
                1.7788365899763998
            ]
        },
        {
            "positions": [
                -0.9608306279423589,
                -1.0052983618847589,
                1.9291839109689517,
                0.46828152159196046,
                -0.5262671337891296,
                1.9035992002759778
            ]
        },
        {
            "positions": [
                -0.9743111990327499,
                -1.017014467839355,
                1.9379979508990959,
                0.3362979539993558,
                -0.42657254472117034,
                2.0283618105755563
            ]
        },
        {
            "positions": [
                -0.9877917701231408,
                -1.0287305737939505,
                1.9468119908292398,
                0.2043143864067516,
                -0.32687795565321154,
                2.153124420875135
            ]
        },
        {
            "positions": [
                -1.0012723412135318,
                -1.0404466797485463,
                1.9556260307593838,
                0.07233081881414716,
                -0.2271833665852525,
                2.277887031174713
            ]
        },
        {
            "positions": [
                -1.0147529123039227,
                -1.0521627857031421,
                1.9644400706895278,
                -0.05965274877845683,
                -0.1274887775172937,
                2.4026496414742913
            ]
        },
        {
            "positions": [
                -1.0282334833943136,
                -1.063878891657738,
                1.973254110619672,
                -0.1916363163710617,
                -0.027794188449334456,
                2.5274122517738697
            ]
        },
        {
            "positions": [
                -1.0417140544847046,
                -1.0755949976123338,
                1.9820681505498159,
                -0.32361988396366614,
                0.07190040061862457,
                2.6521748620734478
            ]
        },
        {
            "positions": [
                -1.0551946255750955,
                -1.0873111035669296,
                1.9908821904799598,
                -0.45560345155627013,
                0.17159498968658338,
                2.7769374723730262
            ]
        },
        {
            "positions": [
                -1.0686751966654864,
                -1.0990272095215254,
                1.9996962304101038,
                -0.5875870191488746,
                0.2712895787545424,
                2.9017000826726043
            ]
        },
        {
            "positions": [
                -1.0821557677558775,
                -1.1107433154761213,
                2.0085102703402478,
                -0.719570586741479,
                0.37098416782250165,
                3.0264626929721827
            ]
        },
        {
            "positions": [
                -1.0956363388462684,
                -1.122459421430717,
                2.017324310270392,
                -0.8515541543340834,
                0.4706787568904606,
                3.151225303271761
            ]
        }
    ]
}