{
    "goal": {
        "global_pose": {
            "orientation": {
                "w": 0.7047431493862688,
                "x": -0.7094548369677653,
                "y": 0.0024358444001904,
                "z": -0.0022348060817251984
            },
            "position": {
                "x": -0.39052492380142206,
                "y": 0.3671506643295288,
                "z": 0.19426114857196808
            }
        },
        "name": "move_to_magneteinheit_D"
    },
    "id": "FMT_move_to_magneteinheit_D_50",
    "joint_names": [
        "shoulder_pan_joint",
        "shoulder_lift_joint",
        "elbow_joint",
        "wrist_1_joint",
        "wrist_2_joint",
        "wrist_3_joint"
    ],
    "metrics": {
        "cart_traj_len": 3.558352149581952,
        "distance_elbow_joint": 3.5106143786863773,
        "distance_shoulder_lift_joint": 2.0540366530747853,
        "distance_shoulder_pan_joint": 3.1982367000926275,
        "distance_wrist_1_joint": 1.9711782855732358,
        "distance_wrist_2_joint": 0.3380795249165356,
        "distance_wrist_3_joint": 3.779470693702372,
        "smoothness": 0.5118223465313992,
        "time": 1.52280086,
        "traj_len": 3.85377947423642,
        "weighted_distance": 4.9719025969884445
    },
    "planner": "FMT",
    "start": {
        "state": {
            "elbow_joint": 0.749534889911806,
            "shoulder_lift_joint": -0.6476975780787326,
            "shoulder_pan_joint": -2.711696901376241,
            "wrist_1_joint": -0.07506478083263063,
            "wrist_2_joint": 0.43296659715538205,
            "wrist_3_joint": -3.14703540197715
        }
    },
    "waypoints": [
        {
            "positions": [
                -2.711696901376241,
                -0.6476975780787326,
                0.749534889911806,
                -0.07506478083263063,
                0.43296659715538205,
                -3.14703540197715
            ]
        },
        {
            "positions": [
                -2.722618220967803,
                -0.611033327414298,
                0.6798639984497936,
                0.0021115444142863204,
                0.4445481532941238,
                -3.000195427551036
            ]
        },
        {
            "positions": [
                -2.7335395405593648,
                -0.5743690767498635,
                0.6101931069877813,
                0.07928786966120327,
                0.45612970943286546,
                -2.8533554531249226
            ]
        },
        {
            "positions": [
                -2.7444608601509266,
                -0.5377048260854289,
                0.5405222155257691,
                0.15646419490812022,
                0.4677112655716072,
                -2.706515478698809
            ]
        },
        {
            "positions": [
                -2.7553821797424884,
                -0.5010405754209943,
                0.47085132406375674,
                0.2336405201550372,
                0.4792928217103489,
                -2.559675504272695
            ]
        },
        {
            "positions": [
                -2.77394095642024,
                -0.4745050780698863,
                0.376865140596046,
                0.29369936226071724,
                0.4750335355674187,
                -2.4310157946903046
            ]
        },
        {
            "positions": [
                -2.7786847413498506,
                -0.46519261175192406,
                0.23703732785836076,
                0.3370687644864534,
                0.4488184062897626,
                -2.3269848116813057
            ]
        },
        {
            "positions": [
                -2.7834285262794616,
                -0.45588014543396177,
                0.09720951512067555,
                0.38043816671218955,
                0.42260327701210654,
                -2.2229538286723063
            ]
        },
        {
            "positions": [
                -2.788172311209072,
                -0.4465676791159995,
                -0.04261829761700969,
                0.42380756893792565,
                0.39638814773445047,
                -2.1189228456633074
            ]
        },
        {
            "positions": [
                -2.7929160961386827,
                -0.43725521279803725,
                -0.18244611035469485,
                0.4671769711636618,
                0.3701730184567944,
                -2.0148918626543084
            ]
        },
        {
            "positions": [
                -2.6691256621903743,
                -0.46324104969978885,
                -0.2881134550877097,
                0.5262292953892803,
                0.36636426393140414,
                -1.9476904004154483
            ]
        },
        {
            "positions": [
                -2.545335228242066,
                -0.4892268866015405,
                -0.39378079982072456,
                0.5852816196148988,
                0.36255550940601383,
                -1.8804889381765881
            ]
        },
        {
            "positions": [
                -2.4215447942937574,
                -0.5152127235032922,
                -0.4994481445537394,
                0.6443339438405172,
                0.3587467548806236,
                -1.813287475937728
            ]
        },
        {
            "positions": [
                -2.297754360345449,
                -0.5411985604050438,
                -0.6051154892867543,
                0.7033862680661357,
                0.35493800035523326,
                -1.7460860136988678
            ]
        },
        {
            "positions": [
                -2.1739639263971404,
                -0.5671843973067954,
                -0.7107828340197692,
                0.7624385922917543,
                0.351129245829843,
                -1.678884551460008
            ]
        },
        {
            "positions": [
                -2.050173492448832,
                -0.593170234208547,
                -0.8164501787527839,
                0.8214909165173727,
                0.3473204913044527,
                -1.6116830892211478
            ]
        },
        {
            "positions": [
                -1.9263830585005235,
                -0.6191560711102987,
                -0.9221175234857988,
                0.8805432407429912,
                0.34351173677906244,
                -1.5444816269822876
            ]
        },
        {
            "positions": [
                -1.8025926245522153,
                -0.6451419080120503,
                -1.0277848682188138,
                0.9395955649686096,
                0.3397029822536721,
                -1.4772801647434275
            ]
        },
        {
            "positions": [
                -1.6788021906039068,
                -0.671127744913802,
                -1.1334522129518285,
                0.9986478891942281,
                0.33589422772828187,
                -1.4100787025045673
            ]
        },
        {
            "positions": [
                -1.5550117566555983,
                -0.6971135818155536,
                -1.2391195576848435,
                1.0577002134198465,
                0.3320854732028916,
                -1.3428772402657072
            ]
        },
        {
            "positions": [
                -1.4312213227072899,
                -0.7230994187173052,
                -1.3447869024178583,
                1.1167525376454652,
                0.3282767186775013,
                -1.275675778026847
            ]
        },
        {
            "positions": [
                -1.3074308887589816,
                -0.7490852556190568,
                -1.450454247150873,
                1.1758048618710835,
                0.32446796415211104,
                -1.2084743157879871
            ]
        },
        {
            "positions": [
                -1.1836404548106731,
                -0.7750710925208084,
                -1.556121591883888,
                1.2348571860967021,
                0.32065920962672073,
                -1.1412728535491268
            ]
        },
        {
            "positions": [
                -1.0598500208623645,
                -0.8010569294225601,
                -1.6617889366169027,
                1.2939095103223206,
                0.3168504551013305,
                -1.0740713913102669
            ]
        },
        {
            "positions": [
                -0.936059586914056,
                -0.8270427663243118,
                -1.7674562813499177,
                1.352961834547939,
                0.31304170057594016,
                -1.0068699290714065
            ]
        },
        {
            "positions": [
                -0.8122691529657478,
                -0.8530286032260633,
                -1.8731236260829325,
                1.4120141587735575,
                0.3092329460505499,
                -0.9396684668325466
            ]
        },
        {
            "positions": [
                -0.6884787190174393,
                -0.879014440127815,
                -1.9787909708159472,
                1.471066482999176,
                0.30542419152515965,
                -0.8724670045936864
            ]
        },
        {
            "positions": [
                -0.5646882850691309,
                -0.9050002770295666,
                -2.084458315548962,
                1.5301188072247944,
                0.30161543699976934,
                -0.8052655423548263
            ]
        },
        {
            "positions": [
                -0.4943216785090816,
                -0.9908609525076396,
                -2.1382616751738923,
                1.509622072946866,
                0.2981483691438438,
                -0.6817440013441545
            ]
        },
        {
            "positions": [
                -0.4239550719490322,
                -1.0767216279857126,
                -2.1920650347988224,
                1.4891253386689374,
                0.29468130128791825,
                -0.5582224603334827
            ]
        },
        {
            "positions": [
                -0.3535884653889828,
                -1.1625823034637857,
                -2.245868394423752,
                1.4686286043910088,
                0.2912142334319927,
                -0.4347009193228108
            ]
        },
        {
            "positions": [
                -0.28322185882893347,
                -1.2484429789418585,
                -2.299671754048682,
                1.4481318701130803,
                0.28774716557606717,
                -0.311179378312139
            ]
        },
        {
            "positions": [
                -0.21285525226888402,
                -1.3343036544199316,
                -2.3534751136736123,
                1.4276351358351516,
                0.2842800977201416,
                -0.18765783730146712
            ]
        },
        {
            "positions": [
                -0.14248864570883468,
                -1.4201643298980045,
                -2.4072784732985424,
                1.407138401557223,
                0.2808130298642161,
                -0.06413629629079531
            ]
        },
        {
            "positions": [
                -0.07212203914878529,
                -1.5060250053760775,
                -2.4610818329234725,
                1.3866416672792945,
                0.27734596200829054,
                0.059385244719876606
            ]
        },
        {
            "positions": [
                -0.0017554325887360056,
                -1.5918856808541504,
                -2.514885192548402,
                1.366144933001366,
                0.273878894152365,
                0.1829067857305483
            ]
        },
        {
            "positions": [
                0.06861117397131344,
                -1.6777463563322235,
                -2.5686885521733323,
                1.3456481987234374,
                0.27041182629643945,
                0.30642832674122034
            ]
        },
        {
            "positions": [
                0.017513126927275358,
                -1.7983669851842041,
                -2.5302103648530845,
                1.3819530165263283,
                0.2538373653069076,
                0.24122693374442017
            ]
        },
        {
            "positions": [
                -0.03358492011676273,
                -1.918987614036185,
                -2.4917321775328367,
                1.418257834329219,
                0.2372629043173758,
                0.17602554074762
            ]
        },
        {
            "positions": [
                -0.08468296716080081,
                -2.039608242888166,
                -2.4532539902125894,
                1.4545626521321098,
                0.22068844332784396,
                0.11082414775081983
            ]
        },
        {
            "positions": [
                -0.1357810142048389,
                -2.1602288717401463,
                -2.4147758028923416,
                1.4908674699350004,
                0.20411398233831213,
                0.04562275475401967
            ]
        },
        {
            "positions": [
                -0.18687906124887702,
                -2.280849500592127,
                -2.376297615572094,
                1.5271722877378913,
                0.1875395213487803,
                -0.019578638242780496
            ]
        }
    ]
}