{
    "goal": {
        "global_pose": {
            "orientation": {
                "w": -0.4816463035849501,
                "x": 0.5182115481033762,
                "y": 0.4908360881923453,
                "z": -0.5084816262002911
            },
            "position": {
                "x": -0.8240239810943604,
                "y": 0.19912469901144506,
                "z": 0.16403168439865112
            }
        },
        "name": "move_to_storage_D"
    },
    "id": "FMT_move_to_storage_D_44",
    "joint_names": [
        "shoulder_pan_joint",
        "shoulder_lift_joint",
        "elbow_joint",
        "wrist_1_joint",
        "wrist_2_joint",
        "wrist_3_joint"
    ],
    "metrics": {
        "cart_traj_len": 3.848994672758466,
        "distance_elbow_joint": 4.210063292474662,
        "distance_shoulder_lift_joint": 1.2643779513585596,
        "distance_shoulder_pan_joint": 2.8111483206024106,
        "distance_wrist_1_joint": 2.26727498130511,
        "distance_wrist_2_joint": 0.8665214253741244,
        "distance_wrist_3_joint": 3.1413095583120296,
        "smoothness": 3.8715469695436674e-16,
        "time": 1.4325457890000002,
        "traj_len": 3.8158479436983463,
        "weighted_distance": 4.896642834915591
    },
    "planner": "FMT",
    "start": {
        "state": {
            "elbow_joint": -2.384821988534728,
            "shoulder_lift_joint": -2.2788054721415256,
            "shoulder_pan_joint": -0.1854694642142757,
            "wrist_1_joint": 1.4845938289331202,
            "wrist_2_joint": 0.17898776772866878,
            "wrist_3_joint": 0.037105688729662994
        }
    },
    "waypoints": [
        {
            "positions": [
                -0.1854694642142757,
                -2.2788054721415256,
                -2.384821988534728,
                1.4845938289331202,
                0.17898776772866878,
                0.037105688729662994
            ]
        },
        {
            "positions": [
                -0.06311453858620639,
                -2.2190495659804146,
                -2.358870063794001,
                1.4252673082457203,
                0.17969543295719811,
                0.15199022733583573
            ]
        },
        {
            "positions": [
                0.059240387041862935,
                -2.159293659819303,
                -2.332918139053275,
                1.3659407875583207,
                0.18040309818572742,
                0.2668747659420085
            ]
        },
        {
            "positions": [
                0.1815953126699322,
                -2.0995377536581916,
                -2.3069662143125482,
                1.306614266870921,
                0.18111076341425675,
                0.3817593045481812
            ]
        },
        {
            "positions": [
                0.3039502382980016,
                -2.0397818474970806,
                -2.2810142895718215,
                1.2472877461835212,
                0.18181842864278608,
                0.49664384315435395
            ]
        },
        {
            "positions": [
                0.4263051639260709,
                -1.9800259413359693,
                -2.255062364831095,
                1.1879612254961214,
                0.1825260938713154,
                0.6115283817605267
            ]
        },
        {
            "positions": [
                0.5486600895541401,
                -1.920270035174858,
                -2.2291104400903685,
                1.1286347048087217,
                0.1832337590998447,
                0.7264129203666995
            ]
        },
        {
            "positions": [
                0.6710150151822094,
                -1.8605141290137468,
                -2.203158515349642,
                1.0693081841213221,
                0.18394142432837404,
                0.8412974589728721
            ]
        },
        {
            "positions": [
                0.7933699408102789,
                -1.8007582228526355,
                -2.177206590608915,
                1.0099816634339223,
                0.18464908955690337,
                0.956181997579045
            ]
        },
        {
            "positions": [
                0.915724866438348,
                -1.7410023166915243,
                -2.151254665868189,
                0.9506551427465225,
                0.18535675478543268,
                1.0710665361852176
            ]
        },
        {
            "positions": [
                1.0380797920664173,
                -1.681246410530413,
                -2.125302741127462,
                0.8913286220591228,
                0.186064420013962,
                1.1859510747913904
            ]
        },
        {
            "positions": [
                1.0947797586493357,
                -1.65743145018229,
                -1.9842118823750552,
                0.831542558686583,
                0.21675887619570597,
                1.2571105095146156
            ]
        },
        {
            "positions": [
                1.1514797252322544,
                -1.6336164898341667,
                -1.843121023622648,
                0.7717564953140432,
                0.24745333237744993,
                1.3282699442378405
            ]
        },
        {
            "positions": [
                1.2081796918151728,
                -1.6098015294860437,
                -1.7020301648702412,
                0.7119704319415034,
                0.27814778855919386,
                1.3994293789610657
            ]
        },
        {
            "positions": [
                1.2648796583980912,
                -1.5859865691379207,
                -1.560939306117834,
                0.6521843685689638,
                0.30884224474093785,
                1.4705888136842906
            ]
        },
        {
            "positions": [
                1.3215796249810097,
                -1.5621716087897974,
                -1.4198484473654271,
                0.5923983051964239,
                0.33953670092268184,
                1.5417482484075158
            ]
        },
        {
            "positions": [
                1.378279591563928,
                -1.5383566484416744,
                -1.2787575886130202,
                0.5326122418238842,
                0.3702311571044258,
                1.6129076831307407
            ]
        },
        {
            "positions": [
                1.4349795581468467,
                -1.5145416880935514,
                -1.1376667298606131,
                0.47282617845134445,
                0.40092561328616977,
                1.684067117853966
            ]
        },
        {
            "positions": [
                1.4916795247297652,
                -1.4907267277454281,
                -0.9965758711082062,
                0.4130401150788047,
                0.43162006946791376,
                1.755226552577191
            ]
        },
        {
            "positions": [
                1.5483794913126836,
                -1.466911767397305,
                -0.8554850123557991,
                0.3532540517062649,
                0.46231452564965775,
                1.8263859873004162
            ]
        },
        {
            "positions": [
                1.6050794578956022,
                -1.4430968070491819,
                -0.7143941536033922,
                0.2934679883337251,
                0.4930089818314017,
                1.8975454220236412
            ]
        },
        {
            "positions": [
                1.6617794244785205,
                -1.4192818467010588,
                -0.5733032948509851,
                0.23368192496118545,
                0.5237034380131456,
                1.9687048567468661
            ]
        },
        {
            "positions": [
                1.718479391061439,
                -1.3954668863529358,
                -0.4322124360985782,
                0.17389586158864567,
                0.5543978941948895,
                2.0398642914700913
            ]
        },
        {
            "positions": [
                1.7751793576443577,
                -1.3716519260048126,
                -0.29112157734617106,
                0.1141097982161059,
                0.5850923503766337,
                2.1110237261933165
            ]
        },
        {
            "positions": [
                1.831879324227276,
                -1.3478369656566895,
                -0.15003071859376416,
                0.05432373484356612,
                0.6157868065583776,
                2.1821831609165416
            ]
        },
        {
            "positions": [
                1.8885792908101946,
                -1.3240220053085665,
                -0.008939859841357034,
                -0.005462328528973659,
                0.6464812627401215,
                2.253342595639767
            ]
        },
        {
            "positions": [
                1.945279257393113,
                -1.3002070449604433,
                0.13215099891104964,
                -0.06524839190151333,
                0.6771757189218655,
                2.3245020303629915
            ]
        },
        {
            "positions": [
                2.0019792239760315,
                -1.2763920846123202,
                0.27324185766345677,
                -0.125034455274053,
                0.7078701751036094,
                2.3956614650862167
            ]
        },
        {
            "positions": [
                2.05867919055895,
                -1.2525771242641972,
                0.4143327164158639,
                -0.184820518646593,
                0.7385646312853535,
                2.466820899809442
            ]
        },
        {
            "positions": [
                2.1153791571418683,
                -1.228762163916074,
                0.555423575168271,
                -0.24460658201913277,
                0.7692590874670975,
                2.537980334532667
            ]
        },
        {
            "positions": [
                2.172079123724787,
                -1.204947203567951,
                0.6965144339206777,
                -0.30439264539167254,
                0.7999535436488414,
                2.6091397692558917
            ]
        },
        {
            "positions": [
                2.2287790903077056,
                -1.1811322432198277,
                0.8376052926730848,
                -0.3641787087642123,
                0.8306479998305853,
                2.680299203979117
            ]
        },
        {
            "positions": [
                2.285479056890624,
                -1.1573172828717047,
                0.9786961514254919,
                -0.4239647721367519,
                0.8613424560123293,
                2.751458638702342
            ]
        },
        {
            "positions": [
                2.3421790234735425,
                -1.1335023225235816,
                1.1197870101778986,
                -0.48375083550929165,
                0.8920369121940732,
                2.8226180734255673
            ]
        },
        {
            "positions": [
                2.3988789900564607,
                -1.1096873621754586,
                1.2608778689303057,
                -0.5435368988818314,
                0.9227313683758172,
                2.8937775081487924
            ]
        },
        {
            "positions": [
                2.4555789566393793,
                -1.0858724018273354,
                1.4019687276827129,
                -0.6033229622543714,
                0.9534258245575613,
                2.9649369428720176
            ]
        },
        {
            "positions": [
                2.512278923222298,
                -1.062057441479212,
                1.54305958643512,
                -0.663109025626911,
                0.9841202807393052,
                3.0360963775952428
            ]
        },
        {
            "positions": [
                2.5689788898052166,
                -1.038242481131089,
                1.6841504451875267,
                -0.7228950889994508,
                1.0148147369210492,
                3.107255812318468
            ]
        },
        {
            "positions": [
                2.625678856388135,
                -1.014427520782966,
                1.825241303939934,
                -0.7826811523719904,
                1.045509193102793,
                3.1784152470416926
            ]
        }
    ]
}