{
    "goal": {
        "global_pose": {
            "orientation": {
                "w": -0.00223480608172531,
                "x": 0.0024358444001904467,
                "y": 0.7094548369677653,
                "z": -0.704743149386269
            },
            "position": {
                "x": 0.6205249238014221,
                "y": -0.6371506643295288,
                "z": 0.19426114857196808
            }
        },
        "name": "move_to_magneteinheit_B"
    },
    "id": "FMT_move_to_magneteinheit_B_117",
    "joint_names": [
        "shoulder_pan_joint",
        "shoulder_lift_joint",
        "elbow_joint",
        "wrist_1_joint",
        "wrist_2_joint",
        "wrist_3_joint"
    ],
    "metrics": {
        "cart_traj_len": 1.6886274948573752,
        "distance_elbow_joint": 0.9563101892269619,
        "distance_shoulder_lift_joint": 1.374380535492671,
        "distance_shoulder_pan_joint": 1.6204370491105715,
        "distance_wrist_1_joint": 0.9424992202070142,
        "distance_wrist_2_joint": 1.523486061472014,
        "distance_wrist_3_joint": 0.913950642131111,
        "smoothness": 0.5944152448114449,
        "time": 1.4505684209999998,
        "traj_len": 2.7075937098538887,
        "weighted_distance": 3.4095381305363923
    },
    "planner": "FMT",
    "start": {
        "state": {
            "elbow_joint": 2.6216224122426386,
            "shoulder_lift_joint": -1.4174107377796124,
            "shoulder_pan_joint": 0.7066234856936794,
            "wrist_1_joint": 1.9546482284002225,
            "wrist_2_joint": -0.7096286983471962,
            "wrist_3_joint": 0.005740856962016249
        }
    },
    "waypoints": [
        {
            "positions": [
                0.7066234856936794,
                -1.4174107377796124,
                2.6216224122426386,
                1.9546482284002225,
                -0.7096286983471962,
                0.005740856962016249
            ]
        },
        {
            "positions": [
                0.6887456149743226,
                -1.4947599351949796,
                2.598783905016122,
                1.8613870745357217,
                -0.7262834058306291,
                0.12100872497953964
            ]
        },
        {
            "positions": [
                0.6708677442549658,
                -1.572109132610347,
                2.5759453977896056,
                1.7681259206712208,
                -0.742938113314062,
                0.23627659299706305
            ]
        },
        {
            "positions": [
                0.652989873535609,
                -1.6494583300257142,
                2.5531068905630896,
                1.6748647668067198,
                -0.7595928207974948,
                0.3515444610145864
            ]
        },
        {
            "positions": [
                0.6351120028162522,
                -1.7268075274410815,
                2.530268383336573,
                1.581603612942219,
                -0.7762475282809277,
                0.46681232903210984
            ]
        },
        {
            "positions": [
                0.5383041549266807,
                -1.6602460433266313,
                2.4762086233165173,
                1.6171945257390323,
                -0.8673017302520704,
                0.4385073809032962
            ]
        },
        {
            "positions": [
                0.4414963070371092,
                -1.5936845592121813,
                2.422148863296461,
                1.6527854385358454,
                -0.958355932223213,
                0.4102024327744826
            ]
        },
        {
            "positions": [
                0.3446884591475377,
                -1.5271230750977312,
                2.368089103276405,
                1.6883763513326586,
                -1.0494101341943556,
                0.38189748464566897
            ]
        },
        {
            "positions": [
                0.24788061125796618,
                -1.460561590983281,
                2.3140293432563492,
                1.7239672641294717,
                -1.1404643361654982,
                0.3535925365168554
            ]
        },
        {
            "positions": [
                0.15107276336839465,
                -1.3940001068688308,
                2.259969583236293,
                1.759558176926285,
                -1.231518538136641,
                0.3252875883880417
            ]
        },
        {
            "positions": [
                0.05426491547882317,
                -1.3274386227543808,
                2.205909823216237,
                1.7951490897230982,
                -1.3225727401077836,
                0.29698264025922816
            ]
        },
        {
            "positions": [
                -0.04254293241074836,
                -1.2608771386399307,
                2.1518500631961808,
                1.8307400025199112,
                -1.4136269420789263,
                0.26867769213041454
            ]
        },
        {
            "positions": [
                -0.1393507803003199,
                -1.1943156545254805,
                2.097790303176125,
                1.8663309153167245,
                -1.504681144050069,
                0.2403727440016009
            ]
        },
        {
            "positions": [
                -0.23615862818989142,
                -1.1277541704110305,
                2.043730543156069,
                1.9019218281135375,
                -1.5957353460212116,
                0.2120677958727873
            ]
        },
        {
            "positions": [
                -0.33296647607946295,
                -1.0611926862965804,
                1.9896707831360128,
                1.9375127409103508,
                -1.6867895479923543,
                0.18376284774397367
            ]
        },
        {
            "positions": [
                -0.42977432396903437,
                -0.9946312021821303,
                1.935611023115957,
                1.973103653707164,
                -1.777843749963497,
                0.15545789961516004
            ]
        },
        {
            "positions": [
                -0.5265821718586059,
                -0.9280697180676802,
                1.8815512630959008,
                2.0086945665039773,
                -1.8688979519346396,
                0.12715295148634648
            ]
        },
        {
            "positions": [
                -0.6233900197481774,
                -0.8615082339532301,
                1.8274915030758447,
                2.0442854793007905,
                -1.9599521539057823,
                0.09884800335753285
            ]
        },
        {
            "positions": [
                -0.720197867637749,
                -0.79494674983878,
                1.7734317430557889,
                2.0798763920976033,
                -2.051006355876925,
                0.07054305522871923
            ]
        },
        {
            "positions": [
                -0.8170057155273205,
                -0.7283852657243298,
                1.7193719830357328,
                2.1154673048944166,
                -2.1420605578480676,
                0.04223810709990561
            ]
        },
        {
            "positions": [
                -0.913813563416892,
                -0.6618237816098798,
                1.6653122230156767,
                2.15105821769123,
                -2.2331147598192103,
                0.013933158971092
            ]
        }
    ]
}