{
    "goal": {
        "global_pose": {
            "orientation": {
                "w": 0.7031023480610252,
                "x": -0.7110244013736278,
                "y": 0.0077485991402295624,
                "z": 0.005598929693374583
            },
            "position": {
                "x": -0.8841497679147869,
                "y": 0.44412534475326537,
                "z": 0.3711530566215515
            }
        },
        "name": "move_to_auspresseinheit_D"
    },
    "id": "FMT_move_to_auspresseinheit_D_73",
    "joint_names": [
        "shoulder_pan_joint",
        "shoulder_lift_joint",
        "elbow_joint",
        "wrist_1_joint",
        "wrist_2_joint",
        "wrist_3_joint"
    ],
    "metrics": {
        "cart_traj_len": 0.34262735501109753,
        "distance_elbow_joint": 0.6363069329668622,
        "distance_shoulder_lift_joint": 0.12033538174639169,
        "distance_shoulder_pan_joint": 0.13305000514738718,
        "distance_wrist_1_joint": 0.5189397090020593,
        "distance_wrist_2_joint": 1.4481732102141134,
        "distance_wrist_3_joint": 0.008160271019002963,
        "smoothness": 3.947459674368863e-16,
        "time": 0.418842929,
        "traj_len": 1.6926208996983987,
        "weighted_distance": 2.2019080297210407
    },
    "planner": "FMT",
    "start": {
        "state": {
            "elbow_joint": -1.8275523626775212,
            "shoulder_lift_joint": -2.126789852344167,
            "shoulder_pan_joint": -0.03513704404078235,
            "wrist_1_joint": -2.347782403156801,
            "wrist_2_joint": -1.6058999987535132,
            "wrist_3_joint": -3.0880379163319196
        }
    },
    "waypoints": [
        {
            "positions": [
                -0.03513704404078235,
                -2.126789852344167,
                -1.8275523626775212,
                -2.347782403156801,
                -1.6058999987535132,
                -3.0880379163319196
            ]
        },
        {
            "positions": [
                -0.05176829468420575,
                -2.1418317750624656,
                -1.7480139960566634,
                -2.412649866782058,
                -1.424878347476749,
                -3.0890579502092947
            ]
        },
        {
            "positions": [
                -0.06839954532762915,
                -2.1568736977807648,
                -1.6684756294358056,
                -2.4775173304073155,
                -1.2438566961999848,
                -3.0900779840866703
            ]
        },
        {
            "positions": [
                -0.08503079597105254,
                -2.171915620499064,
                -1.5889372628149478,
                -2.5423847940325732,
                -1.0628350449232207,
                -3.091098017964046
            ]
        },
        {
            "positions": [
                -0.10166204661447595,
                -2.1869575432173627,
                -1.50939889619409,
                -2.6072522576578305,
                -0.8818133936464565,
                -3.092118051841421
            ]
        },
        {
            "positions": [
                -0.11829329725789933,
                -2.2019994659356614,
                -1.4298605295732323,
                -2.672119721283088,
                -0.7007917423696923,
                -3.0931380857187962
            ]
        },
        {
            "positions": [
                -0.13492454790132274,
                -2.2170413886539606,
                -1.3503221629523745,
                -2.7369871849083456,
                -0.5197700910929282,
                -3.094158119596172
            ]
        },
        {
            "positions": [
                -0.15155579854474613,
                -2.23208331137226,
                -1.2707837963315167,
                -2.801854648533603,
                -0.338748439816164,
                -3.0951781534735474
            ]
        },
        {
            "positions": [
                -0.16818704918816954,
                -2.2471252340905585,
                -1.191245429710659,
                -2.86672211215886,
                -0.15772678853939992,
                -3.0961981873509226
            ]
        }
    ]
}