{
    "goal": {
        "global_pose": {
            "orientation": {
                "w": -0.00223480608172531,
                "x": 0.0024358444001904467,
                "y": 0.7094548369677653,
                "z": -0.704743149386269
            },
            "position": {
                "x": -0.37947507619857795,
                "y": -0.6371506643295288,
                "z": 0.19426114857196808
            }
        },
        "name": "move_to_magneteinheit_C"
    },
    "id": "FMT_move_to_magneteinheit_C_95",
    "joint_names": [
        "shoulder_pan_joint",
        "shoulder_lift_joint",
        "elbow_joint",
        "wrist_1_joint",
        "wrist_2_joint",
        "wrist_3_joint"
    ],
    "metrics": {
        "cart_traj_len": 0.9021994617947728,
        "distance_elbow_joint": 1.1437589543480313,
        "distance_shoulder_lift_joint": 1.5265334065442535,
        "distance_shoulder_pan_joint": 0.8186194868549805,
        "distance_wrist_1_joint": 0.322595081219487,
        "distance_wrist_2_joint": 0.8850169197829314,
        "distance_wrist_3_joint": 0.35103719343657724,
        "smoothness": 1.3595778216973133,
        "time": 1.1820122389999999,
        "traj_len": 2.246677778896266,
        "weighted_distance": 2.6376594605941523
    },
    "planner": "FMT",
    "start": {
        "state": {
            "elbow_joint": 1.9565354010623817,
            "shoulder_lift_joint": -1.4165861575791021,
            "shoulder_pan_joint": -1.6717766225146293,
            "wrist_1_joint": -0.5286633292919765,
            "wrist_2_joint": 1.472756589071564,
            "wrist_3_joint": -3.1238370188695823
        }
    },
    "waypoints": [
        {
            "positions": [
                -1.6717766225146293,
                -1.4165861575791021,
                1.9565354010623817,
                -0.5286633292919765,
                1.472756589071564,
                -3.1238370188695823
            ]
        },
        {
            "positions": [
                -1.7257287638847594,
                -1.5075951816685669,
                2.042387504909689,
                -0.5505998393468063,
                1.3754206787705996,
                -3.099540849558739
            ]
        },
        {
            "positions": [
                -1.7796809052548896,
                -1.5986042057580316,
                2.128239608756996,
                -0.5725363494016361,
                1.2780847684696355,
                -3.0752446802478963
            ]
        },
        {
            "positions": [
                -1.8336330466250197,
                -1.6896132298474962,
                2.2140917126043034,
                -0.594472859456466,
                1.1807488581686711,
                -3.050948510937053
            ]
        },
        {
            "positions": [
                -1.88758518799515,
                -1.780622253936961,
                2.299943816451611,
                -0.6164093695112959,
                1.083412947867707,
                -3.02665234162621
            ]
        },
        {
            "positions": [
                -1.94153732936528,
                -1.8716312780264257,
                2.3857959202989183,
                -0.6383458795661258,
                0.9860770375667427,
                -3.0023561723153667
            ]
        },
        {
            "positions": [
                -1.9954894707354103,
                -1.9626403021158905,
                2.4716480241462255,
                -0.6602823896209555,
                0.8887411272657785,
                -2.978060003004524
            ]
        },
        {
            "positions": [
                -2.0494416121055403,
                -2.0536493262053552,
                2.5575001279935328,
                -0.6822188996757854,
                0.7914052169648143,
                -2.9537638336936807
            ]
        },
        {
            "positions": [
                -2.121659874893145,
                -1.9398475573299416,
                2.485730924100432,
                -0.7033450170717298,
                0.7640619666598184,
                -2.9790455268125675
            ]
        },
        {
            "positions": [
                -2.1938781376807492,
                -1.826045788454528,
                2.4139617202073316,
                -0.7244711344676743,
                0.7367187163548226,
                -3.0043272199314544
            ]
        },
        {
            "positions": [
                -2.2660964004683537,
                -1.7122440195791144,
                2.342192516314231,
                -0.7455972518636187,
                0.7093754660498266,
                -3.0296089130503416
            ]
        },
        {
            "positions": [
                -2.3383146632559586,
                -1.5984422507037008,
                2.2704233124211304,
                -0.7667233692595631,
                0.6820322157448307,
                -3.0548906061692285
            ]
        },
        {
            "positions": [
                -2.410532926043563,
                -1.4846404818282872,
                2.1986541085280296,
                -0.7878494866555076,
                0.6546889654398349,
                -3.0801722992881153
            ]
        },
        {
            "positions": [
                -2.4827511888311675,
                -1.3708387129528736,
                2.126884904634929,
                -0.808975604051452,
                0.627345715134839,
                -3.105453992407002
            ]
        },
        {
            "positions": [
                -2.4789287285619466,
                -1.2675089006201143,
                2.070795402605791,
                -0.8301170072814577,
                0.6471487380579424,
                -3.120090917180679
            ]
        },
        {
            "positions": [
                -2.475106268292725,
                -1.1641790882873548,
                2.0147059005766526,
                -0.8512584105114634,
                0.6669517609810456,
                -3.1347278419543563
            ]
        }
    ]
}