{
    "goal": {
        "global_pose": {
            "orientation": {
                "w": -0.00223480608172531,
                "x": 0.0024358444001904467,
                "y": 0.7094548369677653,
                "z": -0.704743149386269
            },
            "position": {
                "x": -0.37947507619857795,
                "y": -0.6371506643295288,
                "z": 0.19426114857196808
            }
        },
        "name": "move_to_magneteinheit_C"
    },
    "id": "FMT_move_to_magneteinheit_C_18",
    "joint_names": [
        "shoulder_pan_joint",
        "shoulder_lift_joint",
        "elbow_joint",
        "wrist_1_joint",
        "wrist_2_joint",
        "wrist_3_joint"
    ],
    "metrics": {
        "cart_traj_len": 2.9572736036216227,
        "distance_elbow_joint": 0.8521927393934354,
        "distance_shoulder_lift_joint": 1.6813767936958708,
        "distance_shoulder_pan_joint": 4.038769020719754,
        "distance_wrist_1_joint": 3.947727479898894,
        "distance_wrist_2_joint": 2.6269187402157996,
        "distance_wrist_3_joint": 0.1378352234557534,
        "smoothness": 0.8905001344093991,
        "time": 1.839639725,
        "traj_len": 3.6448347009678645,
        "weighted_distance": 4.487219257447279
    },
    "planner": "FMT",
    "start": {
        "state": {
            "elbow_joint": 1.9565354010623817,
            "shoulder_lift_joint": -1.4165861575791021,
            "shoulder_pan_joint": -1.6717766225146293,
            "wrist_1_joint": -0.5286633292919765,
            "wrist_2_joint": 1.472756589071564,
            "wrist_3_joint": -3.1238370188695823
        }
    },
    "waypoints": [
        {
            "positions": [
                -1.6717766225146293,
                -1.4165861575791021,
                1.9565354010623817,
                -0.5286633292919765,
                1.472756589071564,
                -3.1238370188695823
            ]
        },
        {
            "positions": [
                -1.5766048822755658,
                -1.4585950827994991,
                1.9830915936735718,
                -0.4211472629152484,
                1.3717894858757074,
                -3.120767343498621
            ]
        },
        {
            "positions": [
                -1.4814331420365021,
                -1.5006040080198961,
                2.009647786284762,
                -0.3136311965385203,
                1.2708223826798508,
                -3.11769766812766
            ]
        },
        {
            "positions": [
                -1.3862614017974386,
                -1.5426129332402931,
                2.0362039788959523,
                -0.20611513016179217,
                1.1698552794839943,
                -3.1146279927566987
            ]
        },
        {
            "positions": [
                -1.291089661558375,
                -1.5846218584606904,
                2.0627601715071426,
                -0.09859906378506411,
                1.0688881762881375,
                -3.1115583173857377
            ]
        },
        {
            "positions": [
                -1.1959179213193112,
                -1.6266307836810874,
                2.089316364118333,
                0.008917002591663947,
                0.9679210730922809,
                -3.1084886420147764
            ]
        },
        {
            "positions": [
                -1.1007461810802477,
                -1.6686397089014844,
                2.115872556729523,
                0.11643306896839212,
                0.8669539698964244,
                -3.105418966643815
            ]
        },
        {
            "positions": [
                -1.0055744408411842,
                -1.7106486341218814,
                2.1424287493407133,
                0.22394913534512007,
                0.7659868667005678,
                -3.102349291272854
            ]
        },
        {
            "positions": [
                -0.9104027006021206,
                -1.7526575593422784,
                2.1689849419519036,
                0.33146520172184823,
                0.6650197635047111,
                -3.0992796159018927
            ]
        },
        {
            "positions": [
                -0.8152309603630569,
                -1.7946664845626754,
                2.1955411345630935,
                0.4389812680985763,
                0.5640526603088546,
                -3.096209940530932
            ]
        },
        {
            "positions": [
                -0.7200592201239933,
                -1.8366754097830724,
                2.222097327174284,
                0.5464973344753044,
                0.4630855571129979,
                -3.0931402651599704
            ]
        },
        {
            "positions": [
                -0.6248874798849298,
                -1.8786843350034697,
                2.2486535197854742,
                0.6540134008520326,
                0.36211845391714137,
                -3.0900705897890095
            ]
        },
        {
            "positions": [
                -0.529715739645866,
                -1.9206932602238664,
                2.2752097123966646,
                0.7615294672287607,
                0.2611513507212848,
                -3.087000914418048
            ]
        },
        {
            "positions": [
                -0.43454399940680255,
                -1.9627021854442637,
                2.3017659050078545,
                0.8690455336054885,
                0.16018424752542826,
                -3.0839312390470868
            ]
        },
        {
            "positions": [
                -0.33937225916773905,
                -2.0047111106646605,
                2.328322097619045,
                0.9765615999822166,
                0.0592171443295717,
                -3.080861563676126
            ]
        },
        {
            "positions": [
                -0.24420051892867534,
                -2.0467200358850577,
                2.3548782902302348,
                1.0840776663589449,
                -0.04174995886628485,
                -3.0777918883051645
            ]
        },
        {
            "positions": [
                -0.14902877868961184,
                -2.0887289611054545,
                2.381434482841425,
                1.191593732735673,
                -0.14271706206214163,
                -3.0747222129342036
            ]
        },
        {
            "positions": [
                -0.05385703845054822,
                -2.1307378863258517,
                2.4079906754526155,
                1.299109799112401,
                -0.24368416525799813,
                -3.071652537563242
            ]
        },
        {
            "positions": [
                -0.18834867382030773,
                -2.077003160495345,
                2.3857274829524378,
                1.1813345573627057,
                -0.19310205493098487,
                -3.0764109121270984
            ]
        },
        {
            "positions": [
                -0.3228403091900673,
                -2.023268434664838,
                2.3634642904522596,
                1.06355931561301,
                -0.1425199446039716,
                -3.0811692866909546
            ]
        },
        {
            "positions": [
                -0.45733194455982684,
                -1.9695337088343314,
                2.341201097952082,
                0.9457840738633148,
                -0.09193783427695837,
                -3.085927661254811
            ]
        },
        {
            "positions": [
                -0.5918235799295863,
                -1.9157989830038247,
                2.318937905451904,
                0.8280088321136192,
                -0.041355723949945106,
                -3.0906860358186674
            ]
        },
        {
            "positions": [
                -0.726315215299346,
                -1.862064257173318,
                2.296674712951726,
                0.7102335903639238,
                0.009226386377068185,
                -3.0954444103825236
            ]
        },
        {
            "positions": [
                -0.8608068506691055,
                -1.8083295313428114,
                2.2744115204515483,
                0.5924583486142284,
                0.05980849670408139,
                -3.10020278494638
            ]
        },
        {
            "positions": [
                -0.995298486038865,
                -1.7545948055123046,
                2.2521483279513705,
                0.47468310686453297,
                0.11039060703109466,
                -3.1049611595102364
            ]
        },
        {
            "positions": [
                -1.1297901214086243,
                -1.7008600796817979,
                2.2298851354511924,
                0.3569078651148375,
                0.16097271735810792,
                -3.1097195340740926
            ]
        },
        {
            "positions": [
                -1.264281756778384,
                -1.647125353851291,
                2.2076219429510147,
                0.23913262336514207,
                0.21155482768512118,
                -3.114477908637949
            ]
        },
        {
            "positions": [
                -1.3987733921481436,
                -1.5933906280207843,
                2.185358750450837,
                0.12135738161544651,
                0.2621369380121345,
                -3.119236283201805
            ]
        },
        {
            "positions": [
                -1.5332650275179032,
                -1.5396559021902776,
                2.1630955579506588,
                0.003582139865751177,
                0.3127190483391477,
                -3.123994657765661
            ]
        },
        {
            "positions": [
                -1.6677566628876626,
                -1.485921176359771,
                2.140832365450481,
                -0.11419310188394416,
                0.3633011586661609,
                -3.128753032329518
            ]
        },
        {
            "positions": [
                -1.8022482982574222,
                -1.4321864505292643,
                2.1185691729503033,
                -0.23196834363363972,
                0.41388326899317424,
                -3.133511406893374
            ]
        },
        {
            "positions": [
                -1.9367399336271816,
                -1.3784517246987575,
                2.096305980450125,
                -0.34974358538333505,
                0.46446537932018744,
                -3.1382697814572302
            ]
        },
        {
            "positions": [
                -2.0712315689969416,
                -1.3247169988682508,
                2.0740427879499475,
                -0.4675188271330306,
                0.5150474896472008,
                -3.1430281560210864
            ]
        },
        {
            "positions": [
                -2.2057232043667008,
                -1.270982273037744,
                2.0517795954497697,
                -0.585294068882726,
                0.565629599974214,
                -3.147786530584943
            ]
        },
        {
            "positions": [
                -2.3402148397364604,
                -1.2172475472072373,
                2.0295164029495916,
                -0.7030693106324215,
                0.6162117103012272,
                -3.1525449051487993
            ]
        },
        {
            "positions": [
                -2.47470647510622,
                -1.1635128213767305,
                2.007253210449414,
                -0.820844552382117,
                0.6667938206282406,
                -3.1573032797126555
            ]
        }
    ]
}