{
    "goal": {
        "global_pose": {
            "orientation": {
                "w": 0.5084816262002911,
                "x": -0.4908360881923452,
                "y": 0.5182115481033761,
                "z": -0.48164630358495003
            },
            "position": {
                "x": 0.5540239810943604,
                "y": -0.46912469901144505,
                "z": 0.16403168439865112
            }
        },
        "name": "move_to_storage_B"
    },
    "id": "FMT_move_to_storage_B_26",
    "joint_names": [
        "shoulder_pan_joint",
        "shoulder_lift_joint",
        "elbow_joint",
        "wrist_1_joint",
        "wrist_2_joint",
        "wrist_3_joint"
    ],
    "metrics": {
        "cart_traj_len": 0.9760095714921994,
        "distance_elbow_joint": 0.6832940535546075,
        "distance_shoulder_lift_joint": 0.6902863379765924,
        "distance_shoulder_pan_joint": 0.263883743773626,
        "distance_wrist_1_joint": 2.9865804087513337,
        "distance_wrist_2_joint": 2.716673142569361,
        "distance_wrist_3_joint": 3.319003130337043,
        "smoothness": 0.14000123058484343,
        "time": 1.3328288929999998,
        "traj_len": 3.26492278882098,
        "weighted_distance": 4.795933759859215
    },
    "planner": "FMT",
    "start": {
        "state": {
            "elbow_joint": 1.664937868594044,
            "shoulder_lift_joint": -0.661644460510453,
            "shoulder_pan_joint": -0.9139846352900073,
            "wrist_1_joint": 2.146753192139373,
            "wrist_2_joint": -2.2341966793290973,
            "wrist_3_joint": 0.005466555786416001
        }
    },
    "waypoints": [
        {
            "positions": [
                -0.9139846352900073,
                -0.661644460510453,
                1.664937868594044,
                2.146753192139373,
                -2.2341966793290973,
                0.005466555786416001
            ]
        },
        {
            "positions": [
                -0.9035908696369033,
                -0.7153718168051021,
                1.7163360004335049,
                2.0344035623745906,
                -2.103924993330495,
                -0.016828262141162783
            ]
        },
        {
            "positions": [
                -0.8931971039837993,
                -0.7690991730997512,
                1.7677341322729658,
                1.922053932609808,
                -1.9736533073318923,
                -0.039123080068741566
            ]
        },
        {
            "positions": [
                -0.8828033383306952,
                -0.8228265293944004,
                1.8191322641124268,
                1.8097043028450255,
                -1.8433816213332896,
                -0.061417897996320345
            ]
        },
        {
            "positions": [
                -0.8724095726775912,
                -0.8765538856890495,
                1.8705303959518877,
                1.697354673080243,
                -1.7131099353346873,
                -0.08371271592389913
            ]
        },
        {
            "positions": [
                -0.8749117354066852,
                -0.9065568412478434,
                1.896522661405037,
                1.572220383048172,
                -1.5910045667801882,
                0.006458775061048513
            ]
        },
        {
            "positions": [
                -0.8774138981357791,
                -0.9365597968066374,
                1.9225149268581865,
                1.447086093016101,
                -1.4688991982256892,
                0.09663026604599616
            ]
        },
        {
            "positions": [
                -0.8799160608648731,
                -0.9665627523654313,
                1.948507192311336,
                1.32195180298403,
                -1.34679382967119,
                0.18680175703094382
            ]
        },
        {
            "positions": [
                -0.882418223593967,
                -0.9965657079242253,
                1.9744994577644852,
                1.196817512951959,
                -1.224688461116691,
                0.27697324801589146
            ]
        },
        {
            "positions": [
                -0.884920386323061,
                -1.0265686634830193,
                2.0004917232176345,
                1.071683222919888,
                -1.1025830925621918,
                0.3671447390008391
            ]
        },
        {
            "positions": [
                -0.887422549052155,
                -1.0565716190418133,
                2.026483988670784,
                0.946548932887817,
                -0.9804777240076928,
                0.45731622998578675
            ]
        },
        {
            "positions": [
                -0.8899247117812489,
                -1.0865745746006072,
                2.0524762541239334,
                0.8214146428557461,
                -0.8583723554531937,
                0.5474877209707344
            ]
        },
        {
            "positions": [
                -0.8924268745103429,
                -1.1165775301594012,
                2.0784685195770827,
                0.6962803528236752,
                -0.7362669868986947,
                0.637659211955682
            ]
        },
        {
            "positions": [
                -0.8949290372394368,
                -1.1465804857181952,
                2.104460785030232,
                0.5711460627916041,
                -0.6141616183441956,
                0.7278307029406296
            ]
        },
        {
            "positions": [
                -0.8974311999685307,
                -1.176583441276989,
                2.130453050483381,
                0.4460117727595332,
                -0.49205624978969653,
                0.8180021939255773
            ]
        },
        {
            "positions": [
                -0.8999333626976247,
                -1.206586396835783,
                2.156445315936531,
                0.3208774827274623,
                -0.3699508812351975,
                0.9081736849105249
            ]
        },
        {
            "positions": [
                -0.9024355254267187,
                -1.236589352394577,
                2.18243758138968,
                0.19574319269539114,
                -0.24784551268069843,
                0.9983451758954726
            ]
        },
        {
            "positions": [
                -0.9184590861277255,
                -1.2269775652202046,
                2.1686213863264325,
                0.10944565858644514,
                -0.18698534802061811,
                1.1773256731294188
            ]
        },
        {
            "positions": [
                -0.9344826468287324,
                -1.2173657780458322,
                2.154805191263185,
                0.023148124477499143,
                -0.1261251833605378,
                1.3563061703633652
            ]
        },
        {
            "positions": [
                -0.9505062075297392,
                -1.2077539908714598,
                2.1409889961999373,
                -0.06314940963144688,
                -0.06526501870045748,
                1.5352866675973116
            ]
        },
        {
            "positions": [
                -0.9665297682307462,
                -1.1981422036970875,
                2.1271728011366897,
                -0.14944694374039286,
                -0.00440485404037716,
                1.714267164831258
            ]
        },
        {
            "positions": [
                -0.9825533289317531,
                -1.188530416522715,
                2.113356606073442,
                -0.23574447784933894,
                0.05645531061970316,
                1.8932476620652043
            ]
        },
        {
            "positions": [
                -0.9985768896327599,
                -1.1789186293483427,
                2.0995404110101945,
                -0.3220420119582849,
                0.11731547527978348,
                2.0722281592991507
            ]
        },
        {
            "positions": [
                -1.014600450333767,
                -1.1693068421739705,
                2.085724215946947,
                -0.40833954606723094,
                0.1781756399398638,
                2.251208656533097
            ]
        },
        {
            "positions": [
                -1.0306240110347737,
                -1.1596950549995981,
                2.0719080208836993,
                -0.49463708017617686,
                0.2390358045999441,
                2.430189153767043
            ]
        },
        {
            "positions": [
                -1.0466475717357806,
                -1.1500832678252257,
                2.0580918258204517,
                -0.5809346142851228,
                0.2998959692600245,
                2.6091696510009896
            ]
        },
        {
            "positions": [
                -1.0626711324367875,
                -1.1404714806508534,
                2.044275630757204,
                -0.6672321483940691,
                0.36075613392010475,
                2.7881501482349362
            ]
        },
        {
            "positions": [
                -1.0786946931377943,
                -1.130859693476481,
                2.0304594356939565,
                -0.7535296825030149,
                0.421616298580185,
                2.9671306454688824
            ]
        },
        {
            "positions": [
                -1.0947182538388012,
                -1.1212479063021086,
                2.016643240630709,
                -0.8398272166119609,
                0.48247646324026533,
                3.1461111427028285
            ]
        }
    ]
}