{
    "goal": {
        "global_pose": {
            "orientation": {
                "w": 0.7047431493862688,
                "x": -0.7094548369677653,
                "y": 0.0024358444001904,
                "z": -0.0022348060817251984
            },
            "position": {
                "x": -0.39052492380142206,
                "y": 0.3671506643295288,
                "z": 0.19426114857196808
            }
        },
        "name": "move_to_magneteinheit_D"
    },
    "id": "FMT_move_to_magneteinheit_D_71",
    "joint_names": [
        "shoulder_pan_joint",
        "shoulder_lift_joint",
        "elbow_joint",
        "wrist_1_joint",
        "wrist_2_joint",
        "wrist_3_joint"
    ],
    "metrics": {
        "cart_traj_len": 4.5806586016280635,
        "distance_elbow_joint": 3.1226303335007515,
        "distance_shoulder_lift_joint": 1.6347052186058717,
        "distance_shoulder_pan_joint": 3.0765385925888,
        "distance_wrist_1_joint": 1.6034403649905393,
        "distance_wrist_2_joint": 0.4273715524072409,
        "distance_wrist_3_joint": 3.1312104219346266,
        "smoothness": 0.04938413004148228,
        "time": 1.606196756,
        "traj_len": 3.60498217527186,
        "weighted_distance": 4.614014439216122
    },
    "planner": "FMT",
    "start": {
        "state": {
            "elbow_joint": 0.749534889911806,
            "shoulder_lift_joint": -0.6476975780787326,
            "shoulder_pan_joint": -2.711696901376241,
            "wrist_1_joint": -0.07506478083263063,
            "wrist_2_joint": 0.43296659715538205,
            "wrist_3_joint": -3.14703540197715
        }
    },
    "waypoints": [
        {
            "positions": [
                -2.711696901376241,
                -0.6476975780787326,
                0.749534889911806,
                -0.07506478083263063,
                0.43296659715538205,
                -3.14703540197715
            ]
        },
        {
            "positions": [
                -2.7237179198507917,
                -0.7179887083341356,
                0.7309417111168072,
                -0.03778547233689917,
                0.4586891989988897,
                -3.0845632839294383
            ]
        },
        {
            "positions": [
                -2.735738938325342,
                -0.7882798385895387,
                0.7123485323218084,
                -0.0005061638411677054,
                0.48441180084239743,
                -3.0220911658817267
            ]
        },
        {
            "positions": [
                -2.631966177315163,
                -0.8422679004116534,
                0.61491702537428,
                0.037885461396208894,
                0.48577015175446026,
                -2.9317111830596336
            ]
        },
        {
            "positions": [
                -2.5281934163049833,
                -0.8962559622337684,
                0.5174855184267515,
                0.0762770866335855,
                0.48712850266652313,
                -2.84133120023754
            ]
        },
        {
            "positions": [
                -2.424420655294804,
                -0.9502440240558832,
                0.420054011479223,
                0.1146687118709621,
                0.48848685357858596,
                -2.750951217415447
            ]
        },
        {
            "positions": [
                -2.3206478942846247,
                -1.004232085877998,
                0.32262250453169455,
                0.15306033710833872,
                0.4898452044906488,
                -2.660571234593354
            ]
        },
        {
            "positions": [
                -2.2168751332744456,
                -1.0582201477001127,
                0.22519099758416605,
                0.19145196234571532,
                0.4912035554027116,
                -2.570191251771261
            ]
        },
        {
            "positions": [
                -2.113102372264266,
                -1.1122082095222277,
                0.1277594906366376,
                0.22984358758309192,
                0.4925619063147745,
                -2.4798112689491676
            ]
        },
        {
            "positions": [
                -2.009329611254087,
                -1.1661962713443423,
                0.03032798368910916,
                0.2682352128204685,
                0.4939202572268373,
                -2.3894312861270746
            ]
        },
        {
            "positions": [
                -1.9055568502439075,
                -1.2201843331664572,
                -0.06710352325841928,
                0.30662683805784513,
                0.4952786081389001,
                -2.2990513033049815
            ]
        },
        {
            "positions": [
                -1.8017840892337285,
                -1.2741723949885722,
                -0.16453503020594784,
                0.34501846329522173,
                0.496636959050963,
                -2.208671320482888
            ]
        },
        {
            "positions": [
                -1.6980113282235492,
                -1.328160456810687,
                -0.2619665371534763,
                0.38341008853259834,
                0.4979953099630258,
                -2.118291337660795
            ]
        },
        {
            "positions": [
                -1.5942385672133699,
                -1.3821485186328017,
                -0.35939804410100473,
                0.42180171376997494,
                0.49935366087508865,
                -2.027911354838702
            ]
        },
        {
            "positions": [
                -1.4904658062031906,
                -1.4361365804549167,
                -0.4568295510485332,
                0.46019333900735154,
                0.5007120117871515,
                -1.9375313720166087
            ]
        },
        {
            "positions": [
                -1.3866930451930113,
                -1.4901246422770313,
                -0.5542610579960616,
                0.49858496424472815,
                0.5020703626992143,
                -1.8471513891945157
            ]
        },
        {
            "positions": [
                -1.282920284182832,
                -1.5441127040991462,
                -0.6516925649435901,
                0.5369765894821047,
                0.5034287136112772,
                -1.7567714063724225
            ]
        },
        {
            "positions": [
                -1.1791475231726525,
                -1.5981007659212612,
                -0.7491240718911187,
                0.5753682147194813,
                0.50478706452334,
                -1.6663914235503292
            ]
        },
        {
            "positions": [
                -1.0753747621624734,
                -1.652088827743376,
                -0.846555578838647,
                0.6137598399568579,
                0.5061454154354028,
                -1.5760114407282362
            ]
        },
        {
            "positions": [
                -0.9716020011522939,
                -1.706076889565491,
                -0.9439870857861756,
                0.6521514651942345,
                0.5075037663474657,
                -1.485631457906143
            ]
        },
        {
            "positions": [
                -0.8678292401421148,
                -1.7600649513876057,
                -1.041418592733704,
                0.6905430904316111,
                0.5088621172595286,
                -1.39525147508405
            ]
        },
        {
            "positions": [
                -0.7640564791319353,
                -1.8140530132097206,
                -1.1388500996812325,
                0.7289347156689877,
                0.5102204681715914,
                -1.3048714922619566
            ]
        },
        {
            "positions": [
                -0.6602837181217565,
                -1.8680410750318353,
                -1.236281606628761,
                0.7673263409063643,
                0.5115788190836542,
                -1.2144915094398636
            ]
        },
        {
            "positions": [
                -0.5565109571115769,
                -1.9220291368539502,
                -1.3337131135762896,
                0.8057179661437409,
                0.512937169995717,
                -1.1241115266177701
            ]
        },
        {
            "positions": [
                -0.45273819610139787,
                -1.9760171986760648,
                -1.4311446205238179,
                0.8441095913811175,
                0.5142955209077799,
                -1.033731543795677
            ]
        },
        {
            "positions": [
                -0.34896543509121836,
                -2.0300052604981795,
                -1.5285761274713465,
                0.8825012166184941,
                0.5156538718198427,
                -0.9433515609735839
            ]
        },
        {
            "positions": [
                -0.24519267408103929,
                -2.0839933223202944,
                -1.6260076344188747,
                0.9208928418558707,
                0.5170122227319056,
                -0.8529715781514908
            ]
        },
        {
            "positions": [
                -0.14141991307085977,
                -2.1379813841424093,
                -1.7234391413664034,
                0.9592844670932473,
                0.5183705736439684,
                -0.7625915953293978
            ]
        },
        {
            "positions": [
                -0.0376471520606807,
                -2.1919694459645243,
                -1.8208706483139316,
                0.9976760923306239,
                0.5197289245560313,
                -0.6722116125073048
            ]
        },
        {
            "positions": [
                0.06612560894949882,
                -2.245957507786639,
                -1.91830215526146,
                1.0360677175680006,
                0.5210872754680941,
                -0.5818316296852114
            ]
        },
        {
            "positions": [
                0.06261064619966196,
                -2.2536261052590696,
                -2.0303678197130357,
                1.1019094994703318,
                0.461741648701453,
                -0.4661978595252489
            ]
        },
        {
            "positions": [
                0.059095683449825104,
                -2.2612947027314996,
                -2.142433484164611,
                1.1677512813726632,
                0.40239602193481194,
                -0.3505640893652864
            ]
        },
        {
            "positions": [
                0.05558072069998825,
                -2.2689633002039296,
                -2.2544991486161865,
                1.2335930632749945,
                0.3430503951681709,
                -0.23493031920532392
            ]
        },
        {
            "positions": [
                0.05206575795015139,
                -2.27663189767636,
                -2.366564813067762,
                1.2994348451773257,
                0.2837047684015298,
                -0.1192965490453614
            ]
        },
        {
            "positions": [
                -0.06622032073260455,
                -2.279517347180482,
                -2.3698301283283536,
                1.4139052146676172,
                0.23277058488754748,
                -0.06756076454394196
            ]
        },
        {
            "positions": [
                -0.18450639941536048,
                -2.2824027966846043,
                -2.3730954435889458,
                1.5283755841579085,
                0.1818364013735652,
                -0.01582498004252251
            ]
        }
    ]
}