{
    "goal": {
        "global_pose": {
            "orientation": {
                "w": 0.7047431493862688,
                "x": -0.7094548369677653,
                "y": 0.0024358444001904,
                "z": -0.0022348060817251984
            },
            "position": {
                "x": -0.39052492380142206,
                "y": 0.3671506643295288,
                "z": 0.19426114857196808
            }
        },
        "name": "move_to_magneteinheit_D"
    },
    "id": "FMT_move_to_magneteinheit_D_27",
    "joint_names": [
        "shoulder_pan_joint",
        "shoulder_lift_joint",
        "elbow_joint",
        "wrist_1_joint",
        "wrist_2_joint",
        "wrist_3_joint"
    ],
    "metrics": {
        "cart_traj_len": 10.066930857557416,
        "distance_elbow_joint": 8.408742880070923,
        "distance_shoulder_lift_joint": 3.5685511599548825,
        "distance_shoulder_pan_joint": 8.683030620646154,
        "distance_wrist_1_joint": 9.62595465463493,
        "distance_wrist_2_joint": 3.5643933650476,
        "distance_wrist_3_joint": 5.392857906391447,
        "smoothness": 0.5500751710239362,
        "time": 1.502689908,
        "traj_len": 6.264465706406726,
        "weighted_distance": 7.951075048017803
    },
    "planner": "FMT",
    "start": {
        "state": {
            "elbow_joint": 0.749534889911806,
            "shoulder_lift_joint": -0.6476975780787326,
            "shoulder_pan_joint": -2.711696901376241,
            "wrist_1_joint": -0.07506478083263063,
            "wrist_2_joint": 0.43296659715538205,
            "wrist_3_joint": -3.14703540197715
        }
    },
    "waypoints": [
        {
            "positions": [
                -2.711696901376241,
                -0.6476975780787326,
                0.749534889911806,
                -0.07506478083263063,
                0.43296659715538205,
                -3.14703540197715
            ]
        },
        {
            "positions": [
                -2.714794640110624,
                -0.708696070109675,
                0.7122985928313751,
                0.006872420106810689,
                0.47721214177521576,
                -2.9989068576850118
            ]
        },
        {
            "positions": [
                -2.7178923788450065,
                -0.7696945621406173,
                0.6750622957509443,
                0.08880962104625201,
                0.5214576863950495,
                -2.8507783133928735
            ]
        },
        {
            "positions": [
                -2.7209901175793894,
                -0.8306930541715596,
                0.6378259986705135,
                0.17074682198569333,
                0.5657032310148832,
                -2.702649769100735
            ]
        },
        {
            "positions": [
                -2.6208605967001604,
                -0.8804028405044821,
                0.5522129702332728,
                0.2213023050885391,
                0.5621459708132696,
                -2.60324288394244
            ]
        },
        {
            "positions": [
                -2.5207310758209314,
                -0.9301126268374048,
                0.4665999417960319,
                0.27185778819138484,
                0.5585887106116559,
                -2.5038359987841448
            ]
        },
        {
            "positions": [
                -2.4206015549417024,
                -0.9798224131703275,
                0.38098691335879115,
                0.3224132712942306,
                0.5550314504100423,
                -2.4044291136258495
            ]
        },
        {
            "positions": [
                -2.3204720340624734,
                -1.02953219950325,
                0.29537388492155037,
                0.3729687543970764,
                0.5514741902084288,
                -2.3050222284675543
            ]
        },
        {
            "positions": [
                -2.2203425131832444,
                -1.0792419858361726,
                0.20976085648430953,
                0.4235242374999222,
                0.5479169300068152,
                -2.205615343309259
            ]
        },
        {
            "positions": [
                -2.1202129923040154,
                -1.1289517721690951,
                0.12414782804706881,
                0.47407972060276793,
                0.5443596698052016,
                -2.1062084581509644
            ]
        },
        {
            "positions": [
                -2.0200834714247864,
                -1.178661558502018,
                0.038534799609827974,
                0.5246352037056137,
                0.5408024096035879,
                -2.006801572992669
            ]
        },
        {
            "positions": [
                -1.9199539505455574,
                -1.2283713448349405,
                -0.04707822882741275,
                0.5751906868084594,
                0.5372451494019743,
                -1.907394687834374
            ]
        },
        {
            "positions": [
                -1.8198244296663282,
                -1.278081131167863,
                -0.1326912572646537,
                0.6257461699113053,
                0.5336878892003607,
                -1.8079878026760787
            ]
        },
        {
            "positions": [
                -1.7196949087870992,
                -1.3277909175007858,
                -0.21830428570189442,
                0.676301653014151,
                0.5301306289987471,
                -1.7085809175177835
            ]
        },
        {
            "positions": [
                -1.6195653879078702,
                -1.3775007038337082,
                -0.30391731413913514,
                0.7268571361169968,
                0.5265733687971336,
                -1.6091740323594883
            ]
        },
        {
            "positions": [
                -1.5194358670286412,
                -1.427210490166631,
                -0.38953034257637587,
                0.7774126192198425,
                0.52301610859552,
                -1.5097671472011933
            ]
        },
        {
            "positions": [
                -1.4193063461494122,
                -1.4769202764995537,
                -0.4751433710136168,
                0.8279681023226884,
                0.5194588483939063,
                -1.410360262042898
            ]
        },
        {
            "positions": [
                -1.3191768252701832,
                -1.526630062832476,
                -0.5607563994508575,
                0.8785235854255341,
                0.5159015881922927,
                -1.310953376884603
            ]
        },
        {
            "positions": [
                -1.2190473043909542,
                -1.5763398491653988,
                -0.6463694278880983,
                0.9290790685283798,
                0.5123443279906791,
                -1.2115464917263077
            ]
        },
        {
            "positions": [
                -1.1189177835117252,
                -1.6260496354983214,
                -0.731982456325339,
                0.9796345516312256,
                0.5087870677890655,
                -1.1121396065680127
            ]
        },
        {
            "positions": [
                -1.0187882626324962,
                -1.675759421831244,
                -0.8175954847625797,
                1.0301900347340713,
                0.505229807587452,
                -1.0127327214097175
            ]
        },
        {
            "positions": [
                -0.918658741753267,
                -1.7254692081641667,
                -0.9032085131998209,
                1.0807455178369172,
                0.5016725473858383,
                -0.913325836251422
            ]
        },
        {
            "positions": [
                -0.818529220874038,
                -1.7751789944970893,
                -0.9888215416370616,
                1.1313010009397628,
                0.49811528718422465,
                -0.8139189510931271
            ]
        },
        {
            "positions": [
                -0.718399699994809,
                -1.8248887808300118,
                -1.0744345700743023,
                1.1818564840426087,
                0.4945580269826111,
                -0.7145120659348319
            ]
        },
        {
            "positions": [
                -0.61827017911558,
                -1.8745985671629344,
                -1.160047598511543,
                1.2324119671454545,
                0.49100076678099747,
                -0.6151051807765366
            ]
        },
        {
            "positions": [
                -0.518140658236351,
                -1.924308353495857,
                -1.2456606269487838,
                1.2829674502483002,
                0.48744350657938385,
                -0.5156982956182414
            ]
        },
        {
            "positions": [
                -0.41801113735712203,
                -1.9740181398287797,
                -1.3312736553860245,
                1.333522933351146,
                0.4838862463777703,
                -0.41629141045994666
            ]
        },
        {
            "positions": [
                -0.31788161647789304,
                -2.023727926161702,
                -1.4168866838232652,
                1.3840784164539917,
                0.48032898617615666,
                -0.31688452530165145
            ]
        },
        {
            "positions": [
                -0.21775209559866404,
                -2.0734377124946253,
                -1.5024997122605062,
                1.4346338995568375,
                0.47677172597454304,
                -0.2174776401433558
            ]
        },
        {
            "positions": [
                -0.11762257471943505,
                -2.1231474988275476,
                -1.588112740697747,
                1.4851893826596834,
                0.4732144657729294,
                -0.11807075498506103
            ]
        },
        {
            "positions": [
                -0.017493053840206052,
                -2.17285728516047,
                -1.6737257691349876,
                1.535744865762529,
                0.46965720557131585,
                -0.018663869826765822
            ]
        },
        {
            "positions": [
                0.08263646703902275,
                -2.2225670714933927,
                -1.7593387975722286,
                1.5863003488653749,
                0.46609994536970223,
                0.0807430153315295
            ]
        },
        {
            "positions": [
                0.16753172594076288,
                -2.193190458548604,
                -1.679446610713804,
                1.4639779842844851,
                0.5121917432127222,
                0.04752216634418579
            ]
        },
        {
            "positions": [
                0.25242698484250303,
                -2.163813845603815,
                -1.5995544238553792,
                1.3416556197035954,
                0.5582835410557423,
                0.014301317356842078
            ]
        },
        {
            "positions": [
                0.33732224374424313,
                -2.134437232659027,
                -1.5196622369969546,
                1.2193332551227059,
                0.6043753388987623,
                -0.01891953163050164
            ]
        },
        {
            "positions": [
                0.42221750264598323,
                -2.105060619714238,
                -1.43977005013853,
                1.0970108905418159,
                0.6504671367417822,
                -0.052140380617845344
            ]
        },
        {
            "positions": [
                0.5071127615477233,
                -2.0756840067694493,
                -1.3598778632801052,
                0.9746885259609263,
                0.6965589345848022,
                -0.08536122960518908
            ]
        },
        {
            "positions": [
                0.5920080204494634,
                -2.0463073938246605,
                -1.2799856764216804,
                0.8523661613800366,
                0.7426507324278223,
                -0.11858207859253278
            ]
        },
        {
            "positions": [
                0.6769032793512036,
                -2.0169307808798718,
                -1.2000934895632558,
                0.7300437967991469,
                0.7887425302708423,
                -0.1518029275798765
            ]
        },
        {
            "positions": [
                0.7617985382529437,
                -1.9875541679350832,
                -1.1202013027048312,
                0.6077214322182571,
                0.8348343281138624,
                -0.1850237765672202
            ]
        },
        {
            "positions": [
                0.8466937971546837,
                -1.9581775549902944,
                -1.0403091158464064,
                0.4853990676373676,
                0.8809261259568824,
                -0.21824462555456392
            ]
        },
        {
            "positions": [
                0.931589056056424,
                -1.928800942045506,
                -0.9604169289879818,
                0.36307670305647766,
                0.9270179237999023,
                -0.25146547454190765
            ]
        },
        {
            "positions": [
                1.0164843149581642,
                -1.8994243291007171,
                -0.8805247421295572,
                0.24075433847558814,
                0.9731097216429223,
                -0.28468632352925133
            ]
        },
        {
            "positions": [
                1.1013795738599041,
                -1.8700477161559284,
                -0.8006325552711324,
                0.1184319738946984,
                1.0192015194859425,
                -0.31790717251659506
            ]
        },
        {
            "positions": [
                1.1862748327616444,
                -1.8406711032111398,
                -0.7207403684127078,
                -0.0038903906861913473,
                1.0652933173289623,
                -0.35112802150393874
            ]
        },
        {
            "positions": [
                1.2711700916633846,
                -1.811294490266351,
                -0.640848181554283,
                -0.1262127552670811,
                1.1113851151719825,
                -0.3843488704912825
            ]
        },
        {
            "positions": [
                1.3560653505651246,
                -1.7819178773215625,
                -0.5609559946958584,
                -0.2485351198479706,
                1.1574769130150022,
                -0.4175697194786262
            ]
        },
        {
            "positions": [
                1.4409606094668648,
                -1.7525412643767737,
                -0.48106380783743385,
                -0.3708574844288606,
                1.2035687108580224,
                -0.4507905684659699
            ]
        },
        {
            "positions": [
                1.5258558683686048,
                -1.723164651431985,
                -0.40117162097900905,
                -0.4931798490097501,
                1.2496605087010424,
                -0.48401141745331366
            ]
        },
        {
            "positions": [
                1.6107511272703448,
                -1.6937880384871962,
                -0.32127943412058446,
                -0.6155022135906396,
                1.2957523065440624,
                -0.5172322664406573
            ]
        },
        {
            "positions": [
                1.6956463861720852,
                -1.6644114255424074,
                -0.24138724726215965,
                -0.7378245781715296,
                1.3418441043870826,
                -0.5504531154280011
            ]
        },
        {
            "positions": [
                1.7805416450738252,
                -1.6350348125976188,
                -0.16149506040373507,
                -0.8601469427524195,
                1.3879359022301023,
                -0.5836739644153448
            ]
        },
        {
            "positions": [
                1.8654369039755654,
                -1.6056581996528303,
                -0.08160287354531048,
                -0.9824693073333091,
                1.4340277000731225,
                -0.6168948134026885
            ]
        },
        {
            "positions": [
                1.9503321628773054,
                -1.5762815867080415,
                -0.0017106866868858983,
                -1.1047916719141986,
                1.4801194979161423,
                -0.6501156623900322
            ]
        },
        {
            "positions": [
                2.035227421779046,
                -1.5469049737632528,
                0.07818150017153913,
                -1.2271140364950885,
                1.5262112957591625,
                -0.6833365113773759
            ]
        },
        {
            "positions": [
                2.120122680680786,
                -1.517528360818464,
                0.15807368702996372,
                -1.349436401075978,
                1.5723030936021827,
                -0.7165573603647196
            ]
        },
        {
            "positions": [
                2.2050179395825262,
                -1.4881517478736754,
                0.2379658738883883,
                -1.471758765656868,
                1.6183948914452024,
                -0.7497782093520633
            ]
        },
        {
            "positions": [
                2.289913198484266,
                -1.4587751349288869,
                0.3178580607468129,
                -1.5940811302377575,
                1.6644866892882226,
                -0.782999058339407
            ]
        },
        {
            "positions": [
                2.3748084573860067,
                -1.4293985219840981,
                0.3977502476052377,
                -1.7164034948186475,
                1.7105784871312424,
                -0.8162199073267508
            ]
        },
        {
            "positions": [
                2.4597037162877466,
                -1.4000219090393093,
                0.4776424344636625,
                -1.838725859399537,
                1.7566702849742626,
                -0.8494407563140945
            ]
        },
        {
            "positions": [
                2.5445989751894866,
                -1.3706452960945206,
                0.5575346213220869,
                -1.9610482239804266,
                1.8027620828172823,
                -0.8826616053014382
            ]
        },
        {
            "positions": [
                2.6294942340912266,
                -1.341268683149732,
                0.6374268081805117,
                -2.083370588561316,
                1.8488538806603025,
                -0.9158824542887819
            ]
        },
        {
            "positions": [
                2.714389492992967,
                -1.3118920702049433,
                0.7173189950389365,
                -2.2056929531422065,
                1.8949456785033227,
                -0.9491033032761257
            ]
        },
        {
            "positions": [
                2.799284751894707,
                -1.2825154572601547,
                0.7972111818973608,
                -2.328015317723096,
                1.9410374763463425,
                -0.9823241522634693
            ]
        },
        {
            "positions": [
                2.884180010796447,
                -1.253138844315366,
                0.8771033687557859,
                -2.4503376823039855,
                1.9871292741893627,
                -1.0155450012508132
            ]
        },
        {
            "positions": [
                2.798942030905692,
                -1.2815903287420936,
                0.7864526180263725,
                -2.3412279185882197,
                1.936823048724828,
                -0.9858563492369125
            ]
        },
        {
            "positions": [
                2.713704051014937,
                -1.3100418131688214,
                0.695801867296959,
                -2.2321181548724542,
                1.8865168232602931,
                -0.9561676972230116
            ]
        },
        {
            "positions": [
                2.628466071124182,
                -1.3384932975955492,
                0.6051511165675456,
                -2.123008391156689,
                1.8362105977957581,
                -0.926479045209111
            ]
        },
        {
            "positions": [
                2.543228091233427,
                -1.3669447820222769,
                0.5145003658381322,
                -2.013898627440923,
                1.7859043723312233,
                -0.8967903931952103
            ]
        },
        {
            "positions": [
                2.4579901113426725,
                -1.3953962664490045,
                0.42384961510871877,
                -1.9047888637251573,
                1.7355981468666886,
                -0.8671017411813094
            ]
        },
        {
            "positions": [
                2.3727521314519175,
                -1.4238477508757323,
                0.33319886437930535,
                -1.7956791000093917,
                1.6852919214021538,
                -0.8374130891674088
            ]
        },
        {
            "positions": [
                2.2875141515611626,
                -1.4522992353024602,
                0.24254811364989193,
                -1.686569336293626,
                1.634985695937619,
                -0.8077244371535081
            ]
        },
        {
            "positions": [
                2.2022761716704076,
                -1.4807507197291878,
                0.1518973629204785,
                -1.5774595725778604,
                1.584679470473084,
                -0.7780357851396074
            ]
        },
        {
            "positions": [
                2.1170381917796526,
                -1.5092022041559154,
                0.061246612191065086,
                -1.4683498088620948,
                1.5343732450085492,
                -0.7483471331257066
            ]
        },
        {
            "positions": [
                2.0318002118888976,
                -1.5376536885826433,
                -0.029404138538348334,
                -1.3592400451463291,
                1.4840670195440144,
                -0.7186584811118057
            ]
        },
        {
            "positions": [
                1.9465622319981426,
                -1.5661051730093711,
                -0.12005488926776187,
                -1.2501302814305635,
                1.4337607940794794,
                -0.688969829097905
            ]
        },
        {
            "positions": [
                1.8613242521073878,
                -1.5945566574360988,
                -0.21070563999717518,
                -1.1410205177147978,
                1.3834545686149449,
                -0.6592811770840044
            ]
        },
        {
            "positions": [
                1.7760862722166328,
                -1.6230081418628264,
                -0.3013563907265886,
                -1.0319107539990322,
                1.3331483431504099,
                -0.6295925250701035
            ]
        },
        {
            "positions": [
                1.6908482923258779,
                -1.6514596262895542,
                -0.392007141456002,
                -0.9228009902832666,
                1.282842117685875,
                -0.599903873056203
            ]
        },
        {
            "positions": [
                1.6056103124351229,
                -1.679911110716282,
                -0.48265789218541544,
                -0.8136912265675009,
                1.2325358922213403,
                -0.5702152210423022
            ]
        },
        {
            "positions": [
                1.520372332544368,
                -1.7083625951430097,
                -0.5733086429148289,
                -0.7045814628517353,
                1.1822296667568053,
                -0.5405265690284015
            ]
        },
        {
            "positions": [
                1.435134352653613,
                -1.7368140795697373,
                -0.6639593936442423,
                -0.5954716991359696,
                1.1319234412922707,
                -0.5108379170145007
            ]
        },
        {
            "positions": [
                1.3498963727628581,
                -1.7652655639964652,
                -0.7546101443736557,
                -0.486361935420204,
                1.0816172158277357,
                -0.48114926500059996
            ]
        },
        {
            "positions": [
                1.2646583928721031,
                -1.793717048423193,
                -0.8452608951030691,
                -0.37725217170443814,
                1.0313109903632007,
                -0.45146061298669926
            ]
        },
        {
            "positions": [
                1.1794204129813481,
                -1.8221685328499206,
                -0.9359116458324825,
                -0.2681424079886727,
                0.981004764898666,
                -0.42177196097279845
            ]
        },
        {
            "positions": [
                1.0941824330905932,
                -1.8506200172766483,
                -1.0265623965618962,
                -0.15903264427290686,
                0.9306985394341312,
                -0.39208330895889776
            ]
        },
        {
            "positions": [
                1.0089444531998382,
                -1.8790715017033761,
                -1.1172131472913096,
                -0.04992288055714145,
                0.8803923139695964,
                -0.36239465694499695
            ]
        },
        {
            "positions": [
                0.9237064733090836,
                -1.907522986130104,
                -1.2078638980207228,
                0.05918688315862397,
                0.8300860885050616,
                -0.33270600493109637
            ]
        },
        {
            "positions": [
                0.8384684934183286,
                -1.9359744705568316,
                -1.2985146487501362,
                0.16829664687438983,
                0.7797798630405268,
                -0.30301735291719556
            ]
        },
        {
            "positions": [
                0.7532305135275736,
                -1.9644259549835592,
                -1.3891653994795496,
                0.27740641059015525,
                0.729473637575992,
                -0.27332870090329486
            ]
        },
        {
            "positions": [
                0.6679925336368187,
                -1.992877439410287,
                -1.479816150208963,
                0.3865161743059211,
                0.679167412111457,
                -0.24364004888939406
            ]
        },
        {
            "positions": [
                0.5827545537460637,
                -2.021328923837015,
                -1.5704669009383765,
                0.495625938021687,
                0.6288611866469223,
                -0.21395139687549336
            ]
        },
        {
            "positions": [
                0.4975165738553087,
                -2.0497804082637425,
                -1.66111765166779,
                0.6047357017374524,
                0.5785549611823875,
                -0.18426274486159266
            ]
        },
        {
            "positions": [
                0.4122785939645537,
                -2.07823189269047,
                -1.7517684023972033,
                0.7138454654532183,
                0.5282487357178525,
                -0.15457409284769186
            ]
        },
        {
            "positions": [
                0.3270406140737987,
                -2.106683377117198,
                -1.8424191531266167,
                0.8229552291689837,
                0.4779425102533177,
                -0.12488544083379116
            ]
        },
        {
            "positions": [
                0.2418026341830437,
                -2.135134861543926,
                -1.9330699038560302,
                0.9320649928847495,
                0.4276362847887829,
                -0.09519678881989035
            ]
        },
        {
            "positions": [
                0.15656465429228916,
                -2.1635863459706535,
                -2.0237206545854436,
                1.041174756600515,
                0.3773300593242481,
                -0.06550813680598977
            ]
        },
        {
            "positions": [
                0.07132667440153417,
                -2.192037830397381,
                -2.114371405314857,
                1.1502845203162804,
                0.32702383385971334,
                -0.03581948479208896
            ]
        },
        {
            "positions": [
                -0.013911305489220815,
                -2.2204893148241087,
                -2.2050221560442704,
                1.2593942840320462,
                0.27671760839517856,
                -0.0061308327781881555
            ]
        },
        {
            "positions": [
                -0.0991492853799758,
                -2.248940799250837,
                -2.295672906773684,
                1.3685040477478116,
                0.22641138293064356,
                0.02355781923571243
            ]
        },
        {
            "positions": [
                -0.18438726527073065,
                -2.2773922836775644,
                -2.3863236575030973,
                1.4776138114635775,
                0.17610515746610875,
                0.053246471249613264
            ]
        }
    ]
}