{
    "goal": {
        "global_pose": {
            "orientation": {
                "w": 0.7047431493862688,
                "x": -0.7094548369677653,
                "y": 0.0024358444001904,
                "z": -0.0022348060817251984
            },
            "position": {
                "x": -0.39052492380142206,
                "y": 0.3671506643295288,
                "z": 0.19426114857196808
            }
        },
        "name": "move_to_magneteinheit_D"
    },
    "id": "FMT_move_to_magneteinheit_D_54",
    "joint_names": [
        "shoulder_pan_joint",
        "shoulder_lift_joint",
        "elbow_joint",
        "wrist_1_joint",
        "wrist_2_joint",
        "wrist_3_joint"
    ],
    "metrics": {
        "cart_traj_len": 4.080990510595152,
        "distance_elbow_joint": 3.1123870524440678,
        "distance_shoulder_lift_joint": 1.0960894586411194,
        "distance_shoulder_pan_joint": 3.3353800602075268,
        "distance_wrist_1_joint": 4.6789410868030235,
        "distance_wrist_2_joint": 0.9276830919715211,
        "distance_wrist_3_joint": 6.348037370140142,
        "smoothness": 0.5421418310571158,
        "time": 1.508346722,
        "traj_len": 4.415712640130401,
        "weighted_distance": 6.1482694345044955
    },
    "planner": "FMT",
    "start": {
        "state": {
            "elbow_joint": 0.749534889911806,
            "shoulder_lift_joint": -0.6476975780787326,
            "shoulder_pan_joint": -2.711696901376241,
            "wrist_1_joint": -0.07506478083263063,
            "wrist_2_joint": 0.43296659715538205,
            "wrist_3_joint": -3.14703540197715
        }
    },
    "waypoints": [
        {
            "positions": [
                -2.711696901376241,
                -0.6476975780787326,
                0.749534889911806,
                -0.07506478083263063,
                0.43296659715538205,
                -3.14703540197715
            ]
        },
        {
            "positions": [
                -2.7614110753758703,
                -0.6997047065625199,
                0.743403864328662,
                0.1339000994322493,
                0.4735709677357147,
                -3.1562599182906714
            ]
        },
        {
            "positions": [
                -2.8111252493754995,
                -0.7517118350463072,
                0.7372728387455182,
                0.3428649796971292,
                0.5141753383160473,
                -3.1654844346041933
            ]
        },
        {
            "positions": [
                -2.8608394233751286,
                -0.8037189635300945,
                0.7311418131623744,
                0.5518298599620091,
                0.5547797088963801,
                -3.174708950917715
            ]
        },
        {
            "positions": [
                -2.910553597374758,
                -0.8557260920138818,
                0.7250107875792304,
                0.7607947402268891,
                0.5953840794767127,
                -3.1839334672312365
            ]
        },
        {
            "positions": [
                -2.837521888640001,
                -0.8644215284415264,
                0.6426836977797601,
                0.6692803531571211,
                0.5896611436228869,
                -3.0535078484493625
            ]
        },
        {
            "positions": [
                -2.764490179905244,
                -0.8731169648691709,
                0.5603566079802897,
                0.5777659660873531,
                0.583938207769061,
                -2.9230822296674885
            ]
        },
        {
            "positions": [
                -2.691458471170487,
                -0.8818124012968155,
                0.4780295181808195,
                0.48625157901758514,
                0.5782152719152353,
                -2.792656610885615
            ]
        },
        {
            "positions": [
                -2.61842676243573,
                -0.89050783772446,
                0.39570242838134917,
                0.3947371919478172,
                0.5724923360614094,
                -2.662230992103741
            ]
        },
        {
            "positions": [
                -2.5453950537009735,
                -0.8992032741521045,
                0.3133753385818789,
                0.3032228048780492,
                0.5667694002075836,
                -2.531805373321867
            ]
        },
        {
            "positions": [
                -2.4723633449662166,
                -0.9078987105797491,
                0.23104824878240854,
                0.2117084178082812,
                0.5610464643537578,
                -2.401379754539993
            ]
        },
        {
            "positions": [
                -2.3993316362314596,
                -0.9165941470073936,
                0.14872115898293825,
                0.1201940307385132,
                0.5553235284999319,
                -2.270954135758119
            ]
        },
        {
            "positions": [
                -2.3262999274967027,
                -0.9252895834350382,
                0.06639406918346791,
                0.028679643668745314,
                0.5496005926461062,
                -2.1405285169762456
            ]
        },
        {
            "positions": [
                -2.2532682187619457,
                -0.9339850198626828,
                -0.015933020616002325,
                -0.06283474340102269,
                0.5438776567922803,
                -2.010102898194371
            ]
        },
        {
            "positions": [
                -2.1802365100271888,
                -0.9426804562903273,
                -0.09826011041547267,
                -0.15434913047079069,
                0.5381547209384545,
                -1.8796772794124974
            ]
        },
        {
            "positions": [
                -2.107204801292432,
                -0.9513758927179718,
                -0.180587200214943,
                -0.24586351754055857,
                0.5324317850846287,
                -1.7492516606306237
            ]
        },
        {
            "positions": [
                -2.0341730925576753,
                -0.9600713291456164,
                -0.26291429001441335,
                -0.3373779046103267,
                0.5267088492308029,
                -1.6188260418487497
            ]
        },
        {
            "positions": [
                -1.9611413838229184,
                -0.9687667655732609,
                -0.3452413798138836,
                -0.4288922916800946,
                0.5209859133769771,
                -1.4884004230668757
            ]
        },
        {
            "positions": [
                -1.8881096750881614,
                -0.9774622020009055,
                -0.42756846961335393,
                -0.5204066787498627,
                0.5152629775231512,
                -1.357974804285002
            ]
        },
        {
            "positions": [
                -1.8150779663534045,
                -0.98615763842855,
                -0.5098955594128243,
                -0.6119210658196306,
                0.5095400416693254,
                -1.227549185503128
            ]
        },
        {
            "positions": [
                -1.7420462576186475,
                -0.9948530748561946,
                -0.5922226492122946,
                -0.7034354528893985,
                0.5038171058154997,
                -1.0971235667212542
            ]
        },
        {
            "positions": [
                -1.6690145488838906,
                -1.0035485112838392,
                -0.674549739011765,
                -0.7949498399591666,
                0.49809416996167377,
                -0.9666979479393802
            ]
        },
        {
            "positions": [
                -1.5959828401491338,
                -1.0122439477114837,
                -0.7568768288112351,
                -0.8864642270289345,
                0.49237123410784794,
                -0.8362723291575063
            ]
        },
        {
            "positions": [
                -1.5229511314143769,
                -1.020939384139128,
                -0.8392039186107054,
                -0.9779786140987023,
                0.48664829825402217,
                -0.7058467103756327
            ]
        },
        {
            "positions": [
                -1.44991942267962,
                -1.0296348205667727,
                -0.9215310084101758,
                -1.0694930011684705,
                0.48092536240019634,
                -0.5754210915937583
            ]
        },
        {
            "positions": [
                -1.3768877139448632,
                -1.0383302569944173,
                -1.0038580982096459,
                -1.1610073882382383,
                0.4752024265463705,
                -0.4449954728118848
            ]
        },
        {
            "positions": [
                -1.3038560052101063,
                -1.0470256934220619,
                -1.0861851880091165,
                -1.2525217753080062,
                0.4694794906925447,
                -0.3145698540300108
            ]
        },
        {
            "positions": [
                -1.2308242964753493,
                -1.0557211298497065,
                -1.1685122778085866,
                -1.3440361623777741,
                0.4637565548387189,
                -0.18414423524813728
            ]
        },
        {
            "positions": [
                -1.1577925877405923,
                -1.0644165662773508,
                -1.2508393676080571,
                -1.4355505494475425,
                0.45803361898489303,
                -0.05371861646626286
            ]
        },
        {
            "positions": [
                -1.0847608790058356,
                -1.0731120027049954,
                -1.3331664574075273,
                -1.5270649365173103,
                0.45231068313106726,
                0.07670700231561067
            ]
        },
        {
            "positions": [
                -1.0117291702710787,
                -1.08180743913264,
                -1.4154935472069976,
                -1.6185793235870782,
                0.44658774727724143,
                0.2071326210974851
            ]
        },
        {
            "positions": [
                -0.9386974615363217,
                -1.0905028755602846,
                -1.497820637006468,
                -1.7100937106568461,
                0.4408648114234156,
                0.3375582398793586
            ]
        },
        {
            "positions": [
                -0.865665752801565,
                -1.0991983119879292,
                -1.5801477268059383,
                -1.8016080977266145,
                0.4351418755695898,
                0.4679838586612326
            ]
        },
        {
            "positions": [
                -0.792634044066808,
                -1.1078937484155738,
                -1.6624748166054086,
                -1.893122484796382,
                0.42941893971576395,
                0.5984094774431061
            ]
        },
        {
            "positions": [
                -0.7196023353320511,
                -1.1165891848432183,
                -1.744801906404879,
                -1.9846368718661502,
                0.4236960038619382,
                0.7288350962249805
            ]
        },
        {
            "positions": [
                -0.6465706265972941,
                -1.1252846212708627,
                -1.8271289962043489,
                -2.0761512589359183,
                0.41797306800811235,
                0.8592607150068545
            ]
        },
        {
            "positions": [
                -0.5735389178625372,
                -1.1339800576985073,
                -1.9094560860038197,
                -2.167665646005686,
                0.4122501321542865,
                0.9896863337887281
            ]
        },
        {
            "positions": [
                -0.5005072091277802,
                -1.1426754941261519,
                -1.9917831758032896,
                -2.259180033075454,
                0.40652719630046075,
                1.1201119525706016
            ]
        },
        {
            "positions": [
                -0.4274755003930233,
                -1.1513709305537965,
                -2.0741102656027604,
                -2.3506944201452225,
                0.40080426044663486,
                1.250537571352476
            ]
        },
        {
            "positions": [
                -0.3544437916582668,
                -1.1600663669814408,
                -2.1564373554022302,
                -2.44220880721499,
                0.3950813245928091,
                1.3809631901343495
            ]
        },
        {
            "positions": [
                -0.28141208292350983,
                -1.1687618034090854,
                -2.2387644452017006,
                -2.5337231942847582,
                0.3893583887389832,
                1.511388808916224
            ]
        },
        {
            "positions": [
                -0.20838037418875266,
                -1.17745723983673,
                -2.321091535001171,
                -2.625237581354526,
                0.38363545288515744,
                1.6418144276980973
            ]
        },
        {
            "positions": [
                -0.2596729192331894,
                -1.2987794185522554,
                -2.3315054922371785,
                -2.5589073055951634,
                0.3509329871387423,
                1.7283506547972538
            ]
        },
        {
            "positions": [
                -0.31096546427762617,
                -1.4201015972677808,
                -2.341919449473186,
                -2.4925770298358003,
                0.31823052139232716,
                1.8148868818964106
            ]
        },
        {
            "positions": [
                -0.3622580093220629,
                -1.5414237759833063,
                -2.3523334067091937,
                -2.4262467540764376,
                0.285528055645912,
                1.901423108995567
            ]
        },
        {
            "positions": [
                -0.4135505543664997,
                -1.6627459546988317,
                -2.3627473639452012,
                -2.359916478317075,
                0.2528255898994969,
                1.9879593360947236
            ]
        },
        {
            "positions": [
                -0.3753538942256233,
                -1.676252801702335,
                -2.3627648303763777,
                -2.3279617881296355,
                0.1823744032206678,
                2.177833753021406
            ]
        },
        {
            "positions": [
                -0.33715723408474696,
                -1.6897596487058384,
                -2.3627822968075547,
                -2.296007097942196,
                0.11192321654183873,
                2.3677081699480884
            ]
        },
        {
            "positions": [
                -0.29896057394387066,
                -1.7032664957093417,
                -2.3627997632387316,
                -2.2640524077547566,
                0.04147202986300966,
                2.557582586874771
            ]
        },
        {
            "positions": [
                -0.2607639138029943,
                -1.7167733427128453,
                -2.362817229669908,
                -2.2320977175673167,
                -0.028979156815819418,
                2.747457003801453
            ]
        },
        {
            "positions": [
                -0.22256725366211794,
                -1.7302801897163487,
                -2.3628346961010847,
                -2.200143027379877,
                -0.09943034349464852,
                2.9373314207281354
            ]
        },
        {
            "positions": [
                -0.1843705935212416,
                -1.743787036719852,
                -2.3628521625322616,
                -2.1681883371924378,
                -0.16988153017347757,
                3.127205837654818
            ]
        }
    ]
}