{
    "goal": {
        "global_pose": {
            "orientation": {
                "w": -0.4816463035849501,
                "x": 0.5182115481033762,
                "y": 0.4908360881923453,
                "z": -0.5084816262002911
            },
            "position": {
                "x": -0.8240239810943604,
                "y": 0.19912469901144506,
                "z": 0.16403168439865112
            }
        },
        "name": "move_to_storage_D"
    },
    "id": "FMT_move_to_storage_D_67",
    "joint_names": [
        "shoulder_pan_joint",
        "shoulder_lift_joint",
        "elbow_joint",
        "wrist_1_joint",
        "wrist_2_joint",
        "wrist_3_joint"
    ],
    "metrics": {
        "cart_traj_len": 4.032130581217799,
        "distance_elbow_joint": 4.208099788335418,
        "distance_shoulder_lift_joint": 1.2638284496358703,
        "distance_shoulder_pan_joint": 2.8132242697688383,
        "distance_wrist_1_joint": 2.2616296049012123,
        "distance_wrist_2_joint": 0.8758164344015946,
        "distance_wrist_3_joint": 3.136587747983558,
        "smoothness": 6.604403640998175e-16,
        "time": 1.413692115,
        "traj_len": 3.8156501798548685,
        "weighted_distance": 4.895897040410104
    },
    "planner": "FMT",
    "start": {
        "state": {
            "elbow_joint": -2.384821988534728,
            "shoulder_lift_joint": -2.2788054721415256,
            "shoulder_pan_joint": -0.1854694642142757,
            "wrist_1_joint": 1.4845938289331202,
            "wrist_2_joint": 0.17898776772866878,
            "wrist_3_joint": 0.037105688729662994
        }
    },
    "waypoints": [
        {
            "positions": [
                -0.1854694642142757,
                -2.2788054721415256,
                -2.384821988534728,
                1.4845938289331202,
                0.17898776772866878,
                0.037105688729662994
            ]
        },
        {
            "positions": [
                -0.07545031414144919,
                -2.234378225605747,
                -2.3386878643940876,
                1.4333793829202135,
                0.20551102540049612,
                -0.06459421830130666
            ]
        },
        {
            "positions": [
                0.03456883593137733,
                -2.1899509790699683,
                -2.292553740253447,
                1.3821649369073068,
                0.2320342830723235,
                -0.1662941253322763
            ]
        },
        {
            "positions": [
                0.14458798600420383,
                -2.1455237325341896,
                -2.2464196161128065,
                1.3309504908944,
                0.2585575407441508,
                -0.2679940323632459
            ]
        },
        {
            "positions": [
                0.25460713607703034,
                -2.101096485998411,
                -2.200285491972166,
                1.2797360448814934,
                0.28508079841597816,
                -0.3696939393942156
            ]
        },
        {
            "positions": [
                0.3646262861498569,
                -2.0566692394626322,
                -2.1541513678315254,
                1.2285215988685867,
                0.3116040560878055,
                -0.4713938464251852
            ]
        },
        {
            "positions": [
                0.4746454362226834,
                -2.0122419929268536,
                -2.108017243690885,
                1.17730715285568,
                0.3381273137596329,
                -0.5730937534561549
            ]
        },
        {
            "positions": [
                0.58466458629551,
                -1.967814746391075,
                -2.0618831195502443,
                1.1260927068427733,
                0.36465057143146024,
                -0.6747936604871245
            ]
        },
        {
            "positions": [
                0.6946837363683365,
                -1.9233874998552962,
                -2.015748995409604,
                1.0748782608298666,
                0.3911738291032876,
                -0.7764935675180942
            ]
        },
        {
            "positions": [
                0.8002817081126529,
                -1.8799467748164491,
                -1.9525410724199952,
                1.0197715189889087,
                0.4178662879557594,
                -0.8774571665677671
            ]
        },
        {
            "positions": [
                0.9058796798569693,
                -1.836506049777602,
                -1.8893331494303864,
                0.9646647771479507,
                0.4445587468082312,
                -0.9784207656174401
            ]
        },
        {
            "positions": [
                1.0114776516012858,
                -1.793065324738755,
                -1.826125226440778,
                0.9095580353069929,
                0.47125120566070305,
                -1.079384364667113
            ]
        },
        {
            "positions": [
                1.117075623345602,
                -1.7496245996999078,
                -1.7629173034511691,
                0.8544512934660349,
                0.49794366451317484,
                -1.180347963716786
            ]
        },
        {
            "positions": [
                1.2226735950899186,
                -1.7061838746610607,
                -1.6997093804615604,
                0.799344551625077,
                0.5246361233656467,
                -1.2813115627664589
            ]
        },
        {
            "positions": [
                1.2788768435085043,
                -1.6785356005748444,
                -1.5587898932510704,
                0.7362893385213503,
                0.5458428465162314,
                -1.3540383826259563
            ]
        },
        {
            "positions": [
                1.3350800919270902,
                -1.6508873264886283,
                -1.4178704060405802,
                0.6732341254176235,
                0.5670495696668161,
                -1.4267652024854538
            ]
        },
        {
            "positions": [
                1.391283340345676,
                -1.623239052402412,
                -1.2769509188300903,
                0.6101789123138968,
                0.5882562928174007,
                -1.4994920223449513
            ]
        },
        {
            "positions": [
                1.4474865887642616,
                -1.5955907783161958,
                -1.1360314316196,
                0.54712369921017,
                0.6094630159679854,
                -1.5722188422044487
            ]
        },
        {
            "positions": [
                1.5036898371828475,
                -1.5679425042299797,
                -0.9951119444091101,
                0.4840684861064432,
                0.63066973911857,
                -1.6449456620639462
            ]
        },
        {
            "positions": [
                1.5598930856014332,
                -1.5402942301437634,
                -0.8541924571986201,
                0.42101327300271646,
                0.6518764622691547,
                -1.7176724819234437
            ]
        },
        {
            "positions": [
                1.616096334020019,
                -1.5126459560575471,
                -0.7132729699881301,
                0.35795805989898966,
                0.6730831854197394,
                -1.7903993017829412
            ]
        },
        {
            "positions": [
                1.6722995824386047,
                -1.4849976819713309,
                -0.57235348277764,
                0.2949028467952629,
                0.694289908570324,
                -1.8631261216424386
            ]
        },
        {
            "positions": [
                1.7285028308571906,
                -1.4573494078851148,
                -0.43143399556715,
                0.23184763369153616,
                0.7154966317209087,
                -1.9358529415019359
            ]
        },
        {
            "positions": [
                1.7847060792757765,
                -1.4297011337988985,
                -0.2905145083566598,
                0.1687924205878094,
                0.7367033548714934,
                -2.0085797613614336
            ]
        },
        {
            "positions": [
                1.8409093276943622,
                -1.4020528597126822,
                -0.14959502114616985,
                0.10573720748408266,
                0.7579100780220781,
                -2.0813065812209306
            ]
        },
        {
            "positions": [
                1.897112576112948,
                -1.3744045856264662,
                -0.00867553393567988,
                0.042681994380355914,
                0.7791168011726628,
                -2.1540334010804285
            ]
        },
        {
            "positions": [
                1.9533158245315336,
                -1.3467563115402499,
                0.1322439532748101,
                -0.020373218723370834,
                0.8003235243232474,
                -2.2267602209399255
            ]
        },
        {
            "positions": [
                2.0095190729501198,
                -1.3191080374540336,
                0.2731634404853003,
                -0.0834284318270977,
                0.8215302474738322,
                -2.2994870407994235
            ]
        },
        {
            "positions": [
                2.065722321368705,
                -1.2914597633678175,
                0.41408292769579,
                -0.14648364493082433,
                0.8427369706244168,
                -2.3722138606589205
            ]
        },
        {
            "positions": [
                2.121925569787291,
                -1.2638114892816013,
                0.5550024149062804,
                -0.2095388580345512,
                0.8639436937750015,
                -2.4449406805184184
            ]
        },
        {
            "positions": [
                2.178128818205877,
                -1.236163215195385,
                0.6959219021167704,
                -0.27259407113827794,
                0.8851504169255862,
                -2.5176675003779154
            ]
        },
        {
            "positions": [
                2.2343320666244626,
                -1.208514941109169,
                0.8368413893272604,
                -0.3356492842420047,
                0.9063571400761707,
                -2.590394320237413
            ]
        },
        {
            "positions": [
                2.2905353150430483,
                -1.1808666670229526,
                0.9777608765377503,
                -0.39870449734573143,
                0.9275638632267554,
                -2.6631211400969104
            ]
        },
        {
            "positions": [
                2.346738563461634,
                -1.1532183929367363,
                1.1186803637482408,
                -0.4617597104494582,
                0.9487705863773401,
                -2.7358479599564083
            ]
        },
        {
            "positions": [
                2.40294181188022,
                -1.1255701188505203,
                1.2595998509587303,
                -0.5248149235531849,
                0.9699773095279247,
                -2.8085747798159053
            ]
        },
        {
            "positions": [
                2.4591450602988054,
                -1.097921844764304,
                1.4005193381692207,
                -0.5878701366569117,
                0.9911840326785095,
                -2.881301599675403
            ]
        },
        {
            "positions": [
                2.5153483087173916,
                -1.0702735706780877,
                1.5414388253797107,
                -0.6509253497606384,
                1.012390755829094,
                -2.9540284195349003
            ]
        },
        {
            "positions": [
                2.571551557135977,
                -1.0426252965918716,
                1.6823583125902006,
                -0.7139805628643652,
                1.033597478979679,
                -3.0267552393943977
            ]
        },
        {
            "positions": [
                2.627754805554563,
                -1.0149770225056554,
                1.8232777998006908,
                -0.7770357759680918,
                1.0548042021302635,
                -3.099482059253895
            ]
        }
    ]
}