{
    "goal": {
        "global_pose": {
            "orientation": {
                "w": -0.00223480608172531,
                "x": 0.0024358444001904467,
                "y": 0.7094548369677653,
                "z": -0.704743149386269
            },
            "position": {
                "x": -0.37947507619857795,
                "y": -0.6371506643295288,
                "z": 0.19426114857196808
            }
        },
        "name": "move_to_magneteinheit_C"
    },
    "id": "FMT_move_to_magneteinheit_C_145",
    "joint_names": [
        "shoulder_pan_joint",
        "shoulder_lift_joint",
        "elbow_joint",
        "wrist_1_joint",
        "wrist_2_joint",
        "wrist_3_joint"
    ],
    "metrics": {
        "cart_traj_len": 0.9099047713984144,
        "distance_elbow_joint": 0.21080976445123545,
        "distance_shoulder_lift_joint": 0.6933420049105554,
        "distance_shoulder_pan_joint": 0.8019359443280549,
        "distance_wrist_1_joint": 1.2183072470470646,
        "distance_wrist_2_joint": 0.7966236819763424,
        "distance_wrist_3_joint": 0.597171906706413,
        "smoothness": 1.0112586485298487,
        "time": 1.318255099,
        "traj_len": 2.0780256373345507,
        "weighted_distance": 2.7436226584309837
    },
    "planner": "FMT",
    "start": {
        "state": {
            "elbow_joint": 1.9565354010623817,
            "shoulder_lift_joint": -1.4165861575791021,
            "shoulder_pan_joint": -1.6717766225146293,
            "wrist_1_joint": -0.5286633292919765,
            "wrist_2_joint": 1.472756589071564,
            "wrist_3_joint": -3.1238370188695823
        }
    },
    "waypoints": [
        {
            "positions": [
                -1.6717766225146293,
                -1.4165861575791021,
                1.9565354010623817,
                -0.5286633292919765,
                1.472756589071564,
                -3.1238370188695823
            ]
        },
        {
            "positions": [
                -1.6777777214690688,
                -1.457753300586613,
                1.938760120844421,
                -0.4152824132586985,
                1.363250919542156,
                -3.1052240448012096
            ]
        },
        {
            "positions": [
                -1.683778820423508,
                -1.4989204435941241,
                1.92098484062646,
                -0.30190149722542053,
                1.2537452500127482,
                -3.0866110707328365
            ]
        },
        {
            "positions": [
                -1.6897799193779475,
                -1.540087586601635,
                1.9032095604084993,
                -0.18852058119214254,
                1.1442395804833403,
                -3.0679980966644638
            ]
        },
        {
            "positions": [
                -1.7173710669563516,
                -1.6091868788218453,
                1.8902962708148299,
                -0.07247019085538281,
                1.0343088541119887,
                -3.025900061664186
            ]
        },
        {
            "positions": [
                -1.866491437215903,
                -1.61486635573882,
                1.9168885771206374,
                -0.16442103441812334,
                0.982481036835416,
                -2.9879935621930764
            ]
        },
        {
            "positions": [
                -2.0156118074754543,
                -1.6205458326557949,
                1.943480883426445,
                -0.2563718779808639,
                0.9306532195588433,
                -2.950087062721967
            ]
        },
        {
            "positions": [
                -2.164732177735006,
                -1.6262253095727695,
                1.9700731897322528,
                -0.3483227215436044,
                0.8788254022822706,
                -2.9121805632508577
            ]
        },
        {
            "positions": [
                -2.3138525479945575,
                -1.6319047864897442,
                1.9966654960380603,
                -0.44027356510634497,
                0.8269975850056979,
                -2.8742740637797484
            ]
        },
        {
            "positions": [
                -2.462972918254109,
                -1.637584263406719,
                2.023257802343868,
                -0.5322244086690855,
                0.7751697677291252,
                -2.836367564308639
            ]
        },
        {
            "positions": [
                -2.465657830401253,
                -1.5194982886359845,
                2.0203555266752065,
                -0.6078143813682775,
                0.7504105525706493,
                -2.9137931773450063
            ]
        },
        {
            "positions": [
                -2.468342742548397,
                -1.40141231386525,
                2.017453251006545,
                -0.6834043540674696,
                0.7256513374121734,
                -2.9912187903813736
            ]
        },
        {
            "positions": [
                -2.4710276546955403,
                -1.283326339094515,
                2.0145509753378836,
                -0.7589943267666617,
                0.7008921222536975,
                -3.0686444034177414
            ]
        },
        {
            "positions": [
                -2.4737125668426843,
                -1.1652403643237805,
                2.011648699669222,
                -0.8345842994658537,
                0.6761329070952216,
                -3.1460700164541087
            ]
        }
    ]
}