{
    "goal": {
        "global_pose": {
            "orientation": {
                "w": -0.00223480608172531,
                "x": 0.0024358444001904467,
                "y": 0.7094548369677653,
                "z": -0.704743149386269
            },
            "position": {
                "x": 0.6205249238014221,
                "y": -0.6371506643295288,
                "z": 0.19426114857196808
            }
        },
        "name": "move_to_magneteinheit_B"
    },
    "id": "FMT_move_to_magneteinheit_B_84",
    "joint_names": [
        "shoulder_pan_joint",
        "shoulder_lift_joint",
        "elbow_joint",
        "wrist_1_joint",
        "wrist_2_joint",
        "wrist_3_joint"
    ],
    "metrics": {
        "cart_traj_len": 3.4487361146979953,
        "distance_elbow_joint": 4.361215633632163,
        "distance_shoulder_lift_joint": 0.7675615781634559,
        "distance_shoulder_pan_joint": 2.164878825543584,
        "distance_wrist_1_joint": 4.582514349539666,
        "distance_wrist_2_joint": 0.7955880514434457,
        "distance_wrist_3_joint": 3.133123359027717,
        "smoothness": 0.1243791210196701,
        "time": 1.597738419,
        "traj_len": 3.975535410149183,
        "weighted_distance": 5.23920136245865
    },
    "planner": "FMT",
    "start": {
        "state": {
            "elbow_joint": 2.6216224122426386,
            "shoulder_lift_joint": -1.4174107377796124,
            "shoulder_pan_joint": 0.7066234856936794,
            "wrist_1_joint": 1.9546482284002225,
            "wrist_2_joint": -0.7096286983471962,
            "wrist_3_joint": 0.005740856962016249
        }
    },
    "waypoints": [
        {
            "positions": [
                0.7066234856936794,
                -1.4174107377796124,
                2.6216224122426386,
                1.9546482284002225,
                -0.7096286983471962,
                0.005740856962016249
            ]
        },
        {
            "positions": [
                0.7707364606558182,
                -1.4260211686802786,
                2.628081874859494,
                1.9663624033095064,
                -0.6838083532956495,
                0.030138979704544704
            ]
        },
        {
            "positions": [
                0.8769443386079488,
                -1.5070630757174803,
                2.5974695140372464,
                1.9872216636534885,
                -0.5995049761438547,
                0.05327758811205094
            ]
        },
        {
            "positions": [
                0.9831522165600795,
                -1.5881049827546818,
                2.5668571532149986,
                2.00808092399747,
                -0.5152015989920598,
                0.07641619651955717
            ]
        },
        {
            "positions": [
                1.0893600945122102,
                -1.6691468897918833,
                2.536244792392751,
                2.0289401843414523,
                -0.43089822184026494,
                0.09955480492706342
            ]
        },
        {
            "positions": [
                1.1955679724643407,
                -1.750188796829085,
                2.505632431570503,
                2.0497994446854344,
                -0.34659484468847007,
                0.12269341333456965
            ]
        },
        {
            "positions": [
                1.2479062759975856,
                -1.7628995510544456,
                2.3749423724908696,
                1.922581013902719,
                -0.3529784809446207,
                0.1887744296543334
            ]
        },
        {
            "positions": [
                1.3002445795308306,
                -1.7756103052798062,
                2.244252313411236,
                1.795362583120004,
                -0.3593621172007714,
                0.25485544597409715
            ]
        },
        {
            "positions": [
                1.3525828830640756,
                -1.7883210595051668,
                2.1135622543316024,
                1.6681441523372889,
                -0.365745753456922,
                0.32093646229386086
            ]
        },
        {
            "positions": [
                1.4049211865973206,
                -1.8010318137305272,
                1.982872195251969,
                1.5409257215545735,
                -0.3721293897130727,
                0.38701747861362457
            ]
        },
        {
            "positions": [
                1.4572594901305655,
                -1.8137425679558878,
                1.8521821361723356,
                1.4137072907718584,
                -0.3785130259692233,
                0.4530984949333883
            ]
        },
        {
            "positions": [
                1.5095977936638107,
                -1.8264533221812485,
                1.721492077092702,
                1.286488859989143,
                -0.384896662225374,
                0.5191795112531521
            ]
        },
        {
            "positions": [
                1.5619360971970557,
                -1.839164076406609,
                1.5908020180130684,
                1.159270429206428,
                -0.3912802984815246,
                0.5852605275729158
            ]
        },
        {
            "positions": [
                1.6142744007303007,
                -1.8518748306319697,
                1.4601119589334348,
                1.0320519984237126,
                -0.39766393473767525,
                0.6513415438926795
            ]
        },
        {
            "positions": [
                1.6666127042635457,
                -1.8645855848573303,
                1.3294218998538014,
                0.9048335676409975,
                -0.40404757099382593,
                0.7174225602124432
            ]
        },
        {
            "positions": [
                1.7189510077967907,
                -1.877296339082691,
                1.1987318407741678,
                0.7776151368582824,
                -0.41043120724997656,
                0.7835035765322069
            ]
        },
        {
            "positions": [
                1.7712893113300359,
                -1.8900070933080513,
                1.0680417816945342,
                0.6503967060755671,
                -0.41681484350612724,
                0.8495845928519706
            ]
        },
        {
            "positions": [
                1.8236276148632808,
                -1.9027178475334119,
                0.9373517226149006,
                0.5231782752928518,
                -0.42319847976227787,
                0.9156656091717345
            ]
        },
        {
            "positions": [
                1.8759659183965258,
                -1.9154286017587725,
                0.806661663535267,
                0.39595984451013666,
                -0.42958211601842855,
                0.9817466254914982
            ]
        },
        {
            "positions": [
                1.9283042219297708,
                -1.928139355984133,
                0.6759716044556336,
                0.26874141372742133,
                -0.4359657522745792,
                1.047827641811262
            ]
        },
        {
            "positions": [
                1.9806425254630158,
                -1.9408501102094937,
                0.545281545376,
                0.14152298294470622,
                -0.4423493885307298,
                1.1139086581310256
            ]
        },
        {
            "positions": [
                2.0329808289962608,
                -1.9535608644348543,
                0.41459148629636644,
                0.014304552161990891,
                -0.4487330247868805,
                1.1799896744507894
            ]
        },
        {
            "positions": [
                2.0853191325295057,
                -1.966271618660215,
                0.28390142721673284,
                -0.112913878620724,
                -0.4551166610430311,
                1.246070690770553
            ]
        },
        {
            "positions": [
                2.1376574360627507,
                -1.9789823728855755,
                0.15321136813709968,
                -0.24013230940343933,
                -0.4615002972991818,
                1.3121517070903168
            ]
        },
        {
            "positions": [
                2.1899957395959957,
                -1.991693127110936,
                0.022521309057466077,
                -0.36735074018615466,
                -0.4678839335553324,
                1.3782327234100804
            ]
        },
        {
            "positions": [
                2.2423340431292407,
                -2.0044038813362968,
                -0.10816875002216753,
                -0.49456917096886954,
                -0.4742675698114831,
                1.4443137397298442
            ]
        },
        {
            "positions": [
                2.2946723466624857,
                -2.017114635561657,
                -0.23885880910180113,
                -0.6217876017515849,
                -0.48065120606763373,
                1.5103947560496078
            ]
        },
        {
            "positions": [
                2.347010650195731,
                -2.0298253897870175,
                -0.36954886818143473,
                -0.7490060325343002,
                -0.48703484232378436,
                1.5764757723693716
            ]
        },
        {
            "positions": [
                2.3993489537289756,
                -2.042536144012378,
                -0.5002389272610683,
                -0.8762244633170155,
                -0.49341847857993504,
                1.6425567886891355
            ]
        },
        {
            "positions": [
                2.451687257262221,
                -2.0552468982377388,
                -0.6309289863407019,
                -1.0034428940997309,
                -0.4998021148360857,
                1.7086378050088993
            ]
        },
        {
            "positions": [
                2.504025560795466,
                -2.0679576524630994,
                -0.7616190454203355,
                -1.1306613248824462,
                -0.5061857510922363,
                1.7747188213286629
            ]
        },
        {
            "positions": [
                2.556363864328711,
                -2.08066840668846,
                -0.8923091044999691,
                -1.257879755665161,
                -0.512569387348387,
                1.8407998376484267
            ]
        },
        {
            "positions": [
                2.608702167861956,
                -2.0933791609138206,
                -1.0229991635796027,
                -1.3850981864478764,
                -0.5189530236045377,
                1.9068808539681903
            ]
        },
        {
            "positions": [
                2.661040471395201,
                -2.106089915139181,
                -1.153689222659236,
                -1.5123166172305917,
                -0.5253366598606883,
                1.9729618702879541
            ]
        },
        {
            "positions": [
                2.713378774928446,
                -2.118800669364542,
                -1.2843792817388695,
                -1.6395350480133066,
                -0.5317202961168389,
                2.0390428866077177
            ]
        },
        {
            "positions": [
                2.765717078461691,
                -2.1315114235899024,
                -1.415069340818503,
                -1.766753478796022,
                -0.5381039323729896,
                2.1051239029274815
            ]
        },
        {
            "positions": [
                2.7635166370027635,
                -2.137222835526117,
                -1.4647514244151834,
                -1.8645244136506096,
                -0.564574484773565,
                2.1641598483092404
            ]
        },
        {
            "positions": [
                2.7613161955438366,
                -2.1429342474623323,
                -1.5144335080118636,
                -1.962295348505197,
                -0.5910450371741405,
                2.2231957936909996
            ]
        },
        {
            "positions": [
                2.748514913679546,
                -2.152328186504811,
                -1.571828919718313,
                -2.1006261615311077,
                -0.6029419921007123,
                2.374550376490922
            ]
        },
        {
            "positions": [
                2.7357136318152553,
                -2.1617221255472896,
                -1.6292243314247623,
                -2.2389569745570186,
                -0.6148389470272843,
                2.525904959290845
            ]
        },
        {
            "positions": [
                2.7229123499509646,
                -2.1711160645897682,
                -1.6866197431312118,
                -2.3772877875829295,
                -0.6267359019538561,
                2.6772595420907677
            ]
        },
        {
            "positions": [
                2.7050616181909763,
                -2.1764042505803882,
                -1.6908857830689779,
                -2.4204573112056225,
                -0.5924079621581353,
                2.8199961011973986
            ]
        },
        {
            "positions": [
                2.6824967319385475,
                -2.1806882832617283,
                -1.6729915265255604,
                -2.429010499887321,
                -0.533365361796329,
                2.979430158593566
            ]
        },
        {
            "positions": [
                2.6599318456861187,
                -2.1849723159430683,
                -1.655097269982143,
                -2.43756368856902,
                -0.47432276143452257,
                3.1388642159897335
            ]
        }
    ]
}