{
    "goal": {
        "global_pose": {
            "orientation": {
                "w": 0.005598929693374612,
                "x": 0.007748599140229565,
                "y": 0.7110244013736278,
                "z": -0.7031023480610252
            },
            "position": {
                "x": -0.8858502320852131,
                "y": -0.7141253447532654,
                "z": 0.3711530566215515
            }
        },
        "name": "move_to_auspresseinheit_C"
    },
    "id": "FMT_move_to_auspresseinheit_C_136",
    "joint_names": [
        "shoulder_pan_joint",
        "shoulder_lift_joint",
        "elbow_joint",
        "wrist_1_joint",
        "wrist_2_joint",
        "wrist_3_joint"
    ],
    "metrics": {
        "cart_traj_len": 0.4939956432031728,
        "distance_elbow_joint": 0.9963691114135994,
        "distance_shoulder_lift_joint": 0.32309086860034786,
        "distance_shoulder_pan_joint": 0.2566554732584678,
        "distance_wrist_1_joint": 0.6592065277668804,
        "distance_wrist_2_joint": 1.3170990849546163,
        "distance_wrist_3_joint": 0.034092402811886746,
        "smoothness": 4.844609600361787e-16,
        "time": 0.45174503899999996,
        "traj_len": 1.8938092482628228,
        "weighted_distance": 2.3729736381070627
    },
    "planner": "FMT",
    "start": {
        "state": {
            "elbow_joint": 1.7527959577737207,
            "shoulder_lift_joint": -0.9740617694225068,
            "shoulder_pan_joint": -2.967991417825858,
            "wrist_1_joint": -0.759517768980727,
            "wrist_2_joint": 1.7443932448377408,
            "wrist_3_joint": -3.0840537646736568
        }
    },
    "waypoints": [
        {
            "positions": [
                -2.967991417825858,
                -0.9740617694225068,
                1.7527959577737207,
                -0.759517768980727,
                1.7443932448377408,
                -3.0840537646736568
            ]
        },
        {
            "positions": [
                -2.942325870500011,
                -0.941752682562472,
                1.6531590466323607,
                -0.693597116204039,
                1.6126833363422792,
                -3.0874630049548455
            ]
        },
        {
            "positions": [
                -2.9166603231741646,
                -0.9094435957024372,
                1.5535221354910007,
                -0.6276764634273508,
                1.4809734278468176,
                -3.090872245236034
            ]
        },
        {
            "positions": [
                -2.8909947758483177,
                -0.8771345088424024,
                1.4538852243496407,
                -0.5617558106506628,
                1.349263519351356,
                -3.094281485517223
            ]
        },
        {
            "positions": [
                -2.8653292285224707,
                -0.8448254219823677,
                1.3542483132082808,
                -0.4958351578739748,
                1.2175536108558944,
                -3.0976907257984116
            ]
        },
        {
            "positions": [
                -2.8396636811966243,
                -0.8125163351223328,
                1.254611402066921,
                -0.4299145050972868,
                1.0858437023604326,
                -3.1010999660796
            ]
        },
        {
            "positions": [
                -2.8139981338707774,
                -0.780207248262298,
                1.154974490925561,
                -0.3639938523205988,
                0.9541337938649711,
                -3.1045092063607886
            ]
        },
        {
            "positions": [
                -2.7883325865449304,
                -0.7478981614022633,
                1.055337579784201,
                -0.29807319954391076,
                0.8224238853695095,
                -3.1079184466419774
            ]
        },
        {
            "positions": [
                -2.7626670392190835,
                -0.7155890745422284,
                0.9557006686428411,
                -0.23215254676722263,
                0.6907139768740478,
                -3.111327686923166
            ]
        },
        {
            "positions": [
                -2.737001491893237,
                -0.6832799876821937,
                0.8560637575014812,
                -0.16623189399053462,
                0.5590040683785862,
                -3.114736927204355
            ]
        },
        {
            "positions": [
                -2.71133594456739,
                -0.6509709008221589,
                0.7564268463601213,
                -0.10031124121384664,
                0.4272941598831245,
                -3.1181461674855435
            ]
        }
    ]
}