{
    "goal": {
        "global_pose": {
            "orientation": {
                "w": 0.7031023480610252,
                "x": -0.7110244013736278,
                "y": 0.0077485991402295624,
                "z": 0.005598929693374583
            },
            "position": {
                "x": -0.8841497679147869,
                "y": 0.44412534475326537,
                "z": 0.3711530566215515
            }
        },
        "name": "move_to_auspresseinheit_D"
    },
    "id": "FMT_move_to_auspresseinheit_D_64",
    "joint_names": [
        "shoulder_pan_joint",
        "shoulder_lift_joint",
        "elbow_joint",
        "wrist_1_joint",
        "wrist_2_joint",
        "wrist_3_joint"
    ],
    "metrics": {
        "cart_traj_len": 0.3421716950669321,
        "distance_elbow_joint": 0.6294840637954098,
        "distance_shoulder_lift_joint": 0.1170282779360945,
        "distance_shoulder_pan_joint": 0.1335036618907462,
        "distance_wrist_1_joint": 0.5019262055975533,
        "distance_wrist_2_joint": 1.4383120957449262,
        "distance_wrist_3_joint": 0.023773270698522087,
        "smoothness": 1.9737298371844314e-16,
        "time": 0.421349775,
        "traj_len": 1.6864244945040534,
        "weighted_distance": 2.1981383983732177
    },
    "planner": "FMT",
    "start": {
        "state": {
            "elbow_joint": -1.8275523626775212,
            "shoulder_lift_joint": -2.126789852344167,
            "shoulder_pan_joint": -0.03513704404078235,
            "wrist_1_joint": -2.347782403156801,
            "wrist_2_joint": -1.6058999987535132,
            "wrist_3_joint": -3.0880379163319196
        }
    },
    "waypoints": [
        {
            "positions": [
                -0.03513704404078235,
                -2.126789852344167,
                -1.8275523626775212,
                -2.347782403156801,
                -1.6058999987535132,
                -3.0880379163319196
            ]
        },
        {
            "positions": [
                -0.05182500177712562,
                -2.1414183870861785,
                -1.748866854703095,
                -2.410523178856495,
                -1.4261109867853974,
                -3.091009575169235
            ]
        },
        {
            "positions": [
                -0.06851295951346889,
                -2.1560469218281906,
                -1.6701813467286688,
                -2.473263954556189,
                -1.2463219748172816,
                -3.09398123400655
            ]
        },
        {
            "positions": [
                -0.08520091724981217,
                -2.1706754565702022,
                -1.5914958387542426,
                -2.5360047302558835,
                -1.0665329628491658,
                -3.0969528928438654
            ]
        },
        {
            "positions": [
                -0.10188887498615545,
                -2.185303991312214,
                -1.5128103307798164,
                -2.5987455059555775,
                -0.8867439508810501,
                -3.0999245516811804
            ]
        },
        {
            "positions": [
                -0.11857683272249872,
                -2.199932526054226,
                -1.4341248228053902,
                -2.6614862816552716,
                -0.7069549389129343,
                -3.102896210518496
            ]
        },
        {
            "positions": [
                -0.135264790458842,
                -2.2145610607962376,
                -1.3554393148309638,
                -2.724227057354966,
                -0.5271659269448186,
                -3.1058678693558113
            ]
        },
        {
            "positions": [
                -0.15195274819518528,
                -2.2291895955382497,
                -1.2767538068565376,
                -2.78696783305466,
                -0.34737691497670276,
                -3.1088395281931263
            ]
        },
        {
            "positions": [
                -0.16864070593152855,
                -2.2438181302802613,
                -1.1980682988821114,
                -2.849708608754354,
                -0.16758790300858692,
                -3.1118111870304417
            ]
        }
    ]
}