{
    "goal": {
        "global_pose": {
            "orientation": {
                "w": 0.7047431468963623,
                "x": -0.7094548344612122,
                "y": 0.0024358443915843964,
                "z": -0.0022348060738295317
            },
            "position": {
                "x": 0.6094750761985779,
                "y": 0.3671506643295288,
                "z": 0.19426114857196808
            }
        },
        "name": "move_to_magneteinheit_A"
    },
    "id": "FMT_move_to_magneteinheit_A_87",
    "joint_names": [
        "shoulder_pan_joint",
        "shoulder_lift_joint",
        "elbow_joint",
        "wrist_1_joint",
        "wrist_2_joint",
        "wrist_3_joint"
    ],
    "metrics": {
        "cart_traj_len": 3.6041312817432307,
        "distance_elbow_joint": 3.884573399062212,
        "distance_shoulder_lift_joint": 0.1909795199442672,
        "distance_shoulder_pan_joint": 3.628540036657838,
        "distance_wrist_1_joint": 1.2835643005495574,
        "distance_wrist_2_joint": 1.6959740613145717,
        "distance_wrist_3_joint": 2.619632426848525,
        "smoothness": 0.21491856493027028,
        "time": 1.334766682,
        "traj_len": 3.6473639446012194,
        "weighted_distance": 4.639188178974652
    },
    "planner": "FMT",
    "start": {
        "state": {
            "elbow_joint": -1.9196185241190666,
            "shoulder_lift_joint": -1.2443396400964142,
            "shoulder_pan_joint": 2.6996025414629847,
            "wrist_1_joint": -1.5485510000780065,
            "wrist_2_joint": -1.5709468930060704,
            "wrist_3_joint": 0.4420197071253992
        }
    },
    "waypoints": [
        {
            "positions": [
                2.6996025414629847,
                -1.2443396400964142,
                -1.9196185241190666,
                -1.5485510000780065,
                -1.5709468930060704,
                0.4420197071253992
            ]
        },
        {
            "positions": [
                2.580283587297502,
                -1.245901009805327,
                -1.8192196923086024,
                -1.5086534577280224,
                -1.524063171343472,
                0.517819296146256
            ]
        },
        {
            "positions": [
                2.4609646331320194,
                -1.2474623795142397,
                -1.7188208604981379,
                -1.468755915378038,
                -1.4771794496808737,
                0.5936188851671128
            ]
        },
        {
            "positions": [
                2.3416456789665365,
                -1.2490237492231524,
                -1.6184220286876734,
                -1.428858373028054,
                -1.4302957280182755,
                0.6694184741879696
            ]
        },
        {
            "positions": [
                2.222326724801054,
                -1.250585118932065,
                -1.518023196877209,
                -1.3889608306780699,
                -1.3834120063556772,
                0.7452180632088266
            ]
        },
        {
            "positions": [
                2.103007770635571,
                -1.2521464886409777,
                -1.4176243650667448,
                -1.3490632883280858,
                -1.3365282846930788,
                0.8210176522296833
            ]
        },
        {
            "positions": [
                1.9836888164700888,
                -1.2537078583498904,
                -1.3172255332562803,
                -1.3091657459781016,
                -1.2896445630304805,
                0.8968172412505402
            ]
        },
        {
            "positions": [
                1.8643698623046059,
                -1.2552692280588031,
                -1.216826701445816,
                -1.2692682036281173,
                -1.2427608413678821,
                0.9726168302713969
            ]
        },
        {
            "positions": [
                1.7450509081391232,
                -1.2568305977677159,
                -1.1164278696353516,
                -1.2293706612781332,
                -1.1958771197052838,
                1.0484164192922538
            ]
        },
        {
            "positions": [
                1.6257319539736406,
                -1.2583919674766286,
                -1.0160290378248873,
                -1.189473118928149,
                -1.1489933980426856,
                1.1242160083131107
            ]
        },
        {
            "positions": [
                1.506412999808158,
                -1.2599533371855411,
                -0.9156302060144228,
                -1.1495755765781648,
                -1.1021096763800873,
                1.2000155973339675
            ]
        },
        {
            "positions": [
                1.3870940456426752,
                -1.2615147068944539,
                -0.8152313742039585,
                -1.109678034228181,
                -1.055225954717489,
                1.2758151863548242
            ]
        },
        {
            "positions": [
                1.2677750914771926,
                -1.2630760766033666,
                -0.714832542393494,
                -1.0697804918781966,
                -1.0083422330548906,
                1.351614775375681
            ]
        },
        {
            "positions": [
                1.14845613731171,
                -1.2646374463122794,
                -0.6144337105830298,
                -1.0298829495282125,
                -0.9614585113922923,
                1.427414364396538
            ]
        },
        {
            "positions": [
                1.0291371831462273,
                -1.266198816021192,
                -0.5140348787725655,
                -0.9899854071782284,
                -0.9145747897296941,
                1.5032139534173945
            ]
        },
        {
            "positions": [
                0.9098182289807448,
                -1.2677601857301048,
                -0.4136360469621012,
                -0.9500878648282443,
                -0.8676910680670957,
                1.5790135424382514
            ]
        },
        {
            "positions": [
                0.7904992748152617,
                -1.2693215554390176,
                -0.3132372151516365,
                -0.9101903224782599,
                -0.8208073464044974,
                1.6548131314591084
            ]
        },
        {
            "positions": [
                0.6711803206497793,
                -1.27088292514793,
                -0.21283838334117222,
                -0.8702927801282758,
                -0.773923624741899,
                1.7306127204799653
            ]
        },
        {
            "positions": [
                0.5518613664842964,
                -1.2724442948568429,
                -0.11243955153070795,
                -0.8303952377782917,
                -0.7270399030793008,
                1.8064123095008222
            ]
        },
        {
            "positions": [
                0.43254241231881396,
                -1.2740056645657556,
                -0.012040719720243676,
                -0.7904976954283076,
                -0.6801561814167025,
                1.8822118985216787
            ]
        },
        {
            "positions": [
                0.3132234581533311,
                -1.2755670342746683,
                0.08835811209022104,
                -0.7506001530783233,
                -0.6332724597541041,
                1.9580114875425356
            ]
        },
        {
            "positions": [
                0.19390450398784864,
                -1.277128403983581,
                0.18875694390068531,
                -0.7107026107283392,
                -0.5863887380915058,
                2.0338110765633926
            ]
        },
        {
            "positions": [
                0.07458554982236576,
                -1.2786897736924938,
                0.2891557757111496,
                -0.6708050683783551,
                -0.5395050164289075,
                2.1096106655842495
            ]
        },
        {
            "positions": [
                -0.04473340434311668,
                -1.2802511434014063,
                0.38955460752161386,
                -0.630907526028371,
                -0.49262129476630934,
                2.185410254605106
            ]
        },
        {
            "positions": [
                -0.16405235850859956,
                -1.281812513110319,
                0.4899534393320786,
                -0.5910099836783866,
                -0.44573757310371076,
                2.261209843625963
            ]
        },
        {
            "positions": [
                -0.28337131267408244,
                -1.2833738828192318,
                0.5903522711425429,
                -0.5511124413284025,
                -0.39885385144111263,
                2.33700943264682
            ]
        },
        {
            "positions": [
                -0.40269026683956505,
                -1.2849352525281446,
                0.6907511029530072,
                -0.5112148989784184,
                -0.35197012977851433,
                2.4128090216676767
            ]
        },
        {
            "positions": [
                -0.34421835257786637,
                -1.268225929471196,
                0.8323292998408005,
                -0.5385735878061928,
                -0.2989704299910682,
                2.4849027008128153
            ]
        },
        {
            "positions": [
                -0.28574643831616775,
                -1.2515166064142476,
                0.9739074967285937,
                -0.5659322766339672,
                -0.2459707302036221,
                2.556996379957954
            ]
        },
        {
            "positions": [
                -0.22727452405446907,
                -1.234807283357299,
                1.115485693616387,
                -0.5932909654617415,
                -0.19297103041617594,
                2.629090059103093
            ]
        },
        {
            "positions": [
                -0.16880260979277042,
                -1.2180979603003503,
                1.2570638905041802,
                -0.6206496542895159,
                -0.13997133062872982,
                2.7011837382482313
            ]
        },
        {
            "positions": [
                -0.11033069553107172,
                -1.201388637243402,
                1.3986420873919736,
                -0.6480083431172903,
                -0.08697163084128368,
                2.77327741739337
            ]
        },
        {
            "positions": [
                -0.0518587812693731,
                -1.1846793141864533,
                1.5402202842797668,
                -0.6753670319450646,
                -0.033971931053837556,
                2.8453710965385084
            ]
        },
        {
            "positions": [
                0.006613132992325577,
                -1.1679699911295047,
                1.6817984811675601,
                -0.702725720772839,
                0.01902776873360862,
                2.917464775683647
            ]
        },
        {
            "positions": [
                0.0650850472540242,
                -1.1512606680725563,
                1.8233766780553533,
                -0.7300844096006134,
                0.07202746852105468,
                2.989558454828786
            ]
        },
        {
            "positions": [
                0.1235569615157229,
                -1.1345513450156077,
                1.9649548749431465,
                -0.7574430984283878,
                0.12502716830850089,
                3.0616521339739244
            ]
        }
    ]
}