{
    "goal": {
        "global_pose": {
            "orientation": {
                "w": 0.7047431493862688,
                "x": -0.7094548369677653,
                "y": 0.0024358444001904,
                "z": -0.0022348060817251984
            },
            "position": {
                "x": -0.39052492380142206,
                "y": 0.3671506643295288,
                "z": 0.19426114857196808
            }
        },
        "name": "move_to_magneteinheit_D"
    },
    "id": "FMT_move_to_magneteinheit_D_110",
    "joint_names": [
        "shoulder_pan_joint",
        "shoulder_lift_joint",
        "elbow_joint",
        "wrist_1_joint",
        "wrist_2_joint",
        "wrist_3_joint"
    ],
    "metrics": {
        "cart_traj_len": 5.4240428165273435,
        "distance_elbow_joint": 3.9424614801131876,
        "distance_shoulder_lift_joint": 2.4554581648527796,
        "distance_shoulder_pan_joint": 2.9333196964452632,
        "distance_wrist_1_joint": 2.9766359561509796,
        "distance_wrist_2_joint": 1.9358386679016542,
        "distance_wrist_3_joint": 6.893166389659502,
        "smoothness": 0.8676604728620612,
        "time": 1.480445965,
        "traj_len": 4.597486308312767,
        "weighted_distance": 6.311551929477804
    },
    "planner": "FMT",
    "start": {
        "state": {
            "elbow_joint": 0.749534889911806,
            "shoulder_lift_joint": -0.6476975780787326,
            "shoulder_pan_joint": -2.711696901376241,
            "wrist_1_joint": -0.07506478083263063,
            "wrist_2_joint": 0.43296659715538205,
            "wrist_3_joint": -3.14703540197715
        }
    },
    "waypoints": [
        {
            "positions": [
                -2.711696901376241,
                -0.6476975780787326,
                0.749534889911806,
                -0.07506478083263063,
                0.43296659715538205,
                -3.14703540197715
            ]
        },
        {
            "positions": [
                -2.695438202936997,
                -0.6524328396412986,
                0.6428190963291911,
                -0.13924815496143536,
                0.4610967759734259,
                -3.001999041965801
            ]
        },
        {
            "positions": [
                -2.679179504497753,
                -0.6571681012038646,
                0.5361033027465762,
                -0.2034315290902401,
                0.4892269547914698,
                -2.8569626819544527
            ]
        },
        {
            "positions": [
                -2.6403820853802302,
                -0.7611642624245325,
                0.4659287086316513,
                -0.31038331446450795,
                0.5203719750881384,
                -2.900807165991139
            ]
        },
        {
            "positions": [
                -2.6015846662627076,
                -0.8651604236452004,
                0.3957541145167264,
                -0.41733509983877576,
                0.551516995384807,
                -2.9446516500278257
            ]
        },
        {
            "positions": [
                -2.562787247145185,
                -0.9691565848658683,
                0.32557952040180144,
                -0.5242868852130436,
                0.5826620156814756,
                -2.988496134064512
            ]
        },
        {
            "positions": [
                -2.523989828027662,
                -1.0731527460865362,
                0.2554049262868765,
                -0.6312386705873114,
                0.6138070359781442,
                -3.0323406181011987
            ]
        },
        {
            "positions": [
                -2.485192408910139,
                -1.1771489073072041,
                0.18523033217195156,
                -0.7381904559615793,
                0.6449520562748128,
                -3.076185102137885
            ]
        },
        {
            "positions": [
                -2.4463949897926165,
                -1.281145068527872,
                0.11505573805702662,
                -0.8451422413358471,
                0.6760970765714813,
                -3.1200295861745717
            ]
        },
        {
            "positions": [
                -2.407597570675094,
                -1.38514122974854,
                0.04488114394210169,
                -0.952094026710115,
                0.70724209686815,
                -3.163874070211258
            ]
        },
        {
            "positions": [
                -2.414141638633562,
                -1.3001584169012272,
                -0.0013980544892782387,
                -0.9222838116916359,
                0.7063739310812565,
                -2.9744813210168597
            ]
        },
        {
            "positions": [
                -2.42068570659203,
                -1.2151756040539148,
                -0.047677252920658164,
                -0.8924735966731567,
                0.7055057652943629,
                -2.7850885718224614
            ]
        },
        {
            "positions": [
                -2.4272297745504985,
                -1.130192791206602,
                -0.09395645135203809,
                -0.8626633816546776,
                0.7046375995074694,
                -2.5956958226280626
            ]
        },
        {
            "positions": [
                -2.4337738425089666,
                -1.0452099783592896,
                -0.14023564978341801,
                -0.8328531666361985,
                0.7037694337205759,
                -2.4063030734336643
            ]
        },
        {
            "positions": [
                -2.4403179104674346,
                -0.960227165511977,
                -0.18651484821479794,
                -0.8030429516177193,
                0.7029012679336823,
                -2.216910324239266
            ]
        },
        {
            "positions": [
                -2.446861978425903,
                -0.8752443526646644,
                -0.23279404664617787,
                -0.7732327365992402,
                0.7020331021467888,
                -2.0275175750448677
            ]
        },
        {
            "positions": [
                -2.453406046384371,
                -0.7902615398173518,
                -0.27907324507755776,
                -0.743422521580761,
                0.7011649363598953,
                -1.8381248258504692
            ]
        },
        {
            "positions": [
                -2.4599501143428393,
                -0.7052787269700392,
                -0.3253524435089377,
                -0.7136123065622819,
                0.7002967705730018,
                -1.648732076656071
            ]
        },
        {
            "positions": [
                -2.3741846112525593,
                -0.7205398245947636,
                -0.4180357180912414,
                -0.7574668079210656,
                0.6802146039523629,
                -1.524801547274405
            ]
        },
        {
            "positions": [
                -2.288419108162279,
                -0.7358009222194881,
                -0.5107189926735451,
                -0.8013213092798492,
                0.6601324373317239,
                -1.400871017892739
            ]
        },
        {
            "positions": [
                -2.202653605071999,
                -0.7510620198442125,
                -0.6034022672558488,
                -0.8451758106386329,
                0.640050270711085,
                -1.2769404885110731
            ]
        },
        {
            "positions": [
                -2.1168881019817185,
                -0.766323117468937,
                -0.6960855418381525,
                -0.8890303119974167,
                0.6199681040904461,
                -1.1530099591294072
            ]
        },
        {
            "positions": [
                -2.0311225988914385,
                -0.7815842150936614,
                -0.7887688164204563,
                -0.9328848133562003,
                0.5998859374698071,
                -1.0290794297477412
            ]
        },
        {
            "positions": [
                -1.9453570958011586,
                -0.7968453127183859,
                -0.8814520910027599,
                -0.976739314714984,
                0.5798037708491682,
                -0.9051489003660753
            ]
        },
        {
            "positions": [
                -1.8595915927108781,
                -0.8121064103431104,
                -0.9741353655850638,
                -1.0205938160737678,
                0.5597216042285293,
                -0.7812183709844093
            ]
        },
        {
            "positions": [
                -1.7738260896205982,
                -0.8273675079678348,
                -1.0668186401673674,
                -1.0644483174325514,
                0.5396394376078903,
                -0.6572878416027433
            ]
        },
        {
            "positions": [
                -1.688060586530318,
                -0.8426286055925591,
                -1.159501914749671,
                -1.108302818791335,
                0.5195572709872515,
                -0.5333573122210775
            ]
        },
        {
            "positions": [
                -1.6022950834400378,
                -0.8578897032172836,
                -1.2521851893319749,
                -1.1521573201501187,
                0.4994751043666126,
                -0.40942678283941136
            ]
        },
        {
            "positions": [
                -1.5165295803497576,
                -0.873150800842008,
                -1.3448684639142785,
                -1.1960118215089024,
                0.47939293774597364,
                -0.28549625345774565
            ]
        },
        {
            "positions": [
                -1.4307640772594776,
                -0.8884118984667325,
                -1.4375517384965821,
                -1.239866322867686,
                0.4593107711253347,
                -0.16156572407607972
            ]
        },
        {
            "positions": [
                -1.3449985741691972,
                -0.9036729960914569,
                -1.5302350130788858,
                -1.2837208242264697,
                0.4392286045046958,
                -0.037635194694413565
            ]
        },
        {
            "positions": [
                -1.259233071078917,
                -0.9189340937161814,
                -1.6229182876611896,
                -1.3275753255852534,
                0.41914643788405687,
                0.08629533468725237
            ]
        },
        {
            "positions": [
                -1.173467567988637,
                -0.9341951913409058,
                -1.7156015622434932,
                -1.371429826944037,
                0.399064271263418,
                0.21022586406891808
            ]
        },
        {
            "positions": [
                -1.0877020648983569,
                -0.9494562889656303,
                -1.8082848368257969,
                -1.4152843283028207,
                0.37898210464277904,
                0.33415639345058423
            ]
        },
        {
            "positions": [
                -1.0019365618080767,
                -0.9647173865903547,
                -1.9009681114081007,
                -1.4591388296616046,
                0.3588999380221401,
                0.45808692283225017
            ]
        },
        {
            "positions": [
                -0.9161710587177967,
                -0.9799784842150792,
                -1.9936513859904041,
                -1.502993331020388,
                0.3388177714015012,
                0.5820174522139159
            ]
        },
        {
            "positions": [
                -0.8304055556275165,
                -0.9952395818398035,
                -2.086334660572708,
                -1.546847832379172,
                0.31873560478086227,
                0.705947981595582
            ]
        },
        {
            "positions": [
                -0.7446400525372363,
                -1.0105006794645282,
                -2.179017935155012,
                -1.5907023337379556,
                0.29865343816022333,
                0.8298785109772482
            ]
        },
        {
            "positions": [
                -0.6588745494469563,
                -1.0257617770892524,
                -2.2717012097373153,
                -1.6345568350967392,
                0.27857127153958444,
                0.9538090403589139
            ]
        },
        {
            "positions": [
                -0.5731090463566759,
                -1.041022874713977,
                -2.3643844843196193,
                -1.6784113364555229,
                0.2584891049189455,
                1.0777395697405796
            ]
        },
        {
            "positions": [
                -0.48734354326639573,
                -1.0562839723387012,
                -2.457067758901923,
                -1.7222658378143065,
                0.23840693829830656,
                1.2016700991222458
            ]
        },
        {
            "positions": [
                -0.401578040176116,
                -1.0715450699634257,
                -2.5497510334842266,
                -1.7661203391730902,
                0.21832477167766767,
                1.3256006285039115
            ]
        },
        {
            "positions": [
                -0.31581253708583557,
                -1.0868061675881502,
                -2.6424343080665302,
                -1.8099748405318739,
                0.19824260505702873,
                1.4495311578855778
            ]
        },
        {
            "positions": [
                -0.2595298331531938,
                -1.0995762239722162,
                -2.5598177986230093,
                -1.768816196653531,
                0.27495163443604825,
                1.5526301978255574
            ]
        },
        {
            "positions": [
                -0.20324712922055205,
                -1.1123462803562825,
                -2.477201289179488,
                -1.727657552775188,
                0.3516606638150678,
                1.655729237765537
            ]
        },
        {
            "positions": [
                -0.1469644252879103,
                -1.1251163367403485,
                -2.394584779735967,
                -1.686498908896845,
                0.42836969319408724,
                1.7588282777055166
            ]
        },
        {
            "positions": [
                -0.0906817213552685,
                -1.1378863931244148,
                -2.3119682702924456,
                -1.645340265018502,
                0.5050787225731068,
                1.8619273176454962
            ]
        },
        {
            "positions": [
                -0.03439901742262674,
                -1.1506564495084808,
                -2.2293517608489246,
                -1.6041816211401592,
                0.5817877519521263,
                1.9650263575854758
            ]
        },
        {
            "positions": [
                -0.042674420152857495,
                -1.21382428882482,
                -2.2462380520976595,
                -1.6564375087836534,
                0.4954067101904024,
                2.0918241655590384
            ]
        },
        {
            "positions": [
                -0.05094982288308824,
                -1.2769921281411591,
                -2.2631243433463943,
                -1.7086933964271478,
                0.40902566842867843,
                2.2186219735326005
            ]
        },
        {
            "positions": [
                -0.05922522561331899,
                -1.3401599674574984,
                -2.280010634595129,
                -1.760949284070642,
                0.3226446266669545,
                2.345419781506163
            ]
        },
        {
            "positions": [
                -0.06750062834354974,
                -1.4033278067738375,
                -2.2968969258438645,
                -1.8132051717141362,
                0.23626358490523058,
                2.472217589479725
            ]
        },
        {
            "positions": [
                -0.0757760310737805,
                -1.466495646090177,
                -2.3137832170925994,
                -1.8654610593576306,
                0.14988254314350657,
                2.5990153974532877
            ]
        },
        {
            "positions": [
                -0.08405143380401124,
                -1.529663485406516,
                -2.3306695083413342,
                -1.9177169470011248,
                0.06350150138178269,
                2.7258132054268502
            ]
        },
        {
            "positions": [
                -0.1094675109977044,
                -1.5831052983985145,
                -2.3396925051975432,
                -1.9790754247269724,
                0.0008184316537018371,
                2.8274369568623228
            ]
        },
        {
            "positions": [
                -0.13488358819139756,
                -1.636547111390513,
                -2.3487155020537527,
                -2.04043390245282,
                -0.061864638074379016,
                2.9290607082977953
            ]
        },
        {
            "positions": [
                -0.16029966538509072,
                -1.6899889243825112,
                -2.3577384989099617,
                -2.1017923801786678,
                -0.12454770780245987,
                3.030684459733268
            ]
        },
        {
            "positions": [
                -0.18571574257878387,
                -1.7434307373745097,
                -2.3667614957661707,
                -2.1631508579045153,
                -0.18723077753054074,
                3.1323082111687404
            ]
        }
    ]
}