{
    "goal": {
        "global_pose": {
            "orientation": {
                "w": 0.7047431493862688,
                "x": -0.7094548369677653,
                "y": 0.0024358444001904,
                "z": -0.0022348060817251984
            },
            "position": {
                "x": -0.39052492380142206,
                "y": 0.3671506643295288,
                "z": 0.19426114857196808
            }
        },
        "name": "move_to_magneteinheit_D"
    },
    "id": "FMT_move_to_magneteinheit_D_93",
    "joint_names": [
        "shoulder_pan_joint",
        "shoulder_lift_joint",
        "elbow_joint",
        "wrist_1_joint",
        "wrist_2_joint",
        "wrist_3_joint"
    ],
    "metrics": {
        "cart_traj_len": 3.9486570731728214,
        "distance_elbow_joint": 3.1385314203018067,
        "distance_shoulder_lift_joint": 1.6296544964178319,
        "distance_shoulder_pan_joint": 3.0449690081895024,
        "distance_wrist_1_joint": 1.5726431368136362,
        "distance_wrist_2_joint": 1.9454416470117872,
        "distance_wrist_3_joint": 3.9595170809904863,
        "smoothness": 0.2493744713753338,
        "time": 1.501409627,
        "traj_len": 3.9103397281726116,
        "weighted_distance": 5.169900940591749
    },
    "planner": "FMT",
    "start": {
        "state": {
            "elbow_joint": 0.749534889911806,
            "shoulder_lift_joint": -0.6476975780787326,
            "shoulder_pan_joint": -2.711696901376241,
            "wrist_1_joint": -0.07506478083263063,
            "wrist_2_joint": 0.43296659715538205,
            "wrist_3_joint": -3.14703540197715
        }
    },
    "waypoints": [
        {
            "positions": [
                -2.711696901376241,
                -0.6476975780787326,
                0.749534889911806,
                -0.07506478083263063,
                0.43296659715538205,
                -3.14703540197715
            ]
        },
        {
            "positions": [
                -2.7490560160797757,
                -0.7239347450825877,
                0.7105778244092151,
                -0.08436024786792196,
                0.4091871115108885,
                -2.953133662492579
            ]
        },
        {
            "positions": [
                -2.7864151307833103,
                -0.8001719120864429,
                0.6716207589066243,
                -0.09365571490321328,
                0.38540762586639493,
                -2.7592319230080076
            ]
        },
        {
            "positions": [
                -2.6957221308211405,
                -0.8303112539857158,
                0.5923161262739283,
                -0.05750043820123932,
                0.34900833904296746,
                -2.648922043999364
            ]
        },
        {
            "positions": [
                -2.6050291308589704,
                -0.8604505958849886,
                0.5130114936412322,
                -0.021345161499265353,
                0.31260905221954,
                -2.53861216499072
            ]
        },
        {
            "positions": [
                -2.5143361308968006,
                -0.8905899377842614,
                0.43370686100853606,
                0.014810115202708626,
                0.2762097653961125,
                -2.428302285982076
            ]
        },
        {
            "positions": [
                -2.423643130934631,
                -0.9207292796835344,
                0.35440222837584,
                0.05096539190468258,
                0.23981047857268503,
                -2.3179924069734326
            ]
        },
        {
            "positions": [
                -2.3329501309724607,
                -0.9508686215828073,
                0.2750975957431439,
                0.08712066860665657,
                0.20341119174925754,
                -2.2076825279647885
            ]
        },
        {
            "positions": [
                -2.242257131010291,
                -0.9810079634820801,
                0.19579296311044786,
                0.12327594530863054,
                0.16701190492583007,
                -2.097372648956145
            ]
        },
        {
            "positions": [
                -2.1515641310481213,
                -1.011147305381353,
                0.11648833047775176,
                0.1594312220106045,
                0.1306126181024026,
                -1.9870627699475012
            ]
        },
        {
            "positions": [
                -2.060871131085951,
                -1.041286647280626,
                0.03718369784505571,
                0.19558649871257844,
                0.09421333127897513,
                -1.8767528909388576
            ]
        },
        {
            "positions": [
                -1.9701781311237814,
                -1.0714259891798987,
                -0.04212093478764045,
                0.23174177541455243,
                0.05781404445554761,
                -1.7664430119302137
            ]
        },
        {
            "positions": [
                -1.8794851311616114,
                -1.1015653310791715,
                -0.1214255674203365,
                0.2678970521165264,
                0.02141475763212014,
                -1.6561331329215698
            ]
        },
        {
            "positions": [
                -1.7887921311994415,
                -1.1317046729784443,
                -0.20073020005303255,
                0.30405232881850036,
                -0.014984529191307328,
                -1.5458232539129262
            ]
        },
        {
            "positions": [
                -1.6980991312372717,
                -1.1618440148777172,
                -0.2800348326857286,
                0.34020760552047435,
                -0.051383816014734796,
                -1.4355133749042823
            ]
        },
        {
            "positions": [
                -1.6074061312751018,
                -1.1919833567769902,
                -0.35933946531842476,
                0.3763628822224483,
                -0.08778310283816226,
                -1.3252034958956387
            ]
        },
        {
            "positions": [
                -1.5167131313129318,
                -1.222122698676263,
                -0.4386440979511208,
                0.4125181589244223,
                -0.12418238966158973,
                -1.2148936168869948
            ]
        },
        {
            "positions": [
                -1.4260201313507619,
                -1.2522620405755358,
                -0.5179487305838169,
                0.4486734356263962,
                -0.16058167648501726,
                -1.104583737878351
            ]
        },
        {
            "positions": [
                -1.3353271313885922,
                -1.2824013824748088,
                -0.5972533632165129,
                0.48482871232837016,
                -0.19698096330844467,
                -0.9942738588697073
            ]
        },
        {
            "positions": [
                -1.2446341314264224,
                -1.3125407243740814,
                -0.676557995849209,
                0.520983989030344,
                -0.23338025013187208,
                -0.8839639798610637
            ]
        },
        {
            "positions": [
                -1.1539411314642523,
                -1.3426800662733545,
                -0.7558626284819052,
                0.5571392657323182,
                -0.2697795369552997,
                -0.7736541008524198
            ]
        },
        {
            "positions": [
                -1.0632481315020825,
                -1.3728194081726275,
                -0.835167261114601,
                0.5932945424342921,
                -0.3061788237787271,
                -0.6633442218437762
            ]
        },
        {
            "positions": [
                -0.9725551315399126,
                -1.4029587500719003,
                -0.9144718937472973,
                0.6294498191362661,
                -0.34257811060215465,
                -0.5530343428351321
            ]
        },
        {
            "positions": [
                -0.8818621315777426,
                -1.433098091971173,
                -0.9937765263799934,
                0.66560509583824,
                -0.37897739742558206,
                -0.44272446382648845
            ]
        },
        {
            "positions": [
                -0.7911691316155729,
                -1.463237433870446,
                -1.0730811590126894,
                0.701760372540214,
                -0.4153766842490096,
                -0.3324145848178448
            ]
        },
        {
            "positions": [
                -0.700476131653403,
                -1.4933767757697187,
                -1.1523857916453855,
                0.7379156492421881,
                -0.4517759710724371,
                -0.22210470580920072
            ]
        },
        {
            "positions": [
                -0.6097831316912332,
                -1.5235161176689918,
                -1.2316904242780815,
                0.774070925944162,
                -0.4881752578958645,
                -0.11179482680055708
            ]
        },
        {
            "positions": [
                -0.5190901317290635,
                -1.5536554595682646,
                -1.3109950569107776,
                0.8102262026461358,
                -0.524574544719292,
                -0.001484947791913438
            ]
        },
        {
            "positions": [
                -0.4283971317668933,
                -1.5837948014675374,
                -1.3902996895434738,
                0.8463814793481099,
                -0.5609738315427195,
                0.1088249312167302
            ]
        },
        {
            "positions": [
                -0.3377041318047236,
                -1.6139341433668104,
                -1.4696043221761699,
                0.8825367560500839,
                -0.597373118366147,
                0.21913481022537384
            ]
        },
        {
            "positions": [
                -0.2470111318425534,
                -1.6440734852660832,
                -1.548908954808866,
                0.9186920327520578,
                -0.6337724051895743,
                0.32944468923401793
            ]
        },
        {
            "positions": [
                -0.15631813188038357,
                -1.674212827165356,
                -1.6282135874415617,
                0.9548473094540317,
                -0.670171692013002,
                0.4397545682426618
            ]
        },
        {
            "positions": [
                -0.1043786260914389,
                -1.7121202074363817,
                -1.7279042500816377,
                0.9977959898046497,
                -0.628186800552115,
                0.44024782278782093
            ]
        },
        {
            "positions": [
                -0.05243912030249423,
                -1.7500275877074076,
                -1.827594912721714,
                1.0407446701552676,
                -0.5862019090912279,
                0.44074107733298
            ]
        },
        {
            "positions": [
                -0.000499614513549533,
                -1.7879349679784333,
                -1.92728557536179,
                1.0836933505058854,
                -0.5442170176303409,
                0.44123433187813915
            ]
        },
        {
            "positions": [
                -0.02683322344393133,
                -1.8578516974810235,
                -1.9932442832229629,
                1.1375080844107361,
                -0.4418814914216636,
                0.38819899657311085
            ]
        },
        {
            "positions": [
                -0.053166832374313126,
                -1.9277684269836137,
                -2.0592029910841356,
                1.1913228183155868,
                -0.3395459652129863,
                0.33516366126808256
            ]
        },
        {
            "positions": [
                -0.07950044130469493,
                -1.9976851564862037,
                -2.1251616989453086,
                1.2451375522204375,
                -0.23721043900430894,
                0.28212832596305426
            ]
        },
        {
            "positions": [
                -0.10583405023507672,
                -2.067601885988794,
                -2.1911204068064816,
                1.298952286125288,
                -0.13487491279563163,
                0.22909299065802594
            ]
        },
        {
            "positions": [
                -0.13216765916545856,
                -2.137518615491384,
                -2.2570791146676545,
                1.3527670200301387,
                -0.03253938658695421,
                0.1760576553529976
            ]
        },
        {
            "positions": [
                -0.15850126809584034,
                -2.207435344993974,
                -2.3230378225288275,
                1.4065817539349894,
                0.06979613962172304,
                0.12302232004796931
            ]
        },
        {
            "positions": [
                -0.18483487702622214,
                -2.2773520744965645,
                -2.3889965303900005,
                1.46039648783984,
                0.17213166583040038,
                0.06998698474294104
            ]
        }
    ]
}