{
    "goal": {
        "global_pose": {
            "orientation": {
                "w": 0.5084816262002911,
                "x": -0.4908360881923452,
                "y": 0.5182115481033761,
                "z": -0.48164630358495003
            },
            "position": {
                "x": 0.5540239810943604,
                "y": -0.46912469901144505,
                "z": 0.16403168439865112
            }
        },
        "name": "move_to_storage_B"
    },
    "id": "FMT_move_to_storage_B_20",
    "joint_names": [
        "shoulder_pan_joint",
        "shoulder_lift_joint",
        "elbow_joint",
        "wrist_1_joint",
        "wrist_2_joint",
        "wrist_3_joint"
    ],
    "metrics": {
        "cart_traj_len": 0.6890835296232831,
        "distance_elbow_joint": 0.35120813280382324,
        "distance_shoulder_lift_joint": 0.45889705974801664,
        "distance_shoulder_pan_joint": 0.3678822899927735,
        "distance_wrist_1_joint": 2.9905729557667473,
        "distance_wrist_2_joint": 2.7017791972689325,
        "distance_wrist_3_joint": 3.129385951636274,
        "smoothness": 0.019454606240344903,
        "time": 1.264412672,
        "traj_len": 3.162234271399981,
        "weighted_distance": 4.6851733845744485
    },
    "planner": "FMT",
    "start": {
        "state": {
            "elbow_joint": 1.664937868594044,
            "shoulder_lift_joint": -0.661644460510453,
            "shoulder_pan_joint": -0.9139846352900073,
            "wrist_1_joint": 2.146753192139373,
            "wrist_2_joint": -2.2341966793290973,
            "wrist_3_joint": 0.005466555786416001
        }
    },
    "waypoints": [
        {
            "positions": [
                -0.9139846352900073,
                -0.661644460510453,
                1.664937868594044,
                2.146753192139373,
                -2.2341966793290973,
                0.005466555786416001
            ]
        },
        {
            "positions": [
                -0.902740954909798,
                -0.6703768928750938,
                1.6784409983439792,
                2.06674329995945,
                -2.160189003911225,
                -0.16507066024209766
            ]
        },
        {
            "positions": [
                -0.8964280027363127,
                -0.6825738459912445,
                1.6929358599666813,
                1.9697874203718857,
                -2.071186540968935,
                -0.3323591275006951
            ]
        },
        {
            "positions": [
                -0.8901150505628275,
                -0.694770799107395,
                1.7074307215893831,
                1.8728315407843215,
                -1.9821840780266449,
                -0.49964759475929243
            ]
        },
        {
            "positions": [
                -0.8838020983893422,
                -0.7069677522235457,
                1.7219255832120852,
                1.7758756611967572,
                -1.8931816150843548,
                -0.6669360620178899
            ]
        },
        {
            "positions": [
                -0.8774891462158569,
                -0.7191647053396962,
                1.736420444834787,
                1.678919781609193,
                -1.8041791521420645,
                -0.8342245292764872
            ]
        },
        {
            "positions": [
                -0.8711761940423717,
                -0.7313616584558469,
                1.7509153064574892,
                1.5819639020216287,
                -1.7151766891997744,
                -1.0015129965350846
            ]
        },
        {
            "positions": [
                -0.8648632418688864,
                -0.7435586115719974,
                1.765410168080191,
                1.4850080224340645,
                -1.6261742262574843,
                -1.168801463793682
            ]
        },
        {
            "positions": [
                -0.8585502896954011,
                -0.7557555646881481,
                1.779905029702893,
                1.3880521428465005,
                -1.5371717633151942,
                -1.3360899310522794
            ]
        },
        {
            "positions": [
                -0.8522373375219159,
                -0.7679525178042986,
                1.794399891325595,
                1.291096263258936,
                -1.448169300372904,
                -1.5033783983108768
            ]
        },
        {
            "positions": [
                -0.8459243853484306,
                -0.7801494709204493,
                1.808894752948297,
                1.194140383671372,
                -1.3591668374306138,
                -1.670666865569474
            ]
        },
        {
            "positions": [
                -0.8396114331749454,
                -0.7923464240365998,
                1.823389614570999,
                1.0971845040838075,
                -1.2701643744883238,
                -1.8379553328280718
            ]
        },
        {
            "positions": [
                -0.8332984810014601,
                -0.8045433771527505,
                1.837884476193701,
                1.0002286244962435,
                -1.1811619115460337,
                -2.005243800086669
            ]
        },
        {
            "positions": [
                -0.8269855288279748,
                -0.8167403302689011,
                1.8523793378164028,
                0.9032727449086793,
                -1.0921594486037436,
                -2.1725322673452663
            ]
        },
        {
            "positions": [
                -0.8206725766544896,
                -0.8289372833850517,
                1.866874199439105,
                0.806316865321115,
                -1.0031569856614535,
                -2.3398207346038635
            ]
        },
        {
            "positions": [
                -0.8435534292675942,
                -0.8532376364578365,
                1.8793135162690018,
                0.6688054795754076,
                -0.8805953603613461,
                -2.4051622897076963
            ]
        },
        {
            "positions": [
                -0.8664342818806988,
                -0.8775379895306213,
                1.8917528330988986,
                0.5312940938297002,
                -0.7580337350612388,
                -2.470503844811529
            ]
        },
        {
            "positions": [
                -0.8893151344938035,
                -0.9018383426034062,
                1.9041921499287955,
                0.3937827080839926,
                -0.6354721097611316,
                -2.5358453999153623
            ]
        },
        {
            "positions": [
                -0.9121959871069082,
                -0.926138695676191,
                1.9166314667586923,
                0.2562713223382852,
                -0.5129104844610242,
                -2.601186955019195
            ]
        },
        {
            "positions": [
                -0.9350768397200128,
                -0.9504390487489758,
                1.9290707835885892,
                0.11875993659257766,
                -0.3903488591609168,
                -2.666528510123028
            ]
        },
        {
            "positions": [
                -0.9579576923331174,
                -0.9747394018217607,
                1.941510100418486,
                -0.018751449153129762,
                -0.2677872338608095,
                -2.7318700652268606
            ]
        },
        {
            "positions": [
                -0.9808385449462221,
                -0.9990397548945456,
                1.953949417248383,
                -0.1562628348988373,
                -0.1452256085607021,
                -2.7972116203306934
            ]
        },
        {
            "positions": [
                -1.0037193975593268,
                -1.0233401079673303,
                1.9663887340782797,
                -0.2937742206445446,
                -0.022663983260594822,
                -2.862553175434526
            ]
        },
        {
            "positions": [
                -1.0266002501724314,
                -1.047640461040115,
                1.9788280509081766,
                -0.43128560639025215,
                0.09989764203951257,
                -2.927894730538359
            ]
        },
        {
            "positions": [
                -1.049481102785536,
                -1.0719408141128999,
                1.9912673677380734,
                -0.5687969921359597,
                0.22245926733961996,
                -2.993236285642192
            ]
        },
        {
            "positions": [
                -1.0723619553986405,
                -1.0962411671856849,
                2.0037066845679705,
                -0.706308377881667,
                0.34502089263972713,
                -3.058577840746025
            ]
        },
        {
            "positions": [
                -1.0952428080117453,
                -1.1205415202584696,
                2.016146001397867,
                -0.8438197636273747,
                0.46758251793983446,
                -3.1239193958498577
            ]
        }
    ]
}