{
    "goal": {
        "global_pose": {
            "orientation": {
                "w": 0.7047431493862688,
                "x": -0.7094548369677653,
                "y": 0.0024358444001904,
                "z": -0.0022348060817251984
            },
            "position": {
                "x": -0.39052492380142206,
                "y": 0.3671506643295288,
                "z": 0.19426114857196808
            }
        },
        "name": "move_to_magneteinheit_D"
    },
    "id": "FMT_move_to_magneteinheit_D_5",
    "joint_names": [
        "shoulder_pan_joint",
        "shoulder_lift_joint",
        "elbow_joint",
        "wrist_1_joint",
        "wrist_2_joint",
        "wrist_3_joint"
    ],
    "metrics": {
        "cart_traj_len": 3.934789476183831,
        "distance_elbow_joint": 3.2359111813836523,
        "distance_shoulder_lift_joint": 1.3366051302623099,
        "distance_shoulder_pan_joint": 2.965350468813946,
        "distance_wrist_1_joint": 2.093836257186136,
        "distance_wrist_2_joint": 2.2891488587393733,
        "distance_wrist_3_joint": 6.315429531915662,
        "smoothness": 0.14096387490590626,
        "time": 1.607841675,
        "traj_len": 4.270395933435339,
        "weighted_distance": 5.937181621616261
    },
    "planner": "FMT",
    "start": {
        "state": {
            "elbow_joint": 0.749534889911806,
            "shoulder_lift_joint": -0.6476975780787326,
            "shoulder_pan_joint": -2.711696901376241,
            "wrist_1_joint": -0.07506478083263063,
            "wrist_2_joint": 0.43296659715538205,
            "wrist_3_joint": -3.14703540197715
        }
    },
    "waypoints": [
        {
            "positions": [
                -2.711696901376241,
                -0.6476975780787326,
                0.749534889911806,
                -0.07506478083263063,
                0.43296659715538205,
                -3.14703540197715
            ]
        },
        {
            "positions": [
                -2.7335443819897915,
                -0.6266649443554605,
                0.7258776683449247,
                -0.14168411039973527,
                0.4787258685000928,
                -2.935428253991074
            ]
        },
        {
            "positions": [
                -2.755391862603342,
                -0.6056323106321884,
                0.7022204467780435,
                -0.2083034399668399,
                0.5244851398448036,
                -2.7238211060049977
            ]
        },
        {
            "positions": [
                -2.777239343216892,
                -0.5845996769089162,
                0.6785632252111623,
                -0.2749227695339445,
                0.5702444111895144,
                -2.5122139580189216
            ]
        },
        {
            "positions": [
                -2.7990868238304425,
                -0.5635670431856441,
                0.6549060036442811,
                -0.34154209910104916,
                0.6160036825342251,
                -2.3006068100328454
            ]
        },
        {
            "positions": [
                -2.7833175195357236,
                -0.5612156348475547,
                0.612180039980891,
                -0.4155715393783488,
                0.6600197248664057,
                -2.0962684960363673
            ]
        },
        {
            "positions": [
                -2.7675482152410047,
                -0.5588642265094652,
                0.5694540763175009,
                -0.4896009796556484,
                0.7040357671985863,
                -1.8919301820398893
            ]
        },
        {
            "positions": [
                -2.751778910946286,
                -0.5565128181713758,
                0.5267281126541108,
                -0.563630419932948,
                0.7480518095307669,
                -1.6875918680434112
            ]
        },
        {
            "positions": [
                -2.736009606651567,
                -0.5541614098332863,
                0.4840021489907207,
                -0.6376598602102477,
                0.7920678518629475,
                -1.4832535540469332
            ]
        },
        {
            "positions": [
                -2.720240302356848,
                -0.5518100014951969,
                0.4412761853273306,
                -0.7116893004875473,
                0.8360838941951281,
                -1.2789152400504553
            ]
        },
        {
            "positions": [
                -2.704470998062129,
                -0.5494585931571074,
                0.3985502216639405,
                -0.785718740764847,
                0.8800999365273087,
                -1.074576926053977
            ]
        },
        {
            "positions": [
                -2.68870169376741,
                -0.547107184819018,
                0.3558242580005504,
                -0.8597481810421467,
                0.9241159788594893,
                -0.8702386120574992
            ]
        },
        {
            "positions": [
                -2.6729323894726913,
                -0.5447557764809287,
                0.3130982943371603,
                -0.9337776213194463,
                0.9681320211916699,
                -0.6659002980610211
            ]
        },
        {
            "positions": [
                -2.6571630851779724,
                -0.5424043681428392,
                0.2703723306737702,
                -1.007807061596746,
                1.0121480635238504,
                -0.4615619840645433
            ]
        },
        {
            "positions": [
                -2.6413937808832535,
                -0.5400529598047498,
                0.2276463670103801,
                -1.0818365018740455,
                1.056164105856031,
                -0.25722367006806524
            ]
        },
        {
            "positions": [
                -2.6256244765885346,
                -0.5377015514666603,
                0.18492040334699006,
                -1.1558659421513453,
                1.1001801481882116,
                -0.052885356071587175
            ]
        },
        {
            "positions": [
                -2.6098551722938157,
                -0.5353501431285709,
                0.1421944396835999,
                -1.229895382428645,
                1.1441961905203923,
                0.15145295792489133
            ]
        },
        {
            "positions": [
                -2.594085867999097,
                -0.5329987347904814,
                0.0994684760202098,
                -1.3039248227059446,
                1.1882122328525728,
                0.35579127192136895
            ]
        },
        {
            "positions": [
                -2.578316563704378,
                -0.530647326452392,
                0.05674251235681971,
                -1.3779542629832442,
                1.2322282751847533,
                0.560129585917847
            ]
        },
        {
            "positions": [
                -2.562547259409659,
                -0.5282959181143025,
                0.014016548693429609,
                -1.4519837032605438,
                1.276244317516934,
                0.7644678999143252
            ]
        },
        {
            "positions": [
                -2.458187615951988,
                -0.5518510506063349,
                -0.08757660072824569,
                -1.4688011346829373,
                1.2266141444927612,
                0.8622328775961803
            ]
        },
        {
            "positions": [
                -2.3538279724943174,
                -0.5754061830983672,
                -0.189169750149921,
                -1.4856185661053307,
                1.1769839714685884,
                0.9599978552780355
            ]
        },
        {
            "positions": [
                -2.2494683290366466,
                -0.5989613155903994,
                -0.2907628995715963,
                -1.5024359975277242,
                1.1273537984444155,
                1.0577628329598907
            ]
        },
        {
            "positions": [
                -2.145108685578976,
                -0.6225164480824318,
                -0.3923560489932716,
                -1.5192534289501176,
                1.0777236254202427,
                1.1555278106417457
            ]
        },
        {
            "positions": [
                -2.040749042121305,
                -0.6460715805744641,
                -0.4939491984149469,
                -1.536070860372511,
                1.0280934523960699,
                1.253292788323601
            ]
        },
        {
            "positions": [
                -1.9363893986636345,
                -0.6696267130664963,
                -0.5955423478366222,
                -1.5528882917949045,
                0.978463279371897,
                1.351057766005456
            ]
        },
        {
            "positions": [
                -1.8320297552059637,
                -0.6931818455585287,
                -0.6971354972582975,
                -1.5697057232172982,
                0.9288331063477242,
                1.4488227436873111
            ]
        },
        {
            "positions": [
                -1.727670111748293,
                -0.716736978050561,
                -0.7987286466799728,
                -1.5865231546396916,
                0.8792029333235515,
                1.5465877213691663
            ]
        },
        {
            "positions": [
                -1.6233104682906223,
                -0.7402921105425934,
                -0.9003217961016481,
                -1.603340586062085,
                0.8295727602993787,
                1.6443526990510215
            ]
        },
        {
            "positions": [
                -1.5189508248329513,
                -0.7638472430346257,
                -1.0019149455233234,
                -1.6201580174844785,
                0.7799425872752057,
                1.7421176767328768
            ]
        },
        {
            "positions": [
                -1.4145911813752807,
                -0.7874023755266579,
                -1.1035080949449987,
                -1.636975448906872,
                0.730312414251033,
                1.8398826544147315
            ]
        },
        {
            "positions": [
                -1.31023153791761,
                -0.8109575080186903,
                -1.205101244366674,
                -1.6537928803292654,
                0.6806822412268602,
                1.9376476320965867
            ]
        },
        {
            "positions": [
                -1.2058718944599394,
                -0.8345126405107226,
                -1.3066943937883493,
                -1.6706103117516589,
                0.6310520682026873,
                2.035412609778442
            ]
        },
        {
            "positions": [
                -1.1015122510022683,
                -0.8580677730027548,
                -1.4082875432100246,
                -1.6874277431740523,
                0.5814218951785145,
                2.133177587460297
            ]
        },
        {
            "positions": [
                -0.9971526075445976,
                -0.8816229054947872,
                -1.5098806926316999,
                -1.7042451745964458,
                0.5317917221543417,
                2.2309425651421524
            ]
        },
        {
            "positions": [
                -0.892792964086927,
                -0.9051780379868195,
                -1.6114738420533752,
                -1.7210626060188392,
                0.48216154913016895,
                2.328707542824007
            ]
        },
        {
            "positions": [
                -0.788433320629256,
                -0.9287331704788518,
                -1.7130669914750505,
                -1.7378800374412329,
                0.432531376105996,
                2.426472520505863
            ]
        },
        {
            "positions": [
                -0.6840736771715854,
                -0.9522883029708842,
                -1.8146601408967258,
                -1.7546974688636263,
                0.3829012030818233,
                2.5242374981877176
            ]
        },
        {
            "positions": [
                -0.5797140337139148,
                -0.9758434354629164,
                -1.916253290318401,
                -1.7715149002860198,
                0.33327103005765046,
                2.622002475869573
            ]
        },
        {
            "positions": [
                -0.4753543902562436,
                -0.9993985679549487,
                -2.0178464397400764,
                -1.7883323317084132,
                0.2836408570334775,
                2.719767453551428
            ]
        },
        {
            "positions": [
                -0.37099474679857325,
                -1.022953700446981,
                -2.1194395891617517,
                -1.8051497631308067,
                0.2340106840093048,
                2.817532431233283
            ]
        },
        {
            "positions": [
                -0.26663510334090246,
                -1.0465088329390133,
                -2.221032738583427,
                -1.8219671945532,
                0.18438051098513197,
                2.915297408915138
            ]
        },
        {
            "positions": [
                -0.16227545988323167,
                -1.0700639654310455,
                -2.3226258880051023,
                -1.8387846259755936,
                0.13475033796095914,
                3.013062386596993
            ]
        },
        {
            "positions": [
                -0.05791581642556093,
                -1.093619097923078,
                -2.4242190374267776,
                -1.855602057397987,
                0.08512016493678637,
                3.1108273642788484
            ]
        },
        {
            "positions": [
                -0.055443261431225556,
                -1.1968465000328459,
                -2.4155971482126226,
                -1.9113883751468959,
                0.04020752544329512,
                3.1334858173638773
            ]
        },
        {
            "positions": [
                -0.05297070643689018,
                -1.3000739021426138,
                -2.406975258998467,
                -1.9671746928958045,
                -0.004705114050196128,
                3.1561442704489058
            ]
        },
        {
            "positions": [
                -0.09691884942562057,
                -1.4485490642324699,
                -2.392004100459548,
                -2.034416807936792,
                -0.0596790163204265,
                3.152060983952371
            ]
        },
        {
            "positions": [
                -0.14086699241435094,
                -1.597024226322326,
                -2.377032941920628,
                -2.101658922977779,
                -0.11465291859065688,
                3.1479776974558367
            ]
        },
        {
            "positions": [
                -0.18481513540308134,
                -1.7454993884121823,
                -2.3620617833817086,
                -2.1689010380187668,
                -0.16962682086088726,
                3.143894410959302
            ]
        }
    ]
}