{
    "goal": {
        "global_pose": {
            "orientation": {
                "w": 0.7047431493862688,
                "x": -0.7094548369677653,
                "y": 0.0024358444001904,
                "z": -0.0022348060817251984
            },
            "position": {
                "x": -0.39052492380142206,
                "y": 0.3671506643295288,
                "z": 0.19426114857196808
            }
        },
        "name": "move_to_magneteinheit_D"
    },
    "id": "FMT_move_to_magneteinheit_D_105",
    "joint_names": [
        "shoulder_pan_joint",
        "shoulder_lift_joint",
        "elbow_joint",
        "wrist_1_joint",
        "wrist_2_joint",
        "wrist_3_joint"
    ],
    "metrics": {
        "cart_traj_len": 5.022117578408794,
        "distance_elbow_joint": 3.129179362692481,
        "distance_shoulder_lift_joint": 1.7998696841018729,
        "distance_shoulder_pan_joint": 3.9966163317868166,
        "distance_wrist_1_joint": 1.9783987742469598,
        "distance_wrist_2_joint": 0.8452615767360026,
        "distance_wrist_3_joint": 3.1776811032930143,
        "smoothness": 0.49787087496056426,
        "time": 1.552424218,
        "traj_len": 3.8635484768354016,
        "weighted_distance": 4.909789139100184
    },
    "planner": "FMT",
    "start": {
        "state": {
            "elbow_joint": 0.749534889911806,
            "shoulder_lift_joint": -0.6476975780787326,
            "shoulder_pan_joint": -2.711696901376241,
            "wrist_1_joint": -0.07506478083263063,
            "wrist_2_joint": 0.43296659715538205,
            "wrist_3_joint": -3.14703540197715
        }
    },
    "waypoints": [
        {
            "positions": [
                -2.711696901376241,
                -0.6476975780787326,
                0.749534889911806,
                -0.07506478083263063,
                0.43296659715538205,
                -3.14703540197715
            ]
        },
        {
            "positions": [
                -2.741820245542189,
                -0.7051154528036713,
                0.7299684023178797,
                -0.14287218060056073,
                0.3157033920046194,
                -3.1012628234551984
            ]
        },
        {
            "positions": [
                -2.7719435897081364,
                -0.7625333275286098,
                0.7104019147239535,
                -0.21067958036849083,
                0.19844018685385673,
                -3.055490244933247
            ]
        },
        {
            "positions": [
                -2.8020669338740842,
                -0.8199512022535485,
                0.6908354271300273,
                -0.2784869801364209,
                0.08117698170309406,
                -3.0097176664112952
            ]
        },
        {
            "positions": [
                -2.6933772033875165,
                -0.8714173089412264,
                0.6038943960703098,
                -0.22772896446246776,
                0.09094038313477704,
                -2.931759817291926
            ]
        },
        {
            "positions": [
                -2.5846874729009484,
                -0.9228834156289043,
                0.5169533650105923,
                -0.17697094878851463,
                0.10070378456646,
                -2.853801968172557
            ]
        },
        {
            "positions": [
                -2.4759977424143806,
                -0.9743495223165823,
                0.43001233395087474,
                -0.12621293311456147,
                0.11046718599814295,
                -2.775844119053188
            ]
        },
        {
            "positions": [
                -2.367308011927813,
                -1.0258156290042602,
                0.3430713028911573,
                -0.07545491744060834,
                0.12023058742982592,
                -2.6978862699338193
            ]
        },
        {
            "positions": [
                -2.2586182814412448,
                -1.0772817356919382,
                0.25613027183143977,
                -0.024696901766655177,
                0.12999398886150887,
                -2.61992842081445
            ]
        },
        {
            "positions": [
                -2.149928550954677,
                -1.128747842379616,
                0.16918924077172215,
                0.026061113907297984,
                0.13975739029319184,
                -2.541970571695081
            ]
        },
        {
            "positions": [
                -2.0412388204681093,
                -1.180213949067294,
                0.08224820971200464,
                0.07681912958125114,
                0.1495207917248748,
                -2.464012722575712
            ]
        },
        {
            "positions": [
                -1.9325490899815412,
                -1.231680055754972,
                -0.004692821347712761,
                0.12757714525520425,
                0.15928419315655779,
                -2.386054873456343
            ]
        },
        {
            "positions": [
                -1.8238593594949735,
                -1.28314616244265,
                -0.09163385240743027,
                0.1783351609291574,
                0.16904759458824076,
                -2.3080970243369743
            ]
        },
        {
            "positions": [
                -1.7151696290084055,
                -1.3346122691303277,
                -0.17857488346714778,
                0.22909317660311057,
                0.1788109960199237,
                -2.230139175217605
            ]
        },
        {
            "positions": [
                -1.6064798985218376,
                -1.3860783758180057,
                -0.2655159145268653,
                0.2798511922770637,
                0.18857439745160667,
                -2.152181326098236
            ]
        },
        {
            "positions": [
                -1.4977901680352697,
                -1.4375444825056838,
                -0.352456945586583,
                0.3306092079510169,
                0.19833779888328965,
                -2.074223476978867
            ]
        },
        {
            "positions": [
                -1.3891004375487017,
                -1.4890105891933616,
                -0.4393979766463004,
                0.38136722362497,
                0.20810120031497262,
                -1.996265627859498
            ]
        },
        {
            "positions": [
                -1.280410707062134,
                -1.5404766958810396,
                -0.526339007706018,
                0.4321252392989232,
                0.21786460174665556,
                -1.918307778740129
            ]
        },
        {
            "positions": [
                -1.171720976575566,
                -1.5919428025687177,
                -0.6132800387657354,
                0.4828832549728763,
                0.22762800317833853,
                -1.84034992962076
            ]
        },
        {
            "positions": [
                -1.0630312460889981,
                -1.6434089092563955,
                -0.7002210698254528,
                0.5336412706468294,
                0.2373914046100215,
                -1.7623920805013908
            ]
        },
        {
            "positions": [
                -0.9543415156024304,
                -1.6948750159440733,
                -0.7871621008851705,
                0.5843992863207826,
                0.24715480604170445,
                -1.684434231382022
            ]
        },
        {
            "positions": [
                -0.8456517851158625,
                -1.7463411226317513,
                -0.8741031319448879,
                0.6351573019947357,
                0.25691820747338745,
                -1.6064763822626529
            ]
        },
        {
            "positions": [
                -0.7369620546292945,
                -1.7978072293194294,
                -0.9610441630046055,
                0.6859153176686889,
                0.2666816089050704,
                -1.528518533143284
            ]
        },
        {
            "positions": [
                -0.6282723241427268,
                -1.8492733360071072,
                -1.047985194064323,
                0.7366733333426421,
                0.27644501033675334,
                -1.450560684023915
            ]
        },
        {
            "positions": [
                -0.5195825936561591,
                -1.9007394426947852,
                -1.1349262251240404,
                0.7874313490165952,
                0.2862084117684363,
                -1.3726028349045458
            ]
        },
        {
            "positions": [
                -0.41089286316959095,
                -1.952205549382463,
                -1.2218672561837578,
                0.8381893646905483,
                0.2959718132001193,
                -1.294644985785177
            ]
        },
        {
            "positions": [
                -0.3022031326830228,
                -2.003671656070141,
                -1.3088082872434756,
                0.8889473803645016,
                0.30573521463180225,
                -1.2166871366658076
            ]
        },
        {
            "positions": [
                -0.19351340219645508,
                -2.055137762757819,
                -1.3957493183031935,
                0.9397053960384547,
                0.3154986160634852,
                -1.1387292875464388
            ]
        },
        {
            "positions": [
                -0.08482367170988736,
                -2.1066038694454967,
                -1.4826903493629109,
                0.9904634117124078,
                0.3252620174951682,
                -1.0607714384270697
            ]
        },
        {
            "positions": [
                0.0238660587766808,
                -2.158069976133175,
                -1.5696313804226283,
                1.041221427386361,
                0.33502541892685117,
                -0.9828135893077006
            ]
        },
        {
            "positions": [
                0.1325557892632485,
                -2.209536082820853,
                -1.6565724114823457,
                1.0919794430603142,
                0.34478882035853414,
                -0.9048557401883315
            ]
        },
        {
            "positions": [
                0.24124551974981623,
                -2.261002189508531,
                -1.7435134425420635,
                1.1427374587342674,
                0.35455222179021706,
                -0.8268978910689628
            ]
        },
        {
            "positions": [
                0.3499352502363844,
                -2.312468296196209,
                -1.830454473601781,
                1.1934954744082205,
                0.36431562322190003,
                -0.7489400419495937
            ]
        },
        {
            "positions": [
                0.4586249807229521,
                -2.3639344028838867,
                -1.917395504661498,
                1.2442534900821736,
                0.374079024653583,
                -0.6709821928302245
            ]
        },
        {
            "positions": [
                0.35103258327429604,
                -2.3499955930011,
                -1.9944369993480275,
                1.2862928408696028,
                0.3406507049313788,
                -0.554044210472543
            ]
        },
        {
            "positions": [
                0.24344018582563998,
                -2.336056783118314,
                -2.0714784940345567,
                1.3283321916570319,
                0.30722238520917455,
                -0.43710622811486166
            ]
        },
        {
            "positions": [
                0.1358477883769839,
                -2.3221179732355273,
                -2.148519988721086,
                1.3703715424444611,
                0.2737940654869703,
                -0.32016824575718017
            ]
        },
        {
            "positions": [
                0.02825539092832785,
                -2.3081791633527406,
                -2.2255614834076156,
                1.4124108932318904,
                0.24036574576476608,
                -0.20323026339949873
            ]
        },
        {
            "positions": [
                -0.07933700652032827,
                -2.2942403534699545,
                -2.302602978094145,
                1.4544502440193194,
                0.20693742604256182,
                -0.08629228104181719
            ]
        },
        {
            "positions": [
                -0.18692940396898428,
                -2.280301543587168,
                -2.3796444727806745,
                1.4964895948067487,
                0.1735091063203576,
                0.030645701315864162
            ]
        }
    ]
}