{
    "goal": {
        "global_pose": {
            "orientation": {
                "w": -0.00223480608172531,
                "x": 0.0024358444001904467,
                "y": 0.7094548369677653,
                "z": -0.704743149386269
            },
            "position": {
                "x": 0.6205249238014221,
                "y": -0.6371506643295288,
                "z": 0.19426114857196808
            }
        },
        "name": "move_to_magneteinheit_B"
    },
    "id": "FMT_move_to_magneteinheit_B_143",
    "joint_names": [
        "shoulder_pan_joint",
        "shoulder_lift_joint",
        "elbow_joint",
        "wrist_1_joint",
        "wrist_2_joint",
        "wrist_3_joint"
    ],
    "metrics": {
        "cart_traj_len": 4.500541727242218,
        "distance_elbow_joint": 5.941746174267442,
        "distance_shoulder_lift_joint": 3.943875169203602,
        "distance_shoulder_pan_joint": 4.8229027332511905,
        "distance_wrist_1_joint": 4.3982699754218,
        "distance_wrist_2_joint": 1.003795199350497,
        "distance_wrist_3_joint": 5.556729542885515,
        "smoothness": 0.478282693274733,
        "time": 1.704462409,
        "traj_len": 5.0662924110615695,
        "weighted_distance": 6.494832026690401
    },
    "planner": "FMT",
    "start": {
        "state": {
            "elbow_joint": 2.6216224122426386,
            "shoulder_lift_joint": -1.4174107377796124,
            "shoulder_pan_joint": 0.7066234856936794,
            "wrist_1_joint": 1.9546482284002225,
            "wrist_2_joint": -0.7096286983471962,
            "wrist_3_joint": 0.005740856962016249
        }
    },
    "waypoints": [
        {
            "positions": [
                0.7066234856936794,
                -1.4174107377796124,
                2.6216224122426386,
                1.9546482284002225,
                -0.7096286983471962,
                0.005740856962016249
            ]
        },
        {
            "positions": [
                0.7162286918082463,
                -1.512102758739467,
                2.5130669873248923,
                1.8967983371171453,
                -0.7370697063852234,
                -0.06557377125265519
            ]
        },
        {
            "positions": [
                0.7258338979228132,
                -1.6067947796993218,
                2.4045115624071465,
                1.8389484458340681,
                -0.7645107144232506,
                -0.13688839946732662
            ]
        },
        {
            "positions": [
                0.73543910403738,
                -1.7014868006591766,
                2.2959561374894006,
                1.781098554550991,
                -0.7919517224612779,
                -0.20820302768199805
            ]
        },
        {
            "positions": [
                0.7450443101519469,
                -1.7961788216190313,
                2.1874007125716544,
                1.7232486632679138,
                -0.819392730499305,
                -0.2795176558966695
            ]
        },
        {
            "positions": [
                0.7546495162665139,
                -1.890870842578886,
                2.078845287653908,
                1.6653987719848367,
                -0.8468337385373322,
                -0.35083228411134093
            ]
        },
        {
            "positions": [
                0.7642547223810807,
                -1.9855628635387408,
                1.9702898627361622,
                1.6075488807017595,
                -0.8742747465753595,
                -0.42214691232601237
            ]
        },
        {
            "positions": [
                0.7738599284956476,
                -2.0802548844985953,
                1.8617344378184162,
                1.5496989894186823,
                -0.9017157546133867,
                -0.4934615405406838
            ]
        },
        {
            "positions": [
                0.7834651346102145,
                -2.1749469054584503,
                1.7531790129006701,
                1.4918490981356052,
                -0.9291567626514139,
                -0.5647761687553553
            ]
        },
        {
            "positions": [
                0.7467137180159678,
                -2.132025642504198,
                1.638693324514439,
                1.4137135547830222,
                -0.917551152662422,
                -0.46025226548429876
            ]
        },
        {
            "positions": [
                0.7099623014217211,
                -2.0891043795499455,
                1.524207636128208,
                1.3355780114304392,
                -0.9059455426734302,
                -0.3557283622132422
            ]
        },
        {
            "positions": [
                0.6732108848274744,
                -2.046183116595693,
                1.409721947741977,
                1.2574424680778564,
                -0.8943399326844383,
                -0.25120445894218574
            ]
        },
        {
            "positions": [
                0.6364594682332276,
                -2.003261853641441,
                1.2952362593557458,
                1.1793069247252734,
                -0.8827343226954465,
                -0.1466805556711292
            ]
        },
        {
            "positions": [
                0.599708051638981,
                -1.9603405906871887,
                1.1807505709695147,
                1.1011713813726904,
                -0.8711287127064546,
                -0.042156652400072714
            ]
        },
        {
            "positions": [
                0.5629566350447343,
                -1.9174193277329363,
                1.0662648825832837,
                1.0230358380201077,
                -0.8595231027174628,
                0.062367250870983826
            ]
        },
        {
            "positions": [
                0.5262052184504875,
                -1.874498064778684,
                0.9517791941970526,
                0.9449002946675247,
                -0.847917492728471,
                0.16689115414204037
            ]
        },
        {
            "positions": [
                0.4894538018562409,
                -1.8315768018244316,
                0.8372935058108215,
                0.8667647513149417,
                -0.8363118827394791,
                0.2714150574130969
            ]
        },
        {
            "positions": [
                0.4527023852619942,
                -1.7886555388701793,
                0.7228078174245904,
                0.7886292079623588,
                -0.8247062727504872,
                0.37593896068415344
            ]
        },
        {
            "positions": [
                0.4159509686677475,
                -1.7457342759159271,
                0.6083221290383594,
                0.7104936646097758,
                -0.8131006627614953,
                0.4804628639552099
            ]
        },
        {
            "positions": [
                0.3791995520735008,
                -1.7028130129616748,
                0.4938364406521283,
                0.6323581212571929,
                -0.8014950527725034,
                0.5849867672262664
            ]
        },
        {
            "positions": [
                0.34244813547925407,
                -1.6598917500074224,
                0.3793507522658972,
                0.5542225779046099,
                -0.7898894427835116,
                0.689510670497323
            ]
        },
        {
            "positions": [
                0.3056967188850074,
                -1.61697048705317,
                0.26486506387966613,
                0.47608703455202694,
                -0.7782838327945197,
                0.7940345737683795
            ]
        },
        {
            "positions": [
                0.26894530229076063,
                -1.5740492240989177,
                0.15037937549343505,
                0.3979514911994442,
                -0.7666782228055279,
                0.898558477039436
            ]
        },
        {
            "positions": [
                0.232193885696514,
                -1.5311279611446653,
                0.035893687107203975,
                0.3198159478468612,
                -0.755072612816536,
                1.0030823803104925
            ]
        },
        {
            "positions": [
                0.19544246910226726,
                -1.488206698190413,
                -0.0785920012790271,
                0.2416804044942782,
                -0.7434670028275442,
                1.107606283581549
            ]
        },
        {
            "positions": [
                0.15869105250802062,
                -1.4452854352361606,
                -0.19307768966525818,
                0.1635448611416952,
                -0.7318613928385523,
                1.2121301868526055
            ]
        },
        {
            "positions": [
                0.12193963591377388,
                -1.4023641722819082,
                -0.30756337805148926,
                0.08540931778911243,
                -0.7202557828495605,
                1.316654090123662
            ]
        },
        {
            "positions": [
                0.08518821931952725,
                -1.3594429093276563,
                -0.4220490664377201,
                0.007273774436529434,
                -0.7086501728605686,
                1.4211779933947182
            ]
        },
        {
            "positions": [
                0.0484368027252805,
                -1.3165216463734037,
                -0.5365347548239514,
                -0.07086176891605356,
                -0.6970445628715768,
                1.5257018966657752
            ]
        },
        {
            "positions": [
                0.01168538613103387,
                -1.2736003834191516,
                -0.6510204432101823,
                -0.14899731226863633,
                -0.6854389528825849,
                1.6302257999368317
            ]
        },
        {
            "positions": [
                -0.025066030463212874,
                -1.2306791204648992,
                -0.7655061315964136,
                -0.22713285562121932,
                -0.673833342893593,
                1.7347497032078882
            ]
        },
        {
            "positions": [
                -0.06181744705745951,
                -1.1877578575106469,
                -0.8799918199826444,
                -0.3052683989738023,
                -0.6622277329046012,
                1.8392736064789448
            ]
        },
        {
            "positions": [
                -0.09856886365170636,
                -1.1448365945563945,
                -0.9944775083688757,
                -0.3834039423263853,
                -0.6506221229156093,
                1.9437975097500013
            ]
        },
        {
            "positions": [
                -0.135320280245953,
                -1.1019153316021422,
                -1.1089631967551066,
                -0.4615394856789681,
                -0.6390165129266174,
                2.0483214130210574
            ]
        },
        {
            "positions": [
                -0.17207169684019974,
                -1.0589940686478898,
                -1.2234488851413379,
                -0.5396750290315513,
                -0.6274109029376256,
                2.1528453162921144
            ]
        },
        {
            "positions": [
                -0.20882311343444637,
                -1.0160728056936374,
                -1.3379345735275687,
                -0.6178105723841338,
                -0.6158052929486337,
                2.2573692195631705
            ]
        },
        {
            "positions": [
                -0.24557453002869323,
                -0.9731515427393851,
                -1.4524202619138,
                -0.6959461157367168,
                -0.6041996829596419,
                2.3618931228342275
            ]
        },
        {
            "positions": [
                -0.28232594662293986,
                -0.930230279785133,
                -1.5669059503000309,
                -0.7740816590892998,
                -0.59259407297065,
                2.4664170261052836
            ]
        },
        {
            "positions": [
                -0.3190773632171865,
                -0.8873090168308806,
                -1.6813916386862622,
                -0.8522172024418828,
                -0.5809884629816582,
                2.5709409293763406
            ]
        },
        {
            "positions": [
                -0.3558287798114331,
                -0.8443877538766282,
                -1.795877327072493,
                -0.9303527457944658,
                -0.5693828529926663,
                2.6754648326473967
            ]
        },
        {
            "positions": [
                -0.39258019640568,
                -0.8014664909223759,
                -1.9103630154587243,
                -1.0084882891470488,
                -0.5577772430036745,
                2.7799887359184536
            ]
        },
        {
            "positions": [
                -0.4293316129999266,
                -0.7585452279681235,
                -2.024848703844955,
                -1.0866238324996318,
                -0.5461716330146826,
                2.8845126391895097
            ]
        },
        {
            "positions": [
                -0.46608302959417325,
                -0.7156239650138712,
                -2.1393343922311865,
                -1.1647593758522148,
                -0.5345660230256908,
                2.9890365424605667
            ]
        },
        {
            "positions": [
                -0.5028344461884199,
                -0.672702702059619,
                -2.253820080617417,
                -1.2428949192047973,
                -0.5229604130366989,
                3.093560445731623
            ]
        },
        {
            "positions": [
                -0.5395858627826667,
                -0.6297814391053664,
                -2.3683057690036486,
                -1.3210304625573803,
                -0.5113548030477071,
                3.19808434900268
            ]
        },
        {
            "positions": [
                -0.5763372793769133,
                -0.5868601761511143,
                -2.4827914573898795,
                -1.3991660059099633,
                -0.49974919305871524,
                3.302608252273736
            ]
        },
        {
            "positions": [
                -0.39235157183135805,
                -0.6543272750273857,
                -2.4364871716050414,
                -1.442688532368958,
                -0.48932281267221217,
                3.267106787171115
            ]
        },
        {
            "positions": [
                -0.20836586428580284,
                -0.7217943739036572,
                -2.390182885820203,
                -1.4862110588279525,
                -0.4788964322857091,
                3.2316053220684937
            ]
        },
        {
            "positions": [
                -0.024380156740247627,
                -0.7892614727799286,
                -2.3438786000353655,
                -1.5297335852869471,
                -0.46847005189920604,
                3.196103856965873
            ]
        },
        {
            "positions": [
                0.15960555080530758,
                -0.8567285716562001,
                -2.2975743142505274,
                -1.5732561117459418,
                -0.458043671512703,
                3.1606023918632515
            ]
        },
        {
            "positions": [
                0.3435912583508629,
                -0.9241956705324716,
                -2.2512700284656892,
                -1.6167786382049363,
                -0.4476172911261999,
                3.1251009267606307
            ]
        },
        {
            "positions": [
                0.527576965896418,
                -0.991662769408743,
                -2.204965742680851,
                -1.660301164663931,
                -0.43719091073969685,
                3.08959946165801
            ]
        },
        {
            "positions": [
                0.7115626734419733,
                -1.0591298682850145,
                -2.158661456896013,
                -1.7038236911229256,
                -0.4267645303531938,
                3.0540979965553885
            ]
        },
        {
            "positions": [
                0.8955483809875284,
                -1.1265969671612859,
                -2.1123571711111753,
                -1.74734621758192,
                -0.4163381499666907,
                3.0185965314527676
            ]
        },
        {
            "positions": [
                1.0795340885330837,
                -1.1940640660375574,
                -2.066052885326337,
                -1.7908687440409148,
                -0.4059117695801877,
                2.9830950663501463
            ]
        },
        {
            "positions": [
                1.263519796078639,
                -1.261531164913829,
                -2.019748599541499,
                -1.8343912704999095,
                -0.3954853891936846,
                2.9475936012475255
            ]
        },
        {
            "positions": [
                1.4475055036241944,
                -1.3289982637901003,
                -1.9734443137566609,
                -1.8779137969589041,
                -0.3850590088071816,
                2.9120921361449046
            ]
        },
        {
            "positions": [
                1.6314912111697493,
                -1.3964653626663717,
                -1.9271400279718232,
                -1.9214363234178986,
                -0.3746326284206785,
                2.8765906710422833
            ]
        },
        {
            "positions": [
                1.8154769187153046,
                -1.4639324615426432,
                -1.880835742186985,
                -1.964958849876893,
                -0.36420624803417545,
                2.8410892059396624
            ]
        },
        {
            "positions": [
                1.99946262626086,
                -1.5313995604189148,
                -1.8345314564021469,
                -2.008481376335888,
                -0.35377986764767233,
                2.8055877408370415
            ]
        },
        {
            "positions": [
                2.1834483338064152,
                -1.5988666592951863,
                -1.7882271706173087,
                -2.0520039027948824,
                -0.3433534872611693,
                2.7700862757344202
            ]
        },
        {
            "positions": [
                2.36743404135197,
                -1.6663337581714577,
                -1.741922884832471,
                -2.095526429253877,
                -0.33292710687466626,
                2.7345848106317994
            ]
        },
        {
            "positions": [
                2.5514197488975254,
                -1.733800857047729,
                -1.695618599047633,
                -2.1390489557128713,
                -0.3225007264881632,
                2.6990833455291785
            ]
        },
        {
            "positions": [
                2.7354054564430808,
                -1.8012679559240006,
                -1.6493143132627948,
                -2.1825714821718663,
                -0.3120743461016601,
                2.663581880426557
            ]
        },
        {
            "positions": [
                2.7167764728111976,
                -1.8972290790351365,
                -1.6502781033897544,
                -2.247834048384294,
                -0.3538705257257916,
                2.783532311499524
            ]
        },
        {
            "positions": [
                2.698147489179314,
                -1.9931902021462726,
                -1.6512418935167141,
                -2.313096614596722,
                -0.3956667053499231,
                2.903482742572491
            ]
        },
        {
            "positions": [
                2.6795185055474304,
                -2.0891513252574088,
                -1.6522056836436738,
                -2.378359180809149,
                -0.43746288497405456,
                3.0234331736454583
            ]
        },
        {
            "positions": [
                2.6608895219155473,
                -2.1851124483685447,
                -1.6531694737706335,
                -2.443621747021577,
                -0.479259064598186,
                3.143383604718425
            ]
        }
    ]
}