{
    "goal": {
        "global_pose": {
            "orientation": {
                "w": 0.7031023502349854,
                "x": -0.7110244035720825,
                "y": 0.007748599164187908,
                "z": 0.005598929710686207
            },
            "position": {
                "x": 0.11585023208521307,
                "y": 0.44412534475326537,
                "z": 0.3711530566215515
            }
        },
        "name": "move_to_auspresseinheit_A"
    },
    "id": "FMT_move_to_auspresseinheit_A_81",
    "joint_names": [
        "shoulder_pan_joint",
        "shoulder_lift_joint",
        "elbow_joint",
        "wrist_1_joint",
        "wrist_2_joint",
        "wrist_3_joint"
    ],
    "metrics": {
        "cart_traj_len": 0.6758575601204284,
        "distance_elbow_joint": 0.04919867603793371,
        "distance_shoulder_lift_joint": 0.533948591488898,
        "distance_shoulder_pan_joint": 1.043281892204918,
        "distance_wrist_1_joint": 0.5503958767940476,
        "distance_wrist_2_joint": 0.531000606128436,
        "distance_wrist_3_joint": 0.7125081230411867,
        "smoothness": 0.6031255081853386,
        "time": 1.171141425,
        "traj_len": 1.8494144385981797,
        "weighted_distance": 2.4344910134770013
    },
    "planner": "FMT",
    "start": {
        "state": {
            "elbow_joint": 2.4225746658250005,
            "shoulder_lift_joint": -1.3736534386056498,
            "shoulder_pan_joint": -0.3378633547517467,
            "wrist_1_joint": -1.0288598680537169,
            "wrist_2_joint": 1.233022673432363,
            "wrist_3_joint": -3.0940220416140027
        }
    },
    "waypoints": [
        {
            "positions": [
                -0.3378633547517467,
                -1.3736534386056498,
                2.4225746658250005,
                -1.0288598680537169,
                1.233022673432363,
                -3.0940220416140027
            ]
        },
        {
            "positions": [
                -0.24690382546214235,
                -1.4278235000602617,
                2.424833359190473,
                -0.9668083440715781,
                1.1365864537684862,
                -3.0267493052047625
            ]
        },
        {
            "positions": [
                -0.155944296172538,
                -1.4819935615148734,
                2.427092052555945,
                -0.9047568200894394,
                1.0401502341046092,
                -2.9594765687955222
            ]
        },
        {
            "positions": [
                -0.06498476688293364,
                -1.5361636229694853,
                2.4293507459214174,
                -0.8427052961073007,
                0.9437140144407324,
                -2.8922038323862815
            ]
        },
        {
            "positions": [
                0.025974762406670737,
                -1.5903336844240972,
                2.4316094392868894,
                -0.780653772125162,
                0.8472777947768555,
                -2.8249310959770413
            ]
        },
        {
            "positions": [
                0.11693429169627505,
                -1.6445037458787088,
                2.433868132652362,
                -0.7186022481430232,
                0.7508415751129787,
                -2.757658359567801
            ]
        },
        {
            "positions": [
                0.2640553531354991,
                -1.7102783169326685,
                2.4243918303497187,
                -0.6585676839221847,
                0.7386366981607158,
                -2.851694469816547
            ]
        },
        {
            "positions": [
                0.4111764145747232,
                -1.7760528879866282,
                2.414915528047076,
                -0.5985331197013463,
                0.7264318212084528,
                -2.9457305800652938
            ]
        },
        {
            "positions": [
                0.5582974760139472,
                -1.841827459040588,
                2.405439225744433,
                -0.5384985554805077,
                0.7142269442561899,
                -3.03976669031404
            ]
        },
        {
            "positions": [
                0.7054185374531713,
                -1.9076020300945478,
                2.3959629234417896,
                -0.47846399125966926,
                0.702022067303927,
                -3.133802800562786
            ]
        }
    ]
}