{
    "goal": {
        "global_pose": {
            "orientation": {
                "w": -0.00223480608172531,
                "x": 0.0024358444001904467,
                "y": 0.7094548369677653,
                "z": -0.704743149386269
            },
            "position": {
                "x": 0.6205249238014221,
                "y": -0.6371506643295288,
                "z": 0.19426114857196808
            }
        },
        "name": "move_to_magneteinheit_B"
    },
    "id": "FMT_move_to_magneteinheit_B_5",
    "joint_names": [
        "shoulder_pan_joint",
        "shoulder_lift_joint",
        "elbow_joint",
        "wrist_1_joint",
        "wrist_2_joint",
        "wrist_3_joint"
    ],
    "metrics": {
        "cart_traj_len": 1.6195845967395477,
        "distance_elbow_joint": 0.9867940062571081,
        "distance_shoulder_lift_joint": 1.6896410700962012,
        "distance_shoulder_pan_joint": 1.621773002107855,
        "distance_wrist_1_joint": 0.6089650946862752,
        "distance_wrist_2_joint": 1.5134907458608222,
        "distance_wrist_3_joint": 0.6802780095978694,
        "smoothness": 0.47246464695555784,
        "time": 1.464670845,
        "traj_len": 2.66475926278644,
        "weighted_distance": 3.2532989085463644
    },
    "planner": "FMT",
    "start": {
        "state": {
            "elbow_joint": 2.6216224122426386,
            "shoulder_lift_joint": -1.4174107377796124,
            "shoulder_pan_joint": 0.7066234856936794,
            "wrist_1_joint": 1.9546482284002225,
            "wrist_2_joint": -0.7096286983471962,
            "wrist_3_joint": 0.005740856962016249
        }
    },
    "waypoints": [
        {
            "positions": [
                0.7066234856936794,
                -1.4174107377796124,
                2.6216224122426386,
                1.9546482284002225,
                -0.7096286983471962,
                0.005740856962016249
            ]
        },
        {
            "positions": [
                0.7047125032615176,
                -1.5125392212377444,
                2.6287155042005717,
                1.9169460381836725,
                -0.7875786800519332,
                -0.04469668335079909
            ]
        },
        {
            "positions": [
                0.7028015208293558,
                -1.6076677046958765,
                2.6358085961585043,
                1.8792438479671225,
                -0.8655286617566702,
                -0.09513422366361443
            ]
        },
        {
            "positions": [
                0.6364059837716072,
                -1.6536184744773932,
                2.6031619194703834,
                1.8563648449071504,
                -0.9885471389482773,
                -0.13607681596624888
            ]
        },
        {
            "positions": [
                0.5700104467138585,
                -1.69956924425891,
                2.570515242782263,
                1.833485841847178,
                -1.1115656161398844,
                -0.17701940826888335
            ]
        },
        {
            "positions": [
                0.5036149096561099,
                -1.7455200140404268,
                2.5378685660941422,
                1.8106068387872059,
                -1.2345840933314915,
                -0.21796200057151782
            ]
        },
        {
            "positions": [
                0.4372193725983613,
                -1.7914707838219435,
                2.5052218894060214,
                1.7877278357272337,
                -1.3576025705230985,
                -0.25890459287415224
            ]
        },
        {
            "positions": [
                0.3708238355406126,
                -1.8374215536034604,
                2.472575212717901,
                1.7648488326672613,
                -1.4806210477147057,
                -0.29984718517678677
            ]
        },
        {
            "positions": [
                0.304428298482864,
                -1.883372323384977,
                2.43992853602978,
                1.7419698296072892,
                -1.603639524906313,
                -0.3407897774794212
            ]
        },
        {
            "positions": [
                0.20279681390811075,
                -1.7813990330107408,
                2.37520122251207,
                1.7749937209317344,
                -1.6552628515147885,
                -0.31297749621638515
            ]
        },
        {
            "positions": [
                0.10116532933335748,
                -1.6794257426365042,
                2.3104739089943607,
                1.8080176122561795,
                -1.7068861781232638,
                -0.2851652149533492
            ]
        },
        {
            "positions": [
                -0.0004661552413958159,
                -1.577452452262268,
                2.2457465954766507,
                1.8410415035806247,
                -1.7585095047317392,
                -0.2573529336903132
            ]
        },
        {
            "positions": [
                -0.10209763981614906,
                -1.4754791618880316,
                2.1810192819589407,
                1.8740653949050698,
                -1.8101328313402147,
                -0.22954065242727717
            ]
        },
        {
            "positions": [
                -0.2037291243909024,
                -1.373505871513795,
                2.1162919684412307,
                1.907089286229515,
                -1.8617561579486903,
                -0.20172837116424117
            ]
        },
        {
            "positions": [
                -0.30536060896565564,
                -1.2715325811395588,
                2.051564654923521,
                1.9401131775539602,
                -1.9133794845571657,
                -0.17391608990120516
            ]
        },
        {
            "positions": [
                -0.406992093540409,
                -1.1695592907653225,
                1.9868373414058111,
                1.9731370688784053,
                -1.965002811165641,
                -0.14610380863816916
            ]
        },
        {
            "positions": [
                -0.5086235781151621,
                -1.0675860003910862,
                1.9221100278881014,
                2.0061609602028505,
                -2.0166261377741166,
                -0.11829152737513315
            ]
        },
        {
            "positions": [
                -0.6102550626899155,
                -0.9656127100168497,
                1.8573827143703914,
                2.0391848515272955,
                -2.068249464382592,
                -0.09047924611209712
            ]
        },
        {
            "positions": [
                -0.7118865472646688,
                -0.8636394196426131,
                1.7926554008526816,
                2.072208742851741,
                -2.1198727909910673,
                -0.06266696484906115
            ]
        },
        {
            "positions": [
                -0.8135180318394221,
                -0.7616661292683771,
                1.7279280873349716,
                2.1052326341761862,
                -2.171496117599543,
                -0.03485468358602517
            ]
        },
        {
            "positions": [
                -0.9151495164141753,
                -0.6596928388941404,
                1.6632007738172618,
                2.138256525500631,
                -2.2231194442080184,
                -0.0070424023229891655
            ]
        }
    ]
}