{
    "goal": {
        "global_pose": {
            "orientation": {
                "w": 0.005598929693374612,
                "x": 0.007748599140229565,
                "y": 0.7110244013736278,
                "z": -0.7031023480610252
            },
            "position": {
                "x": -0.8858502320852131,
                "y": -0.7141253447532654,
                "z": 0.3711530566215515
            }
        },
        "name": "move_to_auspresseinheit_C"
    },
    "id": "FMT_move_to_auspresseinheit_C_78",
    "joint_names": [
        "shoulder_pan_joint",
        "shoulder_lift_joint",
        "elbow_joint",
        "wrist_1_joint",
        "wrist_2_joint",
        "wrist_3_joint"
    ],
    "metrics": {
        "cart_traj_len": 0.4920944505987345,
        "distance_elbow_joint": 0.9910401907942076,
        "distance_shoulder_lift_joint": 0.3213422985704022,
        "distance_shoulder_pan_joint": 0.25558492569721114,
        "distance_wrist_1_joint": 0.6546533004300419,
        "distance_wrist_2_joint": 1.3201816325533455,
        "distance_wrist_3_joint": 0.04319038146620313,
        "smoothness": 4.844609574787718e-16,
        "time": 0.506809838,
        "traj_len": 1.8936717586507466,
        "weighted_distance": 2.3763855801252465
    },
    "planner": "FMT",
    "start": {
        "state": {
            "elbow_joint": 1.7527959577737207,
            "shoulder_lift_joint": -0.9740617694225068,
            "shoulder_pan_joint": -2.967991417825858,
            "wrist_1_joint": -0.759517768980727,
            "wrist_2_joint": 1.7443932448377408,
            "wrist_3_joint": -3.0840537646736568
        }
    },
    "waypoints": [
        {
            "positions": [
                -2.967991417825858,
                -0.9740617694225068,
                1.7527959577737207,
                -0.759517768980727,
                1.7443932448377408,
                -3.0840537646736568
            ]
        },
        {
            "positions": [
                -2.9424329252561368,
                -0.9419275395654666,
                1.6536919386942999,
                -0.6940524389377228,
                1.6123750815824063,
                -3.088372802820277
            ]
        },
        {
            "positions": [
                -2.9168744326864156,
                -0.9097933097084263,
                1.554587919614879,
                -0.6285871088947186,
                1.4803569183270717,
                -3.0926918409668973
            ]
        },
        {
            "positions": [
                -2.891315940116695,
                -0.8776590798513861,
                1.4554839005354583,
                -0.5631217788517144,
                1.3483387550717372,
                -3.0970108791135176
            ]
        },
        {
            "positions": [
                -2.8657574475469736,
                -0.8455248499943459,
                1.3563798814560375,
                -0.49765644880871024,
                1.2163205918164026,
                -3.101329917260138
            ]
        },
        {
            "positions": [
                -2.8401989549772524,
                -0.8133906201373057,
                1.257275862376617,
                -0.43219111876570604,
                1.084302428561068,
                -3.1056489554067586
            ]
        },
        {
            "positions": [
                -2.814640462407531,
                -0.7812563902802655,
                1.1581718432971961,
                -0.36672578872270184,
                0.9522842653057335,
                -3.109967993553379
            ]
        },
        {
            "positions": [
                -2.78908196983781,
                -0.7491221604232252,
                1.0590678242177753,
                -0.3012604586796977,
                0.8202661020503991,
                -3.114287031699999
            ]
        },
        {
            "positions": [
                -2.7635234772680892,
                -0.716987930566185,
                0.9599638051383546,
                -0.2357951286366935,
                0.6882479387950644,
                -3.1186060698466194
            ]
        },
        {
            "positions": [
                -2.737964984698368,
                -0.6848537007091449,
                0.8608597860589339,
                -0.17032979859368924,
                0.5562297755397299,
                -3.1229251079932396
            ]
        },
        {
            "positions": [
                -2.712406492128647,
                -0.6527194708521046,
                0.7617557669795131,
                -0.10486446855068504,
                0.4242116122843953,
                -3.12724414613986
            ]
        }
    ]
}