{
    "goal": {
        "global_pose": {
            "orientation": {
                "w": 0.005598929693374612,
                "x": 0.007748599140229565,
                "y": 0.7110244013736278,
                "z": -0.7031023480610252
            },
            "position": {
                "x": 0.1141497679147869,
                "y": -0.7141253447532654,
                "z": 0.3711530566215515
            }
        },
        "name": "move_to_auspresseinheit_B"
    },
    "id": "FMT_move_to_auspresseinheit_B_11",
    "joint_names": [
        "shoulder_pan_joint",
        "shoulder_lift_joint",
        "elbow_joint",
        "wrist_1_joint",
        "wrist_2_joint",
        "wrist_3_joint"
    ],
    "metrics": {
        "cart_traj_len": 0.5639238053378091,
        "distance_elbow_joint": 0.06050487055831155,
        "distance_shoulder_lift_joint": 0.29400575252981964,
        "distance_shoulder_pan_joint": 0.5767213802492619,
        "distance_wrist_1_joint": 0.3195816532854553,
        "distance_wrist_2_joint": 0.9920567525684576,
        "distance_wrist_3_joint": 0.002471714218222676,
        "smoothness": 2.5376526478085547e-16,
        "time": 0.509166392,
        "traj_len": 1.498446570088346,
        "weighted_distance": 1.8873060053154833
    },
    "planner": "FMT",
    "start": {
        "state": {
            "elbow_joint": 2.0193083361928714,
            "shoulder_lift_joint": -1.1220246554650708,
            "shoulder_pan_joint": -1.0952077554168747,
            "wrist_1_joint": -0.8559753972642168,
            "wrist_2_joint": 0.4759566250798843,
            "wrist_3_joint": -3.1240929996934557
        }
    },
    "waypoints": [
        {
            "positions": [
                -1.0952077554168747,
                -1.1220246554650708,
                2.0193083361928714,
                -0.8559753972642168,
                0.4759566250798843,
                -3.1240929996934557
            ]
        },
        {
            "positions": [
                -1.1913279854584182,
                -1.1710256142200408,
                2.0092241910998196,
                -0.8027117883833076,
                0.6412994171746272,
                -3.123681047323752
            ]
        },
        {
            "positions": [
                -1.287448215499962,
                -1.2200265729750106,
                1.9991400460067676,
                -0.7494481795023984,
                0.8066422092693701,
                -3.1232690949540483
            ]
        },
        {
            "positions": [
                -1.3835684455415056,
                -1.2690275317299806,
                1.9890559009137156,
                -0.6961845706214891,
                0.9719850013641131,
                -3.122857142584344
            ]
        },
        {
            "positions": [
                -1.4796886755830492,
                -1.3180284904849506,
                1.9789717558206636,
                -0.64292096174058,
                1.137327793458856,
                -3.1224451902146404
            ]
        },
        {
            "positions": [
                -1.575808905624593,
                -1.3670294492399204,
                1.9688876107276119,
                -0.5896573528596707,
                1.302670585553599,
                -3.1220332378449367
            ]
        },
        {
            "positions": [
                -1.6719291356661365,
                -1.4160304079948904,
                1.9588034656345599,
                -0.5363937439787615,
                1.468013377648342,
                -3.121621285475233
            ]
        }
    ]
}