{
    "goal": {
        "global_pose": {
            "orientation": {
                "w": -0.4816463035849501,
                "x": 0.5182115481033762,
                "y": 0.4908360881923453,
                "z": -0.5084816262002911
            },
            "position": {
                "x": -0.8240239810943604,
                "y": 0.19912469901144506,
                "z": 0.16403168439865112
            }
        },
        "name": "move_to_storage_D"
    },
    "id": "FMT_move_to_storage_D_103",
    "joint_names": [
        "shoulder_pan_joint",
        "shoulder_lift_joint",
        "elbow_joint",
        "wrist_1_joint",
        "wrist_2_joint",
        "wrist_3_joint"
    ],
    "metrics": {
        "cart_traj_len": 0.6012923455288579,
        "distance_elbow_joint": 0.5532980635561537,
        "distance_shoulder_lift_joint": 0.1529664234806991,
        "distance_shoulder_pan_joint": 0.14969736500836892,
        "distance_wrist_1_joint": 3.820743733332901,
        "distance_wrist_2_joint": 1.787318825394335,
        "distance_wrist_3_joint": 3.118786959507125,
        "smoothness": 7.515355880705107e-16,
        "time": 1.477392923,
        "traj_len": 3.095611631047988,
        "weighted_distance": 4.629087150618474
    },
    "planner": "FMT",
    "start": {
        "state": {
            "elbow_joint": -2.384821988534728,
            "shoulder_lift_joint": -2.2788054721415256,
            "shoulder_pan_joint": -0.1854694642142757,
            "wrist_1_joint": 1.4845938289331202,
            "wrist_2_joint": 0.17898776772866878,
            "wrist_3_joint": 0.037105688729662994
        }
    },
    "waypoints": [
        {
            "positions": [
                -0.1854694642142757,
                -2.2788054721415256,
                -2.384821988534728,
                1.4845938289331202,
                0.17898776772866878,
                0.037105688729662994
            ]
        },
        {
            "positions": [
                -0.14956172409646376,
                -2.2362519161542056,
                -2.341489839251915,
                1.464577763602261,
                0.09428117611933537,
                -0.06655920985907363
            ]
        },
        {
            "positions": [
                -0.1136539839786518,
                -2.193698360166885,
                -2.298157689969101,
                1.4445616982714016,
                0.009574584510001954,
                -0.17022410844781025
            ]
        },
        {
            "positions": [
                -0.07774624386083984,
                -2.151144804179565,
                -2.254825540686288,
                1.4245456329405424,
                -0.07513200709933146,
                -0.27388900703654684
            ]
        },
        {
            "positions": [
                -0.07583832819470653,
                -2.149994542565077,
                -2.235584558154119,
                1.2536049266978004,
                -0.14482287303416486,
                -0.4015159281156794
            ]
        },
        {
            "positions": [
                -0.0739304125285732,
                -2.148844280950589,
                -2.2163435756219503,
                1.0826642204550585,
                -0.21451373896899828,
                -0.5291428491948118
            ]
        },
        {
            "positions": [
                -0.07202249686243989,
                -2.1476940193361007,
                -2.1971025930897814,
                0.9117235142123166,
                -0.28420460490383165,
                -0.6567697702739443
            ]
        },
        {
            "positions": [
                -0.07011458119630656,
                -2.1465437577216124,
                -2.177861610557613,
                0.7407828079695745,
                -0.3538954708386651,
                -0.7843966913530769
            ]
        },
        {
            "positions": [
                -0.06820666553017325,
                -2.1453934961071246,
                -2.158620628025444,
                0.5698421017268326,
                -0.42358633677349844,
                -0.9120236124322093
            ]
        },
        {
            "positions": [
                -0.06629874986403994,
                -2.1442432344926363,
                -2.139379645493275,
                0.39890139548409076,
                -0.49327720270833186,
                -1.0396505335113417
            ]
        },
        {
            "positions": [
                -0.06439083419790662,
                -2.1430929728781485,
                -2.1201386629611063,
                0.2279606892413486,
                -0.5629680686431653,
                -1.1672774545904743
            ]
        },
        {
            "positions": [
                -0.0624829185317733,
                -2.14194271126366,
                -2.1008976804289374,
                0.057019982998606666,
                -0.6326589345779987,
                -1.2949043756696068
            ]
        },
        {
            "positions": [
                -0.06057500286563998,
                -2.140792449649172,
                -2.0816566978967685,
                -0.11392072324413527,
                -0.7023498005128321,
                -1.4225312967487396
            ]
        },
        {
            "positions": [
                -0.05866708719950667,
                -2.139642188034684,
                -2.0624157153646,
                -0.2848614294868772,
                -0.7720406664476654,
                -1.5501582178278719
            ]
        },
        {
            "positions": [
                -0.05675917153337334,
                -2.138491926420196,
                -2.0431747328324312,
                -0.45580213572961914,
                -0.8417315323824989,
                -1.6777851389070042
            ]
        },
        {
            "positions": [
                -0.05485125586724003,
                -2.1373416648057075,
                -2.0239337503002623,
                -0.6267428419723609,
                -0.9114223983173322,
                -1.8054120599861365
            ]
        },
        {
            "positions": [
                -0.052943340201106706,
                -2.1361914031912197,
                -2.0046927677680935,
                -0.7976835482151032,
                -0.9811132642521657,
                -1.9330389810652693
            ]
        },
        {
            "positions": [
                -0.051035424534973395,
                -2.1350411415767314,
                -1.9854517852359246,
                -0.9686242544578452,
                -1.050804130186999,
                -2.0606659021444016
            ]
        },
        {
            "positions": [
                -0.049127508868840084,
                -2.133890879962243,
                -1.966210802703756,
                -1.1395649607005867,
                -1.1204949961218325,
                -2.1882928232235344
            ]
        },
        {
            "positions": [
                -0.04721959320270676,
                -2.1327406183477553,
                -1.946969820171587,
                -1.310505666943329,
                -1.190185862056666,
                -2.315919744302667
            ]
        },
        {
            "positions": [
                -0.04531167753657344,
                -2.131590356733267,
                -1.9277288376394184,
                -1.481446373186071,
                -1.2598767279914993,
                -2.4435466653817994
            ]
        },
        {
            "positions": [
                -0.04340376187044012,
                -2.130440095118779,
                -1.9084878551072495,
                -1.652387079428813,
                -1.329567593926333,
                -2.571173586460932
            ]
        },
        {
            "positions": [
                -0.04149584620430681,
                -2.129289833504291,
                -1.8892468725750806,
                -1.8233277856715548,
                -1.3992584598611661,
                -2.6988005075400645
            ]
        },
        {
            "positions": [
                -0.03958793053817349,
                -2.1281395718898026,
                -1.8700058900429117,
                -1.9942684919142968,
                -1.4689493257959996,
                -2.826427428619197
            ]
        },
        {
            "positions": [
                -0.037680014872040174,
                -2.126989310275315,
                -1.8507649075107429,
                -2.1652091981570387,
                -1.538640191730833,
                -2.9540543496983296
            ]
        },
        {
            "positions": [
                -0.035772099205906856,
                -2.1258390486608265,
                -1.8315239249785742,
                -2.3361499043997807,
                -1.6083310576656664,
                -3.081681270777462
            ]
        }
    ]
}