{
    "goal": {
        "global_pose": {
            "orientation": {
                "w": -0.00223480608172531,
                "x": 0.0024358444001904467,
                "y": 0.7094548369677653,
                "z": -0.704743149386269
            },
            "position": {
                "x": 0.6205249238014221,
                "y": -0.6371506643295288,
                "z": 0.19426114857196808
            }
        },
        "name": "move_to_magneteinheit_B"
    },
    "id": "FMT_move_to_magneteinheit_B_61",
    "joint_names": [
        "shoulder_pan_joint",
        "shoulder_lift_joint",
        "elbow_joint",
        "wrist_1_joint",
        "wrist_2_joint",
        "wrist_3_joint"
    ],
    "metrics": {
        "cart_traj_len": 3.0895399614485264,
        "distance_elbow_joint": 4.324025713857425,
        "distance_shoulder_lift_joint": 1.0611251032001277,
        "distance_shoulder_pan_joint": 2.259534828607736,
        "distance_wrist_1_joint": 1.3699218975958705,
        "distance_wrist_2_joint": 1.1789209448209963,
        "distance_wrist_3_joint": 0.6814535414226827,
        "smoothness": 0.3235781628504328,
        "time": 1.596876804,
        "traj_len": 3.297723764887659,
        "weighted_distance": 3.845351993610867
    },
    "planner": "FMT",
    "start": {
        "state": {
            "elbow_joint": 2.6216224122426386,
            "shoulder_lift_joint": -1.4174107377796124,
            "shoulder_pan_joint": 0.7066234856936794,
            "wrist_1_joint": 1.9546482284002225,
            "wrist_2_joint": -0.7096286983471962,
            "wrist_3_joint": 0.005740856962016249
        }
    },
    "waypoints": [
        {
            "positions": [
                0.7066234856936794,
                -1.4174107377796124,
                2.6216224122426386,
                1.9546482284002225,
                -0.7096286983471962,
                0.005740856962016249
            ]
        },
        {
            "positions": [
                0.6886232362906627,
                -1.5314279648914368,
                2.618202814231642,
                1.994268706732579,
                -0.6987653186925018,
                0.08655743518185154
            ]
        },
        {
            "positions": [
                0.670622986887646,
                -1.6454451920032613,
                2.614783216220645,
                2.0338891850649357,
                -0.6879019390378075,
                0.16737401340168684
            ]
        },
        {
            "positions": [
                0.6526227374846293,
                -1.7594624191150858,
                2.6113636182096482,
                2.0735096633972923,
                -0.6770385593831131,
                0.24819059162152216
            ]
        },
        {
            "positions": [
                0.6809452361034332,
                -1.8257702381079568,
                2.541646391401197,
                2.078497570066961,
                -0.6755707270247291,
                0.30009067818400287
            ]
        },
        {
            "positions": [
                0.7092677347222371,
                -1.892078057100828,
                2.471929164592745,
                2.0834854767366293,
                -0.674102894666345,
                0.35199076474648355
            ]
        },
        {
            "positions": [
                0.805599328682745,
                -1.907677939627484,
                2.2828977683869143,
                2.0325855882250417,
                -0.6460204922821502,
                0.34626606657909587
            ]
        },
        {
            "positions": [
                0.9019309226432528,
                -1.9232778221541402,
                2.093866372181084,
                1.9816856997134542,
                -0.6179380898979553,
                0.3405413684117081
            ]
        },
        {
            "positions": [
                0.9982625166037606,
                -1.9388777046807963,
                1.9048349759752532,
                1.9307858112018665,
                -0.5898556875137605,
                0.33481667024432044
            ]
        },
        {
            "positions": [
                1.0945941105642687,
                -1.9544775872074525,
                1.7158035797694224,
                1.879885922690279,
                -0.5617732851295657,
                0.32909197207693275
            ]
        },
        {
            "positions": [
                1.1909257045247763,
                -1.9700774697341086,
                1.526772183563592,
                1.8289860341786914,
                -0.5336908827453709,
                0.323367273909545
            ]
        },
        {
            "positions": [
                1.2872572984852844,
                -1.9856773522607647,
                1.3377407873577614,
                1.7780861456671038,
                -0.505608480361176,
                0.3176425757421573
            ]
        },
        {
            "positions": [
                1.3835888924457922,
                -2.0012772347874206,
                1.1487093911519306,
                1.7271862571555163,
                -0.4775260779769812,
                0.3119178775747696
            ]
        },
        {
            "positions": [
                1.4799204864063,
                -2.0168771173140767,
                0.9596779949461001,
                1.6762863686439287,
                -0.4494436755927864,
                0.3061931794073819
            ]
        },
        {
            "positions": [
                1.5762520803668079,
                -2.032476999840733,
                0.7706465987402695,
                1.6253864801323412,
                -0.42136127320859157,
                0.3004684812399942
            ]
        },
        {
            "positions": [
                1.6725836743273157,
                -2.048076882367389,
                0.5816152025344388,
                1.5744865916207536,
                -0.3932788708243968,
                0.29474378307260646
            ]
        },
        {
            "positions": [
                1.7689152682878237,
                -2.063676764894045,
                0.392583806328608,
                1.5235867031091659,
                -0.36519646844020187,
                0.28901908490521877
            ]
        },
        {
            "positions": [
                1.8652468622483314,
                -2.079276647420701,
                0.2035524101227777,
                1.4726868145975782,
                -0.3371140660560071,
                0.283294386737831
            ]
        },
        {
            "positions": [
                1.9615784562088394,
                -2.0948765299473573,
                0.014521013916946934,
                1.4217869260859908,
                -0.30903166367181223,
                0.27756968857044334
            ]
        },
        {
            "positions": [
                2.0579100501693475,
                -2.1104764124740134,
                -0.17451038228888383,
                1.3708870375744033,
                -0.28094926128761744,
                0.27184499040305565
            ]
        },
        {
            "positions": [
                2.154241644129855,
                -2.1260762950006695,
                -0.3635417784947146,
                1.3199871490628157,
                -0.2528668589034226,
                0.2661202922356679
            ]
        },
        {
            "positions": [
                2.2505732380903627,
                -2.1416761775273256,
                -0.5525731747005449,
                1.269087260551228,
                -0.2247844565192278,
                0.2603955940682802
            ]
        },
        {
            "positions": [
                2.346904832050871,
                -2.1572760600539818,
                -0.7416045709063757,
                1.2181873720396403,
                -0.19670205413503294,
                0.25467089590089254
            ]
        },
        {
            "positions": [
                2.443236426011379,
                -2.172875942580638,
                -0.930635967112206,
                1.167287483528053,
                -0.16861965175083815,
                0.2489461977335048
            ]
        },
        {
            "positions": [
                2.5395680199718864,
                -2.188475825107294,
                -1.1196673633180372,
                1.1163875950164652,
                -0.14053724936664336,
                0.2432214995661171
            ]
        },
        {
            "positions": [
                2.635899613932394,
                -2.20407570763395,
                -1.3086987595238675,
                1.0654877065048778,
                -0.11245484698244856,
                0.2374968013987294
            ]
        },
        {
            "positions": [
                2.7322312078929025,
                -2.2196755901606062,
                -1.497730155729698,
                1.0145878179932901,
                -0.08437244459825366,
                0.23177210323134168
            ]
        },
        {
            "positions": [
                2.742352517867038,
                -2.2580982927997377,
                -1.561775113625832,
                0.9981210374656525,
                0.0012016868599480923,
                0.19798710300779332
            ]
        },
        {
            "positions": [
                2.7524738278411736,
                -2.2965209954388692,
                -1.625820071521966,
                0.9816542569380149,
                0.08677581831814986,
                0.16420210278424494
            ]
        },
        {
            "positions": [
                2.755788709555124,
                -2.335495448808108,
                -1.6170826082775838,
                0.9463542803696887,
                0.2267970307885402,
                0.10726663358998101
            ]
        },
        {
            "positions": [
                2.7591035912690747,
                -2.374469902177347,
                -1.6083451450332014,
                0.9110543038013627,
                0.3668182432589305,
                0.05033116439571708
            ]
        },
        {
            "positions": [
                2.7095769779619543,
                -2.4265028715785437,
                -1.6378992968352297,
                0.9453810419634612,
                0.41805524486636525,
                0.03355914775199263
            ]
        },
        {
            "positions": [
                2.660050364654834,
                -2.47853584097974,
                -1.6674534486372579,
                0.9797077801255596,
                0.4692922464738001,
                0.01678713110826819
            ]
        }
    ]
}