{
    "goal": {
        "global_pose": {
            "orientation": {
                "w": 0.7031023502349854,
                "x": -0.7110244035720825,
                "y": 0.007748599164187908,
                "z": 0.005598929710686207
            },
            "position": {
                "x": 0.11585023208521307,
                "y": 0.44412534475326537,
                "z": 0.3711530566215515
            }
        },
        "name": "move_to_auspresseinheit_A"
    },
    "id": "FMT_move_to_auspresseinheit_A_52",
    "joint_names": [
        "shoulder_pan_joint",
        "shoulder_lift_joint",
        "elbow_joint",
        "wrist_1_joint",
        "wrist_2_joint",
        "wrist_3_joint"
    ],
    "metrics": {
        "cart_traj_len": 0.6640930725940373,
        "distance_elbow_joint": 0.027872584577080417,
        "distance_shoulder_lift_joint": 0.5357248571964399,
        "distance_shoulder_pan_joint": 1.0473496445030954,
        "distance_wrist_1_joint": 1.5107373388606664,
        "distance_wrist_2_joint": 0.5132931445686795,
        "distance_wrist_3_joint": 1.3083161544720232,
        "smoothness": 1.0669741423121237,
        "time": 1.196838965,
        "traj_len": 2.2233519119064313,
        "weighted_distance": 3.0957965883680694
    },
    "planner": "FMT",
    "start": {
        "state": {
            "elbow_joint": 2.4225746658250005,
            "shoulder_lift_joint": -1.3736534386056498,
            "shoulder_pan_joint": -0.3378633547517467,
            "wrist_1_joint": -1.0288598680537169,
            "wrist_2_joint": 1.233022673432363,
            "wrist_3_joint": -3.0940220416140027
        }
    },
    "waypoints": [
        {
            "positions": [
                -0.3378633547517467,
                -1.3736534386056498,
                2.4225746658250005,
                -1.0288598680537169,
                1.233022673432363,
                -3.0940220416140027
            ]
        },
        {
            "positions": [
                -0.3178522195094561,
                -1.4267600818049249,
                2.42151242468001,
                -0.8564106015500396,
                1.2169014109886853,
                -2.987511312427996
            ]
        },
        {
            "positions": [
                -0.2978410842671655,
                -1.4798667250042,
                2.4204501835350194,
                -0.6839613350463623,
                1.2007801485450074,
                -2.8810005832419896
            ]
        },
        {
            "positions": [
                -0.27782994902487484,
                -1.532973368203475,
                2.419387942390029,
                -0.5115120685426849,
                1.1846588861013294,
                -2.774489854055983
            ]
        },
        {
            "positions": [
                -0.25781881378258426,
                -1.5860800114027502,
                2.4183257012450388,
                -0.3390628020390076,
                1.1685376236576517,
                -2.667979124869976
            ]
        },
        {
            "positions": [
                -0.2378076785402936,
                -1.6391866546020253,
                2.417263460100048,
                -0.16661353553533031,
                1.152416361213974,
                -2.5614683956839697
            ]
        },
        {
            "positions": [
                -0.217796543298003,
                -1.6922932978013003,
                2.4162012189550577,
                0.005835730968346942,
                1.136295098770296,
                -2.454957666497963
            ]
        },
        {
            "positions": [
                -0.08532756714809561,
                -1.7233054403728416,
                2.4131299135683237,
                -0.062170231865739056,
                1.0767857316407798,
                -2.5505650635488175
            ]
        },
        {
            "positions": [
                0.04714140900181177,
                -1.7543175829443831,
                2.41005860818159,
                -0.13017619469982505,
                1.017276364511264,
                -2.6461724605996726
            ]
        },
        {
            "positions": [
                0.17961038515171915,
                -1.7853297255159244,
                2.406987302794856,
                -0.19818215753391105,
                0.9577669973817479,
                -2.7417798576505272
            ]
        },
        {
            "positions": [
                0.3120793613016265,
                -1.8163418680874657,
                2.403915997408122,
                -0.26618812036799705,
                0.8982576302522318,
                -2.837387254701382
            ]
        },
        {
            "positions": [
                0.444548337451534,
                -1.8473540106590072,
                2.400844692021388,
                -0.33419408320208305,
                0.8387482631227157,
                -2.932994651752237
            ]
        },
        {
            "positions": [
                0.5770173136014413,
                -1.8783661532305485,
                2.397773386634654,
                -0.40220004603616905,
                0.7792388959931997,
                -3.0286020488030916
            ]
        },
        {
            "positions": [
                0.7094862897513488,
                -1.9093782958020897,
                2.39470208124792,
                -0.47020600887025504,
                0.7197295288636836,
                -3.124209445853946
            ]
        }
    ]
}