{
    "goal": {
        "global_pose": {
            "orientation": {
                "w": 0.7047431493862688,
                "x": -0.7094548369677653,
                "y": 0.0024358444001904,
                "z": -0.0022348060817251984
            },
            "position": {
                "x": -0.39052492380142206,
                "y": 0.3671506643295288,
                "z": 0.19426114857196808
            }
        },
        "name": "move_to_magneteinheit_D"
    },
    "id": "FMT_move_to_magneteinheit_D_101",
    "joint_names": [
        "shoulder_pan_joint",
        "shoulder_lift_joint",
        "elbow_joint",
        "wrist_1_joint",
        "wrist_2_joint",
        "wrist_3_joint"
    ],
    "metrics": {
        "cart_traj_len": 3.8737294405715486,
        "distance_elbow_joint": 3.5400112889424133,
        "distance_shoulder_lift_joint": 1.629144329764131,
        "distance_shoulder_pan_joint": 3.2279792518392836,
        "distance_wrist_1_joint": 2.0605495844482027,
        "distance_wrist_2_joint": 1.810896909567853,
        "distance_wrist_3_joint": 4.425426708680599,
        "smoothness": 0.33447570236911345,
        "time": 1.4629243580000002,
        "traj_len": 4.085830157170325,
        "weighted_distance": 5.423680298894814
    },
    "planner": "FMT",
    "start": {
        "state": {
            "elbow_joint": 0.749534889911806,
            "shoulder_lift_joint": -0.6476975780787326,
            "shoulder_pan_joint": -2.711696901376241,
            "wrist_1_joint": -0.07506478083263063,
            "wrist_2_joint": 0.43296659715538205,
            "wrist_3_joint": -3.14703540197715
        }
    },
    "waypoints": [
        {
            "positions": [
                -2.711696901376241,
                -0.6476975780787326,
                0.749534889911806,
                -0.07506478083263063,
                0.43296659715538205,
                -3.14703540197715
            ]
        },
        {
            "positions": [
                -2.759893886851651,
                -0.7270740157317185,
                0.7989227498611386,
                -0.14258768124071475,
                0.3589606480703506,
                -3.1357750387322954
            ]
        },
        {
            "positions": [
                -2.8080908723270612,
                -0.8064504533847043,
                0.8483106098104713,
                -0.21011058164879884,
                0.2849546989853191,
                -3.12451467548744
            ]
        },
        {
            "positions": [
                -2.8562878578024717,
                -0.8858268910376901,
                0.897698469759804,
                -0.27763348205688293,
                0.21094874990028767,
                -3.113254312242585
            ]
        },
        {
            "positions": [
                -2.904484843277882,
                -0.9652033286906759,
                0.9470863297091368,
                -0.34515638246496705,
                0.13694280081525623,
                -3.1019939489977304
            ]
        },
        {
            "positions": [
                -2.843388675171958,
                -0.9878050511478507,
                0.834051510649842,
                -0.32239603564086966,
                0.11045019378342676,
                -2.962650248309508
            ]
        },
        {
            "positions": [
                -2.7822925070660336,
                -1.0104067736050253,
                0.7210166915905472,
                -0.29963568881677227,
                0.08395758675159729,
                -2.8233065476212857
            ]
        },
        {
            "positions": [
                -2.7211963389601097,
                -1.0330084960622001,
                0.6079818725312524,
                -0.27687534199267494,
                0.057464979719767814,
                -2.6839628469330634
            ]
        },
        {
            "positions": [
                -2.6601001708541854,
                -1.0556102185193748,
                0.49494705347195755,
                -0.25411499516857755,
                0.030972372687938357,
                -2.5446191462448406
            ]
        },
        {
            "positions": [
                -2.5990040027482615,
                -1.0782119409765496,
                0.38191223441266275,
                -0.23135464834448016,
                0.004479765656108886,
                -2.4052754455566183
            ]
        },
        {
            "positions": [
                -2.537907834642337,
                -1.1008136634337242,
                0.26887741535336795,
                -0.20859430152038277,
                -0.0220128413757206,
                -2.265931744868396
            ]
        },
        {
            "positions": [
                -2.4768116665364133,
                -1.1234153858908988,
                0.15584259629407315,
                -0.1858339546962854,
                -0.048505448407550056,
                -2.1265880441801737
            ]
        },
        {
            "positions": [
                -2.4157154984304894,
                -1.1460171083480737,
                0.042807777234778355,
                -0.16307360787218803,
                -0.07499805543937951,
                -1.9872443434919511
            ]
        },
        {
            "positions": [
                -2.354619330324565,
                -1.1686188308052483,
                -0.07022704182451656,
                -0.14031326104809067,
                -0.101490662471209,
                -1.8479006428037288
            ]
        },
        {
            "positions": [
                -2.293523162218641,
                -1.1912205532624232,
                -0.18326186088381125,
                -0.11755291422399328,
                -0.12798326950303845,
                -1.7085569421155065
            ]
        },
        {
            "positions": [
                -2.232426994112717,
                -1.2138222757195978,
                -0.29629667994310616,
                -0.09479256739989589,
                -0.15447587653486794,
                -1.569213241427284
            ]
        },
        {
            "positions": [
                -2.171330826006793,
                -1.2364239981767726,
                -0.40933149900240084,
                -0.0720322205757985,
                -0.18096848356669742,
                -1.4298695407390616
            ]
        },
        {
            "positions": [
                -2.110234657900869,
                -1.2590257206339472,
                -0.5223663180616958,
                -0.04927187375170117,
                -0.20746109059852685,
                -1.2905258400508393
            ]
        },
        {
            "positions": [
                -2.0491384897949447,
                -1.2816274430911219,
                -0.6354011371209904,
                -0.02651152692760378,
                -0.23395369763035634,
                -1.1511821393626167
            ]
        },
        {
            "positions": [
                -1.9880423216890206,
                -1.3042291655482967,
                -0.7484359561802856,
                -0.0037511801035063908,
                -0.2604463046621858,
                -1.0118384386743942
            ]
        },
        {
            "positions": [
                -1.9269461535830965,
                -1.3268308880054713,
                -0.86147077523958,
                0.019009166720590998,
                -0.28693891169401525,
                -0.8724947379861718
            ]
        },
        {
            "positions": [
                -1.8658499854771724,
                -1.3494326104626462,
                -0.9745055942988752,
                0.041769513544688386,
                -0.3134315187258448,
                -0.7331510372979495
            ]
        },
        {
            "positions": [
                -1.8047538173712485,
                -1.3720343329198208,
                -1.0875404133581699,
                0.06452986036878572,
                -0.3399241257576742,
                -0.5938073366097272
            ]
        },
        {
            "positions": [
                -1.7436576492653244,
                -1.3946360553769956,
                -1.2005752324174648,
                0.08729020719288316,
                -0.3664167327895037,
                -0.4544636359215044
            ]
        },
        {
            "positions": [
                -1.6825614811594003,
                -1.4172377778341703,
                -1.3136100514767592,
                0.1100505540169805,
                -0.39290933982133314,
                -0.3151199352332825
            ]
        },
        {
            "positions": [
                -1.6214653130534762,
                -1.4398395002913449,
                -1.4266448705360542,
                0.13281090084107788,
                -0.4194019468531627,
                -0.17577623454505975
            ]
        },
        {
            "positions": [
                -1.5603691449475523,
                -1.4624412227485197,
                -1.539679689595349,
                0.15557124766517527,
                -0.4458945538849921,
                -0.036432533856837424
            ]
        },
        {
            "positions": [
                -1.499272976841628,
                -1.4850429452056946,
                -1.652714508654644,
                0.1783315944892726,
                -0.47238716091682165,
                0.1029111668313849
            ]
        },
        {
            "positions": [
                -1.438176808735704,
                -1.507644667662869,
                -1.7657493277139384,
                0.20109194131337005,
                -0.4988797679486511,
                0.24225486751960723
            ]
        },
        {
            "positions": [
                -1.37708064062978,
                -1.5302463901200438,
                -1.8787841467732334,
                0.22385228813746738,
                -0.5253723749804805,
                0.38159856820783
            ]
        },
        {
            "positions": [
                -1.3159844725238559,
                -1.5528481125772187,
                -1.9918189658325283,
                0.24661263496156471,
                -0.5518649820123099,
                0.5209422688960519
            ]
        },
        {
            "positions": [
                -1.2548883044179318,
                -1.5754498350343933,
                -2.104853784891823,
                0.26937298178566216,
                -0.5783575890441395,
                0.6602859695842747
            ]
        },
        {
            "positions": [
                -1.0994593294524626,
                -1.6002348883938586,
                -2.1299320472544663,
                0.3733541055430045,
                -0.5829998947592729,
                0.6657181145928828
            ]
        },
        {
            "positions": [
                -0.9440303544869937,
                -1.6250199417533242,
                -2.15501030961711,
                0.47733522930034683,
                -0.5876422004744063,
                0.6711502596014909
            ]
        },
        {
            "positions": [
                -0.7886013795215246,
                -1.6498049951127896,
                -2.180088571979754,
                0.5813163530576891,
                -0.5922845061895397,
                0.6765824046100989
            ]
        },
        {
            "positions": [
                -0.6331724045560556,
                -1.674590048472255,
                -2.205166834342397,
                0.6852974768150315,
                -0.5969268119046731,
                0.682014549618707
            ]
        },
        {
            "positions": [
                -0.5356856464783776,
                -1.7283350061995175,
                -2.225671960576602,
                0.7992183952259777,
                -0.5553221677229281,
                0.6304844390391597
            ]
        },
        {
            "positions": [
                -0.43819888840069954,
                -1.7820799639267801,
                -2.246177086810807,
                0.9131393136369239,
                -0.513717523541183,
                0.5789543284596126
            ]
        },
        {
            "positions": [
                -0.3407121303230215,
                -1.8358249216540428,
                -2.266682213045012,
                1.0270602320478703,
                -0.472112879359438,
                0.5274242178800653
            ]
        },
        {
            "positions": [
                -0.24322537224534346,
                -1.8895698793813054,
                -2.287187339279217,
                1.1409811504588165,
                -0.430508235177693,
                0.4758941073005181
            ]
        },
        {
            "positions": [
                -0.14573861416766543,
                -1.943314837108568,
                -2.307692465513422,
                1.2549020688697627,
                -0.38890359099594796,
                0.42436399672097086
            ]
        },
        {
            "positions": [
                -0.0482518560899874,
                -1.9970597948358306,
                -2.3281975917476267,
                1.368822987280709,
                -0.3472989468142029,
                0.37283388614142365
            ]
        },
        {
            "positions": [
                -0.027485318075047144,
                -2.024084183688549,
                -2.3360095225527377,
                1.4069250343739685,
                -0.3145682205326998,
                0.34332405150025913
            ]
        },
        {
            "positions": [
                -0.06703326425874953,
                -2.0872736147271276,
                -2.35085052177354,
                1.4165191758682014,
                -0.18990699324874358,
                0.27890248675868556
            ]
        },
        {
            "positions": [
                -0.1065812104424519,
                -2.150463045765706,
                -2.365691520994342,
                1.426113317362434,
                -0.06524576596478737,
                0.214480922017112
            ]
        },
        {
            "positions": [
                -0.14612915662615428,
                -2.213652476804285,
                -2.3805325202151435,
                1.4357074588566667,
                0.059415461319168805,
                0.15005935727553843
            ]
        },
        {
            "positions": [
                -0.18567710280985666,
                -2.2768419078428637,
                -2.3953735194359456,
                1.4453016003508996,
                0.184076688603125,
                0.08563779253396483
            ]
        }
    ]
}