{
    "goal": {
        "global_pose": {
            "orientation": {
                "w": -0.4816463035849501,
                "x": 0.5182115481033762,
                "y": 0.4908360881923453,
                "z": -0.5084816262002911
            },
            "position": {
                "x": -0.8240239810943604,
                "y": -0.300875300988555,
                "z": 0.16403168439865112
            }
        },
        "name": "move_to_storage_C"
    },
    "id": "FMT_move_to_storage_C_88",
    "joint_names": [
        "shoulder_pan_joint",
        "shoulder_lift_joint",
        "elbow_joint",
        "wrist_1_joint",
        "wrist_2_joint",
        "wrist_3_joint"
    ],
    "metrics": {
        "cart_traj_len": 0.5773747572554044,
        "distance_elbow_joint": 0.255897471291201,
        "distance_shoulder_lift_joint": 0.19036751656027417,
        "distance_shoulder_pan_joint": 0.4948681716915537,
        "distance_wrist_1_joint": 0.06544682497384802,
        "distance_wrist_2_joint": 1.0708417133558878,
        "distance_wrist_3_joint": 0.06981616701894433,
        "smoothness": 2.5376526478085547e-16,
        "time": 0.326894655,
        "traj_len": 1.4653456469009996,
        "weighted_distance": 1.8501780285311287
    },
    "planner": "FMT",
    "start": {
        "state": {
            "elbow_joint": 2.010868314990456,
            "shoulder_lift_joint": -1.1634956873337592,
            "shoulder_pan_joint": -2.4736205022346125,
            "wrist_1_joint": -0.8367026794202681,
            "wrist_2_joint": 0.6746043897044499,
            "wrist_3_joint": -3.1496632123970403
        }
    },
    "waypoints": [
        {
            "positions": [
                -2.4736205022346125,
                -1.1634956873337592,
                2.010868314990456,
                -0.8367026794202681,
                0.6746043897044499,
                -3.1496632123970403
            ]
        },
        {
            "positions": [
                -2.5560985308498716,
                -1.1317677679070468,
                1.9682187364419224,
                -0.8257948752579601,
                0.8530780085970979,
                -3.1380271845605496
            ]
        },
        {
            "positions": [
                -2.6385765594651303,
                -1.1000398484803344,
                1.925569157893389,
                -0.8148870710956521,
                1.0315516274897458,
                -3.126391156724059
            ]
        },
        {
            "positions": [
                -2.7210545880803894,
                -1.068311929053622,
                1.8829195793448554,
                -0.8039792669333441,
                1.210025246382394,
                -3.114755128887568
            ]
        },
        {
            "positions": [
                -2.8035326166956485,
                -1.0365840096269097,
                1.8402700007963217,
                -0.7930714627710361,
                1.3884988652750416,
                -3.1031191010510772
            ]
        },
        {
            "positions": [
                -2.886010645310907,
                -1.0048560902001973,
                1.7976204222477883,
                -0.782163658608728,
                1.5669724841676897,
                -3.0914830732145866
            ]
        },
        {
            "positions": [
                -2.968488673926166,
                -0.973128170773485,
                1.7549708436992548,
                -0.7712558544464201,
                1.7454461030603379,
                -3.079847045378096
            ]
        }
    ]
}