{
    "goal": {
        "global_pose": {
            "orientation": {
                "w": -0.00223480608172531,
                "x": 0.0024358444001904467,
                "y": 0.7094548369677653,
                "z": -0.704743149386269
            },
            "position": {
                "x": -0.37947507619857795,
                "y": -0.6371506643295288,
                "z": 0.19426114857196808
            }
        },
        "name": "move_to_magneteinheit_C"
    },
    "id": "FMT_move_to_magneteinheit_C_116",
    "joint_names": [
        "shoulder_pan_joint",
        "shoulder_lift_joint",
        "elbow_joint",
        "wrist_1_joint",
        "wrist_2_joint",
        "wrist_3_joint"
    ],
    "metrics": {
        "cart_traj_len": 1.143026570434671,
        "distance_elbow_joint": 0.6327939552742179,
        "distance_shoulder_lift_joint": 2.234798266951578,
        "distance_shoulder_pan_joint": 0.8325213283184925,
        "distance_wrist_1_joint": 0.7892523642434043,
        "distance_wrist_2_joint": 0.7930967431904854,
        "distance_wrist_3_joint": 0.6527152418560163,
        "smoothness": 1.1563936508466095,
        "time": 1.084840911,
        "traj_len": 2.436222054705645,
        "weighted_distance": 2.970346358756857
    },
    "planner": "FMT",
    "start": {
        "state": {
            "elbow_joint": 1.9565354010623817,
            "shoulder_lift_joint": -1.4165861575791021,
            "shoulder_pan_joint": -1.6717766225146293,
            "wrist_1_joint": -0.5286633292919765,
            "wrist_2_joint": 1.472756589071564,
            "wrist_3_joint": -3.1238370188695823
        }
    },
    "waypoints": [
        {
            "positions": [
                -1.6717766225146293,
                -1.4165861575791021,
                1.9565354010623817,
                -0.5286633292919765,
                1.472756589071564,
                -3.1238370188695823
            ]
        },
        {
            "positions": [
                -1.7559128179797299,
                -1.5581647459642984,
                2.00592483173416,
                -0.49548615134229623,
                1.443651508881877,
                -3.077649235354099
            ]
        },
        {
            "positions": [
                -1.8400490134448304,
                -1.6997433343494948,
                2.055314262405938,
                -0.46230897339261595,
                1.4145464286921905,
                -3.031461451838616
            ]
        },
        {
            "positions": [
                -1.9241852089099307,
                -1.841321922734691,
                2.1047036930777163,
                -0.4291317954429357,
                1.3854413485025037,
                -2.9852736683231327
            ]
        },
        {
            "positions": [
                -2.0083214043750313,
                -1.9829005111198874,
                2.1540931237494942,
                -0.39595461749325545,
                1.3563362683128168,
                -2.9390858848076493
            ]
        },
        {
            "positions": [
                -2.092457599840132,
                -2.1244790995050837,
                2.2034825544212726,
                -0.3627774395435752,
                1.32723118812313,
                -2.892898101292166
            ]
        },
        {
            "positions": [
                -2.1765937953052323,
                -2.26605768789028,
                2.2528719850930505,
                -0.329600261593895,
                1.2981261079334434,
                -2.846710317776683
            ]
        },
        {
            "positions": [
                -2.260729990770333,
                -2.4076362762754764,
                2.302261415764829,
                -0.2964230836442147,
                1.2690210277437566,
                -2.8005225342611997
            ]
        },
        {
            "positions": [
                -2.306307555666878,
                -2.2932311889076993,
                2.2798770121144702,
                -0.3549331468574277,
                1.191662626738256,
                -2.828730814249223
            ]
        },
        {
            "positions": [
                -2.351885120563424,
                -2.178826101539922,
                2.257492608464112,
                -0.4134432100706407,
                1.1143042257327553,
                -2.8569390942372457
            ]
        },
        {
            "positions": [
                -2.397462685459969,
                -2.064421014172145,
                2.2351082048137534,
                -0.4719532732838537,
                1.036945824727255,
                -2.885147374225269
            ]
        },
        {
            "positions": [
                -2.443040250356515,
                -1.9500159268043682,
                2.212723801163395,
                -0.5304633364970668,
                0.9595874237217543,
                -2.9133556542132917
            ]
        },
        {
            "positions": [
                -2.4886178152530603,
                -1.835610839436591,
                2.1903393975130365,
                -0.5889733997102797,
                0.8822290227162538,
                -2.941563934201315
            ]
        },
        {
            "positions": [
                -2.4846977813580446,
                -1.6676801615825114,
                2.146552916933042,
                -0.6550888503426742,
                0.83158672850746,
                -2.9886537735281946
            ]
        },
        {
            "positions": [
                -2.4807777474630295,
                -1.499749483728432,
                2.1027664363530474,
                -0.7212043009750685,
                0.7809444342986662,
                -3.0357436128550743
            ]
        },
        {
            "positions": [
                -2.4768577135680143,
                -1.3318188058743523,
                2.0589799557730526,
                -0.7873197516074628,
                0.7303021400898724,
                -3.0828334521819536
            ]
        },
        {
            "positions": [
                -2.4729376796729987,
                -1.1638881280202726,
                2.0151934751930582,
                -0.8534352022398572,
                0.6796598458810785,
                -3.1299232915088333
            ]
        }
    ]
}