{
    "goal": {
        "global_pose": {
            "orientation": {
                "w": 0.7031023480610252,
                "x": -0.7110244013736278,
                "y": 0.0077485991402295624,
                "z": 0.005598929693374583
            },
            "position": {
                "x": -0.8841497679147869,
                "y": 0.44412534475326537,
                "z": 0.3711530566215515
            }
        },
        "name": "move_to_auspresseinheit_D"
    },
    "id": "FMT_move_to_auspresseinheit_D_60",
    "joint_names": [
        "shoulder_pan_joint",
        "shoulder_lift_joint",
        "elbow_joint",
        "wrist_1_joint",
        "wrist_2_joint",
        "wrist_3_joint"
    ],
    "metrics": {
        "cart_traj_len": 0.3433118294489824,
        "distance_elbow_joint": 0.6348704274701109,
        "distance_shoulder_lift_joint": 0.11852804594027821,
        "distance_shoulder_pan_joint": 0.1341212628726314,
        "distance_wrist_1_joint": 0.5282970342918412,
        "distance_wrist_2_joint": 1.4296337275139,
        "distance_wrist_3_joint": 0.0038487172775596434,
        "smoothness": 9.868649019549174e-16,
        "time": 0.42408797,
        "traj_len": 1.6879867343573294,
        "weighted_distance": 2.1942942855795757
    },
    "planner": "FMT",
    "start": {
        "state": {
            "elbow_joint": -1.8275523626775212,
            "shoulder_lift_joint": -2.126789852344167,
            "shoulder_pan_joint": -0.03513704404078235,
            "wrist_1_joint": -2.347782403156801,
            "wrist_2_joint": -1.6058999987535132,
            "wrist_3_joint": -3.0880379163319196
        }
    },
    "waypoints": [
        {
            "positions": [
                -0.03513704404078235,
                -2.126789852344167,
                -1.8275523626775212,
                -2.347782403156801,
                -1.6058999987535132,
                -3.0880379163319196
            ]
        },
        {
            "positions": [
                -0.05190220189986128,
                -2.1416058580867015,
                -1.7481935592437574,
                -2.413819532443281,
                -1.4271957828142756,
                -3.0885190059916146
            ]
        },
        {
            "positions": [
                -0.0686673597589402,
                -2.1564218638292365,
                -1.6688347558099934,
                -2.479856661729761,
                -1.2484915668750383,
                -3.0890000956513095
            ]
        },
        {
            "positions": [
                -0.08543251761801912,
                -2.171237869571771,
                -1.5894759523762296,
                -2.5458937910162414,
                -1.0697873509358007,
                -3.0894811853110045
            ]
        },
        {
            "positions": [
                -0.10219767547709804,
                -2.1860538753143057,
                -1.5101171489424656,
                -2.6119309203027212,
                -0.8910831349965632,
                -3.0899622749706994
            ]
        },
        {
            "positions": [
                -0.11896283333617697,
                -2.200869881056841,
                -1.4307583455087018,
                -2.6779680495892015,
                -0.7123789190573258,
                -3.0904433646303944
            ]
        },
        {
            "positions": [
                -0.13572799119525591,
                -2.2156858867993754,
                -1.351399542074938,
                -2.744005178875682,
                -0.5336747031180882,
                -3.0909244542900893
            ]
        },
        {
            "positions": [
                -0.15249314905433484,
                -2.2305018925419104,
                -1.272040738641174,
                -2.8100423081621617,
                -0.3549704871788508,
                -3.0914055439497843
            ]
        },
        {
            "positions": [
                -0.16925830691341376,
                -2.245317898284445,
                -1.1926819352074103,
                -2.876079437448642,
                -0.17626627123961316,
                -3.0918866336094792
            ]
        }
    ]
}