{
    "goal": {
        "global_pose": {
            "orientation": {
                "w": 0.5084816217422485,
                "x": -0.49083608388900757,
                "y": 0.5182115435600281,
                "z": -0.4816462993621826
            },
            "position": {
                "x": 0.5540239810943604,
                "y": 0.030875300988554955,
                "z": 0.16403168439865112
            }
        },
        "name": "move_to_storage_A"
    },
    "id": "FMT_move_to_storage_A_66",
    "joint_names": [
        "shoulder_pan_joint",
        "shoulder_lift_joint",
        "elbow_joint",
        "wrist_1_joint",
        "wrist_2_joint",
        "wrist_3_joint"
    ],
    "metrics": {
        "cart_traj_len": 0.3531668481740364,
        "distance_elbow_joint": 0.4480474553448677,
        "distance_shoulder_lift_joint": 0.23525941994059885,
        "distance_shoulder_pan_joint": 0.46375404392067815,
        "distance_wrist_1_joint": 0.23669523668007575,
        "distance_wrist_2_joint": 1.0904875039924204,
        "distance_wrist_3_joint": 0.09202183126280739,
        "smoothness": 6.661338165333112e-16,
        "time": 0.40995968299999996,
        "traj_len": 1.601956769435882,
        "weighted_distance": 2.0192800435649234
    },
    "planner": "FMT",
    "start": {
        "state": {
            "elbow_joint": 1.971548259319323,
            "shoulder_lift_joint": -1.1394851275133948,
            "shoulder_pan_joint": 0.1228115487234821,
            "wrist_1_joint": -0.7804723859257726,
            "wrist_2_joint": 0.12958671773740124,
            "wrist_3_joint": -3.192489227718131
        }
    },
    "waypoints": [
        {
            "positions": [
                0.1228115487234821,
                -1.1394851275133948,
                1.971548259319323,
                -0.7804723859257726,
                0.12958671773740124,
                -3.192489227718131
            ]
        },
        {
            "positions": [
                0.05656097102052808,
                -1.1730936160763374,
                2.035555038654304,
                -0.8142859911657835,
                0.28537064687917557,
                -3.1793432518234446
            ]
        },
        {
            "positions": [
                -0.009689606682425939,
                -1.2067021046392803,
                2.099561817989285,
                -0.8480995964057942,
                0.4411545760209499,
                -3.1661972759287575
            ]
        },
        {
            "positions": [
                -0.07594018438537994,
                -1.240310593202223,
                2.163568597324266,
                -0.8819132016458051,
                0.5969385051627243,
                -3.153051300034071
            ]
        },
        {
            "positions": [
                -0.14219076208833398,
                -1.2739190817651656,
                2.227575376659247,
                -0.9157268068858159,
                0.7527224343044986,
                -3.139905324139384
            ]
        },
        {
            "positions": [
                -0.20844133979128804,
                -1.3075275703281082,
                2.2915821559942287,
                -0.9495404121258267,
                0.908506363446273,
                -3.1267593482446974
            ]
        },
        {
            "positions": [
                -0.274691917494242,
                -1.341136058891051,
                2.3555889353292097,
                -0.9833540173658375,
                1.0642902925880473,
                -3.1136133723500103
            ]
        },
        {
            "positions": [
                -0.34094249519719605,
                -1.3747445474539937,
                2.4195957146641907,
                -1.0171676226058484,
                1.2200742217298217,
                -3.1004673964553238
            ]
        }
    ]
}{
    "goal": {
        "global_pose": {
            "orientation": {
                "w": 0.5084816217422485,
                "x": -0.49083608388900757,
                "y": 0.5182115435600281,
                "z": -0.4816462993621826
            },
            "position": {
                "x": 0.5540239810943604,
                "y": 0.030875300988554955,
                "z": 0.16403168439865112
            }
        },
        "name": "move_to_storage_A"
    },
    "id": "FMT_move_to_storage_A_66",
    "joint_names": [
        "shoulder_pan_joint",
        "shoulder_lift_joint",
        "elbow_joint",
        "wrist_1_joint",
        "wrist_2_joint",
        "wrist_3_joint"
    ],
    "metrics": {
        "cart_traj_len": 0.3535865346374722,
        "distance_elbow_joint": 0.4498493203283891,
        "distance_shoulder_lift_joint": 0.234756749453932,
        "distance_shoulder_pan_joint": 0.4646863731174659,
        "distance_wrist_1_joint": 0.23722662908738035,
        "distance_wrist_2_joint": 1.0903589261101785,
        "distance_wrist_3_joint": 0.09075268133586745,
        "smoothness": 4.440892098500626e-16,
        "time": 0.410356006,
        "traj_len": 1.6023828130110525,
        "weighted_distance": 2.019089298991629
    },
    "planner": "FMT",
    "start": {
        "state": {
            "elbow_joint": 1.97154746011099,
            "shoulder_lift_joint": -1.13948474672311,
            "shoulder_pan_joint": 0.12281154466712228,
            "wrist_1_joint": -0.7804688027058302,
            "wrist_2_joint": 0.12958655903071145,
            "wrist_3_joint": 3.0906928834467795
        }
    },
    "waypoints": [
        {
            "positions": [
                0.12281154466712228,
                -1.13948474672311,
                1.97154746011099,
                -0.7804688027058302,
                0.12958655903071145,
                3.0906928834467795
            ]
        },
        {
            "positions": [
                0.056427777078912875,
                -1.1730214252165287,
                2.0358116487293314,
                -0.8143583211468846,
                0.2853521199035941,
                3.103657552209046
            ]
        },
        {
            "positions": [
                -0.009955990509296533,
                -1.2065581037099478,
                2.1000758373476724,
                -0.8482478395879388,
                0.44111768077647673,
                3.1166222209713133
            ]
        },
        {
            "positions": [
                -0.07633975809750594,
                -1.2400947822033666,
                2.164340025966014,
                -0.8821373580289932,
                0.5968832416493594,
                3.12958688973358
            ]
        },
        {
            "positions": [
                -0.14272352568571534,
                -1.2736314606967853,
                2.228604214584355,
                -0.9160268764700475,
                0.752648802522242,
                3.1425515584958466
            ]
        },
        {
            "positions": [
                -0.2091072932739248,
                -1.3071681391902041,
                2.2928684032026965,
                -0.9499163949111018,
                0.9084143633951247,
                3.155516227258113
            ]
        },
        {
            "positions": [
                -0.27549106086213415,
                -1.3407048176836232,
                2.3571325918210375,
                -0.9838059133521562,
                1.0641799242680072,
                3.1684808960203803
            ]
        },
        {
            "positions": [
                -0.3418748284503436,
                -1.374241496177042,
                2.421396780439379,
                -1.0176954317932105,
                1.21994548514089,
                3.181445564782647
            ]
        }
    ]
}{
    "goal": {
        "global_pose": {
            "orientation": {
                "w": 0.5084816217422485,
                "x": -0.49083608388900757,
                "y": 0.5182115435600281,
                "z": -0.4816462993621826
            },
            "position": {
                "x": 0.5540239810943604,
                "y": 0.030875300988554955,
                "z": 0.16403168439865112
            }
        },
        "name": "move_to_storage_A"
    },
    "id": "FMT_move_to_storage_A_66",
    "joint_names": [
        "shoulder_pan_joint",
        "shoulder_lift_joint",
        "elbow_joint",
        "wrist_1_joint",
        "wrist_2_joint",
        "wrist_3_joint"
    ],
    "metrics": {
        "cart_traj_len": 0.35239613359754923,
        "distance_elbow_joint": 0.44771338622531287,
        "distance_shoulder_lift_joint": 0.23533834927156416,
        "distance_shoulder_pan_joint": 0.45893941299654617,
        "distance_wrist_1_joint": 0.23494619728380806,
        "distance_wrist_2_joint": 1.1055470443340383,
        "distance_wrist_3_joint": 0.08849457576750419,
        "smoothness": 6.661338165333112e-16,
        "time": 0.412191314,
        "traj_len": 1.6034272561855663,
        "weighted_distance": 2.0219944013353817
    },
    "planner": "FMT",
    "start": {
        "state": {
            "elbow_joint": 1.9715472970024885,
            "shoulder_lift_joint": -1.1394870060712896,
            "shoulder_pan_joint": 0.12281152778156021,
            "wrist_1_joint": -0.780463741449964,
            "wrist_2_joint": 0.12958659822042276,
            "wrist_3_joint": 3.090690232415272
        }
    },
    "waypoints": [
        {
            "positions": [
                0.12281152778156021,
                -1.1394870060712896,
                1.9715472970024885,
                -0.780463741449964,
                0.12958659822042276,
                3.090690232415272
            ]
        },
        {
            "positions": [
                0.05724875449633933,
                -1.1731067702529416,
                2.035506352177533,
                -0.8140274839190794,
                0.2875218902681425,
                3.1033323146677723
            ]
        },
        {
            "positions": [
                -0.00831401878888155,
                -1.2067265344345937,
                2.099465407352578,
                -0.8475912263881948,
                0.4454571823158623,
                3.115974396920273
            ]
        },
        {
            "positions": [
                -0.07387679207410242,
                -1.2403462986162457,
                2.1634244625276224,
                -0.8811549688573103,
                0.603392474363582,
                3.1286164791727735
            ]
        },
        {
            "positions": [
                -0.1394395653593233,
                -1.2739660627978977,
                2.227383517702667,
                -0.9147187113264257,
                0.7613277664113017,
                3.1412585614252744
            ]
        },
        {
            "positions": [
                -0.20500233864454423,
                -1.3075858269795497,
                2.291342572877712,
                -0.9482824537955412,
                0.9192630584590216,
                3.153900643677775
            ]
        },
        {
            "positions": [
                -0.27056511192976507,
                -1.3412055911612017,
                2.355301628052757,
                -0.9818461962646566,
                1.0771983505067413,
                3.1665427259302756
            ]
        },
        {
            "positions": [
                -0.33612788521498593,
                -1.3748253553428538,
                2.4192606832278014,
                -1.015409938733772,
                1.235133642554461,
                3.179184808182776
            ]
        }
    ]
}