{
    "goal": {
        "global_pose": {
            "orientation": {
                "w": -0.00223480608172531,
                "x": 0.0024358444001904467,
                "y": 0.7094548369677653,
                "z": -0.704743149386269
            },
            "position": {
                "x": -0.37947507619857795,
                "y": -0.6371506643295288,
                "z": 0.19426114857196808
            }
        },
        "name": "move_to_magneteinheit_C"
    },
    "id": "FMT_move_to_magneteinheit_C_96",
    "joint_names": [
        "shoulder_pan_joint",
        "shoulder_lift_joint",
        "elbow_joint",
        "wrist_1_joint",
        "wrist_2_joint",
        "wrist_3_joint"
    ],
    "metrics": {
        "cart_traj_len": 1.2347239198031348,
        "distance_elbow_joint": 0.6976338442198364,
        "distance_shoulder_lift_joint": 1.0194863844028106,
        "distance_shoulder_pan_joint": 0.9831772934294867,
        "distance_wrist_1_joint": 2.928068657781572,
        "distance_wrist_2_joint": 1.2910771570950166,
        "distance_wrist_3_joint": 0.8475436355581252,
        "smoothness": 1.1351670851390416,
        "time": 1.2955127339999999,
        "traj_len": 2.786931461749077,
        "weighted_distance": 3.69881333112117
    },
    "planner": "FMT",
    "start": {
        "state": {
            "elbow_joint": 1.9565354010623817,
            "shoulder_lift_joint": -1.4165861575791021,
            "shoulder_pan_joint": -1.6717766225146293,
            "wrist_1_joint": -0.5286633292919765,
            "wrist_2_joint": 1.472756589071564,
            "wrist_3_joint": -3.1238370188695823
        }
    },
    "waypoints": [
        {
            "positions": [
                -1.6717766225146293,
                -1.4165861575791021,
                1.9565354010623817,
                -0.5286633292919765,
                1.472756589071564,
                -3.1238370188695823
            ]
        },
        {
            "positions": [
                -1.6697794010765343,
                -1.4264688489135282,
                1.9547224481680519,
                -0.5446369854173907,
                1.473645886511875,
                -3.1245048431207496
            ]
        },
        {
            "positions": [
                -1.6971539381879208,
                -1.5012496373156838,
                1.9590770289239554,
                -0.7578712943937369,
                1.4295114979255008,
                -3.108448895093508
            ]
        },
        {
            "positions": [
                -1.7245284752993073,
                -1.5760304257178395,
                1.9634316096798592,
                -0.9711056033700831,
                1.3853771093391265,
                -3.0923929470662666
            ]
        },
        {
            "positions": [
                -1.7519030124106938,
                -1.6508112141199949,
                1.9677861904357627,
                -1.184339912346429,
                1.3412427207527524,
                -3.076336999039025
            ]
        },
        {
            "positions": [
                -1.7792775495220803,
                -1.7255920025221505,
                1.9721407711916665,
                -1.3975742213227753,
                1.297108332166378,
                -3.0602810510117835
            ]
        },
        {
            "positions": [
                -1.8066520866334668,
                -1.8003727909243061,
                1.97649535194757,
                -1.6108085302991215,
                1.252973943580004,
                -3.0442251029845417
            ]
        },
        {
            "positions": [
                -1.8905203078244117,
                -1.743443831415642,
                2.0160380409535,
                -1.671185055418556,
                1.1619372715118585,
                -3.00661093934755
            ]
        },
        {
            "positions": [
                -1.9743885290153567,
                -1.6865148719069778,
                2.0555807299594298,
                -1.7315615805379907,
                1.0709005994437133,
                -2.968996775710558
            ]
        },
        {
            "positions": [
                -2.0582567502063016,
                -1.6295859123983136,
                2.09512341896536,
                -1.7919381056574253,
                0.9798639273755679,
                -2.9313826120735667
            ]
        },
        {
            "positions": [
                -2.142124971397246,
                -1.5726569528896495,
                2.1346661079712894,
                -1.8523146307768599,
                0.8888272553074226,
                -2.893768448436575
            ]
        },
        {
            "positions": [
                -2.2259931925881915,
                -1.515727993380985,
                2.1742087969772195,
                -1.9126911558962942,
                0.7977905832392771,
                -2.856154284799583
            ]
        },
        {
            "positions": [
                -2.309861413779136,
                -1.458799033872321,
                2.213751485983149,
                -1.9730676810157288,
                0.7067539111711318,
                -2.8185401211625916
            ]
        },
        {
            "positions": [
                -2.393729634970081,
                -1.4018700743636567,
                2.253294174989079,
                -2.0334442061351634,
                0.6157172391029864,
                -2.7809259575256
            ]
        },
        {
            "positions": [
                -2.477597856161026,
                -1.3449411148549926,
                2.2928368639950087,
                -2.0938207312545982,
                0.524680567034841,
                -2.743311793888608
            ]
        },
        {
            "positions": [
                -2.561466077351971,
                -1.2880121553463284,
                2.332379553000939,
                -2.1541972563740326,
                0.4336438949666957,
                -2.7056976302516165
            ]
        },
        {
            "positions": [
                -2.5486813065354057,
                -1.2703922817063815,
                2.2869275835019933,
                -1.9681208662741019,
                0.46938473326805663,
                -2.7668502871713057
            ]
        },
        {
            "positions": [
                -2.535896535718841,
                -1.2527724080664344,
                2.2414756140030474,
                -1.782044476174171,
                0.5051255715694176,
                -2.828002944090995
            ]
        },
        {
            "positions": [
                -2.523111764902276,
                -1.2351525344264875,
                2.196023644504102,
                -1.5959680860742402,
                0.5408664098707785,
                -2.889155601010684
            ]
        },
        {
            "positions": [
                -2.5103269940857107,
                -1.2175326607865404,
                2.150571675005156,
                -1.4098916959743093,
                0.5766072481721394,
                -2.9503082579303737
            ]
        },
        {
            "positions": [
                -2.4975422232691455,
                -1.1999127871465936,
                2.1051197055062105,
                -1.2238153058743786,
                0.6123480864735004,
                -3.011460914850063
            ]
        },
        {
            "positions": [
                -2.484757452452581,
                -1.1822929135066464,
                2.059667736007265,
                -1.0377389157744479,
                0.6480889247748614,
                -3.072613571769752
            ]
        },
        {
            "positions": [
                -2.4719726816360157,
                -1.1646730398666996,
                2.014215766508319,
                -0.8516625256745171,
                0.6838297630762222,
                -3.133766228689441
            ]
        }
    ]
}