{
    "goal": {
        "global_pose": {
            "orientation": {
                "w": -0.4816463035849501,
                "x": 0.5182115481033762,
                "y": 0.4908360881923453,
                "z": -0.5084816262002911
            },
            "position": {
                "x": -0.8240239810943604,
                "y": -0.300875300988555,
                "z": 0.16403168439865112
            }
        },
        "name": "move_to_storage_C"
    },
    "id": "FMT_move_to_storage_C_66",
    "joint_names": [
        "shoulder_pan_joint",
        "shoulder_lift_joint",
        "elbow_joint",
        "wrist_1_joint",
        "wrist_2_joint",
        "wrist_3_joint"
    ],
    "metrics": {
        "cart_traj_len": 0.5761028529937696,
        "distance_elbow_joint": 0.2537694921989637,
        "distance_shoulder_lift_joint": 0.1885889704782978,
        "distance_shoulder_pan_joint": 0.4946213189751414,
        "distance_wrist_1_joint": 0.06351758998470225,
        "distance_wrist_2_joint": 1.0660670279233728,
        "distance_wrist_3_joint": 0.05528928783321607,
        "smoothness": 0.0,
        "time": 0.32833768399999996,
        "traj_len": 1.4566583976326413,
        "weighted_distance": 1.8335803448358081
    },
    "planner": "FMT",
    "start": {
        "state": {
            "elbow_joint": 2.010868314990456,
            "shoulder_lift_joint": -1.1634956873337592,
            "shoulder_pan_joint": -2.4736205022346125,
            "wrist_1_joint": -0.8367026794202681,
            "wrist_2_joint": 0.6746043897044499,
            "wrist_3_joint": -3.1496632123970403
        }
    },
    "waypoints": [
        {
            "positions": [
                -2.4736205022346125,
                -1.1634956873337592,
                2.010868314990456,
                -0.8367026794202681,
                0.6746043897044499,
                -3.1496632123970403
            ]
        },
        {
            "positions": [
                -2.556057388730469,
                -1.1320641922540429,
                1.9685733996239618,
                -0.8261164144228177,
                0.8522822276916787,
                -3.140448331091504
            ]
        },
        {
            "positions": [
                -2.6384942752263263,
                -1.1006326971743265,
                1.9262784842574678,
                -0.8155301494253674,
                1.0299600656789076,
                -3.1312334497859684
            ]
        },
        {
            "positions": [
                -2.7209311617221834,
                -1.0692012020946102,
                1.883983568890974,
                -0.804943884427917,
                1.2076379036661362,
                -3.1220185684804322
            ]
        },
        {
            "positions": [
                -2.80336804821804,
                -1.037769707014894,
                1.84168865352448,
                -0.7943576194304666,
                1.3853157416533652,
                -3.112803687174896
            ]
        },
        {
            "positions": [
                -2.8858049347138968,
                -1.0063382119351776,
                1.799393738157986,
                -0.7837713544330163,
                1.5629935796405938,
                -3.1035888058693604
            ]
        },
        {
            "positions": [
                -2.968241821209754,
                -0.9749067168554614,
                1.757098822791492,
                -0.7731850894355659,
                1.7406714176278226,
                -3.094373924563824
            ]
        }
    ]
}