{
    "goal": {
        "global_pose": {
            "orientation": {
                "w": 0.7047431493862688,
                "x": -0.7094548369677653,
                "y": 0.0024358444001904,
                "z": -0.0022348060817251984
            },
            "position": {
                "x": -0.39052492380142206,
                "y": 0.3671506643295288,
                "z": 0.19426114857196808
            }
        },
        "name": "move_to_magneteinheit_D"
    },
    "id": "FMT_move_to_magneteinheit_D_18",
    "joint_names": [
        "shoulder_pan_joint",
        "shoulder_lift_joint",
        "elbow_joint",
        "wrist_1_joint",
        "wrist_2_joint",
        "wrist_3_joint"
    ],
    "metrics": {
        "cart_traj_len": 3.6471089965616303,
        "distance_elbow_joint": 3.634328068149051,
        "distance_shoulder_lift_joint": 1.626169496538586,
        "distance_shoulder_pan_joint": 2.7174836369392796,
        "distance_wrist_1_joint": 1.9088847416261017,
        "distance_wrist_2_joint": 0.5747187529392289,
        "distance_wrist_3_joint": 3.2276824950893213,
        "smoothness": 0.2369230215043916,
        "time": 1.500235042,
        "traj_len": 3.6999009704695562,
        "weighted_distance": 4.756914512162852
    },
    "planner": "FMT",
    "start": {
        "state": {
            "elbow_joint": 0.749534889911806,
            "shoulder_lift_joint": -0.6476975780787326,
            "shoulder_pan_joint": -2.711696901376241,
            "wrist_1_joint": -0.07506478083263063,
            "wrist_2_joint": 0.43296659715538205,
            "wrist_3_joint": -3.14703540197715
        }
    },
    "waypoints": [
        {
            "positions": [
                -2.711696901376241,
                -0.6476975780787326,
                0.749534889911806,
                -0.07506478083263063,
                0.43296659715538205,
                -3.14703540197715
            ]
        },
        {
            "positions": [
                -2.759214999157952,
                -0.7116532333674375,
                0.5832321901055427,
                -0.05309539429240551,
                0.39674064817175303,
                -3.135299358575615
            ]
        },
        {
            "positions": [
                -2.806733096939663,
                -0.7756088886561424,
                0.41692949029927945,
                -0.031126007752180385,
                0.36051469918812407,
                -3.1235633151740796
            ]
        },
        {
            "positions": [
                -2.6898361607853207,
                -0.7879124894561627,
                0.22572813836848965,
                -0.04331753202612788,
                0.3708242190218925,
                -3.0768735663579223
            ]
        },
        {
            "positions": [
                -2.5729392246309786,
                -0.8002160902561828,
                0.03452678643769985,
                -0.05550905630007538,
                0.38113373885566093,
                -3.0301838175417655
            ]
        },
        {
            "positions": [
                -2.4560422884766364,
                -0.8125196910562029,
                -0.15667456549308995,
                -0.06770058057402288,
                0.39144325868942936,
                -2.9834940687256086
            ]
        },
        {
            "positions": [
                -2.3391453523222943,
                -0.8248232918562232,
                -0.34787591742387974,
                -0.07989210484797038,
                0.4017527785231978,
                -2.9368043199094513
            ]
        },
        {
            "positions": [
                -2.222248416167952,
                -0.8371268926562434,
                -0.5390772693546695,
                -0.09208362912191788,
                0.4120622983569663,
                -2.890114571093294
            ]
        },
        {
            "positions": [
                -2.10535148001361,
                -0.8494304934562635,
                -0.7302786212854593,
                -0.10427515339586538,
                0.4223718181907347,
                -2.843424822277137
            ]
        },
        {
            "positions": [
                -1.9884545438592678,
                -0.8617340942562837,
                -0.9214799732162491,
                -0.11646667766981288,
                0.43268133802450315,
                -2.7967350734609804
            ]
        },
        {
            "positions": [
                -1.8715576077049256,
                -0.8740376950563039,
                -1.1126813251470389,
                -0.12865820194376038,
                0.4429908578582716,
                -2.750045324644823
            ]
        },
        {
            "positions": [
                -1.7546606715505835,
                -0.8863412958563242,
                -1.3038826770778287,
                -0.14084972621770786,
                0.45330037769204,
                -2.703355575828666
            ]
        },
        {
            "positions": [
                -1.6377637353962413,
                -0.8986448966563443,
                -1.4950840290086185,
                -0.15304125049165537,
                0.46360989752580845,
                -2.656665827012509
            ]
        },
        {
            "positions": [
                -1.5208667992418992,
                -0.9109484974563644,
                -1.6862853809394083,
                -0.16523277476560289,
                0.4739194173595769,
                -2.609976078196352
            ]
        },
        {
            "positions": [
                -1.403969863087557,
                -0.9232520982563847,
                -1.877486732870198,
                -0.17742429903955037,
                0.48422893719334537,
                -2.563286329380195
            ]
        },
        {
            "positions": [
                -1.2870729269332148,
                -0.9355556990564049,
                -2.068688084800988,
                -0.18961582331349786,
                0.49453845702711374,
                -2.5165965805640376
            ]
        },
        {
            "positions": [
                -1.1701759907788727,
                -0.947859299856425,
                -2.2598894367317777,
                -0.20180734758744537,
                0.5048479768608822,
                -2.4699068317478807
            ]
        },
        {
            "positions": [
                -1.0532790546245305,
                -0.9601629006564452,
                -2.4510907886625675,
                -0.21399887186139288,
                0.5151574966946506,
                -2.423217082931724
            ]
        },
        {
            "positions": [
                -0.9363821184701883,
                -0.9724665014564654,
                -2.6422921405933573,
                -0.22619039613534037,
                0.5254670165284191,
                -2.3765273341155666
            ]
        },
        {
            "positions": [
                -0.8832287793270189,
                -1.055049269212947,
                -2.6354441589343858,
                -0.13626384538206174,
                0.5101491760013898,
                -2.241098879136978
            ]
        },
        {
            "positions": [
                -0.8300754401838496,
                -1.1376320369694284,
                -2.628596177275414,
                -0.04633729462878311,
                0.4948313354743604,
                -2.1056704241583892
            ]
        },
        {
            "positions": [
                -0.7769221010406804,
                -1.2202148047259098,
                -2.6217481956164423,
                0.04358925612449549,
                0.4795134949473311,
                -1.970241969179801
            ]
        },
        {
            "positions": [
                -0.7237687618975109,
                -1.3027975724823915,
                -2.614900213957471,
                0.13351580687777415,
                0.4641956544203017,
                -1.8348135142012123
            ]
        },
        {
            "positions": [
                -0.6706154227543417,
                -1.385380340238873,
                -2.6080522322984994,
                0.22344235763105275,
                0.44887781389327236,
                -1.6993850592226238
            ]
        },
        {
            "positions": [
                -0.6174620836111724,
                -1.4679631079953543,
                -2.6012042506395274,
                0.31336890838433135,
                0.433559973366243,
                -1.5639566042440354
            ]
        },
        {
            "positions": [
                -0.564308744468003,
                -1.550545875751836,
                -2.594356268980556,
                0.40329545913761006,
                0.4182421328392137,
                -1.4285281492654467
            ]
        },
        {
            "positions": [
                -0.5111554053248337,
                -1.6331286435083174,
                -2.5875082873215844,
                0.49322200989088866,
                0.4029242923121843,
                -1.293099694286858
            ]
        },
        {
            "positions": [
                -0.45800206618166434,
                -1.7157114112647989,
                -2.580660305662613,
                0.5831485606441673,
                0.38760645178515496,
                -1.1576712393082695
            ]
        },
        {
            "positions": [
                -0.40484872703849506,
                -1.7982941790212803,
                -2.573812324003641,
                0.6730751113974458,
                0.3722886112581256,
                -1.022242784329681
            ]
        },
        {
            "positions": [
                -0.35169538789532573,
                -1.880876946777762,
                -2.5669643423446695,
                0.7630016621507245,
                0.3569707707310963,
                -0.8868143293510924
            ]
        },
        {
            "positions": [
                -0.3277797118479658,
                -1.9370183936119842,
                -2.543082451002498,
                0.8602430224187854,
                0.3328538718976173,
                -0.7486055547134833
            ]
        },
        {
            "positions": [
                -0.30386403580060584,
                -1.9931598404462068,
                -2.5192005596603266,
                0.9574843826868463,
                0.3087369730641383,
                -0.6103967800758743
            ]
        },
        {
            "positions": [
                -0.2799483597532459,
                -2.049301287280429,
                -2.495318668318155,
                1.0547257429549073,
                0.28462007423065927,
                -0.47218800543826517
            ]
        },
        {
            "positions": [
                -0.25603268370588594,
                -2.1054427341146513,
                -2.4714367769759837,
                1.1519671032229681,
                0.2605031753971802,
                -0.33397923080065606
            ]
        },
        {
            "positions": [
                -0.232117007658526,
                -2.161584180948874,
                -2.4475548856338123,
                1.249208463491029,
                0.2363862765637012,
                -0.1957704561630469
            ]
        },
        {
            "positions": [
                -0.20820133161116605,
                -2.2177256277830963,
                -2.423672994291641,
                1.34644982375909,
                0.2122693777302222,
                -0.05756168152543795
            ]
        },
        {
            "positions": [
                -0.1842856555638061,
                -2.2738670746173186,
                -2.3997911029494694,
                1.443691184027151,
                0.18815247889674316,
                0.08064709311217128
            ]
        }
    ]
}