{
    "goal": {
        "global_pose": {
            "orientation": {
                "w": 0.7047431493862688,
                "x": -0.7094548369677653,
                "y": 0.0024358444001904,
                "z": -0.0022348060817251984
            },
            "position": {
                "x": -0.39052492380142206,
                "y": 0.3671506643295288,
                "z": 0.19426114857196808
            }
        },
        "name": "move_to_magneteinheit_D"
    },
    "id": "FMT_move_to_magneteinheit_D_4",
    "joint_names": [
        "shoulder_pan_joint",
        "shoulder_lift_joint",
        "elbow_joint",
        "wrist_1_joint",
        "wrist_2_joint",
        "wrist_3_joint"
    ],
    "metrics": {
        "cart_traj_len": 3.8740863396804084,
        "distance_elbow_joint": 3.107495250289391,
        "distance_shoulder_lift_joint": 1.1148282732362056,
        "distance_shoulder_pan_joint": 2.7843955498216415,
        "distance_wrist_1_joint": 2.1171212939610187,
        "distance_wrist_2_joint": 1.3473773227832562,
        "distance_wrist_3_joint": 6.295023205520957,
        "smoothness": 0.050846897506908476,
        "time": 1.531752284,
        "traj_len": 4.094660046403421,
        "weighted_distance": 5.728942827729969
    },
    "planner": "FMT",
    "start": {
        "state": {
            "elbow_joint": 0.749534889911806,
            "shoulder_lift_joint": -0.6476975780787326,
            "shoulder_pan_joint": -2.711696901376241,
            "wrist_1_joint": -0.07506478083263063,
            "wrist_2_joint": 0.43296659715538205,
            "wrist_3_joint": -3.14703540197715
        }
    },
    "waypoints": [
        {
            "positions": [
                -2.711696901376241,
                -0.6476975780787326,
                0.749534889911806,
                -0.07506478083263063,
                0.43296659715538205,
                -3.14703540197715
            ]
        },
        {
            "positions": [
                -2.6993809597049436,
                -0.7530921468845364,
                0.6555593078679176,
                -0.09873103400271573,
                0.47343729729391787,
                -3.0295188426074855
            ]
        },
        {
            "positions": [
                -2.6870650180336466,
                -0.8584867156903403,
                0.5615837258240292,
                -0.12239728717280082,
                0.5139079974324536,
                -2.9120022832378205
            ]
        },
        {
            "positions": [
                -2.674749076362349,
                -0.9638812844961441,
                0.46760814378014076,
                -0.1460635403428859,
                0.5543786975709895,
                -2.794485723868156
            ]
        },
        {
            "positions": [
                -2.662433134691052,
                -1.069275853301948,
                0.37363256173625237,
                -0.16972979351297102,
                0.5948493977095253,
                -2.676969164498491
            ]
        },
        {
            "positions": [
                -2.6501171930197547,
                -1.1746704221077517,
                0.27965697969236397,
                -0.1933960466830561,
                0.6353200978480611,
                -2.5594526051288264
            ]
        },
        {
            "positions": [
                -2.566323510598087,
                -1.1743701589313578,
                0.19895561313113913,
                -0.25793493967578013,
                0.6415486790225752,
                -2.404286087481378
            ]
        },
        {
            "positions": [
                -2.4825298281764194,
                -1.1740698957549638,
                0.11825424656991426,
                -0.32247383266850416,
                0.6477772601970893,
                -2.2491195698339297
            ]
        },
        {
            "positions": [
                -2.398736145754752,
                -1.1737696325785698,
                0.03755288000868942,
                -0.38701272566122813,
                0.6540058413716033,
                -2.0939530521864813
            ]
        },
        {
            "positions": [
                -2.3149424633330837,
                -1.1734693694021758,
                -0.04314848655253545,
                -0.45155161865395216,
                0.6602344225461174,
                -1.938786534539033
            ]
        },
        {
            "positions": [
                -2.231148780911416,
                -1.1731691062257816,
                -0.12384985311376029,
                -0.5160905116466762,
                0.6664630037206315,
                -1.7836200168915846
            ]
        },
        {
            "positions": [
                -2.1473550984897485,
                -1.1728688430493877,
                -0.20455121967498513,
                -0.5806294046394003,
                0.6726915848951456,
                -1.6284534992441362
            ]
        },
        {
            "positions": [
                -2.063561416068081,
                -1.1725685798729937,
                -0.28525258623621,
                -0.6451682976321242,
                0.6789201660696595,
                -1.4732869815966878
            ]
        },
        {
            "positions": [
                -1.979767733646413,
                -1.1722683166965997,
                -0.36595395279743487,
                -0.7097071906248482,
                0.6851487472441736,
                -1.3181204639492394
            ]
        },
        {
            "positions": [
                -1.8959740512247454,
                -1.1719680535202057,
                -0.4466553193586597,
                -0.7742460836175723,
                0.6913773284186877,
                -1.162953946301791
            ]
        },
        {
            "positions": [
                -1.8121803688030775,
                -1.1716677903438117,
                -0.5273566859198846,
                -0.8387849766102963,
                0.6976059095932018,
                -1.0077874286543427
            ]
        },
        {
            "positions": [
                -1.72838668638141,
                -1.1713675271674178,
                -0.6080580524811094,
                -0.9033238696030204,
                0.7038344907677159,
                -0.8526209110068943
            ]
        },
        {
            "positions": [
                -1.6445930039597423,
                -1.1710672639910238,
                -0.6887594190423343,
                -0.9678627625957443,
                0.71006307194223,
                -0.6974543933594459
            ]
        },
        {
            "positions": [
                -1.5607993215380744,
                -1.1707670008146298,
                -0.7694607856035591,
                -1.0324016555884683,
                0.716291653116744,
                -0.5422878757119975
            ]
        },
        {
            "positions": [
                -1.4770056391164068,
                -1.1704667376382356,
                -0.850162152164784,
                -1.0969405485811925,
                0.7225202342912581,
                -0.38712135806454917
            ]
        },
        {
            "positions": [
                -1.393211956694739,
                -1.1701664744618416,
                -0.9308635187260088,
                -1.1614794415739165,
                0.7287488154657722,
                -0.23195484041710035
            ]
        },
        {
            "positions": [
                -1.3094182742730713,
                -1.1698662112854477,
                -1.0115648852872337,
                -1.2260183345666404,
                0.7349773966402863,
                -0.07678832276965242
            ]
        },
        {
            "positions": [
                -1.2256245918514035,
                -1.1695659481090537,
                -1.0922662518484585,
                -1.2905572275593644,
                0.7412059778148004,
                0.0783781948777964
            ]
        },
        {
            "positions": [
                -1.141830909429736,
                -1.1692656849326597,
                -1.1729676184096833,
                -1.3550961205520884,
                0.7474345589893144,
                0.23354471252524434
            ]
        },
        {
            "positions": [
                -1.0580372270080682,
                -1.1689654217562657,
                -1.2536689849709084,
                -1.4196350135448124,
                0.7536631401638285,
                0.38871123017269316
            ]
        },
        {
            "positions": [
                -0.9742435445864006,
                -1.1686651585798717,
                -1.334370351532133,
                -1.4841739065375363,
                0.7598917213383425,
                0.5438777478201411
            ]
        },
        {
            "positions": [
                -0.8904498621647328,
                -1.1683648954034778,
                -1.415071718093358,
                -1.5487127995302608,
                0.7661203025128567,
                0.6990442654675899
            ]
        },
        {
            "positions": [
                -0.8066561797430651,
                -1.1680646322270838,
                -1.4957730846545827,
                -1.6132516925229847,
                0.7723488836873706,
                0.8542107831150378
            ]
        },
        {
            "positions": [
                -0.7228624973213973,
                -1.1677643690506896,
                -1.5764744512158078,
                -1.6777905855157087,
                0.7785774648618847,
                1.0093773007624867
            ]
        },
        {
            "positions": [
                -0.6390688148997299,
                -1.1674641058742956,
                -1.6571758177770324,
                -1.7423294785084327,
                0.7848060460363988,
                1.1645438184099346
            ]
        },
        {
            "positions": [
                -0.5552751324780618,
                -1.1671638426979016,
                -1.7378771843382574,
                -1.8068683715011566,
                0.7910346272109129,
                1.3197103360573834
            ]
        },
        {
            "positions": [
                -0.4714814500563942,
                -1.1668635795215077,
                -1.8185785508994823,
                -1.8714072644938806,
                0.797263208385427,
                1.4748768537048313
            ]
        },
        {
            "positions": [
                -0.38768776763472657,
                -1.1665633163451137,
                -1.8992799174607071,
                -1.9359461574866046,
                0.803491789559941,
                1.6300433713522797
            ]
        },
        {
            "positions": [
                -0.3023379571220777,
                -1.1977247683387093,
                -1.9234005656688236,
                -1.9841729808912465,
                0.770309458425954,
                1.7428823646485054
            ]
        },
        {
            "positions": [
                -0.2169881466094289,
                -1.2288862203323048,
                -1.9475212138769398,
                -2.0323998042958884,
                0.7371271272919669,
                1.8557213579447311
            ]
        },
        {
            "positions": [
                -0.13163833609678005,
                -1.2600476723259004,
                -1.9716418620850562,
                -2.0806266277005303,
                0.7039447961579799,
                1.9685603512409569
            ]
        },
        {
            "positions": [
                -0.11281527060197019,
                -1.313432493485106,
                -2.013623086116581,
                -2.103732368785994,
                0.6128310014332852,
                2.107505229946348
            ]
        },
        {
            "positions": [
                -0.09399220510716035,
                -1.3668173146443117,
                -2.0556043101481056,
                -2.126838109871458,
                0.5217172067085905,
                2.2464501086517386
            ]
        },
        {
            "positions": [
                -0.0751691396123505,
                -1.4202021358035175,
                -2.0975855341796303,
                -2.149943850956922,
                0.4306034119838957,
                2.385394987357129
            ]
        },
        {
            "positions": [
                -0.05634607411754063,
                -1.4735869569627231,
                -2.139566758211155,
                -2.173049592042386,
                0.33948961725920096,
                2.5243398660625203
            ]
        },
        {
            "positions": [
                -0.082155018630129,
                -1.528131893528111,
                -2.1832454786444413,
                -2.1768768885926386,
                0.23691962564360952,
                2.649069453558777
            ]
        },
        {
            "positions": [
                -0.10796396314271739,
                -1.5826768300934988,
                -2.226924199077727,
                -2.180704185142891,
                0.13434963402801808,
                2.7737990410550344
            ]
        },
        {
            "positions": [
                -0.13377290765530575,
                -1.6372217666588864,
                -2.2706029195110133,
                -2.1845314816931443,
                0.031779642412426645,
                2.8985286285512912
            ]
        },
        {
            "positions": [
                -0.15958185216789414,
                -1.6917667032242742,
                -2.314281639944299,
                -2.188358778243397,
                -0.07079034920316479,
                3.0232582160475485
            ]
        },
        {
            "positions": [
                -0.1853907966804825,
                -1.746311639789662,
                -2.3579603603775854,
                -2.1921860747936495,
                -0.17336034081875626,
                3.1479878035438054
            ]
        }
    ]
}