{
    "goal": {
        "global_pose": {
            "orientation": {
                "w": -0.4816463035849501,
                "x": 0.5182115481033762,
                "y": 0.4908360881923453,
                "z": -0.5084816262002911
            },
            "position": {
                "x": -0.8240239810943604,
                "y": -0.300875300988555,
                "z": 0.16403168439865112
            }
        },
        "name": "move_to_storage_C"
    },
    "id": "FMT_move_to_storage_C_133",
    "joint_names": [
        "shoulder_pan_joint",
        "shoulder_lift_joint",
        "elbow_joint",
        "wrist_1_joint",
        "wrist_2_joint",
        "wrist_3_joint"
    ],
    "metrics": {
        "cart_traj_len": 0.5763803199569255,
        "distance_elbow_joint": 0.25665844710585994,
        "distance_shoulder_lift_joint": 0.18842807796256533,
        "distance_shoulder_pan_joint": 0.4958799063910946,
        "distance_wrist_1_joint": 0.07645998012791844,
        "distance_wrist_2_joint": 1.0585323707731442,
        "distance_wrist_3_joint": 0.06276350319638624,
        "smoothness": 2.5376526478085547e-16,
        "time": 0.326160661,
        "traj_len": 1.4624371048209113,
        "weighted_distance": 1.843703241536122
    },
    "planner": "FMT",
    "start": {
        "state": {
            "elbow_joint": 2.010868314990456,
            "shoulder_lift_joint": -1.1634956873337592,
            "shoulder_pan_joint": -2.4736205022346125,
            "wrist_1_joint": -0.8367026794202681,
            "wrist_2_joint": 0.6746043897044499,
            "wrist_3_joint": -3.1496632123970403
        }
    },
    "waypoints": [
        {
            "positions": [
                -2.4736205022346125,
                -1.1634956873337592,
                2.010868314990456,
                -0.8367026794202681,
                0.6746043897044499,
                -3.1496632123970403
            ]
        },
        {
            "positions": [
                -2.556267153299795,
                -1.1320910076733317,
                1.9680919071394791,
                -0.8239593493989483,
                0.8510264514999739,
                -3.1392026285309758
            ]
        },
        {
            "positions": [
                -2.6389138043649774,
                -1.100686328012904,
                1.9253154992885024,
                -0.8112160193776287,
                1.027448513295498,
                -3.1287420446649117
            ]
        },
        {
            "positions": [
                -2.7215604554301596,
                -1.0692816483524765,
                1.882539091437526,
                -0.7984726893563089,
                1.2038705750910221,
                -3.118281460798847
            ]
        },
        {
            "positions": [
                -2.804207106495342,
                -1.037876968692049,
                1.8397626835865493,
                -0.7857293593349891,
                1.380292636886546,
                -3.1078208769327826
            ]
        },
        {
            "positions": [
                -2.886853757560525,
                -1.0064722890316213,
                1.7969862757355726,
                -0.7729860293136694,
                1.5567146986820701,
                -3.0973602930667186
            ]
        },
        {
            "positions": [
                -2.969500408625707,
                -0.9750676093711939,
                1.7542098678845959,
                -0.7602426992923497,
                1.7331367604775942,
                -3.086899709200654
            ]
        }
    ]
}