{
    "goal": {
        "global_pose": {
            "orientation": {
                "w": 0.7047431468963623,
                "x": -0.7094548344612122,
                "y": 0.0024358443915843964,
                "z": -0.0022348060738295317
            },
            "position": {
                "x": 0.6094750761985779,
                "y": 0.3671506643295288,
                "z": 0.19426114857196808
            }
        },
        "name": "move_to_magneteinheit_A"
    },
    "id": "FMT_move_to_magneteinheit_A_59",
    "joint_names": [
        "shoulder_pan_joint",
        "shoulder_lift_joint",
        "elbow_joint",
        "wrist_1_joint",
        "wrist_2_joint",
        "wrist_3_joint"
    ],
    "metrics": {
        "cart_traj_len": 3.512609010081123,
        "distance_elbow_joint": 3.881564669532829,
        "distance_shoulder_lift_joint": 0.22956479560027931,
        "distance_shoulder_pan_joint": 2.93004005567307,
        "distance_wrist_1_joint": 0.8206030594387362,
        "distance_wrist_2_joint": 1.7026217001193018,
        "distance_wrist_3_joint": 3.6848081357898295,
        "smoothness": 0.11572322748415445,
        "time": 1.26576368,
        "traj_len": 3.6399453864246425,
        "weighted_distance": 4.810617782290726
    },
    "planner": "FMT",
    "start": {
        "state": {
            "elbow_joint": -1.9196185241190666,
            "shoulder_lift_joint": -1.2443396400964142,
            "shoulder_pan_joint": 2.6996025414629847,
            "wrist_1_joint": -1.5485510000780065,
            "wrist_2_joint": -1.5709468930060704,
            "wrist_3_joint": 0.4420197071253992
        }
    },
    "waypoints": [
        {
            "positions": [
                2.6996025414629847,
                -1.2443396400964142,
                -1.9196185241190666,
                -1.5485510000780065,
                -1.5709468930060704,
                0.4420197071253992
            ]
        },
        {
            "positions": [
                2.536938667999668,
                -1.2357165097248968,
                -1.8604418844351238,
                -1.5073028601893514,
                -1.5211502533365855,
                0.3720149702982621
            ]
        },
        {
            "positions": [
                2.3742747945363516,
                -1.2270933793533796,
                -1.8012652447511812,
                -1.4660547203006962,
                -1.4713536136671006,
                0.302010233471125
            ]
        },
        {
            "positions": [
                2.211610921073035,
                -1.2184702489818622,
                -1.7420886050672384,
                -1.4248065804120411,
                -1.421556973997616,
                0.23200549664398795
            ]
        },
        {
            "positions": [
                2.048947047609719,
                -1.2098471186103448,
                -1.6829119653832958,
                -1.3835584405233858,
                -1.371760334328131,
                0.16200075981685086
            ]
        },
        {
            "positions": [
                1.8862831741464023,
                -1.2012239882388274,
                -1.623735325699353,
                -1.3423103006347308,
                -1.3219636946586462,
                0.09199602298971382
            ]
        },
        {
            "positions": [
                1.7236193006830858,
                -1.1926008578673102,
                -1.5645586860154104,
                -1.3010621607460755,
                -1.2721670549891613,
                0.02199128616257673
            ]
        },
        {
            "positions": [
                1.5609554272197692,
                -1.1839777274957928,
                -1.5053820463314675,
                -1.2598140208574204,
                -1.2223704153196764,
                -0.048013450664560364
            ]
        },
        {
            "positions": [
                1.3982915537564526,
                -1.1753545971242754,
                -1.446205406647525,
                -1.2185658809687652,
                -1.1725737756501915,
                -0.11801818749169746
            ]
        },
        {
            "positions": [
                1.235627680293136,
                -1.166731466752758,
                -1.3870287669635821,
                -1.1773177410801101,
                -1.1227771359807068,
                -0.1880229243188346
            ]
        },
        {
            "positions": [
                1.0729638068298197,
                -1.1581083363812408,
                -1.3278521272796393,
                -1.1360696011914548,
                -1.072980496311222,
                -0.25802766114597153
            ]
        },
        {
            "positions": [
                0.9102999333665032,
                -1.1494852060097234,
                -1.2686754875956967,
                -1.0948214613027998,
                -1.023183856641737,
                -0.3280323979731087
            ]
        },
        {
            "positions": [
                0.8595363813414074,
                -1.1455522999114989,
                -1.103876781973669,
                -1.0920897638581788,
                -0.9757857867265888,
                -0.44803392919290075
            ]
        },
        {
            "positions": [
                0.8087728293163117,
                -1.1416193938132744,
                -0.9390780763516415,
                -1.0893580664135578,
                -0.9283877168114405,
                -0.5680354604126927
            ]
        },
        {
            "positions": [
                0.7580092772912159,
                -1.1376864877150499,
                -0.774279370729614,
                -1.0866263689689366,
                -0.8809896468962923,
                -0.6880369916324849
            ]
        },
        {
            "positions": [
                0.7072457252661202,
                -1.1337535816168254,
                -0.6094806651075864,
                -1.0838946715243156,
                -0.8335915769811441,
                -0.8080385228522768
            ]
        },
        {
            "positions": [
                0.6564821732410244,
                -1.1298206755186009,
                -0.4446819594855588,
                -1.0811629740796946,
                -0.7861935070659958,
                -0.9280400540720689
            ]
        },
        {
            "positions": [
                0.6057186212159287,
                -1.1258877694203764,
                -0.2798832538635312,
                -1.0784312766350737,
                -0.7387954371508475,
                -1.048041585291861
            ]
        },
        {
            "positions": [
                0.5549550691908329,
                -1.1219548633221519,
                -0.11508454824150349,
                -1.0756995791904527,
                -0.6913973672356992,
                -1.168043116511653
            ]
        },
        {
            "positions": [
                0.5041915171657372,
                -1.1180219572239274,
                0.04971415738052398,
                -1.0729678817458315,
                -0.6439992973205511,
                -1.2880446477314451
            ]
        },
        {
            "positions": [
                0.45342796514064143,
                -1.114089051125703,
                0.21451286300255168,
                -1.0702361843012105,
                -0.5966012274054027,
                -1.408046178951237
            ]
        },
        {
            "positions": [
                0.4026644131155457,
                -1.1101561450274784,
                0.37931156862457915,
                -1.0675044868565895,
                -0.5492031574902545,
                -1.528047710171029
            ]
        },
        {
            "positions": [
                0.35190086109044993,
                -1.106223238929254,
                0.5441102742466071,
                -1.0647727894119685,
                -0.5018050875751062,
                -1.6480492413908214
            ]
        },
        {
            "positions": [
                0.3011373090653542,
                -1.1022903328310294,
                0.7089089798686343,
                -1.0620410919673473,
                -0.45440701765995795,
                -1.7680507726106134
            ]
        },
        {
            "positions": [
                0.25037375704025844,
                -1.098357426732805,
                0.873707685490662,
                -1.0593093945227263,
                -0.40700894774480967,
                -1.8880523038304053
            ]
        },
        {
            "positions": [
                0.1996102050151627,
                -1.0944245206345804,
                1.0385063911126897,
                -1.0565776970781053,
                -0.3596108778296615,
                -2.0080538350501973
            ]
        },
        {
            "positions": [
                0.14884665299006694,
                -1.090491614536356,
                1.2033050967347174,
                -1.0538459996334844,
                -0.3122128079145131,
                -2.1280553662699893
            ]
        },
        {
            "positions": [
                0.09808310096497119,
                -1.0865587084381314,
                1.3681038023567447,
                -1.0511143021888634,
                -0.26481473799936495,
                -2.248056897489781
            ]
        },
        {
            "positions": [
                0.047319548939875444,
                -1.082625802339907,
                1.5329025079787724,
                -1.0483826047442422,
                -0.21741666808421667,
                -2.3680584287095736
            ]
        },
        {
            "positions": [
                -0.003444003085220304,
                -1.0786928962416824,
                1.6977012136008,
                -1.0456509072996212,
                -0.1700185981690684,
                -2.4880599599293656
            ]
        },
        {
            "positions": [
                -0.054207555110316,
                -1.074759990143458,
                1.8624999192228275,
                -1.0429192098550002,
                -0.12262052825392011,
                -2.6080614911491575
            ]
        },
        {
            "positions": [
                -0.010150065335373812,
                -1.0897562765552886,
                1.887361475770561,
                -0.9641763925510677,
                -0.05904669441213228,
                -2.766743225527976
            ]
        },
        {
            "positions": [
                0.03390742443956837,
                -1.1047525629671195,
                1.9122230323182945,
                -0.8854335752471352,
                0.004527139429655547,
                -2.9254249599067936
            ]
        },
        {
            "positions": [
                0.07796491421451057,
                -1.1197488493789503,
                1.937084588866028,
                -0.8066907579432028,
                0.06810097327144338,
                -3.084106694285612
            ]
        },
        {
            "positions": [
                0.12202240398945273,
                -1.134745135790781,
                1.9619461454137614,
                -0.7279479406392703,
                0.1316748071132312,
                -3.24278842866443
            ]
        }
    ]
}