{
    "goal": {
        "global_pose": {
            "orientation": {
                "w": 0.7047431468963623,
                "x": -0.7094548344612122,
                "y": 0.0024358443915843964,
                "z": -0.0022348060738295317
            },
            "position": {
                "x": 0.6094750761985779,
                "y": 0.3671506643295288,
                "z": 0.19426114857196808
            }
        },
        "name": "move_to_magneteinheit_A"
    },
    "id": "FMT_move_to_magneteinheit_A_118",
    "joint_names": [
        "shoulder_pan_joint",
        "shoulder_lift_joint",
        "elbow_joint",
        "wrist_1_joint",
        "wrist_2_joint",
        "wrist_3_joint"
    ],
    "metrics": {
        "cart_traj_len": 3.831151321619621,
        "distance_elbow_joint": 3.8896708585039255,
        "distance_shoulder_lift_joint": 1.3788280247287035,
        "distance_shoulder_pan_joint": 3.1805388916799546,
        "distance_wrist_1_joint": 0.8487275943399095,
        "distance_wrist_2_joint": 1.695625467973835,
        "distance_wrist_3_joint": 2.581534705014567,
        "smoothness": 0.3599749546179753,
        "time": 1.294484291,
        "traj_len": 3.6844165809855016,
        "weighted_distance": 4.613279529205203
    },
    "planner": "FMT",
    "start": {
        "state": {
            "elbow_joint": -1.9196185241190666,
            "shoulder_lift_joint": -1.2443396400964142,
            "shoulder_pan_joint": 2.6996025414629847,
            "wrist_1_joint": -1.5485510000780065,
            "wrist_2_joint": -1.5709468930060704,
            "wrist_3_joint": 0.4420197071253992
        }
    },
    "waypoints": [
        {
            "positions": [
                2.6996025414629847,
                -1.2443396400964142,
                -1.9196185241190666,
                -1.5485510000780065,
                -1.5709468930060704,
                0.4420197071253992
            ]
        },
        {
            "positions": [
                2.5982128030640954,
                -1.2242707609002965,
                -1.8105954397595814,
                -1.5303306065628317,
                -1.5058043142479576,
                0.5067932436519254
            ]
        },
        {
            "positions": [
                2.4968230646652056,
                -1.2042018817041789,
                -1.7015723554000963,
                -1.512110213047657,
                -1.4406617354898448,
                0.5715667801784515
            ]
        },
        {
            "positions": [
                2.3954333262663163,
                -1.1841330025080612,
                -1.592549271040611,
                -1.493889819532482,
                -1.375519156731732,
                0.6363403167049777
            ]
        },
        {
            "positions": [
                2.294043587867427,
                -1.1640641233119435,
                -1.483526186681126,
                -1.475669426017307,
                -1.3103765779736192,
                0.701113853231504
            ]
        },
        {
            "positions": [
                2.1926538494685373,
                -1.143995244115826,
                -1.3745031023216407,
                -1.4574490325021323,
                -1.2452339992155061,
                0.7658873897580301
            ]
        },
        {
            "positions": [
                2.091264111069648,
                -1.1239263649197084,
                -1.2654800179621555,
                -1.4392286389869575,
                -1.1800914204573933,
                0.8306609262845563
            ]
        },
        {
            "positions": [
                1.9898743726707586,
                -1.1038574857235908,
                -1.1564569336026704,
                -1.4210082454717825,
                -1.1149488416992805,
                0.8954344628110825
            ]
        },
        {
            "positions": [
                1.888484634271869,
                -1.083788606527473,
                -1.0474338492431854,
                -1.4027878519566077,
                -1.0498062629411677,
                0.9602079993376087
            ]
        },
        {
            "positions": [
                1.7870948958729795,
                -1.0637197273313554,
                -0.9384107648837,
                -1.384567458441433,
                -0.984663684183055,
                1.0249815358641348
            ]
        },
        {
            "positions": [
                1.6857051574740902,
                -1.0436508481352378,
                -0.8293876805242149,
                -1.3663470649262581,
                -0.9195211054249421,
                1.089755072390661
            ]
        },
        {
            "positions": [
                1.5843154190752005,
                -1.0235819689391201,
                -0.7203645961647296,
                -1.348126671411083,
                -0.8543785266668293,
                1.1545286089171873
            ]
        },
        {
            "positions": [
                1.4829256806763111,
                -1.0035130897430025,
                -0.6113415118052445,
                -1.3299062778959083,
                -0.7892359479087165,
                1.2193021454437134
            ]
        },
        {
            "positions": [
                1.3815359422774216,
                -0.9834442105468848,
                -0.5023184274457593,
                -1.3116858843807335,
                -0.7240933691506036,
                1.2840756819702397
            ]
        },
        {
            "positions": [
                1.2801462038785323,
                -0.9633753313507672,
                -0.39329534308627423,
                -1.2934654908655587,
                -0.6589507903924909,
                1.348849218496766
            ]
        },
        {
            "positions": [
                1.1787564654796427,
                -0.9433064521546496,
                -0.28427225872678896,
                -1.2752450973503837,
                -0.593808211634378,
                1.413622755023292
            ]
        },
        {
            "positions": [
                1.0773667270807534,
                -0.9232375729585319,
                -0.17524917436730392,
                -1.257024703835209,
                -0.5286656328762653,
                1.478396291549818
            ]
        },
        {
            "positions": [
                0.9759769886818639,
                -0.9031686937624143,
                -0.06622609000781843,
                -1.2388043103200341,
                -0.4635230541181523,
                1.5431698280763446
            ]
        },
        {
            "positions": [
                0.8745872502829743,
                -0.8830998145662967,
                0.04279699435166662,
                -1.2205839168048593,
                -0.39838047536003973,
                1.6079433646028707
            ]
        },
        {
            "positions": [
                0.7731975118840848,
                -0.863030935370179,
                0.15182007871115166,
                -1.2023635232896845,
                -0.3332378966019267,
                1.6727169011293967
            ]
        },
        {
            "positions": [
                0.6718077734851957,
                -0.8429620561740614,
                0.26084316307063693,
                -1.1841431297745095,
                -0.2680953178438139,
                1.7374904376559228
            ]
        },
        {
            "positions": [
                0.5704180350863057,
                -0.8228931769779437,
                0.369866247430122,
                -1.1659227362593347,
                -0.20295273908570108,
                1.802263974182449
            ]
        },
        {
            "positions": [
                0.4954775756209585,
                -0.8859868672993128,
                0.5289527106409159,
                -1.1464172936744597,
                -0.19718025590395194,
                1.8685949053914883
            ]
        },
        {
            "positions": [
                0.42053711615561135,
                -0.9490805576206819,
                0.6880391738517098,
                -1.1269118510895844,
                -0.19140777272220283,
                1.9349258366005277
            ]
        },
        {
            "positions": [
                0.3455966566902642,
                -1.012174247942051,
                0.8471256370625035,
                -1.1074064085047093,
                -0.1856352895404537,
                2.0012567678095667
            ]
        },
        {
            "positions": [
                0.27065619722491696,
                -1.07526793826342,
                1.0062121002732975,
                -1.0879009659198342,
                -0.17986280635870455,
                2.067587699018606
            ]
        },
        {
            "positions": [
                0.1957157377595698,
                -1.138361628584789,
                1.1652985634840913,
                -1.068395523334959,
                -0.17409032317695544,
                2.1339186302276456
            ]
        },
        {
            "positions": [
                0.12077527829422263,
                -1.201455318906158,
                1.3243850266948851,
                -1.0488900807500838,
                -0.1683178399952063,
                2.2002495614366846
            ]
        },
        {
            "positions": [
                0.04583481882887541,
                -1.264549009227527,
                1.483471489905679,
                -1.0293846381652088,
                -0.16254535681345716,
                2.266580492645724
            ]
        },
        {
            "positions": [
                -0.029105640636471808,
                -1.3276426995488961,
                1.6425579531164731,
                -1.0098791955803335,
                -0.15677287363170803,
                2.3329114238547635
            ]
        },
        {
            "positions": [
                -0.10404610010181892,
                -1.3907363898702654,
                1.801644416327267,
                -0.9903737529954584,
                -0.15100039044995892,
                2.3992423550638025
            ]
        },
        {
            "positions": [
                -0.17898655956716614,
                -1.4538300801916344,
                1.9607308795380607,
                -0.9708683104105832,
                -0.14522790726820978,
                2.465573286272842
            ]
        },
        {
            "positions": [
                -0.11859660143720549,
                -1.388541148512326,
                1.9588665885687009,
                -0.916659329476086,
                -0.09124661082101501,
                2.5771695114462667
            ]
        },
        {
            "positions": [
                -0.05820664330724484,
                -1.3232522168330174,
                1.9570022975993413,
                -0.8624503485415886,
                -0.037265314373820246,
                2.6887657366196915
            ]
        },
        {
            "positions": [
                0.002183314822715776,
                -1.257963285153709,
                1.9551380066299815,
                -0.8082413676070914,
                0.01671598207337449,
                2.800361961793117
            ]
        },
        {
            "positions": [
                0.06257327295267645,
                -1.1926743534744004,
                1.953273715660622,
                -0.7540323866725942,
                0.07069727852056928,
                2.9119581869665416
            ]
        },
        {
            "positions": [
                0.1229632310826371,
                -1.127385421795092,
                1.951409424691262,
                -0.699823405738097,
                0.12467857496776402,
                3.0235544121399665
            ]
        }
    ]
}