{
    "goal": {
        "global_pose": {
            "orientation": {
                "w": -0.4816463035849501,
                "x": 0.5182115481033762,
                "y": 0.4908360881923453,
                "z": -0.5084816262002911
            },
            "position": {
                "x": -0.8240239810943604,
                "y": 0.19912469901144506,
                "z": 0.16403168439865112
            }
        },
        "name": "move_to_storage_D"
    },
    "id": "FMT_move_to_storage_D_143",
    "joint_names": [
        "shoulder_pan_joint",
        "shoulder_lift_joint",
        "elbow_joint",
        "wrist_1_joint",
        "wrist_2_joint",
        "wrist_3_joint"
    ],
    "metrics": {
        "cart_traj_len": 0.525217259189832,
        "distance_elbow_joint": 0.6953608611026185,
        "distance_shoulder_lift_joint": 0.15281415117358987,
        "distance_shoulder_pan_joint": 0.15117548108816325,
        "distance_wrist_1_joint": 3.8282321107043176,
        "distance_wrist_2_joint": 1.7847280960379202,
        "distance_wrist_3_joint": 3.124238299907441,
        "smoothness": 0.08034620485378254,
        "time": 1.290035067,
        "traj_len": 3.1203443720227497,
        "weighted_distance": 4.647363317685758
    },
    "planner": "FMT",
    "start": {
        "state": {
            "elbow_joint": -2.384821988534728,
            "shoulder_lift_joint": -2.2788054721415256,
            "shoulder_pan_joint": -0.1854694642142757,
            "wrist_1_joint": 1.4845938289331202,
            "wrist_2_joint": 0.17898776772866878,
            "wrist_3_joint": 0.037105688729662994
        }
    },
    "waypoints": [
        {
            "positions": [
                -0.1854694642142757,
                -2.2788054721415256,
                -2.384821988534728,
                1.4845938289331202,
                0.17898776772866878,
                0.037105688729662994
            ]
        },
        {
            "positions": [
                -0.1429608933600785,
                -2.243890039836174,
                -2.40824769368365,
                1.3570352949345843,
                0.1337398546867062,
                -0.01200387313789622
            ]
        },
        {
            "positions": [
                -0.10045232250588126,
                -2.2089746075308216,
                -2.4316733988325714,
                1.2294767609360484,
                0.08849194164474362,
                -0.061113435005455435
            ]
        },
        {
            "positions": [
                -0.05794375165168403,
                -2.17405917522547,
                -2.4550991039814933,
                1.1019182269375125,
                0.04324402860278104,
                -0.11022299687301465
            ]
        },
        {
            "positions": [
                -0.05691550084622439,
                -2.1719692685186205,
                -2.427921549822543,
                0.9521114222110468,
                -0.02845094343687256,
                -0.23965384966887393
            ]
        },
        {
            "positions": [
                -0.05588725004076476,
                -2.169879361811771,
                -2.400743995663593,
                0.8023046174845812,
                -0.10014591547652615,
                -0.36908470246473324
            ]
        },
        {
            "positions": [
                -0.05485899923530512,
                -2.167789455104922,
                -2.373566441504643,
                0.6524978127581155,
                -0.17184088751617974,
                -0.49851555526059255
            ]
        },
        {
            "positions": [
                -0.05383074842984548,
                -2.1656995483980728,
                -2.3463888873456926,
                0.5026910080316498,
                -0.24353585955583334,
                -0.6279464080564517
            ]
        },
        {
            "positions": [
                -0.05280249762438585,
                -2.1636096416912234,
                -2.3192113331867428,
                0.3528842033051841,
                -0.3152308315954869,
                -0.757377260852311
            ]
        },
        {
            "positions": [
                -0.051774246818926214,
                -2.161519734984374,
                -2.2920337790277925,
                0.20307739857871843,
                -0.3869258036351405,
                -0.8868081136481704
            ]
        },
        {
            "positions": [
                -0.05074599601346658,
                -2.1594298282775246,
                -2.264856224868842,
                0.053270593852252635,
                -0.45862077567479415,
                -1.0162389664440297
            ]
        },
        {
            "positions": [
                -0.049717745208006946,
                -2.1573399215706752,
                -2.2376786707098923,
                -0.09653621087421294,
                -0.5303157477144478,
                -1.1456698192398889
            ]
        },
        {
            "positions": [
                -0.04868949440254731,
                -2.1552500148638263,
                -2.210501116550942,
                -0.24634301560067873,
                -0.6020107197541014,
                -1.2751006720357483
            ]
        },
        {
            "positions": [
                -0.04766124359708768,
                -2.153160108156977,
                -2.183323562391992,
                -0.3961498203271443,
                -0.673705691793755,
                -1.4045315248316075
            ]
        },
        {
            "positions": [
                -0.04663299279162804,
                -2.1510702014501275,
                -2.156146008233042,
                -0.5459566250536099,
                -0.7454006638334085,
                -1.5339623776274667
            ]
        },
        {
            "positions": [
                -0.0456047419861684,
                -2.148980294743278,
                -2.1289684540740916,
                -0.6957634297800757,
                -0.8170956358730621,
                -1.663393230423326
            ]
        },
        {
            "positions": [
                -0.04457649118070877,
                -2.1468903880364287,
                -2.101790899915142,
                -0.8455702345065412,
                -0.8887906079127155,
                -1.7928240832191853
            ]
        },
        {
            "positions": [
                -0.04354824037524913,
                -2.1448004813295793,
                -2.0746133457561915,
                -0.9953770392330072,
                -0.9604855799523693,
                -1.9222549360150447
            ]
        },
        {
            "positions": [
                -0.042519989569789494,
                -2.1427105746227304,
                -2.047435791597241,
                -1.1451838439594726,
                -1.0321805519920229,
                -2.051685788810904
            ]
        },
        {
            "positions": [
                -0.041491738764329864,
                -2.140620667915881,
                -2.0202582374382914,
                -1.2949906486859384,
                -1.1038755240316764,
                -2.181116641606763
            ]
        },
        {
            "positions": [
                -0.040463487958870226,
                -2.1385307612090316,
                -1.993080683279341,
                -1.4447974534124037,
                -1.1755704960713298,
                -2.3105474944026225
            ]
        },
        {
            "positions": [
                -0.03943523715341059,
                -2.1364408545021822,
                -1.9659031291203908,
                -1.59460425813887,
                -1.2472654681109836,
                -2.439978347198482
            ]
        },
        {
            "positions": [
                -0.03840698634795095,
                -2.134350947795333,
                -1.9387255749614407,
                -1.7444110628653353,
                -1.3189604401506372,
                -2.569409199994341
            ]
        },
        {
            "positions": [
                -0.03737873554249132,
                -2.1322610410884835,
                -1.9115480208024906,
                -1.894217867591801,
                -1.3906554121902908,
                -2.6988400527902003
            ]
        },
        {
            "positions": [
                -0.03635048473703169,
                -2.1301711343816345,
                -1.8843704666435406,
                -2.0440246723182662,
                -1.4623503842299443,
                -2.8282709055860593
            ]
        },
        {
            "positions": [
                -0.03532223393157205,
                -2.128081227674785,
                -1.8571929124845903,
                -2.193831477044732,
                -1.534045356269598,
                -2.9577017583819187
            ]
        },
        {
            "positions": [
                -0.03429398312611241,
                -2.1259913209679357,
                -1.8300153583256402,
                -2.343638281771198,
                -1.6057403283092515,
                -3.087132611177778
            ]
        }
    ]
}