{
    "goal": {
        "global_pose": {
            "orientation": {
                "w": 0.005598929693374612,
                "x": 0.007748599140229565,
                "y": 0.7110244013736278,
                "z": -0.7031023480610252
            },
            "position": {
                "x": 0.1141497679147869,
                "y": -0.7141253447532654,
                "z": 0.3711530566215515
            }
        },
        "name": "move_to_auspresseinheit_B"
    },
    "id": "FMT_move_to_auspresseinheit_B_111",
    "joint_names": [
        "shoulder_pan_joint",
        "shoulder_lift_joint",
        "elbow_joint",
        "wrist_1_joint",
        "wrist_2_joint",
        "wrist_3_joint"
    ],
    "metrics": {
        "cart_traj_len": 0.5650247361828165,
        "distance_elbow_joint": 0.0602902814161248,
        "distance_shoulder_lift_joint": 0.2943977350303195,
        "distance_shoulder_pan_joint": 0.5783702382018601,
        "distance_wrist_1_joint": 0.31543839012651065,
        "distance_wrist_2_joint": 0.9882716364909958,
        "distance_wrist_3_joint": 0.003780012449186465,
        "smoothness": 5.075305295617109e-16,
        "time": 0.453299053,
        "traj_len": 1.4968461155760124,
        "weighted_distance": 1.8846268450892014
    },
    "planner": "FMT",
    "start": {
        "state": {
            "elbow_joint": 2.0193083361928714,
            "shoulder_lift_joint": -1.1220246554650708,
            "shoulder_pan_joint": -1.0952077554168747,
            "wrist_1_joint": -0.8559753972642168,
            "wrist_2_joint": 0.4759566250798843,
            "wrist_3_joint": -3.1240929996934557
        }
    },
    "waypoints": [
        {
            "positions": [
                -1.0952077554168747,
                -1.1220246554650708,
                2.0193083361928714,
                -0.8559753972642168,
                0.4759566250798843,
                -3.1240929996934557
            ]
        },
        {
            "positions": [
                -1.1916027951171846,
                -1.1710909446367908,
                2.0092599559568507,
                -0.8034023322431316,
                0.6406685644950503,
                -3.12472300176832
            ]
        },
        {
            "positions": [
                -1.2879978348174947,
                -1.2201572338085107,
                1.9992115757208297,
                -0.7508292672220466,
                0.8053805039102162,
                -3.1253530038431845
            ]
        },
        {
            "positions": [
                -1.3843928745178047,
                -1.2692235229802304,
                1.989163195484809,
                -0.6982562022009615,
                0.9700924433253821,
                -3.125983005918049
            ]
        },
        {
            "positions": [
                -1.4807879142181146,
                -1.3182898121519504,
                1.9791148152487883,
                -0.6456831371798764,
                1.134804382740548,
                -3.1266130079929133
            ]
        },
        {
            "positions": [
                -1.5771829539184248,
                -1.3673561013236704,
                1.9690664350127673,
                -0.5931100721587912,
                1.2995163221557142,
                -3.1272430100677777
            ]
        },
        {
            "positions": [
                -1.6735779936187347,
                -1.4164223904953903,
                1.9590180547767466,
                -0.5405370071377061,
                1.4642282615708802,
                -3.127873012142642
            ]
        }
    ]
}