{
    "goal": {
        "global_pose": {
            "orientation": {
                "w": -0.4816463035849501,
                "x": 0.5182115481033762,
                "y": 0.4908360881923453,
                "z": -0.5084816262002911
            },
            "position": {
                "x": -0.8240239810943604,
                "y": -0.300875300988555,
                "z": 0.16403168439865112
            }
        },
        "name": "move_to_storage_C"
    },
    "id": "FMT_move_to_storage_C_123",
    "joint_names": [
        "shoulder_pan_joint",
        "shoulder_lift_joint",
        "elbow_joint",
        "wrist_1_joint",
        "wrist_2_joint",
        "wrist_3_joint"
    ],
    "metrics": {
        "cart_traj_len": 0.5766163332792739,
        "distance_elbow_joint": 0.25764354006979695,
        "distance_shoulder_lift_joint": 0.19033116231865488,
        "distance_shoulder_pan_joint": 0.49256916109486415,
        "distance_wrist_1_joint": 0.06704467898530764,
        "distance_wrist_2_joint": 1.0774503648129463,
        "distance_wrist_3_joint": 0.057811814571508524,
        "smoothness": 2.5376526478085547e-16,
        "time": 0.347173962,
        "traj_len": 1.4638479162307396,
        "weighted_distance": 1.8447139059470303
    },
    "planner": "FMT",
    "start": {
        "state": {
            "elbow_joint": 2.010868314990456,
            "shoulder_lift_joint": -1.1634956873337592,
            "shoulder_pan_joint": -2.4736205022346125,
            "wrist_1_joint": -0.8367026794202681,
            "wrist_2_joint": 0.6746043897044499,
            "wrist_3_joint": -3.1496632123970403
        }
    },
    "waypoints": [
        {
            "positions": [
                -2.4736205022346125,
                -1.1634956873337592,
                2.010868314990456,
                -0.8367026794202681,
                0.6746043897044499,
                -3.1496632123970403
            ]
        },
        {
            "positions": [
                -2.55571536241709,
                -1.1317738269473168,
                1.967927724978823,
                -0.8255285662560502,
                0.8541794505066076,
                -3.1400279099684556
            ]
        },
        {
            "positions": [
                -2.637810222599567,
                -1.1000519665608741,
                1.92498713496719,
                -0.8143544530918322,
                1.0337545113087654,
                -3.130392607539871
            ]
        },
        {
            "positions": [
                -2.7199050827820446,
                -1.0683301061744317,
                1.8820465449555575,
                -0.8031803399276143,
                1.213329572110923,
                -3.120757305111286
            ]
        },
        {
            "positions": [
                -2.801999942964522,
                -1.0366082457879893,
                1.8391059549439246,
                -0.7920062267633964,
                1.3929046329130808,
                -3.111122002682701
            ]
        },
        {
            "positions": [
                -2.8840948031469993,
                -1.0048863854015468,
                1.7961653649322917,
                -0.7808321135991784,
                1.5724796937152385,
                -3.1014867002541164
            ]
        },
        {
            "positions": [
                -2.9661896633294766,
                -0.9731645250151043,
                1.7532247749206589,
                -0.7696580004349605,
                1.7520547545173961,
                -3.0918513978255318
            ]
        }
    ]
}