{
    "goal": {
        "global_pose": {
            "orientation": {
                "w": -0.4816463035849501,
                "x": 0.5182115481033762,
                "y": 0.4908360881923453,
                "z": -0.5084816262002911
            },
            "position": {
                "x": -0.8240239810943604,
                "y": -0.300875300988555,
                "z": 0.16403168439865112
            }
        },
        "name": "move_to_storage_C"
    },
    "id": "FMT_move_to_storage_C_124",
    "joint_names": [
        "shoulder_pan_joint",
        "shoulder_lift_joint",
        "elbow_joint",
        "wrist_1_joint",
        "wrist_2_joint",
        "wrist_3_joint"
    ],
    "metrics": {
        "cart_traj_len": 0.5757646021235002,
        "distance_elbow_joint": 0.2545021798402751,
        "distance_shoulder_lift_joint": 0.18870781222442623,
        "distance_shoulder_pan_joint": 0.49483425545104165,
        "distance_wrist_1_joint": 0.06785910333796819,
        "distance_wrist_2_joint": 1.0614075417808189,
        "distance_wrist_3_joint": 0.06714032694790939,
        "smoothness": 5.075305295617109e-16,
        "time": 0.31338033299999996,
        "traj_len": 1.4609761187584276,
        "weighted_distance": 1.8433660837167003
    },
    "planner": "FMT",
    "start": {
        "state": {
            "elbow_joint": 2.010868314990456,
            "shoulder_lift_joint": -1.1634956873337592,
            "shoulder_pan_joint": -2.4736205022346125,
            "wrist_1_joint": -0.8367026794202681,
            "wrist_2_joint": 0.6746043897044499,
            "wrist_3_joint": -3.1496632123970403
        }
    },
    "waypoints": [
        {
            "positions": [
                -2.4736205022346125,
                -1.1634956873337592,
                2.010868314990456,
                -0.8367026794202681,
                0.6746043897044499,
                -3.1496632123970403
            ]
        },
        {
            "positions": [
                -2.5560928781431196,
                -1.1320443852963549,
                1.9684512850170766,
                -0.82539282886394,
                0.8515056466679197,
                -3.138473157905722
            ]
        },
        {
            "positions": [
                -2.6385652540516262,
                -1.1005930832589503,
                1.9260342550436975,
                -0.814082978307612,
                1.0284069036313896,
                -3.127283103414404
            ]
        },
        {
            "positions": [
                -2.7210376299601333,
                -1.069141781221546,
                1.8836172250703183,
                -0.802773127751284,
                1.2053081605948592,
                -3.1160930489230854
            ]
        },
        {
            "positions": [
                -2.8035100058686404,
                -1.0376904791841417,
                1.841200195096939,
                -0.791463277194956,
                1.3822094175583293,
                -3.104902994431767
            ]
        },
        {
            "positions": [
                -2.885982381777147,
                -1.0062391771467374,
                1.79878316512356,
                -0.780153426638628,
                1.5591106745217989,
                -3.093712939940449
            ]
        },
        {
            "positions": [
                -2.968454757685654,
                -0.974787875109333,
                1.7563661351501807,
                -0.7688435760822999,
                1.7360119314852687,
                -3.082522885449131
            ]
        }
    ]
}