{
    "goal": {
        "global_pose": {
            "orientation": {
                "w": -0.00223480608172531,
                "x": 0.0024358444001904467,
                "y": 0.7094548369677653,
                "z": -0.704743149386269
            },
            "position": {
                "x": 0.6205249238014221,
                "y": -0.6371506643295288,
                "z": 0.19426114857196808
            }
        },
        "name": "move_to_magneteinheit_B"
    },
    "id": "FMT_move_to_magneteinheit_B_135",
    "joint_names": [
        "shoulder_pan_joint",
        "shoulder_lift_joint",
        "elbow_joint",
        "wrist_1_joint",
        "wrist_2_joint",
        "wrist_3_joint"
    ],
    "metrics": {
        "cart_traj_len": 4.135391649784952,
        "distance_elbow_joint": 5.3796484188207145,
        "distance_shoulder_lift_joint": 1.1792923211945152,
        "distance_shoulder_pan_joint": 3.1790188833782316,
        "distance_wrist_1_joint": 5.081305446890138,
        "distance_wrist_2_joint": 1.534867680173885,
        "distance_wrist_3_joint": 3.4087959631750584,
        "smoothness": 0.6813589797222759,
        "time": 1.506890511,
        "traj_len": 4.445551564612937,
        "weighted_distance": 5.761657206659095
    },
    "planner": "FMT",
    "start": {
        "state": {
            "elbow_joint": 2.6216224122426386,
            "shoulder_lift_joint": -1.4174107377796124,
            "shoulder_pan_joint": 0.7066234856936794,
            "wrist_1_joint": 1.9546482284002225,
            "wrist_2_joint": -0.7096286983471962,
            "wrist_3_joint": 0.005740856962016249
        }
    },
    "waypoints": [
        {
            "positions": [
                0.7066234856936794,
                -1.4174107377796124,
                2.6216224122426386,
                1.9546482284002225,
                -0.7096286983471962,
                0.005740856962016249
            ]
        },
        {
            "positions": [
                0.6544181986352748,
                -1.4663093681352604,
                2.7227284046830373,
                1.9073028733901198,
                -0.7009338847928885,
                -0.06414337267969186
            ]
        },
        {
            "positions": [
                0.6022129115768702,
                -1.5152079984909084,
                2.8238343971234356,
                1.8599575183800172,
                -0.6922390712385809,
                -0.13402760232139996
            ]
        },
        {
            "positions": [
                0.74655204589545,
                -1.4946045179580534,
                2.806109514621915,
                1.8944168985400849,
                -0.6298173283427188,
                -0.053671416902701885
            ]
        },
        {
            "positions": [
                0.8908911802140298,
                -1.4740010374251984,
                2.7883846321203944,
                1.9288762787001525,
                -0.5673955854468568,
                0.026684768515996188
            ]
        },
        {
            "positions": [
                1.0352303145326096,
                -1.4533975568923432,
                2.770659749618874,
                1.9633356588602202,
                -0.5049738425509946,
                0.10704095393469423
            ]
        },
        {
            "positions": [
                1.1795694488511894,
                -1.4327940763594882,
                2.7529348671173532,
                1.9977950390202879,
                -0.4425520996551326,
                0.18739713935339233
            ]
        },
        {
            "positions": [
                1.3239085831697692,
                -1.4121905958266332,
                2.7352099846158326,
                2.0322544191803553,
                -0.38013035675927054,
                0.26775332477209035
            ]
        },
        {
            "positions": [
                1.468247717488349,
                -1.3915871152937782,
                2.7174851021143116,
                2.066713799340423,
                -0.3177086138634085,
                0.3481095101907884
            ]
        },
        {
            "positions": [
                1.6125868518069288,
                -1.3709836347609232,
                2.699760219612791,
                2.1011731795004907,
                -0.25528687096754643,
                0.42846569560948644
            ]
        },
        {
            "positions": [
                1.7569259861255087,
                -1.350380154228068,
                2.6820353371112704,
                2.1356325596605585,
                -0.19286512807168432,
                0.5088218810281846
            ]
        },
        {
            "positions": [
                1.9012651204440885,
                -1.329776673695213,
                2.66431045460975,
                2.170091939820626,
                -0.1304433851758222,
                0.5891780664468826
            ]
        },
        {
            "positions": [
                2.0456042547626683,
                -1.309173193162358,
                2.646585572108229,
                2.204551319980694,
                -0.06802164227996024,
                0.6695342518655807
            ]
        },
        {
            "positions": [
                2.078644215921997,
                -1.3211306911459648,
                2.5097735933306335,
                2.0814930794562576,
                -0.08711012493368682,
                0.7412775816281133
            ]
        },
        {
            "positions": [
                2.1116841770813255,
                -1.3330881891295714,
                2.3729616145530383,
                1.9584348389318216,
                -0.1061986075874134,
                0.8130209113906459
            ]
        },
        {
            "positions": [
                2.144724138240654,
                -1.3450456871131782,
                2.2361496357754427,
                1.8353765984073855,
                -0.12528709024114,
                0.8847642411531784
            ]
        },
        {
            "positions": [
                2.1777640993999827,
                -1.3570031850967847,
                2.0993376569978475,
                1.7123183578829493,
                -0.14437557289486658,
                0.956507570915711
            ]
        },
        {
            "positions": [
                2.2108040605593113,
                -1.3689606830803915,
                1.9625256782202518,
                1.5892601173585132,
                -0.16346405554859317,
                1.0282509006782437
            ]
        },
        {
            "positions": [
                2.24384402171864,
                -1.3809181810639983,
                1.8257136994426566,
                1.4662018768340772,
                -0.18255253820231973,
                1.0999942304407762
            ]
        },
        {
            "positions": [
                2.2768839828779686,
                -1.392875679047605,
                1.6889017206650612,
                1.343143636309641,
                -0.2016410208560463,
                1.1717375602033089
            ]
        },
        {
            "positions": [
                2.309923944037297,
                -1.4048331770312117,
                1.5520897418874657,
                1.220085395785205,
                -0.22072950350977288,
                1.2434808899658414
            ]
        },
        {
            "positions": [
                2.342963905196626,
                -1.4167906750148183,
                1.41527776310987,
                1.0970271552607687,
                -0.23981798616349947,
                1.3152242197283739
            ]
        },
        {
            "positions": [
                2.3760038663559544,
                -1.428748172998425,
                1.2784657843322746,
                0.9739689147363326,
                -0.25890646881722607,
                1.3869675494909064
            ]
        },
        {
            "positions": [
                2.409043827515283,
                -1.4407056709820316,
                1.1416538055546792,
                0.8509106742118964,
                -0.27799495147095266,
                1.4587108792534391
            ]
        },
        {
            "positions": [
                2.4420837886746116,
                -1.4526631689656384,
                1.0048418267770838,
                0.7278524336874603,
                -0.2970834341246792,
                1.5304542090159718
            ]
        },
        {
            "positions": [
                2.4751237498339402,
                -1.4646206669492452,
                0.8680298479994886,
                0.6047941931630243,
                -0.3161719167784058,
                1.6021975387785043
            ]
        },
        {
            "positions": [
                2.508163710993269,
                -1.4765781649328518,
                0.7312178692218931,
                0.48173595263858826,
                -0.33526039943213237,
                1.6739408685410369
            ]
        },
        {
            "positions": [
                2.5412036721525975,
                -1.4885356629164586,
                0.5944058904442975,
                0.358677712114152,
                -0.3543488820858589,
                1.7456841983035694
            ]
        },
        {
            "positions": [
                2.5742436333119265,
                -1.5004931609000651,
                0.45759391166670227,
                0.23561947158971597,
                -0.37343736473958555,
                1.817427528066102
            ]
        },
        {
            "positions": [
                2.607283594471255,
                -1.512450658883672,
                0.3207819328891066,
                0.11256123106527971,
                -0.3925258473933121,
                1.8891708578286346
            ]
        },
        {
            "positions": [
                2.6403235556305837,
                -1.5244081568672787,
                0.18396995411151096,
                -0.010497009459156548,
                -0.41161433004703873,
                1.960914187591167
            ]
        },
        {
            "positions": [
                2.6733635167899124,
                -1.5363656548508853,
                0.04715797533391575,
                -0.1335552499835928,
                -0.43070281270076527,
                2.0326575173537
            ]
        },
        {
            "positions": [
                2.706403477949241,
                -1.548323152834492,
                -0.08965400344367991,
                -0.2566134905080286,
                -0.4497912953544919,
                2.1044008471162323
            ]
        },
        {
            "positions": [
                2.7394434391085696,
                -1.5602806508180986,
                -0.22646598222127512,
                -0.3796717310324649,
                -0.46887977800821845,
                2.176144176878765
            ]
        },
        {
            "positions": [
                2.772483400267898,
                -1.5722381488017054,
                -0.3632779609988708,
                -0.5027299715569011,
                -0.487968260661945,
                2.2478875066412973
            ]
        },
        {
            "positions": [
                2.805523361427227,
                -1.5841956467853122,
                -0.5000899397764664,
                -0.6257882120813374,
                -0.5070567433156716,
                2.3196308364038303
            ]
        },
        {
            "positions": [
                2.8385633225865554,
                -1.5961531447689188,
                -0.6369019185540616,
                -0.7488464526057732,
                -0.5261452259693982,
                2.391374166166363
            ]
        },
        {
            "positions": [
                2.871603283745884,
                -1.6081106427525256,
                -0.7737138973316573,
                -0.8719046931302095,
                -0.5452337086231248,
                2.4631174959288953
            ]
        },
        {
            "positions": [
                2.9046432449052126,
                -1.6200681407361321,
                -0.9105258761092521,
                -0.9949629336546453,
                -0.5643221912768513,
                2.534860825691428
            ]
        },
        {
            "positions": [
                2.9376832060645413,
                -1.632025638719739,
                -1.0473378548868477,
                -1.1180211741790815,
                -0.5834106739305779,
                2.6066041554539603
            ]
        },
        {
            "positions": [
                2.97072316722387,
                -1.6439831367033455,
                -1.184149833664443,
                -1.2410794147035173,
                -0.6024991565843044,
                2.6783474852164932
            ]
        },
        {
            "positions": [
                3.0037631283831985,
                -1.6559406346869523,
                -1.3209618124420386,
                -1.3641376552279536,
                -0.6215876392380311,
                2.7500908149790257
            ]
        },
        {
            "positions": [
                3.036803089542527,
                -1.667898132670559,
                -1.4577737912196342,
                -1.4871958957523899,
                -0.6406761218917576,
                2.8218341447415582
            ]
        },
        {
            "positions": [
                3.0698430507018557,
                -1.6798556306541657,
                -1.59458576999723,
                -1.6102541362768261,
                -0.6597646045454842,
                2.8935774745040908
            ]
        },
        {
            "positions": [
                3.1028830118611843,
                -1.6918131286377724,
                -1.7313977487748247,
                -1.733312376801262,
                -0.6788530871992108,
                2.9653208042666233
            ]
        },
        {
            "positions": [
                3.135922973020513,
                -1.7037706266213792,
                -1.8682097275524203,
                -1.8563706173256982,
                -0.6979415698529374,
                3.0370641340291558
            ]
        },
        {
            "positions": [
                3.1689629341798415,
                -1.7157281246049858,
                -2.0050217063300164,
                -1.9794288578501344,
                -0.717030052506664,
                3.1088074637916883
            ]
        },
        {
            "positions": [
                3.084319886403433,
                -1.793879011890326,
                -1.9469249845822723,
                -2.0557689840898723,
                -0.6763213501933396,
                3.113172870088114
            ]
        },
        {
            "positions": [
                2.9996768386270247,
                -1.872029899175666,
                -1.888828262834528,
                -2.13210911032961,
                -0.6356126478800151,
                3.11753827638454
            ]
        },
        {
            "positions": [
                2.9150337908506163,
                -1.9501807864610063,
                -1.830731541086784,
                -2.208449236569348,
                -0.5949039455666907,
                3.1219036826809656
            ]
        },
        {
            "positions": [
                2.8303907430742075,
                -2.0283316737463464,
                -1.7726348193390398,
                -2.2847893628090863,
                -0.5541952432533663,
                3.1262690889773914
            ]
        },
        {
            "positions": [
                2.745747695297799,
                -2.1064825610316866,
                -1.7145380975912956,
                -2.361129489048824,
                -0.513486540940042,
                3.130634495273817
            ]
        },
        {
            "positions": [
                2.6611046475213906,
                -2.184633448317027,
                -1.6564413758435514,
                -2.437469615288562,
                -0.4727778386267175,
                3.134999901570243
            ]
        }
    ]
}