{
    "goal": {
        "global_pose": {
            "orientation": {
                "w": -0.00223480608172531,
                "x": 0.0024358444001904467,
                "y": 0.7094548369677653,
                "z": -0.704743149386269
            },
            "position": {
                "x": -0.37947507619857795,
                "y": -0.6371506643295288,
                "z": 0.19426114857196808
            }
        },
        "name": "move_to_magneteinheit_C"
    },
    "id": "KPIECE_move_to_magneteinheit_C_82",
    "joint_names": [
        "shoulder_pan_joint",
        "shoulder_lift_joint",
        "elbow_joint",
        "wrist_1_joint",
        "wrist_2_joint",
        "wrist_3_joint"
    ],
    "metrics": {
        "cart_traj_len": 2.9451198011085804,
        "distance_elbow_joint": 3.072128591521021,
        "distance_shoulder_lift_joint": 1.0236939155617828,
        "distance_shoulder_pan_joint": 2.7319391782024676,
        "distance_wrist_1_joint": 0.6430086750015623,
        "distance_wrist_2_joint": 4.015581459166605,
        "distance_wrist_3_joint": 3.5698855265720284,
        "smoothness": 0.6725416868899919,
        "time": 0.99404548,
        "traj_len": 3.8802367641711593,
        "weighted_distance": 5.182142272587437
    },
    "planner": "KPIECE",
    "start": {
        "state": {
            "elbow_joint": 1.9565354010623817,
            "shoulder_lift_joint": -1.4165861575791021,
            "shoulder_pan_joint": -1.6717766225146293,
            "wrist_1_joint": -0.5286633292919765,
            "wrist_2_joint": 1.472756589071564,
            "wrist_3_joint": -3.1238370188695823
        }
    },
    "waypoints": [
        {
            "positions": [
                -1.6717766225146293,
                -1.4165861575791021,
                1.9565354010623817,
                -0.5286633292919765,
                1.472756589071564,
                -3.1238370188695823
            ]
        },
        {
            "positions": [
                -1.5421457682639348,
                -1.4512756876738744,
                1.9421902124780577,
                -0.5375407544781371,
                1.4599048160904264,
                -2.9615402019918187
            ]
        },
        {
            "positions": [
                -1.4125149140132405,
                -1.4859652177686467,
                1.9278450238937337,
                -0.5464181796642976,
                1.447053043109289,
                -2.7992433851140546
            ]
        },
        {
            "positions": [
                -1.282884059762546,
                -1.5206547478634191,
                1.9134998353094097,
                -0.5552956048504583,
                1.4342012701281512,
                -2.636946568236291
            ]
        },
        {
            "positions": [
                -1.1532532055118514,
                -1.5553442779581914,
                1.8991546467250857,
                -0.5641730300366189,
                1.4213494971470138,
                -2.4746497513585273
            ]
        },
        {
            "positions": [
                -1.023622351261157,
                -1.5900338080529637,
                1.8848094581407617,
                -0.5730504552227794,
                1.4084977241658763,
                -2.312352934480763
            ]
        },
        {
            "positions": [
                -0.8939914970104625,
                -1.624723338147736,
                1.8704642695564377,
                -0.5819278804089401,
                1.3956459511847388,
                -2.1500561176029995
            ]
        },
        {
            "positions": [
                -0.9768371869412708,
                -1.59139903032977,
                1.7914520030943262,
                -0.5982239747572895,
                1.270454144034647,
                -2.1054714845764395
            ]
        },
        {
            "positions": [
                -1.059682876872079,
                -1.5580747225118041,
                1.7124397366322146,
                -0.6145200691056389,
                1.1452623368845554,
                -2.06088685154988
            ]
        },
        {
            "positions": [
                -1.1425285668028873,
                -1.5247504146938382,
                1.6334274701701033,
                -0.6308161634539884,
                1.0200705297344637,
                -2.01630221852332
            ]
        },
        {
            "positions": [
                -1.2253742567336954,
                -1.4914261068758723,
                1.5544152037079917,
                -0.6471122578023378,
                0.8948787225843718,
                -1.9717175854967601
            ]
        },
        {
            "positions": [
                -1.3082199466645037,
                -1.4581017990579064,
                1.4754029372458801,
                -0.6634083521506874,
                0.7696869154342801,
                -1.9271329524702003
            ]
        },
        {
            "positions": [
                -1.3910656365953118,
                -1.4247774912399405,
                1.3963906707837688,
                -0.6797044464990368,
                0.6444951082841884,
                -1.8825483194436405
            ]
        },
        {
            "positions": [
                -1.4739113265261201,
                -1.3914531834219745,
                1.3173784043216572,
                -0.6960005408473863,
                0.5193033011340966,
                -1.8379636864170807
            ]
        },
        {
            "positions": [
                -1.5567570164569284,
                -1.3581288756040086,
                1.2383661378595456,
                -0.7122966351957357,
                0.3941114939840049,
                -1.7933790533905207
            ]
        },
        {
            "positions": [
                -1.6396027063877368,
                -1.324804567786043,
                1.159353871397434,
                -0.7285927295440852,
                0.2689196868339132,
                -1.748794420363961
            ]
        },
        {
            "positions": [
                -1.722448396318545,
                -1.2914802599680768,
                1.0803416049353225,
                -0.7448888238924346,
                0.1437278796838215,
                -1.7042097873374011
            ]
        },
        {
            "positions": [
                -1.8052940862493532,
                -1.2581559521501111,
                1.001329338473211,
                -0.761184918240784,
                0.018536072533729575,
                -1.6596251543108411
            ]
        },
        {
            "positions": [
                -1.8881397761801613,
                -1.2248316443321452,
                0.9223170720110996,
                -0.7774810125891335,
                -0.10665573461636191,
                -1.6150405212842815
            ]
        },
        {
            "positions": [
                -1.9709854661109696,
                -1.1915073365141793,
                0.843304805548988,
                -0.793777106937483,
                -0.2318475417664536,
                -1.5704558882577215
            ]
        },
        {
            "positions": [
                -2.053831156041778,
                -1.1581830286962134,
                0.7642925390868764,
                -0.8100732012858325,
                -0.35703934891654554,
                -1.5258712552311617
            ]
        },
        {
            "positions": [
                -2.136676845972586,
                -1.1248587208782475,
                0.6852802726247649,
                -0.8263692956341819,
                -0.48223115606663725,
                -1.481286622204602
            ]
        },
        {
            "positions": [
                -2.219522535903394,
                -1.0915344130602815,
                0.6062680061626535,
                -0.8426653899825314,
                -0.607422963216729,
                -1.436701989178042
            ]
        },
        {
            "positions": [
                -2.3023682258342024,
                -1.0582101052423156,
                0.527255739700542,
                -0.8589614843308808,
                -0.7326147703668207,
                -1.3921173561514824
            ]
        },
        {
            "positions": [
                -2.3852139157650107,
                -1.0248857974243497,
                0.4482434732384305,
                -0.8752575786792303,
                -0.8578065775169124,
                -1.3475327231249223
            ]
        },
        {
            "positions": [
                -2.4335444301704294,
                -1.010570072901878,
                0.49735690643046016,
                -0.8516979825367221,
                -0.8985076126251634,
                -1.4509500160566007
            ]
        },
        {
            "positions": [
                -2.481874944575848,
                -0.9962543483794063,
                0.5464703396224898,
                -0.8281383863942141,
                -0.9392086477334145,
                -1.5543673089882788
            ]
        },
        {
            "positions": [
                -2.5117550323598863,
                -0.994447984302651,
                0.6581368162922832,
                -0.8091101814414843,
                -0.9037251312542014,
                -1.714548910372594
            ]
        },
        {
            "positions": [
                -2.541635120143925,
                -0.9926416202258957,
                0.7698032929620766,
                -0.7900819764887543,
                -0.8682416147749882,
                -1.8747305117569093
            ]
        },
        {
            "positions": [
                -2.571515207927963,
                -0.9908352561491405,
                0.8814697696318701,
                -0.7710537715360245,
                -0.8327580982957751,
                -2.0349121131412247
            ]
        },
        {
            "positions": [
                -2.6013952957120012,
                -0.9890288920723852,
                0.9931362463016634,
                -0.7520255665832947,
                -0.797274581816562,
                -2.19509371452554
            ]
        },
        {
            "positions": [
                -2.63127538349604,
                -0.9872225279956299,
                1.1048027229714568,
                -0.7329973616305647,
                -0.7617910653373487,
                -2.355275315909855
            ]
        },
        {
            "positions": [
                -2.661155471280078,
                -0.9854161639188747,
                1.2164691996412502,
                -0.7139691566778349,
                -0.7263075488581356,
                -2.5154569172941703
            ]
        },
        {
            "positions": [
                -2.6479258167571267,
                -1.0012775578957331,
                1.3033759082854683,
                -0.7236277505244578,
                -0.5947481354354665,
                -2.593287537215843
            ]
        },
        {
            "positions": [
                -2.634696162234175,
                -1.0171389518725915,
                1.3902826169296862,
                -0.7332863443710808,
                -0.46318872201279715,
                -2.6711181571375153
            ]
        },
        {
            "positions": [
                -2.6214665077112236,
                -1.0330003458494499,
                1.4771893255739044,
                -0.7429449382177037,
                -0.3316293085901279,
                -2.748948777059188
            ]
        },
        {
            "positions": [
                -2.5969163219012517,
                -1.0544445756550687,
                1.5663377941341705,
                -0.7606366418965445,
                -0.16562316138707134,
                -2.814309639874705
            ]
        },
        {
            "positions": [
                -2.5723661360912797,
                -1.0758888054606874,
                1.6554862626944367,
                -0.7783283455753851,
                0.0003829858159852262,
                -2.8796705026902223
            ]
        },
        {
            "positions": [
                -2.547815950281308,
                -1.0973330352663062,
                1.7446347312547028,
                -0.7960200492542259,
                0.16638913301904185,
                -2.9450313655057396
            ]
        },
        {
            "positions": [
                -2.5232657644713363,
                -1.1187772650719248,
                1.833783199814969,
                -0.8137117529330666,
                0.33239528022209835,
                -3.0103922283212565
            ]
        },
        {
            "positions": [
                -2.4987155786613644,
                -1.1402214948775435,
                1.922931668375235,
                -0.8314034566119073,
                0.4984014274251551,
                -3.0757530911367734
            ]
        },
        {
            "positions": [
                -2.4741653928513925,
                -1.1616657246831623,
                2.0120801369355013,
                -0.849095160290748,
                0.6644075746282115,
                -3.1411139539522908
            ]
        }
    ]
}