{
    "goal": {
        "global_pose": {
            "orientation": {
                "w": 0.7047431468963623,
                "x": -0.7094548344612122,
                "y": 0.0024358443915843964,
                "z": -0.0022348060738295317
            },
            "position": {
                "x": 0.6094750761985779,
                "y": 0.3671506643295288,
                "z": 0.19426114857196808
            }
        },
        "name": "move_to_magneteinheit_A"
    },
    "id": "KPIECE_move_to_magneteinheit_A_25",
    "joint_names": [
        "shoulder_pan_joint",
        "shoulder_lift_joint",
        "elbow_joint",
        "wrist_1_joint",
        "wrist_2_joint",
        "wrist_3_joint"
    ],
    "metrics": {
        "cart_traj_len": 3.436228840929734,
        "distance_elbow_joint": 3.9212077908160534,
        "distance_shoulder_lift_joint": 0.7160261459470716,
        "distance_shoulder_pan_joint": 4.026714403195369,
        "distance_wrist_1_joint": 4.839015959872084,
        "distance_wrist_2_joint": 3.653571008990102,
        "distance_wrist_3_joint": 1.3917332040627992,
        "smoothness": 0.42157032613485634,
        "time": 0.08807227200000001,
        "traj_len": 4.306770078943555,
        "weighted_distance": 5.461164883966723
    },
    "planner": "KPIECE",
    "start": {
        "state": {
            "elbow_joint": -1.9196185241190666,
            "shoulder_lift_joint": -1.2443396400964142,
            "shoulder_pan_joint": 2.6996025414629847,
            "wrist_1_joint": -1.5485510000780065,
            "wrist_2_joint": -1.5709468930060704,
            "wrist_3_joint": 0.4420197071253992
        }
    },
    "waypoints": [
        {
            "positions": [
                2.6996025414629847,
                -1.2443396400964142,
                -1.9196185241190666,
                -1.5485510000780065,
                -1.5709468930060704,
                0.4420197071253992
            ]
        },
        {
            "positions": [
                2.61035887625159,
                -1.247749945757036,
                -1.8336744617496852,
                -1.4357970369962667,
                -1.5019678150543196,
                0.41668746503842147
            ]
        },
        {
            "positions": [
                2.521115211040196,
                -1.2511602514176579,
                -1.747730399380304,
                -1.3230430739145267,
                -1.4329887371025691,
                0.39135522295144376
            ]
        },
        {
            "positions": [
                2.4318715458288014,
                -1.2545705570782797,
                -1.6617863370109225,
                -1.210289110832787,
                -1.3640096591508184,
                0.36602298086446605
            ]
        },
        {
            "positions": [
                2.342627880617407,
                -1.2579808627389015,
                -1.5758422746415413,
                -1.097535147751047,
                -1.2950305811990677,
                0.34069073877748834
            ]
        },
        {
            "positions": [
                2.2533842154060126,
                -1.2613911683995231,
                -1.4898982122721598,
                -0.9847811846693072,
                -1.226051503247317,
                0.31535849669051064
            ]
        },
        {
            "positions": [
                2.164140550194618,
                -1.264801474060145,
                -1.4039541499027783,
                -0.8720272215875673,
                -1.1570724252955662,
                0.29002625460353293
            ]
        },
        {
            "positions": [
                2.0748968849832234,
                -1.2682117797207668,
                -1.318010087533397,
                -0.7592732585058275,
                -1.0880933473438157,
                0.2646940125165552
            ]
        },
        {
            "positions": [
                1.985653219771829,
                -1.2716220853813887,
                -1.2320660251640159,
                -0.6465192954240876,
                -1.019114269392065,
                0.2393617704295775
            ]
        },
        {
            "positions": [
                1.8964095545604347,
                -1.2750323910420105,
                -1.1461219627946344,
                -0.5337653323423477,
                -0.9501351914403142,
                0.21402952834259978
            ]
        },
        {
            "positions": [
                1.80716588934904,
                -1.2784426967026323,
                -1.060177900425253,
                -0.4210113692606079,
                -0.8811561134885636,
                0.18869728625562204
            ]
        },
        {
            "positions": [
                1.7179222241376457,
                -1.2818530023632542,
                -0.9742338380558717,
                -0.3082574061788681,
                -0.8121770355368129,
                0.16336504416864434
            ]
        },
        {
            "positions": [
                1.6286785589262514,
                -1.285263308023876,
                -0.8882897756864903,
                -0.19550344309712808,
                -0.7431979575850621,
                0.13803280208166663
            ]
        },
        {
            "positions": [
                1.5394348937148568,
                -1.2886736136844978,
                -0.802345713317109,
                -0.08274948001538829,
                -0.6742188796333115,
                0.11270055999468892
            ]
        },
        {
            "positions": [
                1.4501912285034624,
                -1.2920839193451195,
                -0.7164016509477276,
                0.030004483066351506,
                -0.6052398016815608,
                0.08736831790771121
            ]
        },
        {
            "positions": [
                1.3609475632920678,
                -1.2954942250057413,
                -0.6304575885783463,
                0.1427584461480913,
                -0.53626072372981,
                0.062036075820733505
            ]
        },
        {
            "positions": [
                1.2717038980806734,
                -1.2989045306663631,
                -0.5445135262089649,
                0.2555124092298313,
                -0.46728164577805953,
                0.0367038337337558
            ]
        },
        {
            "positions": [
                1.182460232869279,
                -1.302314836326985,
                -0.4585694638395834,
                0.3682663723115711,
                -0.3983025678263088,
                0.01137159164677809
            ]
        },
        {
            "positions": [
                1.0932165676578844,
                -1.3057251419876068,
                -0.3726254014702022,
                0.4810203353933111,
                -0.32932348987455806,
                -0.013960650440199618
            ]
        },
        {
            "positions": [
                1.0039729024464903,
                -1.3091354476482286,
                -0.28668133910082094,
                0.5937742984750505,
                -0.26034441192280755,
                -0.039292892527177326
            ]
        },
        {
            "positions": [
                0.9147292372350957,
                -1.3125457533088505,
                -0.20073727673143948,
                0.7065282615567907,
                -0.19136533397105682,
                -0.06462513461415509
            ]
        },
        {
            "positions": [
                0.8254855720237013,
                -1.3159560589694723,
                -0.11479321436205825,
                0.8192822246385305,
                -0.12238625601930608,
                -0.08995737670113269
            ]
        },
        {
            "positions": [
                0.7362419068123067,
                -1.3193663646300942,
                -0.02884915199267679,
                0.9320361877202703,
                -0.05340717806755535,
                -0.1152896187881105
            ]
        },
        {
            "positions": [
                0.6469982416009126,
                -1.322776670290716,
                0.057094910376704444,
                1.04479015080201,
                0.015571899884195162,
                -0.1406218608750881
            ]
        },
        {
            "positions": [
                0.557754576389518,
                -1.3261869759513376,
                0.14303897274608612,
                1.1575441138837503,
                0.08455097783594612,
                -0.16595410296206592
            ]
        },
        {
            "positions": [
                0.4685109111781234,
                -1.3295972816119594,
                0.22898303511546736,
                1.2702980769654897,
                0.15353005578769663,
                -0.19128634504904363
            ]
        },
        {
            "positions": [
                0.3792672459667288,
                -1.3330075872725813,
                0.3149270974848486,
                1.38305204004723,
                0.22250913373944736,
                -0.21661858713602133
            ]
        },
        {
            "positions": [
                0.29002358075533463,
                -1.3364178929332031,
                0.40087115985422983,
                1.4958060031289697,
                0.2914882116911979,
                -0.24195082922299904
            ]
        },
        {
            "positions": [
                0.20077991554394004,
                -1.339828198593825,
                0.4868152222236115,
                1.6085599662107095,
                0.36046728964294883,
                -0.26728307130997675
            ]
        },
        {
            "positions": [
                0.11153625033254544,
                -1.3432385042544468,
                0.5727592845929927,
                1.7213139292924493,
                0.42944636759469934,
                -0.29261531339695446
            ]
        },
        {
            "positions": [
                0.022292585121150843,
                -1.3466488099150686,
                0.658703346962374,
                1.834067892374189,
                0.4984254455464503,
                -0.31794755548393216
            ]
        },
        {
            "positions": [
                -0.06695108009024331,
                -1.3500591155756905,
                0.7446474093317552,
                1.946821855455929,
                0.5674045234982008,
                -0.3432797975709099
            ]
        },
        {
            "positions": [
                -0.1561947453016379,
                -1.3534694212363123,
                0.8305914717011369,
                2.0595758185376694,
                0.6363836014499513,
                -0.3686120396578876
            ]
        },
        {
            "positions": [
                -0.24543841051303206,
                -1.356879726896934,
                0.9165355340705181,
                2.1723297816194087,
                0.7053626794017018,
                -0.3939442817448653
            ]
        },
        {
            "positions": [
                -0.33468207572442665,
                -1.3602900325575558,
                1.0024795964398998,
                2.285083744701149,
                0.7743417573534528,
                -0.419276523831843
            ]
        },
        {
            "positions": [
                -0.42392574093582125,
                -1.3637003382181776,
                1.0884236588092806,
                2.3978377077828883,
                0.8433208353052033,
                -0.4446087659188207
            ]
        },
        {
            "positions": [
                -0.5131694061472158,
                -1.3671106438787994,
                1.1743677211786623,
                2.5105916708646285,
                0.9122999132569543,
                -0.4699410080057984
            ]
        },
        {
            "positions": [
                -0.60241307135861,
                -1.3705209495394213,
                1.2603117835480435,
                2.623345633946368,
                0.9812789912087048,
                -0.4952732500927761
            ]
        },
        {
            "positions": [
                -0.5365313631428122,
                -1.3168986916754155,
                1.327700645652493,
                2.562698422505667,
                0.8811567071382207,
                -0.45396050037962843
            ]
        },
        {
            "positions": [
                -0.4706496549270145,
                -1.2632764338114095,
                1.395089507756942,
                2.502051211064966,
                0.7810344230677365,
                -0.4126477506664808
            ]
        },
        {
            "positions": [
                -0.40476794671121674,
                -1.2096541759474038,
                1.4624783698613915,
                2.4414039996242654,
                0.6809121389972524,
                -0.37133500095333316
            ]
        },
        {
            "positions": [
                -0.33888623849541893,
                -1.1560319180833978,
                1.5298672319658406,
                2.3807567881835645,
                0.5807898549267683,
                -0.33002225124018547
            ]
        },
        {
            "positions": [
                -0.2730045302796212,
                -1.102409660219392,
                1.59725609407029,
                2.3201095767428637,
                0.4806675708562842,
                -0.28870950152703784
            ]
        },
        {
            "positions": [
                -0.20712282206382343,
                -1.0487874023553863,
                1.6646449561747394,
                2.259462365302163,
                0.38054528678580013,
                -0.24739675181389018
            ]
        },
        {
            "positions": [
                -0.14124111384802568,
                -0.9951651444913803,
                1.7320338182791888,
                2.1988151538614615,
                0.28042300271531606,
                -0.2060840021007425
            ]
        },
        {
            "positions": [
                -0.07535940563222787,
                -0.9415428866273743,
                1.799422680383638,
                2.1381679424207607,
                0.18030071864483188,
                -0.16477125238759482
            ]
        },
        {
            "positions": [
                -0.00947769741643012,
                -0.8879206287633685,
                1.8668115424880873,
                2.07752073098006,
                0.0801784345743477,
                -0.12345850267444713
            ]
        },
        {
            "positions": [
                0.05640401079936763,
                -0.8342983708993627,
                1.9342004045925365,
                2.016873519539359,
                -0.019943849496136368,
                -0.08214575296129956
            ]
        },
        {
            "positions": [
                0.12228571901516537,
                -0.7806761130353568,
                2.001589266696986,
                1.9562263080986582,
                -0.1200661335666204,
                -0.04083300324815186
            ]
        }
    ]
}