{
    "goal": {
        "global_pose": {
            "orientation": {
                "w": 0.7047431468963623,
                "x": -0.7094548344612122,
                "y": 0.0024358443915843964,
                "z": -0.0022348060738295317
            },
            "position": {
                "x": 0.6094750761985779,
                "y": 0.3671506643295288,
                "z": 0.19426114857196808
            }
        },
        "name": "move_to_magneteinheit_A"
    },
    "id": "KPIECE_move_to_magneteinheit_A_89",
    "joint_names": [
        "shoulder_pan_joint",
        "shoulder_lift_joint",
        "elbow_joint",
        "wrist_1_joint",
        "wrist_2_joint",
        "wrist_3_joint"
    ],
    "metrics": {
        "cart_traj_len": 3.589205341713385,
        "distance_elbow_joint": 4.658667765822445,
        "distance_shoulder_lift_joint": 0.7784638303041398,
        "distance_shoulder_pan_joint": 4.523591485535315,
        "distance_wrist_1_joint": 3.4639619865817752,
        "distance_wrist_2_joint": 2.272144068305082,
        "distance_wrist_3_joint": 1.2666073124698276,
        "smoothness": 0.4560783572206716,
        "time": 0.151981067,
        "traj_len": 4.118669257056044,
        "weighted_distance": 5.023221787741917
    },
    "planner": "KPIECE",
    "start": {
        "state": {
            "elbow_joint": -1.9196185241190666,
            "shoulder_lift_joint": -1.2443396400964142,
            "shoulder_pan_joint": 2.6996025414629847,
            "wrist_1_joint": -1.5485510000780065,
            "wrist_2_joint": -1.5709468930060704,
            "wrist_3_joint": 0.4420197071253992
        }
    },
    "waypoints": [
        {
            "positions": [
                2.6996025414629847,
                -1.2443396400964142,
                -1.9196185241190666,
                -1.5485510000780065,
                -1.5709468930060704,
                0.4420197071253992
            ]
        },
        {
            "positions": [
                2.5981801088249514,
                -1.2487720642767133,
                -1.7971936891297189,
                -1.4638952972821282,
                -1.5178316313285243,
                0.41772482732968097
            ]
        },
        {
            "positions": [
                2.4967576761869186,
                -1.2532044884570122,
                -1.6747688541403714,
                -1.37923959448625,
                -1.464716369650978,
                0.3934299475339627
            ]
        },
        {
            "positions": [
                2.3953352435488853,
                -1.2576369126373113,
                -1.5523440191510236,
                -1.2945838916903718,
                -1.4116011079734319,
                0.36913506773824445
            ]
        },
        {
            "positions": [
                2.2939128109108524,
                -1.2620693368176104,
                -1.429919184161676,
                -1.2099281888944937,
                -1.3584858462958855,
                0.34484018794252624
            ]
        },
        {
            "positions": [
                2.192490378272819,
                -1.2665017609979095,
                -1.3074943491723285,
                -1.1252724860986154,
                -1.3053705846183394,
                0.32054530814680804
            ]
        },
        {
            "positions": [
                2.0910679456347863,
                -1.2709341851782083,
                -1.1850695141829806,
                -1.0406167833027373,
                -1.2522553229407931,
                0.2962504283510898
            ]
        },
        {
            "positions": [
                1.989645512996753,
                -1.2753666093585074,
                -1.062644679193633,
                -0.955961080506859,
                -1.199140061263247,
                0.2719555485553715
            ]
        },
        {
            "positions": [
                1.88822308035872,
                -1.2797990335388065,
                -0.9402198442042854,
                -0.8713053777109808,
                -1.146024799585701,
                0.24766066875965334
            ]
        },
        {
            "positions": [
                1.7868006477206868,
                -1.2842314577191054,
                -0.8177950092149378,
                -0.7866496749151026,
                -1.0929095379081546,
                0.22336578896393514
            ]
        },
        {
            "positions": [
                1.6853782150826537,
                -1.2886638818994045,
                -0.6953701742255902,
                -0.7019939721192244,
                -1.0397942762306083,
                0.19907090916821688
            ]
        },
        {
            "positions": [
                1.5839557824446207,
                -1.2930963060797036,
                -0.5729453392362425,
                -0.6173382693233462,
                -0.9866790145530622,
                0.17477602937249864
            ]
        },
        {
            "positions": [
                1.4825333498065876,
                -1.2975287302600027,
                -0.4505205042468947,
                -0.5326825665274679,
                -0.933563752875516,
                0.15048114957678038
            ]
        },
        {
            "positions": [
                1.3811109171685545,
                -1.3019611544403016,
                -0.32809566925754696,
                -0.4480268637315896,
                -0.8804484911979698,
                0.12618626978106218
            ]
        },
        {
            "positions": [
                1.2796884845305212,
                -1.3063935786206007,
                -0.20567083426819943,
                -0.36337116093571153,
                -0.8273332295204235,
                0.10189138998534392
            ]
        },
        {
            "positions": [
                1.1782660518924883,
                -1.3108260028008998,
                -0.0832459992788519,
                -0.27871545813983345,
                -0.7742179678428774,
                0.07759651018962577
            ]
        },
        {
            "positions": [
                1.0768436192544553,
                -1.3152584269811987,
                0.03917883571049585,
                -0.19405975534395514,
                -0.7211027061653312,
                0.053301630393907506
            ]
        },
        {
            "positions": [
                0.9754211866164222,
                -1.3196908511614978,
                0.1616036706998436,
                -0.10940405254807684,
                -0.667987444487785,
                0.029006750598189246
            ]
        },
        {
            "positions": [
                0.8739987539783891,
                -1.3241232753417969,
                0.28402850568919114,
                -0.02474834975219875,
                -0.6148721828102388,
                0.0047118708024710965
            ]
        },
        {
            "positions": [
                0.772576321340356,
                -1.328555699522096,
                0.40645334067853867,
                0.059907353043679334,
                -0.5617569211326927,
                -0.019583008993247164
            ]
        },
        {
            "positions": [
                0.6711538887023227,
                -1.3329881237023948,
                0.5288781756678862,
                0.14456305583955764,
                -0.5086416594551464,
                -0.043877888788965425
            ]
        },
        {
            "positions": [
                0.5697314560642899,
                -1.337420547882694,
                0.6513030106572342,
                0.22921875863543595,
                -0.4555263977776003,
                -0.06817276858468369
            ]
        },
        {
            "positions": [
                0.4683090234262566,
                -1.341852972062993,
                0.7737278456465817,
                0.31387446143131403,
                -0.40241113610005397,
                -0.09246764838040189
            ]
        },
        {
            "positions": [
                0.3668865907882237,
                -1.346285396243292,
                0.8961526806359297,
                0.39853016422719234,
                -0.34929587442250787,
                -0.1167625281761201
            ]
        },
        {
            "positions": [
                0.2654641581501904,
                -1.350717820423591,
                1.0185775156252772,
                0.48318586702307065,
                -0.29618061274496155,
                -0.1410574079718384
            ]
        },
        {
            "positions": [
                0.16404172551215712,
                -1.35515024460389,
                1.1410023506146247,
                0.5678415698189487,
                -0.24306535106741523,
                -0.16535228776755662
            ]
        },
        {
            "positions": [
                0.06261929287412427,
                -1.3595826687841892,
                1.2634271856039727,
                0.6524972726148273,
                -0.18995008938986913,
                -0.18964716756327482
            ]
        },
        {
            "positions": [
                -0.038803139763909034,
                -1.364015092964488,
                1.3858520205933202,
                0.7371529754107053,
                -0.1368348277123228,
                -0.21394204735899303
            ]
        },
        {
            "positions": [
                -0.14022557240194233,
                -1.3684475171447872,
                1.5082768555826678,
                0.8218086782065834,
                -0.0837195660347767,
                -0.23823692715471134
            ]
        },
        {
            "positions": [
                -0.2416480050399752,
                -1.3728799413250863,
                1.6307016905720157,
                0.906464381002462,
                -0.030604304357230383,
                -0.26253180695042955
            ]
        },
        {
            "positions": [
                -0.34307043767800804,
                -1.3773123655053852,
                1.7531265255613628,
                0.9911200837983396,
                0.022510957320315494,
                -0.28682668674614764
            ]
        },
        {
            "positions": [
                -0.44449287031604134,
                -1.3817447896856843,
                1.8755513605507104,
                1.0757757865942181,
                0.07562621899786182,
                -0.31112156654186596
            ]
        },
        {
            "positions": [
                -0.5459153029540742,
                -1.3861772138659834,
                1.9979761955400583,
                1.1604314893900962,
                0.12874148067540792,
                -0.33541644633758416
            ]
        },
        {
            "positions": [
                -0.6473377355921075,
                -1.3906096380462825,
                2.1204010305294063,
                1.2450871921859743,
                0.18185674235295424,
                -0.35971132613330237
            ]
        },
        {
            "positions": [
                -0.7487601682301404,
                -1.3950420622265813,
                2.242825865518754,
                1.3297428949818528,
                0.23497200403050034,
                -0.3840062059290207
            ]
        },
        {
            "positions": [
                -0.8501826008681737,
                -1.3994744864068804,
                2.3652507005081014,
                1.414398597777731,
                0.28808726570804666,
                -0.4083010857247389
            ]
        },
        {
            "positions": [
                -0.7419818960677118,
                -1.3302157104075834,
                2.323717529264182,
                1.470066640969513,
                0.24218616464238382,
                -0.36204702798921784
            ]
        },
        {
            "positions": [
                -0.6337811912672499,
                -1.2609569344082863,
                2.2821843580202628,
                1.5257346841612947,
                0.196285063576721,
                -0.31579297025369674
            ]
        },
        {
            "positions": [
                -0.525580486466788,
                -1.1916981584089892,
                2.240651186776343,
                1.5814027273530766,
                0.15038396251105818,
                -0.2695389125181757
            ]
        },
        {
            "positions": [
                -0.4173797816663261,
                -1.1224393824096923,
                2.1991180155324237,
                1.6370707705448586,
                0.10448286144539534,
                -0.2232848547826546
            ]
        },
        {
            "positions": [
                -0.3091790768658642,
                -1.053180606410395,
                2.1575848442885044,
                1.6927388137366406,
                0.05858176037973248,
                -0.1770307970471335
            ]
        },
        {
            "positions": [
                -0.20097837206540237,
                -0.9839218304110982,
                2.116051673044585,
                1.7484068569284226,
                0.012680659314069698,
                -0.1307767393116125
            ]
        },
        {
            "positions": [
                -0.09277766726494041,
                -0.9146630544118011,
                2.0745185018006653,
                1.8040749001202045,
                -0.033220441751593166,
                -0.08452268157609139
            ]
        },
        {
            "positions": [
                0.015423037535521433,
                -0.845404278412504,
                2.032985330556746,
                1.8597429433119863,
                -0.07912154281725597,
                -0.03826862384057034
            ]
        },
        {
            "positions": [
                0.12362374233598344,
                -0.7761455024132069,
                1.9914521593128267,
                1.9154109865037683,
                -0.12502264388291887,
                0.007985433894950775
            ]
        }
    ]
}