{
    "goal": {
        "global_pose": {
            "orientation": {
                "w": 0.7031023480610252,
                "x": -0.7110244013736278,
                "y": 0.0077485991402295624,
                "z": 0.005598929693374583
            },
            "position": {
                "x": -0.8841497679147869,
                "y": 0.44412534475326537,
                "z": 0.3711530566215515
            }
        },
        "name": "move_to_auspresseinheit_D"
    },
    "id": "KPIECE_move_to_auspresseinheit_D_74",
    "joint_names": [
        "shoulder_pan_joint",
        "shoulder_lift_joint",
        "elbow_joint",
        "wrist_1_joint",
        "wrist_2_joint",
        "wrist_3_joint"
    ],
    "metrics": {
        "cart_traj_len": 0.34438514122632385,
        "distance_elbow_joint": 0.6615178186708099,
        "distance_shoulder_lift_joint": 0.1345896031625844,
        "distance_shoulder_pan_joint": 0.13468287440450408,
        "distance_wrist_1_joint": 0.6092430257109838,
        "distance_wrist_2_joint": 1.429770062443375,
        "distance_wrist_3_joint": 0.05974397474541204,
        "smoothness": 0.0,
        "time": 0.439463091,
        "traj_len": 1.7405594960062896,
        "weighted_distance": 2.277728780338619
    },
    "planner": "KPIECE",
    "start": {
        "state": {
            "elbow_joint": -1.8275523626775212,
            "shoulder_lift_joint": -2.126789852344167,
            "shoulder_pan_joint": -0.03513704404078235,
            "wrist_1_joint": -2.347782403156801,
            "wrist_2_joint": -1.6058999987535132,
            "wrist_3_joint": -3.0880379163319196
        }
    },
    "waypoints": [
        {
            "positions": [
                -0.03513704404078235,
                -2.126789852344167,
                -1.8275523626775212,
                -2.347782403156801,
                -1.6058999987535132,
                -3.0880379163319196
            ]
        },
        {
            "positions": [
                -0.051972403341345355,
                -2.14361355273949,
                -1.74486263534367,
                -2.423937781370674,
                -1.4271787409480914,
                -3.080569919488743
            ]
        },
        {
            "positions": [
                -0.06880776264190837,
                -2.160437253134813,
                -1.6621729080098187,
                -2.500093159584547,
                -1.2484574831426696,
                -3.0731019226455665
            ]
        },
        {
            "positions": [
                -0.08564312194247137,
                -2.177260953530136,
                -1.5794831806759675,
                -2.5762485377984197,
                -1.0697362253372475,
                -3.06563392580239
            ]
        },
        {
            "positions": [
                -0.10247848124303438,
                -2.194084653925459,
                -1.496793453342116,
                -2.6524039160122928,
                -0.8910149675318257,
                -3.0581659289592134
            ]
        },
        {
            "positions": [
                -0.1193138405435974,
                -2.210908354320782,
                -1.414103726008265,
                -2.728559294226166,
                -0.7122937097264039,
                -3.0506979321160372
            ]
        },
        {
            "positions": [
                -0.1361491998441604,
                -2.227732054716105,
                -1.3314139986744138,
                -2.8047146724400385,
                -0.5335724519209819,
                -3.0432299352728607
            ]
        },
        {
            "positions": [
                -0.15298455914472342,
                -2.244555755111428,
                -1.2487242713405626,
                -2.8808700506539116,
                -0.3548511941155601,
                -3.035761938429684
            ]
        },
        {
            "positions": [
                -0.16981991844528643,
                -2.2613794555067512,
                -1.1660345440067112,
                -2.9570254288677846,
                -0.1761299363101383,
                -3.0282939415865076
            ]
        }
    ]
}