{
    "goal": {
        "global_pose": {
            "orientation": {
                "w": 0.7031023502349854,
                "x": -0.7110244035720825,
                "y": 0.007748599164187908,
                "z": 0.005598929710686207
            },
            "position": {
                "x": 0.11585023208521307,
                "y": 0.44412534475326537,
                "z": 0.3711530566215515
            }
        },
        "name": "move_to_auspresseinheit_A"
    },
    "id": "KPIECE_move_to_auspresseinheit_A_37",
    "joint_names": [
        "shoulder_pan_joint",
        "shoulder_lift_joint",
        "elbow_joint",
        "wrist_1_joint",
        "wrist_2_joint",
        "wrist_3_joint"
    ],
    "metrics": {
        "cart_traj_len": 0.7042537267040431,
        "distance_elbow_joint": 0.5989204842624152,
        "distance_shoulder_lift_joint": 1.45093098994051,
        "distance_shoulder_pan_joint": 1.043325949649729,
        "distance_wrist_1_joint": 0.5560644891413227,
        "distance_wrist_2_joint": 0.5306697115693417,
        "distance_wrist_3_joint": 1.6127869153461503,
        "smoothness": 1.0552245027792986,
        "time": 0.380419305,
        "traj_len": 2.4068025552399326,
        "weighted_distance": 3.178837298653776
    },
    "planner": "KPIECE",
    "start": {
        "state": {
            "elbow_joint": 2.4225746658250005,
            "shoulder_lift_joint": -1.3736534386056498,
            "shoulder_pan_joint": -0.3378633547517467,
            "wrist_1_joint": -1.0288598680537169,
            "wrist_2_joint": 1.233022673432363,
            "wrist_3_joint": -3.0940220416140027
        }
    },
    "waypoints": [
        {
            "positions": [
                -0.3378633547517467,
                -1.3736534386056498,
                2.4225746658250005,
                -1.0288598680537169,
                1.233022673432363,
                -3.0940220416140027
            ]
        },
        {
            "positions": [
                -0.27243927723305744,
                -1.484106897513506,
                2.4542845792064116,
                -0.9673428471190794,
                1.2310751103273545,
                -3.006108932595844
            ]
        },
        {
            "positions": [
                -0.20701519971436813,
                -1.5945603564213624,
                2.4859944925878232,
                -0.9058258261844417,
                1.2291275472223462,
                -2.918195823577685
            ]
        },
        {
            "positions": [
                -0.14159112219567885,
                -1.7050138153292185,
                2.5177044059692344,
                -0.8443088052498042,
                1.2271799841173376,
                -2.830282714559526
            ]
        },
        {
            "positions": [
                -0.07616704467698954,
                -1.8154672742370748,
                2.549414319350646,
                -0.7827917843151667,
                1.225232421012329,
                -2.7423696055413673
            ]
        },
        {
            "positions": [
                -0.010742967158300254,
                -1.925920733144931,
                2.581124232732057,
                -0.7212747633805291,
                1.2232848579073208,
                -2.654456496523208
            ]
        },
        {
            "positions": [
                0.05468111036038903,
                -2.0363741920527874,
                2.6128341461134688,
                -0.6597577424458916,
                1.2213372948023122,
                -2.5665433875050496
            ]
        },
        {
            "positions": [
                0.12010518787907837,
                -2.1468276509606437,
                2.64454405949488,
                -0.598240721511254,
                1.2193897316973037,
                -2.4786302784868903
            ]
        },
        {
            "positions": [
                0.18552926539776765,
                -2.2572811098685,
                2.6762539728762915,
                -0.5367237005766166,
                1.2174421685922954,
                -2.3907171694687315
            ]
        },
        {
            "positions": [
                0.2509533429164569,
                -2.3677345687763562,
                2.7079638862577027,
                -0.47520667964197894,
                1.2154946054872868,
                -2.3028040604505726
            ]
        },
        {
            "positions": [
                0.3158832360566748,
                -2.302470303094956,
                2.6631737057106006,
                -0.47486220810918106,
                1.142188656398106,
                -2.4201710510481043
            ]
        },
        {
            "positions": [
                0.3808131291968927,
                -2.2372060374135554,
                2.618383525163499,
                -0.4745177365763832,
                1.0688827073089253,
                -2.5375380416456355
            ]
        },
        {
            "positions": [
                0.44574302233711055,
                -2.1719417717321545,
                2.573593344616397,
                -0.4741732650435853,
                0.9955767582197445,
                -2.654905032243167
            ]
        },
        {
            "positions": [
                0.5106729154773284,
                -2.106677506050754,
                2.5288031640692954,
                -0.47382879351078744,
                0.9222708091305637,
                -2.7722720228406983
            ]
        },
        {
            "positions": [
                0.5756028086175464,
                -2.0414132403693537,
                2.4840129835221934,
                -0.47348432197798956,
                0.8489648600413828,
                -2.88963901343823
            ]
        },
        {
            "positions": [
                0.6405327017577642,
                -1.9761489746879533,
                2.4392228029750918,
                -0.4731398504451917,
                0.7756589109522021,
                -3.007006004035761
            ]
        },
        {
            "positions": [
                0.7054625948979821,
                -1.9108847090065526,
                2.3944326224279897,
                -0.4727953789123938,
                0.7023529618630213,
                -3.1243729946332928
            ]
        }
    ]
}