{
    "goal": {
        "global_pose": {
            "orientation": {
                "w": -0.00223480608172531,
                "x": 0.0024358444001904467,
                "y": 0.7094548369677653,
                "z": -0.704743149386269
            },
            "position": {
                "x": -0.37947507619857795,
                "y": -0.6371506643295288,
                "z": 0.19426114857196808
            }
        },
        "name": "move_to_magneteinheit_C"
    },
    "id": "KPIECE_move_to_magneteinheit_C_113",
    "joint_names": [
        "shoulder_pan_joint",
        "shoulder_lift_joint",
        "elbow_joint",
        "wrist_1_joint",
        "wrist_2_joint",
        "wrist_3_joint"
    ],
    "metrics": {
        "cart_traj_len": 1.2570024737899301,
        "distance_elbow_joint": 0.29330050174345734,
        "distance_shoulder_lift_joint": 0.70581198293833,
        "distance_shoulder_pan_joint": 1.2554907288577277,
        "distance_wrist_1_joint": 0.42934122637956595,
        "distance_wrist_2_joint": 0.9562711843533667,
        "distance_wrist_3_joint": 1.6778200283554168,
        "smoothness": 0.6276215286961376,
        "time": 1.504040528,
        "traj_len": 2.306086653321567,
        "weighted_distance": 3.171638081507982
    },
    "planner": "KPIECE",
    "start": {
        "state": {
            "elbow_joint": 1.9565354010623817,
            "shoulder_lift_joint": -1.4165861575791021,
            "shoulder_pan_joint": -1.6717766225146293,
            "wrist_1_joint": -0.5286633292919765,
            "wrist_2_joint": 1.472756589071564,
            "wrist_3_joint": -3.1238370188695823
        }
    },
    "waypoints": [
        {
            "positions": [
                -1.6717766225146293,
                -1.4165861575791021,
                1.9565354010623817,
                -0.5286633292919765,
                1.472756589071564,
                -3.1238370188695823
            ]
        },
        {
            "positions": [
                -1.6364520412893377,
                -1.4466332018109207,
                1.9378058024048104,
                -0.5167876946322519,
                1.366505966862292,
                -2.9694704464354342
            ]
        },
        {
            "positions": [
                -1.6011274600640462,
                -1.4766802460427395,
                1.9190762037472393,
                -0.5049120599725274,
                1.2602553446530202,
                -2.8151038740012866
            ]
        },
        {
            "positions": [
                -1.5658028788387548,
                -1.506727290274558,
                1.900346605089668,
                -0.49303642531280284,
                1.1540047224437486,
                -2.6607373015671385
            ]
        },
        {
            "positions": [
                -1.5304782976134632,
                -1.536774334506377,
                1.881617006432097,
                -0.4811607906530783,
                1.0477541002344768,
                -2.506370729132991
            ]
        },
        {
            "positions": [
                -1.4951537163881716,
                -1.5668213787381955,
                1.8628874077745257,
                -0.4692851559933538,
                0.941503478025205,
                -2.3520041566988428
            ]
        },
        {
            "positions": [
                -1.6147407114398453,
                -1.5922655893458304,
                1.8545857970215203,
                -0.48465712398696853,
                0.8538441916180445,
                -2.3341400134819685
            ]
        },
        {
            "positions": [
                -1.7343277064915188,
                -1.617709799953465,
                1.846284186268515,
                -0.5000290919805832,
                0.766184905210884,
                -2.316275870265094
            ]
        },
        {
            "positions": [
                -1.8539147015431925,
                -1.6431540105611,
                1.8379825755155097,
                -0.5154010599741979,
                0.6785256188037234,
                -2.2984117270482196
            ]
        },
        {
            "positions": [
                -2.020709301321688,
                -1.634112744784995,
                1.8635746657774819,
                -0.5555626376182019,
                0.6588101367429043,
                -2.4203711993579624
            ]
        },
        {
            "positions": [
                -2.1875039011001833,
                -1.62507147900889,
                1.8891667560394538,
                -0.5957242152622059,
                0.6390946546820853,
                -2.542330671667705
            ]
        },
        {
            "positions": [
                -2.354298500878679,
                -1.616030213232785,
                1.9147588463014258,
                -0.6358857929062098,
                0.6193791726212662,
                -2.664290143977448
            ]
        },
        {
            "positions": [
                -2.5210931006571746,
                -1.60698894745668,
                1.940350936563398,
                -0.6760473705502138,
                0.5996636905604471,
                -2.786249616287191
            ]
        },
        {
            "positions": [
                -2.522891410292823,
                -1.4929591331824263,
                1.961284526373219,
                -0.7212901008910189,
                0.6197641821195732,
                -2.8906012571059017
            ]
        },
        {
            "positions": [
                -2.505848034017283,
                -1.3832760489898734,
                1.9784331014861778,
                -0.7606094702854449,
                0.6407901135472811,
                -2.977336325931359
            ]
        },
        {
            "positions": [
                -2.4888046577417438,
                -1.2735929647973208,
                1.9955816765991363,
                -0.799928839679871,
                0.661816044974989,
                -3.0640713947568163
            ]
        },
        {
            "positions": [
                -2.471761281466204,
                -1.1639098806047679,
                2.012730251712095,
                -0.8392482090742971,
                0.682841976402697,
                -3.1508064635822737
            ]
        }
    ]
}