{
    "goal": {
        "global_pose": {
            "orientation": {
                "w": -0.4816463035849501,
                "x": 0.5182115481033762,
                "y": 0.4908360881923453,
                "z": -0.5084816262002911
            },
            "position": {
                "x": -0.8240239810943604,
                "y": -0.300875300988555,
                "z": 0.16403168439865112
            }
        },
        "name": "move_to_storage_C"
    },
    "id": "KPIECE_move_to_storage_C_14",
    "joint_names": [
        "shoulder_pan_joint",
        "shoulder_lift_joint",
        "elbow_joint",
        "wrist_1_joint",
        "wrist_2_joint",
        "wrist_3_joint"
    ],
    "metrics": {
        "cart_traj_len": 0.5761727182905967,
        "distance_elbow_joint": 0.25740930541042784,
        "distance_shoulder_lift_joint": 0.1883758902340643,
        "distance_shoulder_pan_joint": 0.49486226520165566,
        "distance_wrist_1_joint": 0.0791950173917283,
        "distance_wrist_2_joint": 1.0647322311460576,
        "distance_wrist_3_joint": 0.0667488668014915,
        "smoothness": 5.075305295617109e-16,
        "time": 0.035755295,
        "traj_len": 1.4667390961535816,
        "weighted_distance": 1.851688029427796
    },
    "planner": "KPIECE",
    "start": {
        "state": {
            "elbow_joint": 2.010868314990456,
            "shoulder_lift_joint": -1.1634956873337592,
            "shoulder_pan_joint": -2.4736205022346125,
            "wrist_1_joint": -0.8367026794202681,
            "wrist_2_joint": 0.6746043897044499,
            "wrist_3_joint": -3.1496632123970403
        }
    },
    "waypoints": [
        {
            "positions": [
                -2.4736205022346125,
                -1.1634956873337592,
                2.010868314990456,
                -0.8367026794202681,
                0.6746043897044499,
                -3.1496632123970403
            ]
        },
        {
            "positions": [
                -2.5560975464348883,
                -1.1320997056280817,
                1.9679667640887177,
                -0.8235035098549801,
                0.8520597615621262,
                -3.1385384012634585
            ]
        },
        {
            "positions": [
                -2.6385745906351645,
                -1.1007037239224045,
                1.9250652131869799,
                -0.810304340289692,
                1.0295151334198025,
                -3.1274135901298763
            ]
        },
        {
            "positions": [
                -2.7210516348354403,
                -1.069307742216727,
                1.882163662285242,
                -0.7971051707244039,
                1.2069705052774786,
                -3.1162887789962945
            ]
        },
        {
            "positions": [
                -2.803528679035716,
                -1.0379117605110497,
                1.839262111383504,
                -0.7839060011591159,
                1.384425877135155,
                -3.1051639678627128
            ]
        },
        {
            "positions": [
                -2.8860057232359924,
                -1.0065157788053722,
                1.7963605604817658,
                -0.7707068315938279,
                1.5618812489928313,
                -3.0940391567291305
            ]
        },
        {
            "positions": [
                -2.968482767436268,
                -0.9751197970996949,
                1.753459009580028,
                -0.7575076620285398,
                1.7393366208505074,
                -3.0829143455955488
            ]
        }
    ]
}