{
    "goal": {
        "global_pose": {
            "orientation": {
                "w": 0.7031023502349854,
                "x": -0.7110244035720825,
                "y": 0.007748599164187908,
                "z": 0.005598929710686207
            },
            "position": {
                "x": 0.11585023208521307,
                "y": 0.44412534475326537,
                "z": 0.3711530566215515
            }
        },
        "name": "move_to_auspresseinheit_A"
    },
    "id": "KPIECE_move_to_auspresseinheit_A_4",
    "joint_names": [
        "shoulder_pan_joint",
        "shoulder_lift_joint",
        "elbow_joint",
        "wrist_1_joint",
        "wrist_2_joint",
        "wrist_3_joint"
    ],
    "metrics": {
        "cart_traj_len": 0.7197600125590198,
        "distance_elbow_joint": 0.14691524840028736,
        "distance_shoulder_lift_joint": 0.6177114061261537,
        "distance_shoulder_pan_joint": 1.0484804765876885,
        "distance_wrist_1_joint": 0.6356834006631178,
        "distance_wrist_2_joint": 0.5129928573726029,
        "distance_wrist_3_joint": 1.3911307579555414,
        "smoothness": 0.867648875349891,
        "time": 0.880025621,
        "traj_len": 2.08636385779312,
        "weighted_distance": 2.878168153713781
    },
    "planner": "KPIECE",
    "start": {
        "state": {
            "elbow_joint": 2.4225746658250005,
            "shoulder_lift_joint": -1.3736534386056498,
            "shoulder_pan_joint": -0.3378633547517467,
            "wrist_1_joint": -1.0288598680537169,
            "wrist_2_joint": 1.233022673432363,
            "wrist_3_joint": -3.0940220416140027
        }
    },
    "waypoints": [
        {
            "positions": [
                -0.3378633547517467,
                -1.3736534386056498,
                2.4225746658250005,
                -1.0288598680537169,
                1.233022673432363,
                -3.0940220416140027
            ]
        },
        {
            "positions": [
                -0.24309394157047093,
                -1.445891215839927,
                2.4117849300749565,
                -0.9549403056357963,
                1.1912343274613195,
                -3.008679527844541
            ]
        },
        {
            "positions": [
                -0.14832452838919513,
                -1.5181289930742043,
                2.400995194324912,
                -0.8810207432178758,
                1.1494459814902762,
                -2.923337014075079
            ]
        },
        {
            "positions": [
                -0.053555115207919335,
                -1.5903667703084816,
                2.3902054585748678,
                -0.8071011807999553,
                1.1076576355192327,
                -2.837994500305617
            ]
        },
        {
            "positions": [
                0.04121429797335646,
                -1.662604547542759,
                2.379415722824824,
                -0.7331816183820348,
                1.0658692895481892,
                -2.752651986536155
            ]
        },
        {
            "positions": [
                0.13598371115463226,
                -1.7348423247770364,
                2.36862598707478,
                -0.6592620559641142,
                1.0240809435771456,
                -2.6673094727666933
            ]
        },
        {
            "positions": [
                0.23075312433590806,
                -1.8070801020113136,
                2.3578362513247355,
                -0.5853424935461938,
                0.9822925976061022,
                -2.5819669589972314
            ]
        },
        {
            "positions": [
                0.3255225375171839,
                -1.879317879245591,
                2.347046515574691,
                -0.5114229311282733,
                0.9405042516350588,
                -2.4966244452277695
            ]
        },
        {
            "positions": [
                0.4202919506984597,
                -1.9515556564798682,
                2.336256779824647,
                -0.4375033687103528,
                0.8987159056640153,
                -2.4112819314583076
            ]
        },
        {
            "positions": [
                0.49287324348283024,
                -1.9416033594168844,
                2.3514061204246306,
                -0.4485850940402912,
                0.8540443832629515,
                -2.588379593408269
            ]
        },
        {
            "positions": [
                0.5654545362672008,
                -1.9316510623539005,
                2.366555461024614,
                -0.4596668193702296,
                0.8093728608618878,
                -2.7654772553582307
            ]
        },
        {
            "positions": [
                0.6380358290515712,
                -1.9216987652909165,
                2.381704801624598,
                -0.470748544700168,
                0.7647013384608239,
                -2.9425749173081925
            ]
        },
        {
            "positions": [
                0.7106171218359417,
                -1.9117464682279328,
                2.3968541422245813,
                -0.4818302700301064,
                0.7200298160597601,
                -3.119672579258154
            ]
        }
    ]
}