{
    "goal": {
        "global_pose": {
            "orientation": {
                "w": 0.7047431493862688,
                "x": -0.7094548369677653,
                "y": 0.0024358444001904,
                "z": -0.0022348060817251984
            },
            "position": {
                "x": -0.39052492380142206,
                "y": 0.3671506643295288,
                "z": 0.19426114857196808
            }
        },
        "name": "move_to_magneteinheit_D"
    },
    "id": "KPIECE_move_to_magneteinheit_D_129",
    "joint_names": [
        "shoulder_pan_joint",
        "shoulder_lift_joint",
        "elbow_joint",
        "wrist_1_joint",
        "wrist_2_joint",
        "wrist_3_joint"
    ],
    "metrics": {
        "cart_traj_len": 8.037831220111407,
        "distance_elbow_joint": 9.908479216591541,
        "distance_shoulder_lift_joint": 1.930623697307637,
        "distance_shoulder_pan_joint": 5.341891132658474,
        "distance_wrist_1_joint": 3.0115332259524736,
        "distance_wrist_2_joint": 5.5130016513499625,
        "distance_wrist_3_joint": 6.456614765116845,
        "smoothness": 0.6553718122834072,
        "time": 0.593740177,
        "traj_len": 5.6711677535563085,
        "weighted_distance": 7.321195810556701
    },
    "planner": "KPIECE",
    "start": {
        "state": {
            "elbow_joint": 0.749534889911806,
            "shoulder_lift_joint": -0.6476975780787326,
            "shoulder_pan_joint": -2.711696901376241,
            "wrist_1_joint": -0.07506478083263063,
            "wrist_2_joint": 0.43296659715538205,
            "wrist_3_joint": -3.14703540197715
        }
    },
    "waypoints": [
        {
            "positions": [
                -2.711696901376241,
                -0.6476975780787326,
                0.749534889911806,
                -0.07506478083263063,
                0.43296659715538205,
                -3.14703540197715
            ]
        },
        {
            "positions": [
                -2.713927388505652,
                -0.7114044582780689,
                0.8568283663724908,
                -0.09866729984963933,
                0.5277608641824153,
                -3.0575114675736947
            ]
        },
        {
            "positions": [
                -2.7161578756350626,
                -0.7751113384774051,
                0.9641218428331757,
                -0.12226981886664803,
                0.6225551312094486,
                -2.96798753317024
            ]
        },
        {
            "positions": [
                -2.7183883627644736,
                -0.8388182186767413,
                1.0714153192938607,
                -0.14587233788365672,
                0.7173493982364818,
                -2.8784635987667846
            ]
        },
        {
            "positions": [
                -2.720618849893884,
                -0.9025250988760776,
                1.1787087957545455,
                -0.16947485690066544,
                0.8121436652635152,
                -2.7889396643633293
            ]
        },
        {
            "positions": [
                -2.722849337023295,
                -0.9662319790754138,
                1.2860022722152304,
                -0.19307737591767413,
                0.9069379322905484,
                -2.6994157299598744
            ]
        },
        {
            "positions": [
                -2.725079824152706,
                -1.02993885927475,
                1.3932957486759152,
                -0.21667989493468282,
                1.0017321993175816,
                -2.609891795556419
            ]
        },
        {
            "positions": [
                -2.7273103112821167,
                -1.0936457394740864,
                1.5005892251366002,
                -0.24028241395169153,
                1.096526466344615,
                -2.5203678611529643
            ]
        },
        {
            "positions": [
                -2.7295407984115276,
                -1.1573526196734225,
                1.6078827015972852,
                -0.2638849329687002,
                1.1913207333716482,
                -2.430843926749509
            ]
        },
        {
            "positions": [
                -2.7317712855409386,
                -1.2210594998727586,
                1.71517617805797,
                -0.2874874519857089,
                1.2861150003986817,
                -2.3413199923460537
            ]
        },
        {
            "positions": [
                -2.734001772670349,
                -1.284766380072095,
                1.822469654518655,
                -0.3110899710027176,
                1.3809092674257148,
                -2.251796057942599
            ]
        },
        {
            "positions": [
                -2.73623225979976,
                -1.3484732602714313,
                1.9297631309793397,
                -0.33469249001972634,
                1.475703534452748,
                -2.1622721235391436
            ]
        },
        {
            "positions": [
                -2.738462746929171,
                -1.4121801404707675,
                2.0370566074400247,
                -0.358295009036735,
                1.5704978014797812,
                -2.0727481891356883
            ]
        },
        {
            "positions": [
                -2.7406932340585817,
                -1.4758870206701036,
                2.1443500839007097,
                -0.3818975280537437,
                1.6652920685068147,
                -1.9832242547322332
            ]
        },
        {
            "positions": [
                -2.7429237211879927,
                -1.53959390086944,
                2.2516435603613942,
                -0.40550004707075243,
                1.7600863355338479,
                -1.893700320328778
            ]
        },
        {
            "positions": [
                -2.745154208317403,
                -1.6033007810687763,
                2.3589370368220792,
                -0.4291025660877611,
                1.8548806025608813,
                -1.8041763859253228
            ]
        },
        {
            "positions": [
                -2.747384695446814,
                -1.6670076612681124,
                2.466230513282764,
                -0.4527050851047698,
                1.9496748695879145,
                -1.7146524515218677
            ]
        },
        {
            "positions": [
                -2.6722834296547195,
                -1.6646719636520348,
                2.366985824880455,
                -0.499748593344318,
                1.893353982270253,
                -1.6023255136974683
            ]
        },
        {
            "positions": [
                -2.597182163862625,
                -1.6623362660359573,
                2.267741136478146,
                -0.5467921015838662,
                1.8370330949525915,
                -1.489998575873069
            ]
        },
        {
            "positions": [
                -2.5220808980705307,
                -1.6600005684198798,
                2.1684964480758366,
                -0.5938356098234144,
                1.7807122076349302,
                -1.3776716380486695
            ]
        },
        {
            "positions": [
                -2.446979632278436,
                -1.6576648708038024,
                2.0692517596735276,
                -0.6408791180629626,
                1.7243913203172687,
                -1.2653447002242701
            ]
        },
        {
            "positions": [
                -2.3718783664863414,
                -1.6553291731877249,
                1.9700070712712185,
                -0.6879226263025108,
                1.6680704329996072,
                -1.1530177623998707
            ]
        },
        {
            "positions": [
                -2.296777100694247,
                -1.6529934755716473,
                1.8707623828689093,
                -0.7349661345420591,
                1.6117495456819457,
                -1.0406908245754711
            ]
        },
        {
            "positions": [
                -2.221675834902152,
                -1.6506577779555698,
                1.7715176944666,
                -0.7820096427816072,
                1.5554286583642845,
                -0.9283638867510718
            ]
        },
        {
            "positions": [
                -2.146574569110058,
                -1.6483220803394922,
                1.672273006064291,
                -0.8290531510211554,
                1.499107771046623,
                -0.8160369489266724
            ]
        },
        {
            "positions": [
                -2.0714733033179633,
                -1.6459863827234147,
                1.5730283176619817,
                -0.8760966592607036,
                1.4427868837289615,
                -0.7037100111022729
            ]
        },
        {
            "positions": [
                -1.9963720375258687,
                -1.6436506851073374,
                1.4737836292596729,
                -0.9231401675002517,
                1.3864659964113,
                -0.5913830732778738
            ]
        },
        {
            "positions": [
                -1.921270771733774,
                -1.6413149874912598,
                1.3745389408573634,
                -0.9701836757397999,
                1.3301451090936385,
                -0.47905613545347414
            ]
        },
        {
            "positions": [
                -1.8461695059416794,
                -1.6389792898751823,
                1.2752942524550543,
                -1.0172271839793483,
                1.273824221775977,
                -0.36672919762907474
            ]
        },
        {
            "positions": [
                -1.7710682401495852,
                -1.6366435922591047,
                1.1760495640527453,
                -1.0642706922188963,
                1.2175033344583157,
                -0.25440225980467557
            ]
        },
        {
            "positions": [
                -1.6959669743574906,
                -1.6343078946430272,
                1.076804875650436,
                -1.1113142004584446,
                1.1611824471406542,
                -0.14207532198027595
            ]
        },
        {
            "positions": [
                -1.620865708565396,
                -1.6319721970269496,
                0.9775601872481268,
                -1.1583577086979928,
                1.1048615598229927,
                -0.02974838415587655
            ]
        },
        {
            "positions": [
                -1.5457644427733015,
                -1.629636499410872,
                0.8783154988458177,
                -1.205401216937541,
                1.0485406725053315,
                0.08257855366852285
            ]
        },
        {
            "positions": [
                -1.4706631769812069,
                -1.6273008017947947,
                0.7790708104435085,
                -1.2524447251770892,
                0.9922197851876698,
                0.19490549149292224
            ]
        },
        {
            "positions": [
                -1.3955619111891122,
                -1.6249651041787172,
                0.6798261220411992,
                -1.2994882334166373,
                0.9358988978700082,
                0.30723242931732186
            ]
        },
        {
            "positions": [
                -1.3204606453970178,
                -1.6226294065626397,
                0.5805814336388901,
                -1.3465317416561855,
                0.879578010552347,
                0.4195593671417208
            ]
        },
        {
            "positions": [
                -1.2453593796049234,
                -1.620293708946562,
                0.4813367452365813,
                -1.3935752498957337,
                0.8232571232346857,
                0.5318863049661202
            ]
        },
        {
            "positions": [
                -1.1702581138128287,
                -1.6179580113304846,
                0.38209205683427205,
                -1.4406187581352818,
                0.7669362359170242,
                0.6442132427905196
            ]
        },
        {
            "positions": [
                -1.095156848020734,
                -1.615622313714407,
                0.28284736843196256,
                -1.48766226637483,
                0.7106153485993627,
                0.7565401806149195
            ]
        },
        {
            "positions": [
                -1.0200555822286395,
                -1.6132866160983297,
                0.18360268002965352,
                -1.5347057746143782,
                0.6542944612817012,
                0.8688671184393189
            ]
        },
        {
            "positions": [
                -0.9449543164365448,
                -1.6109509184822521,
                0.08435799162734448,
                -1.5817492828539266,
                0.5979735739640397,
                0.9811940562637183
            ]
        },
        {
            "positions": [
                -0.8698530506444504,
                -1.6086152208661746,
                -0.014886696774965014,
                -1.6287927910934747,
                0.5416526866463782,
                1.0935209940881176
            ]
        },
        {
            "positions": [
                -0.794751784852356,
                -1.606279523250097,
                -0.11413138517727361,
                -1.6758362993330227,
                0.48533179932871695,
                1.2058479319125166
            ]
        },
        {
            "positions": [
                -0.7196505190602616,
                -1.6039438256340195,
                -0.2133760735795831,
                -1.722879807572571,
                0.42901091201105546,
                1.3181748697369164
            ]
        },
        {
            "positions": [
                -0.6445492532681669,
                -1.601608128017942,
                -0.31262076198189215,
                -1.7699233158121193,
                0.37269002469339396,
                1.4305018075613158
            ]
        },
        {
            "positions": [
                -0.5694479874760723,
                -1.5992724304018644,
                -0.41186545038420164,
                -1.8169668240516674,
                0.31636913737573247,
                1.5428287453857152
            ]
        },
        {
            "positions": [
                -0.49434672168397764,
                -1.596936732785787,
                -0.5111101387865107,
                -1.8640103322912156,
                0.260048250058071,
                1.6551556832101146
            ]
        },
        {
            "positions": [
                -0.41924545589188345,
                -1.5946010351697095,
                -0.6103548271888197,
                -1.9110538405307638,
                0.2037273627404097,
                1.7674826210345136
            ]
        },
        {
            "positions": [
                -0.3441441900997888,
                -1.592265337553632,
                -0.7095995155911288,
                -1.958097348770312,
                0.1474064754227482,
                1.8798095588589134
            ]
        },
        {
            "positions": [
                -0.26904292430769416,
                -1.5899296399375544,
                -0.8088442039934378,
                -2.0051408570098603,
                0.09108558810508671,
                1.9921364966833128
            ]
        },
        {
            "positions": [
                -0.19394165851559952,
                -1.5875939423214769,
                -0.9080888923957473,
                -2.0521843652494085,
                0.03476470078742522,
                2.1044634345077124
            ]
        },
        {
            "positions": [
                -0.11884039272350488,
                -1.5852582447053993,
                -1.0073335807980563,
                -2.0992278734889567,
                -0.021556186530236277,
                2.2167903723321114
            ]
        },
        {
            "positions": [
                -0.043739126931410244,
                -1.5829225470893218,
                -1.1065782692003658,
                -2.146271381728505,
                -0.07787707384789799,
                2.3291173101565112
            ]
        },
        {
            "positions": [
                0.03136213886068395,
                -1.5805868494732445,
                -1.2058229576026744,
                -2.193314889968053,
                -0.13419796116555904,
                2.44144424798091
            ]
        },
        {
            "positions": [
                0.10646340465277859,
                -1.578251151857167,
                -1.305067646004984,
                -2.240358398207601,
                -0.19051884848322054,
                2.553771185805309
            ]
        },
        {
            "positions": [
                0.18156467044487312,
                -1.5759154542410894,
                -1.4043123344072928,
                -2.2874019064471494,
                -0.24683973580088203,
                2.666098123629709
            ]
        },
        {
            "positions": [
                0.2589251824710871,
                -1.5512554452820744,
                -1.2742857393143785,
                -2.317656844616019,
                -0.3135560797693246,
                2.712279594487314
            ]
        },
        {
            "positions": [
                0.336285694497301,
                -1.5265954363230594,
                -1.1442591442214645,
                -2.3479117827848888,
                -0.38027242373776715,
                2.7584610653449193
            ]
        },
        {
            "positions": [
                0.4136462065235149,
                -1.5019354273640442,
                -1.0142325491285502,
                -2.3781667209537583,
                -0.44698876770620966,
                2.804642536202525
            ]
        },
        {
            "positions": [
                0.4910067185497289,
                -1.4772754184050292,
                -0.884205954035636,
                -2.408421659122628,
                -0.5137051116746523,
                2.85082400706013
            ]
        },
        {
            "positions": [
                0.5683672305759429,
                -1.4526154094460142,
                -0.7541793589427218,
                -2.4386765972914977,
                -0.5804214556430948,
                2.897005477917735
            ]
        },
        {
            "positions": [
                0.6457277426021568,
                -1.4279554004869992,
                -0.6241527638498076,
                -2.4689315354603676,
                -0.6471377996115373,
                2.9431869487753404
            ]
        },
        {
            "positions": [
                0.7230882546283707,
                -1.403295391527984,
                -0.4941261687568935,
                -2.499186473629237,
                -0.7138541435799799,
                2.989368419632946
            ]
        },
        {
            "positions": [
                0.8004487666545846,
                -1.378635382568969,
                -0.36409957366397916,
                -2.529441411798107,
                -0.7805704875484224,
                3.035549890490551
            ]
        },
        {
            "positions": [
                0.8778092786807985,
                -1.353975373609954,
                -0.23407297857106513,
                -2.5596963499669765,
                -0.8472868315168649,
                3.0817313613481563
            ]
        },
        {
            "positions": [
                0.9551697907070125,
                -1.329315364650939,
                -0.10404638347815087,
                -2.5899512881358464,
                -0.9140031754853075,
                3.1279128322057614
            ]
        },
        {
            "positions": [
                1.0325303027332264,
                -1.3046553556919238,
                0.025980211614763382,
                -2.620206226304716,
                -0.98071951945375,
                3.1740943030633666
            ]
        },
        {
            "positions": [
                1.1098908147594404,
                -1.2799953467329088,
                0.15600680670767764,
                -2.650461164473586,
                -1.0474358634221925,
                3.220275773920972
            ]
        },
        {
            "positions": [
                1.1872513267856544,
                -1.2553353377738938,
                0.28603340180059167,
                -2.6807161026424553,
                -1.1141522073906351,
                3.2664572447785774
            ]
        },
        {
            "positions": [
                1.095813505695292,
                -1.2886447571488298,
                0.11064040117908272,
                -2.6536573090329454,
                -1.0519877872613768,
                3.2635824368878366
            ]
        },
        {
            "positions": [
                1.0043756846049299,
                -1.3219541765237657,
                -0.06475259944242623,
                -2.6265985154234355,
                -0.9898233671321185,
                3.2607076289970958
            ]
        },
        {
            "positions": [
                0.9129378635145675,
                -1.3552635958987016,
                -0.24014560006393526,
                -2.5995397218139256,
                -0.9276589470028601,
                3.257832821106355
            ]
        },
        {
            "positions": [
                0.8215000424242054,
                -1.3885730152736375,
                -0.4155386006854441,
                -2.5724809282044157,
                -0.8654945268736018,
                3.2549580132156137
            ]
        },
        {
            "positions": [
                0.7300622213338431,
                -1.4218824346485734,
                -0.5909316013069531,
                -2.5454221345949057,
                -0.8033301067443435,
                3.252083205324873
            ]
        },
        {
            "positions": [
                0.6386244002434808,
                -1.4551918540235094,
                -0.7663246019284622,
                -2.518363340985396,
                -0.7411656866150851,
                3.249208397434132
            ]
        },
        {
            "positions": [
                0.5471865791531185,
                -1.488501273398445,
                -0.9417176025499712,
                -2.4913045473758855,
                -0.6790012664858268,
                3.2463335895433914
            ]
        },
        {
            "positions": [
                0.4557487580627564,
                -1.5218106927733812,
                -1.11711060317148,
                -2.4642457537663756,
                -0.6168368463565685,
                3.2434587816526506
            ]
        },
        {
            "positions": [
                0.36431093697239414,
                -1.555120112148317,
                -1.292503603792989,
                -2.4371869601568656,
                -0.5546724262273102,
                3.2405839737619098
            ]
        },
        {
            "positions": [
                0.2728731158820319,
                -1.5884295315232528,
                -1.4678966044144979,
                -2.4101281665473557,
                -0.4925080060980519,
                3.237709165871169
            ]
        },
        {
            "positions": [
                0.18143529479166953,
                -1.6217389508981888,
                -1.6432896050360069,
                -2.383069372937846,
                -0.43034358596879363,
                3.234834357980428
            ]
        },
        {
            "positions": [
                0.08999747370130717,
                -1.6550483702731247,
                -1.818682605657516,
                -2.356010579328336,
                -0.36817916583953514,
                3.231959550089687
            ]
        },
        {
            "positions": [
                -0.0014403473890549634,
                -1.6883577896480606,
                -1.9940756062790248,
                -2.328951785718826,
                -0.30601474571027687,
                3.229084742198946
            ]
        },
        {
            "positions": [
                -0.09287816847941732,
                -1.7216672090229965,
                -2.169468606900534,
                -2.301892992109316,
                -0.2438503255810185,
                3.2262099343082054
            ]
        },
        {
            "positions": [
                -0.18431598956977951,
                -1.7549766283979324,
                -2.3448616075220428,
                -2.274834198499806,
                -0.18168590545176022,
                3.2233351264174646
            ]
        }
    ]
}