{
    "goal": {
        "global_pose": {
            "orientation": {
                "w": 0.005598929693374612,
                "x": 0.007748599140229565,
                "y": 0.7110244013736278,
                "z": -0.7031023480610252
            },
            "position": {
                "x": 0.1141497679147869,
                "y": -0.7141253447532654,
                "z": 0.3711530566215515
            }
        },
        "name": "move_to_auspresseinheit_B"
    },
    "id": "KPIECE_move_to_auspresseinheit_B_121",
    "joint_names": [
        "shoulder_pan_joint",
        "shoulder_lift_joint",
        "elbow_joint",
        "wrist_1_joint",
        "wrist_2_joint",
        "wrist_3_joint"
    ],
    "metrics": {
        "cart_traj_len": 0.5639495832562914,
        "distance_elbow_joint": 0.06087467048992723,
        "distance_shoulder_lift_joint": 0.2939858338511627,
        "distance_shoulder_pan_joint": 0.5771207044633337,
        "distance_wrist_1_joint": 0.31937288746967396,
        "distance_wrist_2_joint": 0.9883098161277957,
        "distance_wrist_3_joint": 0.006375177547715882,
        "smoothness": 5.075305255429287e-16,
        "time": 0.01217245,
        "traj_len": 1.498679115070871,
        "weighted_distance": 1.888510563550681
    },
    "planner": "KPIECE",
    "start": {
        "state": {
            "elbow_joint": 2.0193083361928714,
            "shoulder_lift_joint": -1.1220246554650708,
            "shoulder_pan_joint": -1.0952077554168747,
            "wrist_1_joint": -0.8559753972642168,
            "wrist_2_joint": 0.4759566250798843,
            "wrist_3_joint": -3.1240929996934557
        }
    },
    "waypoints": [
        {
            "positions": [
                -1.0952077554168747,
                -1.1220246554650708,
                2.0193083361928714,
                -0.8559753972642168,
                0.4759566250798843,
                -3.1240929996934557
            ]
        },
        {
            "positions": [
                -1.191394539494097,
                -1.1710222944402646,
                2.0091625577778833,
                -0.8027465826859378,
                0.6406749277678503,
                -3.1230304701021696
            ]
        },
        {
            "positions": [
                -1.2875813235713192,
                -1.2200199334154584,
                1.9990167793628957,
                -0.7495177681076588,
                0.8053932304558162,
                -3.1219679405108836
            ]
        },
        {
            "positions": [
                -1.3837681076485415,
                -1.269017572390652,
                1.9888710009479078,
                -0.6962889535293798,
                0.9701115331437822,
                -3.1209054109195975
            ]
        },
        {
            "positions": [
                -1.4799548917257637,
                -1.3180152113658459,
                1.97872522253292,
                -0.6430601389511008,
                1.1348298358317481,
                -3.119842881328312
            ]
        },
        {
            "positions": [
                -1.5761416758029863,
                -1.3670128503410397,
                1.968579444117932,
                -0.5898313243728218,
                1.299548138519714,
                -3.118780351737026
            ]
        },
        {
            "positions": [
                -1.6723284598802084,
                -1.4160104893162335,
                1.9584336657029442,
                -0.5366025097945428,
                1.46426644120768,
                -3.11771782214574
            ]
        }
    ]
}