{
    "goal": {
        "global_pose": {
            "orientation": {
                "w": 0.5084816262002911,
                "x": -0.4908360881923452,
                "y": 0.5182115481033761,
                "z": -0.48164630358495003
            },
            "position": {
                "x": 0.5540239810943604,
                "y": -0.46912469901144505,
                "z": 0.16403168439865112
            }
        },
        "name": "move_to_storage_B"
    },
    "id": "KPIECE_move_to_storage_B_62",
    "joint_names": [
        "shoulder_pan_joint",
        "shoulder_lift_joint",
        "elbow_joint",
        "wrist_1_joint",
        "wrist_2_joint",
        "wrist_3_joint"
    ],
    "metrics": {
        "cart_traj_len": 1.1109523954188512,
        "distance_elbow_joint": 0.35436574761674366,
        "distance_shoulder_lift_joint": 0.46034089223192165,
        "distance_shoulder_pan_joint": 1.1493960903407319,
        "distance_wrist_1_joint": 2.995197701203403,
        "distance_wrist_2_joint": 2.720948860474798,
        "distance_wrist_3_joint": 3.1337649870839734,
        "smoothness": 0.08400272902914338,
        "time": 0.07550765400000001,
        "traj_len": 3.288466858423781,
        "weighted_distance": 4.774692745590832
    },
    "planner": "KPIECE",
    "start": {
        "state": {
            "elbow_joint": 1.664937868594044,
            "shoulder_lift_joint": -0.661644460510453,
            "shoulder_pan_joint": -0.9139846352900073,
            "wrist_1_joint": 2.146753192139373,
            "wrist_2_joint": -2.2341966793290973,
            "wrist_3_joint": 0.005466555786416001
        }
    },
    "waypoints": [
        {
            "positions": [
                -0.9139846352900073,
                -0.661644460510453,
                1.664937868594044,
                2.146753192139373,
                -2.2341966793290973,
                0.005466555786416001
            ]
        },
        {
            "positions": [
                -0.8170327082713134,
                -0.6919289255381527,
                1.6814256734195756,
                2.135253067239032,
                -2.160084000225493,
                -0.1469352258363886
            ]
        },
        {
            "positions": [
                -0.7200807812526193,
                -0.7222133905658523,
                1.6979134782451075,
                2.123752942338691,
                -2.0859713211218884,
                -0.29933700745919317
            ]
        },
        {
            "positions": [
                -0.6231288542339254,
                -0.752497855593552,
                1.7144012830706392,
                2.1122528174383506,
                -2.0118586420182845,
                -0.45173878908199766
            ]
        },
        {
            "positions": [
                -0.5261769272152313,
                -0.7827823206212516,
                1.7308890878961711,
                2.1007526925380096,
                -1.93774596291468,
                -0.6041405707048024
            ]
        },
        {
            "positions": [
                -0.4292250001965374,
                -0.8130667856489513,
                1.7473768927217028,
                2.0892525676376685,
                -1.8636332838110756,
                -0.7565423523276069
            ]
        },
        {
            "positions": [
                -0.45812223738120095,
                -0.8264980276964914,
                1.7591997937429673,
                1.961526607781073,
                -1.7614426114216506,
                -0.8596621818480396
            ]
        },
        {
            "positions": [
                -0.48701947456586453,
                -0.8399292697440316,
                1.771022694764232,
                1.8338006479244773,
                -1.6592519390322256,
                -0.9627820113684722
            ]
        },
        {
            "positions": [
                -0.5159167117505281,
                -0.8533605117915717,
                1.7828455957854965,
                1.7060746880678819,
                -1.5570612666428005,
                -1.0659018408889047
            ]
        },
        {
            "positions": [
                -0.5448139489351916,
                -0.8667917538391119,
                1.794668496806761,
                1.5783487282112862,
                -1.4548705942533755,
                -1.1690216704093372
            ]
        },
        {
            "positions": [
                -0.5737111861198552,
                -0.880222995886652,
                1.8064913978280255,
                1.4506227683546906,
                -1.3526799218639503,
                -1.27214149992977
            ]
        },
        {
            "positions": [
                -0.6026084233045187,
                -0.8936542379341922,
                1.8183142988492902,
                1.3228968084980952,
                -1.2504892494745254,
                -1.3752613294502027
            ]
        },
        {
            "positions": [
                -0.6315056604891823,
                -0.9070854799817323,
                1.8301371998705547,
                1.1951708486414994,
                -1.1482985770851002,
                -1.4783811589706353
            ]
        },
        {
            "positions": [
                -0.6604028976738459,
                -0.9205167220292725,
                1.8419601008918192,
                1.067444888784904,
                -1.0461079046956752,
                -1.5815009884910678
            ]
        },
        {
            "positions": [
                -0.6893001348585094,
                -0.9339479640768126,
                1.8537830019130839,
                0.9397189289283083,
                -0.94391723230625,
                -1.6846208180115005
            ]
        },
        {
            "positions": [
                -0.7181973720431729,
                -0.9473792061243528,
                1.8656059029343484,
                0.8119929690717127,
                -0.8417265599168251,
                -1.787740647531933
            ]
        },
        {
            "positions": [
                -0.7470946092278365,
                -0.9608104481718929,
                1.8774288039556128,
                0.6842670092151171,
                -0.7395358875273998,
                -1.8908604770523656
            ]
        },
        {
            "positions": [
                -0.7759918464125,
                -0.9742416902194331,
                1.8892517049768776,
                0.5565410493585217,
                -0.637345215137975,
                -1.9939803065727983
            ]
        },
        {
            "positions": [
                -0.8048890835971636,
                -0.9876729322669732,
                1.901074605998142,
                0.42881508950192604,
                -0.53515454274855,
                -2.097100136093231
            ]
        },
        {
            "positions": [
                -0.8337863207818272,
                -1.0011041743145133,
                1.9128975070194065,
                0.3010891296453304,
                -0.43296387035912476,
                -2.2002199656136634
            ]
        },
        {
            "positions": [
                -0.8626835579664907,
                -1.0145354163620535,
                1.9247204080406712,
                0.17336316978873478,
                -0.33077319796969973,
                -2.303339795134096
            ]
        },
        {
            "positions": [
                -0.8915807951511543,
                -1.0279666584095937,
                1.9365433090619357,
                0.04563720993213938,
                -0.2285825255802747,
                -2.406459624654529
            ]
        },
        {
            "positions": [
                -0.9204780323358177,
                -1.0413979004571337,
                1.9483662100832002,
                -0.08208874992445603,
                -0.12639185319084967,
                -2.509579454174961
            ]
        },
        {
            "positions": [
                -0.9493752695204813,
                -1.0548291425046739,
                1.960189111104465,
                -0.20981470978105188,
                -0.024201180801424416,
                -2.612699283695394
            ]
        },
        {
            "positions": [
                -0.9782725067051449,
                -1.068260384552214,
                1.9720120121257294,
                -0.3375406696376473,
                0.07798949158800061,
                -2.7158191132158267
            ]
        },
        {
            "positions": [
                -1.0071697438898084,
                -1.0816916265997543,
                1.983834913146994,
                -0.46526662949424313,
                0.18018016397742542,
                -2.818938942736259
            ]
        },
        {
            "positions": [
                -1.0360669810744718,
                -1.0951228686472945,
                1.9956578141682584,
                -0.5929925893508385,
                0.2823708363668507,
                -2.9220587722566913
            ]
        },
        {
            "positions": [
                -1.0649642182591355,
                -1.1085541106948344,
                2.007480715189523,
                -0.7207185492074344,
                0.3845615087562759,
                -3.0251786017771245
            ]
        },
        {
            "positions": [
                -1.093861455443799,
                -1.1219853527423747,
                2.0193036162107876,
                -0.8484445090640296,
                0.48675218114570096,
                -3.1282984312975572
            ]
        }
    ]
}