{
    "goal": {
        "global_pose": {
            "orientation": {
                "w": 0.005598929693374612,
                "x": 0.007748599140229565,
                "y": 0.7110244013736278,
                "z": -0.7031023480610252
            },
            "position": {
                "x": 0.1141497679147869,
                "y": -0.7141253447532654,
                "z": 0.3711530566215515
            }
        },
        "name": "move_to_auspresseinheit_B"
    },
    "id": "KPIECE_move_to_auspresseinheit_B_41",
    "joint_names": [
        "shoulder_pan_joint",
        "shoulder_lift_joint",
        "elbow_joint",
        "wrist_1_joint",
        "wrist_2_joint",
        "wrist_3_joint"
    ],
    "metrics": {
        "cart_traj_len": 0.5652060517715053,
        "distance_elbow_joint": 0.06561172174991947,
        "distance_shoulder_lift_joint": 0.29438420640633045,
        "distance_shoulder_pan_joint": 0.5791190155156194,
        "distance_wrist_1_joint": 0.3385718572768309,
        "distance_wrist_2_joint": 0.9854806368775932,
        "distance_wrist_3_joint": 0.006870001094203104,
        "smoothness": 5.075305295617109e-16,
        "time": 0.242802667,
        "traj_len": 1.506664341822855,
        "weighted_distance": 1.8994288444854488
    },
    "planner": "KPIECE",
    "start": {
        "state": {
            "elbow_joint": 2.0193083361928714,
            "shoulder_lift_joint": -1.1220246554650708,
            "shoulder_pan_joint": -1.0952077554168747,
            "wrist_1_joint": -0.8559753972642168,
            "wrist_2_joint": 0.4759566250798843,
            "wrist_3_joint": -3.1240929996934557
        }
    },
    "waypoints": [
        {
            "positions": [
                -1.0952077554168747,
                -1.1220246554650708,
                2.0193083361928714,
                -0.8559753972642168,
                0.4759566250798843,
                -3.1240929996934557
            ]
        },
        {
            "positions": [
                -1.1917275913361445,
                -1.171088689866126,
                2.0083730492345513,
                -0.799546754384745,
                0.6402033978928166,
                -3.1229479995110885
            ]
        },
        {
            "positions": [
                -1.2882474272554145,
                -1.220152724267181,
                1.9974377622762316,
                -0.7431181115052732,
                0.8044501707057488,
                -3.1218029993287213
            ]
        },
        {
            "positions": [
                -1.3847672631746843,
                -1.269216758668236,
                1.9865024753179117,
                -0.6866894686258014,
                0.968696943518681,
                -3.120657999146354
            ]
        },
        {
            "positions": [
                -1.4812870990939542,
                -1.318280793069291,
                1.9755671883595918,
                -0.6302608257463296,
                1.1329437163316132,
                -3.119512998963987
            ]
        },
        {
            "positions": [
                -1.5778069350132242,
                -1.3673448274703461,
                1.9646319014012719,
                -0.5738321828668577,
                1.2971904891445454,
                -3.1183679987816197
            ]
        },
        {
            "positions": [
                -1.674326770932494,
                -1.4164088618714012,
                1.953696614442952,
                -0.5174035399873859,
                1.4614372619574776,
                -3.1172229985992526
            ]
        }
    ]
}