{
    "goal": {
        "global_pose": {
            "orientation": {
                "w": 0.7047431468963623,
                "x": -0.7094548344612122,
                "y": 0.0024358443915843964,
                "z": -0.0022348060738295317
            },
            "position": {
                "x": 0.6094750761985779,
                "y": 0.3671506643295288,
                "z": 0.19426114857196808
            }
        },
        "name": "move_to_magneteinheit_A"
    },
    "id": "KPIECE_move_to_magneteinheit_A_33",
    "joint_names": [
        "shoulder_pan_joint",
        "shoulder_lift_joint",
        "elbow_joint",
        "wrist_1_joint",
        "wrist_2_joint",
        "wrist_3_joint"
    ],
    "metrics": {
        "cart_traj_len": 3.3728705003222843,
        "distance_elbow_joint": 3.8772392990265443,
        "distance_shoulder_lift_joint": 0.2186806189620456,
        "distance_shoulder_pan_joint": 2.790381779249714,
        "distance_wrist_1_joint": 2.076708621760149,
        "distance_wrist_2_joint": 2.2786509545186804,
        "distance_wrist_3_joint": 2.5848599095049494,
        "smoothness": 0.24284636040593036,
        "time": 0.168424079,
        "traj_len": 3.718403042035934,
        "weighted_distance": 4.832349384958708
    },
    "planner": "KPIECE",
    "start": {
        "state": {
            "elbow_joint": -1.9196185241190666,
            "shoulder_lift_joint": -1.2443396400964142,
            "shoulder_pan_joint": 2.6996025414629847,
            "wrist_1_joint": -1.5485510000780065,
            "wrist_2_joint": -1.5709468930060704,
            "wrist_3_joint": 0.4420197071253992
        }
    },
    "waypoints": [
        {
            "positions": [
                2.6996025414629847,
                -1.2443396400964142,
                -1.9196185241190666,
                -1.5485510000780065,
                -1.5709468930060704,
                0.4420197071253992
            ]
        },
        {
            "positions": [
                2.604324470521481,
                -1.2463664085058779,
                -1.80323343528135,
                -1.4925571485948748,
                -1.4943664061749662,
                0.4801126165600269
            ]
        },
        {
            "positions": [
                2.5090463995799777,
                -1.2483931769153416,
                -1.686848346443633,
                -1.436563297111743,
                -1.4177859193438618,
                0.5182055259946546
            ]
        },
        {
            "positions": [
                2.413768328638474,
                -1.2504199453248053,
                -1.5704632576059163,
                -1.3805694456286113,
                -1.3412054325127576,
                0.5562984354292824
            ]
        },
        {
            "positions": [
                2.3184902576969706,
                -1.252446713734269,
                -1.4540781687681994,
                -1.3245755941454795,
                -1.2646249456816534,
                0.59439134486391
            ]
        },
        {
            "positions": [
                2.223212186755467,
                -1.2544734821437327,
                -1.3376930799304827,
                -1.2685817426623478,
                -1.188044458850549,
                0.6324842542985377
            ]
        },
        {
            "positions": [
                2.1279341158139635,
                -1.2565002505531964,
                -1.221307991092766,
                -1.212587891179216,
                -1.1114639720194446,
                0.6705771637331654
            ]
        },
        {
            "positions": [
                2.0326560448724598,
                -1.2585270189626603,
                -1.104922902255049,
                -1.1565940396960843,
                -1.0348834851883404,
                0.7086700731677931
            ]
        },
        {
            "positions": [
                1.937377973930956,
                -1.260553787372124,
                -0.9885378134173323,
                -1.1006001882129524,
                -0.9583029983572362,
                0.7467629826024209
            ]
        },
        {
            "positions": [
                1.8420999029894527,
                -1.2625805557815877,
                -0.8721527245796157,
                -1.0446063367298208,
                -0.8817225115261319,
                0.7848558920370485
            ]
        },
        {
            "positions": [
                1.746821832047949,
                -1.2646073241910514,
                -0.7557676357418988,
                -0.988612485246689,
                -0.8051420246950276,
                0.8229488014716764
            ]
        },
        {
            "positions": [
                1.6515437611064454,
                -1.266634092600515,
                -0.6393825469041821,
                -0.9326186337635572,
                -0.7285615378639234,
                0.861041710906304
            ]
        },
        {
            "positions": [
                1.5562656901649419,
                -1.2686608610099788,
                -0.5229974580664651,
                -0.8766247822804255,
                -0.651981051032819,
                0.8991346203409317
            ]
        },
        {
            "positions": [
                1.4609876192234383,
                -1.2706876294194425,
                -0.40661236922874844,
                -0.8206309307972938,
                -0.5754005642017148,
                0.9372275297755595
            ]
        },
        {
            "positions": [
                1.3657095482819348,
                -1.2727143978289062,
                -0.29022728039103174,
                -0.764637079314162,
                -0.4988200773706106,
                0.9753204392101871
            ]
        },
        {
            "positions": [
                1.2704314773404313,
                -1.2747411662383699,
                -0.17384219155331504,
                -0.7086432278310304,
                -0.42223959053950644,
                1.0134133486448147
            ]
        },
        {
            "positions": [
                1.1751534063989275,
                -1.2767679346478336,
                -0.057457102715597896,
                -0.6526493763478984,
                -0.345659103708402,
                1.0515062580794425
            ]
        },
        {
            "positions": [
                1.079875335457424,
                -1.2787947030572973,
                0.0589279861221188,
                -0.5966555248647668,
                -0.2690786168772976,
                1.0895991675140704
            ]
        },
        {
            "positions": [
                0.9845972645159204,
                -1.280821471466761,
                0.17531307495983528,
                -0.540661673381635,
                -0.19249813004619343,
                1.1276920769486978
            ]
        },
        {
            "positions": [
                0.8893191935744171,
                -1.2828482398762246,
                0.2916981637975522,
                -0.48466782189850344,
                -0.11591764321508924,
                1.1657849863833256
            ]
        },
        {
            "positions": [
                0.7940411226329132,
                -1.2848750082856886,
                0.4080832526352691,
                -0.4286739704153715,
                -0.03933715638398483,
                1.2038778958179535
            ]
        },
        {
            "positions": [
                0.6987630516914098,
                -1.2869017766951523,
                0.524468341472986,
                -0.37268011893223973,
                0.03724333044711936,
                1.241970805252581
            ]
        },
        {
            "positions": [
                0.6034849807499061,
                -1.288928545104616,
                0.6408534303107025,
                -0.316686267449108,
                0.11382381727822355,
                1.2800637146872087
            ]
        },
        {
            "positions": [
                0.5082069098084028,
                -1.2909553135140797,
                0.7572385191484194,
                -0.26069241596597625,
                0.19040430410932796,
                1.3181566241218365
            ]
        },
        {
            "positions": [
                0.412928838866899,
                -1.2929820819235434,
                0.8736236079861364,
                -0.20469856448284451,
                0.26698479094043237,
                1.3562495335564644
            ]
        },
        {
            "positions": [
                0.31765076792539526,
                -1.295008850333007,
                0.9900086968238528,
                -0.14870471299971277,
                0.34356527777153656,
                1.3943424429910918
            ]
        },
        {
            "positions": [
                0.22237269698389198,
                -1.2970356187424708,
                1.10639378566157,
                -0.09271086151658096,
                0.42014576460264086,
                1.4324353524257196
            ]
        },
        {
            "positions": [
                0.19322765190285432,
                -1.2819321165840352,
                1.1902568840751835,
                -0.14890913981681858,
                0.3875399082529508,
                1.591179837191129
            ]
        },
        {
            "positions": [
                0.16408260682181666,
                -1.2668286144255998,
                1.2741199824887968,
                -0.20510741811705624,
                0.35493405190326077,
                1.7499243219565384
            ]
        },
        {
            "positions": [
                0.134937561740779,
                -1.2517251122671644,
                1.35798308090241,
                -0.26130569641729384,
                0.32232819555357073,
                1.908668806721948
            ]
        },
        {
            "positions": [
                0.10579251665974135,
                -1.2366216101087288,
                1.4418461793160235,
                -0.3175039747175315,
                0.2897223392038807,
                2.067413291487357
            ]
        },
        {
            "positions": [
                0.07664747157870369,
                -1.2215181079502933,
                1.525709277729637,
                -0.37370225301776916,
                0.25711648285419064,
                2.2261577762527667
            ]
        },
        {
            "positions": [
                0.04750242649766602,
                -1.2064146057918579,
                1.6095723761432503,
                -0.42990053131800676,
                0.22451062650450057,
                2.3849022610181763
            ]
        },
        {
            "positions": [
                0.03696994637359377,
                -1.1923738344876682,
                1.6808198939841212,
                -0.485316456517391,
                0.19580861422429446,
                2.519032918020279
            ]
        },
        {
            "positions": [
                0.02643746624952152,
                -1.1783330631834787,
                1.752067411824992,
                -0.5407323817167753,
                0.16710660194408836,
                2.6531635750223823
            ]
        },
        {
            "positions": [
                0.015904986125449272,
                -1.164292291879289,
                1.8233149296658628,
                -0.5961483069161596,
                0.13840458966388225,
                2.787294232024485
            ]
        },
        {
            "positions": [
                0.06215183986869434,
                -1.1497253220171872,
                1.8813819538439551,
                -0.647167345220144,
                0.13622104548091707,
                2.891659421691238
            ]
        },
        {
            "positions": [
                0.1083986936119394,
                -1.1351583521550852,
                1.9394489780220476,
                -0.6981863835241283,
                0.13403750129795186,
                2.996024611357991
            ]
        },
        {
            "positions": [
                0.1225892100376281,
                -1.1310509784264817,
                1.957620774907479,
                -0.7135793447153049,
                0.1354875349032314,
                3.026879616630348
            ]
        }
    ]
}