{
    "goal": {
        "global_pose": {
            "orientation": {
                "w": 0.7047431468963623,
                "x": -0.7094548344612122,
                "y": 0.0024358443915843964,
                "z": -0.0022348060738295317
            },
            "position": {
                "x": 0.6094750761985779,
                "y": 0.3671506643295288,
                "z": 0.19426114857196808
            }
        },
        "name": "move_to_magneteinheit_A"
    },
    "id": "KPIECE_move_to_magneteinheit_A_61",
    "joint_names": [
        "shoulder_pan_joint",
        "shoulder_lift_joint",
        "elbow_joint",
        "wrist_1_joint",
        "wrist_2_joint",
        "wrist_3_joint"
    ],
    "metrics": {
        "cart_traj_len": 3.7454211856232233,
        "distance_elbow_joint": 3.885442086538795,
        "distance_shoulder_lift_joint": 0.6178705858414661,
        "distance_shoulder_pan_joint": 3.9276176120266326,
        "distance_wrist_1_joint": 2.5009331106564074,
        "distance_wrist_2_joint": 3.523750628834066,
        "distance_wrist_3_joint": 3.6595099630265913,
        "smoothness": 0.2882055836816719,
        "time": 0.116274557,
        "traj_len": 4.256186554525535,
        "weighted_distance": 5.608816956584303
    },
    "planner": "KPIECE",
    "start": {
        "state": {
            "elbow_joint": -1.9196185241190666,
            "shoulder_lift_joint": -1.2443396400964142,
            "shoulder_pan_joint": 2.6996025414629847,
            "wrist_1_joint": -1.5485510000780065,
            "wrist_2_joint": -1.5709468930060704,
            "wrist_3_joint": 0.4420197071253992
        }
    },
    "waypoints": [
        {
            "positions": [
                2.6996025414629847,
                -1.2443396400964142,
                -1.9196185241190666,
                -1.5485510000780065,
                -1.5709468930060704,
                0.4420197071253992
            ]
        },
        {
            "positions": [
                2.591222471690649,
                -1.252843521726631,
                -1.8348305885192988,
                -1.4935447735585106,
                -1.4837116744857246,
                0.39066856727277255
            ]
        },
        {
            "positions": [
                2.482842401918313,
                -1.261347403356848,
                -1.7500426529195308,
                -1.4385385470390144,
                -1.3964764559653788,
                0.33931742742014587
            ]
        },
        {
            "positions": [
                2.374462332145977,
                -1.2698512849870647,
                -1.6652547173197627,
                -1.3835323205195182,
                -1.3092412374450328,
                0.2879662875675192
            ]
        },
        {
            "positions": [
                2.266082262373641,
                -1.2783551666172817,
                -1.5804667817199949,
                -1.3285260940000223,
                -1.222006018924687,
                0.2366151477148926
            ]
        },
        {
            "positions": [
                2.157702192601305,
                -1.2868590482474984,
                -1.495678846120227,
                -1.2735198674805264,
                -1.1347708004043413,
                0.18526400786226593
            ]
        },
        {
            "positions": [
                2.0493221228289693,
                -1.2953629298777152,
                -1.410890910520459,
                -1.2185136409610302,
                -1.0475355818839955,
                0.13391286800963925
            ]
        },
        {
            "positions": [
                1.9409420530566335,
                -1.3038668115079322,
                -1.326102974920691,
                -1.163507414441534,
                -0.9603003633636497,
                0.08256172815701263
            ]
        },
        {
            "positions": [
                1.8325619832842976,
                -1.312370693138149,
                -1.2413150393209231,
                -1.1085011879220381,
                -0.8730651448433039,
                0.031210588304386
            ]
        },
        {
            "positions": [
                1.7241819135119618,
                -1.320874574768366,
                -1.1565271037211553,
                -1.0534949614025422,
                -0.7858299263229581,
                -0.020140551548240626
            ]
        },
        {
            "positions": [
                1.615801843739626,
                -1.3293784563985827,
                -1.0717391681213875,
                -0.998488734883046,
                -0.6985947078026122,
                -0.07149169140086731
            ]
        },
        {
            "positions": [
                1.50742177396729,
                -1.3378823380287994,
                -0.9869512325216194,
                -0.94348250836355,
                -0.6113594892822665,
                -0.12284283125349393
            ]
        },
        {
            "positions": [
                1.3990417041949539,
                -1.3463862196590164,
                -0.9021632969218514,
                -0.8884762818440539,
                -0.5241242707619205,
                -0.17419397110612067
            ]
        },
        {
            "positions": [
                1.290661634422618,
                -1.3548901012892332,
                -0.8173753613220835,
                -0.8334700553245579,
                -0.4368890522415747,
                -0.2255451109587473
            ]
        },
        {
            "positions": [
                1.1822815646502822,
                -1.3633939829194501,
                -0.7325874257223155,
                -0.7784638288050618,
                -0.34965383372122893,
                -0.2768962508113739
            ]
        },
        {
            "positions": [
                1.0739014948779464,
                -1.371897864549667,
                -0.6477994901225477,
                -0.7234576022855658,
                -0.26241861520088317,
                -0.32824739066400055
            ]
        },
        {
            "positions": [
                0.9655214251056106,
                -1.3804017461798836,
                -0.5630115545227798,
                -0.6684513757660697,
                -0.1751833966805374,
                -0.3795985305166272
            ]
        },
        {
            "positions": [
                0.8571413553332747,
                -1.3889056278101006,
                -0.4782236189230118,
                -0.6134451492465737,
                -0.08794817816019163,
                -0.4309496703692538
            ]
        },
        {
            "positions": [
                0.7487612855609389,
                -1.3974095094403174,
                -0.39343568332324397,
                -0.5584389227270776,
                -0.000712959639845856,
                -0.4823008102218804
            ]
        },
        {
            "positions": [
                0.6403812157886031,
                -1.4059133910705344,
                -0.3086477477234759,
                -0.5034326962075817,
                0.08652225888049991,
                -0.533651950074507
            ]
        },
        {
            "positions": [
                0.5320011460162672,
                -1.4144172727007511,
                -0.2238598121237081,
                -0.4484264696880855,
                0.1737574774008459,
                -0.5850030899271338
            ]
        },
        {
            "positions": [
                0.4236210762439314,
                -1.4229211543309679,
                -0.13907187652394026,
                -0.3934202431685896,
                0.2609926959211917,
                -0.6363542297797603
            ]
        },
        {
            "positions": [
                0.31524100647159514,
                -1.4314250359611849,
                -0.054283940924172214,
                -0.33841401664909343,
                0.34822791444153745,
                -0.687705369632387
            ]
        },
        {
            "positions": [
                0.2068609366992593,
                -1.4399289175914016,
                0.030503994675595836,
                -0.28340779012959727,
                0.43546313296188344,
                -0.7390565094850138
            ]
        },
        {
            "positions": [
                0.09848086692692304,
                -1.4484327992216186,
                0.11529193027536389,
                -0.22840156361010133,
                0.5226983514822294,
                -0.7904076493376405
            ]
        },
        {
            "positions": [
                -0.009899202845412791,
                -1.4569366808518354,
                0.2000798658751317,
                -0.17339533709060517,
                0.609933570002575,
                -0.841758789190267
            ]
        },
        {
            "positions": [
                -0.11827927261774862,
                -1.4654405624820521,
                0.28486780147489954,
                -0.11838911057110924,
                0.697168788522921,
                -0.8931099290428938
            ]
        },
        {
            "positions": [
                -0.22665934239008445,
                -1.473944444112269,
                0.36965573707466737,
                -0.06338288405161308,
                0.7844040070432665,
                -0.9444610688955203
            ]
        },
        {
            "positions": [
                -0.3350394121624203,
                -1.4824483257424859,
                0.45444367267443564,
                -0.008376657532117138,
                0.8716392255636125,
                -0.995812208748147
            ]
        },
        {
            "positions": [
                -0.4434194819347561,
                -1.4909522073727028,
                0.5392316082742035,
                0.04662956898737902,
                0.958874444083958,
                -1.0471633486007734
            ]
        },
        {
            "positions": [
                -0.5517995517070917,
                -1.4994560890029196,
                0.6240195438739713,
                0.10163579550687495,
                1.046109662604304,
                -1.0985144884534002
            ]
        },
        {
            "positions": [
                -0.5106014940864978,
                -1.4770268328055365,
                0.7058426444311088,
                0.05095825595133761,
                0.9899360227859936,
                -1.2299619589858317
            ]
        },
        {
            "positions": [
                -0.469403436465904,
                -1.4545975766081536,
                0.7876657449882464,
                0.00028071639580026786,
                0.9337623829676831,
                -1.3614094295182633
            ]
        },
        {
            "positions": [
                -0.4282053788453101,
                -1.4321683204107705,
                0.869488845545384,
                -0.05039682315973708,
                0.8775887431493726,
                -1.492856900050695
            ]
        },
        {
            "positions": [
                -0.38700732122471626,
                -1.4097390642133876,
                0.9513119461025215,
                -0.10107436271527441,
                0.8214151033310622,
                -1.6243043705831266
            ]
        },
        {
            "positions": [
                -0.3458092636041224,
                -1.3873098080160045,
                1.033135046659659,
                -0.15175190227081176,
                0.7652414635127518,
                -1.7557518411155582
            ]
        },
        {
            "positions": [
                -0.30461120598352853,
                -1.3648805518186213,
                1.1149581472167966,
                -0.2024294418263491,
                0.7090678236944412,
                -1.88719931164799
            ]
        },
        {
            "positions": [
                -0.26341314836293467,
                -1.3424512956212384,
                1.1967812477739341,
                -0.2531069813818864,
                0.6528941838761309,
                -2.0186467821804213
            ]
        },
        {
            "positions": [
                -0.2222150907423408,
                -1.3200220394238553,
                1.2786043483310716,
                -0.30378452093742375,
                0.5967205440578203,
                -2.150094252712853
            ]
        },
        {
            "positions": [
                -0.18101703312174694,
                -1.2975927832264722,
                1.360427448888209,
                -0.3544620604929611,
                0.5405469042395099,
                -2.281541723245285
            ]
        },
        {
            "positions": [
                -0.13981897550115308,
                -1.2751635270290893,
                1.4422505494453466,
                -0.40513960004849847,
                0.48437326442119943,
                -2.412989193777716
            ]
        },
        {
            "positions": [
                -0.09862091788055921,
                -1.2527342708317062,
                1.5240736500024843,
                -0.4558171396040358,
                0.42819962460288896,
                -2.544436664310148
            ]
        },
        {
            "positions": [
                -0.05742286025996535,
                -1.230305014634323,
                1.6058967505596218,
                -0.5064946791595731,
                0.3720259847845785,
                -2.6758841348425797
            ]
        },
        {
            "positions": [
                -0.016224802639371427,
                -1.2078757584369402,
                1.6877198511167593,
                -0.5571722187151105,
                0.315852344966268,
                -2.807331605375011
            ]
        },
        {
            "positions": [
                0.02497325498122238,
                -1.185446502239557,
                1.769542951673897,
                -0.6078497582706478,
                0.25967870514795754,
                -2.938779075907443
            ]
        },
        {
            "positions": [
                0.06617131260181619,
                -1.1630172460421742,
                1.8513660522310345,
                -0.6585272978261851,
                0.20350506532964707,
                -3.0702265464398746
            ]
        },
        {
            "positions": [
                0.10736937022241014,
                -1.140587989844791,
                1.933189152788172,
                -0.7092048373817225,
                0.14733142551133657,
                -3.201674016972306
            ]
        },
        {
            "positions": [
                0.12441596714946589,
                -1.1367019520679589,
                1.965823562419726,
                -0.7491105195646496,
                0.13941558938061463,
                -3.2174902559011924
            ]
        }
    ]
}