{
    "goal": {
        "global_pose": {
            "orientation": {
                "w": -0.4816463035849501,
                "x": 0.5182115481033762,
                "y": 0.4908360881923453,
                "z": -0.5084816262002911
            },
            "position": {
                "x": -0.8240239810943604,
                "y": 0.19912469901144506,
                "z": 0.16403168439865112
            }
        },
        "name": "move_to_storage_D"
    },
    "id": "KPIECE_move_to_storage_D_137",
    "joint_names": [
        "shoulder_pan_joint",
        "shoulder_lift_joint",
        "elbow_joint",
        "wrist_1_joint",
        "wrist_2_joint",
        "wrist_3_joint"
    ],
    "metrics": {
        "cart_traj_len": 3.956890008950691,
        "distance_elbow_joint": 4.386195556914888,
        "distance_shoulder_lift_joint": 1.2635953192865352,
        "distance_shoulder_pan_joint": 2.811401435642149,
        "distance_wrist_1_joint": 2.360108031061272,
        "distance_wrist_2_joint": 0.8671357501567788,
        "distance_wrist_3_joint": 3.56892991931427,
        "smoothness": 0.24747104139781645,
        "time": 0.242833042,
        "traj_len": 3.9060678453370343,
        "weighted_distance": 5.061864244744469
    },
    "planner": "KPIECE",
    "start": {
        "state": {
            "elbow_joint": -2.384821988534728,
            "shoulder_lift_joint": -2.2788054721415256,
            "shoulder_pan_joint": -0.1854694642142757,
            "wrist_1_joint": 1.4845938289331202,
            "wrist_2_joint": 0.17898776772866878,
            "wrist_3_joint": 0.037105688729662994
        }
    },
    "waypoints": [
        {
            "positions": [
                -0.1854694642142757,
                -2.2788054721415256,
                -2.384821988534728,
                1.4845938289331202,
                0.17898776772866878,
                0.037105688729662994
            ]
        },
        {
            "positions": [
                -0.001518120747863616,
                -2.250627204970635,
                -2.4136486528390395,
                1.4983243491644633,
                0.1807957850719141,
                0.11016731003678883
            ]
        },
        {
            "positions": [
                0.18243322271854848,
                -2.222448937799744,
                -2.4424753171433515,
                1.5120548693958065,
                0.18260380241515944,
                0.18322893134391466
            ]
        },
        {
            "positions": [
                0.3663845661849606,
                -2.1942706706288533,
                -2.471301981447663,
                1.5257853896271496,
                0.18441181975840476,
                0.2562905526510405
            ]
        },
        {
            "positions": [
                0.43474555616923294,
                -2.15731428095646,
                -2.3462761783987474,
                1.4389502591856767,
                0.19233489078839147,
                0.19162876775797366
            ]
        },
        {
            "positions": [
                0.5031065461535051,
                -2.120357891284066,
                -2.2212503753498316,
                1.352115128744204,
                0.2002579618183782,
                0.12696698286490685
            ]
        },
        {
            "positions": [
                0.5714675361377775,
                -2.0834015016116725,
                -2.096224572300916,
                1.265279998302731,
                0.20818103284836492,
                0.062305197971840004
            ]
        },
        {
            "positions": [
                0.6398285261220498,
                -2.0464451119392786,
                -1.9711987692519999,
                1.178444867861258,
                0.21610410387835163,
                -0.002356586921226811
            ]
        },
        {
            "positions": [
                0.7081895161063221,
                -2.009488722266885,
                -1.846172966203084,
                1.0916097374197853,
                0.22402717490833834,
                -0.06701837181429365
            ]
        },
        {
            "positions": [
                0.7765505060905944,
                -1.9725323325944915,
                -1.7211471631541682,
                1.0047746069783123,
                0.23195024593832508,
                -0.1316801567073605
            ]
        },
        {
            "positions": [
                0.8449114960748665,
                -1.9355759429220978,
                -1.5961213601052524,
                0.9179394765368395,
                0.2398733169683118,
                -0.19634194160042723
            ]
        },
        {
            "positions": [
                0.9132724860591389,
                -1.898619553249704,
                -1.4710955570563367,
                0.8311043460953665,
                0.2477963879982985,
                -0.2610037264934941
            ]
        },
        {
            "positions": [
                0.9816334760434111,
                -1.8616631635773104,
                -1.346069754007421,
                0.7442692156538937,
                0.25571945902828525,
                -0.32566551138656086
            ]
        },
        {
            "positions": [
                1.0499944660276834,
                -1.824706773904917,
                -1.221043950958505,
                0.6574340852124207,
                0.263642530058272,
                -0.3903272962796278
            ]
        },
        {
            "positions": [
                1.1183554560119557,
                -1.7877503842325233,
                -1.0960181479095894,
                0.5705989547709479,
                0.27156560108825867,
                -0.45498908117269454
            ]
        },
        {
            "positions": [
                1.186716445996228,
                -1.7507939945601296,
                -0.9709923448606734,
                0.48376382432947485,
                0.2794886721182454,
                -0.5196508660657615
            ]
        },
        {
            "positions": [
                1.2550774359805001,
                -1.713837604887736,
                -0.8459665418117577,
                0.3969286938880021,
                0.28741174314823215,
                -0.5843126509588282
            ]
        },
        {
            "positions": [
                1.3234384259647725,
                -1.6768812152153423,
                -0.7209407387628419,
                0.3100935634465294,
                0.29533481417821883,
                -0.648974435851895
            ]
        },
        {
            "positions": [
                1.3917994159490448,
                -1.6399248255429488,
                -0.5959149357139262,
                0.22325843300505643,
                0.3032578852082055,
                -0.7136362207449618
            ]
        },
        {
            "positions": [
                1.4601604059333173,
                -1.602968435870555,
                -0.4708891326650102,
                0.13642330256358348,
                0.3111809562381923,
                -0.7782980056380288
            ]
        },
        {
            "positions": [
                1.5285213959175894,
                -1.5660120461981615,
                -0.34586332961609445,
                0.04958817212211053,
                0.319104027268179,
                -0.8429597905310956
            ]
        },
        {
            "positions": [
                1.5968823859018615,
                -1.5290556565257678,
                -0.2208375265671787,
                -0.0372469583193622,
                0.3270270982981657,
                -0.9076215754241622
            ]
        },
        {
            "positions": [
                1.665243375886134,
                -1.4920992668533741,
                -0.09581172351826295,
                -0.12408208876083515,
                0.33495016932815247,
                -0.9722833603172291
            ]
        },
        {
            "positions": [
                1.7336043658704061,
                -1.4551428771809805,
                0.029214079530653247,
                -0.2109172192023081,
                0.34287324035813915,
                -1.036945145210296
            ]
        },
        {
            "positions": [
                1.8019653558546787,
                -1.4181864875085868,
                0.154239882579569,
                -0.29775234964378106,
                0.3507963113881259,
                -1.101606930103363
            ]
        },
        {
            "positions": [
                1.8703263458389507,
                -1.3812300978361933,
                0.2792656856284843,
                -0.3845874800852538,
                0.35871938241811263,
                -1.1662687149964297
            ]
        },
        {
            "positions": [
                1.9386873358232228,
                -1.3442737081637994,
                0.40429148867740006,
                -0.47142261052672674,
                0.3666424534480993,
                -1.2309304998894963
            ]
        },
        {
            "positions": [
                2.0070483258074954,
                -1.307317318491406,
                0.5293172917263163,
                -0.5582577409681999,
                0.37456552447808605,
                -1.2955922847825634
            ]
        },
        {
            "positions": [
                2.0754093157917675,
                -1.270360928819012,
                0.654343094775232,
                -0.6450928714096724,
                0.3824885955080728,
                -1.36025406967563
            ]
        },
        {
            "positions": [
                2.14377030577604,
                -1.2334045391466186,
                0.7793688978241478,
                -0.7319280018511453,
                0.3904116665380595,
                -1.424915854568697
            ]
        },
        {
            "positions": [
                2.1876031844716612,
                -1.2135686858473798,
                0.874736596435979,
                -0.7374919181137769,
                0.45002183484236746,
                -1.576601186220802
            ]
        },
        {
            "positions": [
                2.2314360631672825,
                -1.1937328325481407,
                0.9701042950478103,
                -0.7430558343764087,
                0.5096320031466754,
                -1.728286517872907
            ]
        },
        {
            "positions": [
                2.2752689418629037,
                -1.1738969792489018,
                1.0654719936596415,
                -0.7486197506390403,
                0.5692421714509834,
                -1.879971849525012
            ]
        },
        {
            "positions": [
                2.319101820558525,
                -1.154061125949663,
                1.1608396922714728,
                -0.7541836669016719,
                0.6288523397552915,
                -2.031657181177117
            ]
        },
        {
            "positions": [
                2.3629346992541462,
                -1.134225272650424,
                1.2562073908833038,
                -0.7597475831643036,
                0.6884625080595995,
                -2.1833425128292223
            ]
        },
        {
            "positions": [
                2.4067675779497675,
                -1.114389419351185,
                1.3515750894951353,
                -0.7653114994269353,
                0.7480726763639075,
                -2.335027844481327
            ]
        },
        {
            "positions": [
                2.4506004566453887,
                -1.094553566051946,
                1.4469427881069663,
                -0.770875415689567,
                0.8076828446682155,
                -2.4867131761334322
            ]
        },
        {
            "positions": [
                2.49443333534101,
                -1.0747177127527072,
                1.5423104867187978,
                -0.7764393319521986,
                0.8672930129725236,
                -2.638398507785537
            ]
        },
        {
            "positions": [
                2.538266214036631,
                -1.0548818594534684,
                1.6376781853306288,
                -0.7820032482148302,
                0.9269031812768316,
                -2.790083839437642
            ]
        },
        {
            "positions": [
                2.5820990927322525,
                -1.0350460061542293,
                1.73304588394246,
                -0.787567164477462,
                0.9865133495811396,
                -2.941769171089747
            ]
        },
        {
            "positions": [
                2.6259319714278737,
                -1.0152101528549904,
                1.8284135825542913,
                -0.7931310807400936,
                1.0461235178854476,
                -3.093454502741852
            ]
        }
    ]
}