{
    "goal": {
        "global_pose": {
            "orientation": {
                "w": 0.5084816262002911,
                "x": -0.4908360881923452,
                "y": 0.5182115481033761,
                "z": -0.48164630358495003
            },
            "position": {
                "x": 0.5540239810943604,
                "y": -0.46912469901144505,
                "z": 0.16403168439865112
            }
        },
        "name": "move_to_storage_B"
    },
    "id": "KPIECE_move_to_storage_B_98",
    "joint_names": [
        "shoulder_pan_joint",
        "shoulder_lift_joint",
        "elbow_joint",
        "wrist_1_joint",
        "wrist_2_joint",
        "wrist_3_joint"
    ],
    "metrics": {
        "cart_traj_len": 0.7098725586162039,
        "distance_elbow_joint": 0.35295773498867966,
        "distance_shoulder_lift_joint": 0.45940626171265997,
        "distance_shoulder_pan_joint": 0.46746005471628405,
        "distance_wrist_1_joint": 3.006755763919662,
        "distance_wrist_2_joint": 2.7069907516382647,
        "distance_wrist_3_joint": 3.1389486047848743,
        "smoothness": 0.06294485295861718,
        "time": 0.14968853399999998,
        "traj_len": 3.183161819914348,
        "weighted_distance": 4.703632946658156
    },
    "planner": "KPIECE",
    "start": {
        "state": {
            "elbow_joint": 1.664937868594044,
            "shoulder_lift_joint": -0.661644460510453,
            "shoulder_pan_joint": -0.9139846352900073,
            "wrist_1_joint": 2.146753192139373,
            "wrist_2_joint": -2.2341966793290973,
            "wrist_3_joint": 0.005466555786416001
        }
    },
    "waypoints": [
        {
            "positions": [
                -0.9139846352900073,
                -0.661644460510453,
                1.664937868594044,
                2.146753192139373,
                -2.2341966793290973,
                0.005466555786416001
            ]
        },
        {
            "positions": [
                -0.8422521094022453,
                -0.6949659851863348,
                1.6859801881885872,
                2.0839918894386704,
                -2.179727895127976,
                0.008906687744172512
            ]
        },
        {
            "positions": [
                -0.7705195835144834,
                -0.7282875098622166,
                1.7070225077831307,
                2.021230586737967,
                -2.1252591109268546,
                0.012346819701929024
            ]
        },
        {
            "positions": [
                -0.7834793836321138,
                -0.7439980383566525,
                1.7194574316151143,
                1.905981260397237,
                -2.0213369835974135,
                -0.11293591393284541
            ]
        },
        {
            "positions": [
                -0.7964391837497442,
                -0.7597085668510883,
                1.7318923554470982,
                1.7907319340565067,
                -1.917414856267973,
                -0.23821864756761985
            ]
        },
        {
            "positions": [
                -0.8093989838673745,
                -0.7754190953455241,
                1.7443272792790818,
                1.6754826077157765,
                -1.8134927289385319,
                -0.3635013812023943
            ]
        },
        {
            "positions": [
                -0.822358783985005,
                -0.79112962383996,
                1.7567622031110655,
                1.5602332813750461,
                -1.709570601609091,
                -0.4887841148371687
            ]
        },
        {
            "positions": [
                -0.8353185841026354,
                -0.8068401523343959,
                1.7691971269430493,
                1.4449839550343158,
                -1.6056484742796502,
                -0.6140668484719431
            ]
        },
        {
            "positions": [
                -0.8482783842202658,
                -0.8225506808288316,
                1.781632050775033,
                1.3297346286935858,
                -1.5017263469502093,
                -0.7393495821067175
            ]
        },
        {
            "positions": [
                -0.8612381843378962,
                -0.8382612093232675,
                1.7940669746070168,
                1.2144853023528555,
                -1.3978042196207685,
                -0.8646323157414921
            ]
        },
        {
            "positions": [
                -0.8741979844555265,
                -0.8539717378177034,
                1.8065018984390004,
                1.099235976012125,
                -1.2938820922913274,
                -0.9899150493762665
            ]
        },
        {
            "positions": [
                -0.887157784573157,
                -0.8696822663121393,
                1.818936822270984,
                0.9839866496713949,
                -1.1899599649618868,
                -1.1151977830110409
            ]
        },
        {
            "positions": [
                -0.9001175846907874,
                -0.8853927948065752,
                1.831371746102968,
                0.8687373233306646,
                -1.0860378376324458,
                -1.2404805166458155
            ]
        },
        {
            "positions": [
                -0.9130773848084178,
                -0.901103323301011,
                1.8438066699349516,
                0.7534879969899344,
                -0.9821157103030049,
                -1.3657632502805899
            ]
        },
        {
            "positions": [
                -0.9260371849260483,
                -0.9168138517954468,
                1.8562415937669352,
                0.6382386706492043,
                -0.8781935829735641,
                -1.4910459839153642
            ]
        },
        {
            "positions": [
                -0.9389969850436786,
                -0.9325243802898827,
                1.868676517598919,
                0.5229893443084739,
                -0.774271455644123,
                -1.6163287175501388
            ]
        },
        {
            "positions": [
                -0.951956785161309,
                -0.9482349087843186,
                1.8811114414309027,
                0.4077400179677435,
                -0.6703493283146822,
                -1.7416114511849135
            ]
        },
        {
            "positions": [
                -0.9649165852789394,
                -0.9639454372787544,
                1.8935463652628863,
                0.2924906916270136,
                -0.5664272009852414,
                -1.8668941848196876
            ]
        },
        {
            "positions": [
                -0.9778763853965698,
                -0.9796559657731903,
                1.9059812890948702,
                0.1772413652862832,
                -0.4625050736558005,
                -1.992176918454462
            ]
        },
        {
            "positions": [
                -0.9908361855142003,
                -0.9953664942676261,
                1.9184162129268538,
                0.06199203894555283,
                -0.35858294632635945,
                -2.1174596520892366
            ]
        },
        {
            "positions": [
                -1.0037959856318306,
                -1.011077022762062,
                1.9308511367588377,
                -0.05325728739517732,
                -0.25466081899691884,
                -2.2427423857240107
            ]
        },
        {
            "positions": [
                -1.0167557857494611,
                -1.026787551256498,
                1.9432860605908213,
                -0.1685066137359077,
                -0.15073869166747778,
                -2.3680251193587853
            ]
        },
        {
            "positions": [
                -1.0297155858670914,
                -1.0424980797509338,
                1.955720984422805,
                -0.28375594007663807,
                -0.04681656433803694,
                -2.49330785299356
            ]
        },
        {
            "positions": [
                -1.0426753859847218,
                -1.0582086082453697,
                1.9681559082547886,
                -0.399005266417368,
                0.05710556299140368,
                -2.618590586628334
            ]
        },
        {
            "positions": [
                -1.0556351861023523,
                -1.0739191367398053,
                1.9805908320867724,
                -0.5142545927580984,
                0.16102769032084474,
                -2.7438733202631087
            ]
        },
        {
            "positions": [
                -1.0685949862199826,
                -1.0896296652342412,
                1.993025755918756,
                -0.6295039190988287,
                0.2649498176502858,
                -2.8691560538978833
            ]
        },
        {
            "positions": [
                -1.081554786337613,
                -1.105340193728677,
                2.00546067975074,
                -0.7447532454395587,
                0.3688719449797264,
                -2.9944387875326575
            ]
        },
        {
            "positions": [
                -1.0945145864552435,
                -1.121050722223113,
                2.0178956035827236,
                -0.8600025717802888,
                0.47279407230916737,
                -3.119721521167432
            ]
        }
    ]
}