{
    "goal": {
        "global_pose": {
            "orientation": {
                "w": -0.00223480608172531,
                "x": 0.0024358444001904467,
                "y": 0.7094548369677653,
                "z": -0.704743149386269
            },
            "position": {
                "x": -0.37947507619857795,
                "y": -0.6371506643295288,
                "z": 0.19426114857196808
            }
        },
        "name": "move_to_magneteinheit_C"
    },
    "id": "KPIECE_move_to_magneteinheit_C_143",
    "joint_names": [
        "shoulder_pan_joint",
        "shoulder_lift_joint",
        "elbow_joint",
        "wrist_1_joint",
        "wrist_2_joint",
        "wrist_3_joint"
    ],
    "metrics": {
        "cart_traj_len": 2.339866996445508,
        "distance_elbow_joint": 0.6748224730196064,
        "distance_shoulder_lift_joint": 1.0085170572574096,
        "distance_shoulder_pan_joint": 3.075337929197793,
        "distance_wrist_1_joint": 0.7564151364039173,
        "distance_wrist_2_joint": 1.590685441906495,
        "distance_wrist_3_joint": 0.9730583550718084,
        "smoothness": 1.1563493748959899,
        "time": 0.036349902,
        "traj_len": 2.8423293955586906,
        "weighted_distance": 3.5173930234352633
    },
    "planner": "KPIECE",
    "start": {
        "state": {
            "elbow_joint": 1.9565354010623817,
            "shoulder_lift_joint": -1.4165861575791021,
            "shoulder_pan_joint": -1.6717766225146293,
            "wrist_1_joint": -0.5286633292919765,
            "wrist_2_joint": 1.472756589071564,
            "wrist_3_joint": -3.1238370188695823
        }
    },
    "waypoints": [
        {
            "positions": [
                -1.6717766225146293,
                -1.4165861575791021,
                1.9565354010623817,
                -0.5286633292919765,
                1.472756589071564,
                -3.1238370188695823
            ]
        },
        {
            "positions": [
                -1.568335451190998,
                -1.4509817058240972,
                1.9899342518680283,
                -0.5778838621601732,
                1.3646561266435497,
                -3.080567287468278
            ]
        },
        {
            "positions": [
                -1.4648942798673665,
                -1.4853772540690924,
                2.023333102673675,
                -0.6271043950283699,
                1.2565556642155358,
                -3.037297556066973
            ]
        },
        {
            "positions": [
                -1.3614531085437354,
                -1.5197728023140877,
                2.056731953479322,
                -0.6763249278965666,
                1.1484552017875216,
                -2.9940278246656686
            ]
        },
        {
            "positions": [
                -1.258011937220104,
                -1.5541683505590829,
                2.0901308042849687,
                -0.7255454607647635,
                1.0403547393595076,
                -2.9507580932643642
            ]
        },
        {
            "positions": [
                -1.1545707658964726,
                -1.588563898804078,
                2.1235296550906155,
                -0.7747659936329602,
                0.9322542769314935,
                -2.9074883618630594
            ]
        },
        {
            "positions": [
                -1.0511295945728412,
                -1.6229594470490731,
                2.156928505896262,
                -0.8239865265011569,
                0.8241538145034795,
                -2.864218630461755
            ]
        },
        {
            "positions": [
                -0.9476884232492099,
                -1.6573549952940683,
                2.190327356701909,
                -0.8732070593693536,
                0.7160533520754653,
                -2.8209488990604505
            ]
        },
        {
            "positions": [
                -0.8442472519255785,
                -1.6917505435390634,
                2.2237262075075557,
                -0.9224275922375504,
                0.6079528896474512,
                -2.7776791676591457
            ]
        },
        {
            "positions": [
                -0.7408060806019471,
                -1.7261460917840588,
                2.2571250583132025,
                -0.9716481251057472,
                0.4998524272194371,
                -2.7344094362578413
            ]
        },
        {
            "positions": [
                -0.6373649092783158,
                -1.760541640029054,
                2.290523909118849,
                -1.0208686579739439,
                0.39175196479142316,
                -2.6911397048565364
            ]
        },
        {
            "positions": [
                -0.5339237379546843,
                -1.794937188274049,
                2.323922759924496,
                -1.0700891908421406,
                0.28365150236340886,
                -2.647869973455232
            ]
        },
        {
            "positions": [
                -0.7100587420126705,
                -1.7376493676774616,
                2.2959741131829055,
                -1.0505447113099813,
                0.3201588073814398,
                -2.693060092515001
            ]
        },
        {
            "positions": [
                -0.8861937460706567,
                -1.680361547080874,
                2.2680254664413155,
                -1.0310002317778217,
                0.35666611239947077,
                -2.73825021157477
            ]
        },
        {
            "positions": [
                -1.0623287501286427,
                -1.6230737264842865,
                2.240076819699725,
                -1.0114557522456624,
                0.39317341741750167,
                -2.7834403306345386
            ]
        },
        {
            "positions": [
                -1.238463754186629,
                -1.565785905887699,
                2.212128172958135,
                -0.9919112727135031,
                0.4296807224355327,
                -2.8286304496943075
            ]
        },
        {
            "positions": [
                -1.4145987582446153,
                -1.5084980852911114,
                2.184179526216545,
                -0.9723667931813437,
                0.4661880274535636,
                -2.8738205687540765
            ]
        },
        {
            "positions": [
                -1.5907337623026012,
                -1.451210264694524,
                2.1562308794749545,
                -0.9528223136491843,
                0.5026953324715946,
                -2.9190106878138455
            ]
        },
        {
            "positions": [
                -1.7668687663605875,
                -1.3939224440979365,
                2.1282822327333646,
                -0.9332778341170249,
                0.5392026374896255,
                -2.9642008068736145
            ]
        },
        {
            "positions": [
                -1.9430037704185739,
                -1.3366346235013489,
                2.100333585991774,
                -0.9137333545848656,
                0.5757099425076564,
                -3.0093909259333835
            ]
        },
        {
            "positions": [
                -2.11913877447656,
                -1.2793468029047612,
                2.072384939250184,
                -0.8941888750527062,
                0.6122172475256875,
                -3.054581044993152
            ]
        },
        {
            "positions": [
                -2.295273778534546,
                -1.222058982308174,
                2.044436292508594,
                -0.8746443955205467,
                0.6487245525437184,
                -3.099771164052921
            ]
        },
        {
            "positions": [
                -2.4714087825925324,
                -1.1647711617115863,
                2.0164876457670036,
                -0.8550999159883874,
                0.6852318575617493,
                -3.14496128311269
            ]
        }
    ]
}