{
    "goal": {
        "global_pose": {
            "orientation": {
                "w": -0.4816463035849501,
                "x": 0.5182115481033762,
                "y": 0.4908360881923453,
                "z": -0.5084816262002911
            },
            "position": {
                "x": -0.8240239810943604,
                "y": -0.300875300988555,
                "z": 0.16403168439865112
            }
        },
        "name": "move_to_storage_C"
    },
    "id": "KPIECE_move_to_storage_C_113",
    "joint_names": [
        "shoulder_pan_joint",
        "shoulder_lift_joint",
        "elbow_joint",
        "wrist_1_joint",
        "wrist_2_joint",
        "wrist_3_joint"
    ],
    "metrics": {
        "cart_traj_len": 0.5762847948895485,
        "distance_elbow_joint": 0.26043973009507493,
        "distance_shoulder_lift_joint": 0.1889679101578351,
        "distance_shoulder_pan_joint": 0.4924595734809496,
        "distance_wrist_1_joint": 0.08544966853329827,
        "distance_wrist_2_joint": 1.0809352126516374,
        "distance_wrist_3_joint": 0.07416304513402583,
        "smoothness": 2.5376526478085547e-16,
        "time": 0.011180713,
        "traj_len": 1.4772999492495833,
        "weighted_distance": 1.8700604566445997
    },
    "planner": "KPIECE",
    "start": {
        "state": {
            "elbow_joint": 2.010868314990456,
            "shoulder_lift_joint": -1.1634956873337592,
            "shoulder_pan_joint": -2.4736205022346125,
            "wrist_1_joint": -0.8367026794202681,
            "wrist_2_joint": 0.6746043897044499,
            "wrist_3_joint": -3.1496632123970403
        }
    },
    "waypoints": [
        {
            "positions": [
                -2.4736205022346125,
                -1.1634956873337592,
                2.010868314990456,
                -0.8367026794202681,
                0.6746043897044499,
                -3.1496632123970403
            ]
        },
        {
            "positions": [
                -2.555697097814771,
                -1.1320010356407866,
                1.9674616933079434,
                -0.8224610679980517,
                0.8547602584797228,
                -3.1373027048747026
            ]
        },
        {
            "positions": [
                -2.637773693394929,
                -1.1005063839478142,
                1.9240550716254308,
                -0.8082194565758354,
                1.0349161272549958,
                -3.124942197352365
            ]
        },
        {
            "positions": [
                -2.7198502889750875,
                -1.0690117322548416,
                1.8806484499429184,
                -0.793977845153619,
                1.2150719960302685,
                -3.1125816898300274
            ]
        },
        {
            "positions": [
                -2.8019268845552454,
                -1.0375170805618692,
                1.837241828260406,
                -0.7797362337314026,
                1.3952278648055416,
                -3.1002211823076897
            ]
        },
        {
            "positions": [
                -2.8840034801354038,
                -1.0060224288688966,
                1.7938352065778933,
                -0.7654946223091862,
                1.5753837335808143,
                -3.087860674785352
            ]
        },
        {
            "positions": [
                -2.966080075715562,
                -0.9745277771759241,
                1.750428584895381,
                -0.7512530108869698,
                1.7555396023560872,
                -3.0755001672630145
            ]
        }
    ]
}