{
    "goal": {
        "global_pose": {
            "orientation": {
                "w": 0.5084816262002911,
                "x": -0.4908360881923452,
                "y": 0.5182115481033761,
                "z": -0.48164630358495003
            },
            "position": {
                "x": 0.5540239810943604,
                "y": -0.46912469901144505,
                "z": 0.16403168439865112
            }
        },
        "name": "move_to_storage_B"
    },
    "id": "KPIECE_move_to_storage_B_58",
    "joint_names": [
        "shoulder_pan_joint",
        "shoulder_lift_joint",
        "elbow_joint",
        "wrist_1_joint",
        "wrist_2_joint",
        "wrist_3_joint"
    ],
    "metrics": {
        "cart_traj_len": 1.486015474873974,
        "distance_elbow_joint": 1.7562596597323585,
        "distance_shoulder_lift_joint": 0.459698079640938,
        "distance_shoulder_pan_joint": 1.3726550483659867,
        "distance_wrist_1_joint": 3.028544805117049,
        "distance_wrist_2_joint": 2.7002609059720344,
        "distance_wrist_3_joint": 3.106397904693369,
        "smoothness": 0.19943377820719518,
        "time": 0.152600245,
        "traj_len": 3.5247434521567294,
        "weighted_distance": 4.936133904585406
    },
    "planner": "KPIECE",
    "start": {
        "state": {
            "elbow_joint": 1.664937868594044,
            "shoulder_lift_joint": -0.661644460510453,
            "shoulder_pan_joint": -0.9139846352900073,
            "wrist_1_joint": 2.146753192139373,
            "wrist_2_joint": -2.2341966793290973,
            "wrist_3_joint": 0.005466555786416001
        }
    },
    "waypoints": [
        {
            "positions": [
                -0.9139846352900073,
                -0.661644460510453,
                1.664937868594044,
                2.146753192139373,
                -2.2341966793290973,
                0.005466555786416001
            ]
        },
        {
            "positions": [
                -0.8396090222474181,
                -0.6716911437602935,
                1.5775035726233766,
                2.067981321128323,
                -2.1229754381409314,
                -0.01056540741868954
            ]
        },
        {
            "positions": [
                -0.7652334092048289,
                -0.6817378270101339,
                1.4900692766527093,
                1.9892094501172728,
                -2.0117541969527655,
                -0.02659737062379508
            ]
        },
        {
            "positions": [
                -0.6908577961622396,
                -0.6917845102599742,
                1.4026349806820417,
                1.9104375791062225,
                -1.9005329557645996,
                -0.04262933382890062
            ]
        },
        {
            "positions": [
                -0.6164821831196504,
                -0.7018311935098147,
                1.3152006847113744,
                1.8316657080951724,
                -1.7893117145764337,
                -0.05866129703400616
            ]
        },
        {
            "positions": [
                -0.5421065700770612,
                -0.7118778767596552,
                1.227766388740707,
                1.7528938370841223,
                -1.6780904733882678,
                -0.0746932602391117
            ]
        },
        {
            "positions": [
                -0.467730957034472,
                -0.7219245600094956,
                1.1403320927700396,
                1.674121966073072,
                -1.5668692322001019,
                -0.09072522344421724
            ]
        },
        {
            "positions": [
                -0.39335534399188277,
                -0.7319712432593359,
                1.0528977967993722,
                1.5953500950620216,
                -1.455647991011936,
                -0.10675718664932278
            ]
        },
        {
            "positions": [
                -0.31897973094929355,
                -0.7420179265091764,
                0.9654635008287049,
                1.5165782240509715,
                -1.34442674982377,
                -0.12278914985442832
            ]
        },
        {
            "positions": [
                -0.3513818202836799,
                -0.7578231187442687,
                1.0094962213273306,
                1.4166461475081111,
                -1.268989625804324,
                -0.2468784081482835
            ]
        },
        {
            "positions": [
                -0.3837839096180663,
                -0.7736283109793609,
                1.0535289418259566,
                1.316714070965251,
                -1.1935525017848778,
                -0.37096766644213863
            ]
        },
        {
            "positions": [
                -0.4161859989524526,
                -0.7894335032144533,
                1.0975616623245823,
                1.2167819944223905,
                -1.1181153777654318,
                -0.49505692473599383
            ]
        },
        {
            "positions": [
                -0.448588088286839,
                -0.8052386954495455,
                1.1415943828232082,
                1.1168499178795304,
                -1.0426782537459856,
                -0.619146183029849
            ]
        },
        {
            "positions": [
                -0.48099017762122537,
                -0.8210438876846378,
                1.185627103321834,
                1.01691784133667,
                -0.9672411297265395,
                -0.7432354413237042
            ]
        },
        {
            "positions": [
                -0.5133922669556117,
                -0.8368490799197301,
                1.2296598238204597,
                0.9169857647938096,
                -0.8918040057070934,
                -0.8673246996175594
            ]
        },
        {
            "positions": [
                -0.5457943562899981,
                -0.8526542721548224,
                1.2736925443190856,
                0.8170536882509492,
                -0.8163668816876473,
                -0.9914139579114146
            ]
        },
        {
            "positions": [
                -0.5781964456243844,
                -0.8684594643899146,
                1.3177252648177114,
                0.717121611708089,
                -0.7409297576682012,
                -1.1155032162052696
            ]
        },
        {
            "positions": [
                -0.6105985349587708,
                -0.8842646566250069,
                1.3617579853163373,
                0.6171895351652286,
                -0.665492633648755,
                -1.239592474499125
            ]
        },
        {
            "positions": [
                -0.6430006242931572,
                -0.9000698488600991,
                1.405790705814963,
                0.5172574586223682,
                -0.5900555096293089,
                -1.36368173279298
            ]
        },
        {
            "positions": [
                -0.6754027136275436,
                -0.9158750410951915,
                1.4498234263135887,
                0.417325382079508,
                -0.5146183856098628,
                -1.487770991086835
            ]
        },
        {
            "positions": [
                -0.7078048029619299,
                -0.9316802333302837,
                1.4938561468122147,
                0.3173933055366476,
                -0.4391812615904167,
                -1.6118602493806904
            ]
        },
        {
            "positions": [
                -0.7402068922963162,
                -0.947485425565376,
                1.5378888673108404,
                0.2174612289937874,
                -0.3637441375709707,
                -1.7359495076745455
            ]
        },
        {
            "positions": [
                -0.7726089816307027,
                -0.9632906178004683,
                1.5819215878094663,
                0.11752915245092677,
                -0.28830701355152444,
                -1.8600387659684008
            ]
        },
        {
            "positions": [
                -0.805011070965089,
                -0.9790958100355606,
                1.625954308308092,
                0.017597075908066584,
                -0.21286988953207842,
                -1.9841280242622559
            ]
        },
        {
            "positions": [
                -0.8374131602994753,
                -0.9949010022706528,
                1.6699870288067178,
                -0.0823350006347936,
                -0.1374327655126324,
                -2.108217282556111
            ]
        },
        {
            "positions": [
                -0.8698152496338617,
                -1.0107061945057452,
                1.714019749305344,
                -0.18226707717765422,
                -0.06199564149318615,
                -2.2323065408499665
            ]
        },
        {
            "positions": [
                -0.9022173389682481,
                -1.0265113867408373,
                1.7580524698039697,
                -0.2821991537205144,
                0.013441482526260096,
                -2.356395799143822
            ]
        },
        {
            "positions": [
                -0.9346194283026343,
                -1.0423165789759297,
                1.8020851903025954,
                -0.3821312302633746,
                0.08887860654570612,
                -2.4804850574376767
            ]
        },
        {
            "positions": [
                -0.9670215176370208,
                -1.058121771211022,
                1.8461179108012211,
                -0.4820633068062352,
                0.16431573056515236,
                -2.604574315731532
            ]
        },
        {
            "positions": [
                -0.9994236069714071,
                -1.0739269634461142,
                1.890150631299847,
                -0.5819953833490956,
                0.23975285458459838,
                -2.7286635740253873
            ]
        },
        {
            "positions": [
                -1.0318256963057935,
                -1.0897321556812065,
                1.9341833517984728,
                -0.6819274598919556,
                0.3151899786040444,
                -2.852752832319242
            ]
        },
        {
            "positions": [
                -1.0642277856401798,
                -1.1055373479162989,
                1.9782160722970987,
                -0.781859536434816,
                0.39062710262349065,
                -2.976842090613098
            ]
        },
        {
            "positions": [
                -1.0966298749745662,
                -1.121342540151391,
                2.0222487927957244,
                -0.8817916129776765,
                0.4660642266429367,
                -3.1009313489069528
            ]
        }
    ]
}