{
    "goal": {
        "global_pose": {
            "orientation": {
                "w": 0.005598929693374612,
                "x": 0.007748599140229565,
                "y": 0.7110244013736278,
                "z": -0.7031023480610252
            },
            "position": {
                "x": 0.1141497679147869,
                "y": -0.7141253447532654,
                "z": 0.3711530566215515
            }
        },
        "name": "move_to_auspresseinheit_B"
    },
    "id": "KPIECE_move_to_auspresseinheit_B_72",
    "joint_names": [
        "shoulder_pan_joint",
        "shoulder_lift_joint",
        "elbow_joint",
        "wrist_1_joint",
        "wrist_2_joint",
        "wrist_3_joint"
    ],
    "metrics": {
        "cart_traj_len": 0.5641189431395541,
        "distance_elbow_joint": 0.060613522868874226,
        "distance_shoulder_lift_joint": 0.29591500759313205,
        "distance_shoulder_pan_joint": 0.57834516756968,
        "distance_wrist_1_joint": 0.3241704080512805,
        "distance_wrist_2_joint": 0.9851842805792526,
        "distance_wrist_3_joint": 0.00977620295036763,
        "smoothness": 5.075305295617109e-16,
        "time": 0.21402755,
        "traj_len": 1.5013342697789147,
        "weighted_distance": 1.8928580729003048
    },
    "planner": "KPIECE",
    "start": {
        "state": {
            "elbow_joint": 2.0193083361928714,
            "shoulder_lift_joint": -1.1220246554650708,
            "shoulder_pan_joint": -1.0952077554168747,
            "wrist_1_joint": -0.8559753972642168,
            "wrist_2_joint": 0.4759566250798843,
            "wrist_3_joint": -3.1240929996934557
        }
    },
    "waypoints": [
        {
            "positions": [
                -1.0952077554168747,
                -1.1220246554650708,
                2.0193083361928714,
                -0.8559753972642168,
                0.4759566250798843,
                -3.1240929996934557
            ]
        },
        {
            "positions": [
                -1.191598616678488,
                -1.1713438233972595,
                2.009206082381392,
                -0.8019469959223366,
                0.6401540051764264,
                -3.122463632535061
            ]
        },
        {
            "positions": [
                -1.2879894779401013,
                -1.2206629913294482,
                1.9991038285699134,
                -0.7479185945804566,
                0.8043513852729685,
                -3.1208342653766663
            ]
        },
        {
            "positions": [
                -1.3843803392017147,
                -1.269982159261637,
                1.9890015747584342,
                -0.6938901932385766,
                0.9685487653695106,
                -3.119204898218272
            ]
        },
        {
            "positions": [
                -1.480771200463328,
                -1.3193013271938254,
                1.9788993209469552,
                -0.6398617918966965,
                1.1327461454660526,
                -3.1175755310598774
            ]
        },
        {
            "positions": [
                -1.5771620617249413,
                -1.3686204951260141,
                1.9687970671354762,
                -0.5858333905548163,
                1.2969435255625947,
                -3.1159461639014827
            ]
        },
        {
            "positions": [
                -1.6735529229865547,
                -1.4179396630582028,
                1.9586948133239972,
                -0.5318049892129363,
                1.461140905659137,
                -3.114316796743088
            ]
        }
    ]
}