{
    "goal": {
        "global_pose": {
            "orientation": {
                "w": 0.005598929693374612,
                "x": 0.007748599140229565,
                "y": 0.7110244013736278,
                "z": -0.7031023480610252
            },
            "position": {
                "x": -0.8858502320852131,
                "y": -0.7141253447532654,
                "z": 0.3711530566215515
            }
        },
        "name": "move_to_auspresseinheit_C"
    },
    "id": "KPIECE_move_to_auspresseinheit_C_146",
    "joint_names": [
        "shoulder_pan_joint",
        "shoulder_lift_joint",
        "elbow_joint",
        "wrist_1_joint",
        "wrist_2_joint",
        "wrist_3_joint"
    ],
    "metrics": {
        "cart_traj_len": 0.49464418018726625,
        "distance_elbow_joint": 1.0171064914485837,
        "distance_shoulder_lift_joint": 0.33306229351863703,
        "distance_shoulder_pan_joint": 0.25670565755231856,
        "distance_wrist_1_joint": 0.7106887943453782,
        "distance_wrist_2_joint": 1.318046587079481,
        "distance_wrist_3_joint": 0.07959320126277047,
        "smoothness": 4.844609600361787e-16,
        "time": 1.5881730280000002,
        "traj_len": 1.9274861932598035,
        "weighted_distance": 2.4296347069379727
    },
    "planner": "KPIECE",
    "start": {
        "state": {
            "elbow_joint": 1.7527959577737207,
            "shoulder_lift_joint": -0.9740617694225068,
            "shoulder_pan_joint": -2.967991417825858,
            "wrist_1_joint": -0.759517768980727,
            "wrist_2_joint": 1.7443932448377408,
            "wrist_3_joint": -3.0840537646736568
        }
    },
    "waypoints": [
        {
            "positions": [
                -2.967991417825858,
                -0.9740617694225068,
                1.7527959577737207,
                -0.759517768980727,
                1.7443932448377408,
                -3.0840537646736568
            ]
        },
        {
            "positions": [
                -2.942320852070626,
                -0.9407555400706431,
                1.6510853086288624,
                -0.6884488895461891,
                1.6125885861297928,
                -3.092013084799934
            ]
        },
        {
            "positions": [
                -2.9166502863153942,
                -0.9074493107187793,
                1.5493746594840039,
                -0.6173800101116513,
                1.4807839274218446,
                -3.099972404926211
            ]
        },
        {
            "positions": [
                -2.8909797205601624,
                -0.8741430813669157,
                1.4476640103391456,
                -0.5463111306771136,
                1.3489792687138964,
                -3.107931725052488
            ]
        },
        {
            "positions": [
                -2.8653091548049305,
                -0.840836852015052,
                1.345953361194287,
                -0.4752422512425757,
                1.2171746100059484,
                -3.115891045178765
            ]
        },
        {
            "positions": [
                -2.8396385890496987,
                -0.8075306226631882,
                1.2442427120494288,
                -0.40417337180803786,
                1.0853699512980004,
                -3.1238503653050422
            ]
        },
        {
            "positions": [
                -2.813968023294467,
                -0.7742243933113245,
                1.1425320629045705,
                -0.33310449237350004,
                0.9535652925900522,
                -3.131809685431319
            ]
        },
        {
            "positions": [
                -2.788297457539235,
                -0.7409181639594609,
                1.040821413759712,
                -0.26203561293896227,
                0.8217606338821042,
                -3.139769005557596
            ]
        },
        {
            "positions": [
                -2.762626891784003,
                -0.7076119346075971,
                0.9391107646148537,
                -0.1909667335044244,
                0.689955975174156,
                -3.147728325683873
            ]
        },
        {
            "positions": [
                -2.7369563260287713,
                -0.6743057052557334,
                0.8374001154699954,
                -0.11989785406988651,
                0.5581513164662077,
                -3.15568764581015
            ]
        },
        {
            "positions": [
                -2.7112857602735394,
                -0.6409994759038697,
                0.735689466325137,
                -0.04882897463534873,
                0.4263466577582597,
                -3.1636469659364272
            ]
        }
    ]
}