{
    "goal": {
        "global_pose": {
            "orientation": {
                "w": 0.005598929693374612,
                "x": 0.007748599140229565,
                "y": 0.7110244013736278,
                "z": -0.7031023480610252
            },
            "position": {
                "x": 0.1141497679147869,
                "y": -0.7141253447532654,
                "z": 0.3711530566215515
            }
        },
        "name": "move_to_auspresseinheit_B"
    },
    "id": "KPIECE_move_to_auspresseinheit_B_78",
    "joint_names": [
        "shoulder_pan_joint",
        "shoulder_lift_joint",
        "elbow_joint",
        "wrist_1_joint",
        "wrist_2_joint",
        "wrist_3_joint"
    ],
    "metrics": {
        "cart_traj_len": 0.564783962347567,
        "distance_elbow_joint": 0.0647190230627126,
        "distance_shoulder_lift_joint": 0.29505388072853145,
        "distance_shoulder_pan_joint": 0.5769549092595938,
        "distance_wrist_1_joint": 0.33975811076226237,
        "distance_wrist_2_joint": 0.9980923068815761,
        "distance_wrist_3_joint": 0.0007283757065370544,
        "smoothness": 7.612957943425664e-16,
        "time": 0.104757433,
        "traj_len": 1.5084119485078382,
        "weighted_distance": 1.9012137637462352
    },
    "planner": "KPIECE",
    "start": {
        "state": {
            "elbow_joint": 2.0193083361928714,
            "shoulder_lift_joint": -1.1220246554650708,
            "shoulder_pan_joint": -1.0952077554168747,
            "wrist_1_joint": -0.8559753972642168,
            "wrist_2_joint": 0.4759566250798843,
            "wrist_3_joint": -3.1240929996934557
        }
    },
    "waypoints": [
        {
            "positions": [
                -1.0952077554168747,
                -1.1220246554650708,
                2.0193083361928714,
                -0.8559753972642168,
                0.4759566250798843,
                -3.1240929996934557
            ]
        },
        {
            "positions": [
                -1.1913669069601402,
                -1.1712003022531594,
                2.008521832349086,
                -0.7993490454705063,
                0.6423053428934803,
                -3.1239716037423664
            ]
        },
        {
            "positions": [
                -1.2875260585034058,
                -1.220375949041248,
                1.9977353285053006,
                -0.742722693676796,
                0.8086540607070762,
                -3.1238502077912766
            ]
        },
        {
            "positions": [
                -1.3836852100466714,
                -1.2695515958293364,
                1.986948824661515,
                -0.6860963418830857,
                0.9750027785206723,
                -3.123728811840187
            ]
        },
        {
            "positions": [
                -1.479844361589937,
                -1.318727242617425,
                1.9761623208177297,
                -0.6294699900893752,
                1.1413514963342684,
                -3.1236074158890976
            ]
        },
        {
            "positions": [
                -1.5760035131332029,
                -1.3679028894055136,
                1.9653758169739444,
                -0.5728436382956648,
                1.3077002141478644,
                -3.1234860199380083
            ]
        },
        {
            "positions": [
                -1.6721626646764685,
                -1.4170785361936022,
                1.9545893131301588,
                -0.5162172865019544,
                1.4740489319614605,
                -3.1233646239869186
            ]
        }
    ]
}