{
    "goal": {
        "global_pose": {
            "orientation": {
                "w": 0.5084816262002911,
                "x": -0.4908360881923452,
                "y": 0.5182115481033761,
                "z": -0.48164630358495003
            },
            "position": {
                "x": 0.5540239810943604,
                "y": -0.46912469901144505,
                "z": 0.16403168439865112
            }
        },
        "name": "move_to_storage_B"
    },
    "id": "KPIECE_move_to_storage_B_144",
    "joint_names": [
        "shoulder_pan_joint",
        "shoulder_lift_joint",
        "elbow_joint",
        "wrist_1_joint",
        "wrist_2_joint",
        "wrist_3_joint"
    ],
    "metrics": {
        "cart_traj_len": 0.6227044968893775,
        "distance_elbow_joint": 0.3493168823260602,
        "distance_shoulder_lift_joint": 0.45777281356933885,
        "distance_shoulder_pan_joint": 0.24679836264571298,
        "distance_wrist_1_joint": 2.9858551126170507,
        "distance_wrist_2_joint": 2.699964064198848,
        "distance_wrist_3_joint": 3.33110610659671,
        "smoothness": 0.3206553064998644,
        "time": 0.12856747400000001,
        "traj_len": 3.1734544808384633,
        "weighted_distance": 4.734854246116034
    },
    "planner": "KPIECE",
    "start": {
        "state": {
            "elbow_joint": 1.664937868594044,
            "shoulder_lift_joint": -0.661644460510453,
            "shoulder_pan_joint": -0.9139846352900073,
            "wrist_1_joint": 2.146753192139373,
            "wrist_2_joint": -2.2341966793290973,
            "wrist_3_joint": 0.005466555786416001
        }
    },
    "waypoints": [
        {
            "positions": [
                -0.9139846352900073,
                -0.661644460510453,
                1.664937868594044,
                2.146753192139373,
                -2.2341966793290973,
                0.005466555786416001
            ]
        },
        {
            "positions": [
                -0.8819858776576073,
                -0.6757041775799504,
                1.7115666848669253,
                2.129524965917719,
                -2.058482742577453,
                0.0955582456708801
            ]
        },
        {
            "positions": [
                -0.8905778618581398,
                -0.6934527014399441,
                1.7236742075090525,
                2.010779890461903,
                -1.957512737479565,
                -0.034082330997609725
            ]
        },
        {
            "positions": [
                -0.8991698460586723,
                -0.7112012252999377,
                1.7357817301511795,
                1.8920348150060873,
                -1.8565427323816768,
                -0.16372290766609954
            ]
        },
        {
            "positions": [
                -0.9077618302592049,
                -0.7289497491599314,
                1.7478892527933068,
                1.7732897395502716,
                -1.7555727272837887,
                -0.2933634843345893
            ]
        },
        {
            "positions": [
                -0.9163538144597374,
                -0.746698273019925,
                1.759996775435434,
                1.6545446640944557,
                -1.6546027221859003,
                -0.4230040610030792
            ]
        },
        {
            "positions": [
                -0.9249457986602698,
                -0.7644467968799187,
                1.772104298077561,
                1.5357995886386397,
                -1.5536327170880122,
                -0.552644637671569
            ]
        },
        {
            "positions": [
                -0.9335377828608024,
                -0.7821953207399124,
                1.7842118207196882,
                1.417054513182824,
                -1.452662711990124,
                -0.6822852143400587
            ]
        },
        {
            "positions": [
                -0.9421297670613349,
                -0.799943844599906,
                1.7963193433618154,
                1.2983094377270081,
                -1.3516927068922358,
                -0.8119257910085487
            ]
        },
        {
            "positions": [
                -0.9507217512618674,
                -0.8176923684598997,
                1.8084268660039424,
                1.1795643622711922,
                -1.2507227017943476,
                -0.9415663676770385
            ]
        },
        {
            "positions": [
                -0.9593137354624,
                -0.8354408923198933,
                1.8205343886460696,
                1.0608192868153763,
                -1.1497526966964595,
                -1.071206944345528
            ]
        },
        {
            "positions": [
                -0.9679057196629325,
                -0.853189416179887,
                1.8326419112881969,
                0.9420742113595604,
                -1.0487826915985714,
                -1.2008475210140181
            ]
        },
        {
            "positions": [
                -0.976497703863465,
                -0.8709379400398807,
                1.8447494339303239,
                0.8233291359037447,
                -0.9478126865006833,
                -1.330488097682508
            ]
        },
        {
            "positions": [
                -0.9850896880639974,
                -0.8886864638998743,
                1.856856956572451,
                0.7045840604479288,
                -0.8468426814027952,
                -1.4601286743509976
            ]
        },
        {
            "positions": [
                -0.9936816722645301,
                -0.906434987759868,
                1.8689644792145783,
                0.5858389849921128,
                -0.7458726763049071,
                -1.5897692510194876
            ]
        },
        {
            "positions": [
                -1.0022736564650625,
                -0.9241835116198616,
                1.8810720018567055,
                0.4670939095362969,
                -0.6449026712070187,
                -1.7194098276879775
            ]
        },
        {
            "positions": [
                -1.0108656406655951,
                -0.9419320354798553,
                1.8931795244988325,
                0.34834883408048123,
                -0.5439326661091308,
                -1.849050404356467
            ]
        },
        {
            "positions": [
                -1.0194576248661276,
                -0.959680559339849,
                1.9052870471409598,
                0.2296037586246653,
                -0.4429626610112425,
                -1.978690981024957
            ]
        },
        {
            "positions": [
                -1.02804960906666,
                -0.9774290831998427,
                1.917394569783087,
                0.11085868316884939,
                -0.34199265591335437,
                -2.108331557693447
            ]
        },
        {
            "positions": [
                -1.0366415932671926,
                -0.9951776070598362,
                1.929502092425214,
                -0.007886392286966526,
                -0.24102265081546626,
                -2.2379721343619363
            ]
        },
        {
            "positions": [
                -1.045233577467725,
                -1.0129261309198299,
                1.9416096150673412,
                -0.12663146774278244,
                -0.14005264571757814,
                -2.3676127110304264
            ]
        },
        {
            "positions": [
                -1.0538255616682577,
                -1.0306746547798236,
                1.9537171377094684,
                -0.24537654319859836,
                -0.0390826406196898,
                -2.4972532876989164
            ]
        },
        {
            "positions": [
                -1.0624175458687901,
                -1.0484231786398173,
                1.9658246603515954,
                -0.36412161865441384,
                0.061887364478198315,
                -2.626893864367406
            ]
        },
        {
            "positions": [
                -1.0710095300693228,
                -1.066171702499811,
                1.9779321829937226,
                -0.48286669411022975,
                0.16285736957608643,
                -2.756534441035896
            ]
        },
        {
            "positions": [
                -1.0796015142698552,
                -1.0839202263598047,
                1.9900397056358499,
                -0.6016117695660461,
                0.26382737467397455,
                -2.8861750177043857
            ]
        },
        {
            "positions": [
                -1.0881934984703876,
                -1.1016687502197982,
                2.002147228277977,
                -0.7203568450218616,
                0.36479737977186266,
                -3.0158155943728753
            ]
        },
        {
            "positions": [
                -1.0967854826709202,
                -1.1194172740797919,
                2.014254750920104,
                -0.8391019204776775,
                0.4657673848697507,
                -3.1454561710413653
            ]
        }
    ]
}