{
    "goal": {
        "global_pose": {
            "orientation": {
                "w": 0.7031023502349854,
                "x": -0.7110244035720825,
                "y": 0.007748599164187908,
                "z": 0.005598929710686207
            },
            "position": {
                "x": 0.11585023208521307,
                "y": 0.44412534475326537,
                "z": 0.3711530566215515
            }
        },
        "name": "move_to_auspresseinheit_A"
    },
    "id": "KPIECE_move_to_auspresseinheit_A_78",
    "joint_names": [
        "shoulder_pan_joint",
        "shoulder_lift_joint",
        "elbow_joint",
        "wrist_1_joint",
        "wrist_2_joint",
        "wrist_3_joint"
    ],
    "metrics": {
        "cart_traj_len": 1.402674208712844,
        "distance_elbow_joint": 1.1015762738675634,
        "distance_shoulder_lift_joint": 0.8326354023161939,
        "distance_shoulder_pan_joint": 1.0469925309014099,
        "distance_wrist_1_joint": 0.5462045228617884,
        "distance_wrist_2_joint": 0.5114790949154943,
        "distance_wrist_3_joint": 2.121179471815917,
        "smoothness": 1.1759162627749682,
        "time": 0.26250925599999997,
        "traj_len": 2.4819482864633517,
        "weighted_distance": 3.385278401858182
    },
    "planner": "KPIECE",
    "start": {
        "state": {
            "elbow_joint": 2.4225746658250005,
            "shoulder_lift_joint": -1.3736534386056498,
            "shoulder_pan_joint": -0.3378633547517467,
            "wrist_1_joint": -1.0288598680537169,
            "wrist_2_joint": 1.233022673432363,
            "wrist_3_joint": -3.0940220416140027
        }
    },
    "waypoints": [
        {
            "positions": [
                -0.3378633547517467,
                -1.3736534386056498,
                2.4225746658250005,
                -1.0288598680537169,
                1.233022673432363,
                -3.0940220416140027
            ]
        },
        {
            "positions": [
                -0.30013069954528215,
                -1.459430264753952,
                2.3531900352703037,
                -0.9923508227005664,
                1.2056798907381665,
                -2.9638564797244866
            ]
        },
        {
            "positions": [
                -0.2623980443388175,
                -1.5452070909022542,
                2.2838054047156064,
                -0.9558417773474159,
                1.1783371080439702,
                -2.8336909178349705
            ]
        },
        {
            "positions": [
                -0.22466538913235296,
                -1.6309839170505565,
                2.2144207741609097,
                -0.9193327319942655,
                1.1509943253497736,
                -2.703525355945455
            ]
        },
        {
            "positions": [
                -0.18693273392588836,
                -1.7167607431988587,
                2.1450361436062124,
                -0.882823686641115,
                1.123651542655577,
                -2.5733597940559387
            ]
        },
        {
            "positions": [
                -0.14920007871942376,
                -1.8025375693471608,
                2.0756515130515156,
                -0.8463146412879645,
                1.0963087599613808,
                -2.4431942321664226
            ]
        },
        {
            "positions": [
                -0.11146742351295919,
                -1.888314395495463,
                2.006266882496819,
                -0.809805595934814,
                1.0689659772671842,
                -2.313028670276907
            ]
        },
        {
            "positions": [
                -0.07373476830649456,
                -1.9740912216437652,
                1.9368822519421218,
                -0.7732965505816636,
                1.041623194572988,
                -2.182863108387391
            ]
        },
        {
            "positions": [
                -0.03600211310002999,
                -2.0598680477920674,
                1.8674976213874248,
                -0.7367875052285131,
                1.0142804118787914,
                -2.0526975464978747
            ]
        },
        {
            "positions": [
                0.04615796369436723,
                -2.0438457173339097,
                1.9348559274882982,
                -0.7122565145229294,
                0.9788979062192156,
                -2.1794139621609796
            ]
        },
        {
            "positions": [
                0.12831804048876444,
                -2.027823386875752,
                2.0022142335891715,
                -0.6877255238173456,
                0.9435154005596399,
                -2.306130377824085
            ]
        },
        {
            "positions": [
                0.21047811728316165,
                -2.0118010564175943,
                2.0695725396900446,
                -0.6631945331117618,
                0.9081328949000642,
                -2.4328467934871902
            ]
        },
        {
            "positions": [
                0.29263819407755887,
                -1.9957787259594366,
                2.1369308457909177,
                -0.6386635424061781,
                0.8727503892404884,
                -2.559563209150295
            ]
        },
        {
            "positions": [
                0.37479827087195605,
                -1.979756395501279,
                2.2042891518917913,
                -0.6141325517005943,
                0.8373678835809126,
                -2.6862796248134
            ]
        },
        {
            "positions": [
                0.4569583476663533,
                -1.9637340650431212,
                2.2716474579926644,
                -0.5896015609950105,
                0.801985377921337,
                -2.8129960404765053
            ]
        },
        {
            "positions": [
                0.5391184244607505,
                -1.9477117345849635,
                2.339005764093538,
                -0.5650705702894268,
                0.7666028722617613,
                -2.9397124561396106
            ]
        },
        {
            "positions": [
                0.6212785012551477,
                -1.9316894041268058,
                2.406364070194411,
                -0.540539579583843,
                0.7312203666021855,
                -3.0664288718027155
            ]
        },
        {
            "positions": [
                0.7091291761496631,
                -1.9134472546622912,
                2.3987312895714097,
                -0.4826553451919285,
                0.7215435785168688,
                -3.132552523197664
            ]
        }
    ]
}