{
    "goal": {
        "global_pose": {
            "orientation": {
                "w": 0.5084816217422485,
                "x": -0.49083608388900757,
                "y": 0.5182115435600281,
                "z": -0.4816462993621826
            },
            "position": {
                "x": 0.5540239810943604,
                "y": 0.030875300988554955,
                "z": 0.16403168439865112
            }
        },
        "name": "move_to_storage_A"
    },
    "id": "KPIECE_move_to_storage_A_78",
    "joint_names": [
        "shoulder_pan_joint",
        "shoulder_lift_joint",
        "elbow_joint",
        "wrist_1_joint",
        "wrist_2_joint",
        "wrist_3_joint"
    ],
    "metrics": {
        "cart_traj_len": 0.3535402104543139,
        "distance_elbow_joint": 0.4498609724160738,
        "distance_shoulder_lift_joint": 0.23286720196033595,
        "distance_shoulder_pan_joint": 0.46205545731911285,
        "distance_wrist_1_joint": 0.24590501658232788,
        "distance_wrist_2_joint": 1.09986523806374,
        "distance_wrist_3_joint": 0.10259150937279182,
        "smoothness": 0.0,
        "time": 0.024930915999999997,
        "traj_len": 1.6103246243271518,
        "weighted_distance": 2.035705938760811
    },
    "planner": "KPIECE",
    "start": {
        "state": {
            "elbow_joint": 1.971548259319323,
            "shoulder_lift_joint": -1.1394851275133948,
            "shoulder_pan_joint": 0.1228115487234821,
            "wrist_1_joint": -0.7804723859257726,
            "wrist_2_joint": 0.12958671773740124,
            "wrist_3_joint": -3.192489227718131
        }
    },
    "waypoints": [
        {
            "positions": [
                0.1228115487234821,
                -1.1394851275133948,
                1.971548259319323,
                -0.7804723859257726,
                0.12958671773740124,
                -3.192489227718131
            ]
        },
        {
            "positions": [
                0.05680362624932313,
                -1.1727518706505857,
                2.0358141125216194,
                -0.8156016740089623,
                0.2867103231750784,
                -3.1778332978077324
            ]
        },
        {
            "positions": [
                -0.009204296224835845,
                -1.2060186137877764,
                2.1000799657239155,
                -0.850730962092152,
                0.4438339286127555,
                -3.1631773678973336
            ]
        },
        {
            "positions": [
                -0.07521221869899483,
                -1.2392853569249673,
                2.1643458189262117,
                -0.8858602501753416,
                0.6009575340504326,
                -3.148521437986935
            ]
        },
        {
            "positions": [
                -0.1412201411731538,
                -1.2725521000621582,
                2.228611672128508,
                -0.9209895382585314,
                0.7580811394881097,
                -3.1338655080765356
            ]
        },
        {
            "positions": [
                -0.20722806364731278,
                -1.3058188431993492,
                2.2928775253308045,
                -0.9561188263417211,
                0.915204744925787,
                -3.119209578166137
            ]
        },
        {
            "positions": [
                -0.27323598612147176,
                -1.3390855863365398,
                2.3571433785331006,
                -0.9912481144249108,
                1.072328350363464,
                -3.104553648255738
            ]
        },
        {
            "positions": [
                -0.33924390859563075,
                -1.3723523294737308,
                2.421409231735397,
                -1.0263774025081005,
                1.2294519558011412,
                -3.0898977183453393
            ]
        }
    ]
}{
    "goal": {
        "global_pose": {
            "orientation": {
                "w": 0.5084816217422485,
                "x": -0.49083608388900757,
                "y": 0.5182115435600281,
                "z": -0.4816462993621826
            },
            "position": {
                "x": 0.5540239810943604,
                "y": 0.030875300988554955,
                "z": 0.16403168439865112
            }
        },
        "name": "move_to_storage_A"
    },
    "id": "KPIECE_move_to_storage_A_78",
    "joint_names": [
        "shoulder_pan_joint",
        "shoulder_lift_joint",
        "elbow_joint",
        "wrist_1_joint",
        "wrist_2_joint",
        "wrist_3_joint"
    ],
    "metrics": {
        "cart_traj_len": 0.3531778311360868,
        "distance_elbow_joint": 0.44986078135450125,
        "distance_shoulder_lift_joint": 0.23364771874747992,
        "distance_shoulder_pan_joint": 0.46349310525812204,
        "distance_wrist_1_joint": 0.24682412353849248,
        "distance_wrist_2_joint": 1.0910839587252292,
        "distance_wrist_3_joint": 0.09773711609266433,
        "smoothness": 2.2204460668324854e-16,
        "time": 0.076162958,
        "traj_len": 1.607061543226173,
        "weighted_distance": 2.0287999206835403
    },
    "planner": "KPIECE",
    "start": {
        "state": {
            "elbow_joint": 1.97154746011099,
            "shoulder_lift_joint": -1.13948474672311,
            "shoulder_pan_joint": 0.12281154466712228,
            "wrist_1_joint": -0.7804688027058302,
            "wrist_2_joint": 0.12958655903071145,
            "wrist_3_joint": 3.0906928834467795
        }
    },
    "waypoints": [
        {
            "positions": [
                0.12281154466712228,
                -1.13948474672311,
                1.97154746011099,
                -0.7804688027058302,
                0.12958655903071145,
                3.0906928834467795
            ]
        },
        {
            "positions": [
                0.05659824391596199,
                -1.1728629922584641,
                2.035813286018776,
                -0.8157293917827577,
                0.2854556959914585,
                3.1046553286028744
            ]
        },
        {
            "positions": [
                -0.009615056835198296,
                -1.2062412377938185,
                2.100079111926562,
                -0.8509899808596851,
                0.4413248329522055,
                3.1186177737589693
            ]
        },
        {
            "positions": [
                -0.07582835758635857,
                -1.2396194833291727,
                2.164344937834348,
                -0.8862505699366127,
                0.5971939699129525,
                3.132580218915064
            ]
        },
        {
            "positions": [
                -0.14204165833751886,
                -1.2729977288645271,
                2.2286107637421333,
                -0.9215111590135402,
                0.7530631068736996,
                3.146542664071159
            ]
        },
        {
            "positions": [
                -0.2082549590886792,
                -1.3063759743998813,
                2.2928765896499193,
                -0.9567717480904676,
                0.9089322438344467,
                3.160505109227254
            ]
        },
        {
            "positions": [
                -0.2744682598398394,
                -1.3397542199352355,
                2.357142415557705,
                -0.9920323371673951,
                1.0648013807951935,
                3.174467554383349
            ]
        },
        {
            "positions": [
                -0.34068156059099974,
                -1.3731324654705899,
                2.421408241465491,
                -1.0272929262443227,
                1.2206705177559407,
                3.188429999539444
            ]
        }
    ]
}{
    "goal": {
        "global_pose": {
            "orientation": {
                "w": 0.5084816217422485,
                "x": -0.49083608388900757,
                "y": 0.5182115435600281,
                "z": -0.4816462993621826
            },
            "position": {
                "x": 0.5540239810943604,
                "y": 0.030875300988554955,
                "z": 0.16403168439865112
            }
        },
        "name": "move_to_storage_A"
    },
    "id": "KPIECE_move_to_storage_A_78",
    "joint_names": [
        "shoulder_pan_joint",
        "shoulder_lift_joint",
        "elbow_joint",
        "wrist_1_joint",
        "wrist_2_joint",
        "wrist_3_joint"
    ],
    "metrics": {
        "cart_traj_len": 0.35284725086888924,
        "distance_elbow_joint": 0.4529582348992798,
        "distance_shoulder_lift_joint": 0.233402988847635,
        "distance_shoulder_pan_joint": 0.45910076580739434,
        "distance_wrist_1_joint": 0.25407804098141895,
        "distance_wrist_2_joint": 1.1083888417403058,
        "distance_wrist_3_joint": 0.09055382446996996,
        "smoothness": 4.440892098500626e-16,
        "time": 0.027610276,
        "traj_len": 1.6119809852309064,
        "weighted_distance": 2.035204468452167
    },
    "planner": "KPIECE",
    "start": {
        "state": {
            "elbow_joint": 1.9715472970024885,
            "shoulder_lift_joint": -1.1394870060712896,
            "shoulder_pan_joint": 0.12281152778156021,
            "wrist_1_joint": -0.780463741449964,
            "wrist_2_joint": 0.12958659822042276,
            "wrist_3_joint": 3.090690232415272
        }
    },
    "waypoints": [
        {
            "positions": [
                0.12281152778156021,
                -1.1394870060712896,
                1.9715472970024885,
                -0.780463741449964,
                0.12958659822042276,
                3.090690232415272
            ]
        },
        {
            "positions": [
                0.057225704094789595,
                -1.1728302901923804,
                2.0362556162738144,
                -0.8167606044473096,
                0.28792786132618076,
                3.103626493053839
            ]
        },
        {
            "positions": [
                -0.008360119591981019,
                -1.206173574313471,
                2.1009639355451397,
                -0.8530574674446552,
                0.44626912443193867,
                3.1165627536924063
            ]
        },
        {
            "positions": [
                -0.07394594327875165,
                -1.2395168584345617,
                2.1656722548164655,
                -0.8893543304420006,
                0.6046103875376967,
                3.1294990143309733
            ]
        },
        {
            "positions": [
                -0.13953176696552225,
                -1.2728601425556525,
                2.2303805740877913,
                -0.9256511934393462,
                0.7629516506434546,
                3.1424352749695403
            ]
        },
        {
            "positions": [
                -0.20511759065229287,
                -1.3062034266767433,
                2.295088893359117,
                -0.9619480564366918,
                0.9212929137492126,
                3.1553715356081073
            ]
        },
        {
            "positions": [
                -0.27070341433906353,
                -1.3395467107978338,
                2.3597972126304425,
                -0.9982449194340374,
                1.0796341768549707,
                3.168307796246675
            ]
        },
        {
            "positions": [
                -0.3362892380258341,
                -1.3728899949189246,
                2.4245055319017683,
                -1.034541782431383,
                1.2379754399607286,
                3.181244056885242
            ]
        }
    ]
}