{
    "goal": {
        "global_pose": {
            "orientation": {
                "w": -0.4816463035849501,
                "x": 0.5182115481033762,
                "y": 0.4908360881923453,
                "z": -0.5084816262002911
            },
            "position": {
                "x": -0.8240239810943604,
                "y": -0.300875300988555,
                "z": 0.16403168439865112
            }
        },
        "name": "move_to_storage_C"
    },
    "id": "KPIECE_move_to_storage_C_42",
    "joint_names": [
        "shoulder_pan_joint",
        "shoulder_lift_joint",
        "elbow_joint",
        "wrist_1_joint",
        "wrist_2_joint",
        "wrist_3_joint"
    ],
    "metrics": {
        "cart_traj_len": 0.5757006438558159,
        "distance_elbow_joint": 0.25686463403057824,
        "distance_shoulder_lift_joint": 0.18782084559807444,
        "distance_shoulder_pan_joint": 0.49541874738353453,
        "distance_wrist_1_joint": 0.08302489594174878,
        "distance_wrist_2_joint": 1.0603243007327676,
        "distance_wrist_3_joint": 0.0733033058377961,
        "smoothness": 0.0,
        "time": 0.010726099,
        "traj_len": 1.4685900481497551,
        "weighted_distance": 1.856532396128494
    },
    "planner": "KPIECE",
    "start": {
        "state": {
            "elbow_joint": 2.010868314990456,
            "shoulder_lift_joint": -1.1634956873337592,
            "shoulder_pan_joint": -2.4736205022346125,
            "wrist_1_joint": -0.8367026794202681,
            "wrist_2_joint": 0.6746043897044499,
            "wrist_3_joint": -3.1496632123970403
        }
    },
    "waypoints": [
        {
            "positions": [
                -2.4736205022346125,
                -1.1634956873337592,
                2.010868314990456,
                -0.8367026794202681,
                0.6746043897044499,
                -3.1496632123970403
            ]
        },
        {
            "positions": [
                -2.5561902934652014,
                -1.1321922130674134,
                1.9680575426520261,
                -0.8228651967633099,
                0.8513251064932446,
                -3.1374459947574076
            ]
        },
        {
            "positions": [
                -2.638760084695791,
                -1.1008887388010677,
                1.9252467703135965,
                -0.8090277141063519,
                1.028045823282039,
                -3.125228777117775
            ]
        },
        {
            "positions": [
                -2.7213298759263798,
                -1.069585264534722,
                1.8824359979751666,
                -0.7951902314493937,
                1.2047665400708336,
                -3.1130115594781422
            ]
        },
        {
            "positions": [
                -2.8038996671569687,
                -1.0382817902683763,
                1.839625225636737,
                -0.7813527487924355,
                1.3814872568596281,
                -3.1007943418385095
            ]
        },
        {
            "positions": [
                -2.886469458387558,
                -1.0069783160020305,
                1.7968144532983072,
                -0.7675152661354775,
                1.5582079736484231,
                -3.088577124198877
            ]
        },
        {
            "positions": [
                -2.969039249618147,
                -0.9756748417356848,
                1.7540036809598776,
                -0.7536777834785193,
                1.7349286904372174,
                -3.076359906559244
            ]
        }
    ]
}