{
    "goal": {
        "global_pose": {
            "orientation": {
                "w": 0.005598929693374612,
                "x": 0.007748599140229565,
                "y": 0.7110244013736278,
                "z": -0.7031023480610252
            },
            "position": {
                "x": -0.8858502320852131,
                "y": -0.7141253447532654,
                "z": 0.3711530566215515
            }
        },
        "name": "move_to_auspresseinheit_C"
    },
    "id": "KPIECE_move_to_auspresseinheit_C_45",
    "joint_names": [
        "shoulder_pan_joint",
        "shoulder_lift_joint",
        "elbow_joint",
        "wrist_1_joint",
        "wrist_2_joint",
        "wrist_3_joint"
    ],
    "metrics": {
        "cart_traj_len": 3.144897504168603,
        "distance_elbow_joint": 3.0619050670866756,
        "distance_shoulder_lift_joint": 0.8409727409203901,
        "distance_shoulder_pan_joint": 0.25695474719968914,
        "distance_wrist_1_joint": 0.6543623489566037,
        "distance_wrist_2_joint": 1.5664445292452007,
        "distance_wrist_3_joint": 1.1261563347471713,
        "smoothness": 0.9661607127995732,
        "time": 0.471087006,
        "traj_len": 2.7398532384337178,
        "weighted_distance": 3.461201426651139
    },
    "planner": "KPIECE",
    "start": {
        "state": {
            "elbow_joint": 1.7527959577737207,
            "shoulder_lift_joint": -0.9740617694225068,
            "shoulder_pan_joint": -2.967991417825858,
            "wrist_1_joint": -0.759517768980727,
            "wrist_2_joint": 1.7443932448377408,
            "wrist_3_joint": -3.0840537646736568
        }
    },
    "waypoints": [
        {
            "positions": [
                -2.967991417825858,
                -0.9740617694225068,
                1.7527959577737207,
                -0.759517768980727,
                1.7443932448377408,
                -3.0840537646736568
            ]
        },
        {
            "positions": [
                -2.951937161139071,
                -0.9957612658936115,
                1.5840091820747941,
                -0.7506535201984145,
                1.6246882780170555,
                -3.038548485299548
            ]
        },
        {
            "positions": [
                -2.935882904452284,
                -1.017460762364716,
                1.4152224063758676,
                -0.741789271416102,
                1.50498331119637,
                -2.9930432059254395
            ]
        },
        {
            "positions": [
                -2.919828647765497,
                -1.0391602588358209,
                1.2464356306769413,
                -0.7329250226337893,
                1.3852783443756844,
                -2.9475379265513313
            ]
        },
        {
            "positions": [
                -2.90377439107871,
                -1.0608597553069254,
                1.0776488549780148,
                -0.7240607738514768,
                1.265573377554999,
                -2.9020326471772226
            ]
        },
        {
            "positions": [
                -2.887720134391923,
                -1.08255925177803,
                0.9088620792790881,
                -0.7151965250691643,
                1.1458684107343138,
                -2.856527367803114
            ]
        },
        {
            "positions": [
                -2.8716658777051363,
                -1.1042587482491348,
                0.7400753035801617,
                -0.7063322762868518,
                1.0261634439136282,
                -2.8110220884290054
            ]
        },
        {
            "positions": [
                -2.8556116210183498,
                -1.1259582447202394,
                0.5712885278812352,
                -0.6974680275045393,
                0.9064584770929428,
                -2.7655168090548967
            ]
        },
        {
            "positions": [
                -2.839557364331563,
                -1.147657741191344,
                0.4025017521823089,
                -0.6886037787222268,
                0.7867535102722574,
                -2.720011529680788
            ]
        },
        {
            "positions": [
                -2.823503107644776,
                -1.1693572376624488,
                0.23371497648338213,
                -0.6797395299399143,
                0.667048543451572,
                -2.6745062503066794
            ]
        },
        {
            "positions": [
                -2.807448850957989,
                -1.1910567341335534,
                0.0649282007844556,
                -0.6708752811576016,
                0.5473435766308865,
                -2.6290009709325712
            ]
        },
        {
            "positions": [
                -2.791394594271202,
                -1.2127562306046582,
                -0.1038585749144707,
                -0.6620110323752891,
                0.4276386098102012,
                -2.5834956915584626
            ]
        },
        {
            "positions": [
                -2.775340337584415,
                -1.2344557270757628,
                -0.27264535061339723,
                -0.6531467835929766,
                0.30793364298951564,
                -2.537990412184354
            ]
        },
        {
            "positions": [
                -2.7673023792146343,
                -1.161883379167371,
                -0.1430873807759525,
                -0.5846478631468699,
                0.3241817589141375,
                -2.6105020349665873
            ]
        },
        {
            "positions": [
                -2.7592644208448536,
                -1.0893110312589793,
                -0.013529410938507791,
                -0.5161489427007633,
                0.34042987483875936,
                -2.683013657748821
            ]
        },
        {
            "positions": [
                -2.751226462475073,
                -1.0167386833505876,
                0.11602855889893693,
                -0.44765002225465655,
                0.3566779907633812,
                -2.755525280531055
            ]
        },
        {
            "positions": [
                -2.7431885041052917,
                -0.9441663354421957,
                0.24558652873638165,
                -0.37915110180854983,
                0.3729261066880031,
                -2.828036903313288
            ]
        },
        {
            "positions": [
                -2.735150545735511,
                -0.871593987533804,
                0.37514449857382637,
                -0.3106521813624431,
                0.3891742226126249,
                -2.9005485260955215
            ]
        },
        {
            "positions": [
                -2.7271125873657303,
                -0.7990216396254122,
                0.5047024684112711,
                -0.24215326091633643,
                0.40542233853724674,
                -2.9730601488777553
            ]
        },
        {
            "positions": [
                -2.7190746289959495,
                -0.7264492917170204,
                0.6342604382487158,
                -0.17365434047022976,
                0.42167045446186857,
                -3.045571771659989
            ]
        },
        {
            "positions": [
                -2.711036670626169,
                -0.6538769438086287,
                0.7638184080861606,
                -0.10515542002412309,
                0.43791857038649046,
                -3.1180833944422224
            ]
        }
    ]
}