{
    "goal": {
        "global_pose": {
            "orientation": {
                "w": -0.4816463035849501,
                "x": 0.5182115481033762,
                "y": 0.4908360881923453,
                "z": -0.5084816262002911
            },
            "position": {
                "x": -0.8240239810943604,
                "y": -0.300875300988555,
                "z": 0.16403168439865112
            }
        },
        "name": "move_to_storage_C"
    },
    "id": "KPIECE_move_to_storage_C_70",
    "joint_names": [
        "shoulder_pan_joint",
        "shoulder_lift_joint",
        "elbow_joint",
        "wrist_1_joint",
        "wrist_2_joint",
        "wrist_3_joint"
    ],
    "metrics": {
        "cart_traj_len": 0.5770735761687499,
        "distance_elbow_joint": 0.2612101026298279,
        "distance_shoulder_lift_joint": 0.18910884274761353,
        "distance_shoulder_pan_joint": 0.49497999113382507,
        "distance_wrist_1_joint": 0.08734444335748814,
        "distance_wrist_2_joint": 1.0661145235439395,
        "distance_wrist_3_joint": 0.0719983134807638,
        "smoothness": 0.0,
        "time": 0.042995978000000004,
        "traj_len": 1.4733486406460141,
        "weighted_distance": 1.8623135640263198
    },
    "planner": "KPIECE",
    "start": {
        "state": {
            "elbow_joint": 2.010868314990456,
            "shoulder_lift_joint": -1.1634956873337592,
            "shoulder_pan_joint": -2.4736205022346125,
            "wrist_1_joint": -0.8367026794202681,
            "wrist_2_joint": 0.6746043897044499,
            "wrist_3_joint": -3.1496632123970403
        }
    },
    "waypoints": [
        {
            "positions": [
                -2.4736205022346125,
                -1.1634956873337592,
                2.010868314990456,
                -0.8367026794202681,
                0.6746043897044499,
                -3.1496632123970403
            ]
        },
        {
            "positions": [
                -2.5561171674235834,
                -1.1319775468758235,
                1.9673332978854845,
                -0.8221452721940201,
                0.8522901436284398,
                -3.1376634934835796
            ]
        },
        {
            "positions": [
                -2.6386138326125543,
                -1.100459406417888,
                1.9237982807805132,
                -0.807587864967772,
                1.0299758975524298,
                -3.125663774570119
            ]
        },
        {
            "positions": [
                -2.721110497801525,
                -1.0689412659599524,
                1.8802632636755419,
                -0.793030457741524,
                1.2076616514764198,
                -3.1136640556566584
            ]
        },
        {
            "positions": [
                -2.8036071629904957,
                -1.0374231255020168,
                1.8367282465705705,
                -0.778473050515276,
                1.3853474054004096,
                -3.1016643367431977
            ]
        },
        {
            "positions": [
                -2.8861038281794666,
                -1.0059049850440813,
                1.7931932294655992,
                -0.763915643289028,
                1.5630331593243996,
                -3.089664617829737
            ]
        },
        {
            "positions": [
                -2.9686004933684376,
                -0.9743868445861457,
                1.749658212360628,
                -0.74935823606278,
                1.7407189132483893,
                -3.0776648989162765
            ]
        }
    ]
}