{
    "goal": {
        "global_pose": {
            "orientation": {
                "w": -0.00223480608172531,
                "x": 0.0024358444001904467,
                "y": 0.7094548369677653,
                "z": -0.704743149386269
            },
            "position": {
                "x": -0.37947507619857795,
                "y": -0.6371506643295288,
                "z": 0.19426114857196808
            }
        },
        "name": "move_to_magneteinheit_C"
    },
    "id": "KPIECE_move_to_magneteinheit_C_144",
    "joint_names": [
        "shoulder_pan_joint",
        "shoulder_lift_joint",
        "elbow_joint",
        "wrist_1_joint",
        "wrist_2_joint",
        "wrist_3_joint"
    ],
    "metrics": {
        "cart_traj_len": 5.0152871893810875,
        "distance_elbow_joint": 0.11311868856089946,
        "distance_shoulder_lift_joint": 2.7482737086558213,
        "distance_shoulder_pan_joint": 7.416751296303835,
        "distance_wrist_1_joint": 3.5181851920583145,
        "distance_wrist_2_joint": 3.200848076086605,
        "distance_wrist_3_joint": 1.1416873405843537,
        "smoothness": 0.71199134637535,
        "time": 0.252223654,
        "traj_len": 4.258974559943956,
        "weighted_distance": 5.209728615922662
    },
    "planner": "KPIECE",
    "start": {
        "state": {
            "elbow_joint": 1.9565354010623817,
            "shoulder_lift_joint": -1.4165861575791021,
            "shoulder_pan_joint": -1.6717766225146293,
            "wrist_1_joint": -0.5286633292919765,
            "wrist_2_joint": 1.472756589071564,
            "wrist_3_joint": -3.1238370188695823
        }
    },
    "waypoints": [
        {
            "positions": [
                -1.6717766225146293,
                -1.4165861575791021,
                1.9565354010623817,
                -0.5286633292919765,
                1.472756589071564,
                -3.1238370188695823
            ]
        },
        {
            "positions": [
                -1.5279668961596684,
                -1.4708088298189415,
                1.9601210062154202,
                -0.45869953477793796,
                1.3858742932830574,
                -3.09955503011296
            ]
        },
        {
            "positions": [
                -1.3841571698047075,
                -1.525031502058781,
                1.9637066113684587,
                -0.38873574026389945,
                1.298991997494551,
                -3.075273041356338
            ]
        },
        {
            "positions": [
                -1.2403474434497466,
                -1.5792541742986204,
                1.967292216521497,
                -0.3187719457498609,
                1.2121097017060445,
                -3.0509910525997164
            ]
        },
        {
            "positions": [
                -1.0965377170947856,
                -1.6334768465384597,
                1.9708778216745355,
                -0.24880815123582245,
                1.125227405917538,
                -3.0267090638430942
            ]
        },
        {
            "positions": [
                -0.9527279907398248,
                -1.687699518778299,
                1.974463426827574,
                -0.17884435672178395,
                1.0383451101290315,
                -3.002427075086472
            ]
        },
        {
            "positions": [
                -0.8089182643848639,
                -1.7419221910181384,
                1.9780490319806125,
                -0.10888056220774539,
                0.951462814340525,
                -2.97814508632985
            ]
        },
        {
            "positions": [
                -0.6651085380299029,
                -1.796144863257978,
                1.981634637133651,
                -0.03891676769370689,
                0.8645805185520185,
                -2.953863097573228
            ]
        },
        {
            "positions": [
                -0.521298811674942,
                -1.8503675354978173,
                1.9852202422866896,
                0.031047026820331558,
                0.777698222763512,
                -2.929581108816606
            ]
        },
        {
            "positions": [
                -0.37748908531998104,
                -1.9045902077376566,
                1.9888058474397279,
                0.10101082133437012,
                0.6908159269750055,
                -2.905299120059984
            ]
        },
        {
            "positions": [
                -0.23367935896502035,
                -1.9588128799774962,
                1.9923914525927664,
                0.17097461584840856,
                0.603933631186499,
                -2.881017131303362
            ]
        },
        {
            "positions": [
                -0.0898696326100592,
                -2.0130355522173353,
                1.995977057745805,
                0.24093841036244712,
                0.5170513353979925,
                -2.8567351425467398
            ]
        },
        {
            "positions": [
                0.053940093744901496,
                -2.067258224457175,
                1.9995626628988434,
                0.3109022048764857,
                0.43016903960948616,
                -2.832453153790118
            ]
        },
        {
            "positions": [
                0.19774982009986242,
                -2.1214808966970145,
                2.003148268051882,
                0.3808659993905241,
                0.3432867438209797,
                -2.808171165033496
            ]
        },
        {
            "positions": [
                0.34155954645482356,
                -2.1757035689368536,
                2.0067338732049205,
                0.4508297939045627,
                0.256404448032473,
                -2.783889176276874
            ]
        },
        {
            "positions": [
                0.48536927280978426,
                -2.229926241176693,
                2.010319478357959,
                0.5207935884186012,
                0.1695221522439665,
                -2.7596071875202517
            ]
        },
        {
            "positions": [
                0.6291789991647454,
                -2.2841489134165327,
                2.0139050835109975,
                0.5907573829326396,
                0.08263985645546001,
                -2.73532519876363
            ]
        },
        {
            "positions": [
                0.7729887255197061,
                -2.338371585656372,
                2.017490688664036,
                0.6607211774466781,
                -0.004242439333046244,
                -2.711043210007008
            ]
        },
        {
            "positions": [
                0.9167984518746672,
                -2.3925942578962114,
                2.021076293817074,
                0.7306849719607167,
                -0.09112473512155295,
                -2.6867612212503857
            ]
        },
        {
            "positions": [
                1.060608178229628,
                -2.446816930136051,
                2.0246618989701126,
                0.8006487664747552,
                -0.17800703091005943,
                -2.6624792324937636
            ]
        },
        {
            "positions": [
                1.2044179045845886,
                -2.50103960237589,
                2.028247504123151,
                0.8706125609887936,
                -0.2648893266985659,
                -2.6381972437371415
            ]
        },
        {
            "positions": [
                1.3482276309395498,
                -2.555262274615729,
                2.0318331092761897,
                0.9405763555028321,
                -0.35177162248707217,
                -2.61391525498052
            ]
        },
        {
            "positions": [
                1.492037357294511,
                -2.609484946855569,
                2.035418714429228,
                1.0105401500168707,
                -0.43865391827557887,
                -2.5896332662238977
            ]
        },
        {
            "positions": [
                1.6358470836494714,
                -2.6637076190954083,
                2.0390043195822667,
                1.0805039445309093,
                -0.5255362140640853,
                -2.5653512774672755
            ]
        },
        {
            "positions": [
                1.464633434060316,
                -2.6011596087979285,
                2.037727245830558,
                1.0009615312710995,
                -0.47542974435779556,
                -2.589651344099861
            ]
        },
        {
            "positions": [
                1.2934197844711606,
                -2.5386115985004487,
                2.036450172078849,
                0.92141911801129,
                -0.42532327465150577,
                -2.613951410732446
            ]
        },
        {
            "positions": [
                1.1222061348820052,
                -2.476063588202969,
                2.0351730983271397,
                0.8418767047514802,
                -0.375216804945216,
                -2.6382514773650314
            ]
        },
        {
            "positions": [
                0.9509924852928497,
                -2.413515577905489,
                2.033896024575431,
                0.7623342914916706,
                -0.3251103352389262,
                -2.662551543997617
            ]
        },
        {
            "positions": [
                0.7797788357036943,
                -2.3509675676080093,
                2.0326189508237222,
                0.6827918782318609,
                -0.2750038655326364,
                -2.686851610630202
            ]
        },
        {
            "positions": [
                0.6085651861145389,
                -2.28841955731053,
                2.031341877072013,
                0.6032494649720512,
                -0.2248973958263466,
                -2.7111516772627873
            ]
        },
        {
            "positions": [
                0.4373515365253835,
                -2.22587154701305,
                2.030064803320304,
                0.5237070517122415,
                -0.1747909261200568,
                -2.7354517438953727
            ]
        },
        {
            "positions": [
                0.2661378869362281,
                -2.1633235367155703,
                2.028787729568595,
                0.4441646384524319,
                -0.12468445641376702,
                -2.7597518105279577
            ]
        },
        {
            "positions": [
                0.09492423734707267,
                -2.1007755264180905,
                2.0275106558168865,
                0.3646222251926222,
                -0.07457798670747723,
                -2.784051877160543
            ]
        },
        {
            "positions": [
                -0.07628941224208274,
                -2.0382275161206107,
                2.0262335820651773,
                0.2850798119328125,
                -0.024471517001187437,
                -2.8083519437931286
            ]
        },
        {
            "positions": [
                -0.24750306183123816,
                -1.975679505823131,
                2.024956508313468,
                0.2055373986730029,
                0.0256349527051023,
                -2.8326520104257136
            ]
        },
        {
            "positions": [
                -0.4187167114203936,
                -1.913131495525651,
                2.0236794345617595,
                0.1259949854131932,
                0.07574142241139215,
                -2.856952077058299
            ]
        },
        {
            "positions": [
                -0.5899303610095488,
                -1.8505834852281715,
                2.0224023608100508,
                0.0464525721533835,
                0.12584789211768188,
                -2.8812521436908844
            ]
        },
        {
            "positions": [
                -0.7611440105987044,
                -1.7880354749306915,
                2.0211252870583416,
                -0.03308984110642621,
                0.17595436182397173,
                -2.9055522103234694
            ]
        },
        {
            "positions": [
                -0.9323576601878596,
                -1.725487464633212,
                2.0198482133066324,
                -0.1126322543662357,
                0.22606083153026146,
                -2.929852276956055
            ]
        },
        {
            "positions": [
                -1.1035713097770152,
                -1.6629394543357323,
                2.0185711395549237,
                -0.1921746676260454,
                0.2761673012365513,
                -2.9541523435886403
            ]
        },
        {
            "positions": [
                -1.2747849593661709,
                -1.6003914440382523,
                2.017294065803215,
                -0.2717170808858551,
                0.32627377094284116,
                -2.9784524102212253
            ]
        },
        {
            "positions": [
                -1.445998608955326,
                -1.5378434337407727,
                2.016016992051506,
                -0.3512594941456648,
                0.3763802406491309,
                -3.0027524768538107
            ]
        },
        {
            "positions": [
                -1.6172122585444813,
                -1.475295423443293,
                2.0147399182997967,
                -0.4308019074054745,
                0.42648671035542063,
                -3.027052543486396
            ]
        },
        {
            "positions": [
                -1.7884259081336369,
                -1.412747413145813,
                2.013462844548088,
                -0.5103443206652842,
                0.4765931800617105,
                -3.051352610118981
            ]
        },
        {
            "positions": [
                -1.9596395577227925,
                -1.3501994028483333,
                2.0121857707963793,
                -0.5898867339250939,
                0.5266996497680003,
                -3.0756526767515666
            ]
        },
        {
            "positions": [
                -2.1308532073119477,
                -1.2876513925508537,
                2.01090869704467,
                -0.6694291471849034,
                0.57680611947429,
                -3.0999527433841516
            ]
        },
        {
            "positions": [
                -2.3020668569011034,
                -1.225103382253374,
                2.009631623292961,
                -0.7489715604447131,
                0.6269125891805798,
                -3.1242528100167375
            ]
        },
        {
            "positions": [
                -2.473280506490258,
                -1.162555371955894,
                2.0083545495412523,
                -0.828513973704523,
                0.6770190588868696,
                -3.1485528766493225
            ]
        }
    ]
}