{
    "goal": {
        "global_pose": {
            "orientation": {
                "w": 0.5084816217422485,
                "x": -0.49083608388900757,
                "y": 0.5182115435600281,
                "z": -0.4816462993621826
            },
            "position": {
                "x": 0.5540239810943604,
                "y": 0.030875300988554955,
                "z": 0.16403168439865112
            }
        },
        "name": "move_to_storage_A"
    },
    "id": "KPIECE_move_to_storage_A_69",
    "joint_names": [
        "shoulder_pan_joint",
        "shoulder_lift_joint",
        "elbow_joint",
        "wrist_1_joint",
        "wrist_2_joint",
        "wrist_3_joint"
    ],
    "metrics": {
        "cart_traj_len": 0.35271006457401877,
        "distance_elbow_joint": 0.4511432086610856,
        "distance_shoulder_lift_joint": 0.23594044448606755,
        "distance_shoulder_pan_joint": 0.45755409549637066,
        "distance_wrist_1_joint": 0.24409273823327482,
        "distance_wrist_2_joint": 1.1149308903588095,
        "distance_wrist_3_joint": 0.09314942358185085,
        "smoothness": 0.0,
        "time": 0.062507443,
        "traj_len": 1.6114623175294727,
        "weighted_distance": 2.0352231515421706
    },
    "planner": "KPIECE",
    "start": {
        "state": {
            "elbow_joint": 1.971548259319323,
            "shoulder_lift_joint": -1.1394851275133948,
            "shoulder_pan_joint": 0.1228115487234821,
            "wrist_1_joint": -0.7804723859257726,
            "wrist_2_joint": 0.12958671773740124,
            "wrist_3_joint": -3.192489227718131
        }
    },
    "waypoints": [
        {
            "positions": [
                0.1228115487234821,
                -1.1394851275133948,
                1.971548259319323,
                -0.7804723859257726,
                0.12958671773740124,
                -3.192489227718131
            ]
        },
        {
            "positions": [
                0.0574466779382863,
                -1.1731909052971188,
                2.0359972891280496,
                -0.8153427771019547,
                0.28886255921723114,
                -3.179182167206438
            ]
        },
        {
            "positions": [
                -0.007918192846909505,
                -1.2068966830808427,
                2.100446318936776,
                -0.8502131682781369,
                0.4481384006970611,
                -3.1658751066947453
            ]
        },
        {
            "positions": [
                -0.07328306363210532,
                -1.2406024608645667,
                2.1648953487455027,
                -0.8850835594543189,
                0.607414242176891,
                -3.152568046183052
            ]
        },
        {
            "positions": [
                -0.1386479344173011,
                -1.2743082386482905,
                2.229344378554229,
                -0.9199539506305011,
                0.766690083656721,
                -3.1392609856713594
            ]
        },
        {
            "positions": [
                -0.20401280520249693,
                -1.3080140164320144,
                2.2937934083629554,
                -0.9548243418066832,
                0.925965925136551,
                -3.125953925159666
            ]
        },
        {
            "positions": [
                -0.26937767598769274,
                -1.3417197942157384,
                2.358242438171682,
                -0.9896947329828654,
                1.0852417666163807,
                -3.1126468646479735
            ]
        },
        {
            "positions": [
                -0.33474254677288856,
                -1.3754255719994624,
                2.4226914679804086,
                -1.0245651241590474,
                1.2445176080962108,
                -3.0993398041362803
            ]
        }
    ]
}{
    "goal": {
        "global_pose": {
            "orientation": {
                "w": 0.5084816217422485,
                "x": -0.49083608388900757,
                "y": 0.5182115435600281,
                "z": -0.4816462993621826
            },
            "position": {
                "x": 0.5540239810943604,
                "y": 0.030875300988554955,
                "z": 0.16403168439865112
            }
        },
        "name": "move_to_storage_A"
    },
    "id": "KPIECE_move_to_storage_A_69",
    "joint_names": [
        "shoulder_pan_joint",
        "shoulder_lift_joint",
        "elbow_joint",
        "wrist_1_joint",
        "wrist_2_joint",
        "wrist_3_joint"
    ],
    "metrics": {
        "cart_traj_len": 0.35260292818162575,
        "distance_elbow_joint": 0.44996817194245553,
        "distance_shoulder_lift_joint": 0.23544726093901747,
        "distance_shoulder_pan_joint": 0.45972135532524006,
        "distance_wrist_1_joint": 0.24105159824923827,
        "distance_wrist_2_joint": 1.1043221561391545,
        "distance_wrist_3_joint": 0.08907382579631662,
        "smoothness": 4.440892098500626e-16,
        "time": 0.06705407299999999,
        "traj_len": 1.60610845474128,
        "weighted_distance": 2.0256124442677694
    },
    "planner": "KPIECE",
    "start": {
        "state": {
            "elbow_joint": 1.97154746011099,
            "shoulder_lift_joint": -1.13948474672311,
            "shoulder_pan_joint": 0.12281154466712228,
            "wrist_1_joint": -0.7804688027058302,
            "wrist_2_joint": 0.12958655903071145,
            "wrist_3_joint": 3.0906928834467795
        }
    },
    "waypoints": [
        {
            "positions": [
                0.12281154466712228,
                -1.13948474672311,
                1.97154746011099,
                -0.7804688027058302,
                0.12958655903071145,
                3.0906928834467795
            ]
        },
        {
            "positions": [
                0.05713706533494514,
                -1.1731200697143982,
                2.0358286275313406,
                -0.8149047453128643,
                0.28734686705059065,
                3.103417715703396
            ]
        },
        {
            "positions": [
                -0.008537413997231999,
                -1.2067553927056864,
                2.1001097949516914,
                -0.8493406879198983,
                0.4451071750704698,
                3.116142547960013
            ]
        },
        {
            "positions": [
                -0.07421189332940915,
                -1.2403907156969747,
                2.164390962372042,
                -0.8837766305269323,
                0.6028674830903491,
                3.1288673802166294
            ]
        },
        {
            "positions": [
                -0.13988637266158627,
                -1.2740260386882627,
                2.2286721297923933,
                -0.9182125731339663,
                0.7606277911102283,
                3.1415922124732463
            ]
        },
        {
            "positions": [
                -0.20556085199376345,
                -1.307661361679551,
                2.292953297212744,
                -0.9526485157410004,
                0.9183880991301075,
                3.1543170447298627
            ]
        },
        {
            "positions": [
                -0.2712353313259406,
                -1.3412966846708392,
                2.3572344646330947,
                -0.9870844583480344,
                1.0761484071499867,
                3.1670418769864797
            ]
        },
        {
            "positions": [
                -0.33690981065811776,
                -1.3749320076621274,
                2.4215156320534454,
                -1.0215204009550685,
                1.233908715169866,
                3.179766709243096
            ]
        }
    ]
}{
    "goal": {
        "global_pose": {
            "orientation": {
                "w": 0.5084816217422485,
                "x": -0.49083608388900757,
                "y": 0.5182115435600281,
                "z": -0.4816462993621826
            },
            "position": {
                "x": 0.5540239810943604,
                "y": 0.030875300988554955,
                "z": 0.16403168439865112
            }
        },
        "name": "move_to_storage_A"
    },
    "id": "KPIECE_move_to_storage_A_69",
    "joint_names": [
        "shoulder_pan_joint",
        "shoulder_lift_joint",
        "elbow_joint",
        "wrist_1_joint",
        "wrist_2_joint",
        "wrist_3_joint"
    ],
    "metrics": {
        "cart_traj_len": 0.35395604226053373,
        "distance_elbow_joint": 0.453142387873247,
        "distance_shoulder_lift_joint": 0.23262378763340674,
        "distance_shoulder_pan_joint": 0.46068897410063847,
        "distance_wrist_1_joint": 0.2570057845149507,
        "distance_wrist_2_joint": 1.1094115626447076,
        "distance_wrist_3_joint": 0.09408825978784563,
        "smoothness": 9.992007271825419e-16,
        "time": 0.036241718,
        "traj_len": 1.61460854591904,
        "weighted_distance": 2.0399888782270716
    },
    "planner": "KPIECE",
    "start": {
        "state": {
            "elbow_joint": 1.9715472970024885,
            "shoulder_lift_joint": -1.1394870060712896,
            "shoulder_pan_joint": 0.12281152778156021,
            "wrist_1_joint": -0.780463741449964,
            "wrist_2_joint": 0.12958659822042276,
            "wrist_3_joint": 3.090690232415272
        }
    },
    "waypoints": [
        {
            "positions": [
                0.12281152778156021,
                -1.1394870060712896,
                1.9715472970024885,
                -0.780463741449964,
                0.12958659822042276,
                3.090690232415272
            ]
        },
        {
            "positions": [
                0.05699881719575471,
                -1.1727189757332048,
                2.036281923841524,
                -0.8171788535235284,
                0.28807396431252386,
                3.104131412384964
            ]
        },
        {
            "positions": [
                -0.008813893390050787,
                -1.20595094539512,
                2.101016550680559,
                -0.8538939655970927,
                0.446561330404625,
                3.1175725923546564
            ]
        },
        {
            "positions": [
                -0.07462660397585627,
                -1.2391829150570353,
                2.1657511775195943,
                -0.8906090776706571,
                0.605048696496726,
                3.1310137723243487
            ]
        },
        {
            "positions": [
                -0.14043931456166178,
                -1.2724148847189505,
                2.2304858043586298,
                -0.9273241897442215,
                0.7635360625888271,
                3.1444549522940406
            ]
        },
        {
            "positions": [
                -0.2062520251474673,
                -1.305646854380866,
                2.295220431197665,
                -0.964039301817786,
                0.9220234286809282,
                3.157896132263733
            ]
        },
        {
            "positions": [
                -0.2720647357332727,
                -1.3388788240427811,
                2.3599550580367,
                -1.0007544138913502,
                1.0805107947730292,
                3.171337312233425
            ]
        },
        {
            "positions": [
                -0.33787744631907823,
                -1.3721107937046964,
                2.4246896848757356,
                -1.0374695259649147,
                1.2389981608651304,
                3.1847784922031175
            ]
        }
    ]
}