{
    "goal": {
        "global_pose": {
            "orientation": {
                "w": -0.4816463035849501,
                "x": 0.5182115481033762,
                "y": 0.4908360881923453,
                "z": -0.5084816262002911
            },
            "position": {
                "x": -0.8240239810943604,
                "y": -0.300875300988555,
                "z": 0.16403168439865112
            }
        },
        "name": "move_to_storage_C"
    },
    "id": "KPIECE_move_to_storage_C_87",
    "joint_names": [
        "shoulder_pan_joint",
        "shoulder_lift_joint",
        "elbow_joint",
        "wrist_1_joint",
        "wrist_2_joint",
        "wrist_3_joint"
    ],
    "metrics": {
        "cart_traj_len": 0.5769808604527508,
        "distance_elbow_joint": 0.2630411503362158,
        "distance_shoulder_lift_joint": 0.19123033366695852,
        "distance_shoulder_pan_joint": 0.4925066555656752,
        "distance_wrist_1_joint": 0.0893102541069194,
        "distance_wrist_2_joint": 1.0808135708210962,
        "distance_wrist_3_joint": 0.06295701312943569,
        "smoothness": 2.5376526478085547e-16,
        "time": 0.011708402,
        "traj_len": 1.476434549049263,
        "weighted_distance": 1.864375720935345
    },
    "planner": "KPIECE",
    "start": {
        "state": {
            "elbow_joint": 2.010868314990456,
            "shoulder_lift_joint": -1.1634956873337592,
            "shoulder_pan_joint": -2.4736205022346125,
            "wrist_1_joint": -0.8367026794202681,
            "wrist_2_joint": 0.6746043897044499,
            "wrist_3_joint": -3.1496632123970403
        }
    },
    "waypoints": [
        {
            "positions": [
                -2.4736205022346125,
                -1.1634956873337592,
                2.010868314990456,
                -0.8367026794202681,
                0.6746043897044499,
                -3.1496632123970403
            ]
        },
        {
            "positions": [
                -2.5557049448288915,
                -1.1316239650559328,
                1.9670281232677531,
                -0.8218176370691148,
                0.8547399848412993,
                -3.1391703768754677
            ]
        },
        {
            "positions": [
                -2.637789387423171,
                -1.0997522427781063,
                1.9231879315450506,
                -0.8069325947179616,
                1.0348755799781486,
                -3.128677541353895
            ]
        },
        {
            "positions": [
                -2.71987383001745,
                -1.06788052050028,
                1.879347739822348,
                -0.7920475523668085,
                1.2150111751149981,
                -3.1181847058323227
            ]
        },
        {
            "positions": [
                -2.801958272611729,
                -1.0360087982224535,
                1.8355075480996452,
                -0.7771625100156552,
                1.3951467702518472,
                -3.1076918703107497
            ]
        },
        {
            "positions": [
                -2.8840427152060086,
                -1.004137075944627,
                1.7916673563769427,
                -0.7622774676645019,
                1.5752823653886967,
                -3.097199034789177
            ]
        },
        {
            "positions": [
                -2.9661271578002877,
                -0.9722653536668007,
                1.74782716465424,
                -0.7473924253133487,
                1.7554179605255462,
                -3.0867061992676046
            ]
        }
    ]
}