{
    "goal": {
        "global_pose": {
            "orientation": {
                "w": 0.5084816262002911,
                "x": -0.4908360881923452,
                "y": 0.5182115481033761,
                "z": -0.48164630358495003
            },
            "position": {
                "x": 0.5540239810943604,
                "y": -0.46912469901144505,
                "z": 0.16403168439865112
            }
        },
        "name": "move_to_storage_B"
    },
    "id": "KPIECE_move_to_storage_B_94",
    "joint_names": [
        "shoulder_pan_joint",
        "shoulder_lift_joint",
        "elbow_joint",
        "wrist_1_joint",
        "wrist_2_joint",
        "wrist_3_joint"
    ],
    "metrics": {
        "cart_traj_len": 2.459013222565752,
        "distance_elbow_joint": 0.4411105834689,
        "distance_shoulder_lift_joint": 2.2646756040173566,
        "distance_shoulder_pan_joint": 2.2544114298544553,
        "distance_wrist_1_joint": 2.978773509338198,
        "distance_wrist_2_joint": 2.704324320513372,
        "distance_wrist_3_joint": 3.1323537656149254,
        "smoothness": 0.26466921065799826,
        "time": 0.061766562000000004,
        "traj_len": 3.7115561713124063,
        "weighted_distance": 5.07182950954472
    },
    "planner": "KPIECE",
    "start": {
        "state": {
            "elbow_joint": 1.664937868594044,
            "shoulder_lift_joint": -0.661644460510453,
            "shoulder_pan_joint": -0.9139846352900073,
            "wrist_1_joint": 2.146753192139373,
            "wrist_2_joint": -2.2341966793290973,
            "wrist_3_joint": 0.005466555786416001
        }
    },
    "waypoints": [
        {
            "positions": [
                -0.9139846352900073,
                -0.661644460510453,
                1.664937868594044,
                2.146753192139373,
                -2.2341966793290973,
                0.005466555786416001
            ]
        },
        {
            "positions": [
                -0.8621508861300949,
                -0.7297059408131311,
                1.684640725599253,
                2.070212352456189,
                -2.1247007705106125,
                0.0627616819389266
            ]
        },
        {
            "positions": [
                -0.8103171369701826,
                -0.7977674211158092,
                1.7043435826044622,
                1.9936715127730045,
                -2.0152048616921276,
                0.1200568080914372
            ]
        },
        {
            "positions": [
                -0.7584833878102702,
                -0.8658289014184873,
                1.7240464396096713,
                1.91713067308982,
                -1.905708952873643,
                0.1773519342439478
            ]
        },
        {
            "positions": [
                -0.7066496386503579,
                -0.9338903817211655,
                1.7437492966148804,
                1.8405898334066357,
                -1.7962130440551585,
                0.2346470603964584
            ]
        },
        {
            "positions": [
                -0.6548158894904456,
                -1.0019518620238437,
                1.7634521536200896,
                1.7640489937234514,
                -1.6867171352366737,
                0.29194218654896903
            ]
        },
        {
            "positions": [
                -0.6029821403305332,
                -1.0700133423265217,
                1.783155010625299,
                1.687508154040267,
                -1.5772212264181888,
                0.3492373127014796
            ]
        },
        {
            "positions": [
                -0.5511483911706209,
                -1.1380748226292,
                1.802857867630508,
                1.6109673143570826,
                -1.4677253175997043,
                0.4065324388539902
            ]
        },
        {
            "positions": [
                -0.4993146420107085,
                -1.2061363029318781,
                1.8225607246357172,
                1.5344264746738983,
                -1.3582294087812194,
                0.46382756500650085
            ]
        },
        {
            "positions": [
                -0.4474808928507962,
                -1.2741977832345561,
                1.8422635816409263,
                1.4578856349907139,
                -1.2487334999627349,
                0.5211226911590114
            ]
        },
        {
            "positions": [
                -0.39564714369088383,
                -1.3422592635372341,
                1.8619664386461354,
                1.3813447953075295,
                -1.13923759114425,
                0.578417817311522
            ]
        },
        {
            "positions": [
                -0.3438133945309715,
                -1.4103207438399123,
                1.8816692956513446,
                1.304803955624345,
                -1.0297416823257652,
                0.6357129434640326
            ]
        },
        {
            "positions": [
                -0.29197964537105914,
                -1.4783822241425906,
                1.9013721526565537,
                1.2282631159411608,
                -0.9202457735072807,
                0.6930080696165432
            ]
        },
        {
            "positions": [
                -0.2401458962111468,
                -1.5464437044452688,
                1.9210750096617628,
                1.1517222762579762,
                -0.8107498646887958,
                0.7503031957690538
            ]
        },
        {
            "positions": [
                -0.18831214705123445,
                -1.6145051847479466,
                1.940777866666972,
                1.075181436574792,
                -0.7012539558703113,
                0.8075983219215643
            ]
        },
        {
            "positions": [
                -0.1364783978913221,
                -1.6825666650506248,
                1.9604807236721813,
                0.9986405968916074,
                -0.5917580470518264,
                0.864893448074075
            ]
        },
        {
            "positions": [
                -0.08464464873140976,
                -1.750628145353303,
                1.9801835806773904,
                0.9220997572084231,
                -0.48226213823334163,
                0.9221885742265856
            ]
        },
        {
            "positions": [
                -0.03281089957149741,
                -1.818689625655981,
                1.9998864376825995,
                0.8455589175252387,
                -0.37276622941485704,
                0.9794837003790962
            ]
        },
        {
            "positions": [
                0.019022849588414936,
                -1.8867511059586592,
                2.0195892946878087,
                0.7690180778420543,
                -0.26327032059637223,
                1.036778826531607
            ]
        },
        {
            "positions": [
                0.07085659874832728,
                -1.9548125862613372,
                2.039292151693018,
                0.69247723815887,
                -0.15377441177788764,
                1.0940739526841172
            ]
        },
        {
            "positions": [
                0.12269034790823954,
                -2.0228740665640155,
                2.058995008698227,
                0.6159363984756856,
                -0.04427850295940271,
                1.151369078836628
            ]
        },
        {
            "positions": [
                0.04658181999222652,
                -1.9664086916912784,
                2.056054168487932,
                0.5254391037460286,
                -0.012128118950423032,
                1.2755222814969225
            ]
        },
        {
            "positions": [
                -0.029526707923786505,
                -1.9099433168185411,
                2.0531133282776373,
                0.43494180901637164,
                0.020022265058556643,
                1.3996754841572172
            ]
        },
        {
            "positions": [
                -0.10563523583979953,
                -1.853477941945804,
                2.0501724880673424,
                0.34444451428671463,
                0.05217264906753631,
                1.5238286868175117
            ]
        },
        {
            "positions": [
                -0.18174376375581255,
                -1.797012567073067,
                2.0472316478570476,
                0.2539472195570577,
                0.084323033076516,
                1.6479818894778064
            ]
        },
        {
            "positions": [
                -0.25785229167182555,
                -1.7405471922003297,
                2.0442908076467528,
                0.16344992482740073,
                0.11647341708549568,
                1.772135092138101
            ]
        },
        {
            "positions": [
                -0.33396081958783863,
                -1.6840818173275927,
                2.041349967436458,
                0.07295263009774366,
                0.14862380109447532,
                1.8962882947983957
            ]
        },
        {
            "positions": [
                -0.4100693475038517,
                -1.6276164424548556,
                2.038409127226163,
                -0.017544664631913287,
                0.180774185103455,
                2.02044149745869
            ]
        },
        {
            "positions": [
                -0.4861778754198647,
                -1.5711510675821185,
                2.0354682870158687,
                -0.10804195936157024,
                0.21292456911243468,
                2.1445947001189847
            ]
        },
        {
            "positions": [
                -0.5622864033358776,
                -1.5146856927093812,
                2.032527446805574,
                -0.1985392540912272,
                0.24507495312141436,
                2.268747902779279
            ]
        },
        {
            "positions": [
                -0.6383949312518907,
                -1.4582203178366442,
                2.029586606595279,
                -0.28903654882088414,
                0.27722533713039405,
                2.3929011054395737
            ]
        },
        {
            "positions": [
                -0.7145034591679038,
                -1.401754942963907,
                2.026645766384984,
                -0.3795338435505412,
                0.3093757211393737,
                2.5170543080998686
            ]
        },
        {
            "positions": [
                -0.7906119870839168,
                -1.3452895680911698,
                2.0237049261746893,
                -0.47003113828019827,
                0.34152610514835335,
                2.641207510760163
            ]
        },
        {
            "positions": [
                -0.8667205149999297,
                -1.2888241932184328,
                2.0207640859643945,
                -0.5605284330098552,
                0.37367648915733304,
                2.765360713420458
            ]
        },
        {
            "positions": [
                -0.9428290429159429,
                -1.2323588183456957,
                2.0178232457540997,
                -0.6510257277395122,
                0.4058268731663127,
                2.8895139160807526
            ]
        },
        {
            "positions": [
                -1.018937570831956,
                -1.1758934434729587,
                2.014882405543805,
                -0.7415230224691691,
                0.4379772571752924,
                3.013667118741047
            ]
        },
        {
            "positions": [
                -1.0950460987479689,
                -1.1194280686002214,
                2.01194156533351,
                -0.8320203171988262,
                0.47012764118427214,
                3.1378203214013416
            ]
        }
    ]
}