{
    "goal": {
        "global_pose": {
            "orientation": {
                "w": 0.7047431493862688,
                "x": -0.7094548369677653,
                "y": 0.0024358444001904,
                "z": -0.0022348060817251984
            },
            "position": {
                "x": -0.39052492380142206,
                "y": 0.3671506643295288,
                "z": 0.19426114857196808
            }
        },
        "name": "move_to_magneteinheit_D"
    },
    "id": "KPIECE_move_to_magneteinheit_D_79",
    "joint_names": [
        "shoulder_pan_joint",
        "shoulder_lift_joint",
        "elbow_joint",
        "wrist_1_joint",
        "wrist_2_joint",
        "wrist_3_joint"
    ],
    "metrics": {
        "cart_traj_len": 6.188795005354432,
        "distance_elbow_joint": 5.438014380804175,
        "distance_shoulder_lift_joint": 1.3897185050928007,
        "distance_shoulder_pan_joint": 5.849370253405079,
        "distance_wrist_1_joint": 3.122666588215125,
        "distance_wrist_2_joint": 1.8257285362474875,
        "distance_wrist_3_joint": 3.82741379367979,
        "smoothness": 0.5405338636133451,
        "time": 0.204055571,
        "traj_len": 4.63172884109643,
        "weighted_distance": 5.835763426430741
    },
    "planner": "KPIECE",
    "start": {
        "state": {
            "elbow_joint": 0.749534889911806,
            "shoulder_lift_joint": -0.6476975780787326,
            "shoulder_pan_joint": -2.711696901376241,
            "wrist_1_joint": -0.07506478083263063,
            "wrist_2_joint": 0.43296659715538205,
            "wrist_3_joint": -3.14703540197715
        }
    },
    "waypoints": [
        {
            "positions": [
                -2.711696901376241,
                -0.6476975780787326,
                0.749534889911806,
                -0.07506478083263063,
                0.43296659715538205,
                -3.14703540197715
            ]
        },
        {
            "positions": [
                -2.7233071199632866,
                -0.6935559366115214,
                0.8300369391475217,
                -0.04144467686512311,
                0.4346270480080246,
                -3.0293948045493875
            ]
        },
        {
            "positions": [
                -2.7131251296980343,
                -0.7605466492193709,
                0.9290873783078396,
                -0.0010703849283371647,
                0.4232926152588479,
                -2.8631824440413496
            ]
        },
        {
            "positions": [
                -2.702943139432782,
                -0.8275373618272203,
                1.0281378174681575,
                0.03930390700844878,
                0.4119581825096712,
                -2.6969700835333117
            ]
        },
        {
            "positions": [
                -2.6927611491675303,
                -0.8945280744350698,
                1.1271882566284752,
                0.07967819894523473,
                0.40062374976049453,
                -2.530757723025274
            ]
        },
        {
            "positions": [
                -2.682579158902278,
                -0.9615187870429192,
                1.2262386957887932,
                0.12005249088202068,
                0.38928931701131786,
                -2.364545362517236
            ]
        },
        {
            "positions": [
                -2.672397168637026,
                -1.0285094996507687,
                1.325289134949111,
                0.16042678281880662,
                0.3779548842621412,
                -2.198333002009198
            ]
        },
        {
            "positions": [
                -2.6622151783717736,
                -1.0955002122586182,
                1.4243395741094287,
                0.20080107475559256,
                0.3666204515129645,
                -2.03212064150116
            ]
        },
        {
            "positions": [
                -2.6520331881065213,
                -1.1624909248664677,
                1.5233900132697467,
                0.24117536669237855,
                0.3552860187637878,
                -1.8659082809931222
            ]
        },
        {
            "positions": [
                -2.641851197841269,
                -1.2294816374743172,
                1.6224404524300644,
                0.2815496586291645,
                0.3439515860146111,
                -1.6996959204850843
            ]
        },
        {
            "positions": [
                -2.6316692075760173,
                -1.2964723500821664,
                1.7214908915903822,
                0.32192395056595047,
                0.3326171532654344,
                -1.5334835599770464
            ]
        },
        {
            "positions": [
                -2.621487217310765,
                -1.363463062690016,
                1.8205413307507001,
                0.36229824250273635,
                0.3212827205162577,
                -1.3672711994690085
            ]
        },
        {
            "positions": [
                -2.611305227045513,
                -1.4304537752978654,
                1.9195917699110179,
                0.40267253443952233,
                0.30994828776708105,
                -1.2010588389609707
            ]
        },
        {
            "positions": [
                -2.47979191466965,
                -1.4454442395250093,
                1.7873072607562472,
                0.33439302595230846,
                0.3296192066998891,
                -1.2228473604285868
            ]
        },
        {
            "positions": [
                -2.348278602293787,
                -1.4604347037521532,
                1.6550227516014764,
                0.2661135174650946,
                0.34929012563269707,
                -1.2446358818962031
            ]
        },
        {
            "positions": [
                -2.2167652899179235,
                -1.4754251679792971,
                1.5227382424467057,
                0.1978340089778807,
                0.3689610445655051,
                -1.2664244033638192
            ]
        },
        {
            "positions": [
                -2.0852519775420606,
                -1.490415632206441,
                1.3904537332919351,
                0.12955450049066686,
                0.3886319634983131,
                -1.2882129248314356
            ]
        },
        {
            "positions": [
                -1.9537386651661977,
                -1.505406096433585,
                1.2581692241371643,
                0.06127499200345299,
                0.4083028824311211,
                -1.3100014462990517
            ]
        },
        {
            "positions": [
                -1.8222253527903345,
                -1.5203965606607288,
                1.1258847149823934,
                -0.007004516483760936,
                0.42797380136392915,
                -1.3317899677666678
            ]
        },
        {
            "positions": [
                -1.6907120404144713,
                -1.5353870248878727,
                0.9936002058276228,
                -0.0752840249709748,
                0.44764472029673713,
                -1.3535784892342841
            ]
        },
        {
            "positions": [
                -1.5591987280386084,
                -1.5503774891150166,
                0.8613156966728521,
                -0.14356353345818862,
                0.46731563922954517,
                -1.3753670107019003
            ]
        },
        {
            "positions": [
                -1.4276854156627452,
                -1.5653679533421605,
                0.7290311875180813,
                -0.2118430419454026,
                0.48698655816235314,
                -1.3971555321695166
            ]
        },
        {
            "positions": [
                -1.2961721032868823,
                -1.5803584175693042,
                0.5967466783633106,
                -0.28012255043261636,
                0.5066574770951612,
                -1.4189440536371327
            ]
        },
        {
            "positions": [
                -1.164658790911019,
                -1.595348881796448,
                0.4644621692085398,
                -0.34840205891983034,
                0.5263283960279692,
                -1.440732575104749
            ]
        },
        {
            "positions": [
                -1.0331454785351561,
                -1.610339346023592,
                0.33217766005376914,
                -0.4166815674070442,
                0.5459993149607771,
                -1.4625210965723652
            ]
        },
        {
            "positions": [
                -0.901632166159293,
                -1.6253298102507359,
                0.19989315089899828,
                -0.4849610758942581,
                0.5656702338935853,
                -1.4843096180399815
            ]
        },
        {
            "positions": [
                -0.77011885378343,
                -1.6403202744778798,
                0.06760864174422765,
                -0.553240584381472,
                0.5853411528263932,
                -1.5060981395075976
            ]
        },
        {
            "positions": [
                -0.6386055414075669,
                -1.6553107387050237,
                -0.06467586741054321,
                -0.6215200928686859,
                0.6050120717592012,
                -1.5278866609752138
            ]
        },
        {
            "positions": [
                -0.5070922290317039,
                -1.6703012029321676,
                -0.19696037656531362,
                -0.6897996013558996,
                0.6246829906920093,
                -1.54967518244283
            ]
        },
        {
            "positions": [
                -0.375578916655841,
                -1.6852916671593114,
                -0.32924488572008426,
                -0.7580791098431134,
                0.6443539096248172,
                -1.5714637039104462
            ]
        },
        {
            "positions": [
                -0.2440656042799776,
                -1.7002821313864553,
                -0.46152939487485534,
                -0.8263586183303275,
                0.6640248285576253,
                -1.5932522253780625
            ]
        },
        {
            "positions": [
                -0.11255229190411464,
                -1.7152725956135992,
                -0.593813904029626,
                -0.8946381268175414,
                0.6836957474904333,
                -1.6150407468456787
            ]
        },
        {
            "positions": [
                0.018961020471748302,
                -1.7302630598407431,
                -0.7260984131843966,
                -0.962917635304755,
                0.7033666664232413,
                -1.6368292683132948
            ]
        },
        {
            "positions": [
                0.15047433284761125,
                -1.7452535240678868,
                -0.8583829223391672,
                -1.031197143791969,
                0.7230375853560493,
                -1.6586177897809111
            ]
        },
        {
            "positions": [
                0.28198764522347464,
                -1.760243988295031,
                -0.9906674314939383,
                -1.099476652279183,
                0.7427085042888574,
                -1.6804063112485272
            ]
        },
        {
            "positions": [
                0.4135009575993376,
                -1.7752344525221746,
                -1.122951940648709,
                -1.1677561607663969,
                0.7623794232216654,
                -1.7021948327161436
            ]
        },
        {
            "positions": [
                0.5450142699752005,
                -1.7902249167493185,
                -1.2552364498034796,
                -1.2360356692536107,
                0.7820503421544733,
                -1.7239833541837597
            ]
        },
        {
            "positions": [
                0.6765275823510635,
                -1.8052153809764624,
                -1.3875209589582502,
                -1.3043151777408244,
                0.8017212610872814,
                -1.7457718756513758
            ]
        },
        {
            "positions": [
                0.8080408947269269,
                -1.8202058452036063,
                -1.5198054681130213,
                -1.3725946862280385,
                0.8213921800200894,
                -1.7675603971189922
            ]
        },
        {
            "positions": [
                0.9395542071027898,
                -1.8351963094307502,
                -1.652089977267792,
                -1.4408741947152524,
                0.8410630989528974,
                -1.7893489185866085
            ]
        },
        {
            "positions": [
                1.0710675194786528,
                -1.850186773657894,
                -1.7843744864225626,
                -1.5091537032024662,
                0.8607340178857054,
                -1.8111374400542246
            ]
        },
        {
            "positions": [
                1.2025808318545157,
                -1.865177237885038,
                -1.9166589955773332,
                -1.5774332116896799,
                0.8804049368185134,
                -1.8329259615218407
            ]
        },
        {
            "positions": [
                1.334094144230379,
                -1.8801677021121819,
                -2.0489435047321045,
                -1.6457127201768942,
                0.9000758557513214,
                -1.8547144829894568
            ]
        },
        {
            "positions": [
                1.465607456606242,
                -1.8951581663393258,
                -2.1812280138868747,
                -1.713992228664108,
                0.9197467746841295,
                -1.8765030044570732
            ]
        },
        {
            "positions": [
                1.3387731905871263,
                -1.8842152496599252,
                -2.1940847613489574,
                -1.7546279601902113,
                0.8359320948197562,
                -1.9692717017776507
            ]
        },
        {
            "positions": [
                1.2119389245680106,
                -1.8732723329805245,
                -2.2069415088110396,
                -1.7952636917163147,
                0.7521174149553828,
                -2.0620403990982283
            ]
        },
        {
            "positions": [
                1.0851046585488946,
                -1.862329416301124,
                -2.219798256273122,
                -1.835899423242418,
                0.6683027350910093,
                -2.1548090964188056
            ]
        },
        {
            "positions": [
                0.9582703925297789,
                -1.8513864996217235,
                -2.2326550037352044,
                -1.8765351547685212,
                0.584488055226636,
                -2.2475777937393833
            ]
        },
        {
            "positions": [
                0.831436126510663,
                -1.840443582942323,
                -2.245511751197287,
                -1.9171708862946244,
                0.5006733753622628,
                -2.340346491059961
            ]
        },
        {
            "positions": [
                0.7046018604915473,
                -1.8295006662629223,
                -2.2583684986593697,
                -1.9578066178207276,
                0.41685869549788934,
                -2.433115188380538
            ]
        },
        {
            "positions": [
                0.5777675944724315,
                -1.8185577495835217,
                -2.271225246121452,
                -1.9984423493468308,
                0.33304401563351604,
                -2.5258838857011154
            ]
        },
        {
            "positions": [
                0.4509333284533157,
                -1.807614832904121,
                -2.2840819935835346,
                -2.039078080872934,
                0.24922933576914263,
                -2.618652583021693
            ]
        },
        {
            "positions": [
                0.32409906243419995,
                -1.7966719162247204,
                -2.2969387410456172,
                -2.0797138123990377,
                0.16541465590476934,
                -2.711421280342271
            ]
        },
        {
            "positions": [
                0.197264796415084,
                -1.78572899954532,
                -2.3097954885076994,
                -2.120349543925141,
                0.08159997604039593,
                -2.8041899776628485
            ]
        },
        {
            "positions": [
                0.07043053039596847,
                -1.7747860828659194,
                -2.322652235969782,
                -2.160985275451244,
                -0.002214703823977371,
                -2.8969586749834257
            ]
        },
        {
            "positions": [
                -0.05640373562314749,
                -1.7638431661865188,
                -2.3355089834318643,
                -2.2016210069773474,
                -0.08602938368835078,
                -2.989727372304003
            ]
        },
        {
            "positions": [
                -0.18323800164226328,
                -1.7529002495071182,
                -2.348365730893947,
                -2.2422567385034506,
                -0.16984406355272397,
                -3.0824960696245807
            ]
        }
    ]
}