{
    "goal": {
        "global_pose": {
            "orientation": {
                "w": 0.005598929693374612,
                "x": 0.007748599140229565,
                "y": 0.7110244013736278,
                "z": -0.7031023480610252
            },
            "position": {
                "x": 0.1141497679147869,
                "y": -0.7141253447532654,
                "z": 0.3711530566215515
            }
        },
        "name": "move_to_auspresseinheit_B"
    },
    "id": "KPIECE_move_to_auspresseinheit_B_123",
    "joint_names": [
        "shoulder_pan_joint",
        "shoulder_lift_joint",
        "elbow_joint",
        "wrist_1_joint",
        "wrist_2_joint",
        "wrist_3_joint"
    ],
    "metrics": {
        "cart_traj_len": 0.5637548495480724,
        "distance_elbow_joint": 0.06436549907054201,
        "distance_shoulder_lift_joint": 0.2937027749651926,
        "distance_shoulder_pan_joint": 0.5765509958910275,
        "distance_wrist_1_joint": 0.33656117877480685,
        "distance_wrist_2_joint": 0.9922428144548097,
        "distance_wrist_3_joint": 0.0030063220415734726,
        "smoothness": 0.0,
        "time": 0.117294037,
        "traj_len": 1.5054665672800418,
        "weighted_distance": 1.8976949761515194
    },
    "planner": "KPIECE",
    "start": {
        "state": {
            "elbow_joint": 2.0193083361928714,
            "shoulder_lift_joint": -1.1220246554650708,
            "shoulder_pan_joint": -1.0952077554168747,
            "wrist_1_joint": -0.8559753972642168,
            "wrist_2_joint": 0.4759566250798843,
            "wrist_3_joint": -3.1240929996934557
        }
    },
    "waypoints": [
        {
            "positions": [
                -1.0952077554168747,
                -1.1220246554650708,
                2.0193083361928714,
                -0.8559753972642168,
                0.4759566250798843,
                -3.1240929996934557
            ]
        },
        {
            "positions": [
                -1.1912995880653792,
                -1.1709751179592696,
                2.008580753014448,
                -0.7998818674684156,
                0.6413304274890193,
                -3.1245940533670513
            ]
        },
        {
            "positions": [
                -1.287391420713884,
                -1.2199255804534683,
                1.997853169836024,
                -0.7437883376726145,
                0.8067042298981542,
                -3.125095107040647
            ]
        },
        {
            "positions": [
                -1.3834832533623884,
                -1.268876042947667,
                1.9871255866576005,
                -0.6876948078768134,
                0.9720780323072891,
                -3.1255961607142426
            ]
        },
        {
            "positions": [
                -1.479575086010893,
                -1.3178265054418659,
                1.9763980034791768,
                -0.6316012780810123,
                1.137451834716424,
                -3.126097214387838
            ]
        },
        {
            "positions": [
                -1.5756669186593977,
                -1.3667769679360646,
                1.9656704203007531,
                -0.5755077482852111,
                1.302825637125559,
                -3.1265982680614335
            ]
        },
        {
            "positions": [
                -1.6717587513079022,
                -1.4157274304302634,
                1.9549428371223294,
                -0.5194142184894099,
                1.468199439534694,
                -3.127099321735029
            ]
        }
    ]
}