{
    "goal": {
        "global_pose": {
            "orientation": {
                "w": 0.005598929693374612,
                "x": 0.007748599140229565,
                "y": 0.7110244013736278,
                "z": -0.7031023480610252
            },
            "position": {
                "x": 0.1141497679147869,
                "y": -0.7141253447532654,
                "z": 0.3711530566215515
            }
        },
        "name": "move_to_auspresseinheit_B"
    },
    "id": "KPIECE_move_to_auspresseinheit_B_61",
    "joint_names": [
        "shoulder_pan_joint",
        "shoulder_lift_joint",
        "elbow_joint",
        "wrist_1_joint",
        "wrist_2_joint",
        "wrist_3_joint"
    ],
    "metrics": {
        "cart_traj_len": 0.5637330706995672,
        "distance_elbow_joint": 0.06036937437526846,
        "distance_shoulder_lift_joint": 0.2958926096549721,
        "distance_shoulder_pan_joint": 0.5761929325188249,
        "distance_wrist_1_joint": 0.32236889342769104,
        "distance_wrist_2_joint": 0.9937136675847287,
        "distance_wrist_3_joint": 0.0066432643904312805,
        "smoothness": 7.612957943425664e-16,
        "time": 0.252122756,
        "traj_len": 1.5017259210494824,
        "weighted_distance": 1.8932907414724232
    },
    "planner": "KPIECE",
    "start": {
        "state": {
            "elbow_joint": 2.0193083361928714,
            "shoulder_lift_joint": -1.1220246554650708,
            "shoulder_pan_joint": -1.0952077554168747,
            "wrist_1_joint": -0.8559753972642168,
            "wrist_2_joint": 0.4759566250798843,
            "wrist_3_joint": -3.1240929996934557
        }
    },
    "waypoints": [
        {
            "positions": [
                -1.0952077554168747,
                -1.1220246554650708,
                2.0193083361928714,
                -0.8559753972642168,
                0.4759566250798843,
                -3.1240929996934557
            ]
        },
        {
            "positions": [
                -1.191239910836679,
                -1.1713400904075661,
                2.0092467737969932,
                -0.8022472483596016,
                0.6415755696773391,
                -3.122985788961717
            ]
        },
        {
            "positions": [
                -1.287272066256483,
                -1.2206555253500615,
                1.9991852114011153,
                -0.7485190994549864,
                0.8071945142747938,
                -3.1218785782299787
            ]
        },
        {
            "positions": [
                -1.383304221676287,
                -1.2699709602925568,
                1.9891236490052373,
                -0.6947909505503713,
                0.9728134588722486,
                -3.1207713674982402
            ]
        },
        {
            "positions": [
                -1.4793363770960912,
                -1.3192863952350522,
                1.9790620866093591,
                -0.6410628016457561,
                1.1384324034697033,
                -3.1196641567665013
            ]
        },
        {
            "positions": [
                -1.5753685325158955,
                -1.3686018301775476,
                1.969000524213481,
                -0.5873346527411409,
                1.3040513480671583,
                -3.118556946034763
            ]
        },
        {
            "positions": [
                -1.6714006879356995,
                -1.417917265120043,
                1.958938961817603,
                -0.5336065038365257,
                1.469670292664613,
                -3.1174497353030244
            ]
        }
    ]
}