{
    "goal": {
        "global_pose": {
            "orientation": {
                "w": -0.4816463035849501,
                "x": 0.5182115481033762,
                "y": 0.4908360881923453,
                "z": -0.5084816262002911
            },
            "position": {
                "x": -0.8240239810943604,
                "y": 0.19912469901144506,
                "z": 0.16403168439865112
            }
        },
        "name": "move_to_storage_D"
    },
    "id": "KPIECE_move_to_storage_D_125",
    "joint_names": [
        "shoulder_pan_joint",
        "shoulder_lift_joint",
        "elbow_joint",
        "wrist_1_joint",
        "wrist_2_joint",
        "wrist_3_joint"
    ],
    "metrics": {
        "cart_traj_len": 4.091740782586314,
        "distance_elbow_joint": 4.209585016300807,
        "distance_shoulder_lift_joint": 1.264832595415559,
        "distance_shoulder_pan_joint": 2.812346609779903,
        "distance_wrist_1_joint": 2.5305507207021645,
        "distance_wrist_2_joint": 0.8729953037818831,
        "distance_wrist_3_joint": 5.536452966732622,
        "smoothness": 0.27031216485660625,
        "time": 0.087203504,
        "traj_len": 4.150513608303549,
        "weighted_distance": 5.630560822037377
    },
    "planner": "KPIECE",
    "start": {
        "state": {
            "elbow_joint": -2.384821988534728,
            "shoulder_lift_joint": -2.2788054721415256,
            "shoulder_pan_joint": -0.1854694642142757,
            "wrist_1_joint": 1.4845938289331202,
            "wrist_2_joint": 0.17898776772866878,
            "wrist_3_joint": 0.037105688729662994
        }
    },
    "waypoints": [
        {
            "positions": [
                -0.1854694642142757,
                -2.2788054721415256,
                -2.384821988534728,
                1.4845938289331202,
                0.17898776772866878,
                0.037105688729662994
            ]
        },
        {
            "positions": [
                -0.03320086168428127,
                -2.2460148456112012,
                -2.369530049250188,
                1.499056963112344,
                0.21242719473075966,
                0.17066459255525657
            ]
        },
        {
            "positions": [
                0.11906774084571317,
                -2.213224219080877,
                -2.3542381099656486,
                1.5135200972915677,
                0.2458666217328505,
                0.3042234963808501
            ]
        },
        {
            "positions": [
                0.27133634337570756,
                -2.180433592550552,
                -2.3389461706811088,
                1.5279832314707915,
                0.27930604873494136,
                0.43778240020644366
            ]
        },
        {
            "positions": [
                0.4236049459057021,
                -2.1476429660202276,
                -2.3236542313965693,
                1.5424463656500151,
                0.31274547573703226,
                0.5713413040320373
            ]
        },
        {
            "positions": [
                0.5758735484356965,
                -2.1148523394899033,
                -2.3083622921120295,
                1.556909499829239,
                0.34618490273912317,
                0.7049002078576309
            ]
        },
        {
            "positions": [
                0.7281421509656909,
                -2.082061712959579,
                -2.29307035282749,
                1.5713726340084626,
                0.37962432974121396,
                0.8384591116832244
            ]
        },
        {
            "positions": [
                0.8804107534956854,
                -2.049271086429254,
                -2.27777841354295,
                1.5858357681876865,
                0.41306375674330487,
                0.9720180155088181
            ]
        },
        {
            "positions": [
                1.0326793560256797,
                -2.0164804598989297,
                -2.2624864742584108,
                1.60029890236691,
                0.44650318374539566,
                1.1055769193344116
            ]
        },
        {
            "positions": [
                1.1849479585556741,
                -1.9836898333686053,
                -2.247194534973871,
                1.614762036546134,
                0.47994261074748656,
                1.2391358231600051
            ]
        },
        {
            "positions": [
                1.2261459353273871,
                -1.9559836346073871,
                -2.130852890324158,
                1.546179679029301,
                0.49628662391214556,
                1.1152951708085115
            ]
        },
        {
            "positions": [
                1.2673439120991001,
                -1.9282774358461687,
                -2.014511245674445,
                1.4775973215124683,
                0.5126306370768046,
                0.9914545184570177
            ]
        },
        {
            "positions": [
                1.308541888870813,
                -1.9005712370849506,
                -1.8981696010247324,
                1.4090149639956353,
                0.5289746502414636,
                0.8676138661055239
            ]
        },
        {
            "positions": [
                1.349739865642526,
                -1.8728650383237322,
                -1.7818279563750195,
                1.3404326064788024,
                0.5453186634061226,
                0.7437732137540303
            ]
        },
        {
            "positions": [
                1.390937842414239,
                -1.845158839562514,
                -1.6654863117253065,
                1.2718502489619696,
                0.5616626765707816,
                0.6199325614025365
            ]
        },
        {
            "positions": [
                1.432135819185952,
                -1.8174526408012959,
                -1.5491446670755937,
                1.2032678914451367,
                0.5780066897354406,
                0.49609190905104283
            ]
        },
        {
            "positions": [
                1.473333795957665,
                -1.7897464420400775,
                -1.432803022425881,
                1.1346855339283037,
                0.5943507029000996,
                0.37225125669954906
            ]
        },
        {
            "positions": [
                1.5145317727293777,
                -1.7620402432788593,
                -1.316461377776168,
                1.0661031764114708,
                0.6106947160647587,
                0.2484106043480554
            ]
        },
        {
            "positions": [
                1.5557297495010907,
                -1.7343340445176412,
                -1.2001197331264553,
                0.9975208188946381,
                0.6270387292294176,
                0.12456995199656173
            ]
        },
        {
            "positions": [
                1.5969277262728037,
                -1.7066278457564228,
                -1.0837780884767423,
                0.9289384613778052,
                0.6433827423940767,
                0.0007292996450678491
            ]
        },
        {
            "positions": [
                1.6381257030445167,
                -1.6789216469952046,
                -0.9674364438270295,
                0.8603561038609723,
                0.6597267555587356,
                -0.12311135270642581
            ]
        },
        {
            "positions": [
                1.6793236798162297,
                -1.6512154482339862,
                -0.8510947991773166,
                0.7917737463441393,
                0.6760707687233947,
                -0.24695200505791948
            ]
        },
        {
            "positions": [
                1.7205216565879424,
                -1.623509249472768,
                -0.7347531545276036,
                0.7231913888273065,
                0.6924147818880537,
                -0.37079265740941336
            ]
        },
        {
            "positions": [
                1.7617196333596556,
                -1.5958030507115497,
                -0.6184115098778908,
                0.6546090313104735,
                0.7087587950527127,
                -0.494633309760907
            ]
        },
        {
            "positions": [
                1.8029176101313684,
                -1.5680968519503315,
                -0.5020698652281781,
                0.5860266737936408,
                0.7251028082173716,
                -0.6184739621124007
            ]
        },
        {
            "positions": [
                1.8441155869030812,
                -1.5403906531891134,
                -0.3857282205784651,
                0.5174443162768079,
                0.7414468213820307,
                -0.7423146144638944
            ]
        },
        {
            "positions": [
                1.8853135636747944,
                -1.512684454427895,
                -0.26938657592875237,
                0.4488619587599749,
                0.7577908345466897,
                -0.866155266815388
            ]
        },
        {
            "positions": [
                1.9265115404465072,
                -1.4849782556666768,
                -0.15304493127903962,
                0.3802796012431422,
                0.7741348477113487,
                -0.9899959191668817
            ]
        },
        {
            "positions": [
                1.9677095172182202,
                -1.4572720569054587,
                -0.03670328662932665,
                0.31169724372630925,
                0.7904788608760076,
                -1.1138365715183753
            ]
        },
        {
            "positions": [
                2.008907493989933,
                -1.4295658581442403,
                0.07963835802038632,
                0.24311488620947652,
                0.8068228740406667,
                -1.2376772238698694
            ]
        },
        {
            "positions": [
                2.050105470761646,
                -1.401859659383022,
                0.19598000267009885,
                0.17453252869264357,
                0.8231668872053257,
                -1.361517876221363
            ]
        },
        {
            "positions": [
                2.091303447533359,
                -1.374153460621804,
                0.3123216473198118,
                0.10595017117581063,
                0.8395109003699848,
                -1.4853585285728568
            ]
        },
        {
            "positions": [
                2.132501424305072,
                -1.3464472618605856,
                0.4286632919695248,
                0.03736781365897768,
                0.8558549135346437,
                -1.6091991809243504
            ]
        },
        {
            "positions": [
                2.173699401076785,
                -1.3187410630993672,
                0.5450049366192378,
                -0.03121454385785527,
                0.8721989266993027,
                -1.733039833275844
            ]
        },
        {
            "positions": [
                2.214897377848498,
                -1.291034864338149,
                0.6613465812689507,
                -0.099796901374688,
                0.8885429398639617,
                -1.8568804856273382
            ]
        },
        {
            "positions": [
                2.2560953546202107,
                -1.263328665576931,
                0.7776882259186637,
                -0.16837925889152094,
                0.9048869530286208,
                -1.9807211379788319
            ]
        },
        {
            "positions": [
                2.297293331391924,
                -1.2356224668157125,
                0.8940298705683762,
                -0.2369616164083539,
                0.9212309661932798,
                -2.1045617903303255
            ]
        },
        {
            "positions": [
                2.338491308163637,
                -1.2079162680544941,
                1.0103715152180892,
                -0.30554397392518684,
                0.9375749793579388,
                -2.228402442681819
            ]
        },
        {
            "positions": [
                2.37968928493535,
                -1.180210069293276,
                1.1267131598678022,
                -0.37412633144201957,
                0.9539189925225978,
                -2.3522430950333133
            ]
        },
        {
            "positions": [
                2.4208872617070627,
                -1.1525038705320578,
                1.2430548045175147,
                -0.4427086889588523,
                0.9702630056872568,
                -2.4760837473848065
            ]
        },
        {
            "positions": [
                2.4620852384787755,
                -1.1247976717708397,
                1.3593964491672277,
                -0.511291046475685,
                0.9866070188519158,
                -2.5999243997363
            ]
        },
        {
            "positions": [
                2.5032832152504882,
                -1.0970914730096215,
                1.4757380938169407,
                -0.5798734039925182,
                1.0029510320165747,
                -2.723765052087794
            ]
        },
        {
            "positions": [
                2.5444811920222015,
                -1.0693852742484031,
                1.5920797384666532,
                -0.6484557615093509,
                1.019295045181234,
                -2.847605704439288
            ]
        },
        {
            "positions": [
                2.5856791687939147,
                -1.0416790754871847,
                1.7084213831163662,
                -0.7170381190261841,
                1.0356390583458928,
                -2.971446356790781
            ]
        },
        {
            "positions": [
                2.6268771455656275,
                -1.0139728767259666,
                1.8247630277660791,
                -0.7856204765430168,
                1.0519830715105518,
                -3.095287009142275
            ]
        }
    ]
}