{
    "goal": {
        "global_pose": {
            "orientation": {
                "w": 0.7031023502349854,
                "x": -0.7110244035720825,
                "y": 0.007748599164187908,
                "z": 0.005598929710686207
            },
            "position": {
                "x": 0.11585023208521307,
                "y": 0.44412534475326537,
                "z": 0.3711530566215515
            }
        },
        "name": "move_to_auspresseinheit_A"
    },
    "id": "KPIECE_move_to_auspresseinheit_A_67",
    "joint_names": [
        "shoulder_pan_joint",
        "shoulder_lift_joint",
        "elbow_joint",
        "wrist_1_joint",
        "wrist_2_joint",
        "wrist_3_joint"
    ],
    "metrics": {
        "cart_traj_len": 1.6817428378481896,
        "distance_elbow_joint": 2.4857326637057198,
        "distance_shoulder_lift_joint": 0.5346356755097146,
        "distance_shoulder_pan_joint": 1.0600090976365664,
        "distance_wrist_1_joint": 1.6915972102203631,
        "distance_wrist_2_joint": 0.5761338922863565,
        "distance_wrist_3_joint": 2.7062401636330966,
        "smoothness": 0.9915670347395901,
        "time": 2.00475887,
        "traj_len": 3.0090444833853516,
        "weighted_distance": 4.090789671049434
    },
    "planner": "KPIECE",
    "start": {
        "state": {
            "elbow_joint": 2.4225746658250005,
            "shoulder_lift_joint": -1.3736534386056498,
            "shoulder_pan_joint": -0.3378633547517467,
            "wrist_1_joint": -1.0288598680537169,
            "wrist_2_joint": 1.233022673432363,
            "wrist_3_joint": -3.0940220416140027
        }
    },
    "waypoints": [
        {
            "positions": [
                -0.3378633547517467,
                -1.3736534386056498,
                2.4225746658250005,
                -1.0288598680537169,
                1.233022673432363,
                -3.0940220416140027
            ]
        },
        {
            "positions": [
                -0.287550967245552,
                -1.386441661093947,
                2.3257886907200582,
                -0.9418120613355287,
                1.2077998019227867,
                -2.9916720797935312
            ]
        },
        {
            "positions": [
                -0.23723857973935727,
                -1.3992298835822439,
                2.229002715615116,
                -0.8547642546173407,
                1.1825769304132103,
                -2.8893221179730597
            ]
        },
        {
            "positions": [
                -0.18692619223316256,
                -1.412018106070541,
                2.1322167405101737,
                -0.7677164478991527,
                1.157354058903634,
                -2.786972156152588
            ]
        },
        {
            "positions": [
                -0.13661380472696782,
                -1.424806328558838,
                2.0354307654052315,
                -0.6806686411809646,
                1.1321311873940576,
                -2.6846221943321167
            ]
        },
        {
            "positions": [
                -0.08630141722077311,
                -1.437594551047135,
                1.938644790300289,
                -0.5936208344627765,
                1.1069083158844812,
                -2.582272232511645
            ]
        },
        {
            "positions": [
                -0.0359890297145784,
                -1.4503827735354322,
                1.8418588151953466,
                -0.5065730277445885,
                1.0816854443749049,
                -2.4799222706911737
            ]
        },
        {
            "positions": [
                0.014323357791616309,
                -1.4631709960237291,
                1.7450728400904043,
                -0.41952522102640033,
                1.0564625728653285,
                -2.377572308870702
            ]
        },
        {
            "positions": [
                0.06463574529781108,
                -1.4759592185120263,
                1.648286864985462,
                -0.3324774143082122,
                1.0312397013557522,
                -2.27522234705023
            ]
        },
        {
            "positions": [
                0.11494813280400573,
                -1.4887474410003234,
                1.5515008898805198,
                -0.2454296075900242,
                1.0060168298461758,
                -2.1728723852297587
            ]
        },
        {
            "positions": [
                0.1652605203102005,
                -1.5015356634886203,
                1.4547149147755776,
                -0.15838180087183606,
                0.9807939583365993,
                -2.070522423409287
            ]
        },
        {
            "positions": [
                0.2155729078163952,
                -1.5143238859769175,
                1.3579289396706353,
                -0.07133399415364805,
                0.955571086827023,
                -1.9681724615888156
            ]
        },
        {
            "positions": [
                0.2658852953225899,
                -1.5271121084652144,
                1.2611429645656929,
                0.015713812564539964,
                0.9303482153174466,
                -1.8658224997683441
            ]
        },
        {
            "positions": [
                0.31619768282878463,
                -1.5399003309535115,
                1.1643569894607506,
                0.10276161928272816,
                0.9051253438078702,
                -1.7634725379478726
            ]
        },
        {
            "positions": [
                0.35290672166102965,
                -1.5834751614861993,
                1.2903754564259402,
                0.056762141638637006,
                0.8792522614694893,
                -1.8737275476406465
            ]
        },
        {
            "positions": [
                0.3896157604932746,
                -1.6270499920188868,
                1.4163939233911298,
                0.010762663994545854,
                0.8533791791311085,
                -1.9839825573334204
            ]
        },
        {
            "positions": [
                0.42632479932551964,
                -1.6706248225515745,
                1.5424123903563194,
                -0.0352368136495453,
                0.8275060967927276,
                -2.094237567026194
            ]
        },
        {
            "positions": [
                0.46303383815776467,
                -1.714199653084262,
                1.668430857321509,
                -0.08123629129363645,
                0.8016330144543466,
                -2.2044925767189683
            ]
        },
        {
            "positions": [
                0.49974287699000963,
                -1.7577744836169498,
                1.7944493242866986,
                -0.12723576893772764,
                0.7757599321159658,
                -2.314747586411742
            ]
        },
        {
            "positions": [
                0.5364519158222547,
                -1.8013493141496373,
                1.9204677912518882,
                -0.17323524658181877,
                0.7498868497775849,
                -2.425002596104516
            ]
        },
        {
            "positions": [
                0.5731609546544997,
                -1.844924144682325,
                2.0464862582170777,
                -0.21923472422590995,
                0.724013767439204,
                -2.5352576057972898
            ]
        },
        {
            "positions": [
                0.5710089128479308,
                -1.8659701383787026,
                2.1501220174263542,
                -0.2878403564824894,
                0.7341217964279134,
                -2.635714526783123
            ]
        },
        {
            "positions": [
                0.568856871041362,
                -1.88701613207508,
                2.2537577766356303,
                -0.35644598873906885,
                0.7442298254166229,
                -2.7361714477689567
            ]
        },
        {
            "positions": [
                0.566704829234793,
                -1.9080621257714576,
                2.3573935358449067,
                -0.42505162099564836,
                0.7543378544053323,
                -2.83662836875479
            ]
        },
        {
            "positions": [
                0.6379691606400997,
                -1.908175619943411,
                2.374632756323564,
                -0.44113286229841936,
                0.7359374047417977,
                -2.9878957833348148
            ]
        },
        {
            "positions": [
                0.7092334920454064,
                -1.9082891141153644,
                2.391871976802221,
                -0.45721410360119036,
                0.7175369550782632,
                -3.139163197914839
            ]
        }
    ]
}