{
    "goal": {
        "global_pose": {
            "orientation": {
                "w": -0.4816463035849501,
                "x": 0.5182115481033762,
                "y": 0.4908360881923453,
                "z": -0.5084816262002911
            },
            "position": {
                "x": -0.8240239810943604,
                "y": -0.300875300988555,
                "z": 0.16403168439865112
            }
        },
        "name": "move_to_storage_C"
    },
    "id": "KPIECE_move_to_storage_C_19",
    "joint_names": [
        "shoulder_pan_joint",
        "shoulder_lift_joint",
        "elbow_joint",
        "wrist_1_joint",
        "wrist_2_joint",
        "wrist_3_joint"
    ],
    "metrics": {
        "cart_traj_len": 0.5762928418000228,
        "distance_elbow_joint": 0.2567918000096827,
        "distance_shoulder_lift_joint": 0.18902997058005477,
        "distance_shoulder_pan_joint": 0.49326563441330595,
        "distance_wrist_1_joint": 0.07401231769852201,
        "distance_wrist_2_joint": 1.077655897034294,
        "distance_wrist_3_joint": 0.06773920927088639,
        "smoothness": 0.0,
        "time": 0.044738192999999996,
        "traj_len": 1.469181686860664,
        "weighted_distance": 1.8562439123890304
    },
    "planner": "KPIECE",
    "start": {
        "state": {
            "elbow_joint": 2.010868314990456,
            "shoulder_lift_joint": -1.1634956873337592,
            "shoulder_pan_joint": -2.4736205022346125,
            "wrist_1_joint": -0.8367026794202681,
            "wrist_2_joint": 0.6746043897044499,
            "wrist_3_joint": -3.1496632123970403
        }
    },
    "waypoints": [
        {
            "positions": [
                -2.4736205022346125,
                -1.1634956873337592,
                2.010868314990456,
                -0.8367026794202681,
                0.6746043897044499,
                -3.1496632123970403
            ]
        },
        {
            "positions": [
                -2.555831441303497,
                -1.1319906922370835,
                1.9680696816555088,
                -0.824367293137181,
                0.8542137058768322,
                -3.1383733441852257
            ]
        },
        {
            "positions": [
                -2.638042380372381,
                -1.1004856971404076,
                1.9252710483205615,
                -0.8120319068540941,
                1.0338230220492146,
                -3.1270834759734116
            ]
        },
        {
            "positions": [
                -2.7202533194412655,
                -1.0689807020437319,
                1.8824724149856145,
                -0.7996965205710072,
                1.213432338221597,
                -3.115793607761597
            ]
        },
        {
            "positions": [
                -2.80246425851015,
                -1.037475706947056,
                1.8396737816506674,
                -0.7873611342879201,
                1.3930416543939792,
                -3.1045037395497825
            ]
        },
        {
            "positions": [
                -2.884675197579034,
                -1.0059707118503802,
                1.7968751483157201,
                -0.775025748004833,
                1.5726509705663616,
                -3.0932138713379684
            ]
        },
        {
            "positions": [
                -2.9668861366479184,
                -0.9744657167537044,
                1.754076514980773,
                -0.7626903617217461,
                1.752260286738744,
                -3.081924003126154
            ]
        }
    ]
}