{
    "goal": {
        "global_pose": {
            "orientation": {
                "w": 0.5084816262002911,
                "x": -0.4908360881923452,
                "y": 0.5182115481033761,
                "z": -0.48164630358495003
            },
            "position": {
                "x": 0.5540239810943604,
                "y": -0.46912469901144505,
                "z": 0.16403168439865112
            }
        },
        "name": "move_to_storage_B"
    },
    "id": "KPIECE_move_to_storage_B_119",
    "joint_names": [
        "shoulder_pan_joint",
        "shoulder_lift_joint",
        "elbow_joint",
        "wrist_1_joint",
        "wrist_2_joint",
        "wrist_3_joint"
    ],
    "metrics": {
        "cart_traj_len": 1.5839462977307335,
        "distance_elbow_joint": 2.432948816216415,
        "distance_shoulder_lift_joint": 0.9547552822934062,
        "distance_shoulder_pan_joint": 1.3224158362449974,
        "distance_wrist_1_joint": 3.2471702329737804,
        "distance_wrist_2_joint": 2.7170553898344556,
        "distance_wrist_3_joint": 3.2010910371479606,
        "smoothness": 0.4652050933989553,
        "time": 0.098871726,
        "traj_len": 3.7249747106136186,
        "weighted_distance": 5.12267940552746
    },
    "planner": "KPIECE",
    "start": {
        "state": {
            "elbow_joint": 1.664937868594044,
            "shoulder_lift_joint": -0.661644460510453,
            "shoulder_pan_joint": -0.9139846352900073,
            "wrist_1_joint": 2.146753192139373,
            "wrist_2_joint": -2.2341966793290973,
            "wrist_3_joint": 0.005466555786416001
        }
    },
    "waypoints": [
        {
            "positions": [
                -0.9139846352900073,
                -0.661644460510453,
                1.664937868594044,
                2.146753192139373,
                -2.2341966793290973,
                0.005466555786416001
            ]
        },
        {
            "positions": [
                -0.8221947362770943,
                -0.7264347458324145,
                1.6790819813141713,
                2.212544902205013,
                -2.176315506691392,
                -0.011998976093879003
            ]
        },
        {
            "positions": [
                -0.7304048372641813,
                -0.791225031154376,
                1.693226094034299,
                2.2783366122706536,
                -2.118434334053687,
                -0.029464507974174006
            ]
        },
        {
            "positions": [
                -0.6951749230195586,
                -0.7686836001261516,
                1.5985897836398304,
                2.2530497102023044,
                -1.9769789087877425,
                0.025402543309169932
            ]
        },
        {
            "positions": [
                -0.659945008774936,
                -0.7461421690979272,
                1.5039534732453617,
                2.227762808133955,
                -1.835523483521798,
                0.08026959459251387
            ]
        },
        {
            "positions": [
                -0.6247150945303133,
                -0.7236007380697027,
                1.4093171628508931,
                2.202475906065606,
                -1.6940680582558532,
                0.13513664587585777
            ]
        },
        {
            "positions": [
                -0.5894851802856906,
                -0.7010593070414783,
                1.3146808524564244,
                2.1771890039972566,
                -1.5526126329899086,
                0.19000369715920173
            ]
        },
        {
            "positions": [
                -0.554255266041068,
                -0.6785178760132539,
                1.220044542061956,
                2.1519021019289073,
                -1.411157207723964,
                0.2448707484425457
            ]
        },
        {
            "positions": [
                -0.5190253517964454,
                -0.6559764449850295,
                1.1254082316674872,
                2.1266151998605585,
                -1.2697017824580192,
                0.2997377997258896
            ]
        },
        {
            "positions": [
                -0.48379543755182275,
                -0.633435013956805,
                1.0307719212730186,
                2.101328297792209,
                -1.1282463571920747,
                0.35460485100923356
            ]
        },
        {
            "positions": [
                -0.44856552330720006,
                -0.6108935829285806,
                0.93613561087855,
                2.07604139572386,
                -0.9867909319261301,
                0.4094719022925775
            ]
        },
        {
            "positions": [
                -0.4133356090625774,
                -0.5883521519003562,
                0.8414993004840813,
                2.0507544936555107,
                -0.8453355066601853,
                0.4643389535759214
            ]
        },
        {
            "positions": [
                -0.3781056948179548,
                -0.5658107208721317,
                0.7468629900896128,
                2.0254675915871614,
                -0.7038800813942407,
                0.5192060048592654
            ]
        },
        {
            "positions": [
                -0.3428757805733321,
                -0.5432692898439073,
                0.6522266796951441,
                2.000180689518812,
                -0.5624246561282963,
                0.5740730561426093
            ]
        },
        {
            "positions": [
                -0.37418023813701223,
                -0.5673200802746996,
                0.7090458953800193,
                1.8819544024317014,
                -0.5188711825185607,
                0.6808489898622171
            ]
        },
        {
            "positions": [
                -0.40548469570069234,
                -0.5913708707054919,
                0.7658651110648945,
                1.7637281153445905,
                -0.4753177089088251,
                0.7876249235818249
            ]
        },
        {
            "positions": [
                -0.4367891532643724,
                -0.6154216611362842,
                0.8226843267497697,
                1.6455018282574798,
                -0.43176423529908947,
                0.8944008573014327
            ]
        },
        {
            "positions": [
                -0.4680936108280525,
                -0.6394724515670764,
                0.8795035424346449,
                1.5272755411703691,
                -0.38821076168935387,
                1.0011767910210405
            ]
        },
        {
            "positions": [
                -0.4993980683917326,
                -0.6635232419978687,
                0.93632275811952,
                1.4090492540832582,
                -0.34465728807961826,
                1.1079527247406484
            ]
        },
        {
            "positions": [
                -0.5307025259554127,
                -0.687574032428661,
                0.9931419738043952,
                1.2908229669961475,
                -0.30110381446988266,
                1.2147286584602561
            ]
        },
        {
            "positions": [
                -0.5620069835190928,
                -0.7116248228594533,
                1.0499611894892704,
                1.1725966799090366,
                -0.25755034086014705,
                1.3215045921798638
            ]
        },
        {
            "positions": [
                -0.5933114410827729,
                -0.7356756132902454,
                1.1067804051741454,
                1.0543703928219261,
                -0.21399686725041145,
                1.4282805258994717
            ]
        },
        {
            "positions": [
                -0.624615898646453,
                -0.7597264037210377,
                1.1635996208590207,
                0.9361441057348152,
                -0.17044339364067584,
                1.5350564596190797
            ]
        },
        {
            "positions": [
                -0.6559203562101331,
                -0.78377719415183,
                1.220418836543896,
                0.8179178186477043,
                -0.12688992003094024,
                1.6418323933386874
            ]
        },
        {
            "positions": [
                -0.6872248137738132,
                -0.8078279845826223,
                1.2772380522287712,
                0.6996915315605938,
                -0.08333644642120464,
                1.748608327058295
            ]
        },
        {
            "positions": [
                -0.7185292713374933,
                -0.8318787750134146,
                1.3340572679136464,
                0.5814652444734829,
                -0.03978297281146903,
                1.855384260777903
            ]
        },
        {
            "positions": [
                -0.7498337289011734,
                -0.8559295654442067,
                1.3908764835985215,
                0.4632389573863722,
                0.003770500798266574,
                1.9621601944975107
            ]
        },
        {
            "positions": [
                -0.7811381864648534,
                -0.8799803558749991,
                1.4476956992833967,
                0.3450126702992613,
                0.04732397440800218,
                2.0689361282171186
            ]
        },
        {
            "positions": [
                -0.8124426440285335,
                -0.9040311463057914,
                1.5045149149682717,
                0.2267863832121506,
                0.09087744801773778,
                2.1757120619367267
            ]
        },
        {
            "positions": [
                -0.8437471015922137,
                -0.9280819367365836,
                1.561334130653147,
                0.10856009612503992,
                0.1344309216274734,
                2.282487995656334
            ]
        },
        {
            "positions": [
                -0.8750515591558938,
                -0.952132727167376,
                1.6181533463380222,
                -0.00966619096207122,
                0.177984395237209,
                2.389263929375942
            ]
        },
        {
            "positions": [
                -0.9063560167195739,
                -0.9761835175981681,
                1.6749725620228975,
                -0.1278924780491817,
                0.2215378688469446,
                2.49603986309555
            ]
        },
        {
            "positions": [
                -0.9376604742832539,
                -1.0002343080289604,
                1.7317917777077725,
                -0.24611876513629216,
                0.2650913424566802,
                2.6028157968151575
            ]
        },
        {
            "positions": [
                -0.9689649318469341,
                -1.0242850984597527,
                1.7886109933926477,
                -0.3643450522234035,
                0.3086448160664158,
                2.7095917305347657
            ]
        },
        {
            "positions": [
                -1.0002693894106143,
                -1.048335888890545,
                1.845430209077523,
                -0.482571339310514,
                0.3521982896761514,
                2.816367664254373
            ]
        },
        {
            "positions": [
                -1.031573846974294,
                -1.0723866793213372,
                1.902249424762398,
                -0.6007976263976245,
                0.395751763285887,
                2.923143597973981
            ]
        },
        {
            "positions": [
                -1.0628783045379744,
                -1.0964374697521295,
                1.9590686404472735,
                -0.7190239134847358,
                0.4393052368956226,
                3.029919531693589
            ]
        },
        {
            "positions": [
                -1.0941827621016544,
                -1.1204882601829218,
                2.0158878561321485,
                -0.8372502005718461,
                0.48285871050535817,
                3.136695465413197
            ]
        }
    ]
}