{
    "goal": {
        "global_pose": {
            "orientation": {
                "w": 0.5084816217422485,
                "x": -0.49083608388900757,
                "y": 0.5182115435600281,
                "z": -0.4816462993621826
            },
            "position": {
                "x": 0.5540239810943604,
                "y": 0.030875300988554955,
                "z": 0.16403168439865112
            }
        },
        "name": "move_to_storage_A"
    },
    "id": "KPIECE_move_to_storage_A_136",
    "joint_names": [
        "shoulder_pan_joint",
        "shoulder_lift_joint",
        "elbow_joint",
        "wrist_1_joint",
        "wrist_2_joint",
        "wrist_3_joint"
    ],
    "metrics": {
        "cart_traj_len": 0.35390208962641395,
        "distance_elbow_joint": 0.45132955588182866,
        "distance_shoulder_lift_joint": 0.23368448789940577,
        "distance_shoulder_pan_joint": 0.46176793863094684,
        "distance_wrist_1_joint": 0.2539052997242187,
        "distance_wrist_2_joint": 1.1040757838524833,
        "distance_wrist_3_joint": 0.10572682537856704,
        "smoothness": 8.881784232165597e-16,
        "time": 0.093019826,
        "traj_len": 1.6157010525983606,
        "weighted_distance": 2.044486396555694
    },
    "planner": "KPIECE",
    "start": {
        "state": {
            "elbow_joint": 1.971548259319323,
            "shoulder_lift_joint": -1.1394851275133948,
            "shoulder_pan_joint": 0.1228115487234821,
            "wrist_1_joint": -0.7804723859257726,
            "wrist_2_joint": 0.12958671773740124,
            "wrist_3_joint": -3.192489227718131
        }
    },
    "waypoints": [
        {
            "positions": [
                0.1228115487234821,
                -1.1394851275133948,
                1.971548259319323,
                -0.7804723859257726,
                0.12958671773740124,
                -3.192489227718131
            ]
        },
        {
            "positions": [
                0.05684470034763256,
                -1.1728686257847385,
                2.0360239101595843,
                -0.816744571600661,
                0.2873118297163274,
                -3.177385395521193
            ]
        },
        {
            "positions": [
                -0.009122148028216981,
                -1.2062521240560822,
                2.1004995609998454,
                -0.8530167572755494,
                0.44503694169525354,
                -3.162281563324255
            ]
        },
        {
            "positions": [
                -0.07508899640406652,
                -1.2396356223274259,
                2.164975211840107,
                -0.8892889429504378,
                0.6027620536741798,
                -3.1471777311273166
            ]
        },
        {
            "positions": [
                -0.14105584477991606,
                -1.2730191205987695,
                2.229450862680368,
                -0.9255611286253261,
                0.7604871656531059,
                -3.1320738989303787
            ]
        },
        {
            "positions": [
                -0.20702269315576566,
                -1.3064026188701132,
                2.293926513520629,
                -0.9618333143002146,
                0.9182122776320322,
                -3.1169700667334403
            ]
        },
        {
            "positions": [
                -0.27298954153161514,
                -1.339786117141457,
                2.3584021643608906,
                -0.9981054999751029,
                1.0759373896109583,
                -3.1018662345365025
            ]
        },
        {
            "positions": [
                -0.33895638990746474,
                -1.3731696154128006,
                2.4228778152011516,
                -1.0343776856499913,
                1.2336625015898846,
                -3.086762402339564
            ]
        }
    ]
}{
    "goal": {
        "global_pose": {
            "orientation": {
                "w": 0.5084816217422485,
                "x": -0.49083608388900757,
                "y": 0.5182115435600281,
                "z": -0.4816462993621826
            },
            "position": {
                "x": 0.5540239810943604,
                "y": 0.030875300988554955,
                "z": 0.16403168439865112
            }
        },
        "name": "move_to_storage_A"
    },
    "id": "KPIECE_move_to_storage_A_136",
    "joint_names": [
        "shoulder_pan_joint",
        "shoulder_lift_joint",
        "elbow_joint",
        "wrist_1_joint",
        "wrist_2_joint",
        "wrist_3_joint"
    ],
    "metrics": {
        "cart_traj_len": 0.353174865630529,
        "distance_elbow_joint": 0.4485440895082031,
        "distance_shoulder_lift_joint": 0.2329373194521167,
        "distance_shoulder_pan_joint": 0.46147215295821087,
        "distance_wrist_1_joint": 0.2429292822150464,
        "distance_wrist_2_joint": 1.0992660997934727,
        "distance_wrist_3_joint": 0.08849305733874235,
        "smoothness": 1.6653345305672511e-15,
        "time": 0.08896614,
        "traj_len": 1.6042574610285572,
        "weighted_distance": 2.0230727861230786
    },
    "planner": "KPIECE",
    "start": {
        "state": {
            "elbow_joint": 1.97154746011099,
            "shoulder_lift_joint": -1.13948474672311,
            "shoulder_pan_joint": 0.12281154466712228,
            "wrist_1_joint": -0.7804688027058302,
            "wrist_2_joint": 0.12958655903071145,
            "wrist_3_joint": 3.0906928834467795
        }
    },
    "waypoints": [
        {
            "positions": [
                0.12281154466712228,
                -1.13948474672311,
                1.97154746011099,
                -0.7804688027058302,
                0.12958655903071145,
                3.0906928834467795
            ]
        },
        {
            "positions": [
                0.05688695138737787,
                -1.172761506644841,
                2.0356251871835904,
                -0.8151729858794082,
                0.2866245732869218,
                3.1033347487808856
            ]
        },
        {
            "positions": [
                -0.00903764189236654,
                -1.2060382665665719,
                2.099702914256191,
                -0.8498771690529863,
                0.44366258754313215,
                3.1159766141149916
            ]
        },
        {
            "positions": [
                -0.07496223517211094,
                -1.2393150264883028,
                2.1637806413287914,
                -0.8845813522265643,
                0.6007006017993426,
                3.1286184794490977
            ]
        },
        {
            "positions": [
                -0.14088682845185535,
                -1.2725917864100338,
                2.2278583684013915,
                -0.9192855354001424,
                0.7577386160555529,
                3.1412603447832037
            ]
        },
        {
            "positions": [
                -0.20681142173159978,
                -1.3058685463317647,
                2.291936095473992,
                -0.9539897185737205,
                0.9147766303117634,
                3.1539022101173098
            ]
        },
        {
            "positions": [
                -0.27273601501134415,
                -1.3391453062534957,
                2.3560138225465925,
                -0.9886939017472985,
                1.0718146445679737,
                3.166544075451416
            ]
        },
        {
            "positions": [
                -0.33866060829108857,
                -1.3724220661752267,
                2.420091549619193,
                -1.0233980849208766,
                1.2288526588241842,
                3.179185940785522
            ]
        }
    ]
}{
    "goal": {
        "global_pose": {
            "orientation": {
                "w": 0.5084816217422485,
                "x": -0.49083608388900757,
                "y": 0.5182115435600281,
                "z": -0.4816462993621826
            },
            "position": {
                "x": 0.5540239810943604,
                "y": 0.030875300988554955,
                "z": 0.16403168439865112
            }
        },
        "name": "move_to_storage_A"
    },
    "id": "KPIECE_move_to_storage_A_136",
    "joint_names": [
        "shoulder_pan_joint",
        "shoulder_lift_joint",
        "elbow_joint",
        "wrist_1_joint",
        "wrist_2_joint",
        "wrist_3_joint"
    ],
    "metrics": {
        "cart_traj_len": 0.3530236667798425,
        "distance_elbow_joint": 0.44890746774475243,
        "distance_shoulder_lift_joint": 0.2337333807922788,
        "distance_shoulder_pan_joint": 0.4626372856569737,
        "distance_wrist_1_joint": 0.2438240352700034,
        "distance_wrist_2_joint": 1.0934574425359718,
        "distance_wrist_3_joint": 0.10055620329291548,
        "smoothness": 0.0,
        "time": 0.0343244,
        "traj_len": 1.607207458697506,
        "weighted_distance": 2.030150166781931
    },
    "planner": "KPIECE",
    "start": {
        "state": {
            "elbow_joint": 1.9715472970024885,
            "shoulder_lift_joint": -1.1394870060712896,
            "shoulder_pan_joint": 0.12281152778156021,
            "wrist_1_joint": -0.780463741449964,
            "wrist_2_joint": 0.12958659822042276,
            "wrist_3_joint": 3.090690232415272
        }
    },
    "waypoints": [
        {
            "positions": [
                0.12281152778156021,
                -1.1394870060712896,
                1.9715472970024885,
                -0.780463741449964,
                0.12958659822042276,
                3.090690232415272
            ]
        },
        {
            "positions": [
                0.05672048697342111,
                -1.1728774890416152,
                2.0356769352517388,
                -0.8152957464885359,
                0.2857948042969901,
                3.10505540431426
            ]
        },
        {
            "positions": [
                -0.009370553834717993,
                -1.2062679720119407,
                2.0998065735009894,
                -0.8501277515271078,
                0.4420030103735575,
                3.1194205762132476
            ]
        },
        {
            "positions": [
                -0.0754615946428571,
                -1.2396584549822662,
                2.1639362117502396,
                -0.8849597565656797,
                0.5982112164501249,
                3.1337857481122358
            ]
        },
        {
            "positions": [
                -0.1415526354509962,
                -1.2730489379525918,
                2.22806584999949,
                -0.9197917616042517,
                0.7544194225266923,
                3.1481509200112234
            ]
        },
        {
            "positions": [
                -0.2076436762591353,
                -1.3064394209229173,
                2.2921954882487405,
                -0.9546237666428236,
                0.9106276286032597,
                3.1625160919102115
            ]
        },
        {
            "positions": [
                -0.27373471706727437,
                -1.3398299038932429,
                2.3563251264979908,
                -0.9894557716813954,
                1.066835834679827,
                3.176881263809199
            ]
        },
        {
            "positions": [
                -0.33982575787541347,
                -1.3732203868635684,
                2.420454764747241,
                -1.0242877767199674,
                1.2230440407563945,
                3.1912464357081873
            ]
        }
    ]
}