{
    "goal": {
        "global_pose": {
            "orientation": {
                "w": 0.005598929693374612,
                "x": 0.007748599140229565,
                "y": 0.7110244013736278,
                "z": -0.7031023480610252
            },
            "position": {
                "x": -0.8858502320852131,
                "y": -0.7141253447532654,
                "z": 0.3711530566215515
            }
        },
        "name": "move_to_auspresseinheit_C"
    },
    "id": "KPIECE_move_to_auspresseinheit_C_101",
    "joint_names": [
        "shoulder_pan_joint",
        "shoulder_lift_joint",
        "elbow_joint",
        "wrist_1_joint",
        "wrist_2_joint",
        "wrist_3_joint"
    ],
    "metrics": {
        "cart_traj_len": 0.49261299712867096,
        "distance_elbow_joint": 1.0048993825088217,
        "distance_shoulder_lift_joint": 0.32679715719357105,
        "distance_shoulder_pan_joint": 0.255670189543427,
        "distance_wrist_1_joint": 0.6952952010401477,
        "distance_wrist_2_joint": 1.3090771157322252,
        "distance_wrist_3_joint": 0.06421826778700535,
        "smoothness": 1.6148698667872622e-16,
        "time": 0.37441926,
        "traj_len": 1.9120557820851352,
        "weighted_distance": 2.4059854875189046
    },
    "planner": "KPIECE",
    "start": {
        "state": {
            "elbow_joint": 1.7527959577737207,
            "shoulder_lift_joint": -0.9740617694225068,
            "shoulder_pan_joint": -2.967991417825858,
            "wrist_1_joint": -0.759517768980727,
            "wrist_2_joint": 1.7443932448377408,
            "wrist_3_joint": -3.0840537646736568
        }
    },
    "waypoints": [
        {
            "positions": [
                -2.967991417825858,
                -0.9740617694225068,
                1.7527959577737207,
                -0.759517768980727,
                1.7443932448377408,
                -3.0840537646736568
            ]
        },
        {
            "positions": [
                -2.9424243988715153,
                -0.9413820537031496,
                1.6523060195228385,
                -0.6899882488767122,
                1.6134855332645184,
                -3.0904755914523574
            ]
        },
        {
            "positions": [
                -2.9168573799171726,
                -0.9087023379837925,
                1.5518160812719564,
                -0.6204587287726975,
                1.4825778216912957,
                -3.096897418231058
            ]
        },
        {
            "positions": [
                -2.89129036096283,
                -0.8760226222644355,
                1.4513261430210742,
                -0.5509292086686827,
                1.3516701101180733,
                -3.103319245009758
            ]
        },
        {
            "positions": [
                -2.8657233420084873,
                -0.8433429065450784,
                1.350836204770192,
                -0.48139968856466786,
                1.2207623985448506,
                -3.109741071788459
            ]
        },
        {
            "positions": [
                -2.8401563230541447,
                -0.8106631908257212,
                1.2503462665193097,
                -0.4118701684606531,
                1.0898546869716284,
                -3.1161628985671594
            ]
        },
        {
            "positions": [
                -2.8145893040998016,
                -0.7779834751063641,
                1.1498563282684278,
                -0.34234064835663836,
                0.9589469753984058,
                -3.12258472534586
            ]
        },
        {
            "positions": [
                -2.789022285145459,
                -0.7453037593870071,
                1.0493663900175454,
                -0.2728111282526236,
                0.8280392638251832,
                -3.1290065521245607
            ]
        },
        {
            "positions": [
                -2.7634552661911163,
                -0.7126240436676499,
                0.9488764517666632,
                -0.20328160814860874,
                0.6971315522519606,
                -3.135428378903261
            ]
        },
        {
            "positions": [
                -2.7378882472367736,
                -0.6799443279482928,
                0.8483865135157811,
                -0.13375208804459404,
                0.5662238406787381,
                -3.1418502056819615
            ]
        },
        {
            "positions": [
                -2.712321228282431,
                -0.6472646122289357,
                0.7478965752648989,
                -0.06422256794057923,
                0.4353161291055156,
                -3.148272032460662
            ]
        }
    ]
}