{
    "goal": {
        "global_pose": {
            "orientation": {
                "w": -0.00223480608172531,
                "x": 0.0024358444001904467,
                "y": 0.7094548369677653,
                "z": -0.704743149386269
            },
            "position": {
                "x": 0.6205249238014221,
                "y": -0.6371506643295288,
                "z": 0.19426114857196808
            }
        },
        "name": "move_to_magneteinheit_B"
    },
    "id": "KPIECE_move_to_magneteinheit_B_99",
    "joint_names": [
        "shoulder_pan_joint",
        "shoulder_lift_joint",
        "elbow_joint",
        "wrist_1_joint",
        "wrist_2_joint",
        "wrist_3_joint"
    ],
    "metrics": {
        "cart_traj_len": 3.858887469461155,
        "distance_elbow_joint": 5.296159451173243,
        "distance_shoulder_lift_joint": 1.30621540048833,
        "distance_shoulder_pan_joint": 3.2992219489216046,
        "distance_wrist_1_joint": 2.8186049621300926,
        "distance_wrist_2_joint": 3.7448964401159968,
        "distance_wrist_3_joint": 3.5698883892548077,
        "smoothness": 0.6391060294715406,
        "time": 1.344018245,
        "traj_len": 4.476045865726141,
        "weighted_distance": 5.808464923957085
    },
    "planner": "KPIECE",
    "start": {
        "state": {
            "elbow_joint": 2.6216224122426386,
            "shoulder_lift_joint": -1.4174107377796124,
            "shoulder_pan_joint": 0.7066234856936794,
            "wrist_1_joint": 1.9546482284002225,
            "wrist_2_joint": -0.7096286983471962,
            "wrist_3_joint": 0.005740856962016249
        }
    },
    "waypoints": [
        {
            "positions": [
                0.7066234856936794,
                -1.4174107377796124,
                2.6216224122426386,
                1.9546482284002225,
                -0.7096286983471962,
                0.005740856962016249
            ]
        },
        {
            "positions": [
                0.6561464890894746,
                -1.3977931652744222,
                2.5900770824412573,
                1.9480070443244122,
                -0.6170066237928646,
                0.040626106631725827
            ]
        },
        {
            "positions": [
                0.5916549448778291,
                -1.3768228126498767,
                2.539267127106753,
                1.9269098674228433,
                -0.49004924438663333,
                0.08543343667000927
            ]
        },
        {
            "positions": [
                0.5271634006661836,
                -1.3558524600253312,
                2.488457171772248,
                1.9058126905212744,
                -0.36309186498040197,
                0.1302407667082927
            ]
        },
        {
            "positions": [
                0.46267185645453823,
                -1.334882107400786,
                2.4376472164377434,
                1.8847155136197056,
                -0.23613448557417066,
                0.17504809674657612
            ]
        },
        {
            "positions": [
                0.3981803122428927,
                -1.3139117547762404,
                2.3868372611032385,
                1.8636183367181367,
                -0.1091771061679393,
                0.2198554267848596
            ]
        },
        {
            "positions": [
                0.33368876803124725,
                -1.292941402151695,
                2.336027305768734,
                1.8425211598165678,
                0.01778027323829197,
                0.264662756823143
            ]
        },
        {
            "positions": [
                0.3372539679766524,
                -1.3301485073703132,
                2.2463251568573535,
                1.7326341827807072,
                0.08665900430658632,
                0.26426783587389024
            ]
        },
        {
            "positions": [
                0.3408191679220576,
                -1.3673556125889315,
                2.1566230079459734,
                1.6227472057448469,
                0.1555377353748807,
                0.26387291492463755
            ]
        },
        {
            "positions": [
                0.34438436786746274,
                -1.4045627178075497,
                2.0669208590345933,
                1.5128602287089863,
                0.22441646644317503,
                0.26347799397538485
            ]
        },
        {
            "positions": [
                0.3479495678128679,
                -1.441769823026168,
                1.9772187101232128,
                1.4029732516731257,
                0.2932951975114694,
                0.2630830730261321
            ]
        },
        {
            "positions": [
                0.4063704757187458,
                -1.4581379148633735,
                1.830694838904274,
                1.3244198869648374,
                0.3454617322012232,
                0.2372081726586771
            ]
        },
        {
            "positions": [
                0.4647913836246237,
                -1.4745060067005793,
                1.6841709676853351,
                1.245866522256549,
                0.3976282668909771,
                0.21133327229122212
            ]
        },
        {
            "positions": [
                0.5232122915305015,
                -1.4908740985377849,
                1.5376470964663964,
                1.167313157548261,
                0.44979480158073093,
                0.18545837192376713
            ]
        },
        {
            "positions": [
                0.5816331994363795,
                -1.5072421903749904,
                1.3911232252474575,
                1.0887597928399726,
                0.5019613362704848,
                0.15958347155631214
            ]
        },
        {
            "positions": [
                0.6400541073422573,
                -1.523610282212196,
                1.244599354028519,
                1.0102064281316845,
                0.5541278709602386,
                0.13370857118885718
            ]
        },
        {
            "positions": [
                0.6984750152481352,
                -1.5399783740494017,
                1.09807548280958,
                0.9316530634233962,
                0.6062944056499924,
                0.10783367082140219
            ]
        },
        {
            "positions": [
                0.7568959231540131,
                -1.5563464658866073,
                0.9515516115906413,
                0.8530996987151079,
                0.6584609403397462,
                0.08195877045394723
            ]
        },
        {
            "positions": [
                0.8153168310598911,
                -1.5727145577238129,
                0.8050277403717023,
                0.7745463340068195,
                0.7106274750295001,
                0.05608387008649221
            ]
        },
        {
            "positions": [
                0.8737377389657689,
                -1.5890826495610186,
                0.6585038691527636,
                0.6959929692985313,
                0.7627940097192539,
                0.03020896971903725
            ]
        },
        {
            "positions": [
                0.9321586468716467,
                -1.6054507413982242,
                0.5119799979338249,
                0.617439604590243,
                0.8149605444090078,
                0.004334069351582259
            ]
        },
        {
            "positions": [
                1.0588963308705301,
                -1.643675523869989,
                0.5271868242642552,
                0.6564561020596813,
                0.8739944886878308,
                -0.09022260604036937
            ]
        },
        {
            "positions": [
                1.1856340148694136,
                -1.6819003063417537,
                0.5423936505946857,
                0.6954725995291196,
                0.9330284329666538,
                -0.184779281432321
            ]
        },
        {
            "positions": [
                1.3123716988682967,
                -1.7201250888135184,
                0.557600476925116,
                0.7344890969985578,
                0.992062377245477,
                -0.27933595682427265
            ]
        },
        {
            "positions": [
                1.4391093828671804,
                -1.7583498712852832,
                0.5728073032555465,
                0.773505594467996,
                1.0510963215242999,
                -0.37389263221622426
            ]
        },
        {
            "positions": [
                1.5658470668660636,
                -1.796574653757048,
                0.5880141295859769,
                0.8125220919374343,
                1.110130265803123,
                -0.4684493076081759
            ]
        },
        {
            "positions": [
                1.692584750864947,
                -1.8347994362288127,
                0.6032209559164072,
                0.8515385894068727,
                1.1691642100819462,
                -0.5630059830001275
            ]
        },
        {
            "positions": [
                1.8193224348638304,
                -1.8730242187005777,
                0.6184277822468377,
                0.8905550868763109,
                1.2281981543607692,
                -0.6575626583920791
            ]
        },
        {
            "positions": [
                1.9460601188627138,
                -1.9112490011723424,
                0.633634608577268,
                0.9295715843457492,
                1.2872320986395922,
                -0.7521193337840308
            ]
        },
        {
            "positions": [
                2.072797802861597,
                -1.9494737836441072,
                0.6488414349076985,
                0.9685880818151874,
                1.3462660429184152,
                -0.8466760091759824
            ]
        },
        {
            "positions": [
                2.199535486860481,
                -1.987698566115872,
                0.6640482612381289,
                1.0076045792846258,
                1.4052999871972383,
                -0.941232684567934
            ]
        },
        {
            "positions": [
                2.326273170859364,
                -2.0259233485876367,
                0.6792550875685592,
                1.046621076754064,
                1.4643339314760615,
                -1.0357893599598855
            ]
        },
        {
            "positions": [
                2.453010854858247,
                -2.0641481310594014,
                0.6944619138989896,
                1.0856375742235023,
                1.5233678757548845,
                -1.1303460353518373
            ]
        },
        {
            "positions": [
                2.579748538857131,
                -2.102372913531166,
                0.7096687402294201,
                1.1246540716929405,
                1.5824018200337076,
                -1.2249027107437889
            ]
        },
        {
            "positions": [
                2.706486222856014,
                -2.140597696002931,
                0.7248755665598504,
                1.1636705691623788,
                1.6414357643125306,
                -1.3194593861357404
            ]
        },
        {
            "positions": [
                2.8332239068548972,
                -2.1788224784746957,
                0.7400823928902809,
                1.202687066631817,
                1.7004697085913536,
                -1.4140160615276922
            ]
        },
        {
            "positions": [
                2.959961590853781,
                -2.2170472609464604,
                0.7552892192207112,
                1.2417035641012553,
                1.7595036528701766,
                -1.5085727369196438
            ]
        },
        {
            "positions": [
                2.9440956692550246,
                -2.2200368103680286,
                0.5762540558708055,
                1.2042897190022899,
                1.7088008069742353,
                -1.4216742081163434
            ]
        },
        {
            "positions": [
                2.928229747656269,
                -2.2230263597895967,
                0.39721889252089976,
                1.1668758739033245,
                1.6580979610782942,
                -1.3347756793130428
            ]
        },
        {
            "positions": [
                2.9123638260575127,
                -2.2260159092111653,
                0.21818372917099405,
                1.129462028804359,
                1.607395115182353,
                -1.2478771505097423
            ]
        },
        {
            "positions": [
                2.8964979044587564,
                -2.2290054586327335,
                0.03914856582108828,
                1.0920481837053937,
                1.5566922692864118,
                -1.160978621706442
            ]
        },
        {
            "positions": [
                2.88063198286,
                -2.2319950080543016,
                -0.13988659752881738,
                1.0546343386064283,
                1.5059894233904705,
                -1.0740800929031415
            ]
        },
        {
            "positions": [
                2.8647660612612444,
                -2.2349845574758698,
                -0.31892176087872315,
                1.017220493507463,
                1.4552865774945292,
                -0.987181564099841
            ]
        },
        {
            "positions": [
                2.8489001396624882,
                -2.237974106897438,
                -0.4979569242286288,
                0.9798066484084976,
                1.404583731598588,
                -0.9002830352965405
            ]
        },
        {
            "positions": [
                2.833034218063732,
                -2.2409636563190065,
                -0.6769920875785347,
                0.9423928033095322,
                1.3538808857026468,
                -0.8133845064932401
            ]
        },
        {
            "positions": [
                2.817168296464976,
                -2.2439532057405747,
                -0.8560272509284403,
                0.904978958210567,
                1.3031780398067057,
                -0.7264859776899396
            ]
        },
        {
            "positions": [
                2.80130237486622,
                -2.246942755162143,
                -1.035062414278346,
                0.8675651131116016,
                1.2524751939107643,
                -0.6395874488866392
            ]
        },
        {
            "positions": [
                2.785436453267464,
                -2.249932304583711,
                -1.2140975776282517,
                0.8301512680126362,
                1.2017723480148232,
                -0.5526889200833388
            ]
        },
        {
            "positions": [
                2.7695705316687076,
                -2.252921854005279,
                -1.3931327409781575,
                0.7927374229136708,
                1.1510695021188817,
                -0.4657903912800383
            ]
        },
        {
            "positions": [
                2.7537046100699514,
                -2.2559114034268477,
                -1.5721679043280634,
                0.7553235778147054,
                1.1003666562229406,
                -0.3788918624767377
            ]
        },
        {
            "positions": [
                2.7378386884711956,
                -2.258900952848416,
                -1.7512030676779688,
                0.71790973271574,
                1.0496638103269995,
                -0.29199333367343727
            ]
        },
        {
            "positions": [
                2.7219727668724394,
                -2.261890502269984,
                -1.9302382310278747,
                0.6804958876167746,
                0.9989609644310582,
                -0.20509480487013687
            ]
        },
        {
            "positions": [
                2.7064663707586147,
                -2.315089743455515,
                -1.865818139695636,
                0.7544770631979296,
                0.8701556143161817,
                -0.14653153896978968
            ]
        },
        {
            "positions": [
                2.6909599746447905,
                -2.3682889846410458,
                -1.8013980483633971,
                0.8284582387790848,
                0.7413502642013052,
                -0.08796827306944248
            ]
        },
        {
            "positions": [
                2.6754535785309663,
                -2.4214882258265766,
                -1.7369779570311583,
                0.9024394143602399,
                0.6125449140864289,
                -0.029405007169095276
            ]
        },
        {
            "positions": [
                2.6599471824171417,
                -2.4746874670121075,
                -1.6725578656989195,
                0.9764205899413949,
                0.4837395639715524,
                0.029158258731251923
            ]
        }
    ]
}