{
    "goal": {
        "global_pose": {
            "orientation": {
                "w": -0.00223480608172531,
                "x": 0.0024358444001904467,
                "y": 0.7094548369677653,
                "z": -0.704743149386269
            },
            "position": {
                "x": 0.6205249238014221,
                "y": -0.6371506643295288,
                "z": 0.19426114857196808
            }
        },
        "name": "move_to_magneteinheit_B"
    },
    "id": "KPIECE_move_to_magneteinheit_B_127",
    "joint_names": [
        "shoulder_pan_joint",
        "shoulder_lift_joint",
        "elbow_joint",
        "wrist_1_joint",
        "wrist_2_joint",
        "wrist_3_joint"
    ],
    "metrics": {
        "cart_traj_len": 7.538239056121809,
        "distance_elbow_joint": 1.9900374075353673,
        "distance_shoulder_lift_joint": 4.477860261211541,
        "distance_shoulder_pan_joint": 8.975662634792917,
        "distance_wrist_1_joint": 1.3007673284432872,
        "distance_wrist_2_joint": 6.607320642007297,
        "distance_wrist_3_joint": 4.921005249004745,
        "smoothness": 0.7273464367688819,
        "time": 0.680666323,
        "traj_len": 5.317203543498703,
        "weighted_distance": 6.784007074838233
    },
    "planner": "KPIECE",
    "start": {
        "state": {
            "elbow_joint": 2.6216224122426386,
            "shoulder_lift_joint": -1.4174107377796124,
            "shoulder_pan_joint": 0.7066234856936794,
            "wrist_1_joint": 1.9546482284002225,
            "wrist_2_joint": -0.7096286983471962,
            "wrist_3_joint": 0.005740856962016249
        }
    },
    "waypoints": [
        {
            "positions": [
                0.7066234856936794,
                -1.4174107377796124,
                2.6216224122426386,
                1.9546482284002225,
                -0.7096286983471962,
                0.005740856962016249
            ]
        },
        {
            "positions": [
                0.5624266873749095,
                -1.3994080731801328,
                2.6316081365718547,
                1.9139542268178895,
                -0.6982109664427423,
                0.13258352240065546
            ]
        },
        {
            "positions": [
                0.41822988905613956,
                -1.3814054085806535,
                2.641593860901071,
                1.8732602252355568,
                -0.6867932345382884,
                0.25942618783929466
            ]
        },
        {
            "positions": [
                0.27403309073736964,
                -1.363402743981174,
                2.6515795852302873,
                1.8325662236532239,
                -0.6753755026338345,
                0.38626885327793387
            ]
        },
        {
            "positions": [
                0.1813824292638404,
                -1.325192883038183,
                2.4878186261139477,
                1.784501809218023,
                -0.7006550881212587,
                0.3834153776092517
            ]
        },
        {
            "positions": [
                0.08873176779031114,
                -1.2869830220951919,
                2.324057666997608,
                1.736437394782822,
                -0.7259346736086828,
                0.38056190194056955
            ]
        },
        {
            "positions": [
                -0.003918893683218128,
                -1.2487731611522008,
                2.160296707881269,
                1.6883729803476208,
                -0.751214259096107,
                0.3777084262718874
            ]
        },
        {
            "positions": [
                -0.09656955515674737,
                -1.2105633002092098,
                1.9965357487649293,
                1.64030856591242,
                -0.7764938445835311,
                0.37485495060320523
            ]
        },
        {
            "positions": [
                -0.18922021663027666,
                -1.1723534392662185,
                1.8327747896485898,
                1.592244151477219,
                -0.8017734300709554,
                0.37200147493452307
            ]
        },
        {
            "positions": [
                -0.2818708781038059,
                -1.1341435783232274,
                1.6690138305322504,
                1.544179737042018,
                -0.8270530155583795,
                0.3691479992658409
            ]
        },
        {
            "positions": [
                -0.3745215395773352,
                -1.0959337173802364,
                1.5052528714159108,
                1.496115322606817,
                -0.8523326010458037,
                0.36629452359715875
            ]
        },
        {
            "positions": [
                -0.4671722010508644,
                -1.0577238564372453,
                1.3414919122995714,
                1.448050908171616,
                -0.8776121865332278,
                0.3634410479284766
            ]
        },
        {
            "positions": [
                -0.5598228625243936,
                -1.0195139954942543,
                1.1777309531832318,
                1.399986493736415,
                -0.902891772020652,
                0.36058757225979443
            ]
        },
        {
            "positions": [
                -0.4330232419251442,
                -1.0836799039278544,
                1.1873575490225763,
                1.424342755147137,
                -0.8163017461370243,
                0.4321522883550113
            ]
        },
        {
            "positions": [
                -0.3062236213258947,
                -1.1478458123614543,
                1.1969841448619205,
                1.448699016557859,
                -0.7297117202533968,
                0.5037170044502282
            ]
        },
        {
            "positions": [
                -0.17942400072664522,
                -1.2120117207950545,
                1.206610740701265,
                1.4730552779685813,
                -0.6431216943697693,
                0.575281720545445
            ]
        },
        {
            "positions": [
                -0.05262438012739579,
                -1.2761776292286546,
                1.2162373365406092,
                1.4974115393793033,
                -0.5565316684861417,
                0.6468464366406619
            ]
        },
        {
            "positions": [
                0.07417524047185375,
                -1.3403435376622546,
                1.2258639323799536,
                1.5217678007900253,
                -0.46994164260251403,
                0.7184111527358787
            ]
        },
        {
            "positions": [
                0.20097486107110318,
                -1.4045094460958547,
                1.235490528219298,
                1.5461240622007473,
                -0.3833516167188865,
                0.7899758688310955
            ]
        },
        {
            "positions": [
                0.3277744816703526,
                -1.4686753545294549,
                1.2451171240586423,
                1.5704803236114695,
                -0.2967615908352589,
                0.8615405849263124
            ]
        },
        {
            "positions": [
                0.45457410226960204,
                -1.5328412629630548,
                1.2547437198979867,
                1.5948365850221915,
                -0.21017156495163136,
                0.9331053010215292
            ]
        },
        {
            "positions": [
                0.5813737228688515,
                -1.597007171396655,
                1.264370315737331,
                1.6191928464329135,
                -0.12358153906800373,
                1.0046700171167462
            ]
        },
        {
            "positions": [
                0.7081733434681011,
                -1.661173079830255,
                1.2739969115766754,
                1.6435491078436355,
                -0.0369915131843761,
                1.076234733211963
            ]
        },
        {
            "positions": [
                0.8349729640673503,
                -1.725338988263855,
                1.2836235074160196,
                1.6679053692543575,
                0.04959851269925131,
                1.1477994493071797
            ]
        },
        {
            "positions": [
                0.9617725846666,
                -1.7895048966974552,
                1.293250103255364,
                1.6922616306650795,
                0.13618853858287894,
                1.2193641654023966
            ]
        },
        {
            "positions": [
                1.0885722052658493,
                -1.8536708051310553,
                1.3028766990947085,
                1.7166178920758017,
                0.22277856446650657,
                1.2909288814976134
            ]
        },
        {
            "positions": [
                1.2153718258650987,
                -1.9178367135646552,
                1.3125032949340527,
                1.7409741534865237,
                0.3093685903501342,
                1.3624935975928303
            ]
        },
        {
            "positions": [
                1.3421714464643486,
                -1.9820026219982554,
                1.3221298907733972,
                1.7653304148972457,
                0.39595861623376183,
                1.4340583136880471
            ]
        },
        {
            "positions": [
                1.4689710670635976,
                -2.0461685304318555,
                1.3317564866127414,
                1.7896866763079677,
                0.48254864211738924,
                1.505623029783264
            ]
        },
        {
            "positions": [
                1.595770687662847,
                -2.1103344388654555,
                1.3413830824520858,
                1.8140429377186897,
                0.5691386680010166,
                1.5771877458784807
            ]
        },
        {
            "positions": [
                1.7225703082620965,
                -2.1745003472990554,
                1.3510096782914303,
                1.838399199129412,
                0.6557286938846445,
                1.6487524619736977
            ]
        },
        {
            "positions": [
                1.8493699288613459,
                -2.2386662557326558,
                1.3606362741307745,
                1.862755460540134,
                0.7423187197682719,
                1.7203171780689144
            ]
        },
        {
            "positions": [
                1.9761695494605958,
                -2.3028321641662557,
                1.370262869970119,
                1.887111721950856,
                0.8289087456518998,
                1.7918818941641315
            ]
        },
        {
            "positions": [
                2.1029691700598447,
                -2.3669980725998556,
                1.3798894658094631,
                1.911467983361578,
                0.9154987715355272,
                1.8634466102593483
            ]
        },
        {
            "positions": [
                2.229768790659094,
                -2.431163981033456,
                1.3895160616488076,
                1.9358242447723,
                1.0020887974191546,
                1.935011326354565
            ]
        },
        {
            "positions": [
                2.356568411258344,
                -2.495329889467056,
                1.3991426574881518,
                1.9601805061830222,
                1.0886788233027824,
                2.0065760424497823
            ]
        },
        {
            "positions": [
                2.4833680318575935,
                -2.559495797900656,
                1.4087692533274963,
                1.9845367675937442,
                1.1752688491864098,
                2.0781407585449987
            ]
        },
        {
            "positions": [
                2.6101676524568425,
                -2.623661706334256,
                1.4183958491668407,
                2.008893029004466,
                1.2618588750700372,
                2.1497054746402156
            ]
        },
        {
            "positions": [
                2.7369672730560923,
                -2.687827614767856,
                1.428022445006185,
                2.0332492904151884,
                1.348448900953665,
                2.2212701907354324
            ]
        },
        {
            "positions": [
                2.8637668936553418,
                -2.751993523201456,
                1.4376490408455294,
                2.0576055518259104,
                1.4350389268372925,
                2.2928349068306493
            ]
        },
        {
            "positions": [
                2.990566514254591,
                -2.8161594316350564,
                1.4472756366848736,
                2.0819618132366324,
                1.5216289527209204,
                2.364399622925866
            ]
        },
        {
            "positions": [
                3.1173661348538406,
                -2.8803253400686564,
                1.456902232524218,
                2.1063180746473544,
                1.608218978604548,
                2.435964339021083
            ]
        },
        {
            "positions": [
                2.9951834897266707,
                -2.813078304482239,
                1.463176787771481,
                2.107523347764583,
                1.4920238141717626,
                2.3620425449329194
            ]
        },
        {
            "positions": [
                2.873000844599501,
                -2.745831268895821,
                1.469451343018744,
                2.1087286208818115,
                1.3758286497389771,
                2.288120750844756
            ]
        },
        {
            "positions": [
                2.750818199472331,
                -2.6785842333094037,
                1.4757258982660069,
                2.10993389399904,
                1.2596334853061917,
                2.214198956756592
            ]
        },
        {
            "positions": [
                2.628635554345161,
                -2.611337197722986,
                1.4820004535132698,
                2.1111391671162685,
                1.1434383208734062,
                2.1402771626684283
            ]
        },
        {
            "positions": [
                2.506452909217991,
                -2.5440901621365684,
                1.4882750087605328,
                2.112344440233497,
                1.0272431564406208,
                2.0663553685802647
            ]
        },
        {
            "positions": [
                2.384270264090821,
                -2.4768431265501505,
                1.4945495640077957,
                2.1135497133507255,
                0.9110479920078352,
                1.9924335744921011
            ]
        },
        {
            "positions": [
                2.262087618963651,
                -2.409596090963733,
                1.5008241192550587,
                2.114754986467954,
                0.7948528275750497,
                1.9185117804039373
            ]
        },
        {
            "positions": [
                2.1399049738364813,
                -2.3423490553773156,
                1.5070986745023216,
                2.1159602595851825,
                0.6786576631422643,
                1.8445899863157735
            ]
        },
        {
            "positions": [
                2.0177223287093113,
                -2.2751020197908978,
                1.5133732297495845,
                2.117165532702411,
                0.5624624987094788,
                1.77066819222761
            ]
        },
        {
            "positions": [
                1.8955396835821414,
                -2.2078549842044803,
                1.5196477849968475,
                2.1183708058196395,
                0.4462673342766934,
                1.6967463981394464
            ]
        },
        {
            "positions": [
                1.7733570384549715,
                -2.1406079486180625,
                1.5259223402441104,
                2.119576078936868,
                0.33007216984390797,
                1.6228246040512828
            ]
        },
        {
            "positions": [
                1.6511743933278016,
                -2.073360913031645,
                1.5321968954913734,
                2.1207813520540966,
                0.2138770054111223,
                1.548902809963119
            ]
        },
        {
            "positions": [
                1.5289917482006317,
                -2.0061138774452276,
                1.5384714507386363,
                2.121986625171325,
                0.0976818409783371,
                1.4749810158749552
            ]
        },
        {
            "positions": [
                1.4068091030734617,
                -1.9388668418588098,
                1.5447460059858993,
                2.1231918982885536,
                -0.01851332345444856,
                1.4010592217867917
            ]
        },
        {
            "positions": [
                1.2846264579462918,
                -1.871619806272392,
                1.5510205612331622,
                2.124397171405782,
                -0.134708487887234,
                1.327137427698628
            ]
        },
        {
            "positions": [
                1.162443812819122,
                -1.8043727706859745,
                1.5572951164804252,
                2.1256024445230106,
                -0.25090365232001943,
                1.2532156336104643
            ]
        },
        {
            "positions": [
                1.040261167691952,
                -1.737125735099557,
                1.563569671727688,
                2.1268077176402387,
                -0.36709881675280487,
                1.1792938395223007
            ]
        },
        {
            "positions": [
                0.9180785225647821,
                -1.6698786995131394,
                1.5698442269749509,
                2.128012990757467,
                -0.4832939811855903,
                1.1053720454341371
            ]
        },
        {
            "positions": [
                0.7958958774376121,
                -1.6026316639267215,
                1.5761187822222138,
                2.1292182638746957,
                -0.5994891456183762,
                1.0314502513459731
            ]
        },
        {
            "positions": [
                0.6737132323104422,
                -1.535384628340304,
                1.5823933374694767,
                2.130423536991924,
                -0.7156843100511612,
                0.9575284572578096
            ]
        },
        {
            "positions": [
                0.5515305871832723,
                -1.4681375927538864,
                1.5886678927167397,
                2.1316288101091527,
                -0.8318794744839466,
                0.883606663169646
            ]
        },
        {
            "positions": [
                0.4293479420561024,
                -1.400890557167469,
                1.5949424479640026,
                2.1328340832263812,
                -0.948074638916732,
                0.8096848690814824
            ]
        },
        {
            "positions": [
                0.30716529692893246,
                -1.3336435215810512,
                1.6012170032112656,
                2.1340393563436098,
                -1.064269803349518,
                0.7357630749933186
            ]
        },
        {
            "positions": [
                0.18498265180176254,
                -1.2663964859946335,
                1.6074915584585285,
                2.1352446294608383,
                -1.1804649677823034,
                0.661841280905155
            ]
        },
        {
            "positions": [
                0.06280000667459262,
                -1.199149450408216,
                1.6137661137057915,
                2.1364499025780668,
                -1.2966601322150884,
                0.5879194868169912
            ]
        },
        {
            "positions": [
                -0.0593826384525773,
                -1.1319024148217984,
                1.6200406689530544,
                2.1376551756952953,
                -1.4128552966478738,
                0.5139976927288277
            ]
        },
        {
            "positions": [
                -0.18156528357974722,
                -1.0646553792353808,
                1.6263152242003174,
                2.138860448812524,
                -1.5290504610806597,
                0.4400758986406639
            ]
        },
        {
            "positions": [
                -0.30374792870691714,
                -0.9974083436489631,
                1.6325897794475803,
                2.1400657219297523,
                -1.645245625513445,
                0.3661541045525003
            ]
        },
        {
            "positions": [
                -0.42593057383408706,
                -0.9301613080625455,
                1.6388643346948433,
                2.141270995046981,
                -1.7614407899462305,
                0.29223231046433673
            ]
        },
        {
            "positions": [
                -0.548113218961257,
                -0.8629142724761278,
                1.6451388899421062,
                2.1424762681642093,
                -1.877635954379016,
                0.21831051637617316
            ]
        },
        {
            "positions": [
                -0.6702958640884269,
                -0.7956672368897104,
                1.6514134451893692,
                2.143681541281438,
                -1.9938311188118014,
                0.14438872228800914
            ]
        },
        {
            "positions": [
                -0.7924785092155968,
                -0.7284202013032925,
                1.6576880004366321,
                2.1448868143986664,
                -2.110026283244587,
                0.07046692819984557
            ]
        },
        {
            "positions": [
                -0.914661154342767,
                -0.6611731657168753,
                1.663962555683895,
                2.146092087515895,
                -2.2262214476773723,
                -0.0034548658883178265
            ]
        }
    ]
}