{
    "goal": {
        "global_pose": {
            "orientation": {
                "w": -0.4816463035849501,
                "x": 0.5182115481033762,
                "y": 0.4908360881923453,
                "z": -0.5084816262002911
            },
            "position": {
                "x": -0.8240239810943604,
                "y": 0.19912469901144506,
                "z": 0.16403168439865112
            }
        },
        "name": "move_to_storage_D"
    },
    "id": "KPIECE_move_to_storage_D_144",
    "joint_names": [
        "shoulder_pan_joint",
        "shoulder_lift_joint",
        "elbow_joint",
        "wrist_1_joint",
        "wrist_2_joint",
        "wrist_3_joint"
    ],
    "metrics": {
        "cart_traj_len": 3.9257216077397037,
        "distance_elbow_joint": 4.20940222802323,
        "distance_shoulder_lift_joint": 1.2636793692594874,
        "distance_shoulder_pan_joint": 2.813099049617922,
        "distance_wrist_1_joint": 2.261767636692004,
        "distance_wrist_2_joint": 1.3305075285859729,
        "distance_wrist_3_joint": 3.1339597166553803,
        "smoothness": 0.03390185984053226,
        "time": 0.059855408,
        "traj_len": 3.8745858525568893,
        "weighted_distance": 4.987244743084374
    },
    "planner": "KPIECE",
    "start": {
        "state": {
            "elbow_joint": -2.384821988534728,
            "shoulder_lift_joint": -2.2788054721415256,
            "shoulder_pan_joint": -0.1854694642142757,
            "wrist_1_joint": 1.4845938289331202,
            "wrist_2_joint": 0.17898776772866878,
            "wrist_3_joint": 0.037105688729662994
        }
    },
    "waypoints": [
        {
            "positions": [
                -0.1854694642142757,
                -2.2788054721415256,
                -2.384821988534728,
                1.4845938289331202,
                0.17898776772866878,
                0.037105688729662994
            ]
        },
        {
            "positions": [
                -0.08967324058217889,
                -2.2430130326363455,
                -2.288053500743873,
                1.4409371556163566,
                0.22310430845995727,
                -0.027935182015549925
            ]
        },
        {
            "positions": [
                0.006122983049917929,
                -2.207220593131165,
                -2.1912850129530184,
                1.3972804822995928,
                0.2672208491912458,
                -0.09297605276076285
            ]
        },
        {
            "positions": [
                0.10191920668201473,
                -2.171428153625985,
                -2.0945165251621636,
                1.3536238089828292,
                0.31133738992253424,
                -0.15801692350597576
            ]
        },
        {
            "positions": [
                0.19771543031411157,
                -2.1356357141208044,
                -1.9977480373713086,
                1.3099671356660654,
                0.3554539306538227,
                -0.22305779425118868
            ]
        },
        {
            "positions": [
                0.2935116539462084,
                -2.0998432746156244,
                -1.9009795495804538,
                1.2663104623493018,
                0.3995704713851112,
                -0.2880986649964017
            ]
        },
        {
            "positions": [
                0.3893078775783052,
                -2.0640508351104443,
                -1.8042110617895988,
                1.222653789032538,
                0.4436870121163997,
                -0.3531395357416145
            ]
        },
        {
            "positions": [
                0.48510410121040204,
                -2.0282583956052638,
                -1.707442573998744,
                1.1789971157157741,
                0.48780355284768817,
                -0.4181804064868275
            ]
        },
        {
            "positions": [
                0.5809003248424989,
                -1.9924659561000837,
                -1.6106740862078892,
                1.1353404423990106,
                0.5319200935789766,
                -0.48322127723204034
            ]
        },
        {
            "positions": [
                0.6766965484745956,
                -1.9566735165949034,
                -1.5139055984170344,
                1.091683769082247,
                0.5760366343102651,
                -0.5482621479772533
            ]
        },
        {
            "positions": [
                0.7724927721066925,
                -1.920881077089723,
                -1.4171371106261796,
                1.0480270957654831,
                0.6201531750415537,
                -0.6133030187224663
            ]
        },
        {
            "positions": [
                0.8682889957387893,
                -1.8850886375845428,
                -1.3203686228353246,
                1.0043704224487195,
                0.6642697157728421,
                -0.6783438894676791
            ]
        },
        {
            "positions": [
                0.9640852193708861,
                -1.8492961980793625,
                -1.2236001350444698,
                0.9607137491319558,
                0.7083862565041306,
                -0.743384760212892
            ]
        },
        {
            "positions": [
                1.0598814430029828,
                -1.8135037585741824,
                -1.126831647253615,
                0.917057075815192,
                0.752502797235419,
                -0.808425630958105
            ]
        },
        {
            "positions": [
                1.1556776666350796,
                -1.777711319069002,
                -1.03006315946276,
                0.8734004024984283,
                0.7966193379667076,
                -0.873466501703318
            ]
        },
        {
            "positions": [
                1.2514738902671765,
                -1.7419188795638219,
                -0.9332946716719055,
                0.8297437291816647,
                0.8407358786979959,
                -0.9385073724485308
            ]
        },
        {
            "positions": [
                1.3472701138992733,
                -1.7061264400586416,
                -0.8365261838810505,
                0.786087055864901,
                0.8848524194292845,
                -1.0035482431937437
            ]
        },
        {
            "positions": [
                1.4430663375313701,
                -1.6703340005534613,
                -0.7397576960901955,
                0.7424303825481372,
                0.9289689601605731,
                -1.0685891139389567
            ]
        },
        {
            "positions": [
                1.5388625611634668,
                -1.6345415610482812,
                -0.6429892082993409,
                0.6987737092313736,
                0.9730855008918614,
                -1.1336299846841695
            ]
        },
        {
            "positions": [
                1.6346587847955638,
                -1.598749121543101,
                -0.5462207205084859,
                0.6551170359146099,
                1.01720204162315,
                -1.1986708554293826
            ]
        },
        {
            "positions": [
                1.7304550084276606,
                -1.5629566820379206,
                -0.44945223271763113,
                0.6114603625978461,
                1.0613185823544384,
                -1.2637117261745956
            ]
        },
        {
            "positions": [
                1.8262512320597573,
                -1.5271642425327405,
                -0.35268374492677657,
                0.5678036892810825,
                1.105435123085727,
                -1.3287525969198084
            ]
        },
        {
            "positions": [
                1.922047455691854,
                -1.49137180302756,
                -0.25591525713592134,
                0.5241470159643188,
                1.1495516638170153,
                -1.3937934676650212
            ]
        },
        {
            "positions": [
                2.017843679323951,
                -1.45557936352238,
                -0.15914676934506655,
                0.4804903426475551,
                1.193668204548304,
                -1.4588343384102342
            ]
        },
        {
            "positions": [
                2.1136399029560478,
                -1.4197869240171996,
                -0.06237828155421177,
                0.4368336693307915,
                1.2377847452795925,
                -1.523875209155447
            ]
        },
        {
            "positions": [
                2.2094361265881446,
                -1.3839944845120193,
                0.034390206236643184,
                0.3931769960140278,
                1.281901286010881,
                -1.58891607990066
            ]
        },
        {
            "positions": [
                2.239307087932109,
                -1.3576467429670207,
                0.16226092289749025,
                0.30958051003024845,
                1.2656445709891837,
                -1.6966259333310214
            ]
        },
        {
            "positions": [
                2.2691780492760736,
                -1.331299001422022,
                0.2901316395583373,
                0.2259840240464691,
                1.2493878559674865,
                -1.8043357867613825
            ]
        },
        {
            "positions": [
                2.299049010620038,
                -1.3049512598770234,
                0.4180023562191844,
                0.14238753806268978,
                1.2331311409457895,
                -1.9120456401917438
            ]
        },
        {
            "positions": [
                2.328919971964002,
                -1.2786035183320248,
                0.5458730728800314,
                0.058791052078910444,
                1.2168744259240922,
                -2.019755493622105
            ]
        },
        {
            "positions": [
                2.358790933307967,
                -1.2522557767870262,
                0.6737437895408787,
                -0.02480543390486889,
                1.200617710902395,
                -2.1274653470524663
            ]
        },
        {
            "positions": [
                2.388661894651931,
                -1.2259080352420275,
                0.8016145062017257,
                -0.10840191988864822,
                1.1843609958806978,
                -2.2351752004828276
            ]
        },
        {
            "positions": [
                2.4185328559958954,
                -1.1995602936970289,
                0.9294852228625727,
                -0.19199840587242756,
                1.1681042808590005,
                -2.3428850539131885
            ]
        },
        {
            "positions": [
                2.44840381733986,
                -1.1732125521520302,
                1.0573559395234198,
                -0.2755948918562069,
                1.1518475658373035,
                -2.45059490734355
            ]
        },
        {
            "positions": [
                2.4782747786838244,
                -1.1468648106070314,
                1.185226656184267,
                -0.35919137783998634,
                1.1355908508156063,
                -2.558304760773911
            ]
        },
        {
            "positions": [
                2.508145740027789,
                -1.1205170690620327,
                1.313097372845114,
                -0.44278786382376556,
                1.119334135793909,
                -2.6660146142042724
            ]
        },
        {
            "positions": [
                2.5380167013717534,
                -1.094169327517034,
                1.4409680895059611,
                -0.5263843498075449,
                1.1030774207722118,
                -2.7737244676346338
            ]
        },
        {
            "positions": [
                2.5678876627157177,
                -1.0678215859720355,
                1.5688388061668082,
                -0.6099808357913242,
                1.0868207057505148,
                -2.8814343210649946
            ]
        },
        {
            "positions": [
                2.5977586240596824,
                -1.0414738444270368,
                1.6967095228276554,
                -0.6935773217751037,
                1.0705639907288176,
                -2.9891441744953564
            ]
        },
        {
            "positions": [
                2.6276295854036467,
                -1.0151261028820382,
                1.8245802394885025,
                -0.7771738077588829,
                1.0543072757071204,
                -3.0968540279257173
            ]
        }
    ]
}