{
    "goal": {
        "global_pose": {
            "orientation": {
                "w": 0.7047431493862688,
                "x": -0.7094548369677653,
                "y": 0.0024358444001904,
                "z": -0.0022348060817251984
            },
            "position": {
                "x": -0.39052492380142206,
                "y": 0.3671506643295288,
                "z": 0.19426114857196808
            }
        },
        "name": "move_to_magneteinheit_D"
    },
    "id": "KPIECE_move_to_magneteinheit_D_86",
    "joint_names": [
        "shoulder_pan_joint",
        "shoulder_lift_joint",
        "elbow_joint",
        "wrist_1_joint",
        "wrist_2_joint",
        "wrist_3_joint"
    ],
    "metrics": {
        "cart_traj_len": 4.739190936453616,
        "distance_elbow_joint": 4.479824782670567,
        "distance_shoulder_lift_joint": 1.9615288936657063,
        "distance_shoulder_pan_joint": 3.3880064860857466,
        "distance_wrist_1_joint": 2.909798431046258,
        "distance_wrist_2_joint": 1.6223759465471697,
        "distance_wrist_3_joint": 6.436288370412411,
        "smoothness": 0.6961994838375929,
        "time": 0.158171032,
        "traj_len": 4.560463014917221,
        "weighted_distance": 6.180823086680778
    },
    "planner": "KPIECE",
    "start": {
        "state": {
            "elbow_joint": 0.749534889911806,
            "shoulder_lift_joint": -0.6476975780787326,
            "shoulder_pan_joint": -2.711696901376241,
            "wrist_1_joint": -0.07506478083263063,
            "wrist_2_joint": 0.43296659715538205,
            "wrist_3_joint": -3.14703540197715
        }
    },
    "waypoints": [
        {
            "positions": [
                -2.711696901376241,
                -0.6476975780787326,
                0.749534889911806,
                -0.07506478083263063,
                0.43296659715538205,
                -3.14703540197715
            ]
        },
        {
            "positions": [
                -2.720377660793199,
                -0.7258572375495085,
                0.8474428010540265,
                -0.1045458827991631,
                0.48330394608572225,
                -3.0909140591934188
            ]
        },
        {
            "positions": [
                -2.7290584202101567,
                -0.8040168970202843,
                0.945350712196247,
                -0.13402698476569558,
                0.5336412950160625,
                -3.0347927164096875
            ]
        },
        {
            "positions": [
                -2.7096314307497815,
                -0.881900621741891,
                1.013758449246092,
                -0.17877368618880246,
                0.5577070738019431,
                -2.92906325663915
            ]
        },
        {
            "positions": [
                -2.6902044412894064,
                -0.9597843464634975,
                1.0821661862959369,
                -0.22352038761190934,
                0.5817728525878236,
                -2.8233337968686123
            ]
        },
        {
            "positions": [
                -2.6132320188746974,
                -0.9941941060234636,
                1.0324982499363904,
                -0.2826745910674812,
                0.5388378190624029,
                -2.7056472636297046
            ]
        },
        {
            "positions": [
                -2.5362595964599883,
                -1.0286038655834298,
                0.9828303135768437,
                -0.34182879452305315,
                0.4959027855369822,
                -2.5879607303907965
            ]
        },
        {
            "positions": [
                -2.4592871740452793,
                -1.0630136251433957,
                0.9331623772172972,
                -0.400982997978625,
                0.4529677520115615,
                -2.470274197151889
            ]
        },
        {
            "positions": [
                -2.38231475163057,
                -1.0974233847033619,
                0.8834944408577505,
                -0.4601372014341969,
                0.4100327184861407,
                -2.3525876639129812
            ]
        },
        {
            "positions": [
                -2.305342329215861,
                -1.131833144263328,
                0.8338265044982041,
                -0.5192914048897688,
                0.36709768496071993,
                -2.2349011306740736
            ]
        },
        {
            "positions": [
                -2.2283699068011518,
                -1.166242903823294,
                0.7841585681386575,
                -0.5784456083453406,
                0.32416265143529926,
                -2.117214597435166
            ]
        },
        {
            "positions": [
                -2.1513974843864423,
                -1.2006526633832602,
                0.7344906317791109,
                -0.6375998118009126,
                0.2812276179098785,
                -1.9995280641962578
            ]
        },
        {
            "positions": [
                -2.0744250619717333,
                -1.2350624229432263,
                0.6848226954195643,
                -0.6967540152564845,
                0.23829258438445777,
                -1.8818415309573502
            ]
        },
        {
            "positions": [
                -1.9974526395570245,
                -1.2694721825031925,
                0.6351547590600177,
                -0.7559082187120563,
                0.19535755085903705,
                -1.7641549977184425
            ]
        },
        {
            "positions": [
                -1.9204802171423152,
                -1.3038819420631584,
                0.5854868227004711,
                -0.8150624221676284,
                0.15242251733361628,
                -1.6464684644795347
            ]
        },
        {
            "positions": [
                -1.8435077947276062,
                -1.3382917016231246,
                0.5358188863409246,
                -0.8742166256232002,
                0.10948748380819556,
                -1.528781931240627
            ]
        },
        {
            "positions": [
                -1.7665353723128971,
                -1.3727014611830906,
                0.4861509499813781,
                -0.9333708290787721,
                0.0665524502827749,
                -1.4110953980017191
            ]
        },
        {
            "positions": [
                -1.689562949898188,
                -1.4071112207430567,
                0.4364830136218314,
                -0.992525032534344,
                0.02361741675735407,
                -1.2934088647628115
            ]
        },
        {
            "positions": [
                -1.6125905274834786,
                -1.441520980303023,
                0.3868150772622848,
                -1.0516792359899159,
                -0.019317616768066648,
                -1.1757223315239036
            ]
        },
        {
            "positions": [
                -1.5356181050687698,
                -1.475930739862989,
                0.33714714090273834,
                -1.1108334394454877,
                -0.062252650293487366,
                -1.058035798284996
            ]
        },
        {
            "positions": [
                -1.4586456826540606,
                -1.510340499422955,
                0.28747920454319176,
                -1.1699876429010596,
                -0.10518768381890808,
                -0.9403492650460881
            ]
        },
        {
            "positions": [
                -1.3816732602393513,
                -1.5447502589829212,
                0.23781126818364506,
                -1.2291418463566317,
                -0.1481227173443289,
                -0.8226627318071804
            ]
        },
        {
            "positions": [
                -1.3047008378246425,
                -1.5791600185428871,
                0.1881433318240986,
                -1.2882960498122034,
                -0.19105775086974952,
                -0.7049761985682728
            ]
        },
        {
            "positions": [
                -1.2277284154099333,
                -1.6135697781028533,
                0.138475395464552,
                -1.3474502532677755,
                -0.23399278439517024,
                -0.5872896653293647
            ]
        },
        {
            "positions": [
                -1.150755992995224,
                -1.6479795376628195,
                0.08880745910500543,
                -1.4066044567233473,
                -0.27692781792059107,
                -0.469603132090457
            ]
        },
        {
            "positions": [
                -1.0737835705805152,
                -1.6823892972227854,
                0.039139522745458954,
                -1.465758660178919,
                -0.3198628514460117,
                -0.35191659885154936
            ]
        },
        {
            "positions": [
                -0.996811148165806,
                -1.7167990567827516,
                -0.01052841361408774,
                -1.524912863634491,
                -0.3627978849714325,
                -0.2342300656126417
            ]
        },
        {
            "positions": [
                -0.9198387257510967,
                -1.7512088163427177,
                -0.06019634997363421,
                -1.584067067090063,
                -0.4057329184968532,
                -0.1165435323737336
            ]
        },
        {
            "positions": [
                -0.8428663033363879,
                -1.7856185759026837,
                -0.10986428633318068,
                -1.6432212705456348,
                -0.44866795202227383,
                0.0011430008651740486
            ]
        },
        {
            "positions": [
                -0.7658938809216786,
                -1.8200283354626499,
                -0.15953222269272743,
                -1.7023754740012067,
                -0.49160298554769466,
                0.11882953410408173
            ]
        },
        {
            "positions": [
                -0.716154800809378,
                -1.7986581552345262,
                -0.28681759620915503,
                -1.7485334864790913,
                -0.47376630094900607,
                -0.008977079126835485
            ]
        },
        {
            "positions": [
                -0.6664157206970773,
                -1.7772879750064023,
                -0.4141029697255827,
                -1.7946914989569762,
                -0.4559296163503175,
                -0.1367836923577527
            ]
        },
        {
            "positions": [
                -0.6166766405847767,
                -1.7559177947782787,
                -0.5413883432420104,
                -1.8408495114348609,
                -0.43809293175162894,
                -0.2645903055886698
            ]
        },
        {
            "positions": [
                -0.566937560472476,
                -1.734547614550155,
                -0.668673716758438,
                -1.8870075239127455,
                -0.42025624715294035,
                -0.39239691881958716
            ]
        },
        {
            "positions": [
                -0.5171984803601753,
                -1.7131774343220312,
                -0.7959590902748657,
                -1.9331655363906304,
                -0.40241956255425176,
                -0.5202035320505043
            ]
        },
        {
            "positions": [
                -0.4674594002478747,
                -1.6918072540939075,
                -0.9232444637912933,
                -1.979323548868515,
                -0.3845828779555632,
                -0.6480101452814214
            ]
        },
        {
            "positions": [
                -0.41772032013557403,
                -1.6704370738657839,
                -1.0505298373077208,
                -2.0254815613463997,
                -0.36674619335687464,
                -0.7758167585123387
            ]
        },
        {
            "positions": [
                -0.3679812400232733,
                -1.6490668936376602,
                -1.1778152108241484,
                -2.0716395738242843,
                -0.34890950875818605,
                -0.903623371743256
            ]
        },
        {
            "positions": [
                -0.31824215991097266,
                -1.6276967134095364,
                -1.305100584340576,
                -2.117797586302169,
                -0.33107282415949746,
                -1.031429984974173
            ]
        },
        {
            "positions": [
                -0.268503079798672,
                -1.6063265331814127,
                -1.4323859578570037,
                -2.1639555987800536,
                -0.31323613956080887,
                -1.1592365982050903
            ]
        },
        {
            "positions": [
                -0.21876399968637128,
                -1.584956352953289,
                -1.5596713313734314,
                -2.2101136112579387,
                -0.2953994549621203,
                -1.2870432114360075
            ]
        },
        {
            "positions": [
                -0.16902491957407073,
                -1.5635861727251652,
                -1.686956704889859,
                -2.2562716237358234,
                -0.2775627703634317,
                -1.4148498246669245
            ]
        },
        {
            "positions": [
                -0.11928583946176996,
                -1.5422159924970416,
                -1.8142420784062867,
                -2.302429636213708,
                -0.2597260857647431,
                -1.542656437897842
            ]
        },
        {
            "positions": [
                -0.06954675934946941,
                -1.520845812268918,
                -1.9415274519227141,
                -2.3485876486915926,
                -0.24188940116605456,
                -1.670463051128759
            ]
        },
        {
            "positions": [
                -0.01980767923716864,
                -1.4994756320407943,
                -2.068812825439142,
                -2.3947456611694773,
                -0.22405271656736597,
                -1.7982696643596763
            ]
        },
        {
            "positions": [
                0.02993140087513202,
                -1.4781054518126704,
                -2.1960981989555695,
                -2.4409036736473624,
                -0.20621603196867738,
                -1.9260762775905937
            ]
        },
        {
            "positions": [
                0.07967048098743268,
                -1.4567352715845467,
                -2.323383572471997,
                -2.487061686125247,
                -0.18837934736998885,
                -2.0538828908215105
            ]
        },
        {
            "positions": [
                0.12940956109973334,
                -1.4353650913564229,
                -2.4506689459884248,
                -2.5332196986031317,
                -0.1705426627713002,
                -2.181689504052428
            ]
        },
        {
            "positions": [
                0.179148641212034,
                -1.4139949111282992,
                -2.5779543195048524,
                -2.5793777110810163,
                -0.15270597817261167,
                -2.309496117283345
            ]
        },
        {
            "positions": [
                0.22888772132433466,
                -1.3926247309001756,
                -2.70523969302128,
                -2.625535723558901,
                -0.13486929357392308,
                -2.4373027305142623
            ]
        },
        {
            "positions": [
                0.16010458370477768,
                -1.4529238195200613,
                -2.6452750918597436,
                -2.5656478088389028,
                -0.14211265374149606,
                -2.5396845921330677
            ]
        },
        {
            "positions": [
                0.09132144608522069,
                -1.513222908139947,
                -2.585310490698207,
                -2.505759894118905,
                -0.14935601390906905,
                -2.6420664537518737
            ]
        },
        {
            "positions": [
                0.02253830846566368,
                -1.5735219967598328,
                -2.5253458895366707,
                -2.445871979398907,
                -0.15659937407664204,
                -2.744448315370679
            ]
        },
        {
            "positions": [
                -0.046244829153893274,
                -1.6338210853797188,
                -2.465381288375134,
                -2.385984064678909,
                -0.16384273424421503,
                -2.8468301769894846
            ]
        },
        {
            "positions": [
                -0.11502796677345034,
                -1.6941201739996046,
                -2.4054166872135974,
                -2.326096149958911,
                -0.17108609441178801,
                -2.9492120386082905
            ]
        },
        {
            "positions": [
                -0.1838111043930073,
                -1.7544192626194903,
                -2.345452086052061,
                -2.266208235238913,
                -0.178329454579361,
                -3.051593900227096
            ]
        }
    ]
}