{
    "goal": {
        "global_pose": {
            "orientation": {
                "w": 0.7031023480610252,
                "x": -0.7110244013736278,
                "y": 0.0077485991402295624,
                "z": 0.005598929693374583
            },
            "position": {
                "x": -0.8841497679147869,
                "y": 0.44412534475326537,
                "z": 0.3711530566215515
            }
        },
        "name": "move_to_auspresseinheit_D"
    },
    "id": "KPIECE_move_to_auspresseinheit_D_119",
    "joint_names": [
        "shoulder_pan_joint",
        "shoulder_lift_joint",
        "elbow_joint",
        "wrist_1_joint",
        "wrist_2_joint",
        "wrist_3_joint"
    ],
    "metrics": {
        "cart_traj_len": 0.34411066429718057,
        "distance_elbow_joint": 0.6491376655534107,
        "distance_shoulder_lift_joint": 0.12666191259141568,
        "distance_shoulder_pan_joint": 0.1338366763915354,
        "distance_wrist_1_joint": 0.5610776214711,
        "distance_wrist_2_joint": 1.437170585734545,
        "distance_wrist_3_joint": 0.026788834885772772,
        "smoothness": 7.894919348737726e-16,
        "time": 0.088517499,
        "traj_len": 1.7130888174953975,
        "weighted_distance": 2.2330470603202635
    },
    "planner": "KPIECE",
    "start": {
        "state": {
            "elbow_joint": -1.8275523626775212,
            "shoulder_lift_joint": -2.126789852344167,
            "shoulder_pan_joint": -0.03513704404078235,
            "wrist_1_joint": -2.347782403156801,
            "wrist_2_joint": -1.6058999987535132,
            "wrist_3_joint": -3.0880379163319196
        }
    },
    "waypoints": [
        {
            "positions": [
                -0.03513704404078235,
                -2.126789852344167,
                -1.8275523626775212,
                -2.347782403156801,
                -1.6058999987535132,
                -3.0880379163319196
            ]
        },
        {
            "positions": [
                -0.051866628589724274,
                -2.142622591418094,
                -1.7464101544833448,
                -2.4179171058406883,
                -1.426253675536695,
                -3.0846893119711982
            ]
        },
        {
            "positions": [
                -0.0685962131386662,
                -2.158455330492021,
                -1.6652679462891684,
                -2.4880518085245757,
                -1.2466073523198768,
                -3.0813407076104764
            ]
        },
        {
            "positions": [
                -0.08532579768760812,
                -2.174288069565948,
                -1.5841257380949922,
                -2.558186511208463,
                -1.066961029103059,
                -3.0779921032497546
            ]
        },
        {
            "positions": [
                -0.10205538223655006,
                -2.1901208086398745,
                -1.5029835299008159,
                -2.6283212138923506,
                -0.8873147058862407,
                -3.074643498889033
            ]
        },
        {
            "positions": [
                -0.11878496678549197,
                -2.2059535477138015,
                -1.4218413217066395,
                -2.6984559165762385,
                -0.7076683826694226,
                -3.071294894528312
            ]
        },
        {
            "positions": [
                -0.1355145513344339,
                -2.2217862867877285,
                -1.3406991135124633,
                -2.768590619260126,
                -0.5280220594526046,
                -3.06794629016759
            ]
        },
        {
            "positions": [
                -0.15224413588337582,
                -2.2376190258616555,
                -1.259556905318287,
                -2.8387253219440134,
                -0.34837573623578644,
                -3.064597685806868
            ]
        },
        {
            "positions": [
                -0.16897372043231776,
                -2.2534517649355825,
                -1.1784146971241105,
                -2.908860024627901,
                -0.16872941301896838,
                -3.061249081446147
            ]
        }
    ]
}