{
    "goal": {
        "global_pose": {
            "orientation": {
                "w": -0.00223480608172531,
                "x": 0.0024358444001904467,
                "y": 0.7094548369677653,
                "z": -0.704743149386269
            },
            "position": {
                "x": -0.37947507619857795,
                "y": -0.6371506643295288,
                "z": 0.19426114857196808
            }
        },
        "name": "move_to_magneteinheit_C"
    },
    "id": "KPIECE_move_to_magneteinheit_C_43",
    "joint_names": [
        "shoulder_pan_joint",
        "shoulder_lift_joint",
        "elbow_joint",
        "wrist_1_joint",
        "wrist_2_joint",
        "wrist_3_joint"
    ],
    "metrics": {
        "cart_traj_len": 5.450722130934433,
        "distance_elbow_joint": 0.24861666364694246,
        "distance_shoulder_lift_joint": 3.075476504261366,
        "distance_shoulder_pan_joint": 8.038277690594608,
        "distance_wrist_1_joint": 0.7178698344695691,
        "distance_wrist_2_joint": 3.632401647896789,
        "distance_wrist_3_joint": 7.09026275598206,
        "smoothness": 0.5877152985329787,
        "time": 3.3171605630000003,
        "traj_len": 4.775238747628366,
        "weighted_distance": 6.429129186070365
    },
    "planner": "KPIECE",
    "start": {
        "state": {
            "elbow_joint": 1.9565354010623817,
            "shoulder_lift_joint": -1.4165861575791021,
            "shoulder_pan_joint": -1.6717766225146293,
            "wrist_1_joint": -0.5286633292919765,
            "wrist_2_joint": 1.472756589071564,
            "wrist_3_joint": -3.1238370188695823
        }
    },
    "waypoints": [
        {
            "positions": [
                -1.6717766225146293,
                -1.4165861575791021,
                1.9565354010623817,
                -0.5286633292919765,
                1.472756589071564,
                -3.1238370188695823
            ]
        },
        {
            "positions": [
                -1.5469981206312122,
                -1.465293547611706,
                1.9532700314825708,
                -0.546578829254432,
                1.3964847091727504,
                -3.0019820476516528
            ]
        },
        {
            "positions": [
                -1.422219618747795,
                -1.51400093764431,
                1.95000466190276,
                -0.5644943292168877,
                1.320212829273937,
                -2.8801270764337232
            ]
        },
        {
            "positions": [
                -1.2974411168643778,
                -1.5627083276769138,
                1.9467392923229494,
                -0.5824098291793433,
                1.2439409493751237,
                -2.758272105215794
            ]
        },
        {
            "positions": [
                -1.1726626149809607,
                -1.6114157177095176,
                1.9434739227431386,
                -0.6003253291417989,
                1.16766906947631,
                -2.6364171339978646
            ]
        },
        {
            "positions": [
                -1.0478841130975434,
                -1.6601231077421217,
                1.9402085531633277,
                -0.6182408291042545,
                1.0913971895774965,
                -2.514562162779935
            ]
        },
        {
            "positions": [
                -0.9231056112141263,
                -1.7088304977747255,
                1.936943183583517,
                -0.63615632906671,
                1.0151253096786832,
                -2.3927071915620055
            ]
        },
        {
            "positions": [
                -0.798327109330709,
                -1.7575378878073296,
                1.933677814003706,
                -0.6540718290291657,
                0.9388534297798697,
                -2.270852220344076
            ]
        },
        {
            "positions": [
                -0.673548607447292,
                -1.8062452778399334,
                1.9304124444238953,
                -0.6719873289916213,
                0.8625815498810563,
                -2.148997249126147
            ]
        },
        {
            "positions": [
                -0.5487701055638747,
                -1.8549526678725372,
                1.9271470748440847,
                -0.689902828954077,
                0.7863096699822427,
                -2.0271422779082173
            ]
        },
        {
            "positions": [
                -0.4239916036804574,
                -1.9036600579051413,
                1.9238817052642738,
                -0.7078183289165325,
                0.7100377900834293,
                -1.9052873066902878
            ]
        },
        {
            "positions": [
                -0.2992131017970405,
                -1.952367447937745,
                1.920616335684463,
                -0.7257338288789881,
                0.6337659101846159,
                -1.7834323354723585
            ]
        },
        {
            "positions": [
                -0.1744345999136232,
                -2.001074837970349,
                1.9173509661046522,
                -0.7436493288414437,
                0.5574940302858025,
                -1.661577364254429
            ]
        },
        {
            "positions": [
                -0.049656098030205875,
                -2.049782228002953,
                1.9140855965248413,
                -0.7615648288038994,
                0.4812221503869889,
                -1.5397223930364994
            ]
        },
        {
            "positions": [
                0.07512240385321123,
                -2.098489618035557,
                1.9108202269450305,
                -0.779480328766355,
                0.40495027048817556,
                -1.4178674218185698
            ]
        },
        {
            "positions": [
                0.19990090573662855,
                -2.1471970080681606,
                1.90755485736522,
                -0.7973958287288105,
                0.328678390589362,
                -1.2960124506006405
            ]
        },
        {
            "positions": [
                0.32467940762004543,
                -2.1959043981007644,
                1.904289487785409,
                -0.8153113286912661,
                0.25240651069054865,
                -1.1741574793827112
            ]
        },
        {
            "positions": [
                0.44945790950346276,
                -2.2446117881333683,
                1.9010241182055982,
                -0.8332268286537218,
                0.1761346307917353,
                -1.0523025081647819
            ]
        },
        {
            "positions": [
                0.5742364113868799,
                -2.2933191781659725,
                1.8977587486257874,
                -0.8511423286161774,
                0.09986275089292151,
                -0.9304475369468523
            ]
        },
        {
            "positions": [
                0.699014913270297,
                -2.3420265681985764,
                1.8944933790459766,
                -0.869057828578633,
                0.02359087099410817,
                -0.8085925657289228
            ]
        },
        {
            "positions": [
                0.8237934151537145,
                -2.3907339582311806,
                1.8912280094661658,
                -0.8869733285410886,
                -0.052681008904705395,
                -0.6867375945109933
            ]
        },
        {
            "positions": [
                0.9485719170371316,
                -2.4394413482637844,
                1.8879626398863552,
                -0.9048888285035441,
                -0.12895288880351874,
                -0.5648826232930637
            ]
        },
        {
            "positions": [
                1.0733504189205483,
                -2.4881487382963883,
                1.8846972703065443,
                -0.9228043284659998,
                -0.20522476870233208,
                -0.4430276520751346
            ]
        },
        {
            "positions": [
                1.1981289208039658,
                -2.536856128328992,
                1.8814319007267335,
                -0.9407198284284555,
                -0.28149664860114565,
                -0.3211726808572051
            ]
        },
        {
            "positions": [
                1.322907422687383,
                -2.585563518361596,
                1.8781665311469227,
                -0.958635328390911,
                -0.357768528499959,
                -0.19931770963927553
            ]
        },
        {
            "positions": [
                1.4476859245708,
                -2.6342709083941998,
                1.8749011615671118,
                -0.9765508283533666,
                -0.43404040839877234,
                -0.07746273842134643
            ]
        },
        {
            "positions": [
                1.5724644264542176,
                -2.6829782984268036,
                1.871635791987301,
                -0.9944663283158223,
                -0.5103122882975861,
                0.04439223279658355
            ]
        },
        {
            "positions": [
                1.6972429283376342,
                -2.7316856884594074,
                1.8683704224074904,
                -1.012381828278278,
                -0.5865841681963992,
                0.16624720401451265
            ]
        },
        {
            "positions": [
                1.8220214302210518,
                -2.7803930784920117,
                1.8651050528276796,
                -1.0302973282407335,
                -0.6628560480952128,
                0.28810217523244264
            ]
        },
        {
            "positions": [
                1.9467999321044687,
                -2.8291004685246155,
                1.8618396832478687,
                -1.048212828203189,
                -0.7391279279940264,
                0.40995714645037173
            ]
        },
        {
            "positions": [
                1.7943964446570375,
                -2.7717569446171724,
                1.8671473020696767,
                -1.041374195942556,
                -0.6901445786550195,
                0.287320298496506
            ]
        },
        {
            "positions": [
                1.6419929572096064,
                -2.714413420709729,
                1.8724549208914847,
                -1.0345355636819231,
                -0.6411612293160127,
                0.16468345054264016
            ]
        },
        {
            "positions": [
                1.4895894697621752,
                -2.6570698968022857,
                1.8777625397132924,
                -1.02769693142129,
                -0.5921778799770058,
                0.04204660258877435
            ]
        },
        {
            "positions": [
                1.337185982314744,
                -2.5997263728948425,
                1.8830701585351004,
                -1.0208582991606572,
                -0.5431945306379989,
                -0.0805902453650914
            ]
        },
        {
            "positions": [
                1.1847824948673131,
                -2.5423828489873994,
                1.8883777773569084,
                -1.014019666900024,
                -0.49421118129899205,
                -0.20322709331895727
            ]
        },
        {
            "positions": [
                1.0323790074198818,
                -2.485039325079956,
                1.8936853961787163,
                -1.0071810346393912,
                -0.4452278319599852,
                -0.32586394127282303
            ]
        },
        {
            "positions": [
                0.8799755199724508,
                -2.4276958011725127,
                1.898993015000524,
                -1.0003424023787582,
                -0.39624448262097833,
                -0.4485007892266888
            ]
        },
        {
            "positions": [
                0.7275720325250197,
                -2.3703522772650696,
                1.904300633822332,
                -0.9935037701181252,
                -0.3472611332819715,
                -0.5711376371805545
            ]
        },
        {
            "positions": [
                0.5751685450775885,
                -2.313008753357626,
                1.90960825264414,
                -0.9866651378574922,
                -0.2982777839429646,
                -0.6937744851344203
            ]
        },
        {
            "positions": [
                0.42276505763015737,
                -2.255665229450183,
                1.914915871465948,
                -0.9798265055968592,
                -0.24929443460395773,
                -0.8164113330882863
            ]
        },
        {
            "positions": [
                0.27036157018272644,
                -2.1983217055427398,
                1.9202234902877557,
                -0.9729878733362263,
                -0.2003110852649509,
                -0.9390481810421518
            ]
        },
        {
            "positions": [
                0.11795808273529507,
                -2.1409781816352966,
                1.9255311091095637,
                -0.9661492410755933,
                -0.15132773592594406,
                -1.0616850289960178
            ]
        },
        {
            "positions": [
                -0.034445404712136085,
                -2.083634657727853,
                1.9308387279313717,
                -0.9593106088149603,
                -0.10234438658693712,
                -1.1843218769498836
            ]
        },
        {
            "positions": [
                -0.18684889215956701,
                -2.02629113382041,
                1.9361463467531796,
                -0.9524719765543272,
                -0.05336103724793029,
                -1.3069587249037493
            ]
        },
        {
            "positions": [
                -0.3392523796069984,
                -1.9689476099129666,
                1.9414539655749874,
                -0.9456333442936943,
                -0.0043776879089233445,
                -1.4295955728576153
            ]
        },
        {
            "positions": [
                -0.4916558670544293,
                -1.9116040860055232,
                1.9467615843967954,
                -0.9387947120330613,
                0.044605661430083376,
                -1.5522324208114808
            ]
        },
        {
            "positions": [
                -0.6440593545018602,
                -1.85426056209808,
                1.9520692032186033,
                -0.9319560797724283,
                0.09358901076909021,
                -1.6748692687653466
            ]
        },
        {
            "positions": [
                -0.7964628419492916,
                -1.7969170381906368,
                1.9573768220404113,
                -0.9251174475117954,
                0.14257236010809715,
                -1.7975061167192123
            ]
        },
        {
            "positions": [
                -0.9488663293967226,
                -1.7395735142831936,
                1.962684440862219,
                -0.9182788152511624,
                0.19155570944710398,
                -1.920142964673078
            ]
        },
        {
            "positions": [
                -1.101269816844154,
                -1.6822299903757503,
                1.967992059684027,
                -0.9114401829905294,
                0.24053905878611093,
                -2.0427798126269443
            ]
        },
        {
            "positions": [
                -1.2536733042915849,
                -1.6248864664683071,
                1.973299678505835,
                -0.9046015507298965,
                0.28952240812511776,
                -2.1654166605808096
            ]
        },
        {
            "positions": [
                -1.4060767917390158,
                -1.5675429425608638,
                1.978607297327643,
                -0.8977629184692635,
                0.3385057574641246,
                -2.2880535085346754
            ]
        },
        {
            "positions": [
                -1.5584802791864476,
                -1.5101994186534204,
                1.983914916149451,
                -0.8909242862086304,
                0.3874891068031314,
                -2.4106903564885416
            ]
        },
        {
            "positions": [
                -1.7108837666338785,
                -1.4528558947459773,
                1.9892225349712587,
                -0.8840856539479975,
                0.43647245614213825,
                -2.5333272044424073
            ]
        },
        {
            "positions": [
                -1.8632872540813095,
                -1.3955123708385342,
                1.9945301537930666,
                -0.8772470216873645,
                0.4854558054811451,
                -2.6559640523962726
            ]
        },
        {
            "positions": [
                -2.015690741528741,
                -1.3381688469310908,
                1.9998377726148746,
                -0.8704083894267315,
                0.5344391548201521,
                -2.778600900350139
            ]
        },
        {
            "positions": [
                -2.1680942289761713,
                -1.2808253230236475,
                2.0051453914366824,
                -0.8635697571660985,
                0.583422504159159,
                -2.9012377483040046
            ]
        },
        {
            "positions": [
                -2.3204977164236027,
                -1.2234817991162041,
                2.0104530102584905,
                -0.8567311249054655,
                0.6324058534981658,
                -3.0238745962578704
            ]
        },
        {
            "positions": [
                -2.4729012038710345,
                -1.166138275208761,
                2.0157606290802983,
                -0.8498924926448326,
                0.6813892028371726,
                -3.146511444211736
            ]
        }
    ]
}