{
    "goal": {
        "global_pose": {
            "orientation": {
                "w": 0.005598929693374612,
                "x": 0.007748599140229565,
                "y": 0.7110244013736278,
                "z": -0.7031023480610252
            },
            "position": {
                "x": 0.1141497679147869,
                "y": -0.7141253447532654,
                "z": 0.3711530566215515
            }
        },
        "name": "move_to_auspresseinheit_B"
    },
    "id": "KPIECE_move_to_auspresseinheit_B_12",
    "joint_names": [
        "shoulder_pan_joint",
        "shoulder_lift_joint",
        "elbow_joint",
        "wrist_1_joint",
        "wrist_2_joint",
        "wrist_3_joint"
    ],
    "metrics": {
        "cart_traj_len": 0.5649473698117173,
        "distance_elbow_joint": 0.062187513649031745,
        "distance_shoulder_lift_joint": 0.296227314308138,
        "distance_shoulder_pan_joint": 0.5787305648289356,
        "distance_wrist_1_joint": 0.3259616432036001,
        "distance_wrist_2_joint": 0.9848147009485502,
        "distance_wrist_3_joint": 0.000254910250240048,
        "smoothness": 0.0,
        "time": 0.098773263,
        "traj_len": 1.4993920925456743,
        "weighted_distance": 1.886653866463355
    },
    "planner": "KPIECE",
    "start": {
        "state": {
            "elbow_joint": 2.0193083361928714,
            "shoulder_lift_joint": -1.1220246554650708,
            "shoulder_pan_joint": -1.0952077554168747,
            "wrist_1_joint": -0.8559753972642168,
            "wrist_2_joint": 0.4759566250798843,
            "wrist_3_joint": -3.1240929996934557
        }
    },
    "waypoints": [
        {
            "positions": [
                -1.0952077554168747,
                -1.1220246554650708,
                2.0193083361928714,
                -0.8559753972642168,
                0.4759566250798843,
                -3.1240929996934557
            ]
        },
        {
            "positions": [
                -1.1916628495550305,
                -1.1713958745164272,
                2.0089437505846997,
                -0.8016484567302834,
                0.6400924085713093,
                -3.124135484735162
            ]
        },
        {
            "positions": [
                -1.2881179436931864,
                -1.2207670935677835,
                1.9985791649765274,
                -0.7473215161963501,
                0.8042281920627343,
                -3.124177969776869
            ]
        },
        {
            "positions": [
                -1.3845730378313426,
                -1.2701383126191397,
                1.9882145793683557,
                -0.6929945756624167,
                0.9683639755541593,
                -3.124220454818576
            ]
        },
        {
            "positions": [
                -1.4810281319694982,
                -1.3195095316704961,
                1.9778499937601837,
                -0.6386676351284835,
                1.1324997590455843,
                -3.1242629398602824
            ]
        },
        {
            "positions": [
                -1.5774832261076543,
                -1.3688807507218526,
                1.9674854081520117,
                -0.58434069459455,
                1.2966355425370095,
                -3.124305424901989
            ]
        },
        {
            "positions": [
                -1.6739383202458102,
                -1.4182519697732088,
                1.9571208225438397,
                -0.5300137540606167,
                1.4607713260284345,
                -3.1243479099436957
            ]
        }
    ]
}