{
    "goal": {
        "global_pose": {
            "orientation": {
                "w": -0.00223480608172531,
                "x": 0.0024358444001904467,
                "y": 0.7094548369677653,
                "z": -0.704743149386269
            },
            "position": {
                "x": 0.6205249238014221,
                "y": -0.6371506643295288,
                "z": 0.19426114857196808
            }
        },
        "name": "move_to_magneteinheit_B"
    },
    "id": "KPIECE_move_to_magneteinheit_B_104",
    "joint_names": [
        "shoulder_pan_joint",
        "shoulder_lift_joint",
        "elbow_joint",
        "wrist_1_joint",
        "wrist_2_joint",
        "wrist_3_joint"
    ],
    "metrics": {
        "cart_traj_len": 1.5782927368004542,
        "distance_elbow_joint": 0.952844137845587,
        "distance_shoulder_lift_joint": 1.2136306997945892,
        "distance_shoulder_pan_joint": 1.6208791036891634,
        "distance_wrist_1_joint": 2.047160855897481,
        "distance_wrist_2_joint": 2.1778673459746245,
        "distance_wrist_3_joint": 0.08251961629317824,
        "smoothness": 0.6983731127175737,
        "time": 0.148047704,
        "traj_len": 2.8451540836121025,
        "weighted_distance": 3.533407589558992
    },
    "planner": "KPIECE",
    "start": {
        "state": {
            "elbow_joint": 2.6216224122426386,
            "shoulder_lift_joint": -1.4174107377796124,
            "shoulder_pan_joint": 0.7066234856936794,
            "wrist_1_joint": 1.9546482284002225,
            "wrist_2_joint": -0.7096286983471962,
            "wrist_3_joint": 0.005740856962016249
        }
    },
    "waypoints": [
        {
            "positions": [
                0.7066234856936794,
                -1.4174107377796124,
                2.6216224122426386,
                1.9546482284002225,
                -0.7096286983471962,
                0.005740856962016249
            ]
        },
        {
            "positions": [
                0.6627731356017292,
                -1.455785363703079,
                2.5771926911052923,
                1.800539195489626,
                -0.6548300440101641,
                0.013323903383074941
            ]
        },
        {
            "positions": [
                0.6189227855097791,
                -1.4941599896265458,
                2.5327629699679464,
                1.6464301625790294,
                -0.600031389673132,
                0.020906949804133636
            ]
        },
        {
            "positions": [
                0.5750724354178289,
                -1.5325346155500124,
                2.4883332488306005,
                1.4923211296684329,
                -0.5452327353361,
                0.028489996225192327
            ]
        },
        {
            "positions": [
                0.5312220853258789,
                -1.570909241473479,
                2.443903527693254,
                1.3382120967578364,
                -0.4904340809990678,
                0.03607304264625102
            ]
        },
        {
            "positions": [
                0.48737173523392874,
                -1.6092838673969458,
                2.399473806555908,
                1.1841030638472398,
                -0.43563542666203564,
                0.043656089067309715
            ]
        },
        {
            "positions": [
                0.4435213851419786,
                -1.6476584933204126,
                2.355044085418562,
                1.0299940309366433,
                -0.38083677232500357,
                0.051239135488368406
            ]
        },
        {
            "positions": [
                0.3586603224458872,
                -1.586197059304551,
                2.3121524722297173,
                1.1001506970887622,
                -0.49640398607203057,
                0.04892530187794178
            ]
        },
        {
            "positions": [
                0.2737992597497958,
                -1.524735625288689,
                2.269260859040873,
                1.1703073632408811,
                -0.6119711998190576,
                0.046611468267515145
            ]
        },
        {
            "positions": [
                0.1889381970537044,
                -1.4632741912728273,
                2.2263692458520286,
                1.240464029393,
                -0.7275384135660845,
                0.04429763465708851
            ]
        },
        {
            "positions": [
                0.10407713435761301,
                -1.4018127572569654,
                2.1834776326631844,
                1.310620695545119,
                -0.8431056273131116,
                0.041983801046661884
            ]
        },
        {
            "positions": [
                0.019216071661521616,
                -1.3403513232411037,
                2.14058601947434,
                1.3807773616972376,
                -0.9586728410601385,
                0.03966996743623526
            ]
        },
        {
            "positions": [
                -0.06564499103456978,
                -1.2788898892252418,
                2.0976944062854956,
                1.4509340278493565,
                -1.0742400548071656,
                0.03735613382580862
            ]
        },
        {
            "positions": [
                -0.15050605373066117,
                -1.2174284552093801,
                2.054802793096651,
                1.5210906940014755,
                -1.1898072685541927,
                0.03504230021538199
            ]
        },
        {
            "positions": [
                -0.23536711642675257,
                -1.1559670211935185,
                2.011911179907807,
                1.5912473601535944,
                -1.3053744823012194,
                0.03272846660495536
            ]
        },
        {
            "positions": [
                -0.32022817912284396,
                -1.0945055871776566,
                1.9690195667189623,
                1.6614040263057133,
                -1.4209416960482466,
                0.03041463299452873
            ]
        },
        {
            "positions": [
                -0.40508924181893535,
                -1.0330441531617947,
                1.9261279535301181,
                1.7315606924578322,
                -1.5365089097952733,
                0.0281007993841021
            ]
        },
        {
            "positions": [
                -0.48995030451502675,
                -0.971582719145933,
                1.8832363403412735,
                1.801717358609951,
                -1.6520761235423005,
                0.02578696577367547
            ]
        },
        {
            "positions": [
                -0.5748113672111181,
                -0.9101212851300713,
                1.8403447271524291,
                1.8718740247620698,
                -1.7676433372893277,
                0.02347313216324884
            ]
        },
        {
            "positions": [
                -0.6596724299072096,
                -0.8486598511142095,
                1.7974531139635848,
                1.942030690914189,
                -1.8832105510363544,
                0.021159298552822208
            ]
        },
        {
            "positions": [
                -0.7445334926033009,
                -0.7871984170983477,
                1.7545615007747404,
                2.0121873570663076,
                -1.9987777647833815,
                0.018845464942395578
            ]
        },
        {
            "positions": [
                -0.8293945552993922,
                -0.7257369830824859,
                1.711669887585896,
                2.0823440232184263,
                -2.1143449785304087,
                0.016531631331968943
            ]
        },
        {
            "positions": [
                -0.9142556179954836,
                -0.6642755490666241,
                1.6687782743970516,
                2.1525006893705454,
                -2.2299121922774354,
                0.014217797721542315
            ]
        }
    ]
}