{
    "goal": {
        "global_pose": {
            "orientation": {
                "w": -0.00223480608172531,
                "x": 0.0024358444001904467,
                "y": 0.7094548369677653,
                "z": -0.704743149386269
            },
            "position": {
                "x": 0.6205249238014221,
                "y": -0.6371506643295288,
                "z": 0.19426114857196808
            }
        },
        "name": "move_to_magneteinheit_B"
    },
    "id": "KPIECE_move_to_magneteinheit_B_148",
    "joint_names": [
        "shoulder_pan_joint",
        "shoulder_lift_joint",
        "elbow_joint",
        "wrist_1_joint",
        "wrist_2_joint",
        "wrist_3_joint"
    ],
    "metrics": {
        "cart_traj_len": 1.6626562133911498,
        "distance_elbow_joint": 0.962114076045264,
        "distance_shoulder_lift_joint": 1.2456386210251167,
        "distance_shoulder_pan_joint": 1.6209127725424848,
        "distance_wrist_1_joint": 1.0577678735540328,
        "distance_wrist_2_joint": 1.6977019400375093,
        "distance_wrist_3_joint": 1.1374323660837637,
        "smoothness": 0.6755680965599971,
        "time": 0.147292112,
        "traj_len": 2.778770888232452,
        "weighted_distance": 3.5709805649215234
    },
    "planner": "KPIECE",
    "start": {
        "state": {
            "elbow_joint": 2.6216224122426386,
            "shoulder_lift_joint": -1.4174107377796124,
            "shoulder_pan_joint": 0.7066234856936794,
            "wrist_1_joint": 1.9546482284002225,
            "wrist_2_joint": -0.7096286983471962,
            "wrist_3_joint": 0.005740856962016249
        }
    },
    "waypoints": [
        {
            "positions": [
                0.7066234856936794,
                -1.4174107377796124,
                2.6216224122426386,
                1.9546482284002225,
                -0.7096286983471962,
                0.005740856962016249
            ]
        },
        {
            "positions": [
                0.699457504283407,
                -1.4984239910917472,
                2.6154397445755375,
                1.8735129416419174,
                -0.7326327020293782,
                -0.15963160728763862
            ]
        },
        {
            "positions": [
                0.6922915228731347,
                -1.579437244403882,
                2.6092570769084364,
                1.7923776548836123,
                -0.7556367057115604,
                -0.3250040715372935
            ]
        },
        {
            "positions": [
                0.6851255414628623,
                -1.6604504977160168,
                2.6030744092413354,
                1.7112423681253073,
                -0.7786407093937424,
                -0.4903765357869484
            ]
        },
        {
            "positions": [
                0.6153871703858396,
                -1.640054162146268,
                2.54288571476984,
                1.6463478233981137,
                -0.7495111226987985,
                -0.5160797446328459
            ]
        },
        {
            "positions": [
                0.5456487993088169,
                -1.6196578265765191,
                2.482697020298344,
                1.5814532786709203,
                -0.7203815360038546,
                -0.5417829534787434
            ]
        },
        {
            "positions": [
                0.4759104282317942,
                -1.5992614910067704,
                2.4225083258268483,
                1.5165587339437268,
                -0.6912519493089107,
                -0.5674861623246409
            ]
        },
        {
            "positions": [
                0.38323044722642086,
                -1.5365008340481394,
                2.37164165985155,
                1.5578706258835626,
                -0.7940053605693194,
                -0.5298724725381672
            ]
        },
        {
            "positions": [
                0.2905504662210476,
                -1.4737401770895082,
                2.3207749938762516,
                1.5991825178233983,
                -0.8967587718297282,
                -0.4922587827516933
            ]
        },
        {
            "positions": [
                0.19787048521567424,
                -1.4109795201308772,
                2.2699083279009535,
                1.6404944097632341,
                -0.999512183090137,
                -0.4546450929652196
            ]
        },
        {
            "positions": [
                0.10519050421030096,
                -1.348218863172246,
                2.2190416619256554,
                1.68180630170307,
                -1.1022655943505457,
                -0.4170314031787458
            ]
        },
        {
            "positions": [
                0.012510523204927682,
                -1.285458206213615,
                2.168174995950357,
                1.7231181936429059,
                -1.2050190056109544,
                -0.37941771339227204
            ]
        },
        {
            "positions": [
                -0.08016945780044571,
                -1.2226975492549839,
                2.117308329975059,
                1.7644300855827417,
                -1.3077724168713631,
                -0.34180402360579826
            ]
        },
        {
            "positions": [
                -0.17284943880581893,
                -1.1599368922963529,
                2.0664416639997607,
                1.8057419775225774,
                -1.4105258281317719,
                -0.3041903338193245
            ]
        },
        {
            "positions": [
                -0.26552941981119227,
                -1.097176235337722,
                2.015574998024462,
                1.8470538694624132,
                -1.5132792393921806,
                -0.26657664403285075
            ]
        },
        {
            "positions": [
                -0.3582094008165655,
                -1.0344155783790907,
                1.964708332049164,
                1.888365761402249,
                -1.6160326506525893,
                -0.22896295424637697
            ]
        },
        {
            "positions": [
                -0.45088938182193883,
                -0.9716549214204597,
                1.913841666073866,
                1.9296776533420847,
                -1.7187860619129982,
                -0.1913492644599032
            ]
        },
        {
            "positions": [
                -0.543569362827312,
                -0.9088942644618286,
                1.8629750000985676,
                1.9709895452819206,
                -1.821539473173407,
                -0.15373557467342946
            ]
        },
        {
            "positions": [
                -0.6362493438326856,
                -0.8461336075031974,
                1.8121083341232693,
                2.0123014372217565,
                -1.9242928844338159,
                -0.11612188488695563
            ]
        },
        {
            "positions": [
                -0.7289293248380587,
                -0.7833729505445663,
                1.761241668147971,
                2.053613329161592,
                -2.0270462956942246,
                -0.07850819510048185
            ]
        },
        {
            "positions": [
                -0.8216093058434321,
                -0.7206122935859354,
                1.7103750021726727,
                2.094925221101428,
                -2.1297997069546333,
                -0.04089450531400807
            ]
        },
        {
            "positions": [
                -0.9142892868488054,
                -0.6578516366273043,
                1.6595083361973746,
                2.136237113041264,
                -2.232553118215042,
                -0.0032808155275343607
            ]
        }
    ]
}