{
    "goal": {
        "global_pose": {
            "orientation": {
                "w": 0.7047431468963623,
                "x": -0.7094548344612122,
                "y": 0.0024358443915843964,
                "z": -0.0022348060738295317
            },
            "position": {
                "x": 0.6094750761985779,
                "y": 0.3671506643295288,
                "z": 0.19426114857196808
            }
        },
        "name": "move_to_magneteinheit_A"
    },
    "id": "KPIECE_move_to_magneteinheit_A_141",
    "joint_names": [
        "shoulder_pan_joint",
        "shoulder_lift_joint",
        "elbow_joint",
        "wrist_1_joint",
        "wrist_2_joint",
        "wrist_3_joint"
    ],
    "metrics": {
        "cart_traj_len": 3.515504834835181,
        "distance_elbow_joint": 3.9212044391292755,
        "distance_shoulder_lift_joint": 1.0841850882530468,
        "distance_shoulder_pan_joint": 2.9020767574787425,
        "distance_wrist_1_joint": 3.49705284182914,
        "distance_wrist_2_joint": 2.058686884492961,
        "distance_wrist_3_joint": 2.4708273823584066,
        "smoothness": 0.26273786604536226,
        "time": 0.095275809,
        "traj_len": 3.99174565742127,
        "weighted_distance": 5.141150443682861
    },
    "planner": "KPIECE",
    "start": {
        "state": {
            "elbow_joint": -1.9196185241190666,
            "shoulder_lift_joint": -1.2443396400964142,
            "shoulder_pan_joint": 2.6996025414629847,
            "wrist_1_joint": -1.5485510000780065,
            "wrist_2_joint": -1.5709468930060704,
            "wrist_3_joint": 0.4420197071253992
        }
    },
    "waypoints": [
        {
            "positions": [
                2.6996025414629847,
                -1.2443396400964142,
                -1.9196185241190666,
                -1.5485510000780065,
                -1.5709468930060704,
                0.4420197071253992
            ]
        },
        {
            "positions": [
                2.602254632942744,
                -1.2133638278441319,
                -1.853133354487949,
                -1.4567229812578304,
                -1.5051779742179234,
                0.48222674508576213
            ]
        },
        {
            "positions": [
                2.5049067244225034,
                -1.1823880155918494,
                -1.786648184856831,
                -1.3648949624376545,
                -1.4394090554297763,
                0.5224337830461251
            ]
        },
        {
            "positions": [
                2.4075588159022625,
                -1.151412203339567,
                -1.7201630152257132,
                -1.2730669436174784,
                -1.3736401366416293,
                0.5626408210064879
            ]
        },
        {
            "positions": [
                2.3102109073820216,
                -1.1204363910872845,
                -1.6536778455945953,
                -1.1812389247973023,
                -1.3078712178534824,
                0.6028478589668509
            ]
        },
        {
            "positions": [
                2.2128629988617807,
                -1.0894605788350022,
                -1.5871926759634776,
                -1.0894109059771262,
                -1.2421022990653352,
                0.6430548969272138
            ]
        },
        {
            "positions": [
                2.1155150903415403,
                -1.0584847665827197,
                -1.5207075063323598,
                -0.9975828871569503,
                -1.1763333802771885,
                0.6832619348875768
            ]
        },
        {
            "positions": [
                2.0181671818212994,
                -1.0275089543304374,
                -1.454222336701242,
                -0.9057548683367742,
                -1.1105644614890413,
                0.7234689728479398
            ]
        },
        {
            "positions": [
                1.9208192733010585,
                -0.996533142078155,
                -1.3877371670701242,
                -0.8139268495165982,
                -1.0447955427008941,
                0.7636760108083027
            ]
        },
        {
            "positions": [
                1.8234713647808178,
                -0.9655573298258726,
                -1.3212519974390062,
                -0.7220988306964222,
                -0.9790266239127473,
                0.8038830487686657
            ]
        },
        {
            "positions": [
                1.7261234562605772,
                -0.9345815175735902,
                -1.2547668278078885,
                -0.6302708118762461,
                -0.9132577051246002,
                0.8440900867290286
            ]
        },
        {
            "positions": [
                1.6287755477403363,
                -0.9036057053213078,
                -1.1882816581767708,
                -0.53844279305607,
                -0.8474887863364533,
                0.8842971246893916
            ]
        },
        {
            "positions": [
                1.5314276392200956,
                -0.8726298930690255,
                -1.121796488545653,
                -0.44661477423589413,
                -0.7817198675483064,
                0.9245041626497544
            ]
        },
        {
            "positions": [
                1.4340797306998547,
                -0.841654080816743,
                -1.055311318914535,
                -0.354786755415718,
                -0.7159509487601592,
                0.9647112006101174
            ]
        },
        {
            "positions": [
                1.3367318221796138,
                -0.8106782685644607,
                -0.9888261492834172,
                -0.2629587365955419,
                -0.6501820299720121,
                1.0049182385704802
            ]
        },
        {
            "positions": [
                1.2393839136593734,
                -0.7797024563121783,
                -0.9223409796522994,
                -0.17113071777536604,
                -0.5844131111838653,
                1.0451252765308432
            ]
        },
        {
            "positions": [
                1.1420360051391325,
                -0.7487266440598959,
                -0.8558558100211817,
                -0.07930269895518993,
                -0.5186441923957181,
                1.0853323144912062
            ]
        },
        {
            "positions": [
                1.0446880966188916,
                -0.7177508318076135,
                -0.7893706403900638,
                0.012525319864986173,
                -0.4528752736075712,
                1.125539352451569
            ]
        },
        {
            "positions": [
                0.947340188098651,
                -0.686775019555331,
                -0.722885470758946,
                0.10435333868516206,
                -0.38710635481942424,
                1.165746390411932
            ]
        },
        {
            "positions": [
                0.8499922795784103,
                -0.6557992073030486,
                -0.6564003011278281,
                0.19618135750533816,
                -0.3213374360312773,
                1.205953428372295
            ]
        },
        {
            "positions": [
                0.7526443710581694,
                -0.6248233950507662,
                -0.5899151314967104,
                0.28800937632551427,
                -0.2555685172431301,
                1.246160466332658
            ]
        },
        {
            "positions": [
                0.6552964625379287,
                -0.5938475827984839,
                -0.5234299618655927,
                0.37983739514569015,
                -0.18979959845498318,
                1.286367504293021
            ]
        },
        {
            "positions": [
                0.5579485540176878,
                -0.5628717705462015,
                -0.4569447922344747,
                0.4716654139658665,
                -0.12403067966683623,
                1.326574542253384
            ]
        },
        {
            "positions": [
                0.46060064549744695,
                -0.531895958293919,
                -0.390459622603357,
                0.5634934327860426,
                -0.05826176087868906,
                1.3667815802137468
            ]
        },
        {
            "positions": [
                0.3632527369772065,
                -0.5009201460416367,
                -0.32397445297223926,
                0.6553214516062182,
                0.007507157909457662,
                1.4069886181741098
            ]
        },
        {
            "positions": [
                0.2659048284569656,
                -0.4699443337893543,
                -0.2574892833411212,
                0.7471494704263943,
                0.07327607669760478,
                1.4471956561344725
            ]
        },
        {
            "positions": [
                0.2423879863791117,
                -0.483662539711617,
                -0.11391402174903692,
                0.8267340333709157,
                0.0496282857802599,
                1.3527361492890109
            ]
        },
        {
            "positions": [
                0.21887114430125773,
                -0.4973807456338797,
                0.02966123984304736,
                0.906318596315437,
                0.025980494862915024,
                1.2582766424435494
            ]
        },
        {
            "positions": [
                0.1953543022234038,
                -0.5110989515561424,
                0.17323650143513158,
                0.9859031592599583,
                0.0023327039455701554,
                1.1638171355980877
            ]
        },
        {
            "positions": [
                0.17183746014554985,
                -0.5248171574784051,
                0.3168117630272159,
                1.0654877222044796,
                -0.021315086971774727,
                1.069357628752626
            ]
        },
        {
            "positions": [
                0.14832061806769592,
                -0.5385353634006678,
                0.46038702461930014,
                1.145072285149001,
                -0.044962877889119596,
                0.9748981219071645
            ]
        },
        {
            "positions": [
                0.12480377598984199,
                -0.5522535693229305,
                0.6039622862113844,
                1.2246568480935223,
                -0.06861066880646446,
                0.8804386150617028
            ]
        },
        {
            "positions": [
                0.10128693391198806,
                -0.565971775245193,
                0.7475375478034686,
                1.3042414110380434,
                -0.09225845972380933,
                0.7859791082162414
            ]
        },
        {
            "positions": [
                0.07777009183413411,
                -0.5796899811674558,
                0.891112809395553,
                1.3838259739825647,
                -0.11590625064115423,
                0.6915196013707797
            ]
        },
        {
            "positions": [
                0.05425324975628018,
                -0.5934081870897184,
                1.0346880709876372,
                1.463410536927086,
                -0.13955404155849907,
                0.5970600945253182
            ]
        },
        {
            "positions": [
                0.030736407678426225,
                -0.6071263930119811,
                1.1782633325797214,
                1.5429950998716073,
                -0.16320183247584397,
                0.5026005876798565
            ]
        },
        {
            "positions": [
                0.0072195656005722975,
                -0.6208445989342438,
                1.3218385941718056,
                1.6225796628161286,
                -0.18684962339318884,
                0.4081410808343948
            ]
        },
        {
            "positions": [
                -0.01629727647728163,
                -0.6345628048565065,
                1.4654138557638898,
                1.70216422576065,
                -0.2104974143105337,
                0.31368157398893315
            ]
        },
        {
            "positions": [
                -0.039814118555135544,
                -0.6482810107787692,
                1.6089891173559743,
                1.7817487887051713,
                -0.23414520522787857,
                0.21922206714347164
            ]
        },
        {
            "positions": [
                0.0008509058100196892,
                -0.6811442870179123,
                1.707138316769533,
                1.8234370519666616,
                -0.20738454701192824,
                0.15980260605388857
            ]
        },
        {
            "positions": [
                0.04151593017517492,
                -0.7140075632570554,
                1.8052875161830921,
                1.865125315228152,
                -0.1806238887959779,
                0.10038314496430549
            ]
        },
        {
            "positions": [
                0.08218095454033016,
                -0.7468708394961985,
                1.903436715596651,
                1.9068135784896423,
                -0.15386323058002754,
                0.040963683874722406
            ]
        },
        {
            "positions": [
                0.12284597890548538,
                -0.7797341157353416,
                2.0015859150102098,
                1.9485018417511326,
                -0.1271025723640772,
                -0.01845577721486066
            ]
        }
    ]
}