{
    "goal": {
        "global_pose": {
            "orientation": {
                "w": 0.5084816217422485,
                "x": -0.49083608388900757,
                "y": 0.5182115435600281,
                "z": -0.4816462993621826
            },
            "position": {
                "x": 0.5540239810943604,
                "y": 0.030875300988554955,
                "z": 0.16403168439865112
            }
        },
        "name": "move_to_storage_A"
    },
    "id": "KPIECE_move_to_storage_A_61",
    "joint_names": [
        "shoulder_pan_joint",
        "shoulder_lift_joint",
        "elbow_joint",
        "wrist_1_joint",
        "wrist_2_joint",
        "wrist_3_joint"
    ],
    "metrics": {
        "cart_traj_len": 0.3531981123708821,
        "distance_elbow_joint": 0.4494286129512324,
        "distance_shoulder_lift_joint": 0.23243847145280871,
        "distance_shoulder_pan_joint": 0.4578485616684509,
        "distance_wrist_1_joint": 0.24972684637665987,
        "distance_wrist_2_joint": 1.1147049197831056,
        "distance_wrist_3_joint": 0.10028654149433258,
        "smoothness": 2.2204460668324854e-16,
        "time": 0.019134792,
        "traj_len": 1.613825874661387,
        "weighted_distance": 2.0419203713355283
    },
    "planner": "KPIECE",
    "start": {
        "state": {
            "elbow_joint": 1.971548259319323,
            "shoulder_lift_joint": -1.1394851275133948,
            "shoulder_pan_joint": 0.1228115487234821,
            "wrist_1_joint": -0.7804723859257726,
            "wrist_2_joint": 0.12958671773740124,
            "wrist_3_joint": -3.192489227718131
        }
    },
    "waypoints": [
        {
            "positions": [
                0.1228115487234821,
                -1.1394851275133948,
                1.971548259319323,
                -0.7804723859257726,
                0.12958671773740124,
                -3.192489227718131
            ]
        },
        {
            "positions": [
                0.05740461134227483,
                -1.1726906234352246,
                2.035752346883785,
                -0.8161476496938669,
                0.28883027770641634,
                -3.1781625789332266
            ]
        },
        {
            "positions": [
                -0.008002326038932445,
                -1.2058961193570545,
                2.0999564344482464,
                -0.8518229134619612,
                0.4480738376754314,
                -3.1638359301483217
            ]
        },
        {
            "positions": [
                -0.0734092634201397,
                -1.2391016152788843,
                2.1641605220127085,
                -0.8874981772300554,
                0.6073173976444465,
                -3.149509281363417
            ]
        },
        {
            "positions": [
                -0.138816200801347,
                -1.272307111200714,
                2.22836460957717,
                -0.9231734409981497,
                0.7665609576134615,
                -3.1351826325785126
            ]
        },
        {
            "positions": [
                -0.20422313818255428,
                -1.305512607122544,
                2.2925686971416317,
                -0.958848704766244,
                0.9258045175824767,
                -3.120855983793608
            ]
        },
        {
            "positions": [
                -0.2696300755637615,
                -1.3387181030443738,
                2.3567727847060937,
                -0.9945239685343382,
                1.0850480775514917,
                -3.106529335008703
            ]
        },
        {
            "positions": [
                -0.3350370129449688,
                -1.3719235989662035,
                2.4209768722705554,
                -1.0301992323024325,
                1.2442916375205069,
                -3.0922026862237986
            ]
        }
    ]
}{
    "goal": {
        "global_pose": {
            "orientation": {
                "w": 0.5084816217422485,
                "x": -0.49083608388900757,
                "y": 0.5182115435600281,
                "z": -0.4816462993621826
            },
            "position": {
                "x": 0.5540239810943604,
                "y": 0.030875300988554955,
                "z": 0.16403168439865112
            }
        },
        "name": "move_to_storage_A"
    },
    "id": "KPIECE_move_to_storage_A_61",
    "joint_names": [
        "shoulder_pan_joint",
        "shoulder_lift_joint",
        "elbow_joint",
        "wrist_1_joint",
        "wrist_2_joint",
        "wrist_3_joint"
    ],
    "metrics": {
        "cart_traj_len": 0.35238671828637425,
        "distance_elbow_joint": 0.4507132761501631,
        "distance_shoulder_lift_joint": 0.23556637479057074,
        "distance_shoulder_pan_joint": 0.46096329174689055,
        "distance_wrist_1_joint": 0.244373630420891,
        "distance_wrist_2_joint": 1.097426396570023,
        "distance_wrist_3_joint": 0.09212075685538856,
        "smoothness": 6.661338165333112e-16,
        "time": 0.047972646,
        "traj_len": 1.6066000518280603,
        "weighted_distance": 2.0266241060531227
    },
    "planner": "KPIECE",
    "start": {
        "state": {
            "elbow_joint": 1.97154746011099,
            "shoulder_lift_joint": -1.13948474672311,
            "shoulder_pan_joint": 0.12281154466712228,
            "wrist_1_joint": -0.7804688027058302,
            "wrist_2_joint": 0.12958655903071145,
            "wrist_3_joint": 3.0906928834467795
        }
    },
    "waypoints": [
        {
            "positions": [
                0.12281154466712228,
                -1.13948474672311,
                1.97154746011099,
                -0.7804688027058302,
                0.12958655903071145,
                3.0906928834467795
            ]
        },
        {
            "positions": [
                0.05695964584613793,
                -1.1731370859789059,
                2.0359350709895847,
                -0.815379321337386,
                0.2863617585407148,
                3.103852991568978
            ]
        },
        {
            "positions": [
                -0.008892252974846429,
                -1.2067894252347016,
                2.1003226818681795,
                -0.8502898399689419,
                0.44313695805071807,
                3.1170130996911762
            ]
        },
        {
            "positions": [
                -0.07474415179583078,
                -1.2404417644904975,
                2.1647102927467743,
                -0.8852003586004977,
                0.5999121575607214,
                3.1301732078133746
            ]
        },
        {
            "positions": [
                -0.14059605061681513,
                -1.2740941037462932,
                2.2290979036253686,
                -0.9201108772320536,
                0.7566873570707247,
                3.143333315935573
            ]
        },
        {
            "positions": [
                -0.20644794943779954,
                -1.307746443002089,
                2.2934855145039634,
                -0.9550213958636095,
                0.913462556580728,
                3.1564934240577713
            ]
        },
        {
            "positions": [
                -0.27229984825878384,
                -1.3413987822578848,
                2.357873125382558,
                -0.9899319144951653,
                1.0702377560907312,
                3.1696535321799697
            ]
        },
        {
            "positions": [
                -0.33815174707976825,
                -1.3750511215136807,
                2.422260736261153,
                -1.0248424331267212,
                1.2270129556007345,
                3.182813640302168
            ]
        }
    ]
}{
    "goal": {
        "global_pose": {
            "orientation": {
                "w": 0.5084816217422485,
                "x": -0.49083608388900757,
                "y": 0.5182115435600281,
                "z": -0.4816462993621826
            },
            "position": {
                "x": 0.5540239810943604,
                "y": 0.030875300988554955,
                "z": 0.16403168439865112
            }
        },
        "name": "move_to_storage_A"
    },
    "id": "KPIECE_move_to_storage_A_61",
    "joint_names": [
        "shoulder_pan_joint",
        "shoulder_lift_joint",
        "elbow_joint",
        "wrist_1_joint",
        "wrist_2_joint",
        "wrist_3_joint"
    ],
    "metrics": {
        "cart_traj_len": 0.354041959550577,
        "distance_elbow_joint": 0.45216126421704983,
        "distance_shoulder_lift_joint": 0.23251934718701217,
        "distance_shoulder_pan_joint": 0.4595286608354988,
        "distance_wrist_1_joint": 0.2559785736876088,
        "distance_wrist_2_joint": 1.114612351116839,
        "distance_wrist_3_joint": 0.09133383528675054,
        "smoothness": 8.881784197001252e-16,
        "time": 0.053527399,
        "traj_len": 1.6143525117925015,
        "weighted_distance": 2.039458905619014
    },
    "planner": "KPIECE",
    "start": {
        "state": {
            "elbow_joint": 1.9715472970024885,
            "shoulder_lift_joint": -1.1394870060712896,
            "shoulder_pan_joint": 0.12281152778156021,
            "wrist_1_joint": -0.780463741449964,
            "wrist_2_joint": 0.12958659822042276,
            "wrist_3_joint": 3.090690232415272
        }
    },
    "waypoints": [
        {
            "positions": [
                0.12281152778156021,
                -1.1394870060712896,
                1.9715472970024885,
                -0.780463741449964,
                0.12958659822042276,
                3.090690232415272
            ]
        },
        {
            "positions": [
                0.05716457623363182,
                -1.1727040556694341,
                2.03614176331921,
                -0.8170321091196224,
                0.2888169340942569,
                3.103737923170522
            ]
        },
        {
            "positions": [
                -0.008482375314296575,
                -1.205921105267579,
                2.1007362296359315,
                -0.8536004767892807,
                0.4480472699680911,
                3.116785613925772
            ]
        },
        {
            "positions": [
                -0.07412932686222498,
                -1.2391381548657234,
                2.165330695952653,
                -0.8901688444589392,
                0.6072776058419252,
                3.1298333046810223
            ]
        },
        {
            "positions": [
                -0.13977627841015336,
                -1.272355204463868,
                2.229925162269374,
                -0.9267372121285976,
                0.7665079417157593,
                3.142880995436272
            ]
        },
        {
            "positions": [
                -0.2054232299580818,
                -1.3055722540620125,
                2.2945196285860954,
                -0.9633055797982559,
                0.9257382775895935,
                3.155928686191522
            ]
        },
        {
            "positions": [
                -0.27107018150601014,
                -1.3387893036601572,
                2.359114094902817,
                -0.9998739474679144,
                1.0849686134634278,
                3.1689763769467723
            ]
        },
        {
            "positions": [
                -0.3367171330539386,
                -1.3720063532583018,
                2.4237085612195384,
                -1.0364423151375728,
                1.2441989493372618,
                3.1820240677020224
            ]
        }
    ]
}