{
    "goal": {
        "global_pose": {
            "orientation": {
                "w": 0.5084816217422485,
                "x": -0.49083608388900757,
                "y": 0.5182115435600281,
                "z": -0.4816462993621826
            },
            "position": {
                "x": 0.5540239810943604,
                "y": 0.030875300988554955,
                "z": 0.16403168439865112
            }
        },
        "name": "move_to_storage_A"
    },
    "id": "KPIECE_move_to_storage_A_54",
    "joint_names": [
        "shoulder_pan_joint",
        "shoulder_lift_joint",
        "elbow_joint",
        "wrist_1_joint",
        "wrist_2_joint",
        "wrist_3_joint"
    ],
    "metrics": {
        "cart_traj_len": 0.35232855225177534,
        "distance_elbow_joint": 0.45209127595138,
        "distance_shoulder_lift_joint": 0.23501406336061792,
        "distance_shoulder_pan_joint": 0.4613274480589869,
        "distance_wrist_1_joint": 0.251947207985589,
        "distance_wrist_2_joint": 1.0951881723787575,
        "distance_wrist_3_joint": 0.10326970630453314,
        "smoothness": 2.2204460668324854e-16,
        "time": 0.054775361999999994,
        "traj_len": 1.6120911494204861,
        "weighted_distance": 2.0377714952892236
    },
    "planner": "KPIECE",
    "start": {
        "state": {
            "elbow_joint": 1.971548259319323,
            "shoulder_lift_joint": -1.1394851275133948,
            "shoulder_pan_joint": 0.1228115487234821,
            "wrist_1_joint": -0.7804723859257726,
            "wrist_2_joint": 0.12958671773740124,
            "wrist_3_joint": -3.192489227718131
        }
    },
    "waypoints": [
        {
            "positions": [
                0.1228115487234821,
                -1.1394851275133948,
                1.971548259319323,
                -0.7804723859257726,
                0.12958671773740124,
                -3.192489227718131
            ]
        },
        {
            "positions": [
                0.05690762757219826,
                -1.1730585651363403,
                2.0361327273123773,
                -0.8164648442094282,
                0.28604217093436657,
                -3.177736412531769
            ]
        },
        {
            "positions": [
                -0.008996293579085574,
                -1.2066320027592856,
                2.1007171953054318,
                -0.8524573024930837,
                0.442497624131332,
                -3.1629835973454075
            ]
        },
        {
            "positions": [
                -0.07490021473036942,
                -1.2402054403822311,
                2.165301663298486,
                -0.8884497607767393,
                0.5989530773282973,
                -3.1482307821590454
            ]
        },
        {
            "positions": [
                -0.14080413588165325,
                -1.2737788780051764,
                2.22988613129154,
                -0.9244422190603949,
                0.7554085305252627,
                -3.1334779669726838
            ]
        },
        {
            "positions": [
                -0.2067080570329371,
                -1.307352315628122,
                2.2944705992845944,
                -0.9604346773440504,
                0.9118639837222281,
                -3.1187251517863217
            ]
        },
        {
            "positions": [
                -0.27261197818422095,
                -1.3409257532510672,
                2.359055067277649,
                -0.996427135627706,
                1.0683194369191933,
                -3.10397233659996
            ]
        },
        {
            "positions": [
                -0.3385158993355048,
                -1.3744991908740127,
                2.423639535270703,
                -1.0324195939113616,
                1.2247748901161588,
                -3.089219521413598
            ]
        }
    ]
}{
    "goal": {
        "global_pose": {
            "orientation": {
                "w": 0.5084816217422485,
                "x": -0.49083608388900757,
                "y": 0.5182115435600281,
                "z": -0.4816462993621826
            },
            "position": {
                "x": 0.5540239810943604,
                "y": 0.030875300988554955,
                "z": 0.16403168439865112
            }
        },
        "name": "move_to_storage_A"
    },
    "id": "KPIECE_move_to_storage_A_54",
    "joint_names": [
        "shoulder_pan_joint",
        "shoulder_lift_joint",
        "elbow_joint",
        "wrist_1_joint",
        "wrist_2_joint",
        "wrist_3_joint"
    ],
    "metrics": {
        "cart_traj_len": 0.35304057486127677,
        "distance_elbow_joint": 0.45071711570243345,
        "distance_shoulder_lift_joint": 0.2342666861104874,
        "distance_shoulder_pan_joint": 0.46105810098168193,
        "distance_wrist_1_joint": 0.24082296611432708,
        "distance_wrist_2_joint": 1.1018464028422408,
        "distance_wrist_3_joint": 0.09188539874307944,
        "smoothness": 1.1102230263833737e-15,
        "time": 0.056590447,
        "traj_len": 1.6064235650955354,
        "weighted_distance": 2.0265825512268125
    },
    "planner": "KPIECE",
    "start": {
        "state": {
            "elbow_joint": 1.97154746011099,
            "shoulder_lift_joint": -1.13948474672311,
            "shoulder_pan_joint": 0.12281154466712228,
            "wrist_1_joint": -0.7804688027058302,
            "wrist_2_joint": 0.12958655903071145,
            "wrist_3_joint": 3.0906928834467795
        }
    },
    "waypoints": [
        {
            "positions": [
                0.12281154466712228,
                -1.13948474672311,
                1.97154746011099,
                -0.7804688027058302,
                0.12958655903071145,
                3.0906928834467795
            ]
        },
        {
            "positions": [
                0.05694610166973915,
                -1.1729514161674652,
                2.0359356194970517,
                -0.8148720835793055,
                0.2869931880081744,
                3.103819368981505
            ]
        },
        {
            "positions": [
                -0.008919341327643979,
                -1.2064180856118207,
                2.100323778883114,
                -0.8492753644527807,
                0.44439981698563735,
                3.116945854516231
            ]
        },
        {
            "positions": [
                -0.0747847843250271,
                -1.239884755056176,
                2.1647119382691757,
                -0.8836786453262561,
                0.6018064459631003,
                3.1300723400509565
            ]
        },
        {
            "positions": [
                -0.14065022732241023,
                -1.2733514245005313,
                2.2291000976552375,
                -0.9180819261997314,
                0.7592130749405633,
                3.143198825585682
            ]
        },
        {
            "positions": [
                -0.2065156703197934,
                -1.3068180939448868,
                2.2934882570412993,
                -0.9524852070732066,
                0.9166197039180264,
                3.1563253111204075
            ]
        },
        {
            "positions": [
                -0.27238111331717646,
                -1.340284763389242,
                2.3578764164273616,
                -0.9868884879466819,
                1.074026332895489,
                3.1694517966551334
            ]
        },
        {
            "positions": [
                -0.33824655631455963,
                -1.3737514328335974,
                2.4222645758134234,
                -1.0212917688201573,
                1.2314329618729523,
                3.182578282189859
            ]
        }
    ]
}{
    "goal": {
        "global_pose": {
            "orientation": {
                "w": 0.5084816217422485,
                "x": -0.49083608388900757,
                "y": 0.5182115435600281,
                "z": -0.4816462993621826
            },
            "position": {
                "x": 0.5540239810943604,
                "y": 0.030875300988554955,
                "z": 0.16403168439865112
            }
        },
        "name": "move_to_storage_A"
    },
    "id": "KPIECE_move_to_storage_A_54",
    "joint_names": [
        "shoulder_pan_joint",
        "shoulder_lift_joint",
        "elbow_joint",
        "wrist_1_joint",
        "wrist_2_joint",
        "wrist_3_joint"
    ],
    "metrics": {
        "cart_traj_len": 0.3532410785281593,
        "distance_elbow_joint": 0.4511696070529787,
        "distance_shoulder_lift_joint": 0.2316825140803409,
        "distance_shoulder_pan_joint": 0.4590891051021625,
        "distance_wrist_1_joint": 0.2536863542463512,
        "distance_wrist_2_joint": 1.1099244830194408,
        "distance_wrist_3_joint": 0.10340147334526195,
        "smoothness": 4.440892098500626e-16,
        "time": 0.014662838,
        "traj_len": 1.6152255374549203,
        "weighted_distance": 2.0443500974155215
    },
    "planner": "KPIECE",
    "start": {
        "state": {
            "elbow_joint": 1.9715472970024885,
            "shoulder_lift_joint": -1.1394870060712896,
            "shoulder_pan_joint": 0.12281152778156021,
            "wrist_1_joint": -0.780463741449964,
            "wrist_2_joint": 0.12958659822042276,
            "wrist_3_joint": 3.090690232415272
        }
    },
    "waypoints": [
        {
            "positions": [
                0.12281152778156021,
                -1.1394870060712896,
                1.9715472970024885,
                -0.780463741449964,
                0.12958659822042276,
                3.090690232415272
            ]
        },
        {
            "positions": [
                0.05722736990982272,
                -1.1725845080827668,
                2.036000098010057,
                -0.8167046491994427,
                0.28814723865177144,
                3.105461871464595
            ]
        },
        {
            "positions": [
                -0.008356787961914774,
                -1.2056820100942442,
                2.1004528990176254,
                -0.8529455569489215,
                0.44670787908312015,
                3.120233510513918
            ]
        },
        {
            "positions": [
                -0.07394094583365227,
                -1.2387795121057215,
                2.164905700025194,
                -0.8891864646984002,
                0.6052685195144688,
                3.1350051495632414
            ]
        },
        {
            "positions": [
                -0.13952510370538976,
                -1.2718770141171987,
                2.229358501032762,
                -0.925427372447879,
                0.7638291599458175,
                3.1497767886125643
            ]
        },
        {
            "positions": [
                -0.2051092615771273,
                -1.3049745161286759,
                2.2938113020403303,
                -0.9616682801973577,
                0.9223898003771662,
                3.1645484276618876
            ]
        },
        {
            "positions": [
                -0.2706934194488647,
                -1.3380720181401533,
                2.358264103047899,
                -0.9979091879468365,
                1.0809504408085149,
                3.1793200667112105
            ]
        },
        {
            "positions": [
                -0.33627757732060226,
                -1.3711695201516305,
                2.4227169040554672,
                -1.0341500956963152,
                1.2395110812398635,
                3.194091705760534
            ]
        }
    ]
}