{
    "goal": {
        "global_pose": {
            "orientation": {
                "w": -0.4816463035849501,
                "x": 0.5182115481033762,
                "y": 0.4908360881923453,
                "z": -0.5084816262002911
            },
            "position": {
                "x": -0.8240239810943604,
                "y": 0.19912469901144506,
                "z": 0.16403168439865112
            }
        },
        "name": "move_to_storage_D"
    },
    "id": "KPIECE_move_to_storage_D_115",
    "joint_names": [
        "shoulder_pan_joint",
        "shoulder_lift_joint",
        "elbow_joint",
        "wrist_1_joint",
        "wrist_2_joint",
        "wrist_3_joint"
    ],
    "metrics": {
        "cart_traj_len": 0.6123877176415414,
        "distance_elbow_joint": 0.5545684451700437,
        "distance_shoulder_lift_joint": 0.2234379849101895,
        "distance_shoulder_pan_joint": 0.15101564813107712,
        "distance_wrist_1_joint": 3.8202253657307486,
        "distance_wrist_2_joint": 1.7780031322207583,
        "distance_wrist_3_joint": 4.076687716255824,
        "smoothness": 0.2552506391876635,
        "time": 0.16156628,
        "traj_len": 3.256368881502623,
        "weighted_distance": 4.935133455427705
    },
    "planner": "KPIECE",
    "start": {
        "state": {
            "elbow_joint": -2.384821988534728,
            "shoulder_lift_joint": -2.2788054721415256,
            "shoulder_pan_joint": -0.1854694642142757,
            "wrist_1_joint": 1.4845938289331202,
            "wrist_2_joint": 0.17898776772866878,
            "wrist_3_joint": 0.037105688729662994
        }
    },
    "waypoints": [
        {
            "positions": [
                -0.1854694642142757,
                -2.2788054721415256,
                -2.384821988534728,
                1.4845938289331202,
                0.17898776772866878,
                0.037105688729662994
            ]
        },
        {
            "positions": [
                -0.17027427014148933,
                -2.284798304185312,
                -2.32293412132033,
                1.4124147006250094,
                0.046682086379145143,
                -0.03998759561709961
            ]
        },
        {
            "positions": [
                -0.15507907606870291,
                -2.2907911362290982,
                -2.261046254105932,
                1.3402355723168986,
                -0.0856235949703785,
                -0.11708087996386221
            ]
        },
        {
            "positions": [
                -0.13988388199591653,
                -2.2967839682728846,
                -2.1991583868915345,
                1.2680564440087876,
                -0.21792927631990214,
                -0.19417416431062481
            ]
        },
        {
            "positions": [
                -0.12468868792313015,
                -2.3027768003166704,
                -2.1372705196771364,
                1.195877315700677,
                -0.3502349576694258,
                -0.2712674486573874
            ]
        },
        {
            "positions": [
                -0.10949349385034375,
                -2.3087696323604567,
                -2.0753826524627383,
                1.123698187392566,
                -0.4825406390189495,
                -0.34836073300415005
            ]
        },
        {
            "positions": [
                -0.09429829977755737,
                -2.314762464404243,
                -2.0134947852483407,
                1.0515190590844552,
                -0.6148463203684731,
                -0.4254540173509126
            ]
        },
        {
            "positions": [
                -0.09157809597326833,
                -2.3062406011020853,
                -2.0051656378899927,
                0.8975576683625424,
                -0.6595812769195466,
                -0.2611754714338559
            ]
        },
        {
            "positions": [
                -0.0888578921689793,
                -2.2977187377999275,
                -1.9968364905316447,
                0.7435962776406294,
                -0.7043162334706201,
                -0.09689692551679913
            ]
        },
        {
            "positions": [
                -0.08613768836469025,
                -2.2891968744977698,
                -1.9885073431732967,
                0.5896348869187166,
                -0.7490511900216935,
                0.06738162040025758
            ]
        },
        {
            "positions": [
                -0.08341748456040121,
                -2.2806750111956116,
                -1.9801781958149487,
                0.4356734961968036,
                -0.793786146572767,
                0.23166016631731434
            ]
        },
        {
            "positions": [
                -0.08069728075611218,
                -2.272153147893454,
                -1.9718490484566007,
                0.2817121054748908,
                -0.8385211031238404,
                0.39593871223437105
            ]
        },
        {
            "positions": [
                -0.07797707695182314,
                -2.263631284591296,
                -1.9635199010982525,
                0.12775071475297795,
                -0.8832560596749139,
                0.5602172581514278
            ]
        },
        {
            "positions": [
                -0.0752568731475341,
                -2.2551094212891383,
                -1.9551907537399045,
                -0.026210675968934893,
                -0.9279910162259875,
                0.7244958040684845
            ]
        },
        {
            "positions": [
                -0.07253666934324507,
                -2.2465875579869805,
                -1.9468616063815565,
                -0.18017206669084795,
                -0.972725972777061,
                0.8887743499855413
            ]
        },
        {
            "positions": [
                -0.06981646553895603,
                -2.2380656946848227,
                -1.9385324590232085,
                -0.3341334574127608,
                -1.0174609293281345,
                1.053052895902598
            ]
        },
        {
            "positions": [
                -0.06709626173466698,
                -2.229543831382665,
                -1.9302033116648605,
                -0.48809484813467363,
                -1.0621958858792078,
                1.2173314418196548
            ]
        },
        {
            "positions": [
                -0.06437605793037796,
                -2.221021968080507,
                -1.9218741643065125,
                -0.6420562388565865,
                -1.1069308424302813,
                1.3816099877367116
            ]
        },
        {
            "positions": [
                -0.06165585412608891,
                -2.212500104778349,
                -1.9135450169481645,
                -0.7960176295784993,
                -1.1516657989813548,
                1.545888533653768
            ]
        },
        {
            "positions": [
                -0.05893565032179987,
                -2.2039782414761913,
                -1.9052158695898165,
                -0.9499790203004121,
                -1.1964007555324283,
                1.7101670795708253
            ]
        },
        {
            "positions": [
                -0.056215446517510835,
                -2.1954563781740335,
                -1.8968867222314685,
                -1.103940411022325,
                -1.2411357120835018,
                1.8744456254878816
            ]
        },
        {
            "positions": [
                -0.0534952427132218,
                -2.1869345148718757,
                -1.8885575748731205,
                -1.2579018017442378,
                -1.2858706686345753,
                2.0387241714049384
            ]
        },
        {
            "positions": [
                -0.05077503890893276,
                -2.178412651569718,
                -1.8802284275147723,
                -1.411863192466151,
                -1.3306056251856488,
                2.2030027173219953
            ]
        },
        {
            "positions": [
                -0.04805483510464372,
                -2.16989078826756,
                -1.8718992801564243,
                -1.5658245831880635,
                -1.3753405817367224,
                2.367281263239052
            ]
        },
        {
            "positions": [
                -0.04533463130035468,
                -2.1613689249654024,
                -1.8635701327980763,
                -1.7197859739099768,
                -1.4200755382877959,
                2.531559809156109
            ]
        },
        {
            "positions": [
                -0.04261442749606564,
                -2.1528470616632442,
                -1.8552409854397283,
                -1.8737473646318896,
                -1.4648104948388694,
                2.6958383550731657
            ]
        },
        {
            "positions": [
                -0.03989422369177661,
                -2.1443251983610865,
                -1.8469118380813803,
                -2.0277087553538022,
                -1.5095454513899427,
                2.860116900990222
            ]
        },
        {
            "positions": [
                -0.037174019887487565,
                -2.1358033350589287,
                -1.8385826907230323,
                -2.1816701460757155,
                -1.5542804079410164,
                3.0243954469072794
            ]
        },
        {
            "positions": [
                -0.03445381608319853,
                -2.127281471756771,
                -1.8302535433646843,
                -2.335631536797628,
                -1.5990153644920897,
                3.1886739928243357
            ]
        }
    ]
}