{
    "goal": {
        "global_pose": {
            "orientation": {
                "w": 0.7031023480610252,
                "x": -0.7110244013736278,
                "y": 0.0077485991402295624,
                "z": 0.005598929693374583
            },
            "position": {
                "x": -0.8841497679147869,
                "y": 0.44412534475326537,
                "z": 0.3711530566215515
            }
        },
        "name": "move_to_auspresseinheit_D"
    },
    "id": "KPIECE_move_to_auspresseinheit_D_47",
    "joint_names": [
        "shoulder_pan_joint",
        "shoulder_lift_joint",
        "elbow_joint",
        "wrist_1_joint",
        "wrist_2_joint",
        "wrist_3_joint"
    ],
    "metrics": {
        "cart_traj_len": 0.3424803716021694,
        "distance_elbow_joint": 0.6292802035032272,
        "distance_shoulder_lift_joint": 0.1169051169928319,
        "distance_shoulder_pan_joint": 0.13423358059013935,
        "distance_wrist_1_joint": 0.5049909925295335,
        "distance_wrist_2_joint": 1.430018018825459,
        "distance_wrist_3_joint": 0.023148442329588903,
        "smoothness": 0.0,
        "time": 0.066818352,
        "traj_len": 1.6848075126763828,
        "weighted_distance": 2.195423023197341
    },
    "planner": "KPIECE",
    "start": {
        "state": {
            "elbow_joint": -1.8275523626775212,
            "shoulder_lift_joint": -2.126789852344167,
            "shoulder_pan_joint": -0.03513704404078235,
            "wrist_1_joint": -2.347782403156801,
            "wrist_2_joint": -1.6058999987535132,
            "wrist_3_joint": -3.0880379163319196
        }
    },
    "waypoints": [
        {
            "positions": [
                -0.03513704404078235,
                -2.126789852344167,
                -1.8275523626775212,
                -2.347782403156801,
                -1.6058999987535132,
                -3.0880379163319196
            ]
        },
        {
            "positions": [
                -0.05191624161454977,
                -2.141402991968271,
                -1.7488923372396177,
                -2.4109062772229928,
                -1.4271477464003308,
                -3.090931471623118
            ]
        },
        {
            "positions": [
                -0.06869543918831719,
                -2.156016131592375,
                -1.6702323118017144,
                -2.4740301512891842,
                -1.2483954940471484,
                -3.093825026914317
            ]
        },
        {
            "positions": [
                -0.08547463676208461,
                -2.170629271216479,
                -1.591572286363811,
                -2.5371540253553757,
                -1.069643241693966,
                -3.0967185822055154
            ]
        },
        {
            "positions": [
                -0.10225383433585203,
                -2.1852424108405826,
                -1.5129122609259076,
                -2.6002778994215676,
                -0.8908909893407837,
                -3.099612137496714
            ]
        },
        {
            "positions": [
                -0.11903303190961945,
                -2.1998555504646866,
                -1.434252235488004,
                -2.6634017734877595,
                -0.7121387369876013,
                -3.1025056927879127
            ]
        },
        {
            "positions": [
                -0.13581222948338686,
                -2.2144686900887907,
                -1.3555922100501008,
                -2.726525647553951,
                -0.533386484634419,
                -3.1053992480791113
            ]
        },
        {
            "positions": [
                -0.15259142705715428,
                -2.2290818297128947,
                -1.2769321846121975,
                -2.7896495216201425,
                -0.3546342322812366,
                -3.10829280337031
            ]
        },
        {
            "positions": [
                -0.1693706246309217,
                -2.2436949693369987,
                -1.198272159174294,
                -2.8527733956863344,
                -0.1758819799280542,
                -3.1111863586615085
            ]
        }
    ]
}