{
    "goal": {
        "global_pose": {
            "orientation": {
                "w": 0.7047431493862688,
                "x": -0.7094548369677653,
                "y": 0.0024358444001904,
                "z": -0.0022348060817251984
            },
            "position": {
                "x": -0.39052492380142206,
                "y": 0.3671506643295288,
                "z": 0.19426114857196808
            }
        },
        "name": "move_to_magneteinheit_D"
    },
    "id": "KPIECE_move_to_magneteinheit_D_107",
    "joint_names": [
        "shoulder_pan_joint",
        "shoulder_lift_joint",
        "elbow_joint",
        "wrist_1_joint",
        "wrist_2_joint",
        "wrist_3_joint"
    ],
    "metrics": {
        "cart_traj_len": 4.3266132641051955,
        "distance_elbow_joint": 3.14463284896871,
        "distance_shoulder_lift_joint": 1.6284145288115524,
        "distance_shoulder_pan_joint": 3.036770761848708,
        "distance_wrist_1_joint": 1.6511790605047747,
        "distance_wrist_2_joint": 1.3152049432654105,
        "distance_wrist_3_joint": 3.3591516559207197,
        "smoothness": 0.23930918767150253,
        "time": 0.556612097,
        "traj_len": 3.7597012912357646,
        "weighted_distance": 4.880577948863384
    },
    "planner": "KPIECE",
    "start": {
        "state": {
            "elbow_joint": 0.749534889911806,
            "shoulder_lift_joint": -0.6476975780787326,
            "shoulder_pan_joint": -2.711696901376241,
            "wrist_1_joint": -0.07506478083263063,
            "wrist_2_joint": 0.43296659715538205,
            "wrist_3_joint": -3.14703540197715
        }
    },
    "waypoints": [
        {
            "positions": [
                -2.711696901376241,
                -0.6476975780787326,
                0.749534889911806,
                -0.07506478083263063,
                0.43296659715538205,
                -3.14703540197715
            ]
        },
        {
            "positions": [
                -2.7318014852779875,
                -0.6694378188678222,
                0.638175990701304,
                0.026139743303872906,
                0.3770474398898407,
                -3.1027354158694394
            ]
        },
        {
            "positions": [
                -2.751906069179734,
                -0.6911780596569117,
                0.5268170914908021,
                0.12734426744037644,
                0.3211282826242993,
                -3.058435429761728
            ]
        },
        {
            "positions": [
                -2.77201065308148,
                -0.7129183004460012,
                0.4154581922803003,
                0.22854879157687996,
                0.26520912535875796,
                -3.014135443654017
            ]
        },
        {
            "positions": [
                -2.7921152369832263,
                -0.7346585412350908,
                0.3040992930697984,
                0.3297533157133835,
                0.2092899680932166,
                -2.9698354575463064
            ]
        },
        {
            "positions": [
                -2.6537094992997856,
                -0.7712819700690173,
                0.26072033249818705,
                0.340787392167458,
                0.17968506608939586,
                -2.836797930256333
            ]
        },
        {
            "positions": [
                -2.5153037616163445,
                -0.807905398902944,
                0.21734137192657565,
                0.35182146862153246,
                0.15008016408557515,
                -2.70376040296636
            ]
        },
        {
            "positions": [
                -2.376898023932904,
                -0.8445288277368705,
                0.1739624113549643,
                0.36285554507560697,
                0.12047526208175442,
                -2.570722875676387
            ]
        },
        {
            "positions": [
                -2.238492286249463,
                -0.8811522565707972,
                0.13058345078335296,
                0.3738896215296814,
                0.09087036007793368,
                -2.437685348386414
            ]
        },
        {
            "positions": [
                -2.100086548566022,
                -0.9177756854047238,
                0.08720449021174159,
                0.3849236979837559,
                0.06126545807411296,
                -2.3046478210964407
            ]
        },
        {
            "positions": [
                -1.9616808108825814,
                -0.9543991142386504,
                0.0438255296401302,
                0.3959577744378304,
                0.03166055607029225,
                -2.171610293806468
            ]
        },
        {
            "positions": [
                -1.8232750731991405,
                -0.991022543072577,
                0.000446569068518865,
                0.40699185089190487,
                0.002055654066471513,
                -2.0385727665164945
            ]
        },
        {
            "positions": [
                -1.6848693355156996,
                -1.0276459719065036,
                -0.04293239150309247,
                0.4180259273459793,
                -0.027549247937349225,
                -1.9055352392265215
            ]
        },
        {
            "positions": [
                -1.546463597832259,
                -1.06426940074043,
                -0.08631135207470386,
                0.4290600038000538,
                -0.05715414994116996,
                -1.7724977119365484
            ]
        },
        {
            "positions": [
                -1.408057860148818,
                -1.1008928295743567,
                -0.1296903126463152,
                0.44009408025412833,
                -0.08675905194499067,
                -1.6394601846465753
            ]
        },
        {
            "positions": [
                -1.2696521224653772,
                -1.1375162584082834,
                -0.17306927321792664,
                0.45112815670820283,
                -0.11636395394881144,
                -1.506422657356602
            ]
        },
        {
            "positions": [
                -1.1312463847819365,
                -1.17413968724221,
                -0.21644823378953798,
                0.4621622331622773,
                -0.1459688559526321,
                -1.373385130066629
            ]
        },
        {
            "positions": [
                -0.9928406470984954,
                -1.2107631160761367,
                -0.25982719436114937,
                0.47319630961635173,
                -0.17557375795645286,
                -1.2403476027766558
            ]
        },
        {
            "positions": [
                -0.8544349094150547,
                -1.2473865449100632,
                -0.30320615493276065,
                0.48423038607042623,
                -0.20517865996027357,
                -1.1073100754866827
            ]
        },
        {
            "positions": [
                -0.7160291717316136,
                -1.2840099737439898,
                -0.34658511550437204,
                0.49526446252450074,
                -0.23478356196409433,
                -0.9742725481967094
            ]
        },
        {
            "positions": [
                -0.577623434048173,
                -1.3206334025779163,
                -0.3899640760759833,
                0.5062985389785752,
                -0.26438846396791504,
                -0.8412350209067365
            ]
        },
        {
            "positions": [
                -0.4392176963647323,
                -1.357256831411843,
                -0.4333430366475948,
                0.5173326154326496,
                -0.2939933659717358,
                -0.7081974936167632
            ]
        },
        {
            "positions": [
                -0.3008119586812916,
                -1.3938802602457696,
                -0.4767219972192061,
                0.5283666918867241,
                -0.3235982679755565,
                -0.5751599663267903
            ]
        },
        {
            "positions": [
                -0.16240622099785063,
                -1.4305036890796963,
                -0.5201009577908176,
                0.5394007683407986,
                -0.35320316997937723,
                -0.442122439036817
            ]
        },
        {
            "positions": [
                -0.1472331631001451,
                -1.4848275006946594,
                -0.6659931767606064,
                0.6133481046053174,
                -0.32986147810358457,
                -0.3888600558896867
            ]
        },
        {
            "positions": [
                -0.13206010520243952,
                -1.5391513123096225,
                -0.8118853957303954,
                0.6872954408698362,
                -0.3065197862277919,
                -0.33559767274255636
            ]
        },
        {
            "positions": [
                -0.11688704730473398,
                -1.5934751239245855,
                -0.9577776147001843,
                0.7612427771343548,
                -0.28317809435199925,
                -0.28233528959542603
            ]
        },
        {
            "positions": [
                -0.10171398940702842,
                -1.6477989355395486,
                -1.1036698336699733,
                0.8351901133988737,
                -0.2598364024762066,
                -0.2290729064482957
            ]
        },
        {
            "positions": [
                -0.08654093150932288,
                -1.7021227471545117,
                -1.2495620526397622,
                0.9091374496633924,
                -0.23649471060041394,
                -0.17581052330116537
            ]
        },
        {
            "positions": [
                -0.07136787361161732,
                -1.7564465587694749,
                -1.395454271609551,
                0.983084785927911,
                -0.21315301872462128,
                -0.12254814015403503
            ]
        },
        {
            "positions": [
                -0.056194815713911786,
                -1.810770370384438,
                -1.54134649057934,
                1.05703212219243,
                -0.18981132684882862,
                -0.0692857570069047
            ]
        },
        {
            "positions": [
                -0.04102175781620622,
                -1.865094181999401,
                -1.687238709549129,
                1.1309794584569488,
                -0.16646963497303596,
                -0.01602337385977437
            ]
        },
        {
            "positions": [
                -0.025848699918500667,
                -1.919417993614364,
                -1.833130928518918,
                1.2049267947214672,
                -0.1431279430972433,
                0.03723900928735596
            ]
        },
        {
            "positions": [
                -0.010675642020795129,
                -1.9737418052293272,
                -1.9790231474887068,
                1.2788741309859861,
                -0.11978625122145066,
                0.0905013924344863
            ]
        },
        {
            "positions": [
                -0.04274494352309692,
                -2.0160544470443247,
                -2.101239848695388,
                1.3939082856782792,
                -0.08537237032545653,
                0.1213597718284656
            ]
        },
        {
            "positions": [
                -0.07481424502539871,
                -2.0583670888593226,
                -2.223456549902069,
                1.5089424403705722,
                -0.0509584894294624,
                0.15221815122244492
            ]
        },
        {
            "positions": [
                -0.11173898778362787,
                -2.13094876153631,
                -2.2806703529536807,
                1.4865518272700482,
                0.024638342430782938,
                0.13225211698206935
            ]
        },
        {
            "positions": [
                -0.14866373054185703,
                -2.2035304342132975,
                -2.3378841560052925,
                1.4641612141695242,
                0.10023517429102827,
                0.11228608274169379
            ]
        },
        {
            "positions": [
                -0.18558847330008618,
                -2.276112106890285,
                -2.3950979590569044,
                1.4417706010690001,
                0.17583200615127362,
                0.09232004850131821
            ]
        }
    ]
}