{
    "goal": {
        "global_pose": {
            "orientation": {
                "w": -0.00223480608172531,
                "x": 0.0024358444001904467,
                "y": 0.7094548369677653,
                "z": -0.704743149386269
            },
            "position": {
                "x": -0.37947507619857795,
                "y": -0.6371506643295288,
                "z": 0.19426114857196808
            }
        },
        "name": "move_to_magneteinheit_C"
    },
    "id": "KPIECE_move_to_magneteinheit_C_20",
    "joint_names": [
        "shoulder_pan_joint",
        "shoulder_lift_joint",
        "elbow_joint",
        "wrist_1_joint",
        "wrist_2_joint",
        "wrist_3_joint"
    ],
    "metrics": {
        "cart_traj_len": 1.7186675168474161,
        "distance_elbow_joint": 1.3489999464832207,
        "distance_shoulder_lift_joint": 0.7120176468991655,
        "distance_shoulder_pan_joint": 1.4079349590092558,
        "distance_wrist_1_joint": 0.8120431705302453,
        "distance_wrist_2_joint": 0.7877250135183886,
        "distance_wrist_3_joint": 2.9190185205319756,
        "smoothness": 0.6335612119028761,
        "time": 1.779627445,
        "traj_len": 2.826258880034214,
        "weighted_distance": 3.927536693919592
    },
    "planner": "KPIECE",
    "start": {
        "state": {
            "elbow_joint": 1.9565354010623817,
            "shoulder_lift_joint": -1.4165861575791021,
            "shoulder_pan_joint": -1.6717766225146293,
            "wrist_1_joint": -0.5286633292919765,
            "wrist_2_joint": 1.472756589071564,
            "wrist_3_joint": -3.1238370188695823
        }
    },
    "waypoints": [
        {
            "positions": [
                -1.6717766225146293,
                -1.4165861575791021,
                1.9565354010623817,
                -0.5286633292919765,
                1.472756589071564,
                -3.1238370188695823
            ]
        },
        {
            "positions": [
                -1.5583492640502536,
                -1.440265860509197,
                1.9249299843386898,
                -0.509746178894833,
                1.395903100916903,
                -3.0528569376105525
            ]
        },
        {
            "positions": [
                -1.5345124638874523,
                -1.465239573469977,
                1.854557936306192,
                -0.48073651334922685,
                1.3507349566547324,
                -2.8803755110330247
            ]
        },
        {
            "positions": [
                -1.5106756637246508,
                -1.4902132864307573,
                1.7841858882736943,
                -0.4517268478036207,
                1.305566812392562,
                -2.7078940844554973
            ]
        },
        {
            "positions": [
                -1.4868388635618495,
                -1.5151869993915374,
                1.7138138402411964,
                -0.4227171822580146,
                1.2603986681303916,
                -2.53541265787797
            ]
        },
        {
            "positions": [
                -1.4630020633990481,
                -1.5401607123523178,
                1.6434417922086988,
                -0.39370751671240845,
                1.215230523868221,
                -2.362931231300442
            ]
        },
        {
            "positions": [
                -1.4391652632362468,
                -1.5651344253130979,
                1.573069744176201,
                -0.3646978511668023,
                1.1700623796060505,
                -2.190449804722914
            ]
        },
        {
            "positions": [
                -1.4153284630734455,
                -1.590108138273878,
                1.502697696143703,
                -0.3356881856211962,
                1.1248942353438802,
                -2.0179683781453868
            ]
        },
        {
            "positions": [
                -1.391491662910644,
                -1.6150818512346583,
                1.4323256481112052,
                -0.30667852007559004,
                1.0797260910817097,
                -1.8454869515678591
            ]
        },
        {
            "positions": [
                -1.3676548627478426,
                -1.6400555641954384,
                1.3619536000787076,
                -0.2776688545299839,
                1.0345579468195392,
                -1.6730055249903315
            ]
        },
        {
            "positions": [
                -1.553731554131295,
                -1.6413866327301125,
                1.4918922494720772,
                -0.28651033399941833,
                1.0298224349990295,
                -1.728850823846762
            ]
        },
        {
            "positions": [
                -1.7398082455147474,
                -1.6427177012647867,
                1.621830898865447,
                -0.29535181346885275,
                1.0250869231785198,
                -1.7846961227031926
            ]
        },
        {
            "positions": [
                -1.9258849368981998,
                -1.6440487697994606,
                1.7517695482588167,
                -0.30419329293828723,
                1.02035141135801,
                -1.840541421559623
            ]
        },
        {
            "positions": [
                -2.1119616282816525,
                -1.6453798383341347,
                1.8817081976521863,
                -0.31303477240772165,
                1.0156158995375004,
                -1.8963867204160536
            ]
        },
        {
            "positions": [
                -2.2980383196651046,
                -1.6467109068688088,
                2.011646847045556,
                -0.32187625187715607,
                1.0108803877169907,
                -1.952232019272484
            ]
        },
        {
            "positions": [
                -2.3402469576198275,
                -1.5996864642632564,
                2.0338141252715825,
                -0.3710433602259785,
                0.9775925431625241,
                -2.0797674766315746
            ]
        },
        {
            "positions": [
                -2.3824555955745503,
                -1.5526620216577043,
                2.0559814034976087,
                -0.42021046857480093,
                0.9443046986080574,
                -2.2073029339906656
            ]
        },
        {
            "positions": [
                -2.4025460836141623,
                -1.510952394615447,
                2.0602001250485737,
                -0.4640988021181388,
                0.9146683085427295,
                -2.3128364180812637
            ]
        },
        {
            "positions": [
                -2.4226365716537743,
                -1.4692427675731898,
                2.064418846599539,
                -0.5079871356614767,
                0.8850319184774016,
                -2.418369902171862
            ]
        },
        {
            "positions": [
                -2.432402869721082,
                -1.408357815910422,
                2.0540282668037957,
                -0.5741332185888287,
                0.8450318498925563,
                -2.562934432066101
            ]
        },
        {
            "positions": [
                -2.442169167788389,
                -1.347472864247654,
                2.0436376870080526,
                -0.6402793015161807,
                0.805031781307711,
                -2.7074989619603396
            ]
        },
        {
            "positions": [
                -2.451935465855697,
                -1.286587912584886,
                2.0332471072123095,
                -0.7064253844435326,
                0.7650317127228659,
                -2.8520634918545786
            ]
        },
        {
            "positions": [
                -2.461701763923004,
                -1.225702960922118,
                2.0228565274165664,
                -0.7725714673708848,
                0.7250316441380206,
                -2.9966280217488173
            ]
        },
        {
            "positions": [
                -2.4714680619903118,
                -1.16481800925935,
                2.0124659476208233,
                -0.8387175502982367,
                0.6850315755531753,
                -3.1411925516430563
            ]
        }
    ]
}