{
    "goal": {
        "global_pose": {
            "orientation": {
                "w": 0.005598929693374612,
                "x": 0.007748599140229565,
                "y": 0.7110244013736278,
                "z": -0.7031023480610252
            },
            "position": {
                "x": -0.8858502320852131,
                "y": -0.7141253447532654,
                "z": 0.3711530566215515
            }
        },
        "name": "move_to_auspresseinheit_C"
    },
    "id": "KPIECE_move_to_auspresseinheit_C_11",
    "joint_names": [
        "shoulder_pan_joint",
        "shoulder_lift_joint",
        "elbow_joint",
        "wrist_1_joint",
        "wrist_2_joint",
        "wrist_3_joint"
    ],
    "metrics": {
        "cart_traj_len": 0.49229848385745634,
        "distance_elbow_joint": 0.9897491305141524,
        "distance_shoulder_lift_joint": 0.32017675459785233,
        "distance_shoulder_pan_joint": 0.25661130270102905,
        "distance_wrist_1_joint": 0.6616793688292498,
        "distance_wrist_2_joint": 1.3054476402704298,
        "distance_wrist_3_joint": 0.049828390508295684,
        "smoothness": 1.291895885757589e-15,
        "time": 1.1565584839999998,
        "traj_len": 1.893011512754481,
        "weighted_distance": 2.377031000541911
    },
    "planner": "KPIECE",
    "start": {
        "state": {
            "elbow_joint": 1.7527959577737207,
            "shoulder_lift_joint": -0.9740617694225068,
            "shoulder_pan_joint": -2.967991417825858,
            "wrist_1_joint": -0.759517768980727,
            "wrist_2_joint": 1.7443932448377408,
            "wrist_3_joint": -3.0840537646736568
        }
    },
    "waypoints": [
        {
            "positions": [
                -2.967991417825858,
                -0.9740617694225068,
                1.7527959577737207,
                -0.759517768980727,
                1.7443932448377408,
                -3.0840537646736568
            ]
        },
        {
            "positions": [
                -2.942330287555755,
                -0.9420440939627215,
                1.6538210447223054,
                -0.693349832097802,
                1.6138484808106979,
                -3.0890366037244865
            ]
        },
        {
            "positions": [
                -2.9166691572856522,
                -0.9100264185029363,
                1.5548461316708901,
                -0.627181895214877,
                1.483303716783655,
                -3.094019442775316
            ]
        },
        {
            "positions": [
                -2.891008027015549,
                -0.8780087430431511,
                1.4558712186194749,
                -0.561013958331952,
                1.352758952756612,
                -3.0990022818261456
            ]
        },
        {
            "positions": [
                -2.8653468967454465,
                -0.8459910675833658,
                1.3568963055680596,
                -0.49484602144902706,
                1.222214188729569,
                -3.103985120876975
            ]
        },
        {
            "positions": [
                -2.8396857664753434,
                -0.8139733921235806,
                1.2579213925166446,
                -0.42867808456610207,
                1.091669424702526,
                -3.1089679599278046
            ]
        },
        {
            "positions": [
                -2.8140246362052403,
                -0.7819557166637954,
                1.158946479465229,
                -0.3625101476831771,
                0.961124660675483,
                -3.1139507989786344
            ]
        },
        {
            "positions": [
                -2.7883635059351377,
                -0.7499380412040102,
                1.059971566413814,
                -0.29634221080025214,
                0.83057989664844,
                -3.1189336380294637
            ]
        },
        {
            "positions": [
                -2.7627023756650346,
                -0.7179203657442249,
                0.9609966533623987,
                -0.23017427391732714,
                0.7000351326213969,
                -3.1239164770802934
            ]
        },
        {
            "positions": [
                -2.737041245394932,
                -0.6859026902844396,
                0.8620217403109836,
                -0.16400633703440215,
                0.569490368594354,
                -3.1288993161311227
            ]
        },
        {
            "positions": [
                -2.711380115124829,
                -0.6538850148246544,
                0.7630468272595683,
                -0.09783840015147711,
                0.4389456045673111,
                -3.1338821551819525
            ]
        }
    ]
}