{
    "goal": {
        "global_pose": {
            "orientation": {
                "w": 0.7031023480610252,
                "x": -0.7110244013736278,
                "y": 0.0077485991402295624,
                "z": 0.005598929693374583
            },
            "position": {
                "x": -0.8841497679147869,
                "y": 0.44412534475326537,
                "z": 0.3711530566215515
            }
        },
        "name": "move_to_auspresseinheit_D"
    },
    "id": "KPIECE_move_to_auspresseinheit_D_132",
    "joint_names": [
        "shoulder_pan_joint",
        "shoulder_lift_joint",
        "elbow_joint",
        "wrist_1_joint",
        "wrist_2_joint",
        "wrist_3_joint"
    ],
    "metrics": {
        "cart_traj_len": 0.3432409191864542,
        "distance_elbow_joint": 0.6367003210015987,
        "distance_shoulder_lift_joint": 0.1202187147398317,
        "distance_shoulder_pan_joint": 0.13363261833639184,
        "distance_wrist_1_joint": 0.5183889164408688,
        "distance_wrist_2_joint": 1.449758170491882,
        "distance_wrist_3_joint": 0.009455037488484752,
        "smoothness": 3.9474596431116675e-16,
        "time": 0.021013273,
        "traj_len": 1.693562451903991,
        "weighted_distance": 2.203454320018633
    },
    "planner": "KPIECE",
    "start": {
        "state": {
            "elbow_joint": -1.8275523626775212,
            "shoulder_lift_joint": -2.126789852344167,
            "shoulder_pan_joint": -0.03513704404078235,
            "wrist_1_joint": -2.347782403156801,
            "wrist_2_joint": -1.6058999987535132,
            "wrist_3_joint": -3.0880379163319196
        }
    },
    "waypoints": [
        {
            "positions": [
                -0.03513704404078235,
                -2.126789852344167,
                -1.8275523626775212,
                -2.347782403156801,
                -1.6058999987535132,
                -3.0880379163319196
            ]
        },
        {
            "positions": [
                -0.05184112133283133,
                -2.1418171916866457,
                -1.7479648225523214,
                -2.4125810177119096,
                -1.4246802274420278,
                -3.0892197960179804
            ]
        },
        {
            "positions": [
                -0.06854519862488032,
                -2.1568445310291247,
                -1.6683772824271215,
                -2.4773796322670183,
                -1.2434604561305427,
                -3.0904016757040407
            ]
        },
        {
            "positions": [
                -0.0852492759169293,
                -2.1718718703716036,
                -1.5887897423019217,
                -2.5421782468221266,
                -1.0622406848190575,
                -3.0915835553901014
            ]
        },
        {
            "positions": [
                -0.10195335320897828,
                -2.186899209714083,
                -1.5092022021767217,
                -2.6069768613772353,
                -0.8810209135075722,
                -3.0927654350761618
            ]
        },
        {
            "positions": [
                -0.11865743050102726,
                -2.201926549056562,
                -1.429614662051522,
                -2.671775475932344,
                -0.6998011421960869,
                -3.0939473147622225
            ]
        },
        {
            "positions": [
                -0.13536150779307624,
                -2.2169538883990407,
                -1.3500271219263222,
                -2.7365740904874523,
                -0.5185813708846017,
                -3.0951291944482833
            ]
        },
        {
            "positions": [
                -0.15206558508512522,
                -2.2319812277415196,
                -1.2704395818011225,
                -2.801372705042561,
                -0.3373615995731165,
                -3.0963110741343436
            ]
        },
        {
            "positions": [
                -0.1687696623771742,
                -2.2470085670839985,
                -1.1908520416759225,
                -2.8661713195976697,
                -0.1561418282616312,
                -3.0974929538204043
            ]
        }
    ]
}