{
    "goal": {
        "global_pose": {
            "orientation": {
                "w": -0.4816463035849501,
                "x": 0.5182115481033762,
                "y": 0.4908360881923453,
                "z": -0.5084816262002911
            },
            "position": {
                "x": -0.8240239810943604,
                "y": -0.300875300988555,
                "z": 0.16403168439865112
            }
        },
        "name": "move_to_storage_C"
    },
    "id": "KPIECE_move_to_storage_C_117",
    "joint_names": [
        "shoulder_pan_joint",
        "shoulder_lift_joint",
        "elbow_joint",
        "wrist_1_joint",
        "wrist_2_joint",
        "wrist_3_joint"
    ],
    "metrics": {
        "cart_traj_len": 0.5772085003688365,
        "distance_elbow_joint": 0.2600959688784932,
        "distance_shoulder_lift_joint": 0.19021693399963446,
        "distance_shoulder_pan_joint": 0.4951021663490591,
        "distance_wrist_1_joint": 0.08358552849622458,
        "distance_wrist_2_joint": 1.0669796497150785,
        "distance_wrist_3_joint": 0.06459437574405191,
        "smoothness": 2.5376526478085547e-16,
        "time": 0.012953998,
        "traj_len": 1.469889323446681,
        "weighted_distance": 1.8548122689053865
    },
    "planner": "KPIECE",
    "start": {
        "state": {
            "elbow_joint": 2.010868314990456,
            "shoulder_lift_joint": -1.1634956873337592,
            "shoulder_pan_joint": -2.4736205022346125,
            "wrist_1_joint": -0.8367026794202681,
            "wrist_2_joint": 0.6746043897044499,
            "wrist_3_joint": -3.1496632123970403
        }
    },
    "waypoints": [
        {
            "positions": [
                -2.4736205022346125,
                -1.1634956873337592,
                2.010868314990456,
                -0.8367026794202681,
                0.6746043897044499,
                -3.1496632123970403
            ]
        },
        {
            "positions": [
                -2.5561375299594555,
                -1.1317928650004867,
                1.9675189868440404,
                -0.8227717580042306,
                0.8524343313236297,
                -3.1388974831063647
            ]
        },
        {
            "positions": [
                -2.638654557684299,
                -1.1000900426672144,
                1.9241696586976247,
                -0.8088408365881933,
                1.0302642729428095,
                -3.1281317538156896
            ]
        },
        {
            "positions": [
                -2.721171585409142,
                -1.068387220333942,
                1.8808203305512092,
                -0.7949099151721558,
                1.208094214561989,
                -3.1173660245250145
            ]
        },
        {
            "positions": [
                -2.803688613133985,
                -1.0366843980006695,
                1.8374710024047938,
                -0.7809789937561183,
                1.385924156181169,
                -3.106600295234339
            ]
        },
        {
            "positions": [
                -2.8862056408588286,
                -1.0049815756673972,
                1.794121674258378,
                -0.767048072340081,
                1.5637540978003486,
                -3.0958345659436635
            ]
        },
        {
            "positions": [
                -2.9687226685836716,
                -0.9732787533341247,
                1.7507723461119626,
                -0.7531171509240435,
                1.7415840394195283,
                -3.0850688366529884
            ]
        }
    ]
}