{
    "goal": {
        "global_pose": {
            "orientation": {
                "w": 0.7031023502349854,
                "x": -0.7110244035720825,
                "y": 0.007748599164187908,
                "z": 0.005598929710686207
            },
            "position": {
                "x": 0.11585023208521307,
                "y": 0.44412534475326537,
                "z": 0.3711530566215515
            }
        },
        "name": "move_to_auspresseinheit_A"
    },
    "id": "KPIECE_move_to_auspresseinheit_A_52",
    "joint_names": [
        "shoulder_pan_joint",
        "shoulder_lift_joint",
        "elbow_joint",
        "wrist_1_joint",
        "wrist_2_joint",
        "wrist_3_joint"
    ],
    "metrics": {
        "cart_traj_len": 1.3831241500789215,
        "distance_elbow_joint": 0.9764246949020734,
        "distance_shoulder_lift_joint": 1.2331093779941826,
        "distance_shoulder_pan_joint": 1.04215698835741,
        "distance_wrist_1_joint": 4.300209508868166,
        "distance_wrist_2_joint": 2.382859184768358,
        "distance_wrist_3_joint": 2.5446609432367877,
        "smoothness": 0.8979742897833448,
        "time": 0.330783414,
        "traj_len": 3.5326223543038084,
        "weighted_distance": 4.924612804905282
    },
    "planner": "KPIECE",
    "start": {
        "state": {
            "elbow_joint": 2.4225746658250005,
            "shoulder_lift_joint": -1.3736534386056498,
            "shoulder_pan_joint": -0.3378633547517467,
            "wrist_1_joint": -1.0288598680537169,
            "wrist_2_joint": 1.233022673432363,
            "wrist_3_joint": -3.0940220416140027
        }
    },
    "waypoints": [
        {
            "positions": [
                -0.3378633547517467,
                -1.3736534386056498,
                2.4225746658250005,
                -1.0288598680537169,
                1.233022673432363,
                -3.0940220416140027
            ]
        },
        {
            "positions": [
                -0.3207379988413442,
                -1.422746383467441,
                2.3945598753012534,
                -0.8935735690263196,
                1.1519573976097375,
                -3.0244801767619043
            ]
        },
        {
            "positions": [
                -0.30361264293094165,
                -1.4718393283292321,
                2.3665450847775067,
                -0.7582872699989224,
                1.0708921217871121,
                -2.9549383119098054
            ]
        },
        {
            "positions": [
                -0.2864872870205391,
                -1.5209322731910233,
                2.3385302942537596,
                -0.6230009709715252,
                0.9898268459644866,
                -2.885396447057707
            ]
        },
        {
            "positions": [
                -0.26936193111013657,
                -1.5700252180528147,
                2.3105155037300125,
                -0.4877146719441279,
                0.908761570141861,
                -2.8158545822056085
            ]
        },
        {
            "positions": [
                -0.252236575199734,
                -1.6191181629146059,
                2.282500713206266,
                -0.35242837291673057,
                0.8276962943192354,
                -2.7463127173535096
            ]
        },
        {
            "positions": [
                -0.23511121928933149,
                -1.668211107776397,
                2.2544859226825187,
                -0.21714207388933338,
                0.7466310184966101,
                -2.676770852501411
            ]
        },
        {
            "positions": [
                -0.21798586337892892,
                -1.7173040526381882,
                2.2264711321587716,
                -0.08185577486193607,
                0.6655657426739845,
                -2.6072289876493127
            ]
        },
        {
            "positions": [
                -0.20086050746852638,
                -1.7663969974999794,
                2.198456341635025,
                0.053430524165461124,
                0.584500466851359,
                -2.537687122797214
            ]
        },
        {
            "positions": [
                -0.18373515155812384,
                -1.8154899423617707,
                2.170441551111278,
                0.18871682319285843,
                0.5034351910287335,
                -2.4681452579451153
            ]
        },
        {
            "positions": [
                -0.1666097956477213,
                -1.864582887223562,
                2.1424267605875307,
                0.32400312222025573,
                0.4223699152061079,
                -2.398603393093017
            ]
        },
        {
            "positions": [
                -0.14948443973731873,
                -1.913675832085353,
                2.114411970063784,
                0.45928942124765304,
                0.3413046393834823,
                -2.329061528240918
            ]
        },
        {
            "positions": [
                -0.13235908382691622,
                -1.9627687769471442,
                2.086397179540037,
                0.5945757202750501,
                0.260239363560857,
                -2.2595196633888195
            ]
        },
        {
            "positions": [
                -0.11523372791651368,
                -2.0118617218089354,
                2.05838238901629,
                0.7298620193024474,
                0.1791740877382315,
                -2.189977798536721
            ]
        },
        {
            "positions": [
                -0.09810837200611111,
                -2.060954666670727,
                2.030367598492543,
                0.8651483183298447,
                0.09810881191560594,
                -2.1204359336846226
            ]
        },
        {
            "positions": [
                -0.08098301609570857,
                -2.1100476115325177,
                2.002352807968796,
                1.0004346173572423,
                0.01704353609298037,
                -2.050894068832524
            ]
        },
        {
            "positions": [
                -0.06385766018530603,
                -2.159140556394309,
                1.974338017445049,
                1.1357209163846391,
                -0.06402173972964498,
                -1.9813522039804254
            ]
        },
        {
            "positions": [
                -0.04673230427490349,
                -2.2082335012561,
                1.9463232269213022,
                1.2710072154120364,
                -0.14508701555227055,
                -1.9118103391283268
            ]
        },
        {
            "positions": [
                -0.02960694836450095,
                -2.2573264461178915,
                1.918308436397555,
                1.4062935144394335,
                -0.22615229137489612,
                -1.842268474276228
            ]
        },
        {
            "positions": [
                0.01931975710017666,
                -2.234030688085762,
                1.949785667429197,
                1.2819564393477658,
                -0.1645733433774896,
                -1.9284622993361622
            ]
        },
        {
            "positions": [
                0.06824646256485427,
                -2.2107349300536328,
                1.981262898460839,
                1.157619364256098,
                -0.1029943953800831,
                -2.0146561243960965
            ]
        },
        {
            "positions": [
                0.1171731680295319,
                -2.187439172021503,
                2.0127401294924807,
                1.0332822891644302,
                -0.04141544738267658,
                -2.100849949456031
            ]
        },
        {
            "positions": [
                0.1660998734942095,
                -2.164143413989374,
                2.0442173605241227,
                0.9089452140727624,
                0.020163500614729907,
                -2.1870437745159648
            ]
        },
        {
            "positions": [
                0.2150265789588871,
                -2.1408476559572445,
                2.0756945915557643,
                0.7846081389810946,
                0.08174244861213642,
                -2.273237599575899
            ]
        },
        {
            "positions": [
                0.26395328442356475,
                -2.117551897925115,
                2.1071718225874063,
                0.6602710638894268,
                0.14332139660954296,
                -2.3594314246358334
            ]
        },
        {
            "positions": [
                0.31287998988824234,
                -2.0942561398929858,
                2.1386490536190483,
                0.535933988797759,
                0.20490034460694945,
                -2.4456252496957678
            ]
        },
        {
            "positions": [
                0.3618066953529199,
                -2.070960381860856,
                2.17012628465069,
                0.4115969137060913,
                0.26647929260435593,
                -2.5318190747557017
            ]
        },
        {
            "positions": [
                0.4107334008175975,
                -2.047664623828727,
                2.201603515682332,
                0.2872598386144236,
                0.3280582406017625,
                -2.618012899815636
            ]
        },
        {
            "positions": [
                0.45966010628227516,
                -2.0243688657965975,
                2.233080746713974,
                0.1629227635227557,
                0.38963718859916896,
                -2.7042067248755703
            ]
        },
        {
            "positions": [
                0.5085868117469527,
                -2.0010731077644683,
                2.2645579777456155,
                0.038585688431088006,
                0.45121613659657545,
                -2.7904005499355042
            ]
        },
        {
            "positions": [
                0.5575135172116304,
                -1.9777773497323388,
                2.2960352087772575,
                -0.08575138666057991,
                0.512795084593982,
                -2.8765943749954386
            ]
        },
        {
            "positions": [
                0.606440222676308,
                -1.9544815917002092,
                2.3275124398088995,
                -0.2100884617522476,
                0.5743740325913885,
                -2.962788200055373
            ]
        },
        {
            "positions": [
                0.6553669281409856,
                -1.9311858336680798,
                2.358989670840541,
                -0.3344255368439155,
                0.635952980588795,
                -3.048982025115307
            ]
        },
        {
            "positions": [
                0.7042936336056632,
                -1.9078900756359505,
                2.390466901872183,
                -0.4587626119355831,
                0.6975319285862015,
                -3.135175850175241
            ]
        }
    ]
}