{
    "goal": {
        "global_pose": {
            "orientation": {
                "w": 0.7031023480610252,
                "x": -0.7110244013736278,
                "y": 0.0077485991402295624,
                "z": 0.005598929693374583
            },
            "position": {
                "x": -0.8841497679147869,
                "y": 0.44412534475326537,
                "z": 0.3711530566215515
            }
        },
        "name": "move_to_auspresseinheit_D"
    },
    "id": "KPIECE_move_to_auspresseinheit_D_39",
    "joint_names": [
        "shoulder_pan_joint",
        "shoulder_lift_joint",
        "elbow_joint",
        "wrist_1_joint",
        "wrist_2_joint",
        "wrist_3_joint"
    ],
    "metrics": {
        "cart_traj_len": 0.34387028826340144,
        "distance_elbow_joint": 0.6378244088788605,
        "distance_shoulder_lift_joint": 0.12040864013347186,
        "distance_shoulder_pan_joint": 0.13412107673251766,
        "distance_wrist_1_joint": 0.5206736468291528,
        "distance_wrist_2_joint": 1.4429142281502765,
        "distance_wrist_3_joint": 0.005075535877252957,
        "smoothness": 0.0,
        "time": 0.15929667,
        "traj_len": 1.691454266778009,
        "weighted_distance": 2.1988079687265705
    },
    "planner": "KPIECE",
    "start": {
        "state": {
            "elbow_joint": -1.8275523626775212,
            "shoulder_lift_joint": -2.126789852344167,
            "shoulder_pan_joint": -0.03513704404078235,
            "wrist_1_joint": -2.347782403156801,
            "wrist_2_joint": -1.6058999987535132,
            "wrist_3_joint": -3.0880379163319196
        }
    },
    "waypoints": [
        {
            "positions": [
                -0.03513704404078235,
                -2.126789852344167,
                -1.8275523626775212,
                -2.347782403156801,
                -1.6058999987535132,
                -3.0880379163319196
            ]
        },
        {
            "positions": [
                -0.05190217863234706,
                -2.141840932360851,
                -1.7478243115676637,
                -2.412866609010445,
                -1.4255357202347287,
                -3.0886723583165763
            ]
        },
        {
            "positions": [
                -0.06866731322391176,
                -2.1568920123775346,
                -1.668096260457806,
                -2.477950814864089,
                -1.245171441715944,
                -3.089306800301233
            ]
        },
        {
            "positions": [
                -0.08543244781547647,
                -2.1719430923942187,
                -1.5883682093479485,
                -2.543035020717733,
                -1.0648071631971594,
                -3.0899412422858896
            ]
        },
        {
            "positions": [
                -0.10219758240704119,
                -2.1869941724109028,
                -1.5086401582380908,
                -2.608119226571377,
                -0.884442884678375,
                -3.0905756842705463
            ]
        },
        {
            "positions": [
                -0.11896271699860589,
                -2.202045252427587,
                -1.4289121071282334,
                -2.6732034324250216,
                -0.7040786061595904,
                -3.0912101262552025
            ]
        },
        {
            "positions": [
                -0.1357278515901706,
                -2.217096332444271,
                -1.3491840560183759,
                -2.7382876382786656,
                -0.5237143276408058,
                -3.091844568239859
            ]
        },
        {
            "positions": [
                -0.15249298618173532,
                -2.2321474124609546,
                -1.2694560049085184,
                -2.8033718441323097,
                -0.34335004912202116,
                -3.092479010224516
            ]
        },
        {
            "positions": [
                -0.16925812077330002,
                -2.2471984924776387,
                -1.1897279537986607,
                -2.8684560499859537,
                -0.16298577060323663,
                -3.0931134522091726
            ]
        }
    ]
}