{
    "goal": {
        "global_pose": {
            "orientation": {
                "w": 0.7031023502349854,
                "x": -0.7110244035720825,
                "y": 0.007748599164187908,
                "z": 0.005598929710686207
            },
            "position": {
                "x": 0.11585023208521307,
                "y": 0.44412534475326537,
                "z": 0.3711530566215515
            }
        },
        "name": "move_to_auspresseinheit_A"
    },
    "id": "KPIECE_move_to_auspresseinheit_A_86",
    "joint_names": [
        "shoulder_pan_joint",
        "shoulder_lift_joint",
        "elbow_joint",
        "wrist_1_joint",
        "wrist_2_joint",
        "wrist_3_joint"
    ],
    "metrics": {
        "cart_traj_len": 2.020353704277512,
        "distance_elbow_joint": 2.2226605500381966,
        "distance_shoulder_lift_joint": 0.5850947540227407,
        "distance_shoulder_pan_joint": 1.046265073566115,
        "distance_wrist_1_joint": 0.546889470681768,
        "distance_wrist_2_joint": 0.5203894682564555,
        "distance_wrist_3_joint": 2.540155770395436,
        "smoothness": 1.1005050261369567,
        "time": 0.179019278,
        "traj_len": 2.7315664163554056,
        "weighted_distance": 3.6890439908856885
    },
    "planner": "KPIECE",
    "start": {
        "state": {
            "elbow_joint": 2.4225746658250005,
            "shoulder_lift_joint": -1.3736534386056498,
            "shoulder_pan_joint": -0.3378633547517467,
            "wrist_1_joint": -1.0288598680537169,
            "wrist_2_joint": 1.233022673432363,
            "wrist_3_joint": -3.0940220416140027
        }
    },
    "waypoints": [
        {
            "positions": [
                -0.3378633547517467,
                -1.3736534386056498,
                2.4225746658250005,
                -1.0288598680537169,
                1.233022673432363,
                -3.0940220416140027
            ]
        },
        {
            "positions": [
                -0.3031600701799168,
                -1.4184993482274624,
                2.29766507255877,
                -1.0260839529548254,
                1.1927119863842779,
                -2.9550700918152493
            ]
        },
        {
            "positions": [
                -0.26845678560808683,
                -1.463345257849275,
                2.17275547929254,
                -1.023308037855934,
                1.1524012993361927,
                -2.8161181420164962
            ]
        },
        {
            "positions": [
                -0.23375350103625694,
                -1.5081911674710875,
                2.0478458860263093,
                -1.0205321227570425,
                1.1120906122881073,
                -2.6771661922177428
            ]
        },
        {
            "positions": [
                -0.199050216464427,
                -1.5530370770928998,
                1.9229362927600793,
                -1.017756207658151,
                1.0717799252400222,
                -2.5382142424189897
            ]
        },
        {
            "positions": [
                -0.16434693189259708,
                -1.5978829867147124,
                1.7980266994938487,
                -1.0149802925592597,
                1.031469238191937,
                -2.3992622926202363
            ]
        },
        {
            "positions": [
                -0.12964364732076716,
                -1.642728896336525,
                1.6731171062276187,
                -1.0122043774603682,
                0.9911585511438519,
                -2.2603103428214832
            ]
        },
        {
            "positions": [
                -0.09494036274893722,
                -1.6875748059583375,
                1.5482075129613881,
                -1.0094284623614767,
                0.9508478640957666,
                -2.1213583930227298
            ]
        },
        {
            "positions": [
                -0.06023707817710727,
                -1.73242071558015,
                1.423297919695158,
                -1.0066525472625854,
                0.9105371770476813,
                -1.9824064432239765
            ]
        },
        {
            "positions": [
                -0.02553379360527737,
                -1.7772666252019627,
                1.2983883264289275,
                -1.0038766321636938,
                0.8702264899995962,
                -1.8434544934252233
            ]
        },
        {
            "positions": [
                0.0412986908027943,
                -1.7930695100632932,
                1.4081344406965324,
                -0.9530832967398909,
                0.8626024926697041,
                -1.9604892847891986
            ]
        },
        {
            "positions": [
                0.10813117521086597,
                -1.8088723949246237,
                1.517880554964137,
                -0.902289961316088,
                0.8549784953398122,
                -2.077524076153174
            ]
        },
        {
            "positions": [
                0.17496365961893762,
                -1.8246752797859545,
                1.6276266692317418,
                -0.8514966258922851,
                0.8473544980099201,
                -2.194558867517149
            ]
        },
        {
            "positions": [
                0.24179614402700933,
                -1.840478164647285,
                1.7373727834993464,
                -0.8007032904684822,
                0.8397305006800282,
                -2.311593658881124
            ]
        },
        {
            "positions": [
                0.308628628435081,
                -1.8562810495086155,
                1.8471188977669513,
                -0.7499099550446793,
                0.8321065033501361,
                -2.4286284502450997
            ]
        },
        {
            "positions": [
                0.37546111284315264,
                -1.872083934369946,
                1.956865012034556,
                -0.6991166196208765,
                0.8244825060202441,
                -2.5456632416090748
            ]
        },
        {
            "positions": [
                0.4422935972512243,
                -1.8878868192312765,
                2.0666111263021607,
                -0.6483232841970734,
                0.8168585086903521,
                -2.66269803297305
            ]
        },
        {
            "positions": [
                0.509126081659296,
                -1.9036897040926073,
                2.1763572405697653,
                -0.5975299487732706,
                0.8092345113604601,
                -2.7797328243370254
            ]
        },
        {
            "positions": [
                0.5759585660673676,
                -1.9194925889539378,
                2.2861033548373704,
                -0.5467366133494675,
                0.8016105140305682,
                -2.8967676157010005
            ]
        },
        {
            "positions": [
                0.6427910504754393,
                -1.9352954738152683,
                2.395849469104975,
                -0.4959432779256647,
                0.7939865167006761,
                -3.0138024070649756
            ]
        },
        {
            "positions": [
                0.7084017188143682,
                -1.9118427550021462,
                2.3968625370710512,
                -0.48197039737194886,
                0.7126332051759076,
                -3.1330427156318796
            ]
        }
    ]
}