{
    "goal": {
        "global_pose": {
            "orientation": {
                "w": 0.7031023480610252,
                "x": -0.7110244013736278,
                "y": 0.0077485991402295624,
                "z": 0.005598929693374583
            },
            "position": {
                "x": -0.8841497679147869,
                "y": 0.44412534475326537,
                "z": 0.3711530566215515
            }
        },
        "name": "move_to_auspresseinheit_D"
    },
    "id": "KPIECE_move_to_auspresseinheit_D_9",
    "joint_names": [
        "shoulder_pan_joint",
        "shoulder_lift_joint",
        "elbow_joint",
        "wrist_1_joint",
        "wrist_2_joint",
        "wrist_3_joint"
    ],
    "metrics": {
        "cart_traj_len": 0.3456878483414475,
        "distance_elbow_joint": 0.6698913558425952,
        "distance_shoulder_lift_joint": 0.13837609310596743,
        "distance_shoulder_pan_joint": 0.13426293665532282,
        "distance_wrist_1_joint": 0.6191688209949748,
        "distance_wrist_2_joint": 1.4451026802115186,
        "distance_wrist_3_joint": 0.07914116467522847,
        "smoothness": 0.0,
        "time": 0.267602605,
        "traj_len": 1.7566852454226416,
        "weighted_distance": 2.304017552459737
    },
    "planner": "KPIECE",
    "start": {
        "state": {
            "elbow_joint": -1.8275523626775212,
            "shoulder_lift_joint": -2.126789852344167,
            "shoulder_pan_joint": -0.03513704404078235,
            "wrist_1_joint": -2.347782403156801,
            "wrist_2_joint": -1.6058999987535132,
            "wrist_3_joint": -3.0880379163319196
        }
    },
    "waypoints": [
        {
            "positions": [
                -0.03513704404078235,
                -2.126789852344167,
                -1.8275523626775212,
                -2.347782403156801,
                -1.6058999987535132,
                -3.0880379163319196
            ]
        },
        {
            "positions": [
                -0.0519199111226977,
                -2.144086863982413,
                -1.743815943197197,
                -2.4251785057811728,
                -1.4252621637270733,
                -3.078145270747516
            ]
        },
        {
            "positions": [
                -0.06870277820461305,
                -2.1613838756206585,
                -1.6600795237168724,
                -2.5025746084055447,
                -1.2446243287006336,
                -3.0682526251631126
            ]
        },
        {
            "positions": [
                -0.08548564528652841,
                -2.1786808872589045,
                -1.5763431042365479,
                -2.5799707110299166,
                -1.0639864936741938,
                -3.058359979578709
            ]
        },
        {
            "positions": [
                -0.10226851236844375,
                -2.1959778988971506,
                -1.4926066847562236,
                -2.6573668136542885,
                -0.8833486586477539,
                -3.0484673339943056
            ]
        },
        {
            "positions": [
                -0.11905137945035912,
                -2.2132749105353966,
                -1.4088702652758993,
                -2.73476291627866,
                -0.7027108236213141,
                -3.0385746884099016
            ]
        },
        {
            "positions": [
                -0.13583424653227447,
                -2.2305719221736426,
                -1.3251338457955748,
                -2.812159018903032,
                -0.5220729885948743,
                -3.028682042825498
            ]
        },
        {
            "positions": [
                -0.1526171136141898,
                -2.2478689338118882,
                -1.2413974263152503,
                -2.889555121527404,
                -0.34143515356843457,
                -3.0187893972410946
            ]
        },
        {
            "positions": [
                -0.16939998069610518,
                -2.2651659454501343,
                -1.157661006834926,
                -2.9669512241517757,
                -0.16079731854199464,
                -3.008896751656691
            ]
        }
    ]
}