{
    "goal": {
        "global_pose": {
            "orientation": {
                "w": 0.7047431468963623,
                "x": -0.7094548344612122,
                "y": 0.0024358443915843964,
                "z": -0.0022348060738295317
            },
            "position": {
                "x": 0.6094750761985779,
                "y": 0.3671506643295288,
                "z": 0.19426114857196808
            }
        },
        "name": "move_to_magneteinheit_A"
    },
    "id": "KPIECE_move_to_magneteinheit_A_108",
    "joint_names": [
        "shoulder_pan_joint",
        "shoulder_lift_joint",
        "elbow_joint",
        "wrist_1_joint",
        "wrist_2_joint",
        "wrist_3_joint"
    ],
    "metrics": {
        "cart_traj_len": 3.0253124920353014,
        "distance_elbow_joint": 3.911119399245515,
        "distance_shoulder_lift_joint": 0.8544309932032634,
        "distance_shoulder_pan_joint": 3.1264409703162324,
        "distance_wrist_1_joint": 3.4605017969525855,
        "distance_wrist_2_joint": 1.441597710724133,
        "distance_wrist_3_joint": 2.264176149125337,
        "smoothness": 0.12270446816762685,
        "time": 0.158169854,
        "traj_len": 3.8804982952666096,
        "weighted_distance": 4.948607766381819
    },
    "planner": "KPIECE",
    "start": {
        "state": {
            "elbow_joint": -1.9196185241190666,
            "shoulder_lift_joint": -1.2443396400964142,
            "shoulder_pan_joint": 2.6996025414629847,
            "wrist_1_joint": -1.5485510000780065,
            "wrist_2_joint": -1.5709468930060704,
            "wrist_3_joint": 0.4420197071253992
        }
    },
    "waypoints": [
        {
            "positions": [
                2.6996025414629847,
                -1.2443396400964142,
                -1.9196185241190666,
                -1.5485510000780065,
                -1.5709468930060704,
                0.4420197071253992
            ]
        },
        {
            "positions": [
                2.5939859210080334,
                -1.2515135777505393,
                -1.830417264235185,
                -1.4496942785549858,
                -1.5256800354422253,
                0.39201084600271113
            ]
        },
        {
            "positions": [
                2.488369300553082,
                -1.2586875154046646,
                -1.7412160043513034,
                -1.350837557031965,
                -1.4804131778783802,
                0.3420019848800231
            ]
        },
        {
            "positions": [
                2.3827526800981302,
                -1.2658614530587897,
                -1.6520147444674218,
                -1.2519808355089443,
                -1.4351463203145352,
                0.2919931237573351
            ]
        },
        {
            "positions": [
                2.277136059643179,
                -1.273035390712915,
                -1.5628134845835402,
                -1.1531241139859236,
                -1.38987946275069,
                0.24198426263464703
            ]
        },
        {
            "positions": [
                2.1715194391882275,
                -1.2802093283670402,
                -1.4736122246996586,
                -1.054267392462903,
                -1.344612605186845,
                0.19197540151195897
            ]
        },
        {
            "positions": [
                2.065902818733276,
                -1.2873832660211655,
                -1.384410964815777,
                -0.9554106709398822,
                -1.2993457476230001,
                0.14196654038927098
            ]
        },
        {
            "positions": [
                1.9602861982783246,
                -1.2945572036752906,
                -1.2952097049318954,
                -0.8565539494168615,
                -1.254078890059155,
                0.09195767926658294
            ]
        },
        {
            "positions": [
                1.854669577823373,
                -1.301731141329416,
                -1.206008445048014,
                -0.7576972278938408,
                -1.20881203249531,
                0.041948818143894895
            ]
        },
        {
            "positions": [
                1.7490529573684217,
                -1.308905078983541,
                -1.1168071851641324,
                -0.65884050637082,
                -1.163545174931465,
                -0.008060042978793147
            ]
        },
        {
            "positions": [
                1.6434363369134704,
                -1.3160790166376664,
                -1.0276059252802507,
                -0.5599837848477993,
                -1.1182783173676198,
                -0.058068904101481245
            ]
        },
        {
            "positions": [
                1.5378197164585188,
                -1.3232529542917915,
                -0.9384046653963691,
                -0.4611270633247786,
                -1.0730114598037748,
                -0.10807776522416923
            ]
        },
        {
            "positions": [
                1.4322030960035674,
                -1.3304268919459168,
                -0.8492034055124875,
                -0.3622703418017579,
                -1.0277446022399297,
                -0.15808662634685722
            ]
        },
        {
            "positions": [
                1.326586475548616,
                -1.337600829600042,
                -0.7600021456286059,
                -0.26341362027873716,
                -0.9824777446760846,
                -0.20809548746954531
            ]
        },
        {
            "positions": [
                1.2209698550936645,
                -1.3447747672541672,
                -0.6708008857447243,
                -0.16455689875571644,
                -0.9372108871122395,
                -0.2581043485922333
            ]
        },
        {
            "positions": [
                1.115353234638713,
                -1.3519487049082923,
                -0.5815996258608427,
                -0.0657001772326955,
                -0.8919440295483945,
                -0.3081132097149215
            ]
        },
        {
            "positions": [
                1.0097366141837616,
                -1.3591226425624177,
                -0.4923983659769613,
                0.033156544290324996,
                -0.8466771719845495,
                -0.3581220708376094
            ]
        },
        {
            "positions": [
                0.90411999372881,
                -1.3662965802165428,
                -0.40319710609307946,
                0.13201326581334594,
                -0.8014103144207043,
                -0.4081309319602975
            ]
        },
        {
            "positions": [
                0.7985033732738587,
                -1.373470517870668,
                -0.31399584620919807,
                0.23086998733636643,
                -0.7561434568568594,
                -0.45813979308298547
            ]
        },
        {
            "positions": [
                0.6928867528189073,
                -1.3806444555247932,
                -0.22479458632531624,
                0.3297267088593874,
                -0.7108765992930143,
                -0.5081486542056736
            ]
        },
        {
            "positions": [
                0.587270132363956,
                -1.3878183931789185,
                -0.13559332644143485,
                0.42858343038240787,
                -0.6656097417291692,
                -0.5581575153283617
            ]
        },
        {
            "positions": [
                0.4816535119090042,
                -1.3949923308330436,
                -0.04639206655755301,
                0.5274401519054288,
                -0.6203428841653241,
                -0.6081663764510498
            ]
        },
        {
            "positions": [
                0.37603689145405284,
                -1.4021662684871687,
                0.042809193326328376,
                0.6262968734284493,
                -0.5750760266014792,
                -0.6581752375737376
            ]
        },
        {
            "positions": [
                0.2704202709991015,
                -1.409340206141294,
                0.13201045321021,
                0.7251535949514702,
                -0.5298091690376341,
                -0.7081840986964257
            ]
        },
        {
            "positions": [
                0.16480365054415014,
                -1.4165141437954194,
                0.2212117130940916,
                0.8240103164744907,
                -0.484542311473789,
                -0.7581929598191136
            ]
        },
        {
            "positions": [
                0.059187030089198345,
                -1.4236880814495445,
                0.3104129729779732,
                0.9228670379975117,
                -0.43927545390994394,
                -0.8082018209418019
            ]
        },
        {
            "positions": [
                -0.04642959036575256,
                -1.4308620191036696,
                0.3996142328618548,
                1.0217237595205322,
                -0.39400859634609886,
                -0.8582106820644898
            ]
        },
        {
            "positions": [
                -0.15204621082070421,
                -1.438035956757795,
                0.4888154927457364,
                1.1205804810435533,
                -0.3487417387822538,
                -0.9082195431871779
            ]
        },
        {
            "positions": [
                -0.1513737655034629,
                -1.383038776174667,
                0.6361907273322918,
                1.1975470531133836,
                -0.3195338770051597,
                -0.8391315306523317
            ]
        },
        {
            "positions": [
                -0.1507013201862216,
                -1.3280415955915392,
                0.7835659619188471,
                1.2745136251832139,
                -0.29032601522806567,
                -0.7700435181174855
            ]
        },
        {
            "positions": [
                -0.15002887486898028,
                -1.2730444150084113,
                0.9309411965054024,
                1.3514801972530444,
                -0.2611181534509716,
                -0.7009555055826393
            ]
        },
        {
            "positions": [
                -0.149356429551739,
                -1.2180472344252835,
                1.0783164310919577,
                1.4284467693228746,
                -0.23191029167387756,
                -0.6318674930477932
            ]
        },
        {
            "positions": [
                -0.1486839842344977,
                -1.1630500538421555,
                1.225691665678513,
                1.505413341392705,
                -0.2027024298967835,
                -0.5627794805129469
            ]
        },
        {
            "positions": [
                -0.14801153891725638,
                -1.1080528732590278,
                1.3730669002650684,
                1.5823799134625354,
                -0.17349456811968944,
                -0.49369146797810076
            ]
        },
        {
            "positions": [
                -0.14733909360001507,
                -1.0530556926758998,
                1.5204421348516237,
                1.6593464855323656,
                -0.14428670634259538,
                -0.42460345544325456
            ]
        },
        {
            "positions": [
                -0.0884388019789516,
                -0.9926665330207105,
                1.6229698301380666,
                1.7136573903395056,
                -0.14064961480090493,
                -0.3282941122983951
            ]
        },
        {
            "positions": [
                -0.029538510357888126,
                -0.9322773733655213,
                1.7254975254245097,
                1.7679682951466458,
                -0.13701252325921448,
                -0.2319847691535357
            ]
        },
        {
            "positions": [
                0.029361781263175346,
                -0.8718882137103321,
                1.8280252207109529,
                1.822279199953786,
                -0.133375431717524,
                -0.13567542600867627
            ]
        },
        {
            "positions": [
                0.08826207288423882,
                -0.8114990540551428,
                1.9305529159973958,
                1.876590104760926,
                -0.12973834017583355,
                -0.03936608286381683
            ]
        },
        {
            "positions": [
                0.12274600721183791,
                -0.7773012802159123,
                1.9915008751264487,
                1.91195079687458,
                -0.1293491822819382,
                0.005717355625581829
            ]
        }
    ]
}