{
    "goal": {
        "global_pose": {
            "orientation": {
                "w": 0.005598929693374612,
                "x": 0.007748599140229565,
                "y": 0.7110244013736278,
                "z": -0.7031023480610252
            },
            "position": {
                "x": -0.8858502320852131,
                "y": -0.7141253447532654,
                "z": 0.3711530566215515
            }
        },
        "name": "move_to_auspresseinheit_C"
    },
    "id": "KPIECE_move_to_auspresseinheit_C_44",
    "joint_names": [
        "shoulder_pan_joint",
        "shoulder_lift_joint",
        "elbow_joint",
        "wrist_1_joint",
        "wrist_2_joint",
        "wrist_3_joint"
    ],
    "metrics": {
        "cart_traj_len": 0.49330696639232724,
        "distance_elbow_joint": 1.0136821490505281,
        "distance_shoulder_lift_joint": 0.3313824226880343,
        "distance_shoulder_pan_joint": 0.25556481616281834,
        "distance_wrist_1_joint": 0.7074544911019229,
        "distance_wrist_2_joint": 1.31009728006107,
        "distance_wrist_3_joint": 0.08014010493777723,
        "smoothness": 1.6148698667872622e-16,
        "time": 2.782614246,
        "traj_len": 1.9231019900156494,
        "weighted_distance": 2.4240778133221506
    },
    "planner": "KPIECE",
    "start": {
        "state": {
            "elbow_joint": 1.7527959577737207,
            "shoulder_lift_joint": -0.9740617694225068,
            "shoulder_pan_joint": -2.967991417825858,
            "wrist_1_joint": -0.759517768980727,
            "wrist_2_joint": 1.7443932448377408,
            "wrist_3_joint": -3.0840537646736568
        }
    },
    "waypoints": [
        {
            "positions": [
                -2.967991417825858,
                -0.9740617694225068,
                1.7527959577737207,
                -0.759517768980727,
                1.7443932448377408,
                -3.0840537646736568
            ]
        },
        {
            "positions": [
                -2.942434936209576,
                -0.9409235271537033,
                1.651427742868668,
                -0.6887723198705347,
                1.6133835168316337,
                -3.0920677751674344
            ]
        },
        {
            "positions": [
                -2.916878454593294,
                -0.9077852848849,
                1.5500595279636151,
                -0.6180268707603424,
                1.4823737888255268,
                -3.1000817856612124
            ]
        },
        {
            "positions": [
                -2.8913219729770123,
                -0.8746470426160965,
                1.4486913130585624,
                -0.5472814216501501,
                1.35136406081942,
                -3.10809579615499
            ]
        },
        {
            "positions": [
                -2.8657654913607304,
                -0.841508800347293,
                1.3473230981535094,
                -0.4765359725399578,
                1.2203543328133128,
                -3.1161098066487676
            ]
        },
        {
            "positions": [
                -2.8402090097444486,
                -0.8083705580784897,
                1.2459548832484566,
                -0.4057905234297655,
                1.0893446048072057,
                -3.1241238171425456
            ]
        },
        {
            "positions": [
                -2.814652528128167,
                -0.7752323158096862,
                1.1445866683434038,
                -0.33504507431957326,
                0.9583348768010989,
                -3.132137827636323
            ]
        },
        {
            "positions": [
                -2.7890960465118853,
                -0.7420940735408827,
                1.043218453438351,
                -0.26429962520938094,
                0.827325148794992,
                -3.140151838130101
            ]
        },
        {
            "positions": [
                -2.7635395648956034,
                -0.7089558312720794,
                0.9418502385332981,
                -0.19355417609918857,
                0.6963154207888849,
                -3.1481658486238784
            ]
        },
        {
            "positions": [
                -2.7379830832793215,
                -0.6758175890032758,
                0.8404820236282453,
                -0.12280872698899636,
                0.5653056927827778,
                -3.1561798591176564
            ]
        },
        {
            "positions": [
                -2.7124266016630396,
                -0.6426793467344725,
                0.7391138087231927,
                -0.05206327787880407,
                0.4342959647766709,
                -3.164193869611434
            ]
        }
    ]
}