{
    "goal": {
        "global_pose": {
            "orientation": {
                "w": 0.7031023502349854,
                "x": -0.7110244035720825,
                "y": 0.007748599164187908,
                "z": 0.005598929710686207
            },
            "position": {
                "x": 0.11585023208521307,
                "y": 0.44412534475326537,
                "z": 0.3711530566215515
            }
        },
        "name": "move_to_auspresseinheit_A"
    },
    "id": "KPIECE_move_to_auspresseinheit_A_46",
    "joint_names": [
        "shoulder_pan_joint",
        "shoulder_lift_joint",
        "elbow_joint",
        "wrist_1_joint",
        "wrist_2_joint",
        "wrist_3_joint"
    ],
    "metrics": {
        "cart_traj_len": 1.3278415614437502,
        "distance_elbow_joint": 0.6460382969681069,
        "distance_shoulder_lift_joint": 1.2144283112595795,
        "distance_shoulder_pan_joint": 1.6895138890090493,
        "distance_wrist_1_joint": 1.40067710862385,
        "distance_wrist_2_joint": 0.5702335404030668,
        "distance_wrist_3_joint": 5.713630158953432,
        "smoothness": 0.6901262832027201,
        "time": 0.785549695,
        "traj_len": 3.351793744432536,
        "weighted_distance": 4.963133311946281
    },
    "planner": "KPIECE",
    "start": {
        "state": {
            "elbow_joint": 2.4225746658250005,
            "shoulder_lift_joint": -1.3736534386056498,
            "shoulder_pan_joint": -0.3378633547517467,
            "wrist_1_joint": -1.0288598680537169,
            "wrist_2_joint": 1.233022673432363,
            "wrist_3_joint": -3.0940220416140027
        }
    },
    "waypoints": [
        {
            "positions": [
                -0.3378633547517467,
                -1.3736534386056498,
                2.4225746658250005,
                -1.0288598680537169,
                1.233022673432363,
                -3.0940220416140027
            ]
        },
        {
            "positions": [
                -0.3127152748105798,
                -1.3858581399783592,
                2.323068540725234,
                -1.0028228014134557,
                1.2110791023418503,
                -2.883007850222898
            ]
        },
        {
            "positions": [
                -0.2480462329337586,
                -1.440278371131292,
                2.306004301861713,
                -0.9441022732448595,
                1.2130631206491493,
                -2.6957021812136213
            ]
        },
        {
            "positions": [
                -0.18337719105693742,
                -1.4946986022842248,
                2.288940062998192,
                -0.8853817450762634,
                1.2150471389564483,
                -2.508396512204345
            ]
        },
        {
            "positions": [
                -0.11870814918011621,
                -1.5491188334371577,
                2.2718758241346713,
                -0.8266612169076673,
                1.2170311572637473,
                -2.3210908431950683
            ]
        },
        {
            "positions": [
                -0.05403910730329503,
                -1.6035390645900907,
                2.2548115852711508,
                -0.7679406887390712,
                1.2190151755710463,
                -2.1337851741857916
            ]
        },
        {
            "positions": [
                0.010629934573526179,
                -1.6579592957430234,
                2.23774734640763,
                -0.7092201605704749,
                1.2209991938783453,
                -1.9464795051765151
            ]
        },
        {
            "positions": [
                0.07529897645034739,
                -1.7123795268959563,
                2.220683107544109,
                -0.6504996324018788,
                1.2229832121856443,
                -1.7591738361672387
            ]
        },
        {
            "positions": [
                0.1399680183271686,
                -1.7667997580488892,
                2.203618868680588,
                -0.5917791042332827,
                1.2249672304929433,
                -1.571868167157962
            ]
        },
        {
            "positions": [
                0.20463706020398975,
                -1.821219989201822,
                2.186554629817067,
                -0.5330585760646865,
                1.2269512488002423,
                -1.3845624981486855
            ]
        },
        {
            "positions": [
                0.26930610208081107,
                -1.8756402203547549,
                2.169490390953546,
                -0.47433804789609035,
                1.2289352671075413,
                -1.1972568291394088
            ]
        },
        {
            "positions": [
                0.33397514395763217,
                -1.9300604515076878,
                2.152426152090025,
                -0.41561751972749417,
                1.2309192854148403,
                -1.0099511601301323
            ]
        },
        {
            "positions": [
                0.3986441858344534,
                -1.9844806826606205,
                2.1353619132265047,
                -0.3568969915588981,
                1.2329033037221393,
                -0.8226454911208556
            ]
        },
        {
            "positions": [
                0.4633132277112746,
                -2.038900913813553,
                2.1182976743629838,
                -0.298176463390302,
                1.2348873220294383,
                -0.6353398221115794
            ]
        },
        {
            "positions": [
                0.5279822695880958,
                -2.0933211449664864,
                2.101233435499463,
                -0.23945593522170572,
                1.2368713403367373,
                -0.44803415310230266
            ]
        },
        {
            "positions": [
                0.592651311464917,
                -2.147741376119419,
                2.084169196635942,
                -0.18073540705310964,
                1.2388553586440363,
                -0.26072848409302607
            ]
        },
        {
            "positions": [
                0.672383877746345,
                -2.1690360728754436,
                2.1130075668254316,
                -0.1520219233119689,
                1.214892975779409,
                -0.4203436283994724
            ]
        },
        {
            "positions": [
                0.752116444027773,
                -2.1903307696314682,
                2.1418459370149217,
                -0.12330843957082818,
                1.1909305929147815,
                -0.5799587727059188
            ]
        },
        {
            "positions": [
                0.8204624269473317,
                -2.204741023814829,
                2.169618775571095,
                -0.10295536252855614,
                1.1665989004812105,
                -0.7494472714640166
            ]
        },
        {
            "positions": [
                0.8888084098668906,
                -2.21915127799819,
                2.1973916141272687,
                -0.08260228548628408,
                1.1422672080476397,
                -0.9189357702221144
            ]
        },
        {
            "positions": [
                0.9571543927864494,
                -2.233561532181551,
                2.2251644526834427,
                -0.06224920844401203,
                1.117935515614069,
                -1.0884242689802122
            ]
        },
        {
            "positions": [
                1.0255003757060082,
                -2.247971786364912,
                2.252937291239616,
                -0.04189613140173998,
                1.0936038231804979,
                -1.25791276773831
            ]
        },
        {
            "positions": [
                1.0296243508194307,
                -2.227848558639244,
                2.2739778452027597,
                -0.06581171256125731,
                1.0560372543287722,
                -1.4693499461376551
            ]
        },
        {
            "positions": [
                0.9893710778896967,
                -2.187850216667413,
                2.2887058676042886,
                -0.11453643641280181,
                1.0138253032418842,
                -1.6783143385611332
            ]
        },
        {
            "positions": [
                0.9491178049599628,
                -2.147851874695582,
                2.3034338900058176,
                -0.1632611602643463,
                0.9716133521549961,
                -1.8872787309846113
            ]
        },
        {
            "positions": [
                0.9088645320302288,
                -2.1078535327237504,
                2.318161912407346,
                -0.2119858841158908,
                0.9294014010681082,
                -2.0962431234080894
            ]
        },
        {
            "positions": [
                0.8686112591004949,
                -2.0678551907519194,
                2.332889934808875,
                -0.2607106079674353,
                0.8871894499812201,
                -2.305207515831568
            ]
        },
        {
            "positions": [
                0.8283579861707608,
                -2.0278568487800883,
                2.347617957210404,
                -0.3094353318189798,
                0.8449774988943322,
                -2.5141719082550456
            ]
        },
        {
            "positions": [
                0.7881047132410268,
                -1.987858506808257,
                2.3623459796119324,
                -0.35816005567052434,
                0.8027655478074441,
                -2.723136300678524
            ]
        },
        {
            "positions": [
                0.7478514403112928,
                -1.9478601648364258,
                2.3770740020134613,
                -0.4068847795220688,
                0.7605535967205561,
                -2.932100693102002
            ]
        },
        {
            "positions": [
                0.7075981673815589,
                -1.9078618228645947,
                2.3918020244149902,
                -0.45560950337361333,
                0.7183416456336681,
                -3.1410650855254802
            ]
        }
    ]
}