{
    "goal": {
        "global_pose": {
            "orientation": {
                "w": -0.00223480608172531,
                "x": 0.0024358444001904467,
                "y": 0.7094548369677653,
                "z": -0.704743149386269
            },
            "position": {
                "x": 0.6205249238014221,
                "y": -0.6371506643295288,
                "z": 0.19426114857196808
            }
        },
        "name": "move_to_magneteinheit_B"
    },
    "id": "KPIECE_move_to_magneteinheit_B_114",
    "joint_names": [
        "shoulder_pan_joint",
        "shoulder_lift_joint",
        "elbow_joint",
        "wrist_1_joint",
        "wrist_2_joint",
        "wrist_3_joint"
    ],
    "metrics": {
        "cart_traj_len": 4.143408060997913,
        "distance_elbow_joint": 4.560802299252428,
        "distance_shoulder_lift_joint": 0.884636185707214,
        "distance_shoulder_pan_joint": 3.6329267033477937,
        "distance_wrist_1_joint": 4.407588288395624,
        "distance_wrist_2_joint": 3.5471044095821354,
        "distance_wrist_3_joint": 4.141611324580854,
        "smoothness": 0.46242788057276385,
        "time": 4.440696278,
        "traj_len": 4.601594203193719,
        "weighted_distance": 6.116582751668247
    },
    "planner": "KPIECE",
    "start": {
        "state": {
            "elbow_joint": 2.6216224122426386,
            "shoulder_lift_joint": -1.4174107377796124,
            "shoulder_pan_joint": 0.7066234856936794,
            "wrist_1_joint": 1.9546482284002225,
            "wrist_2_joint": -0.7096286983471962,
            "wrist_3_joint": 0.005740856962016249
        }
    },
    "waypoints": [
        {
            "positions": [
                0.7066234856936794,
                -1.4174107377796124,
                2.6216224122426386,
                1.9546482284002225,
                -0.7096286983471962,
                0.005740856962016249
            ]
        },
        {
            "positions": [
                0.6677442213971274,
                -1.465558970200325,
                2.6301573217051124,
                1.8811485602484646,
                -0.6974571905653216,
                0.17907928376140111
            ]
        },
        {
            "positions": [
                0.6288649571005753,
                -1.5137072026210379,
                2.6386922311675867,
                1.8076488920967064,
                -0.6852856827834469,
                0.35241771056078597
            ]
        },
        {
            "positions": [
                0.5899856928040234,
                -1.5618554350417506,
                2.6472271406300605,
                1.7341492239449485,
                -0.6731141750015723,
                0.5257561373601708
            ]
        },
        {
            "positions": [
                0.5291219163511521,
                -1.574901408661301,
                2.562161367618753,
                1.5840072248611898,
                -0.6465290840444216,
                0.4830648227307889
            ]
        },
        {
            "positions": [
                0.4682581398982809,
                -1.587947382280851,
                2.4770955946074453,
                1.4338652257774314,
                -0.6199439930872709,
                0.44037350810140696
            ]
        },
        {
            "positions": [
                0.4073943634454097,
                -1.6009933559004013,
                2.392029821596138,
                1.283723226693673,
                -0.5933589021301201,
                0.39768219347202505
            ]
        },
        {
            "positions": [
                0.3465305869925384,
                -1.6140393295199515,
                2.3069640485848306,
                1.133581227609914,
                -0.5667738111729693,
                0.35499087884264313
            ]
        },
        {
            "positions": [
                0.2856668105396672,
                -1.6270853031395016,
                2.221898275573523,
                0.9834392285261556,
                -0.5401887202158187,
                0.3122995642132612
            ]
        },
        {
            "positions": [
                0.22480303408679597,
                -1.640131276759052,
                2.1368325025622155,
                0.833297229442397,
                -0.5136036292586679,
                0.26960824958387936
            ]
        },
        {
            "positions": [
                0.16393925763392475,
                -1.653177250378602,
                2.051766729550908,
                0.6831552303586383,
                -0.4870185383015171,
                0.22691693495449744
            ]
        },
        {
            "positions": [
                0.10307548118105347,
                -1.6662232239981523,
                1.9667009565396005,
                0.5330132312748797,
                -0.4604334473443663,
                0.18422562032511552
            ]
        },
        {
            "positions": [
                0.04221170472818225,
                -1.6792691976177025,
                1.881635183528293,
                0.3828712321911212,
                -0.43384835638721553,
                0.14153430569573355
            ]
        },
        {
            "positions": [
                -0.018652071724688968,
                -1.6923151712372526,
                1.7965694105169856,
                0.2327292331073627,
                -0.40726326543006486,
                0.0988429910663517
            ]
        },
        {
            "positions": [
                -0.07951584817756019,
                -1.705361144856803,
                1.711503637505678,
                0.08258723402360402,
                -0.3806781744729141,
                0.05615167643696976
            ]
        },
        {
            "positions": [
                0.003011987861993609,
                -1.7031593233085773,
                1.6044688307005772,
                0.0320798775669753,
                -0.32043045552640925,
                0.134875953381569
            ]
        },
        {
            "positions": [
                0.08553982390154741,
                -1.700957501760352,
                1.4974340238954762,
                -0.018427478889653418,
                -0.2601827365799045,
                0.21360023032616823
            ]
        },
        {
            "positions": [
                0.1680676599411012,
                -1.6987556802121264,
                1.3903992170903754,
                -0.06893483534628214,
                -0.19993501763339966,
                0.2923245072707675
            ]
        },
        {
            "positions": [
                0.250595495980655,
                -1.6965538586639008,
                1.2833644102852744,
                -0.11944219180291085,
                -0.13968729868689486,
                0.37104878421536674
            ]
        },
        {
            "positions": [
                0.3331233320202088,
                -1.6943520371156755,
                1.1763296034801736,
                -0.16994954825953956,
                -0.07943957974039006,
                0.44977306115996596
            ]
        },
        {
            "positions": [
                0.4156511680597626,
                -1.69215021556745,
                1.0692947966750728,
                -0.2204569047161683,
                -0.01919186079388524,
                0.5284973381045652
            ]
        },
        {
            "positions": [
                0.49817900409931637,
                -1.6899483940192244,
                0.9622599898699719,
                -0.2709642611727969,
                0.04105585815261947,
                0.6072216150491644
            ]
        },
        {
            "positions": [
                0.5807068401388702,
                -1.687746572470999,
                0.8552251830648708,
                -0.3214716176294257,
                0.10130357709912435,
                0.6859458919937637
            ]
        },
        {
            "positions": [
                0.6632346761784239,
                -1.6855447509227734,
                0.74819037625977,
                -0.3719789740860544,
                0.16155129604562912,
                0.7646701689383628
            ]
        },
        {
            "positions": [
                0.7457625122179777,
                -1.6833429293745479,
                0.6411555694546691,
                -0.42248633054268314,
                0.22179901499213395,
                0.8433944458829621
            ]
        },
        {
            "positions": [
                0.8282903482575316,
                -1.6811411078263225,
                0.5341207626495683,
                -0.47299368699931177,
                0.28204673393863866,
                0.9221187228275614
            ]
        },
        {
            "positions": [
                0.9108181842970854,
                -1.678939286278097,
                0.4270859558444673,
                -0.5235010434559406,
                0.3422944528851436,
                1.0008429997721606
            ]
        },
        {
            "positions": [
                0.9933460203366391,
                -1.6767374647298716,
                0.3200511490393665,
                -0.5740083999125692,
                0.4025421718316483,
                1.07956727671676
            ]
        },
        {
            "positions": [
                1.075873856376193,
                -1.674535643181646,
                0.2130163422342657,
                -0.6245157563691979,
                0.462789890778153,
                1.1582915536613592
            ]
        },
        {
            "positions": [
                1.1584016924157465,
                -1.6723338216334205,
                0.10598153542916489,
                -0.6750231128258266,
                0.5230376097246578,
                1.2370158306059582
            ]
        },
        {
            "positions": [
                1.2409295284553006,
                -1.6701320000851951,
                -0.0010532713759363599,
                -0.7255304692824555,
                0.5832853286711628,
                1.3157401075505577
            ]
        },
        {
            "positions": [
                1.3234573644948542,
                -1.6679301785369696,
                -0.10808807818103716,
                -0.7760378257390841,
                0.6435330476176676,
                1.3944643844951568
            ]
        },
        {
            "positions": [
                1.405985200534408,
                -1.665728356988744,
                -0.21512288498613796,
                -0.8265451821957128,
                0.7037807665641723,
                1.473188661439756
            ]
        },
        {
            "positions": [
                1.4885130365739618,
                -1.6635265354405186,
                -0.32215769179123876,
                -0.8770525386523415,
                0.764028485510677,
                1.5519129383843553
            ]
        },
        {
            "positions": [
                1.5710408726135157,
                -1.661324713892293,
                -0.4291924985963398,
                -0.9275598951089703,
                0.824276204457182,
                1.6306372153289546
            ]
        },
        {
            "positions": [
                1.6535687086530695,
                -1.6591228923440675,
                -0.5362273054014408,
                -0.978067251565599,
                0.8845239234036867,
                1.7093614922735538
            ]
        },
        {
            "positions": [
                1.7360965446926233,
                -1.6569210707958422,
                -0.6432621122065414,
                -1.0285746080222276,
                0.9447716423501914,
                1.788085769218153
            ]
        },
        {
            "positions": [
                1.818624380732177,
                -1.6547192492476166,
                -0.7502969190116424,
                -1.0790819644788563,
                1.0050193612966964,
                1.8668100461627521
            ]
        },
        {
            "positions": [
                1.901152216771731,
                -1.652517427699391,
                -0.8573317258167434,
                -1.1295893209354853,
                1.0652670802432014,
                1.9455343231073516
            ]
        },
        {
            "positions": [
                1.9836800528112846,
                -1.6503156061511657,
                -0.964366532621844,
                -1.1800966773921138,
                1.1255147991897059,
                2.0242586000519505
            ]
        },
        {
            "positions": [
                2.0662078888508386,
                -1.6481137846029401,
                -1.0714013394269453,
                -1.2306040338487425,
                1.1857625181362106,
                2.10298287699655
            ]
        },
        {
            "positions": [
                2.1137468427340766,
                -1.678665485038322,
                -1.1238568898298797,
                -1.3076015749997754,
                1.0874948339094748,
                2.1804415931581294
            ]
        },
        {
            "positions": [
                2.1612857966173147,
                -1.7092171854737037,
                -1.1763124402328142,
                -1.384599116150808,
                0.989227149682739,
                2.2579003093197088
            ]
        },
        {
            "positions": [
                2.2088247505005523,
                -1.7397688859090856,
                -1.2287679906357487,
                -1.4615966573018409,
                0.890959465456003,
                2.335359025481288
            ]
        },
        {
            "positions": [
                2.2563637043837903,
                -1.7703205863444673,
                -1.2812235410386832,
                -1.5385941984528735,
                0.7926917812292672,
                2.4128177416428676
            ]
        },
        {
            "positions": [
                2.3039026582670283,
                -1.8008722867798492,
                -1.3336790914416177,
                -1.6155917396039063,
                0.6944240970025313,
                2.490276457804447
            ]
        },
        {
            "positions": [
                2.3514416121502664,
                -1.831423987215231,
                -1.3861346418445522,
                -1.6925892807549392,
                0.5961564127757955,
                2.5677351739660264
            ]
        },
        {
            "positions": [
                2.3989805660335044,
                -1.8619756876506128,
                -1.4385901922474866,
                -1.769586821905972,
                0.4978887285490595,
                2.6451938901276058
            ]
        },
        {
            "positions": [
                2.4465195199167424,
                -1.8925273880859947,
                -1.4910457426504211,
                -1.8465843630570047,
                0.3996210443223238,
                2.722652606289185
            ]
        },
        {
            "positions": [
                2.4940584737999805,
                -1.9230790885213764,
                -1.5435012930533556,
                -1.9235819042080375,
                0.3013533600955879,
                2.8001113224507646
            ]
        },
        {
            "positions": [
                2.541597427683218,
                -1.9536307889567583,
                -1.59595684345629,
                -2.0005794453590706,
                0.20308567586885196,
                2.877570038612344
            ]
        },
        {
            "positions": [
                2.589136381566456,
                -1.98418248939214,
                -1.6484123938592246,
                -2.077576986510103,
                0.10481799164211614,
                2.9550287547739233
            ]
        },
        {
            "positions": [
                2.636675335449694,
                -2.014734189827522,
                -1.700867944262159,
                -2.154574527661136,
                0.006550307415380319,
                3.0324874709355027
            ]
        },
        {
            "positions": [
                2.6625271584397017,
                -2.0417568539156803,
                -1.7234714822948547,
                -2.218346470756289,
                -0.08401939891887862,
                3.079875905544604
            ]
        },
        {
            "positions": [
                2.6883789814297097,
                -2.068779518003838,
                -1.7460750203275501,
                -2.2821184138514425,
                -0.17458910525313756,
                3.1272643401537055
            ]
        },
        {
            "positions": [
                2.714230804419717,
                -2.0958021820919965,
                -1.7686785583602458,
                -2.3458903569465956,
                -0.2651588115873965,
                3.174652774762807
            ]
        },
        {
            "positions": [
                2.687710445980079,
                -2.141677192535549,
                -1.7090326224228944,
                -2.399415208470999,
                -0.36555474327495674,
                3.1579075322959764
            ]
        },
        {
            "positions": [
                2.661190087540441,
                -2.187552202979101,
                -1.649386686485543,
                -2.4529400599954028,
                -0.4659506749625169,
                3.141162289829146
            ]
        }
    ]
}