{
    "goal": {
        "global_pose": {
            "orientation": {
                "w": -0.4816463035849501,
                "x": 0.5182115481033762,
                "y": 0.4908360881923453,
                "z": -0.5084816262002911
            },
            "position": {
                "x": -0.8240239810943604,
                "y": -0.300875300988555,
                "z": 0.16403168439865112
            }
        },
        "name": "move_to_storage_C"
    },
    "id": "KPIECE_move_to_storage_C_6",
    "joint_names": [
        "shoulder_pan_joint",
        "shoulder_lift_joint",
        "elbow_joint",
        "wrist_1_joint",
        "wrist_2_joint",
        "wrist_3_joint"
    ],
    "metrics": {
        "cart_traj_len": 0.5763034801832847,
        "distance_elbow_joint": 0.2581725098637351,
        "distance_shoulder_lift_joint": 0.18968566565125589,
        "distance_shoulder_pan_joint": 0.4942637989377161,
        "distance_wrist_1_joint": 0.07684977484399103,
        "distance_wrist_2_joint": 1.0658990478905368,
        "distance_wrist_3_joint": 0.0662024074716947,
        "smoothness": 0.0,
        "time": 0.012338591000000001,
        "traj_len": 1.4666537439555831,
        "weighted_distance": 1.851006980628881
    },
    "planner": "KPIECE",
    "start": {
        "state": {
            "elbow_joint": 2.010868314990456,
            "shoulder_lift_joint": -1.1634956873337592,
            "shoulder_pan_joint": -2.4736205022346125,
            "wrist_1_joint": -0.8367026794202681,
            "wrist_2_joint": 0.6746043897044499,
            "wrist_3_joint": -3.1496632123970403
        }
    },
    "waypoints": [
        {
            "positions": [
                -2.4736205022346125,
                -1.1634956873337592,
                2.010868314990456,
                -0.8367026794202681,
                0.6746043897044499,
                -3.1496632123970403
            ]
        },
        {
            "positions": [
                -2.5559978020575653,
                -1.1318814097252166,
                1.9678395633465,
                -0.8238943836129362,
                0.8522542310195393,
                -3.1386294778184247
            ]
        },
        {
            "positions": [
                -2.6383751018805177,
                -1.100267132116674,
                1.9248108117025442,
                -0.8110860878056044,
                1.0299040723346289,
                -3.1275957432398087
            ]
        },
        {
            "positions": [
                -2.7207524017034705,
                -1.0686528545081313,
                1.8817820600585882,
                -0.7982777919982726,
                1.2075539136497184,
                -3.1165620086611927
            ]
        },
        {
            "positions": [
                -2.8031297015264234,
                -1.0370385768995887,
                1.8387533084146324,
                -0.7854694961909408,
                1.3852037549648077,
                -3.105528274082577
            ]
        },
        {
            "positions": [
                -2.8855070013493758,
                -1.0054242992910458,
                1.7957245567706765,
                -0.7726612003836089,
                1.5628535962798973,
                -3.0944945395039616
            ]
        },
        {
            "positions": [
                -2.9678843011723286,
                -0.9738100216825033,
                1.7526958051267207,
                -0.7598529045762771,
                1.7405034375949866,
                -3.0834608049253456
            ]
        }
    ]
}