{
    "goal": {
        "global_pose": {
            "orientation": {
                "w": 0.7047431468963623,
                "x": -0.7094548344612122,
                "y": 0.0024358443915843964,
                "z": -0.0022348060738295317
            },
            "position": {
                "x": 0.6094750761985779,
                "y": 0.3671506643295288,
                "z": 0.19426114857196808
            }
        },
        "name": "move_to_magneteinheit_A"
    },
    "id": "KPIECE_move_to_magneteinheit_A_23",
    "joint_names": [
        "shoulder_pan_joint",
        "shoulder_lift_joint",
        "elbow_joint",
        "wrist_1_joint",
        "wrist_2_joint",
        "wrist_3_joint"
    ],
    "metrics": {
        "cart_traj_len": 3.652477930993218,
        "distance_elbow_joint": 3.9117464562086255,
        "distance_shoulder_lift_joint": 0.46696373525688084,
        "distance_shoulder_pan_joint": 3.747501965297211,
        "distance_wrist_1_joint": 3.4692413672875864,
        "distance_wrist_2_joint": 1.4497946243727773,
        "distance_wrist_3_joint": 1.0779202088484652,
        "smoothness": 0.2119280367270063,
        "time": 0.186705842,
        "traj_len": 3.7580804085691866,
        "weighted_distance": 4.6041334436165995
    },
    "planner": "KPIECE",
    "start": {
        "state": {
            "elbow_joint": -1.9196185241190666,
            "shoulder_lift_joint": -1.2443396400964142,
            "shoulder_pan_joint": 2.6996025414629847,
            "wrist_1_joint": -1.5485510000780065,
            "wrist_2_joint": -1.5709468930060704,
            "wrist_3_joint": 0.4420197071253992
        }
    },
    "waypoints": [
        {
            "positions": [
                2.6996025414629847,
                -1.2443396400964142,
                -1.9196185241190666,
                -1.5485510000780065,
                -1.5709468930060704,
                0.4420197071253992
            ]
        },
        {
            "positions": [
                2.586651345880864,
                -1.2334806747900413,
                -1.830344941028447,
                -1.457790137863576,
                -1.5192395303023283,
                0.4151013179909676
            ]
        },
        {
            "positions": [
                2.4737001502987437,
                -1.2226217094836684,
                -1.7410713579378274,
                -1.3670292756491453,
                -1.467532167598586,
                0.38818292885653605
            ]
        },
        {
            "positions": [
                2.360748954716623,
                -1.2117627441772956,
                -1.6517977748472077,
                -1.2762684134347149,
                -1.4158248048948439,
                0.3612645397221045
            ]
        },
        {
            "positions": [
                2.2477977591345026,
                -1.2009037788709227,
                -1.5625241917565882,
                -1.1855075512202844,
                -1.3641174421911015,
                0.3343461505876729
            ]
        },
        {
            "positions": [
                2.134846563552382,
                -1.1900448135645496,
                -1.4732506086659685,
                -1.094746689005854,
                -1.3124100794873594,
                0.3074277614532413
            ]
        },
        {
            "positions": [
                2.0218953679702616,
                -1.1791858482581767,
                -1.3839770255753487,
                -1.0039858267914235,
                -1.2607027167836171,
                0.2805093723188098
            ]
        },
        {
            "positions": [
                1.908944172388141,
                -1.1683268829518039,
                -1.2947034424847292,
                -0.9132249645769928,
                -1.208995354079875,
                0.25359098318437817
            ]
        },
        {
            "positions": [
                1.7959929768060205,
                -1.157467917645431,
                -1.2054298593941097,
                -0.8224641023625623,
                -1.157287991376133,
                0.2266725940499466
            ]
        },
        {
            "positions": [
                1.6830417812238998,
                -1.1466089523390581,
                -1.11615627630349,
                -0.7317032401481316,
                -1.1055806286723906,
                0.19975420491551502
            ]
        },
        {
            "positions": [
                1.5700905856417793,
                -1.1357499870326853,
                -1.0268826932128703,
                -0.6409423779337011,
                -1.0538732659686483,
                0.17283581578108342
            ]
        },
        {
            "positions": [
                1.4571393900596588,
                -1.1248910217263124,
                -0.9376091101222508,
                -0.5501815157192707,
                -1.0021659032649062,
                0.14591742664665192
            ]
        },
        {
            "positions": [
                1.3441881944775382,
                -1.1140320564199395,
                -0.8483355270316311,
                -0.4594206535048402,
                -0.9504585405611641,
                0.11899903751222035
            ]
        },
        {
            "positions": [
                1.2312369988954177,
                -1.1031730911135667,
                -0.7590619439410113,
                -0.3686597912904095,
                -0.8987511778574219,
                0.09208064837778873
            ]
        },
        {
            "positions": [
                1.1182858033132972,
                -1.0923141258071936,
                -0.6697883608503918,
                -0.277898929075979,
                -0.8470438151536797,
                0.06516225924335717
            ]
        },
        {
            "positions": [
                1.0053346077311767,
                -1.0814551605008207,
                -0.5805147777597723,
                -0.18713806686154855,
                -0.7953364524499374,
                0.038243870108925604
            ]
        },
        {
            "positions": [
                0.8923834121490561,
                -1.0705961951944478,
                -0.4912411946691526,
                -0.09637720464711808,
                -0.7436290897461953,
                0.01132548097449404
            ]
        },
        {
            "positions": [
                0.7794322165669356,
                -1.059737229888075,
                -0.4019676115785331,
                -0.005616342432687604,
                -0.6919217270424531,
                -0.015592908159937524
            ]
        },
        {
            "positions": [
                0.6664810209848149,
                -1.048878264581702,
                -0.31269402848791317,
                0.08514451978174331,
                -0.6402143643387108,
                -0.042511297294369144
            ]
        },
        {
            "positions": [
                0.5535298254026944,
                -1.0380192992753292,
                -0.22342044539729367,
                0.17590538199617378,
                -0.5885070016349686,
                -0.06942968642880076
            ]
        },
        {
            "positions": [
                0.44057862982057383,
                -1.0271603339689563,
                -0.13414686230667394,
                0.26666624421060425,
                -0.5367996389312264,
                -0.09634807556323233
            ]
        },
        {
            "positions": [
                0.3276274342384533,
                -1.0163013686625835,
                -0.04487327921605444,
                0.3574271064250347,
                -0.4850922762274843,
                -0.12326646469766389
            ]
        },
        {
            "positions": [
                0.21467623865633279,
                -1.0054424033562106,
                0.04440030387456506,
                0.4481879686394652,
                -0.4333849135237422,
                -0.15018485383209534
            ]
        },
        {
            "positions": [
                0.10172504307421226,
                -0.9945834380498376,
                0.13367388696518478,
                0.5389488308538957,
                -0.3816775508199999,
                -0.1771032429665269
            ]
        },
        {
            "positions": [
                -0.01122615250790826,
                -0.9837244727434648,
                0.2229474700558045,
                0.6297096930683261,
                -0.3299701881162578,
                -0.20402163210095847
            ]
        },
        {
            "positions": [
                -0.12417734809002878,
                -0.9728655074370918,
                0.31222105314642423,
                0.720470555282757,
                -0.27826282541251546,
                -0.23094002123539015
            ]
        },
        {
            "positions": [
                -0.2371285436721493,
                -0.9620065421307189,
                0.40149463623704396,
                0.8112314174971875,
                -0.22655546270877336,
                -0.2578584103698217
            ]
        },
        {
            "positions": [
                -0.35007973925426983,
                -0.951147576824346,
                0.49076821932766324,
                0.901992279711618,
                -0.17484810000503104,
                -0.2847767995042533
            ]
        },
        {
            "positions": [
                -0.46303093483639046,
                -0.9402886115179732,
                0.5800418024182832,
                0.9927531419260485,
                -0.12314073730128894,
                -0.3116951886386848
            ]
        },
        {
            "positions": [
                -0.39804554716996415,
                -0.9221871996648132,
                0.736940261270647,
                1.0958572780686628,
                -0.12291979633817823,
                -0.27567237607375356
            ]
        },
        {
            "positions": [
                -0.33306015950353784,
                -0.9040857878116532,
                0.8938387201230109,
                1.1989614142112772,
                -0.12269885537506753,
                -0.23964956350882233
            ]
        },
        {
            "positions": [
                -0.2680747718371116,
                -0.8859843759584932,
                1.0507371789753748,
                1.3020655503538916,
                -0.12247791441195682,
                -0.20362675094389107
            ]
        },
        {
            "positions": [
                -0.20308938417068528,
                -0.8678829641053333,
                1.2076356378277384,
                1.405169686496506,
                -0.12225697344884612,
                -0.16760393837895984
            ]
        },
        {
            "positions": [
                -0.13810399650425892,
                -0.8497815522521732,
                1.3645340966801025,
                1.5082738226391204,
                -0.12203603248573543,
                -0.13158112581402856
            ]
        },
        {
            "positions": [
                -0.07311860883783267,
                -0.8316801403990133,
                1.5214325555324661,
                1.6113779587817347,
                -0.12181509152262472,
                -0.09555831324909736
            ]
        },
        {
            "positions": [
                -0.008133221171406357,
                -0.8135787285458533,
                1.67833101438483,
                1.714482094924349,
                -0.12159415055951402,
                -0.059535500684166076
            ]
        },
        {
            "positions": [
                0.056852166495019896,
                -0.7954773166926934,
                1.8352294732371939,
                1.8175862310669635,
                -0.12137320959640331,
                -0.023512688119234904
            ]
        },
        {
            "positions": [
                0.12183755416144626,
                -0.7773759048395333,
                1.9921279320895577,
                1.9206903672095779,
                -0.1211522686332926,
                0.012510124445696397
            ]
        }
    ]
}